%!PS-Adobe-3.0 EPSF-3.0
%%BoundingBox: (atend)
%%LanguageLevel: 2
%%Creator: Grace-5.1.21
%%CreationDate: Tue Aug  4 16:32:26 2015
%%DocumentData: Clean8Bit
%%Orientation: Portrait
%%Title: Diff_emass.agr
%%For: pastorea
%%DocumentNeededResources: (atend)
%%EndComments
%%BeginProlog
/m {moveto} def
/l {lineto} def
/s {stroke} def
/n {newpath} def
/c {closepath} def
/RL {rlineto} def
/SLW {setlinewidth} def
/GS {gsave} def
/GR {grestore} def
/SC {setcolor} def
/SGRY {setgray} def
/SRGB {setrgbcolor} def
/SD {setdash} def
/SLC {setlinecap} def
/SLJ {setlinejoin} def
/SCS {setcolorspace} def
/FFSF {findfont setfont} def
/CC {concat} def
/PXL {n m 0 0 RL s} def
/Color0 {1.0000 1.0000 1.0000} def
/Color1 {0.0000 0.0000 0.0000} def
/Color2 {1.0000 0.0000 0.0000} def
/Color3 {0.0000 1.0000 0.0000} def
/Color4 {0.0000 0.0000 1.0000} def
/Color5 {1.0000 1.0000 0.0000} def
/Color6 {0.7373 0.5608 0.5608} def
/Color7 {0.8627 0.8627 0.8627} def
/Color8 {0.5804 0.0000 0.8275} def
/Color9 {0.0000 1.0000 1.0000} def
/Color10 {1.0000 0.0000 1.0000} def
/Color11 {1.0000 0.6471 0.0000} def
/Color12 {0.4471 0.1294 0.7373} def
/Color13 {0.4039 0.0275 0.2824} def
/Color14 {0.2510 0.8784 0.8157} def
/Color15 {0.0000 0.5451 0.0000} def
/Color16 {0.7529 0.7529 0.7529} def
/Color17 {0.5059 0.5059 0.5059} def
/Color18 {0.2588 0.2588 0.2588} def
/PTRN {
 /pat_bits exch def 
 <<
  /PaintType 2
  /PatternType 1 /TilingType 1
  /BBox[0 0 16 16]
  /XStep 16 /YStep 16
  /PaintProc {
   pop
   16 16 true [-1 0 0 -1 16 16] pat_bits imagemask
  }
 >>
 [0.0016 0 0 0.0016 0 0]
 makepattern
} def
/Pattern0 {<0000000000000000000000000000000000000000000000000000000000000000> PTRN} bind def
/Pattern1 {<ffffffffffffffffffffffffffffffffffffffffffffffffffffffffffffffff> PTRN} bind def
/Pattern2 {<eeeeffffbbbbffffeeeeffffbbbbffffeeeeffffbbbbffffeeeeffffbbbbffff> PTRN} bind def
/Pattern3 {<eeeebbbbeeeebbbbeeeebbbbeeeebbbbeeeebbbbeeeebbbbeeeebbbbeeeebbbb> PTRN} bind def
/Pattern4 {<5555aaaa5555aaaa5555aaaa5555aaaa5555aaaa5555aaaa5555aaaa5555aaaa> PTRN} bind def
/Pattern5 {<1111444411114444111144441111444411114444111144441111444411114444> PTRN} bind def
/Pattern6 {<1111000044440000111100004444000011110000444400001111000044440000> PTRN} bind def
/Pattern7 {<1010000000000000010100000000000010100000000000000101000000000000> PTRN} bind def
/Pattern8 {<0000000000000000000000000000000000000000000000000000000000000000> PTRN} bind def
/Pattern9 {<1e1e0f0f8787c3c3e1e1f0f078783c3c1e1e0f0f8787c3c3e1e1f0f078783c3c> PTRN} bind def
/Pattern10 {<7878f0f0e1e1c3c387870f0f1e1e3c3c7878f0f0e1e1c3c387870f0f1e1e3c3c> PTRN} bind def
/Pattern11 {<3333333333333333333333333333333333333333333333333333333333333333> PTRN} bind def
/Pattern12 {<ffffffff00000000ffffffff00000000ffffffff00000000ffffffff00000000> PTRN} bind def
/Pattern13 {<8181424224241818181824244242818181814242242418181818242442428181> PTRN} bind def
/Pattern14 {<8080404020201010080804040202010180804040202010100808040402020101> PTRN} bind def
/Pattern15 {<0101020204040808101020204040808001010202040408081010202040408080> PTRN} bind def
/Pattern16 {<2222222222222222222222222222222222222222222222222222222222222222> PTRN} bind def
/Pattern17 {<0000ffff000000000000ffff000000000000ffff000000000000ffff00000000> PTRN} bind def
/Pattern18 {<2222ffff222222222222ffff222222222222ffff222222222222ffff22222222> PTRN} bind def
/Pattern19 {<ffffffff33333333ffffffff33333333ffffffff33333333ffffffff33333333> PTRN} bind def
/Pattern20 {<0f0f0f0f0f0f0f0ff0f0f0f0f0f0f0f00f0f0f0f0f0f0f0ff0f0f0f0f0f0f0f0> PTRN} bind def
/Pattern21 {<ff00ff00ff00ff00ff00ff00ff00ff0000ff00ff00ff00ff00ff00ff00ff00ff> PTRN} bind def
/Pattern22 {<8001800180018001800180018001ffffffff8001800180018001800180018001> PTRN} bind def
/Pattern23 {<c003c003c003c003c003c003ffffffffffffffffc003c003c003c003c003c003> PTRN} bind def
/Pattern24 {<040404040404ffff404040404040ffff040404040404ffff404040404040ffff> PTRN} bind def
/Pattern25 {<180018001800180018001800ffffffff001800180018001800180018ffffffff> PTRN} bind def
/Pattern26 {<1111b8b87c7c3a3a1111a3a3c7c78b8b1111b8b87c7c3a3a1111a3a3c7c78b8b> PTRN} bind def
/Pattern27 {<101010102828c7c70101010182827c7c101010102828c7c70101010182827c7c> PTRN} bind def
/Pattern28 {<1c1c121211112121c1c12121111112121c1c121211112121c1c1212111111212> PTRN} bind def
/Pattern29 {<3e3e414180808080e3e31414080808083e3e414180808080e3e3141408080808> PTRN} bind def
/Pattern30 {<4848888884848383848488884848383848488888848483838484888848483838> PTRN} bind def
/Pattern31 {<03030404080808080c0c12122121c0c003030404080808080c0c12122121c0c0> PTRN} bind def
/ellipsedict 8 dict def
ellipsedict /mtrx matrix put
/EARC {
 ellipsedict begin
  /endangle exch def
  /startangle exch def
  /yrad exch def
  /xrad exch def
  /y exch def
  /x exch def
  /savematrix mtrx currentmatrix def
  x y translate
  xrad yrad scale
  0 0 1 startangle endangle arc
  savematrix setmatrix
 end
} def
/TL {
  /kcomp exch def
  /linewidth exch def
  /offset exch def
  GS
  0 offset rmoveto
  linewidth SLW
  dup stringwidth exch kcomp add exch RL s
  GR
} def
/KINIT
{
 /kvector exch def
 /kid 0 def
} def
/KPROC
{
 pop pop
 kvector kid get
 0 rmoveto
 /kid 1 kid add def
} def
/DefEncoding [
 /.notdef
 /.notdef
 /.notdef
 /.notdef
 /.notdef
 /.notdef
 /.notdef
 /.notdef
 /.notdef
 /.notdef
 /.notdef
 /.notdef
 /.notdef
 /.notdef
 /.notdef
 /.notdef
 /.notdef
 /.notdef
 /.notdef
 /.notdef
 /.notdef
 /.notdef
 /.notdef
 /.notdef
 /.notdef
 /.notdef
 /.notdef
 /.notdef
 /.notdef
 /.notdef
 /.notdef
 /.notdef
 /space
 /exclam
 /quotedbl
 /numbersign
 /dollar
 /percent
 /ampersand
 /quoteright
 /parenleft
 /parenright
 /asterisk
 /plus
 /comma
 /hyphen
 /period
 /slash
 /zero
 /one
 /two
 /three
 /four
 /five
 /six
 /seven
 /eight
 /nine
 /colon
 /semicolon
 /less
 /equal
 /greater
 /question
 /at
 /A
 /B
 /C
 /D
 /E
 /F
 /G
 /H
 /I
 /J
 /K
 /L
 /M
 /N
 /O
 /P
 /Q
 /R
 /S
 /T
 /U
 /V
 /W
 /X
 /Y
 /Z
 /bracketleft
 /backslash
 /bracketright
 /asciicircum
 /underscore
 /grave
 /a
 /b
 /c
 /d
 /e
 /f
 /g
 /h
 /i
 /j
 /k
 /l
 /m
 /n
 /o
 /p
 /q
 /r
 /s
 /t
 /u
 /v
 /w
 /x
 /y
 /z
 /braceleft
 /bar
 /braceright
 /asciitilde
 /.notdef
 /.notdef
 /.notdef
 /.notdef
 /.notdef
 /.notdef
 /.notdef
 /.notdef
 /.notdef
 /.notdef
 /.notdef
 /.notdef
 /.notdef
 /.notdef
 /.notdef
 /.notdef
 /.notdef
 /.notdef
 /.notdef
 /.notdef
 /.notdef
 /.notdef
 /.notdef
 /.notdef
 /.notdef
 /.notdef
 /.notdef
 /.notdef
 /.notdef
 /.notdef
 /.notdef
 /.notdef
 /.notdef
 /space
 /exclamdown
 /cent
 /sterling
 /currency
 /yen
 /brokenbar
 /section
 /dieresis
 /copyright
 /ordfeminine
 /guillemotleft
 /logicalnot
 /hyphen
 /registered
 /macron
 /degree
 /plusminus
 /twosuperior
 /threesuperior
 /acute
 /mu
 /paragraph
 /periodcentered
 /cedilla
 /onesuperior
 /ordmasculine
 /guillemotright
 /onequarter
 /onehalf
 /threequarters
 /questiondown
 /Agrave
 /Aacute
 /Acircumflex
 /Atilde
 /Adieresis
 /Aring
 /AE
 /Ccedilla
 /Egrave
 /Eacute
 /Ecircumflex
 /Edieresis
 /Igrave
 /Iacute
 /Icircumflex
 /Idieresis
 /Eth
 /Ntilde
 /Ograve
 /Oacute
 /Ocircumflex
 /Otilde
 /Odieresis
 /multiply
 /Oslash
 /Ugrave
 /Uacute
 /Ucircumflex
 /Udieresis
 /Yacute
 /Thorn
 /germandbls
 /agrave
 /aacute
 /acircumflex
 /atilde
 /adieresis
 /aring
 /ae
 /ccedilla
 /egrave
 /eacute
 /ecircumflex
 /edieresis
 /igrave
 /iacute
 /icircumflex
 /idieresis
 /eth
 /ntilde
 /ograve
 /oacute
 /ocircumflex
 /otilde
 /odieresis
 /divide
 /oslash
 /ugrave
 /uacute
 /ucircumflex
 /udieresis
 /yacute
 /thorn
 /ydieresis
] def
%%EndProlog
%%BeginSetup
%%EndSetup
612.00 612.00 scale
n
0.1500 0.2016 0.0100 0.0100 0 360 EARC c
GS
[/DeviceRGB] SCS
Color0 SRGB
fill
GR
[/Pattern /DeviceRGB] SCS
Color1 Pattern8 SC
fill
[/DeviceRGB] SCS
Color1 SC
[] 0 SD
0.0037 SLW
n 0.1500 0.2016 0.0100 0.0100 0 360 EARC s
n
0.2500 0.2192 0.0100 0.0100 0 360 EARC c
GS
Color0 SRGB
fill
GR
[/Pattern /DeviceRGB] SCS
Color1 Pattern8 SC
fill
[/DeviceRGB] SCS
Color1 SC
n 0.2500 0.2192 0.0100 0.0100 0 360 EARC s
n
0.3500 0.2346 0.0100 0.0100 0 360 EARC c
GS
Color0 SRGB
fill
GR
[/Pattern /DeviceRGB] SCS
Color1 Pattern8 SC
fill
[/DeviceRGB] SCS
Color1 SC
n 0.3500 0.2346 0.0100 0.0100 0 360 EARC s
n
0.4500 0.2479 0.0100 0.0100 0 360 EARC c
GS
Color0 SRGB
fill
GR
[/Pattern /DeviceRGB] SCS
Color1 Pattern8 SC
fill
[/DeviceRGB] SCS
Color1 SC
n 0.4500 0.2479 0.0100 0.0100 0 360 EARC s
n
0.5500 0.2590 0.0100 0.0100 0 360 EARC c
GS
Color0 SRGB
fill
GR
[/Pattern /DeviceRGB] SCS
Color1 Pattern8 SC
fill
[/DeviceRGB] SCS
Color1 SC
n 0.5500 0.2590 0.0100 0.0100 0 360 EARC s
n
0.6500 0.2680 0.0100 0.0100 0 360 EARC c
GS
Color0 SRGB
fill
GR
[/Pattern /DeviceRGB] SCS
Color1 Pattern8 SC
fill
[/DeviceRGB] SCS
Color1 SC
n 0.6500 0.2680 0.0100 0.0100 0 360 EARC s
n
0.7500 0.2748 0.0100 0.0100 0 360 EARC c
GS
Color0 SRGB
fill
GR
[/Pattern /DeviceRGB] SCS
Color1 Pattern8 SC
fill
[/DeviceRGB] SCS
Color1 SC
n 0.7500 0.2748 0.0100 0.0100 0 360 EARC s
n
0.8500 0.2795 0.0100 0.0100 0 360 EARC c
GS
Color0 SRGB
fill
GR
[/Pattern /DeviceRGB] SCS
Color1 Pattern8 SC
fill
[/DeviceRGB] SCS
Color1 SC
n 0.8500 0.2795 0.0100 0.0100 0 360 EARC s
n
0.9500 0.2820 0.0100 0.0100 0 360 EARC c
GS
Color0 SRGB
fill
GR
[/Pattern /DeviceRGB] SCS
Color1 Pattern8 SC
fill
[/DeviceRGB] SCS
Color1 SC
n 0.9500 0.2820 0.0100 0.0100 0 360 EARC s
n
1.0500 0.2824 0.0100 0.0100 0 360 EARC c
GS
Color0 SRGB
fill
GR
[/Pattern /DeviceRGB] SCS
Color1 Pattern8 SC
fill
[/DeviceRGB] SCS
Color1 SC
n 1.0500 0.2824 0.0100 0.0100 0 360 EARC s
n
1.1500 0.2806 0.0100 0.0100 0 360 EARC c
GS
Color0 SRGB
fill
GR
[/Pattern /DeviceRGB] SCS
Color1 Pattern8 SC
fill
[/DeviceRGB] SCS
Color1 SC
n 1.1500 0.2806 0.0100 0.0100 0 360 EARC s
0 SLC
0 SLJ
n
0.1500 0.2038 m
0.1600 0.2047 l
0.1700 0.2055 l
0.1800 0.2063 l
0.1900 0.2071 l
0.2000 0.2079 l
0.2100 0.2087 l
0.2200 0.2095 l
0.2300 0.2103 l
0.2400 0.2112 l
0.2500 0.2120 l
0.2600 0.2128 l
0.2700 0.2136 l
0.2800 0.2144 l
0.2900 0.2153 l
0.3000 0.2161 l
0.3100 0.2169 l
0.3200 0.2177 l
0.3300 0.2186 l
0.3400 0.2194 l
0.3500 0.2202 l
0.3600 0.2211 l
0.3700 0.2219 l
0.3800 0.2228 l
0.3900 0.2236 l
0.4000 0.2245 l
0.4100 0.2253 l
0.4200 0.2262 l
0.4300 0.2271 l
0.4400 0.2279 l
0.4500 0.2288 l
0.4600 0.2297 l
0.4700 0.2306 l
0.4800 0.2315 l
0.4900 0.2324 l
0.5000 0.2333 l
0.5100 0.2342 l
0.5200 0.2351 l
0.5300 0.2360 l
0.5400 0.2369 l
0.5500 0.2379 l
0.5600 0.2388 l
0.5700 0.2398 l
0.5800 0.2407 l
0.5900 0.2417 l
0.6000 0.2426 l
0.6100 0.2436 l
0.6200 0.2446 l
0.6300 0.2456 l
0.6400 0.2466 l
0.6500 0.2476 l
0.6600 0.2486 l
0.6700 0.2496 l
0.6800 0.2507 l
0.6900 0.2517 l
0.7000 0.2528 l
0.7100 0.2538 l
0.7200 0.2549 l
0.7300 0.2560 l
0.7400 0.2571 l
0.7500 0.2582 l
0.7600 0.2593 l
0.7700 0.2605 l
0.7800 0.2616 l
0.7900 0.2628 l
0.8000 0.2640 l
0.8100 0.2652 l
0.8200 0.2664 l
0.8300 0.2676 l
0.8400 0.2688 l
0.8500 0.2701 l
0.8600 0.2714 l
0.8700 0.2726 l
0.8800 0.2740 l
0.8900 0.2753 l
0.9000 0.2766 l
0.9100 0.2780 l
0.9200 0.2794 l
0.9300 0.2808 l
0.9400 0.2822 l
0.9500 0.2837 l
0.9600 0.2852 l
0.9700 0.2867 l
0.9800 0.2882 l
0.9900 0.2898 l
1.0000 0.2914 l
1.0100 0.2931 l
1.0200 0.2948 l
1.0300 0.2965 l
1.0400 0.2982 l
1.0500 0.3001 l
1.0600 0.3019 l
1.0700 0.3039 l
1.0800 0.3059 l
1.0900 0.3080 l
1.1000 0.3102 l
1.1100 0.3125 l
1.1200 0.3150 l
1.1300 0.3177 l
1.1400 0.3208 l
1.1500 0.3255 l
s
[/DeviceRGB] SCS
Color3 SC
[0.0187 0.0112 ] 0 SD
0.0037 SLW
n
0.1500 0.2038 m
0.1600 0.2095 l
0.1700 0.2151 l
0.1800 0.2207 l
0.1900 0.2263 l
0.2000 0.2319 l
0.2100 0.2375 l
0.2200 0.2431 l
0.2300 0.2487 l
0.2400 0.2544 l
0.2500 0.2600 l
0.2600 0.2656 l
0.2700 0.2712 l
0.2800 0.2769 l
0.2900 0.2825 l
0.3000 0.2882 l
0.3100 0.2938 l
0.3200 0.2995 l
0.3300 0.3051 l
0.3400 0.3108 l
0.3500 0.3165 l
0.3600 0.3222 l
0.3700 0.3279 l
0.3800 0.3336 l
0.3900 0.3393 l
0.4000 0.3450 l
0.4100 0.3507 l
0.4200 0.3565 l
0.4300 0.3622 l
0.4400 0.3680 l
0.4500 0.3738 l
0.4600 0.3795 l
0.4700 0.3853 l
0.4800 0.3911 l
0.4900 0.3970 l
0.5000 0.4028 l
0.5100 0.4086 l
0.5200 0.4145 l
0.5300 0.4204 l
0.5400 0.4263 l
0.5500 0.4322 l
0.5600 0.4381 l
0.5700 0.4440 l
0.5800 0.4500 l
0.5900 0.4559 l
0.6000 0.4619 l
0.6100 0.4679 l
0.6200 0.4740 l
0.6300 0.4800 l
0.6400 0.4861 l
0.6500 0.4921 l
0.6600 0.4983 l
0.6700 0.5044 l
0.6800 0.5105 l
0.6900 0.5167 l
0.7000 0.5229 l
0.7100 0.5291 l
0.7200 0.5353 l
0.7300 0.5416 l
0.7400 0.5479 l
0.7500 0.5542 l
0.7600 0.5605 l
0.7700 0.5668 l
0.7800 0.5732 l
0.7900 0.5796 l
0.8000 0.5861 l
0.8100 0.5925 l
0.8200 0.5990 l
0.8300 0.6056 l
0.8400 0.6121 l
0.8500 0.6187 l
0.8600 0.6253 l
0.8700 0.6320 l
0.8800 0.6387 l
0.8900 0.6454 l
0.9000 0.6521 l
0.9100 0.6589 l
0.9200 0.6657 l
0.9300 0.6726 l
0.9400 0.6794 l
0.9500 0.6864 l
0.9600 0.6933 l
0.9700 0.7003 l
0.9800 0.7074 l
0.9900 0.7145 l
1.0000 0.7216 l
1.0100 0.7287 l
1.0200 0.7359 l
1.0300 0.7432 l
1.0400 0.7505 l
1.0500 0.7578 l
1.0600 0.7652 l
1.0700 0.7726 l
1.0800 0.7801 l
1.0900 0.7876 l
1.1000 0.7952 l
1.1100 0.8028 l
1.1200 0.8105 l
1.1300 0.8182 l
1.1400 0.8260 l
1.1500 0.8338 l
s
[/DeviceRGB] SCS
Color2 SC
n
0.1500 0.2038 m
0.1600 0.2078 l
0.1700 0.2118 l
0.1800 0.2158 l
0.1900 0.2198 l
0.2000 0.2238 l
0.2100 0.2278 l
0.2200 0.2317 l
0.2300 0.2357 l
0.2400 0.2397 l
0.2500 0.2437 l
0.2600 0.2477 l
0.2700 0.2517 l
0.2800 0.2557 l
0.2900 0.2597 l
0.3000 0.2637 l
0.3100 0.2677 l
0.3200 0.2717 l
0.3300 0.2757 l
0.3400 0.2797 l
0.3500 0.2837 l
0.3600 0.2877 l
0.3700 0.2917 l
0.3800 0.2957 l
0.3900 0.2998 l
0.4000 0.3038 l
0.4100 0.3078 l
0.4200 0.3118 l
0.4300 0.3159 l
0.4400 0.3199 l
0.4500 0.3240 l
0.4600 0.3280 l
0.4700 0.3320 l
0.4800 0.3361 l
0.4900 0.3402 l
0.5000 0.3442 l
0.5100 0.3483 l
0.5200 0.3524 l
0.5300 0.3564 l
0.5400 0.3605 l
0.5500 0.3646 l
0.5600 0.3687 l
0.5700 0.3728 l
0.5800 0.3769 l
0.5900 0.3810 l
0.6000 0.3851 l
0.6100 0.3893 l
0.6200 0.3934 l
0.6300 0.3975 l
0.6400 0.4017 l
0.6500 0.4058 l
0.6600 0.4100 l
0.6700 0.4141 l
0.6800 0.4183 l
0.6900 0.4225 l
0.7000 0.4267 l
0.7100 0.4309 l
0.7200 0.4351 l
0.7300 0.4393 l
0.7400 0.4435 l
0.7500 0.4477 l
0.7600 0.4520 l
0.7700 0.4562 l
0.7800 0.4605 l
0.7900 0.4647 l
0.8000 0.4690 l
0.8100 0.4733 l
0.8200 0.4776 l
0.8300 0.4819 l
0.8400 0.4862 l
0.8500 0.4905 l
0.8600 0.4948 l
0.8700 0.4991 l
0.8800 0.5035 l
0.8900 0.5079 l
0.9000 0.5122 l
0.9100 0.5166 l
0.9200 0.5210 l
0.9300 0.5254 l
0.9400 0.5298 l
0.9500 0.5343 l
0.9600 0.5387 l
0.9700 0.5431 l
0.9800 0.5476 l
0.9900 0.5521 l
1.0000 0.5566 l
1.0100 0.5611 l
1.0200 0.5656 l
1.0300 0.5701 l
1.0400 0.5747 l
1.0500 0.5792 l
1.0600 0.5838 l
1.0700 0.5884 l
1.0800 0.5930 l
1.0900 0.5976 l
1.1000 0.6022 l
1.1100 0.6069 l
1.1200 0.6115 l
1.1300 0.6162 l
1.1400 0.6209 l
1.1500 0.6256 l
s
[/DeviceRGB] SCS
Color15 SC
n
0.1500 0.2038 m
0.1600 0.2059 l
0.1700 0.2080 l
0.1800 0.2100 l
0.1900 0.2121 l
0.2000 0.2141 l
0.2100 0.2162 l
0.2200 0.2182 l
0.2300 0.2203 l
0.2400 0.2223 l
0.2500 0.2244 l
0.2600 0.2265 l
0.2700 0.2285 l
0.2800 0.2306 l
0.2900 0.2326 l
0.3000 0.2347 l
0.3100 0.2367 l
0.3200 0.2388 l
0.3300 0.2409 l
0.3400 0.2429 l
0.3500 0.2450 l
0.3600 0.2470 l
0.3700 0.2491 l
0.3800 0.2512 l
0.3900 0.2532 l
0.4000 0.2553 l
0.4100 0.2573 l
0.4200 0.2594 l
0.4300 0.2615 l
0.4400 0.2635 l
0.4500 0.2656 l
0.4600 0.2676 l
0.4700 0.2697 l
0.4800 0.2718 l
0.4900 0.2738 l
0.5000 0.2759 l
0.5100 0.2780 l
0.5200 0.2800 l
0.5300 0.2821 l
0.5400 0.2842 l
0.5500 0.2862 l
0.5600 0.2883 l
0.5700 0.2904 l
0.5800 0.2925 l
0.5900 0.2945 l
0.6000 0.2966 l
0.6100 0.2987 l
0.6200 0.3008 l
0.6300 0.3028 l
0.6400 0.3049 l
0.6500 0.3070 l
0.6600 0.3091 l
0.6700 0.3111 l
0.6800 0.3132 l
0.6900 0.3153 l
0.7000 0.3174 l
0.7100 0.3195 l
0.7200 0.3216 l
0.7300 0.3236 l
0.7400 0.3257 l
0.7500 0.3278 l
0.7600 0.3299 l
0.7700 0.3320 l
0.7800 0.3341 l
0.7900 0.3362 l
0.8000 0.3383 l
0.8100 0.3404 l
0.8200 0.3425 l
0.8300 0.3446 l
0.8400 0.3467 l
0.8500 0.3488 l
0.8600 0.3509 l
0.8700 0.3530 l
0.8800 0.3551 l
0.8900 0.3572 l
0.9000 0.3593 l
0.9100 0.3614 l
0.9200 0.3635 l
0.9300 0.3656 l
0.9400 0.3677 l
0.9500 0.3698 l
0.9600 0.3720 l
0.9700 0.3741 l
0.9800 0.3762 l
0.9900 0.3783 l
1.0000 0.3804 l
1.0100 0.3826 l
1.0200 0.3847 l
1.0300 0.3868 l
1.0400 0.3889 l
1.0500 0.3911 l
1.0600 0.3932 l
1.0700 0.3953 l
1.0800 0.3975 l
1.0900 0.3996 l
1.1000 0.4017 l
1.1100 0.4039 l
1.1200 0.4060 l
1.1300 0.4082 l
1.1400 0.4103 l
1.1500 0.4125 l
s
[/DeviceRGB] SCS
Color12 SC
n
0.1500 0.2038 m
0.1600 0.2062 l
0.1700 0.2086 l
0.1800 0.2109 l
0.1900 0.2133 l
0.2000 0.2157 l
0.2100 0.2180 l
0.2200 0.2204 l
0.2300 0.2227 l
0.2400 0.2251 l
0.2500 0.2275 l
0.2600 0.2298 l
0.2700 0.2322 l
0.2800 0.2345 l
0.2900 0.2369 l
0.3000 0.2393 l
0.3100 0.2416 l
0.3200 0.2440 l
0.3300 0.2464 l
0.3400 0.2487 l
0.3500 0.2511 l
0.3600 0.2535 l
0.3700 0.2558 l
0.3800 0.2582 l
0.3900 0.2606 l
0.4000 0.2629 l
0.4100 0.2653 l
0.4200 0.2677 l
0.4300 0.2700 l
0.4400 0.2724 l
0.4500 0.2748 l
0.4600 0.2772 l
0.4700 0.2795 l
0.4800 0.2819 l
0.4900 0.2843 l
0.5000 0.2866 l
0.5100 0.2890 l
0.5200 0.2914 l
0.5300 0.2938 l
0.5400 0.2962 l
0.5500 0.2985 l
0.5600 0.3009 l
0.5700 0.3033 l
0.5800 0.3057 l
0.5900 0.3081 l
0.6000 0.3105 l
0.6100 0.3128 l
0.6200 0.3152 l
0.6300 0.3176 l
0.6400 0.3200 l
0.6500 0.3224 l
0.6600 0.3248 l
0.6700 0.3272 l
0.6800 0.3296 l
0.6900 0.3320 l
0.7000 0.3344 l
0.7100 0.3368 l
0.7200 0.3392 l
0.7300 0.3416 l
0.7400 0.3440 l
0.7500 0.3464 l
0.7600 0.3488 l
0.7700 0.3512 l
0.7800 0.3536 l
0.7900 0.3560 l
0.8000 0.3584 l
0.8100 0.3608 l
0.8200 0.3633 l
0.8300 0.3657 l
0.8400 0.3681 l
0.8500 0.3705 l
0.8600 0.3729 l
0.8700 0.3754 l
0.8800 0.3778 l
0.8900 0.3802 l
0.9000 0.3827 l
0.9100 0.3851 l
0.9200 0.3875 l
0.9300 0.3900 l
0.9400 0.3924 l
0.9500 0.3948 l
0.9600 0.3973 l
0.9700 0.3997 l
0.9800 0.4022 l
0.9900 0.4046 l
1.0000 0.4071 l
1.0100 0.4095 l
1.0200 0.4120 l
1.0300 0.4144 l
1.0400 0.4169 l
1.0500 0.4194 l
1.0600 0.4218 l
1.0700 0.4243 l
1.0800 0.4268 l
1.0900 0.4292 l
1.1000 0.4317 l
1.1100 0.4342 l
1.1200 0.4367 l
1.1300 0.4391 l
1.1400 0.4416 l
1.1500 0.4441 l
s
[/DeviceRGB] SCS
Color1 SC
[] 0 SD
0.0045 SLW
n
0.1500 0.1500 m
1.1500 0.1500 l
s
n
0.1500 0.8500 m
1.1500 0.8500 l
s
n
0.2500 0.1500 m
0.2500 0.1600 l
s
n
0.2500 0.8500 m
0.2500 0.8400 l
s
n
0.4500 0.1500 m
0.4500 0.1600 l
s
n
0.4500 0.8500 m
0.4500 0.8400 l
s
n
0.6500 0.1500 m
0.6500 0.1600 l
s
n
0.6500 0.8500 m
0.6500 0.8400 l
s
n
0.8500 0.1500 m
0.8500 0.1600 l
s
n
0.8500 0.8500 m
0.8500 0.8400 l
s
n
1.0500 0.1500 m
1.0500 0.1600 l
s
n
1.0500 0.8500 m
1.0500 0.8400 l
s
n
0.1500 0.1500 m
0.1500 0.1700 l
s
n
0.1500 0.8500 m
0.1500 0.8300 l
s
n
0.3500 0.1500 m
0.3500 0.1700 l
s
n
0.3500 0.8500 m
0.3500 0.8300 l
s
n
0.5500 0.1500 m
0.5500 0.1700 l
s
n
0.5500 0.8500 m
0.5500 0.8300 l
s
n
0.7500 0.1500 m
0.7500 0.1700 l
s
n
0.7500 0.8500 m
0.7500 0.8300 l
s
n
0.9500 0.1500 m
0.9500 0.1700 l
s
n
0.9500 0.8500 m
0.9500 0.8300 l
s
n
1.1500 0.1500 m
1.1500 0.1700 l
s
n
1.1500 0.8500 m
1.1500 0.8300 l
s
/Times-Roman findfont
dup length dict begin
 {1 index /FID ne {def} {pop pop} ifelse} forall
 /Encoding DefEncoding def
 currentdict
end
/Font0 exch definefont pop
/Font0 FFSF
0.1394 0.1094 m
GS
[0.0448 0.0000 0.0000 0.0448 0 0] CC
(0) show
GR
/Font0 FFSF
0.3225 0.1094 m
GS
[0.0448 0.0000 0.0000 0.0448 0 0] CC
(0.2) show
GR
/Font0 FFSF
0.5225 0.1094 m
GS
[0.0448 0.0000 0.0000 0.0448 0 0] CC
(0.4) show
GR
/Font0 FFSF
0.7227 0.1094 m
GS
[0.0448 0.0000 0.0000 0.0448 0 0] CC
(0.6) show
GR
/Font0 FFSF
0.9231 0.1094 m
GS
[0.0448 0.0000 0.0000 0.0448 0 0] CC
(0.8) show
GR
/Font0 FFSF
1.1412 0.1094 m
GS
[0.0448 0.0000 0.0000 0.0448 0 0] CC
(1) show
GR
/Font0 FFSF
0.6324 0.0653 m
GS
[0.0504 0.0000 0.0000 0.0504 0 0] CC
(Y) show
GR
n
0.1500 0.1500 m
0.1500 0.8500 l
s
n
1.1500 0.1500 m
1.1500 0.8500 l
s
n
0.1500 0.1500 m
0.1600 0.1500 l
s
n
1.1500 0.1500 m
1.1400 0.1500 l
s
n
0.1500 0.2577 m
0.1600 0.2577 l
s
n
1.1500 0.2577 m
1.1400 0.2577 l
s
n
0.1500 0.3654 m
0.1600 0.3654 l
s
n
1.1500 0.3654 m
1.1400 0.3654 l
s
n
0.1500 0.4731 m
0.1600 0.4731 l
s
n
1.1500 0.4731 m
1.1400 0.4731 l
s
n
0.1500 0.5808 m
0.1600 0.5808 l
s
n
1.1500 0.5808 m
1.1400 0.5808 l
s
n
0.1500 0.6885 m
0.1600 0.6885 l
s
n
1.1500 0.6885 m
1.1400 0.6885 l
s
n
0.1500 0.7962 m
0.1600 0.7962 l
s
n
1.1500 0.7962 m
1.1400 0.7962 l
s
n
0.1500 0.2038 m
0.1700 0.2038 l
s
n
1.1500 0.2038 m
1.1300 0.2038 l
s
n
0.1500 0.3115 m
0.1700 0.3115 l
s
n
1.1500 0.3115 m
1.1300 0.3115 l
s
n
0.1500 0.4192 m
0.1700 0.4192 l
s
n
1.1500 0.4192 m
1.1300 0.4192 l
s
n
0.1500 0.5269 m
0.1700 0.5269 l
s
n
1.1500 0.5269 m
1.1300 0.5269 l
s
n
0.1500 0.6346 m
0.1700 0.6346 l
s
n
1.1500 0.6346 m
1.1300 0.6346 l
s
n
0.1500 0.7423 m
0.1700 0.7423 l
s
n
1.1500 0.7423 m
1.1300 0.7423 l
s
/Font0 FFSF
0.1188 0.1889 m
GS
[0.0448 0.0000 0.0000 0.0448 0 0] CC
(0) show
GR
/Font0 FFSF
0.0886 0.2966 m
GS
[0.0448 0.0000 0.0000 0.0448 0 0] CC
(0.1) show
GR
/Font0 FFSF
0.0851 0.4043 m
GS
[0.0448 0.0000 0.0000 0.0448 0 0] CC
(0.2) show
GR
/Font0 FFSF
0.0867 0.5120 m
GS
[0.0448 0.0000 0.0000 0.0448 0 0] CC
(0.3) show
GR
/Font0 FFSF
0.0851 0.6197 m
GS
[0.0448 0.0000 0.0000 0.0448 0 0] CC
(0.4) show
GR
/Font0 FFSF
0.0867 0.7272 m
GS
[0.0448 0.0000 0.0000 0.0448 0 0] CC
(0.5) show
GR
/Symbol findfont
/Font12 exch definefont pop
/Font12 FFSF
0.0751 0.4651 m
GS
[0.0000 0.0504 -0.0504 0.0000 0 0] CC
(D) show
GR
/Font0 FFSF
0.0751 0.4961 m
GS
[0.0000 0.0504 -0.0504 0.0000 0 0] CC
(m) show
GR
[] 0 SD
0.0015 SLW
n
0.1500 0.1500 m
0.1500 0.8500 l
1.1500 0.8500 l
1.1500 0.1500 l
0.1500 0.1500 l
c
s
/Font0 FFSF
0.2300 0.7600 m
GS
[0.0848 0.0000 0.0000 0.0848 0 0] CC
(b\)) show
GR
%%Trailer
%%BoundingBox: 23 38 713 523
%%DocumentNeededResources: font Times-Roman
%%+ font Symbol
%%EOF
