%!PS-Adobe-3.0 EPSF-3.0
%%BoundingBox: (atend)
%%LanguageLevel: 2
%%Creator: Grace-5.1.21
%%CreationDate: Tue Aug  4 16:16:39 2015
%%DocumentData: Clean8Bit
%%Orientation: Portrait
%%Title: Diff_EoSPNM.agr
%%For: pastorea
%%DocumentNeededResources: (atend)
%%EndComments
%%BeginProlog
/m {moveto} def
/l {lineto} def
/s {stroke} def
/n {newpath} def
/c {closepath} def
/RL {rlineto} def
/SLW {setlinewidth} def
/GS {gsave} def
/GR {grestore} def
/SC {setcolor} def
/SGRY {setgray} def
/SRGB {setrgbcolor} def
/SD {setdash} def
/SLC {setlinecap} def
/SLJ {setlinejoin} def
/SCS {setcolorspace} def
/FFSF {findfont setfont} def
/CC {concat} def
/PXL {n m 0 0 RL s} def
/Color0 {1.0000 1.0000 1.0000} def
/Color1 {0.0000 0.0000 0.0000} def
/Color2 {1.0000 0.0000 0.0000} def
/Color3 {0.0000 1.0000 0.0000} def
/Color4 {0.0000 0.0000 1.0000} def
/Color5 {1.0000 1.0000 0.0000} def
/Color6 {0.7373 0.5608 0.5608} def
/Color7 {0.8627 0.8627 0.8627} def
/Color8 {0.5804 0.0000 0.8275} def
/Color9 {0.0000 1.0000 1.0000} def
/Color10 {1.0000 0.0000 1.0000} def
/Color11 {1.0000 0.6471 0.0000} def
/Color12 {0.4471 0.1294 0.7373} def
/Color13 {0.4039 0.0275 0.2824} def
/Color14 {0.2510 0.8784 0.8157} def
/Color15 {0.0000 0.5451 0.0000} def
/Color16 {0.7529 0.7529 0.7529} def
/Color17 {0.5059 0.5059 0.5059} def
/Color18 {0.2588 0.2588 0.2588} def
/PTRN {
 /pat_bits exch def 
 <<
  /PaintType 2
  /PatternType 1 /TilingType 1
  /BBox[0 0 16 16]
  /XStep 16 /YStep 16
  /PaintProc {
   pop
   16 16 true [-1 0 0 -1 16 16] pat_bits imagemask
  }
 >>
 [0.0016 0 0 0.0016 0 0]
 makepattern
} def
/Pattern0 {<0000000000000000000000000000000000000000000000000000000000000000> PTRN} bind def
/Pattern1 {<ffffffffffffffffffffffffffffffffffffffffffffffffffffffffffffffff> PTRN} bind def
/Pattern2 {<eeeeffffbbbbffffeeeeffffbbbbffffeeeeffffbbbbffffeeeeffffbbbbffff> PTRN} bind def
/Pattern3 {<eeeebbbbeeeebbbbeeeebbbbeeeebbbbeeeebbbbeeeebbbbeeeebbbbeeeebbbb> PTRN} bind def
/Pattern4 {<5555aaaa5555aaaa5555aaaa5555aaaa5555aaaa5555aaaa5555aaaa5555aaaa> PTRN} bind def
/Pattern5 {<1111444411114444111144441111444411114444111144441111444411114444> PTRN} bind def
/Pattern6 {<1111000044440000111100004444000011110000444400001111000044440000> PTRN} bind def
/Pattern7 {<1010000000000000010100000000000010100000000000000101000000000000> PTRN} bind def
/Pattern8 {<0000000000000000000000000000000000000000000000000000000000000000> PTRN} bind def
/Pattern9 {<1e1e0f0f8787c3c3e1e1f0f078783c3c1e1e0f0f8787c3c3e1e1f0f078783c3c> PTRN} bind def
/Pattern10 {<7878f0f0e1e1c3c387870f0f1e1e3c3c7878f0f0e1e1c3c387870f0f1e1e3c3c> PTRN} bind def
/Pattern11 {<3333333333333333333333333333333333333333333333333333333333333333> PTRN} bind def
/Pattern12 {<ffffffff00000000ffffffff00000000ffffffff00000000ffffffff00000000> PTRN} bind def
/Pattern13 {<8181424224241818181824244242818181814242242418181818242442428181> PTRN} bind def
/Pattern14 {<8080404020201010080804040202010180804040202010100808040402020101> PTRN} bind def
/Pattern15 {<0101020204040808101020204040808001010202040408081010202040408080> PTRN} bind def
/Pattern16 {<2222222222222222222222222222222222222222222222222222222222222222> PTRN} bind def
/Pattern17 {<0000ffff000000000000ffff000000000000ffff000000000000ffff00000000> PTRN} bind def
/Pattern18 {<2222ffff222222222222ffff222222222222ffff222222222222ffff22222222> PTRN} bind def
/Pattern19 {<ffffffff33333333ffffffff33333333ffffffff33333333ffffffff33333333> PTRN} bind def
/Pattern20 {<0f0f0f0f0f0f0f0ff0f0f0f0f0f0f0f00f0f0f0f0f0f0f0ff0f0f0f0f0f0f0f0> PTRN} bind def
/Pattern21 {<ff00ff00ff00ff00ff00ff00ff00ff0000ff00ff00ff00ff00ff00ff00ff00ff> PTRN} bind def
/Pattern22 {<8001800180018001800180018001ffffffff8001800180018001800180018001> PTRN} bind def
/Pattern23 {<c003c003c003c003c003c003ffffffffffffffffc003c003c003c003c003c003> PTRN} bind def
/Pattern24 {<040404040404ffff404040404040ffff040404040404ffff404040404040ffff> PTRN} bind def
/Pattern25 {<180018001800180018001800ffffffff001800180018001800180018ffffffff> PTRN} bind def
/Pattern26 {<1111b8b87c7c3a3a1111a3a3c7c78b8b1111b8b87c7c3a3a1111a3a3c7c78b8b> PTRN} bind def
/Pattern27 {<101010102828c7c70101010182827c7c101010102828c7c70101010182827c7c> PTRN} bind def
/Pattern28 {<1c1c121211112121c1c12121111112121c1c121211112121c1c1212111111212> PTRN} bind def
/Pattern29 {<3e3e414180808080e3e31414080808083e3e414180808080e3e3141408080808> PTRN} bind def
/Pattern30 {<4848888884848383848488884848383848488888848483838484888848483838> PTRN} bind def
/Pattern31 {<03030404080808080c0c12122121c0c003030404080808080c0c12122121c0c0> PTRN} bind def
/ellipsedict 8 dict def
ellipsedict /mtrx matrix put
/EARC {
 ellipsedict begin
  /endangle exch def
  /startangle exch def
  /yrad exch def
  /xrad exch def
  /y exch def
  /x exch def
  /savematrix mtrx currentmatrix def
  x y translate
  xrad yrad scale
  0 0 1 startangle endangle arc
  savematrix setmatrix
 end
} def
/TL {
  /kcomp exch def
  /linewidth exch def
  /offset exch def
  GS
  0 offset rmoveto
  linewidth SLW
  dup stringwidth exch kcomp add exch RL s
  GR
} def
/KINIT
{
 /kvector exch def
 /kid 0 def
} def
/KPROC
{
 pop pop
 kvector kid get
 0 rmoveto
 /kid 1 kid add def
} def
/DefEncoding [
 /.notdef
 /.notdef
 /.notdef
 /.notdef
 /.notdef
 /.notdef
 /.notdef
 /.notdef
 /.notdef
 /.notdef
 /.notdef
 /.notdef
 /.notdef
 /.notdef
 /.notdef
 /.notdef
 /.notdef
 /.notdef
 /.notdef
 /.notdef
 /.notdef
 /.notdef
 /.notdef
 /.notdef
 /.notdef
 /.notdef
 /.notdef
 /.notdef
 /.notdef
 /.notdef
 /.notdef
 /.notdef
 /space
 /exclam
 /quotedbl
 /numbersign
 /dollar
 /percent
 /ampersand
 /quoteright
 /parenleft
 /parenright
 /asterisk
 /plus
 /comma
 /hyphen
 /period
 /slash
 /zero
 /one
 /two
 /three
 /four
 /five
 /six
 /seven
 /eight
 /nine
 /colon
 /semicolon
 /less
 /equal
 /greater
 /question
 /at
 /A
 /B
 /C
 /D
 /E
 /F
 /G
 /H
 /I
 /J
 /K
 /L
 /M
 /N
 /O
 /P
 /Q
 /R
 /S
 /T
 /U
 /V
 /W
 /X
 /Y
 /Z
 /bracketleft
 /backslash
 /bracketright
 /asciicircum
 /underscore
 /grave
 /a
 /b
 /c
 /d
 /e
 /f
 /g
 /h
 /i
 /j
 /k
 /l
 /m
 /n
 /o
 /p
 /q
 /r
 /s
 /t
 /u
 /v
 /w
 /x
 /y
 /z
 /braceleft
 /bar
 /braceright
 /asciitilde
 /.notdef
 /.notdef
 /.notdef
 /.notdef
 /.notdef
 /.notdef
 /.notdef
 /.notdef
 /.notdef
 /.notdef
 /.notdef
 /.notdef
 /.notdef
 /.notdef
 /.notdef
 /.notdef
 /.notdef
 /.notdef
 /.notdef
 /.notdef
 /.notdef
 /.notdef
 /.notdef
 /.notdef
 /.notdef
 /.notdef
 /.notdef
 /.notdef
 /.notdef
 /.notdef
 /.notdef
 /.notdef
 /.notdef
 /space
 /exclamdown
 /cent
 /sterling
 /currency
 /yen
 /brokenbar
 /section
 /dieresis
 /copyright
 /ordfeminine
 /guillemotleft
 /logicalnot
 /hyphen
 /registered
 /macron
 /degree
 /plusminus
 /twosuperior
 /threesuperior
 /acute
 /mu
 /paragraph
 /periodcentered
 /cedilla
 /onesuperior
 /ordmasculine
 /guillemotright
 /onequarter
 /onehalf
 /threequarters
 /questiondown
 /Agrave
 /Aacute
 /Acircumflex
 /Atilde
 /Adieresis
 /Aring
 /AE
 /Ccedilla
 /Egrave
 /Eacute
 /Ecircumflex
 /Edieresis
 /Igrave
 /Iacute
 /Icircumflex
 /Idieresis
 /Eth
 /Ntilde
 /Ograve
 /Oacute
 /Ocircumflex
 /Otilde
 /Odieresis
 /multiply
 /Oslash
 /Ugrave
 /Uacute
 /Ucircumflex
 /Udieresis
 /Yacute
 /Thorn
 /germandbls
 /agrave
 /aacute
 /acircumflex
 /atilde
 /adieresis
 /aring
 /ae
 /ccedilla
 /egrave
 /eacute
 /ecircumflex
 /edieresis
 /igrave
 /iacute
 /icircumflex
 /idieresis
 /eth
 /ntilde
 /ograve
 /oacute
 /ocircumflex
 /otilde
 /odieresis
 /divide
 /oslash
 /ugrave
 /uacute
 /ucircumflex
 /udieresis
 /yacute
 /thorn
 /ydieresis
] def
%%EndProlog
%%BeginSetup
%%EndSetup
612.00 612.00 scale
n
0.1650 0.1769 0.0100 0.0100 0 360 EARC c
GS
[/DeviceRGB] SCS
Color0 SRGB
fill
GR
[/Pattern /DeviceRGB] SCS
Color1 Pattern8 SC
fill
[/DeviceRGB] SCS
Color1 SC
[] 0 SD
0.0037 SLW
n 0.1650 0.1769 0.0100 0.0100 0 360 EARC s
n
0.2636 0.2146 0.0100 0.0100 0 360 EARC c
GS
Color0 SRGB
fill
GR
[/Pattern /DeviceRGB] SCS
Color1 Pattern8 SC
fill
[/DeviceRGB] SCS
Color1 SC
n 0.2636 0.2146 0.0100 0.0100 0 360 EARC s
n
0.3319 0.2469 0.0100 0.0100 0 360 EARC c
GS
Color0 SRGB
fill
GR
[/Pattern /DeviceRGB] SCS
Color1 Pattern8 SC
fill
[/DeviceRGB] SCS
Color1 SC
n 0.3319 0.2469 0.0100 0.0100 0 360 EARC s
n
0.3849 0.2775 0.0100 0.0100 0 360 EARC c
GS
Color0 SRGB
fill
GR
[/Pattern /DeviceRGB] SCS
Color1 Pattern8 SC
fill
[/DeviceRGB] SCS
Color1 SC
n 0.3849 0.2775 0.0100 0.0100 0 360 EARC s
n
0.4531 0.3098 0.0100 0.0100 0 360 EARC c
GS
Color0 SRGB
fill
GR
[/Pattern /DeviceRGB] SCS
Color1 Pattern8 SC
fill
[/DeviceRGB] SCS
Color1 SC
n 0.4531 0.3098 0.0100 0.0100 0 360 EARC s
n
0.5442 0.3457 0.0100 0.0100 0 360 EARC c
GS
Color0 SRGB
fill
GR
[/Pattern /DeviceRGB] SCS
Color1 Pattern8 SC
fill
[/DeviceRGB] SCS
Color1 SC
n 0.5442 0.3457 0.0100 0.0100 0 360 EARC s
n
0.6200 0.3817 0.0100 0.0100 0 360 EARC c
GS
Color0 SRGB
fill
GR
[/Pattern /DeviceRGB] SCS
Color1 Pattern8 SC
fill
[/DeviceRGB] SCS
Color1 SC
n 0.6200 0.3817 0.0100 0.0100 0 360 EARC s
n
0.7187 0.4230 0.0100 0.0100 0 360 EARC c
GS
Color0 SRGB
fill
GR
[/Pattern /DeviceRGB] SCS
Color1 Pattern8 SC
fill
[/DeviceRGB] SCS
Color1 SC
n 0.7187 0.4230 0.0100 0.0100 0 360 EARC s
n
0.8173 0.4625 0.0100 0.0100 0 360 EARC c
GS
Color0 SRGB
fill
GR
[/Pattern /DeviceRGB] SCS
Color1 Pattern8 SC
fill
[/DeviceRGB] SCS
Color1 SC
n 0.8173 0.4625 0.0100 0.0100 0 360 EARC s
n
0.9084 0.5003 0.0100 0.0100 0 360 EARC c
GS
Color0 SRGB
fill
GR
[/Pattern /DeviceRGB] SCS
Color1 Pattern8 SC
fill
[/DeviceRGB] SCS
Color1 SC
n 0.9084 0.5003 0.0100 0.0100 0 360 EARC s
n
1.0146 0.5452 0.0100 0.0100 0 360 EARC c
GS
Color0 SRGB
fill
GR
[/Pattern /DeviceRGB] SCS
Color1 Pattern8 SC
fill
[/DeviceRGB] SCS
Color1 SC
n 1.0146 0.5452 0.0100 0.0100 0 360 EARC s
n
1.1360 0.5991 0.0100 0.0100 0 360 EARC c
GS
Color0 SRGB
fill
GR
[/Pattern /DeviceRGB] SCS
Color1 Pattern8 SC
fill
[/DeviceRGB] SCS
Color1 SC
n 1.1360 0.5991 0.0100 0.0100 0 360 EARC s
[] 0 SD
0.0045 SLW
0 SLC
0 SLJ
n
0.1525 0.1549 m
0.1550 0.1582 l
0.1575 0.1612 l
0.1600 0.1639 l
0.1625 0.1665 l
0.1650 0.1690 l
0.1675 0.1714 l
0.1700 0.1736 l
0.1725 0.1759 l
0.1750 0.1780 l
0.1775 0.1801 l
0.1800 0.1822 l
0.1825 0.1842 l
0.1850 0.1862 l
0.1875 0.1881 l
0.1900 0.1900 l
0.1925 0.1919 l
0.1950 0.1938 l
0.1975 0.1956 l
0.2000 0.1974 l
0.2025 0.1991 l
0.2050 0.2009 l
0.2075 0.2026 l
0.2100 0.2043 l
0.2125 0.2060 l
0.2150 0.2077 l
0.2175 0.2093 l
0.2200 0.2109 l
0.2225 0.2126 l
0.2250 0.2141 l
0.2275 0.2157 l
0.2300 0.2173 l
0.2325 0.2189 l
0.2350 0.2204 l
0.2375 0.2219 l
0.2400 0.2234 l
0.2425 0.2249 l
0.2450 0.2264 l
0.2475 0.2279 l
0.2500 0.2294 l
0.2525 0.2308 l
0.2550 0.2323 l
0.2575 0.2337 l
0.2600 0.2351 l
0.2625 0.2365 l
0.2650 0.2379 l
0.2675 0.2393 l
0.2700 0.2407 l
0.2725 0.2421 l
0.2750 0.2435 l
0.2775 0.2448 l
0.2800 0.2462 l
0.2825 0.2475 l
0.2850 0.2489 l
0.2875 0.2502 l
0.2900 0.2515 l
0.2925 0.2528 l
0.2950 0.2541 l
0.2975 0.2554 l
0.3000 0.2567 l
0.3025 0.2580 l
0.3050 0.2593 l
0.3075 0.2606 l
0.3100 0.2618 l
0.3125 0.2631 l
0.3150 0.2643 l
0.3175 0.2656 l
0.3200 0.2668 l
0.3225 0.2681 l
0.3250 0.2693 l
0.3275 0.2705 l
0.3300 0.2718 l
0.3325 0.2730 l
0.3350 0.2742 l
0.3375 0.2754 l
0.3400 0.2766 l
0.3425 0.2778 l
0.3450 0.2790 l
0.3475 0.2802 l
0.3500 0.2814 l
0.3525 0.2825 l
0.3550 0.2837 l
0.3575 0.2849 l
0.3600 0.2860 l
0.3625 0.2872 l
0.3650 0.2883 l
0.3675 0.2895 l
0.3700 0.2906 l
0.3725 0.2918 l
0.3750 0.2929 l
0.3775 0.2941 l
0.3800 0.2952 l
0.3825 0.2963 l
0.3850 0.2974 l
0.3875 0.2986 l
0.3900 0.2997 l
0.3925 0.3008 l
0.3950 0.3019 l
0.3975 0.3030 l
0.4000 0.3041 l
0.4025 0.3052 l
0.4050 0.3063 l
0.4075 0.3074 l
0.4100 0.3085 l
0.4125 0.3096 l
0.4150 0.3107 l
0.4175 0.3117 l
0.4200 0.3128 l
0.4225 0.3139 l
0.4250 0.3150 l
0.4275 0.3160 l
0.4300 0.3171 l
0.4325 0.3182 l
0.4350 0.3192 l
0.4375 0.3203 l
0.4400 0.3213 l
0.4425 0.3224 l
0.4450 0.3234 l
0.4475 0.3245 l
0.4500 0.3255 l
0.4525 0.3266 l
0.4550 0.3276 l
0.4575 0.3286 l
0.4600 0.3297 l
0.4625 0.3307 l
0.4650 0.3317 l
0.4675 0.3328 l
0.4700 0.3338 l
0.4725 0.3348 l
0.4750 0.3358 l
0.4775 0.3368 l
0.4800 0.3379 l
0.4825 0.3389 l
0.4850 0.3399 l
0.4875 0.3409 l
0.4900 0.3419 l
0.4925 0.3429 l
0.4950 0.3439 l
0.4975 0.3449 l
0.5000 0.3459 l
0.5025 0.3469 l
0.5050 0.3479 l
0.5075 0.3489 l
0.5100 0.3499 l
0.5125 0.3509 l
0.5150 0.3519 l
0.5175 0.3528 l
0.5200 0.3538 l
0.5225 0.3548 l
0.5250 0.3558 l
0.5275 0.3568 l
0.5300 0.3577 l
0.5325 0.3587 l
0.5350 0.3597 l
0.5375 0.3606 l
0.5400 0.3616 l
0.5425 0.3626 l
0.5450 0.3635 l
0.5475 0.3645 l
0.5500 0.3655 l
0.5525 0.3664 l
0.5550 0.3674 l
0.5575 0.3683 l
0.5600 0.3693 l
0.5625 0.3702 l
0.5650 0.3712 l
0.5675 0.3721 l
0.5700 0.3731 l
0.5725 0.3740 l
0.5750 0.3750 l
0.5775 0.3759 l
0.5800 0.3769 l
0.5825 0.3778 l
0.5850 0.3787 l
0.5875 0.3797 l
0.5900 0.3806 l
0.5925 0.3816 l
0.5950 0.3825 l
0.5975 0.3834 l
0.6000 0.3844 l
0.6025 0.3853 l
0.6050 0.3862 l
0.6075 0.3871 l
0.6100 0.3881 l
0.6125 0.3890 l
0.6150 0.3899 l
0.6175 0.3908 l
0.6200 0.3917 l
0.6225 0.3927 l
0.6250 0.3936 l
0.6275 0.3945 l
0.6300 0.3954 l
0.6325 0.3963 l
0.6350 0.3972 l
0.6375 0.3981 l
0.6400 0.3990 l
0.6425 0.4000 l
0.6450 0.4009 l
0.6475 0.4018 l
0.6500 0.4027 l
0.6525 0.4036 l
0.6550 0.4045 l
0.6575 0.4054 l
0.6600 0.4063 l
0.6625 0.4072 l
0.6650 0.4081 l
0.6675 0.4090 l
0.6700 0.4099 l
0.6725 0.4108 l
0.6750 0.4116 l
0.6775 0.4125 l
0.6800 0.4134 l
0.6825 0.4143 l
0.6850 0.4152 l
0.6875 0.4161 l
0.6900 0.4170 l
0.6925 0.4179 l
0.6950 0.4187 l
0.6975 0.4196 l
0.7000 0.4205 l
0.7025 0.4214 l
0.7050 0.4223 l
0.7075 0.4231 l
0.7100 0.4240 l
0.7125 0.4249 l
0.7150 0.4258 l
0.7175 0.4266 l
0.7200 0.4275 l
0.7225 0.4284 l
0.7250 0.4292 l
0.7275 0.4301 l
0.7300 0.4310 l
0.7325 0.4318 l
0.7350 0.4327 l
0.7375 0.4336 l
0.7400 0.4344 l
0.7425 0.4353 l
0.7450 0.4362 l
0.7475 0.4370 l
0.7500 0.4379 l
0.7525 0.4387 l
0.7550 0.4396 l
0.7575 0.4404 l
0.7600 0.4413 l
0.7625 0.4421 l
0.7650 0.4430 l
0.7675 0.4439 l
0.7700 0.4447 l
0.7725 0.4455 l
0.7750 0.4464 l
0.7775 0.4472 l
0.7800 0.4481 l
0.7825 0.4489 l
0.7850 0.4498 l
0.7875 0.4506 l
0.7900 0.4515 l
0.7925 0.4523 l
0.7950 0.4531 l
0.7975 0.4540 l
0.8000 0.4548 l
0.8025 0.4557 l
0.8050 0.4565 l
0.8075 0.4573 l
0.8100 0.4582 l
0.8125 0.4590 l
0.8150 0.4598 l
0.8175 0.4607 l
0.8200 0.4615 l
0.8225 0.4623 l
0.8250 0.4631 l
0.8275 0.4640 l
0.8300 0.4648 l
0.8325 0.4656 l
0.8350 0.4664 l
0.8375 0.4673 l
0.8400 0.4681 l
0.8425 0.4689 l
0.8450 0.4697 l
0.8475 0.4705 l
0.8500 0.4714 l
0.8525 0.4722 l
0.8550 0.4730 l
0.8575 0.4738 l
0.8600 0.4746 l
0.8625 0.4754 l
0.8650 0.4762 l
0.8675 0.4771 l
0.8700 0.4779 l
0.8725 0.4787 l
0.8750 0.4795 l
0.8775 0.4803 l
0.8800 0.4811 l
0.8825 0.4819 l
0.8850 0.4827 l
0.8875 0.4835 l
0.8900 0.4843 l
0.8925 0.4851 l
0.8950 0.4859 l
0.8975 0.4867 l
0.9000 0.4875 l
0.9025 0.4883 l
0.9050 0.4891 l
0.9075 0.4899 l
0.9100 0.4907 l
0.9125 0.4915 l
0.9150 0.4922 l
0.9175 0.4930 l
0.9200 0.4938 l
0.9225 0.4946 l
0.9250 0.4954 l
0.9275 0.4962 l
0.9300 0.4970 l
0.9325 0.4977 l
0.9350 0.4985 l
0.9375 0.4993 l
0.9400 0.5001 l
0.9425 0.5009 l
0.9450 0.5016 l
0.9475 0.5024 l
0.9500 0.5032 l
0.9525 0.5040 l
0.9550 0.5047 l
0.9575 0.5055 l
0.9600 0.5063 l
0.9625 0.5071 l
0.9650 0.5078 l
0.9675 0.5086 l
0.9700 0.5094 l
0.9725 0.5101 l
0.9750 0.5109 l
0.9775 0.5116 l
0.9800 0.5124 l
0.9825 0.5132 l
0.9850 0.5139 l
0.9875 0.5147 l
0.9900 0.5154 l
0.9925 0.5162 l
0.9950 0.5170 l
0.9975 0.5177 l
1.0000 0.5185 l
1.0025 0.5192 l
1.0050 0.5200 l
1.0075 0.5207 l
1.0100 0.5215 l
1.0125 0.5222 l
1.0150 0.5230 l
1.0175 0.5237 l
1.0200 0.5244 l
1.0225 0.5252 l
1.0250 0.5259 l
1.0275 0.5267 l
1.0300 0.5274 l
1.0325 0.5281 l
1.0350 0.5289 l
1.0375 0.5296 l
1.0400 0.5303 l
1.0425 0.5311 l
1.0450 0.5318 l
1.0475 0.5325 l
1.0500 0.5333 l
1.0525 0.5340 l
1.0550 0.5347 l
1.0575 0.5354 l
1.0600 0.5362 l
1.0625 0.5369 l
1.0650 0.5376 l
1.0675 0.5383 l
1.0700 0.5391 l
1.0725 0.5398 l
1.0750 0.5405 l
1.0775 0.5412 l
1.0800 0.5419 l
1.0825 0.5426 l
1.0850 0.5433 l
1.0875 0.5440 l
1.0900 0.5448 l
1.0925 0.5455 l
1.0950 0.5462 l
1.0975 0.5469 l
1.1000 0.5476 l
1.1025 0.5483 l
1.1050 0.5490 l
1.1075 0.5497 l
1.1100 0.5504 l
1.1125 0.5511 l
1.1150 0.5518 l
1.1175 0.5525 l
1.1200 0.5532 l
1.1225 0.5538 l
1.1250 0.5545 l
1.1275 0.5552 l
1.1300 0.5559 l
1.1325 0.5566 l
1.1350 0.5573 l
1.1375 0.5580 l
1.1400 0.5586 l
1.1425 0.5593 l
1.1450 0.5600 l
1.1475 0.5607 l
1.1500 0.5614 l
1.1501 0.5614 l
s
[/DeviceRGB] SCS
Color3 SC
[0.0187 0.0112 ] 0 SD
0.0037 SLW
n
0.1833 0.1792 m
0.2165 0.1973 l
0.2498 0.2121 l
0.2830 0.2251 l
0.3163 0.2367 l
0.3495 0.2473 l
0.3828 0.2571 l
0.4161 0.2662 l
0.4493 0.2749 l
0.4826 0.2831 l
0.5158 0.2910 l
0.5491 0.2985 l
0.5823 0.3057 l
0.6156 0.3127 l
0.6489 0.3195 l
0.6821 0.3261 l
0.7154 0.3326 l
0.7486 0.3389 l
0.7819 0.3451 l
0.8151 0.3512 l
0.8484 0.3572 l
0.8816 0.3631 l
0.9149 0.3689 l
0.9482 0.3747 l
0.9814 0.3805 l
1.0147 0.3862 l
1.0479 0.3919 l
1.0812 0.3976 l
1.1144 0.4032 l
1.1477 0.4089 l
1.1501 0.4093 l
s
[/DeviceRGB] SCS
Color2 SC
n
0.1833 0.1785 m
0.2165 0.1972 l
0.2498 0.2133 l
0.2830 0.2280 l
0.3163 0.2419 l
0.3495 0.2551 l
0.3828 0.2678 l
0.4161 0.2803 l
0.4493 0.2926 l
0.4826 0.3047 l
0.5158 0.3167 l
0.5491 0.3287 l
0.5823 0.3407 l
0.6156 0.3527 l
0.6489 0.3647 l
0.6821 0.3769 l
0.7154 0.3891 l
0.7486 0.4014 l
0.7819 0.4139 l
0.8151 0.4265 l
0.8484 0.4392 l
0.8817 0.4522 l
0.9149 0.4653 l
0.9482 0.4785 l
0.9814 0.4920 l
1.0147 0.5057 l
1.0480 0.5195 l
1.0812 0.5336 l
1.1145 0.5479 l
1.1477 0.5624 l
1.1501 0.5635 l
s
[/DeviceRGB] SCS
Color15 SC
n
0.1830 0.1758 m
0.2159 0.1941 l
0.2489 0.2110 l
0.2818 0.2272 l
0.3148 0.2433 l
0.3477 0.2594 l
0.3807 0.2757 l
0.4137 0.2922 l
0.4466 0.3090 l
0.4796 0.3261 l
0.5125 0.3437 l
0.5455 0.3617 l
0.5784 0.3802 l
0.6114 0.3992 l
0.6444 0.4186 l
0.6773 0.4386 l
0.7103 0.4591 l
0.7432 0.4802 l
0.7762 0.5018 l
0.8091 0.5240 l
0.8421 0.5467 l
0.8751 0.5700 l
0.9080 0.5939 l
0.9410 0.6184 l
0.9739 0.6435 l
1.0069 0.6692 l
1.0399 0.6955 l
1.0728 0.7224 l
1.1058 0.7499 l
1.1387 0.7780 l
1.1501 0.7879 l
s
[/DeviceRGB] SCS
Color12 SC
n
0.1525 0.1550 m
0.1550 0.1585 l
0.1575 0.1616 l
0.1600 0.1644 l
0.1625 0.1670 l
0.1650 0.1695 l
0.1675 0.1719 l
0.1700 0.1741 l
0.1725 0.1763 l
0.1750 0.1785 l
0.1775 0.1806 l
0.1800 0.1826 l
0.1825 0.1845 l
0.1850 0.1864 l
0.1875 0.1883 l
0.1900 0.1902 l
0.1925 0.1919 l
0.1950 0.1937 l
0.1975 0.1954 l
0.2000 0.1971 l
0.2025 0.1988 l
0.2050 0.2004 l
0.2075 0.2020 l
0.2100 0.2036 l
0.2125 0.2052 l
0.2150 0.2067 l
0.2175 0.2082 l
0.2200 0.2097 l
0.2225 0.2111 l
0.2250 0.2126 l
0.2275 0.2140 l
0.2300 0.2154 l
0.2325 0.2168 l
0.2350 0.2182 l
0.2375 0.2195 l
0.2400 0.2208 l
0.2425 0.2222 l
0.2450 0.2235 l
0.2475 0.2247 l
0.2500 0.2260 l
0.2525 0.2272 l
0.2550 0.2285 l
0.2575 0.2297 l
0.2600 0.2309 l
0.2625 0.2321 l
0.2650 0.2333 l
0.2675 0.2345 l
0.2700 0.2356 l
0.2725 0.2367 l
0.2750 0.2379 l
0.2775 0.2390 l
0.2800 0.2401 l
0.2825 0.2412 l
0.2850 0.2423 l
0.2875 0.2433 l
0.2900 0.2444 l
0.2925 0.2454 l
0.2950 0.2465 l
0.2975 0.2475 l
0.3000 0.2485 l
0.3025 0.2495 l
0.3050 0.2505 l
0.3075 0.2515 l
0.3100 0.2525 l
0.3125 0.2534 l
0.3150 0.2544 l
0.3175 0.2553 l
0.3200 0.2563 l
0.3225 0.2572 l
0.3250 0.2581 l
0.3275 0.2590 l
0.3300 0.2599 l
0.3325 0.2608 l
0.3350 0.2617 l
0.3375 0.2626 l
0.3400 0.2634 l
0.3425 0.2643 l
0.3450 0.2651 l
0.3475 0.2660 l
0.3500 0.2668 l
0.3525 0.2676 l
0.3550 0.2684 l
0.3575 0.2692 l
0.3600 0.2700 l
0.3625 0.2708 l
0.3650 0.2716 l
0.3675 0.2724 l
0.3700 0.2732 l
0.3725 0.2739 l
0.3750 0.2747 l
0.3775 0.2754 l
0.3800 0.2762 l
0.3825 0.2769 l
0.3850 0.2776 l
0.3875 0.2784 l
0.3900 0.2791 l
0.3925 0.2798 l
0.3950 0.2805 l
0.3975 0.2812 l
0.4000 0.2818 l
0.4025 0.2825 l
0.4050 0.2832 l
0.4075 0.2839 l
0.4100 0.2845 l
0.4125 0.2852 l
0.4150 0.2858 l
0.4175 0.2865 l
0.4200 0.2871 l
0.4225 0.2877 l
0.4250 0.2883 l
0.4275 0.2890 l
0.4300 0.2896 l
0.4325 0.2902 l
0.4350 0.2908 l
0.4375 0.2914 l
0.4400 0.2920 l
0.4425 0.2925 l
0.4450 0.2931 l
0.4475 0.2937 l
0.4500 0.2942 l
0.4525 0.2948 l
0.4550 0.2953 l
0.4575 0.2959 l
0.4600 0.2964 l
0.4625 0.2970 l
0.4650 0.2975 l
0.4675 0.2980 l
0.4700 0.2985 l
0.4725 0.2991 l
0.4750 0.2996 l
0.4775 0.3001 l
0.4800 0.3006 l
0.4825 0.3011 l
0.4850 0.3015 l
0.4875 0.3020 l
0.4900 0.3025 l
0.4925 0.3030 l
0.4950 0.3034 l
0.4975 0.3039 l
0.5000 0.3044 l
0.5025 0.3048 l
0.5050 0.3053 l
0.5075 0.3057 l
0.5100 0.3061 l
0.5125 0.3066 l
0.5150 0.3070 l
0.5175 0.3074 l
0.5200 0.3078 l
0.5225 0.3083 l
0.5250 0.3087 l
0.5275 0.3091 l
0.5300 0.3095 l
0.5325 0.3099 l
0.5350 0.3103 l
0.5375 0.3106 l
0.5400 0.3110 l
0.5425 0.3114 l
0.5450 0.3118 l
0.5475 0.3121 l
0.5500 0.3125 l
0.5525 0.3129 l
0.5550 0.3132 l
0.5575 0.3136 l
0.5600 0.3139 l
0.5625 0.3142 l
0.5650 0.3146 l
0.5675 0.3149 l
0.5700 0.3152 l
0.5725 0.3156 l
0.5750 0.3159 l
0.5775 0.3162 l
0.5800 0.3165 l
0.5825 0.3168 l
0.5850 0.3171 l
0.5875 0.3174 l
0.5900 0.3177 l
0.5925 0.3180 l
0.5950 0.3183 l
0.5975 0.3186 l
0.6000 0.3189 l
0.6025 0.3191 l
0.6050 0.3194 l
0.6075 0.3197 l
0.6100 0.3199 l
0.6125 0.3202 l
0.6150 0.3204 l
0.6175 0.3207 l
0.6200 0.3209 l
0.6225 0.3212 l
0.6250 0.3214 l
0.6275 0.3216 l
0.6300 0.3219 l
0.6325 0.3221 l
0.6350 0.3223 l
0.6375 0.3225 l
0.6400 0.3228 l
0.6425 0.3230 l
0.6450 0.3232 l
0.6475 0.3234 l
0.6500 0.3236 l
0.6525 0.3238 l
0.6550 0.3240 l
0.6575 0.3242 l
0.6600 0.3244 l
0.6625 0.3245 l
0.6650 0.3247 l
0.6675 0.3249 l
0.6700 0.3251 l
0.6725 0.3252 l
0.6750 0.3254 l
0.6775 0.3256 l
0.6800 0.3257 l
0.6825 0.3259 l
0.6850 0.3260 l
0.6875 0.3262 l
0.6900 0.3263 l
0.6925 0.3264 l
0.6950 0.3266 l
0.6975 0.3267 l
0.7000 0.3268 l
0.7025 0.3270 l
0.7050 0.3271 l
0.7075 0.3272 l
0.7100 0.3273 l
0.7125 0.3274 l
0.7150 0.3275 l
0.7175 0.3276 l
0.7200 0.3277 l
0.7225 0.3278 l
0.7250 0.3279 l
0.7275 0.3280 l
0.7300 0.3281 l
0.7325 0.3282 l
0.7350 0.3283 l
0.7375 0.3284 l
0.7400 0.3284 l
0.7425 0.3285 l
0.7450 0.3286 l
0.7475 0.3286 l
0.7500 0.3287 l
0.7525 0.3288 l
0.7550 0.3288 l
0.7575 0.3289 l
0.7600 0.3289 l
0.7625 0.3290 l
0.7650 0.3290 l
0.7675 0.3291 l
0.7700 0.3291 l
0.7725 0.3291 l
0.7750 0.3292 l
0.7775 0.3292 l
0.7800 0.3292 l
0.7825 0.3292 l
0.7850 0.3292 l
0.7875 0.3293 l
0.7900 0.3293 l
0.7925 0.3293 l
0.7950 0.3293 l
0.7975 0.3293 l
0.8000 0.3293 l
0.8025 0.3293 l
0.8050 0.3293 l
0.8075 0.3293 l
0.8100 0.3293 l
0.8125 0.3292 l
0.8150 0.3292 l
0.8175 0.3292 l
0.8200 0.3292 l
0.8225 0.3291 l
0.8250 0.3291 l
0.8275 0.3291 l
0.8300 0.3290 l
0.8325 0.3290 l
0.8350 0.3290 l
0.8375 0.3289 l
0.8400 0.3289 l
0.8425 0.3288 l
0.8450 0.3288 l
0.8475 0.3287 l
0.8500 0.3287 l
0.8525 0.3286 l
0.8550 0.3285 l
0.8575 0.3285 l
0.8600 0.3284 l
0.8625 0.3283 l
0.8650 0.3282 l
0.8675 0.3282 l
0.8700 0.3281 l
0.8725 0.3280 l
0.8750 0.3279 l
0.8775 0.3278 l
0.8800 0.3277 l
0.8825 0.3276 l
0.8850 0.3275 l
0.8875 0.3274 l
0.8900 0.3273 l
0.8925 0.3272 l
0.8950 0.3271 l
0.8975 0.3270 l
0.9000 0.3269 l
0.9025 0.3268 l
0.9050 0.3266 l
0.9075 0.3265 l
0.9100 0.3264 l
0.9125 0.3263 l
0.9150 0.3261 l
0.9175 0.3260 l
0.9200 0.3259 l
0.9225 0.3257 l
0.9250 0.3256 l
0.9275 0.3254 l
0.9300 0.3253 l
0.9325 0.3251 l
0.9350 0.3250 l
0.9375 0.3248 l
0.9400 0.3247 l
0.9425 0.3245 l
0.9450 0.3244 l
0.9475 0.3242 l
0.9500 0.3240 l
0.9525 0.3239 l
0.9550 0.3237 l
0.9575 0.3235 l
0.9600 0.3233 l
0.9625 0.3231 l
0.9650 0.3230 l
0.9675 0.3228 l
0.9700 0.3226 l
0.9725 0.3224 l
0.9750 0.3222 l
0.9775 0.3220 l
0.9800 0.3218 l
0.9825 0.3216 l
0.9850 0.3214 l
0.9875 0.3212 l
0.9900 0.3210 l
0.9925 0.3208 l
0.9950 0.3206 l
0.9975 0.3203 l
1.0000 0.3201 l
1.0025 0.3199 l
1.0050 0.3197 l
1.0075 0.3195 l
1.0100 0.3192 l
1.0125 0.3190 l
1.0150 0.3188 l
1.0175 0.3185 l
1.0200 0.3183 l
1.0225 0.3181 l
1.0250 0.3178 l
1.0275 0.3176 l
1.0300 0.3173 l
1.0325 0.3171 l
1.0350 0.3168 l
1.0375 0.3166 l
1.0400 0.3163 l
1.0425 0.3160 l
1.0450 0.3158 l
1.0475 0.3155 l
1.0500 0.3152 l
1.0525 0.3150 l
1.0550 0.3147 l
1.0575 0.3144 l
1.0600 0.3142 l
1.0625 0.3139 l
1.0650 0.3136 l
1.0675 0.3133 l
1.0700 0.3130 l
1.0725 0.3127 l
1.0750 0.3124 l
1.0775 0.3122 l
1.0800 0.3119 l
1.0825 0.3116 l
1.0850 0.3113 l
1.0875 0.3110 l
1.0900 0.3107 l
1.0925 0.3103 l
1.0950 0.3100 l
1.0975 0.3097 l
1.1000 0.3094 l
1.1025 0.3091 l
1.1050 0.3088 l
1.1075 0.3085 l
1.1100 0.3081 l
1.1125 0.3078 l
1.1150 0.3075 l
1.1175 0.3072 l
1.1200 0.3068 l
1.1225 0.3065 l
1.1250 0.3062 l
1.1275 0.3058 l
1.1300 0.3055 l
1.1325 0.3051 l
1.1350 0.3048 l
1.1375 0.3044 l
1.1400 0.3041 l
1.1425 0.3037 l
1.1450 0.3034 l
1.1475 0.3030 l
1.1500 0.3027 l
1.1501 0.3027 l
s
[/DeviceRGB] SCS
Color1 SC
[] 0 SD
0.0045 SLW
n
0.1500 0.1500 m
1.1500 0.1500 l
s
n
0.1500 0.8500 m
1.1500 0.8500 l
s
n
0.2750 0.1500 m
0.2750 0.1600 l
s
n
0.2750 0.8500 m
0.2750 0.8400 l
s
n
0.5250 0.1500 m
0.5250 0.1600 l
s
n
0.5250 0.8500 m
0.5250 0.8400 l
s
n
0.7750 0.1500 m
0.7750 0.1600 l
s
n
0.7750 0.8500 m
0.7750 0.8400 l
s
n
1.0250 0.1500 m
1.0250 0.1600 l
s
n
1.0250 0.8500 m
1.0250 0.8400 l
s
n
0.1500 0.1500 m
0.1500 0.1700 l
s
n
0.1500 0.8500 m
0.1500 0.8300 l
s
n
0.4000 0.1500 m
0.4000 0.1700 l
s
n
0.4000 0.8500 m
0.4000 0.8300 l
s
n
0.6500 0.1500 m
0.6500 0.1700 l
s
n
0.6500 0.8500 m
0.6500 0.8300 l
s
n
0.9000 0.1500 m
0.9000 0.1700 l
s
n
0.9000 0.8500 m
0.9000 0.8300 l
s
n
1.1500 0.1500 m
1.1500 0.1700 l
s
n
1.1500 0.8500 m
1.1500 0.8300 l
s
/Times-Roman findfont
dup length dict begin
 {1 index /FID ne {def} {pop pop} ifelse} forall
 /Encoding DefEncoding def
 currentdict
end
/Font0 exch definefont pop
/Font0 FFSF
0.1394 0.1094 m
GS
[0.0448 0.0000 0.0000 0.0448 0 0] CC
(0) show
GR
/Font0 FFSF
0.3743 0.1094 m
GS
[0.0448 0.0000 0.0000 0.0448 0 0] CC
(0.1) show
GR
/Font0 FFSF
0.6225 0.1094 m
GS
[0.0448 0.0000 0.0000 0.0448 0 0] CC
(0.2) show
GR
/Font0 FFSF
0.8733 0.1094 m
GS
[0.0448 0.0000 0.0000 0.0448 0 0] CC
(0.3) show
GR
/Font0 FFSF
1.1225 0.1094 m
GS
[0.0448 0.0000 0.0000 0.0448 0 0] CC
(0.4) show
GR
/Times-Italic findfont
dup length dict begin
 {1 index /FID ne {def} {pop pop} ifelse} forall
 /Encoding DefEncoding def
 currentdict
end
/Font1 exch definefont pop
/Font1 FFSF
0.5735 0.0445 m
GS
[0.0504 0.0000 0.0000 0.0504 0 0] CC
(n) show
GR
/Font0 FFSF
0.5986 0.0445 m
GS
[0.0504 0.0000 0.0000 0.0504 0 0] CC
( [fm) show
GR
/Font0 FFSF
0.6841 0.0747 m
GS
[0.0356 0.0000 0.0000 0.0356 0 0] CC
(-3) show
GR
/Font0 FFSF
0.7139 0.0445 m
GS
[0.0504 0.0000 0.0000 0.0504 0 0] CC
(]) show
GR
n
0.1500 0.1500 m
0.1500 0.8500 l
s
n
1.1500 0.1500 m
1.1500 0.8500 l
s
n
0.1500 0.2667 m
0.1600 0.2667 l
s
n
1.1500 0.2667 m
1.1400 0.2667 l
s
n
0.1500 0.5000 m
0.1600 0.5000 l
s
n
1.1500 0.5000 m
1.1400 0.5000 l
s
n
0.1500 0.7333 m
0.1600 0.7333 l
s
n
1.1500 0.7333 m
1.1400 0.7333 l
s
n
0.1500 0.1500 m
0.1700 0.1500 l
s
n
1.1500 0.1500 m
1.1300 0.1500 l
s
n
0.1500 0.3833 m
0.1700 0.3833 l
s
n
1.1500 0.3833 m
1.1300 0.3833 l
s
n
0.1500 0.6167 m
0.1700 0.6167 l
s
n
1.1500 0.6167 m
1.1300 0.6167 l
s
n
0.1500 0.8500 m
0.1700 0.8500 l
s
n
1.1500 0.8500 m
1.1300 0.8500 l
s
/Font0 FFSF
0.1188 0.1351 m
GS
[0.0448 0.0000 0.0000 0.0448 0 0] CC
(0) show
GR
/Font0 FFSF
0.0965 0.3682 m
GS
[0.0448 0.0000 0.0000 0.0448 0 0] CC
(50) show
GR
/Font0 FFSF
0.0741 0.6018 m
GS
[0.0448 0.0000 0.0000 0.0448 0 0] CC
(100) show
GR
/Font0 FFSF
0.0741 0.8349 m
GS
[0.0448 0.0000 0.0000 0.0448 0 0] CC
(150) show
GR
/Symbol findfont
/Font12 exch definefont pop
/Font12 FFSF
0.0563 0.3712 m
GS
[0.0000 0.0504 -0.0504 0.0000 0 0] CC
(D) show
GR
/Font0 FFSF
0.0563 0.4022 m
GS
[0.0000 0.0504 -0.0504 0.0000 0 0] CC
(E/A [MeV]) show
GR
[] 0 SD
0.0015 SLW
n
0.1500 0.1500 m
0.1500 0.8500 l
1.1500 0.8500 l
1.1500 0.1500 l
0.1500 0.1500 l
c
s
n
0.1500 0.8500 m
0.1500 0.5718 l
0.4103 0.5718 l
0.4103 0.8500 l
c
[/DeviceRGB] SCS
Color0 SC
fill
[/DeviceRGB] SCS
Color1 SC
[] 0 SD
0.0045 SLW
n
0.1500 0.8500 m
0.1500 0.5718 l
0.4103 0.5718 l
0.4103 0.8500 l
0.1500 0.8500 l
c
s
/Font0 FFSF
0.2422 0.8063 m
GS
[0.0498 0.0000 0.0000 0.0498 0 0] CC
(BBG) show
GR
n
0.1923 0.8227 0.0100 0.0100 0 360 EARC c
GS
Color0 SRGB
fill
GR
[/Pattern /DeviceRGB] SCS
Color1 Pattern8 SC
fill
[/DeviceRGB] SCS
Color1 SC
[] 0 SD
0.0037 SLW
n 0.1923 0.8227 0.0100 0.0100 0 360 EARC s
/Font0 FFSF
0.2422 0.7618 m
GS
[0.0498 0.0000 0.0000 0.0498 0 0] CC
(LYVA1) show
GR
[] 0 SD
0.0045 SLW
n
0.1623 0.7784 m
0.2223 0.7784 l
s
/Font0 FFSF
0.2422 0.7173 m
GS
[0.0498 0.0000 0.0000 0.0498 0 0] CC
(BSk19) show
GR
[/DeviceRGB] SCS
Color3 SC
[0.0187 0.0112 ] 0 SD
0.0037 SLW
n
0.1623 0.7337 m
0.2223 0.7337 l
s
/Font0 FFSF
[/DeviceRGB] SCS
Color1 SC
0.2422 0.6720 m
GS
[0.0498 0.0000 0.0000 0.0498 0 0] CC
(BSk20) show
GR
[/DeviceRGB] SCS
Color2 SC
n
0.1623 0.6886 m
0.2223 0.6886 l
s
/Font0 FFSF
[/DeviceRGB] SCS
Color1 SC
0.2422 0.6271 m
GS
[0.0498 0.0000 0.0000 0.0498 0 0] CC
(BSk21) show
GR
[/DeviceRGB] SCS
Color15 SC
n
0.1623 0.6437 m
0.2223 0.6437 l
s
/Font0 FFSF
[/DeviceRGB] SCS
Color1 SC
0.2422 0.5825 m
GS
[0.0498 0.0000 0.0000 0.0498 0 0] CC
(LNS) show
GR
[/DeviceRGB] SCS
Color12 SC
n
0.1623 0.5990 m
0.2223 0.5990 l
s
[/DeviceRGB] SCS
Color1 SC
[] 0 SD
0.0015 SLW
n
0.3752 0.8497 m
0.3725 0.8458 l
s
%%Trailer
%%BoundingBox: 12 21 722 531
%%DocumentNeededResources: font Times-Roman
%%+ font Times-Italic
%%+ font Symbol
%%EOF
