%!PS-Adobe-3.0 EPSF-3.0
%%BoundingBox: (atend)
%%LanguageLevel: 2
%%Creator: Grace-5.1.21
%%CreationDate: Thu Jul 16 15:38:36 2015
%%DocumentData: Clean8Bit
%%Orientation: Portrait
%%Title: /cea/dsku/u-pelote/hal1/home/pn/pastorea/Fisica/N3LO/Vers7/plots/effmass.agr
%%For: pastorea
%%DocumentNeededResources: (atend)
%%EndComments
%%BeginProlog
/m {moveto} def
/l {lineto} def
/s {stroke} def
/n {newpath} def
/c {closepath} def
/RL {rlineto} def
/SLW {setlinewidth} def
/GS {gsave} def
/GR {grestore} def
/SC {setcolor} def
/SGRY {setgray} def
/SRGB {setrgbcolor} def
/SD {setdash} def
/SLC {setlinecap} def
/SLJ {setlinejoin} def
/SCS {setcolorspace} def
/FFSF {findfont setfont} def
/CC {concat} def
/PXL {n m 0 0 RL s} def
/Color0 {1.0000 1.0000 1.0000} def
/Color1 {0.0000 0.0000 0.0000} def
/Color2 {1.0000 0.0000 0.0000} def
/Color3 {0.0000 1.0000 0.0000} def
/Color4 {0.0000 0.0000 1.0000} def
/Color5 {1.0000 1.0000 0.0000} def
/Color6 {0.7373 0.5608 0.5608} def
/Color7 {0.8627 0.8627 0.8627} def
/Color8 {0.5804 0.0000 0.8275} def
/Color9 {0.0000 1.0000 1.0000} def
/Color10 {1.0000 0.0000 1.0000} def
/Color11 {1.0000 0.6471 0.0000} def
/Color12 {0.4471 0.1294 0.7373} def
/Color13 {0.4039 0.0275 0.2824} def
/Color14 {0.2510 0.8784 0.8157} def
/Color15 {0.0000 0.5451 0.0000} def
/Color16 {0.7529 0.7529 0.7529} def
/Color17 {0.5059 0.5059 0.5059} def
/Color18 {0.2588 0.2588 0.2588} def
/PTRN {
 /pat_bits exch def 
 <<
  /PaintType 2
  /PatternType 1 /TilingType 1
  /BBox[0 0 16 16]
  /XStep 16 /YStep 16
  /PaintProc {
   pop
   16 16 true [-1 0 0 -1 16 16] pat_bits imagemask
  }
 >>
 [0.0016 0 0 0.0016 0 0]
 makepattern
} def
/Pattern0 {<0000000000000000000000000000000000000000000000000000000000000000> PTRN} bind def
/Pattern1 {<ffffffffffffffffffffffffffffffffffffffffffffffffffffffffffffffff> PTRN} bind def
/Pattern2 {<eeeeffffbbbbffffeeeeffffbbbbffffeeeeffffbbbbffffeeeeffffbbbbffff> PTRN} bind def
/Pattern3 {<eeeebbbbeeeebbbbeeeebbbbeeeebbbbeeeebbbbeeeebbbbeeeebbbbeeeebbbb> PTRN} bind def
/Pattern4 {<5555aaaa5555aaaa5555aaaa5555aaaa5555aaaa5555aaaa5555aaaa5555aaaa> PTRN} bind def
/Pattern5 {<1111444411114444111144441111444411114444111144441111444411114444> PTRN} bind def
/Pattern6 {<1111000044440000111100004444000011110000444400001111000044440000> PTRN} bind def
/Pattern7 {<1010000000000000010100000000000010100000000000000101000000000000> PTRN} bind def
/Pattern8 {<0000000000000000000000000000000000000000000000000000000000000000> PTRN} bind def
/Pattern9 {<1e1e0f0f8787c3c3e1e1f0f078783c3c1e1e0f0f8787c3c3e1e1f0f078783c3c> PTRN} bind def
/Pattern10 {<7878f0f0e1e1c3c387870f0f1e1e3c3c7878f0f0e1e1c3c387870f0f1e1e3c3c> PTRN} bind def
/Pattern11 {<3333333333333333333333333333333333333333333333333333333333333333> PTRN} bind def
/Pattern12 {<ffffffff00000000ffffffff00000000ffffffff00000000ffffffff00000000> PTRN} bind def
/Pattern13 {<8181424224241818181824244242818181814242242418181818242442428181> PTRN} bind def
/Pattern14 {<8080404020201010080804040202010180804040202010100808040402020101> PTRN} bind def
/Pattern15 {<0101020204040808101020204040808001010202040408081010202040408080> PTRN} bind def
/Pattern16 {<2222222222222222222222222222222222222222222222222222222222222222> PTRN} bind def
/Pattern17 {<0000ffff000000000000ffff000000000000ffff000000000000ffff00000000> PTRN} bind def
/Pattern18 {<2222ffff222222222222ffff222222222222ffff222222222222ffff22222222> PTRN} bind def
/Pattern19 {<ffffffff33333333ffffffff33333333ffffffff33333333ffffffff33333333> PTRN} bind def
/Pattern20 {<0f0f0f0f0f0f0f0ff0f0f0f0f0f0f0f00f0f0f0f0f0f0f0ff0f0f0f0f0f0f0f0> PTRN} bind def
/Pattern21 {<ff00ff00ff00ff00ff00ff00ff00ff0000ff00ff00ff00ff00ff00ff00ff00ff> PTRN} bind def
/Pattern22 {<8001800180018001800180018001ffffffff8001800180018001800180018001> PTRN} bind def
/Pattern23 {<c003c003c003c003c003c003ffffffffffffffffc003c003c003c003c003c003> PTRN} bind def
/Pattern24 {<040404040404ffff404040404040ffff040404040404ffff404040404040ffff> PTRN} bind def
/Pattern25 {<180018001800180018001800ffffffff001800180018001800180018ffffffff> PTRN} bind def
/Pattern26 {<1111b8b87c7c3a3a1111a3a3c7c78b8b1111b8b87c7c3a3a1111a3a3c7c78b8b> PTRN} bind def
/Pattern27 {<101010102828c7c70101010182827c7c101010102828c7c70101010182827c7c> PTRN} bind def
/Pattern28 {<1c1c121211112121c1c12121111112121c1c121211112121c1c1212111111212> PTRN} bind def
/Pattern29 {<3e3e414180808080e3e31414080808083e3e414180808080e3e3141408080808> PTRN} bind def
/Pattern30 {<4848888884848383848488884848383848488888848483838484888848483838> PTRN} bind def
/Pattern31 {<03030404080808080c0c12122121c0c003030404080808080c0c12122121c0c0> PTRN} bind def
/ellipsedict 8 dict def
ellipsedict /mtrx matrix put
/EARC {
 ellipsedict begin
  /endangle exch def
  /startangle exch def
  /yrad exch def
  /xrad exch def
  /y exch def
  /x exch def
  /savematrix mtrx currentmatrix def
  x y translate
  xrad yrad scale
  0 0 1 startangle endangle arc
  savematrix setmatrix
 end
} def
/TL {
  /kcomp exch def
  /linewidth exch def
  /offset exch def
  GS
  0 offset rmoveto
  linewidth SLW
  dup stringwidth exch kcomp add exch RL s
  GR
} def
/KINIT
{
 /kvector exch def
 /kid 0 def
} def
/KPROC
{
 pop pop
 kvector kid get
 0 rmoveto
 /kid 1 kid add def
} def
/DefEncoding [
 /.notdef
 /.notdef
 /.notdef
 /.notdef
 /.notdef
 /.notdef
 /.notdef
 /.notdef
 /.notdef
 /.notdef
 /.notdef
 /.notdef
 /.notdef
 /.notdef
 /.notdef
 /.notdef
 /.notdef
 /.notdef
 /.notdef
 /.notdef
 /.notdef
 /.notdef
 /.notdef
 /.notdef
 /.notdef
 /.notdef
 /.notdef
 /.notdef
 /.notdef
 /.notdef
 /.notdef
 /.notdef
 /space
 /exclam
 /quotedbl
 /numbersign
 /dollar
 /percent
 /ampersand
 /quoteright
 /parenleft
 /parenright
 /asterisk
 /plus
 /comma
 /hyphen
 /period
 /slash
 /zero
 /one
 /two
 /three
 /four
 /five
 /six
 /seven
 /eight
 /nine
 /colon
 /semicolon
 /less
 /equal
 /greater
 /question
 /at
 /A
 /B
 /C
 /D
 /E
 /F
 /G
 /H
 /I
 /J
 /K
 /L
 /M
 /N
 /O
 /P
 /Q
 /R
 /S
 /T
 /U
 /V
 /W
 /X
 /Y
 /Z
 /bracketleft
 /backslash
 /bracketright
 /asciicircum
 /underscore
 /grave
 /a
 /b
 /c
 /d
 /e
 /f
 /g
 /h
 /i
 /j
 /k
 /l
 /m
 /n
 /o
 /p
 /q
 /r
 /s
 /t
 /u
 /v
 /w
 /x
 /y
 /z
 /braceleft
 /bar
 /braceright
 /asciitilde
 /.notdef
 /.notdef
 /.notdef
 /.notdef
 /.notdef
 /.notdef
 /.notdef
 /.notdef
 /.notdef
 /.notdef
 /.notdef
 /.notdef
 /.notdef
 /.notdef
 /.notdef
 /.notdef
 /.notdef
 /.notdef
 /.notdef
 /.notdef
 /.notdef
 /.notdef
 /.notdef
 /.notdef
 /.notdef
 /.notdef
 /.notdef
 /.notdef
 /.notdef
 /.notdef
 /.notdef
 /.notdef
 /.notdef
 /space
 /exclamdown
 /cent
 /sterling
 /currency
 /yen
 /brokenbar
 /section
 /dieresis
 /copyright
 /ordfeminine
 /guillemotleft
 /logicalnot
 /hyphen
 /registered
 /macron
 /degree
 /plusminus
 /twosuperior
 /threesuperior
 /acute
 /mu
 /paragraph
 /periodcentered
 /cedilla
 /onesuperior
 /ordmasculine
 /guillemotright
 /onequarter
 /onehalf
 /threequarters
 /questiondown
 /Agrave
 /Aacute
 /Acircumflex
 /Atilde
 /Adieresis
 /Aring
 /AE
 /Ccedilla
 /Egrave
 /Eacute
 /Ecircumflex
 /Edieresis
 /Igrave
 /Iacute
 /Icircumflex
 /Idieresis
 /Eth
 /Ntilde
 /Ograve
 /Oacute
 /Ocircumflex
 /Otilde
 /Odieresis
 /multiply
 /Oslash
 /Ugrave
 /Uacute
 /Ucircumflex
 /Udieresis
 /Yacute
 /Thorn
 /germandbls
 /agrave
 /aacute
 /acircumflex
 /atilde
 /adieresis
 /aring
 /ae
 /ccedilla
 /egrave
 /eacute
 /ecircumflex
 /edieresis
 /igrave
 /iacute
 /icircumflex
 /idieresis
 /eth
 /ntilde
 /ograve
 /oacute
 /ocircumflex
 /otilde
 /odieresis
 /divide
 /oslash
 /ugrave
 /uacute
 /ucircumflex
 /udieresis
 /yacute
 /thorn
 /ydieresis
] def
%%EndProlog
%%BeginSetup
%%EndSetup
612.00 612.00 scale
[/DeviceRGB] SCS
Color1 SC
[] 0 SD
0.0037 SLW
0 SLC
0 SLJ
n
0.1500 0.5051 m
0.1600 0.5054 l
0.1700 0.5057 l
0.1800 0.5059 l
0.1900 0.5062 l
0.2000 0.5064 l
0.2100 0.5067 l
0.2200 0.5069 l
0.2300 0.5072 l
0.2400 0.5074 l
0.2500 0.5077 l
0.2600 0.5079 l
0.2700 0.5082 l
0.2800 0.5084 l
0.2900 0.5087 l
0.3000 0.5089 l
0.3100 0.5091 l
0.3200 0.5094 l
0.3300 0.5096 l
0.3400 0.5098 l
0.3500 0.5101 l
0.3600 0.5103 l
0.3700 0.5105 l
0.3800 0.5108 l
0.3900 0.5110 l
0.4000 0.5112 l
0.4100 0.5114 l
0.4200 0.5117 l
0.4300 0.5119 l
0.4400 0.5121 l
0.4500 0.5123 l
0.4600 0.5126 l
0.4700 0.5128 l
0.4800 0.5130 l
0.4900 0.5132 l
0.5000 0.5135 l
0.5100 0.5137 l
0.5200 0.5139 l
0.5300 0.5141 l
0.5400 0.5143 l
0.5500 0.5146 l
0.5600 0.5148 l
0.5700 0.5150 l
0.5800 0.5152 l
0.5900 0.5154 l
0.6000 0.5157 l
0.6100 0.5159 l
0.6200 0.5161 l
0.6300 0.5163 l
0.6400 0.5165 l
0.6500 0.5168 l
0.6600 0.5170 l
0.6700 0.5172 l
0.6800 0.5174 l
0.6900 0.5176 l
0.7000 0.5179 l
0.7100 0.5181 l
0.7200 0.5183 l
0.7300 0.5185 l
0.7400 0.5188 l
0.7500 0.5190 l
0.7600 0.5192 l
0.7700 0.5195 l
0.7800 0.5197 l
0.7900 0.5199 l
0.8000 0.5201 l
0.8100 0.5204 l
0.8200 0.5206 l
0.8300 0.5208 l
0.8400 0.5211 l
0.8500 0.5213 l
0.8600 0.5216 l
0.8700 0.5218 l
0.8800 0.5221 l
0.8900 0.5223 l
0.9000 0.5226 l
0.9100 0.5228 l
0.9200 0.5231 l
0.9300 0.5233 l
0.9400 0.5236 l
0.9500 0.5238 l
0.9600 0.5241 l
0.9700 0.5244 l
0.9800 0.5246 l
0.9900 0.5249 l
1.0000 0.5252 l
1.0100 0.5255 l
1.0200 0.5257 l
1.0300 0.5260 l
1.0400 0.5263 l
1.0500 0.5266 l
1.0600 0.5269 l
1.0700 0.5272 l
1.0800 0.5276 l
1.0900 0.5279 l
1.1000 0.5282 l
1.1100 0.5285 l
1.1200 0.5289 l
1.1300 0.5292 l
1.1400 0.5296 l
1.1500 0.5300 l
s
[/DeviceRGB] SCS
Color2 SC
n
0.1500 0.5051 m
0.1600 0.5049 l
0.1700 0.5046 l
0.1800 0.5043 l
0.1900 0.5041 l
0.2000 0.5038 l
0.2100 0.5035 l
0.2200 0.5032 l
0.2300 0.5030 l
0.2400 0.5027 l
0.2500 0.5024 l
0.2600 0.5021 l
0.2700 0.5018 l
0.2800 0.5015 l
0.2900 0.5012 l
0.3000 0.5009 l
0.3100 0.5006 l
0.3200 0.5003 l
0.3300 0.5000 l
0.3400 0.4997 l
0.3500 0.4994 l
0.3600 0.4991 l
0.3700 0.4988 l
0.3800 0.4985 l
0.3900 0.4981 l
0.4000 0.4978 l
0.4100 0.4975 l
0.4200 0.4971 l
0.4300 0.4968 l
0.4400 0.4965 l
0.4500 0.4961 l
0.4600 0.4958 l
0.4700 0.4954 l
0.4800 0.4951 l
0.4900 0.4947 l
0.5000 0.4943 l
0.5100 0.4940 l
0.5200 0.4936 l
0.5300 0.4932 l
0.5400 0.4928 l
0.5500 0.4924 l
0.5600 0.4921 l
0.5700 0.4917 l
0.5800 0.4913 l
0.5900 0.4909 l
0.6000 0.4904 l
0.6100 0.4900 l
0.6200 0.4896 l
0.6300 0.4892 l
0.6400 0.4888 l
0.6500 0.4883 l
0.6600 0.4879 l
0.6700 0.4874 l
0.6800 0.4870 l
0.6900 0.4865 l
0.7000 0.4861 l
0.7100 0.4856 l
0.7200 0.4851 l
0.7300 0.4846 l
0.7400 0.4841 l
0.7500 0.4836 l
0.7600 0.4831 l
0.7700 0.4826 l
0.7800 0.4821 l
0.7900 0.4816 l
0.8000 0.4811 l
0.8100 0.4805 l
0.8200 0.4800 l
0.8300 0.4794 l
0.8400 0.4788 l
0.8500 0.4783 l
0.8600 0.4777 l
0.8700 0.4771 l
0.8800 0.4765 l
0.8900 0.4759 l
0.9000 0.4752 l
0.9100 0.4746 l
0.9200 0.4740 l
0.9300 0.4733 l
0.9400 0.4726 l
0.9500 0.4719 l
0.9600 0.4712 l
0.9700 0.4705 l
0.9800 0.4698 l
0.9900 0.4690 l
1.0000 0.4683 l
1.0100 0.4675 l
1.0200 0.4667 l
1.0300 0.4658 l
1.0400 0.4650 l
1.0500 0.4641 l
1.0600 0.4632 l
1.0700 0.4622 l
1.0800 0.4612 l
1.0900 0.4602 l
1.1000 0.4591 l
1.1100 0.4579 l
1.1200 0.4566 l
1.1300 0.4552 l
1.1400 0.4536 l
1.1500 0.4509 l
s
n
0.2500 0.5756 0.0100 0.0100 0 360 EARC c
GS
Color0 SRGB
fill
GR
[/Pattern /DeviceRGB] SCS
Color1 Pattern8 SC
fill
[/DeviceRGB] SCS
Color1 SC
[] 0 SD
0.0030 SLW
n 0.2500 0.5756 0.0100 0.0100 0 360 EARC s
n
0.3500 0.5839 0.0100 0.0100 0 360 EARC c
GS
Color0 SRGB
fill
GR
[/Pattern /DeviceRGB] SCS
Color1 Pattern8 SC
fill
[/DeviceRGB] SCS
Color1 SC
n 0.3500 0.5839 0.0100 0.0100 0 360 EARC s
n
0.4500 0.5918 0.0100 0.0100 0 360 EARC c
GS
Color0 SRGB
fill
GR
[/Pattern /DeviceRGB] SCS
Color1 Pattern8 SC
fill
[/DeviceRGB] SCS
Color1 SC
n 0.4500 0.5918 0.0100 0.0100 0 360 EARC s
n
0.5500 0.5994 0.0100 0.0100 0 360 EARC c
GS
Color0 SRGB
fill
GR
[/Pattern /DeviceRGB] SCS
Color1 Pattern8 SC
fill
[/DeviceRGB] SCS
Color1 SC
n 0.5500 0.5994 0.0100 0.0100 0 360 EARC s
n
0.6500 0.6066 0.0100 0.0100 0 360 EARC c
GS
Color0 SRGB
fill
GR
[/Pattern /DeviceRGB] SCS
Color1 Pattern8 SC
fill
[/DeviceRGB] SCS
Color1 SC
n 0.6500 0.6066 0.0100 0.0100 0 360 EARC s
n
0.7500 0.6135 0.0100 0.0100 0 360 EARC c
GS
Color0 SRGB
fill
GR
[/Pattern /DeviceRGB] SCS
Color1 Pattern8 SC
fill
[/DeviceRGB] SCS
Color1 SC
n 0.7500 0.6135 0.0100 0.0100 0 360 EARC s
n
0.8500 0.6200 0.0100 0.0100 0 360 EARC c
GS
Color0 SRGB
fill
GR
[/Pattern /DeviceRGB] SCS
Color1 Pattern8 SC
fill
[/DeviceRGB] SCS
Color1 SC
n 0.8500 0.6200 0.0100 0.0100 0 360 EARC s
n
0.9500 0.6261 0.0100 0.0100 0 360 EARC c
GS
Color0 SRGB
fill
GR
[/Pattern /DeviceRGB] SCS
Color1 Pattern8 SC
fill
[/DeviceRGB] SCS
Color1 SC
n 0.9500 0.6261 0.0100 0.0100 0 360 EARC s
n
1.0500 0.6318 0.0100 0.0100 0 360 EARC c
GS
Color0 SRGB
fill
GR
[/Pattern /DeviceRGB] SCS
Color1 Pattern8 SC
fill
[/DeviceRGB] SCS
Color1 SC
n 1.0500 0.6318 0.0100 0.0100 0 360 EARC s
n
1.1500 0.6372 0.0100 0.0100 0 360 EARC c
GS
Color0 SRGB
fill
GR
[/Pattern /DeviceRGB] SCS
Color1 Pattern8 SC
fill
[/DeviceRGB] SCS
Color1 SC
n 1.1500 0.6372 0.0100 0.0100 0 360 EARC s
n
0.2415 0.5572 m
0.2415 0.5742 l
0.2585 0.5742 l
0.2585 0.5572 l
c
GS
Color0 SRGB
fill
GR
[/Pattern /DeviceRGB] SCS
Color2 Pattern8 SC
fill
[/DeviceRGB] SCS
Color2 SC
n
0.2415 0.5572 m
0.2415 0.5742 l
0.2585 0.5742 l
0.2585 0.5572 l
0.2415 0.5572 l
c
s
n
0.3415 0.5557 m
0.3415 0.5727 l
0.3585 0.5727 l
0.3585 0.5557 l
c
GS
Color0 SRGB
fill
GR
[/Pattern /DeviceRGB] SCS
Color2 Pattern8 SC
fill
[/DeviceRGB] SCS
Color2 SC
n
0.3415 0.5557 m
0.3415 0.5727 l
0.3585 0.5727 l
0.3585 0.5557 l
0.3415 0.5557 l
c
s
n
0.4415 0.5551 m
0.4415 0.5721 l
0.4585 0.5721 l
0.4585 0.5551 l
c
GS
Color0 SRGB
fill
GR
[/Pattern /DeviceRGB] SCS
Color2 Pattern8 SC
fill
[/DeviceRGB] SCS
Color2 SC
n
0.4415 0.5551 m
0.4415 0.5721 l
0.4585 0.5721 l
0.4585 0.5551 l
0.4415 0.5551 l
c
s
n
0.5415 0.5555 m
0.5415 0.5725 l
0.5585 0.5725 l
0.5585 0.5555 l
c
GS
Color0 SRGB
fill
GR
[/Pattern /DeviceRGB] SCS
Color2 Pattern8 SC
fill
[/DeviceRGB] SCS
Color2 SC
n
0.5415 0.5555 m
0.5415 0.5725 l
0.5585 0.5725 l
0.5585 0.5555 l
0.5415 0.5555 l
c
s
n
0.6415 0.5570 m
0.6415 0.5740 l
0.6585 0.5740 l
0.6585 0.5570 l
c
GS
Color0 SRGB
fill
GR
[/Pattern /DeviceRGB] SCS
Color2 Pattern8 SC
fill
[/DeviceRGB] SCS
Color2 SC
n
0.6415 0.5570 m
0.6415 0.5740 l
0.6585 0.5740 l
0.6585 0.5570 l
0.6415 0.5570 l
c
s
n
0.7415 0.5594 m
0.7415 0.5764 l
0.7585 0.5764 l
0.7585 0.5594 l
c
GS
Color0 SRGB
fill
GR
[/Pattern /DeviceRGB] SCS
Color2 Pattern8 SC
fill
[/DeviceRGB] SCS
Color2 SC
n
0.7415 0.5594 m
0.7415 0.5764 l
0.7585 0.5764 l
0.7585 0.5594 l
0.7415 0.5594 l
c
s
n
0.8415 0.5629 m
0.8415 0.5799 l
0.8585 0.5799 l
0.8585 0.5629 l
c
GS
Color0 SRGB
fill
GR
[/Pattern /DeviceRGB] SCS
Color2 Pattern8 SC
fill
[/DeviceRGB] SCS
Color2 SC
n
0.8415 0.5629 m
0.8415 0.5799 l
0.8585 0.5799 l
0.8585 0.5629 l
0.8415 0.5629 l
c
s
n
0.9415 0.5673 m
0.9415 0.5843 l
0.9585 0.5843 l
0.9585 0.5673 l
c
GS
Color0 SRGB
fill
GR
[/Pattern /DeviceRGB] SCS
Color2 Pattern8 SC
fill
[/DeviceRGB] SCS
Color2 SC
n
0.9415 0.5673 m
0.9415 0.5843 l
0.9585 0.5843 l
0.9585 0.5673 l
0.9415 0.5673 l
c
s
n
1.0415 0.5728 m
1.0415 0.5898 l
1.0585 0.5898 l
1.0585 0.5728 l
c
GS
Color0 SRGB
fill
GR
[/Pattern /DeviceRGB] SCS
Color2 Pattern8 SC
fill
[/DeviceRGB] SCS
Color2 SC
n
1.0415 0.5728 m
1.0415 0.5898 l
1.0585 0.5898 l
1.0585 0.5728 l
1.0415 0.5728 l
c
s
n
1.1415 0.5792 m
1.1415 0.5962 l
1.1585 0.5962 l
1.1585 0.5792 l
c
GS
Color0 SRGB
fill
GR
[/Pattern /DeviceRGB] SCS
Color2 Pattern8 SC
fill
[/DeviceRGB] SCS
Color2 SC
n
1.1415 0.5792 m
1.1415 0.5962 l
1.1585 0.5962 l
1.1585 0.5792 l
1.1415 0.5792 l
c
s
[/DeviceRGB] SCS
Color1 SC
[] 0 SD
0.0045 SLW
n
0.1500 0.1500 m
1.1500 0.1500 l
s
n
0.1500 0.8500 m
1.1500 0.8500 l
s
n
0.2500 0.1500 m
0.2500 0.1600 l
s
n
0.2500 0.8500 m
0.2500 0.8400 l
s
n
0.4500 0.1500 m
0.4500 0.1600 l
s
n
0.4500 0.8500 m
0.4500 0.8400 l
s
n
0.6500 0.1500 m
0.6500 0.1600 l
s
n
0.6500 0.8500 m
0.6500 0.8400 l
s
n
0.8500 0.1500 m
0.8500 0.1600 l
s
n
0.8500 0.8500 m
0.8500 0.8400 l
s
n
1.0500 0.1500 m
1.0500 0.1600 l
s
n
1.0500 0.8500 m
1.0500 0.8400 l
s
n
0.1500 0.1500 m
0.1500 0.1700 l
s
n
0.1500 0.8500 m
0.1500 0.8300 l
s
n
0.3500 0.1500 m
0.3500 0.1700 l
s
n
0.3500 0.8500 m
0.3500 0.8300 l
s
n
0.5500 0.1500 m
0.5500 0.1700 l
s
n
0.5500 0.8500 m
0.5500 0.8300 l
s
n
0.7500 0.1500 m
0.7500 0.1700 l
s
n
0.7500 0.8500 m
0.7500 0.8300 l
s
n
0.9500 0.1500 m
0.9500 0.1700 l
s
n
0.9500 0.8500 m
0.9500 0.8300 l
s
n
1.1500 0.1500 m
1.1500 0.1700 l
s
n
1.1500 0.8500 m
1.1500 0.8300 l
s
/Times-Roman findfont
dup length dict begin
 {1 index /FID ne {def} {pop pop} ifelse} forall
 /Encoding DefEncoding def
 currentdict
end
/Font0 exch definefont pop
/Font0 FFSF
0.1394 0.1094 m
GS
[0.0448 0.0000 0.0000 0.0448 0 0] CC
(0) show
GR
/Font0 FFSF
0.3225 0.1094 m
GS
[0.0448 0.0000 0.0000 0.0448 0 0] CC
(0.2) show
GR
/Font0 FFSF
0.5225 0.1094 m
GS
[0.0448 0.0000 0.0000 0.0448 0 0] CC
(0.4) show
GR
/Font0 FFSF
0.7227 0.1094 m
GS
[0.0448 0.0000 0.0000 0.0448 0 0] CC
(0.6) show
GR
/Font0 FFSF
0.9231 0.1094 m
GS
[0.0448 0.0000 0.0000 0.0448 0 0] CC
(0.8) show
GR
/Font0 FFSF
1.1412 0.1094 m
GS
[0.0448 0.0000 0.0000 0.0448 0 0] CC
(1) show
GR
/Font0 FFSF
0.6324 0.0653 m
GS
[0.0504 0.0000 0.0000 0.0504 0 0] CC
(Y) show
GR
n
0.1500 0.1500 m
0.1500 0.8500 l
s
n
1.1500 0.1500 m
1.1500 0.8500 l
s
n
0.1500 0.2200 m
0.1600 0.2200 l
s
n
1.1500 0.2200 m
1.1400 0.2200 l
s
n
0.1500 0.3600 m
0.1600 0.3600 l
s
n
1.1500 0.3600 m
1.1400 0.3600 l
s
n
0.1500 0.5000 m
0.1600 0.5000 l
s
n
1.1500 0.5000 m
1.1400 0.5000 l
s
n
0.1500 0.6400 m
0.1600 0.6400 l
s
n
1.1500 0.6400 m
1.1400 0.6400 l
s
n
0.1500 0.7800 m
0.1600 0.7800 l
s
n
1.1500 0.7800 m
1.1400 0.7800 l
s
n
0.1500 0.1500 m
0.1700 0.1500 l
s
n
1.1500 0.1500 m
1.1300 0.1500 l
s
n
0.1500 0.2900 m
0.1700 0.2900 l
s
n
1.1500 0.2900 m
1.1300 0.2900 l
s
n
0.1500 0.4300 m
0.1700 0.4300 l
s
n
1.1500 0.4300 m
1.1300 0.4300 l
s
n
0.1500 0.5700 m
0.1700 0.5700 l
s
n
1.1500 0.5700 m
1.1300 0.5700 l
s
n
0.1500 0.7100 m
0.1700 0.7100 l
s
n
1.1500 0.7100 m
1.1300 0.7100 l
s
n
0.1500 0.8500 m
0.1700 0.8500 l
s
n
1.1500 0.8500 m
1.1300 0.8500 l
s
/Font0 FFSF
0.0851 0.1351 m
GS
[0.0448 0.0000 0.0000 0.0448 0 0] CC
(0.2) show
GR
/Font0 FFSF
0.0851 0.2751 m
GS
[0.0448 0.0000 0.0000 0.0448 0 0] CC
(0.4) show
GR
/Font0 FFSF
0.0855 0.4151 m
GS
[0.0448 0.0000 0.0000 0.0448 0 0] CC
(0.6) show
GR
/Font0 FFSF
0.0863 0.5551 m
GS
[0.0448 0.0000 0.0000 0.0448 0 0] CC
(0.8) show
GR
/Font0 FFSF
0.1224 0.6947 m
GS
[0.0448 0.0000 0.0000 0.0448 0 0] CC
(1) show
GR
/Font0 FFSF
0.0851 0.8349 m
GS
[0.0448 0.0000 0.0000 0.0448 0 0] CC
(1.2) show
GR
/Font0 FFSF
0.0743 0.4451 m
GS
[0.0000 0.0504 -0.0504 0.0000 0 0] CC
(m) show
GR
/Font0 FFSF
0.0441 0.4843 m
GS
[0.0000 0.0356 -0.0356 0.0000 0 0] CC
(*) show
GR
/Font0 FFSF
0.0743 0.5020 m
GS
[0.0000 0.0504 -0.0504 0.0000 0 0] CC
(/m) show
GR
[] 0 SD
0.0015 SLW
n
0.1500 0.1500 m
0.1500 0.8500 l
1.1500 0.8500 l
1.1500 0.1500 l
0.1500 0.1500 l
c
s
n
0.8500 0.8000 m
0.8500 0.7018 l
1.1166 0.7018 l
1.1166 0.8000 l
c
[/DeviceRGB] SCS
Color0 SC
fill
/Font0 FFSF
[/DeviceRGB] SCS
Color1 SC
0.9219 0.7563 m
GS
[0.0510 0.0000 0.0000 0.0510 0 0] CC
(Neutrons) show
GR
[] 0 SD
0.0037 SLW
n
0.8619 0.7729 m
0.9019 0.7729 l
s
/Font0 FFSF
0.9219 0.7122 m
GS
[0.0510 0.0000 0.0000 0.0510 0 0] CC
(Protons) show
GR
[/DeviceRGB] SCS
Color2 SC
n
0.8619 0.7288 m
0.9019 0.7288 l
s
/Times-Italic findfont
dup length dict begin
 {1 index /FID ne {def} {pop pop} ifelse} forall
 /Encoding DefEncoding def
 currentdict
end
/Font1 exch definefont pop
/Font1 FFSF
[/DeviceRGB] SCS
Color1 SC
0.2405 0.7542 m
GS
[0.0538 0.0000 0.0000 0.0538 0 0] CC
(n) show
GR
/Font0 FFSF
0.2676 0.7542 m
GS
[0.0538 0.0000 0.0000 0.0538 0 0] CC
(=0.169 fm) show
GR
/Font0 FFSF
0.4919 0.7865 m
GS
[0.0380 0.0000 0.0000 0.0380 0 0] CC
(-3) show
GR
%%Trailer
%%BoundingBox: 11 38 712 531
%%DocumentNeededResources: font Times-Roman
%%+ font Times-Italic
%%EOF
