%!PS-Adobe-3.0 EPSF-3.0
%%BoundingBox: (atend)
%%LanguageLevel: 2
%%Creator: Grace-5.1.22
%%CreationDate: Tue Jul 28 09:35:02 2015
%%DocumentData: Clean8Bit
%%Orientation: Portrait
%%Title: /Users/alessandropastore/Fisica/ST_channel_EoS/N3LO/Vers7/plots/EsurAPNM.agr
%%For: alessandropastore
%%DocumentNeededResources: (atend)
%%EndComments
%%BeginProlog
/m {moveto} def
/l {lineto} def
/s {stroke} def
/n {newpath} def
/c {closepath} def
/RL {rlineto} def
/SLW {setlinewidth} def
/GS {gsave} def
/GR {grestore} def
/SC {setcolor} def
/SGRY {setgray} def
/SRGB {setrgbcolor} def
/SD {setdash} def
/SLC {setlinecap} def
/SLJ {setlinejoin} def
/SCS {setcolorspace} def
/FFSF {findfont setfont} def
/CC {concat} def
/PXL {n m 0 0 RL s} def
/Color0 {1.0000 1.0000 1.0000} def
/Color1 {0.0000 0.0000 0.0000} def
/Color2 {1.0000 0.0000 0.0000} def
/Color3 {0.0000 1.0000 0.0000} def
/Color4 {0.0000 0.0000 1.0000} def
/Color5 {1.0000 1.0000 0.0000} def
/Color6 {0.7373 0.5608 0.5608} def
/Color7 {0.8627 0.8627 0.8627} def
/Color8 {0.5804 0.0000 0.8275} def
/Color9 {0.0000 1.0000 1.0000} def
/Color10 {1.0000 0.0000 1.0000} def
/Color11 {1.0000 0.6471 0.0000} def
/Color12 {0.4471 0.1294 0.7373} def
/Color13 {0.4039 0.0275 0.2824} def
/Color14 {0.2510 0.8784 0.8157} def
/Color15 {0.0000 0.5451 0.0000} def
/Color16 {0.7529 0.7529 0.7529} def
/Color17 {0.5059 0.5059 0.5059} def
/Color18 {0.2588 0.2588 0.2588} def
/PTRN {
 /pat_bits exch def 
 <<
  /PaintType 2
  /PatternType 1 /TilingType 1
  /BBox[0 0 16 16]
  /XStep 16 /YStep 16
  /PaintProc {
   pop
   16 16 true [-1 0 0 -1 16 16] pat_bits imagemask
  }
 >>
 [0.0016 0 0 0.0016 0 0]
 makepattern
} def
/Pattern0 {<0000000000000000000000000000000000000000000000000000000000000000> PTRN} bind def
/Pattern1 {<ffffffffffffffffffffffffffffffffffffffffffffffffffffffffffffffff> PTRN} bind def
/Pattern2 {<eeeeffffbbbbffffeeeeffffbbbbffffeeeeffffbbbbffffeeeeffffbbbbffff> PTRN} bind def
/Pattern3 {<eeeebbbbeeeebbbbeeeebbbbeeeebbbbeeeebbbbeeeebbbbeeeebbbbeeeebbbb> PTRN} bind def
/Pattern4 {<5555aaaa5555aaaa5555aaaa5555aaaa5555aaaa5555aaaa5555aaaa5555aaaa> PTRN} bind def
/Pattern5 {<1111444411114444111144441111444411114444111144441111444411114444> PTRN} bind def
/Pattern6 {<1111000044440000111100004444000011110000444400001111000044440000> PTRN} bind def
/Pattern7 {<1010000000000000010100000000000010100000000000000101000000000000> PTRN} bind def
/Pattern8 {<0000000000000000000000000000000000000000000000000000000000000000> PTRN} bind def
/Pattern9 {<1e1e0f0f8787c3c3e1e1f0f078783c3c1e1e0f0f8787c3c3e1e1f0f078783c3c> PTRN} bind def
/Pattern10 {<7878f0f0e1e1c3c387870f0f1e1e3c3c7878f0f0e1e1c3c387870f0f1e1e3c3c> PTRN} bind def
/Pattern11 {<3333333333333333333333333333333333333333333333333333333333333333> PTRN} bind def
/Pattern12 {<ffffffff00000000ffffffff00000000ffffffff00000000ffffffff00000000> PTRN} bind def
/Pattern13 {<8181424224241818181824244242818181814242242418181818242442428181> PTRN} bind def
/Pattern14 {<8080404020201010080804040202010180804040202010100808040402020101> PTRN} bind def
/Pattern15 {<0101020204040808101020204040808001010202040408081010202040408080> PTRN} bind def
/Pattern16 {<2222222222222222222222222222222222222222222222222222222222222222> PTRN} bind def
/Pattern17 {<0000ffff000000000000ffff000000000000ffff000000000000ffff00000000> PTRN} bind def
/Pattern18 {<2222ffff222222222222ffff222222222222ffff222222222222ffff22222222> PTRN} bind def
/Pattern19 {<ffffffff33333333ffffffff33333333ffffffff33333333ffffffff33333333> PTRN} bind def
/Pattern20 {<0f0f0f0f0f0f0f0ff0f0f0f0f0f0f0f00f0f0f0f0f0f0f0ff0f0f0f0f0f0f0f0> PTRN} bind def
/Pattern21 {<ff00ff00ff00ff00ff00ff00ff00ff0000ff00ff00ff00ff00ff00ff00ff00ff> PTRN} bind def
/Pattern22 {<8001800180018001800180018001ffffffff8001800180018001800180018001> PTRN} bind def
/Pattern23 {<c003c003c003c003c003c003ffffffffffffffffc003c003c003c003c003c003> PTRN} bind def
/Pattern24 {<040404040404ffff404040404040ffff040404040404ffff404040404040ffff> PTRN} bind def
/Pattern25 {<180018001800180018001800ffffffff001800180018001800180018ffffffff> PTRN} bind def
/Pattern26 {<1111b8b87c7c3a3a1111a3a3c7c78b8b1111b8b87c7c3a3a1111a3a3c7c78b8b> PTRN} bind def
/Pattern27 {<101010102828c7c70101010182827c7c101010102828c7c70101010182827c7c> PTRN} bind def
/Pattern28 {<1c1c121211112121c1c12121111112121c1c121211112121c1c1212111111212> PTRN} bind def
/Pattern29 {<3e3e414180808080e3e31414080808083e3e414180808080e3e3141408080808> PTRN} bind def
/Pattern30 {<4848888884848383848488884848383848488888848483838484888848483838> PTRN} bind def
/Pattern31 {<03030404080808080c0c12122121c0c003030404080808080c0c12122121c0c0> PTRN} bind def
/ellipsedict 8 dict def
ellipsedict /mtrx matrix put
/EARC {
 ellipsedict begin
  /endangle exch def
  /startangle exch def
  /yrad exch def
  /xrad exch def
  /y exch def
  /x exch def
  /savematrix mtrx currentmatrix def
  x y translate
  xrad yrad scale
  0 0 1 startangle endangle arc
  savematrix setmatrix
 end
} def
/TL {
  /kcomp exch def
  /linewidth exch def
  /offset exch def
  GS
  0 offset rmoveto
  linewidth SLW
  dup stringwidth exch kcomp add exch RL s
  GR
} def
/KINIT
{
 /kvector exch def
 /kid 0 def
} def
/KPROC
{
 pop pop
 kvector kid get
 0 rmoveto
 /kid 1 kid add def
} def
/DefEncoding [
 /.notdef
 /.notdef
 /.notdef
 /.notdef
 /.notdef
 /.notdef
 /.notdef
 /.notdef
 /.notdef
 /.notdef
 /.notdef
 /.notdef
 /.notdef
 /.notdef
 /.notdef
 /.notdef
 /.notdef
 /.notdef
 /.notdef
 /.notdef
 /.notdef
 /.notdef
 /.notdef
 /.notdef
 /.notdef
 /.notdef
 /.notdef
 /.notdef
 /.notdef
 /.notdef
 /.notdef
 /.notdef
 /space
 /exclam
 /quotedbl
 /numbersign
 /dollar
 /percent
 /ampersand
 /quoteright
 /parenleft
 /parenright
 /asterisk
 /plus
 /comma
 /hyphen
 /period
 /slash
 /zero
 /one
 /two
 /three
 /four
 /five
 /six
 /seven
 /eight
 /nine
 /colon
 /semicolon
 /less
 /equal
 /greater
 /question
 /at
 /A
 /B
 /C
 /D
 /E
 /F
 /G
 /H
 /I
 /J
 /K
 /L
 /M
 /N
 /O
 /P
 /Q
 /R
 /S
 /T
 /U
 /V
 /W
 /X
 /Y
 /Z
 /bracketleft
 /backslash
 /bracketright
 /asciicircum
 /underscore
 /grave
 /a
 /b
 /c
 /d
 /e
 /f
 /g
 /h
 /i
 /j
 /k
 /l
 /m
 /n
 /o
 /p
 /q
 /r
 /s
 /t
 /u
 /v
 /w
 /x
 /y
 /z
 /braceleft
 /bar
 /braceright
 /asciitilde
 /.notdef
 /.notdef
 /.notdef
 /.notdef
 /.notdef
 /.notdef
 /.notdef
 /.notdef
 /.notdef
 /.notdef
 /.notdef
 /.notdef
 /.notdef
 /.notdef
 /.notdef
 /.notdef
 /.notdef
 /.notdef
 /.notdef
 /.notdef
 /.notdef
 /.notdef
 /.notdef
 /.notdef
 /.notdef
 /.notdef
 /.notdef
 /.notdef
 /.notdef
 /.notdef
 /.notdef
 /.notdef
 /.notdef
 /space
 /exclamdown
 /cent
 /sterling
 /currency
 /yen
 /brokenbar
 /section
 /dieresis
 /copyright
 /ordfeminine
 /guillemotleft
 /logicalnot
 /hyphen
 /registered
 /macron
 /degree
 /plusminus
 /twosuperior
 /threesuperior
 /acute
 /mu
 /paragraph
 /periodcentered
 /cedilla
 /onesuperior
 /ordmasculine
 /guillemotright
 /onequarter
 /onehalf
 /threequarters
 /questiondown
 /Agrave
 /Aacute
 /Acircumflex
 /Atilde
 /Adieresis
 /Aring
 /AE
 /Ccedilla
 /Egrave
 /Eacute
 /Ecircumflex
 /Edieresis
 /Igrave
 /Iacute
 /Icircumflex
 /Idieresis
 /Eth
 /Ntilde
 /Ograve
 /Oacute
 /Ocircumflex
 /Otilde
 /Odieresis
 /multiply
 /Oslash
 /Ugrave
 /Uacute
 /Ucircumflex
 /Udieresis
 /Yacute
 /Thorn
 /germandbls
 /agrave
 /aacute
 /acircumflex
 /atilde
 /adieresis
 /aring
 /ae
 /ccedilla
 /egrave
 /eacute
 /ecircumflex
 /edieresis
 /igrave
 /iacute
 /icircumflex
 /idieresis
 /eth
 /ntilde
 /ograve
 /oacute
 /ocircumflex
 /otilde
 /odieresis
 /divide
 /oslash
 /ugrave
 /uacute
 /ucircumflex
 /udieresis
 /yacute
 /thorn
 /ydieresis
] def
%%EndProlog
%%BeginSetup
%%EndSetup
612.00 612.00 scale
n
0.1520 0.1500 m
0.1675 0.1630 l
0.1992 0.1667 l
0.2251 0.1729 l
0.2500 0.1779 l
0.2769 0.1841 l
0.2990 0.1891 l
0.3239 0.1966 l
0.3460 0.2053 l
0.3767 0.2165 l
0.3959 0.2252 l
0.4199 0.2364 l
0.4602 0.2588 l
0.4852 0.2749 l
0.5092 0.2886 l
0.5323 0.3060 l
0.5630 0.3334 l
0.5851 0.3533 l
0.6043 0.3720 l
0.6254 0.3944 l
0.6254 0.1500 l
c
[/DeviceRGB] SCS
Color7 SC
fill
[] 0 SD
0.0030 SLW
0 SLC
0 SLJ
n
0.1519 0.1499 m
0.1675 0.1630 l
0.1992 0.1667 l
0.2251 0.1729 l
0.2500 0.1779 l
0.2769 0.1841 l
0.2990 0.1891 l
0.3239 0.1966 l
0.3460 0.2053 l
0.3767 0.2165 l
0.3959 0.2252 l
0.4199 0.2364 l
0.4602 0.2588 l
0.4852 0.2749 l
0.5092 0.2886 l
0.5323 0.3060 l
0.5630 0.3334 l
0.5851 0.3533 l
0.6043 0.3720 l
0.6254 0.3944 l
s
n
0.1535 0.1500 m
0.1761 0.1617 l
0.2001 0.1642 l
0.2241 0.1667 l
0.2510 0.1704 l
0.2759 0.1754 l
0.2999 0.1792 l
0.3258 0.1854 l
0.3508 0.1879 l
0.3757 0.1928 l
0.3997 0.1966 l
0.4256 0.2015 l
0.4525 0.2065 l
0.4746 0.2090 l
0.4967 0.2140 l
0.5235 0.2227 l
0.5485 0.2264 l
0.5725 0.2326 l
0.5974 0.2389 l
0.6291 0.2476 l
0.6464 0.2526 l
0.6464 0.1500 l
c
GS
Color0 SRGB
fill
GR
[/Pattern /DeviceRGB] SCS
Color1 Pattern8 SC
fill
[/DeviceRGB] SCS
Color2 SC
[] 0 SD
0.0045 SLW
n
0.1510 0.1513 m
0.1520 0.1522 l
0.1530 0.1529 l
0.1540 0.1535 l
0.1550 0.1539 l
0.1560 0.1544 l
0.1570 0.1548 l
0.1580 0.1551 l
0.1590 0.1555 l
0.1600 0.1558 l
0.1610 0.1561 l
0.1620 0.1563 l
0.1630 0.1566 l
0.1640 0.1569 l
0.1650 0.1571 l
0.1660 0.1573 l
0.1670 0.1576 l
0.1680 0.1578 l
0.1690 0.1580 l
0.1700 0.1582 l
0.1710 0.1584 l
0.1720 0.1586 l
0.1730 0.1588 l
0.1740 0.1590 l
0.1750 0.1592 l
0.1760 0.1594 l
0.1770 0.1596 l
0.1780 0.1597 l
0.1790 0.1599 l
0.1800 0.1601 l
0.1810 0.1603 l
0.1820 0.1605 l
0.1830 0.1606 l
0.1840 0.1608 l
0.1850 0.1610 l
0.1860 0.1611 l
0.1870 0.1613 l
0.1880 0.1615 l
0.1890 0.1617 l
0.1900 0.1618 l
0.1910 0.1620 l
0.1920 0.1622 l
0.1930 0.1623 l
0.1940 0.1625 l
0.1950 0.1627 l
0.1960 0.1628 l
0.1970 0.1630 l
0.1980 0.1632 l
0.1990 0.1633 l
0.2000 0.1635 l
0.2010 0.1637 l
0.2020 0.1639 l
0.2030 0.1640 l
0.2040 0.1642 l
0.2050 0.1644 l
0.2060 0.1645 l
0.2070 0.1647 l
0.2080 0.1649 l
0.2090 0.1651 l
0.2100 0.1652 l
0.2110 0.1654 l
0.2120 0.1656 l
0.2130 0.1658 l
0.2140 0.1660 l
0.2150 0.1661 l
0.2160 0.1663 l
0.2170 0.1665 l
0.2180 0.1667 l
0.2190 0.1669 l
0.2200 0.1670 l
0.2210 0.1672 l
0.2220 0.1674 l
0.2230 0.1676 l
0.2240 0.1678 l
0.2250 0.1680 l
0.2260 0.1682 l
0.2270 0.1684 l
0.2280 0.1686 l
0.2290 0.1687 l
0.2300 0.1689 l
0.2310 0.1691 l
0.2320 0.1693 l
0.2330 0.1695 l
0.2340 0.1697 l
0.2350 0.1699 l
0.2360 0.1701 l
0.2370 0.1703 l
0.2380 0.1705 l
0.2390 0.1707 l
0.2400 0.1709 l
0.2410 0.1712 l
0.2420 0.1714 l
0.2430 0.1716 l
0.2440 0.1718 l
0.2450 0.1720 l
0.2460 0.1722 l
0.2470 0.1724 l
0.2480 0.1726 l
0.2490 0.1729 l
0.2500 0.1731 l
0.2510 0.1733 l
0.2520 0.1735 l
0.2530 0.1737 l
0.2540 0.1740 l
0.2550 0.1742 l
0.2560 0.1744 l
0.2570 0.1746 l
0.2580 0.1749 l
0.2590 0.1751 l
0.2600 0.1753 l
0.2610 0.1756 l
0.2620 0.1758 l
0.2630 0.1760 l
0.2640 0.1763 l
0.2650 0.1765 l
0.2660 0.1767 l
0.2670 0.1770 l
0.2680 0.1772 l
0.2690 0.1775 l
0.2700 0.1777 l
0.2710 0.1779 l
0.2720 0.1782 l
0.2730 0.1784 l
0.2740 0.1787 l
0.2750 0.1789 l
0.2760 0.1792 l
0.2770 0.1794 l
0.2780 0.1797 l
0.2790 0.1800 l
0.2800 0.1802 l
0.2810 0.1805 l
0.2820 0.1807 l
0.2830 0.1810 l
0.2840 0.1813 l
0.2850 0.1815 l
0.2860 0.1818 l
0.2870 0.1820 l
0.2880 0.1823 l
0.2890 0.1826 l
0.2900 0.1829 l
0.2910 0.1831 l
0.2920 0.1834 l
0.2930 0.1837 l
0.2940 0.1839 l
0.2950 0.1842 l
0.2960 0.1845 l
0.2970 0.1848 l
0.2980 0.1851 l
0.2990 0.1853 l
0.3000 0.1856 l
0.3010 0.1859 l
0.3020 0.1862 l
0.3030 0.1865 l
0.3040 0.1868 l
0.3050 0.1871 l
0.3060 0.1874 l
0.3070 0.1877 l
0.3080 0.1879 l
0.3090 0.1882 l
0.3100 0.1885 l
0.3110 0.1888 l
0.3120 0.1891 l
0.3130 0.1894 l
0.3140 0.1897 l
0.3150 0.1900 l
0.3160 0.1903 l
0.3170 0.1907 l
0.3180 0.1910 l
0.3190 0.1913 l
0.3200 0.1916 l
0.3210 0.1919 l
0.3220 0.1922 l
0.3230 0.1925 l
0.3240 0.1928 l
0.3250 0.1932 l
0.3260 0.1935 l
0.3270 0.1938 l
0.3280 0.1941 l
0.3290 0.1944 l
0.3300 0.1948 l
0.3310 0.1951 l
0.3320 0.1954 l
0.3330 0.1957 l
0.3340 0.1961 l
0.3350 0.1964 l
0.3360 0.1967 l
0.3370 0.1971 l
0.3380 0.1974 l
0.3390 0.1977 l
0.3400 0.1981 l
0.3410 0.1984 l
0.3420 0.1987 l
0.3430 0.1991 l
0.3440 0.1994 l
0.3450 0.1998 l
0.3460 0.2001 l
0.3470 0.2005 l
0.3480 0.2008 l
0.3490 0.2012 l
0.3500 0.2015 l
0.3510 0.2019 l
0.3520 0.2022 l
0.3530 0.2026 l
0.3540 0.2029 l
0.3550 0.2033 l
0.3560 0.2036 l
0.3570 0.2040 l
0.3580 0.2044 l
0.3590 0.2047 l
0.3600 0.2051 l
0.3610 0.2055 l
0.3620 0.2058 l
0.3630 0.2062 l
0.3640 0.2066 l
0.3650 0.2069 l
0.3660 0.2073 l
0.3670 0.2077 l
0.3680 0.2080 l
0.3690 0.2084 l
0.3700 0.2088 l
0.3710 0.2092 l
0.3720 0.2095 l
0.3730 0.2099 l
0.3740 0.2103 l
0.3750 0.2107 l
0.3760 0.2111 l
0.3770 0.2115 l
0.3780 0.2118 l
0.3790 0.2122 l
0.3800 0.2126 l
0.3810 0.2130 l
0.3820 0.2134 l
0.3830 0.2138 l
0.3840 0.2142 l
0.3850 0.2146 l
0.3860 0.2150 l
0.3870 0.2154 l
0.3880 0.2158 l
0.3890 0.2162 l
0.3900 0.2166 l
0.3910 0.2170 l
0.3920 0.2174 l
0.3930 0.2178 l
0.3940 0.2182 l
0.3950 0.2186 l
0.3960 0.2190 l
0.3970 0.2194 l
0.3980 0.2198 l
0.3990 0.2203 l
0.4000 0.2207 l
0.4010 0.2211 l
0.4020 0.2215 l
0.4030 0.2219 l
0.4040 0.2223 l
0.4050 0.2228 l
0.4060 0.2232 l
0.4070 0.2236 l
0.4080 0.2240 l
0.4090 0.2245 l
0.4100 0.2249 l
0.4110 0.2253 l
0.4120 0.2257 l
0.4130 0.2262 l
0.4140 0.2266 l
0.4150 0.2270 l
0.4160 0.2275 l
0.4170 0.2279 l
0.4180 0.2284 l
0.4190 0.2288 l
0.4200 0.2292 l
0.4210 0.2297 l
0.4220 0.2301 l
0.4230 0.2306 l
0.4240 0.2310 l
0.4250 0.2314 l
0.4260 0.2319 l
0.4270 0.2323 l
0.4280 0.2328 l
0.4290 0.2332 l
0.4300 0.2337 l
0.4310 0.2341 l
0.4320 0.2346 l
0.4330 0.2351 l
0.4340 0.2355 l
0.4350 0.2360 l
0.4360 0.2364 l
0.4370 0.2369 l
0.4380 0.2374 l
0.4390 0.2378 l
0.4400 0.2383 l
0.4410 0.2387 l
0.4420 0.2392 l
0.4430 0.2397 l
0.4440 0.2401 l
0.4450 0.2406 l
0.4460 0.2411 l
0.4470 0.2416 l
0.4480 0.2420 l
0.4490 0.2425 l
0.4500 0.2430 l
0.4510 0.2435 l
0.4520 0.2439 l
0.4530 0.2444 l
0.4540 0.2449 l
0.4550 0.2454 l
0.4560 0.2459 l
0.4570 0.2463 l
0.4580 0.2468 l
0.4590 0.2473 l
0.4600 0.2478 l
0.4610 0.2483 l
0.4620 0.2488 l
0.4630 0.2493 l
0.4640 0.2498 l
0.4650 0.2503 l
0.4660 0.2508 l
0.4670 0.2512 l
0.4680 0.2517 l
0.4690 0.2522 l
0.4700 0.2527 l
0.4710 0.2532 l
0.4720 0.2537 l
0.4730 0.2542 l
0.4740 0.2548 l
0.4750 0.2553 l
0.4760 0.2558 l
0.4770 0.2563 l
0.4780 0.2568 l
0.4790 0.2573 l
0.4800 0.2578 l
0.4810 0.2583 l
0.4820 0.2588 l
0.4830 0.2593 l
0.4840 0.2599 l
0.4850 0.2604 l
0.4860 0.2609 l
0.4870 0.2614 l
0.4880 0.2619 l
0.4890 0.2624 l
0.4900 0.2630 l
0.4910 0.2635 l
0.4920 0.2640 l
0.4930 0.2645 l
0.4940 0.2651 l
0.4950 0.2656 l
0.4960 0.2661 l
0.4970 0.2667 l
0.4980 0.2672 l
0.4990 0.2677 l
0.5000 0.2683 l
0.5010 0.2688 l
0.5020 0.2693 l
0.5030 0.2699 l
0.5040 0.2704 l
0.5050 0.2709 l
0.5060 0.2715 l
0.5070 0.2720 l
0.5080 0.2726 l
0.5090 0.2731 l
0.5100 0.2737 l
0.5110 0.2742 l
0.5120 0.2747 l
0.5130 0.2753 l
0.5140 0.2758 l
0.5150 0.2764 l
0.5160 0.2769 l
0.5170 0.2775 l
0.5180 0.2780 l
0.5190 0.2786 l
0.5200 0.2792 l
0.5210 0.2797 l
0.5220 0.2803 l
0.5230 0.2808 l
0.5240 0.2814 l
0.5250 0.2820 l
0.5260 0.2825 l
0.5270 0.2831 l
0.5280 0.2836 l
0.5290 0.2842 l
0.5300 0.2848 l
0.5310 0.2853 l
0.5320 0.2859 l
0.5330 0.2865 l
0.5340 0.2870 l
0.5350 0.2876 l
0.5360 0.2882 l
0.5370 0.2888 l
0.5380 0.2893 l
0.5390 0.2899 l
0.5400 0.2905 l
0.5410 0.2911 l
0.5420 0.2917 l
0.5430 0.2922 l
0.5440 0.2928 l
0.5450 0.2934 l
0.5460 0.2940 l
0.5470 0.2946 l
0.5480 0.2951 l
0.5490 0.2957 l
0.5500 0.2963 l
0.5510 0.2969 l
0.5520 0.2975 l
0.5530 0.2981 l
0.5540 0.2987 l
0.5550 0.2993 l
0.5560 0.2999 l
0.5570 0.3005 l
0.5580 0.3011 l
0.5590 0.3017 l
0.5600 0.3023 l
0.5610 0.3029 l
0.5620 0.3035 l
0.5630 0.3041 l
0.5640 0.3047 l
0.5650 0.3053 l
0.5660 0.3059 l
0.5670 0.3065 l
0.5680 0.3071 l
0.5690 0.3077 l
0.5700 0.3083 l
0.5710 0.3089 l
0.5720 0.3095 l
0.5730 0.3101 l
0.5740 0.3107 l
0.5750 0.3113 l
0.5760 0.3120 l
0.5770 0.3126 l
0.5780 0.3132 l
0.5790 0.3138 l
0.5800 0.3144 l
0.5810 0.3150 l
0.5820 0.3157 l
0.5830 0.3163 l
0.5840 0.3169 l
0.5850 0.3175 l
0.5860 0.3182 l
0.5870 0.3188 l
0.5880 0.3194 l
0.5890 0.3200 l
0.5900 0.3207 l
0.5910 0.3213 l
0.5920 0.3219 l
0.5930 0.3226 l
0.5940 0.3232 l
0.5950 0.3238 l
0.5960 0.3245 l
0.5970 0.3251 l
0.5980 0.3257 l
0.5990 0.3264 l
0.6000 0.3270 l
0.6010 0.3276 l
0.6020 0.3283 l
0.6030 0.3289 l
0.6040 0.3296 l
0.6050 0.3302 l
0.6060 0.3308 l
0.6070 0.3315 l
0.6080 0.3321 l
0.6090 0.3328 l
0.6100 0.3334 l
0.6110 0.3341 l
0.6120 0.3347 l
0.6130 0.3354 l
0.6140 0.3360 l
0.6150 0.3367 l
0.6160 0.3373 l
0.6170 0.3380 l
0.6180 0.3386 l
0.6190 0.3393 l
0.6200 0.3400 l
0.6210 0.3406 l
0.6220 0.3413 l
0.6230 0.3419 l
0.6240 0.3426 l
0.6250 0.3433 l
0.6260 0.3439 l
0.6270 0.3446 l
0.6280 0.3453 l
0.6290 0.3459 l
0.6300 0.3466 l
0.6310 0.3473 l
0.6320 0.3479 l
0.6330 0.3486 l
0.6340 0.3493 l
0.6350 0.3499 l
0.6360 0.3506 l
0.6370 0.3513 l
0.6380 0.3519 l
0.6390 0.3526 l
0.6400 0.3533 l
0.6410 0.3540 l
0.6420 0.3547 l
0.6430 0.3553 l
0.6440 0.3560 l
0.6450 0.3567 l
0.6460 0.3574 l
0.6470 0.3581 l
0.6480 0.3587 l
0.6490 0.3594 l
0.6500 0.3601 l
0.6510 0.3608 l
0.6520 0.3615 l
0.6530 0.3622 l
0.6540 0.3629 l
0.6550 0.3635 l
0.6560 0.3642 l
0.6570 0.3649 l
0.6580 0.3656 l
0.6590 0.3663 l
0.6600 0.3670 l
0.6610 0.3677 l
0.6620 0.3684 l
0.6630 0.3691 l
0.6640 0.3698 l
0.6650 0.3705 l
0.6660 0.3712 l
0.6670 0.3719 l
0.6680 0.3726 l
0.6690 0.3733 l
0.6700 0.3740 l
0.6710 0.3747 l
0.6720 0.3754 l
0.6730 0.3761 l
0.6740 0.3768 l
0.6750 0.3775 l
0.6760 0.3782 l
0.6770 0.3789 l
0.6780 0.3796 l
0.6790 0.3803 l
0.6800 0.3811 l
0.6810 0.3818 l
0.6820 0.3825 l
0.6830 0.3832 l
0.6840 0.3839 l
0.6850 0.3846 l
0.6860 0.3853 l
0.6870 0.3861 l
0.6880 0.3868 l
0.6890 0.3875 l
0.6900 0.3882 l
0.6910 0.3889 l
0.6920 0.3897 l
0.6930 0.3904 l
0.6940 0.3911 l
0.6950 0.3918 l
0.6960 0.3926 l
0.6970 0.3933 l
0.6980 0.3940 l
0.6990 0.3947 l
0.7000 0.3955 l
0.7010 0.3962 l
0.7020 0.3969 l
0.7030 0.3976 l
0.7040 0.3984 l
0.7050 0.3991 l
0.7060 0.3998 l
0.7070 0.4006 l
0.7080 0.4013 l
0.7090 0.4020 l
0.7100 0.4028 l
0.7110 0.4035 l
0.7120 0.4043 l
0.7130 0.4050 l
0.7140 0.4057 l
0.7150 0.4065 l
0.7160 0.4072 l
0.7170 0.4080 l
0.7180 0.4087 l
0.7190 0.4094 l
0.7200 0.4102 l
0.7210 0.4109 l
0.7220 0.4117 l
0.7230 0.4124 l
0.7240 0.4132 l
0.7250 0.4139 l
0.7260 0.4147 l
0.7270 0.4154 l
0.7280 0.4162 l
0.7290 0.4169 l
0.7300 0.4177 l
0.7310 0.4184 l
0.7320 0.4192 l
0.7330 0.4199 l
0.7340 0.4207 l
0.7350 0.4214 l
0.7360 0.4222 l
0.7370 0.4230 l
0.7380 0.4237 l
0.7390 0.4245 l
0.7400 0.4252 l
0.7410 0.4260 l
0.7420 0.4268 l
0.7430 0.4275 l
0.7440 0.4283 l
0.7450 0.4290 l
0.7460 0.4298 l
0.7470 0.4306 l
0.7480 0.4313 l
0.7490 0.4321 l
0.7500 0.4329 l
0.7510 0.4336 l
0.7520 0.4344 l
0.7530 0.4352 l
0.7540 0.4359 l
0.7550 0.4367 l
0.7560 0.4375 l
0.7570 0.4383 l
0.7580 0.4390 l
0.7590 0.4398 l
0.7600 0.4406 l
0.7610 0.4414 l
0.7620 0.4421 l
0.7630 0.4429 l
0.7640 0.4437 l
0.7650 0.4445 l
0.7660 0.4453 l
0.7670 0.4460 l
0.7680 0.4468 l
0.7690 0.4476 l
0.7700 0.4484 l
0.7710 0.4492 l
0.7720 0.4499 l
0.7730 0.4507 l
0.7740 0.4515 l
0.7750 0.4523 l
0.7760 0.4531 l
0.7770 0.4539 l
0.7780 0.4547 l
0.7790 0.4554 l
0.7800 0.4562 l
0.7810 0.4570 l
0.7820 0.4578 l
0.7830 0.4586 l
0.7840 0.4594 l
0.7850 0.4602 l
0.7860 0.4610 l
0.7870 0.4618 l
0.7880 0.4626 l
0.7890 0.4634 l
0.7900 0.4642 l
0.7910 0.4650 l
0.7920 0.4658 l
0.7930 0.4666 l
0.7940 0.4674 l
0.7950 0.4682 l
0.7960 0.4690 l
0.7970 0.4698 l
0.7980 0.4706 l
0.7990 0.4714 l
0.8000 0.4722 l
0.8010 0.4730 l
0.8020 0.4738 l
0.8030 0.4746 l
0.8040 0.4754 l
0.8050 0.4762 l
0.8060 0.4770 l
0.8070 0.4778 l
0.8080 0.4786 l
0.8090 0.4794 l
0.8100 0.4802 l
0.8110 0.4810 l
0.8120 0.4819 l
0.8130 0.4827 l
0.8140 0.4835 l
0.8150 0.4843 l
0.8160 0.4851 l
0.8170 0.4859 l
0.8180 0.4867 l
0.8190 0.4876 l
0.8200 0.4884 l
0.8210 0.4892 l
0.8220 0.4900 l
0.8230 0.4908 l
0.8240 0.4916 l
0.8250 0.4925 l
0.8260 0.4933 l
0.8270 0.4941 l
0.8280 0.4949 l
0.8290 0.4957 l
0.8300 0.4966 l
0.8310 0.4974 l
0.8320 0.4982 l
0.8330 0.4990 l
0.8340 0.4999 l
0.8350 0.5007 l
0.8360 0.5015 l
0.8370 0.5023 l
0.8380 0.5032 l
0.8390 0.5040 l
0.8400 0.5048 l
0.8410 0.5057 l
0.8420 0.5065 l
0.8430 0.5073 l
0.8440 0.5082 l
0.8450 0.5090 l
0.8460 0.5098 l
0.8470 0.5107 l
0.8480 0.5115 l
0.8490 0.5123 l
0.8500 0.5132 l
0.8510 0.5140 l
0.8520 0.5148 l
0.8530 0.5157 l
0.8540 0.5165 l
0.8550 0.5173 l
0.8560 0.5182 l
0.8570 0.5190 l
0.8580 0.5199 l
0.8590 0.5207 l
0.8600 0.5215 l
0.8610 0.5224 l
0.8620 0.5232 l
0.8630 0.5241 l
0.8640 0.5249 l
0.8650 0.5258 l
0.8660 0.5266 l
0.8670 0.5275 l
0.8680 0.5283 l
0.8690 0.5291 l
0.8700 0.5300 l
0.8710 0.5308 l
0.8720 0.5317 l
0.8730 0.5325 l
0.8740 0.5334 l
0.8750 0.5342 l
0.8760 0.5351 l
0.8770 0.5359 l
0.8780 0.5368 l
0.8790 0.5376 l
0.8800 0.5385 l
0.8810 0.5393 l
0.8820 0.5402 l
0.8830 0.5411 l
0.8840 0.5419 l
0.8850 0.5428 l
0.8860 0.5436 l
0.8870 0.5445 l
0.8880 0.5453 l
0.8890 0.5462 l
0.8900 0.5471 l
0.8910 0.5479 l
0.8920 0.5488 l
0.8930 0.5496 l
0.8940 0.5505 l
0.8950 0.5514 l
0.8960 0.5522 l
0.8970 0.5531 l
0.8980 0.5539 l
0.8990 0.5548 l
0.9000 0.5557 l
0.9010 0.5565 l
0.9020 0.5574 l
0.9030 0.5583 l
0.9040 0.5591 l
0.9050 0.5600 l
0.9060 0.5609 l
0.9070 0.5617 l
0.9080 0.5626 l
0.9090 0.5635 l
0.9100 0.5643 l
0.9110 0.5652 l
0.9120 0.5661 l
0.9130 0.5669 l
0.9140 0.5678 l
0.9150 0.5687 l
0.9160 0.5696 l
0.9170 0.5704 l
0.9180 0.5713 l
0.9190 0.5722 l
0.9200 0.5731 l
0.9210 0.5739 l
0.9220 0.5748 l
0.9230 0.5757 l
0.9240 0.5766 l
0.9250 0.5774 l
0.9260 0.5783 l
0.9270 0.5792 l
0.9280 0.5801 l
0.9290 0.5809 l
0.9300 0.5818 l
0.9310 0.5827 l
0.9320 0.5836 l
0.9330 0.5845 l
0.9340 0.5853 l
0.9350 0.5862 l
0.9360 0.5871 l
0.9370 0.5880 l
0.9380 0.5889 l
0.9390 0.5898 l
0.9400 0.5906 l
0.9410 0.5915 l
0.9420 0.5924 l
0.9430 0.5933 l
0.9440 0.5942 l
0.9450 0.5951 l
0.9460 0.5960 l
0.9470 0.5968 l
0.9480 0.5977 l
0.9490 0.5986 l
0.9500 0.5995 l
0.9510 0.6004 l
0.9520 0.6013 l
0.9530 0.6022 l
0.9540 0.6031 l
0.9550 0.6040 l
0.9560 0.6048 l
0.9570 0.6057 l
0.9580 0.6066 l
0.9590 0.6075 l
0.9600 0.6084 l
0.9610 0.6093 l
0.9620 0.6102 l
0.9630 0.6111 l
0.9640 0.6120 l
0.9650 0.6129 l
0.9660 0.6138 l
0.9670 0.6147 l
0.9680 0.6156 l
0.9690 0.6165 l
0.9700 0.6174 l
0.9710 0.6183 l
0.9720 0.6192 l
0.9730 0.6201 l
0.9740 0.6210 l
0.9750 0.6219 l
0.9760 0.6228 l
0.9770 0.6237 l
0.9780 0.6246 l
0.9790 0.6255 l
0.9800 0.6264 l
0.9810 0.6273 l
0.9820 0.6282 l
0.9830 0.6291 l
0.9840 0.6300 l
0.9850 0.6309 l
0.9860 0.6318 l
0.9870 0.6327 l
0.9880 0.6336 l
0.9890 0.6345 l
0.9900 0.6354 l
0.9910 0.6363 l
0.9920 0.6372 l
0.9930 0.6381 l
0.9940 0.6390 l
0.9950 0.6400 l
0.9960 0.6409 l
0.9970 0.6418 l
0.9980 0.6427 l
0.9990 0.6436 l
1.0000 0.6445 l
1.0010 0.6454 l
1.0020 0.6463 l
1.0030 0.6472 l
1.0040 0.6481 l
1.0050 0.6491 l
1.0060 0.6500 l
1.0070 0.6509 l
1.0080 0.6518 l
1.0090 0.6527 l
1.0100 0.6536 l
1.0110 0.6545 l
1.0120 0.6554 l
1.0130 0.6564 l
1.0140 0.6573 l
1.0150 0.6582 l
1.0160 0.6591 l
1.0170 0.6600 l
1.0180 0.6609 l
1.0190 0.6619 l
1.0200 0.6628 l
1.0210 0.6637 l
1.0220 0.6646 l
1.0230 0.6655 l
1.0240 0.6664 l
1.0250 0.6674 l
1.0260 0.6683 l
1.0270 0.6692 l
1.0280 0.6701 l
1.0290 0.6710 l
1.0300 0.6720 l
1.0310 0.6729 l
1.0320 0.6738 l
1.0330 0.6747 l
1.0340 0.6757 l
1.0350 0.6766 l
1.0360 0.6775 l
1.0370 0.6784 l
1.0380 0.6793 l
1.0390 0.6803 l
1.0400 0.6812 l
1.0410 0.6821 l
1.0420 0.6830 l
1.0430 0.6840 l
1.0440 0.6849 l
1.0450 0.6858 l
1.0460 0.6868 l
1.0470 0.6877 l
1.0480 0.6886 l
1.0490 0.6895 l
1.0500 0.6905 l
1.0510 0.6914 l
1.0520 0.6923 l
1.0530 0.6932 l
1.0540 0.6942 l
1.0550 0.6951 l
1.0560 0.6960 l
1.0570 0.6970 l
1.0580 0.6979 l
1.0590 0.6988 l
1.0600 0.6998 l
1.0610 0.7007 l
1.0620 0.7016 l
1.0630 0.7025 l
1.0640 0.7035 l
1.0650 0.7044 l
1.0660 0.7053 l
1.0670 0.7063 l
1.0680 0.7072 l
1.0690 0.7081 l
1.0700 0.7091 l
1.0710 0.7100 l
1.0720 0.7109 l
1.0730 0.7119 l
1.0740 0.7128 l
1.0750 0.7137 l
1.0760 0.7147 l
1.0770 0.7156 l
1.0780 0.7166 l
1.0790 0.7175 l
1.0800 0.7184 l
1.0810 0.7194 l
1.0820 0.7203 l
1.0830 0.7212 l
1.0840 0.7222 l
1.0850 0.7231 l
1.0860 0.7240 l
1.0870 0.7250 l
1.0880 0.7259 l
1.0890 0.7269 l
1.0900 0.7278 l
1.0910 0.7287 l
1.0920 0.7297 l
1.0930 0.7306 l
1.0940 0.7316 l
1.0950 0.7325 l
1.0960 0.7334 l
1.0970 0.7344 l
1.0980 0.7353 l
1.0990 0.7363 l
1.1000 0.7372 l
1.1010 0.7381 l
1.1020 0.7391 l
1.1030 0.7400 l
1.1040 0.7410 l
1.1050 0.7419 l
1.1060 0.7429 l
1.1070 0.7438 l
1.1080 0.7447 l
1.1090 0.7457 l
1.1100 0.7466 l
1.1110 0.7476 l
1.1120 0.7485 l
1.1130 0.7495 l
1.1140 0.7504 l
1.1150 0.7514 l
1.1160 0.7523 l
1.1170 0.7532 l
1.1180 0.7542 l
1.1190 0.7551 l
1.1200 0.7561 l
1.1210 0.7570 l
1.1220 0.7580 l
1.1230 0.7589 l
1.1240 0.7599 l
1.1250 0.7608 l
1.1260 0.7618 l
1.1270 0.7627 l
1.1280 0.7637 l
1.1290 0.7646 l
1.1300 0.7656 l
1.1310 0.7665 l
1.1320 0.7675 l
1.1330 0.7684 l
1.1340 0.7694 l
1.1350 0.7703 l
1.1360 0.7713 l
1.1370 0.7722 l
1.1380 0.7731 l
1.1390 0.7741 l
1.1400 0.7750 l
1.1410 0.7760 l
1.1420 0.7769 l
1.1430 0.7779 l
1.1440 0.7789 l
1.1450 0.7798 l
1.1460 0.7808 l
1.1470 0.7817 l
1.1480 0.7827 l
1.1490 0.7836 l
1.1500 0.7846 l
1.1501 0.7847 l
s
n
0.1619 0.1508 m
0.1619 0.1678 l
0.1789 0.1678 l
0.1789 0.1508 l
c
[/DeviceRGB] SCS
Color4 SC
fill
[] 0 SD
0.0015 SLW
n
0.1619 0.1508 m
0.1619 0.1678 l
0.1789 0.1678 l
0.1789 0.1508 l
0.1619 0.1508 l
c
s
n
0.1820 0.1595 m
0.1820 0.1765 l
0.1990 0.1765 l
0.1990 0.1595 l
c
fill
n
0.1820 0.1595 m
0.1820 0.1765 l
0.1990 0.1765 l
0.1990 0.1595 l
0.1820 0.1595 l
c
s
n
0.2223 0.1657 m
0.2223 0.1827 l
0.2393 0.1827 l
0.2393 0.1657 l
c
fill
n
0.2223 0.1657 m
0.2223 0.1827 l
0.2393 0.1827 l
0.2393 0.1657 l
0.2223 0.1657 l
c
s
n
0.2617 0.1719 m
0.2617 0.1889 l
0.2787 0.1889 l
0.2787 0.1719 l
c
fill
n
0.2617 0.1719 m
0.2617 0.1889 l
0.2787 0.1889 l
0.2787 0.1719 l
0.2617 0.1719 l
c
s
n
0.3020 0.1831 m
0.3020 0.2001 l
0.3190 0.2001 l
0.3190 0.1831 l
c
fill
n
0.3020 0.1831 m
0.3020 0.2001 l
0.3190 0.2001 l
0.3190 0.1831 l
0.3020 0.1831 l
c
s
n
0.3413 0.1930 m
0.3413 0.2100 l
0.3583 0.2100 l
0.3583 0.1930 l
c
fill
n
0.3413 0.1930 m
0.3413 0.2100 l
0.3583 0.2100 l
0.3583 0.1930 l
0.3413 0.1930 l
c
s
n
0.3826 0.2042 m
0.3826 0.2212 l
0.3996 0.2212 l
0.3996 0.2042 l
c
fill
n
0.3826 0.2042 m
0.3826 0.2212 l
0.3996 0.2212 l
0.3996 0.2042 l
0.3826 0.2042 l
c
s
n
0.4210 0.2142 m
0.4210 0.2312 l
0.4380 0.2312 l
0.4380 0.2142 l
c
fill
n
0.4210 0.2142 m
0.4210 0.2312 l
0.4380 0.2312 l
0.4380 0.2142 l
0.4210 0.2142 l
c
s
n
0.4623 0.2304 m
0.4623 0.2474 l
0.4793 0.2474 l
0.4793 0.2304 l
c
fill
n
0.4623 0.2304 m
0.4623 0.2474 l
0.4793 0.2474 l
0.4793 0.2304 l
0.4623 0.2304 l
c
s
n
0.5429 0.2702 m
0.5429 0.2872 l
0.5599 0.2872 l
0.5599 0.2702 l
c
fill
n
0.5429 0.2702 m
0.5429 0.2872 l
0.5599 0.2872 l
0.5599 0.2702 l
0.5429 0.2702 l
c
s
n
0.6216 0.3162 m
0.6216 0.3332 l
0.6386 0.3332 l
0.6386 0.3162 l
c
fill
n
0.6216 0.3162 m
0.6216 0.3332 l
0.6386 0.3332 l
0.6386 0.3162 l
0.6216 0.3162 l
c
s
n
0.7013 0.3734 m
0.7013 0.3904 l
0.7183 0.3904 l
0.7183 0.3734 l
c
fill
n
0.7013 0.3734 m
0.7013 0.3904 l
0.7183 0.3904 l
0.7183 0.3734 l
0.7013 0.3734 l
c
s
n
0.7830 0.4381 m
0.7830 0.4551 l
0.8000 0.4551 l
0.8000 0.4381 l
c
fill
n
0.7830 0.4381 m
0.7830 0.4551 l
0.8000 0.4551 l
0.8000 0.4381 l
0.7830 0.4381 l
c
s
n
0.9424 0.6210 m
0.9424 0.6380 l
0.9594 0.6380 l
0.9594 0.6210 l
c
fill
n
0.9424 0.6210 m
0.9424 0.6380 l
0.9594 0.6380 l
0.9594 0.6210 l
0.9424 0.6210 l
c
s
n
0.1905 0.1745 m
0.1805 0.1572 l
0.2005 0.1572 l
c
[/DeviceRGB] SCS
Color6 SC
fill
n
0.1905 0.1745 m
0.1805 0.1572 l
0.2005 0.1572 l
0.1905 0.1745 l
c
s
n
0.2299 0.1808 m
0.2199 0.1634 l
0.2399 0.1634 l
c
fill
n
0.2299 0.1808 m
0.2199 0.1634 l
0.2399 0.1634 l
0.2299 0.1808 l
c
s
n
0.2711 0.1857 m
0.2611 0.1684 l
0.2811 0.1684 l
c
fill
n
0.2711 0.1857 m
0.2611 0.1684 l
0.2811 0.1684 l
0.2711 0.1857 l
c
s
n
0.3105 0.1932 m
0.3005 0.1759 l
0.3205 0.1759 l
c
fill
n
0.3105 0.1932 m
0.3005 0.1759 l
0.3205 0.1759 l
0.3105 0.1932 l
c
s
n
0.3498 0.2044 m
0.3398 0.1871 l
0.3598 0.1871 l
c
fill
n
0.3498 0.2044 m
0.3398 0.1871 l
0.3598 0.1871 l
0.3498 0.2044 l
c
s
n
0.3901 0.2168 m
0.3801 0.1995 l
0.4001 0.1995 l
c
fill
n
0.3901 0.2168 m
0.3801 0.1995 l
0.4001 0.1995 l
0.3901 0.2168 l
c
s
n
0.4314 0.2342 m
0.4214 0.2169 l
0.4414 0.2169 l
c
fill
n
0.4314 0.2342 m
0.4214 0.2169 l
0.4414 0.2169 l
0.4314 0.2342 l
c
s
n
0.4708 0.2541 m
0.4608 0.2368 l
0.4808 0.2368 l
c
fill
n
0.4708 0.2541 m
0.4608 0.2368 l
0.4808 0.2368 l
0.4708 0.2541 l
c
s
n
0.5111 0.2815 m
0.5011 0.2642 l
0.5211 0.2642 l
c
fill
n
0.5111 0.2815 m
0.5011 0.2642 l
0.5211 0.2642 l
0.5111 0.2815 l
c
s
n
0.5514 0.3114 m
0.5414 0.2941 l
0.5614 0.2941 l
c
fill
n
0.5514 0.3114 m
0.5414 0.2941 l
0.5614 0.2941 l
0.5514 0.3114 l
c
s
n
0.5908 0.3475 m
0.5808 0.3301 l
0.6008 0.3301 l
c
fill
n
0.5908 0.3475 m
0.5808 0.3301 l
0.6008 0.3301 l
0.5908 0.3475 l
c
s
n
0.6302 0.3885 m
0.6202 0.3712 l
0.6402 0.3712 l
c
fill
n
0.6302 0.3885 m
0.6202 0.3712 l
0.6402 0.3712 l
0.6302 0.3885 l
c
s
n
0.6705 0.4383 m
0.6605 0.4209 l
0.6805 0.4209 l
c
fill
n
0.6705 0.4383 m
0.6605 0.4209 l
0.6805 0.4209 l
0.6705 0.4383 l
c
s
n
0.7109 0.4930 m
0.7009 0.4757 l
0.7209 0.4757 l
c
fill
n
0.7109 0.4930 m
0.7009 0.4757 l
0.7209 0.4757 l
0.7109 0.4930 l
c
s
n
0.7513 0.5540 m
0.7413 0.5366 l
0.7613 0.5366 l
c
fill
n
0.7513 0.5540 m
0.7413 0.5366 l
0.7613 0.5366 l
0.7513 0.5540 l
c
s
n
0.7907 0.6236 m
0.7807 0.6063 l
0.8007 0.6063 l
c
fill
n
0.7907 0.6236 m
0.7807 0.6063 l
0.8007 0.6063 l
0.7907 0.6236 l
c
s
n
0.8310 0.6945 m
0.8210 0.6772 l
0.8410 0.6772 l
c
fill
n
0.8310 0.6945 m
0.8210 0.6772 l
0.8410 0.6772 l
0.8310 0.6945 l
c
s
n
0.8724 0.7804 m
0.8624 0.7631 l
0.8824 0.7631 l
c
fill
n
0.8724 0.7804 m
0.8624 0.7631 l
0.8824 0.7631 l
0.8724 0.7804 l
c
s
n
0.1896 0.1655 m
0.1796 0.1555 l
0.1896 0.1455 l
0.1996 0.1555 l
c
[/DeviceRGB] SCS
Color11 SC
fill
n
0.1896 0.1655 m
0.1796 0.1555 l
0.1896 0.1455 l
0.1996 0.1555 l
0.1896 0.1655 l
c
s
n
0.2308 0.1717 m
0.2208 0.1617 l
0.2308 0.1517 l
0.2408 0.1617 l
c
fill
n
0.2308 0.1717 m
0.2208 0.1617 l
0.2308 0.1517 l
0.2408 0.1617 l
0.2308 0.1717 l
c
s
n
0.2500 0.1756 m
0.2400 0.1656 l
0.2500 0.1556 l
0.2600 0.1656 l
c
fill
n
0.2500 0.1756 m
0.2400 0.1656 l
0.2500 0.1556 l
0.2600 0.1656 l
0.2500 0.1756 l
c
s
n
0.2913 0.1815 m
0.2813 0.1715 l
0.2913 0.1615 l
0.3013 0.1715 l
c
fill
n
0.2913 0.1815 m
0.2813 0.1715 l
0.2913 0.1615 l
0.3013 0.1715 l
0.2913 0.1815 l
c
s
n
0.3201 0.1879 m
0.3101 0.1779 l
0.3201 0.1679 l
0.3301 0.1779 l
c
fill
n
0.3201 0.1879 m
0.3101 0.1779 l
0.3201 0.1679 l
0.3301 0.1779 l
0.3201 0.1879 l
c
s
n
0.3489 0.1954 m
0.3389 0.1854 l
0.3489 0.1754 l
0.3589 0.1854 l
c
fill
n
0.3489 0.1954 m
0.3389 0.1854 l
0.3489 0.1754 l
0.3589 0.1854 l
0.3489 0.1954 l
c
s
n
0.4007 0.2190 m
0.3907 0.2090 l
0.4007 0.1990 l
0.4107 0.2090 l
c
fill
n
0.4007 0.2190 m
0.3907 0.2090 l
0.4007 0.1990 l
0.4107 0.2090 l
0.4007 0.2190 l
c
s
n
0.4497 0.2451 m
0.4397 0.2351 l
0.4497 0.2251 l
0.4597 0.2351 l
c
fill
n
0.4497 0.2451 m
0.4397 0.2351 l
0.4497 0.2251 l
0.4597 0.2351 l
0.4497 0.2451 l
c
s
n
0.4996 0.2837 m
0.4896 0.2737 l
0.4996 0.2637 l
0.5096 0.2737 l
c
fill
n
0.4996 0.2837 m
0.4896 0.2737 l
0.4996 0.2637 l
0.5096 0.2737 l
0.4996 0.2837 l
c
s
n
0.5505 0.3297 m
0.5405 0.3197 l
0.5505 0.3097 l
0.5605 0.3197 l
c
fill
n
0.5505 0.3297 m
0.5405 0.3197 l
0.5505 0.3097 l
0.5605 0.3197 l
0.5505 0.3297 l
c
s
n
0.6504 0.4591 m
0.6404 0.4491 l
0.6504 0.4391 l
0.6604 0.4491 l
c
fill
n
0.6504 0.4591 m
0.6404 0.4491 l
0.6504 0.4391 l
0.6604 0.4491 l
0.6504 0.4591 l
c
s
n
0.7504 0.6457 m
0.7404 0.6357 l
0.7504 0.6257 l
0.7604 0.6357 l
c
fill
n
0.7504 0.6457 m
0.7404 0.6357 l
0.7504 0.6257 l
0.7604 0.6357 l
0.7504 0.6457 l
c
s
[/DeviceRGB] SCS
Color2 SC
[] 0 SD
0.0037 SLW
n 0.2300 0.1692 0.0100 0.0100 0 360 EARC s
n 0.3100 0.1871 0.0100 0.0100 0 360 EARC s
n 0.3500 0.1983 0.0100 0.0100 0 360 EARC s
n 0.4500 0.2324 0.0100 0.0100 0 360 EARC s
n 0.5500 0.2784 0.0100 0.0100 0 360 EARC s
n 0.6500 0.3388 0.0100 0.0100 0 360 EARC s
n 0.7500 0.4121 0.0100 0.0100 0 360 EARC s
n 0.8500 0.4947 0.0100 0.0100 0 360 EARC s
n 0.9500 0.5835 0.0100 0.0100 0 360 EARC s
n 1.0500 0.6765 0.0100 0.0100 0 360 EARC s
n 1.1500 0.7722 0.0100 0.0100 0 360 EARC s
[/DeviceRGB] SCS
Color1 SC
[] 0 SD
0.0045 SLW
n
0.1500 0.1500 m
1.1500 0.1500 l
s
n
0.1500 0.8500 m
1.1500 0.8500 l
s
n
0.2000 0.1500 m
0.2000 0.1600 l
s
n
0.2000 0.8500 m
0.2000 0.8400 l
s
n
0.3000 0.1500 m
0.3000 0.1600 l
s
n
0.3000 0.8500 m
0.3000 0.8400 l
s
n
0.4000 0.1500 m
0.4000 0.1600 l
s
n
0.4000 0.8500 m
0.4000 0.8400 l
s
n
0.5000 0.1500 m
0.5000 0.1600 l
s
n
0.5000 0.8500 m
0.5000 0.8400 l
s
n
0.6000 0.1500 m
0.6000 0.1600 l
s
n
0.6000 0.8500 m
0.6000 0.8400 l
s
n
0.7000 0.1500 m
0.7000 0.1600 l
s
n
0.7000 0.8500 m
0.7000 0.8400 l
s
n
0.8000 0.1500 m
0.8000 0.1600 l
s
n
0.8000 0.8500 m
0.8000 0.8400 l
s
n
0.9000 0.1500 m
0.9000 0.1600 l
s
n
0.9000 0.8500 m
0.9000 0.8400 l
s
n
1.0000 0.1500 m
1.0000 0.1600 l
s
n
1.0000 0.8500 m
1.0000 0.8400 l
s
n
1.1000 0.1500 m
1.1000 0.1600 l
s
n
1.1000 0.8500 m
1.1000 0.8400 l
s
n
0.1500 0.1500 m
0.1500 0.1700 l
s
n
0.1500 0.8500 m
0.1500 0.8300 l
s
n
0.2500 0.1500 m
0.2500 0.1700 l
s
n
0.2500 0.8500 m
0.2500 0.8300 l
s
n
0.3500 0.1500 m
0.3500 0.1700 l
s
n
0.3500 0.8500 m
0.3500 0.8300 l
s
n
0.4500 0.1500 m
0.4500 0.1700 l
s
n
0.4500 0.8500 m
0.4500 0.8300 l
s
n
0.5500 0.1500 m
0.5500 0.1700 l
s
n
0.5500 0.8500 m
0.5500 0.8300 l
s
n
0.6500 0.1500 m
0.6500 0.1700 l
s
n
0.6500 0.8500 m
0.6500 0.8300 l
s
n
0.7500 0.1500 m
0.7500 0.1700 l
s
n
0.7500 0.8500 m
0.7500 0.8300 l
s
n
0.8500 0.1500 m
0.8500 0.1700 l
s
n
0.8500 0.8500 m
0.8500 0.8300 l
s
n
0.9500 0.1500 m
0.9500 0.1700 l
s
n
0.9500 0.8500 m
0.9500 0.8300 l
s
n
1.0500 0.1500 m
1.0500 0.1700 l
s
n
1.0500 0.8500 m
1.0500 0.8300 l
s
n
1.1500 0.1500 m
1.1500 0.1700 l
s
n
1.1500 0.8500 m
1.1500 0.8300 l
s
/Times-Roman findfont
dup length dict begin
 {1 index /FID ne {def} {pop pop} ifelse} forall
 /Encoding DefEncoding def
 currentdict
end
/Font0 exch definefont pop
/Font0 FFSF
0.1394 0.1094 m
GS
[0.0448 0.0000 0.0000 0.0448 0 0] CC
(0) show
GR
/Font0 FFSF
0.2243 0.1094 m
GS
[0.0448 0.0000 0.0000 0.0448 0 0] CC
(0.1) show
GR
/Font0 FFSF
0.3225 0.1094 m
GS
[0.0448 0.0000 0.0000 0.0448 0 0] CC
(0.2) show
GR
/Font0 FFSF
0.4233 0.1094 m
GS
[0.0448 0.0000 0.0000 0.0448 0 0] CC
(0.3) show
GR
/Font0 FFSF
0.5225 0.1094 m
GS
[0.0448 0.0000 0.0000 0.0448 0 0] CC
(0.4) show
GR
/Font0 FFSF
0.6233 0.1090 m
GS
[0.0448 0.0000 0.0000 0.0448 0 0] CC
(0.5) show
GR
/Font0 FFSF
0.7227 0.1094 m
GS
[0.0448 0.0000 0.0000 0.0448 0 0] CC
(0.6) show
GR
/Font0 FFSF
0.8231 0.1094 m
GS
[0.0448 0.0000 0.0000 0.0448 0 0] CC
(0.7) show
GR
/Font0 FFSF
0.9231 0.1094 m
GS
[0.0448 0.0000 0.0000 0.0448 0 0] CC
(0.8) show
GR
/Font0 FFSF
1.0229 0.1094 m
GS
[0.0448 0.0000 0.0000 0.0448 0 0] CC
(0.9) show
GR
/Font0 FFSF
1.1412 0.1094 m
GS
[0.0448 0.0000 0.0000 0.0448 0 0] CC
(1) show
GR
/Times-Italic findfont
dup length dict begin
 {1 index /FID ne {def} {pop pop} ifelse} forall
 /Encoding DefEncoding def
 currentdict
end
/Font1 exch definefont pop
/Font1 FFSF
0.5735 0.0441 m
GS
[0.0504 0.0000 0.0000 0.0504 0 0] CC
(n) show
GR
/Font0 FFSF
0.5986 0.0441 m
GS
[0.0504 0.0000 0.0000 0.0504 0 0] CC
( [fm) show
GR
/Font0 FFSF
0.6841 0.0743 m
GS
[0.0356 0.0000 0.0000 0.0356 0 0] CC
(-3) show
GR
/Font0 FFSF
0.7139 0.0441 m
GS
[0.0504 0.0000 0.0000 0.0504 0 0] CC
(]) show
GR
n
0.1500 0.1500 m
0.1500 0.8500 l
s
n
1.1500 0.1500 m
1.1500 0.8500 l
s
n
0.1500 0.2077 m
0.1600 0.2077 l
s
n
1.1500 0.2077 m
1.1400 0.2077 l
s
n
0.1500 0.3245 m
0.1600 0.3245 l
s
n
1.1500 0.3245 m
1.1400 0.3245 l
s
n
0.1500 0.4413 m
0.1600 0.4413 l
s
n
1.1500 0.4413 m
1.1400 0.4413 l
s
n
0.1500 0.5580 m
0.1600 0.5580 l
s
n
1.1500 0.5580 m
1.1400 0.5580 l
s
n
0.1500 0.6748 m
0.1600 0.6748 l
s
n
1.1500 0.6748 m
1.1400 0.6748 l
s
n
0.1500 0.7916 m
0.1600 0.7916 l
s
n
1.1500 0.7916 m
1.1400 0.7916 l
s
n
0.1500 0.2661 m
0.1700 0.2661 l
s
n
1.1500 0.2661 m
1.1300 0.2661 l
s
n
0.1500 0.3829 m
0.1700 0.3829 l
s
n
1.1500 0.3829 m
1.1300 0.3829 l
s
n
0.1500 0.4996 m
0.1700 0.4996 l
s
n
1.1500 0.4996 m
1.1300 0.4996 l
s
n
0.1500 0.6164 m
0.1700 0.6164 l
s
n
1.1500 0.6164 m
1.1300 0.6164 l
s
n
0.1500 0.7332 m
0.1700 0.7332 l
s
n
1.1500 0.7332 m
1.1300 0.7332 l
s
n
0.1500 0.8500 m
0.1700 0.8500 l
s
n
1.1500 0.8500 m
1.1300 0.8500 l
s
/Font0 FFSF
0.0965 0.2510 m
GS
[0.0448 0.0000 0.0000 0.0448 0 0] CC
(50) show
GR
/Font0 FFSF
0.0741 0.3680 m
GS
[0.0448 0.0000 0.0000 0.0448 0 0] CC
(100) show
GR
/Font0 FFSF
0.0741 0.4846 m
GS
[0.0448 0.0000 0.0000 0.0448 0 0] CC
(150) show
GR
/Font0 FFSF
0.0741 0.6015 m
GS
[0.0448 0.0000 0.0000 0.0448 0 0] CC
(200) show
GR
/Font0 FFSF
0.0741 0.7181 m
GS
[0.0448 0.0000 0.0000 0.0448 0 0] CC
(250) show
GR
/Font0 FFSF
0.0741 0.8351 m
GS
[0.0448 0.0000 0.0000 0.0448 0 0] CC
(300) show
GR
/Font0 FFSF
0.0563 0.3867 m
GS
[0.0000 0.0504 -0.0504 0.0000 0 0] CC
(E/N [MeV]) show
GR
[] 0 SD
0.0015 SLW
n
0.1500 0.1500 m
0.1500 0.8500 l
1.1500 0.8500 l
1.1500 0.1500 l
0.1500 0.1500 l
c
s
n
0.1500 0.8500 m
0.1500 0.6014 l
0.5342 0.6014 l
0.5342 0.8500 l
c
[/DeviceRGB] SCS
Color0 SC
fill
[/DeviceRGB] SCS
Color1 SC
[] 0 SD
0.0045 SLW
n
0.1500 0.8500 m
0.1500 0.6014 l
0.5342 0.6014 l
0.5342 0.8500 l
0.1500 0.8500 l
c
s
/Font0 FFSF
0.2223 0.8063 m
GS
[0.0498 0.0000 0.0000 0.0498 0 0] CC
(LYVA1) show
GR
[/DeviceRGB] SCS
Color2 SC
n
0.1623 0.8229 m
0.2023 0.8229 l
s
/Font0 FFSF
[/DeviceRGB] SCS
Color1 SC
0.2223 0.7618 m
GS
[0.0498 0.0000 0.0000 0.0498 0 0] CC
(Akmal ) show
GR
/Font1 FFSF
0.3705 0.7618 m
GS
[0.0498 0.0000 0.0000 0.0498 0 0] CC
( et al.) show
GR
n
0.1738 0.7701 m
0.1738 0.7871 l
0.1908 0.7871 l
0.1908 0.7701 l
c
[/DeviceRGB] SCS
Color4 SC
fill
[] 0 SD
0.0015 SLW
n
0.1738 0.7701 m
0.1738 0.7871 l
0.1908 0.7871 l
0.1908 0.7701 l
0.1738 0.7701 l
c
s
/Font0 FFSF
[/DeviceRGB] SCS
Color1 SC
0.2223 0.7173 m
GS
[0.0498 0.0000 0.0000 0.0498 0 0] CC
(Li ) show
GR
/Font1 FFSF
0.2791 0.7173 m
GS
[0.0498 0.0000 0.0000 0.0498 0 0] CC
(et al.) show
GR
/Font0 FFSF
0.3787 0.7173 m
GS
[0.0498 0.0000 0.0000 0.0498 0 0] CC
( \(V18\)) show
GR
n
0.1823 0.7415 m
0.1723 0.7242 l
0.1923 0.7242 l
c
[/DeviceRGB] SCS
Color6 SC
fill
n
0.1823 0.7415 m
0.1723 0.7242 l
0.1923 0.7242 l
0.1823 0.7415 l
c
s
/Font0 FFSF
[/DeviceRGB] SCS
Color1 SC
0.2223 0.6645 m
GS
[0.0498 0.0000 0.0000 0.0498 0 0] CC
(Li ) show
GR
/Font1 FFSF
0.2791 0.6645 m
GS
[0.0498 0.0000 0.0000 0.0498 0 0] CC
(et al.) show
GR
/Font0 FFSF
0.3787 0.6645 m
GS
[0.0498 0.0000 0.0000 0.0498 0 0] CC
( \(BOB\)) show
GR
n
0.1823 0.6873 m
0.1723 0.6773 l
0.1823 0.6673 l
0.1923 0.6773 l
c
[/DeviceRGB] SCS
Color11 SC
fill
n
0.1823 0.6873 m
0.1723 0.6773 l
0.1823 0.6673 l
0.1923 0.6773 l
0.1823 0.6873 l
c
s
/Font0 FFSF
[/DeviceRGB] SCS
Color1 SC
0.2223 0.6122 m
GS
[0.0498 0.0000 0.0000 0.0498 0 0] CC
(BBG) show
GR
[/DeviceRGB] SCS
Color2 SC
[] 0 SD
0.0037 SLW
n 0.1823 0.6286 0.0100 0.0100 0 360 EARC s
[/DeviceRGB] SCS
Color1 SC
[] 0 SD
0.0015 SLW
n
0.3752 0.8497 m
0.3725 0.8458 l
s
%%Trailer
%%BoundingBox: 12 21 713 531
%%DocumentNeededResources: font Times-Roman
%%+ font Times-Italic
%%EOF
