%!PS-Adobe-3.0 EPSF-3.0
%%BoundingBox: (atend)
%%LanguageLevel: 2
%%Creator: Grace-5.1.21
%%CreationDate: Tue Aug  4 16:30:09 2015
%%DocumentData: Clean8Bit
%%Orientation: Portrait
%%Title: masseffSNM.agr
%%For: pastorea
%%DocumentNeededResources: (atend)
%%EndComments
%%BeginProlog
/m {moveto} def
/l {lineto} def
/s {stroke} def
/n {newpath} def
/c {closepath} def
/RL {rlineto} def
/SLW {setlinewidth} def
/GS {gsave} def
/GR {grestore} def
/SC {setcolor} def
/SGRY {setgray} def
/SRGB {setrgbcolor} def
/SD {setdash} def
/SLC {setlinecap} def
/SLJ {setlinejoin} def
/SCS {setcolorspace} def
/FFSF {findfont setfont} def
/CC {concat} def
/PXL {n m 0 0 RL s} def
/Color0 {1.0000 1.0000 1.0000} def
/Color1 {0.0000 0.0000 0.0000} def
/Color2 {1.0000 0.0000 0.0000} def
/Color3 {0.0000 1.0000 0.0000} def
/Color4 {0.0000 0.0000 1.0000} def
/Color5 {1.0000 1.0000 0.0000} def
/Color6 {0.7373 0.5608 0.5608} def
/Color7 {0.8627 0.8627 0.8627} def
/Color8 {0.5804 0.0000 0.8275} def
/Color9 {0.0000 1.0000 1.0000} def
/Color10 {1.0000 0.0000 1.0000} def
/Color11 {1.0000 0.6471 0.0000} def
/Color12 {0.4471 0.1294 0.7373} def
/Color13 {0.4039 0.0275 0.2824} def
/Color14 {0.2510 0.8784 0.8157} def
/Color15 {0.0000 0.5451 0.0000} def
/Color16 {0.7529 0.7529 0.7529} def
/Color17 {0.5059 0.5059 0.5059} def
/Color18 {0.2588 0.2588 0.2588} def
/PTRN {
 /pat_bits exch def 
 <<
  /PaintType 2
  /PatternType 1 /TilingType 1
  /BBox[0 0 16 16]
  /XStep 16 /YStep 16
  /PaintProc {
   pop
   16 16 true [-1 0 0 -1 16 16] pat_bits imagemask
  }
 >>
 [0.0016 0 0 0.0016 0 0]
 makepattern
} def
/Pattern0 {<0000000000000000000000000000000000000000000000000000000000000000> PTRN} bind def
/Pattern1 {<ffffffffffffffffffffffffffffffffffffffffffffffffffffffffffffffff> PTRN} bind def
/Pattern2 {<eeeeffffbbbbffffeeeeffffbbbbffffeeeeffffbbbbffffeeeeffffbbbbffff> PTRN} bind def
/Pattern3 {<eeeebbbbeeeebbbbeeeebbbbeeeebbbbeeeebbbbeeeebbbbeeeebbbbeeeebbbb> PTRN} bind def
/Pattern4 {<5555aaaa5555aaaa5555aaaa5555aaaa5555aaaa5555aaaa5555aaaa5555aaaa> PTRN} bind def
/Pattern5 {<1111444411114444111144441111444411114444111144441111444411114444> PTRN} bind def
/Pattern6 {<1111000044440000111100004444000011110000444400001111000044440000> PTRN} bind def
/Pattern7 {<1010000000000000010100000000000010100000000000000101000000000000> PTRN} bind def
/Pattern8 {<0000000000000000000000000000000000000000000000000000000000000000> PTRN} bind def
/Pattern9 {<1e1e0f0f8787c3c3e1e1f0f078783c3c1e1e0f0f8787c3c3e1e1f0f078783c3c> PTRN} bind def
/Pattern10 {<7878f0f0e1e1c3c387870f0f1e1e3c3c7878f0f0e1e1c3c387870f0f1e1e3c3c> PTRN} bind def
/Pattern11 {<3333333333333333333333333333333333333333333333333333333333333333> PTRN} bind def
/Pattern12 {<ffffffff00000000ffffffff00000000ffffffff00000000ffffffff00000000> PTRN} bind def
/Pattern13 {<8181424224241818181824244242818181814242242418181818242442428181> PTRN} bind def
/Pattern14 {<8080404020201010080804040202010180804040202010100808040402020101> PTRN} bind def
/Pattern15 {<0101020204040808101020204040808001010202040408081010202040408080> PTRN} bind def
/Pattern16 {<2222222222222222222222222222222222222222222222222222222222222222> PTRN} bind def
/Pattern17 {<0000ffff000000000000ffff000000000000ffff000000000000ffff00000000> PTRN} bind def
/Pattern18 {<2222ffff222222222222ffff222222222222ffff222222222222ffff22222222> PTRN} bind def
/Pattern19 {<ffffffff33333333ffffffff33333333ffffffff33333333ffffffff33333333> PTRN} bind def
/Pattern20 {<0f0f0f0f0f0f0f0ff0f0f0f0f0f0f0f00f0f0f0f0f0f0f0ff0f0f0f0f0f0f0f0> PTRN} bind def
/Pattern21 {<ff00ff00ff00ff00ff00ff00ff00ff0000ff00ff00ff00ff00ff00ff00ff00ff> PTRN} bind def
/Pattern22 {<8001800180018001800180018001ffffffff8001800180018001800180018001> PTRN} bind def
/Pattern23 {<c003c003c003c003c003c003ffffffffffffffffc003c003c003c003c003c003> PTRN} bind def
/Pattern24 {<040404040404ffff404040404040ffff040404040404ffff404040404040ffff> PTRN} bind def
/Pattern25 {<180018001800180018001800ffffffff001800180018001800180018ffffffff> PTRN} bind def
/Pattern26 {<1111b8b87c7c3a3a1111a3a3c7c78b8b1111b8b87c7c3a3a1111a3a3c7c78b8b> PTRN} bind def
/Pattern27 {<101010102828c7c70101010182827c7c101010102828c7c70101010182827c7c> PTRN} bind def
/Pattern28 {<1c1c121211112121c1c12121111112121c1c121211112121c1c1212111111212> PTRN} bind def
/Pattern29 {<3e3e414180808080e3e31414080808083e3e414180808080e3e3141408080808> PTRN} bind def
/Pattern30 {<4848888884848383848488884848383848488888848483838484888848483838> PTRN} bind def
/Pattern31 {<03030404080808080c0c12122121c0c003030404080808080c0c12122121c0c0> PTRN} bind def
/ellipsedict 8 dict def
ellipsedict /mtrx matrix put
/EARC {
 ellipsedict begin
  /endangle exch def
  /startangle exch def
  /yrad exch def
  /xrad exch def
  /y exch def
  /x exch def
  /savematrix mtrx currentmatrix def
  x y translate
  xrad yrad scale
  0 0 1 startangle endangle arc
  savematrix setmatrix
 end
} def
/TL {
  /kcomp exch def
  /linewidth exch def
  /offset exch def
  GS
  0 offset rmoveto
  linewidth SLW
  dup stringwidth exch kcomp add exch RL s
  GR
} def
/KINIT
{
 /kvector exch def
 /kid 0 def
} def
/KPROC
{
 pop pop
 kvector kid get
 0 rmoveto
 /kid 1 kid add def
} def
/DefEncoding [
 /.notdef
 /.notdef
 /.notdef
 /.notdef
 /.notdef
 /.notdef
 /.notdef
 /.notdef
 /.notdef
 /.notdef
 /.notdef
 /.notdef
 /.notdef
 /.notdef
 /.notdef
 /.notdef
 /.notdef
 /.notdef
 /.notdef
 /.notdef
 /.notdef
 /.notdef
 /.notdef
 /.notdef
 /.notdef
 /.notdef
 /.notdef
 /.notdef
 /.notdef
 /.notdef
 /.notdef
 /.notdef
 /space
 /exclam
 /quotedbl
 /numbersign
 /dollar
 /percent
 /ampersand
 /quoteright
 /parenleft
 /parenright
 /asterisk
 /plus
 /comma
 /hyphen
 /period
 /slash
 /zero
 /one
 /two
 /three
 /four
 /five
 /six
 /seven
 /eight
 /nine
 /colon
 /semicolon
 /less
 /equal
 /greater
 /question
 /at
 /A
 /B
 /C
 /D
 /E
 /F
 /G
 /H
 /I
 /J
 /K
 /L
 /M
 /N
 /O
 /P
 /Q
 /R
 /S
 /T
 /U
 /V
 /W
 /X
 /Y
 /Z
 /bracketleft
 /backslash
 /bracketright
 /asciicircum
 /underscore
 /grave
 /a
 /b
 /c
 /d
 /e
 /f
 /g
 /h
 /i
 /j
 /k
 /l
 /m
 /n
 /o
 /p
 /q
 /r
 /s
 /t
 /u
 /v
 /w
 /x
 /y
 /z
 /braceleft
 /bar
 /braceright
 /asciitilde
 /.notdef
 /.notdef
 /.notdef
 /.notdef
 /.notdef
 /.notdef
 /.notdef
 /.notdef
 /.notdef
 /.notdef
 /.notdef
 /.notdef
 /.notdef
 /.notdef
 /.notdef
 /.notdef
 /.notdef
 /.notdef
 /.notdef
 /.notdef
 /.notdef
 /.notdef
 /.notdef
 /.notdef
 /.notdef
 /.notdef
 /.notdef
 /.notdef
 /.notdef
 /.notdef
 /.notdef
 /.notdef
 /.notdef
 /space
 /exclamdown
 /cent
 /sterling
 /currency
 /yen
 /brokenbar
 /section
 /dieresis
 /copyright
 /ordfeminine
 /guillemotleft
 /logicalnot
 /hyphen
 /registered
 /macron
 /degree
 /plusminus
 /twosuperior
 /threesuperior
 /acute
 /mu
 /paragraph
 /periodcentered
 /cedilla
 /onesuperior
 /ordmasculine
 /guillemotright
 /onequarter
 /onehalf
 /threequarters
 /questiondown
 /Agrave
 /Aacute
 /Acircumflex
 /Atilde
 /Adieresis
 /Aring
 /AE
 /Ccedilla
 /Egrave
 /Eacute
 /Ecircumflex
 /Edieresis
 /Igrave
 /Iacute
 /Icircumflex
 /Idieresis
 /Eth
 /Ntilde
 /Ograve
 /Oacute
 /Ocircumflex
 /Otilde
 /Odieresis
 /multiply
 /Oslash
 /Ugrave
 /Uacute
 /Ucircumflex
 /Udieresis
 /Yacute
 /Thorn
 /germandbls
 /agrave
 /aacute
 /acircumflex
 /atilde
 /adieresis
 /aring
 /ae
 /ccedilla
 /egrave
 /eacute
 /ecircumflex
 /edieresis
 /igrave
 /iacute
 /icircumflex
 /idieresis
 /eth
 /ntilde
 /ograve
 /oacute
 /ocircumflex
 /otilde
 /odieresis
 /divide
 /oslash
 /ugrave
 /uacute
 /ucircumflex
 /udieresis
 /yacute
 /thorn
 /ydieresis
] def
%%EndProlog
%%BeginSetup
%%EndSetup
612.00 612.00 scale
[/DeviceRGB] SCS
Color1 SC
[] 0 SD
0.0030 SLW
n 0.1625 0.6980 0.0100 0.0100 0 360 EARC s
n 0.2125 0.6544 0.0100 0.0100 0 360 EARC s
n 0.2625 0.6179 0.0100 0.0100 0 360 EARC s
n 0.3125 0.5880 0.0100 0.0100 0 360 EARC s
n 0.3625 0.5642 0.0100 0.0100 0 360 EARC s
n 0.4125 0.5461 0.0100 0.0100 0 360 EARC s
n 0.4625 0.5332 0.0100 0.0100 0 360 EARC s
n 0.5125 0.5251 0.0100 0.0100 0 360 EARC s
n 0.5625 0.5213 0.0100 0.0100 0 360 EARC s
n 0.6125 0.5213 0.0100 0.0100 0 360 EARC s
n 0.6625 0.5248 0.0100 0.0100 0 360 EARC s
n 0.7125 0.5313 0.0100 0.0100 0 360 EARC s
n 0.7625 0.5403 0.0100 0.0100 0 360 EARC s
n 0.8125 0.5513 0.0100 0.0100 0 360 EARC s
n 0.8625 0.5640 0.0100 0.0100 0 360 EARC s
n 0.9125 0.5779 0.0100 0.0100 0 360 EARC s
n 0.9625 0.5925 0.0100 0.0100 0 360 EARC s
n 1.0125 0.6073 0.0100 0.0100 0 360 EARC s
n 1.0625 0.6220 0.0100 0.0100 0 360 EARC s
n 1.1125 0.6360 0.0100 0.0100 0 360 EARC s
[] 0 SD
0.0037 SLW
0 SLC
0 SLJ
n
0.1512 0.7077 m
0.1525 0.7054 l
0.1537 0.7031 l
0.1550 0.7009 l
0.1562 0.6987 l
0.1575 0.6965 l
0.1588 0.6943 l
0.1600 0.6922 l
0.1613 0.6901 l
0.1625 0.6880 l
0.1638 0.6860 l
0.1650 0.6839 l
0.1663 0.6819 l
0.1675 0.6799 l
0.1688 0.6780 l
0.1700 0.6760 l
0.1713 0.6741 l
0.1725 0.6722 l
0.1738 0.6703 l
0.1750 0.6684 l
0.1763 0.6666 l
0.1775 0.6647 l
0.1788 0.6629 l
0.1800 0.6611 l
0.1813 0.6593 l
0.1825 0.6576 l
0.1837 0.6558 l
0.1850 0.6541 l
0.1862 0.6524 l
0.1875 0.6507 l
0.1887 0.6490 l
0.1900 0.6473 l
0.1912 0.6456 l
0.1925 0.6440 l
0.1937 0.6424 l
0.1950 0.6408 l
0.1962 0.6392 l
0.1975 0.6376 l
0.1987 0.6360 l
0.2000 0.6344 l
0.2012 0.6329 l
0.2025 0.6314 l
0.2037 0.6298 l
0.2050 0.6283 l
0.2062 0.6268 l
0.2075 0.6254 l
0.2087 0.6239 l
0.2100 0.6224 l
0.2112 0.6210 l
0.2125 0.6196 l
0.2137 0.6181 l
0.2150 0.6167 l
0.2162 0.6153 l
0.2175 0.6139 l
0.2187 0.6126 l
0.2200 0.6112 l
0.2212 0.6098 l
0.2225 0.6085 l
0.2237 0.6071 l
0.2250 0.6058 l
0.2262 0.6045 l
0.2275 0.6032 l
0.2287 0.6019 l
0.2300 0.6006 l
0.2312 0.5994 l
0.2325 0.5981 l
0.2337 0.5968 l
0.2350 0.5956 l
0.2362 0.5943 l
0.2375 0.5931 l
0.2387 0.5919 l
0.2400 0.5907 l
0.2412 0.5895 l
0.2425 0.5883 l
0.2437 0.5871 l
0.2450 0.5859 l
0.2462 0.5848 l
0.2475 0.5836 l
0.2487 0.5825 l
0.2500 0.5813 l
0.2512 0.5802 l
0.2525 0.5791 l
0.2537 0.5780 l
0.2550 0.5769 l
0.2562 0.5758 l
0.2575 0.5747 l
0.2587 0.5736 l
0.2600 0.5725 l
0.2612 0.5714 l
0.2625 0.5704 l
0.2637 0.5693 l
0.2650 0.5683 l
0.2662 0.5672 l
0.2675 0.5662 l
0.2687 0.5652 l
0.2700 0.5641 l
0.2712 0.5631 l
0.2725 0.5621 l
0.2737 0.5611 l
0.2750 0.5601 l
0.2762 0.5592 l
0.2775 0.5582 l
0.2787 0.5572 l
0.2800 0.5562 l
0.2812 0.5553 l
0.2825 0.5543 l
0.2837 0.5534 l
0.2850 0.5524 l
0.2862 0.5515 l
0.2875 0.5506 l
0.2887 0.5497 l
0.2900 0.5488 l
0.2912 0.5478 l
0.2925 0.5469 l
0.2937 0.5460 l
0.2950 0.5452 l
0.2962 0.5443 l
0.2975 0.5434 l
0.2987 0.5425 l
0.3000 0.5416 l
0.3012 0.5408 l
0.3025 0.5399 l
0.3037 0.5391 l
0.3050 0.5382 l
0.3062 0.5374 l
0.3075 0.5366 l
0.3087 0.5357 l
0.3100 0.5349 l
0.3112 0.5341 l
0.3125 0.5333 l
0.3137 0.5325 l
0.3150 0.5317 l
0.3162 0.5309 l
0.3175 0.5301 l
0.3187 0.5293 l
0.3200 0.5285 l
0.3212 0.5277 l
0.3225 0.5269 l
0.3237 0.5262 l
0.3250 0.5254 l
0.3262 0.5246 l
0.3275 0.5239 l
0.3287 0.5231 l
0.3300 0.5224 l
0.3312 0.5216 l
0.3325 0.5209 l
0.3337 0.5202 l
0.3350 0.5194 l
0.3362 0.5187 l
0.3375 0.5180 l
0.3387 0.5173 l
0.3400 0.5166 l
0.3412 0.5159 l
0.3425 0.5152 l
0.3437 0.5145 l
0.3450 0.5138 l
0.3462 0.5131 l
0.3475 0.5124 l
0.3487 0.5117 l
0.3500 0.5111 l
0.3512 0.5104 l
0.3525 0.5097 l
0.3537 0.5090 l
0.3550 0.5084 l
0.3562 0.5077 l
0.3575 0.5071 l
0.3587 0.5064 l
0.3600 0.5058 l
0.3612 0.5051 l
0.3625 0.5045 l
0.3637 0.5039 l
0.3650 0.5032 l
0.3662 0.5026 l
0.3675 0.5020 l
0.3687 0.5014 l
0.3700 0.5008 l
0.3712 0.5001 l
0.3725 0.4995 l
0.3737 0.4989 l
0.3750 0.4983 l
0.3762 0.4977 l
0.3775 0.4971 l
0.3787 0.4966 l
0.3800 0.4960 l
0.3812 0.4954 l
0.3825 0.4948 l
0.3837 0.4942 l
0.3850 0.4937 l
0.3862 0.4931 l
0.3875 0.4925 l
0.3887 0.4920 l
0.3900 0.4914 l
0.3912 0.4908 l
0.3925 0.4903 l
0.3937 0.4897 l
0.3950 0.4892 l
0.3962 0.4886 l
0.3975 0.4881 l
0.3987 0.4876 l
0.4000 0.4870 l
0.4012 0.4865 l
0.4025 0.4860 l
0.4037 0.4854 l
0.4050 0.4849 l
0.4062 0.4844 l
0.4075 0.4839 l
0.4087 0.4834 l
0.4100 0.4829 l
0.4112 0.4824 l
0.4125 0.4818 l
0.4137 0.4813 l
0.4150 0.4808 l
0.4162 0.4804 l
0.4175 0.4799 l
0.4187 0.4794 l
0.4200 0.4789 l
0.4212 0.4784 l
0.4225 0.4779 l
0.4237 0.4774 l
0.4250 0.4770 l
0.4262 0.4765 l
0.4275 0.4760 l
0.4287 0.4755 l
0.4300 0.4751 l
0.4312 0.4746 l
0.4325 0.4742 l
0.4337 0.4737 l
0.4350 0.4732 l
0.4362 0.4728 l
0.4375 0.4723 l
0.4387 0.4719 l
0.4400 0.4714 l
0.4412 0.4710 l
0.4425 0.4706 l
0.4437 0.4701 l
0.4450 0.4697 l
0.4462 0.4693 l
0.4475 0.4688 l
0.4487 0.4684 l
0.4500 0.4680 l
0.4512 0.4676 l
0.4525 0.4671 l
0.4537 0.4667 l
0.4550 0.4663 l
0.4562 0.4659 l
0.4575 0.4655 l
0.4587 0.4651 l
0.4600 0.4647 l
0.4612 0.4643 l
0.4625 0.4639 l
0.4637 0.4635 l
0.4650 0.4631 l
0.4662 0.4627 l
0.4675 0.4623 l
0.4687 0.4619 l
0.4700 0.4615 l
0.4712 0.4611 l
0.4725 0.4607 l
0.4737 0.4603 l
0.4750 0.4600 l
0.4762 0.4596 l
0.4775 0.4592 l
0.4787 0.4588 l
0.4800 0.4585 l
0.4812 0.4581 l
0.4825 0.4577 l
0.4837 0.4574 l
0.4850 0.4570 l
0.4862 0.4566 l
0.4875 0.4563 l
0.4887 0.4559 l
0.4900 0.4556 l
0.4912 0.4552 l
0.4925 0.4549 l
0.4937 0.4545 l
0.4950 0.4542 l
0.4962 0.4538 l
0.4975 0.4535 l
0.4987 0.4532 l
0.5000 0.4528 l
0.5012 0.4525 l
0.5025 0.4522 l
0.5037 0.4518 l
0.5050 0.4515 l
0.5062 0.4512 l
0.5075 0.4508 l
0.5087 0.4505 l
0.5100 0.4502 l
0.5112 0.4499 l
0.5125 0.4496 l
0.5137 0.4492 l
0.5150 0.4489 l
0.5162 0.4486 l
0.5175 0.4483 l
0.5187 0.4480 l
0.5200 0.4477 l
0.5212 0.4474 l
0.5225 0.4471 l
0.5237 0.4468 l
0.5250 0.4465 l
0.5262 0.4462 l
0.5275 0.4459 l
0.5287 0.4456 l
0.5300 0.4453 l
0.5312 0.4450 l
0.5325 0.4447 l
0.5337 0.4444 l
0.5350 0.4441 l
0.5362 0.4438 l
0.5375 0.4436 l
0.5387 0.4433 l
0.5400 0.4430 l
0.5412 0.4427 l
0.5425 0.4425 l
0.5437 0.4422 l
0.5450 0.4419 l
0.5462 0.4416 l
0.5475 0.4414 l
0.5487 0.4411 l
0.5500 0.4408 l
0.5512 0.4406 l
0.5525 0.4403 l
0.5537 0.4400 l
0.5550 0.4398 l
0.5562 0.4395 l
0.5575 0.4393 l
0.5587 0.4390 l
0.5600 0.4388 l
0.5612 0.4385 l
0.5625 0.4383 l
0.5637 0.4380 l
0.5650 0.4378 l
0.5662 0.4375 l
0.5675 0.4373 l
0.5687 0.4370 l
0.5700 0.4368 l
0.5712 0.4366 l
0.5725 0.4363 l
0.5737 0.4361 l
0.5750 0.4359 l
0.5762 0.4356 l
0.5775 0.4354 l
0.5787 0.4352 l
0.5800 0.4349 l
0.5812 0.4347 l
0.5825 0.4345 l
0.5837 0.4343 l
0.5850 0.4340 l
0.5862 0.4338 l
0.5875 0.4336 l
0.5887 0.4334 l
0.5900 0.4332 l
0.5912 0.4330 l
0.5925 0.4327 l
0.5937 0.4325 l
0.5950 0.4323 l
0.5962 0.4321 l
0.5975 0.4319 l
0.5987 0.4317 l
0.6000 0.4315 l
0.6012 0.4313 l
0.6025 0.4311 l
0.6037 0.4309 l
0.6050 0.4307 l
0.6062 0.4305 l
0.6075 0.4303 l
0.6087 0.4301 l
0.6100 0.4299 l
0.6112 0.4297 l
0.6125 0.4295 l
0.6137 0.4293 l
0.6150 0.4291 l
0.6162 0.4290 l
0.6175 0.4288 l
0.6187 0.4286 l
0.6200 0.4284 l
0.6212 0.4282 l
0.6225 0.4280 l
0.6237 0.4279 l
0.6250 0.4277 l
0.6262 0.4275 l
0.6275 0.4273 l
0.6287 0.4272 l
0.6300 0.4270 l
0.6312 0.4268 l
0.6325 0.4266 l
0.6337 0.4265 l
0.6350 0.4263 l
0.6362 0.4261 l
0.6375 0.4260 l
0.6387 0.4258 l
0.6400 0.4257 l
0.6412 0.4255 l
0.6425 0.4253 l
0.6437 0.4252 l
0.6450 0.4250 l
0.6462 0.4249 l
0.6475 0.4247 l
0.6487 0.4246 l
0.6500 0.4244 l
0.6512 0.4243 l
0.6525 0.4241 l
0.6537 0.4240 l
0.6550 0.4238 l
0.6562 0.4237 l
0.6575 0.4235 l
0.6587 0.4234 l
0.6600 0.4232 l
0.6612 0.4231 l
0.6625 0.4230 l
0.6637 0.4228 l
0.6650 0.4227 l
0.6662 0.4225 l
0.6675 0.4224 l
0.6687 0.4223 l
0.6700 0.4221 l
0.6712 0.4220 l
0.6725 0.4219 l
0.6737 0.4218 l
0.6750 0.4216 l
0.6762 0.4215 l
0.6775 0.4214 l
0.6787 0.4212 l
0.6800 0.4211 l
0.6812 0.4210 l
0.6825 0.4209 l
0.6837 0.4208 l
0.6850 0.4206 l
0.6862 0.4205 l
0.6875 0.4204 l
0.6887 0.4203 l
0.6900 0.4202 l
0.6912 0.4201 l
0.6925 0.4200 l
0.6937 0.4198 l
0.6950 0.4197 l
0.6962 0.4196 l
0.6975 0.4195 l
0.6987 0.4194 l
0.7000 0.4193 l
0.7012 0.4192 l
0.7025 0.4191 l
0.7037 0.4190 l
0.7050 0.4189 l
0.7062 0.4188 l
0.7075 0.4187 l
0.7087 0.4186 l
0.7100 0.4185 l
0.7112 0.4184 l
0.7125 0.4183 l
0.7137 0.4182 l
0.7150 0.4181 l
0.7162 0.4181 l
0.7175 0.4180 l
0.7187 0.4179 l
0.7200 0.4178 l
0.7212 0.4177 l
0.7225 0.4176 l
0.7237 0.4175 l
0.7250 0.4175 l
0.7262 0.4174 l
0.7275 0.4173 l
0.7287 0.4172 l
0.7300 0.4171 l
0.7312 0.4171 l
0.7325 0.4170 l
0.7337 0.4169 l
0.7350 0.4168 l
0.7362 0.4168 l
0.7375 0.4167 l
0.7387 0.4166 l
0.7400 0.4165 l
0.7412 0.4165 l
0.7425 0.4164 l
0.7437 0.4163 l
0.7450 0.4163 l
0.7462 0.4162 l
0.7475 0.4161 l
0.7487 0.4161 l
0.7500 0.4160 l
0.7512 0.4160 l
0.7525 0.4159 l
0.7537 0.4158 l
0.7550 0.4158 l
0.7562 0.4157 l
0.7575 0.4157 l
0.7587 0.4156 l
0.7600 0.4156 l
0.7612 0.4155 l
0.7625 0.4155 l
0.7637 0.4154 l
0.7650 0.4154 l
0.7662 0.4153 l
0.7675 0.4153 l
0.7687 0.4152 l
0.7700 0.4152 l
0.7712 0.4151 l
0.7725 0.4151 l
0.7737 0.4150 l
0.7750 0.4150 l
0.7762 0.4150 l
0.7775 0.4149 l
0.7787 0.4149 l
0.7800 0.4149 l
0.7812 0.4148 l
0.7825 0.4148 l
0.7837 0.4147 l
0.7850 0.4147 l
0.7862 0.4147 l
0.7875 0.4147 l
0.7887 0.4146 l
0.7900 0.4146 l
0.7912 0.4146 l
0.7925 0.4145 l
0.7937 0.4145 l
0.7950 0.4145 l
0.7962 0.4145 l
0.7975 0.4144 l
0.7987 0.4144 l
0.8000 0.4144 l
0.8012 0.4144 l
0.8025 0.4144 l
0.8037 0.4143 l
0.8050 0.4143 l
0.8062 0.4143 l
0.8075 0.4143 l
0.8087 0.4143 l
0.8100 0.4143 l
0.8112 0.4143 l
0.8125 0.4142 l
0.8137 0.4142 l
0.8150 0.4142 l
0.8162 0.4142 l
0.8175 0.4142 l
0.8187 0.4142 l
0.8200 0.4142 l
0.8212 0.4142 l
0.8225 0.4142 l
0.8237 0.4142 l
0.8250 0.4142 l
0.8262 0.4142 l
0.8275 0.4142 l
0.8287 0.4142 l
0.8300 0.4142 l
0.8312 0.4142 l
0.8325 0.4142 l
0.8337 0.4142 l
0.8350 0.4142 l
0.8362 0.4142 l
0.8375 0.4142 l
0.8387 0.4142 l
0.8400 0.4142 l
0.8412 0.4143 l
0.8425 0.4143 l
0.8437 0.4143 l
0.8450 0.4143 l
0.8462 0.4143 l
0.8475 0.4143 l
0.8487 0.4143 l
0.8500 0.4144 l
0.8512 0.4144 l
0.8525 0.4144 l
0.8537 0.4144 l
0.8550 0.4144 l
0.8562 0.4145 l
0.8575 0.4145 l
0.8587 0.4145 l
0.8600 0.4145 l
0.8612 0.4146 l
0.8625 0.4146 l
0.8637 0.4146 l
0.8650 0.4147 l
0.8662 0.4147 l
0.8675 0.4147 l
0.8687 0.4147 l
0.8700 0.4148 l
0.8712 0.4148 l
0.8725 0.4148 l
0.8737 0.4149 l
0.8750 0.4149 l
0.8762 0.4150 l
0.8775 0.4150 l
0.8787 0.4150 l
0.8800 0.4151 l
0.8812 0.4151 l
0.8825 0.4152 l
0.8837 0.4152 l
0.8850 0.4153 l
0.8862 0.4153 l
0.8875 0.4153 l
0.8887 0.4154 l
0.8900 0.4154 l
0.8912 0.4155 l
0.8925 0.4155 l
0.8937 0.4156 l
0.8950 0.4156 l
0.8962 0.4157 l
0.8975 0.4158 l
0.8987 0.4158 l
0.9000 0.4159 l
0.9012 0.4159 l
0.9025 0.4160 l
0.9037 0.4160 l
0.9050 0.4161 l
0.9062 0.4162 l
0.9075 0.4162 l
0.9087 0.4163 l
0.9100 0.4164 l
0.9112 0.4164 l
0.9125 0.4165 l
0.9137 0.4166 l
0.9150 0.4166 l
0.9162 0.4167 l
0.9175 0.4168 l
0.9187 0.4168 l
0.9200 0.4169 l
0.9212 0.4170 l
0.9225 0.4171 l
0.9237 0.4171 l
0.9250 0.4172 l
0.9262 0.4173 l
0.9275 0.4174 l
0.9287 0.4174 l
0.9300 0.4175 l
0.9312 0.4176 l
0.9325 0.4177 l
0.9337 0.4178 l
0.9350 0.4178 l
0.9362 0.4179 l
0.9375 0.4180 l
0.9387 0.4181 l
0.9400 0.4182 l
0.9412 0.4183 l
0.9425 0.4184 l
0.9437 0.4185 l
0.9450 0.4185 l
0.9462 0.4186 l
0.9475 0.4187 l
0.9487 0.4188 l
0.9500 0.4189 l
0.9512 0.4190 l
0.9525 0.4191 l
0.9537 0.4192 l
0.9550 0.4193 l
0.9562 0.4194 l
0.9575 0.4195 l
0.9587 0.4196 l
0.9600 0.4197 l
0.9612 0.4198 l
0.9625 0.4199 l
0.9637 0.4200 l
0.9650 0.4201 l
0.9662 0.4203 l
0.9675 0.4204 l
0.9687 0.4205 l
0.9700 0.4206 l
0.9712 0.4207 l
0.9725 0.4208 l
0.9737 0.4209 l
0.9750 0.4210 l
0.9762 0.4212 l
0.9775 0.4213 l
0.9787 0.4214 l
0.9800 0.4215 l
0.9812 0.4216 l
0.9825 0.4218 l
0.9837 0.4219 l
0.9850 0.4220 l
0.9862 0.4221 l
0.9875 0.4222 l
0.9887 0.4224 l
0.9900 0.4225 l
0.9912 0.4226 l
0.9925 0.4228 l
0.9937 0.4229 l
0.9950 0.4230 l
0.9962 0.4232 l
0.9975 0.4233 l
0.9987 0.4234 l
1.0000 0.4236 l
1.0012 0.4237 l
1.0025 0.4238 l
1.0037 0.4240 l
1.0050 0.4241 l
1.0062 0.4243 l
1.0075 0.4244 l
1.0087 0.4245 l
1.0100 0.4247 l
1.0112 0.4248 l
1.0125 0.4250 l
1.0137 0.4251 l
1.0150 0.4253 l
1.0162 0.4254 l
1.0175 0.4256 l
1.0187 0.4257 l
1.0200 0.4259 l
1.0212 0.4260 l
1.0225 0.4262 l
1.0237 0.4263 l
1.0250 0.4265 l
1.0262 0.4267 l
1.0275 0.4268 l
1.0287 0.4270 l
1.0300 0.4271 l
1.0312 0.4273 l
1.0325 0.4275 l
1.0337 0.4276 l
1.0350 0.4278 l
1.0362 0.4280 l
1.0375 0.4281 l
1.0387 0.4283 l
1.0400 0.4285 l
1.0412 0.4286 l
1.0425 0.4288 l
1.0437 0.4290 l
1.0450 0.4291 l
1.0462 0.4293 l
1.0475 0.4295 l
1.0487 0.4297 l
1.0500 0.4299 l
1.0512 0.4300 l
1.0525 0.4302 l
1.0537 0.4304 l
1.0550 0.4306 l
1.0562 0.4308 l
1.0575 0.4309 l
1.0587 0.4311 l
1.0600 0.4313 l
1.0612 0.4315 l
1.0625 0.4317 l
1.0637 0.4319 l
1.0650 0.4321 l
1.0662 0.4323 l
1.0675 0.4325 l
1.0687 0.4327 l
1.0700 0.4329 l
1.0712 0.4331 l
1.0725 0.4333 l
1.0737 0.4335 l
1.0750 0.4337 l
1.0762 0.4339 l
1.0775 0.4341 l
1.0787 0.4343 l
1.0800 0.4345 l
1.0812 0.4347 l
1.0825 0.4349 l
1.0837 0.4351 l
1.0850 0.4353 l
1.0862 0.4355 l
1.0875 0.4357 l
1.0887 0.4359 l
1.0900 0.4362 l
1.0912 0.4364 l
1.0925 0.4366 l
1.0937 0.4368 l
1.0950 0.4370 l
1.0962 0.4373 l
1.0975 0.4375 l
1.0987 0.4377 l
1.1000 0.4379 l
1.1012 0.4381 l
1.1025 0.4384 l
1.1037 0.4386 l
1.1050 0.4388 l
1.1062 0.4391 l
1.1075 0.4393 l
1.1087 0.4395 l
1.1100 0.4398 l
1.1112 0.4400 l
1.1125 0.4402 l
1.1137 0.4405 l
1.1150 0.4407 l
1.1162 0.4410 l
1.1175 0.4412 l
1.1187 0.4414 l
1.1200 0.4417 l
1.1212 0.4419 l
1.1225 0.4422 l
1.1237 0.4424 l
1.1250 0.4427 l
1.1262 0.4429 l
1.1275 0.4432 l
1.1287 0.4434 l
1.1300 0.4437 l
1.1312 0.4439 l
1.1325 0.4442 l
1.1337 0.4445 l
1.1350 0.4447 l
1.1362 0.4450 l
1.1375 0.4452 l
1.1387 0.4455 l
1.1400 0.4458 l
1.1412 0.4460 l
1.1425 0.4463 l
1.1437 0.4466 l
1.1450 0.4468 l
1.1462 0.4471 l
1.1475 0.4474 l
1.1487 0.4477 l
1.1500 0.4479 l
1.1501 0.4480 l
s
[/DeviceRGB] SCS
Color3 SC
[0.0187 0.0112 ] 0 SD
0.0037 SLW
n
0.1512 0.7114 m
0.1525 0.7122 l
0.1537 0.7127 l
0.1550 0.7131 l
0.1562 0.7134 l
0.1575 0.7136 l
0.1588 0.7137 l
0.1600 0.7137 l
0.1613 0.7137 l
0.1625 0.7136 l
0.1638 0.7135 l
0.1650 0.7133 l
0.1663 0.7130 l
0.1675 0.7127 l
0.1688 0.7124 l
0.1700 0.7121 l
0.1713 0.7117 l
0.1725 0.7113 l
0.1738 0.7108 l
0.1750 0.7104 l
0.1763 0.7099 l
0.1775 0.7093 l
0.1788 0.7088 l
0.1800 0.7082 l
0.1813 0.7076 l
0.1825 0.7070 l
0.1837 0.7064 l
0.1850 0.7057 l
0.1862 0.7051 l
0.1875 0.7044 l
0.1887 0.7037 l
0.1900 0.7030 l
0.1912 0.7022 l
0.1925 0.7015 l
0.1937 0.7007 l
0.1950 0.7000 l
0.1962 0.6992 l
0.1975 0.6984 l
0.1987 0.6976 l
0.2000 0.6967 l
0.2012 0.6959 l
0.2025 0.6950 l
0.2037 0.6942 l
0.2050 0.6933 l
0.2062 0.6924 l
0.2075 0.6916 l
0.2087 0.6907 l
0.2100 0.6897 l
0.2112 0.6888 l
0.2125 0.6879 l
0.2137 0.6870 l
0.2150 0.6860 l
0.2162 0.6851 l
0.2175 0.6841 l
0.2187 0.6832 l
0.2200 0.6822 l
0.2212 0.6812 l
0.2225 0.6803 l
0.2237 0.6793 l
0.2250 0.6783 l
0.2262 0.6773 l
0.2275 0.6763 l
0.2287 0.6753 l
0.2300 0.6742 l
0.2312 0.6732 l
0.2325 0.6722 l
0.2337 0.6712 l
0.2350 0.6701 l
0.2362 0.6691 l
0.2375 0.6681 l
0.2387 0.6670 l
0.2400 0.6660 l
0.2412 0.6649 l
0.2425 0.6639 l
0.2437 0.6628 l
0.2450 0.6617 l
0.2462 0.6607 l
0.2475 0.6596 l
0.2487 0.6585 l
0.2500 0.6575 l
0.2512 0.6564 l
0.2525 0.6553 l
0.2537 0.6542 l
0.2550 0.6531 l
0.2562 0.6520 l
0.2575 0.6509 l
0.2587 0.6499 l
0.2600 0.6488 l
0.2612 0.6477 l
0.2625 0.6466 l
0.2637 0.6455 l
0.2650 0.6444 l
0.2662 0.6433 l
0.2675 0.6422 l
0.2687 0.6411 l
0.2700 0.6400 l
0.2712 0.6389 l
0.2725 0.6378 l
0.2737 0.6366 l
0.2750 0.6355 l
0.2762 0.6344 l
0.2775 0.6333 l
0.2787 0.6322 l
0.2800 0.6311 l
0.2812 0.6300 l
0.2825 0.6289 l
0.2837 0.6278 l
0.2850 0.6266 l
0.2862 0.6255 l
0.2875 0.6244 l
0.2887 0.6233 l
0.2900 0.6222 l
0.2912 0.6211 l
0.2925 0.6200 l
0.2937 0.6189 l
0.2950 0.6177 l
0.2962 0.6166 l
0.2975 0.6155 l
0.2987 0.6144 l
0.3000 0.6133 l
0.3012 0.6122 l
0.3025 0.6111 l
0.3037 0.6100 l
0.3050 0.6089 l
0.3062 0.6078 l
0.3075 0.6066 l
0.3087 0.6055 l
0.3100 0.6044 l
0.3112 0.6033 l
0.3125 0.6022 l
0.3137 0.6011 l
0.3150 0.6000 l
0.3162 0.5989 l
0.3175 0.5978 l
0.3187 0.5967 l
0.3200 0.5956 l
0.3212 0.5945 l
0.3225 0.5934 l
0.3237 0.5923 l
0.3250 0.5912 l
0.3262 0.5901 l
0.3275 0.5890 l
0.3287 0.5879 l
0.3300 0.5869 l
0.3312 0.5858 l
0.3325 0.5847 l
0.3337 0.5836 l
0.3350 0.5825 l
0.3362 0.5814 l
0.3375 0.5803 l
0.3387 0.5793 l
0.3400 0.5782 l
0.3412 0.5771 l
0.3425 0.5760 l
0.3437 0.5750 l
0.3450 0.5739 l
0.3462 0.5728 l
0.3475 0.5717 l
0.3487 0.5707 l
0.3500 0.5696 l
0.3512 0.5685 l
0.3525 0.5675 l
0.3537 0.5664 l
0.3550 0.5654 l
0.3562 0.5643 l
0.3575 0.5632 l
0.3587 0.5622 l
0.3600 0.5611 l
0.3612 0.5601 l
0.3625 0.5590 l
0.3637 0.5580 l
0.3650 0.5569 l
0.3662 0.5559 l
0.3675 0.5549 l
0.3687 0.5538 l
0.3700 0.5528 l
0.3712 0.5517 l
0.3725 0.5507 l
0.3737 0.5497 l
0.3750 0.5486 l
0.3762 0.5476 l
0.3775 0.5466 l
0.3787 0.5456 l
0.3800 0.5445 l
0.3812 0.5435 l
0.3825 0.5425 l
0.3837 0.5415 l
0.3850 0.5405 l
0.3862 0.5395 l
0.3875 0.5385 l
0.3887 0.5374 l
0.3900 0.5364 l
0.3912 0.5354 l
0.3925 0.5344 l
0.3937 0.5334 l
0.3950 0.5324 l
0.3962 0.5314 l
0.3975 0.5304 l
0.3987 0.5295 l
0.4000 0.5285 l
0.4012 0.5275 l
0.4025 0.5265 l
0.4037 0.5255 l
0.4050 0.5245 l
0.4062 0.5235 l
0.4075 0.5226 l
0.4087 0.5216 l
0.4100 0.5206 l
0.4112 0.5197 l
0.4125 0.5187 l
0.4137 0.5177 l
0.4150 0.5168 l
0.4162 0.5158 l
0.4175 0.5148 l
0.4187 0.5139 l
0.4200 0.5129 l
0.4212 0.5120 l
0.4225 0.5110 l
0.4237 0.5101 l
0.4250 0.5091 l
0.4262 0.5082 l
0.4275 0.5072 l
0.4287 0.5063 l
0.4300 0.5054 l
0.4312 0.5044 l
0.4325 0.5035 l
0.4337 0.5026 l
0.4350 0.5016 l
0.4362 0.5007 l
0.4375 0.4998 l
0.4387 0.4989 l
0.4400 0.4979 l
0.4412 0.4970 l
0.4425 0.4961 l
0.4437 0.4952 l
0.4450 0.4943 l
0.4462 0.4934 l
0.4475 0.4925 l
0.4487 0.4916 l
0.4500 0.4906 l
0.4512 0.4897 l
0.4525 0.4889 l
0.4537 0.4880 l
0.4550 0.4871 l
0.4562 0.4862 l
0.4575 0.4853 l
0.4587 0.4844 l
0.4600 0.4835 l
0.4612 0.4826 l
0.4625 0.4817 l
0.4637 0.4809 l
0.4650 0.4800 l
0.4662 0.4791 l
0.4675 0.4782 l
0.4687 0.4774 l
0.4700 0.4765 l
0.4712 0.4756 l
0.4725 0.4748 l
0.4737 0.4739 l
0.4750 0.4730 l
0.4762 0.4722 l
0.4775 0.4713 l
0.4787 0.4705 l
0.4800 0.4696 l
0.4812 0.4688 l
0.4825 0.4679 l
0.4837 0.4671 l
0.4850 0.4663 l
0.4862 0.4654 l
0.4875 0.4646 l
0.4887 0.4637 l
0.4900 0.4629 l
0.4912 0.4621 l
0.4925 0.4612 l
0.4937 0.4604 l
0.4950 0.4596 l
0.4962 0.4588 l
0.4975 0.4579 l
0.4987 0.4571 l
0.5000 0.4563 l
0.5012 0.4555 l
0.5025 0.4547 l
0.5037 0.4539 l
0.5050 0.4531 l
0.5062 0.4523 l
0.5075 0.4514 l
0.5087 0.4506 l
0.5100 0.4498 l
0.5112 0.4490 l
0.5125 0.4483 l
0.5137 0.4475 l
0.5150 0.4467 l
0.5162 0.4459 l
0.5175 0.4451 l
0.5187 0.4443 l
0.5200 0.4435 l
0.5212 0.4427 l
0.5225 0.4420 l
0.5237 0.4412 l
0.5250 0.4404 l
0.5262 0.4396 l
0.5275 0.4389 l
0.5287 0.4381 l
0.5300 0.4373 l
0.5312 0.4366 l
0.5325 0.4358 l
0.5337 0.4350 l
0.5350 0.4343 l
0.5362 0.4335 l
0.5375 0.4328 l
0.5387 0.4320 l
0.5400 0.4312 l
0.5412 0.4305 l
0.5425 0.4298 l
0.5437 0.4290 l
0.5450 0.4283 l
0.5462 0.4275 l
0.5475 0.4268 l
0.5487 0.4260 l
0.5500 0.4253 l
0.5512 0.4246 l
0.5525 0.4238 l
0.5537 0.4231 l
0.5550 0.4224 l
0.5562 0.4216 l
0.5575 0.4209 l
0.5587 0.4202 l
0.5600 0.4195 l
0.5612 0.4188 l
0.5625 0.4180 l
0.5637 0.4173 l
0.5650 0.4166 l
0.5662 0.4159 l
0.5675 0.4152 l
0.5687 0.4145 l
0.5700 0.4138 l
0.5712 0.4131 l
0.5725 0.4124 l
0.5737 0.4117 l
0.5750 0.4110 l
0.5762 0.4103 l
0.5775 0.4096 l
0.5787 0.4089 l
0.5800 0.4082 l
0.5812 0.4075 l
0.5825 0.4068 l
0.5837 0.4061 l
0.5850 0.4054 l
0.5862 0.4048 l
0.5875 0.4041 l
0.5887 0.4034 l
0.5900 0.4027 l
0.5912 0.4021 l
0.5925 0.4014 l
0.5937 0.4007 l
0.5950 0.4000 l
0.5962 0.3994 l
0.5975 0.3987 l
0.5987 0.3980 l
0.6000 0.3974 l
0.6012 0.3967 l
0.6025 0.3961 l
0.6037 0.3954 l
0.6050 0.3947 l
0.6062 0.3941 l
0.6075 0.3934 l
0.6087 0.3928 l
0.6100 0.3921 l
0.6112 0.3915 l
0.6125 0.3908 l
0.6137 0.3902 l
0.6150 0.3896 l
0.6162 0.3889 l
0.6175 0.3883 l
0.6187 0.3876 l
0.6200 0.3870 l
0.6212 0.3864 l
0.6225 0.3857 l
0.6237 0.3851 l
0.6250 0.3845 l
0.6262 0.3838 l
0.6275 0.3832 l
0.6287 0.3826 l
0.6300 0.3820 l
0.6312 0.3814 l
0.6325 0.3807 l
0.6337 0.3801 l
0.6350 0.3795 l
0.6362 0.3789 l
0.6375 0.3783 l
0.6387 0.3777 l
0.6400 0.3770 l
0.6412 0.3764 l
0.6425 0.3758 l
0.6437 0.3752 l
0.6450 0.3746 l
0.6462 0.3740 l
0.6475 0.3734 l
0.6487 0.3728 l
0.6500 0.3722 l
0.6512 0.3716 l
0.6525 0.3710 l
0.6537 0.3704 l
0.6550 0.3699 l
0.6562 0.3693 l
0.6575 0.3687 l
0.6587 0.3681 l
0.6600 0.3675 l
0.6612 0.3669 l
0.6625 0.3663 l
0.6637 0.3658 l
0.6650 0.3652 l
0.6662 0.3646 l
0.6675 0.3640 l
0.6687 0.3635 l
0.6700 0.3629 l
0.6712 0.3623 l
0.6725 0.3617 l
0.6737 0.3612 l
0.6750 0.3606 l
0.6762 0.3600 l
0.6775 0.3595 l
0.6787 0.3589 l
0.6800 0.3583 l
0.6812 0.3578 l
0.6825 0.3572 l
0.6837 0.3567 l
0.6850 0.3561 l
0.6862 0.3556 l
0.6875 0.3550 l
0.6887 0.3545 l
0.6900 0.3539 l
0.6912 0.3534 l
0.6925 0.3528 l
0.6937 0.3523 l
0.6950 0.3517 l
0.6962 0.3512 l
0.6975 0.3506 l
0.6987 0.3501 l
0.7000 0.3496 l
0.7012 0.3490 l
0.7025 0.3485 l
0.7037 0.3480 l
0.7050 0.3474 l
0.7062 0.3469 l
0.7075 0.3464 l
0.7087 0.3458 l
0.7100 0.3453 l
0.7112 0.3448 l
0.7125 0.3442 l
0.7137 0.3437 l
0.7150 0.3432 l
0.7162 0.3427 l
0.7175 0.3422 l
0.7187 0.3416 l
0.7200 0.3411 l
0.7212 0.3406 l
0.7225 0.3401 l
0.7237 0.3396 l
0.7250 0.3391 l
0.7262 0.3386 l
0.7275 0.3380 l
0.7287 0.3375 l
0.7300 0.3370 l
0.7312 0.3365 l
0.7325 0.3360 l
0.7337 0.3355 l
0.7350 0.3350 l
0.7362 0.3345 l
0.7375 0.3340 l
0.7387 0.3335 l
0.7400 0.3330 l
0.7412 0.3325 l
0.7425 0.3320 l
0.7437 0.3315 l
0.7450 0.3310 l
0.7462 0.3306 l
0.7475 0.3301 l
0.7487 0.3296 l
0.7500 0.3291 l
0.7512 0.3286 l
0.7525 0.3281 l
0.7537 0.3276 l
0.7550 0.3271 l
0.7562 0.3267 l
0.7575 0.3262 l
0.7587 0.3257 l
0.7600 0.3252 l
0.7612 0.3248 l
0.7625 0.3243 l
0.7637 0.3238 l
0.7650 0.3233 l
0.7662 0.3229 l
0.7675 0.3224 l
0.7687 0.3219 l
0.7700 0.3215 l
0.7712 0.3210 l
0.7725 0.3205 l
0.7737 0.3201 l
0.7750 0.3196 l
0.7762 0.3191 l
0.7775 0.3187 l
0.7787 0.3182 l
0.7800 0.3178 l
0.7812 0.3173 l
0.7825 0.3168 l
0.7837 0.3164 l
0.7850 0.3159 l
0.7862 0.3155 l
0.7875 0.3150 l
0.7887 0.3146 l
0.7900 0.3141 l
0.7912 0.3137 l
0.7925 0.3132 l
0.7937 0.3128 l
0.7950 0.3123 l
0.7962 0.3119 l
0.7975 0.3114 l
0.7987 0.3110 l
0.8000 0.3106 l
0.8012 0.3101 l
0.8025 0.3097 l
0.8037 0.3092 l
0.8050 0.3088 l
0.8062 0.3084 l
0.8075 0.3079 l
0.8087 0.3075 l
0.8100 0.3071 l
0.8112 0.3066 l
0.8125 0.3062 l
0.8137 0.3058 l
0.8150 0.3053 l
0.8162 0.3049 l
0.8175 0.3045 l
0.8187 0.3041 l
0.8200 0.3036 l
0.8212 0.3032 l
0.8225 0.3028 l
0.8237 0.3024 l
0.8250 0.3019 l
0.8262 0.3015 l
0.8275 0.3011 l
0.8287 0.3007 l
0.8300 0.3003 l
0.8312 0.2999 l
0.8325 0.2994 l
0.8337 0.2990 l
0.8350 0.2986 l
0.8362 0.2982 l
0.8375 0.2978 l
0.8387 0.2974 l
0.8400 0.2970 l
0.8412 0.2966 l
0.8425 0.2962 l
0.8437 0.2958 l
0.8450 0.2954 l
0.8462 0.2949 l
0.8475 0.2945 l
0.8487 0.2941 l
0.8500 0.2937 l
0.8512 0.2933 l
0.8525 0.2929 l
0.8537 0.2925 l
0.8550 0.2921 l
0.8562 0.2918 l
0.8575 0.2914 l
0.8587 0.2910 l
0.8600 0.2906 l
0.8612 0.2902 l
0.8625 0.2898 l
0.8637 0.2894 l
0.8650 0.2890 l
0.8662 0.2886 l
0.8675 0.2882 l
0.8687 0.2878 l
0.8700 0.2875 l
0.8712 0.2871 l
0.8725 0.2867 l
0.8737 0.2863 l
0.8750 0.2859 l
0.8762 0.2855 l
0.8775 0.2852 l
0.8787 0.2848 l
0.8800 0.2844 l
0.8812 0.2840 l
0.8825 0.2836 l
0.8837 0.2833 l
0.8850 0.2829 l
0.8862 0.2825 l
0.8875 0.2821 l
0.8887 0.2818 l
0.8900 0.2814 l
0.8912 0.2810 l
0.8925 0.2807 l
0.8937 0.2803 l
0.8950 0.2799 l
0.8962 0.2795 l
0.8975 0.2792 l
0.8987 0.2788 l
0.9000 0.2784 l
0.9012 0.2781 l
0.9025 0.2777 l
0.9037 0.2774 l
0.9050 0.2770 l
0.9062 0.2766 l
0.9075 0.2763 l
0.9087 0.2759 l
0.9100 0.2756 l
0.9112 0.2752 l
0.9125 0.2748 l
0.9137 0.2745 l
0.9150 0.2741 l
0.9162 0.2738 l
0.9175 0.2734 l
0.9187 0.2731 l
0.9200 0.2727 l
0.9212 0.2724 l
0.9225 0.2720 l
0.9237 0.2717 l
0.9250 0.2713 l
0.9262 0.2710 l
0.9275 0.2706 l
0.9287 0.2703 l
0.9300 0.2699 l
0.9312 0.2696 l
0.9325 0.2692 l
0.9337 0.2689 l
0.9350 0.2685 l
0.9362 0.2682 l
0.9375 0.2679 l
0.9387 0.2675 l
0.9400 0.2672 l
0.9412 0.2668 l
0.9425 0.2665 l
0.9437 0.2662 l
0.9450 0.2658 l
0.9462 0.2655 l
0.9475 0.2652 l
0.9487 0.2648 l
0.9500 0.2645 l
0.9512 0.2642 l
0.9525 0.2638 l
0.9537 0.2635 l
0.9550 0.2632 l
0.9562 0.2628 l
0.9575 0.2625 l
0.9587 0.2622 l
0.9600 0.2619 l
0.9612 0.2615 l
0.9625 0.2612 l
0.9637 0.2609 l
0.9650 0.2605 l
0.9662 0.2602 l
0.9675 0.2599 l
0.9687 0.2596 l
0.9700 0.2593 l
0.9712 0.2589 l
0.9725 0.2586 l
0.9737 0.2583 l
0.9750 0.2580 l
0.9762 0.2577 l
0.9775 0.2573 l
0.9787 0.2570 l
0.9800 0.2567 l
0.9812 0.2564 l
0.9825 0.2561 l
0.9837 0.2558 l
0.9850 0.2554 l
0.9862 0.2551 l
0.9875 0.2548 l
0.9887 0.2545 l
0.9900 0.2542 l
0.9912 0.2539 l
0.9925 0.2536 l
0.9937 0.2533 l
0.9950 0.2530 l
0.9962 0.2526 l
0.9975 0.2523 l
0.9987 0.2520 l
1.0000 0.2517 l
1.0012 0.2514 l
1.0025 0.2511 l
1.0037 0.2508 l
1.0050 0.2505 l
1.0062 0.2502 l
1.0075 0.2499 l
1.0087 0.2496 l
1.0100 0.2493 l
1.0112 0.2490 l
1.0125 0.2487 l
1.0137 0.2484 l
1.0150 0.2481 l
1.0162 0.2478 l
1.0175 0.2475 l
1.0187 0.2472 l
1.0200 0.2469 l
1.0212 0.2466 l
1.0225 0.2463 l
1.0237 0.2460 l
1.0250 0.2458 l
1.0262 0.2455 l
1.0275 0.2452 l
1.0287 0.2449 l
1.0300 0.2446 l
1.0312 0.2443 l
1.0325 0.2440 l
1.0337 0.2437 l
1.0350 0.2434 l
1.0362 0.2431 l
1.0375 0.2429 l
1.0387 0.2426 l
1.0400 0.2423 l
1.0412 0.2420 l
1.0425 0.2417 l
1.0437 0.2414 l
1.0450 0.2412 l
1.0462 0.2409 l
1.0475 0.2406 l
1.0487 0.2403 l
1.0500 0.2400 l
1.0512 0.2397 l
1.0525 0.2395 l
1.0537 0.2392 l
1.0550 0.2389 l
1.0562 0.2386 l
1.0575 0.2384 l
1.0587 0.2381 l
1.0600 0.2378 l
1.0612 0.2375 l
1.0625 0.2373 l
1.0637 0.2370 l
1.0650 0.2367 l
1.0662 0.2364 l
1.0675 0.2362 l
1.0687 0.2359 l
1.0700 0.2356 l
1.0712 0.2353 l
1.0725 0.2351 l
1.0737 0.2348 l
1.0750 0.2345 l
1.0762 0.2343 l
1.0775 0.2340 l
1.0787 0.2337 l
1.0800 0.2335 l
1.0812 0.2332 l
1.0825 0.2329 l
1.0837 0.2327 l
1.0850 0.2324 l
1.0862 0.2321 l
1.0875 0.2319 l
1.0887 0.2316 l
1.0900 0.2313 l
1.0912 0.2311 l
1.0925 0.2308 l
1.0937 0.2306 l
1.0950 0.2303 l
1.0962 0.2300 l
1.0975 0.2298 l
1.0987 0.2295 l
1.1000 0.2293 l
1.1012 0.2290 l
1.1025 0.2287 l
1.1037 0.2285 l
1.1050 0.2282 l
1.1062 0.2280 l
1.1075 0.2277 l
1.1087 0.2275 l
1.1100 0.2272 l
1.1112 0.2270 l
1.1125 0.2267 l
1.1137 0.2265 l
1.1150 0.2262 l
1.1162 0.2260 l
1.1175 0.2257 l
1.1187 0.2254 l
1.1200 0.2252 l
1.1212 0.2250 l
1.1225 0.2247 l
1.1237 0.2245 l
1.1250 0.2242 l
1.1262 0.2240 l
1.1275 0.2237 l
1.1287 0.2235 l
1.1300 0.2232 l
1.1312 0.2230 l
1.1325 0.2227 l
1.1337 0.2225 l
1.1350 0.2222 l
1.1362 0.2220 l
1.1375 0.2217 l
1.1387 0.2215 l
1.1400 0.2213 l
1.1412 0.2210 l
1.1425 0.2208 l
1.1437 0.2205 l
1.1450 0.2203 l
1.1462 0.2201 l
1.1475 0.2198 l
1.1487 0.2196 l
1.1500 0.2193 l
1.1501 0.2193 l
s
[/DeviceRGB] SCS
Color2 SC
n
0.1512 0.7114 m
0.1525 0.7122 l
0.1537 0.7127 l
0.1550 0.7131 l
0.1562 0.7134 l
0.1575 0.7136 l
0.1588 0.7137 l
0.1600 0.7137 l
0.1613 0.7137 l
0.1625 0.7136 l
0.1638 0.7135 l
0.1650 0.7133 l
0.1663 0.7130 l
0.1675 0.7127 l
0.1688 0.7124 l
0.1700 0.7121 l
0.1713 0.7117 l
0.1725 0.7113 l
0.1738 0.7108 l
0.1750 0.7104 l
0.1763 0.7099 l
0.1775 0.7093 l
0.1788 0.7088 l
0.1800 0.7082 l
0.1813 0.7076 l
0.1825 0.7070 l
0.1837 0.7064 l
0.1850 0.7057 l
0.1862 0.7051 l
0.1875 0.7044 l
0.1887 0.7037 l
0.1900 0.7030 l
0.1912 0.7022 l
0.1925 0.7015 l
0.1937 0.7007 l
0.1950 0.7000 l
0.1962 0.6992 l
0.1975 0.6984 l
0.1987 0.6976 l
0.2000 0.6967 l
0.2012 0.6959 l
0.2025 0.6950 l
0.2037 0.6942 l
0.2050 0.6933 l
0.2062 0.6924 l
0.2075 0.6916 l
0.2087 0.6907 l
0.2100 0.6897 l
0.2112 0.6888 l
0.2125 0.6879 l
0.2137 0.6870 l
0.2150 0.6860 l
0.2162 0.6851 l
0.2175 0.6841 l
0.2187 0.6832 l
0.2200 0.6822 l
0.2212 0.6812 l
0.2225 0.6803 l
0.2237 0.6793 l
0.2250 0.6783 l
0.2262 0.6773 l
0.2275 0.6763 l
0.2287 0.6753 l
0.2300 0.6742 l
0.2312 0.6732 l
0.2325 0.6722 l
0.2337 0.6712 l
0.2350 0.6701 l
0.2362 0.6691 l
0.2375 0.6681 l
0.2387 0.6670 l
0.2400 0.6660 l
0.2412 0.6649 l
0.2425 0.6639 l
0.2437 0.6628 l
0.2450 0.6617 l
0.2462 0.6607 l
0.2475 0.6596 l
0.2487 0.6585 l
0.2500 0.6575 l
0.2512 0.6564 l
0.2525 0.6553 l
0.2537 0.6542 l
0.2550 0.6531 l
0.2562 0.6520 l
0.2575 0.6509 l
0.2587 0.6499 l
0.2600 0.6488 l
0.2612 0.6477 l
0.2625 0.6466 l
0.2637 0.6455 l
0.2650 0.6444 l
0.2662 0.6433 l
0.2675 0.6422 l
0.2687 0.6411 l
0.2700 0.6400 l
0.2712 0.6389 l
0.2725 0.6378 l
0.2737 0.6366 l
0.2750 0.6355 l
0.2762 0.6344 l
0.2775 0.6333 l
0.2787 0.6322 l
0.2800 0.6311 l
0.2812 0.6300 l
0.2825 0.6289 l
0.2837 0.6278 l
0.2850 0.6266 l
0.2862 0.6255 l
0.2875 0.6244 l
0.2887 0.6233 l
0.2900 0.6222 l
0.2912 0.6211 l
0.2925 0.6200 l
0.2937 0.6189 l
0.2950 0.6177 l
0.2962 0.6166 l
0.2975 0.6155 l
0.2987 0.6144 l
0.3000 0.6133 l
0.3012 0.6122 l
0.3025 0.6111 l
0.3037 0.6100 l
0.3050 0.6089 l
0.3062 0.6078 l
0.3075 0.6066 l
0.3087 0.6055 l
0.3100 0.6044 l
0.3112 0.6033 l
0.3125 0.6022 l
0.3137 0.6011 l
0.3150 0.6000 l
0.3162 0.5989 l
0.3175 0.5978 l
0.3187 0.5967 l
0.3200 0.5956 l
0.3212 0.5945 l
0.3225 0.5934 l
0.3237 0.5923 l
0.3250 0.5912 l
0.3262 0.5901 l
0.3275 0.5890 l
0.3287 0.5879 l
0.3300 0.5869 l
0.3312 0.5858 l
0.3325 0.5847 l
0.3337 0.5836 l
0.3350 0.5825 l
0.3362 0.5814 l
0.3375 0.5803 l
0.3387 0.5793 l
0.3400 0.5782 l
0.3412 0.5771 l
0.3425 0.5760 l
0.3437 0.5750 l
0.3450 0.5739 l
0.3462 0.5728 l
0.3475 0.5717 l
0.3487 0.5707 l
0.3500 0.5696 l
0.3512 0.5685 l
0.3525 0.5675 l
0.3537 0.5664 l
0.3550 0.5654 l
0.3562 0.5643 l
0.3575 0.5632 l
0.3587 0.5622 l
0.3600 0.5611 l
0.3612 0.5601 l
0.3625 0.5590 l
0.3637 0.5580 l
0.3650 0.5569 l
0.3662 0.5559 l
0.3675 0.5549 l
0.3687 0.5538 l
0.3700 0.5528 l
0.3712 0.5517 l
0.3725 0.5507 l
0.3737 0.5497 l
0.3750 0.5486 l
0.3762 0.5476 l
0.3775 0.5466 l
0.3787 0.5456 l
0.3800 0.5445 l
0.3812 0.5435 l
0.3825 0.5425 l
0.3837 0.5415 l
0.3850 0.5405 l
0.3862 0.5395 l
0.3875 0.5385 l
0.3887 0.5374 l
0.3900 0.5364 l
0.3912 0.5354 l
0.3925 0.5344 l
0.3937 0.5334 l
0.3950 0.5324 l
0.3962 0.5314 l
0.3975 0.5304 l
0.3987 0.5295 l
0.4000 0.5285 l
0.4012 0.5275 l
0.4025 0.5265 l
0.4037 0.5255 l
0.4050 0.5245 l
0.4062 0.5235 l
0.4075 0.5226 l
0.4087 0.5216 l
0.4100 0.5206 l
0.4112 0.5197 l
0.4125 0.5187 l
0.4137 0.5177 l
0.4150 0.5168 l
0.4162 0.5158 l
0.4175 0.5148 l
0.4187 0.5139 l
0.4200 0.5129 l
0.4212 0.5120 l
0.4225 0.5110 l
0.4237 0.5101 l
0.4250 0.5091 l
0.4262 0.5082 l
0.4275 0.5072 l
0.4287 0.5063 l
0.4300 0.5054 l
0.4312 0.5044 l
0.4325 0.5035 l
0.4337 0.5026 l
0.4350 0.5016 l
0.4362 0.5007 l
0.4375 0.4998 l
0.4387 0.4989 l
0.4400 0.4979 l
0.4412 0.4970 l
0.4425 0.4961 l
0.4437 0.4952 l
0.4450 0.4943 l
0.4462 0.4934 l
0.4475 0.4925 l
0.4487 0.4916 l
0.4500 0.4906 l
0.4512 0.4897 l
0.4525 0.4889 l
0.4537 0.4880 l
0.4550 0.4871 l
0.4562 0.4862 l
0.4575 0.4853 l
0.4587 0.4844 l
0.4600 0.4835 l
0.4612 0.4826 l
0.4625 0.4817 l
0.4637 0.4809 l
0.4650 0.4800 l
0.4662 0.4791 l
0.4675 0.4782 l
0.4687 0.4774 l
0.4700 0.4765 l
0.4712 0.4756 l
0.4725 0.4748 l
0.4737 0.4739 l
0.4750 0.4730 l
0.4762 0.4722 l
0.4775 0.4713 l
0.4787 0.4705 l
0.4800 0.4696 l
0.4812 0.4688 l
0.4825 0.4679 l
0.4837 0.4671 l
0.4850 0.4663 l
0.4862 0.4654 l
0.4875 0.4646 l
0.4887 0.4637 l
0.4900 0.4629 l
0.4912 0.4621 l
0.4925 0.4612 l
0.4937 0.4604 l
0.4950 0.4596 l
0.4962 0.4588 l
0.4975 0.4579 l
0.4987 0.4571 l
0.5000 0.4563 l
0.5012 0.4555 l
0.5025 0.4547 l
0.5037 0.4539 l
0.5050 0.4531 l
0.5062 0.4523 l
0.5075 0.4514 l
0.5087 0.4506 l
0.5100 0.4498 l
0.5112 0.4490 l
0.5125 0.4483 l
0.5137 0.4475 l
0.5150 0.4467 l
0.5162 0.4459 l
0.5175 0.4451 l
0.5187 0.4443 l
0.5200 0.4435 l
0.5212 0.4427 l
0.5225 0.4420 l
0.5237 0.4412 l
0.5250 0.4404 l
0.5262 0.4396 l
0.5275 0.4389 l
0.5287 0.4381 l
0.5300 0.4373 l
0.5312 0.4366 l
0.5325 0.4358 l
0.5337 0.4350 l
0.5350 0.4343 l
0.5362 0.4335 l
0.5375 0.4328 l
0.5387 0.4320 l
0.5400 0.4312 l
0.5412 0.4305 l
0.5425 0.4298 l
0.5437 0.4290 l
0.5450 0.4283 l
0.5462 0.4275 l
0.5475 0.4268 l
0.5487 0.4260 l
0.5500 0.4253 l
0.5512 0.4246 l
0.5525 0.4238 l
0.5537 0.4231 l
0.5550 0.4224 l
0.5562 0.4216 l
0.5575 0.4209 l
0.5587 0.4202 l
0.5600 0.4195 l
0.5612 0.4188 l
0.5625 0.4180 l
0.5637 0.4173 l
0.5650 0.4166 l
0.5662 0.4159 l
0.5675 0.4152 l
0.5687 0.4145 l
0.5700 0.4138 l
0.5712 0.4131 l
0.5725 0.4124 l
0.5737 0.4117 l
0.5750 0.4110 l
0.5762 0.4103 l
0.5775 0.4096 l
0.5787 0.4089 l
0.5800 0.4082 l
0.5812 0.4075 l
0.5825 0.4068 l
0.5837 0.4061 l
0.5850 0.4054 l
0.5862 0.4048 l
0.5875 0.4041 l
0.5887 0.4034 l
0.5900 0.4027 l
0.5912 0.4021 l
0.5925 0.4014 l
0.5937 0.4007 l
0.5950 0.4000 l
0.5962 0.3994 l
0.5975 0.3987 l
0.5987 0.3980 l
0.6000 0.3974 l
0.6012 0.3967 l
0.6025 0.3961 l
0.6037 0.3954 l
0.6050 0.3947 l
0.6062 0.3941 l
0.6075 0.3934 l
0.6087 0.3928 l
0.6100 0.3921 l
0.6112 0.3915 l
0.6125 0.3908 l
0.6137 0.3902 l
0.6150 0.3896 l
0.6162 0.3889 l
0.6175 0.3883 l
0.6187 0.3876 l
0.6200 0.3870 l
0.6212 0.3864 l
0.6225 0.3857 l
0.6237 0.3851 l
0.6250 0.3845 l
0.6262 0.3838 l
0.6275 0.3832 l
0.6287 0.3826 l
0.6300 0.3820 l
0.6312 0.3814 l
0.6325 0.3807 l
0.6337 0.3801 l
0.6350 0.3795 l
0.6362 0.3789 l
0.6375 0.3783 l
0.6387 0.3777 l
0.6400 0.3770 l
0.6412 0.3764 l
0.6425 0.3758 l
0.6437 0.3752 l
0.6450 0.3746 l
0.6462 0.3740 l
0.6475 0.3734 l
0.6487 0.3728 l
0.6500 0.3722 l
0.6512 0.3716 l
0.6525 0.3710 l
0.6537 0.3704 l
0.6550 0.3699 l
0.6562 0.3693 l
0.6575 0.3687 l
0.6587 0.3681 l
0.6600 0.3675 l
0.6612 0.3669 l
0.6625 0.3663 l
0.6637 0.3658 l
0.6650 0.3652 l
0.6662 0.3646 l
0.6675 0.3640 l
0.6687 0.3635 l
0.6700 0.3629 l
0.6712 0.3623 l
0.6725 0.3617 l
0.6737 0.3612 l
0.6750 0.3606 l
0.6762 0.3600 l
0.6775 0.3595 l
0.6787 0.3589 l
0.6800 0.3583 l
0.6812 0.3578 l
0.6825 0.3572 l
0.6837 0.3567 l
0.6850 0.3561 l
0.6862 0.3556 l
0.6875 0.3550 l
0.6887 0.3545 l
0.6900 0.3539 l
0.6912 0.3534 l
0.6925 0.3528 l
0.6937 0.3523 l
0.6950 0.3517 l
0.6962 0.3512 l
0.6975 0.3506 l
0.6987 0.3501 l
0.7000 0.3496 l
0.7012 0.3490 l
0.7025 0.3485 l
0.7037 0.3480 l
0.7050 0.3474 l
0.7062 0.3469 l
0.7075 0.3464 l
0.7087 0.3458 l
0.7100 0.3453 l
0.7112 0.3448 l
0.7125 0.3442 l
0.7137 0.3437 l
0.7150 0.3432 l
0.7162 0.3427 l
0.7175 0.3422 l
0.7187 0.3416 l
0.7200 0.3411 l
0.7212 0.3406 l
0.7225 0.3401 l
0.7237 0.3396 l
0.7250 0.3391 l
0.7262 0.3386 l
0.7275 0.3380 l
0.7287 0.3375 l
0.7300 0.3370 l
0.7312 0.3365 l
0.7325 0.3360 l
0.7337 0.3355 l
0.7350 0.3350 l
0.7362 0.3345 l
0.7375 0.3340 l
0.7387 0.3335 l
0.7400 0.3330 l
0.7412 0.3325 l
0.7425 0.3320 l
0.7437 0.3315 l
0.7450 0.3310 l
0.7462 0.3306 l
0.7475 0.3301 l
0.7487 0.3296 l
0.7500 0.3291 l
0.7512 0.3286 l
0.7525 0.3281 l
0.7537 0.3276 l
0.7550 0.3271 l
0.7562 0.3267 l
0.7575 0.3262 l
0.7587 0.3257 l
0.7600 0.3252 l
0.7612 0.3248 l
0.7625 0.3243 l
0.7637 0.3238 l
0.7650 0.3233 l
0.7662 0.3229 l
0.7675 0.3224 l
0.7687 0.3219 l
0.7700 0.3215 l
0.7712 0.3210 l
0.7725 0.3205 l
0.7737 0.3201 l
0.7750 0.3196 l
0.7762 0.3191 l
0.7775 0.3187 l
0.7787 0.3182 l
0.7800 0.3178 l
0.7812 0.3173 l
0.7825 0.3168 l
0.7837 0.3164 l
0.7850 0.3159 l
0.7862 0.3155 l
0.7875 0.3150 l
0.7887 0.3146 l
0.7900 0.3141 l
0.7912 0.3137 l
0.7925 0.3132 l
0.7937 0.3128 l
0.7950 0.3123 l
0.7962 0.3119 l
0.7975 0.3114 l
0.7987 0.3110 l
0.8000 0.3106 l
0.8012 0.3101 l
0.8025 0.3097 l
0.8037 0.3092 l
0.8050 0.3088 l
0.8062 0.3084 l
0.8075 0.3079 l
0.8087 0.3075 l
0.8100 0.3071 l
0.8112 0.3066 l
0.8125 0.3062 l
0.8137 0.3058 l
0.8150 0.3053 l
0.8162 0.3049 l
0.8175 0.3045 l
0.8187 0.3041 l
0.8200 0.3036 l
0.8212 0.3032 l
0.8225 0.3028 l
0.8237 0.3024 l
0.8250 0.3019 l
0.8262 0.3015 l
0.8275 0.3011 l
0.8287 0.3007 l
0.8300 0.3003 l
0.8312 0.2999 l
0.8325 0.2994 l
0.8337 0.2990 l
0.8350 0.2986 l
0.8362 0.2982 l
0.8375 0.2978 l
0.8387 0.2974 l
0.8400 0.2970 l
0.8412 0.2966 l
0.8425 0.2962 l
0.8437 0.2958 l
0.8450 0.2954 l
0.8462 0.2949 l
0.8475 0.2945 l
0.8487 0.2941 l
0.8500 0.2937 l
0.8512 0.2933 l
0.8525 0.2929 l
0.8537 0.2925 l
0.8550 0.2921 l
0.8562 0.2918 l
0.8575 0.2914 l
0.8587 0.2910 l
0.8600 0.2906 l
0.8612 0.2902 l
0.8625 0.2898 l
0.8637 0.2894 l
0.8650 0.2890 l
0.8662 0.2886 l
0.8675 0.2882 l
0.8687 0.2878 l
0.8700 0.2875 l
0.8712 0.2871 l
0.8725 0.2867 l
0.8737 0.2863 l
0.8750 0.2859 l
0.8762 0.2855 l
0.8775 0.2852 l
0.8787 0.2848 l
0.8800 0.2844 l
0.8812 0.2840 l
0.8825 0.2836 l
0.8837 0.2833 l
0.8850 0.2829 l
0.8862 0.2825 l
0.8875 0.2821 l
0.8887 0.2818 l
0.8900 0.2814 l
0.8912 0.2810 l
0.8925 0.2807 l
0.8937 0.2803 l
0.8950 0.2799 l
0.8962 0.2795 l
0.8975 0.2792 l
0.8987 0.2788 l
0.9000 0.2784 l
0.9012 0.2781 l
0.9025 0.2777 l
0.9037 0.2774 l
0.9050 0.2770 l
0.9062 0.2766 l
0.9075 0.2763 l
0.9087 0.2759 l
0.9100 0.2756 l
0.9112 0.2752 l
0.9125 0.2748 l
0.9137 0.2745 l
0.9150 0.2741 l
0.9162 0.2738 l
0.9175 0.2734 l
0.9187 0.2731 l
0.9200 0.2727 l
0.9212 0.2724 l
0.9225 0.2720 l
0.9237 0.2717 l
0.9250 0.2713 l
0.9262 0.2710 l
0.9275 0.2706 l
0.9287 0.2703 l
0.9300 0.2699 l
0.9312 0.2696 l
0.9325 0.2692 l
0.9337 0.2689 l
0.9350 0.2685 l
0.9362 0.2682 l
0.9375 0.2679 l
0.9387 0.2675 l
0.9400 0.2672 l
0.9412 0.2668 l
0.9425 0.2665 l
0.9437 0.2662 l
0.9450 0.2658 l
0.9462 0.2655 l
0.9475 0.2652 l
0.9487 0.2648 l
0.9500 0.2645 l
0.9512 0.2642 l
0.9525 0.2638 l
0.9537 0.2635 l
0.9550 0.2632 l
0.9562 0.2628 l
0.9575 0.2625 l
0.9587 0.2622 l
0.9600 0.2619 l
0.9612 0.2615 l
0.9625 0.2612 l
0.9637 0.2609 l
0.9650 0.2605 l
0.9662 0.2602 l
0.9675 0.2599 l
0.9687 0.2596 l
0.9700 0.2593 l
0.9712 0.2589 l
0.9725 0.2586 l
0.9737 0.2583 l
0.9750 0.2580 l
0.9762 0.2577 l
0.9775 0.2573 l
0.9787 0.2570 l
0.9800 0.2567 l
0.9812 0.2564 l
0.9825 0.2561 l
0.9837 0.2558 l
0.9850 0.2554 l
0.9862 0.2551 l
0.9875 0.2548 l
0.9887 0.2545 l
0.9900 0.2542 l
0.9912 0.2539 l
0.9925 0.2536 l
0.9937 0.2533 l
0.9950 0.2530 l
0.9962 0.2526 l
0.9975 0.2523 l
0.9987 0.2520 l
1.0000 0.2517 l
1.0012 0.2514 l
1.0025 0.2511 l
1.0037 0.2508 l
1.0050 0.2505 l
1.0062 0.2502 l
1.0075 0.2499 l
1.0087 0.2496 l
1.0100 0.2493 l
1.0112 0.2490 l
1.0125 0.2487 l
1.0137 0.2484 l
1.0150 0.2481 l
1.0162 0.2478 l
1.0175 0.2475 l
1.0187 0.2472 l
1.0200 0.2469 l
1.0212 0.2466 l
1.0225 0.2463 l
1.0237 0.2460 l
1.0250 0.2458 l
1.0262 0.2455 l
1.0275 0.2452 l
1.0287 0.2449 l
1.0300 0.2446 l
1.0312 0.2443 l
1.0325 0.2440 l
1.0337 0.2437 l
1.0350 0.2434 l
1.0362 0.2431 l
1.0375 0.2429 l
1.0387 0.2426 l
1.0400 0.2423 l
1.0412 0.2420 l
1.0425 0.2417 l
1.0437 0.2414 l
1.0450 0.2412 l
1.0462 0.2409 l
1.0475 0.2406 l
1.0487 0.2403 l
1.0500 0.2400 l
1.0512 0.2397 l
1.0525 0.2395 l
1.0537 0.2392 l
1.0550 0.2389 l
1.0562 0.2386 l
1.0575 0.2384 l
1.0587 0.2381 l
1.0600 0.2378 l
1.0612 0.2375 l
1.0625 0.2373 l
1.0637 0.2370 l
1.0650 0.2367 l
1.0662 0.2364 l
1.0675 0.2362 l
1.0687 0.2359 l
1.0700 0.2356 l
1.0712 0.2353 l
1.0725 0.2351 l
1.0737 0.2348 l
1.0750 0.2345 l
1.0762 0.2343 l
1.0775 0.2340 l
1.0787 0.2337 l
1.0800 0.2335 l
1.0812 0.2332 l
1.0825 0.2329 l
1.0837 0.2327 l
1.0850 0.2324 l
1.0862 0.2321 l
1.0875 0.2319 l
1.0887 0.2316 l
1.0900 0.2313 l
1.0912 0.2311 l
1.0925 0.2308 l
1.0937 0.2306 l
1.0950 0.2303 l
1.0962 0.2300 l
1.0975 0.2298 l
1.0987 0.2295 l
1.1000 0.2293 l
1.1012 0.2290 l
1.1025 0.2287 l
1.1037 0.2285 l
1.1050 0.2282 l
1.1062 0.2280 l
1.1075 0.2277 l
1.1087 0.2275 l
1.1100 0.2272 l
1.1112 0.2270 l
1.1125 0.2267 l
1.1137 0.2265 l
1.1150 0.2262 l
1.1162 0.2260 l
1.1175 0.2257 l
1.1187 0.2254 l
1.1200 0.2252 l
1.1212 0.2250 l
1.1225 0.2247 l
1.1237 0.2245 l
1.1250 0.2242 l
1.1262 0.2240 l
1.1275 0.2237 l
1.1287 0.2235 l
1.1300 0.2232 l
1.1312 0.2230 l
1.1325 0.2227 l
1.1337 0.2225 l
1.1350 0.2222 l
1.1362 0.2220 l
1.1375 0.2217 l
1.1387 0.2215 l
1.1400 0.2213 l
1.1412 0.2210 l
1.1425 0.2208 l
1.1437 0.2205 l
1.1450 0.2203 l
1.1462 0.2201 l
1.1475 0.2198 l
1.1487 0.2196 l
1.1500 0.2193 l
1.1501 0.2193 l
s
[/DeviceRGB] SCS
Color15 SC
n
0.1512 0.7123 m
0.1525 0.7138 l
0.1537 0.7150 l
0.1550 0.7160 l
0.1562 0.7167 l
0.1575 0.7174 l
0.1588 0.7179 l
0.1600 0.7183 l
0.1613 0.7187 l
0.1625 0.7189 l
0.1638 0.7191 l
0.1650 0.7192 l
0.1663 0.7193 l
0.1675 0.7193 l
0.1688 0.7192 l
0.1700 0.7191 l
0.1713 0.7190 l
0.1725 0.7188 l
0.1738 0.7185 l
0.1750 0.7182 l
0.1763 0.7179 l
0.1775 0.7176 l
0.1788 0.7172 l
0.1800 0.7168 l
0.1813 0.7163 l
0.1825 0.7158 l
0.1837 0.7153 l
0.1850 0.7148 l
0.1862 0.7142 l
0.1875 0.7137 l
0.1887 0.7130 l
0.1900 0.7124 l
0.1912 0.7118 l
0.1925 0.7111 l
0.1937 0.7104 l
0.1950 0.7097 l
0.1962 0.7089 l
0.1975 0.7082 l
0.1987 0.7074 l
0.2000 0.7066 l
0.2012 0.7058 l
0.2025 0.7050 l
0.2037 0.7041 l
0.2050 0.7033 l
0.2062 0.7024 l
0.2075 0.7015 l
0.2087 0.7006 l
0.2100 0.6997 l
0.2112 0.6988 l
0.2125 0.6978 l
0.2137 0.6969 l
0.2150 0.6959 l
0.2162 0.6949 l
0.2175 0.6940 l
0.2187 0.6930 l
0.2200 0.6920 l
0.2212 0.6909 l
0.2225 0.6899 l
0.2237 0.6889 l
0.2250 0.6878 l
0.2262 0.6868 l
0.2275 0.6857 l
0.2287 0.6847 l
0.2300 0.6836 l
0.2312 0.6825 l
0.2325 0.6814 l
0.2337 0.6803 l
0.2350 0.6792 l
0.2362 0.6781 l
0.2375 0.6770 l
0.2387 0.6758 l
0.2400 0.6747 l
0.2412 0.6736 l
0.2425 0.6724 l
0.2437 0.6713 l
0.2450 0.6701 l
0.2462 0.6690 l
0.2475 0.6678 l
0.2487 0.6667 l
0.2500 0.6655 l
0.2512 0.6643 l
0.2525 0.6631 l
0.2537 0.6619 l
0.2550 0.6608 l
0.2562 0.6596 l
0.2575 0.6584 l
0.2587 0.6572 l
0.2600 0.6560 l
0.2612 0.6548 l
0.2625 0.6536 l
0.2637 0.6524 l
0.2650 0.6511 l
0.2662 0.6499 l
0.2675 0.6487 l
0.2687 0.6475 l
0.2700 0.6463 l
0.2712 0.6450 l
0.2725 0.6438 l
0.2737 0.6426 l
0.2750 0.6414 l
0.2762 0.6401 l
0.2775 0.6389 l
0.2787 0.6377 l
0.2800 0.6364 l
0.2812 0.6352 l
0.2825 0.6340 l
0.2837 0.6327 l
0.2850 0.6315 l
0.2862 0.6303 l
0.2875 0.6290 l
0.2887 0.6278 l
0.2900 0.6266 l
0.2912 0.6253 l
0.2925 0.6241 l
0.2937 0.6228 l
0.2950 0.6216 l
0.2962 0.6204 l
0.2975 0.6191 l
0.2987 0.6179 l
0.3000 0.6166 l
0.3012 0.6154 l
0.3025 0.6142 l
0.3037 0.6129 l
0.3050 0.6117 l
0.3062 0.6104 l
0.3075 0.6092 l
0.3087 0.6080 l
0.3100 0.6067 l
0.3112 0.6055 l
0.3125 0.6043 l
0.3137 0.6030 l
0.3150 0.6018 l
0.3162 0.6006 l
0.3175 0.5993 l
0.3187 0.5981 l
0.3200 0.5969 l
0.3212 0.5957 l
0.3225 0.5944 l
0.3237 0.5932 l
0.3250 0.5920 l
0.3262 0.5908 l
0.3275 0.5895 l
0.3287 0.5883 l
0.3300 0.5871 l
0.3312 0.5859 l
0.3325 0.5847 l
0.3337 0.5835 l
0.3350 0.5823 l
0.3362 0.5810 l
0.3375 0.5798 l
0.3387 0.5786 l
0.3400 0.5774 l
0.3412 0.5762 l
0.3425 0.5750 l
0.3437 0.5738 l
0.3450 0.5726 l
0.3462 0.5714 l
0.3475 0.5702 l
0.3487 0.5690 l
0.3500 0.5679 l
0.3512 0.5667 l
0.3525 0.5655 l
0.3537 0.5643 l
0.3550 0.5631 l
0.3562 0.5619 l
0.3575 0.5608 l
0.3587 0.5596 l
0.3600 0.5584 l
0.3612 0.5572 l
0.3625 0.5561 l
0.3637 0.5549 l
0.3650 0.5537 l
0.3662 0.5526 l
0.3675 0.5514 l
0.3687 0.5503 l
0.3700 0.5491 l
0.3712 0.5480 l
0.3725 0.5468 l
0.3737 0.5457 l
0.3750 0.5445 l
0.3762 0.5434 l
0.3775 0.5422 l
0.3787 0.5411 l
0.3800 0.5400 l
0.3812 0.5388 l
0.3825 0.5377 l
0.3837 0.5366 l
0.3850 0.5355 l
0.3862 0.5343 l
0.3875 0.5332 l
0.3887 0.5321 l
0.3900 0.5310 l
0.3912 0.5299 l
0.3925 0.5288 l
0.3937 0.5276 l
0.3950 0.5265 l
0.3962 0.5254 l
0.3975 0.5243 l
0.3987 0.5232 l
0.4000 0.5221 l
0.4012 0.5211 l
0.4025 0.5200 l
0.4037 0.5189 l
0.4050 0.5178 l
0.4062 0.5167 l
0.4075 0.5156 l
0.4087 0.5146 l
0.4100 0.5135 l
0.4112 0.5124 l
0.4125 0.5114 l
0.4137 0.5103 l
0.4150 0.5092 l
0.4162 0.5082 l
0.4175 0.5071 l
0.4187 0.5061 l
0.4200 0.5050 l
0.4212 0.5040 l
0.4225 0.5029 l
0.4237 0.5019 l
0.4250 0.5008 l
0.4262 0.4998 l
0.4275 0.4987 l
0.4287 0.4977 l
0.4300 0.4967 l
0.4312 0.4957 l
0.4325 0.4946 l
0.4337 0.4936 l
0.4350 0.4926 l
0.4362 0.4916 l
0.4375 0.4906 l
0.4387 0.4896 l
0.4400 0.4885 l
0.4412 0.4875 l
0.4425 0.4865 l
0.4437 0.4855 l
0.4450 0.4845 l
0.4462 0.4835 l
0.4475 0.4826 l
0.4487 0.4816 l
0.4500 0.4806 l
0.4512 0.4796 l
0.4525 0.4786 l
0.4537 0.4776 l
0.4550 0.4767 l
0.4562 0.4757 l
0.4575 0.4747 l
0.4587 0.4737 l
0.4600 0.4728 l
0.4612 0.4718 l
0.4625 0.4709 l
0.4637 0.4699 l
0.4650 0.4689 l
0.4662 0.4680 l
0.4675 0.4670 l
0.4687 0.4661 l
0.4700 0.4652 l
0.4712 0.4642 l
0.4725 0.4633 l
0.4737 0.4623 l
0.4750 0.4614 l
0.4762 0.4605 l
0.4775 0.4595 l
0.4787 0.4586 l
0.4800 0.4577 l
0.4812 0.4568 l
0.4825 0.4559 l
0.4837 0.4549 l
0.4850 0.4540 l
0.4862 0.4531 l
0.4875 0.4522 l
0.4887 0.4513 l
0.4900 0.4504 l
0.4912 0.4495 l
0.4925 0.4486 l
0.4937 0.4477 l
0.4950 0.4468 l
0.4962 0.4459 l
0.4975 0.4451 l
0.4987 0.4442 l
0.5000 0.4433 l
0.5012 0.4424 l
0.5025 0.4415 l
0.5037 0.4407 l
0.5050 0.4398 l
0.5062 0.4389 l
0.5075 0.4381 l
0.5087 0.4372 l
0.5100 0.4363 l
0.5112 0.4355 l
0.5125 0.4346 l
0.5137 0.4338 l
0.5150 0.4329 l
0.5162 0.4321 l
0.5175 0.4312 l
0.5187 0.4304 l
0.5200 0.4295 l
0.5212 0.4287 l
0.5225 0.4279 l
0.5237 0.4270 l
0.5250 0.4262 l
0.5262 0.4254 l
0.5275 0.4245 l
0.5287 0.4237 l
0.5300 0.4229 l
0.5312 0.4221 l
0.5325 0.4213 l
0.5337 0.4204 l
0.5350 0.4196 l
0.5362 0.4188 l
0.5375 0.4180 l
0.5387 0.4172 l
0.5400 0.4164 l
0.5412 0.4156 l
0.5425 0.4148 l
0.5437 0.4140 l
0.5450 0.4132 l
0.5462 0.4124 l
0.5475 0.4116 l
0.5487 0.4109 l
0.5500 0.4101 l
0.5512 0.4093 l
0.5525 0.4085 l
0.5537 0.4077 l
0.5550 0.4070 l
0.5562 0.4062 l
0.5575 0.4054 l
0.5587 0.4046 l
0.5600 0.4039 l
0.5612 0.4031 l
0.5625 0.4024 l
0.5637 0.4016 l
0.5650 0.4008 l
0.5662 0.4001 l
0.5675 0.3993 l
0.5687 0.3986 l
0.5700 0.3978 l
0.5712 0.3971 l
0.5725 0.3964 l
0.5737 0.3956 l
0.5750 0.3949 l
0.5762 0.3941 l
0.5775 0.3934 l
0.5787 0.3927 l
0.5800 0.3919 l
0.5812 0.3912 l
0.5825 0.3905 l
0.5837 0.3898 l
0.5850 0.3890 l
0.5862 0.3883 l
0.5875 0.3876 l
0.5887 0.3869 l
0.5900 0.3862 l
0.5912 0.3855 l
0.5925 0.3847 l
0.5937 0.3840 l
0.5950 0.3833 l
0.5962 0.3826 l
0.5975 0.3819 l
0.5987 0.3812 l
0.6000 0.3805 l
0.6012 0.3798 l
0.6025 0.3791 l
0.6037 0.3785 l
0.6050 0.3778 l
0.6062 0.3771 l
0.6075 0.3764 l
0.6087 0.3757 l
0.6100 0.3750 l
0.6112 0.3744 l
0.6125 0.3737 l
0.6137 0.3730 l
0.6150 0.3723 l
0.6162 0.3717 l
0.6175 0.3710 l
0.6187 0.3703 l
0.6200 0.3697 l
0.6212 0.3690 l
0.6225 0.3683 l
0.6237 0.3677 l
0.6250 0.3670 l
0.6262 0.3664 l
0.6275 0.3657 l
0.6287 0.3651 l
0.6300 0.3644 l
0.6312 0.3638 l
0.6325 0.3631 l
0.6337 0.3625 l
0.6350 0.3618 l
0.6362 0.3612 l
0.6375 0.3605 l
0.6387 0.3599 l
0.6400 0.3593 l
0.6412 0.3586 l
0.6425 0.3580 l
0.6437 0.3574 l
0.6450 0.3568 l
0.6462 0.3561 l
0.6475 0.3555 l
0.6487 0.3549 l
0.6500 0.3543 l
0.6512 0.3536 l
0.6525 0.3530 l
0.6537 0.3524 l
0.6550 0.3518 l
0.6562 0.3512 l
0.6575 0.3506 l
0.6587 0.3500 l
0.6600 0.3494 l
0.6612 0.3488 l
0.6625 0.3482 l
0.6637 0.3476 l
0.6650 0.3470 l
0.6662 0.3464 l
0.6675 0.3458 l
0.6687 0.3452 l
0.6700 0.3446 l
0.6712 0.3440 l
0.6725 0.3434 l
0.6737 0.3428 l
0.6750 0.3422 l
0.6762 0.3416 l
0.6775 0.3411 l
0.6787 0.3405 l
0.6800 0.3399 l
0.6812 0.3393 l
0.6825 0.3387 l
0.6837 0.3382 l
0.6850 0.3376 l
0.6862 0.3370 l
0.6875 0.3365 l
0.6887 0.3359 l
0.6900 0.3353 l
0.6912 0.3348 l
0.6925 0.3342 l
0.6937 0.3336 l
0.6950 0.3331 l
0.6962 0.3325 l
0.6975 0.3320 l
0.6987 0.3314 l
0.7000 0.3308 l
0.7012 0.3303 l
0.7025 0.3297 l
0.7037 0.3292 l
0.7050 0.3287 l
0.7062 0.3281 l
0.7075 0.3276 l
0.7087 0.3270 l
0.7100 0.3265 l
0.7112 0.3259 l
0.7125 0.3254 l
0.7137 0.3249 l
0.7150 0.3243 l
0.7162 0.3238 l
0.7175 0.3233 l
0.7187 0.3227 l
0.7200 0.3222 l
0.7212 0.3217 l
0.7225 0.3211 l
0.7237 0.3206 l
0.7250 0.3201 l
0.7262 0.3196 l
0.7275 0.3191 l
0.7287 0.3185 l
0.7300 0.3180 l
0.7312 0.3175 l
0.7325 0.3170 l
0.7337 0.3165 l
0.7350 0.3160 l
0.7362 0.3155 l
0.7375 0.3149 l
0.7387 0.3144 l
0.7400 0.3139 l
0.7412 0.3134 l
0.7425 0.3129 l
0.7437 0.3124 l
0.7450 0.3119 l
0.7462 0.3114 l
0.7475 0.3109 l
0.7487 0.3104 l
0.7500 0.3099 l
0.7512 0.3094 l
0.7525 0.3089 l
0.7537 0.3085 l
0.7550 0.3080 l
0.7562 0.3075 l
0.7575 0.3070 l
0.7587 0.3065 l
0.7600 0.3060 l
0.7612 0.3055 l
0.7625 0.3051 l
0.7637 0.3046 l
0.7650 0.3041 l
0.7662 0.3036 l
0.7675 0.3031 l
0.7687 0.3027 l
0.7700 0.3022 l
0.7712 0.3017 l
0.7725 0.3012 l
0.7737 0.3008 l
0.7750 0.3003 l
0.7762 0.2998 l
0.7775 0.2994 l
0.7787 0.2989 l
0.7800 0.2984 l
0.7812 0.2980 l
0.7825 0.2975 l
0.7837 0.2971 l
0.7850 0.2966 l
0.7862 0.2961 l
0.7875 0.2957 l
0.7887 0.2952 l
0.7900 0.2948 l
0.7912 0.2943 l
0.7925 0.2939 l
0.7937 0.2934 l
0.7950 0.2930 l
0.7962 0.2925 l
0.7975 0.2921 l
0.7987 0.2916 l
0.8000 0.2912 l
0.8012 0.2907 l
0.8025 0.2903 l
0.8037 0.2899 l
0.8050 0.2894 l
0.8062 0.2890 l
0.8075 0.2885 l
0.8087 0.2881 l
0.8100 0.2877 l
0.8112 0.2872 l
0.8125 0.2868 l
0.8137 0.2864 l
0.8150 0.2859 l
0.8162 0.2855 l
0.8175 0.2851 l
0.8187 0.2847 l
0.8200 0.2842 l
0.8212 0.2838 l
0.8225 0.2834 l
0.8237 0.2830 l
0.8250 0.2825 l
0.8262 0.2821 l
0.8275 0.2817 l
0.8287 0.2813 l
0.8300 0.2809 l
0.8312 0.2805 l
0.8325 0.2800 l
0.8337 0.2796 l
0.8350 0.2792 l
0.8362 0.2788 l
0.8375 0.2784 l
0.8387 0.2780 l
0.8400 0.2776 l
0.8412 0.2772 l
0.8425 0.2768 l
0.8437 0.2763 l
0.8450 0.2759 l
0.8462 0.2755 l
0.8475 0.2751 l
0.8487 0.2747 l
0.8500 0.2743 l
0.8512 0.2739 l
0.8525 0.2735 l
0.8537 0.2731 l
0.8550 0.2727 l
0.8562 0.2723 l
0.8575 0.2720 l
0.8587 0.2716 l
0.8600 0.2712 l
0.8612 0.2708 l
0.8625 0.2704 l
0.8637 0.2700 l
0.8650 0.2696 l
0.8662 0.2692 l
0.8675 0.2688 l
0.8687 0.2685 l
0.8700 0.2681 l
0.8712 0.2677 l
0.8725 0.2673 l
0.8737 0.2669 l
0.8750 0.2665 l
0.8762 0.2662 l
0.8775 0.2658 l
0.8787 0.2654 l
0.8800 0.2650 l
0.8812 0.2647 l
0.8825 0.2643 l
0.8837 0.2639 l
0.8850 0.2635 l
0.8862 0.2632 l
0.8875 0.2628 l
0.8887 0.2624 l
0.8900 0.2621 l
0.8912 0.2617 l
0.8925 0.2613 l
0.8937 0.2610 l
0.8950 0.2606 l
0.8962 0.2602 l
0.8975 0.2599 l
0.8987 0.2595 l
0.9000 0.2591 l
0.9012 0.2588 l
0.9025 0.2584 l
0.9037 0.2581 l
0.9050 0.2577 l
0.9062 0.2573 l
0.9075 0.2570 l
0.9087 0.2566 l
0.9100 0.2563 l
0.9112 0.2559 l
0.9125 0.2556 l
0.9137 0.2552 l
0.9150 0.2549 l
0.9162 0.2545 l
0.9175 0.2542 l
0.9187 0.2538 l
0.9200 0.2535 l
0.9212 0.2531 l
0.9225 0.2528 l
0.9237 0.2524 l
0.9250 0.2521 l
0.9262 0.2517 l
0.9275 0.2514 l
0.9287 0.2511 l
0.9300 0.2507 l
0.9312 0.2504 l
0.9325 0.2500 l
0.9337 0.2497 l
0.9350 0.2494 l
0.9362 0.2490 l
0.9375 0.2487 l
0.9387 0.2484 l
0.9400 0.2480 l
0.9412 0.2477 l
0.9425 0.2474 l
0.9437 0.2470 l
0.9450 0.2467 l
0.9462 0.2464 l
0.9475 0.2460 l
0.9487 0.2457 l
0.9500 0.2454 l
0.9512 0.2450 l
0.9525 0.2447 l
0.9537 0.2444 l
0.9550 0.2441 l
0.9562 0.2437 l
0.9575 0.2434 l
0.9587 0.2431 l
0.9600 0.2428 l
0.9612 0.2425 l
0.9625 0.2421 l
0.9637 0.2418 l
0.9650 0.2415 l
0.9662 0.2412 l
0.9675 0.2409 l
0.9687 0.2405 l
0.9700 0.2402 l
0.9712 0.2399 l
0.9725 0.2396 l
0.9737 0.2393 l
0.9750 0.2390 l
0.9762 0.2387 l
0.9775 0.2384 l
0.9787 0.2380 l
0.9800 0.2377 l
0.9812 0.2374 l
0.9825 0.2371 l
0.9837 0.2368 l
0.9850 0.2365 l
0.9862 0.2362 l
0.9875 0.2359 l
0.9887 0.2356 l
0.9900 0.2353 l
0.9912 0.2350 l
0.9925 0.2347 l
0.9937 0.2344 l
0.9950 0.2341 l
0.9962 0.2338 l
0.9975 0.2335 l
0.9987 0.2332 l
1.0000 0.2329 l
1.0012 0.2326 l
1.0025 0.2323 l
1.0037 0.2320 l
1.0050 0.2317 l
1.0062 0.2314 l
1.0075 0.2311 l
1.0087 0.2308 l
1.0100 0.2305 l
1.0112 0.2302 l
1.0125 0.2299 l
1.0137 0.2296 l
1.0150 0.2294 l
1.0162 0.2291 l
1.0175 0.2288 l
1.0187 0.2285 l
1.0200 0.2282 l
1.0212 0.2279 l
1.0225 0.2276 l
1.0237 0.2273 l
1.0250 0.2271 l
1.0262 0.2268 l
1.0275 0.2265 l
1.0287 0.2262 l
1.0300 0.2259 l
1.0312 0.2256 l
1.0325 0.2254 l
1.0337 0.2251 l
1.0350 0.2248 l
1.0362 0.2245 l
1.0375 0.2242 l
1.0387 0.2240 l
1.0400 0.2237 l
1.0412 0.2234 l
1.0425 0.2231 l
1.0437 0.2229 l
1.0450 0.2226 l
1.0462 0.2223 l
1.0475 0.2220 l
1.0487 0.2218 l
1.0500 0.2215 l
1.0512 0.2212 l
1.0525 0.2209 l
1.0537 0.2207 l
1.0550 0.2204 l
1.0562 0.2201 l
1.0575 0.2199 l
1.0587 0.2196 l
1.0600 0.2193 l
1.0612 0.2191 l
1.0625 0.2188 l
1.0637 0.2185 l
1.0650 0.2183 l
1.0662 0.2180 l
1.0675 0.2177 l
1.0687 0.2175 l
1.0700 0.2172 l
1.0712 0.2170 l
1.0725 0.2167 l
1.0737 0.2164 l
1.0750 0.2162 l
1.0762 0.2159 l
1.0775 0.2157 l
1.0787 0.2154 l
1.0800 0.2151 l
1.0812 0.2149 l
1.0825 0.2146 l
1.0837 0.2144 l
1.0850 0.2141 l
1.0862 0.2139 l
1.0875 0.2136 l
1.0887 0.2133 l
1.0900 0.2131 l
1.0912 0.2128 l
1.0925 0.2126 l
1.0937 0.2123 l
1.0950 0.2121 l
1.0962 0.2118 l
1.0975 0.2116 l
1.0987 0.2113 l
1.1000 0.2111 l
1.1012 0.2108 l
1.1025 0.2106 l
1.1037 0.2103 l
1.1050 0.2101 l
1.1062 0.2099 l
1.1075 0.2096 l
1.1087 0.2094 l
1.1100 0.2091 l
1.1112 0.2089 l
1.1125 0.2086 l
1.1137 0.2084 l
1.1150 0.2081 l
1.1162 0.2079 l
1.1175 0.2077 l
1.1187 0.2074 l
1.1200 0.2072 l
1.1212 0.2069 l
1.1225 0.2067 l
1.1237 0.2065 l
1.1250 0.2062 l
1.1262 0.2060 l
1.1275 0.2057 l
1.1287 0.2055 l
1.1300 0.2053 l
1.1312 0.2050 l
1.1325 0.2048 l
1.1337 0.2046 l
1.1350 0.2043 l
1.1362 0.2041 l
1.1375 0.2039 l
1.1387 0.2036 l
1.1400 0.2034 l
1.1412 0.2032 l
1.1425 0.2029 l
1.1437 0.2027 l
1.1450 0.2025 l
1.1462 0.2022 l
1.1475 0.2020 l
1.1487 0.2018 l
1.1500 0.2016 l
1.1501 0.2015 l
s
[/DeviceRGB] SCS
Color12 SC
[0.0037 0.0112 0.0187 0.0112 ] 0 SD
0.0037 SLW
n
0.1512 0.7092 m
0.1525 0.7083 l
0.1537 0.7075 l
0.1550 0.7066 l
0.1562 0.7058 l
0.1575 0.7050 l
0.1588 0.7041 l
0.1600 0.7033 l
0.1613 0.7025 l
0.1625 0.7016 l
0.1638 0.7008 l
0.1650 0.7000 l
0.1663 0.6992 l
0.1675 0.6984 l
0.1688 0.6975 l
0.1700 0.6967 l
0.1713 0.6959 l
0.1725 0.6951 l
0.1738 0.6943 l
0.1750 0.6935 l
0.1763 0.6927 l
0.1775 0.6919 l
0.1788 0.6911 l
0.1800 0.6903 l
0.1813 0.6895 l
0.1825 0.6887 l
0.1837 0.6879 l
0.1850 0.6871 l
0.1862 0.6863 l
0.1875 0.6855 l
0.1887 0.6847 l
0.1900 0.6839 l
0.1912 0.6832 l
0.1925 0.6824 l
0.1937 0.6816 l
0.1950 0.6808 l
0.1962 0.6801 l
0.1975 0.6793 l
0.1987 0.6785 l
0.2000 0.6777 l
0.2012 0.6770 l
0.2025 0.6762 l
0.2037 0.6754 l
0.2050 0.6747 l
0.2062 0.6739 l
0.2075 0.6731 l
0.2087 0.6724 l
0.2100 0.6716 l
0.2112 0.6709 l
0.2125 0.6701 l
0.2137 0.6694 l
0.2150 0.6686 l
0.2162 0.6679 l
0.2175 0.6671 l
0.2187 0.6664 l
0.2200 0.6656 l
0.2212 0.6649 l
0.2225 0.6642 l
0.2237 0.6634 l
0.2250 0.6627 l
0.2262 0.6620 l
0.2275 0.6612 l
0.2287 0.6605 l
0.2300 0.6598 l
0.2312 0.6590 l
0.2325 0.6583 l
0.2337 0.6576 l
0.2350 0.6569 l
0.2362 0.6561 l
0.2375 0.6554 l
0.2387 0.6547 l
0.2400 0.6540 l
0.2412 0.6533 l
0.2425 0.6526 l
0.2437 0.6518 l
0.2450 0.6511 l
0.2462 0.6504 l
0.2475 0.6497 l
0.2487 0.6490 l
0.2500 0.6483 l
0.2512 0.6476 l
0.2525 0.6469 l
0.2537 0.6462 l
0.2550 0.6455 l
0.2562 0.6448 l
0.2575 0.6441 l
0.2587 0.6434 l
0.2600 0.6427 l
0.2612 0.6420 l
0.2625 0.6414 l
0.2637 0.6407 l
0.2650 0.6400 l
0.2662 0.6393 l
0.2675 0.6386 l
0.2687 0.6379 l
0.2700 0.6373 l
0.2712 0.6366 l
0.2725 0.6359 l
0.2737 0.6352 l
0.2750 0.6346 l
0.2762 0.6339 l
0.2775 0.6332 l
0.2787 0.6325 l
0.2800 0.6319 l
0.2812 0.6312 l
0.2825 0.6305 l
0.2837 0.6299 l
0.2850 0.6292 l
0.2862 0.6286 l
0.2875 0.6279 l
0.2887 0.6272 l
0.2900 0.6266 l
0.2912 0.6259 l
0.2925 0.6253 l
0.2937 0.6246 l
0.2950 0.6240 l
0.2962 0.6233 l
0.2975 0.6227 l
0.2987 0.6220 l
0.3000 0.6214 l
0.3012 0.6207 l
0.3025 0.6201 l
0.3037 0.6194 l
0.3050 0.6188 l
0.3062 0.6182 l
0.3075 0.6175 l
0.3087 0.6169 l
0.3100 0.6163 l
0.3112 0.6156 l
0.3125 0.6150 l
0.3137 0.6144 l
0.3150 0.6137 l
0.3162 0.6131 l
0.3175 0.6125 l
0.3187 0.6118 l
0.3200 0.6112 l
0.3212 0.6106 l
0.3225 0.6100 l
0.3237 0.6094 l
0.3250 0.6087 l
0.3262 0.6081 l
0.3275 0.6075 l
0.3287 0.6069 l
0.3300 0.6063 l
0.3312 0.6057 l
0.3325 0.6050 l
0.3337 0.6044 l
0.3350 0.6038 l
0.3362 0.6032 l
0.3375 0.6026 l
0.3387 0.6020 l
0.3400 0.6014 l
0.3412 0.6008 l
0.3425 0.6002 l
0.3437 0.5996 l
0.3450 0.5990 l
0.3462 0.5984 l
0.3475 0.5978 l
0.3487 0.5972 l
0.3500 0.5966 l
0.3512 0.5960 l
0.3525 0.5954 l
0.3537 0.5948 l
0.3550 0.5942 l
0.3562 0.5937 l
0.3575 0.5931 l
0.3587 0.5925 l
0.3600 0.5919 l
0.3612 0.5913 l
0.3625 0.5907 l
0.3637 0.5902 l
0.3650 0.5896 l
0.3662 0.5890 l
0.3675 0.5884 l
0.3687 0.5878 l
0.3700 0.5873 l
0.3712 0.5867 l
0.3725 0.5861 l
0.3737 0.5855 l
0.3750 0.5850 l
0.3762 0.5844 l
0.3775 0.5838 l
0.3787 0.5833 l
0.3800 0.5827 l
0.3812 0.5821 l
0.3825 0.5816 l
0.3837 0.5810 l
0.3850 0.5804 l
0.3862 0.5799 l
0.3875 0.5793 l
0.3887 0.5788 l
0.3900 0.5782 l
0.3912 0.5776 l
0.3925 0.5771 l
0.3937 0.5765 l
0.3950 0.5760 l
0.3962 0.5754 l
0.3975 0.5749 l
0.3987 0.5743 l
0.4000 0.5738 l
0.4012 0.5732 l
0.4025 0.5727 l
0.4037 0.5721 l
0.4050 0.5716 l
0.4062 0.5711 l
0.4075 0.5705 l
0.4087 0.5700 l
0.4100 0.5694 l
0.4112 0.5689 l
0.4125 0.5684 l
0.4137 0.5678 l
0.4150 0.5673 l
0.4162 0.5667 l
0.4175 0.5662 l
0.4187 0.5657 l
0.4200 0.5651 l
0.4212 0.5646 l
0.4225 0.5641 l
0.4237 0.5636 l
0.4250 0.5630 l
0.4262 0.5625 l
0.4275 0.5620 l
0.4287 0.5614 l
0.4300 0.5609 l
0.4312 0.5604 l
0.4325 0.5599 l
0.4337 0.5594 l
0.4350 0.5588 l
0.4362 0.5583 l
0.4375 0.5578 l
0.4387 0.5573 l
0.4400 0.5568 l
0.4412 0.5562 l
0.4425 0.5557 l
0.4437 0.5552 l
0.4450 0.5547 l
0.4462 0.5542 l
0.4475 0.5537 l
0.4487 0.5532 l
0.4500 0.5527 l
0.4512 0.5522 l
0.4525 0.5516 l
0.4537 0.5511 l
0.4550 0.5506 l
0.4562 0.5501 l
0.4575 0.5496 l
0.4587 0.5491 l
0.4600 0.5486 l
0.4612 0.5481 l
0.4625 0.5476 l
0.4637 0.5471 l
0.4650 0.5466 l
0.4662 0.5461 l
0.4675 0.5456 l
0.4687 0.5451 l
0.4700 0.5447 l
0.4712 0.5442 l
0.4725 0.5437 l
0.4737 0.5432 l
0.4750 0.5427 l
0.4762 0.5422 l
0.4775 0.5417 l
0.4787 0.5412 l
0.4800 0.5407 l
0.4812 0.5402 l
0.4825 0.5398 l
0.4837 0.5393 l
0.4850 0.5388 l
0.4862 0.5383 l
0.4875 0.5378 l
0.4887 0.5374 l
0.4900 0.5369 l
0.4912 0.5364 l
0.4925 0.5359 l
0.4937 0.5354 l
0.4950 0.5350 l
0.4962 0.5345 l
0.4975 0.5340 l
0.4987 0.5335 l
0.5000 0.5331 l
0.5012 0.5326 l
0.5025 0.5321 l
0.5037 0.5317 l
0.5050 0.5312 l
0.5062 0.5307 l
0.5075 0.5303 l
0.5087 0.5298 l
0.5100 0.5293 l
0.5112 0.5289 l
0.5125 0.5284 l
0.5137 0.5279 l
0.5150 0.5275 l
0.5162 0.5270 l
0.5175 0.5265 l
0.5187 0.5261 l
0.5200 0.5256 l
0.5212 0.5252 l
0.5225 0.5247 l
0.5237 0.5242 l
0.5250 0.5238 l
0.5262 0.5233 l
0.5275 0.5229 l
0.5287 0.5224 l
0.5300 0.5220 l
0.5312 0.5215 l
0.5325 0.5211 l
0.5337 0.5206 l
0.5350 0.5202 l
0.5362 0.5197 l
0.5375 0.5193 l
0.5387 0.5188 l
0.5400 0.5184 l
0.5412 0.5179 l
0.5425 0.5175 l
0.5437 0.5170 l
0.5450 0.5166 l
0.5462 0.5162 l
0.5475 0.5157 l
0.5487 0.5153 l
0.5500 0.5148 l
0.5512 0.5144 l
0.5525 0.5140 l
0.5537 0.5135 l
0.5550 0.5131 l
0.5562 0.5127 l
0.5575 0.5122 l
0.5587 0.5118 l
0.5600 0.5113 l
0.5612 0.5109 l
0.5625 0.5105 l
0.5637 0.5100 l
0.5650 0.5096 l
0.5662 0.5092 l
0.5675 0.5088 l
0.5687 0.5083 l
0.5700 0.5079 l
0.5712 0.5075 l
0.5725 0.5070 l
0.5737 0.5066 l
0.5750 0.5062 l
0.5762 0.5058 l
0.5775 0.5053 l
0.5787 0.5049 l
0.5800 0.5045 l
0.5812 0.5041 l
0.5825 0.5037 l
0.5837 0.5032 l
0.5850 0.5028 l
0.5862 0.5024 l
0.5875 0.5020 l
0.5887 0.5016 l
0.5900 0.5011 l
0.5912 0.5007 l
0.5925 0.5003 l
0.5937 0.4999 l
0.5950 0.4995 l
0.5962 0.4991 l
0.5975 0.4987 l
0.5987 0.4982 l
0.6000 0.4978 l
0.6012 0.4974 l
0.6025 0.4970 l
0.6037 0.4966 l
0.6050 0.4962 l
0.6062 0.4958 l
0.6075 0.4954 l
0.6087 0.4950 l
0.6100 0.4946 l
0.6112 0.4942 l
0.6125 0.4938 l
0.6137 0.4934 l
0.6150 0.4930 l
0.6162 0.4926 l
0.6175 0.4922 l
0.6187 0.4918 l
0.6200 0.4914 l
0.6212 0.4910 l
0.6225 0.4906 l
0.6237 0.4902 l
0.6250 0.4898 l
0.6262 0.4894 l
0.6275 0.4890 l
0.6287 0.4886 l
0.6300 0.4882 l
0.6312 0.4878 l
0.6325 0.4874 l
0.6337 0.4870 l
0.6350 0.4866 l
0.6362 0.4862 l
0.6375 0.4858 l
0.6387 0.4854 l
0.6400 0.4850 l
0.6412 0.4847 l
0.6425 0.4843 l
0.6437 0.4839 l
0.6450 0.4835 l
0.6462 0.4831 l
0.6475 0.4827 l
0.6487 0.4823 l
0.6500 0.4819 l
0.6512 0.4816 l
0.6525 0.4812 l
0.6537 0.4808 l
0.6550 0.4804 l
0.6562 0.4800 l
0.6575 0.4797 l
0.6587 0.4793 l
0.6600 0.4789 l
0.6612 0.4785 l
0.6625 0.4781 l
0.6637 0.4778 l
0.6650 0.4774 l
0.6662 0.4770 l
0.6675 0.4766 l
0.6687 0.4762 l
0.6700 0.4759 l
0.6712 0.4755 l
0.6725 0.4751 l
0.6737 0.4748 l
0.6750 0.4744 l
0.6762 0.4740 l
0.6775 0.4736 l
0.6787 0.4733 l
0.6800 0.4729 l
0.6812 0.4725 l
0.6825 0.4722 l
0.6837 0.4718 l
0.6850 0.4714 l
0.6862 0.4711 l
0.6875 0.4707 l
0.6887 0.4703 l
0.6900 0.4700 l
0.6912 0.4696 l
0.6925 0.4692 l
0.6937 0.4689 l
0.6950 0.4685 l
0.6962 0.4681 l
0.6975 0.4678 l
0.6987 0.4674 l
0.7000 0.4671 l
0.7012 0.4667 l
0.7025 0.4663 l
0.7037 0.4660 l
0.7050 0.4656 l
0.7062 0.4653 l
0.7075 0.4649 l
0.7087 0.4645 l
0.7100 0.4642 l
0.7112 0.4638 l
0.7125 0.4635 l
0.7137 0.4631 l
0.7150 0.4628 l
0.7162 0.4624 l
0.7175 0.4621 l
0.7187 0.4617 l
0.7200 0.4614 l
0.7212 0.4610 l
0.7225 0.4607 l
0.7237 0.4603 l
0.7250 0.4600 l
0.7262 0.4596 l
0.7275 0.4593 l
0.7287 0.4589 l
0.7300 0.4586 l
0.7312 0.4582 l
0.7325 0.4579 l
0.7337 0.4575 l
0.7350 0.4572 l
0.7362 0.4568 l
0.7375 0.4565 l
0.7387 0.4561 l
0.7400 0.4558 l
0.7412 0.4555 l
0.7425 0.4551 l
0.7437 0.4548 l
0.7450 0.4544 l
0.7462 0.4541 l
0.7475 0.4538 l
0.7487 0.4534 l
0.7500 0.4531 l
0.7512 0.4527 l
0.7525 0.4524 l
0.7537 0.4521 l
0.7550 0.4517 l
0.7562 0.4514 l
0.7575 0.4511 l
0.7587 0.4507 l
0.7600 0.4504 l
0.7612 0.4500 l
0.7625 0.4497 l
0.7637 0.4494 l
0.7650 0.4490 l
0.7662 0.4487 l
0.7675 0.4484 l
0.7687 0.4481 l
0.7700 0.4477 l
0.7712 0.4474 l
0.7725 0.4471 l
0.7737 0.4467 l
0.7750 0.4464 l
0.7762 0.4461 l
0.7775 0.4457 l
0.7787 0.4454 l
0.7800 0.4451 l
0.7812 0.4448 l
0.7825 0.4444 l
0.7837 0.4441 l
0.7850 0.4438 l
0.7862 0.4435 l
0.7875 0.4431 l
0.7887 0.4428 l
0.7900 0.4425 l
0.7912 0.4422 l
0.7925 0.4418 l
0.7937 0.4415 l
0.7950 0.4412 l
0.7962 0.4409 l
0.7975 0.4406 l
0.7987 0.4402 l
0.8000 0.4399 l
0.8012 0.4396 l
0.8025 0.4393 l
0.8037 0.4390 l
0.8050 0.4387 l
0.8062 0.4383 l
0.8075 0.4380 l
0.8087 0.4377 l
0.8100 0.4374 l
0.8112 0.4371 l
0.8125 0.4368 l
0.8137 0.4364 l
0.8150 0.4361 l
0.8162 0.4358 l
0.8175 0.4355 l
0.8187 0.4352 l
0.8200 0.4349 l
0.8212 0.4346 l
0.8225 0.4343 l
0.8237 0.4339 l
0.8250 0.4336 l
0.8262 0.4333 l
0.8275 0.4330 l
0.8287 0.4327 l
0.8300 0.4324 l
0.8312 0.4321 l
0.8325 0.4318 l
0.8337 0.4315 l
0.8350 0.4312 l
0.8362 0.4309 l
0.8375 0.4306 l
0.8387 0.4303 l
0.8400 0.4300 l
0.8412 0.4297 l
0.8425 0.4293 l
0.8437 0.4290 l
0.8450 0.4287 l
0.8462 0.4284 l
0.8475 0.4281 l
0.8487 0.4278 l
0.8500 0.4275 l
0.8512 0.4272 l
0.8525 0.4269 l
0.8537 0.4266 l
0.8550 0.4263 l
0.8562 0.4260 l
0.8575 0.4257 l
0.8587 0.4254 l
0.8600 0.4251 l
0.8612 0.4248 l
0.8625 0.4245 l
0.8637 0.4243 l
0.8650 0.4240 l
0.8662 0.4237 l
0.8675 0.4234 l
0.8687 0.4231 l
0.8700 0.4228 l
0.8712 0.4225 l
0.8725 0.4222 l
0.8737 0.4219 l
0.8750 0.4216 l
0.8762 0.4213 l
0.8775 0.4210 l
0.8787 0.4207 l
0.8800 0.4204 l
0.8812 0.4201 l
0.8825 0.4199 l
0.8837 0.4196 l
0.8850 0.4193 l
0.8862 0.4190 l
0.8875 0.4187 l
0.8887 0.4184 l
0.8900 0.4181 l
0.8912 0.4178 l
0.8925 0.4175 l
0.8937 0.4173 l
0.8950 0.4170 l
0.8962 0.4167 l
0.8975 0.4164 l
0.8987 0.4161 l
0.9000 0.4158 l
0.9012 0.4156 l
0.9025 0.4153 l
0.9037 0.4150 l
0.9050 0.4147 l
0.9062 0.4144 l
0.9075 0.4141 l
0.9087 0.4139 l
0.9100 0.4136 l
0.9112 0.4133 l
0.9125 0.4130 l
0.9137 0.4127 l
0.9150 0.4125 l
0.9162 0.4122 l
0.9175 0.4119 l
0.9187 0.4116 l
0.9200 0.4113 l
0.9212 0.4111 l
0.9225 0.4108 l
0.9237 0.4105 l
0.9250 0.4102 l
0.9262 0.4100 l
0.9275 0.4097 l
0.9287 0.4094 l
0.9300 0.4091 l
0.9312 0.4089 l
0.9325 0.4086 l
0.9337 0.4083 l
0.9350 0.4080 l
0.9362 0.4078 l
0.9375 0.4075 l
0.9387 0.4072 l
0.9400 0.4069 l
0.9412 0.4067 l
0.9425 0.4064 l
0.9437 0.4061 l
0.9450 0.4059 l
0.9462 0.4056 l
0.9475 0.4053 l
0.9487 0.4050 l
0.9500 0.4048 l
0.9512 0.4045 l
0.9525 0.4042 l
0.9537 0.4040 l
0.9550 0.4037 l
0.9562 0.4034 l
0.9575 0.4032 l
0.9587 0.4029 l
0.9600 0.4026 l
0.9612 0.4024 l
0.9625 0.4021 l
0.9637 0.4018 l
0.9650 0.4016 l
0.9662 0.4013 l
0.9675 0.4010 l
0.9687 0.4008 l
0.9700 0.4005 l
0.9712 0.4003 l
0.9725 0.4000 l
0.9737 0.3997 l
0.9750 0.3995 l
0.9762 0.3992 l
0.9775 0.3989 l
0.9787 0.3987 l
0.9800 0.3984 l
0.9812 0.3982 l
0.9825 0.3979 l
0.9837 0.3976 l
0.9850 0.3974 l
0.9862 0.3971 l
0.9875 0.3969 l
0.9887 0.3966 l
0.9900 0.3964 l
0.9912 0.3961 l
0.9925 0.3958 l
0.9937 0.3956 l
0.9950 0.3953 l
0.9962 0.3951 l
0.9975 0.3948 l
0.9987 0.3946 l
1.0000 0.3943 l
1.0012 0.3940 l
1.0025 0.3938 l
1.0037 0.3935 l
1.0050 0.3933 l
1.0062 0.3930 l
1.0075 0.3928 l
1.0087 0.3925 l
1.0100 0.3923 l
1.0112 0.3920 l
1.0125 0.3918 l
1.0137 0.3915 l
1.0150 0.3913 l
1.0162 0.3910 l
1.0175 0.3908 l
1.0187 0.3905 l
1.0200 0.3903 l
1.0212 0.3900 l
1.0225 0.3898 l
1.0237 0.3895 l
1.0250 0.3893 l
1.0262 0.3890 l
1.0275 0.3888 l
1.0287 0.3885 l
1.0300 0.3883 l
1.0312 0.3880 l
1.0325 0.3878 l
1.0337 0.3875 l
1.0350 0.3873 l
1.0362 0.3871 l
1.0375 0.3868 l
1.0387 0.3866 l
1.0400 0.3863 l
1.0412 0.3861 l
1.0425 0.3858 l
1.0437 0.3856 l
1.0450 0.3853 l
1.0462 0.3851 l
1.0475 0.3849 l
1.0487 0.3846 l
1.0500 0.3844 l
1.0512 0.3841 l
1.0525 0.3839 l
1.0537 0.3836 l
1.0550 0.3834 l
1.0562 0.3832 l
1.0575 0.3829 l
1.0587 0.3827 l
1.0600 0.3824 l
1.0612 0.3822 l
1.0625 0.3820 l
1.0637 0.3817 l
1.0650 0.3815 l
1.0662 0.3813 l
1.0675 0.3810 l
1.0687 0.3808 l
1.0700 0.3805 l
1.0712 0.3803 l
1.0725 0.3801 l
1.0737 0.3798 l
1.0750 0.3796 l
1.0762 0.3794 l
1.0775 0.3791 l
1.0787 0.3789 l
1.0800 0.3787 l
1.0812 0.3784 l
1.0825 0.3782 l
1.0837 0.3780 l
1.0850 0.3777 l
1.0862 0.3775 l
1.0875 0.3773 l
1.0887 0.3770 l
1.0900 0.3768 l
1.0912 0.3766 l
1.0925 0.3763 l
1.0937 0.3761 l
1.0950 0.3759 l
1.0962 0.3756 l
1.0975 0.3754 l
1.0987 0.3752 l
1.1000 0.3749 l
1.1012 0.3747 l
1.1025 0.3745 l
1.1037 0.3743 l
1.1050 0.3740 l
1.1062 0.3738 l
1.1075 0.3736 l
1.1087 0.3733 l
1.1100 0.3731 l
1.1112 0.3729 l
1.1125 0.3727 l
1.1137 0.3724 l
1.1150 0.3722 l
1.1162 0.3720 l
1.1175 0.3718 l
1.1187 0.3715 l
1.1200 0.3713 l
1.1212 0.3711 l
1.1225 0.3708 l
1.1237 0.3706 l
1.1250 0.3704 l
1.1262 0.3702 l
1.1275 0.3700 l
1.1287 0.3697 l
1.1300 0.3695 l
1.1312 0.3693 l
1.1325 0.3691 l
1.1337 0.3688 l
1.1350 0.3686 l
1.1362 0.3684 l
1.1375 0.3682 l
1.1387 0.3680 l
1.1400 0.3677 l
1.1412 0.3675 l
1.1425 0.3673 l
1.1437 0.3671 l
1.1450 0.3668 l
1.1462 0.3666 l
1.1475 0.3664 l
1.1487 0.3662 l
1.1500 0.3660 l
1.1501 0.3660 l
s
[/DeviceRGB] SCS
Color1 SC
[] 0 SD
0.0045 SLW
n
0.1500 0.1500 m
1.1500 0.1500 l
s
n
0.1500 0.8500 m
1.1500 0.8500 l
s
n
0.2750 0.1500 m
0.2750 0.1600 l
s
n
0.2750 0.8500 m
0.2750 0.8400 l
s
n
0.5250 0.1500 m
0.5250 0.1600 l
s
n
0.5250 0.8500 m
0.5250 0.8400 l
s
n
0.7750 0.1500 m
0.7750 0.1600 l
s
n
0.7750 0.8500 m
0.7750 0.8400 l
s
n
1.0250 0.1500 m
1.0250 0.1600 l
s
n
1.0250 0.8500 m
1.0250 0.8400 l
s
n
0.1500 0.1500 m
0.1500 0.1700 l
s
n
0.1500 0.8500 m
0.1500 0.8300 l
s
n
0.4000 0.1500 m
0.4000 0.1700 l
s
n
0.4000 0.8500 m
0.4000 0.8300 l
s
n
0.6500 0.1500 m
0.6500 0.1700 l
s
n
0.6500 0.8500 m
0.6500 0.8300 l
s
n
0.9000 0.1500 m
0.9000 0.1700 l
s
n
0.9000 0.8500 m
0.9000 0.8300 l
s
n
1.1500 0.1500 m
1.1500 0.1700 l
s
n
1.1500 0.8500 m
1.1500 0.8300 l
s
/Times-Roman findfont
dup length dict begin
 {1 index /FID ne {def} {pop pop} ifelse} forall
 /Encoding DefEncoding def
 currentdict
end
/Font0 exch definefont pop
/Font0 FFSF
0.1394 0.1094 m
GS
[0.0448 0.0000 0.0000 0.0448 0 0] CC
(0) show
GR
/Font0 FFSF
0.3725 0.1094 m
GS
[0.0448 0.0000 0.0000 0.0448 0 0] CC
(0.2) show
GR
/Font0 FFSF
0.6225 0.1094 m
GS
[0.0448 0.0000 0.0000 0.0448 0 0] CC
(0.4) show
GR
/Font0 FFSF
0.8727 0.1094 m
GS
[0.0448 0.0000 0.0000 0.0448 0 0] CC
(0.6) show
GR
/Font0 FFSF
1.1231 0.1094 m
GS
[0.0448 0.0000 0.0000 0.0448 0 0] CC
(0.8) show
GR
/Times-Italic findfont
dup length dict begin
 {1 index /FID ne {def} {pop pop} ifelse} forall
 /Encoding DefEncoding def
 currentdict
end
/Font1 exch definefont pop
/Font1 FFSF
0.5735 0.0445 m
GS
[0.0504 0.0000 0.0000 0.0504 0 0] CC
(n) show
GR
/Font0 FFSF
0.5986 0.0445 m
GS
[0.0504 0.0000 0.0000 0.0504 0 0] CC
( [fm) show
GR
/Font0 FFSF
0.6841 0.0747 m
GS
[0.0356 0.0000 0.0000 0.0356 0 0] CC
(-3) show
GR
/Font0 FFSF
0.7139 0.0445 m
GS
[0.0504 0.0000 0.0000 0.0504 0 0] CC
(]) show
GR
n
0.1500 0.1500 m
0.1500 0.8500 l
s
n
1.1500 0.1500 m
1.1500 0.8500 l
s
n
0.1500 0.2200 m
0.1600 0.2200 l
s
n
1.1500 0.2200 m
1.1400 0.2200 l
s
n
0.1500 0.3600 m
0.1600 0.3600 l
s
n
1.1500 0.3600 m
1.1400 0.3600 l
s
n
0.1500 0.5000 m
0.1600 0.5000 l
s
n
1.1500 0.5000 m
1.1400 0.5000 l
s
n
0.1500 0.6400 m
0.1600 0.6400 l
s
n
1.1500 0.6400 m
1.1400 0.6400 l
s
n
0.1500 0.7800 m
0.1600 0.7800 l
s
n
1.1500 0.7800 m
1.1400 0.7800 l
s
n
0.1500 0.1500 m
0.1700 0.1500 l
s
n
1.1500 0.1500 m
1.1300 0.1500 l
s
n
0.1500 0.2900 m
0.1700 0.2900 l
s
n
1.1500 0.2900 m
1.1300 0.2900 l
s
n
0.1500 0.4300 m
0.1700 0.4300 l
s
n
1.1500 0.4300 m
1.1300 0.4300 l
s
n
0.1500 0.5700 m
0.1700 0.5700 l
s
n
1.1500 0.5700 m
1.1300 0.5700 l
s
n
0.1500 0.7100 m
0.1700 0.7100 l
s
n
1.1500 0.7100 m
1.1300 0.7100 l
s
n
0.1500 0.8500 m
0.1700 0.8500 l
s
n
1.1500 0.8500 m
1.1300 0.8500 l
s
/Font0 FFSF
0.0851 0.1351 m
GS
[0.0448 0.0000 0.0000 0.0448 0 0] CC
(0.2) show
GR
/Font0 FFSF
0.0851 0.2751 m
GS
[0.0448 0.0000 0.0000 0.0448 0 0] CC
(0.4) show
GR
/Font0 FFSF
0.0855 0.4151 m
GS
[0.0448 0.0000 0.0000 0.0448 0 0] CC
(0.6) show
GR
/Font0 FFSF
0.0863 0.5551 m
GS
[0.0448 0.0000 0.0000 0.0448 0 0] CC
(0.8) show
GR
/Font0 FFSF
0.1224 0.6947 m
GS
[0.0448 0.0000 0.0000 0.0448 0 0] CC
(1) show
GR
/Font0 FFSF
0.0851 0.8349 m
GS
[0.0448 0.0000 0.0000 0.0448 0 0] CC
(1.2) show
GR
/Font0 FFSF
0.0743 0.4451 m
GS
[0.0000 0.0504 -0.0504 0.0000 0 0] CC
(m) show
GR
/Font0 FFSF
0.0441 0.4843 m
GS
[0.0000 0.0356 -0.0356 0.0000 0 0] CC
(*) show
GR
/Font0 FFSF
0.0743 0.5020 m
GS
[0.0000 0.0504 -0.0504 0.0000 0 0] CC
(/m) show
GR
[] 0 SD
0.0015 SLW
n
0.1500 0.1500 m
0.1500 0.8500 l
1.1500 0.8500 l
1.1500 0.1500 l
0.1500 0.1500 l
c
s
n
0.1500 0.4400 m
0.1500 0.1571 l
0.3934 0.1571 l
0.3934 0.4400 l
c
[/DeviceRGB] SCS
Color0 SC
fill
[/DeviceRGB] SCS
Color1 SC
[] 0 SD
0.0045 SLW
n
0.1500 0.4400 m
0.1500 0.1571 l
0.3934 0.1571 l
0.3934 0.4400 l
0.1500 0.4400 l
c
s
/Font0 FFSF
0.2219 0.3955 m
GS
[0.0510 0.0000 0.0000 0.0510 0 0] CC
(BBG) show
GR
[] 0 SD
0.0030 SLW
n 0.1819 0.4124 0.0100 0.0100 0 360 EARC s
/Font0 FFSF
0.2219 0.3502 m
GS
[0.0510 0.0000 0.0000 0.0510 0 0] CC
(LYVA1) show
GR
[] 0 SD
0.0037 SLW
n
0.1619 0.3673 m
0.2019 0.3673 l
s
/Font0 FFSF
0.2219 0.3049 m
GS
[0.0510 0.0000 0.0000 0.0510 0 0] CC
(BSk19) show
GR
[/DeviceRGB] SCS
Color3 SC
[0.0187 0.0112 ] 0 SD
0.0037 SLW
n
0.1619 0.3218 m
0.2019 0.3218 l
s
/Font0 FFSF
[/DeviceRGB] SCS
Color1 SC
0.2219 0.2588 m
GS
[0.0510 0.0000 0.0000 0.0510 0 0] CC
(BSk20) show
GR
[/DeviceRGB] SCS
Color2 SC
n
0.1619 0.2759 m
0.2019 0.2759 l
s
/Font0 FFSF
[/DeviceRGB] SCS
Color1 SC
0.2219 0.2131 m
GS
[0.0510 0.0000 0.0000 0.0510 0 0] CC
(BSk21) show
GR
[/DeviceRGB] SCS
Color15 SC
n
0.1619 0.2302 m
0.2019 0.2302 l
s
/Font0 FFSF
[/DeviceRGB] SCS
Color1 SC
0.2219 0.1678 m
GS
[0.0510 0.0000 0.0000 0.0510 0 0] CC
(LNS) show
GR
[/DeviceRGB] SCS
Color12 SC
[0.0037 0.0112 0.0187 0.0112 ] 0 SD
0.0037 SLW
n
0.1619 0.1847 m
0.2019 0.1847 l
s
/Font0 FFSF
[/DeviceRGB] SCS
Color1 SC
0.2000 0.7500 m
GS
[0.0834 0.0000 0.0000 0.0834 0 0] CC
(a\)) show
GR
%%Trailer
%%BoundingBox: 11 21 722 531
%%DocumentNeededResources: font Times-Roman
%%+ font Times-Italic
%%EOF
