%!PS-Adobe-3.0 EPSF-3.0
%%BoundingBox: (atend)
%%LanguageLevel: 2
%%Creator: Grace-5.1.21
%%CreationDate: Wed Aug  5 09:37:28 2015
%%DocumentData: Clean8Bit
%%Orientation: Portrait
%%Title: proton.agr
%%For: pastorea
%%DocumentNeededResources: (atend)
%%EndComments
%%BeginProlog
/m {moveto} def
/l {lineto} def
/s {stroke} def
/n {newpath} def
/c {closepath} def
/RL {rlineto} def
/SLW {setlinewidth} def
/GS {gsave} def
/GR {grestore} def
/SC {setcolor} def
/SGRY {setgray} def
/SRGB {setrgbcolor} def
/SD {setdash} def
/SLC {setlinecap} def
/SLJ {setlinejoin} def
/SCS {setcolorspace} def
/FFSF {findfont setfont} def
/CC {concat} def
/PXL {n m 0 0 RL s} def
/Color0 {1.0000 1.0000 1.0000} def
/Color1 {0.0000 0.0000 0.0000} def
/Color2 {1.0000 0.0000 0.0000} def
/Color3 {0.0000 1.0000 0.0000} def
/Color4 {0.0000 0.0000 1.0000} def
/Color5 {1.0000 1.0000 0.0000} def
/Color6 {0.7373 0.5608 0.5608} def
/Color7 {0.8627 0.8627 0.8627} def
/Color8 {0.5804 0.0000 0.8275} def
/Color9 {0.0000 1.0000 1.0000} def
/Color10 {1.0000 0.0000 1.0000} def
/Color11 {1.0000 0.6471 0.0000} def
/Color12 {0.4471 0.1294 0.7373} def
/Color13 {0.4039 0.0275 0.2824} def
/Color14 {0.2510 0.8784 0.8157} def
/Color15 {0.0000 0.5451 0.0000} def
/Color16 {0.7529 0.7529 0.7529} def
/Color17 {0.5059 0.5059 0.5059} def
/Color18 {0.2588 0.2588 0.2588} def
/Color19 {0.7529 0.7529 1.0000} def
/Color20 {0.5059 0.5059 1.0000} def
/Color21 {0.2588 0.2588 1.0000} def
/PTRN {
 /pat_bits exch def 
 <<
  /PaintType 2
  /PatternType 1 /TilingType 1
  /BBox[0 0 16 16]
  /XStep 16 /YStep 16
  /PaintProc {
   pop
   16 16 true [-1 0 0 -1 16 16] pat_bits imagemask
  }
 >>
 [0.0016 0 0 0.0016 0 0]
 makepattern
} def
/Pattern0 {<0000000000000000000000000000000000000000000000000000000000000000> PTRN} bind def
/Pattern1 {<ffffffffffffffffffffffffffffffffffffffffffffffffffffffffffffffff> PTRN} bind def
/Pattern2 {<eeeeffffbbbbffffeeeeffffbbbbffffeeeeffffbbbbffffeeeeffffbbbbffff> PTRN} bind def
/Pattern3 {<eeeebbbbeeeebbbbeeeebbbbeeeebbbbeeeebbbbeeeebbbbeeeebbbbeeeebbbb> PTRN} bind def
/Pattern4 {<5555aaaa5555aaaa5555aaaa5555aaaa5555aaaa5555aaaa5555aaaa5555aaaa> PTRN} bind def
/Pattern5 {<1111444411114444111144441111444411114444111144441111444411114444> PTRN} bind def
/Pattern6 {<1111000044440000111100004444000011110000444400001111000044440000> PTRN} bind def
/Pattern7 {<1010000000000000010100000000000010100000000000000101000000000000> PTRN} bind def
/Pattern8 {<0000000000000000000000000000000000000000000000000000000000000000> PTRN} bind def
/Pattern9 {<1e1e0f0f8787c3c3e1e1f0f078783c3c1e1e0f0f8787c3c3e1e1f0f078783c3c> PTRN} bind def
/Pattern10 {<7878f0f0e1e1c3c387870f0f1e1e3c3c7878f0f0e1e1c3c387870f0f1e1e3c3c> PTRN} bind def
/Pattern11 {<3333333333333333333333333333333333333333333333333333333333333333> PTRN} bind def
/Pattern12 {<ffffffff00000000ffffffff00000000ffffffff00000000ffffffff00000000> PTRN} bind def
/Pattern13 {<8181424224241818181824244242818181814242242418181818242442428181> PTRN} bind def
/Pattern14 {<8080404020201010080804040202010180804040202010100808040402020101> PTRN} bind def
/Pattern15 {<0101020204040808101020204040808001010202040408081010202040408080> PTRN} bind def
/Pattern16 {<2222222222222222222222222222222222222222222222222222222222222222> PTRN} bind def
/Pattern17 {<0000ffff000000000000ffff000000000000ffff000000000000ffff00000000> PTRN} bind def
/Pattern18 {<2222ffff222222222222ffff222222222222ffff222222222222ffff22222222> PTRN} bind def
/Pattern19 {<ffffffff33333333ffffffff33333333ffffffff33333333ffffffff33333333> PTRN} bind def
/Pattern20 {<0f0f0f0f0f0f0f0ff0f0f0f0f0f0f0f00f0f0f0f0f0f0f0ff0f0f0f0f0f0f0f0> PTRN} bind def
/Pattern21 {<ff00ff00ff00ff00ff00ff00ff00ff0000ff00ff00ff00ff00ff00ff00ff00ff> PTRN} bind def
/Pattern22 {<8001800180018001800180018001ffffffff8001800180018001800180018001> PTRN} bind def
/Pattern23 {<c003c003c003c003c003c003ffffffffffffffffc003c003c003c003c003c003> PTRN} bind def
/Pattern24 {<040404040404ffff404040404040ffff040404040404ffff404040404040ffff> PTRN} bind def
/Pattern25 {<180018001800180018001800ffffffff001800180018001800180018ffffffff> PTRN} bind def
/Pattern26 {<1111b8b87c7c3a3a1111a3a3c7c78b8b1111b8b87c7c3a3a1111a3a3c7c78b8b> PTRN} bind def
/Pattern27 {<101010102828c7c70101010182827c7c101010102828c7c70101010182827c7c> PTRN} bind def
/Pattern28 {<1c1c121211112121c1c12121111112121c1c121211112121c1c1212111111212> PTRN} bind def
/Pattern29 {<3e3e414180808080e3e31414080808083e3e414180808080e3e3141408080808> PTRN} bind def
/Pattern30 {<4848888884848383848488884848383848488888848483838484888848483838> PTRN} bind def
/Pattern31 {<03030404080808080c0c12122121c0c003030404080808080c0c12122121c0c0> PTRN} bind def
/ellipsedict 8 dict def
ellipsedict /mtrx matrix put
/EARC {
 ellipsedict begin
  /endangle exch def
  /startangle exch def
  /yrad exch def
  /xrad exch def
  /y exch def
  /x exch def
  /savematrix mtrx currentmatrix def
  x y translate
  xrad yrad scale
  0 0 1 startangle endangle arc
  savematrix setmatrix
 end
} def
/TL {
  /kcomp exch def
  /linewidth exch def
  /offset exch def
  GS
  0 offset rmoveto
  linewidth SLW
  dup stringwidth exch kcomp add exch RL s
  GR
} def
/KINIT
{
 /kvector exch def
 /kid 0 def
} def
/KPROC
{
 pop pop
 kvector kid get
 0 rmoveto
 /kid 1 kid add def
} def
/DefEncoding [
 /.notdef
 /.notdef
 /.notdef
 /.notdef
 /.notdef
 /.notdef
 /.notdef
 /.notdef
 /.notdef
 /.notdef
 /.notdef
 /.notdef
 /.notdef
 /.notdef
 /.notdef
 /.notdef
 /.notdef
 /.notdef
 /.notdef
 /.notdef
 /.notdef
 /.notdef
 /.notdef
 /.notdef
 /.notdef
 /.notdef
 /.notdef
 /.notdef
 /.notdef
 /.notdef
 /.notdef
 /.notdef
 /space
 /exclam
 /quotedbl
 /numbersign
 /dollar
 /percent
 /ampersand
 /quoteright
 /parenleft
 /parenright
 /asterisk
 /plus
 /comma
 /hyphen
 /period
 /slash
 /zero
 /one
 /two
 /three
 /four
 /five
 /six
 /seven
 /eight
 /nine
 /colon
 /semicolon
 /less
 /equal
 /greater
 /question
 /at
 /A
 /B
 /C
 /D
 /E
 /F
 /G
 /H
 /I
 /J
 /K
 /L
 /M
 /N
 /O
 /P
 /Q
 /R
 /S
 /T
 /U
 /V
 /W
 /X
 /Y
 /Z
 /bracketleft
 /backslash
 /bracketright
 /asciicircum
 /underscore
 /grave
 /a
 /b
 /c
 /d
 /e
 /f
 /g
 /h
 /i
 /j
 /k
 /l
 /m
 /n
 /o
 /p
 /q
 /r
 /s
 /t
 /u
 /v
 /w
 /x
 /y
 /z
 /braceleft
 /bar
 /braceright
 /asciitilde
 /.notdef
 /.notdef
 /.notdef
 /.notdef
 /.notdef
 /.notdef
 /.notdef
 /.notdef
 /.notdef
 /.notdef
 /.notdef
 /.notdef
 /.notdef
 /.notdef
 /.notdef
 /.notdef
 /.notdef
 /.notdef
 /.notdef
 /.notdef
 /.notdef
 /.notdef
 /.notdef
 /.notdef
 /.notdef
 /.notdef
 /.notdef
 /.notdef
 /.notdef
 /.notdef
 /.notdef
 /.notdef
 /.notdef
 /space
 /exclamdown
 /cent
 /sterling
 /currency
 /yen
 /brokenbar
 /section
 /dieresis
 /copyright
 /ordfeminine
 /guillemotleft
 /logicalnot
 /hyphen
 /registered
 /macron
 /degree
 /plusminus
 /twosuperior
 /threesuperior
 /acute
 /mu
 /paragraph
 /periodcentered
 /cedilla
 /onesuperior
 /ordmasculine
 /guillemotright
 /onequarter
 /onehalf
 /threequarters
 /questiondown
 /Agrave
 /Aacute
 /Acircumflex
 /Atilde
 /Adieresis
 /Aring
 /AE
 /Ccedilla
 /Egrave
 /Eacute
 /Ecircumflex
 /Edieresis
 /Igrave
 /Iacute
 /Icircumflex
 /Idieresis
 /Eth
 /Ntilde
 /Ograve
 /Oacute
 /Ocircumflex
 /Otilde
 /Odieresis
 /multiply
 /Oslash
 /Ugrave
 /Uacute
 /Ucircumflex
 /Udieresis
 /Yacute
 /Thorn
 /germandbls
 /agrave
 /aacute
 /acircumflex
 /atilde
 /adieresis
 /aring
 /ae
 /ccedilla
 /egrave
 /eacute
 /ecircumflex
 /edieresis
 /igrave
 /iacute
 /icircumflex
 /idieresis
 /eth
 /ntilde
 /ograve
 /oacute
 /ocircumflex
 /otilde
 /odieresis
 /divide
 /oslash
 /ugrave
 /uacute
 /ucircumflex
 /udieresis
 /yacute
 /thorn
 /ydieresis
] def
%%EndProlog
%%BeginSetup
%%EndSetup
612.00 612.00 scale
[/DeviceRGB] SCS
Color1 SC
[] 0 SD
0.0045 SLW
0 SLC
0 SLJ
n
0.1999 0.2204 m
0.2000 0.2206 l
0.2010 0.2220 l
0.2020 0.2233 l
0.2030 0.2247 l
0.2040 0.2261 l
0.2050 0.2274 l
0.2060 0.2288 l
0.2070 0.2301 l
0.2080 0.2315 l
0.2090 0.2328 l
0.2100 0.2341 l
0.2110 0.2354 l
0.2120 0.2367 l
0.2130 0.2380 l
0.2140 0.2393 l
0.2150 0.2406 l
0.2160 0.2418 l
0.2170 0.2431 l
0.2180 0.2443 l
0.2190 0.2456 l
0.2200 0.2468 l
0.2210 0.2480 l
0.2220 0.2493 l
0.2230 0.2505 l
0.2240 0.2517 l
0.2250 0.2529 l
0.2260 0.2541 l
0.2270 0.2553 l
0.2280 0.2564 l
0.2290 0.2576 l
0.2300 0.2588 l
0.2310 0.2599 l
0.2320 0.2611 l
0.2330 0.2622 l
0.2340 0.2633 l
0.2350 0.2645 l
0.2360 0.2656 l
0.2370 0.2667 l
0.2380 0.2678 l
0.2390 0.2689 l
0.2400 0.2700 l
0.2410 0.2711 l
0.2420 0.2722 l
0.2430 0.2732 l
0.2440 0.2743 l
0.2450 0.2754 l
0.2460 0.2764 l
0.2470 0.2775 l
0.2480 0.2785 l
0.2490 0.2795 l
0.2500 0.2806 l
0.2510 0.2816 l
0.2520 0.2826 l
0.2530 0.2836 l
0.2540 0.2846 l
0.2550 0.2856 l
0.2560 0.2866 l
0.2570 0.2876 l
0.2580 0.2886 l
0.2590 0.2896 l
0.2600 0.2905 l
0.2610 0.2915 l
0.2620 0.2925 l
0.2630 0.2934 l
0.2640 0.2944 l
0.2650 0.2953 l
0.2660 0.2962 l
0.2670 0.2972 l
0.2680 0.2981 l
0.2690 0.2990 l
0.2700 0.3000 l
0.2710 0.3009 l
0.2720 0.3018 l
0.2730 0.3027 l
0.2740 0.3036 l
0.2750 0.3045 l
0.2760 0.3054 l
0.2770 0.3062 l
0.2780 0.3071 l
0.2790 0.3080 l
0.2800 0.3089 l
0.2810 0.3097 l
0.2820 0.3106 l
0.2830 0.3114 l
0.2840 0.3123 l
0.2850 0.3131 l
0.2860 0.3140 l
0.2870 0.3148 l
0.2880 0.3157 l
0.2890 0.3165 l
0.2900 0.3173 l
0.2910 0.3181 l
0.2920 0.3189 l
0.2930 0.3198 l
0.2940 0.3206 l
0.2950 0.3214 l
0.2960 0.3222 l
0.2970 0.3230 l
0.2980 0.3238 l
0.2990 0.3246 l
0.3000 0.3254 l
0.3010 0.3261 l
0.3020 0.3269 l
0.3030 0.3277 l
0.3040 0.3285 l
0.3050 0.3292 l
0.3060 0.3300 l
0.3070 0.3308 l
0.3080 0.3315 l
0.3090 0.3323 l
0.3100 0.3330 l
0.3110 0.3338 l
0.3120 0.3345 l
0.3130 0.3353 l
0.3140 0.3360 l
0.3150 0.3367 l
0.3160 0.3375 l
0.3170 0.3382 l
0.3180 0.3389 l
0.3190 0.3396 l
0.3200 0.3404 l
0.3210 0.3411 l
0.3220 0.3418 l
0.3230 0.3425 l
0.3240 0.3432 l
0.3250 0.3439 l
0.3260 0.3446 l
0.3270 0.3453 l
0.3280 0.3460 l
0.3290 0.3467 l
0.3300 0.3474 l
0.3310 0.3481 l
0.3320 0.3488 l
0.3330 0.3495 l
0.3340 0.3501 l
0.3350 0.3508 l
0.3360 0.3515 l
0.3370 0.3522 l
0.3380 0.3528 l
0.3390 0.3535 l
0.3400 0.3542 l
0.3410 0.3548 l
0.3420 0.3555 l
0.3430 0.3561 l
0.3440 0.3568 l
0.3450 0.3574 l
0.3460 0.3581 l
0.3470 0.3587 l
0.3480 0.3594 l
0.3490 0.3600 l
0.3500 0.3607 l
0.3510 0.3613 l
0.3520 0.3619 l
0.3530 0.3626 l
0.3540 0.3632 l
0.3550 0.3638 l
0.3560 0.3645 l
0.3570 0.3651 l
0.3580 0.3657 l
0.3590 0.3663 l
0.3600 0.3670 l
0.3610 0.3676 l
0.3620 0.3682 l
0.3630 0.3688 l
0.3640 0.3694 l
0.3650 0.3700 l
0.3660 0.3706 l
0.3670 0.3712 l
0.3680 0.3718 l
0.3690 0.3724 l
0.3700 0.3730 l
0.3710 0.3736 l
0.3720 0.3742 l
0.3730 0.3748 l
0.3740 0.3754 l
0.3750 0.3760 l
0.3760 0.3766 l
0.3770 0.3772 l
0.3780 0.3778 l
0.3790 0.3784 l
0.3800 0.3789 l
0.3810 0.3795 l
0.3820 0.3801 l
0.3830 0.3807 l
0.3840 0.3813 l
0.3850 0.3818 l
0.3860 0.3824 l
0.3870 0.3830 l
0.3880 0.3836 l
0.3890 0.3841 l
0.3900 0.3847 l
0.3910 0.3853 l
0.3920 0.3858 l
0.3930 0.3864 l
0.3940 0.3869 l
0.3950 0.3875 l
0.3960 0.3881 l
0.3970 0.3886 l
0.3980 0.3892 l
0.3990 0.3897 l
0.4000 0.3903 l
0.4010 0.3908 l
0.4020 0.3914 l
0.4030 0.3919 l
0.4040 0.3925 l
0.4050 0.3930 l
0.4060 0.3936 l
0.4070 0.3941 l
0.4080 0.3947 l
0.4090 0.3952 l
0.4100 0.3957 l
0.4110 0.3963 l
0.4120 0.3968 l
0.4130 0.3973 l
0.4140 0.3979 l
0.4150 0.3984 l
0.4160 0.3990 l
0.4170 0.3995 l
0.4180 0.4000 l
0.4190 0.4005 l
0.4200 0.4011 l
0.4210 0.4016 l
0.4220 0.4021 l
0.4230 0.4026 l
0.4240 0.4032 l
0.4250 0.4037 l
0.4260 0.4042 l
0.4270 0.4047 l
0.4280 0.4053 l
0.4290 0.4058 l
0.4300 0.4063 l
0.4310 0.4068 l
0.4320 0.4073 l
0.4330 0.4078 l
0.4340 0.4084 l
0.4350 0.4089 l
0.4360 0.4094 l
0.4370 0.4099 l
0.4380 0.4104 l
0.4390 0.4109 l
0.4400 0.4114 l
0.4410 0.4119 l
0.4420 0.4124 l
0.4430 0.4129 l
0.4440 0.4135 l
0.4450 0.4140 l
0.4460 0.4145 l
0.4470 0.4150 l
0.4480 0.4155 l
0.4490 0.4160 l
0.4500 0.4165 l
0.4510 0.4170 l
0.4520 0.4175 l
0.4530 0.4180 l
0.4540 0.4185 l
0.4550 0.4190 l
0.4560 0.4195 l
0.4570 0.4200 l
0.4580 0.4205 l
0.4590 0.4209 l
0.4600 0.4214 l
0.4610 0.4219 l
0.4620 0.4224 l
0.4630 0.4229 l
0.4640 0.4234 l
0.4650 0.4239 l
0.4660 0.4244 l
0.4670 0.4249 l
0.4680 0.4254 l
0.4690 0.4258 l
0.4700 0.4263 l
0.4710 0.4268 l
0.4720 0.4273 l
0.4730 0.4278 l
0.4740 0.4283 l
0.4750 0.4288 l
0.4760 0.4292 l
0.4770 0.4297 l
0.4780 0.4302 l
0.4790 0.4307 l
0.4800 0.4312 l
0.4810 0.4316 l
0.4820 0.4321 l
0.4830 0.4326 l
0.4840 0.4331 l
0.4850 0.4336 l
0.4860 0.4340 l
0.4870 0.4345 l
0.4880 0.4350 l
0.4890 0.4355 l
0.4900 0.4359 l
0.4910 0.4364 l
0.4920 0.4369 l
0.4930 0.4374 l
0.4940 0.4378 l
0.4950 0.4383 l
0.4960 0.4388 l
0.4970 0.4393 l
0.4980 0.4397 l
0.4990 0.4402 l
0.5000 0.4407 l
0.5010 0.4411 l
0.5020 0.4416 l
0.5030 0.4421 l
0.5040 0.4426 l
0.5050 0.4430 l
0.5060 0.4435 l
0.5070 0.4440 l
0.5080 0.4444 l
0.5090 0.4449 l
0.5100 0.4454 l
0.5110 0.4458 l
0.5120 0.4463 l
0.5130 0.4468 l
0.5140 0.4472 l
0.5150 0.4477 l
0.5160 0.4482 l
0.5170 0.4486 l
0.5180 0.4491 l
0.5190 0.4495 l
0.5200 0.4500 l
0.5210 0.4505 l
0.5220 0.4509 l
0.5230 0.4514 l
0.5240 0.4519 l
0.5250 0.4523 l
0.5260 0.4528 l
0.5270 0.4533 l
0.5280 0.4537 l
0.5290 0.4542 l
0.5300 0.4546 l
0.5310 0.4551 l
0.5320 0.4556 l
0.5330 0.4560 l
0.5340 0.4565 l
0.5350 0.4569 l
0.5360 0.4574 l
0.5370 0.4578 l
0.5380 0.4583 l
0.5390 0.4588 l
0.5400 0.4592 l
0.5410 0.4597 l
0.5420 0.4601 l
0.5430 0.4606 l
0.5440 0.4611 l
0.5450 0.4615 l
0.5460 0.4620 l
0.5470 0.4624 l
0.5480 0.4629 l
0.5490 0.4633 l
0.5500 0.4638 l
0.5510 0.4642 l
0.5520 0.4647 l
0.5530 0.4652 l
0.5540 0.4656 l
0.5550 0.4661 l
0.5560 0.4665 l
0.5570 0.4670 l
0.5580 0.4674 l
0.5590 0.4679 l
0.5600 0.4683 l
0.5610 0.4688 l
0.5620 0.4692 l
0.5630 0.4697 l
0.5640 0.4702 l
0.5650 0.4706 l
0.5660 0.4711 l
0.5670 0.4715 l
0.5680 0.4720 l
0.5690 0.4724 l
0.5700 0.4729 l
0.5710 0.4733 l
0.5720 0.4738 l
0.5730 0.4742 l
0.5740 0.4747 l
0.5750 0.4751 l
0.5760 0.4756 l
0.5770 0.4760 l
0.5780 0.4765 l
0.5790 0.4769 l
0.5800 0.4774 l
0.5810 0.4778 l
0.5820 0.4783 l
0.5830 0.4787 l
0.5840 0.4792 l
0.5850 0.4796 l
0.5860 0.4801 l
0.5870 0.4805 l
0.5880 0.4810 l
0.5890 0.4814 l
0.5900 0.4819 l
0.5910 0.4824 l
0.5920 0.4828 l
0.5930 0.4833 l
0.5940 0.4837 l
0.5950 0.4842 l
0.5960 0.4846 l
0.5970 0.4851 l
0.5980 0.4855 l
0.5990 0.4860 l
0.6000 0.4864 l
0.6010 0.4869 l
0.6020 0.4873 l
0.6030 0.4878 l
0.6040 0.4882 l
0.6050 0.4887 l
0.6060 0.4891 l
0.6070 0.4896 l
0.6080 0.4900 l
0.6090 0.4904 l
0.6100 0.4909 l
0.6110 0.4913 l
0.6120 0.4918 l
0.6130 0.4923 l
0.6140 0.4927 l
0.6150 0.4931 l
0.6160 0.4936 l
0.6170 0.4940 l
0.6180 0.4945 l
0.6190 0.4949 l
0.6200 0.4954 l
0.6210 0.4958 l
0.6220 0.4963 l
0.6230 0.4967 l
0.6240 0.4972 l
0.6250 0.4976 l
0.6260 0.4981 l
0.6270 0.4985 l
0.6280 0.4990 l
0.6290 0.4994 l
0.6300 0.4999 l
0.6310 0.5003 l
0.6320 0.5008 l
0.6330 0.5012 l
0.6340 0.5017 l
0.6350 0.5021 l
0.6360 0.5026 l
0.6370 0.5030 l
0.6380 0.5035 l
0.6390 0.5039 l
0.6400 0.5044 l
0.6410 0.5048 l
0.6420 0.5053 l
0.6430 0.5057 l
0.6440 0.5062 l
0.6450 0.5066 l
0.6460 0.5071 l
0.6470 0.5075 l
0.6480 0.5080 l
0.6490 0.5084 l
0.6500 0.5089 l
0.6510 0.5093 l
0.6520 0.5098 l
0.6530 0.5102 l
0.6540 0.5107 l
0.6550 0.5111 l
0.6560 0.5116 l
0.6570 0.5120 l
0.6580 0.5125 l
0.6590 0.5129 l
0.6600 0.5134 l
0.6610 0.5138 l
0.6620 0.5143 l
0.6630 0.5147 l
0.6640 0.5152 l
0.6650 0.5156 l
0.6660 0.5161 l
0.6670 0.5166 l
0.6680 0.5170 l
0.6690 0.5175 l
0.6700 0.5179 l
0.6710 0.5184 l
0.6720 0.5188 l
0.6730 0.5193 l
0.6740 0.5197 l
0.6750 0.5202 l
0.6760 0.5206 l
0.6770 0.5211 l
0.6780 0.5215 l
0.6790 0.5220 l
0.6800 0.5224 l
0.6810 0.5229 l
0.6820 0.5233 l
0.6830 0.5238 l
0.6840 0.5242 l
0.6850 0.5247 l
0.6860 0.5251 l
0.6870 0.5256 l
0.6880 0.5261 l
0.6890 0.5265 l
0.6900 0.5270 l
0.6910 0.5274 l
0.6920 0.5279 l
0.6930 0.5283 l
0.6940 0.5288 l
0.6950 0.5292 l
0.6960 0.5297 l
0.6970 0.5301 l
0.6980 0.5306 l
0.6990 0.5310 l
0.7000 0.5315 l
0.7010 0.5319 l
0.7020 0.5324 l
0.7030 0.5329 l
0.7040 0.5333 l
0.7050 0.5338 l
0.7060 0.5342 l
0.7070 0.5347 l
0.7080 0.5351 l
0.7090 0.5356 l
0.7100 0.5360 l
0.7110 0.5365 l
0.7120 0.5370 l
0.7130 0.5374 l
0.7140 0.5379 l
0.7150 0.5383 l
0.7160 0.5388 l
0.7170 0.5392 l
0.7180 0.5397 l
0.7190 0.5401 l
0.7200 0.5406 l
0.7210 0.5411 l
0.7220 0.5415 l
0.7230 0.5420 l
0.7240 0.5424 l
0.7250 0.5429 l
0.7260 0.5433 l
0.7270 0.5438 l
0.7280 0.5443 l
0.7290 0.5447 l
0.7300 0.5452 l
0.7310 0.5456 l
0.7320 0.5461 l
0.7330 0.5465 l
0.7340 0.5470 l
0.7350 0.5475 l
0.7360 0.5479 l
0.7370 0.5484 l
0.7380 0.5488 l
0.7390 0.5493 l
0.7400 0.5498 l
0.7410 0.5502 l
0.7420 0.5507 l
0.7430 0.5511 l
0.7440 0.5516 l
0.7450 0.5521 l
0.7460 0.5525 l
0.7470 0.5530 l
0.7480 0.5534 l
0.7490 0.5539 l
0.7500 0.5544 l
0.7510 0.5548 l
0.7520 0.5553 l
0.7530 0.5557 l
0.7540 0.5562 l
0.7550 0.5567 l
0.7560 0.5571 l
0.7570 0.5576 l
0.7580 0.5580 l
0.7590 0.5585 l
0.7600 0.5590 l
0.7610 0.5594 l
0.7620 0.5599 l
0.7630 0.5603 l
0.7640 0.5608 l
0.7650 0.5613 l
0.7660 0.5617 l
0.7670 0.5622 l
0.7680 0.5627 l
0.7690 0.5631 l
0.7700 0.5636 l
0.7710 0.5640 l
0.7720 0.5645 l
0.7730 0.5650 l
0.7740 0.5654 l
0.7750 0.5659 l
0.7760 0.5664 l
0.7770 0.5668 l
0.7780 0.5673 l
0.7790 0.5678 l
0.7800 0.5682 l
0.7810 0.5687 l
0.7820 0.5692 l
0.7830 0.5696 l
0.7840 0.5701 l
0.7850 0.5705 l
0.7860 0.5710 l
0.7870 0.5715 l
0.7880 0.5719 l
0.7890 0.5724 l
0.7900 0.5729 l
0.7910 0.5733 l
0.7920 0.5738 l
0.7930 0.5743 l
0.7940 0.5747 l
0.7950 0.5752 l
0.7960 0.5757 l
0.7970 0.5761 l
0.7980 0.5766 l
0.7990 0.5771 l
0.8000 0.5775 l
0.8010 0.5780 l
0.8020 0.5785 l
0.8030 0.5789 l
0.8040 0.5794 l
0.8050 0.5799 l
0.8060 0.5803 l
0.8070 0.5808 l
0.8080 0.5813 l
0.8090 0.5817 l
0.8100 0.5822 l
0.8110 0.5827 l
0.8120 0.5832 l
0.8130 0.5836 l
0.8140 0.5841 l
0.8150 0.5846 l
0.8160 0.5850 l
0.8170 0.5855 l
0.8180 0.5860 l
0.8190 0.5864 l
0.8200 0.5869 l
0.8210 0.5874 l
0.8220 0.5878 l
0.8230 0.5883 l
0.8240 0.5888 l
0.8250 0.5893 l
0.8260 0.5897 l
0.8270 0.5902 l
0.8280 0.5907 l
0.8290 0.5911 l
0.8300 0.5916 l
0.8310 0.5921 l
0.8320 0.5926 l
0.8330 0.5930 l
0.8340 0.5935 l
0.8350 0.5940 l
0.8360 0.5944 l
0.8370 0.5949 l
0.8380 0.5954 l
0.8390 0.5959 l
0.8400 0.5963 l
0.8410 0.5968 l
0.8420 0.5973 l
0.8430 0.5977 l
0.8440 0.5982 l
0.8450 0.5987 l
0.8460 0.5992 l
0.8470 0.5996 l
0.8480 0.6001 l
0.8490 0.6006 l
0.8500 0.6011 l
0.8510 0.6015 l
0.8520 0.6020 l
0.8530 0.6025 l
0.8540 0.6030 l
0.8550 0.6034 l
0.8560 0.6039 l
0.8570 0.6044 l
0.8580 0.6049 l
0.8590 0.6053 l
0.8600 0.6058 l
0.8610 0.6063 l
0.8620 0.6068 l
0.8630 0.6072 l
0.8640 0.6077 l
0.8650 0.6082 l
0.8660 0.6087 l
0.8670 0.6091 l
0.8680 0.6096 l
0.8690 0.6101 l
0.8700 0.6106 l
0.8710 0.6110 l
0.8720 0.6115 l
0.8730 0.6120 l
0.8740 0.6125 l
0.8750 0.6129 l
0.8760 0.6134 l
0.8770 0.6139 l
0.8780 0.6144 l
0.8790 0.6149 l
0.8800 0.6153 l
0.8810 0.6158 l
0.8820 0.6163 l
0.8830 0.6168 l
0.8840 0.6172 l
0.8850 0.6177 l
0.8860 0.6182 l
0.8870 0.6187 l
0.8880 0.6191 l
0.8890 0.6196 l
0.8900 0.6201 l
0.8910 0.6206 l
0.8920 0.6211 l
0.8930 0.6215 l
0.8940 0.6220 l
0.8950 0.6225 l
0.8960 0.6230 l
0.8970 0.6235 l
0.8980 0.6239 l
0.8990 0.6244 l
0.9000 0.6249 l
0.9010 0.6254 l
0.9020 0.6259 l
0.9030 0.6263 l
0.9040 0.6268 l
0.9050 0.6273 l
0.9060 0.6278 l
0.9070 0.6282 l
0.9080 0.6287 l
0.9090 0.6292 l
0.9100 0.6297 l
0.9110 0.6302 l
0.9120 0.6307 l
0.9130 0.6311 l
0.9140 0.6316 l
0.9150 0.6321 l
0.9160 0.6326 l
0.9170 0.6331 l
0.9180 0.6335 l
0.9190 0.6340 l
0.9200 0.6345 l
0.9210 0.6350 l
0.9220 0.6355 l
0.9230 0.6359 l
0.9240 0.6364 l
0.9250 0.6369 l
0.9260 0.6374 l
0.9270 0.6379 l
0.9280 0.6384 l
0.9290 0.6388 l
0.9300 0.6393 l
0.9310 0.6398 l
0.9320 0.6403 l
0.9330 0.6408 l
0.9340 0.6412 l
0.9350 0.6417 l
0.9360 0.6422 l
0.9370 0.6427 l
0.9380 0.6432 l
0.9390 0.6437 l
0.9400 0.6441 l
0.9410 0.6446 l
0.9420 0.6451 l
0.9430 0.6456 l
0.9440 0.6461 l
0.9450 0.6466 l
0.9460 0.6470 l
0.9470 0.6475 l
0.9480 0.6480 l
0.9490 0.6485 l
0.9500 0.6490 l
0.9510 0.6495 l
0.9520 0.6499 l
0.9530 0.6504 l
0.9540 0.6509 l
0.9550 0.6514 l
0.9560 0.6519 l
0.9570 0.6524 l
0.9580 0.6528 l
0.9590 0.6533 l
0.9600 0.6538 l
0.9610 0.6543 l
0.9620 0.6548 l
0.9630 0.6553 l
0.9640 0.6557 l
0.9650 0.6562 l
0.9660 0.6567 l
0.9670 0.6572 l
0.9680 0.6577 l
0.9690 0.6582 l
0.9700 0.6587 l
0.9710 0.6591 l
0.9720 0.6596 l
0.9730 0.6601 l
0.9740 0.6606 l
0.9750 0.6611 l
0.9760 0.6616 l
0.9770 0.6620 l
0.9780 0.6625 l
0.9790 0.6630 l
0.9800 0.6635 l
0.9810 0.6640 l
0.9820 0.6645 l
0.9830 0.6650 l
0.9840 0.6654 l
0.9850 0.6659 l
0.9860 0.6664 l
0.9870 0.6669 l
0.9880 0.6674 l
0.9890 0.6679 l
0.9900 0.6684 l
0.9910 0.6688 l
0.9920 0.6693 l
0.9930 0.6698 l
0.9940 0.6703 l
0.9950 0.6708 l
0.9960 0.6713 l
0.9970 0.6718 l
0.9980 0.6722 l
0.9990 0.6727 l
1.0000 0.6732 l
1.0010 0.6737 l
1.0020 0.6742 l
1.0030 0.6747 l
1.0040 0.6752 l
1.0050 0.6756 l
1.0060 0.6761 l
1.0070 0.6766 l
1.0080 0.6771 l
1.0090 0.6776 l
1.0100 0.6781 l
1.0110 0.6786 l
1.0120 0.6790 l
1.0130 0.6795 l
1.0140 0.6800 l
1.0150 0.6805 l
1.0160 0.6810 l
1.0170 0.6815 l
1.0180 0.6819 l
1.0190 0.6824 l
1.0200 0.6829 l
1.0210 0.6834 l
1.0220 0.6839 l
1.0230 0.6844 l
1.0240 0.6849 l
1.0250 0.6853 l
1.0260 0.6858 l
1.0270 0.6863 l
1.0280 0.6868 l
1.0290 0.6873 l
1.0300 0.6878 l
1.0310 0.6883 l
1.0320 0.6888 l
1.0330 0.6892 l
1.0340 0.6897 l
1.0350 0.6902 l
1.0360 0.6907 l
1.0370 0.6912 l
1.0380 0.6917 l
1.0390 0.6921 l
1.0400 0.6926 l
1.0410 0.6931 l
1.0420 0.6936 l
1.0430 0.6941 l
1.0440 0.6946 l
1.0450 0.6951 l
1.0460 0.6955 l
1.0470 0.6960 l
1.0480 0.6965 l
1.0490 0.6970 l
1.0500 0.6975 l
1.0510 0.6980 l
1.0520 0.6985 l
1.0530 0.6989 l
1.0540 0.6994 l
1.0550 0.6999 l
1.0560 0.7004 l
1.0570 0.7009 l
1.0580 0.7014 l
1.0590 0.7019 l
1.0600 0.7023 l
1.0610 0.7028 l
1.0620 0.7033 l
1.0630 0.7038 l
1.0640 0.7043 l
1.0650 0.7048 l
1.0660 0.7052 l
1.0670 0.7057 l
1.0680 0.7062 l
1.0690 0.7067 l
1.0700 0.7072 l
1.0710 0.7077 l
1.0720 0.7082 l
1.0730 0.7086 l
1.0740 0.7091 l
1.0750 0.7096 l
1.0760 0.7101 l
1.0770 0.7106 l
1.0780 0.7111 l
1.0790 0.7115 l
1.0800 0.7120 l
1.0810 0.7125 l
1.0820 0.7130 l
1.0830 0.7135 l
1.0840 0.7140 l
1.0850 0.7144 l
1.0860 0.7149 l
1.0870 0.7154 l
1.0880 0.7159 l
1.0890 0.7164 l
1.0900 0.7169 l
1.0910 0.7173 l
1.0920 0.7178 l
1.0930 0.7183 l
1.0940 0.7188 l
1.0950 0.7193 l
1.0960 0.7197 l
1.0970 0.7202 l
1.0980 0.7207 l
1.0990 0.7212 l
1.1000 0.7217 l
1.1010 0.7222 l
1.1020 0.7226 l
1.1030 0.7231 l
1.1040 0.7236 l
1.1050 0.7241 l
1.1060 0.7246 l
1.1070 0.7250 l
1.1080 0.7255 l
1.1090 0.7260 l
1.1100 0.7265 l
1.1110 0.7270 l
1.1120 0.7275 l
1.1130 0.7279 l
1.1140 0.7284 l
1.1150 0.7289 l
1.1160 0.7294 l
1.1170 0.7299 l
1.1180 0.7303 l
1.1190 0.7308 l
1.1200 0.7313 l
1.1210 0.7318 l
1.1220 0.7323 l
1.1230 0.7327 l
1.1240 0.7332 l
1.1250 0.7337 l
1.1260 0.7342 l
1.1270 0.7347 l
1.1280 0.7351 l
1.1290 0.7356 l
1.1300 0.7361 l
1.1310 0.7366 l
1.1320 0.7370 l
1.1330 0.7375 l
1.1340 0.7380 l
1.1350 0.7385 l
1.1360 0.7390 l
1.1370 0.7394 l
1.1380 0.7399 l
1.1390 0.7404 l
1.1400 0.7409 l
1.1410 0.7414 l
1.1420 0.7418 l
1.1430 0.7423 l
1.1440 0.7428 l
1.1450 0.7433 l
1.1460 0.7437 l
1.1470 0.7442 l
1.1480 0.7447 l
1.1490 0.7452 l
1.1500 0.7456 l
1.1501 0.7457 l
s
n
0.2300 0.2375 0.0100 0.0100 0 360 EARC c
GS
Color0 SRGB
fill
GR
[/Pattern /DeviceRGB] SCS
Color1 Pattern8 SC
fill
[/DeviceRGB] SCS
Color1 SC
[] 0 SD
0.0037 SLW
n 0.2300 0.2375 0.0100 0.0100 0 360 EARC s
n
0.3100 0.3180 0.0100 0.0100 0 360 EARC c
GS
Color0 SRGB
fill
GR
[/Pattern /DeviceRGB] SCS
Color1 Pattern8 SC
fill
[/DeviceRGB] SCS
Color1 SC
n 0.3100 0.3180 0.0100 0.0100 0 360 EARC s
n
0.3500 0.3600 0.0100 0.0100 0 360 EARC c
GS
Color0 SRGB
fill
GR
[/Pattern /DeviceRGB] SCS
Color1 Pattern8 SC
fill
[/DeviceRGB] SCS
Color1 SC
n 0.3500 0.3600 0.0100 0.0100 0 360 EARC s
n
0.4500 0.4230 0.0100 0.0100 0 360 EARC c
GS
Color0 SRGB
fill
GR
[/Pattern /DeviceRGB] SCS
Color1 Pattern8 SC
fill
[/DeviceRGB] SCS
Color1 SC
n 0.4500 0.4230 0.0100 0.0100 0 360 EARC s
n
0.5500 0.4755 0.0100 0.0100 0 360 EARC c
GS
Color0 SRGB
fill
GR
[/Pattern /DeviceRGB] SCS
Color1 Pattern8 SC
fill
[/DeviceRGB] SCS
Color1 SC
n 0.5500 0.4755 0.0100 0.0100 0 360 EARC s
n
0.6500 0.5350 0.0100 0.0100 0 360 EARC c
GS
Color0 SRGB
fill
GR
[/Pattern /DeviceRGB] SCS
Color1 Pattern8 SC
fill
[/DeviceRGB] SCS
Color1 SC
n 0.6500 0.5350 0.0100 0.0100 0 360 EARC s
n
0.7500 0.6015 0.0100 0.0100 0 360 EARC c
GS
Color0 SRGB
fill
GR
[/Pattern /DeviceRGB] SCS
Color1 Pattern8 SC
fill
[/DeviceRGB] SCS
Color1 SC
n 0.7500 0.6015 0.0100 0.0100 0 360 EARC s
n
0.8500 0.6680 0.0100 0.0100 0 360 EARC c
GS
Color0 SRGB
fill
GR
[/Pattern /DeviceRGB] SCS
Color1 Pattern8 SC
fill
[/DeviceRGB] SCS
Color1 SC
n 0.8500 0.6680 0.0100 0.0100 0 360 EARC s
n
0.9500 0.7310 0.0100 0.0100 0 360 EARC c
GS
Color0 SRGB
fill
GR
[/Pattern /DeviceRGB] SCS
Color1 Pattern8 SC
fill
[/DeviceRGB] SCS
Color1 SC
n 0.9500 0.7310 0.0100 0.0100 0 360 EARC s
n
1.0500 0.7870 0.0100 0.0100 0 360 EARC c
GS
Color0 SRGB
fill
GR
[/Pattern /DeviceRGB] SCS
Color1 Pattern8 SC
fill
[/DeviceRGB] SCS
Color1 SC
n 1.0500 0.7870 0.0100 0.0100 0 360 EARC s
n
1.1500 0.8325 0.0100 0.0100 0 360 EARC c
GS
Color0 SRGB
fill
GR
[/Pattern /DeviceRGB] SCS
Color1 Pattern8 SC
fill
[/DeviceRGB] SCS
Color1 SC
n 1.1500 0.8325 0.0100 0.0100 0 360 EARC s
[/DeviceRGB] SCS
Color4 SC
[0.0037 0.0112 ] 0 SD
0.0037 SLW
n
0.1999 0.2134 m
0.2000 0.2135 l
0.2010 0.2149 l
0.2020 0.2163 l
0.2030 0.2177 l
0.2040 0.2190 l
0.2050 0.2204 l
0.2060 0.2217 l
0.2070 0.2230 l
0.2080 0.2244 l
0.2090 0.2257 l
0.2100 0.2270 l
0.2110 0.2283 l
0.2120 0.2295 l
0.2130 0.2308 l
0.2140 0.2321 l
0.2150 0.2333 l
0.2160 0.2346 l
0.2170 0.2358 l
0.2180 0.2370 l
0.2190 0.2382 l
0.2200 0.2394 l
0.2210 0.2406 l
0.2220 0.2417 l
0.2230 0.2429 l
0.2240 0.2441 l
0.2250 0.2452 l
0.2260 0.2463 l
0.2270 0.2474 l
0.2280 0.2485 l
0.2290 0.2496 l
0.2300 0.2507 l
0.2310 0.2518 l
0.2320 0.2528 l
0.2330 0.2539 l
0.2340 0.2549 l
0.2350 0.2560 l
0.2360 0.2570 l
0.2370 0.2580 l
0.2380 0.2590 l
0.2390 0.2600 l
0.2400 0.2610 l
0.2410 0.2619 l
0.2420 0.2629 l
0.2430 0.2638 l
0.2440 0.2648 l
0.2450 0.2657 l
0.2460 0.2666 l
0.2470 0.2675 l
0.2480 0.2684 l
0.2490 0.2693 l
0.2500 0.2702 l
0.2510 0.2711 l
0.2520 0.2720 l
0.2530 0.2728 l
0.2540 0.2737 l
0.2550 0.2745 l
0.2560 0.2753 l
0.2570 0.2761 l
0.2580 0.2770 l
0.2590 0.2778 l
0.2600 0.2786 l
0.2610 0.2793 l
0.2620 0.2801 l
0.2630 0.2809 l
0.2640 0.2817 l
0.2650 0.2824 l
0.2660 0.2832 l
0.2670 0.2839 l
0.2680 0.2846 l
0.2690 0.2854 l
0.2700 0.2861 l
0.2710 0.2868 l
0.2720 0.2875 l
0.2730 0.2882 l
0.2740 0.2889 l
0.2750 0.2896 l
0.2760 0.2903 l
0.2770 0.2909 l
0.2780 0.2916 l
0.2790 0.2923 l
0.2800 0.2929 l
0.2810 0.2936 l
0.2820 0.2942 l
0.2830 0.2948 l
0.2840 0.2955 l
0.2850 0.2961 l
0.2860 0.2967 l
0.2870 0.2973 l
0.2880 0.2979 l
0.2890 0.2985 l
0.2900 0.2991 l
0.2910 0.2997 l
0.2920 0.3003 l
0.2930 0.3009 l
0.2940 0.3015 l
0.2950 0.3021 l
0.2960 0.3026 l
0.2970 0.3032 l
0.2980 0.3038 l
0.2990 0.3043 l
0.3000 0.3049 l
0.3010 0.3054 l
0.3020 0.3060 l
0.3030 0.3065 l
0.3040 0.3070 l
0.3050 0.3076 l
0.3060 0.3081 l
0.3070 0.3086 l
0.3080 0.3091 l
0.3090 0.3097 l
0.3100 0.3102 l
0.3110 0.3107 l
0.3120 0.3112 l
0.3130 0.3117 l
0.3140 0.3122 l
0.3150 0.3127 l
0.3160 0.3132 l
0.3170 0.3137 l
0.3180 0.3142 l
0.3190 0.3147 l
0.3200 0.3151 l
0.3210 0.3156 l
0.3220 0.3161 l
0.3230 0.3166 l
0.3240 0.3171 l
0.3250 0.3175 l
0.3260 0.3180 l
0.3270 0.3185 l
0.3280 0.3189 l
0.3290 0.3194 l
0.3300 0.3199 l
0.3310 0.3203 l
0.3320 0.3208 l
0.3330 0.3212 l
0.3340 0.3217 l
0.3350 0.3221 l
0.3360 0.3226 l
0.3370 0.3231 l
0.3380 0.3235 l
0.3390 0.3239 l
0.3400 0.3244 l
0.3410 0.3248 l
0.3420 0.3253 l
0.3430 0.3257 l
0.3440 0.3262 l
0.3450 0.3266 l
0.3460 0.3271 l
0.3470 0.3275 l
0.3480 0.3279 l
0.3490 0.3284 l
0.3500 0.3288 l
0.3510 0.3292 l
0.3520 0.3297 l
0.3530 0.3301 l
0.3540 0.3306 l
0.3550 0.3310 l
0.3560 0.3314 l
0.3570 0.3319 l
0.3580 0.3323 l
0.3590 0.3327 l
0.3600 0.3332 l
0.3610 0.3336 l
0.3620 0.3340 l
0.3630 0.3345 l
0.3640 0.3349 l
0.3650 0.3353 l
0.3660 0.3358 l
0.3670 0.3362 l
0.3680 0.3366 l
0.3690 0.3371 l
0.3700 0.3375 l
0.3710 0.3379 l
0.3720 0.3384 l
0.3730 0.3388 l
0.3740 0.3392 l
0.3750 0.3397 l
0.3760 0.3401 l
0.3770 0.3405 l
0.3780 0.3410 l
0.3790 0.3414 l
0.3800 0.3419 l
0.3810 0.3423 l
0.3820 0.3427 l
0.3830 0.3432 l
0.3840 0.3436 l
0.3850 0.3441 l
0.3860 0.3445 l
0.3870 0.3449 l
0.3880 0.3454 l
0.3890 0.3458 l
0.3900 0.3463 l
0.3910 0.3467 l
0.3920 0.3472 l
0.3930 0.3476 l
0.3940 0.3481 l
0.3950 0.3485 l
0.3960 0.3490 l
0.3970 0.3495 l
0.3980 0.3499 l
0.3990 0.3504 l
0.4000 0.3508 l
0.4010 0.3513 l
0.4020 0.3517 l
0.4030 0.3522 l
0.4040 0.3527 l
0.4050 0.3531 l
0.4060 0.3536 l
0.4070 0.3541 l
0.4080 0.3545 l
0.4090 0.3550 l
0.4100 0.3555 l
0.4110 0.3560 l
0.4120 0.3564 l
0.4130 0.3569 l
0.4140 0.3574 l
0.4150 0.3579 l
0.4160 0.3584 l
0.4170 0.3589 l
0.4180 0.3593 l
0.4190 0.3598 l
0.4200 0.3603 l
0.4210 0.3608 l
0.4220 0.3613 l
0.4230 0.3618 l
0.4240 0.3623 l
0.4250 0.3628 l
0.4260 0.3633 l
0.4270 0.3638 l
0.4280 0.3643 l
0.4290 0.3648 l
0.4300 0.3653 l
0.4310 0.3658 l
0.4320 0.3664 l
0.4330 0.3669 l
0.4340 0.3674 l
0.4350 0.3679 l
0.4360 0.3684 l
0.4370 0.3690 l
0.4380 0.3695 l
0.4390 0.3700 l
0.4400 0.3705 l
0.4410 0.3711 l
0.4420 0.3716 l
0.4430 0.3721 l
0.4440 0.3727 l
0.4450 0.3732 l
0.4460 0.3738 l
0.4470 0.3743 l
0.4480 0.3748 l
0.4490 0.3754 l
0.4500 0.3759 l
0.4510 0.3765 l
0.4520 0.3771 l
0.4530 0.3776 l
0.4540 0.3782 l
0.4550 0.3787 l
0.4560 0.3793 l
0.4570 0.3799 l
0.4580 0.3804 l
0.4590 0.3810 l
0.4600 0.3816 l
0.4610 0.3821 l
0.4620 0.3827 l
0.4630 0.3833 l
0.4640 0.3839 l
0.4650 0.3845 l
0.4660 0.3851 l
0.4670 0.3856 l
0.4680 0.3862 l
0.4690 0.3868 l
0.4700 0.3874 l
0.4710 0.3880 l
0.4720 0.3886 l
0.4730 0.3892 l
0.4740 0.3898 l
0.4750 0.3904 l
0.4760 0.3910 l
0.4770 0.3916 l
0.4780 0.3923 l
0.4790 0.3929 l
0.4800 0.3935 l
0.4810 0.3941 l
0.4820 0.3947 l
0.4830 0.3953 l
0.4840 0.3960 l
0.4850 0.3966 l
0.4860 0.3972 l
0.4870 0.3979 l
0.4880 0.3985 l
0.4890 0.3991 l
0.4900 0.3998 l
0.4910 0.4004 l
0.4920 0.4010 l
0.4930 0.4017 l
0.4940 0.4023 l
0.4950 0.4030 l
0.4960 0.4036 l
0.4970 0.4043 l
0.4980 0.4049 l
0.4990 0.4056 l
0.5000 0.4063 l
0.5010 0.4069 l
0.5020 0.4076 l
0.5030 0.4082 l
0.5040 0.4089 l
0.5050 0.4096 l
0.5060 0.4102 l
0.5070 0.4109 l
0.5080 0.4116 l
0.5090 0.4123 l
0.5100 0.4129 l
0.5110 0.4136 l
0.5120 0.4143 l
0.5130 0.4150 l
0.5140 0.4157 l
0.5150 0.4164 l
0.5160 0.4171 l
0.5170 0.4177 l
0.5180 0.4184 l
0.5190 0.4191 l
0.5200 0.4198 l
0.5210 0.4205 l
0.5220 0.4212 l
0.5230 0.4219 l
0.5240 0.4226 l
0.5250 0.4233 l
0.5260 0.4240 l
0.5270 0.4247 l
0.5280 0.4255 l
0.5290 0.4262 l
0.5300 0.4269 l
0.5310 0.4276 l
0.5320 0.4283 l
0.5330 0.4290 l
0.5340 0.4297 l
0.5350 0.4305 l
0.5360 0.4312 l
0.5370 0.4319 l
0.5380 0.4326 l
0.5390 0.4333 l
0.5400 0.4341 l
0.5410 0.4348 l
0.5420 0.4355 l
0.5430 0.4363 l
0.5440 0.4370 l
0.5450 0.4377 l
0.5460 0.4385 l
0.5470 0.4392 l
0.5480 0.4399 l
0.5490 0.4407 l
0.5500 0.4414 l
0.5510 0.4421 l
0.5520 0.4429 l
0.5530 0.4436 l
0.5540 0.4444 l
0.5550 0.4451 l
0.5560 0.4458 l
0.5570 0.4466 l
0.5580 0.4473 l
0.5590 0.4481 l
0.5600 0.4488 l
0.5610 0.4496 l
0.5620 0.4503 l
0.5630 0.4511 l
0.5640 0.4518 l
0.5650 0.4526 l
0.5660 0.4533 l
0.5670 0.4541 l
0.5680 0.4548 l
0.5690 0.4556 l
0.5700 0.4563 l
0.5710 0.4571 l
0.5720 0.4579 l
0.5730 0.4586 l
0.5740 0.4594 l
0.5750 0.4601 l
0.5760 0.4609 l
0.5770 0.4616 l
0.5780 0.4624 l
0.5790 0.4631 l
0.5800 0.4639 l
0.5810 0.4647 l
0.5820 0.4654 l
0.5830 0.4662 l
0.5840 0.4669 l
0.5850 0.4677 l
0.5860 0.4684 l
0.5870 0.4692 l
0.5880 0.4700 l
0.5890 0.4707 l
0.5900 0.4715 l
0.5910 0.4722 l
0.5920 0.4730 l
0.5930 0.4737 l
0.5940 0.4745 l
0.5950 0.4753 l
0.5960 0.4760 l
0.5970 0.4768 l
0.5980 0.4775 l
0.5990 0.4783 l
0.6000 0.4790 l
0.6010 0.4798 l
0.6020 0.4805 l
0.6030 0.4813 l
0.6040 0.4820 l
0.6050 0.4828 l
0.6060 0.4835 l
0.6070 0.4843 l
0.6080 0.4850 l
0.6090 0.4858 l
0.6100 0.4865 l
0.6110 0.4873 l
0.6120 0.4880 l
0.6130 0.4888 l
0.6140 0.4895 l
0.6150 0.4903 l
0.6160 0.4910 l
0.6170 0.4918 l
0.6180 0.4925 l
0.6190 0.4932 l
0.6200 0.4940 l
0.6210 0.4947 l
0.6220 0.4954 l
0.6230 0.4962 l
0.6240 0.4969 l
0.6250 0.4976 l
0.6260 0.4984 l
0.6270 0.4991 l
0.6280 0.4998 l
0.6290 0.5005 l
0.6300 0.5013 l
0.6310 0.5020 l
0.6320 0.5027 l
0.6330 0.5034 l
0.6340 0.5041 l
0.6350 0.5049 l
0.6360 0.5056 l
0.6370 0.5063 l
0.6380 0.5070 l
0.6390 0.5077 l
0.6400 0.5084 l
0.6410 0.5091 l
0.6420 0.5098 l
0.6430 0.5105 l
0.6440 0.5112 l
0.6450 0.5119 l
0.6460 0.5126 l
0.6470 0.5133 l
0.6480 0.5140 l
0.6490 0.5147 l
0.6500 0.5153 l
0.6510 0.5160 l
0.6520 0.5167 l
0.6530 0.5174 l
0.6540 0.5181 l
0.6550 0.5187 l
0.6560 0.5194 l
0.6570 0.5201 l
0.6580 0.5207 l
0.6590 0.5214 l
0.6600 0.5220 l
0.6610 0.5227 l
0.6620 0.5234 l
0.6630 0.5240 l
0.6640 0.5247 l
0.6650 0.5253 l
0.6660 0.5259 l
0.6670 0.5266 l
0.6680 0.5272 l
0.6690 0.5278 l
0.6700 0.5285 l
0.6710 0.5291 l
0.6720 0.5297 l
0.6730 0.5303 l
0.6740 0.5309 l
0.6750 0.5316 l
0.6760 0.5322 l
0.6770 0.5328 l
0.6780 0.5334 l
0.6790 0.5340 l
0.6800 0.5346 l
0.6810 0.5352 l
0.6820 0.5357 l
0.6830 0.5363 l
0.6840 0.5369 l
0.6850 0.5375 l
0.6860 0.5381 l
0.6870 0.5386 l
0.6880 0.5392 l
0.6890 0.5398 l
0.6900 0.5403 l
0.6910 0.5409 l
0.6920 0.5414 l
0.6930 0.5420 l
0.6940 0.5425 l
0.6950 0.5430 l
0.6960 0.5436 l
0.6970 0.5441 l
0.6980 0.5446 l
0.6990 0.5451 l
0.7000 0.5457 l
0.7010 0.5462 l
0.7020 0.5467 l
0.7030 0.5472 l
0.7040 0.5477 l
0.7050 0.5482 l
0.7060 0.5487 l
0.7070 0.5491 l
0.7080 0.5496 l
0.7090 0.5501 l
0.7100 0.5506 l
0.7110 0.5510 l
0.7120 0.5515 l
0.7130 0.5519 l
0.7140 0.5524 l
0.7150 0.5528 l
0.7160 0.5533 l
0.7170 0.5537 l
0.7180 0.5541 l
0.7190 0.5545 l
0.7200 0.5550 l
0.7210 0.5554 l
0.7220 0.5558 l
0.7230 0.5562 l
0.7240 0.5566 l
0.7250 0.5570 l
0.7260 0.5574 l
0.7270 0.5577 l
0.7280 0.5581 l
0.7290 0.5585 l
0.7300 0.5588 l
0.7310 0.5592 l
0.7320 0.5596 l
0.7330 0.5599 l
0.7340 0.5602 l
0.7350 0.5606 l
0.7360 0.5609 l
0.7370 0.5612 l
0.7380 0.5615 l
0.7390 0.5619 l
0.7400 0.5622 l
0.7410 0.5625 l
0.7420 0.5627 l
0.7430 0.5630 l
0.7440 0.5633 l
0.7450 0.5636 l
0.7460 0.5638 l
0.7470 0.5641 l
0.7480 0.5644 l
0.7490 0.5646 l
0.7500 0.5648 l
s
[/DeviceRGB] SCS
Color3 SC
[0.0187 0.0112 ] 0 SD
0.0037 SLW
n
0.1999 0.2375 m
0.2209 0.2599 l
0.2388 0.2744 l
0.2775 0.3051 l
0.2954 0.3178 l
0.3209 0.3304 l
0.3417 0.3377 l
0.3747 0.3413 l
0.4067 0.3413 l
0.4453 0.3340 l
0.4802 0.3214 l
0.5207 0.3033 l
0.5612 0.2870 l
0.5979 0.2708 l
0.6346 0.2527 l
0.6714 0.2346 l
0.7119 0.2202 l
0.7505 0.2057 l
0.7929 0.1913 l
0.8343 0.1768 l
0.8748 0.1678 l
0.9144 0.1607 l
0.9455 0.1572 l
0.9964 0.1551 l
s
[/DeviceRGB] SCS
Color2 SC
n
0.1999 0.2373 m
0.2158 0.2543 l
0.2356 0.2777 l
0.2629 0.2993 l
0.2968 0.3227 l
0.3204 0.3316 l
0.3458 0.3424 l
0.3760 0.3531 l
0.4061 0.3584 l
0.4458 0.3673 l
0.4769 0.3690 l
0.5193 0.3725 l
0.5608 0.3741 l
0.6023 0.3740 l
0.6401 0.3757 l
0.6759 0.3740 l
0.7174 0.3740 l
0.7636 0.3775 l
0.8033 0.3810 l
0.8429 0.3845 l
0.8900 0.3880 l
0.9221 0.3950 l
0.9626 0.4020 l
0.9957 0.4104 l
1.0230 0.4158 l
1.0664 0.4283 l
1.0956 0.4319 l
1.1277 0.4408 l
1.1484 0.4516 l
s
[/DeviceRGB] SCS
Color15 SC
n
0.1999 0.2386 m
0.2111 0.2525 l
0.2299 0.2705 l
0.2497 0.2831 l
0.2667 0.2884 l
0.2883 0.3028 l
0.3062 0.3172 l
0.3251 0.3334 l
0.3439 0.3496 l
0.3599 0.3622 l
0.3788 0.3766 l
0.4014 0.3964 l
0.4239 0.4162 l
0.4465 0.4378 l
0.4710 0.4630 l
0.4917 0.4883 l
0.5124 0.5081 l
0.5284 0.5297 l
0.5510 0.5604 l
0.5736 0.5856 l
0.5990 0.6235 l
0.6272 0.6631 l
0.6507 0.6974 l
0.6742 0.7335 l
0.6977 0.7677 l
0.7193 0.8002 l
0.7400 0.8381 l
0.7480 0.8501 l
s
[/DeviceRGB] SCS
Color12 SC
[0.0037 0.0112 0.0187 0.0112 ] 0 SD
0.0037 SLW
n
0.1999 0.2097 m
0.2000 0.2099 l
0.2010 0.2112 l
0.2020 0.2125 l
0.2030 0.2137 l
0.2040 0.2150 l
0.2050 0.2163 l
0.2060 0.2176 l
0.2070 0.2189 l
0.2080 0.2201 l
0.2090 0.2214 l
0.2100 0.2227 l
0.2110 0.2239 l
0.2120 0.2252 l
0.2130 0.2264 l
0.2140 0.2277 l
0.2150 0.2289 l
0.2160 0.2301 l
0.2170 0.2313 l
0.2180 0.2326 l
0.2190 0.2338 l
0.2200 0.2350 l
0.2210 0.2362 l
0.2220 0.2374 l
0.2230 0.2386 l
0.2240 0.2398 l
0.2250 0.2409 l
0.2260 0.2421 l
0.2270 0.2433 l
0.2280 0.2445 l
0.2290 0.2456 l
0.2300 0.2468 l
0.2310 0.2479 l
0.2320 0.2491 l
0.2330 0.2502 l
0.2340 0.2513 l
0.2350 0.2525 l
0.2360 0.2536 l
0.2370 0.2547 l
0.2380 0.2558 l
0.2390 0.2569 l
0.2400 0.2580 l
0.2410 0.2591 l
0.2420 0.2602 l
0.2430 0.2613 l
0.2440 0.2623 l
0.2450 0.2634 l
0.2460 0.2645 l
0.2470 0.2655 l
0.2480 0.2666 l
0.2490 0.2676 l
0.2500 0.2687 l
0.2510 0.2697 l
0.2520 0.2707 l
0.2530 0.2717 l
0.2540 0.2728 l
0.2550 0.2738 l
0.2560 0.2748 l
0.2570 0.2758 l
0.2580 0.2768 l
0.2590 0.2778 l
0.2600 0.2787 l
0.2610 0.2797 l
0.2620 0.2807 l
0.2630 0.2817 l
0.2640 0.2826 l
0.2650 0.2836 l
0.2660 0.2845 l
0.2670 0.2855 l
0.2680 0.2864 l
0.2690 0.2874 l
0.2700 0.2883 l
0.2710 0.2892 l
0.2720 0.2901 l
0.2730 0.2911 l
0.2740 0.2920 l
0.2750 0.2929 l
0.2760 0.2938 l
0.2770 0.2947 l
0.2780 0.2955 l
0.2790 0.2964 l
0.2800 0.2973 l
0.2810 0.2982 l
0.2820 0.2990 l
0.2830 0.2999 l
0.2840 0.3008 l
0.2850 0.3016 l
0.2860 0.3025 l
0.2870 0.3033 l
0.2880 0.3041 l
0.2890 0.3050 l
0.2900 0.3058 l
0.2910 0.3066 l
0.2920 0.3074 l
0.2930 0.3083 l
0.2940 0.3091 l
0.2950 0.3099 l
0.2960 0.3107 l
0.2970 0.3115 l
0.2980 0.3123 l
0.2990 0.3130 l
0.3000 0.3138 l
0.3010 0.3146 l
0.3020 0.3154 l
0.3030 0.3161 l
0.3040 0.3169 l
0.3050 0.3176 l
0.3060 0.3184 l
0.3070 0.3191 l
0.3080 0.3199 l
0.3090 0.3206 l
0.3100 0.3214 l
0.3110 0.3221 l
0.3120 0.3228 l
0.3130 0.3235 l
0.3140 0.3243 l
0.3150 0.3250 l
0.3160 0.3257 l
0.3170 0.3264 l
0.3180 0.3271 l
0.3190 0.3278 l
0.3200 0.3285 l
0.3210 0.3291 l
0.3220 0.3298 l
0.3230 0.3305 l
0.3240 0.3312 l
0.3250 0.3319 l
0.3260 0.3325 l
0.3270 0.3332 l
0.3280 0.3338 l
0.3290 0.3345 l
0.3300 0.3351 l
0.3310 0.3358 l
0.3320 0.3364 l
0.3330 0.3371 l
0.3340 0.3377 l
0.3350 0.3383 l
0.3360 0.3389 l
0.3370 0.3396 l
0.3380 0.3402 l
0.3390 0.3408 l
0.3400 0.3414 l
0.3410 0.3420 l
0.3420 0.3426 l
0.3430 0.3432 l
0.3440 0.3438 l
0.3450 0.3444 l
0.3460 0.3450 l
0.3470 0.3456 l
0.3480 0.3462 l
0.3490 0.3467 l
0.3500 0.3473 l
0.3510 0.3479 l
0.3520 0.3484 l
0.3530 0.3490 l
0.3540 0.3496 l
0.3550 0.3501 l
0.3560 0.3507 l
0.3570 0.3512 l
0.3580 0.3517 l
0.3590 0.3523 l
0.3600 0.3528 l
0.3610 0.3534 l
0.3620 0.3539 l
0.3630 0.3544 l
0.3640 0.3549 l
0.3650 0.3555 l
0.3660 0.3560 l
0.3670 0.3565 l
0.3680 0.3570 l
0.3690 0.3575 l
0.3700 0.3580 l
0.3710 0.3585 l
0.3720 0.3590 l
0.3730 0.3595 l
0.3740 0.3600 l
0.3750 0.3605 l
0.3760 0.3610 l
0.3770 0.3614 l
0.3780 0.3619 l
0.3790 0.3624 l
0.3800 0.3628 l
0.3810 0.3633 l
0.3820 0.3638 l
0.3830 0.3642 l
0.3840 0.3647 l
0.3850 0.3652 l
0.3860 0.3656 l
0.3870 0.3661 l
0.3880 0.3665 l
0.3890 0.3669 l
0.3900 0.3674 l
0.3910 0.3678 l
0.3920 0.3683 l
0.3930 0.3687 l
0.3940 0.3691 l
0.3950 0.3695 l
0.3960 0.3700 l
0.3970 0.3704 l
0.3980 0.3708 l
0.3990 0.3712 l
0.4000 0.3716 l
0.4010 0.3720 l
0.4020 0.3724 l
0.4030 0.3728 l
0.4040 0.3732 l
0.4050 0.3736 l
0.4060 0.3740 l
0.4070 0.3744 l
0.4080 0.3748 l
0.4090 0.3752 l
0.4100 0.3756 l
0.4110 0.3759 l
0.4120 0.3763 l
0.4130 0.3767 l
0.4140 0.3771 l
0.4150 0.3774 l
0.4160 0.3778 l
0.4170 0.3782 l
0.4180 0.3785 l
0.4190 0.3789 l
0.4200 0.3792 l
0.4210 0.3796 l
0.4220 0.3799 l
0.4230 0.3803 l
0.4240 0.3806 l
0.4250 0.3810 l
0.4260 0.3813 l
0.4270 0.3817 l
0.4280 0.3820 l
0.4290 0.3823 l
0.4300 0.3827 l
0.4310 0.3830 l
0.4320 0.3833 l
0.4330 0.3836 l
0.4340 0.3840 l
0.4350 0.3843 l
0.4360 0.3846 l
0.4370 0.3849 l
0.4380 0.3852 l
0.4390 0.3855 l
0.4400 0.3858 l
0.4410 0.3861 l
0.4420 0.3864 l
0.4430 0.3867 l
0.4440 0.3870 l
0.4450 0.3873 l
0.4460 0.3876 l
0.4470 0.3879 l
0.4480 0.3882 l
0.4490 0.3885 l
0.4500 0.3887 l
0.4510 0.3890 l
0.4520 0.3893 l
0.4530 0.3896 l
0.4540 0.3899 l
0.4550 0.3901 l
0.4560 0.3904 l
0.4570 0.3907 l
0.4580 0.3909 l
0.4590 0.3912 l
0.4600 0.3914 l
0.4610 0.3917 l
0.4620 0.3920 l
0.4630 0.3922 l
0.4640 0.3925 l
0.4650 0.3927 l
0.4660 0.3930 l
0.4670 0.3932 l
0.4680 0.3934 l
0.4690 0.3937 l
0.4700 0.3939 l
0.4710 0.3942 l
0.4720 0.3944 l
0.4730 0.3946 l
0.4740 0.3949 l
0.4750 0.3951 l
0.4760 0.3953 l
0.4770 0.3955 l
0.4780 0.3958 l
0.4790 0.3960 l
0.4800 0.3962 l
0.4810 0.3964 l
0.4820 0.3966 l
0.4830 0.3968 l
0.4840 0.3970 l
0.4850 0.3973 l
0.4860 0.3975 l
0.4870 0.3977 l
0.4880 0.3979 l
0.4890 0.3981 l
0.4900 0.3983 l
0.4910 0.3985 l
0.4920 0.3987 l
0.4930 0.3989 l
0.4940 0.3990 l
0.4950 0.3992 l
0.4960 0.3994 l
0.4970 0.3996 l
0.4980 0.3998 l
0.4990 0.4000 l
0.5000 0.4001 l
0.5010 0.4003 l
0.5020 0.4005 l
0.5030 0.4007 l
0.5040 0.4008 l
0.5050 0.4010 l
0.5060 0.4012 l
0.5070 0.4013 l
0.5080 0.4015 l
0.5090 0.4017 l
0.5100 0.4018 l
0.5110 0.4020 l
0.5120 0.4022 l
0.5130 0.4023 l
0.5140 0.4025 l
0.5150 0.4026 l
0.5160 0.4028 l
0.5170 0.4029 l
0.5180 0.4031 l
0.5190 0.4032 l
0.5200 0.4034 l
0.5210 0.4035 l
0.5220 0.4036 l
0.5230 0.4038 l
0.5240 0.4039 l
0.5250 0.4040 l
0.5260 0.4042 l
0.5270 0.4043 l
0.5280 0.4044 l
0.5290 0.4046 l
0.5300 0.4047 l
0.5310 0.4048 l
0.5320 0.4049 l
0.5330 0.4051 l
0.5340 0.4052 l
0.5350 0.4053 l
0.5360 0.4054 l
0.5370 0.4055 l
0.5380 0.4056 l
0.5390 0.4058 l
0.5400 0.4059 l
0.5410 0.4060 l
0.5420 0.4061 l
0.5430 0.4062 l
0.5440 0.4063 l
0.5450 0.4064 l
0.5460 0.4065 l
0.5470 0.4066 l
0.5480 0.4067 l
0.5490 0.4068 l
0.5500 0.4069 l
0.5510 0.4070 l
0.5520 0.4071 l
0.5530 0.4072 l
0.5540 0.4073 l
0.5550 0.4073 l
0.5560 0.4074 l
0.5570 0.4075 l
0.5580 0.4076 l
0.5590 0.4077 l
0.5600 0.4078 l
0.5610 0.4078 l
0.5620 0.4079 l
0.5630 0.4080 l
0.5640 0.4081 l
0.5650 0.4081 l
0.5660 0.4082 l
0.5670 0.4083 l
0.5680 0.4083 l
0.5690 0.4084 l
0.5700 0.4085 l
0.5710 0.4085 l
0.5720 0.4086 l
0.5730 0.4087 l
0.5740 0.4087 l
0.5750 0.4088 l
0.5760 0.4088 l
0.5770 0.4089 l
0.5780 0.4089 l
0.5790 0.4090 l
0.5800 0.4091 l
0.5810 0.4091 l
0.5820 0.4092 l
0.5830 0.4092 l
0.5840 0.4092 l
0.5850 0.4093 l
0.5860 0.4093 l
0.5870 0.4094 l
0.5880 0.4094 l
0.5890 0.4095 l
0.5900 0.4095 l
0.5910 0.4095 l
0.5920 0.4096 l
0.5930 0.4096 l
0.5940 0.4096 l
0.5950 0.4097 l
0.5960 0.4097 l
0.5970 0.4097 l
0.5980 0.4097 l
0.5990 0.4098 l
0.6000 0.4098 l
0.6010 0.4098 l
0.6020 0.4098 l
0.6030 0.4099 l
0.6040 0.4099 l
0.6050 0.4099 l
0.6060 0.4099 l
0.6070 0.4099 l
0.6080 0.4099 l
0.6090 0.4100 l
0.6100 0.4100 l
0.6110 0.4100 l
0.6120 0.4100 l
0.6130 0.4100 l
0.6140 0.4100 l
0.6150 0.4100 l
0.6160 0.4100 l
0.6170 0.4100 l
0.6180 0.4100 l
0.6190 0.4100 l
0.6200 0.4100 l
0.6210 0.4100 l
0.6220 0.4100 l
0.6230 0.4100 l
0.6240 0.4100 l
0.6250 0.4100 l
0.6260 0.4100 l
0.6270 0.4100 l
0.6280 0.4100 l
0.6290 0.4100 l
0.6300 0.4100 l
0.6310 0.4100 l
0.6320 0.4099 l
0.6330 0.4099 l
0.6340 0.4099 l
0.6350 0.4099 l
0.6360 0.4099 l
0.6370 0.4099 l
0.6380 0.4098 l
0.6390 0.4098 l
0.6400 0.4098 l
0.6410 0.4098 l
0.6420 0.4097 l
0.6430 0.4097 l
0.6440 0.4097 l
0.6450 0.4097 l
0.6460 0.4096 l
0.6470 0.4096 l
0.6480 0.4096 l
0.6490 0.4095 l
0.6500 0.4095 l
0.6510 0.4095 l
0.6520 0.4094 l
0.6530 0.4094 l
0.6540 0.4093 l
0.6550 0.4093 l
0.6560 0.4093 l
0.6570 0.4092 l
0.6580 0.4092 l
0.6590 0.4091 l
0.6600 0.4091 l
0.6610 0.4090 l
0.6620 0.4090 l
0.6630 0.4090 l
0.6640 0.4089 l
0.6650 0.4089 l
0.6660 0.4088 l
0.6670 0.4088 l
0.6680 0.4087 l
0.6690 0.4086 l
0.6700 0.4086 l
0.6710 0.4085 l
0.6720 0.4085 l
0.6730 0.4084 l
0.6740 0.4084 l
0.6750 0.4083 l
0.6760 0.4082 l
0.6770 0.4082 l
0.6780 0.4081 l
0.6790 0.4080 l
0.6800 0.4080 l
0.6810 0.4079 l
0.6820 0.4078 l
0.6830 0.4078 l
0.6840 0.4077 l
0.6850 0.4076 l
0.6860 0.4076 l
0.6870 0.4075 l
0.6880 0.4074 l
0.6890 0.4073 l
0.6900 0.4073 l
0.6910 0.4072 l
0.6920 0.4071 l
0.6930 0.4070 l
0.6940 0.4070 l
0.6950 0.4069 l
0.6960 0.4068 l
0.6970 0.4067 l
0.6980 0.4066 l
0.6990 0.4066 l
0.7000 0.4065 l
0.7010 0.4064 l
0.7020 0.4063 l
0.7030 0.4062 l
0.7040 0.4061 l
0.7050 0.4060 l
0.7060 0.4060 l
0.7070 0.4059 l
0.7080 0.4058 l
0.7090 0.4057 l
0.7100 0.4056 l
0.7110 0.4055 l
0.7120 0.4054 l
0.7130 0.4053 l
0.7140 0.4052 l
0.7150 0.4051 l
0.7160 0.4050 l
0.7170 0.4049 l
0.7180 0.4048 l
0.7190 0.4047 l
0.7200 0.4046 l
0.7210 0.4045 l
0.7220 0.4044 l
0.7230 0.4043 l
0.7240 0.4042 l
0.7250 0.4041 l
0.7260 0.4040 l
0.7270 0.4039 l
0.7280 0.4038 l
0.7290 0.4037 l
0.7300 0.4035 l
0.7310 0.4034 l
0.7320 0.4033 l
0.7330 0.4032 l
0.7340 0.4031 l
0.7350 0.4030 l
0.7360 0.4029 l
0.7370 0.4027 l
0.7380 0.4026 l
0.7390 0.4025 l
0.7400 0.4024 l
0.7410 0.4023 l
0.7420 0.4021 l
0.7430 0.4020 l
0.7440 0.4019 l
0.7450 0.4018 l
0.7460 0.4017 l
0.7470 0.4015 l
0.7480 0.4014 l
0.7490 0.4013 l
0.7500 0.4012 l
0.7510 0.4010 l
0.7520 0.4009 l
0.7530 0.4008 l
0.7540 0.4006 l
0.7550 0.4005 l
0.7560 0.4004 l
0.7570 0.4003 l
0.7580 0.4001 l
0.7590 0.4000 l
0.7600 0.3999 l
0.7610 0.3997 l
0.7620 0.3996 l
0.7630 0.3994 l
0.7640 0.3993 l
0.7650 0.3992 l
0.7660 0.3990 l
0.7670 0.3989 l
0.7680 0.3988 l
0.7690 0.3986 l
0.7700 0.3985 l
0.7710 0.3983 l
0.7720 0.3982 l
0.7730 0.3980 l
0.7740 0.3979 l
0.7750 0.3977 l
0.7760 0.3976 l
0.7770 0.3975 l
0.7780 0.3973 l
0.7790 0.3972 l
0.7800 0.3970 l
0.7810 0.3969 l
0.7820 0.3967 l
0.7830 0.3966 l
0.7840 0.3964 l
0.7850 0.3963 l
0.7860 0.3961 l
0.7870 0.3960 l
0.7880 0.3958 l
0.7890 0.3956 l
0.7900 0.3955 l
0.7910 0.3953 l
0.7920 0.3952 l
0.7930 0.3950 l
0.7940 0.3949 l
0.7950 0.3947 l
0.7960 0.3945 l
0.7970 0.3944 l
0.7980 0.3942 l
0.7990 0.3941 l
0.8000 0.3939 l
0.8010 0.3937 l
0.8020 0.3936 l
0.8030 0.3934 l
0.8040 0.3932 l
0.8050 0.3931 l
0.8060 0.3929 l
0.8070 0.3927 l
0.8080 0.3926 l
0.8090 0.3924 l
0.8100 0.3922 l
0.8110 0.3921 l
0.8120 0.3919 l
0.8130 0.3917 l
0.8140 0.3915 l
0.8150 0.3914 l
0.8160 0.3912 l
0.8170 0.3910 l
0.8180 0.3908 l
0.8190 0.3907 l
0.8200 0.3905 l
0.8210 0.3903 l
0.8220 0.3901 l
0.8230 0.3900 l
0.8240 0.3898 l
0.8250 0.3896 l
0.8260 0.3894 l
0.8270 0.3893 l
0.8280 0.3891 l
0.8290 0.3889 l
0.8300 0.3887 l
0.8310 0.3885 l
0.8320 0.3883 l
0.8330 0.3882 l
0.8340 0.3880 l
0.8350 0.3878 l
0.8360 0.3876 l
0.8370 0.3874 l
0.8380 0.3872 l
0.8390 0.3871 l
0.8400 0.3869 l
0.8410 0.3867 l
0.8420 0.3865 l
0.8430 0.3863 l
0.8440 0.3861 l
0.8450 0.3859 l
0.8460 0.3857 l
0.8470 0.3855 l
0.8480 0.3853 l
0.8490 0.3852 l
0.8500 0.3850 l
0.8510 0.3848 l
0.8520 0.3846 l
0.8530 0.3844 l
0.8540 0.3842 l
0.8550 0.3840 l
0.8560 0.3838 l
0.8570 0.3836 l
0.8580 0.3834 l
0.8590 0.3832 l
0.8600 0.3830 l
0.8610 0.3828 l
0.8620 0.3826 l
0.8630 0.3824 l
0.8640 0.3822 l
0.8650 0.3820 l
0.8660 0.3818 l
0.8670 0.3816 l
0.8680 0.3814 l
0.8690 0.3812 l
0.8700 0.3810 l
0.8710 0.3808 l
0.8720 0.3806 l
0.8730 0.3804 l
0.8740 0.3802 l
0.8750 0.3800 l
0.8760 0.3798 l
0.8770 0.3795 l
0.8780 0.3793 l
0.8790 0.3791 l
0.8800 0.3789 l
0.8810 0.3787 l
0.8820 0.3785 l
0.8830 0.3783 l
0.8840 0.3781 l
0.8850 0.3779 l
0.8860 0.3777 l
0.8870 0.3774 l
0.8880 0.3772 l
0.8890 0.3770 l
0.8900 0.3768 l
0.8910 0.3766 l
0.8920 0.3764 l
0.8930 0.3762 l
0.8940 0.3759 l
0.8950 0.3757 l
0.8960 0.3755 l
0.8970 0.3753 l
0.8980 0.3751 l
0.8990 0.3749 l
0.9000 0.3746 l
0.9010 0.3744 l
0.9020 0.3742 l
0.9030 0.3740 l
0.9040 0.3738 l
0.9050 0.3735 l
0.9060 0.3733 l
0.9070 0.3731 l
0.9080 0.3729 l
0.9090 0.3727 l
0.9100 0.3724 l
0.9110 0.3722 l
0.9120 0.3720 l
0.9130 0.3718 l
0.9140 0.3715 l
0.9150 0.3713 l
0.9160 0.3711 l
0.9170 0.3709 l
0.9180 0.3706 l
0.9190 0.3704 l
0.9200 0.3702 l
0.9210 0.3700 l
0.9220 0.3697 l
0.9230 0.3695 l
0.9240 0.3693 l
0.9250 0.3690 l
0.9260 0.3688 l
0.9270 0.3686 l
0.9280 0.3684 l
0.9290 0.3681 l
0.9300 0.3679 l
0.9310 0.3677 l
0.9320 0.3674 l
0.9330 0.3672 l
0.9340 0.3670 l
0.9350 0.3667 l
0.9360 0.3665 l
0.9370 0.3663 l
0.9380 0.3660 l
0.9390 0.3658 l
0.9400 0.3656 l
0.9410 0.3653 l
0.9420 0.3651 l
0.9430 0.3649 l
0.9440 0.3646 l
0.9450 0.3644 l
0.9460 0.3641 l
0.9470 0.3639 l
0.9480 0.3637 l
0.9490 0.3634 l
0.9500 0.3632 l
0.9510 0.3630 l
0.9520 0.3627 l
0.9530 0.3625 l
0.9540 0.3622 l
0.9550 0.3620 l
0.9560 0.3618 l
0.9570 0.3615 l
0.9580 0.3613 l
0.9590 0.3610 l
0.9600 0.3608 l
0.9610 0.3605 l
0.9620 0.3603 l
0.9630 0.3601 l
0.9640 0.3598 l
0.9650 0.3596 l
0.9660 0.3593 l
0.9670 0.3591 l
0.9680 0.3588 l
0.9690 0.3586 l
0.9700 0.3583 l
0.9710 0.3581 l
0.9720 0.3579 l
0.9730 0.3576 l
0.9740 0.3574 l
0.9750 0.3571 l
0.9760 0.3569 l
0.9770 0.3566 l
0.9780 0.3564 l
0.9790 0.3561 l
0.9800 0.3559 l
0.9810 0.3556 l
0.9820 0.3554 l
0.9830 0.3551 l
0.9840 0.3549 l
0.9850 0.3546 l
0.9860 0.3544 l
0.9870 0.3541 l
0.9880 0.3539 l
0.9890 0.3536 l
0.9900 0.3534 l
0.9910 0.3531 l
0.9920 0.3529 l
0.9930 0.3526 l
0.9940 0.3524 l
0.9950 0.3521 l
0.9960 0.3518 l
0.9970 0.3516 l
0.9980 0.3513 l
0.9990 0.3511 l
1.0000 0.3508 l
1.0010 0.3506 l
1.0020 0.3503 l
1.0030 0.3501 l
1.0040 0.3498 l
1.0050 0.3496 l
1.0060 0.3493 l
1.0070 0.3490 l
1.0080 0.3488 l
1.0090 0.3485 l
1.0100 0.3483 l
1.0110 0.3480 l
1.0120 0.3477 l
1.0130 0.3475 l
1.0140 0.3472 l
1.0150 0.3470 l
1.0160 0.3467 l
1.0170 0.3465 l
1.0180 0.3462 l
1.0190 0.3459 l
1.0200 0.3457 l
1.0210 0.3454 l
1.0220 0.3452 l
1.0230 0.3449 l
1.0240 0.3446 l
1.0250 0.3444 l
1.0260 0.3441 l
1.0270 0.3438 l
1.0280 0.3436 l
1.0290 0.3433 l
1.0300 0.3431 l
1.0310 0.3428 l
1.0320 0.3425 l
1.0330 0.3423 l
1.0340 0.3420 l
1.0350 0.3417 l
1.0360 0.3415 l
1.0370 0.3412 l
1.0380 0.3410 l
1.0390 0.3407 l
1.0400 0.3404 l
1.0410 0.3402 l
1.0420 0.3399 l
1.0430 0.3396 l
1.0440 0.3394 l
1.0450 0.3391 l
1.0460 0.3388 l
1.0470 0.3386 l
1.0480 0.3383 l
1.0490 0.3380 l
1.0500 0.3378 l
1.0510 0.3375 l
1.0520 0.3372 l
1.0530 0.3370 l
1.0540 0.3367 l
1.0550 0.3364 l
1.0560 0.3362 l
1.0570 0.3359 l
1.0580 0.3356 l
1.0590 0.3354 l
1.0600 0.3351 l
1.0610 0.3348 l
1.0620 0.3346 l
1.0630 0.3343 l
1.0640 0.3340 l
1.0650 0.3337 l
1.0660 0.3335 l
1.0670 0.3332 l
1.0680 0.3329 l
1.0690 0.3327 l
1.0700 0.3324 l
1.0710 0.3321 l
1.0720 0.3319 l
1.0730 0.3316 l
1.0740 0.3313 l
1.0750 0.3310 l
1.0760 0.3308 l
1.0770 0.3305 l
1.0780 0.3302 l
1.0790 0.3300 l
1.0800 0.3297 l
1.0810 0.3294 l
1.0820 0.3291 l
1.0830 0.3289 l
1.0840 0.3286 l
1.0850 0.3283 l
1.0860 0.3280 l
1.0870 0.3278 l
1.0880 0.3275 l
1.0890 0.3272 l
1.0900 0.3270 l
1.0910 0.3267 l
1.0920 0.3264 l
1.0930 0.3261 l
1.0940 0.3259 l
1.0950 0.3256 l
1.0960 0.3253 l
1.0970 0.3250 l
1.0980 0.3248 l
1.0990 0.3245 l
1.1000 0.3242 l
1.1010 0.3239 l
1.1020 0.3237 l
1.1030 0.3234 l
1.1040 0.3231 l
1.1050 0.3228 l
1.1060 0.3226 l
1.1070 0.3223 l
1.1080 0.3220 l
1.1090 0.3217 l
1.1100 0.3215 l
1.1110 0.3212 l
1.1120 0.3209 l
1.1130 0.3206 l
1.1140 0.3204 l
1.1150 0.3201 l
1.1160 0.3198 l
1.1170 0.3195 l
1.1180 0.3193 l
1.1190 0.3190 l
1.1200 0.3187 l
1.1210 0.3184 l
1.1220 0.3182 l
1.1230 0.3179 l
1.1240 0.3176 l
1.1250 0.3173 l
1.1260 0.3170 l
1.1270 0.3168 l
1.1280 0.3165 l
1.1290 0.3162 l
1.1300 0.3159 l
1.1310 0.3157 l
1.1320 0.3154 l
1.1330 0.3151 l
1.1340 0.3148 l
1.1350 0.3145 l
1.1360 0.3143 l
1.1370 0.3140 l
1.1380 0.3137 l
1.1390 0.3134 l
1.1400 0.3132 l
1.1410 0.3129 l
1.1420 0.3126 l
1.1430 0.3123 l
1.1440 0.3120 l
1.1450 0.3118 l
1.1460 0.3115 l
1.1470 0.3112 l
1.1480 0.3109 l
1.1490 0.3107 l
1.1500 0.3104 l
1.1501 0.3103 l
s
[/DeviceRGB] SCS
Color1 SC
[] 0 SD
0.0045 SLW
n
0.2000 0.1500 m
1.1500 0.1500 l
s
n
0.2000 0.8500 m
1.1500 0.8500 l
s
n
0.2500 0.1500 m
0.2500 0.1600 l
s
n
0.2500 0.8500 m
0.2500 0.8400 l
s
n
0.4500 0.1500 m
0.4500 0.1600 l
s
n
0.4500 0.8500 m
0.4500 0.8400 l
s
n
0.6500 0.1500 m
0.6500 0.1600 l
s
n
0.6500 0.8500 m
0.6500 0.8400 l
s
n
0.8500 0.1500 m
0.8500 0.1600 l
s
n
0.8500 0.8500 m
0.8500 0.8400 l
s
n
1.0500 0.1500 m
1.0500 0.1600 l
s
n
1.0500 0.8500 m
1.0500 0.8400 l
s
n
0.3500 0.1500 m
0.3500 0.1700 l
s
n
0.3500 0.8500 m
0.3500 0.8300 l
s
n
0.5500 0.1500 m
0.5500 0.1700 l
s
n
0.5500 0.8500 m
0.5500 0.8300 l
s
n
0.7500 0.1500 m
0.7500 0.1700 l
s
n
0.7500 0.8500 m
0.7500 0.8300 l
s
n
0.9500 0.1500 m
0.9500 0.1700 l
s
n
0.9500 0.8500 m
0.9500 0.8300 l
s
n
1.1500 0.1500 m
1.1500 0.1700 l
s
n
1.1500 0.8500 m
1.1500 0.8300 l
s
/Times-Roman findfont
dup length dict begin
 {1 index /FID ne {def} {pop pop} ifelse} forall
 /Encoding DefEncoding def
 currentdict
end
/Font0 exch definefont pop
/Font0 FFSF
0.3225 0.1094 m
GS
[0.0448 0.0000 0.0000 0.0448 0 0] CC
(0.2) show
GR
/Font0 FFSF
0.5225 0.1094 m
GS
[0.0448 0.0000 0.0000 0.0448 0 0] CC
(0.4) show
GR
/Font0 FFSF
0.7227 0.1094 m
GS
[0.0448 0.0000 0.0000 0.0448 0 0] CC
(0.6) show
GR
/Font0 FFSF
0.9231 0.1094 m
GS
[0.0448 0.0000 0.0000 0.0448 0 0] CC
(0.8) show
GR
/Font0 FFSF
1.1412 0.1094 m
GS
[0.0448 0.0000 0.0000 0.0448 0 0] CC
(1) show
GR
/Times-Italic findfont
dup length dict begin
 {1 index /FID ne {def} {pop pop} ifelse} forall
 /Encoding DefEncoding def
 currentdict
end
/Font1 exch definefont pop
/Font1 FFSF
0.5985 0.0445 m
GS
[0.0504 0.0000 0.0000 0.0504 0 0] CC
(n) show
GR
/Font0 FFSF
0.6236 0.0445 m
GS
[0.0504 0.0000 0.0000 0.0504 0 0] CC
( [fm) show
GR
/Font0 FFSF
0.7091 0.0747 m
GS
[0.0356 0.0000 0.0000 0.0356 0 0] CC
(-3) show
GR
/Font0 FFSF
0.7389 0.0445 m
GS
[0.0504 0.0000 0.0000 0.0504 0 0] CC
(]) show
GR
n
0.2000 0.1500 m
0.2000 0.8500 l
s
n
1.1500 0.1500 m
1.1500 0.8500 l
s
n
0.2000 0.2375 m
0.2100 0.2375 l
s
n
1.1500 0.2375 m
1.1400 0.2375 l
s
n
0.2000 0.4125 m
0.2100 0.4125 l
s
n
1.1500 0.4125 m
1.1400 0.4125 l
s
n
0.2000 0.5875 m
0.2100 0.5875 l
s
n
1.1500 0.5875 m
1.1400 0.5875 l
s
n
0.2000 0.7625 m
0.2100 0.7625 l
s
n
1.1500 0.7625 m
1.1400 0.7625 l
s
n
0.2000 0.1500 m
0.2200 0.1500 l
s
n
1.1500 0.1500 m
1.1300 0.1500 l
s
n
0.2000 0.3250 m
0.2200 0.3250 l
s
n
1.1500 0.3250 m
1.1300 0.3250 l
s
n
0.2000 0.5000 m
0.2200 0.5000 l
s
n
1.1500 0.5000 m
1.1300 0.5000 l
s
n
0.2000 0.6750 m
0.2200 0.6750 l
s
n
1.1500 0.6750 m
1.1300 0.6750 l
s
n
0.2000 0.8500 m
0.2200 0.8500 l
s
n
1.1500 0.8500 m
1.1300 0.8500 l
s
/Font0 FFSF
0.1688 0.1351 m
GS
[0.0448 0.0000 0.0000 0.0448 0 0] CC
(0) show
GR
/Font0 FFSF
0.1143 0.3099 m
GS
[0.0448 0.0000 0.0000 0.0448 0 0] CC
(0.05) show
GR
/Font0 FFSF
0.1386 0.4851 m
GS
[0.0448 0.0000 0.0000 0.0448 0 0] CC
(0.1) show
GR
/Font0 FFSF
0.1143 0.6599 m
GS
[0.0448 0.0000 0.0000 0.0448 0 0] CC
(0.15) show
GR
/Font0 FFSF
0.1351 0.8351 m
GS
[0.0448 0.0000 0.0000 0.0448 0 0] CC
(0.2) show
GR
/Font0 FFSF
0.0763 0.4733 m
GS
[0.0000 0.0504 -0.0504 0.0000 0 0] CC
(Y) show
GR
/Font0 FFSF
0.0965 0.5098 m
GS
[0.0000 0.0356 -0.0356 0.0000 0 0] CC
(p) show
GR
[] 0 SD
0.0015 SLW
n
0.2000 0.1500 m
0.2000 0.8500 l
1.1500 0.8500 l
1.1500 0.1500 l
0.2000 0.1500 l
c
s
[/DeviceRGB] SCS
Color4 SC
[0.0187 0.0112 ] 0 SD
0.0037 SLW
n
1.1500 0.5350 m
0.2000 0.5350 l
s
n
0.8850 0.4400 m
0.8850 0.1571 l
1.1488 0.1571 l
1.1488 0.4400 l
c
[/DeviceRGB] SCS
Color0 SC
fill
[/DeviceRGB] SCS
Color1 SC
[] 0 SD
0.0045 SLW
n
0.8850 0.4400 m
0.8850 0.1571 l
1.1488 0.1571 l
1.1488 0.4400 l
0.8850 0.4400 l
c
s
/Font0 FFSF
0.9772 0.3955 m
GS
[0.0510 0.0000 0.0000 0.0510 0 0] CC
(LYVA1) show
GR
n
0.8972 0.4125 m
0.9572 0.4125 l
s
/Font0 FFSF
0.9772 0.3506 m
GS
[0.0510 0.0000 0.0000 0.0510 0 0] CC
(BCPM) show
GR
[/DeviceRGB] SCS
Color4 SC
[0.0037 0.0112 ] 0 SD
0.0037 SLW
n
0.8972 0.3675 m
0.9572 0.3675 l
s
/Font0 FFSF
[/DeviceRGB] SCS
Color1 SC
0.9772 0.3049 m
GS
[0.0510 0.0000 0.0000 0.0510 0 0] CC
(BSk19) show
GR
[/DeviceRGB] SCS
Color3 SC
[0.0187 0.0112 ] 0 SD
0.0037 SLW
n
0.8972 0.3218 m
0.9572 0.3218 l
s
/Font0 FFSF
[/DeviceRGB] SCS
Color1 SC
0.9772 0.2588 m
GS
[0.0510 0.0000 0.0000 0.0510 0 0] CC
(BSk20) show
GR
[/DeviceRGB] SCS
Color2 SC
n
0.8972 0.2759 m
0.9572 0.2759 l
s
/Font0 FFSF
[/DeviceRGB] SCS
Color1 SC
0.9772 0.2131 m
GS
[0.0510 0.0000 0.0000 0.0510 0 0] CC
(BSk21) show
GR
[/DeviceRGB] SCS
Color15 SC
n
0.8972 0.2302 m
0.9572 0.2302 l
s
/Font0 FFSF
[/DeviceRGB] SCS
Color1 SC
0.9772 0.1678 m
GS
[0.0510 0.0000 0.0000 0.0510 0 0] CC
(LNS) show
GR
[/DeviceRGB] SCS
Color12 SC
[0.0037 0.0112 0.0187 0.0112 ] 0 SD
0.0037 SLW
n
0.8972 0.1847 m
0.9572 0.1847 l
s
[/DeviceRGB] SCS
Color1 SC
[] 0 SD
0.0015 SLW
n
0.1647 0.3020 m
0.1647 0.3020 l
s
/Font0 FFSF
[/DeviceRGB] SCS
Color4 SC
0.2275 0.5778 m
GS
[0.0538 0.0000 0.0000 0.0538 0 0] CC
(URCA direct) show
GR
%%Trailer
%%BoundingBox: 25 21 713 531
%%DocumentNeededResources: font Times-Roman
%%+ font Times-Italic
%%EOF
