%!PS-Adobe-3.0
%%BoundingBox: 0 0 612 792
%%LanguageLevel: 2
%%Creator: Grace-5.1.25
%%CreationDate: Wed Dec  2 15:37:45 2015
%%DocumentData: Clean8Bit
%%Orientation: Landscape
%%Pages: 1
%%PageOrder: Ascend
%%Title: EsurA_gogny_recomposed_L_by_L.agr
%%For: ap1450
%%DocumentNeededResources: (atend)
%%EndComments
%%BeginProlog
/PAGE_OFFSET_X 0 def
/PAGE_OFFSET_Y 0 def
/m {moveto} def
/l {lineto} def
/s {stroke} def
/n {newpath} def
/c {closepath} def
/RL {rlineto} def
/SLW {setlinewidth} def
/GS {gsave} def
/GR {grestore} def
/SC {setcolor} def
/SGRY {setgray} def
/SRGB {setrgbcolor} def
/SD {setdash} def
/SLC {setlinecap} def
/SLJ {setlinejoin} def
/SCS {setcolorspace} def
/FFSF {findfont setfont} def
/CC {concat} def
/PXL {n m 0 0 RL s} def
/Color0 {1.0000 1.0000 1.0000} def
/Color1 {0.0000 0.0000 0.0000} def
/Color2 {1.0000 0.0000 0.0000} def
/Color3 {0.0000 1.0000 0.0000} def
/Color4 {0.0000 0.0000 1.0000} def
/Color5 {1.0000 1.0000 0.0000} def
/Color6 {0.7373 0.5608 0.5608} def
/Color7 {0.8627 0.8627 0.8627} def
/Color8 {0.5804 0.0000 0.8275} def
/Color9 {0.0000 1.0000 1.0000} def
/Color10 {1.0000 0.0000 1.0000} def
/Color11 {1.0000 0.6471 0.0000} def
/Color12 {0.4471 0.1294 0.7373} def
/Color13 {0.4039 0.0275 0.2824} def
/Color14 {0.2510 0.8784 0.8157} def
/Color15 {0.0000 0.5451 0.0000} def
/Color16 {0.7529 0.7529 0.7529} def
/Color17 {0.5059 0.5059 0.5059} def
/Color18 {0.2588 0.2588 0.2588} def
/PTRN {
 /pat_bits exch def 
 <<
  /PaintType 2
  /PatternType 1 /TilingType 1
  /BBox[0 0 16 16]
  /XStep 16 /YStep 16
  /PaintProc {
   pop
   16 16 true [-1 0 0 -1 16 16] pat_bits imagemask
  }
 >>
 [0.0016 0 0 0.0016 0 0]
 makepattern
} def
/Pattern0 {<0000000000000000000000000000000000000000000000000000000000000000> PTRN} bind def
/Pattern1 {<ffffffffffffffffffffffffffffffffffffffffffffffffffffffffffffffff> PTRN} bind def
/Pattern2 {<eeeeffffbbbbffffeeeeffffbbbbffffeeeeffffbbbbffffeeeeffffbbbbffff> PTRN} bind def
/Pattern3 {<eeeebbbbeeeebbbbeeeebbbbeeeebbbbeeeebbbbeeeebbbbeeeebbbbeeeebbbb> PTRN} bind def
/Pattern4 {<5555aaaa5555aaaa5555aaaa5555aaaa5555aaaa5555aaaa5555aaaa5555aaaa> PTRN} bind def
/Pattern5 {<1111444411114444111144441111444411114444111144441111444411114444> PTRN} bind def
/Pattern6 {<1111000044440000111100004444000011110000444400001111000044440000> PTRN} bind def
/Pattern7 {<1010000000000000010100000000000010100000000000000101000000000000> PTRN} bind def
/Pattern8 {<0000000000000000000000000000000000000000000000000000000000000000> PTRN} bind def
/Pattern9 {<1e1e0f0f8787c3c3e1e1f0f078783c3c1e1e0f0f8787c3c3e1e1f0f078783c3c> PTRN} bind def
/Pattern10 {<7878f0f0e1e1c3c387870f0f1e1e3c3c7878f0f0e1e1c3c387870f0f1e1e3c3c> PTRN} bind def
/Pattern11 {<3333333333333333333333333333333333333333333333333333333333333333> PTRN} bind def
/Pattern12 {<ffffffff00000000ffffffff00000000ffffffff00000000ffffffff00000000> PTRN} bind def
/Pattern13 {<8181424224241818181824244242818181814242242418181818242442428181> PTRN} bind def
/Pattern14 {<8080404020201010080804040202010180804040202010100808040402020101> PTRN} bind def
/Pattern15 {<0101020204040808101020204040808001010202040408081010202040408080> PTRN} bind def
/Pattern16 {<2222222222222222222222222222222222222222222222222222222222222222> PTRN} bind def
/Pattern17 {<0000ffff000000000000ffff000000000000ffff000000000000ffff00000000> PTRN} bind def
/Pattern18 {<2222ffff222222222222ffff222222222222ffff222222222222ffff22222222> PTRN} bind def
/Pattern19 {<ffffffff33333333ffffffff33333333ffffffff33333333ffffffff33333333> PTRN} bind def
/Pattern20 {<0f0f0f0f0f0f0f0ff0f0f0f0f0f0f0f00f0f0f0f0f0f0f0ff0f0f0f0f0f0f0f0> PTRN} bind def
/Pattern21 {<ff00ff00ff00ff00ff00ff00ff00ff0000ff00ff00ff00ff00ff00ff00ff00ff> PTRN} bind def
/Pattern22 {<8001800180018001800180018001ffffffff8001800180018001800180018001> PTRN} bind def
/Pattern23 {<c003c003c003c003c003c003ffffffffffffffffc003c003c003c003c003c003> PTRN} bind def
/Pattern24 {<040404040404ffff404040404040ffff040404040404ffff404040404040ffff> PTRN} bind def
/Pattern25 {<180018001800180018001800ffffffff001800180018001800180018ffffffff> PTRN} bind def
/Pattern26 {<1111b8b87c7c3a3a1111a3a3c7c78b8b1111b8b87c7c3a3a1111a3a3c7c78b8b> PTRN} bind def
/Pattern27 {<101010102828c7c70101010182827c7c101010102828c7c70101010182827c7c> PTRN} bind def
/Pattern28 {<1c1c121211112121c1c12121111112121c1c121211112121c1c1212111111212> PTRN} bind def
/Pattern29 {<3e3e414180808080e3e31414080808083e3e414180808080e3e3141408080808> PTRN} bind def
/Pattern30 {<4848888884848383848488884848383848488888848483838484888848483838> PTRN} bind def
/Pattern31 {<03030404080808080c0c12122121c0c003030404080808080c0c12122121c0c0> PTRN} bind def
/ellipsedict 8 dict def
ellipsedict /mtrx matrix put
/EARC {
 ellipsedict begin
  /endangle exch def
  /startangle exch def
  /yrad exch def
  /xrad exch def
  /y exch def
  /x exch def
  /savematrix mtrx currentmatrix def
  x y translate
  xrad yrad scale
  0 0 1 startangle endangle arc
  savematrix setmatrix
 end
} def
/TL {
  /kcomp exch def
  /linewidth exch def
  /offset exch def
  GS
  0 offset rmoveto
  linewidth SLW
  dup stringwidth exch kcomp add exch RL s
  GR
} def
/KINIT
{
 /kvector exch def
 /kid 0 def
} def
/KPROC
{
 pop pop
 kvector kid get
 0 rmoveto
 /kid 1 kid add def
} def
/DefEncoding [
 /.notdef
 /.notdef
 /.notdef
 /.notdef
 /.notdef
 /.notdef
 /.notdef
 /.notdef
 /.notdef
 /.notdef
 /.notdef
 /.notdef
 /.notdef
 /.notdef
 /.notdef
 /.notdef
 /.notdef
 /.notdef
 /.notdef
 /.notdef
 /.notdef
 /.notdef
 /.notdef
 /.notdef
 /.notdef
 /.notdef
 /.notdef
 /.notdef
 /.notdef
 /.notdef
 /.notdef
 /.notdef
 /space
 /exclam
 /quotedbl
 /numbersign
 /dollar
 /percent
 /ampersand
 /quoteright
 /parenleft
 /parenright
 /asterisk
 /plus
 /comma
 /hyphen
 /period
 /slash
 /zero
 /one
 /two
 /three
 /four
 /five
 /six
 /seven
 /eight
 /nine
 /colon
 /semicolon
 /less
 /equal
 /greater
 /question
 /at
 /A
 /B
 /C
 /D
 /E
 /F
 /G
 /H
 /I
 /J
 /K
 /L
 /M
 /N
 /O
 /P
 /Q
 /R
 /S
 /T
 /U
 /V
 /W
 /X
 /Y
 /Z
 /bracketleft
 /backslash
 /bracketright
 /asciicircum
 /underscore
 /grave
 /a
 /b
 /c
 /d
 /e
 /f
 /g
 /h
 /i
 /j
 /k
 /l
 /m
 /n
 /o
 /p
 /q
 /r
 /s
 /t
 /u
 /v
 /w
 /x
 /y
 /z
 /braceleft
 /bar
 /braceright
 /asciitilde
 /.notdef
 /.notdef
 /.notdef
 /.notdef
 /.notdef
 /.notdef
 /.notdef
 /.notdef
 /.notdef
 /.notdef
 /.notdef
 /.notdef
 /.notdef
 /.notdef
 /.notdef
 /.notdef
 /.notdef
 /.notdef
 /.notdef
 /.notdef
 /.notdef
 /.notdef
 /.notdef
 /.notdef
 /.notdef
 /.notdef
 /.notdef
 /.notdef
 /.notdef
 /.notdef
 /.notdef
 /.notdef
 /.notdef
 /space
 /exclamdown
 /cent
 /sterling
 /currency
 /yen
 /brokenbar
 /section
 /dieresis
 /copyright
 /ordfeminine
 /guillemotleft
 /logicalnot
 /hyphen
 /registered
 /macron
 /degree
 /plusminus
 /twosuperior
 /threesuperior
 /acute
 /mu
 /paragraph
 /periodcentered
 /cedilla
 /onesuperior
 /ordmasculine
 /guillemotright
 /onequarter
 /onehalf
 /threequarters
 /questiondown
 /Agrave
 /Aacute
 /Acircumflex
 /Atilde
 /Adieresis
 /Aring
 /AE
 /Ccedilla
 /Egrave
 /Eacute
 /Ecircumflex
 /Edieresis
 /Igrave
 /Iacute
 /Icircumflex
 /Idieresis
 /Eth
 /Ntilde
 /Ograve
 /Oacute
 /Ocircumflex
 /Otilde
 /Odieresis
 /multiply
 /Oslash
 /Ugrave
 /Uacute
 /Ucircumflex
 /Udieresis
 /Yacute
 /Thorn
 /germandbls
 /agrave
 /aacute
 /acircumflex
 /atilde
 /adieresis
 /aring
 /ae
 /ccedilla
 /egrave
 /eacute
 /ecircumflex
 /edieresis
 /igrave
 /iacute
 /icircumflex
 /idieresis
 /eth
 /ntilde
 /ograve
 /oacute
 /ocircumflex
 /otilde
 /odieresis
 /divide
 /oslash
 /ugrave
 /uacute
 /ucircumflex
 /udieresis
 /yacute
 /thorn
 /ydieresis
] def
%%EndProlog
%%BeginSetup
%%EndSetup
%%Page: 1 1
PAGE_OFFSET_X PAGE_OFFSET_Y translate
612.00 612.00 scale
90 rotate
0.0 -1.0 translate
[/DeviceRGB] SCS
Color1 SC
[] 0 SD
0.0030 SLW
0 SLC
0 SLJ
n
0.1500 0.2900 m
0.1500 0.2900 l
0.1500 0.2901 l
0.1500 0.2901 l
0.1500 0.2902 l
0.1500 0.2902 l
0.1500 0.2903 l
0.1501 0.2904 l
0.1501 0.2905 l
0.1501 0.2906 l
0.1501 0.2907 l
0.1502 0.2907 l
0.1502 0.2908 l
0.1503 0.2909 l
0.1504 0.2910 l
0.1505 0.2910 l
0.1506 0.2911 l
0.1507 0.2911 l
0.1508 0.2911 l
0.1509 0.2912 l
0.1510 0.2912 l
0.1512 0.2911 l
0.1514 0.2911 l
0.1516 0.2911 l
0.1518 0.2910 l
0.1520 0.2909 l
0.1522 0.2908 l
0.1525 0.2907 l
0.1527 0.2905 l
0.1530 0.2903 l
0.1534 0.2901 l
0.1537 0.2899 l
0.1540 0.2896 l
0.1544 0.2894 l
0.1548 0.2890 l
0.1553 0.2887 l
0.1557 0.2883 l
0.1562 0.2879 l
0.1567 0.2875 l
0.1572 0.2870 l
0.1578 0.2866 l
0.1583 0.2860 l
0.1590 0.2855 l
0.1596 0.2849 l
0.1603 0.2843 l
0.1610 0.2836 l
0.1617 0.2829 l
0.1625 0.2822 l
0.1632 0.2815 l
0.1641 0.2807 l
0.1649 0.2799 l
0.1658 0.2790 l
0.1668 0.2781 l
0.1677 0.2772 l
0.1687 0.2763 l
0.1698 0.2753 l
0.1708 0.2743 l
0.1720 0.2733 l
0.1731 0.2722 l
0.1743 0.2711 l
0.1756 0.2699 l
0.1768 0.2688 l
0.1782 0.2676 l
0.1795 0.2664 l
0.1809 0.2651 l
0.1824 0.2638 l
0.1839 0.2625 l
0.1854 0.2612 l
0.1870 0.2599 l
0.1886 0.2585 l
0.1903 0.2571 l
0.1920 0.2557 l
0.1938 0.2542 l
0.1956 0.2528 l
0.1975 0.2513 l
0.1994 0.2498 l
0.2014 0.2482 l
0.2034 0.2467 l
0.2055 0.2452 l
0.2076 0.2436 l
0.2098 0.2420 l
0.2121 0.2404 l
0.2144 0.2388 l
0.2167 0.2372 l
0.2191 0.2356 l
0.2216 0.2339 l
0.2241 0.2323 l
0.2267 0.2307 l
0.2294 0.2290 l
0.2321 0.2274 l
0.2348 0.2257 l
0.2377 0.2241 l
0.2406 0.2225 l
0.2435 0.2208 l
0.2465 0.2192 l
0.2496 0.2176 l
0.2527 0.2160 l
0.2560 0.2144 l
0.2592 0.2128 l
0.2626 0.2112 l
0.2660 0.2096 l
0.2695 0.2081 l
0.2730 0.2066 l
0.2766 0.2051 l
0.2803 0.2036 l
0.2841 0.2021 l
0.2879 0.2007 l
0.2918 0.1993 l
0.2958 0.1979 l
0.2998 0.1966 l
0.3040 0.1952 l
0.3082 0.1940 l
0.3124 0.1927 l
0.3168 0.1915 l
0.3212 0.1903 l
0.3257 0.1892 l
0.3303 0.1881 l
0.3350 0.1871 l
0.3397 0.1861 l
0.3445 0.1852 l
0.3494 0.1843 l
0.3544 0.1835 l
0.3595 0.1827 l
0.3646 0.1819 l
0.3699 0.1813 l
0.3752 0.1807 l
0.3806 0.1801 l
0.3861 0.1797 l
0.3917 0.1792 l
0.3973 0.1789 l
0.4031 0.1786 l
0.4089 0.1784 l
0.4149 0.1783 l
0.4209 0.1783 l
0.4270 0.1783 l
0.4332 0.1784 l
0.4395 0.1786 l
0.4459 0.1789 l
0.4523 0.1792 l
0.4589 0.1797 l
0.4656 0.1802 l
0.4723 0.1809 l
0.4792 0.1816 l
0.4862 0.1824 l
0.4932 0.1834 l
0.5004 0.1844 l
0.5076 0.1855 l
0.5150 0.1868 l
0.5224 0.1881 l
0.5300 0.1896 l
0.5376 0.1911 l
0.5454 0.1928 l
0.5532 0.1946 l
0.5612 0.1965 l
0.5692 0.1986 l
0.5774 0.2007 l
0.5857 0.2030 l
0.5940 0.2054 l
0.6025 0.2080 l
0.6111 0.2107 l
0.6198 0.2135 l
0.6286 0.2164 l
0.6376 0.2195 l
0.6466 0.2227 l
0.6557 0.2261 l
0.6650 0.2296 l
0.6743 0.2333 l
0.6838 0.2371 l
0.6934 0.2411 l
0.7031 0.2452 l
0.7129 0.2495 l
0.7229 0.2540 l
0.7329 0.2586 l
0.7431 0.2634 l
0.7534 0.2683 l
0.7638 0.2734 l
0.7743 0.2787 l
0.7849 0.2842 l
0.7957 0.2898 l
0.8066 0.2956 l
0.8176 0.3016 l
0.8287 0.3078 l
0.8399 0.3142 l
0.8513 0.3208 l
0.8628 0.3275 l
0.8744 0.3345 l
0.8862 0.3417 l
0.8981 0.3490 l
0.9101 0.3566 l
0.9222 0.3644 l
0.9344 0.3723 l
0.9468 0.3805 l
0.9593 0.3889 l
0.9720 0.3976 l
0.9848 0.4064 l
0.9977 0.4155 l
1.0107 0.4248 l
1.0239 0.4343 l
1.0372 0.4441 l
1.0506 0.4541 l
1.0642 0.4643 l
1.0779 0.4748 l
1.0918 0.4856 l
1.1058 0.4965 l
1.1199 0.5078 l
1.1341 0.5192 l
1.1485 0.5310 l
1.1501 0.5323 l
s
n
0.1500 0.2900 0.0081 0.0081 0 360 EARC c
fill
[] 0 SD
0.0015 SLW
n 0.1500 0.2900 0.0081 0.0081 0 360 EARC s
n
0.1501 0.2906 0.0081 0.0081 0 360 EARC c
fill
n 0.1501 0.2906 0.0081 0.0081 0 360 EARC s
n
0.1508 0.2911 0.0081 0.0081 0 360 EARC c
fill
n 0.1508 0.2911 0.0081 0.0081 0 360 EARC s
n
0.1525 0.2907 0.0081 0.0081 0 360 EARC c
fill
n 0.1525 0.2907 0.0081 0.0081 0 360 EARC s
n
0.1557 0.2883 0.0081 0.0081 0 360 EARC c
fill
n 0.1557 0.2883 0.0081 0.0081 0 360 EARC s
n
0.1610 0.2836 0.0081 0.0081 0 360 EARC c
fill
n 0.1610 0.2836 0.0081 0.0081 0 360 EARC s
n
0.1687 0.2763 0.0081 0.0081 0 360 EARC c
fill
n 0.1687 0.2763 0.0081 0.0081 0 360 EARC s
n
0.1795 0.2664 0.0081 0.0081 0 360 EARC c
fill
n 0.1795 0.2664 0.0081 0.0081 0 360 EARC s
n
0.1938 0.2542 0.0081 0.0081 0 360 EARC c
fill
n 0.1938 0.2542 0.0081 0.0081 0 360 EARC s
n
0.2121 0.2404 0.0081 0.0081 0 360 EARC c
fill
n 0.2121 0.2404 0.0081 0.0081 0 360 EARC s
n
0.2348 0.2257 0.0081 0.0081 0 360 EARC c
fill
n 0.2348 0.2257 0.0081 0.0081 0 360 EARC s
n
0.2626 0.2112 0.0081 0.0081 0 360 EARC c
fill
n 0.2626 0.2112 0.0081 0.0081 0 360 EARC s
n
0.2958 0.1979 0.0081 0.0081 0 360 EARC c
fill
n 0.2958 0.1979 0.0081 0.0081 0 360 EARC s
n
0.3350 0.1871 0.0081 0.0081 0 360 EARC c
fill
n 0.3350 0.1871 0.0081 0.0081 0 360 EARC s
n
0.3806 0.1801 0.0081 0.0081 0 360 EARC c
fill
n 0.3806 0.1801 0.0081 0.0081 0 360 EARC s
n
0.4332 0.1784 0.0081 0.0081 0 360 EARC c
fill
n 0.4332 0.1784 0.0081 0.0081 0 360 EARC s
n
0.4932 0.1834 0.0081 0.0081 0 360 EARC c
fill
n 0.4932 0.1834 0.0081 0.0081 0 360 EARC s
n
0.5612 0.1965 0.0081 0.0081 0 360 EARC c
fill
n 0.5612 0.1965 0.0081 0.0081 0 360 EARC s
n
0.6376 0.2195 0.0081 0.0081 0 360 EARC c
fill
n 0.6376 0.2195 0.0081 0.0081 0 360 EARC s
n
0.7229 0.2540 0.0081 0.0081 0 360 EARC c
fill
n 0.7229 0.2540 0.0081 0.0081 0 360 EARC s
n
0.8176 0.3016 0.0081 0.0081 0 360 EARC c
fill
n 0.8176 0.3016 0.0081 0.0081 0 360 EARC s
n
0.9222 0.3644 0.0081 0.0081 0 360 EARC c
fill
n 0.9222 0.3644 0.0081 0.0081 0 360 EARC s
n
1.0372 0.4441 0.0081 0.0081 0 360 EARC c
fill
n 1.0372 0.4441 0.0081 0.0081 0 360 EARC s
[/DeviceRGB] SCS
Color2 SC
[0.0150 0.0090 ] 0 SD
0.0030 SLW
n
0.1500 0.2900 m
0.1500 0.2900 l
0.1500 0.2901 l
0.1500 0.2901 l
0.1500 0.2902 l
0.1500 0.2902 l
0.1500 0.2903 l
0.1501 0.2904 l
0.1501 0.2905 l
0.1501 0.2906 l
0.1501 0.2907 l
0.1502 0.2907 l
0.1502 0.2908 l
0.1503 0.2909 l
0.1504 0.2910 l
0.1505 0.2910 l
0.1506 0.2911 l
0.1507 0.2911 l
0.1508 0.2911 l
0.1509 0.2911 l
0.1510 0.2911 l
0.1512 0.2911 l
0.1514 0.2911 l
0.1516 0.2910 l
0.1518 0.2910 l
0.1520 0.2909 l
0.1522 0.2908 l
0.1525 0.2906 l
0.1527 0.2905 l
0.1530 0.2903 l
0.1534 0.2901 l
0.1537 0.2898 l
0.1540 0.2896 l
0.1544 0.2893 l
0.1548 0.2890 l
0.1553 0.2886 l
0.1557 0.2882 l
0.1562 0.2878 l
0.1567 0.2874 l
0.1572 0.2869 l
0.1578 0.2864 l
0.1583 0.2859 l
0.1589 0.2853 l
0.1596 0.2847 l
0.1603 0.2840 l
0.1610 0.2834 l
0.1617 0.2827 l
0.1624 0.2819 l
0.1632 0.2811 l
0.1641 0.2803 l
0.1649 0.2795 l
0.1658 0.2786 l
0.1668 0.2777 l
0.1677 0.2767 l
0.1687 0.2757 l
0.1698 0.2747 l
0.1708 0.2737 l
0.1720 0.2726 l
0.1731 0.2714 l
0.1743 0.2703 l
0.1756 0.2691 l
0.1768 0.2679 l
0.1781 0.2666 l
0.1795 0.2653 l
0.1809 0.2640 l
0.1824 0.2627 l
0.1839 0.2613 l
0.1854 0.2599 l
0.1870 0.2585 l
0.1886 0.2570 l
0.1903 0.2556 l
0.1920 0.2541 l
0.1938 0.2525 l
0.1956 0.2510 l
0.1975 0.2494 l
0.1994 0.2478 l
0.2014 0.2462 l
0.2034 0.2446 l
0.2055 0.2429 l
0.2076 0.2413 l
0.2098 0.2396 l
0.2121 0.2379 l
0.2144 0.2362 l
0.2167 0.2345 l
0.2191 0.2328 l
0.2216 0.2311 l
0.2241 0.2293 l
0.2267 0.2276 l
0.2294 0.2259 l
0.2321 0.2241 l
0.2348 0.2224 l
0.2377 0.2207 l
0.2406 0.2190 l
0.2435 0.2173 l
0.2465 0.2156 l
0.2496 0.2139 l
0.2527 0.2122 l
0.2560 0.2106 l
0.2592 0.2089 l
0.2626 0.2073 l
0.2660 0.2057 l
0.2695 0.2042 l
0.2730 0.2026 l
0.2766 0.2011 l
0.2803 0.1996 l
0.2841 0.1982 l
0.2879 0.1968 l
0.2918 0.1954 l
0.2958 0.1941 l
0.2998 0.1928 l
0.3040 0.1916 l
0.3082 0.1904 l
0.3124 0.1893 l
0.3168 0.1882 l
0.3212 0.1872 l
0.3257 0.1863 l
0.3303 0.1854 l
0.3350 0.1846 l
0.3397 0.1839 l
0.3445 0.1832 l
0.3494 0.1826 l
0.3544 0.1821 l
0.3595 0.1817 l
0.3646 0.1813 l
0.3699 0.1811 l
0.3752 0.1809 l
0.3806 0.1809 l
0.3861 0.1809 l
0.3917 0.1810 l
0.3973 0.1813 l
0.4031 0.1816 l
0.4089 0.1821 l
0.4149 0.1827 l
0.4209 0.1834 l
0.4270 0.1842 l
0.4332 0.1851 l
0.4395 0.1862 l
0.4459 0.1874 l
0.4523 0.1888 l
0.4589 0.1903 l
0.4656 0.1919 l
0.4723 0.1937 l
0.4792 0.1956 l
0.4862 0.1977 l
0.4932 0.2000 l
0.5004 0.2024 l
0.5076 0.2050 l
0.5150 0.2077 l
0.5224 0.2106 l
0.5300 0.2138 l
0.5376 0.2170 l
0.5454 0.2205 l
0.5532 0.2242 l
0.5612 0.2281 l
0.5692 0.2321 l
0.5774 0.2364 l
0.5857 0.2409 l
0.5940 0.2455 l
0.6025 0.2504 l
0.6111 0.2556 l
0.6198 0.2609 l
0.6286 0.2665 l
0.6376 0.2723 l
0.6466 0.2783 l
0.6557 0.2846 l
0.6650 0.2912 l
0.6743 0.2980 l
0.6838 0.3050 l
0.6934 0.3123 l
0.7031 0.3199 l
0.7129 0.3277 l
0.7229 0.3358 l
0.7329 0.3442 l
0.7431 0.3528 l
0.7534 0.3618 l
0.7638 0.3710 l
0.7743 0.3806 l
0.7849 0.3904 l
0.7957 0.4006 l
0.8066 0.4110 l
0.8176 0.4218 l
0.8287 0.4329 l
0.8399 0.4443 l
0.8513 0.4561 l
0.8628 0.4682 l
0.8744 0.4806 l
0.8862 0.4933 l
0.8981 0.5065 l
0.9101 0.5199 l
0.9222 0.5338 l
0.9344 0.5480 l
0.9468 0.5625 l
0.9593 0.5775 l
0.9720 0.5928 l
0.9848 0.6085 l
0.9977 0.6246 l
1.0107 0.6411 l
1.0239 0.6580 l
1.0372 0.6753 l
1.0506 0.6930 l
1.0642 0.7111 l
1.0779 0.7296 l
1.0918 0.7486 l
1.1058 0.7680 l
1.1199 0.7879 l
1.1341 0.8081 l
1.1485 0.8289 l
1.1501 0.8311 l
s
[/DeviceRGB] SCS
Color4 SC
[0.0030 0.0090 ] 0 SD
0.0030 SLW
n
0.1500 0.2900 m
0.1500 0.2900 l
0.1500 0.2901 l
0.1500 0.2901 l
0.1500 0.2902 l
0.1500 0.2902 l
0.1500 0.2903 l
0.1501 0.2904 l
0.1501 0.2905 l
0.1501 0.2906 l
0.1501 0.2907 l
0.1502 0.2907 l
0.1502 0.2908 l
0.1503 0.2909 l
0.1504 0.2910 l
0.1505 0.2910 l
0.1506 0.2911 l
0.1507 0.2911 l
0.1508 0.2911 l
0.1509 0.2912 l
0.1510 0.2912 l
0.1512 0.2911 l
0.1514 0.2911 l
0.1516 0.2911 l
0.1518 0.2910 l
0.1520 0.2909 l
0.1522 0.2908 l
0.1525 0.2907 l
0.1527 0.2905 l
0.1530 0.2903 l
0.1534 0.2901 l
0.1537 0.2899 l
0.1540 0.2896 l
0.1544 0.2894 l
0.1548 0.2890 l
0.1553 0.2887 l
0.1557 0.2883 l
0.1562 0.2879 l
0.1567 0.2875 l
0.1572 0.2870 l
0.1578 0.2866 l
0.1583 0.2860 l
0.1589 0.2855 l
0.1596 0.2849 l
0.1603 0.2843 l
0.1610 0.2836 l
0.1617 0.2830 l
0.1624 0.2822 l
0.1632 0.2815 l
0.1641 0.2807 l
0.1649 0.2799 l
0.1658 0.2791 l
0.1668 0.2782 l
0.1677 0.2773 l
0.1687 0.2763 l
0.1698 0.2754 l
0.1708 0.2744 l
0.1720 0.2733 l
0.1731 0.2723 l
0.1743 0.2712 l
0.1756 0.2701 l
0.1768 0.2689 l
0.1781 0.2678 l
0.1795 0.2665 l
0.1809 0.2653 l
0.1824 0.2641 l
0.1839 0.2628 l
0.1854 0.2615 l
0.1870 0.2602 l
0.1886 0.2588 l
0.1903 0.2574 l
0.1920 0.2561 l
0.1938 0.2546 l
0.1956 0.2532 l
0.1975 0.2518 l
0.1994 0.2503 l
0.2014 0.2489 l
0.2034 0.2474 l
0.2055 0.2459 l
0.2076 0.2444 l
0.2098 0.2429 l
0.2121 0.2413 l
0.2144 0.2398 l
0.2167 0.2383 l
0.2191 0.2367 l
0.2216 0.2352 l
0.2241 0.2337 l
0.2267 0.2321 l
0.2294 0.2306 l
0.2321 0.2291 l
0.2348 0.2275 l
0.2377 0.2260 l
0.2406 0.2245 l
0.2435 0.2230 l
0.2465 0.2216 l
0.2496 0.2201 l
0.2527 0.2187 l
0.2560 0.2172 l
0.2592 0.2158 l
0.2626 0.2145 l
0.2660 0.2131 l
0.2695 0.2118 l
0.2730 0.2105 l
0.2766 0.2092 l
0.2803 0.2080 l
0.2841 0.2068 l
0.2879 0.2057 l
0.2918 0.2046 l
0.2958 0.2035 l
0.2998 0.2025 l
0.3040 0.2015 l
0.3082 0.2006 l
0.3124 0.1997 l
0.3168 0.1989 l
0.3212 0.1981 l
0.3257 0.1974 l
0.3303 0.1967 l
0.3350 0.1962 l
0.3397 0.1956 l
0.3445 0.1952 l
0.3494 0.1948 l
0.3544 0.1945 l
0.3595 0.1943 l
0.3646 0.1941 l
0.3699 0.1941 l
0.3752 0.1941 l
0.3806 0.1942 l
0.3861 0.1944 l
0.3917 0.1947 l
0.3973 0.1950 l
0.4031 0.1955 l
0.4089 0.1961 l
0.4149 0.1967 l
0.4209 0.1975 l
0.4270 0.1984 l
0.4332 0.1994 l
0.4395 0.2005 l
0.4459 0.2017 l
0.4523 0.2030 l
0.4589 0.2045 l
0.4656 0.2061 l
0.4723 0.2078 l
0.4792 0.2096 l
0.4862 0.2116 l
0.4932 0.2137 l
0.5004 0.2159 l
0.5076 0.2183 l
0.5150 0.2208 l
0.5224 0.2234 l
0.5300 0.2263 l
0.5376 0.2292 l
0.5454 0.2323 l
0.5532 0.2356 l
0.5612 0.2390 l
0.5692 0.2426 l
0.5774 0.2464 l
0.5857 0.2503 l
0.5940 0.2544 l
0.6025 0.2587 l
0.6111 0.2632 l
0.6198 0.2678 l
0.6286 0.2726 l
0.6376 0.2776 l
0.6466 0.2828 l
0.6557 0.2882 l
0.6650 0.2938 l
0.6743 0.2996 l
0.6838 0.3055 l
0.6934 0.3117 l
0.7031 0.3181 l
0.7129 0.3247 l
0.7229 0.3316 l
0.7329 0.3386 l
0.7431 0.3459 l
0.7534 0.3534 l
0.7638 0.3611 l
0.7743 0.3691 l
0.7849 0.3772 l
0.7957 0.3857 l
0.8066 0.3943 l
0.8176 0.4032 l
0.8287 0.4124 l
0.8399 0.4218 l
0.8513 0.4315 l
0.8628 0.4414 l
0.8744 0.4516 l
0.8862 0.4620 l
0.8981 0.4728 l
0.9101 0.4838 l
0.9222 0.4950 l
0.9344 0.5066 l
0.9468 0.5184 l
0.9593 0.5305 l
0.9720 0.5429 l
0.9848 0.5556 l
0.9977 0.5686 l
1.0107 0.5819 l
1.0239 0.5955 l
1.0372 0.6095 l
1.0506 0.6237 l
1.0642 0.6382 l
1.0779 0.6531 l
1.0918 0.6683 l
1.1058 0.6838 l
1.1199 0.6997 l
1.1341 0.7159 l
1.1485 0.7324 l
1.1501 0.7342 l
s
[/DeviceRGB] SCS
Color9 SC
[] 0 SD
0.0030 SLW
n
0.1500 0.2900 m
0.1500 0.2900 l
0.1500 0.2901 l
0.1500 0.2901 l
0.1500 0.2902 l
0.1500 0.2902 l
0.1500 0.2903 l
0.1501 0.2904 l
0.1501 0.2905 l
0.1501 0.2906 l
0.1501 0.2907 l
0.1502 0.2907 l
0.1502 0.2908 l
0.1503 0.2909 l
0.1504 0.2910 l
0.1505 0.2910 l
0.1506 0.2911 l
0.1507 0.2911 l
0.1508 0.2911 l
0.1509 0.2912 l
0.1510 0.2912 l
0.1512 0.2911 l
0.1514 0.2911 l
0.1516 0.2911 l
0.1518 0.2910 l
0.1520 0.2909 l
0.1522 0.2908 l
0.1525 0.2907 l
0.1527 0.2905 l
0.1530 0.2903 l
0.1534 0.2901 l
0.1537 0.2899 l
0.1540 0.2896 l
0.1544 0.2894 l
0.1548 0.2890 l
0.1553 0.2887 l
0.1557 0.2883 l
0.1562 0.2879 l
0.1567 0.2875 l
0.1572 0.2870 l
0.1578 0.2866 l
0.1583 0.2860 l
0.1589 0.2855 l
0.1596 0.2849 l
0.1603 0.2843 l
0.1610 0.2836 l
0.1617 0.2829 l
0.1624 0.2822 l
0.1632 0.2815 l
0.1641 0.2807 l
0.1649 0.2799 l
0.1658 0.2790 l
0.1668 0.2781 l
0.1677 0.2772 l
0.1687 0.2763 l
0.1698 0.2753 l
0.1708 0.2743 l
0.1720 0.2732 l
0.1731 0.2722 l
0.1743 0.2711 l
0.1756 0.2699 l
0.1768 0.2688 l
0.1781 0.2676 l
0.1795 0.2664 l
0.1809 0.2651 l
0.1824 0.2638 l
0.1839 0.2625 l
0.1854 0.2612 l
0.1870 0.2599 l
0.1886 0.2585 l
0.1903 0.2571 l
0.1920 0.2557 l
0.1938 0.2542 l
0.1956 0.2527 l
0.1975 0.2513 l
0.1994 0.2497 l
0.2014 0.2482 l
0.2034 0.2467 l
0.2055 0.2451 l
0.2076 0.2436 l
0.2098 0.2420 l
0.2121 0.2404 l
0.2144 0.2388 l
0.2167 0.2371 l
0.2191 0.2355 l
0.2216 0.2339 l
0.2241 0.2322 l
0.2267 0.2306 l
0.2294 0.2290 l
0.2321 0.2273 l
0.2348 0.2257 l
0.2377 0.2240 l
0.2406 0.2224 l
0.2435 0.2207 l
0.2465 0.2191 l
0.2496 0.2174 l
0.2527 0.2158 l
0.2560 0.2142 l
0.2592 0.2126 l
0.2626 0.2110 l
0.2660 0.2094 l
0.2695 0.2079 l
0.2730 0.2063 l
0.2766 0.2048 l
0.2803 0.2033 l
0.2841 0.2018 l
0.2879 0.2004 l
0.2918 0.1989 l
0.2958 0.1975 l
0.2998 0.1962 l
0.3040 0.1948 l
0.3082 0.1935 l
0.3124 0.1922 l
0.3168 0.1910 l
0.3212 0.1898 l
0.3257 0.1886 l
0.3303 0.1875 l
0.3350 0.1865 l
0.3397 0.1854 l
0.3445 0.1844 l
0.3494 0.1835 l
0.3544 0.1826 l
0.3595 0.1818 l
0.3646 0.1810 l
0.3699 0.1803 l
0.3752 0.1796 l
0.3806 0.1790 l
0.3861 0.1785 l
0.3917 0.1780 l
0.3973 0.1776 l
0.4031 0.1772 l
0.4089 0.1769 l
0.4149 0.1767 l
0.4209 0.1766 l
0.4270 0.1765 l
0.4332 0.1765 l
0.4395 0.1766 l
0.4459 0.1768 l
0.4523 0.1770 l
0.4589 0.1774 l
0.4656 0.1778 l
0.4723 0.1783 l
0.4792 0.1789 l
0.4862 0.1796 l
0.4932 0.1804 l
0.5004 0.1812 l
0.5076 0.1822 l
0.5150 0.1833 l
0.5224 0.1845 l
0.5300 0.1858 l
0.5376 0.1871 l
0.5454 0.1886 l
0.5532 0.1902 l
0.5612 0.1920 l
0.5692 0.1938 l
0.5774 0.1957 l
0.5857 0.1978 l
0.5940 0.2000 l
0.6025 0.2023 l
0.6111 0.2047 l
0.6198 0.2073 l
0.6286 0.2100 l
0.6376 0.2128 l
0.6466 0.2157 l
0.6557 0.2188 l
0.6650 0.2220 l
0.6743 0.2254 l
0.6838 0.2289 l
0.6934 0.2326 l
0.7031 0.2364 l
0.7129 0.2403 l
0.7229 0.2444 l
0.7329 0.2486 l
0.7431 0.2530 l
0.7534 0.2576 l
0.7638 0.2623 l
0.7743 0.2672 l
0.7849 0.2722 l
0.7957 0.2775 l
0.8066 0.2828 l
0.8176 0.2884 l
0.8287 0.2941 l
0.8399 0.3000 l
0.8513 0.3061 l
0.8628 0.3124 l
0.8744 0.3188 l
0.8862 0.3255 l
0.8981 0.3323 l
0.9101 0.3393 l
0.9222 0.3466 l
0.9344 0.3540 l
0.9468 0.3616 l
0.9593 0.3694 l
0.9720 0.3774 l
0.9848 0.3857 l
0.9977 0.3941 l
1.0107 0.4028 l
1.0239 0.4117 l
1.0372 0.4208 l
1.0506 0.4301 l
1.0642 0.4396 l
1.0779 0.4494 l
1.0918 0.4594 l
1.1058 0.4697 l
1.1199 0.4802 l
1.1341 0.4909 l
1.1485 0.5019 l
1.1501 0.5031 l
s
[/DeviceRGB] SCS
Color8 SC
[0.0037 0.0112 0.0262 0.0112 ] 0 SD
0.0037 SLW
n
0.1500 0.2776 m
0.1500 0.2900 l
0.1500 0.2900 l
0.1500 0.2901 l
0.1500 0.2902 l
0.1500 0.2902 l
0.1500 0.2903 l
0.1501 0.2904 l
0.1501 0.2905 l
0.1501 0.2906 l
0.1501 0.2907 l
0.1502 0.2907 l
0.1502 0.2908 l
0.1503 0.2909 l
0.1504 0.2910 l
0.1505 0.2910 l
0.1506 0.2911 l
0.1507 0.2911 l
0.1508 0.2911 l
0.1509 0.2912 l
0.1510 0.2912 l
0.1512 0.2911 l
0.1514 0.2911 l
0.1516 0.2911 l
0.1518 0.2910 l
0.1520 0.2909 l
0.1522 0.2908 l
0.1525 0.2907 l
0.1527 0.2905 l
0.1530 0.2903 l
0.1534 0.2901 l
0.1537 0.2899 l
0.1540 0.2896 l
0.1544 0.2894 l
0.1548 0.2890 l
0.1553 0.2887 l
0.1557 0.2883 l
0.1562 0.2879 l
0.1567 0.2875 l
0.1572 0.2870 l
0.1578 0.2866 l
0.1583 0.2860 l
0.1589 0.2855 l
0.1596 0.2849 l
0.1603 0.2843 l
0.1610 0.2836 l
0.1617 0.2829 l
0.1624 0.2822 l
0.1632 0.2815 l
0.1641 0.2807 l
0.1649 0.2799 l
0.1658 0.2790 l
0.1668 0.2781 l
0.1677 0.2772 l
0.1687 0.2763 l
0.1698 0.2753 l
0.1708 0.2743 l
0.1720 0.2733 l
0.1731 0.2722 l
0.1743 0.2711 l
0.1756 0.2699 l
0.1768 0.2688 l
0.1781 0.2676 l
0.1795 0.2664 l
0.1809 0.2651 l
0.1824 0.2638 l
0.1839 0.2625 l
0.1854 0.2612 l
0.1870 0.2599 l
0.1886 0.2585 l
0.1903 0.2571 l
0.1920 0.2557 l
0.1938 0.2542 l
0.1956 0.2528 l
0.1975 0.2513 l
0.1994 0.2498 l
0.2014 0.2482 l
0.2034 0.2467 l
0.2055 0.2452 l
0.2076 0.2436 l
0.2098 0.2420 l
0.2121 0.2404 l
0.2144 0.2388 l
0.2167 0.2372 l
0.2191 0.2356 l
0.2216 0.2339 l
0.2241 0.2323 l
0.2267 0.2307 l
0.2294 0.2290 l
0.2321 0.2274 l
0.2348 0.2257 l
0.2377 0.2241 l
0.2406 0.2225 l
0.2435 0.2208 l
0.2465 0.2192 l
0.2496 0.2176 l
0.2527 0.2160 l
0.2560 0.2144 l
0.2592 0.2128 l
0.2626 0.2112 l
0.2660 0.2096 l
0.2695 0.2081 l
0.2730 0.2066 l
0.2766 0.2051 l
0.2803 0.2036 l
0.2841 0.2021 l
0.2879 0.2007 l
0.2918 0.1993 l
0.2958 0.1979 l
0.2998 0.1966 l
0.3040 0.1953 l
0.3082 0.1940 l
0.3124 0.1928 l
0.3168 0.1916 l
0.3212 0.1904 l
0.3257 0.1893 l
0.3303 0.1882 l
0.3350 0.1872 l
0.3397 0.1862 l
0.3445 0.1853 l
0.3494 0.1844 l
0.3544 0.1835 l
0.3595 0.1828 l
0.3646 0.1821 l
0.3699 0.1814 l
0.3752 0.1808 l
0.3806 0.1803 l
0.3861 0.1798 l
0.3917 0.1794 l
0.3973 0.1791 l
0.4031 0.1788 l
0.4089 0.1786 l
0.4149 0.1785 l
0.4209 0.1785 l
0.4270 0.1785 l
0.4332 0.1787 l
0.4395 0.1789 l
0.4459 0.1792 l
0.4523 0.1796 l
0.4589 0.1800 l
0.4656 0.1806 l
0.4723 0.1813 l
0.4792 0.1820 l
0.4862 0.1829 l
0.4932 0.1838 l
0.5004 0.1849 l
0.5076 0.1861 l
0.5150 0.1873 l
0.5224 0.1887 l
0.5300 0.1902 l
0.5376 0.1918 l
0.5454 0.1935 l
0.5532 0.1954 l
0.5612 0.1973 l
0.5692 0.1994 l
0.5774 0.2016 l
0.5857 0.2040 l
0.5940 0.2065 l
0.6025 0.2091 l
0.6111 0.2118 l
0.6198 0.2147 l
0.6286 0.2177 l
0.6376 0.2209 l
0.6466 0.2242 l
0.6557 0.2276 l
0.6650 0.2312 l
0.6743 0.2350 l
0.6838 0.2389 l
0.6934 0.2429 l
0.7031 0.2472 l
0.7129 0.2516 l
0.7229 0.2561 l
0.7329 0.2608 l
0.7431 0.2657 l
0.7534 0.2708 l
0.7638 0.2760 l
0.7743 0.2814 l
0.7849 0.2870 l
0.7957 0.2928 l
0.8066 0.2988 l
0.8176 0.3049 l
0.8287 0.3113 l
0.8399 0.3178 l
0.8513 0.3246 l
0.8628 0.3315 l
0.8744 0.3387 l
0.8862 0.3460 l
0.8981 0.3536 l
0.9101 0.3613 l
0.9222 0.3693 l
0.9344 0.3775 l
0.9468 0.3859 l
0.9593 0.3946 l
0.9720 0.4035 l
0.9848 0.4126 l
0.9977 0.4219 l
1.0107 0.4315 l
1.0239 0.4413 l
1.0372 0.4514 l
1.0506 0.4617 l
1.0642 0.4722 l
1.0779 0.4830 l
1.0918 0.4941 l
1.1058 0.5054 l
1.1199 0.5170 l
1.1341 0.5288 l
1.1485 0.5409 l
1.1501 0.5422 l
s
[/DeviceRGB] SCS
Color1 SC
[] 0 SD
0.0045 SLW
n
0.1500 0.1500 m
1.1500 0.1500 l
s
n
0.1500 0.8500 m
1.1500 0.8500 l
s
n
0.2333 0.1500 m
0.2333 0.1600 l
s
n
0.2333 0.8500 m
0.2333 0.8400 l
s
n
0.4000 0.1500 m
0.4000 0.1600 l
s
n
0.4000 0.8500 m
0.4000 0.8400 l
s
n
0.5667 0.1500 m
0.5667 0.1600 l
s
n
0.5667 0.8500 m
0.5667 0.8400 l
s
n
0.7333 0.1500 m
0.7333 0.1600 l
s
n
0.7333 0.8500 m
0.7333 0.8400 l
s
n
0.9000 0.1500 m
0.9000 0.1600 l
s
n
0.9000 0.8500 m
0.9000 0.8400 l
s
n
1.0667 0.1500 m
1.0667 0.1600 l
s
n
1.0667 0.8500 m
1.0667 0.8400 l
s
n
0.1500 0.1500 m
0.1500 0.1700 l
s
n
0.1500 0.8500 m
0.1500 0.8300 l
s
n
0.3167 0.1500 m
0.3167 0.1700 l
s
n
0.3167 0.8500 m
0.3167 0.8300 l
s
n
0.4833 0.1500 m
0.4833 0.1700 l
s
n
0.4833 0.8500 m
0.4833 0.8300 l
s
n
0.6500 0.1500 m
0.6500 0.1700 l
s
n
0.6500 0.8500 m
0.6500 0.8300 l
s
n
0.8167 0.1500 m
0.8167 0.1700 l
s
n
0.8167 0.8500 m
0.8167 0.8300 l
s
n
0.9833 0.1500 m
0.9833 0.1700 l
s
n
0.9833 0.8500 m
0.9833 0.8300 l
s
/Times-Roman findfont
dup length dict begin
 {1 index /FID ne {def} {pop pop} ifelse} forall
 /Encoding DefEncoding def
 currentdict
end
/Font0 exch definefont pop
/Font0 FFSF
0.1394 0.1094 m
GS
[0.0448 0.0000 0.0000 0.0448 0 0] CC
(0) show
GR
/Font0 FFSF
0.2910 0.1094 m
GS
[0.0448 0.0000 0.0000 0.0448 0 0] CC
(0.1) show
GR
/Font0 FFSF
0.4559 0.1094 m
GS
[0.0448 0.0000 0.0000 0.0448 0 0] CC
(0.2) show
GR
/Font0 FFSF
0.6233 0.1094 m
GS
[0.0448 0.0000 0.0000 0.0448 0 0] CC
(0.3) show
GR
/Font0 FFSF
0.7892 0.1094 m
GS
[0.0448 0.0000 0.0000 0.0448 0 0] CC
(0.4) show
GR
/Font0 FFSF
0.9567 0.1090 m
GS
[0.0448 0.0000 0.0000 0.0448 0 0] CC
(0.5) show
GR
/Symbol findfont
/Font12 exch definefont pop
/Font12 FFSF
0.5722 0.0441 m
GS
[0.0504 0.0000 0.0000 0.0504 0 0] CC
(r) show
GR
/Font0 FFSF
0.6000 0.0441 m
GS
[0.0504 0.0000 0.0000 0.0504 0 0] CC
( [fm) show
GR
/Font0 FFSF
0.6855 0.0743 m
GS
[0.0356 0.0000 0.0000 0.0356 0 0] CC
(-3) show
GR
/Font0 FFSF
0.7153 0.0441 m
GS
[0.0504 0.0000 0.0000 0.0504 0 0] CC
(]) show
GR
n
0.1500 0.1500 m
0.1500 0.8500 l
s
n
1.1500 0.1500 m
1.1500 0.8500 l
s
n
0.1500 0.2200 m
0.1600 0.2200 l
s
n
1.1500 0.2200 m
1.1400 0.2200 l
s
n
0.1500 0.3600 m
0.1600 0.3600 l
s
n
1.1500 0.3600 m
1.1400 0.3600 l
s
n
0.1500 0.5000 m
0.1600 0.5000 l
s
n
1.1500 0.5000 m
1.1400 0.5000 l
s
n
0.1500 0.6400 m
0.1600 0.6400 l
s
n
1.1500 0.6400 m
1.1400 0.6400 l
s
n
0.1500 0.7800 m
0.1600 0.7800 l
s
n
1.1500 0.7800 m
1.1400 0.7800 l
s
n
0.1500 0.1500 m
0.1700 0.1500 l
s
n
1.1500 0.1500 m
1.1300 0.1500 l
s
n
0.1500 0.2900 m
0.1700 0.2900 l
s
n
1.1500 0.2900 m
1.1300 0.2900 l
s
n
0.1500 0.4300 m
0.1700 0.4300 l
s
n
1.1500 0.4300 m
1.1300 0.4300 l
s
n
0.1500 0.5700 m
0.1700 0.5700 l
s
n
1.1500 0.5700 m
1.1300 0.5700 l
s
n
0.1500 0.7100 m
0.1700 0.7100 l
s
n
1.1500 0.7100 m
1.1300 0.7100 l
s
n
0.1500 0.8500 m
0.1700 0.8500 l
s
n
1.1500 0.8500 m
1.1300 0.8500 l
s
/Font0 FFSF
0.0816 0.1351 m
GS
[0.0448 0.0000 0.0000 0.0448 0 0] CC
(-20) show
GR
/Font0 FFSF
0.1188 0.2751 m
GS
[0.0448 0.0000 0.0000 0.0448 0 0] CC
(0) show
GR
/Font0 FFSF
0.0965 0.4151 m
GS
[0.0448 0.0000 0.0000 0.0448 0 0] CC
(20) show
GR
/Font0 FFSF
0.0965 0.5551 m
GS
[0.0448 0.0000 0.0000 0.0448 0 0] CC
(40) show
GR
/Font0 FFSF
0.0965 0.6951 m
GS
[0.0448 0.0000 0.0000 0.0448 0 0] CC
(60) show
GR
/Font0 FFSF
0.0965 0.8351 m
GS
[0.0448 0.0000 0.0000 0.0448 0 0] CC
(80) show
GR
/Font0 FFSF
0.0637 0.3867 m
GS
[0.0000 0.0504 -0.0504 0.0000 0 0] CC
(E/A [MeV]) show
GR
[] 0 SD
0.0015 SLW
n
0.1500 0.1500 m
0.1500 0.8500 l
1.1500 0.8500 l
1.1500 0.1500 l
0.1500 0.1500 l
c
s
n
0.1500 0.8500 m
0.1500 0.6175 l
0.5632 0.6175 l
0.5632 0.8500 l
c
[/DeviceRGB] SCS
Color0 SC
fill
[/DeviceRGB] SCS
Color1 SC
[] 0 SD
0.0045 SLW
n
0.1500 0.8500 m
0.1500 0.6175 l
0.5632 0.6175 l
0.5632 0.8500 l
0.1500 0.8500 l
c
s
/Font0 FFSF
0.2288 0.8063 m
GS
[0.0498 0.0000 0.0000 0.0498 0 0] CC
(D1S) show
GR
[] 0 SD
0.0030 SLW
n
0.1689 0.8227 m
0.2089 0.8227 l
s
n
0.1689 0.8227 0.0081 0.0081 0 360 EARC c
fill
[] 0 SD
0.0015 SLW
n 0.1689 0.8227 0.0081 0.0081 0 360 EARC s
n
0.2089 0.8227 0.0081 0.0081 0 360 EARC c
fill
n 0.2089 0.8227 0.0081 0.0081 0 360 EARC s
/Font0 FFSF
0.2288 0.7618 m
GS
[0.0498 0.0000 0.0000 0.0498 0 0] CC
(S-wave) show
GR
[/DeviceRGB] SCS
Color2 SC
[0.0150 0.0090 ] 0 SD
0.0030 SLW
n
0.1689 0.7782 m
0.2089 0.7782 l
s
/Font0 FFSF
[/DeviceRGB] SCS
Color1 SC
0.2288 0.7173 m
GS
[0.0498 0.0000 0.0000 0.0498 0 0] CC
(S+P-wave) show
GR
[/DeviceRGB] SCS
Color4 SC
[0.0030 0.0090 ] 0 SD
0.0030 SLW
n
0.1689 0.7337 m
0.2089 0.7337 l
s
/Font0 FFSF
[/DeviceRGB] SCS
Color1 SC
0.2288 0.6727 m
GS
[0.0498 0.0000 0.0000 0.0498 0 0] CC
(S+P+D-wave) show
GR
[/DeviceRGB] SCS
Color9 SC
[] 0 SD
0.0030 SLW
n
0.1689 0.6892 m
0.2089 0.6892 l
s
/Font0 FFSF
[/DeviceRGB] SCS
Color1 SC
0.2288 0.6282 m
GS
[0.0498 0.0000 0.0000 0.0498 0 0] CC
(S+P+D+F-wave) show
GR
[/DeviceRGB] SCS
Color8 SC
[0.0037 0.0112 0.0262 0.0112 ] 0 SD
0.0037 SLW
n
0.1689 0.6447 m
0.2089 0.6447 l
s
[/DeviceRGB] SCS
Color1 SC
[] 0 SD
0.0015 SLW
n
0.3752 0.8497 m
0.3725 0.8458 l
s
showpage
%%PageTrailer
%%Trailer
%%DocumentNeededResources: font Times-Roman
%%+ font Symbol
%%EOF
