%!PS-Adobe-3.0
%%BoundingBox: 0 0 612 792
%%LanguageLevel: 2
%%Creator: Grace-5.1.25
%%CreationDate: Tue Dec  1 10:55:01 2015
%%DocumentData: Clean8Bit
%%Orientation: Landscape
%%Pages: 1
%%PageOrder: Ascend
%%Title: /Users/ap1450/Dropbox/Physics_Reports_LR/ST_channel_finite_range/Vers2/plots/JLS_nakada3.agr
%%For: ap1450
%%DocumentNeededResources: (atend)
%%EndComments
%%BeginProlog
/PAGE_OFFSET_X 0 def
/PAGE_OFFSET_Y 0 def
/m {moveto} def
/l {lineto} def
/s {stroke} def
/n {newpath} def
/c {closepath} def
/RL {rlineto} def
/SLW {setlinewidth} def
/GS {gsave} def
/GR {grestore} def
/SC {setcolor} def
/SGRY {setgray} def
/SRGB {setrgbcolor} def
/SD {setdash} def
/SLC {setlinecap} def
/SLJ {setlinejoin} def
/SCS {setcolorspace} def
/FFSF {findfont setfont} def
/CC {concat} def
/PXL {n m 0 0 RL s} def
/Color0 {1.0000 1.0000 1.0000} def
/Color1 {0.0000 0.0000 0.0000} def
/Color2 {1.0000 0.0000 0.0000} def
/Color3 {0.0000 1.0000 0.0000} def
/Color4 {0.0000 0.0000 1.0000} def
/Color5 {1.0000 1.0000 0.0000} def
/Color6 {0.7373 0.5608 0.5608} def
/Color7 {0.8627 0.8627 0.8627} def
/Color8 {0.5804 0.0000 0.8275} def
/Color9 {0.0000 1.0000 1.0000} def
/Color10 {1.0000 0.0000 1.0000} def
/Color11 {1.0000 0.6471 0.0000} def
/Color12 {0.4471 0.1294 0.7373} def
/Color13 {0.4039 0.0275 0.2824} def
/Color14 {0.2510 0.8784 0.8157} def
/Color15 {0.0000 0.5451 0.0000} def
/Color16 {0.7529 0.7529 0.7529} def
/Color17 {0.5059 0.5059 0.5059} def
/Color18 {0.2588 0.2588 0.2588} def
/PTRN {
 /pat_bits exch def 
 <<
  /PaintType 2
  /PatternType 1 /TilingType 1
  /BBox[0 0 16 16]
  /XStep 16 /YStep 16
  /PaintProc {
   pop
   16 16 true [-1 0 0 -1 16 16] pat_bits imagemask
  }
 >>
 [0.0016 0 0 0.0016 0 0]
 makepattern
} def
/Pattern0 {<0000000000000000000000000000000000000000000000000000000000000000> PTRN} bind def
/Pattern1 {<ffffffffffffffffffffffffffffffffffffffffffffffffffffffffffffffff> PTRN} bind def
/Pattern2 {<eeeeffffbbbbffffeeeeffffbbbbffffeeeeffffbbbbffffeeeeffffbbbbffff> PTRN} bind def
/Pattern3 {<eeeebbbbeeeebbbbeeeebbbbeeeebbbbeeeebbbbeeeebbbbeeeebbbbeeeebbbb> PTRN} bind def
/Pattern4 {<5555aaaa5555aaaa5555aaaa5555aaaa5555aaaa5555aaaa5555aaaa5555aaaa> PTRN} bind def
/Pattern5 {<1111444411114444111144441111444411114444111144441111444411114444> PTRN} bind def
/Pattern6 {<1111000044440000111100004444000011110000444400001111000044440000> PTRN} bind def
/Pattern7 {<1010000000000000010100000000000010100000000000000101000000000000> PTRN} bind def
/Pattern8 {<0000000000000000000000000000000000000000000000000000000000000000> PTRN} bind def
/Pattern9 {<1e1e0f0f8787c3c3e1e1f0f078783c3c1e1e0f0f8787c3c3e1e1f0f078783c3c> PTRN} bind def
/Pattern10 {<7878f0f0e1e1c3c387870f0f1e1e3c3c7878f0f0e1e1c3c387870f0f1e1e3c3c> PTRN} bind def
/Pattern11 {<3333333333333333333333333333333333333333333333333333333333333333> PTRN} bind def
/Pattern12 {<ffffffff00000000ffffffff00000000ffffffff00000000ffffffff00000000> PTRN} bind def
/Pattern13 {<8181424224241818181824244242818181814242242418181818242442428181> PTRN} bind def
/Pattern14 {<8080404020201010080804040202010180804040202010100808040402020101> PTRN} bind def
/Pattern15 {<0101020204040808101020204040808001010202040408081010202040408080> PTRN} bind def
/Pattern16 {<2222222222222222222222222222222222222222222222222222222222222222> PTRN} bind def
/Pattern17 {<0000ffff000000000000ffff000000000000ffff000000000000ffff00000000> PTRN} bind def
/Pattern18 {<2222ffff222222222222ffff222222222222ffff222222222222ffff22222222> PTRN} bind def
/Pattern19 {<ffffffff33333333ffffffff33333333ffffffff33333333ffffffff33333333> PTRN} bind def
/Pattern20 {<0f0f0f0f0f0f0f0ff0f0f0f0f0f0f0f00f0f0f0f0f0f0f0ff0f0f0f0f0f0f0f0> PTRN} bind def
/Pattern21 {<ff00ff00ff00ff00ff00ff00ff00ff0000ff00ff00ff00ff00ff00ff00ff00ff> PTRN} bind def
/Pattern22 {<8001800180018001800180018001ffffffff8001800180018001800180018001> PTRN} bind def
/Pattern23 {<c003c003c003c003c003c003ffffffffffffffffc003c003c003c003c003c003> PTRN} bind def
/Pattern24 {<040404040404ffff404040404040ffff040404040404ffff404040404040ffff> PTRN} bind def
/Pattern25 {<180018001800180018001800ffffffff001800180018001800180018ffffffff> PTRN} bind def
/Pattern26 {<1111b8b87c7c3a3a1111a3a3c7c78b8b1111b8b87c7c3a3a1111a3a3c7c78b8b> PTRN} bind def
/Pattern27 {<101010102828c7c70101010182827c7c101010102828c7c70101010182827c7c> PTRN} bind def
/Pattern28 {<1c1c121211112121c1c12121111112121c1c121211112121c1c1212111111212> PTRN} bind def
/Pattern29 {<3e3e414180808080e3e31414080808083e3e414180808080e3e3141408080808> PTRN} bind def
/Pattern30 {<4848888884848383848488884848383848488888848483838484888848483838> PTRN} bind def
/Pattern31 {<03030404080808080c0c12122121c0c003030404080808080c0c12122121c0c0> PTRN} bind def
/ellipsedict 8 dict def
ellipsedict /mtrx matrix put
/EARC {
 ellipsedict begin
  /endangle exch def
  /startangle exch def
  /yrad exch def
  /xrad exch def
  /y exch def
  /x exch def
  /savematrix mtrx currentmatrix def
  x y translate
  xrad yrad scale
  0 0 1 startangle endangle arc
  savematrix setmatrix
 end
} def
/TL {
  /kcomp exch def
  /linewidth exch def
  /offset exch def
  GS
  0 offset rmoveto
  linewidth SLW
  dup stringwidth exch kcomp add exch RL s
  GR
} def
/KINIT
{
 /kvector exch def
 /kid 0 def
} def
/KPROC
{
 pop pop
 kvector kid get
 0 rmoveto
 /kid 1 kid add def
} def
/DefEncoding [
 /.notdef
 /.notdef
 /.notdef
 /.notdef
 /.notdef
 /.notdef
 /.notdef
 /.notdef
 /.notdef
 /.notdef
 /.notdef
 /.notdef
 /.notdef
 /.notdef
 /.notdef
 /.notdef
 /.notdef
 /.notdef
 /.notdef
 /.notdef
 /.notdef
 /.notdef
 /.notdef
 /.notdef
 /.notdef
 /.notdef
 /.notdef
 /.notdef
 /.notdef
 /.notdef
 /.notdef
 /.notdef
 /space
 /exclam
 /quotedbl
 /numbersign
 /dollar
 /percent
 /ampersand
 /quoteright
 /parenleft
 /parenright
 /asterisk
 /plus
 /comma
 /hyphen
 /period
 /slash
 /zero
 /one
 /two
 /three
 /four
 /five
 /six
 /seven
 /eight
 /nine
 /colon
 /semicolon
 /less
 /equal
 /greater
 /question
 /at
 /A
 /B
 /C
 /D
 /E
 /F
 /G
 /H
 /I
 /J
 /K
 /L
 /M
 /N
 /O
 /P
 /Q
 /R
 /S
 /T
 /U
 /V
 /W
 /X
 /Y
 /Z
 /bracketleft
 /backslash
 /bracketright
 /asciicircum
 /underscore
 /grave
 /a
 /b
 /c
 /d
 /e
 /f
 /g
 /h
 /i
 /j
 /k
 /l
 /m
 /n
 /o
 /p
 /q
 /r
 /s
 /t
 /u
 /v
 /w
 /x
 /y
 /z
 /braceleft
 /bar
 /braceright
 /asciitilde
 /.notdef
 /.notdef
 /.notdef
 /.notdef
 /.notdef
 /.notdef
 /.notdef
 /.notdef
 /.notdef
 /.notdef
 /.notdef
 /.notdef
 /.notdef
 /.notdef
 /.notdef
 /.notdef
 /.notdef
 /.notdef
 /.notdef
 /.notdef
 /.notdef
 /.notdef
 /.notdef
 /.notdef
 /.notdef
 /.notdef
 /.notdef
 /.notdef
 /.notdef
 /.notdef
 /.notdef
 /.notdef
 /.notdef
 /space
 /exclamdown
 /cent
 /sterling
 /currency
 /yen
 /brokenbar
 /section
 /dieresis
 /copyright
 /ordfeminine
 /guillemotleft
 /logicalnot
 /hyphen
 /registered
 /macron
 /degree
 /plusminus
 /twosuperior
 /threesuperior
 /acute
 /mu
 /paragraph
 /periodcentered
 /cedilla
 /onesuperior
 /ordmasculine
 /guillemotright
 /onequarter
 /onehalf
 /threequarters
 /questiondown
 /Agrave
 /Aacute
 /Acircumflex
 /Atilde
 /Adieresis
 /Aring
 /AE
 /Ccedilla
 /Egrave
 /Eacute
 /Ecircumflex
 /Edieresis
 /Igrave
 /Iacute
 /Icircumflex
 /Idieresis
 /Eth
 /Ntilde
 /Ograve
 /Oacute
 /Ocircumflex
 /Otilde
 /Odieresis
 /multiply
 /Oslash
 /Ugrave
 /Uacute
 /Ucircumflex
 /Udieresis
 /Yacute
 /Thorn
 /germandbls
 /agrave
 /aacute
 /acircumflex
 /atilde
 /adieresis
 /aring
 /ae
 /ccedilla
 /egrave
 /eacute
 /ecircumflex
 /edieresis
 /igrave
 /iacute
 /icircumflex
 /idieresis
 /eth
 /ntilde
 /ograve
 /oacute
 /ocircumflex
 /otilde
 /odieresis
 /divide
 /oslash
 /ugrave
 /uacute
 /ucircumflex
 /udieresis
 /yacute
 /thorn
 /ydieresis
] def
%%EndProlog
%%BeginSetup
%%EndSetup
%%Page: 1 1
PAGE_OFFSET_X PAGE_OFFSET_Y translate
612.00 612.00 scale
90 rotate
0.0 -1.0 translate
n
0.4267 0.1620 m
0.4267 0.1800 l
0.4447 0.1800 l
0.4447 0.1620 l
c
GS
[/DeviceRGB] SCS
Color0 SRGB
fill
GR
[/Pattern /DeviceRGB] SCS
Color1 Pattern8 SC
fill
[/DeviceRGB] SCS
Color1 SC
[] 0 SD
0.0045 SLW
0 SLC
0 SLJ
n
0.4267 0.1620 m
0.4267 0.1800 l
0.4447 0.1800 l
0.4447 0.1620 l
0.4267 0.1620 l
c
s
n
0.4981 0.1739 m
0.4981 0.1919 l
0.5162 0.1919 l
0.5162 0.1739 l
c
GS
Color0 SRGB
fill
GR
[/Pattern /DeviceRGB] SCS
Color1 Pattern8 SC
fill
[/DeviceRGB] SCS
Color1 SC
n
0.4981 0.1739 m
0.4981 0.1919 l
0.5162 0.1919 l
0.5162 0.1739 l
0.4981 0.1739 l
c
s
n
0.5696 0.1901 m
0.5696 0.2081 l
0.5876 0.2081 l
0.5876 0.1901 l
c
GS
Color0 SRGB
fill
GR
[/Pattern /DeviceRGB] SCS
Color1 Pattern8 SC
fill
[/DeviceRGB] SCS
Color1 SC
n
0.5696 0.1901 m
0.5696 0.2081 l
0.5876 0.2081 l
0.5876 0.1901 l
0.5696 0.1901 l
c
s
n
0.6410 0.2115 m
0.6410 0.2295 l
0.6590 0.2295 l
0.6590 0.2115 l
c
GS
Color0 SRGB
fill
GR
[/Pattern /DeviceRGB] SCS
Color1 Pattern8 SC
fill
[/DeviceRGB] SCS
Color1 SC
n
0.6410 0.2115 m
0.6410 0.2295 l
0.6590 0.2295 l
0.6590 0.2115 l
0.6410 0.2115 l
c
s
n
0.7124 0.2396 m
0.7124 0.2576 l
0.7304 0.2576 l
0.7304 0.2396 l
c
GS
Color0 SRGB
fill
GR
[/Pattern /DeviceRGB] SCS
Color1 Pattern8 SC
fill
[/DeviceRGB] SCS
Color1 SC
n
0.7124 0.2396 m
0.7124 0.2576 l
0.7304 0.2576 l
0.7304 0.2396 l
0.7124 0.2396 l
c
s
n
0.7838 0.2754 m
0.7838 0.2935 l
0.8019 0.2935 l
0.8019 0.2754 l
c
GS
Color0 SRGB
fill
GR
[/Pattern /DeviceRGB] SCS
Color1 Pattern8 SC
fill
[/DeviceRGB] SCS
Color1 SC
n
0.7838 0.2754 m
0.7838 0.2935 l
0.8019 0.2935 l
0.8019 0.2754 l
0.7838 0.2754 l
c
s
n
0.8553 0.3203 m
0.8553 0.3383 l
0.8733 0.3383 l
0.8733 0.3203 l
c
GS
Color0 SRGB
fill
GR
[/Pattern /DeviceRGB] SCS
Color1 Pattern8 SC
fill
[/DeviceRGB] SCS
Color1 SC
n
0.8553 0.3203 m
0.8553 0.3383 l
0.8733 0.3383 l
0.8733 0.3203 l
0.8553 0.3203 l
c
s
n
0.9267 0.3754 m
0.9267 0.3935 l
0.9447 0.3935 l
0.9447 0.3754 l
c
GS
Color0 SRGB
fill
GR
[/Pattern /DeviceRGB] SCS
Color1 Pattern8 SC
fill
[/DeviceRGB] SCS
Color1 SC
n
0.9267 0.3754 m
0.9267 0.3935 l
0.9447 0.3935 l
0.9447 0.3754 l
0.9267 0.3754 l
c
s
n
0.9981 0.4413 m
0.9981 0.4594 l
1.0162 0.4594 l
1.0162 0.4413 l
c
GS
Color0 SRGB
fill
GR
[/Pattern /DeviceRGB] SCS
Color1 Pattern8 SC
fill
[/DeviceRGB] SCS
Color1 SC
n
0.9981 0.4413 m
0.9981 0.4594 l
1.0162 0.4594 l
1.0162 0.4413 l
0.9981 0.4413 l
c
s
n
1.0696 0.5179 m
1.0696 0.5359 l
1.0876 0.5359 l
1.0876 0.5179 l
c
GS
Color0 SRGB
fill
GR
[/Pattern /DeviceRGB] SCS
Color1 Pattern8 SC
fill
[/DeviceRGB] SCS
Color1 SC
n
1.0696 0.5179 m
1.0696 0.5359 l
1.0876 0.5359 l
1.0876 0.5179 l
1.0696 0.5179 l
c
s
n
1.1410 0.6041 m
1.1410 0.6221 l
1.1590 0.6221 l
1.1590 0.6041 l
c
GS
Color0 SRGB
fill
GR
[/Pattern /DeviceRGB] SCS
Color1 Pattern8 SC
fill
[/DeviceRGB] SCS
Color1 SC
n
1.1410 0.6041 m
1.1410 0.6221 l
1.1590 0.6221 l
1.1590 0.6041 l
1.1410 0.6041 l
c
s
[] 0 SD
0.0037 SLW
n
0.1499 0.1515 m
0.1500 0.1515 l
0.1571 0.1517 l
0.1643 0.1518 l
0.1714 0.1520 l
0.1786 0.1523 l
0.1857 0.1525 l
0.1929 0.1527 l
0.2000 0.1530 l
0.2071 0.1533 l
0.2143 0.1536 l
0.2214 0.1539 l
0.2286 0.1542 l
0.2357 0.1546 l
0.2429 0.1549 l
0.2500 0.1553 l
0.2571 0.1558 l
0.2643 0.1562 l
0.2714 0.1567 l
0.2786 0.1572 l
0.2857 0.1577 l
0.2929 0.1582 l
0.3000 0.1588 l
0.3071 0.1594 l
0.3143 0.1600 l
0.3214 0.1606 l
0.3286 0.1613 l
0.3357 0.1620 l
0.3429 0.1627 l
0.3500 0.1635 l
0.3571 0.1643 l
0.3643 0.1651 l
0.3714 0.1659 l
0.3786 0.1668 l
0.3857 0.1677 l
0.3929 0.1687 l
0.4000 0.1697 l
0.4071 0.1707 l
0.4143 0.1718 l
0.4214 0.1728 l
0.4286 0.1740 l
0.4357 0.1751 l
0.4429 0.1763 l
0.4500 0.1776 l
0.4571 0.1788 l
0.4643 0.1802 l
0.4714 0.1815 l
0.4786 0.1829 l
0.4857 0.1843 l
0.4929 0.1858 l
0.5000 0.1873 l
0.5071 0.1889 l
0.5143 0.1905 l
0.5214 0.1921 l
0.5286 0.1938 l
0.5357 0.1955 l
0.5429 0.1973 l
0.5500 0.1991 l
0.5571 0.2010 l
0.5643 0.2029 l
0.5714 0.2048 l
0.5786 0.2068 l
0.5857 0.2089 l
0.5929 0.2110 l
0.6000 0.2131 l
0.6071 0.2153 l
0.6143 0.2175 l
0.6214 0.2198 l
0.6286 0.2222 l
0.6357 0.2245 l
0.6429 0.2270 l
0.6500 0.2295 l
0.6571 0.2320 l
0.6643 0.2346 l
0.6714 0.2372 l
0.6786 0.2399 l
0.6857 0.2426 l
0.6929 0.2454 l
0.7000 0.2483 l
0.7071 0.2512 l
0.7143 0.2541 l
0.7214 0.2571 l
0.7286 0.2602 l
0.7357 0.2633 l
0.7429 0.2664 l
0.7500 0.2697 l
0.7571 0.2729 l
0.7643 0.2763 l
0.7714 0.2796 l
0.7786 0.2831 l
0.7857 0.2866 l
0.7929 0.2901 l
0.8000 0.2937 l
0.8071 0.2974 l
0.8143 0.3011 l
0.8214 0.3049 l
0.8286 0.3087 l
0.8357 0.3126 l
0.8429 0.3166 l
0.8500 0.3206 l
0.8571 0.3246 l
0.8643 0.3287 l
0.8714 0.3329 l
0.8786 0.3372 l
0.8857 0.3414 l
0.8929 0.3458 l
0.9000 0.3502 l
0.9071 0.3547 l
0.9143 0.3592 l
0.9214 0.3638 l
0.9286 0.3684 l
0.9357 0.3731 l
0.9429 0.3779 l
0.9500 0.3827 l
0.9571 0.3876 l
0.9643 0.3925 l
0.9714 0.3975 l
0.9786 0.4026 l
0.9857 0.4077 l
0.9929 0.4129 l
1.0000 0.4181 l
1.0071 0.4234 l
1.0143 0.4288 l
1.0214 0.4342 l
1.0286 0.4397 l
1.0357 0.4452 l
1.0429 0.4508 l
1.0500 0.4564 l
1.0571 0.4621 l
1.0643 0.4679 l
1.0714 0.4737 l
1.0786 0.4796 l
1.0857 0.4856 l
1.0929 0.4916 l
1.1000 0.4976 l
1.1071 0.5037 l
1.1143 0.5099 l
1.1214 0.5161 l
1.1286 0.5224 l
1.1357 0.5288 l
1.1429 0.5352 l
1.1500 0.5417 l
1.1501 0.5418 l
s
[/DeviceRGB] SCS
Color2 SC
[0.0187 0.0112 ] 0 SD
0.0037 SLW
n
0.1499 0.1514 m
0.1500 0.1514 l
0.1571 0.1516 l
0.1643 0.1517 l
0.1714 0.1519 l
0.1786 0.1521 l
0.1857 0.1523 l
0.1929 0.1526 l
0.2000 0.1528 l
0.2071 0.1531 l
0.2143 0.1533 l
0.2214 0.1536 l
0.2286 0.1539 l
0.2357 0.1543 l
0.2429 0.1546 l
0.2500 0.1550 l
0.2571 0.1554 l
0.2643 0.1558 l
0.2714 0.1562 l
0.2786 0.1567 l
0.2857 0.1571 l
0.2929 0.1576 l
0.3000 0.1581 l
0.3071 0.1587 l
0.3143 0.1592 l
0.3214 0.1598 l
0.3286 0.1604 l
0.3357 0.1611 l
0.3429 0.1617 l
0.3500 0.1624 l
0.3571 0.1632 l
0.3643 0.1639 l
0.3714 0.1647 l
0.3786 0.1655 l
0.3857 0.1663 l
0.3929 0.1672 l
0.4000 0.1681 l
0.4071 0.1690 l
0.4143 0.1699 l
0.4214 0.1709 l
0.4286 0.1719 l
0.4357 0.1730 l
0.4429 0.1740 l
0.4500 0.1751 l
0.4571 0.1763 l
0.4643 0.1775 l
0.4714 0.1787 l
0.4786 0.1799 l
0.4857 0.1812 l
0.4929 0.1825 l
0.5000 0.1839 l
0.5071 0.1852 l
0.5143 0.1867 l
0.5214 0.1881 l
0.5286 0.1896 l
0.5357 0.1912 l
0.5429 0.1927 l
0.5500 0.1943 l
0.5571 0.1960 l
0.5643 0.1977 l
0.5714 0.1994 l
0.5786 0.2012 l
0.5857 0.2030 l
0.5929 0.2048 l
0.6000 0.2067 l
0.6071 0.2086 l
0.6143 0.2106 l
0.6214 0.2126 l
0.6286 0.2147 l
0.6357 0.2167 l
0.6429 0.2189 l
0.6500 0.2211 l
0.6571 0.2233 l
0.6643 0.2256 l
0.6714 0.2279 l
0.6786 0.2302 l
0.6857 0.2326 l
0.6929 0.2351 l
0.7000 0.2376 l
0.7071 0.2401 l
0.7143 0.2427 l
0.7214 0.2453 l
0.7286 0.2480 l
0.7357 0.2507 l
0.7429 0.2535 l
0.7500 0.2563 l
0.7571 0.2591 l
0.7643 0.2620 l
0.7714 0.2650 l
0.7786 0.2680 l
0.7857 0.2711 l
0.7929 0.2742 l
0.8000 0.2773 l
0.8071 0.2805 l
0.8143 0.2838 l
0.8214 0.2871 l
0.8286 0.2904 l
0.8357 0.2938 l
0.8429 0.2973 l
0.8500 0.3008 l
0.8571 0.3043 l
0.8643 0.3079 l
0.8714 0.3116 l
0.8786 0.3153 l
0.8857 0.3191 l
0.8929 0.3229 l
0.9000 0.3267 l
0.9071 0.3307 l
0.9143 0.3346 l
0.9214 0.3387 l
0.9286 0.3427 l
0.9357 0.3469 l
0.9429 0.3511 l
0.9500 0.3553 l
0.9571 0.3596 l
0.9643 0.3639 l
0.9714 0.3683 l
0.9786 0.3728 l
0.9857 0.3773 l
0.9929 0.3819 l
1.0000 0.3865 l
1.0071 0.3912 l
1.0143 0.3959 l
1.0214 0.4007 l
1.0286 0.4056 l
1.0357 0.4105 l
1.0429 0.4154 l
1.0500 0.4204 l
1.0571 0.4255 l
1.0643 0.4307 l
1.0714 0.4358 l
1.0786 0.4411 l
1.0857 0.4464 l
1.0929 0.4518 l
1.1000 0.4572 l
1.1071 0.4627 l
1.1143 0.4682 l
1.1214 0.4738 l
1.1286 0.4795 l
1.1357 0.4852 l
1.1429 0.4909 l
1.1500 0.4968 l
1.1501 0.4969 l
s
[/DeviceRGB] SCS
Color4 SC
[0.0037 0.0112 ] 0 SD
0.0037 SLW
n
0.1499 0.1517 m
0.1500 0.1517 l
0.1571 0.1519 l
0.1643 0.1521 l
0.1714 0.1523 l
0.1786 0.1526 l
0.1857 0.1528 l
0.1929 0.1531 l
0.2000 0.1534 l
0.2071 0.1538 l
0.2143 0.1541 l
0.2214 0.1545 l
0.2286 0.1549 l
0.2357 0.1553 l
0.2429 0.1557 l
0.2500 0.1562 l
0.2571 0.1567 l
0.2643 0.1572 l
0.2714 0.1578 l
0.2786 0.1584 l
0.2857 0.1590 l
0.2929 0.1596 l
0.3000 0.1603 l
0.3071 0.1610 l
0.3143 0.1618 l
0.3214 0.1626 l
0.3286 0.1634 l
0.3357 0.1642 l
0.3429 0.1651 l
0.3500 0.1661 l
0.3571 0.1671 l
0.3643 0.1681 l
0.3714 0.1691 l
0.3786 0.1702 l
0.3857 0.1714 l
0.3929 0.1726 l
0.4000 0.1738 l
0.4071 0.1751 l
0.4143 0.1764 l
0.4214 0.1778 l
0.4286 0.1793 l
0.4357 0.1807 l
0.4429 0.1823 l
0.4500 0.1839 l
0.4571 0.1855 l
0.4643 0.1872 l
0.4714 0.1890 l
0.4786 0.1908 l
0.4857 0.1926 l
0.4929 0.1946 l
0.5000 0.1966 l
0.5071 0.1986 l
0.5143 0.2007 l
0.5214 0.2029 l
0.5286 0.2051 l
0.5357 0.2074 l
0.5429 0.2098 l
0.5500 0.2122 l
0.5571 0.2147 l
0.5643 0.2173 l
0.5714 0.2199 l
0.5786 0.2226 l
0.5857 0.2254 l
0.5929 0.2283 l
0.6000 0.2312 l
0.6071 0.2342 l
0.6143 0.2373 l
0.6214 0.2404 l
0.6286 0.2437 l
0.6357 0.2470 l
0.6429 0.2504 l
0.6500 0.2538 l
0.6571 0.2574 l
0.6643 0.2610 l
0.6714 0.2647 l
0.6786 0.2685 l
0.6857 0.2724 l
0.6929 0.2764 l
0.7000 0.2804 l
0.7071 0.2846 l
0.7143 0.2888 l
0.7214 0.2931 l
0.7286 0.2975 l
0.7357 0.3020 l
0.7429 0.3066 l
0.7500 0.3113 l
0.7571 0.3161 l
0.7643 0.3209 l
0.7714 0.3259 l
0.7786 0.3310 l
0.7857 0.3361 l
0.7929 0.3414 l
0.8000 0.3467 l
0.8071 0.3522 l
0.8143 0.3577 l
0.8214 0.3634 l
0.8286 0.3691 l
0.8357 0.3750 l
0.8429 0.3810 l
0.8500 0.3870 l
0.8571 0.3932 l
0.8643 0.3995 l
0.8714 0.4058 l
0.8786 0.4123 l
0.8857 0.4189 l
0.8929 0.4256 l
0.9000 0.4324 l
0.9071 0.4394 l
0.9143 0.4464 l
0.9214 0.4535 l
0.9286 0.4608 l
0.9357 0.4682 l
0.9429 0.4757 l
0.9500 0.4833 l
0.9571 0.4910 l
0.9643 0.4988 l
0.9714 0.5067 l
0.9786 0.5148 l
0.9857 0.5230 l
0.9929 0.5313 l
1.0000 0.5397 l
1.0071 0.5482 l
1.0143 0.5569 l
1.0214 0.5656 l
1.0286 0.5745 l
1.0357 0.5835 l
1.0429 0.5927 l
1.0500 0.6019 l
1.0571 0.6113 l
1.0643 0.6208 l
1.0714 0.6304 l
1.0786 0.6402 l
1.0857 0.6501 l
1.0929 0.6601 l
1.1000 0.6702 l
1.1071 0.6804 l
1.1143 0.6908 l
1.1214 0.7013 l
1.1286 0.7120 l
1.1357 0.7227 l
1.1429 0.7336 l
1.1500 0.7446 l
1.1501 0.7448 l
s
[/DeviceRGB] SCS
Color11 SC
[0.0037 0.0112 0.0187 0.0112 ] 0 SD
0.0037 SLW
n
0.1499 0.1515 m
0.1500 0.1515 l
0.1571 0.1517 l
0.1643 0.1518 l
0.1714 0.1520 l
0.1786 0.1522 l
0.1857 0.1525 l
0.1929 0.1527 l
0.2000 0.1530 l
0.2071 0.1533 l
0.2143 0.1535 l
0.2214 0.1539 l
0.2286 0.1542 l
0.2357 0.1545 l
0.2429 0.1549 l
0.2500 0.1553 l
0.2571 0.1557 l
0.2643 0.1562 l
0.2714 0.1566 l
0.2786 0.1571 l
0.2857 0.1576 l
0.2929 0.1581 l
0.3000 0.1587 l
0.3071 0.1593 l
0.3143 0.1599 l
0.3214 0.1605 l
0.3286 0.1612 l
0.3357 0.1619 l
0.3429 0.1626 l
0.3500 0.1634 l
0.3571 0.1641 l
0.3643 0.1650 l
0.3714 0.1658 l
0.3786 0.1667 l
0.3857 0.1676 l
0.3929 0.1685 l
0.4000 0.1695 l
0.4071 0.1705 l
0.4143 0.1715 l
0.4214 0.1726 l
0.4286 0.1737 l
0.4357 0.1749 l
0.4429 0.1760 l
0.4500 0.1773 l
0.4571 0.1785 l
0.4643 0.1798 l
0.4714 0.1811 l
0.4786 0.1825 l
0.4857 0.1839 l
0.4929 0.1854 l
0.5000 0.1868 l
0.5071 0.1884 l
0.5143 0.1899 l
0.5214 0.1915 l
0.5286 0.1932 l
0.5357 0.1949 l
0.5429 0.1966 l
0.5500 0.1984 l
0.5571 0.2002 l
0.5643 0.2021 l
0.5714 0.2040 l
0.5786 0.2059 l
0.5857 0.2079 l
0.5929 0.2100 l
0.6000 0.2121 l
0.6071 0.2142 l
0.6143 0.2164 l
0.6214 0.2186 l
0.6286 0.2209 l
0.6357 0.2232 l
0.6429 0.2256 l
0.6500 0.2280 l
0.6571 0.2305 l
0.6643 0.2330 l
0.6714 0.2355 l
0.6786 0.2381 l
0.6857 0.2408 l
0.6929 0.2435 l
0.7000 0.2463 l
0.7071 0.2491 l
0.7143 0.2519 l
0.7214 0.2548 l
0.7286 0.2578 l
0.7357 0.2608 l
0.7429 0.2638 l
0.7500 0.2670 l
0.7571 0.2701 l
0.7643 0.2733 l
0.7714 0.2766 l
0.7786 0.2799 l
0.7857 0.2833 l
0.7929 0.2867 l
0.8000 0.2901 l
0.8071 0.2937 l
0.8143 0.2972 l
0.8214 0.3009 l
0.8286 0.3045 l
0.8357 0.3083 l
0.8429 0.3121 l
0.8500 0.3159 l
0.8571 0.3198 l
0.8643 0.3237 l
0.8714 0.3277 l
0.8786 0.3318 l
0.8857 0.3359 l
0.8929 0.3400 l
0.9000 0.3442 l
0.9071 0.3485 l
0.9143 0.3528 l
0.9214 0.3571 l
0.9286 0.3616 l
0.9357 0.3660 l
0.9429 0.3705 l
0.9500 0.3751 l
0.9571 0.3797 l
0.9643 0.3844 l
0.9714 0.3891 l
0.9786 0.3939 l
0.9857 0.3988 l
0.9929 0.4037 l
1.0000 0.4086 l
1.0071 0.4136 l
1.0143 0.4186 l
1.0214 0.4237 l
1.0286 0.4289 l
1.0357 0.4341 l
1.0429 0.4393 l
1.0500 0.4446 l
1.0571 0.4500 l
1.0643 0.4554 l
1.0714 0.4608 l
1.0786 0.4663 l
1.0857 0.4719 l
1.0929 0.4775 l
1.1000 0.4831 l
1.1071 0.4888 l
1.1143 0.4946 l
1.1214 0.5004 l
1.1286 0.5062 l
1.1357 0.5121 l
1.1429 0.5180 l
1.1500 0.5240 l
1.1501 0.5241 l
s
[/DeviceRGB] SCS
Color3 SC
[0.0037 0.0112 0.0187 0.0112 0.0037 0.0112 ] 0 SD
0.0037 SLW
n
0.1499 0.1515 m
0.1500 0.1515 l
0.1571 0.1516 l
0.1643 0.1518 l
0.1714 0.1520 l
0.1786 0.1522 l
0.1857 0.1524 l
0.1929 0.1527 l
0.2000 0.1529 l
0.2071 0.1532 l
0.2143 0.1535 l
0.2214 0.1538 l
0.2286 0.1541 l
0.2357 0.1545 l
0.2429 0.1548 l
0.2500 0.1552 l
0.2571 0.1556 l
0.2643 0.1561 l
0.2714 0.1565 l
0.2786 0.1570 l
0.2857 0.1575 l
0.2929 0.1580 l
0.3000 0.1586 l
0.3071 0.1592 l
0.3143 0.1598 l
0.3214 0.1604 l
0.3286 0.1610 l
0.3357 0.1617 l
0.3429 0.1624 l
0.3500 0.1632 l
0.3571 0.1640 l
0.3643 0.1648 l
0.3714 0.1656 l
0.3786 0.1665 l
0.3857 0.1674 l
0.3929 0.1683 l
0.4000 0.1692 l
0.4071 0.1702 l
0.4143 0.1713 l
0.4214 0.1723 l
0.4286 0.1734 l
0.4357 0.1746 l
0.4429 0.1758 l
0.4500 0.1770 l
0.4571 0.1782 l
0.4643 0.1795 l
0.4714 0.1808 l
0.4786 0.1822 l
0.4857 0.1836 l
0.4929 0.1850 l
0.5000 0.1865 l
0.5071 0.1881 l
0.5143 0.1896 l
0.5214 0.1912 l
0.5286 0.1929 l
0.5357 0.1946 l
0.5429 0.1964 l
0.5500 0.1981 l
0.5571 0.2000 l
0.5643 0.2019 l
0.5714 0.2038 l
0.5786 0.2058 l
0.5857 0.2078 l
0.5929 0.2098 l
0.6000 0.2120 l
0.6071 0.2141 l
0.6143 0.2163 l
0.6214 0.2186 l
0.6286 0.2209 l
0.6357 0.2233 l
0.6429 0.2257 l
0.6500 0.2282 l
0.6571 0.2307 l
0.6643 0.2333 l
0.6714 0.2359 l
0.6786 0.2386 l
0.6857 0.2413 l
0.6929 0.2441 l
0.7000 0.2470 l
0.7071 0.2499 l
0.7143 0.2528 l
0.7214 0.2558 l
0.7286 0.2589 l
0.7357 0.2620 l
0.7429 0.2652 l
0.7500 0.2685 l
0.7571 0.2718 l
0.7643 0.2752 l
0.7714 0.2786 l
0.7786 0.2821 l
0.7857 0.2856 l
0.7929 0.2892 l
0.8000 0.2929 l
0.8071 0.2966 l
0.8143 0.3004 l
0.8214 0.3043 l
0.8286 0.3082 l
0.8357 0.3122 l
0.8429 0.3163 l
0.8500 0.3204 l
0.8571 0.3246 l
0.8643 0.3288 l
0.8714 0.3331 l
0.8786 0.3375 l
0.8857 0.3420 l
0.8929 0.3465 l
0.9000 0.3511 l
0.9071 0.3557 l
0.9143 0.3605 l
0.9214 0.3653 l
0.9286 0.3701 l
0.9357 0.3751 l
0.9429 0.3801 l
0.9500 0.3851 l
0.9571 0.3903 l
0.9643 0.3955 l
0.9714 0.4008 l
0.9786 0.4062 l
0.9857 0.4116 l
0.9929 0.4171 l
1.0000 0.4227 l
1.0071 0.4283 l
1.0143 0.4341 l
1.0214 0.4399 l
1.0286 0.4458 l
1.0357 0.4517 l
1.0429 0.4578 l
1.0500 0.4639 l
1.0571 0.4701 l
1.0643 0.4763 l
1.0714 0.4827 l
1.0786 0.4891 l
1.0857 0.4956 l
1.0929 0.5022 l
1.1000 0.5089 l
1.1071 0.5156 l
1.1143 0.5224 l
1.1214 0.5293 l
1.1286 0.5363 l
1.1357 0.5434 l
1.1429 0.5505 l
1.1500 0.5577 l
1.1501 0.5578 l
s
[/DeviceRGB] SCS
Color8 SC
[0.0187 0.0112 0.0037 0.0112 0.0187 0.0112 ] 0 SD
0.0037 SLW
n
0.1499 0.1516 m
0.1500 0.1516 l
0.1571 0.1518 l
0.1643 0.1520 l
0.1714 0.1522 l
0.1786 0.1524 l
0.1857 0.1527 l
0.1929 0.1529 l
0.2000 0.1532 l
0.2071 0.1535 l
0.2143 0.1538 l
0.2214 0.1542 l
0.2286 0.1545 l
0.2357 0.1549 l
0.2429 0.1553 l
0.2500 0.1558 l
0.2571 0.1562 l
0.2643 0.1567 l
0.2714 0.1572 l
0.2786 0.1578 l
0.2857 0.1583 l
0.2929 0.1589 l
0.3000 0.1596 l
0.3071 0.1602 l
0.3143 0.1609 l
0.3214 0.1616 l
0.3286 0.1624 l
0.3357 0.1632 l
0.3429 0.1640 l
0.3500 0.1649 l
0.3571 0.1658 l
0.3643 0.1667 l
0.3714 0.1677 l
0.3786 0.1687 l
0.3857 0.1698 l
0.3929 0.1709 l
0.4000 0.1720 l
0.4071 0.1732 l
0.4143 0.1744 l
0.4214 0.1757 l
0.4286 0.1770 l
0.4357 0.1783 l
0.4429 0.1797 l
0.4500 0.1812 l
0.4571 0.1827 l
0.4643 0.1843 l
0.4714 0.1859 l
0.4786 0.1875 l
0.4857 0.1893 l
0.4929 0.1910 l
0.5000 0.1929 l
0.5071 0.1947 l
0.5143 0.1967 l
0.5214 0.1987 l
0.5286 0.2007 l
0.5357 0.2028 l
0.5429 0.2050 l
0.5500 0.2073 l
0.5571 0.2096 l
0.5643 0.2119 l
0.5714 0.2144 l
0.5786 0.2169 l
0.5857 0.2194 l
0.5929 0.2221 l
0.6000 0.2248 l
0.6071 0.2276 l
0.6143 0.2304 l
0.6214 0.2333 l
0.6286 0.2363 l
0.6357 0.2394 l
0.6429 0.2425 l
0.6500 0.2458 l
0.6571 0.2491 l
0.6643 0.2524 l
0.6714 0.2559 l
0.6786 0.2594 l
0.6857 0.2631 l
0.6929 0.2668 l
0.7000 0.2706 l
0.7071 0.2745 l
0.7143 0.2784 l
0.7214 0.2825 l
0.7286 0.2866 l
0.7357 0.2909 l
0.7429 0.2952 l
0.7500 0.2996 l
0.7571 0.3041 l
0.7643 0.3087 l
0.7714 0.3135 l
0.7786 0.3183 l
0.7857 0.3232 l
0.7929 0.3282 l
0.8000 0.3333 l
0.8071 0.3385 l
0.8143 0.3438 l
0.8214 0.3492 l
0.8286 0.3547 l
0.8357 0.3604 l
0.8429 0.3661 l
0.8500 0.3720 l
0.8571 0.3779 l
0.8643 0.3840 l
0.8714 0.3902 l
0.8786 0.3965 l
0.8857 0.4029 l
0.8929 0.4094 l
0.9000 0.4161 l
0.9071 0.4229 l
0.9143 0.4298 l
0.9214 0.4368 l
0.9286 0.4439 l
0.9357 0.4512 l
0.9429 0.4586 l
0.9500 0.4661 l
0.9571 0.4737 l
0.9643 0.4815 l
0.9714 0.4894 l
0.9786 0.4975 l
0.9857 0.5056 l
0.9929 0.5140 l
1.0000 0.5224 l
1.0071 0.5310 l
1.0143 0.5397 l
1.0214 0.5486 l
1.0286 0.5576 l
1.0357 0.5667 l
1.0429 0.5760 l
1.0500 0.5854 l
1.0571 0.5950 l
1.0643 0.6048 l
1.0714 0.6146 l
1.0786 0.6247 l
1.0857 0.6348 l
1.0929 0.6452 l
1.1000 0.6557 l
1.1071 0.6663 l
1.1143 0.6771 l
1.1214 0.6881 l
1.1286 0.6992 l
1.1357 0.7105 l
1.1429 0.7219 l
1.1500 0.7335 l
1.1501 0.7337 l
s
[/DeviceRGB] SCS
Color1 SC
[] 0 SD
0.0045 SLW
n
0.1500 0.1500 m
1.1500 0.1500 l
s
n
0.1500 0.8500 m
1.1500 0.8500 l
s
n
0.2214 0.1500 m
0.2214 0.1600 l
s
n
0.2214 0.8500 m
0.2214 0.8400 l
s
n
0.3643 0.1500 m
0.3643 0.1600 l
s
n
0.3643 0.8500 m
0.3643 0.8400 l
s
n
0.5071 0.1500 m
0.5071 0.1600 l
s
n
0.5071 0.8500 m
0.5071 0.8400 l
s
n
0.6500 0.1500 m
0.6500 0.1600 l
s
n
0.6500 0.8500 m
0.6500 0.8400 l
s
n
0.7929 0.1500 m
0.7929 0.1600 l
s
n
0.7929 0.8500 m
0.7929 0.8400 l
s
n
0.9357 0.1500 m
0.9357 0.1600 l
s
n
0.9357 0.8500 m
0.9357 0.8400 l
s
n
1.0786 0.1500 m
1.0786 0.1600 l
s
n
1.0786 0.8500 m
1.0786 0.8400 l
s
n
0.1500 0.1500 m
0.1500 0.1700 l
s
n
0.1500 0.8500 m
0.1500 0.8300 l
s
n
0.2929 0.1500 m
0.2929 0.1700 l
s
n
0.2929 0.8500 m
0.2929 0.8300 l
s
n
0.4357 0.1500 m
0.4357 0.1700 l
s
n
0.4357 0.8500 m
0.4357 0.8300 l
s
n
0.5786 0.1500 m
0.5786 0.1700 l
s
n
0.5786 0.8500 m
0.5786 0.8300 l
s
n
0.7214 0.1500 m
0.7214 0.1700 l
s
n
0.7214 0.8500 m
0.7214 0.8300 l
s
n
0.8643 0.1500 m
0.8643 0.1700 l
s
n
0.8643 0.8500 m
0.8643 0.8300 l
s
n
1.0071 0.1500 m
1.0071 0.1700 l
s
n
1.0071 0.8500 m
1.0071 0.8300 l
s
n
0.1500 0.1500 m
0.1500 0.8500 l
s
n
1.1500 0.1500 m
1.1500 0.8500 l
s
n
0.1500 0.2375 m
0.1600 0.2375 l
s
n
1.1500 0.2375 m
1.1400 0.2375 l
s
n
0.1500 0.4125 m
0.1600 0.4125 l
s
n
1.1500 0.4125 m
1.1400 0.4125 l
s
n
0.1500 0.5875 m
0.1600 0.5875 l
s
n
1.1500 0.5875 m
1.1400 0.5875 l
s
n
0.1500 0.7625 m
0.1600 0.7625 l
s
n
1.1500 0.7625 m
1.1400 0.7625 l
s
n
0.1500 0.1500 m
0.1700 0.1500 l
s
n
1.1500 0.1500 m
1.1300 0.1500 l
s
n
0.1500 0.3250 m
0.1700 0.3250 l
s
n
1.1500 0.3250 m
1.1300 0.3250 l
s
n
0.1500 0.5000 m
0.1700 0.5000 l
s
n
1.1500 0.5000 m
1.1300 0.5000 l
s
n
0.1500 0.6750 m
0.1700 0.6750 l
s
n
1.1500 0.6750 m
1.1300 0.6750 l
s
n
0.1500 0.8500 m
0.1700 0.8500 l
s
n
1.1500 0.8500 m
1.1300 0.8500 l
s
/Times-Roman findfont
dup length dict begin
 {1 index /FID ne {def} {pop pop} ifelse} forall
 /Encoding DefEncoding def
 currentdict
end
/Font0 exch definefont pop
/Font0 FFSF
0.1188 0.1351 m
GS
[0.0448 0.0000 0.0000 0.0448 0 0] CC
(0) show
GR
/Font0 FFSF
0.1204 0.3099 m
GS
[0.0448 0.0000 0.0000 0.0448 0 0] CC
(5) show
GR
/Font0 FFSF
0.0965 0.4851 m
GS
[0.0448 0.0000 0.0000 0.0448 0 0] CC
(10) show
GR
/Font0 FFSF
0.0980 0.6599 m
GS
[0.0448 0.0000 0.0000 0.0448 0 0] CC
(15) show
GR
/Font0 FFSF
0.0965 0.8351 m
GS
[0.0448 0.0000 0.0000 0.0448 0 0] CC
(20) show
GR
/Font0 FFSF
0.0677 0.4335 m
GS
[0.0000 0.0504 -0.0504 0.0000 0 0] CC
([MeV]) show
GR
[] 0 SD
0.0015 SLW
n
0.1500 0.1500 m
0.1500 0.8500 l
1.1500 0.8500 l
1.1500 0.1500 l
0.1500 0.1500 l
c
s
/Font0 FFSF
0.2000 0.3009 m
GS
[0.0600 0.0000 0.0000 0.0600 0 0] CC
(1) show
GR
/Font0 FFSF
0.2298 0.2500 m
GS
[0.0848 0.0000 0.0000 0.0848 0 0] CC
(P) show
GR
/Font0 FFSF
0.2769 0.2161 m
GS
[0.0600 0.0000 0.0000 0.0600 0 0] CC
(1) show
GR
showpage
%%PageTrailer
%%Trailer
%%DocumentNeededResources: font Times-Roman
%%EOF
