%!PS-Adobe-3.0
%%BoundingBox: 0 0 612 792
%%LanguageLevel: 2
%%Creator: Grace-5.1.25
%%CreationDate: Thu Oct 29 19:59:53 2015
%%DocumentData: Clean8Bit
%%Orientation: Landscape
%%Pages: 1
%%PageOrder: Ascend
%%Title: Tensor_Sorb.agr
%%For: ap1450
%%DocumentNeededResources: (atend)
%%EndComments
%%BeginProlog
/PAGE_OFFSET_X 0 def
/PAGE_OFFSET_Y 0 def
/m {moveto} def
/l {lineto} def
/s {stroke} def
/n {newpath} def
/c {closepath} def
/RL {rlineto} def
/SLW {setlinewidth} def
/GS {gsave} def
/GR {grestore} def
/SC {setcolor} def
/SGRY {setgray} def
/SRGB {setrgbcolor} def
/SD {setdash} def
/SLC {setlinecap} def
/SLJ {setlinejoin} def
/SCS {setcolorspace} def
/FFSF {findfont setfont} def
/CC {concat} def
/PXL {n m 0 0 RL s} def
/Color0 {1.0000 1.0000 1.0000} def
/Color1 {0.0000 0.0000 0.0000} def
/Color2 {1.0000 0.0000 0.0000} def
/Color3 {0.0000 1.0000 0.0000} def
/Color4 {0.0000 0.0000 1.0000} def
/Color5 {1.0000 1.0000 0.0000} def
/Color6 {0.7373 0.5608 0.5608} def
/Color7 {0.8627 0.8627 0.8627} def
/Color8 {0.5804 0.0000 0.8275} def
/Color9 {0.0000 1.0000 1.0000} def
/Color10 {1.0000 0.0000 1.0000} def
/Color11 {1.0000 0.6471 0.0000} def
/Color12 {0.4471 0.1294 0.7373} def
/Color13 {0.4039 0.0275 0.2824} def
/Color14 {0.2510 0.8784 0.8157} def
/Color15 {0.0000 0.5451 0.0000} def
/Color16 {0.7529 0.7529 0.7529} def
/Color17 {0.5059 0.5059 0.5059} def
/Color18 {0.2588 0.2588 0.2588} def
/PTRN {
 /pat_bits exch def 
 <<
  /PaintType 2
  /PatternType 1 /TilingType 1
  /BBox[0 0 16 16]
  /XStep 16 /YStep 16
  /PaintProc {
   pop
   16 16 true [-1 0 0 -1 16 16] pat_bits imagemask
  }
 >>
 [0.0016 0 0 0.0016 0 0]
 makepattern
} def
/Pattern0 {<0000000000000000000000000000000000000000000000000000000000000000> PTRN} bind def
/Pattern1 {<ffffffffffffffffffffffffffffffffffffffffffffffffffffffffffffffff> PTRN} bind def
/Pattern2 {<eeeeffffbbbbffffeeeeffffbbbbffffeeeeffffbbbbffffeeeeffffbbbbffff> PTRN} bind def
/Pattern3 {<eeeebbbbeeeebbbbeeeebbbbeeeebbbbeeeebbbbeeeebbbbeeeebbbbeeeebbbb> PTRN} bind def
/Pattern4 {<5555aaaa5555aaaa5555aaaa5555aaaa5555aaaa5555aaaa5555aaaa5555aaaa> PTRN} bind def
/Pattern5 {<1111444411114444111144441111444411114444111144441111444411114444> PTRN} bind def
/Pattern6 {<1111000044440000111100004444000011110000444400001111000044440000> PTRN} bind def
/Pattern7 {<1010000000000000010100000000000010100000000000000101000000000000> PTRN} bind def
/Pattern8 {<0000000000000000000000000000000000000000000000000000000000000000> PTRN} bind def
/Pattern9 {<1e1e0f0f8787c3c3e1e1f0f078783c3c1e1e0f0f8787c3c3e1e1f0f078783c3c> PTRN} bind def
/Pattern10 {<7878f0f0e1e1c3c387870f0f1e1e3c3c7878f0f0e1e1c3c387870f0f1e1e3c3c> PTRN} bind def
/Pattern11 {<3333333333333333333333333333333333333333333333333333333333333333> PTRN} bind def
/Pattern12 {<ffffffff00000000ffffffff00000000ffffffff00000000ffffffff00000000> PTRN} bind def
/Pattern13 {<8181424224241818181824244242818181814242242418181818242442428181> PTRN} bind def
/Pattern14 {<8080404020201010080804040202010180804040202010100808040402020101> PTRN} bind def
/Pattern15 {<0101020204040808101020204040808001010202040408081010202040408080> PTRN} bind def
/Pattern16 {<2222222222222222222222222222222222222222222222222222222222222222> PTRN} bind def
/Pattern17 {<0000ffff000000000000ffff000000000000ffff000000000000ffff00000000> PTRN} bind def
/Pattern18 {<2222ffff222222222222ffff222222222222ffff222222222222ffff22222222> PTRN} bind def
/Pattern19 {<ffffffff33333333ffffffff33333333ffffffff33333333ffffffff33333333> PTRN} bind def
/Pattern20 {<0f0f0f0f0f0f0f0ff0f0f0f0f0f0f0f00f0f0f0f0f0f0f0ff0f0f0f0f0f0f0f0> PTRN} bind def
/Pattern21 {<ff00ff00ff00ff00ff00ff00ff00ff0000ff00ff00ff00ff00ff00ff00ff00ff> PTRN} bind def
/Pattern22 {<8001800180018001800180018001ffffffff8001800180018001800180018001> PTRN} bind def
/Pattern23 {<c003c003c003c003c003c003ffffffffffffffffc003c003c003c003c003c003> PTRN} bind def
/Pattern24 {<040404040404ffff404040404040ffff040404040404ffff404040404040ffff> PTRN} bind def
/Pattern25 {<180018001800180018001800ffffffff001800180018001800180018ffffffff> PTRN} bind def
/Pattern26 {<1111b8b87c7c3a3a1111a3a3c7c78b8b1111b8b87c7c3a3a1111a3a3c7c78b8b> PTRN} bind def
/Pattern27 {<101010102828c7c70101010182827c7c101010102828c7c70101010182827c7c> PTRN} bind def
/Pattern28 {<1c1c121211112121c1c12121111112121c1c121211112121c1c1212111111212> PTRN} bind def
/Pattern29 {<3e3e414180808080e3e31414080808083e3e414180808080e3e3141408080808> PTRN} bind def
/Pattern30 {<4848888884848383848488884848383848488888848483838484888848483838> PTRN} bind def
/Pattern31 {<03030404080808080c0c12122121c0c003030404080808080c0c12122121c0c0> PTRN} bind def
/ellipsedict 8 dict def
ellipsedict /mtrx matrix put
/EARC {
 ellipsedict begin
  /endangle exch def
  /startangle exch def
  /yrad exch def
  /xrad exch def
  /y exch def
  /x exch def
  /savematrix mtrx currentmatrix def
  x y translate
  xrad yrad scale
  0 0 1 startangle endangle arc
  savematrix setmatrix
 end
} def
/TL {
  /kcomp exch def
  /linewidth exch def
  /offset exch def
  GS
  0 offset rmoveto
  linewidth SLW
  dup stringwidth exch kcomp add exch RL s
  GR
} def
/KINIT
{
 /kvector exch def
 /kid 0 def
} def
/KPROC
{
 pop pop
 kvector kid get
 0 rmoveto
 /kid 1 kid add def
} def
/DefEncoding [
 /.notdef
 /.notdef
 /.notdef
 /.notdef
 /.notdef
 /.notdef
 /.notdef
 /.notdef
 /.notdef
 /.notdef
 /.notdef
 /.notdef
 /.notdef
 /.notdef
 /.notdef
 /.notdef
 /.notdef
 /.notdef
 /.notdef
 /.notdef
 /.notdef
 /.notdef
 /.notdef
 /.notdef
 /.notdef
 /.notdef
 /.notdef
 /.notdef
 /.notdef
 /.notdef
 /.notdef
 /.notdef
 /space
 /exclam
 /quotedbl
 /numbersign
 /dollar
 /percent
 /ampersand
 /quoteright
 /parenleft
 /parenright
 /asterisk
 /plus
 /comma
 /hyphen
 /period
 /slash
 /zero
 /one
 /two
 /three
 /four
 /five
 /six
 /seven
 /eight
 /nine
 /colon
 /semicolon
 /less
 /equal
 /greater
 /question
 /at
 /A
 /B
 /C
 /D
 /E
 /F
 /G
 /H
 /I
 /J
 /K
 /L
 /M
 /N
 /O
 /P
 /Q
 /R
 /S
 /T
 /U
 /V
 /W
 /X
 /Y
 /Z
 /bracketleft
 /backslash
 /bracketright
 /asciicircum
 /underscore
 /grave
 /a
 /b
 /c
 /d
 /e
 /f
 /g
 /h
 /i
 /j
 /k
 /l
 /m
 /n
 /o
 /p
 /q
 /r
 /s
 /t
 /u
 /v
 /w
 /x
 /y
 /z
 /braceleft
 /bar
 /braceright
 /asciitilde
 /.notdef
 /.notdef
 /.notdef
 /.notdef
 /.notdef
 /.notdef
 /.notdef
 /.notdef
 /.notdef
 /.notdef
 /.notdef
 /.notdef
 /.notdef
 /.notdef
 /.notdef
 /.notdef
 /.notdef
 /.notdef
 /.notdef
 /.notdef
 /.notdef
 /.notdef
 /.notdef
 /.notdef
 /.notdef
 /.notdef
 /.notdef
 /.notdef
 /.notdef
 /.notdef
 /.notdef
 /.notdef
 /.notdef
 /space
 /exclamdown
 /cent
 /sterling
 /currency
 /yen
 /brokenbar
 /section
 /dieresis
 /copyright
 /ordfeminine
 /guillemotleft
 /logicalnot
 /hyphen
 /registered
 /macron
 /degree
 /plusminus
 /twosuperior
 /threesuperior
 /acute
 /mu
 /paragraph
 /periodcentered
 /cedilla
 /onesuperior
 /ordmasculine
 /guillemotright
 /onequarter
 /onehalf
 /threequarters
 /questiondown
 /Agrave
 /Aacute
 /Acircumflex
 /Atilde
 /Adieresis
 /Aring
 /AE
 /Ccedilla
 /Egrave
 /Eacute
 /Ecircumflex
 /Edieresis
 /Igrave
 /Iacute
 /Icircumflex
 /Idieresis
 /Eth
 /Ntilde
 /Ograve
 /Oacute
 /Ocircumflex
 /Otilde
 /Odieresis
 /multiply
 /Oslash
 /Ugrave
 /Uacute
 /Ucircumflex
 /Udieresis
 /Yacute
 /Thorn
 /germandbls
 /agrave
 /aacute
 /acircumflex
 /atilde
 /adieresis
 /aring
 /ae
 /ccedilla
 /egrave
 /eacute
 /ecircumflex
 /edieresis
 /igrave
 /iacute
 /icircumflex
 /idieresis
 /eth
 /ntilde
 /ograve
 /oacute
 /ocircumflex
 /otilde
 /odieresis
 /divide
 /oslash
 /ugrave
 /uacute
 /ucircumflex
 /udieresis
 /yacute
 /thorn
 /ydieresis
] def
%%EndProlog
%%BeginSetup
%%EndSetup
%%Page: 1 1
PAGE_OFFSET_X PAGE_OFFSET_Y translate
612.00 612.00 scale
90 rotate
0.0 -1.0 translate
n
0.0000 0.0000 m
0.0000 1.0000 l
1.2941 1.0000 l
1.2941 0.0000 l
c
[/DeviceRGB] SCS
Color0 SC
fill
n
0.1846 0.4745 0.0100 0.0100 0 360 EARC c
[/DeviceRGB] SCS
Color1 SC
fill
[] 0 SD
0.0015 SLW
n 0.1846 0.4745 0.0100 0.0100 0 360 EARC s
n
0.1992 0.4779 0.0100 0.0100 0 360 EARC c
fill
n 0.1992 0.4779 0.0100 0.0100 0 360 EARC s
n
0.2175 0.4824 0.0100 0.0100 0 360 EARC c
fill
n 0.2175 0.4824 0.0100 0.0100 0 360 EARC s
n
0.2399 0.4881 0.0100 0.0100 0 360 EARC c
fill
n 0.2399 0.4881 0.0100 0.0100 0 360 EARC s
n
0.2667 0.4952 0.0100 0.0100 0 360 EARC c
fill
n 0.2667 0.4952 0.0100 0.0100 0 360 EARC s
n
0.2984 0.5040 0.0100 0.0100 0 360 EARC c
fill
n 0.2984 0.5040 0.0100 0.0100 0 360 EARC s
n
0.3354 0.5147 0.0100 0.0100 0 360 EARC c
fill
n 0.3354 0.5147 0.0100 0.0100 0 360 EARC s
n
0.3780 0.5278 0.0100 0.0100 0 360 EARC c
fill
n 0.3780 0.5278 0.0100 0.0100 0 360 EARC s
n
0.4267 0.5438 0.0100 0.0100 0 360 EARC c
fill
n 0.4267 0.5438 0.0100 0.0100 0 360 EARC s
n
0.4819 0.5633 0.0100 0.0100 0 360 EARC c
fill
n 0.4819 0.5633 0.0100 0.0100 0 360 EARC s
n
0.5439 0.5870 0.0100 0.0100 0 360 EARC c
fill
n 0.5439 0.5870 0.0100 0.0100 0 360 EARC s
n
0.6133 0.6158 0.0100 0.0100 0 360 EARC c
fill
n 0.6133 0.6158 0.0100 0.0100 0 360 EARC s
n
0.6904 0.6507 0.0100 0.0100 0 360 EARC c
fill
n 0.6904 0.6507 0.0100 0.0100 0 360 EARC s
n
0.7756 0.6926 0.0100 0.0100 0 360 EARC c
fill
n 0.7756 0.6926 0.0100 0.0100 0 360 EARC s
n
0.8692 0.7428 0.0100 0.0100 0 360 EARC c
fill
n 0.8692 0.7428 0.0100 0.0100 0 360 EARC s
n
0.9718 0.8029 0.0100 0.0100 0 360 EARC c
fill
n 0.9718 0.8029 0.0100 0.0100 0 360 EARC s
n
0.1846 0.4678 0.0100 0.0100 0 360 EARC c
[/DeviceRGB] SCS
Color2 SC
fill
n 0.1846 0.4678 0.0100 0.0100 0 360 EARC s
n
0.1992 0.4675 0.0100 0.0100 0 360 EARC c
fill
n 0.1992 0.4675 0.0100 0.0100 0 360 EARC s
n
0.2175 0.4670 0.0100 0.0100 0 360 EARC c
fill
n 0.2175 0.4670 0.0100 0.0100 0 360 EARC s
n
0.2399 0.4665 0.0100 0.0100 0 360 EARC c
fill
n 0.2399 0.4665 0.0100 0.0100 0 360 EARC s
n
0.2667 0.4657 0.0100 0.0100 0 360 EARC c
fill
n 0.2667 0.4657 0.0100 0.0100 0 360 EARC s
n
0.2984 0.4648 0.0100 0.0100 0 360 EARC c
fill
n 0.2984 0.4648 0.0100 0.0100 0 360 EARC s
n
0.3354 0.4637 0.0100 0.0100 0 360 EARC c
fill
n 0.3354 0.4637 0.0100 0.0100 0 360 EARC s
n
0.3780 0.4624 0.0100 0.0100 0 360 EARC c
fill
n 0.3780 0.4624 0.0100 0.0100 0 360 EARC s
n
0.4267 0.4608 0.0100 0.0100 0 360 EARC c
fill
n 0.4267 0.4608 0.0100 0.0100 0 360 EARC s
n
0.4819 0.4589 0.0100 0.0100 0 360 EARC c
fill
n 0.4819 0.4589 0.0100 0.0100 0 360 EARC s
n
0.5439 0.4566 0.0100 0.0100 0 360 EARC c
fill
n 0.5439 0.4566 0.0100 0.0100 0 360 EARC s
n
0.6133 0.4537 0.0100 0.0100 0 360 EARC c
fill
n 0.6133 0.4537 0.0100 0.0100 0 360 EARC s
n
0.6904 0.4503 0.0100 0.0100 0 360 EARC c
fill
n 0.6904 0.4503 0.0100 0.0100 0 360 EARC s
n
0.7756 0.4461 0.0100 0.0100 0 360 EARC c
fill
n 0.7756 0.4461 0.0100 0.0100 0 360 EARC s
n
0.8692 0.4409 0.0100 0.0100 0 360 EARC c
fill
n 0.8692 0.4409 0.0100 0.0100 0 360 EARC s
n
0.9718 0.4345 0.0100 0.0100 0 360 EARC c
fill
n 0.9718 0.4345 0.0100 0.0100 0 360 EARC s
n
0.1846 0.4682 0.0100 0.0100 0 360 EARC c
[/DeviceRGB] SCS
Color3 SC
fill
n 0.1846 0.4682 0.0100 0.0100 0 360 EARC s
n
0.1992 0.4683 0.0100 0.0100 0 360 EARC c
fill
n 0.1992 0.4683 0.0100 0.0100 0 360 EARC s
n
0.2175 0.4684 0.0100 0.0100 0 360 EARC c
fill
n 0.2175 0.4684 0.0100 0.0100 0 360 EARC s
n
0.2399 0.4685 0.0100 0.0100 0 360 EARC c
fill
n 0.2399 0.4685 0.0100 0.0100 0 360 EARC s
n
0.2667 0.4686 0.0100 0.0100 0 360 EARC c
fill
n 0.2667 0.4686 0.0100 0.0100 0 360 EARC s
n
0.2984 0.4687 0.0100 0.0100 0 360 EARC c
fill
n 0.2984 0.4687 0.0100 0.0100 0 360 EARC s
n
0.3354 0.4689 0.0100 0.0100 0 360 EARC c
fill
n 0.3354 0.4689 0.0100 0.0100 0 360 EARC s
n
0.3780 0.4690 0.0100 0.0100 0 360 EARC c
fill
n 0.3780 0.4690 0.0100 0.0100 0 360 EARC s
n
0.4267 0.4692 0.0100 0.0100 0 360 EARC c
fill
n 0.4267 0.4692 0.0100 0.0100 0 360 EARC s
n
0.4819 0.4693 0.0100 0.0100 0 360 EARC c
fill
n 0.4819 0.4693 0.0100 0.0100 0 360 EARC s
n
0.5439 0.4694 0.0100 0.0100 0 360 EARC c
fill
n 0.5439 0.4694 0.0100 0.0100 0 360 EARC s
n
0.6133 0.4696 0.0100 0.0100 0 360 EARC c
fill
n 0.6133 0.4696 0.0100 0.0100 0 360 EARC s
n
0.6904 0.4697 0.0100 0.0100 0 360 EARC c
fill
n 0.6904 0.4697 0.0100 0.0100 0 360 EARC s
n
0.7756 0.4700 0.0100 0.0100 0 360 EARC c
fill
n 0.7756 0.4700 0.0100 0.0100 0 360 EARC s
n
0.8692 0.4704 0.0100 0.0100 0 360 EARC c
fill
n 0.8692 0.4704 0.0100 0.0100 0 360 EARC s
n
0.9718 0.4711 0.0100 0.0100 0 360 EARC c
fill
n 0.9718 0.4711 0.0100 0.0100 0 360 EARC s
[/DeviceRGB] SCS
Color1 SC
[] 0 SD
0.0045 SLW
0 SLC
0 SLJ
n
0.1500 0.1500 m
1.1500 0.1500 l
s
n
0.1500 0.8500 m
1.1500 0.8500 l
s
n
0.2500 0.1500 m
0.2500 0.1600 l
s
n
0.2500 0.8500 m
0.2500 0.8400 l
s
n
0.4500 0.1500 m
0.4500 0.1600 l
s
n
0.4500 0.8500 m
0.4500 0.8400 l
s
n
0.6500 0.1500 m
0.6500 0.1600 l
s
n
0.6500 0.8500 m
0.6500 0.8400 l
s
n
0.8500 0.1500 m
0.8500 0.1600 l
s
n
0.8500 0.8500 m
0.8500 0.8400 l
s
n
1.0500 0.1500 m
1.0500 0.1600 l
s
n
1.0500 0.8500 m
1.0500 0.8400 l
s
n
0.1500 0.1500 m
0.1500 0.1700 l
s
n
0.1500 0.8500 m
0.1500 0.8300 l
s
n
0.3500 0.1500 m
0.3500 0.1700 l
s
n
0.3500 0.8500 m
0.3500 0.8300 l
s
n
0.5500 0.1500 m
0.5500 0.1700 l
s
n
0.5500 0.8500 m
0.5500 0.8300 l
s
n
0.7500 0.1500 m
0.7500 0.1700 l
s
n
0.7500 0.8500 m
0.7500 0.8300 l
s
n
0.9500 0.1500 m
0.9500 0.1700 l
s
n
0.9500 0.8500 m
0.9500 0.8300 l
s
n
1.1500 0.1500 m
1.1500 0.1700 l
s
n
1.1500 0.8500 m
1.1500 0.8300 l
s
/Times-Roman findfont
dup length dict begin
 {1 index /FID ne {def} {pop pop} ifelse} forall
 /Encoding DefEncoding def
 currentdict
end
/Font0 exch definefont pop
/Font0 FFSF
0.1394 0.1094 m
GS
[0.0448 0.0000 0.0000 0.0448 0 0] CC
(0) show
GR
/Font0 FFSF
0.3225 0.1094 m
GS
[0.0448 0.0000 0.0000 0.0448 0 0] CC
(0.2) show
GR
/Font0 FFSF
0.5225 0.1094 m
GS
[0.0448 0.0000 0.0000 0.0448 0 0] CC
(0.4) show
GR
/Font0 FFSF
0.7227 0.1094 m
GS
[0.0448 0.0000 0.0000 0.0448 0 0] CC
(0.6) show
GR
/Font0 FFSF
0.9231 0.1094 m
GS
[0.0448 0.0000 0.0000 0.0448 0 0] CC
(0.8) show
GR
/Font0 FFSF
1.1412 0.1094 m
GS
[0.0448 0.0000 0.0000 0.0448 0 0] CC
(1) show
GR
/Symbol findfont
/Font12 exch definefont pop
/Font12 FFSF
0.5722 0.0445 m
GS
[0.0504 0.0000 0.0000 0.0504 0 0] CC
(r) show
GR
/Font0 FFSF
0.6000 0.0445 m
GS
[0.0504 0.0000 0.0000 0.0504 0 0] CC
( [fm) show
GR
/Font0 FFSF
0.6855 0.0747 m
GS
[0.0356 0.0000 0.0000 0.0356 0 0] CC
(-3) show
GR
/Font0 FFSF
0.7153 0.0445 m
GS
[0.0504 0.0000 0.0000 0.0504 0 0] CC
(]) show
GR
n
0.1500 0.1500 m
0.1500 0.8500 l
s
n
1.1500 0.1500 m
1.1500 0.8500 l
s
n
0.1500 0.1500 m
0.1600 0.1500 l
s
n
1.1500 0.1500 m
1.1400 0.1500 l
s
n
0.1500 0.2773 m
0.1600 0.2773 l
s
n
1.1500 0.2773 m
1.1400 0.2773 l
s
n
0.1500 0.4045 m
0.1600 0.4045 l
s
n
1.1500 0.4045 m
1.1400 0.4045 l
s
n
0.1500 0.5318 m
0.1600 0.5318 l
s
n
1.1500 0.5318 m
1.1400 0.5318 l
s
n
0.1500 0.6591 m
0.1600 0.6591 l
s
n
1.1500 0.6591 m
1.1400 0.6591 l
s
n
0.1500 0.7864 m
0.1600 0.7864 l
s
n
1.1500 0.7864 m
1.1400 0.7864 l
s
n
0.1500 0.2136 m
0.1700 0.2136 l
s
n
1.1500 0.2136 m
1.1300 0.2136 l
s
n
0.1500 0.3409 m
0.1700 0.3409 l
s
n
1.1500 0.3409 m
1.1300 0.3409 l
s
n
0.1500 0.4682 m
0.1700 0.4682 l
s
n
1.1500 0.4682 m
1.1300 0.4682 l
s
n
0.1500 0.5955 m
0.1700 0.5955 l
s
n
1.1500 0.5955 m
1.1300 0.5955 l
s
n
0.1500 0.7227 m
0.1700 0.7227 l
s
n
1.1500 0.7227 m
1.1300 0.7227 l
s
n
0.1500 0.8500 m
0.1700 0.8500 l
s
n
1.1500 0.8500 m
1.1300 0.8500 l
s
/Font0 FFSF
0.0816 0.1987 m
GS
[0.0448 0.0000 0.0000 0.0448 0 0] CC
(-40) show
GR
/Font0 FFSF
0.0816 0.3260 m
GS
[0.0448 0.0000 0.0000 0.0448 0 0] CC
(-20) show
GR
/Font0 FFSF
0.1188 0.4533 m
GS
[0.0448 0.0000 0.0000 0.0448 0 0] CC
(0) show
GR
/Font0 FFSF
0.0965 0.5806 m
GS
[0.0448 0.0000 0.0000 0.0448 0 0] CC
(20) show
GR
/Font0 FFSF
0.0965 0.7078 m
GS
[0.0448 0.0000 0.0000 0.0448 0 0] CC
(40) show
GR
/Font0 FFSF
0.0965 0.8351 m
GS
[0.0448 0.0000 0.0000 0.0448 0 0] CC
(60) show
GR
/Font0 FFSF
0.0637 0.4335 m
GS
[0.0000 0.0504 -0.0504 0.0000 0 0] CC
([MeV]) show
GR
[] 0 SD
0.0015 SLW
n
0.1500 0.1500 m
0.1500 0.8500 l
1.1500 0.8500 l
1.1500 0.1500 l
0.1500 0.1500 l
c
s
n
0.2000 0.8000 m
0.2000 0.6541 l
0.4392 0.6541 l
0.4392 0.8000 l
c
[/DeviceRGB] SCS
Color0 SC
fill
/Font0 FFSF
[/DeviceRGB] SCS
Color1 SC
0.2700 0.7555 m
GS
[0.0521 0.0000 0.0000 0.0521 0 0] CC
(P-wave) show
GR
n
0.2300 0.7724 0.0100 0.0100 0 360 EARC c
fill
n 0.2300 0.7724 0.0100 0.0100 0 360 EARC s
/Font0 FFSF
0.2700 0.7102 m
GS
[0.0521 0.0000 0.0000 0.0521 0 0] CC
(D wave) show
GR
n
0.2300 0.7271 0.0100 0.0100 0 360 EARC c
[/DeviceRGB] SCS
Color2 SC
fill
n 0.2300 0.7271 0.0100 0.0100 0 360 EARC s
/Font0 FFSF
[/DeviceRGB] SCS
Color1 SC
0.2700 0.6649 m
GS
[0.0521 0.0000 0.0000 0.0521 0 0] CC
(F-wave) show
GR
n
0.2300 0.6818 0.0100 0.0100 0 360 EARC c
[/DeviceRGB] SCS
Color3 SC
fill
n 0.2300 0.6818 0.0100 0.0100 0 360 EARC s
showpage
%%PageTrailer
%%Trailer
%%DocumentNeededResources: font Times-Roman
%%+ font Symbol
%%EOF
