%!PS-Adobe-3.0
%%BoundingBox: 0 0 612 792
%%LanguageLevel: 2
%%Creator: Grace-5.1.25
%%CreationDate: Fri Oct 30 17:36:59 2015
%%DocumentData: Clean8Bit
%%Orientation: Landscape
%%Pages: 1
%%PageOrder: Ascend
%%Title: EsurA_gogny.agr
%%For: ap1450
%%DocumentNeededResources: (atend)
%%EndComments
%%BeginProlog
/PAGE_OFFSET_X 0 def
/PAGE_OFFSET_Y 0 def
/m {moveto} def
/l {lineto} def
/s {stroke} def
/n {newpath} def
/c {closepath} def
/RL {rlineto} def
/SLW {setlinewidth} def
/GS {gsave} def
/GR {grestore} def
/SC {setcolor} def
/SGRY {setgray} def
/SRGB {setrgbcolor} def
/SD {setdash} def
/SLC {setlinecap} def
/SLJ {setlinejoin} def
/SCS {setcolorspace} def
/FFSF {findfont setfont} def
/CC {concat} def
/PXL {n m 0 0 RL s} def
/Color0 {1.0000 1.0000 1.0000} def
/Color1 {0.0000 0.0000 0.0000} def
/Color2 {1.0000 0.0000 0.0000} def
/Color3 {0.0000 1.0000 0.0000} def
/Color4 {0.0000 0.0000 1.0000} def
/Color5 {1.0000 1.0000 0.0000} def
/Color6 {0.7373 0.5608 0.5608} def
/Color7 {0.8627 0.8627 0.8627} def
/Color8 {0.5804 0.0000 0.8275} def
/Color9 {0.0000 1.0000 1.0000} def
/Color10 {1.0000 0.0000 1.0000} def
/Color11 {1.0000 0.6471 0.0000} def
/Color12 {0.4471 0.1294 0.7373} def
/Color13 {0.4039 0.0275 0.2824} def
/Color14 {0.2510 0.8784 0.8157} def
/Color15 {0.0000 0.5451 0.0000} def
/Color16 {0.7529 0.7529 0.7529} def
/Color17 {0.5059 0.5059 0.5059} def
/Color18 {0.2588 0.2588 0.2588} def
/PTRN {
 /pat_bits exch def 
 <<
  /PaintType 2
  /PatternType 1 /TilingType 1
  /BBox[0 0 16 16]
  /XStep 16 /YStep 16
  /PaintProc {
   pop
   16 16 true [-1 0 0 -1 16 16] pat_bits imagemask
  }
 >>
 [0.0016 0 0 0.0016 0 0]
 makepattern
} def
/Pattern0 {<0000000000000000000000000000000000000000000000000000000000000000> PTRN} bind def
/Pattern1 {<ffffffffffffffffffffffffffffffffffffffffffffffffffffffffffffffff> PTRN} bind def
/Pattern2 {<eeeeffffbbbbffffeeeeffffbbbbffffeeeeffffbbbbffffeeeeffffbbbbffff> PTRN} bind def
/Pattern3 {<eeeebbbbeeeebbbbeeeebbbbeeeebbbbeeeebbbbeeeebbbbeeeebbbbeeeebbbb> PTRN} bind def
/Pattern4 {<5555aaaa5555aaaa5555aaaa5555aaaa5555aaaa5555aaaa5555aaaa5555aaaa> PTRN} bind def
/Pattern5 {<1111444411114444111144441111444411114444111144441111444411114444> PTRN} bind def
/Pattern6 {<1111000044440000111100004444000011110000444400001111000044440000> PTRN} bind def
/Pattern7 {<1010000000000000010100000000000010100000000000000101000000000000> PTRN} bind def
/Pattern8 {<0000000000000000000000000000000000000000000000000000000000000000> PTRN} bind def
/Pattern9 {<1e1e0f0f8787c3c3e1e1f0f078783c3c1e1e0f0f8787c3c3e1e1f0f078783c3c> PTRN} bind def
/Pattern10 {<7878f0f0e1e1c3c387870f0f1e1e3c3c7878f0f0e1e1c3c387870f0f1e1e3c3c> PTRN} bind def
/Pattern11 {<3333333333333333333333333333333333333333333333333333333333333333> PTRN} bind def
/Pattern12 {<ffffffff00000000ffffffff00000000ffffffff00000000ffffffff00000000> PTRN} bind def
/Pattern13 {<8181424224241818181824244242818181814242242418181818242442428181> PTRN} bind def
/Pattern14 {<8080404020201010080804040202010180804040202010100808040402020101> PTRN} bind def
/Pattern15 {<0101020204040808101020204040808001010202040408081010202040408080> PTRN} bind def
/Pattern16 {<2222222222222222222222222222222222222222222222222222222222222222> PTRN} bind def
/Pattern17 {<0000ffff000000000000ffff000000000000ffff000000000000ffff00000000> PTRN} bind def
/Pattern18 {<2222ffff222222222222ffff222222222222ffff222222222222ffff22222222> PTRN} bind def
/Pattern19 {<ffffffff33333333ffffffff33333333ffffffff33333333ffffffff33333333> PTRN} bind def
/Pattern20 {<0f0f0f0f0f0f0f0ff0f0f0f0f0f0f0f00f0f0f0f0f0f0f0ff0f0f0f0f0f0f0f0> PTRN} bind def
/Pattern21 {<ff00ff00ff00ff00ff00ff00ff00ff0000ff00ff00ff00ff00ff00ff00ff00ff> PTRN} bind def
/Pattern22 {<8001800180018001800180018001ffffffff8001800180018001800180018001> PTRN} bind def
/Pattern23 {<c003c003c003c003c003c003ffffffffffffffffc003c003c003c003c003c003> PTRN} bind def
/Pattern24 {<040404040404ffff404040404040ffff040404040404ffff404040404040ffff> PTRN} bind def
/Pattern25 {<180018001800180018001800ffffffff001800180018001800180018ffffffff> PTRN} bind def
/Pattern26 {<1111b8b87c7c3a3a1111a3a3c7c78b8b1111b8b87c7c3a3a1111a3a3c7c78b8b> PTRN} bind def
/Pattern27 {<101010102828c7c70101010182827c7c101010102828c7c70101010182827c7c> PTRN} bind def
/Pattern28 {<1c1c121211112121c1c12121111112121c1c121211112121c1c1212111111212> PTRN} bind def
/Pattern29 {<3e3e414180808080e3e31414080808083e3e414180808080e3e3141408080808> PTRN} bind def
/Pattern30 {<4848888884848383848488884848383848488888848483838484888848483838> PTRN} bind def
/Pattern31 {<03030404080808080c0c12122121c0c003030404080808080c0c12122121c0c0> PTRN} bind def
/ellipsedict 8 dict def
ellipsedict /mtrx matrix put
/EARC {
 ellipsedict begin
  /endangle exch def
  /startangle exch def
  /yrad exch def
  /xrad exch def
  /y exch def
  /x exch def
  /savematrix mtrx currentmatrix def
  x y translate
  xrad yrad scale
  0 0 1 startangle endangle arc
  savematrix setmatrix
 end
} def
/TL {
  /kcomp exch def
  /linewidth exch def
  /offset exch def
  GS
  0 offset rmoveto
  linewidth SLW
  dup stringwidth exch kcomp add exch RL s
  GR
} def
/KINIT
{
 /kvector exch def
 /kid 0 def
} def
/KPROC
{
 pop pop
 kvector kid get
 0 rmoveto
 /kid 1 kid add def
} def
/DefEncoding [
 /.notdef
 /.notdef
 /.notdef
 /.notdef
 /.notdef
 /.notdef
 /.notdef
 /.notdef
 /.notdef
 /.notdef
 /.notdef
 /.notdef
 /.notdef
 /.notdef
 /.notdef
 /.notdef
 /.notdef
 /.notdef
 /.notdef
 /.notdef
 /.notdef
 /.notdef
 /.notdef
 /.notdef
 /.notdef
 /.notdef
 /.notdef
 /.notdef
 /.notdef
 /.notdef
 /.notdef
 /.notdef
 /space
 /exclam
 /quotedbl
 /numbersign
 /dollar
 /percent
 /ampersand
 /quoteright
 /parenleft
 /parenright
 /asterisk
 /plus
 /comma
 /hyphen
 /period
 /slash
 /zero
 /one
 /two
 /three
 /four
 /five
 /six
 /seven
 /eight
 /nine
 /colon
 /semicolon
 /less
 /equal
 /greater
 /question
 /at
 /A
 /B
 /C
 /D
 /E
 /F
 /G
 /H
 /I
 /J
 /K
 /L
 /M
 /N
 /O
 /P
 /Q
 /R
 /S
 /T
 /U
 /V
 /W
 /X
 /Y
 /Z
 /bracketleft
 /backslash
 /bracketright
 /asciicircum
 /underscore
 /grave
 /a
 /b
 /c
 /d
 /e
 /f
 /g
 /h
 /i
 /j
 /k
 /l
 /m
 /n
 /o
 /p
 /q
 /r
 /s
 /t
 /u
 /v
 /w
 /x
 /y
 /z
 /braceleft
 /bar
 /braceright
 /asciitilde
 /.notdef
 /.notdef
 /.notdef
 /.notdef
 /.notdef
 /.notdef
 /.notdef
 /.notdef
 /.notdef
 /.notdef
 /.notdef
 /.notdef
 /.notdef
 /.notdef
 /.notdef
 /.notdef
 /.notdef
 /.notdef
 /.notdef
 /.notdef
 /.notdef
 /.notdef
 /.notdef
 /.notdef
 /.notdef
 /.notdef
 /.notdef
 /.notdef
 /.notdef
 /.notdef
 /.notdef
 /.notdef
 /.notdef
 /space
 /exclamdown
 /cent
 /sterling
 /currency
 /yen
 /brokenbar
 /section
 /dieresis
 /copyright
 /ordfeminine
 /guillemotleft
 /logicalnot
 /hyphen
 /registered
 /macron
 /degree
 /plusminus
 /twosuperior
 /threesuperior
 /acute
 /mu
 /paragraph
 /periodcentered
 /cedilla
 /onesuperior
 /ordmasculine
 /guillemotright
 /onequarter
 /onehalf
 /threequarters
 /questiondown
 /Agrave
 /Aacute
 /Acircumflex
 /Atilde
 /Adieresis
 /Aring
 /AE
 /Ccedilla
 /Egrave
 /Eacute
 /Ecircumflex
 /Edieresis
 /Igrave
 /Iacute
 /Icircumflex
 /Idieresis
 /Eth
 /Ntilde
 /Ograve
 /Oacute
 /Ocircumflex
 /Otilde
 /Odieresis
 /multiply
 /Oslash
 /Ugrave
 /Uacute
 /Ucircumflex
 /Udieresis
 /Yacute
 /Thorn
 /germandbls
 /agrave
 /aacute
 /acircumflex
 /atilde
 /adieresis
 /aring
 /ae
 /ccedilla
 /egrave
 /eacute
 /ecircumflex
 /edieresis
 /igrave
 /iacute
 /icircumflex
 /idieresis
 /eth
 /ntilde
 /ograve
 /oacute
 /ocircumflex
 /otilde
 /odieresis
 /divide
 /oslash
 /ugrave
 /uacute
 /ucircumflex
 /udieresis
 /yacute
 /thorn
 /ydieresis
] def
%%EndProlog
%%BeginSetup
%%EndSetup
%%Page: 1 1
PAGE_OFFSET_X PAGE_OFFSET_Y translate
612.00 612.00 scale
90 rotate
0.0 -1.0 translate
n
0.2215 0.1636 m
0.2215 0.1806 l
0.2385 0.1806 l
0.2385 0.1636 l
c
GS
[/DeviceRGB] SCS
Color0 SRGB
fill
GR
[/Pattern /DeviceRGB] SCS
Color1 Pattern8 SC
fill
[/DeviceRGB] SCS
Color1 SC
[] 0 SD
0.0030 SLW
0 SLC
0 SLJ
n
0.2215 0.1636 m
0.2215 0.1806 l
0.2385 0.1806 l
0.2385 0.1636 l
0.2215 0.1636 l
c
s
n
0.3015 0.1510 m
0.3015 0.1680 l
0.3185 0.1680 l
0.3185 0.1510 l
c
GS
Color0 SRGB
fill
GR
[/Pattern /DeviceRGB] SCS
Color1 Pattern8 SC
fill
[/DeviceRGB] SCS
Color1 SC
n
0.3015 0.1510 m
0.3015 0.1680 l
0.3185 0.1680 l
0.3185 0.1510 l
0.3015 0.1510 l
c
s
n
0.3415 0.1512 m
0.3415 0.1682 l
0.3585 0.1682 l
0.3585 0.1512 l
c
GS
Color0 SRGB
fill
GR
[/Pattern /DeviceRGB] SCS
Color1 Pattern8 SC
fill
[/DeviceRGB] SCS
Color1 SC
n
0.3415 0.1512 m
0.3415 0.1682 l
0.3585 0.1682 l
0.3585 0.1512 l
0.3415 0.1512 l
c
s
n
0.4415 0.1654 m
0.4415 0.1824 l
0.4585 0.1824 l
0.4585 0.1654 l
c
GS
Color0 SRGB
fill
GR
[/Pattern /DeviceRGB] SCS
Color1 Pattern8 SC
fill
[/DeviceRGB] SCS
Color1 SC
n
0.4415 0.1654 m
0.4415 0.1824 l
0.4585 0.1824 l
0.4585 0.1654 l
0.4415 0.1654 l
c
s
n
0.5415 0.1954 m
0.5415 0.2124 l
0.5585 0.2124 l
0.5585 0.1954 l
c
GS
Color0 SRGB
fill
GR
[/Pattern /DeviceRGB] SCS
Color1 Pattern8 SC
fill
[/DeviceRGB] SCS
Color1 SC
n
0.5415 0.1954 m
0.5415 0.2124 l
0.5585 0.2124 l
0.5585 0.1954 l
0.5415 0.1954 l
c
s
n
0.6415 0.2388 m
0.6415 0.2558 l
0.6585 0.2558 l
0.6585 0.2388 l
c
GS
Color0 SRGB
fill
GR
[/Pattern /DeviceRGB] SCS
Color1 Pattern8 SC
fill
[/DeviceRGB] SCS
Color1 SC
n
0.6415 0.2388 m
0.6415 0.2558 l
0.6585 0.2558 l
0.6585 0.2388 l
0.6415 0.2388 l
c
s
n
0.7415 0.2932 m
0.7415 0.3102 l
0.7585 0.3102 l
0.7585 0.2932 l
c
GS
Color0 SRGB
fill
GR
[/Pattern /DeviceRGB] SCS
Color1 Pattern8 SC
fill
[/DeviceRGB] SCS
Color1 SC
n
0.7415 0.2932 m
0.7415 0.3102 l
0.7585 0.3102 l
0.7585 0.2932 l
0.7415 0.2932 l
c
s
n
0.8415 0.3559 m
0.8415 0.3729 l
0.8585 0.3729 l
0.8585 0.3559 l
c
GS
Color0 SRGB
fill
GR
[/Pattern /DeviceRGB] SCS
Color1 Pattern8 SC
fill
[/DeviceRGB] SCS
Color1 SC
n
0.8415 0.3559 m
0.8415 0.3729 l
0.8585 0.3729 l
0.8585 0.3559 l
0.8415 0.3559 l
c
s
n
0.9415 0.4249 m
0.9415 0.4419 l
0.9585 0.4419 l
0.9585 0.4249 l
c
GS
Color0 SRGB
fill
GR
[/Pattern /DeviceRGB] SCS
Color1 Pattern8 SC
fill
[/DeviceRGB] SCS
Color1 SC
n
0.9415 0.4249 m
0.9415 0.4419 l
0.9585 0.4419 l
0.9585 0.4249 l
0.9415 0.4249 l
c
s
n
1.0415 0.4984 m
1.0415 0.5154 l
1.0585 0.5154 l
1.0585 0.4984 l
c
GS
Color0 SRGB
fill
GR
[/Pattern /DeviceRGB] SCS
Color1 Pattern8 SC
fill
[/DeviceRGB] SCS
Color1 SC
n
1.0415 0.4984 m
1.0415 0.5154 l
1.0585 0.5154 l
1.0585 0.4984 l
1.0415 0.4984 l
c
s
n
1.1415 0.5754 m
1.1415 0.5924 l
1.1585 0.5924 l
1.1585 0.5754 l
c
GS
Color0 SRGB
fill
GR
[/Pattern /DeviceRGB] SCS
Color1 Pattern8 SC
fill
[/DeviceRGB] SCS
Color1 SC
n
1.1415 0.5754 m
1.1415 0.5924 l
1.1585 0.5924 l
1.1585 0.5754 l
1.1415 0.5754 l
c
s
[] 0 SD
0.0037 SLW
n
0.1500 0.2019 m
0.1500 0.2019 l
0.1500 0.2019 l
0.1500 0.2019 l
0.1500 0.2019 l
0.1500 0.2019 l
0.1500 0.2020 l
0.1500 0.2020 l
0.1500 0.2020 l
0.1501 0.2021 l
0.1501 0.2021 l
0.1501 0.2021 l
0.1501 0.2022 l
0.1502 0.2022 l
0.1502 0.2022 l
0.1503 0.2022 l
0.1503 0.2022 l
0.1504 0.2023 l
0.1505 0.2023 l
0.1505 0.2023 l
0.1506 0.2023 l
0.1507 0.2023 l
0.1508 0.2023 l
0.1509 0.2022 l
0.1511 0.2022 l
0.1512 0.2022 l
0.1513 0.2021 l
0.1515 0.2021 l
0.1516 0.2020 l
0.1518 0.2020 l
0.1520 0.2019 l
0.1522 0.2018 l
0.1524 0.2017 l
0.1527 0.2016 l
0.1529 0.2015 l
0.1532 0.2014 l
0.1534 0.2012 l
0.1537 0.2011 l
0.1540 0.2009 l
0.1543 0.2008 l
0.1547 0.2006 l
0.1550 0.2004 l
0.1554 0.2002 l
0.1558 0.2000 l
0.1562 0.1997 l
0.1566 0.1995 l
0.1570 0.1992 l
0.1575 0.1990 l
0.1579 0.1987 l
0.1584 0.1984 l
0.1590 0.1981 l
0.1595 0.1978 l
0.1601 0.1975 l
0.1606 0.1971 l
0.1612 0.1968 l
0.1619 0.1964 l
0.1625 0.1960 l
0.1632 0.1956 l
0.1639 0.1953 l
0.1646 0.1948 l
0.1653 0.1944 l
0.1661 0.1940 l
0.1669 0.1936 l
0.1677 0.1931 l
0.1686 0.1926 l
0.1694 0.1922 l
0.1703 0.1917 l
0.1712 0.1912 l
0.1722 0.1907 l
0.1732 0.1902 l
0.1742 0.1897 l
0.1752 0.1891 l
0.1763 0.1886 l
0.1774 0.1881 l
0.1785 0.1875 l
0.1797 0.1869 l
0.1808 0.1864 l
0.1821 0.1858 l
0.1833 0.1852 l
0.1846 0.1847 l
0.1859 0.1841 l
0.1872 0.1835 l
0.1886 0.1829 l
0.1900 0.1823 l
0.1915 0.1817 l
0.1930 0.1811 l
0.1945 0.1805 l
0.1960 0.1799 l
0.1976 0.1793 l
0.1992 0.1787 l
0.2009 0.1781 l
0.2026 0.1774 l
0.2043 0.1768 l
0.2061 0.1762 l
0.2079 0.1756 l
0.2098 0.1750 l
0.2116 0.1744 l
0.2136 0.1738 l
0.2155 0.1732 l
0.2175 0.1727 l
0.2196 0.1721 l
0.2217 0.1715 l
0.2238 0.1709 l
0.2260 0.1704 l
0.2282 0.1698 l
0.2305 0.1693 l
0.2327 0.1688 l
0.2351 0.1683 l
0.2375 0.1677 l
0.2399 0.1672 l
0.2424 0.1668 l
0.2449 0.1663 l
0.2475 0.1658 l
0.2501 0.1654 l
0.2527 0.1649 l
0.2554 0.1645 l
0.2582 0.1641 l
0.2610 0.1637 l
0.2638 0.1634 l
0.2667 0.1630 l
0.2697 0.1627 l
0.2727 0.1624 l
0.2757 0.1621 l
0.2788 0.1618 l
0.2819 0.1616 l
0.2851 0.1614 l
0.2884 0.1612 l
0.2917 0.1610 l
0.2950 0.1608 l
0.2984 0.1607 l
0.3019 0.1606 l
0.3054 0.1605 l
0.3089 0.1605 l
0.3125 0.1605 l
0.3162 0.1605 l
0.3199 0.1605 l
0.3237 0.1606 l
0.3275 0.1607 l
0.3314 0.1608 l
0.3354 0.1610 l
0.3394 0.1612 l
0.3434 0.1614 l
0.3475 0.1617 l
0.3517 0.1620 l
0.3559 0.1624 l
0.3602 0.1627 l
0.3646 0.1632 l
0.3690 0.1636 l
0.3734 0.1641 l
0.3780 0.1647 l
0.3826 0.1652 l
0.3872 0.1659 l
0.3919 0.1665 l
0.3967 0.1672 l
0.4015 0.1680 l
0.4064 0.1688 l
0.4114 0.1696 l
0.4164 0.1705 l
0.4215 0.1715 l
0.4267 0.1725 l
0.4319 0.1735 l
0.4372 0.1746 l
0.4425 0.1757 l
0.4479 0.1769 l
0.4534 0.1782 l
0.4590 0.1795 l
0.4646 0.1809 l
0.4703 0.1823 l
0.4760 0.1837 l
0.4819 0.1853 l
0.4878 0.1869 l
0.4937 0.1885 l
0.4997 0.1902 l
0.5058 0.1920 l
0.5120 0.1938 l
0.5183 0.1957 l
0.5246 0.1977 l
0.5310 0.1997 l
0.5374 0.2018 l
0.5439 0.2039 l
0.5505 0.2062 l
0.5572 0.2085 l
0.5640 0.2108 l
0.5708 0.2132 l
0.5777 0.2158 l
0.5847 0.2183 l
0.5917 0.2210 l
0.5988 0.2237 l
0.6060 0.2265 l
0.6133 0.2294 l
0.6207 0.2323 l
0.6281 0.2354 l
0.6356 0.2385 l
0.6432 0.2417 l
0.6509 0.2450 l
0.6586 0.2483 l
0.6664 0.2518 l
0.6743 0.2553 l
0.6823 0.2589 l
0.6904 0.2626 l
0.6985 0.2664 l
0.7068 0.2703 l
0.7151 0.2743 l
0.7235 0.2783 l
0.7319 0.2825 l
0.7405 0.2868 l
0.7491 0.2911 l
0.7579 0.2955 l
0.7667 0.3001 l
0.7756 0.3047 l
0.7845 0.3095 l
0.7936 0.3143 l
0.8028 0.3193 l
0.8120 0.3243 l
0.8213 0.3295 l
0.8307 0.3347 l
0.8402 0.3401 l
0.8498 0.3456 l
0.8595 0.3511 l
0.8692 0.3568 l
0.8791 0.3626 l
0.8890 0.3686 l
0.8991 0.3746 l
0.9092 0.3807 l
0.9194 0.3870 l
0.9297 0.3934 l
0.9401 0.3999 l
0.9506 0.4065 l
0.9612 0.4133 l
0.9718 0.4202 l
0.9826 0.4272 l
0.9935 0.4343 l
1.0044 0.4416 l
1.0155 0.4490 l
1.0266 0.4565 l
1.0379 0.4641 l
1.0492 0.4719 l
1.0606 0.4798 l
1.0722 0.4879 l
1.0838 0.4961 l
1.0955 0.5044 l
1.1073 0.5129 l
1.1192 0.5215 l
1.1312 0.5303 l
1.1434 0.5392 l
1.1501 0.5442 l
s
[/DeviceRGB] SCS
Color2 SC
n
0.1500 0.2019 m
0.1500 0.2019 l
0.1500 0.2019 l
0.1500 0.2019 l
0.1500 0.2019 l
0.1500 0.2019 l
0.1500 0.2020 l
0.1500 0.2020 l
0.1500 0.2020 l
0.1501 0.2021 l
0.1501 0.2021 l
0.1501 0.2021 l
0.1501 0.2022 l
0.1502 0.2022 l
0.1502 0.2022 l
0.1503 0.2022 l
0.1503 0.2023 l
0.1504 0.2023 l
0.1505 0.2023 l
0.1505 0.2023 l
0.1506 0.2023 l
0.1507 0.2023 l
0.1508 0.2023 l
0.1509 0.2023 l
0.1511 0.2023 l
0.1512 0.2022 l
0.1513 0.2022 l
0.1515 0.2022 l
0.1516 0.2021 l
0.1518 0.2021 l
0.1520 0.2020 l
0.1522 0.2019 l
0.1524 0.2018 l
0.1527 0.2017 l
0.1529 0.2016 l
0.1532 0.2015 l
0.1534 0.2014 l
0.1537 0.2013 l
0.1540 0.2011 l
0.1543 0.2010 l
0.1547 0.2008 l
0.1550 0.2006 l
0.1554 0.2004 l
0.1558 0.2002 l
0.1562 0.2000 l
0.1566 0.1998 l
0.1570 0.1995 l
0.1575 0.1993 l
0.1579 0.1990 l
0.1584 0.1987 l
0.1590 0.1985 l
0.1595 0.1982 l
0.1601 0.1979 l
0.1606 0.1975 l
0.1612 0.1972 l
0.1619 0.1969 l
0.1625 0.1965 l
0.1632 0.1961 l
0.1639 0.1957 l
0.1646 0.1954 l
0.1653 0.1950 l
0.1661 0.1945 l
0.1669 0.1941 l
0.1677 0.1937 l
0.1686 0.1932 l
0.1694 0.1928 l
0.1703 0.1923 l
0.1712 0.1918 l
0.1722 0.1913 l
0.1732 0.1908 l
0.1742 0.1903 l
0.1752 0.1898 l
0.1763 0.1893 l
0.1774 0.1887 l
0.1785 0.1882 l
0.1797 0.1877 l
0.1808 0.1871 l
0.1821 0.1865 l
0.1833 0.1860 l
0.1846 0.1854 l
0.1859 0.1848 l
0.1872 0.1842 l
0.1886 0.1836 l
0.1900 0.1830 l
0.1915 0.1824 l
0.1930 0.1818 l
0.1945 0.1812 l
0.1960 0.1806 l
0.1976 0.1800 l
0.1992 0.1794 l
0.2009 0.1787 l
0.2026 0.1781 l
0.2043 0.1775 l
0.2061 0.1769 l
0.2079 0.1763 l
0.2098 0.1757 l
0.2116 0.1750 l
0.2136 0.1744 l
0.2155 0.1738 l
0.2175 0.1732 l
0.2196 0.1726 l
0.2217 0.1720 l
0.2238 0.1715 l
0.2260 0.1709 l
0.2282 0.1703 l
0.2305 0.1697 l
0.2327 0.1692 l
0.2351 0.1686 l
0.2375 0.1681 l
0.2399 0.1676 l
0.2424 0.1671 l
0.2449 0.1666 l
0.2475 0.1661 l
0.2501 0.1656 l
0.2527 0.1652 l
0.2554 0.1647 l
0.2582 0.1643 l
0.2610 0.1639 l
0.2638 0.1635 l
0.2667 0.1632 l
0.2697 0.1628 l
0.2727 0.1625 l
0.2757 0.1622 l
0.2788 0.1619 l
0.2819 0.1616 l
0.2851 0.1614 l
0.2884 0.1612 l
0.2917 0.1610 l
0.2950 0.1609 l
0.2984 0.1607 l
0.3019 0.1606 l
0.3054 0.1606 l
0.3089 0.1605 l
0.3125 0.1605 l
0.3162 0.1606 l
0.3199 0.1606 l
0.3237 0.1607 l
0.3275 0.1609 l
0.3314 0.1610 l
0.3354 0.1612 l
0.3394 0.1615 l
0.3434 0.1618 l
0.3475 0.1621 l
0.3517 0.1625 l
0.3559 0.1629 l
0.3602 0.1634 l
0.3646 0.1639 l
0.3690 0.1644 l
0.3734 0.1650 l
0.3780 0.1657 l
0.3826 0.1664 l
0.3872 0.1671 l
0.3919 0.1679 l
0.3967 0.1688 l
0.4015 0.1697 l
0.4064 0.1707 l
0.4114 0.1717 l
0.4164 0.1728 l
0.4215 0.1739 l
0.4267 0.1751 l
0.4319 0.1764 l
0.4372 0.1777 l
0.4425 0.1791 l
0.4479 0.1806 l
0.4534 0.1821 l
0.4590 0.1837 l
0.4646 0.1854 l
0.4703 0.1871 l
0.4760 0.1889 l
0.4819 0.1908 l
0.4878 0.1928 l
0.4937 0.1948 l
0.4997 0.1969 l
0.5058 0.1991 l
0.5120 0.2014 l
0.5183 0.2038 l
0.5246 0.2062 l
0.5310 0.2087 l
0.5374 0.2113 l
0.5439 0.2140 l
0.5505 0.2168 l
0.5572 0.2197 l
0.5640 0.2226 l
0.5708 0.2257 l
0.5777 0.2289 l
0.5847 0.2321 l
0.5917 0.2355 l
0.5988 0.2389 l
0.6060 0.2424 l
0.6133 0.2461 l
0.6207 0.2498 l
0.6281 0.2537 l
0.6356 0.2577 l
0.6432 0.2617 l
0.6509 0.2659 l
0.6586 0.2702 l
0.6664 0.2746 l
0.6743 0.2791 l
0.6823 0.2837 l
0.6904 0.2885 l
0.6985 0.2934 l
0.7068 0.2983 l
0.7151 0.3035 l
0.7235 0.3087 l
0.7319 0.3140 l
0.7405 0.3195 l
0.7491 0.3251 l
0.7579 0.3309 l
0.7667 0.3368 l
0.7756 0.3428 l
0.7845 0.3489 l
0.7936 0.3552 l
0.8028 0.3616 l
0.8120 0.3682 l
0.8213 0.3749 l
0.8307 0.3817 l
0.8402 0.3887 l
0.8498 0.3959 l
0.8595 0.4032 l
0.8692 0.4106 l
0.8791 0.4182 l
0.8890 0.4260 l
0.8991 0.4339 l
0.9092 0.4419 l
0.9194 0.4502 l
0.9297 0.4585 l
0.9401 0.4671 l
0.9506 0.4758 l
0.9612 0.4847 l
0.9718 0.4937 l
0.9826 0.5030 l
0.9935 0.5124 l
1.0044 0.5219 l
1.0155 0.5317 l
1.0266 0.5416 l
1.0379 0.5517 l
1.0492 0.5620 l
1.0606 0.5725 l
1.0722 0.5832 l
1.0838 0.5940 l
1.0955 0.6051 l
1.1073 0.6163 l
1.1192 0.6277 l
1.1312 0.6394 l
1.1434 0.6512 l
1.1501 0.6578 l
s
[/DeviceRGB] SCS
Color4 SC
n
0.1500 0.2019 m
0.1500 0.2019 l
0.1500 0.2019 l
0.1500 0.2019 l
0.1500 0.2019 l
0.1500 0.2019 l
0.1500 0.2020 l
0.1500 0.2020 l
0.1500 0.2020 l
0.1501 0.2021 l
0.1501 0.2021 l
0.1501 0.2021 l
0.1501 0.2022 l
0.1502 0.2022 l
0.1502 0.2022 l
0.1503 0.2022 l
0.1503 0.2023 l
0.1504 0.2023 l
0.1505 0.2023 l
0.1505 0.2023 l
0.1506 0.2023 l
0.1507 0.2023 l
0.1508 0.2023 l
0.1509 0.2023 l
0.1511 0.2023 l
0.1512 0.2023 l
0.1513 0.2022 l
0.1515 0.2022 l
0.1516 0.2022 l
0.1518 0.2021 l
0.1520 0.2020 l
0.1522 0.2020 l
0.1524 0.2019 l
0.1527 0.2018 l
0.1529 0.2017 l
0.1532 0.2016 l
0.1534 0.2015 l
0.1537 0.2013 l
0.1540 0.2012 l
0.1543 0.2010 l
0.1547 0.2009 l
0.1550 0.2007 l
0.1554 0.2005 l
0.1558 0.2003 l
0.1562 0.2001 l
0.1566 0.1999 l
0.1570 0.1997 l
0.1575 0.1994 l
0.1579 0.1992 l
0.1584 0.1989 l
0.1590 0.1986 l
0.1595 0.1983 l
0.1601 0.1980 l
0.1606 0.1977 l
0.1612 0.1974 l
0.1619 0.1970 l
0.1625 0.1967 l
0.1632 0.1963 l
0.1639 0.1959 l
0.1646 0.1956 l
0.1653 0.1952 l
0.1661 0.1948 l
0.1669 0.1943 l
0.1677 0.1939 l
0.1686 0.1935 l
0.1694 0.1930 l
0.1703 0.1925 l
0.1712 0.1921 l
0.1722 0.1916 l
0.1732 0.1911 l
0.1742 0.1906 l
0.1752 0.1901 l
0.1763 0.1896 l
0.1774 0.1890 l
0.1785 0.1885 l
0.1797 0.1880 l
0.1808 0.1874 l
0.1821 0.1869 l
0.1833 0.1863 l
0.1846 0.1857 l
0.1859 0.1851 l
0.1872 0.1846 l
0.1886 0.1840 l
0.1900 0.1834 l
0.1915 0.1828 l
0.1930 0.1822 l
0.1945 0.1816 l
0.1960 0.1810 l
0.1976 0.1803 l
0.1992 0.1797 l
0.2009 0.1791 l
0.2026 0.1785 l
0.2043 0.1779 l
0.2061 0.1773 l
0.2079 0.1767 l
0.2098 0.1760 l
0.2116 0.1754 l
0.2136 0.1748 l
0.2155 0.1742 l
0.2175 0.1736 l
0.2196 0.1730 l
0.2217 0.1724 l
0.2238 0.1718 l
0.2260 0.1713 l
0.2282 0.1707 l
0.2305 0.1701 l
0.2327 0.1696 l
0.2351 0.1690 l
0.2375 0.1685 l
0.2399 0.1680 l
0.2424 0.1675 l
0.2449 0.1669 l
0.2475 0.1665 l
0.2501 0.1660 l
0.2527 0.1655 l
0.2554 0.1651 l
0.2582 0.1646 l
0.2610 0.1642 l
0.2638 0.1638 l
0.2667 0.1635 l
0.2697 0.1631 l
0.2727 0.1628 l
0.2757 0.1624 l
0.2788 0.1621 l
0.2819 0.1619 l
0.2851 0.1616 l
0.2884 0.1614 l
0.2917 0.1612 l
0.2950 0.1610 l
0.2984 0.1609 l
0.3019 0.1608 l
0.3054 0.1607 l
0.3089 0.1606 l
0.3125 0.1606 l
0.3162 0.1606 l
0.3199 0.1606 l
0.3237 0.1607 l
0.3275 0.1608 l
0.3314 0.1609 l
0.3354 0.1611 l
0.3394 0.1613 l
0.3434 0.1616 l
0.3475 0.1619 l
0.3517 0.1622 l
0.3559 0.1626 l
0.3602 0.1630 l
0.3646 0.1634 l
0.3690 0.1639 l
0.3734 0.1645 l
0.3780 0.1651 l
0.3826 0.1657 l
0.3872 0.1664 l
0.3919 0.1672 l
0.3967 0.1680 l
0.4015 0.1688 l
0.4064 0.1697 l
0.4114 0.1707 l
0.4164 0.1717 l
0.4215 0.1727 l
0.4267 0.1739 l
0.4319 0.1750 l
0.4372 0.1763 l
0.4425 0.1776 l
0.4479 0.1789 l
0.4534 0.1804 l
0.4590 0.1819 l
0.4646 0.1834 l
0.4703 0.1850 l
0.4760 0.1867 l
0.4819 0.1885 l
0.4878 0.1903 l
0.4937 0.1922 l
0.4997 0.1942 l
0.5058 0.1962 l
0.5120 0.1984 l
0.5183 0.2006 l
0.5246 0.2028 l
0.5310 0.2052 l
0.5374 0.2076 l
0.5439 0.2101 l
0.5505 0.2127 l
0.5572 0.2154 l
0.5640 0.2182 l
0.5708 0.2210 l
0.5777 0.2240 l
0.5847 0.2270 l
0.5917 0.2301 l
0.5988 0.2333 l
0.6060 0.2366 l
0.6133 0.2400 l
0.6207 0.2435 l
0.6281 0.2471 l
0.6356 0.2508 l
0.6432 0.2545 l
0.6509 0.2584 l
0.6586 0.2624 l
0.6664 0.2665 l
0.6743 0.2707 l
0.6823 0.2750 l
0.6904 0.2794 l
0.6985 0.2839 l
0.7068 0.2885 l
0.7151 0.2933 l
0.7235 0.2981 l
0.7319 0.3031 l
0.7405 0.3081 l
0.7491 0.3133 l
0.7579 0.3186 l
0.7667 0.3241 l
0.7756 0.3296 l
0.7845 0.3353 l
0.7936 0.3411 l
0.8028 0.3470 l
0.8120 0.3531 l
0.8213 0.3593 l
0.8307 0.3656 l
0.8402 0.3720 l
0.8498 0.3786 l
0.8595 0.3853 l
0.8692 0.3922 l
0.8791 0.3991 l
0.8890 0.4063 l
0.8991 0.4135 l
0.9092 0.4209 l
0.9194 0.4285 l
0.9297 0.4362 l
0.9401 0.4440 l
0.9506 0.4520 l
0.9612 0.4602 l
0.9718 0.4685 l
0.9826 0.4769 l
0.9935 0.4855 l
1.0044 0.4943 l
1.0155 0.5032 l
1.0266 0.5123 l
1.0379 0.5215 l
1.0492 0.5309 l
1.0606 0.5405 l
1.0722 0.5503 l
1.0838 0.5602 l
1.0955 0.5702 l
1.1073 0.5805 l
1.1192 0.5909 l
1.1312 0.6015 l
1.1434 0.6123 l
1.1501 0.6183 l
s
[/DeviceRGB] SCS
Color1 SC
[] 0 SD
0.0045 SLW
n
0.1500 0.1500 m
1.1500 0.1500 l
s
n
0.1500 0.8500 m
1.1500 0.8500 l
s
n
0.2500 0.1500 m
0.2500 0.1600 l
s
n
0.2500 0.8500 m
0.2500 0.8400 l
s
n
0.4500 0.1500 m
0.4500 0.1600 l
s
n
0.4500 0.8500 m
0.4500 0.8400 l
s
n
0.6500 0.1500 m
0.6500 0.1600 l
s
n
0.6500 0.8500 m
0.6500 0.8400 l
s
n
0.8500 0.1500 m
0.8500 0.1600 l
s
n
0.8500 0.8500 m
0.8500 0.8400 l
s
n
1.0500 0.1500 m
1.0500 0.1600 l
s
n
1.0500 0.8500 m
1.0500 0.8400 l
s
n
0.1500 0.1500 m
0.1500 0.1700 l
s
n
0.1500 0.8500 m
0.1500 0.8300 l
s
n
0.3500 0.1500 m
0.3500 0.1700 l
s
n
0.3500 0.8500 m
0.3500 0.8300 l
s
n
0.5500 0.1500 m
0.5500 0.1700 l
s
n
0.5500 0.8500 m
0.5500 0.8300 l
s
n
0.7500 0.1500 m
0.7500 0.1700 l
s
n
0.7500 0.8500 m
0.7500 0.8300 l
s
n
0.9500 0.1500 m
0.9500 0.1700 l
s
n
0.9500 0.8500 m
0.9500 0.8300 l
s
n
1.1500 0.1500 m
1.1500 0.1700 l
s
n
1.1500 0.8500 m
1.1500 0.8300 l
s
/Times-Roman findfont
dup length dict begin
 {1 index /FID ne {def} {pop pop} ifelse} forall
 /Encoding DefEncoding def
 currentdict
end
/Font0 exch definefont pop
/Font0 FFSF
0.1394 0.1094 m
GS
[0.0448 0.0000 0.0000 0.0448 0 0] CC
(0) show
GR
/Font0 FFSF
0.3225 0.1094 m
GS
[0.0448 0.0000 0.0000 0.0448 0 0] CC
(0.2) show
GR
/Font0 FFSF
0.5225 0.1094 m
GS
[0.0448 0.0000 0.0000 0.0448 0 0] CC
(0.4) show
GR
/Font0 FFSF
0.7227 0.1094 m
GS
[0.0448 0.0000 0.0000 0.0448 0 0] CC
(0.6) show
GR
/Font0 FFSF
0.9231 0.1094 m
GS
[0.0448 0.0000 0.0000 0.0448 0 0] CC
(0.8) show
GR
/Font0 FFSF
1.1412 0.1094 m
GS
[0.0448 0.0000 0.0000 0.0448 0 0] CC
(1) show
GR
/Symbol findfont
/Font12 exch definefont pop
/Font12 FFSF
0.5722 0.0445 m
GS
[0.0504 0.0000 0.0000 0.0504 0 0] CC
(r) show
GR
/Font0 FFSF
0.6000 0.0445 m
GS
[0.0504 0.0000 0.0000 0.0504 0 0] CC
( [fm) show
GR
/Font0 FFSF
0.6855 0.0747 m
GS
[0.0356 0.0000 0.0000 0.0356 0 0] CC
(-3) show
GR
/Font0 FFSF
0.7153 0.0445 m
GS
[0.0504 0.0000 0.0000 0.0504 0 0] CC
(]) show
GR
n
0.1500 0.1500 m
0.1500 0.8500 l
s
n
1.1500 0.1500 m
1.1500 0.8500 l
s
n
0.1500 0.2667 m
0.1600 0.2667 l
s
n
1.1500 0.2667 m
1.1400 0.2667 l
s
n
0.1500 0.3963 m
0.1600 0.3963 l
s
n
1.1500 0.3963 m
1.1400 0.3963 l
s
n
0.1500 0.5259 m
0.1600 0.5259 l
s
n
1.1500 0.5259 m
1.1400 0.5259 l
s
n
0.1500 0.6556 m
0.1600 0.6556 l
s
n
1.1500 0.6556 m
1.1400 0.6556 l
s
n
0.1500 0.7852 m
0.1600 0.7852 l
s
n
1.1500 0.7852 m
1.1400 0.7852 l
s
n
0.1500 0.2019 m
0.1700 0.2019 l
s
n
1.1500 0.2019 m
1.1300 0.2019 l
s
n
0.1500 0.3315 m
0.1700 0.3315 l
s
n
1.1500 0.3315 m
1.1300 0.3315 l
s
n
0.1500 0.4611 m
0.1700 0.4611 l
s
n
1.1500 0.4611 m
1.1300 0.4611 l
s
n
0.1500 0.5907 m
0.1700 0.5907 l
s
n
1.1500 0.5907 m
1.1300 0.5907 l
s
n
0.1500 0.7204 m
0.1700 0.7204 l
s
n
1.1500 0.7204 m
1.1300 0.7204 l
s
n
0.1500 0.8500 m
0.1700 0.8500 l
s
n
1.1500 0.8500 m
1.1300 0.8500 l
s
/Font0 FFSF
0.1188 0.1869 m
GS
[0.0448 0.0000 0.0000 0.0448 0 0] CC
(0) show
GR
/Font0 FFSF
0.0965 0.3164 m
GS
[0.0448 0.0000 0.0000 0.0448 0 0] CC
(50) show
GR
/Font0 FFSF
0.0741 0.4462 m
GS
[0.0448 0.0000 0.0000 0.0448 0 0] CC
(100) show
GR
/Font0 FFSF
0.0741 0.5756 m
GS
[0.0448 0.0000 0.0000 0.0448 0 0] CC
(150) show
GR
/Font0 FFSF
0.0741 0.7055 m
GS
[0.0448 0.0000 0.0000 0.0448 0 0] CC
(200) show
GR
/Font0 FFSF
0.0741 0.8349 m
GS
[0.0448 0.0000 0.0000 0.0448 0 0] CC
(250) show
GR
/Font0 FFSF
0.0563 0.3867 m
GS
[0.0000 0.0504 -0.0504 0.0000 0 0] CC
(E/A [MeV]) show
GR
[] 0 SD
0.0015 SLW
n
0.1500 0.1500 m
0.1500 0.8500 l
1.1500 0.8500 l
1.1500 0.1500 l
0.1500 0.1500 l
c
s
n
0.1500 0.8500 m
0.1500 0.6631 l
0.3358 0.6631 l
0.3358 0.8500 l
c
[/DeviceRGB] SCS
Color0 SC
fill
[/DeviceRGB] SCS
Color1 SC
[] 0 SD
0.0045 SLW
n
0.1500 0.8500 m
0.1500 0.6631 l
0.3358 0.6631 l
0.3358 0.8500 l
0.1500 0.8500 l
c
s
/Font0 FFSF
0.2219 0.8063 m
GS
[0.0498 0.0000 0.0000 0.0498 0 0] CC
(BBG) show
GR
n
0.1734 0.8142 m
0.1734 0.8312 l
0.1904 0.8312 l
0.1904 0.8142 l
c
GS
Color0 SRGB
fill
GR
[/Pattern /DeviceRGB] SCS
Color1 Pattern8 SC
fill
[/DeviceRGB] SCS
Color1 SC
[] 0 SD
0.0030 SLW
n
0.1734 0.8142 m
0.1734 0.8312 l
0.1904 0.8312 l
0.1904 0.8142 l
0.1734 0.8142 l
c
s
/Font0 FFSF
0.2219 0.7618 m
GS
[0.0498 0.0000 0.0000 0.0498 0 0] CC
(D1S) show
GR
[] 0 SD
0.0037 SLW
n
0.1619 0.7782 m
0.2019 0.7782 l
s
/Font0 FFSF
0.2219 0.7173 m
GS
[0.0498 0.0000 0.0000 0.0498 0 0] CC
(D1N) show
GR
[/DeviceRGB] SCS
Color2 SC
n
0.1619 0.7339 m
0.2019 0.7339 l
s
/Font0 FFSF
[/DeviceRGB] SCS
Color1 SC
0.2219 0.6731 m
GS
[0.0498 0.0000 0.0000 0.0498 0 0] CC
(D1M) show
GR
[/DeviceRGB] SCS
Color4 SC
n
0.1619 0.6900 m
0.2019 0.6900 l
s
[/DeviceRGB] SCS
Color1 SC
[] 0 SD
0.0015 SLW
n
0.3752 0.8497 m
0.3725 0.8458 l
s
/Font0 FFSF
0.3500 0.7500 m
GS
[0.0862 0.0000 0.0000 0.0862 0 0] CC
(b\)) show
GR
showpage
%%PageTrailer
%%Trailer
%%DocumentNeededResources: font Times-Roman
%%+ font Symbol
%%EOF
