%!PS-Adobe-3.0
%%BoundingBox: 0 0 612 792
%%LanguageLevel: 2
%%Creator: Grace-5.1.25
%%CreationDate: Sun Nov  1 16:15:50 2015
%%DocumentData: Clean8Bit
%%Orientation: Landscape
%%Pages: 1
%%PageOrder: Ascend
%%Title: /Users/ap1450/Dropbox/physics_reports_lr/ST_channel_finite_range/Vers0/plots/JLS_p5.agr
%%For: ap1450
%%DocumentNeededResources: (atend)
%%EndComments
%%BeginProlog
/PAGE_OFFSET_X 0 def
/PAGE_OFFSET_Y 0 def
/m {moveto} def
/l {lineto} def
/s {stroke} def
/n {newpath} def
/c {closepath} def
/RL {rlineto} def
/SLW {setlinewidth} def
/GS {gsave} def
/GR {grestore} def
/SC {setcolor} def
/SGRY {setgray} def
/SRGB {setrgbcolor} def
/SD {setdash} def
/SLC {setlinecap} def
/SLJ {setlinejoin} def
/SCS {setcolorspace} def
/FFSF {findfont setfont} def
/CC {concat} def
/PXL {n m 0 0 RL s} def
/Color0 {1.0000 1.0000 1.0000} def
/Color1 {0.0000 0.0000 0.0000} def
/Color2 {1.0000 0.0000 0.0000} def
/Color3 {0.0000 1.0000 0.0000} def
/Color4 {0.0000 0.0000 1.0000} def
/Color5 {1.0000 1.0000 0.0000} def
/Color6 {0.7373 0.5608 0.5608} def
/Color7 {0.8627 0.8627 0.8627} def
/Color8 {0.5804 0.0000 0.8275} def
/Color9 {0.0000 1.0000 1.0000} def
/Color10 {1.0000 0.0000 1.0000} def
/Color11 {1.0000 0.6471 0.0000} def
/Color12 {0.4471 0.1294 0.7373} def
/Color13 {0.4039 0.0275 0.2824} def
/Color14 {0.2510 0.8784 0.8157} def
/Color15 {0.0000 0.5451 0.0000} def
/Color16 {0.7529 0.7529 0.7529} def
/Color17 {0.5059 0.5059 0.5059} def
/Color18 {0.2588 0.2588 0.2588} def
/PTRN {
 /pat_bits exch def 
 <<
  /PaintType 2
  /PatternType 1 /TilingType 1
  /BBox[0 0 16 16]
  /XStep 16 /YStep 16
  /PaintProc {
   pop
   16 16 true [-1 0 0 -1 16 16] pat_bits imagemask
  }
 >>
 [0.0016 0 0 0.0016 0 0]
 makepattern
} def
/Pattern0 {<0000000000000000000000000000000000000000000000000000000000000000> PTRN} bind def
/Pattern1 {<ffffffffffffffffffffffffffffffffffffffffffffffffffffffffffffffff> PTRN} bind def
/Pattern2 {<eeeeffffbbbbffffeeeeffffbbbbffffeeeeffffbbbbffffeeeeffffbbbbffff> PTRN} bind def
/Pattern3 {<eeeebbbbeeeebbbbeeeebbbbeeeebbbbeeeebbbbeeeebbbbeeeebbbbeeeebbbb> PTRN} bind def
/Pattern4 {<5555aaaa5555aaaa5555aaaa5555aaaa5555aaaa5555aaaa5555aaaa5555aaaa> PTRN} bind def
/Pattern5 {<1111444411114444111144441111444411114444111144441111444411114444> PTRN} bind def
/Pattern6 {<1111000044440000111100004444000011110000444400001111000044440000> PTRN} bind def
/Pattern7 {<1010000000000000010100000000000010100000000000000101000000000000> PTRN} bind def
/Pattern8 {<0000000000000000000000000000000000000000000000000000000000000000> PTRN} bind def
/Pattern9 {<1e1e0f0f8787c3c3e1e1f0f078783c3c1e1e0f0f8787c3c3e1e1f0f078783c3c> PTRN} bind def
/Pattern10 {<7878f0f0e1e1c3c387870f0f1e1e3c3c7878f0f0e1e1c3c387870f0f1e1e3c3c> PTRN} bind def
/Pattern11 {<3333333333333333333333333333333333333333333333333333333333333333> PTRN} bind def
/Pattern12 {<ffffffff00000000ffffffff00000000ffffffff00000000ffffffff00000000> PTRN} bind def
/Pattern13 {<8181424224241818181824244242818181814242242418181818242442428181> PTRN} bind def
/Pattern14 {<8080404020201010080804040202010180804040202010100808040402020101> PTRN} bind def
/Pattern15 {<0101020204040808101020204040808001010202040408081010202040408080> PTRN} bind def
/Pattern16 {<2222222222222222222222222222222222222222222222222222222222222222> PTRN} bind def
/Pattern17 {<0000ffff000000000000ffff000000000000ffff000000000000ffff00000000> PTRN} bind def
/Pattern18 {<2222ffff222222222222ffff222222222222ffff222222222222ffff22222222> PTRN} bind def
/Pattern19 {<ffffffff33333333ffffffff33333333ffffffff33333333ffffffff33333333> PTRN} bind def
/Pattern20 {<0f0f0f0f0f0f0f0ff0f0f0f0f0f0f0f00f0f0f0f0f0f0f0ff0f0f0f0f0f0f0f0> PTRN} bind def
/Pattern21 {<ff00ff00ff00ff00ff00ff00ff00ff0000ff00ff00ff00ff00ff00ff00ff00ff> PTRN} bind def
/Pattern22 {<8001800180018001800180018001ffffffff8001800180018001800180018001> PTRN} bind def
/Pattern23 {<c003c003c003c003c003c003ffffffffffffffffc003c003c003c003c003c003> PTRN} bind def
/Pattern24 {<040404040404ffff404040404040ffff040404040404ffff404040404040ffff> PTRN} bind def
/Pattern25 {<180018001800180018001800ffffffff001800180018001800180018ffffffff> PTRN} bind def
/Pattern26 {<1111b8b87c7c3a3a1111a3a3c7c78b8b1111b8b87c7c3a3a1111a3a3c7c78b8b> PTRN} bind def
/Pattern27 {<101010102828c7c70101010182827c7c101010102828c7c70101010182827c7c> PTRN} bind def
/Pattern28 {<1c1c121211112121c1c12121111112121c1c121211112121c1c1212111111212> PTRN} bind def
/Pattern29 {<3e3e414180808080e3e31414080808083e3e414180808080e3e3141408080808> PTRN} bind def
/Pattern30 {<4848888884848383848488884848383848488888848483838484888848483838> PTRN} bind def
/Pattern31 {<03030404080808080c0c12122121c0c003030404080808080c0c12122121c0c0> PTRN} bind def
/ellipsedict 8 dict def
ellipsedict /mtrx matrix put
/EARC {
 ellipsedict begin
  /endangle exch def
  /startangle exch def
  /yrad exch def
  /xrad exch def
  /y exch def
  /x exch def
  /savematrix mtrx currentmatrix def
  x y translate
  xrad yrad scale
  0 0 1 startangle endangle arc
  savematrix setmatrix
 end
} def
/TL {
  /kcomp exch def
  /linewidth exch def
  /offset exch def
  GS
  0 offset rmoveto
  linewidth SLW
  dup stringwidth exch kcomp add exch RL s
  GR
} def
/KINIT
{
 /kvector exch def
 /kid 0 def
} def
/KPROC
{
 pop pop
 kvector kid get
 0 rmoveto
 /kid 1 kid add def
} def
/DefEncoding [
 /.notdef
 /.notdef
 /.notdef
 /.notdef
 /.notdef
 /.notdef
 /.notdef
 /.notdef
 /.notdef
 /.notdef
 /.notdef
 /.notdef
 /.notdef
 /.notdef
 /.notdef
 /.notdef
 /.notdef
 /.notdef
 /.notdef
 /.notdef
 /.notdef
 /.notdef
 /.notdef
 /.notdef
 /.notdef
 /.notdef
 /.notdef
 /.notdef
 /.notdef
 /.notdef
 /.notdef
 /.notdef
 /space
 /exclam
 /quotedbl
 /numbersign
 /dollar
 /percent
 /ampersand
 /quoteright
 /parenleft
 /parenright
 /asterisk
 /plus
 /comma
 /hyphen
 /period
 /slash
 /zero
 /one
 /two
 /three
 /four
 /five
 /six
 /seven
 /eight
 /nine
 /colon
 /semicolon
 /less
 /equal
 /greater
 /question
 /at
 /A
 /B
 /C
 /D
 /E
 /F
 /G
 /H
 /I
 /J
 /K
 /L
 /M
 /N
 /O
 /P
 /Q
 /R
 /S
 /T
 /U
 /V
 /W
 /X
 /Y
 /Z
 /bracketleft
 /backslash
 /bracketright
 /asciicircum
 /underscore
 /grave
 /a
 /b
 /c
 /d
 /e
 /f
 /g
 /h
 /i
 /j
 /k
 /l
 /m
 /n
 /o
 /p
 /q
 /r
 /s
 /t
 /u
 /v
 /w
 /x
 /y
 /z
 /braceleft
 /bar
 /braceright
 /asciitilde
 /.notdef
 /.notdef
 /.notdef
 /.notdef
 /.notdef
 /.notdef
 /.notdef
 /.notdef
 /.notdef
 /.notdef
 /.notdef
 /.notdef
 /.notdef
 /.notdef
 /.notdef
 /.notdef
 /.notdef
 /.notdef
 /.notdef
 /.notdef
 /.notdef
 /.notdef
 /.notdef
 /.notdef
 /.notdef
 /.notdef
 /.notdef
 /.notdef
 /.notdef
 /.notdef
 /.notdef
 /.notdef
 /.notdef
 /space
 /exclamdown
 /cent
 /sterling
 /currency
 /yen
 /brokenbar
 /section
 /dieresis
 /copyright
 /ordfeminine
 /guillemotleft
 /logicalnot
 /hyphen
 /registered
 /macron
 /degree
 /plusminus
 /twosuperior
 /threesuperior
 /acute
 /mu
 /paragraph
 /periodcentered
 /cedilla
 /onesuperior
 /ordmasculine
 /guillemotright
 /onequarter
 /onehalf
 /threequarters
 /questiondown
 /Agrave
 /Aacute
 /Acircumflex
 /Atilde
 /Adieresis
 /Aring
 /AE
 /Ccedilla
 /Egrave
 /Eacute
 /Ecircumflex
 /Edieresis
 /Igrave
 /Iacute
 /Icircumflex
 /Idieresis
 /Eth
 /Ntilde
 /Ograve
 /Oacute
 /Ocircumflex
 /Otilde
 /Odieresis
 /multiply
 /Oslash
 /Ugrave
 /Uacute
 /Ucircumflex
 /Udieresis
 /Yacute
 /Thorn
 /germandbls
 /agrave
 /aacute
 /acircumflex
 /atilde
 /adieresis
 /aring
 /ae
 /ccedilla
 /egrave
 /eacute
 /ecircumflex
 /edieresis
 /igrave
 /iacute
 /icircumflex
 /idieresis
 /eth
 /ntilde
 /ograve
 /oacute
 /ocircumflex
 /otilde
 /odieresis
 /divide
 /oslash
 /ugrave
 /uacute
 /ucircumflex
 /udieresis
 /yacute
 /thorn
 /ydieresis
] def
%%EndProlog
%%BeginSetup
%%EndSetup
%%Page: 1 1
PAGE_OFFSET_X PAGE_OFFSET_Y translate
612.00 612.00 scale
90 rotate
0.0 -1.0 translate
n
0.3038 0.4677 0.0098 0.0098 0 360 EARC c
[/DeviceRGB] SCS
Color1 SC
fill
[] 0 SD
0.0015 SLW
n 0.3038 0.4677 0.0098 0.0098 0 360 EARC s
n
0.3423 0.4588 0.0098 0.0098 0 360 EARC c
fill
n 0.3423 0.4588 0.0098 0.0098 0 360 EARC s
n
0.3808 0.4495 0.0098 0.0098 0 360 EARC c
fill
n 0.3808 0.4495 0.0098 0.0098 0 360 EARC s
n
0.4192 0.4402 0.0098 0.0098 0 360 EARC c
fill
n 0.4192 0.4402 0.0098 0.0098 0 360 EARC s
n
0.4577 0.4312 0.0098 0.0098 0 360 EARC c
fill
n 0.4577 0.4312 0.0098 0.0098 0 360 EARC s
n
0.4962 0.4227 0.0098 0.0098 0 360 EARC c
fill
n 0.4962 0.4227 0.0098 0.0098 0 360 EARC s
n
0.5346 0.4158 0.0098 0.0098 0 360 EARC c
fill
n 0.5346 0.4158 0.0098 0.0098 0 360 EARC s
n
0.5731 0.4115 0.0098 0.0098 0 360 EARC c
fill
n 0.5731 0.4115 0.0098 0.0098 0 360 EARC s
n
0.6115 0.4111 0.0098 0.0098 0 360 EARC c
fill
n 0.6115 0.4111 0.0098 0.0098 0 360 EARC s
n
0.6500 0.4158 0.0098 0.0098 0 360 EARC c
fill
n 0.6500 0.4158 0.0098 0.0098 0 360 EARC s
n
0.6885 0.4272 0.0098 0.0098 0 360 EARC c
fill
n 0.6885 0.4272 0.0098 0.0098 0 360 EARC s
n
0.7269 0.4471 0.0098 0.0098 0 360 EARC c
fill
n 0.7269 0.4471 0.0098 0.0098 0 360 EARC s
n
0.7654 0.4781 0.0098 0.0098 0 360 EARC c
fill
n 0.7654 0.4781 0.0098 0.0098 0 360 EARC s
n
0.8038 0.5218 0.0098 0.0098 0 360 EARC c
fill
n 0.8038 0.5218 0.0098 0.0098 0 360 EARC s
n
0.8423 0.5813 0.0098 0.0098 0 360 EARC c
fill
n 0.8423 0.5813 0.0098 0.0098 0 360 EARC s
n
0.8808 0.6589 0.0098 0.0098 0 360 EARC c
fill
n 0.8808 0.6589 0.0098 0.0098 0 360 EARC s
n
0.2953 0.4950 m
0.2953 0.5120 l
0.3123 0.5120 l
0.3123 0.4950 l
c
[/DeviceRGB] SCS
Color2 SC
fill
0 SLC
0 SLJ
n
0.2953 0.4950 m
0.2953 0.5120 l
0.3123 0.5120 l
0.3123 0.4950 l
0.2953 0.4950 l
c
s
n
0.3338 0.4970 m
0.3338 0.5140 l
0.3508 0.5140 l
0.3508 0.4970 l
c
fill
n
0.3338 0.4970 m
0.3338 0.5140 l
0.3508 0.5140 l
0.3508 0.4970 l
0.3338 0.4970 l
c
s
n
0.3723 0.4997 m
0.3723 0.5167 l
0.3893 0.5167 l
0.3893 0.4997 l
c
fill
n
0.3723 0.4997 m
0.3723 0.5167 l
0.3893 0.5167 l
0.3893 0.4997 l
0.3723 0.4997 l
c
s
n
0.4107 0.5033 m
0.4107 0.5203 l
0.4277 0.5203 l
0.4277 0.5033 l
c
fill
n
0.4107 0.5033 m
0.4107 0.5203 l
0.4277 0.5203 l
0.4277 0.5033 l
0.4107 0.5033 l
c
s
n
0.4492 0.5079 m
0.4492 0.5249 l
0.4662 0.5249 l
0.4662 0.5079 l
c
fill
n
0.4492 0.5079 m
0.4492 0.5249 l
0.4662 0.5249 l
0.4662 0.5079 l
0.4492 0.5079 l
c
s
n
0.4877 0.5139 m
0.4877 0.5309 l
0.5047 0.5309 l
0.5047 0.5139 l
c
fill
n
0.4877 0.5139 m
0.4877 0.5309 l
0.5047 0.5309 l
0.5047 0.5139 l
0.4877 0.5139 l
c
s
n
0.5261 0.5214 m
0.5261 0.5384 l
0.5431 0.5384 l
0.5431 0.5214 l
c
fill
n
0.5261 0.5214 m
0.5261 0.5384 l
0.5431 0.5384 l
0.5431 0.5214 l
0.5261 0.5214 l
c
s
n
0.5646 0.5306 m
0.5646 0.5476 l
0.5816 0.5476 l
0.5816 0.5306 l
c
fill
n
0.5646 0.5306 m
0.5646 0.5476 l
0.5816 0.5476 l
0.5816 0.5306 l
0.5646 0.5306 l
c
s
n
0.6030 0.5416 m
0.6030 0.5586 l
0.6200 0.5586 l
0.6200 0.5416 l
c
fill
n
0.6030 0.5416 m
0.6030 0.5586 l
0.6200 0.5586 l
0.6200 0.5416 l
0.6030 0.5416 l
c
s
n
0.6415 0.5543 m
0.6415 0.5713 l
0.6585 0.5713 l
0.6585 0.5543 l
c
fill
n
0.6415 0.5543 m
0.6415 0.5713 l
0.6585 0.5713 l
0.6585 0.5543 l
0.6415 0.5543 l
c
s
n
0.6800 0.5687 m
0.6800 0.5857 l
0.6970 0.5857 l
0.6970 0.5687 l
c
fill
n
0.6800 0.5687 m
0.6800 0.5857 l
0.6970 0.5857 l
0.6970 0.5687 l
0.6800 0.5687 l
c
s
n
0.7184 0.5842 m
0.7184 0.6012 l
0.7354 0.6012 l
0.7354 0.5842 l
c
fill
n
0.7184 0.5842 m
0.7184 0.6012 l
0.7354 0.6012 l
0.7354 0.5842 l
0.7184 0.5842 l
c
s
n
0.7569 0.6001 m
0.7569 0.6171 l
0.7739 0.6171 l
0.7739 0.6001 l
c
fill
n
0.7569 0.6001 m
0.7569 0.6171 l
0.7739 0.6171 l
0.7739 0.6001 l
0.7569 0.6001 l
c
s
n
0.7953 0.6149 m
0.7953 0.6319 l
0.8123 0.6319 l
0.8123 0.6149 l
c
fill
n
0.7953 0.6149 m
0.7953 0.6319 l
0.8123 0.6319 l
0.8123 0.6149 l
0.7953 0.6149 l
c
s
n
0.8338 0.6268 m
0.8338 0.6438 l
0.8508 0.6438 l
0.8508 0.6268 l
c
fill
n
0.8338 0.6268 m
0.8338 0.6438 l
0.8508 0.6438 l
0.8508 0.6268 l
0.8338 0.6268 l
c
s
n
0.8723 0.6330 m
0.8723 0.6500 l
0.8893 0.6500 l
0.8893 0.6330 l
c
fill
n
0.8723 0.6330 m
0.8723 0.6500 l
0.8893 0.6500 l
0.8893 0.6330 l
0.8723 0.6330 l
c
s
n
0.2953 0.4881 m
0.2953 0.5051 l
0.3123 0.5051 l
0.3123 0.4881 l
c
GS
Color0 SRGB
fill
GR
[/Pattern /DeviceRGB] SCS
Color3 Pattern8 SC
fill
[/DeviceRGB] SCS
Color3 SC
[] 0 SD
0.0037 SLW
n
0.2953 0.4881 m
0.2953 0.5051 l
0.3123 0.5051 l
0.3123 0.4881 l
0.2953 0.4881 l
c
s
n
0.3338 0.4864 m
0.3338 0.5034 l
0.3508 0.5034 l
0.3508 0.4864 l
c
GS
Color0 SRGB
fill
GR
[/Pattern /DeviceRGB] SCS
Color3 Pattern8 SC
fill
[/DeviceRGB] SCS
Color3 SC
n
0.3338 0.4864 m
0.3338 0.5034 l
0.3508 0.5034 l
0.3508 0.4864 l
0.3338 0.4864 l
c
s
n
0.3723 0.4842 m
0.3723 0.5012 l
0.3893 0.5012 l
0.3893 0.4842 l
c
GS
Color0 SRGB
fill
GR
[/Pattern /DeviceRGB] SCS
Color3 Pattern8 SC
fill
[/DeviceRGB] SCS
Color3 SC
n
0.3723 0.4842 m
0.3723 0.5012 l
0.3893 0.5012 l
0.3893 0.4842 l
0.3723 0.4842 l
c
s
n
0.4107 0.4816 m
0.4107 0.4986 l
0.4277 0.4986 l
0.4277 0.4816 l
c
GS
Color0 SRGB
fill
GR
[/Pattern /DeviceRGB] SCS
Color3 Pattern8 SC
fill
[/DeviceRGB] SCS
Color3 SC
n
0.4107 0.4816 m
0.4107 0.4986 l
0.4277 0.4986 l
0.4277 0.4816 l
0.4107 0.4816 l
c
s
n
0.4492 0.4785 m
0.4492 0.4955 l
0.4662 0.4955 l
0.4662 0.4785 l
c
GS
Color0 SRGB
fill
GR
[/Pattern /DeviceRGB] SCS
Color3 Pattern8 SC
fill
[/DeviceRGB] SCS
Color3 SC
n
0.4492 0.4785 m
0.4492 0.4955 l
0.4662 0.4955 l
0.4662 0.4785 l
0.4492 0.4785 l
c
s
n
0.4877 0.4750 m
0.4877 0.4920 l
0.5047 0.4920 l
0.5047 0.4750 l
c
GS
Color0 SRGB
fill
GR
[/Pattern /DeviceRGB] SCS
Color3 Pattern8 SC
fill
[/DeviceRGB] SCS
Color3 SC
n
0.4877 0.4750 m
0.4877 0.4920 l
0.5047 0.4920 l
0.5047 0.4750 l
0.4877 0.4750 l
c
s
n
0.5261 0.4711 m
0.5261 0.4881 l
0.5431 0.4881 l
0.5431 0.4711 l
c
GS
Color0 SRGB
fill
GR
[/Pattern /DeviceRGB] SCS
Color3 Pattern8 SC
fill
[/DeviceRGB] SCS
Color3 SC
n
0.5261 0.4711 m
0.5261 0.4881 l
0.5431 0.4881 l
0.5431 0.4711 l
0.5261 0.4711 l
c
s
n
0.5646 0.4666 m
0.5646 0.4836 l
0.5816 0.4836 l
0.5816 0.4666 l
c
GS
Color0 SRGB
fill
GR
[/Pattern /DeviceRGB] SCS
Color3 Pattern8 SC
fill
[/DeviceRGB] SCS
Color3 SC
n
0.5646 0.4666 m
0.5646 0.4836 l
0.5816 0.4836 l
0.5816 0.4666 l
0.5646 0.4666 l
c
s
n
0.6030 0.4615 m
0.6030 0.4785 l
0.6200 0.4785 l
0.6200 0.4615 l
c
GS
Color0 SRGB
fill
GR
[/Pattern /DeviceRGB] SCS
Color3 Pattern8 SC
fill
[/DeviceRGB] SCS
Color3 SC
n
0.6030 0.4615 m
0.6030 0.4785 l
0.6200 0.4785 l
0.6200 0.4615 l
0.6030 0.4615 l
c
s
n
0.6415 0.4556 m
0.6415 0.4726 l
0.6585 0.4726 l
0.6585 0.4556 l
c
GS
Color0 SRGB
fill
GR
[/Pattern /DeviceRGB] SCS
Color3 Pattern8 SC
fill
[/DeviceRGB] SCS
Color3 SC
n
0.6415 0.4556 m
0.6415 0.4726 l
0.6585 0.4726 l
0.6585 0.4556 l
0.6415 0.4556 l
c
s
n
0.6800 0.4489 m
0.6800 0.4659 l
0.6970 0.4659 l
0.6970 0.4489 l
c
GS
Color0 SRGB
fill
GR
[/Pattern /DeviceRGB] SCS
Color3 Pattern8 SC
fill
[/DeviceRGB] SCS
Color3 SC
n
0.6800 0.4489 m
0.6800 0.4659 l
0.6970 0.4659 l
0.6970 0.4489 l
0.6800 0.4489 l
c
s
n
0.7184 0.4410 m
0.7184 0.4580 l
0.7354 0.4580 l
0.7354 0.4410 l
c
GS
Color0 SRGB
fill
GR
[/Pattern /DeviceRGB] SCS
Color3 Pattern8 SC
fill
[/DeviceRGB] SCS
Color3 SC
n
0.7184 0.4410 m
0.7184 0.4580 l
0.7354 0.4580 l
0.7354 0.4410 l
0.7184 0.4410 l
c
s
n
0.7569 0.4316 m
0.7569 0.4486 l
0.7739 0.4486 l
0.7739 0.4316 l
c
GS
Color0 SRGB
fill
GR
[/Pattern /DeviceRGB] SCS
Color3 Pattern8 SC
fill
[/DeviceRGB] SCS
Color3 SC
n
0.7569 0.4316 m
0.7569 0.4486 l
0.7739 0.4486 l
0.7739 0.4316 l
0.7569 0.4316 l
c
s
n
0.7953 0.4205 m
0.7953 0.4375 l
0.8123 0.4375 l
0.8123 0.4205 l
c
GS
Color0 SRGB
fill
GR
[/Pattern /DeviceRGB] SCS
Color3 Pattern8 SC
fill
[/DeviceRGB] SCS
Color3 SC
n
0.7953 0.4205 m
0.7953 0.4375 l
0.8123 0.4375 l
0.8123 0.4205 l
0.7953 0.4205 l
c
s
n
0.8338 0.4070 m
0.8338 0.4240 l
0.8508 0.4240 l
0.8508 0.4070 l
c
GS
Color0 SRGB
fill
GR
[/Pattern /DeviceRGB] SCS
Color3 Pattern8 SC
fill
[/DeviceRGB] SCS
Color3 SC
n
0.8338 0.4070 m
0.8338 0.4240 l
0.8508 0.4240 l
0.8508 0.4070 l
0.8338 0.4070 l
c
s
n
0.8723 0.3907 m
0.8723 0.4077 l
0.8893 0.4077 l
0.8893 0.3907 l
c
GS
Color0 SRGB
fill
GR
[/Pattern /DeviceRGB] SCS
Color3 Pattern8 SC
fill
[/DeviceRGB] SCS
Color3 SC
n
0.8723 0.3907 m
0.8723 0.4077 l
0.8893 0.4077 l
0.8893 0.3907 l
0.8723 0.3907 l
c
s
n
0.2953 0.4986 m
0.2953 0.5156 l
0.3123 0.5156 l
0.3123 0.4986 l
c
GS
Color0 SRGB
fill
GR
[/Pattern /DeviceRGB] SCS
Color4 Pattern5 SC
fill
[/DeviceRGB] SCS
Color4 SC
n
0.2953 0.4986 m
0.2953 0.5156 l
0.3123 0.5156 l
0.3123 0.4986 l
0.2953 0.4986 l
c
s
n
0.3338 0.5028 m
0.3338 0.5198 l
0.3508 0.5198 l
0.3508 0.5028 l
c
GS
Color0 SRGB
fill
GR
[/Pattern /DeviceRGB] SCS
Color4 Pattern5 SC
fill
[/DeviceRGB] SCS
Color4 SC
n
0.3338 0.5028 m
0.3338 0.5198 l
0.3508 0.5198 l
0.3508 0.5028 l
0.3338 0.5028 l
c
s
n
0.3723 0.5087 m
0.3723 0.5257 l
0.3893 0.5257 l
0.3893 0.5087 l
c
GS
Color0 SRGB
fill
GR
[/Pattern /DeviceRGB] SCS
Color4 Pattern5 SC
fill
[/DeviceRGB] SCS
Color4 SC
n
0.3723 0.5087 m
0.3723 0.5257 l
0.3893 0.5257 l
0.3893 0.5087 l
0.3723 0.5087 l
c
s
n
0.4107 0.5165 m
0.4107 0.5335 l
0.4277 0.5335 l
0.4277 0.5165 l
c
GS
Color0 SRGB
fill
GR
[/Pattern /DeviceRGB] SCS
Color4 Pattern5 SC
fill
[/DeviceRGB] SCS
Color4 SC
n
0.4107 0.5165 m
0.4107 0.5335 l
0.4277 0.5335 l
0.4277 0.5165 l
0.4107 0.5165 l
c
s
n
0.4492 0.5269 m
0.4492 0.5439 l
0.4662 0.5439 l
0.4662 0.5269 l
c
GS
Color0 SRGB
fill
GR
[/Pattern /DeviceRGB] SCS
Color4 Pattern5 SC
fill
[/DeviceRGB] SCS
Color4 SC
n
0.4492 0.5269 m
0.4492 0.5439 l
0.4662 0.5439 l
0.4662 0.5269 l
0.4492 0.5269 l
c
s
n
0.4877 0.5405 m
0.4877 0.5575 l
0.5047 0.5575 l
0.5047 0.5405 l
c
GS
Color0 SRGB
fill
GR
[/Pattern /DeviceRGB] SCS
Color4 Pattern5 SC
fill
[/DeviceRGB] SCS
Color4 SC
n
0.4877 0.5405 m
0.4877 0.5575 l
0.5047 0.5575 l
0.5047 0.5405 l
0.4877 0.5405 l
c
s
n
0.5261 0.5581 m
0.5261 0.5751 l
0.5431 0.5751 l
0.5431 0.5581 l
c
GS
Color0 SRGB
fill
GR
[/Pattern /DeviceRGB] SCS
Color4 Pattern5 SC
fill
[/DeviceRGB] SCS
Color4 SC
n
0.5261 0.5581 m
0.5261 0.5751 l
0.5431 0.5751 l
0.5431 0.5581 l
0.5261 0.5581 l
c
s
n
0.5646 0.5808 m
0.5646 0.5978 l
0.5816 0.5978 l
0.5816 0.5808 l
c
GS
Color0 SRGB
fill
GR
[/Pattern /DeviceRGB] SCS
Color4 Pattern5 SC
fill
[/DeviceRGB] SCS
Color4 SC
n
0.5646 0.5808 m
0.5646 0.5978 l
0.5816 0.5978 l
0.5816 0.5808 l
0.5646 0.5808 l
c
s
n
0.6030 0.6095 m
0.6030 0.6264 l
0.6200 0.6264 l
0.6200 0.6095 l
c
GS
Color0 SRGB
fill
GR
[/Pattern /DeviceRGB] SCS
Color4 Pattern5 SC
fill
[/DeviceRGB] SCS
Color4 SC
n
0.6030 0.6095 m
0.6030 0.6264 l
0.6200 0.6264 l
0.6200 0.6095 l
0.6030 0.6095 l
c
s
n
0.6415 0.6455 m
0.6415 0.6625 l
0.6585 0.6625 l
0.6585 0.6455 l
c
GS
Color0 SRGB
fill
GR
[/Pattern /DeviceRGB] SCS
Color4 Pattern5 SC
fill
[/DeviceRGB] SCS
Color4 SC
n
0.6415 0.6455 m
0.6415 0.6625 l
0.6585 0.6625 l
0.6585 0.6455 l
0.6415 0.6455 l
c
s
n
0.6800 0.6904 m
0.6800 0.7074 l
0.6970 0.7074 l
0.6970 0.6904 l
c
GS
Color0 SRGB
fill
GR
[/Pattern /DeviceRGB] SCS
Color4 Pattern5 SC
fill
[/DeviceRGB] SCS
Color4 SC
n
0.6800 0.6904 m
0.6800 0.7074 l
0.6970 0.7074 l
0.6970 0.6904 l
0.6800 0.6904 l
c
s
n
0.7184 0.7459 m
0.7184 0.7629 l
0.7354 0.7629 l
0.7354 0.7459 l
c
GS
Color0 SRGB
fill
GR
[/Pattern /DeviceRGB] SCS
Color4 Pattern5 SC
fill
[/DeviceRGB] SCS
Color4 SC
n
0.7184 0.7459 m
0.7184 0.7629 l
0.7354 0.7629 l
0.7354 0.7459 l
0.7184 0.7459 l
c
s
n
0.7569 0.8139 m
0.7569 0.8309 l
0.7739 0.8309 l
0.7739 0.8139 l
c
GS
Color0 SRGB
fill
GR
[/Pattern /DeviceRGB] SCS
Color4 Pattern5 SC
fill
[/DeviceRGB] SCS
Color4 SC
n
0.7569 0.8139 m
0.7569 0.8309 l
0.7739 0.8309 l
0.7739 0.8139 l
0.7569 0.8139 l
c
s
n
0.3038 0.5068 m
0.2938 0.4895 l
0.3138 0.4895 l
c
[/DeviceRGB] SCS
Color11 SC
fill
[] 0 SD
0.0015 SLW
n
0.3038 0.5068 m
0.2938 0.4895 l
0.3138 0.4895 l
0.3038 0.5068 l
c
s
n
0.3423 0.5036 m
0.3323 0.4863 l
0.3523 0.4863 l
c
fill
n
0.3423 0.5036 m
0.3323 0.4863 l
0.3523 0.4863 l
0.3423 0.5036 l
c
s
n
0.3808 0.4991 m
0.3708 0.4818 l
0.3908 0.4818 l
c
fill
n
0.3808 0.4991 m
0.3708 0.4818 l
0.3908 0.4818 l
0.3808 0.4991 l
c
s
n
0.4192 0.4930 m
0.4092 0.4757 l
0.4292 0.4757 l
c
fill
n
0.4192 0.4930 m
0.4092 0.4757 l
0.4292 0.4757 l
0.4192 0.4930 l
c
s
n
0.4577 0.4853 m
0.4477 0.4679 l
0.4677 0.4679 l
c
fill
n
0.4577 0.4853 m
0.4477 0.4679 l
0.4677 0.4679 l
0.4577 0.4853 l
c
s
n
0.4962 0.4756 m
0.4862 0.4582 l
0.5062 0.4582 l
c
fill
n
0.4962 0.4756 m
0.4862 0.4582 l
0.5062 0.4582 l
0.4962 0.4756 l
c
s
n
0.5346 0.4638 m
0.5246 0.4464 l
0.5446 0.4464 l
c
fill
n
0.5346 0.4638 m
0.5246 0.4464 l
0.5446 0.4464 l
0.5346 0.4638 l
c
s
n
0.5731 0.4496 m
0.5631 0.4323 l
0.5831 0.4323 l
c
fill
n
0.5731 0.4496 m
0.5631 0.4323 l
0.5831 0.4323 l
0.5731 0.4496 l
c
s
n
0.6115 0.4330 m
0.6015 0.4157 l
0.6215 0.4157 l
c
fill
n
0.6115 0.4330 m
0.6015 0.4157 l
0.6215 0.4157 l
0.6115 0.4330 l
c
s
n
0.6500 0.4136 m
0.6400 0.3963 l
0.6600 0.3963 l
c
fill
n
0.6500 0.4136 m
0.6400 0.3963 l
0.6600 0.3963 l
0.6500 0.4136 l
c
s
n
0.6885 0.3911 m
0.6785 0.3738 l
0.6985 0.3738 l
c
fill
n
0.6885 0.3911 m
0.6785 0.3738 l
0.6985 0.3738 l
0.6885 0.3911 l
c
s
n
0.7269 0.3653 m
0.7169 0.3480 l
0.7369 0.3480 l
c
fill
n
0.7269 0.3653 m
0.7169 0.3480 l
0.7369 0.3480 l
0.7269 0.3653 l
c
s
n
0.7654 0.3360 m
0.7554 0.3187 l
0.7754 0.3187 l
c
fill
n
0.7654 0.3360 m
0.7554 0.3187 l
0.7754 0.3187 l
0.7654 0.3360 l
c
s
n
0.8038 0.3021 m
0.7938 0.2848 l
0.8138 0.2848 l
c
fill
n
0.8038 0.3021 m
0.7938 0.2848 l
0.8138 0.2848 l
0.8038 0.3021 l
c
s
n
0.8423 0.2636 m
0.8323 0.2463 l
0.8523 0.2463 l
c
fill
n
0.8423 0.2636 m
0.8323 0.2463 l
0.8523 0.2463 l
0.8423 0.2636 l
c
s
n
0.8808 0.2198 m
0.8708 0.2025 l
0.8908 0.2025 l
c
fill
n
0.8808 0.2198 m
0.8708 0.2025 l
0.8908 0.2025 l
0.8808 0.2198 l
c
s
n
0.3038 0.4527 m
0.2938 0.4427 l
0.3038 0.4327 l
0.3138 0.4427 l
c
GS
Color0 SRGB
fill
GR
[/Pattern /DeviceRGB] SCS
Color6 Pattern16 SC
fill
[/DeviceRGB] SCS
Color6 SC
[] 0 SD
0.0030 SLW
n
0.3038 0.4527 m
0.2938 0.4427 l
0.3038 0.4327 l
0.3138 0.4427 l
0.3038 0.4527 l
c
s
n
0.3423 0.4392 m
0.3323 0.4292 l
0.3423 0.4192 l
0.3523 0.4292 l
c
GS
Color0 SRGB
fill
GR
[/Pattern /DeviceRGB] SCS
Color6 Pattern16 SC
fill
[/DeviceRGB] SCS
Color6 SC
n
0.3423 0.4392 m
0.3323 0.4292 l
0.3423 0.4192 l
0.3523 0.4292 l
0.3423 0.4392 l
c
s
n
0.3808 0.4258 m
0.3708 0.4158 l
0.3808 0.4058 l
0.3908 0.4158 l
c
GS
Color0 SRGB
fill
GR
[/Pattern /DeviceRGB] SCS
Color6 Pattern16 SC
fill
[/DeviceRGB] SCS
Color6 SC
n
0.3808 0.4258 m
0.3708 0.4158 l
0.3808 0.4058 l
0.3908 0.4158 l
0.3808 0.4258 l
c
s
n
0.4192 0.4123 m
0.4092 0.4023 l
0.4192 0.3923 l
0.4292 0.4023 l
c
GS
Color0 SRGB
fill
GR
[/Pattern /DeviceRGB] SCS
Color6 Pattern16 SC
fill
[/DeviceRGB] SCS
Color6 SC
n
0.4192 0.4123 m
0.4092 0.4023 l
0.4192 0.3923 l
0.4292 0.4023 l
0.4192 0.4123 l
c
s
n
0.4577 0.3995 m
0.4477 0.3895 l
0.4577 0.3795 l
0.4677 0.3895 l
c
GS
Color0 SRGB
fill
GR
[/Pattern /DeviceRGB] SCS
Color6 Pattern16 SC
fill
[/DeviceRGB] SCS
Color6 SC
n
0.4577 0.3995 m
0.4477 0.3895 l
0.4577 0.3795 l
0.4677 0.3895 l
0.4577 0.3995 l
c
s
n
0.4962 0.3864 m
0.4862 0.3764 l
0.4962 0.3664 l
0.5062 0.3764 l
c
GS
Color0 SRGB
fill
GR
[/Pattern /DeviceRGB] SCS
Color6 Pattern16 SC
fill
[/DeviceRGB] SCS
Color6 SC
n
0.4962 0.3864 m
0.4862 0.3764 l
0.4962 0.3664 l
0.5062 0.3764 l
0.4962 0.3864 l
c
s
n
0.5346 0.3744 m
0.5246 0.3644 l
0.5346 0.3544 l
0.5446 0.3644 l
c
GS
Color0 SRGB
fill
GR
[/Pattern /DeviceRGB] SCS
Color6 Pattern16 SC
fill
[/DeviceRGB] SCS
Color6 SC
n
0.5346 0.3744 m
0.5246 0.3644 l
0.5346 0.3544 l
0.5446 0.3644 l
0.5346 0.3744 l
c
s
n
0.5731 0.3639 m
0.5631 0.3539 l
0.5731 0.3439 l
0.5831 0.3539 l
c
GS
Color0 SRGB
fill
GR
[/Pattern /DeviceRGB] SCS
Color6 Pattern16 SC
fill
[/DeviceRGB] SCS
Color6 SC
n
0.5731 0.3639 m
0.5631 0.3539 l
0.5731 0.3439 l
0.5831 0.3539 l
0.5731 0.3639 l
c
s
n
0.6115 0.3567 m
0.6015 0.3467 l
0.6115 0.3367 l
0.6215 0.3467 l
c
GS
Color0 SRGB
fill
GR
[/Pattern /DeviceRGB] SCS
Color6 Pattern16 SC
fill
[/DeviceRGB] SCS
Color6 SC
n
0.6115 0.3567 m
0.6015 0.3467 l
0.6115 0.3367 l
0.6215 0.3467 l
0.6115 0.3567 l
c
s
n
0.6500 0.3537 m
0.6400 0.3437 l
0.6500 0.3337 l
0.6600 0.3437 l
c
GS
Color0 SRGB
fill
GR
[/Pattern /DeviceRGB] SCS
Color6 Pattern16 SC
fill
[/DeviceRGB] SCS
Color6 SC
n
0.6500 0.3537 m
0.6400 0.3437 l
0.6500 0.3337 l
0.6600 0.3437 l
0.6500 0.3537 l
c
s
n
0.6885 0.3561 m
0.6785 0.3461 l
0.6885 0.3361 l
0.6985 0.3461 l
c
GS
Color0 SRGB
fill
GR
[/Pattern /DeviceRGB] SCS
Color6 Pattern16 SC
fill
[/DeviceRGB] SCS
Color6 SC
n
0.6885 0.3561 m
0.6785 0.3461 l
0.6885 0.3361 l
0.6985 0.3461 l
0.6885 0.3561 l
c
s
n
0.7269 0.3659 m
0.7169 0.3559 l
0.7269 0.3459 l
0.7369 0.3559 l
c
GS
Color0 SRGB
fill
GR
[/Pattern /DeviceRGB] SCS
Color6 Pattern16 SC
fill
[/DeviceRGB] SCS
Color6 SC
n
0.7269 0.3659 m
0.7169 0.3559 l
0.7269 0.3459 l
0.7369 0.3559 l
0.7269 0.3659 l
c
s
n
0.7654 0.3856 m
0.7554 0.3756 l
0.7654 0.3656 l
0.7754 0.3756 l
c
GS
Color0 SRGB
fill
GR
[/Pattern /DeviceRGB] SCS
Color6 Pattern16 SC
fill
[/DeviceRGB] SCS
Color6 SC
n
0.7654 0.3856 m
0.7554 0.3756 l
0.7654 0.3656 l
0.7754 0.3756 l
0.7654 0.3856 l
c
s
n
0.8038 0.4164 m
0.7938 0.4064 l
0.8038 0.3964 l
0.8138 0.4064 l
c
GS
Color0 SRGB
fill
GR
[/Pattern /DeviceRGB] SCS
Color6 Pattern16 SC
fill
[/DeviceRGB] SCS
Color6 SC
n
0.8038 0.4164 m
0.7938 0.4064 l
0.8038 0.3964 l
0.8138 0.4064 l
0.8038 0.4164 l
c
s
n
0.8423 0.4626 m
0.8323 0.4526 l
0.8423 0.4426 l
0.8523 0.4526 l
c
GS
Color0 SRGB
fill
GR
[/Pattern /DeviceRGB] SCS
Color6 Pattern16 SC
fill
[/DeviceRGB] SCS
Color6 SC
n
0.8423 0.4626 m
0.8323 0.4526 l
0.8423 0.4426 l
0.8523 0.4526 l
0.8423 0.4626 l
c
s
n
0.8808 0.5255 m
0.8708 0.5155 l
0.8808 0.5055 l
0.8908 0.5155 l
c
GS
Color0 SRGB
fill
GR
[/Pattern /DeviceRGB] SCS
Color6 Pattern16 SC
fill
[/DeviceRGB] SCS
Color6 SC
n
0.8808 0.5255 m
0.8708 0.5155 l
0.8808 0.5055 l
0.8908 0.5155 l
0.8808 0.5255 l
c
s
[/DeviceRGB] SCS
Color1 SC
[] 0 SD
0.0037 SLW
n
0.1499 0.4960 m
0.1500 0.4960 l
0.1538 0.4957 l
0.1577 0.4954 l
0.1615 0.4951 l
0.1654 0.4947 l
0.1692 0.4944 l
0.1731 0.4940 l
0.1769 0.4937 l
0.1808 0.4933 l
0.1846 0.4929 l
0.1885 0.4925 l
0.1923 0.4920 l
0.1962 0.4916 l
0.2000 0.4911 l
0.2038 0.4907 l
0.2077 0.4902 l
0.2115 0.4897 l
0.2154 0.4892 l
0.2192 0.4886 l
0.2231 0.4881 l
0.2269 0.4875 l
0.2308 0.4870 l
0.2346 0.4864 l
0.2385 0.4858 l
0.2423 0.4852 l
0.2462 0.4845 l
0.2500 0.4839 l
0.2538 0.4832 l
0.2577 0.4826 l
0.2615 0.4819 l
0.2654 0.4812 l
0.2692 0.4804 l
0.2731 0.4797 l
0.2769 0.4790 l
0.2808 0.4782 l
0.2846 0.4774 l
0.2885 0.4766 l
0.2923 0.4758 l
0.2962 0.4750 l
0.3000 0.4742 l
0.3038 0.4733 l
0.3077 0.4725 l
0.3115 0.4716 l
0.3154 0.4707 l
0.3192 0.4698 l
0.3231 0.4689 l
0.3269 0.4679 l
0.3308 0.4670 l
0.3346 0.4660 l
0.3385 0.4651 l
0.3423 0.4641 l
0.3462 0.4631 l
0.3500 0.4621 l
0.3538 0.4611 l
0.3577 0.4600 l
0.3615 0.4590 l
0.3654 0.4579 l
0.3692 0.4569 l
0.3731 0.4558 l
0.3769 0.4547 l
0.3808 0.4536 l
0.3846 0.4525 l
0.3885 0.4514 l
0.3923 0.4503 l
0.3962 0.4491 l
0.4000 0.4480 l
0.4038 0.4468 l
0.4077 0.4457 l
0.4115 0.4445 l
0.4154 0.4433 l
0.4192 0.4421 l
0.4231 0.4409 l
0.4269 0.4397 l
0.4308 0.4385 l
0.4346 0.4373 l
0.4385 0.4361 l
0.4423 0.4348 l
0.4462 0.4336 l
0.4500 0.4324 l
0.4538 0.4311 l
0.4577 0.4299 l
0.4615 0.4286 l
0.4654 0.4274 l
0.4692 0.4261 l
0.4731 0.4249 l
0.4769 0.4236 l
0.4808 0.4224 l
0.4846 0.4211 l
0.4885 0.4198 l
0.4923 0.4186 l
0.4962 0.4173 l
0.5000 0.4160 l
0.5038 0.4148 l
0.5077 0.4135 l
0.5115 0.4123 l
0.5154 0.4110 l
0.5192 0.4098 l
0.5231 0.4085 l
0.5269 0.4073 l
0.5308 0.4061 l
0.5346 0.4048 l
0.5385 0.4036 l
0.5423 0.4024 l
0.5462 0.4012 l
0.5500 0.4000 l
0.5538 0.3988 l
0.5577 0.3976 l
0.5615 0.3965 l
0.5654 0.3953 l
0.5692 0.3941 l
0.5731 0.3930 l
0.5769 0.3919 l
0.5808 0.3908 l
0.5846 0.3897 l
0.5885 0.3886 l
0.5923 0.3876 l
0.5962 0.3865 l
0.6000 0.3855 l
0.6038 0.3845 l
0.6077 0.3835 l
0.6115 0.3825 l
0.6154 0.3816 l
0.6192 0.3806 l
0.6231 0.3797 l
0.6269 0.3788 l
0.6308 0.3780 l
0.6346 0.3772 l
0.6385 0.3763 l
0.6423 0.3756 l
0.6462 0.3748 l
0.6500 0.3741 l
0.6538 0.3734 l
0.6577 0.3727 l
0.6615 0.3721 l
0.6654 0.3715 l
0.6692 0.3709 l
0.6731 0.3704 l
0.6769 0.3699 l
0.6808 0.3694 l
0.6846 0.3690 l
0.6885 0.3686 l
0.6923 0.3682 l
0.6962 0.3679 l
0.7000 0.3677 l
0.7038 0.3675 l
0.7077 0.3673 l
0.7115 0.3671 l
0.7154 0.3670 l
0.7192 0.3670 l
0.7231 0.3670 l
0.7269 0.3671 l
0.7308 0.3672 l
0.7346 0.3673 l
0.7385 0.3676 l
0.7423 0.3678 l
0.7462 0.3682 l
0.7500 0.3685 l
0.7538 0.3690 l
0.7577 0.3695 l
0.7615 0.3700 l
0.7654 0.3707 l
0.7692 0.3714 l
0.7731 0.3721 l
0.7769 0.3729 l
0.7808 0.3738 l
0.7846 0.3748 l
0.7885 0.3758 l
0.7923 0.3769 l
0.7962 0.3781 l
0.8000 0.3794 l
0.8038 0.3807 l
0.8077 0.3821 l
0.8115 0.3836 l
0.8154 0.3852 l
0.8192 0.3868 l
0.8231 0.3886 l
0.8269 0.3904 l
0.8308 0.3923 l
0.8346 0.3943 l
0.8385 0.3964 l
0.8423 0.3986 l
0.8462 0.4009 l
0.8500 0.4033 l
0.8538 0.4058 l
0.8577 0.4084 l
0.8615 0.4111 l
0.8654 0.4139 l
0.8692 0.4168 l
0.8731 0.4198 l
0.8769 0.4229 l
0.8808 0.4262 l
0.8846 0.4295 l
0.8885 0.4330 l
0.8923 0.4366 l
0.8962 0.4403 l
0.9000 0.4441 l
0.9038 0.4481 l
0.9077 0.4522 l
0.9115 0.4564 l
0.9154 0.4607 l
0.9192 0.4652 l
0.9231 0.4698 l
0.9269 0.4746 l
0.9308 0.4795 l
0.9346 0.4845 l
0.9385 0.4897 l
0.9423 0.4950 l
0.9462 0.5005 l
0.9500 0.5062 l
0.9538 0.5120 l
0.9577 0.5179 l
s
[/DeviceRGB] SCS
Color2 SC
n
0.1499 0.4898 m
0.1500 0.4898 l
0.1538 0.4891 l
0.1577 0.4883 l
0.1615 0.4876 l
0.1654 0.4868 l
0.1692 0.4859 l
0.1731 0.4851 l
0.1769 0.4842 l
0.1808 0.4832 l
0.1846 0.4823 l
0.1885 0.4813 l
0.1923 0.4803 l
0.1962 0.4793 l
0.2000 0.4782 l
0.2038 0.4771 l
0.2077 0.4760 l
0.2115 0.4749 l
0.2154 0.4737 l
0.2192 0.4725 l
0.2231 0.4712 l
0.2269 0.4700 l
0.2308 0.4687 l
0.2346 0.4674 l
0.2385 0.4660 l
0.2423 0.4647 l
0.2462 0.4633 l
0.2500 0.4619 l
0.2538 0.4604 l
0.2577 0.4590 l
0.2615 0.4575 l
0.2654 0.4560 l
0.2692 0.4544 l
0.2731 0.4529 l
0.2769 0.4513 l
0.2808 0.4497 l
0.2846 0.4481 l
0.2885 0.4465 l
0.2923 0.4448 l
0.2962 0.4432 l
0.3000 0.4415 l
0.3038 0.4398 l
0.3077 0.4381 l
0.3115 0.4364 l
0.3154 0.4346 l
0.3192 0.4329 l
0.3231 0.4311 l
0.3269 0.4293 l
0.3308 0.4276 l
0.3346 0.4258 l
0.3385 0.4240 l
0.3423 0.4222 l
0.3462 0.4204 l
0.3500 0.4186 l
0.3538 0.4168 l
0.3577 0.4150 l
0.3615 0.4131 l
0.3654 0.4113 l
0.3692 0.4095 l
0.3731 0.4077 l
0.3769 0.4059 l
0.3808 0.4042 l
0.3846 0.4024 l
0.3885 0.4006 l
0.3923 0.3988 l
0.3962 0.3971 l
0.4000 0.3954 l
0.4038 0.3936 l
0.4077 0.3919 l
0.4115 0.3903 l
0.4154 0.3886 l
0.4192 0.3870 l
0.4231 0.3853 l
0.4269 0.3837 l
0.4308 0.3822 l
0.4346 0.3806 l
0.4385 0.3791 l
0.4423 0.3777 l
0.4462 0.3762 l
0.4500 0.3748 l
0.4538 0.3734 l
0.4577 0.3721 l
0.4615 0.3708 l
0.4654 0.3696 l
0.4692 0.3684 l
0.4731 0.3672 l
0.4769 0.3661 l
0.4808 0.3650 l
0.4846 0.3640 l
0.4885 0.3631 l
0.4923 0.3622 l
0.4962 0.3613 l
0.5000 0.3606 l
0.5038 0.3598 l
0.5077 0.3592 l
0.5115 0.3586 l
0.5154 0.3581 l
0.5192 0.3576 l
0.5231 0.3573 l
0.5269 0.3570 l
0.5308 0.3567 l
0.5346 0.3566 l
0.5385 0.3565 l
0.5423 0.3566 l
0.5462 0.3567 l
0.5500 0.3569 l
0.5538 0.3572 l
0.5577 0.3576 l
0.5615 0.3581 l
0.5654 0.3586 l
0.5692 0.3593 l
0.5731 0.3601 l
0.5769 0.3610 l
0.5808 0.3620 l
0.5846 0.3631 l
0.5885 0.3643 l
0.5923 0.3657 l
0.5962 0.3671 l
0.6000 0.3687 l
0.6038 0.3704 l
0.6077 0.3723 l
0.6115 0.3742 l
0.6154 0.3763 l
0.6192 0.3785 l
0.6231 0.3809 l
0.6269 0.3834 l
0.6308 0.3861 l
0.6346 0.3889 l
0.6385 0.3918 l
0.6423 0.3949 l
0.6462 0.3981 l
0.6500 0.4015 l
0.6538 0.4051 l
0.6577 0.4088 l
0.6615 0.4127 l
0.6654 0.4168 l
0.6692 0.4210 l
0.6731 0.4254 l
0.6769 0.4300 l
0.6808 0.4348 l
0.6846 0.4397 l
0.6885 0.4449 l
0.6923 0.4502 l
0.6962 0.4557 l
0.7000 0.4614 l
0.7038 0.4674 l
0.7077 0.4735 l
0.7115 0.4798 l
0.7154 0.4863 l
0.7192 0.4931 l
0.7231 0.5000 l
0.7269 0.5072 l
0.7308 0.5146 l
0.7346 0.5222 l
0.7385 0.5301 l
0.7423 0.5382 l
0.7462 0.5465 l
0.7500 0.5550 l
0.7538 0.5638 l
0.7577 0.5729 l
0.7615 0.5822 l
0.7654 0.5917 l
0.7692 0.6015 l
0.7731 0.6115 l
0.7769 0.6219 l
0.7808 0.6324 l
0.7846 0.6433 l
0.7885 0.6544 l
0.7923 0.6658 l
0.7962 0.6775 l
0.8000 0.6894 l
0.8038 0.7017 l
0.8077 0.7142 l
0.8115 0.7271 l
0.8154 0.7402 l
0.8192 0.7536 l
0.8231 0.7673 l
0.8269 0.7814 l
0.8308 0.7957 l
0.8346 0.8104 l
0.8385 0.8254 l
0.8423 0.8407 l
0.8446 0.8501 l
s
[/DeviceRGB] SCS
Color3 SC
n
0.1499 0.5002 m
0.1500 0.5002 l
0.1538 0.5003 l
0.1577 0.5003 l
0.1615 0.5003 l
0.1654 0.5004 l
0.1692 0.5004 l
0.1731 0.5005 l
0.1769 0.5005 l
0.1808 0.5005 l
0.1846 0.5006 l
0.1885 0.5006 l
0.1923 0.5007 l
0.1962 0.5008 l
0.2000 0.5008 l
0.2038 0.5009 l
0.2077 0.5010 l
0.2115 0.5010 l
0.2154 0.5011 l
0.2192 0.5012 l
0.2231 0.5013 l
0.2269 0.5014 l
0.2308 0.5015 l
0.2346 0.5015 l
0.2385 0.5016 l
0.2423 0.5018 l
0.2462 0.5019 l
0.2500 0.5020 l
0.2538 0.5021 l
0.2577 0.5022 l
0.2615 0.5024 l
0.2654 0.5025 l
0.2692 0.5026 l
0.2731 0.5028 l
0.2769 0.5029 l
0.2808 0.5031 l
0.2846 0.5032 l
0.2885 0.5034 l
0.2923 0.5036 l
0.2962 0.5038 l
0.3000 0.5040 l
0.3038 0.5041 l
0.3077 0.5043 l
0.3115 0.5045 l
0.3154 0.5048 l
0.3192 0.5050 l
0.3231 0.5052 l
0.3269 0.5054 l
0.3308 0.5057 l
0.3346 0.5059 l
0.3385 0.5061 l
0.3423 0.5064 l
0.3462 0.5067 l
0.3500 0.5069 l
0.3538 0.5072 l
0.3577 0.5075 l
0.3615 0.5078 l
0.3654 0.5081 l
0.3692 0.5084 l
0.3731 0.5087 l
0.3769 0.5090 l
0.3808 0.5093 l
0.3846 0.5097 l
0.3885 0.5100 l
0.3923 0.5103 l
0.3962 0.5107 l
0.4000 0.5111 l
0.4038 0.5114 l
0.4077 0.5118 l
0.4115 0.5122 l
0.4154 0.5126 l
0.4192 0.5130 l
0.4231 0.5134 l
0.4269 0.5138 l
0.4308 0.5143 l
0.4346 0.5147 l
0.4385 0.5151 l
0.4423 0.5156 l
0.4462 0.5160 l
0.4500 0.5165 l
0.4538 0.5170 l
0.4577 0.5175 l
0.4615 0.5180 l
0.4654 0.5185 l
0.4692 0.5190 l
0.4731 0.5195 l
0.4769 0.5200 l
0.4808 0.5206 l
0.4846 0.5211 l
0.4885 0.5216 l
0.4923 0.5222 l
0.4962 0.5228 l
0.5000 0.5234 l
0.5038 0.5239 l
0.5077 0.5245 l
0.5115 0.5251 l
0.5154 0.5258 l
0.5192 0.5264 l
0.5231 0.5270 l
0.5269 0.5276 l
0.5308 0.5283 l
0.5346 0.5290 l
0.5385 0.5296 l
0.5423 0.5303 l
0.5462 0.5310 l
0.5500 0.5317 l
0.5538 0.5324 l
0.5577 0.5331 l
0.5615 0.5338 l
0.5654 0.5345 l
0.5692 0.5353 l
0.5731 0.5360 l
0.5769 0.5368 l
0.5808 0.5375 l
0.5846 0.5383 l
0.5885 0.5391 l
0.5923 0.5399 l
0.5962 0.5407 l
0.6000 0.5415 l
0.6038 0.5423 l
0.6077 0.5431 l
0.6115 0.5439 l
0.6154 0.5448 l
0.6192 0.5456 l
0.6231 0.5465 l
0.6269 0.5473 l
0.6308 0.5482 l
0.6346 0.5491 l
0.6385 0.5500 l
0.6423 0.5509 l
0.6462 0.5518 l
0.6500 0.5527 l
0.6538 0.5536 l
0.6577 0.5546 l
0.6615 0.5555 l
0.6654 0.5565 l
0.6692 0.5574 l
0.6731 0.5584 l
0.6769 0.5594 l
0.6808 0.5604 l
0.6846 0.5613 l
0.6885 0.5623 l
0.6923 0.5633 l
0.6962 0.5644 l
0.7000 0.5654 l
0.7038 0.5664 l
0.7077 0.5675 l
0.7115 0.5685 l
0.7154 0.5696 l
0.7192 0.5706 l
0.7231 0.5717 l
0.7269 0.5728 l
0.7308 0.5738 l
0.7346 0.5749 l
0.7385 0.5760 l
0.7423 0.5771 l
0.7462 0.5782 l
0.7500 0.5794 l
0.7538 0.5805 l
0.7577 0.5816 l
0.7615 0.5828 l
0.7654 0.5839 l
0.7692 0.5851 l
0.7731 0.5862 l
0.7769 0.5874 l
0.7808 0.5886 l
0.7846 0.5898 l
0.7885 0.5909 l
0.7923 0.5921 l
0.7962 0.5933 l
0.8000 0.5945 l
0.8038 0.5958 l
0.8077 0.5970 l
0.8115 0.5982 l
0.8154 0.5994 l
0.8192 0.6007 l
0.8231 0.6019 l
0.8269 0.6032 l
0.8308 0.6044 l
0.8346 0.6057 l
0.8385 0.6069 l
0.8423 0.6082 l
0.8462 0.6095 l
0.8500 0.6108 l
0.8538 0.6120 l
0.8577 0.6133 l
0.8615 0.6146 l
0.8654 0.6159 l
0.8692 0.6172 l
0.8731 0.6185 l
0.8769 0.6199 l
0.8808 0.6212 l
0.8846 0.6225 l
0.8885 0.6238 l
0.8923 0.6252 l
0.8962 0.6265 l
0.9000 0.6278 l
0.9038 0.6292 l
0.9077 0.6305 l
0.9115 0.6319 l
0.9154 0.6332 l
0.9192 0.6346 l
0.9231 0.6359 l
0.9269 0.6373 l
0.9308 0.6387 l
0.9346 0.6401 l
0.9385 0.6414 l
0.9423 0.6428 l
0.9462 0.6442 l
0.9500 0.6456 l
0.9538 0.6470 l
0.9577 0.6483 l
s
[/DeviceRGB] SCS
Color4 SC
n
0.1499 0.4999 m
0.1500 0.4999 l
0.1538 0.4999 l
0.1577 0.4999 l
0.1615 0.4999 l
0.1654 0.4999 l
0.1692 0.4999 l
0.1731 0.4999 l
0.1769 0.4999 l
0.1808 0.4999 l
0.1846 0.4999 l
0.1885 0.4998 l
0.1923 0.4998 l
0.1962 0.4998 l
0.2000 0.4998 l
0.2038 0.4998 l
0.2077 0.4998 l
0.2115 0.4997 l
0.2154 0.4997 l
0.2192 0.4997 l
0.2231 0.4997 l
0.2269 0.4996 l
0.2308 0.4996 l
0.2346 0.4996 l
0.2385 0.4995 l
0.2423 0.4995 l
0.2462 0.4995 l
0.2500 0.4994 l
0.2538 0.4994 l
0.2577 0.4993 l
0.2615 0.4993 l
0.2654 0.4992 l
0.2692 0.4992 l
0.2731 0.4991 l
0.2769 0.4991 l
0.2808 0.4990 l
0.2846 0.4989 l
0.2885 0.4989 l
0.2923 0.4988 l
0.2962 0.4987 l
0.3000 0.4987 l
0.3038 0.4986 l
0.3077 0.4985 l
0.3115 0.4984 l
0.3154 0.4983 l
0.3192 0.4982 l
0.3231 0.4981 l
0.3269 0.4980 l
0.3308 0.4979 l
0.3346 0.4978 l
0.3385 0.4977 l
0.3423 0.4976 l
0.3462 0.4975 l
0.3500 0.4974 l
0.3538 0.4972 l
0.3577 0.4971 l
0.3615 0.4970 l
0.3654 0.4968 l
0.3692 0.4967 l
0.3731 0.4965 l
0.3769 0.4964 l
0.3808 0.4962 l
0.3846 0.4960 l
0.3885 0.4959 l
0.3923 0.4957 l
0.3962 0.4955 l
0.4000 0.4953 l
0.4038 0.4951 l
0.4077 0.4949 l
0.4115 0.4947 l
0.4154 0.4945 l
0.4192 0.4943 l
0.4231 0.4941 l
0.4269 0.4938 l
0.4308 0.4936 l
0.4346 0.4934 l
0.4385 0.4931 l
0.4423 0.4929 l
0.4462 0.4926 l
0.4500 0.4924 l
0.4538 0.4921 l
0.4577 0.4918 l
0.4615 0.4915 l
0.4654 0.4912 l
0.4692 0.4909 l
0.4731 0.4906 l
0.4769 0.4903 l
0.4808 0.4900 l
0.4846 0.4897 l
0.4885 0.4893 l
0.4923 0.4890 l
0.4962 0.4886 l
0.5000 0.4883 l
0.5038 0.4879 l
0.5077 0.4876 l
0.5115 0.4872 l
0.5154 0.4868 l
0.5192 0.4864 l
0.5231 0.4860 l
0.5269 0.4856 l
0.5308 0.4852 l
0.5346 0.4847 l
0.5385 0.4843 l
0.5423 0.4839 l
0.5462 0.4834 l
0.5500 0.4830 l
0.5538 0.4825 l
0.5577 0.4820 l
0.5615 0.4815 l
0.5654 0.4810 l
0.5692 0.4805 l
0.5731 0.4800 l
0.5769 0.4795 l
0.5808 0.4790 l
0.5846 0.4785 l
0.5885 0.4779 l
0.5923 0.4774 l
0.5962 0.4768 l
0.6000 0.4762 l
0.6038 0.4757 l
0.6077 0.4751 l
0.6115 0.4745 l
0.6154 0.4739 l
0.6192 0.4732 l
0.6231 0.4726 l
0.6269 0.4720 l
0.6308 0.4714 l
0.6346 0.4707 l
0.6385 0.4700 l
0.6423 0.4694 l
0.6462 0.4687 l
0.6500 0.4680 l
0.6538 0.4673 l
0.6577 0.4666 l
0.6615 0.4659 l
0.6654 0.4651 l
0.6692 0.4644 l
0.6731 0.4637 l
0.6769 0.4629 l
0.6808 0.4621 l
0.6846 0.4614 l
0.6885 0.4606 l
0.6923 0.4598 l
0.6962 0.4590 l
0.7000 0.4582 l
0.7038 0.4573 l
0.7077 0.4565 l
0.7115 0.4557 l
0.7154 0.4548 l
0.7192 0.4540 l
0.7231 0.4531 l
0.7269 0.4522 l
0.7308 0.4513 l
0.7346 0.4504 l
0.7385 0.4495 l
0.7423 0.4486 l
0.7462 0.4476 l
0.7500 0.4467 l
0.7538 0.4457 l
0.7577 0.4448 l
0.7615 0.4438 l
0.7654 0.4428 l
0.7692 0.4418 l
0.7731 0.4408 l
0.7769 0.4398 l
0.7808 0.4388 l
0.7846 0.4378 l
0.7885 0.4367 l
0.7923 0.4357 l
0.7962 0.4346 l
0.8000 0.4335 l
0.8038 0.4324 l
0.8077 0.4314 l
0.8115 0.4302 l
0.8154 0.4291 l
0.8192 0.4280 l
0.8231 0.4269 l
0.8269 0.4257 l
0.8308 0.4246 l
0.8346 0.4234 l
0.8385 0.4223 l
0.8423 0.4211 l
0.8462 0.4199 l
0.8500 0.4187 l
0.8538 0.4175 l
0.8577 0.4162 l
0.8615 0.4150 l
0.8654 0.4138 l
0.8692 0.4125 l
0.8731 0.4113 l
0.8769 0.4100 l
0.8808 0.4087 l
0.8846 0.4074 l
0.8885 0.4061 l
0.8923 0.4048 l
0.8962 0.4035 l
0.9000 0.4021 l
0.9038 0.4008 l
0.9077 0.3995 l
0.9115 0.3981 l
0.9154 0.3967 l
0.9192 0.3954 l
0.9231 0.3940 l
0.9269 0.3926 l
0.9308 0.3912 l
0.9346 0.3897 l
0.9385 0.3883 l
0.9423 0.3869 l
0.9462 0.3854 l
0.9500 0.3840 l
0.9538 0.3825 l
0.9577 0.3810 l
s
[/DeviceRGB] SCS
Color11 SC
n
0.1499 0.5001 m
0.1500 0.5001 l
0.1538 0.5001 l
0.1577 0.5001 l
0.1615 0.5001 l
0.1654 0.5001 l
0.1692 0.5002 l
0.1731 0.5002 l
0.1769 0.5002 l
0.1808 0.5002 l
0.1846 0.5002 l
0.1885 0.5002 l
0.1923 0.5003 l
0.1962 0.5003 l
0.2000 0.5003 l
0.2038 0.5003 l
0.2077 0.5004 l
0.2115 0.5004 l
0.2154 0.5004 l
0.2192 0.5004 l
0.2231 0.5005 l
0.2269 0.5005 l
0.2308 0.5005 l
0.2346 0.5006 l
0.2385 0.5006 l
0.2423 0.5007 l
0.2462 0.5007 l
0.2500 0.5007 l
0.2538 0.5008 l
0.2577 0.5008 l
0.2615 0.5009 l
0.2654 0.5009 l
0.2692 0.5010 l
0.2731 0.5010 l
0.2769 0.5011 l
0.2808 0.5012 l
0.2846 0.5012 l
0.2885 0.5013 l
0.2923 0.5013 l
0.2962 0.5014 l
0.3000 0.5015 l
0.3038 0.5016 l
0.3077 0.5016 l
0.3115 0.5017 l
0.3154 0.5018 l
0.3192 0.5019 l
0.3231 0.5020 l
0.3269 0.5021 l
0.3308 0.5022 l
0.3346 0.5023 l
0.3385 0.5024 l
0.3423 0.5025 l
0.3462 0.5026 l
0.3500 0.5027 l
0.3538 0.5028 l
0.3577 0.5029 l
0.3615 0.5031 l
0.3654 0.5032 l
0.3692 0.5033 l
0.3731 0.5035 l
0.3769 0.5036 l
0.3808 0.5038 l
0.3846 0.5039 l
0.3885 0.5041 l
0.3923 0.5042 l
0.3962 0.5044 l
0.4000 0.5046 l
0.4038 0.5047 l
0.4077 0.5049 l
0.4115 0.5051 l
0.4154 0.5053 l
0.4192 0.5055 l
0.4231 0.5057 l
0.4269 0.5059 l
0.4308 0.5062 l
0.4346 0.5064 l
0.4385 0.5066 l
0.4423 0.5069 l
0.4462 0.5071 l
0.4500 0.5074 l
0.4538 0.5076 l
0.4577 0.5079 l
0.4615 0.5082 l
0.4654 0.5085 l
0.4692 0.5088 l
0.4731 0.5091 l
0.4769 0.5094 l
0.4808 0.5098 l
0.4846 0.5101 l
0.4885 0.5104 l
0.4923 0.5108 l
0.4962 0.5112 l
0.5000 0.5115 l
0.5038 0.5119 l
0.5077 0.5123 l
0.5115 0.5127 l
0.5154 0.5132 l
0.5192 0.5136 l
0.5231 0.5140 l
0.5269 0.5145 l
0.5308 0.5150 l
0.5346 0.5154 l
0.5385 0.5159 l
0.5423 0.5164 l
0.5462 0.5170 l
0.5500 0.5175 l
0.5538 0.5181 l
0.5577 0.5186 l
0.5615 0.5192 l
0.5654 0.5198 l
0.5692 0.5204 l
0.5731 0.5210 l
0.5769 0.5217 l
0.5808 0.5223 l
0.5846 0.5230 l
0.5885 0.5237 l
0.5923 0.5244 l
0.5962 0.5251 l
0.6000 0.5259 l
0.6038 0.5267 l
0.6077 0.5274 l
0.6115 0.5282 l
0.6154 0.5291 l
0.6192 0.5299 l
0.6231 0.5308 l
0.6269 0.5316 l
0.6308 0.5325 l
0.6346 0.5335 l
0.6385 0.5344 l
0.6423 0.5354 l
0.6462 0.5364 l
0.6500 0.5374 l
0.6538 0.5384 l
0.6577 0.5395 l
0.6615 0.5405 l
0.6654 0.5417 l
0.6692 0.5428 l
0.6731 0.5439 l
0.6769 0.5451 l
0.6808 0.5463 l
0.6846 0.5475 l
0.6885 0.5488 l
0.6923 0.5501 l
0.6962 0.5514 l
0.7000 0.5527 l
0.7038 0.5541 l
0.7077 0.5555 l
0.7115 0.5569 l
0.7154 0.5584 l
0.7192 0.5599 l
0.7231 0.5614 l
0.7269 0.5629 l
0.7308 0.5645 l
0.7346 0.5661 l
0.7385 0.5677 l
0.7423 0.5694 l
0.7462 0.5711 l
0.7500 0.5728 l
0.7538 0.5746 l
0.7577 0.5764 l
0.7615 0.5782 l
0.7654 0.5803 l
0.7692 0.5820 l
0.7731 0.5839 l
0.7769 0.5859 l
0.7808 0.5879 l
0.7846 0.5900 l
0.7885 0.5921 l
0.7923 0.5942 l
0.7962 0.5964 l
0.8000 0.5986 l
0.8038 0.6008 l
0.8077 0.6031 l
0.8115 0.6054 l
0.8154 0.6078 l
0.8192 0.6102 l
0.8231 0.6126 l
0.8269 0.6151 l
0.8308 0.6176 l
0.8346 0.6202 l
0.8385 0.6228 l
0.8423 0.6254 l
0.8462 0.6281 l
0.8500 0.6309 l
0.8538 0.6337 l
0.8577 0.6365 l
0.8615 0.6394 l
0.8654 0.6423 l
0.8692 0.6453 l
0.8731 0.6483 l
0.8769 0.6514 l
0.8808 0.6545 l
0.8846 0.6577 l
0.8885 0.6609 l
0.8923 0.6642 l
0.8962 0.6675 l
0.9000 0.6708 l
0.9038 0.6743 l
0.9077 0.6777 l
0.9115 0.6812 l
0.9154 0.6848 l
0.9192 0.6884 l
0.9231 0.6921 l
0.9269 0.6959 l
0.9308 0.6996 l
0.9346 0.7035 l
0.9385 0.7074 l
0.9423 0.7113 l
0.9462 0.7153 l
0.9500 0.7194 l
0.9538 0.7235 l
0.9577 0.7277 l
s
[/DeviceRGB] SCS
Color6 SC
n
0.1499 0.4898 m
0.1500 0.4898 l
0.1538 0.4891 l
0.1577 0.4883 l
0.1615 0.4875 l
0.1654 0.4867 l
0.1692 0.4859 l
0.1731 0.4850 l
0.1769 0.4842 l
0.1808 0.4832 l
0.1846 0.4823 l
0.1885 0.4813 l
0.1923 0.4803 l
0.1962 0.4793 l
0.2000 0.4782 l
0.2038 0.4771 l
0.2077 0.4760 l
0.2115 0.4748 l
0.2154 0.4736 l
0.2192 0.4724 l
0.2231 0.4712 l
0.2269 0.4699 l
0.2308 0.4686 l
0.2346 0.4673 l
0.2385 0.4660 l
0.2423 0.4646 l
0.2462 0.4632 l
0.2500 0.4618 l
0.2538 0.4604 l
0.2577 0.4589 l
0.2615 0.4574 l
0.2654 0.4559 l
0.2692 0.4543 l
0.2731 0.4528 l
0.2769 0.4512 l
0.2808 0.4496 l
0.2846 0.4480 l
0.2885 0.4464 l
0.2923 0.4447 l
0.2962 0.4430 l
0.3000 0.4413 l
0.3038 0.4396 l
0.3077 0.4379 l
0.3115 0.4362 l
0.3154 0.4344 l
0.3192 0.4326 l
0.3231 0.4309 l
0.3269 0.4291 l
0.3308 0.4273 l
0.3346 0.4255 l
0.3385 0.4237 l
0.3423 0.4219 l
0.3462 0.4201 l
0.3500 0.4182 l
0.3538 0.4164 l
0.3577 0.4146 l
0.3615 0.4127 l
0.3654 0.4109 l
0.3692 0.4091 l
0.3731 0.4073 l
0.3769 0.4054 l
0.3808 0.4036 l
0.3846 0.4018 l
0.3885 0.4000 l
0.3923 0.3982 l
0.3962 0.3965 l
0.4000 0.3947 l
0.4038 0.3929 l
0.4077 0.3912 l
0.4115 0.3895 l
0.4154 0.3878 l
0.4192 0.3861 l
0.4231 0.3845 l
0.4269 0.3828 l
0.4308 0.3812 l
0.4346 0.3796 l
0.4385 0.3781 l
0.4423 0.3766 l
0.4462 0.3751 l
0.4500 0.3736 l
0.4538 0.3722 l
0.4577 0.3708 l
0.4615 0.3695 l
0.4654 0.3682 l
0.4692 0.3669 l
0.4731 0.3657 l
0.4769 0.3645 l
0.4808 0.3634 l
0.4846 0.3623 l
0.4885 0.3613 l
0.4923 0.3603 l
0.4962 0.3594 l
0.5000 0.3585 l
0.5038 0.3577 l
0.5077 0.3570 l
0.5115 0.3563 l
0.5154 0.3557 l
0.5192 0.3552 l
0.5231 0.3547 l
0.5269 0.3543 l
0.5308 0.3540 l
0.5346 0.3538 l
0.5385 0.3536 l
0.5423 0.3535 l
0.5462 0.3535 l
0.5500 0.3536 l
0.5538 0.3538 l
0.5577 0.3540 l
0.5615 0.3544 l
0.5654 0.3549 l
0.5692 0.3554 l
0.5731 0.3561 l
0.5769 0.3568 l
0.5808 0.3577 l
0.5846 0.3586 l
0.5885 0.3597 l
0.5923 0.3609 l
0.5962 0.3622 l
0.6000 0.3636 l
0.6038 0.3651 l
0.6077 0.3668 l
0.6115 0.3686 l
0.6154 0.3705 l
0.6192 0.3725 l
0.6231 0.3747 l
0.6269 0.3770 l
0.6308 0.3794 l
0.6346 0.3820 l
0.6385 0.3847 l
0.6423 0.3876 l
0.6462 0.3906 l
0.6500 0.3938 l
0.6538 0.3971 l
0.6577 0.4006 l
0.6615 0.4042 l
0.6654 0.4080 l
0.6692 0.4120 l
0.6731 0.4161 l
0.6769 0.4205 l
0.6808 0.4249 l
0.6846 0.4296 l
0.6885 0.4344 l
0.6923 0.4395 l
0.6962 0.4447 l
0.7000 0.4501 l
0.7038 0.4557 l
0.7077 0.4614 l
0.7115 0.4674 l
0.7154 0.4736 l
0.7192 0.4800 l
0.7231 0.4866 l
0.7269 0.4934 l
0.7308 0.5004 l
0.7346 0.5076 l
0.7385 0.5151 l
0.7423 0.5228 l
0.7462 0.5307 l
0.7500 0.5388 l
0.7538 0.5472 l
0.7577 0.5558 l
0.7615 0.5646 l
0.7654 0.5737 l
0.7692 0.5830 l
0.7731 0.5926 l
0.7769 0.6024 l
0.7808 0.6125 l
0.7846 0.6229 l
0.7885 0.6335 l
0.7923 0.6443 l
0.7962 0.6555 l
0.8000 0.6669 l
0.8038 0.6786 l
0.8077 0.6906 l
0.8115 0.7028 l
0.8154 0.7154 l
0.8192 0.7282 l
0.8231 0.7413 l
0.8269 0.7547 l
0.8308 0.7685 l
0.8346 0.7825 l
0.8385 0.7968 l
0.8423 0.8115 l
0.8462 0.8264 l
0.8500 0.8417 l
0.8521 0.8501 l
s
[/DeviceRGB] SCS
Color1 SC
[] 0 SD
0.0045 SLW
n
0.1500 0.1500 m
1.1500 0.1500 l
s
n
0.1500 0.8500 m
1.1500 0.8500 l
s
n
0.2846 0.1500 m
0.2846 0.1600 l
s
n
0.2846 0.8500 m
0.2846 0.8400 l
s
n
0.4769 0.1500 m
0.4769 0.1600 l
s
n
0.4769 0.8500 m
0.4769 0.8400 l
s
n
0.6692 0.1500 m
0.6692 0.1600 l
s
n
0.6692 0.8500 m
0.6692 0.8400 l
s
n
0.8615 0.1500 m
0.8615 0.1600 l
s
n
0.8615 0.8500 m
0.8615 0.8400 l
s
n
1.0538 0.1500 m
1.0538 0.1600 l
s
n
1.0538 0.8500 m
1.0538 0.8400 l
s
n
0.1885 0.1500 m
0.1885 0.1700 l
s
n
0.1885 0.8500 m
0.1885 0.8300 l
s
n
0.3808 0.1500 m
0.3808 0.1700 l
s
n
0.3808 0.8500 m
0.3808 0.8300 l
s
n
0.5731 0.1500 m
0.5731 0.1700 l
s
n
0.5731 0.8500 m
0.5731 0.8300 l
s
n
0.7654 0.1500 m
0.7654 0.1700 l
s
n
0.7654 0.8500 m
0.7654 0.8300 l
s
n
0.9577 0.1500 m
0.9577 0.1700 l
s
n
0.9577 0.8500 m
0.9577 0.8300 l
s
n
1.1500 0.1500 m
1.1500 0.1700 l
s
n
1.1500 0.8500 m
1.1500 0.8300 l
s
n
0.1500 0.1500 m
0.1500 0.8500 l
s
n
1.1500 0.1500 m
1.1500 0.8500 l
s
n
0.1500 0.2083 m
0.1600 0.2083 l
s
n
1.1500 0.2083 m
1.1400 0.2083 l
s
n
0.1500 0.3250 m
0.1600 0.3250 l
s
n
1.1500 0.3250 m
1.1400 0.3250 l
s
n
0.1500 0.4417 m
0.1600 0.4417 l
s
n
1.1500 0.4417 m
1.1400 0.4417 l
s
n
0.1500 0.5583 m
0.1600 0.5583 l
s
n
1.1500 0.5583 m
1.1400 0.5583 l
s
n
0.1500 0.6750 m
0.1600 0.6750 l
s
n
1.1500 0.6750 m
1.1400 0.6750 l
s
n
0.1500 0.7917 m
0.1600 0.7917 l
s
n
1.1500 0.7917 m
1.1400 0.7917 l
s
n
0.1500 0.1500 m
0.1700 0.1500 l
s
n
1.1500 0.1500 m
1.1300 0.1500 l
s
n
0.1500 0.2667 m
0.1700 0.2667 l
s
n
1.1500 0.2667 m
1.1300 0.2667 l
s
n
0.1500 0.3833 m
0.1700 0.3833 l
s
n
1.1500 0.3833 m
1.1300 0.3833 l
s
n
0.1500 0.5000 m
0.1700 0.5000 l
s
n
1.1500 0.5000 m
1.1300 0.5000 l
s
n
0.1500 0.6167 m
0.1700 0.6167 l
s
n
1.1500 0.6167 m
1.1300 0.6167 l
s
n
0.1500 0.7333 m
0.1700 0.7333 l
s
n
1.1500 0.7333 m
1.1300 0.7333 l
s
n
0.1500 0.8500 m
0.1700 0.8500 l
s
n
1.1500 0.8500 m
1.1300 0.8500 l
s
[] 0 SD
0.0015 SLW
n
0.1500 0.1500 m
0.1500 0.8500 l
1.1500 0.8500 l
1.1500 0.1500 l
0.1500 0.1500 l
c
s
/Times-Roman findfont
dup length dict begin
 {1 index /FID ne {def} {pop pop} ifelse} forall
 /Encoding DefEncoding def
 currentdict
end
/Font0 exch definefont pop
/Font0 FFSF
0.2000 0.7500 m
GS
[0.0792 0.0000 0.0000 0.0792 0 0] CC
(M3Y-P5) show
GR
showpage
%%PageTrailer
%%Trailer
%%DocumentNeededResources: font Times-Roman
%%EOF
