%!PS-Adobe-3.0
%%BoundingBox: 0 0 612 792
%%LanguageLevel: 2
%%Creator: Grace-5.1.25
%%CreationDate: Thu Jun 23 09:46:47 2016
%%DocumentData: Clean8Bit
%%Orientation: Landscape
%%Pages: 1
%%PageOrder: Ascend
%%Title: EsurA_refit3gaussian.agr
%%For: ap1450
%%DocumentNeededResources: (atend)
%%EndComments
%%BeginProlog
/PAGE_OFFSET_X 0 def
/PAGE_OFFSET_Y 0 def
/m {moveto} def
/l {lineto} def
/s {stroke} def
/n {newpath} def
/c {closepath} def
/RL {rlineto} def
/SLW {setlinewidth} def
/GS {gsave} def
/GR {grestore} def
/SC {setcolor} def
/SGRY {setgray} def
/SRGB {setrgbcolor} def
/SD {setdash} def
/SLC {setlinecap} def
/SLJ {setlinejoin} def
/SCS {setcolorspace} def
/FFSF {findfont setfont} def
/CC {concat} def
/PXL {n m 0 0 RL s} def
/Color0 {1.0000 1.0000 1.0000} def
/Color1 {0.0000 0.0000 0.0000} def
/Color2 {1.0000 0.0000 0.0000} def
/Color3 {0.0000 1.0000 0.0000} def
/Color4 {0.0000 0.0000 1.0000} def
/Color5 {1.0000 1.0000 0.0000} def
/Color6 {0.7373 0.5608 0.5608} def
/Color7 {0.8627 0.8627 0.8627} def
/Color8 {0.5804 0.0000 0.8275} def
/Color9 {0.0000 1.0000 1.0000} def
/Color10 {1.0000 0.0000 1.0000} def
/Color11 {1.0000 0.6471 0.0000} def
/Color12 {0.4471 0.1294 0.7373} def
/Color13 {0.4039 0.0275 0.2824} def
/Color14 {0.2510 0.8784 0.8157} def
/Color15 {0.0000 0.5451 0.0000} def
/Color16 {0.7529 0.7529 0.7529} def
/Color17 {0.5059 0.5059 0.5059} def
/Color18 {0.2588 0.2588 0.2588} def
/PTRN {
 /pat_bits exch def 
 <<
  /PaintType 2
  /PatternType 1 /TilingType 1
  /BBox[0 0 16 16]
  /XStep 16 /YStep 16
  /PaintProc {
   pop
   16 16 true [-1 0 0 -1 16 16] pat_bits imagemask
  }
 >>
 [0.0016 0 0 0.0016 0 0]
 makepattern
} def
/Pattern0 {<0000000000000000000000000000000000000000000000000000000000000000> PTRN} bind def
/Pattern1 {<ffffffffffffffffffffffffffffffffffffffffffffffffffffffffffffffff> PTRN} bind def
/Pattern2 {<eeeeffffbbbbffffeeeeffffbbbbffffeeeeffffbbbbffffeeeeffffbbbbffff> PTRN} bind def
/Pattern3 {<eeeebbbbeeeebbbbeeeebbbbeeeebbbbeeeebbbbeeeebbbbeeeebbbbeeeebbbb> PTRN} bind def
/Pattern4 {<5555aaaa5555aaaa5555aaaa5555aaaa5555aaaa5555aaaa5555aaaa5555aaaa> PTRN} bind def
/Pattern5 {<1111444411114444111144441111444411114444111144441111444411114444> PTRN} bind def
/Pattern6 {<1111000044440000111100004444000011110000444400001111000044440000> PTRN} bind def
/Pattern7 {<1010000000000000010100000000000010100000000000000101000000000000> PTRN} bind def
/Pattern8 {<0000000000000000000000000000000000000000000000000000000000000000> PTRN} bind def
/Pattern9 {<1e1e0f0f8787c3c3e1e1f0f078783c3c1e1e0f0f8787c3c3e1e1f0f078783c3c> PTRN} bind def
/Pattern10 {<7878f0f0e1e1c3c387870f0f1e1e3c3c7878f0f0e1e1c3c387870f0f1e1e3c3c> PTRN} bind def
/Pattern11 {<3333333333333333333333333333333333333333333333333333333333333333> PTRN} bind def
/Pattern12 {<ffffffff00000000ffffffff00000000ffffffff00000000ffffffff00000000> PTRN} bind def
/Pattern13 {<8181424224241818181824244242818181814242242418181818242442428181> PTRN} bind def
/Pattern14 {<8080404020201010080804040202010180804040202010100808040402020101> PTRN} bind def
/Pattern15 {<0101020204040808101020204040808001010202040408081010202040408080> PTRN} bind def
/Pattern16 {<2222222222222222222222222222222222222222222222222222222222222222> PTRN} bind def
/Pattern17 {<0000ffff000000000000ffff000000000000ffff000000000000ffff00000000> PTRN} bind def
/Pattern18 {<2222ffff222222222222ffff222222222222ffff222222222222ffff22222222> PTRN} bind def
/Pattern19 {<ffffffff33333333ffffffff33333333ffffffff33333333ffffffff33333333> PTRN} bind def
/Pattern20 {<0f0f0f0f0f0f0f0ff0f0f0f0f0f0f0f00f0f0f0f0f0f0f0ff0f0f0f0f0f0f0f0> PTRN} bind def
/Pattern21 {<ff00ff00ff00ff00ff00ff00ff00ff0000ff00ff00ff00ff00ff00ff00ff00ff> PTRN} bind def
/Pattern22 {<8001800180018001800180018001ffffffff8001800180018001800180018001> PTRN} bind def
/Pattern23 {<c003c003c003c003c003c003ffffffffffffffffc003c003c003c003c003c003> PTRN} bind def
/Pattern24 {<040404040404ffff404040404040ffff040404040404ffff404040404040ffff> PTRN} bind def
/Pattern25 {<180018001800180018001800ffffffff001800180018001800180018ffffffff> PTRN} bind def
/Pattern26 {<1111b8b87c7c3a3a1111a3a3c7c78b8b1111b8b87c7c3a3a1111a3a3c7c78b8b> PTRN} bind def
/Pattern27 {<101010102828c7c70101010182827c7c101010102828c7c70101010182827c7c> PTRN} bind def
/Pattern28 {<1c1c121211112121c1c12121111112121c1c121211112121c1c1212111111212> PTRN} bind def
/Pattern29 {<3e3e414180808080e3e31414080808083e3e414180808080e3e3141408080808> PTRN} bind def
/Pattern30 {<4848888884848383848488884848383848488888848483838484888848483838> PTRN} bind def
/Pattern31 {<03030404080808080c0c12122121c0c003030404080808080c0c12122121c0c0> PTRN} bind def
/ellipsedict 8 dict def
ellipsedict /mtrx matrix put
/EARC {
 ellipsedict begin
  /endangle exch def
  /startangle exch def
  /yrad exch def
  /xrad exch def
  /y exch def
  /x exch def
  /savematrix mtrx currentmatrix def
  x y translate
  xrad yrad scale
  0 0 1 startangle endangle arc
  savematrix setmatrix
 end
} def
/TL {
  /kcomp exch def
  /linewidth exch def
  /offset exch def
  GS
  0 offset rmoveto
  linewidth SLW
  dup stringwidth exch kcomp add exch RL s
  GR
} def
/KINIT
{
 /kvector exch def
 /kid 0 def
} def
/KPROC
{
 pop pop
 kvector kid get
 0 rmoveto
 /kid 1 kid add def
} def
/DefEncoding [
 /.notdef
 /.notdef
 /.notdef
 /.notdef
 /.notdef
 /.notdef
 /.notdef
 /.notdef
 /.notdef
 /.notdef
 /.notdef
 /.notdef
 /.notdef
 /.notdef
 /.notdef
 /.notdef
 /.notdef
 /.notdef
 /.notdef
 /.notdef
 /.notdef
 /.notdef
 /.notdef
 /.notdef
 /.notdef
 /.notdef
 /.notdef
 /.notdef
 /.notdef
 /.notdef
 /.notdef
 /.notdef
 /space
 /exclam
 /quotedbl
 /numbersign
 /dollar
 /percent
 /ampersand
 /quoteright
 /parenleft
 /parenright
 /asterisk
 /plus
 /comma
 /hyphen
 /period
 /slash
 /zero
 /one
 /two
 /three
 /four
 /five
 /six
 /seven
 /eight
 /nine
 /colon
 /semicolon
 /less
 /equal
 /greater
 /question
 /at
 /A
 /B
 /C
 /D
 /E
 /F
 /G
 /H
 /I
 /J
 /K
 /L
 /M
 /N
 /O
 /P
 /Q
 /R
 /S
 /T
 /U
 /V
 /W
 /X
 /Y
 /Z
 /bracketleft
 /backslash
 /bracketright
 /asciicircum
 /underscore
 /grave
 /a
 /b
 /c
 /d
 /e
 /f
 /g
 /h
 /i
 /j
 /k
 /l
 /m
 /n
 /o
 /p
 /q
 /r
 /s
 /t
 /u
 /v
 /w
 /x
 /y
 /z
 /braceleft
 /bar
 /braceright
 /asciitilde
 /.notdef
 /.notdef
 /.notdef
 /.notdef
 /.notdef
 /.notdef
 /.notdef
 /.notdef
 /.notdef
 /.notdef
 /.notdef
 /.notdef
 /.notdef
 /.notdef
 /.notdef
 /.notdef
 /.notdef
 /.notdef
 /.notdef
 /.notdef
 /.notdef
 /.notdef
 /.notdef
 /.notdef
 /.notdef
 /.notdef
 /.notdef
 /.notdef
 /.notdef
 /.notdef
 /.notdef
 /.notdef
 /.notdef
 /space
 /exclamdown
 /cent
 /sterling
 /currency
 /yen
 /brokenbar
 /section
 /dieresis
 /copyright
 /ordfeminine
 /guillemotleft
 /logicalnot
 /hyphen
 /registered
 /macron
 /degree
 /plusminus
 /twosuperior
 /threesuperior
 /acute
 /mu
 /paragraph
 /periodcentered
 /cedilla
 /onesuperior
 /ordmasculine
 /guillemotright
 /onequarter
 /onehalf
 /threequarters
 /questiondown
 /Agrave
 /Aacute
 /Acircumflex
 /Atilde
 /Adieresis
 /Aring
 /AE
 /Ccedilla
 /Egrave
 /Eacute
 /Ecircumflex
 /Edieresis
 /Igrave
 /Iacute
 /Icircumflex
 /Idieresis
 /Eth
 /Ntilde
 /Ograve
 /Oacute
 /Ocircumflex
 /Otilde
 /Odieresis
 /multiply
 /Oslash
 /Ugrave
 /Uacute
 /Ucircumflex
 /Udieresis
 /Yacute
 /Thorn
 /germandbls
 /agrave
 /aacute
 /acircumflex
 /atilde
 /adieresis
 /aring
 /ae
 /ccedilla
 /egrave
 /eacute
 /ecircumflex
 /edieresis
 /igrave
 /iacute
 /icircumflex
 /idieresis
 /eth
 /ntilde
 /ograve
 /oacute
 /ocircumflex
 /otilde
 /odieresis
 /divide
 /oslash
 /ugrave
 /uacute
 /ucircumflex
 /udieresis
 /yacute
 /thorn
 /ydieresis
] def
%%EndProlog
%%BeginSetup
%%EndSetup
%%Page: 1 1
PAGE_OFFSET_X PAGE_OFFSET_Y translate
612.00 612.00 scale
90 rotate
0.0 -1.0 translate
[/DeviceRGB] SCS
Color1 SC
[] 0 SD
0.0045 SLW
0 SLC
0 SLJ
n
0.1600 0.1916 m
0.1700 0.1878 l
0.1800 0.1842 l
0.1900 0.1807 l
0.2000 0.1776 l
0.2100 0.1747 l
0.2200 0.1721 l
0.2300 0.1697 l
0.2400 0.1676 l
0.2500 0.1657 l
0.2600 0.1641 l
0.2700 0.1627 l
0.2800 0.1615 l
0.2900 0.1605 l
0.3000 0.1598 l
0.3100 0.1592 l
0.3200 0.1588 l
0.3300 0.1586 l
0.3400 0.1586 l
0.3500 0.1588 l
0.3600 0.1591 l
0.3700 0.1596 l
0.3800 0.1603 l
0.3900 0.1611 l
0.4000 0.1621 l
0.4100 0.1633 l
0.4200 0.1646 l
0.4300 0.1660 l
0.4400 0.1676 l
0.4500 0.1694 l
0.4600 0.1712 l
0.4700 0.1732 l
0.4800 0.1754 l
0.4900 0.1776 l
0.5000 0.1800 l
0.5100 0.1826 l
0.5200 0.1852 l
0.5300 0.1880 l
0.5400 0.1909 l
0.5500 0.1939 l
0.5600 0.1970 l
0.5700 0.2003 l
0.5800 0.2036 l
0.5900 0.2071 l
0.6000 0.2107 l
0.6100 0.2143 l
0.6200 0.2181 l
0.6300 0.2220 l
0.6400 0.2260 l
0.6500 0.2301 l
0.6600 0.2343 l
0.6700 0.2386 l
0.6800 0.2430 l
0.6900 0.2475 l
0.7000 0.2521 l
0.7100 0.2568 l
0.7200 0.2615 l
0.7300 0.2664 l
0.7400 0.2713 l
0.7500 0.2764 l
0.7600 0.2815 l
0.7700 0.2867 l
0.7800 0.2920 l
0.7900 0.2974 l
0.8000 0.3029 l
0.8100 0.3085 l
0.8200 0.3141 l
0.8300 0.3198 l
0.8400 0.3256 l
0.8500 0.3315 l
0.8600 0.3375 l
0.8700 0.3435 l
0.8800 0.3496 l
0.8900 0.3558 l
0.9000 0.3621 l
0.9100 0.3684 l
0.9200 0.3748 l
0.9300 0.3813 l
0.9400 0.3879 l
0.9500 0.3945 l
0.9600 0.4012 l
0.9700 0.4080 l
0.9800 0.4149 l
0.9900 0.4218 l
1.0000 0.4288 l
1.0100 0.4358 l
1.0200 0.4430 l
1.0300 0.4501 l
1.0400 0.4574 l
1.0500 0.4647 l
1.0600 0.4721 l
1.0700 0.4796 l
1.0800 0.4871 l
1.0900 0.4947 l
1.1000 0.5023 l
1.1100 0.5100 l
1.1200 0.5178 l
1.1300 0.5256 l
1.1400 0.5335 l
1.1500 0.5415 l
s
[/DeviceRGB] SCS
Color2 SC
n
0.1600 0.2009 m
0.1700 0.2038 l
0.1800 0.2060 l
0.1900 0.2080 l
0.2000 0.2101 l
0.2100 0.2124 l
0.2200 0.2147 l
0.2300 0.2173 l
0.2400 0.2200 l
0.2500 0.2229 l
0.2600 0.2260 l
0.2700 0.2293 l
0.2800 0.2327 l
0.2900 0.2364 l
0.3000 0.2402 l
0.3100 0.2441 l
0.3200 0.2483 l
0.3300 0.2525 l
0.3400 0.2570 l
0.3500 0.2615 l
0.3600 0.2663 l
0.3700 0.2711 l
0.3800 0.2761 l
0.3900 0.2812 l
0.4000 0.2864 l
0.4100 0.2917 l
0.4200 0.2971 l
0.4300 0.3026 l
0.4400 0.3083 l
0.4500 0.3140 l
0.4600 0.3198 l
0.4700 0.3257 l
0.4800 0.3317 l
0.4900 0.3378 l
0.5000 0.3440 l
0.5100 0.3502 l
0.5200 0.3565 l
0.5300 0.3629 l
0.5400 0.3693 l
0.5500 0.3758 l
0.5600 0.3824 l
0.5700 0.3890 l
0.5800 0.3957 l
0.5900 0.4025 l
0.6000 0.4093 l
0.6100 0.4161 l
0.6200 0.4231 l
0.6300 0.4300 l
0.6400 0.4370 l
0.6500 0.4441 l
0.6600 0.4512 l
0.6700 0.4583 l
0.6800 0.4655 l
0.6900 0.4727 l
0.7000 0.4800 l
0.7100 0.4873 l
0.7200 0.4946 l
0.7300 0.5020 l
0.7400 0.5094 l
0.7500 0.5168 l
0.7600 0.5243 l
0.7700 0.5318 l
0.7800 0.5393 l
0.7900 0.5469 l
0.8000 0.5545 l
0.8100 0.5621 l
0.8200 0.5697 l
0.8300 0.5774 l
0.8400 0.5850 l
0.8500 0.5928 l
0.8600 0.6005 l
0.8700 0.6082 l
0.8800 0.6160 l
0.8900 0.6238 l
0.9000 0.6316 l
0.9100 0.6394 l
0.9200 0.6473 l
0.9300 0.6552 l
0.9400 0.6630 l
0.9500 0.6710 l
0.9600 0.6789 l
0.9700 0.6868 l
0.9800 0.6947 l
0.9900 0.7027 l
1.0000 0.7107 l
1.0100 0.7187 l
1.0200 0.7267 l
1.0300 0.7347 l
1.0400 0.7427 l
1.0500 0.7508 l
1.0600 0.7588 l
1.0700 0.7669 l
1.0800 0.7749 l
1.0900 0.7830 l
1.1000 0.7911 l
1.1100 0.7992 l
1.1200 0.8073 l
1.1300 0.8154 l
1.1400 0.8236 l
1.1500 0.8317 l
s
n
0.2215 0.1602 m
0.2215 0.1772 l
0.2385 0.1772 l
0.2385 0.1602 l
c
GS
Color0 SRGB
fill
GR
[/Pattern /DeviceRGB] SCS
Color1 Pattern8 SC
fill
[/DeviceRGB] SCS
Color1 SC
[] 0 SD
0.0037 SLW
n
0.2215 0.1602 m
0.2215 0.1772 l
0.2385 0.1772 l
0.2385 0.1602 l
0.2215 0.1602 l
c
s
n
0.3015 0.1496 m
0.3015 0.1666 l
0.3185 0.1666 l
0.3185 0.1496 l
c
GS
Color0 SRGB
fill
GR
[/Pattern /DeviceRGB] SCS
Color1 Pattern8 SC
fill
[/DeviceRGB] SCS
Color1 SC
n
0.3015 0.1496 m
0.3015 0.1666 l
0.3185 0.1666 l
0.3185 0.1496 l
0.3015 0.1496 l
c
s
n
0.3415 0.1497 m
0.3415 0.1667 l
0.3585 0.1667 l
0.3585 0.1497 l
c
GS
Color0 SRGB
fill
GR
[/Pattern /DeviceRGB] SCS
Color1 Pattern8 SC
fill
[/DeviceRGB] SCS
Color1 SC
n
0.3415 0.1497 m
0.3415 0.1667 l
0.3585 0.1667 l
0.3585 0.1497 l
0.3415 0.1497 l
c
s
n
0.4415 0.1617 m
0.4415 0.1787 l
0.4585 0.1787 l
0.4585 0.1617 l
c
GS
Color0 SRGB
fill
GR
[/Pattern /DeviceRGB] SCS
Color1 Pattern8 SC
fill
[/DeviceRGB] SCS
Color1 SC
n
0.4415 0.1617 m
0.4415 0.1787 l
0.4585 0.1787 l
0.4585 0.1617 l
0.4415 0.1617 l
c
s
n
0.5415 0.1870 m
0.5415 0.2040 l
0.5585 0.2040 l
0.5585 0.1870 l
c
GS
Color0 SRGB
fill
GR
[/Pattern /DeviceRGB] SCS
Color1 Pattern8 SC
fill
[/DeviceRGB] SCS
Color1 SC
n
0.5415 0.1870 m
0.5415 0.2040 l
0.5585 0.2040 l
0.5585 0.1870 l
0.5415 0.1870 l
c
s
n
0.6415 0.2236 m
0.6415 0.2406 l
0.6585 0.2406 l
0.6585 0.2236 l
c
GS
Color0 SRGB
fill
GR
[/Pattern /DeviceRGB] SCS
Color1 Pattern8 SC
fill
[/DeviceRGB] SCS
Color1 SC
n
0.6415 0.2236 m
0.6415 0.2406 l
0.6585 0.2406 l
0.6585 0.2236 l
0.6415 0.2236 l
c
s
n
0.7415 0.2695 m
0.7415 0.2865 l
0.7585 0.2865 l
0.7585 0.2695 l
c
GS
Color0 SRGB
fill
GR
[/Pattern /DeviceRGB] SCS
Color1 Pattern8 SC
fill
[/DeviceRGB] SCS
Color1 SC
n
0.7415 0.2695 m
0.7415 0.2865 l
0.7585 0.2865 l
0.7585 0.2695 l
0.7415 0.2695 l
c
s
n
0.8415 0.3224 m
0.8415 0.3394 l
0.8585 0.3394 l
0.8585 0.3224 l
c
GS
Color0 SRGB
fill
GR
[/Pattern /DeviceRGB] SCS
Color1 Pattern8 SC
fill
[/DeviceRGB] SCS
Color1 SC
n
0.8415 0.3224 m
0.8415 0.3394 l
0.8585 0.3394 l
0.8585 0.3224 l
0.8415 0.3224 l
c
s
n
0.9415 0.3806 m
0.9415 0.3976 l
0.9585 0.3976 l
0.9585 0.3806 l
c
GS
Color0 SRGB
fill
GR
[/Pattern /DeviceRGB] SCS
Color1 Pattern8 SC
fill
[/DeviceRGB] SCS
Color1 SC
n
0.9415 0.3806 m
0.9415 0.3976 l
0.9585 0.3976 l
0.9585 0.3806 l
0.9415 0.3806 l
c
s
n
1.0415 0.4427 m
1.0415 0.4597 l
1.0585 0.4597 l
1.0585 0.4427 l
c
GS
Color0 SRGB
fill
GR
[/Pattern /DeviceRGB] SCS
Color1 Pattern8 SC
fill
[/DeviceRGB] SCS
Color1 SC
n
1.0415 0.4427 m
1.0415 0.4597 l
1.0585 0.4597 l
1.0585 0.4427 l
1.0415 0.4427 l
c
s
n
1.1415 0.5076 m
1.1415 0.5246 l
1.1585 0.5246 l
1.1585 0.5076 l
c
GS
Color0 SRGB
fill
GR
[/Pattern /DeviceRGB] SCS
Color1 Pattern8 SC
fill
[/DeviceRGB] SCS
Color1 SC
n
1.1415 0.5076 m
1.1415 0.5246 l
1.1585 0.5246 l
1.1585 0.5076 l
1.1415 0.5076 l
c
s
n
0.2300 0.2124 0.0100 0.0100 0 360 EARC c
GS
Color0 SRGB
fill
GR
[/Pattern /DeviceRGB] SCS
Color2 Pattern8 SC
fill
[/DeviceRGB] SCS
Color2 SC
n 0.2300 0.2124 0.0100 0.0100 0 360 EARC s
n
0.3100 0.2292 0.0100 0.0100 0 360 EARC c
GS
Color0 SRGB
fill
GR
[/Pattern /DeviceRGB] SCS
Color2 Pattern8 SC
fill
[/DeviceRGB] SCS
Color2 SC
n 0.3100 0.2292 0.0100 0.0100 0 360 EARC s
n
0.3500 0.2397 0.0100 0.0100 0 360 EARC c
GS
Color0 SRGB
fill
GR
[/Pattern /DeviceRGB] SCS
Color2 Pattern8 SC
fill
[/DeviceRGB] SCS
Color2 SC
n 0.3500 0.2397 0.0100 0.0100 0 360 EARC s
n
0.4500 0.2716 0.0100 0.0100 0 360 EARC c
GS
Color0 SRGB
fill
GR
[/Pattern /DeviceRGB] SCS
Color2 Pattern8 SC
fill
[/DeviceRGB] SCS
Color2 SC
n 0.4500 0.2716 0.0100 0.0100 0 360 EARC s
n
0.5500 0.3146 0.0100 0.0100 0 360 EARC c
GS
Color0 SRGB
fill
GR
[/Pattern /DeviceRGB] SCS
Color2 Pattern8 SC
fill
[/DeviceRGB] SCS
Color2 SC
n 0.5500 0.3146 0.0100 0.0100 0 360 EARC s
n
0.6500 0.3712 0.0100 0.0100 0 360 EARC c
GS
Color0 SRGB
fill
GR
[/Pattern /DeviceRGB] SCS
Color2 Pattern8 SC
fill
[/DeviceRGB] SCS
Color2 SC
n 0.6500 0.3712 0.0100 0.0100 0 360 EARC s
n
0.7500 0.4398 0.0100 0.0100 0 360 EARC c
GS
Color0 SRGB
fill
GR
[/Pattern /DeviceRGB] SCS
Color2 Pattern8 SC
fill
[/DeviceRGB] SCS
Color2 SC
n 0.7500 0.4398 0.0100 0.0100 0 360 EARC s
n
0.8500 0.5173 0.0100 0.0100 0 360 EARC c
GS
Color0 SRGB
fill
GR
[/Pattern /DeviceRGB] SCS
Color2 Pattern8 SC
fill
[/DeviceRGB] SCS
Color2 SC
n 0.8500 0.5173 0.0100 0.0100 0 360 EARC s
n
0.9500 0.6004 0.0100 0.0100 0 360 EARC c
GS
Color0 SRGB
fill
GR
[/Pattern /DeviceRGB] SCS
Color2 Pattern8 SC
fill
[/DeviceRGB] SCS
Color2 SC
n 0.9500 0.6004 0.0100 0.0100 0 360 EARC s
n
1.0500 0.6875 0.0100 0.0100 0 360 EARC c
GS
Color0 SRGB
fill
GR
[/Pattern /DeviceRGB] SCS
Color2 Pattern8 SC
fill
[/DeviceRGB] SCS
Color2 SC
n 1.0500 0.6875 0.0100 0.0100 0 360 EARC s
n
1.1500 0.7772 0.0100 0.0100 0 360 EARC c
GS
Color0 SRGB
fill
GR
[/Pattern /DeviceRGB] SCS
Color2 Pattern8 SC
fill
[/DeviceRGB] SCS
Color2 SC
n 1.1500 0.7772 0.0100 0.0100 0 360 EARC s
[/DeviceRGB] SCS
Color1 SC
[0.0225 0.0135 ] 0 SD
0.0045 SLW
n
0.1600 0.1905 m
0.1700 0.1860 l
0.1800 0.1819 l
0.1900 0.1782 l
0.2000 0.1749 l
0.2100 0.1719 l
0.2200 0.1693 l
0.2300 0.1671 l
0.2400 0.1651 l
0.2500 0.1635 l
0.2600 0.1621 l
0.2700 0.1610 l
0.2800 0.1602 l
0.2900 0.1595 l
0.3000 0.1591 l
0.3100 0.1589 l
0.3200 0.1590 l
0.3300 0.1592 l
0.3400 0.1596 l
0.3500 0.1602 l
0.3600 0.1609 l
0.3700 0.1619 l
0.3800 0.1630 l
0.3900 0.1642 l
0.4000 0.1656 l
0.4100 0.1672 l
0.4200 0.1689 l
0.4300 0.1708 l
0.4400 0.1727 l
0.4500 0.1749 l
0.4600 0.1771 l
0.4700 0.1795 l
0.4800 0.1820 l
0.4900 0.1846 l
0.5000 0.1874 l
0.5100 0.1902 l
0.5200 0.1932 l
0.5300 0.1963 l
0.5400 0.1994 l
0.5500 0.2027 l
0.5600 0.2061 l
0.5700 0.2096 l
0.5800 0.2132 l
0.5900 0.2169 l
0.6000 0.2207 l
0.6100 0.2246 l
0.6200 0.2286 l
0.6300 0.2327 l
0.6400 0.2369 l
0.6500 0.2411 l
0.6600 0.2455 l
0.6700 0.2499 l
0.6800 0.2544 l
0.6900 0.2590 l
0.7000 0.2637 l
0.7100 0.2684 l
0.7200 0.2733 l
0.7300 0.2782 l
0.7400 0.2832 l
0.7500 0.2883 l
0.7600 0.2934 l
0.7700 0.2986 l
0.7800 0.3039 l
0.7900 0.3093 l
0.8000 0.3147 l
0.8100 0.3203 l
0.8200 0.3258 l
0.8300 0.3315 l
0.8400 0.3372 l
0.8500 0.3430 l
0.8600 0.3489 l
0.8700 0.3548 l
0.8800 0.3608 l
0.8900 0.3668 l
0.9000 0.3729 l
0.9100 0.3791 l
0.9200 0.3854 l
0.9300 0.3917 l
0.9400 0.3980 l
0.9500 0.4045 l
0.9600 0.4110 l
0.9700 0.4175 l
0.9800 0.4241 l
0.9900 0.4308 l
1.0000 0.4375 l
1.0100 0.4443 l
1.0200 0.4511 l
1.0300 0.4580 l
1.0400 0.4650 l
1.0500 0.4720 l
1.0600 0.4791 l
1.0700 0.4862 l
1.0800 0.4934 l
1.0900 0.5006 l
1.1000 0.5079 l
1.1100 0.5152 l
1.1200 0.5226 l
1.1300 0.5300 l
1.1400 0.5375 l
1.1500 0.5451 l
s
[/DeviceRGB] SCS
Color2 SC
n
0.1600 0.2027 m
0.1700 0.2065 l
0.1800 0.2090 l
0.1900 0.2110 l
0.2000 0.2125 l
0.2100 0.2138 l
0.2200 0.2149 l
0.2300 0.2159 l
0.2400 0.2168 l
0.2500 0.2177 l
0.2600 0.2186 l
0.2700 0.2195 l
0.2800 0.2204 l
0.2900 0.2214 l
0.3000 0.2224 l
0.3100 0.2234 l
0.3200 0.2245 l
0.3300 0.2257 l
0.3400 0.2269 l
0.3500 0.2282 l
0.3600 0.2296 l
0.3700 0.2311 l
0.3800 0.2326 l
0.3900 0.2342 l
0.4000 0.2359 l
0.4100 0.2376 l
0.4200 0.2395 l
0.4300 0.2414 l
0.4400 0.2434 l
0.4500 0.2455 l
0.4600 0.2477 l
0.4700 0.2499 l
0.4800 0.2523 l
0.4900 0.2547 l
0.5000 0.2572 l
0.5100 0.2598 l
0.5200 0.2624 l
0.5300 0.2651 l
0.5400 0.2680 l
0.5500 0.2708 l
0.5600 0.2738 l
0.5700 0.2769 l
0.5800 0.2800 l
0.5900 0.2832 l
0.6000 0.2864 l
0.6100 0.2898 l
0.6200 0.2932 l
0.6300 0.2967 l
0.6400 0.3002 l
0.6500 0.3039 l
0.6600 0.3076 l
0.6700 0.3113 l
0.6800 0.3152 l
0.6900 0.3191 l
0.7000 0.3231 l
0.7100 0.3271 l
0.7200 0.3312 l
0.7300 0.3354 l
0.7400 0.3396 l
0.7500 0.3439 l
0.7600 0.3483 l
0.7700 0.3527 l
0.7800 0.3572 l
0.7900 0.3618 l
0.8000 0.3664 l
0.8100 0.3710 l
0.8200 0.3758 l
0.8300 0.3806 l
0.8400 0.3854 l
0.8500 0.3903 l
0.8600 0.3953 l
0.8700 0.4003 l
0.8800 0.4054 l
0.8900 0.4105 l
0.9000 0.4157 l
0.9100 0.4209 l
0.9200 0.4262 l
0.9300 0.4315 l
0.9400 0.4369 l
0.9500 0.4424 l
0.9600 0.4479 l
0.9700 0.4534 l
0.9800 0.4590 l
0.9900 0.4647 l
1.0000 0.4704 l
1.0100 0.4761 l
1.0200 0.4819 l
1.0300 0.4878 l
1.0400 0.4936 l
1.0500 0.4996 l
1.0600 0.5056 l
1.0700 0.5116 l
1.0800 0.5177 l
1.0900 0.5238 l
1.1000 0.5299 l
1.1100 0.5361 l
1.1200 0.5424 l
1.1300 0.5487 l
1.1400 0.5550 l
1.1500 0.5614 l
s
[/DeviceRGB] SCS
Color1 SC
[] 0 SD
0.0045 SLW
n
0.1500 0.1500 m
1.1500 0.1500 l
s
n
0.1500 0.8500 m
1.1500 0.8500 l
s
n
0.2500 0.1500 m
0.2500 0.1600 l
s
n
0.2500 0.8500 m
0.2500 0.8400 l
s
n
0.4500 0.1500 m
0.4500 0.1600 l
s
n
0.4500 0.8500 m
0.4500 0.8400 l
s
n
0.6500 0.1500 m
0.6500 0.1600 l
s
n
0.6500 0.8500 m
0.6500 0.8400 l
s
n
0.8500 0.1500 m
0.8500 0.1600 l
s
n
0.8500 0.8500 m
0.8500 0.8400 l
s
n
1.0500 0.1500 m
1.0500 0.1600 l
s
n
1.0500 0.8500 m
1.0500 0.8400 l
s
n
0.1500 0.1500 m
0.1500 0.1700 l
s
n
0.1500 0.8500 m
0.1500 0.8300 l
s
n
0.3500 0.1500 m
0.3500 0.1700 l
s
n
0.3500 0.8500 m
0.3500 0.8300 l
s
n
0.5500 0.1500 m
0.5500 0.1700 l
s
n
0.5500 0.8500 m
0.5500 0.8300 l
s
n
0.7500 0.1500 m
0.7500 0.1700 l
s
n
0.7500 0.8500 m
0.7500 0.8300 l
s
n
0.9500 0.1500 m
0.9500 0.1700 l
s
n
0.9500 0.8500 m
0.9500 0.8300 l
s
n
1.1500 0.1500 m
1.1500 0.1700 l
s
n
1.1500 0.8500 m
1.1500 0.8300 l
s
/Times-Roman findfont
dup length dict begin
 {1 index /FID ne {def} {pop pop} ifelse} forall
 /Encoding DefEncoding def
 currentdict
end
/Font0 exch definefont pop
/Font0 FFSF
0.1394 0.1094 m
GS
[0.0448 0.0000 0.0000 0.0448 0 0] CC
(0) show
GR
/Font0 FFSF
0.3225 0.1094 m
GS
[0.0448 0.0000 0.0000 0.0448 0 0] CC
(0.2) show
GR
/Font0 FFSF
0.5225 0.1094 m
GS
[0.0448 0.0000 0.0000 0.0448 0 0] CC
(0.4) show
GR
/Font0 FFSF
0.7227 0.1094 m
GS
[0.0448 0.0000 0.0000 0.0448 0 0] CC
(0.6) show
GR
/Font0 FFSF
0.9231 0.1094 m
GS
[0.0448 0.0000 0.0000 0.0448 0 0] CC
(0.8) show
GR
/Font0 FFSF
1.1412 0.1094 m
GS
[0.0448 0.0000 0.0000 0.0448 0 0] CC
(1) show
GR
/Symbol findfont
/Font12 exch definefont pop
/Font12 FFSF
0.5722 0.0445 m
GS
[0.0504 0.0000 0.0000 0.0504 0 0] CC
(r) show
GR
/Font0 FFSF
0.6000 0.0445 m
GS
[0.0504 0.0000 0.0000 0.0504 0 0] CC
( [fm) show
GR
/Font0 FFSF
0.6855 0.0747 m
GS
[0.0356 0.0000 0.0000 0.0356 0 0] CC
(-3) show
GR
/Font0 FFSF
0.7153 0.0445 m
GS
[0.0504 0.0000 0.0000 0.0504 0 0] CC
(]) show
GR
n
0.1500 0.1500 m
0.1500 0.8500 l
s
n
1.1500 0.1500 m
1.1500 0.8500 l
s
n
0.1500 0.2484 m
0.1600 0.2484 l
s
n
1.1500 0.2484 m
1.1400 0.2484 l
s
n
0.1500 0.3578 m
0.1600 0.3578 l
s
n
1.1500 0.3578 m
1.1400 0.3578 l
s
n
0.1500 0.4672 m
0.1600 0.4672 l
s
n
1.1500 0.4672 m
1.1400 0.4672 l
s
n
0.1500 0.5766 m
0.1600 0.5766 l
s
n
1.1500 0.5766 m
1.1400 0.5766 l
s
n
0.1500 0.6859 m
0.1600 0.6859 l
s
n
1.1500 0.6859 m
1.1400 0.6859 l
s
n
0.1500 0.7953 m
0.1600 0.7953 l
s
n
1.1500 0.7953 m
1.1400 0.7953 l
s
n
0.1500 0.1938 m
0.1700 0.1938 l
s
n
1.1500 0.1938 m
1.1300 0.1938 l
s
n
0.1500 0.3031 m
0.1700 0.3031 l
s
n
1.1500 0.3031 m
1.1300 0.3031 l
s
n
0.1500 0.4125 m
0.1700 0.4125 l
s
n
1.1500 0.4125 m
1.1300 0.4125 l
s
n
0.1500 0.5219 m
0.1700 0.5219 l
s
n
1.1500 0.5219 m
1.1300 0.5219 l
s
n
0.1500 0.6312 m
0.1700 0.6312 l
s
n
1.1500 0.6312 m
1.1300 0.6312 l
s
n
0.1500 0.7406 m
0.1700 0.7406 l
s
n
1.1500 0.7406 m
1.1300 0.7406 l
s
n
0.1500 0.8500 m
0.1700 0.8500 l
s
n
1.1500 0.8500 m
1.1300 0.8500 l
s
/Font0 FFSF
0.1188 0.1788 m
GS
[0.0448 0.0000 0.0000 0.0448 0 0] CC
(0) show
GR
/Font0 FFSF
0.0965 0.2880 m
GS
[0.0448 0.0000 0.0000 0.0448 0 0] CC
(50) show
GR
/Font0 FFSF
0.0741 0.3976 m
GS
[0.0448 0.0000 0.0000 0.0448 0 0] CC
(100) show
GR
/Font0 FFSF
0.0741 0.5068 m
GS
[0.0448 0.0000 0.0000 0.0448 0 0] CC
(150) show
GR
/Font0 FFSF
0.0741 0.6163 m
GS
[0.0448 0.0000 0.0000 0.0448 0 0] CC
(200) show
GR
/Font0 FFSF
0.0741 0.7255 m
GS
[0.0448 0.0000 0.0000 0.0448 0 0] CC
(250) show
GR
/Font0 FFSF
0.0741 0.8351 m
GS
[0.0448 0.0000 0.0000 0.0448 0 0] CC
(300) show
GR
/Font0 FFSF
0.0563 0.3867 m
GS
[0.0000 0.0504 -0.0504 0.0000 0 0] CC
(E/A [MeV]) show
GR
[] 0 SD
0.0015 SLW
n
0.1500 0.1500 m
0.1500 0.8500 l
1.1500 0.8500 l
1.1500 0.1500 l
0.1500 0.1500 l
c
s
n
0.1500 0.8500 m
0.1500 0.5737 l
0.5923 0.5737 l
0.5923 0.8500 l
c
[/DeviceRGB] SCS
Color0 SC
fill
[/DeviceRGB] SCS
Color1 SC
[] 0 SD
0.0045 SLW
n
0.1500 0.8500 m
0.1500 0.5737 l
0.5923 0.5737 l
0.5923 0.8500 l
0.1500 0.8500 l
c
s
/Font0 FFSF
0.2422 0.8059 m
GS
[0.0498 0.0000 0.0000 0.0498 0 0] CC
(SNM 3 Gaussian) show
GR
n
0.1623 0.8225 m
0.2223 0.8225 l
s
/Font0 FFSF
0.2422 0.7610 m
GS
[0.0498 0.0000 0.0000 0.0498 0 0] CC
(PNM 3 Gaussian) show
GR
[/DeviceRGB] SCS
Color2 SC
n
0.1623 0.7776 m
0.2223 0.7776 l
s
/Font0 FFSF
[/DeviceRGB] SCS
Color1 SC
0.2422 0.7165 m
GS
[0.0498 0.0000 0.0000 0.0498 0 0] CC
(SNM  BHF) show
GR
n
0.1837 0.7244 m
0.1837 0.7414 l
0.2008 0.7414 l
0.2008 0.7244 l
c
GS
Color0 SRGB
fill
GR
[/Pattern /DeviceRGB] SCS
Color1 Pattern8 SC
fill
[/DeviceRGB] SCS
Color1 SC
[] 0 SD
0.0037 SLW
n
0.1837 0.7244 m
0.1837 0.7414 l
0.2008 0.7414 l
0.2008 0.7244 l
0.1837 0.7244 l
c
s
/Font0 FFSF
0.2422 0.6727 m
GS
[0.0498 0.0000 0.0000 0.0498 0 0] CC
(PNM  BHF) show
GR
n
0.1923 0.6890 0.0100 0.0100 0 360 EARC c
GS
Color0 SRGB
fill
GR
[/Pattern /DeviceRGB] SCS
Color2 Pattern8 SC
fill
[/DeviceRGB] SCS
Color2 SC
n 0.1923 0.6890 0.0100 0.0100 0 360 EARC s
/Font0 FFSF
[/DeviceRGB] SCS
Color1 SC
0.2422 0.6286 m
GS
[0.0498 0.0000 0.0000 0.0498 0 0] CC
(SNM D1M) show
GR
[0.0225 0.0135 ] 0 SD
0.0045 SLW
n
0.1623 0.6451 m
0.2223 0.6451 l
s
/Font0 FFSF
0.2422 0.5841 m
GS
[0.0498 0.0000 0.0000 0.0498 0 0] CC
(PNM D1M) show
GR
[/DeviceRGB] SCS
Color2 SC
n
0.1623 0.6008 m
0.2223 0.6008 l
s
[/DeviceRGB] SCS
Color1 SC
[] 0 SD
0.0015 SLW
n
0.3752 0.8497 m
0.3725 0.8458 l
s
showpage
%%PageTrailer
%%Trailer
%%DocumentNeededResources: font Times-Roman
%%+ font Symbol
%%EOF
