%!PS-Adobe-3.0
%%BoundingBox: 0 0 612 792
%%LanguageLevel: 2
%%Creator: Grace-5.1.25
%%CreationDate: Tue Dec  1 14:52:09 2015
%%DocumentData: Clean8Bit
%%Orientation: Landscape
%%Pages: 1
%%PageOrder: Ascend
%%Title: EsurA_gogny_recomposed.agr
%%For: ap1450
%%DocumentNeededResources: (atend)
%%EndComments
%%BeginProlog
/PAGE_OFFSET_X 0 def
/PAGE_OFFSET_Y 0 def
/m {moveto} def
/l {lineto} def
/s {stroke} def
/n {newpath} def
/c {closepath} def
/RL {rlineto} def
/SLW {setlinewidth} def
/GS {gsave} def
/GR {grestore} def
/SC {setcolor} def
/SGRY {setgray} def
/SRGB {setrgbcolor} def
/SD {setdash} def
/SLC {setlinecap} def
/SLJ {setlinejoin} def
/SCS {setcolorspace} def
/FFSF {findfont setfont} def
/CC {concat} def
/PXL {n m 0 0 RL s} def
/Color0 {1.0000 1.0000 1.0000} def
/Color1 {0.0000 0.0000 0.0000} def
/Color2 {1.0000 0.0000 0.0000} def
/Color3 {0.0000 1.0000 0.0000} def
/Color4 {0.0000 0.0000 1.0000} def
/Color5 {1.0000 1.0000 0.0000} def
/Color6 {0.7373 0.5608 0.5608} def
/Color7 {0.8627 0.8627 0.8627} def
/Color8 {0.5804 0.0000 0.8275} def
/Color9 {0.0000 1.0000 1.0000} def
/Color10 {1.0000 0.0000 1.0000} def
/Color11 {1.0000 0.6471 0.0000} def
/Color12 {0.4471 0.1294 0.7373} def
/Color13 {0.4039 0.0275 0.2824} def
/Color14 {0.2510 0.8784 0.8157} def
/Color15 {0.0000 0.5451 0.0000} def
/Color16 {0.7529 0.7529 0.7529} def
/Color17 {0.5059 0.5059 0.5059} def
/Color18 {0.2588 0.2588 0.2588} def
/PTRN {
 /pat_bits exch def 
 <<
  /PaintType 2
  /PatternType 1 /TilingType 1
  /BBox[0 0 16 16]
  /XStep 16 /YStep 16
  /PaintProc {
   pop
   16 16 true [-1 0 0 -1 16 16] pat_bits imagemask
  }
 >>
 [0.0016 0 0 0.0016 0 0]
 makepattern
} def
/Pattern0 {<0000000000000000000000000000000000000000000000000000000000000000> PTRN} bind def
/Pattern1 {<ffffffffffffffffffffffffffffffffffffffffffffffffffffffffffffffff> PTRN} bind def
/Pattern2 {<eeeeffffbbbbffffeeeeffffbbbbffffeeeeffffbbbbffffeeeeffffbbbbffff> PTRN} bind def
/Pattern3 {<eeeebbbbeeeebbbbeeeebbbbeeeebbbbeeeebbbbeeeebbbbeeeebbbbeeeebbbb> PTRN} bind def
/Pattern4 {<5555aaaa5555aaaa5555aaaa5555aaaa5555aaaa5555aaaa5555aaaa5555aaaa> PTRN} bind def
/Pattern5 {<1111444411114444111144441111444411114444111144441111444411114444> PTRN} bind def
/Pattern6 {<1111000044440000111100004444000011110000444400001111000044440000> PTRN} bind def
/Pattern7 {<1010000000000000010100000000000010100000000000000101000000000000> PTRN} bind def
/Pattern8 {<0000000000000000000000000000000000000000000000000000000000000000> PTRN} bind def
/Pattern9 {<1e1e0f0f8787c3c3e1e1f0f078783c3c1e1e0f0f8787c3c3e1e1f0f078783c3c> PTRN} bind def
/Pattern10 {<7878f0f0e1e1c3c387870f0f1e1e3c3c7878f0f0e1e1c3c387870f0f1e1e3c3c> PTRN} bind def
/Pattern11 {<3333333333333333333333333333333333333333333333333333333333333333> PTRN} bind def
/Pattern12 {<ffffffff00000000ffffffff00000000ffffffff00000000ffffffff00000000> PTRN} bind def
/Pattern13 {<8181424224241818181824244242818181814242242418181818242442428181> PTRN} bind def
/Pattern14 {<8080404020201010080804040202010180804040202010100808040402020101> PTRN} bind def
/Pattern15 {<0101020204040808101020204040808001010202040408081010202040408080> PTRN} bind def
/Pattern16 {<2222222222222222222222222222222222222222222222222222222222222222> PTRN} bind def
/Pattern17 {<0000ffff000000000000ffff000000000000ffff000000000000ffff00000000> PTRN} bind def
/Pattern18 {<2222ffff222222222222ffff222222222222ffff222222222222ffff22222222> PTRN} bind def
/Pattern19 {<ffffffff33333333ffffffff33333333ffffffff33333333ffffffff33333333> PTRN} bind def
/Pattern20 {<0f0f0f0f0f0f0f0ff0f0f0f0f0f0f0f00f0f0f0f0f0f0f0ff0f0f0f0f0f0f0f0> PTRN} bind def
/Pattern21 {<ff00ff00ff00ff00ff00ff00ff00ff0000ff00ff00ff00ff00ff00ff00ff00ff> PTRN} bind def
/Pattern22 {<8001800180018001800180018001ffffffff8001800180018001800180018001> PTRN} bind def
/Pattern23 {<c003c003c003c003c003c003ffffffffffffffffc003c003c003c003c003c003> PTRN} bind def
/Pattern24 {<040404040404ffff404040404040ffff040404040404ffff404040404040ffff> PTRN} bind def
/Pattern25 {<180018001800180018001800ffffffff001800180018001800180018ffffffff> PTRN} bind def
/Pattern26 {<1111b8b87c7c3a3a1111a3a3c7c78b8b1111b8b87c7c3a3a1111a3a3c7c78b8b> PTRN} bind def
/Pattern27 {<101010102828c7c70101010182827c7c101010102828c7c70101010182827c7c> PTRN} bind def
/Pattern28 {<1c1c121211112121c1c12121111112121c1c121211112121c1c1212111111212> PTRN} bind def
/Pattern29 {<3e3e414180808080e3e31414080808083e3e414180808080e3e3141408080808> PTRN} bind def
/Pattern30 {<4848888884848383848488884848383848488888848483838484888848483838> PTRN} bind def
/Pattern31 {<03030404080808080c0c12122121c0c003030404080808080c0c12122121c0c0> PTRN} bind def
/ellipsedict 8 dict def
ellipsedict /mtrx matrix put
/EARC {
 ellipsedict begin
  /endangle exch def
  /startangle exch def
  /yrad exch def
  /xrad exch def
  /y exch def
  /x exch def
  /savematrix mtrx currentmatrix def
  x y translate
  xrad yrad scale
  0 0 1 startangle endangle arc
  savematrix setmatrix
 end
} def
/TL {
  /kcomp exch def
  /linewidth exch def
  /offset exch def
  GS
  0 offset rmoveto
  linewidth SLW
  dup stringwidth exch kcomp add exch RL s
  GR
} def
/KINIT
{
 /kvector exch def
 /kid 0 def
} def
/KPROC
{
 pop pop
 kvector kid get
 0 rmoveto
 /kid 1 kid add def
} def
/DefEncoding [
 /.notdef
 /.notdef
 /.notdef
 /.notdef
 /.notdef
 /.notdef
 /.notdef
 /.notdef
 /.notdef
 /.notdef
 /.notdef
 /.notdef
 /.notdef
 /.notdef
 /.notdef
 /.notdef
 /.notdef
 /.notdef
 /.notdef
 /.notdef
 /.notdef
 /.notdef
 /.notdef
 /.notdef
 /.notdef
 /.notdef
 /.notdef
 /.notdef
 /.notdef
 /.notdef
 /.notdef
 /.notdef
 /space
 /exclam
 /quotedbl
 /numbersign
 /dollar
 /percent
 /ampersand
 /quoteright
 /parenleft
 /parenright
 /asterisk
 /plus
 /comma
 /hyphen
 /period
 /slash
 /zero
 /one
 /two
 /three
 /four
 /five
 /six
 /seven
 /eight
 /nine
 /colon
 /semicolon
 /less
 /equal
 /greater
 /question
 /at
 /A
 /B
 /C
 /D
 /E
 /F
 /G
 /H
 /I
 /J
 /K
 /L
 /M
 /N
 /O
 /P
 /Q
 /R
 /S
 /T
 /U
 /V
 /W
 /X
 /Y
 /Z
 /bracketleft
 /backslash
 /bracketright
 /asciicircum
 /underscore
 /grave
 /a
 /b
 /c
 /d
 /e
 /f
 /g
 /h
 /i
 /j
 /k
 /l
 /m
 /n
 /o
 /p
 /q
 /r
 /s
 /t
 /u
 /v
 /w
 /x
 /y
 /z
 /braceleft
 /bar
 /braceright
 /asciitilde
 /.notdef
 /.notdef
 /.notdef
 /.notdef
 /.notdef
 /.notdef
 /.notdef
 /.notdef
 /.notdef
 /.notdef
 /.notdef
 /.notdef
 /.notdef
 /.notdef
 /.notdef
 /.notdef
 /.notdef
 /.notdef
 /.notdef
 /.notdef
 /.notdef
 /.notdef
 /.notdef
 /.notdef
 /.notdef
 /.notdef
 /.notdef
 /.notdef
 /.notdef
 /.notdef
 /.notdef
 /.notdef
 /.notdef
 /space
 /exclamdown
 /cent
 /sterling
 /currency
 /yen
 /brokenbar
 /section
 /dieresis
 /copyright
 /ordfeminine
 /guillemotleft
 /logicalnot
 /hyphen
 /registered
 /macron
 /degree
 /plusminus
 /twosuperior
 /threesuperior
 /acute
 /mu
 /paragraph
 /periodcentered
 /cedilla
 /onesuperior
 /ordmasculine
 /guillemotright
 /onequarter
 /onehalf
 /threequarters
 /questiondown
 /Agrave
 /Aacute
 /Acircumflex
 /Atilde
 /Adieresis
 /Aring
 /AE
 /Ccedilla
 /Egrave
 /Eacute
 /Ecircumflex
 /Edieresis
 /Igrave
 /Iacute
 /Icircumflex
 /Idieresis
 /Eth
 /Ntilde
 /Ograve
 /Oacute
 /Ocircumflex
 /Otilde
 /Odieresis
 /multiply
 /Oslash
 /Ugrave
 /Uacute
 /Ucircumflex
 /Udieresis
 /Yacute
 /Thorn
 /germandbls
 /agrave
 /aacute
 /acircumflex
 /atilde
 /adieresis
 /aring
 /ae
 /ccedilla
 /egrave
 /eacute
 /ecircumflex
 /edieresis
 /igrave
 /iacute
 /icircumflex
 /idieresis
 /eth
 /ntilde
 /ograve
 /oacute
 /ocircumflex
 /otilde
 /odieresis
 /divide
 /oslash
 /ugrave
 /uacute
 /ucircumflex
 /udieresis
 /yacute
 /thorn
 /ydieresis
] def
%%EndProlog
%%BeginSetup
%%EndSetup
%%Page: 1 1
PAGE_OFFSET_X PAGE_OFFSET_Y translate
612.00 612.00 scale
90 rotate
0.0 -1.0 translate
[/DeviceRGB] SCS
Color1 SC
[] 0 SD
0.0023 SLW
0 SLC
0 SLJ
n
0.1500 0.2500 m
0.1500 0.2500 l
0.1500 0.2501 l
0.1500 0.2501 l
0.1500 0.2501 l
0.1500 0.2502 l
0.1500 0.2502 l
0.1500 0.2503 l
0.1501 0.2503 l
0.1501 0.2504 l
0.1501 0.2505 l
0.1501 0.2505 l
0.1502 0.2506 l
0.1502 0.2506 l
0.1503 0.2507 l
0.1503 0.2507 l
0.1504 0.2508 l
0.1505 0.2508 l
0.1506 0.2508 l
0.1507 0.2508 l
0.1508 0.2508 l
0.1509 0.2508 l
0.1510 0.2508 l
0.1512 0.2508 l
0.1513 0.2507 l
0.1515 0.2506 l
0.1517 0.2506 l
0.1519 0.2505 l
0.1521 0.2504 l
0.1523 0.2502 l
0.1525 0.2501 l
0.1528 0.2499 l
0.1530 0.2497 l
0.1533 0.2495 l
0.1536 0.2493 l
0.1539 0.2491 l
0.1543 0.2488 l
0.1546 0.2485 l
0.1550 0.2482 l
0.1554 0.2479 l
0.1558 0.2475 l
0.1563 0.2472 l
0.1567 0.2468 l
0.1572 0.2463 l
0.1577 0.2459 l
0.1582 0.2454 l
0.1588 0.2450 l
0.1593 0.2444 l
0.1599 0.2439 l
0.1606 0.2433 l
0.1612 0.2428 l
0.1619 0.2422 l
0.1626 0.2415 l
0.1633 0.2409 l
0.1640 0.2402 l
0.1648 0.2395 l
0.1656 0.2388 l
0.1665 0.2380 l
0.1673 0.2373 l
0.1682 0.2365 l
0.1692 0.2357 l
0.1701 0.2348 l
0.1711 0.2340 l
0.1721 0.2331 l
0.1732 0.2322 l
0.1743 0.2313 l
0.1754 0.2304 l
0.1765 0.2294 l
0.1777 0.2285 l
0.1790 0.2275 l
0.1802 0.2265 l
0.1815 0.2255 l
0.1828 0.2244 l
0.1842 0.2234 l
0.1856 0.2223 l
0.1871 0.2213 l
0.1885 0.2202 l
0.1901 0.2191 l
0.1916 0.2180 l
0.1932 0.2168 l
0.1949 0.2157 l
0.1966 0.2146 l
0.1983 0.2134 l
0.2000 0.2123 l
0.2019 0.2111 l
0.2037 0.2100 l
0.2056 0.2088 l
0.2075 0.2076 l
0.2095 0.2064 l
0.2116 0.2053 l
0.2136 0.2041 l
0.2157 0.2029 l
0.2179 0.2018 l
0.2201 0.2006 l
0.2224 0.1994 l
0.2247 0.1983 l
0.2271 0.1971 l
0.2295 0.1960 l
0.2319 0.1948 l
0.2344 0.1937 l
0.2370 0.1926 l
0.2396 0.1915 l
0.2423 0.1904 l
0.2450 0.1893 l
0.2477 0.1883 l
0.2506 0.1872 l
0.2534 0.1862 l
0.2564 0.1852 l
0.2593 0.1842 l
0.2624 0.1833 l
0.2655 0.1823 l
0.2686 0.1814 l
0.2718 0.1805 l
0.2751 0.1796 l
0.2784 0.1788 l
0.2818 0.1780 l
0.2852 0.1772 l
0.2887 0.1765 l
0.2923 0.1758 l
0.2959 0.1751 l
0.2996 0.1745 l
0.3033 0.1739 l
0.3071 0.1733 l
0.3110 0.1728 l
0.3149 0.1723 l
0.3189 0.1719 l
0.3230 0.1715 l
0.3271 0.1712 l
0.3313 0.1709 l
0.3355 0.1706 l
0.3398 0.1705 l
0.3442 0.1703 l
0.3486 0.1702 l
0.3532 0.1702 l
0.3577 0.1702 l
0.3624 0.1703 l
0.3671 0.1704 l
0.3719 0.1706 l
0.3768 0.1709 l
0.3817 0.1712 l
0.3867 0.1716 l
0.3918 0.1721 l
0.3969 0.1726 l
0.4021 0.1732 l
0.4074 0.1738 l
0.4128 0.1746 l
0.4182 0.1754 l
0.4237 0.1763 l
0.4293 0.1772 l
0.4350 0.1783 l
0.4407 0.1794 l
0.4465 0.1806 l
0.4524 0.1819 l
0.4584 0.1832 l
0.4644 0.1847 l
0.4705 0.1862 l
0.4768 0.1879 l
0.4830 0.1896 l
0.4894 0.1914 l
0.4958 0.1933 l
0.5024 0.1953 l
0.5090 0.1975 l
0.5157 0.1997 l
0.5224 0.2020 l
0.5293 0.2044 l
0.5362 0.2069 l
0.5432 0.2095 l
0.5504 0.2122 l
0.5575 0.2151 l
0.5648 0.2180 l
0.5722 0.2211 l
0.5796 0.2243 l
0.5872 0.2276 l
0.5948 0.2310 l
0.6025 0.2345 l
0.6103 0.2382 l
0.6182 0.2419 l
0.6262 0.2458 l
0.6343 0.2499 l
0.6424 0.2540 l
0.6507 0.2583 l
0.6590 0.2627 l
0.6675 0.2673 l
0.6760 0.2720 l
0.6846 0.2768 l
0.6933 0.2818 l
0.7021 0.2869 l
0.7110 0.2922 l
0.7200 0.2976 l
0.7291 0.3031 l
0.7383 0.3088 l
0.7476 0.3147 l
0.7570 0.3207 l
0.7665 0.3268 l
0.7761 0.3332 l
0.7858 0.3396 l
0.7955 0.3463 l
0.8054 0.3531 l
0.8154 0.3601 l
0.8255 0.3672 l
0.8357 0.3745 l
0.8459 0.3820 l
0.8563 0.3897 l
0.8668 0.3975 l
0.8774 0.4055 l
0.8881 0.4137 l
0.8989 0.4221 l
0.9098 0.4307 l
0.9208 0.4395 l
0.9319 0.4484 l
0.9432 0.4575 l
0.9545 0.4669 l
0.9659 0.4764 l
0.9775 0.4862 l
0.9891 0.4961 l
1.0009 0.5062 l
1.0128 0.5166 l
1.0248 0.5271 l
1.0369 0.5379 l
1.0491 0.5489 l
1.0614 0.5601 l
1.0738 0.5715 l
1.0863 0.5831 l
1.0990 0.5950 l
1.1118 0.6071 l
1.1246 0.6194 l
1.1376 0.6320 l
1.1501 0.6441 l
s
n
0.1500 0.2500 0.0081 0.0081 0 360 EARC c
fill
[] 0 SD
0.0015 SLW
n 0.1500 0.2500 0.0081 0.0081 0 360 EARC s
n
0.1501 0.2504 0.0081 0.0081 0 360 EARC c
fill
n 0.1501 0.2504 0.0081 0.0081 0 360 EARC s
n
0.1506 0.2508 0.0081 0.0081 0 360 EARC c
fill
n 0.1506 0.2508 0.0081 0.0081 0 360 EARC s
n
0.1519 0.2505 0.0081 0.0081 0 360 EARC c
fill
n 0.1519 0.2505 0.0081 0.0081 0 360 EARC s
n
0.1543 0.2488 0.0081 0.0081 0 360 EARC c
fill
n 0.1543 0.2488 0.0081 0.0081 0 360 EARC s
n
0.1582 0.2454 0.0081 0.0081 0 360 EARC c
fill
n 0.1582 0.2454 0.0081 0.0081 0 360 EARC s
n
0.1640 0.2402 0.0081 0.0081 0 360 EARC c
fill
n 0.1640 0.2402 0.0081 0.0081 0 360 EARC s
n
0.1721 0.2331 0.0081 0.0081 0 360 EARC c
fill
n 0.1721 0.2331 0.0081 0.0081 0 360 EARC s
n
0.1828 0.2244 0.0081 0.0081 0 360 EARC c
fill
n 0.1828 0.2244 0.0081 0.0081 0 360 EARC s
n
0.1966 0.2146 0.0081 0.0081 0 360 EARC c
fill
n 0.1966 0.2146 0.0081 0.0081 0 360 EARC s
n
0.2136 0.2041 0.0081 0.0081 0 360 EARC c
fill
n 0.2136 0.2041 0.0081 0.0081 0 360 EARC s
n
0.2344 0.1937 0.0081 0.0081 0 360 EARC c
fill
n 0.2344 0.1937 0.0081 0.0081 0 360 EARC s
n
0.2593 0.1842 0.0081 0.0081 0 360 EARC c
fill
n 0.2593 0.1842 0.0081 0.0081 0 360 EARC s
n
0.2887 0.1765 0.0081 0.0081 0 360 EARC c
fill
n 0.2887 0.1765 0.0081 0.0081 0 360 EARC s
n
0.3230 0.1715 0.0081 0.0081 0 360 EARC c
fill
n 0.3230 0.1715 0.0081 0.0081 0 360 EARC s
n
0.3624 0.1703 0.0081 0.0081 0 360 EARC c
fill
n 0.3624 0.1703 0.0081 0.0081 0 360 EARC s
n
0.4074 0.1738 0.0081 0.0081 0 360 EARC c
fill
n 0.4074 0.1738 0.0081 0.0081 0 360 EARC s
n
0.4584 0.1832 0.0081 0.0081 0 360 EARC c
fill
n 0.4584 0.1832 0.0081 0.0081 0 360 EARC s
n
0.5157 0.1997 0.0081 0.0081 0 360 EARC c
fill
n 0.5157 0.1997 0.0081 0.0081 0 360 EARC s
n
0.5796 0.2243 0.0081 0.0081 0 360 EARC c
fill
n 0.5796 0.2243 0.0081 0.0081 0 360 EARC s
n
0.6507 0.2583 0.0081 0.0081 0 360 EARC c
fill
n 0.6507 0.2583 0.0081 0.0081 0 360 EARC s
n
0.7291 0.3031 0.0081 0.0081 0 360 EARC c
fill
n 0.7291 0.3031 0.0081 0.0081 0 360 EARC s
n
0.8154 0.3601 0.0081 0.0081 0 360 EARC c
fill
n 0.8154 0.3601 0.0081 0.0081 0 360 EARC s
n
0.9098 0.4307 0.0081 0.0081 0 360 EARC c
fill
n 0.9098 0.4307 0.0081 0.0081 0 360 EARC s
n
1.0128 0.5166 0.0081 0.0081 0 360 EARC c
fill
n 1.0128 0.5166 0.0081 0.0081 0 360 EARC s
n
1.1246 0.6194 0.0081 0.0081 0 360 EARC c
fill
n 1.1246 0.6194 0.0081 0.0081 0 360 EARC s
[/DeviceRGB] SCS
Color2 SC
[] 0 SD
0.0023 SLW
n
0.1500 0.2500 m
0.1500 0.2500 l
0.1500 0.2501 l
0.1500 0.2501 l
0.1500 0.2501 l
0.1500 0.2502 l
0.1500 0.2502 l
0.1500 0.2503 l
0.1501 0.2503 l
0.1501 0.2504 l
0.1501 0.2505 l
0.1501 0.2505 l
0.1502 0.2506 l
0.1502 0.2507 l
0.1503 0.2507 l
0.1503 0.2508 l
0.1504 0.2508 l
0.1505 0.2508 l
0.1506 0.2509 l
0.1507 0.2509 l
0.1508 0.2509 l
0.1509 0.2509 l
0.1510 0.2509 l
0.1512 0.2508 l
0.1513 0.2508 l
0.1515 0.2508 l
0.1517 0.2507 l
0.1519 0.2506 l
0.1521 0.2505 l
0.1523 0.2504 l
0.1525 0.2503 l
0.1528 0.2501 l
0.1530 0.2500 l
0.1533 0.2498 l
0.1536 0.2496 l
0.1539 0.2494 l
0.1543 0.2491 l
0.1546 0.2489 l
0.1550 0.2486 l
0.1554 0.2483 l
0.1558 0.2479 l
0.1563 0.2476 l
0.1567 0.2472 l
0.1572 0.2468 l
0.1577 0.2464 l
0.1582 0.2460 l
0.1588 0.2455 l
0.1593 0.2450 l
0.1599 0.2445 l
0.1606 0.2440 l
0.1612 0.2435 l
0.1619 0.2429 l
0.1626 0.2423 l
0.1633 0.2417 l
0.1640 0.2410 l
0.1648 0.2404 l
0.1656 0.2397 l
0.1665 0.2390 l
0.1673 0.2382 l
0.1682 0.2375 l
0.1692 0.2367 l
0.1701 0.2359 l
0.1711 0.2351 l
0.1721 0.2342 l
0.1732 0.2334 l
0.1743 0.2325 l
0.1754 0.2316 l
0.1765 0.2307 l
0.1777 0.2297 l
0.1790 0.2288 l
0.1802 0.2278 l
0.1815 0.2268 l
0.1828 0.2258 l
0.1842 0.2247 l
0.1856 0.2237 l
0.1871 0.2226 l
0.1885 0.2216 l
0.1901 0.2205 l
0.1916 0.2194 l
0.1932 0.2182 l
0.1949 0.2171 l
0.1966 0.2160 l
0.1983 0.2148 l
0.2000 0.2137 l
0.2019 0.2125 l
0.2037 0.2114 l
0.2056 0.2102 l
0.2075 0.2090 l
0.2095 0.2078 l
0.2116 0.2066 l
0.2136 0.2054 l
0.2157 0.2042 l
0.2179 0.2031 l
0.2201 0.2019 l
0.2224 0.2007 l
0.2247 0.1995 l
0.2271 0.1983 l
0.2295 0.1971 l
0.2319 0.1960 l
0.2344 0.1948 l
0.2370 0.1937 l
0.2396 0.1925 l
0.2423 0.1914 l
0.2450 0.1903 l
0.2477 0.1892 l
0.2506 0.1881 l
0.2534 0.1870 l
0.2564 0.1860 l
0.2593 0.1849 l
0.2624 0.1839 l
0.2655 0.1829 l
0.2686 0.1820 l
0.2718 0.1810 l
0.2751 0.1801 l
0.2784 0.1793 l
0.2818 0.1784 l
0.2852 0.1776 l
0.2887 0.1768 l
0.2923 0.1761 l
0.2959 0.1754 l
0.2996 0.1747 l
0.3033 0.1741 l
0.3071 0.1735 l
0.3110 0.1729 l
0.3149 0.1724 l
0.3189 0.1720 l
0.3230 0.1716 l
0.3271 0.1712 l
0.3313 0.1709 l
0.3355 0.1707 l
0.3398 0.1705 l
0.3442 0.1704 l
0.3486 0.1703 l
0.3532 0.1703 l
0.3577 0.1704 l
0.3624 0.1705 l
0.3671 0.1707 l
0.3719 0.1709 l
0.3768 0.1713 l
0.3817 0.1717 l
0.3867 0.1721 l
0.3918 0.1727 l
0.3969 0.1733 l
0.4021 0.1741 l
0.4074 0.1749 l
0.4128 0.1758 l
0.4182 0.1767 l
0.4237 0.1778 l
0.4293 0.1790 l
0.4350 0.1802 l
0.4407 0.1816 l
0.4465 0.1830 l
0.4524 0.1846 l
0.4584 0.1862 l
0.4644 0.1880 l
0.4705 0.1899 l
0.4768 0.1919 l
0.4830 0.1940 l
0.4894 0.1962 l
0.4958 0.1985 l
0.5024 0.2009 l
0.5090 0.2035 l
0.5157 0.2062 l
0.5224 0.2090 l
0.5293 0.2120 l
0.5362 0.2151 l
0.5432 0.2183 l
0.5504 0.2216 l
0.5575 0.2251 l
0.5648 0.2288 l
0.5722 0.2325 l
0.5796 0.2365 l
0.5872 0.2405 l
0.5948 0.2448 l
0.6025 0.2491 l
0.6103 0.2537 l
0.6182 0.2584 l
0.6262 0.2633 l
0.6343 0.2683 l
0.6424 0.2735 l
0.6507 0.2788 l
0.6590 0.2844 l
0.6675 0.2901 l
0.6760 0.2960 l
0.6846 0.3021 l
0.6933 0.3084 l
0.7021 0.3148 l
0.7110 0.3214 l
0.7200 0.3283 l
0.7291 0.3353 l
0.7383 0.3425 l
0.7476 0.3500 l
0.7570 0.3576 l
0.7665 0.3655 l
0.7761 0.3735 l
0.7858 0.3818 l
0.7955 0.3903 l
0.8054 0.3990 l
0.8154 0.4079 l
0.8255 0.4171 l
0.8357 0.4265 l
0.8459 0.4361 l
0.8563 0.4459 l
0.8668 0.4560 l
0.8774 0.4664 l
0.8881 0.4769 l
0.8989 0.4878 l
0.9098 0.4989 l
0.9208 0.5102 l
0.9319 0.5218 l
0.9432 0.5336 l
0.9545 0.5458 l
0.9659 0.5581 l
0.9775 0.5708 l
0.9891 0.5837 l
1.0009 0.5969 l
1.0128 0.6104 l
1.0248 0.6242 l
1.0369 0.6383 l
1.0491 0.6526 l
1.0614 0.6673 l
1.0738 0.6822 l
1.0863 0.6975 l
1.0990 0.7130 l
1.1118 0.7289 l
1.1246 0.7450 l
1.1376 0.7615 l
1.1501 0.7775 l
s
n
0.1500 0.2573 m
0.1427 0.2500 l
0.1500 0.2427 l
0.1573 0.2500 l
c
fill
[] 0 SD
0.0015 SLW
n
0.1500 0.2573 m
0.1427 0.2500 l
0.1500 0.2427 l
0.1573 0.2500 l
0.1500 0.2573 l
c
s
n
0.1501 0.2577 m
0.1428 0.2504 l
0.1501 0.2431 l
0.1574 0.2504 l
c
fill
n
0.1501 0.2577 m
0.1428 0.2504 l
0.1501 0.2431 l
0.1574 0.2504 l
0.1501 0.2577 l
c
s
n
0.1506 0.2582 m
0.1433 0.2509 l
0.1506 0.2436 l
0.1579 0.2509 l
c
fill
n
0.1506 0.2582 m
0.1433 0.2509 l
0.1506 0.2436 l
0.1579 0.2509 l
0.1506 0.2582 l
c
s
n
0.1519 0.2579 m
0.1446 0.2506 l
0.1519 0.2433 l
0.1592 0.2506 l
c
fill
n
0.1519 0.2579 m
0.1446 0.2506 l
0.1519 0.2433 l
0.1592 0.2506 l
0.1519 0.2579 l
c
s
n
0.1543 0.2564 m
0.1470 0.2491 l
0.1543 0.2418 l
0.1616 0.2491 l
c
fill
n
0.1543 0.2564 m
0.1470 0.2491 l
0.1543 0.2418 l
0.1616 0.2491 l
0.1543 0.2564 l
c
s
n
0.1582 0.2533 m
0.1509 0.2460 l
0.1582 0.2387 l
0.1655 0.2460 l
c
fill
n
0.1582 0.2533 m
0.1509 0.2460 l
0.1582 0.2387 l
0.1655 0.2460 l
0.1582 0.2533 l
c
s
n
0.1640 0.2483 m
0.1567 0.2410 l
0.1640 0.2337 l
0.1713 0.2410 l
c
fill
n
0.1640 0.2483 m
0.1567 0.2410 l
0.1640 0.2337 l
0.1713 0.2410 l
0.1640 0.2483 l
c
s
n
0.1721 0.2415 m
0.1648 0.2342 l
0.1721 0.2269 l
0.1794 0.2342 l
c
fill
n
0.1721 0.2415 m
0.1648 0.2342 l
0.1721 0.2269 l
0.1794 0.2342 l
0.1721 0.2415 l
c
s
n
0.1828 0.2331 m
0.1755 0.2258 l
0.1828 0.2185 l
0.1901 0.2258 l
c
fill
n
0.1828 0.2331 m
0.1755 0.2258 l
0.1828 0.2185 l
0.1901 0.2258 l
0.1828 0.2331 l
c
s
n
0.1966 0.2233 m
0.1893 0.2160 l
0.1966 0.2087 l
0.2039 0.2160 l
c
fill
n
0.1966 0.2233 m
0.1893 0.2160 l
0.1966 0.2087 l
0.2039 0.2160 l
0.1966 0.2233 l
c
s
n
0.2136 0.2127 m
0.2063 0.2054 l
0.2136 0.1981 l
0.2209 0.2054 l
c
fill
n
0.2136 0.2127 m
0.2063 0.2054 l
0.2136 0.1981 l
0.2209 0.2054 l
0.2136 0.2127 l
c
s
n
0.2344 0.2021 m
0.2271 0.1948 l
0.2344 0.1875 l
0.2417 0.1948 l
c
fill
n
0.2344 0.2021 m
0.2271 0.1948 l
0.2344 0.1875 l
0.2417 0.1948 l
0.2344 0.2021 l
c
s
n
0.2593 0.1922 m
0.2520 0.1849 l
0.2593 0.1776 l
0.2666 0.1849 l
c
fill
n
0.2593 0.1922 m
0.2520 0.1849 l
0.2593 0.1776 l
0.2666 0.1849 l
0.2593 0.1922 l
c
s
n
0.2887 0.1841 m
0.2814 0.1768 l
0.2887 0.1695 l
0.2960 0.1768 l
c
fill
n
0.2887 0.1841 m
0.2814 0.1768 l
0.2887 0.1695 l
0.2960 0.1768 l
0.2887 0.1841 l
c
s
n
0.3230 0.1789 m
0.3157 0.1716 l
0.3230 0.1643 l
0.3303 0.1716 l
c
fill
n
0.3230 0.1789 m
0.3157 0.1716 l
0.3230 0.1643 l
0.3303 0.1716 l
0.3230 0.1789 l
c
s
n
0.3624 0.1778 m
0.3551 0.1705 l
0.3624 0.1632 l
0.3697 0.1705 l
c
fill
n
0.3624 0.1778 m
0.3551 0.1705 l
0.3624 0.1632 l
0.3697 0.1705 l
0.3624 0.1778 l
c
s
n
0.4074 0.1822 m
0.4001 0.1749 l
0.4074 0.1676 l
0.4147 0.1749 l
c
fill
n
0.4074 0.1822 m
0.4001 0.1749 l
0.4074 0.1676 l
0.4147 0.1749 l
0.4074 0.1822 l
c
s
n
0.4584 0.1935 m
0.4511 0.1862 l
0.4584 0.1789 l
0.4657 0.1862 l
c
fill
n
0.4584 0.1935 m
0.4511 0.1862 l
0.4584 0.1789 l
0.4657 0.1862 l
0.4584 0.1935 l
c
s
n
0.5157 0.2135 m
0.5084 0.2062 l
0.5157 0.1989 l
0.5230 0.2062 l
c
fill
n
0.5157 0.2135 m
0.5084 0.2062 l
0.5157 0.1989 l
0.5230 0.2062 l
0.5157 0.2135 l
c
s
n
0.5796 0.2438 m
0.5723 0.2365 l
0.5796 0.2292 l
0.5869 0.2365 l
c
fill
n
0.5796 0.2438 m
0.5723 0.2365 l
0.5796 0.2292 l
0.5869 0.2365 l
0.5796 0.2438 l
c
s
n
0.6507 0.2861 m
0.6434 0.2788 l
0.6507 0.2715 l
0.6580 0.2788 l
c
fill
n
0.6507 0.2861 m
0.6434 0.2788 l
0.6507 0.2715 l
0.6580 0.2788 l
0.6507 0.2861 l
c
s
n
0.7291 0.3426 m
0.7218 0.3353 l
0.7291 0.3280 l
0.7364 0.3353 l
c
fill
n
0.7291 0.3426 m
0.7218 0.3353 l
0.7291 0.3280 l
0.7364 0.3353 l
0.7291 0.3426 l
c
s
n
0.8154 0.4152 m
0.8081 0.4079 l
0.8154 0.4006 l
0.8227 0.4079 l
c
fill
n
0.8154 0.4152 m
0.8081 0.4079 l
0.8154 0.4006 l
0.8227 0.4079 l
0.8154 0.4152 l
c
s
n
0.9098 0.5062 m
0.9025 0.4989 l
0.9098 0.4916 l
0.9171 0.4989 l
c
fill
n
0.9098 0.5062 m
0.9025 0.4989 l
0.9098 0.4916 l
0.9171 0.4989 l
0.9098 0.5062 l
c
s
n
1.0128 0.6177 m
1.0055 0.6104 l
1.0128 0.6031 l
1.0201 0.6104 l
c
fill
n
1.0128 0.6177 m
1.0055 0.6104 l
1.0128 0.6031 l
1.0201 0.6104 l
1.0128 0.6177 l
c
s
n
1.1246 0.7523 m
1.1173 0.7450 l
1.1246 0.7377 l
1.1319 0.7450 l
c
fill
n
1.1246 0.7523 m
1.1173 0.7450 l
1.1246 0.7377 l
1.1319 0.7450 l
1.1246 0.7523 l
c
s
[/DeviceRGB] SCS
Color4 SC
[] 0 SD
0.0023 SLW
n
0.1500 0.2500 m
0.1500 0.2500 l
0.1500 0.2501 l
0.1500 0.2501 l
0.1500 0.2501 l
0.1500 0.2502 l
0.1500 0.2502 l
0.1500 0.2503 l
0.1501 0.2504 l
0.1501 0.2504 l
0.1501 0.2505 l
0.1501 0.2505 l
0.1502 0.2506 l
0.1502 0.2507 l
0.1503 0.2507 l
0.1503 0.2508 l
0.1504 0.2508 l
0.1505 0.2508 l
0.1506 0.2509 l
0.1507 0.2509 l
0.1508 0.2509 l
0.1509 0.2509 l
0.1510 0.2509 l
0.1512 0.2509 l
0.1513 0.2509 l
0.1515 0.2508 l
0.1517 0.2507 l
0.1519 0.2507 l
0.1521 0.2506 l
0.1523 0.2505 l
0.1525 0.2504 l
0.1528 0.2502 l
0.1530 0.2501 l
0.1533 0.2499 l
0.1536 0.2497 l
0.1539 0.2495 l
0.1543 0.2492 l
0.1546 0.2490 l
0.1550 0.2487 l
0.1554 0.2484 l
0.1558 0.2481 l
0.1563 0.2478 l
0.1567 0.2474 l
0.1572 0.2470 l
0.1577 0.2466 l
0.1582 0.2462 l
0.1588 0.2458 l
0.1593 0.2453 l
0.1599 0.2448 l
0.1606 0.2443 l
0.1612 0.2437 l
0.1619 0.2432 l
0.1626 0.2426 l
0.1633 0.2420 l
0.1640 0.2414 l
0.1648 0.2407 l
0.1656 0.2400 l
0.1665 0.2393 l
0.1673 0.2386 l
0.1682 0.2379 l
0.1692 0.2371 l
0.1701 0.2363 l
0.1711 0.2355 l
0.1721 0.2347 l
0.1732 0.2338 l
0.1743 0.2329 l
0.1754 0.2321 l
0.1765 0.2311 l
0.1777 0.2302 l
0.1790 0.2293 l
0.1802 0.2283 l
0.1815 0.2273 l
0.1828 0.2263 l
0.1842 0.2253 l
0.1856 0.2243 l
0.1871 0.2232 l
0.1885 0.2222 l
0.1901 0.2211 l
0.1916 0.2200 l
0.1932 0.2189 l
0.1949 0.2178 l
0.1966 0.2166 l
0.1983 0.2155 l
0.2000 0.2144 l
0.2019 0.2132 l
0.2037 0.2120 l
0.2056 0.2109 l
0.2075 0.2097 l
0.2095 0.2085 l
0.2116 0.2073 l
0.2136 0.2062 l
0.2157 0.2050 l
0.2179 0.2038 l
0.2201 0.2026 l
0.2224 0.2014 l
0.2247 0.2002 l
0.2271 0.1991 l
0.2295 0.1979 l
0.2319 0.1967 l
0.2344 0.1956 l
0.2370 0.1944 l
0.2396 0.1933 l
0.2423 0.1921 l
0.2450 0.1910 l
0.2477 0.1899 l
0.2506 0.1888 l
0.2534 0.1878 l
0.2564 0.1867 l
0.2593 0.1857 l
0.2624 0.1847 l
0.2655 0.1837 l
0.2686 0.1827 l
0.2718 0.1817 l
0.2751 0.1808 l
0.2784 0.1799 l
0.2818 0.1791 l
0.2852 0.1782 l
0.2887 0.1774 l
0.2923 0.1767 l
0.2959 0.1760 l
0.2996 0.1753 l
0.3033 0.1746 l
0.3071 0.1740 l
0.3110 0.1734 l
0.3149 0.1729 l
0.3189 0.1724 l
0.3230 0.1720 l
0.3271 0.1716 l
0.3313 0.1713 l
0.3355 0.1710 l
0.3398 0.1708 l
0.3442 0.1706 l
0.3486 0.1705 l
0.3532 0.1704 l
0.3577 0.1704 l
0.3624 0.1705 l
0.3671 0.1706 l
0.3719 0.1708 l
0.3768 0.1711 l
0.3817 0.1714 l
0.3867 0.1718 l
0.3918 0.1723 l
0.3969 0.1729 l
0.4021 0.1735 l
0.4074 0.1742 l
0.4128 0.1750 l
0.4182 0.1759 l
0.4237 0.1769 l
0.4293 0.1780 l
0.4350 0.1791 l
0.4407 0.1804 l
0.4465 0.1817 l
0.4524 0.1831 l
0.4584 0.1847 l
0.4644 0.1863 l
0.4705 0.1880 l
0.4768 0.1899 l
0.4830 0.1918 l
0.4894 0.1938 l
0.4958 0.1960 l
0.5024 0.1983 l
0.5090 0.2007 l
0.5157 0.2032 l
0.5224 0.2058 l
0.5293 0.2086 l
0.5362 0.2114 l
0.5432 0.2144 l
0.5504 0.2176 l
0.5575 0.2208 l
0.5648 0.2242 l
0.5722 0.2278 l
0.5796 0.2314 l
0.5872 0.2352 l
0.5948 0.2392 l
0.6025 0.2433 l
0.6103 0.2475 l
0.6182 0.2519 l
0.6262 0.2564 l
0.6343 0.2611 l
0.6424 0.2660 l
0.6507 0.2710 l
0.6590 0.2761 l
0.6675 0.2815 l
0.6760 0.2870 l
0.6846 0.2926 l
0.6933 0.2985 l
0.7021 0.3045 l
0.7110 0.3107 l
0.7200 0.3170 l
0.7291 0.3236 l
0.7383 0.3303 l
0.7476 0.3372 l
0.7570 0.3443 l
0.7665 0.3516 l
0.7761 0.3591 l
0.7858 0.3668 l
0.7955 0.3747 l
0.8054 0.3827 l
0.8154 0.3910 l
0.8255 0.3995 l
0.8357 0.4082 l
0.8459 0.4171 l
0.8563 0.4263 l
0.8668 0.4356 l
0.8774 0.4452 l
0.8881 0.4550 l
0.8989 0.4650 l
0.9098 0.4752 l
0.9208 0.4857 l
0.9319 0.4964 l
0.9432 0.5074 l
0.9545 0.5186 l
0.9659 0.5300 l
0.9775 0.5417 l
0.9891 0.5536 l
1.0009 0.5658 l
1.0128 0.5782 l
1.0248 0.5909 l
1.0369 0.6038 l
1.0491 0.6170 l
1.0614 0.6305 l
1.0738 0.6442 l
1.0863 0.6583 l
1.0990 0.6725 l
1.1118 0.6871 l
1.1246 0.7020 l
1.1376 0.7171 l
1.1501 0.7317 l
s
n
0.1500 0.2594 m
0.1419 0.2453 l
0.1581 0.2453 l
c
fill
[] 0 SD
0.0015 SLW
n
0.1500 0.2594 m
0.1419 0.2453 l
0.1581 0.2453 l
0.1500 0.2594 l
c
s
n
0.1501 0.2598 m
0.1420 0.2457 l
0.1582 0.2457 l
c
fill
n
0.1501 0.2598 m
0.1420 0.2457 l
0.1582 0.2457 l
0.1501 0.2598 l
c
s
n
0.1506 0.2602 m
0.1425 0.2462 l
0.1587 0.2462 l
c
fill
n
0.1506 0.2602 m
0.1425 0.2462 l
0.1587 0.2462 l
0.1506 0.2602 l
c
s
n
0.1519 0.2600 m
0.1438 0.2460 l
0.1600 0.2460 l
c
fill
n
0.1519 0.2600 m
0.1438 0.2460 l
0.1600 0.2460 l
0.1519 0.2600 l
c
s
n
0.1543 0.2586 m
0.1462 0.2446 l
0.1624 0.2446 l
c
fill
n
0.1543 0.2586 m
0.1462 0.2446 l
0.1624 0.2446 l
0.1543 0.2586 l
c
s
n
0.1582 0.2556 m
0.1501 0.2415 l
0.1663 0.2415 l
c
fill
n
0.1582 0.2556 m
0.1501 0.2415 l
0.1663 0.2415 l
0.1582 0.2556 l
c
s
n
0.1640 0.2507 m
0.1559 0.2367 l
0.1721 0.2367 l
c
fill
n
0.1640 0.2507 m
0.1559 0.2367 l
0.1721 0.2367 l
0.1640 0.2507 l
c
s
n
0.1721 0.2440 m
0.1640 0.2300 l
0.1802 0.2300 l
c
fill
n
0.1721 0.2440 m
0.1640 0.2300 l
0.1802 0.2300 l
0.1721 0.2440 l
c
s
n
0.1828 0.2357 m
0.1747 0.2216 l
0.1909 0.2216 l
c
fill
n
0.1828 0.2357 m
0.1747 0.2216 l
0.1909 0.2216 l
0.1828 0.2357 l
c
s
n
0.1966 0.2260 m
0.1885 0.2120 l
0.2047 0.2120 l
c
fill
n
0.1966 0.2260 m
0.1885 0.2120 l
0.2047 0.2120 l
0.1966 0.2260 l
c
s
n
0.2136 0.2155 m
0.2055 0.2015 l
0.2217 0.2015 l
c
fill
n
0.2136 0.2155 m
0.2055 0.2015 l
0.2217 0.2015 l
0.2136 0.2155 l
c
s
n
0.2344 0.2049 m
0.2263 0.1909 l
0.2425 0.1909 l
c
fill
n
0.2344 0.2049 m
0.2263 0.1909 l
0.2425 0.1909 l
0.2344 0.2049 l
c
s
n
0.2593 0.1950 m
0.2512 0.1810 l
0.2674 0.1810 l
c
fill
n
0.2593 0.1950 m
0.2512 0.1810 l
0.2674 0.1810 l
0.2593 0.1950 l
c
s
n
0.2887 0.1868 m
0.2806 0.1728 l
0.2968 0.1728 l
c
fill
n
0.2887 0.1868 m
0.2806 0.1728 l
0.2968 0.1728 l
0.2887 0.1868 l
c
s
n
0.3230 0.1813 m
0.3149 0.1673 l
0.3311 0.1673 l
c
fill
n
0.3230 0.1813 m
0.3149 0.1673 l
0.3311 0.1673 l
0.3230 0.1813 l
c
s
n
0.3624 0.1798 m
0.3543 0.1658 l
0.3705 0.1658 l
c
fill
n
0.3624 0.1798 m
0.3543 0.1658 l
0.3705 0.1658 l
0.3624 0.1798 l
c
s
n
0.4074 0.1836 m
0.3993 0.1696 l
0.4155 0.1696 l
c
fill
n
0.4074 0.1836 m
0.3993 0.1696 l
0.4155 0.1696 l
0.4074 0.1836 l
c
s
n
0.4584 0.1940 m
0.4503 0.1800 l
0.4665 0.1800 l
c
fill
n
0.4584 0.1940 m
0.4503 0.1800 l
0.4665 0.1800 l
0.4584 0.1940 l
c
s
n
0.5157 0.2125 m
0.5076 0.1985 l
0.5238 0.1985 l
c
fill
n
0.5157 0.2125 m
0.5076 0.1985 l
0.5238 0.1985 l
0.5157 0.2125 l
c
s
n
0.5796 0.2408 m
0.5715 0.2267 l
0.5877 0.2267 l
c
fill
n
0.5796 0.2408 m
0.5715 0.2267 l
0.5877 0.2267 l
0.5796 0.2408 l
c
s
n
0.6507 0.2803 m
0.6426 0.2663 l
0.6588 0.2663 l
c
fill
n
0.6507 0.2803 m
0.6426 0.2663 l
0.6588 0.2663 l
0.6507 0.2803 l
c
s
n
0.7291 0.3329 m
0.7210 0.3189 l
0.7372 0.3189 l
c
fill
n
0.7291 0.3329 m
0.7210 0.3189 l
0.7372 0.3189 l
0.7291 0.3329 l
c
s
n
0.8154 0.4004 m
0.8073 0.3864 l
0.8235 0.3864 l
c
fill
n
0.8154 0.4004 m
0.8073 0.3864 l
0.8235 0.3864 l
0.8154 0.4004 l
c
s
n
0.9098 0.4846 m
0.9017 0.4706 l
0.9179 0.4706 l
c
fill
n
0.9098 0.4846 m
0.9017 0.4706 l
0.9179 0.4706 l
0.9098 0.4846 l
c
s
n
1.0128 0.5875 m
1.0047 0.5735 l
1.0209 0.5735 l
c
fill
n
1.0128 0.5875 m
1.0047 0.5735 l
1.0209 0.5735 l
1.0128 0.5875 l
c
s
n
1.1246 0.7113 m
1.1165 0.6973 l
1.1327 0.6973 l
c
fill
n
1.1246 0.7113 m
1.1165 0.6973 l
1.1327 0.6973 l
1.1246 0.7113 l
c
s
[/DeviceRGB] SCS
Color1 SC
[0.0150 0.0090 ] 0 SD
0.0030 SLW
n
0.1500 0.2411 m
0.1500 0.2500 l
0.1500 0.2500 l
0.1500 0.2501 l
0.1500 0.2501 l
0.1500 0.2502 l
0.1500 0.2502 l
0.1500 0.2503 l
0.1501 0.2503 l
0.1501 0.2504 l
0.1501 0.2505 l
0.1501 0.2505 l
0.1502 0.2506 l
0.1502 0.2506 l
0.1503 0.2507 l
0.1503 0.2507 l
0.1504 0.2508 l
0.1505 0.2508 l
0.1506 0.2508 l
0.1507 0.2508 l
0.1508 0.2508 l
0.1509 0.2508 l
0.1510 0.2508 l
0.1512 0.2508 l
0.1513 0.2507 l
0.1515 0.2506 l
0.1517 0.2506 l
0.1519 0.2505 l
0.1521 0.2504 l
0.1523 0.2502 l
0.1525 0.2501 l
0.1528 0.2499 l
0.1530 0.2497 l
0.1533 0.2495 l
0.1536 0.2493 l
0.1539 0.2491 l
0.1543 0.2488 l
0.1546 0.2485 l
0.1550 0.2482 l
0.1554 0.2479 l
0.1558 0.2475 l
0.1563 0.2472 l
0.1567 0.2468 l
0.1572 0.2463 l
0.1577 0.2459 l
0.1582 0.2454 l
0.1588 0.2450 l
0.1593 0.2444 l
0.1599 0.2439 l
0.1606 0.2433 l
0.1612 0.2428 l
0.1619 0.2422 l
0.1626 0.2415 l
0.1633 0.2409 l
0.1640 0.2402 l
0.1648 0.2395 l
0.1656 0.2388 l
0.1665 0.2380 l
0.1673 0.2373 l
0.1682 0.2365 l
0.1692 0.2357 l
0.1701 0.2348 l
0.1711 0.2340 l
0.1721 0.2331 l
0.1732 0.2322 l
0.1743 0.2313 l
0.1754 0.2304 l
0.1765 0.2294 l
0.1777 0.2285 l
0.1790 0.2275 l
0.1802 0.2265 l
0.1815 0.2255 l
0.1828 0.2244 l
0.1842 0.2234 l
0.1856 0.2223 l
0.1871 0.2213 l
0.1885 0.2202 l
0.1901 0.2191 l
0.1916 0.2180 l
0.1932 0.2168 l
0.1949 0.2157 l
0.1966 0.2146 l
0.1983 0.2134 l
0.2000 0.2123 l
0.2019 0.2111 l
0.2037 0.2100 l
0.2056 0.2088 l
0.2075 0.2076 l
0.2095 0.2064 l
0.2116 0.2053 l
0.2136 0.2041 l
0.2157 0.2029 l
0.2179 0.2018 l
0.2201 0.2006 l
0.2224 0.1994 l
0.2247 0.1983 l
0.2271 0.1971 l
0.2295 0.1960 l
0.2319 0.1948 l
0.2344 0.1937 l
0.2370 0.1926 l
0.2396 0.1915 l
0.2423 0.1904 l
0.2450 0.1893 l
0.2477 0.1883 l
0.2506 0.1872 l
0.2534 0.1862 l
0.2564 0.1852 l
0.2593 0.1842 l
0.2624 0.1833 l
0.2655 0.1823 l
0.2686 0.1814 l
0.2718 0.1805 l
0.2751 0.1797 l
0.2784 0.1789 l
0.2818 0.1781 l
0.2852 0.1773 l
0.2887 0.1765 l
0.2923 0.1758 l
0.2959 0.1752 l
0.2996 0.1746 l
0.3033 0.1740 l
0.3071 0.1734 l
0.3110 0.1729 l
0.3149 0.1724 l
0.3189 0.1720 l
0.3230 0.1716 l
0.3271 0.1713 l
0.3313 0.1710 l
0.3355 0.1708 l
0.3398 0.1706 l
0.3442 0.1704 l
0.3486 0.1704 l
0.3532 0.1703 l
0.3577 0.1704 l
0.3624 0.1705 l
0.3671 0.1706 l
0.3719 0.1708 l
0.3768 0.1711 l
0.3817 0.1714 l
0.3867 0.1719 l
0.3918 0.1723 l
0.3969 0.1729 l
0.4021 0.1735 l
0.4074 0.1742 l
0.4128 0.1749 l
0.4182 0.1758 l
0.4237 0.1767 l
0.4293 0.1776 l
0.4350 0.1787 l
0.4407 0.1799 l
0.4465 0.1811 l
0.4524 0.1824 l
0.4584 0.1838 l
0.4644 0.1853 l
0.4705 0.1869 l
0.4768 0.1886 l
0.4830 0.1903 l
0.4894 0.1922 l
0.4958 0.1941 l
0.5024 0.1962 l
0.5090 0.1984 l
0.5157 0.2006 l
0.5224 0.2030 l
0.5293 0.2054 l
0.5362 0.2080 l
0.5432 0.2107 l
0.5504 0.2135 l
0.5575 0.2164 l
0.5648 0.2194 l
0.5722 0.2225 l
0.5796 0.2258 l
0.5872 0.2292 l
0.5948 0.2327 l
0.6025 0.2363 l
0.6103 0.2400 l
0.6182 0.2439 l
0.6262 0.2479 l
0.6343 0.2520 l
0.6424 0.2563 l
0.6507 0.2607 l
0.6590 0.2652 l
0.6675 0.2699 l
0.6760 0.2747 l
0.6846 0.2797 l
0.6933 0.2848 l
0.7021 0.2900 l
0.7110 0.2954 l
0.7200 0.3010 l
0.7291 0.3067 l
0.7383 0.3125 l
0.7476 0.3185 l
0.7570 0.3247 l
0.7665 0.3311 l
0.7761 0.3376 l
0.7858 0.3442 l
0.7955 0.3511 l
0.8054 0.3581 l
0.8154 0.3653 l
0.8255 0.3726 l
0.8357 0.3801 l
0.8459 0.3879 l
0.8563 0.3958 l
0.8668 0.4038 l
0.8774 0.4121 l
0.8881 0.4206 l
0.8989 0.4292 l
0.9098 0.4381 l
0.9208 0.4471 l
0.9319 0.4564 l
0.9432 0.4658 l
0.9545 0.4755 l
0.9659 0.4853 l
0.9775 0.4954 l
0.9891 0.5057 l
1.0009 0.5161 l
1.0128 0.5269 l
1.0248 0.5378 l
1.0369 0.5489 l
1.0491 0.5603 l
1.0614 0.5719 l
1.0738 0.5837 l
1.0863 0.5958 l
1.0990 0.6081 l
1.1118 0.6206 l
1.1246 0.6334 l
1.1376 0.6465 l
1.1501 0.6591 l
s
[/DeviceRGB] SCS
Color2 SC
n
0.1500 0.2503 m
0.1500 0.2501 l
0.1500 0.2500 l
0.1500 0.2501 l
0.1500 0.2501 l
0.1500 0.2502 l
0.1500 0.2502 l
0.1500 0.2503 l
0.1501 0.2503 l
0.1501 0.2504 l
0.1501 0.2505 l
0.1501 0.2505 l
0.1502 0.2506 l
0.1502 0.2507 l
0.1503 0.2507 l
0.1503 0.2508 l
0.1504 0.2508 l
0.1505 0.2508 l
0.1506 0.2509 l
0.1507 0.2509 l
0.1508 0.2509 l
0.1509 0.2509 l
0.1510 0.2509 l
0.1512 0.2508 l
0.1513 0.2508 l
0.1515 0.2508 l
0.1517 0.2507 l
0.1519 0.2506 l
0.1521 0.2505 l
0.1523 0.2504 l
0.1525 0.2503 l
0.1528 0.2501 l
0.1530 0.2500 l
0.1533 0.2498 l
0.1536 0.2496 l
0.1539 0.2494 l
0.1543 0.2491 l
0.1546 0.2489 l
0.1550 0.2486 l
0.1554 0.2483 l
0.1558 0.2479 l
0.1563 0.2476 l
0.1567 0.2472 l
0.1572 0.2468 l
0.1577 0.2464 l
0.1582 0.2460 l
0.1588 0.2455 l
0.1593 0.2450 l
0.1599 0.2445 l
0.1606 0.2440 l
0.1612 0.2435 l
0.1619 0.2429 l
0.1626 0.2423 l
0.1633 0.2417 l
0.1640 0.2410 l
0.1648 0.2404 l
0.1656 0.2397 l
0.1665 0.2390 l
0.1673 0.2382 l
0.1682 0.2375 l
0.1692 0.2367 l
0.1701 0.2359 l
0.1711 0.2351 l
0.1721 0.2342 l
0.1732 0.2334 l
0.1743 0.2325 l
0.1754 0.2316 l
0.1765 0.2307 l
0.1777 0.2297 l
0.1790 0.2288 l
0.1802 0.2278 l
0.1815 0.2268 l
0.1828 0.2258 l
0.1842 0.2247 l
0.1856 0.2237 l
0.1871 0.2226 l
0.1885 0.2216 l
0.1901 0.2205 l
0.1916 0.2194 l
0.1932 0.2182 l
0.1949 0.2171 l
0.1966 0.2160 l
0.1983 0.2148 l
0.2000 0.2137 l
0.2019 0.2125 l
0.2037 0.2114 l
0.2056 0.2102 l
0.2075 0.2090 l
0.2095 0.2078 l
0.2116 0.2066 l
0.2136 0.2054 l
0.2157 0.2042 l
0.2179 0.2031 l
0.2201 0.2019 l
0.2224 0.2007 l
0.2247 0.1995 l
0.2271 0.1983 l
0.2295 0.1971 l
0.2319 0.1960 l
0.2344 0.1948 l
0.2370 0.1937 l
0.2396 0.1925 l
0.2423 0.1914 l
0.2450 0.1903 l
0.2477 0.1892 l
0.2506 0.1881 l
0.2534 0.1870 l
0.2564 0.1860 l
0.2593 0.1849 l
0.2624 0.1839 l
0.2655 0.1829 l
0.2686 0.1820 l
0.2718 0.1811 l
0.2751 0.1802 l
0.2784 0.1793 l
0.2818 0.1784 l
0.2852 0.1776 l
0.2887 0.1768 l
0.2923 0.1761 l
0.2959 0.1754 l
0.2996 0.1747 l
0.3033 0.1741 l
0.3071 0.1735 l
0.3110 0.1730 l
0.3149 0.1725 l
0.3189 0.1720 l
0.3230 0.1716 l
0.3271 0.1713 l
0.3313 0.1710 l
0.3355 0.1707 l
0.3398 0.1705 l
0.3442 0.1704 l
0.3486 0.1703 l
0.3532 0.1703 l
0.3577 0.1704 l
0.3624 0.1705 l
0.3671 0.1707 l
0.3719 0.1710 l
0.3768 0.1713 l
0.3817 0.1717 l
0.3867 0.1722 l
0.3918 0.1728 l
0.3969 0.1734 l
0.4021 0.1741 l
0.4074 0.1750 l
0.4128 0.1758 l
0.4182 0.1768 l
0.4237 0.1779 l
0.4293 0.1791 l
0.4350 0.1803 l
0.4407 0.1817 l
0.4465 0.1832 l
0.4524 0.1847 l
0.4584 0.1864 l
0.4644 0.1882 l
0.4705 0.1900 l
0.4768 0.1920 l
0.4830 0.1941 l
0.4894 0.1964 l
0.4958 0.1987 l
0.5024 0.2012 l
0.5090 0.2037 l
0.5157 0.2064 l
0.5224 0.2093 l
0.5293 0.2122 l
0.5362 0.2153 l
0.5432 0.2186 l
0.5504 0.2219 l
0.5575 0.2255 l
0.5648 0.2291 l
0.5722 0.2329 l
0.5796 0.2368 l
0.5872 0.2409 l
0.5948 0.2452 l
0.6025 0.2496 l
0.6103 0.2542 l
0.6182 0.2589 l
0.6262 0.2638 l
0.6343 0.2688 l
0.6424 0.2741 l
0.6507 0.2795 l
0.6590 0.2850 l
0.6675 0.2908 l
0.6760 0.2967 l
0.6846 0.3028 l
0.6933 0.3091 l
0.7021 0.3156 l
0.7110 0.3223 l
0.7200 0.3292 l
0.7291 0.3362 l
0.7383 0.3435 l
0.7476 0.3510 l
0.7570 0.3587 l
0.7665 0.3666 l
0.7761 0.3747 l
0.7858 0.3830 l
0.7955 0.3915 l
0.8054 0.4003 l
0.8154 0.4093 l
0.8255 0.4185 l
0.8357 0.4280 l
0.8459 0.4376 l
0.8563 0.4476 l
0.8668 0.4577 l
0.8774 0.4681 l
0.8881 0.4788 l
0.8989 0.4897 l
0.9098 0.5008 l
0.9208 0.5123 l
0.9319 0.5239 l
0.9432 0.5359 l
0.9545 0.5481 l
0.9659 0.5606 l
0.9775 0.5733 l
0.9891 0.5863 l
1.0009 0.5996 l
1.0128 0.6132 l
1.0248 0.6271 l
1.0369 0.6413 l
1.0491 0.6558 l
1.0614 0.6705 l
1.0738 0.6856 l
1.0863 0.7010 l
1.0990 0.7166 l
1.1118 0.7326 l
1.1246 0.7490 l
1.1376 0.7656 l
1.1501 0.7817 l
s
[/DeviceRGB] SCS
Color4 SC
n
0.1500 0.3415 m
0.1500 0.2456 l
0.1500 0.2503 l
0.1500 0.2501 l
0.1500 0.2501 l
0.1500 0.2502 l
0.1500 0.2502 l
0.1500 0.2503 l
0.1501 0.2504 l
0.1501 0.2504 l
0.1501 0.2505 l
0.1501 0.2505 l
0.1502 0.2506 l
0.1502 0.2507 l
0.1503 0.2507 l
0.1503 0.2508 l
0.1504 0.2508 l
0.1505 0.2508 l
0.1506 0.2509 l
0.1507 0.2509 l
0.1508 0.2509 l
0.1509 0.2509 l
0.1510 0.2509 l
0.1512 0.2509 l
0.1513 0.2509 l
0.1515 0.2508 l
0.1517 0.2507 l
0.1519 0.2507 l
0.1521 0.2506 l
0.1523 0.2505 l
0.1525 0.2504 l
0.1528 0.2502 l
0.1530 0.2501 l
0.1533 0.2499 l
0.1536 0.2497 l
0.1539 0.2495 l
0.1543 0.2492 l
0.1546 0.2490 l
0.1550 0.2487 l
0.1554 0.2484 l
0.1558 0.2481 l
0.1563 0.2478 l
0.1567 0.2474 l
0.1572 0.2470 l
0.1577 0.2466 l
0.1582 0.2462 l
0.1588 0.2458 l
0.1593 0.2453 l
0.1599 0.2448 l
0.1606 0.2443 l
0.1612 0.2437 l
0.1619 0.2432 l
0.1626 0.2426 l
0.1633 0.2420 l
0.1640 0.2414 l
0.1648 0.2407 l
0.1656 0.2400 l
0.1665 0.2393 l
0.1673 0.2386 l
0.1682 0.2379 l
0.1692 0.2371 l
0.1701 0.2363 l
0.1711 0.2355 l
0.1721 0.2347 l
0.1732 0.2338 l
0.1743 0.2329 l
0.1754 0.2321 l
0.1765 0.2311 l
0.1777 0.2302 l
0.1790 0.2293 l
0.1802 0.2283 l
0.1815 0.2273 l
0.1828 0.2263 l
0.1842 0.2253 l
0.1856 0.2243 l
0.1871 0.2232 l
0.1885 0.2222 l
0.1901 0.2211 l
0.1916 0.2200 l
0.1932 0.2189 l
0.1949 0.2178 l
0.1966 0.2166 l
0.1983 0.2155 l
0.2000 0.2144 l
0.2019 0.2132 l
0.2037 0.2120 l
0.2056 0.2109 l
0.2075 0.2097 l
0.2095 0.2085 l
0.2116 0.2073 l
0.2136 0.2062 l
0.2157 0.2050 l
0.2179 0.2038 l
0.2201 0.2026 l
0.2224 0.2014 l
0.2247 0.2002 l
0.2271 0.1991 l
0.2295 0.1979 l
0.2319 0.1967 l
0.2344 0.1956 l
0.2370 0.1944 l
0.2396 0.1933 l
0.2423 0.1921 l
0.2450 0.1910 l
0.2477 0.1899 l
0.2506 0.1888 l
0.2534 0.1878 l
0.2564 0.1867 l
0.2593 0.1857 l
0.2624 0.1847 l
0.2655 0.1837 l
0.2686 0.1827 l
0.2718 0.1818 l
0.2751 0.1808 l
0.2784 0.1799 l
0.2818 0.1791 l
0.2852 0.1783 l
0.2887 0.1775 l
0.2923 0.1767 l
0.2959 0.1760 l
0.2996 0.1753 l
0.3033 0.1746 l
0.3071 0.1740 l
0.3110 0.1734 l
0.3149 0.1729 l
0.3189 0.1724 l
0.3230 0.1720 l
0.3271 0.1716 l
0.3313 0.1713 l
0.3355 0.1710 l
0.3398 0.1708 l
0.3442 0.1706 l
0.3486 0.1705 l
0.3532 0.1705 l
0.3577 0.1705 l
0.3624 0.1705 l
0.3671 0.1707 l
0.3719 0.1709 l
0.3768 0.1712 l
0.3817 0.1715 l
0.3867 0.1719 l
0.3918 0.1724 l
0.3969 0.1730 l
0.4021 0.1736 l
0.4074 0.1743 l
0.4128 0.1752 l
0.4182 0.1760 l
0.4237 0.1770 l
0.4293 0.1781 l
0.4350 0.1793 l
0.4407 0.1805 l
0.4465 0.1819 l
0.4524 0.1833 l
0.4584 0.1848 l
0.4644 0.1865 l
0.4705 0.1882 l
0.4768 0.1901 l
0.4830 0.1920 l
0.4894 0.1941 l
0.4958 0.1963 l
0.5024 0.1986 l
0.5090 0.2010 l
0.5157 0.2035 l
0.5224 0.2062 l
0.5293 0.2089 l
0.5362 0.2118 l
0.5432 0.2148 l
0.5504 0.2180 l
0.5575 0.2213 l
0.5648 0.2247 l
0.5722 0.2283 l
0.5796 0.2319 l
0.5872 0.2358 l
0.5948 0.2398 l
0.6025 0.2439 l
0.6103 0.2482 l
0.6182 0.2526 l
0.6262 0.2571 l
0.6343 0.2619 l
0.6424 0.2668 l
0.6507 0.2718 l
0.6590 0.2770 l
0.6675 0.2824 l
0.6760 0.2880 l
0.6846 0.2937 l
0.6933 0.2996 l
0.7021 0.3056 l
0.7110 0.3119 l
0.7200 0.3183 l
0.7291 0.3249 l
0.7383 0.3317 l
0.7476 0.3387 l
0.7570 0.3458 l
0.7665 0.3532 l
0.7761 0.3608 l
0.7858 0.3685 l
0.7955 0.3765 l
0.8054 0.3847 l
0.8154 0.3930 l
0.8255 0.4016 l
0.8357 0.4104 l
0.8459 0.4194 l
0.8563 0.4287 l
0.8668 0.4381 l
0.8774 0.4478 l
0.8881 0.4577 l
0.8989 0.4678 l
0.9098 0.4782 l
0.9208 0.4888 l
0.9319 0.4996 l
0.9432 0.5107 l
0.9545 0.5221 l
0.9659 0.5336 l
0.9775 0.5455 l
0.9891 0.5575 l
1.0009 0.5699 l
1.0128 0.5825 l
1.0248 0.5953 l
1.0369 0.6084 l
1.0491 0.6218 l
1.0614 0.6355 l
1.0738 0.6494 l
1.0863 0.6637 l
1.0990 0.6782 l
1.1118 0.6929 l
1.1246 0.7080 l
1.1376 0.7234 l
1.1501 0.7382 l
s
[/DeviceRGB] SCS
Color1 SC
[] 0 SD
0.0045 SLW
n
0.1500 0.1500 m
1.1500 0.1500 l
s
n
0.1500 0.8500 m
1.1500 0.8500 l
s
n
0.2125 0.1500 m
0.2125 0.1600 l
s
n
0.2125 0.8500 m
0.2125 0.8400 l
s
n
0.3375 0.1500 m
0.3375 0.1600 l
s
n
0.3375 0.8500 m
0.3375 0.8400 l
s
n
0.4625 0.1500 m
0.4625 0.1600 l
s
n
0.4625 0.8500 m
0.4625 0.8400 l
s
n
0.5875 0.1500 m
0.5875 0.1600 l
s
n
0.5875 0.8500 m
0.5875 0.8400 l
s
n
0.7125 0.1500 m
0.7125 0.1600 l
s
n
0.7125 0.8500 m
0.7125 0.8400 l
s
n
0.8375 0.1500 m
0.8375 0.1600 l
s
n
0.8375 0.8500 m
0.8375 0.8400 l
s
n
0.9625 0.1500 m
0.9625 0.1600 l
s
n
0.9625 0.8500 m
0.9625 0.8400 l
s
n
1.0875 0.1500 m
1.0875 0.1600 l
s
n
1.0875 0.8500 m
1.0875 0.8400 l
s
n
0.1500 0.1500 m
0.1500 0.1700 l
s
n
0.1500 0.8500 m
0.1500 0.8300 l
s
n
0.2750 0.1500 m
0.2750 0.1700 l
s
n
0.2750 0.8500 m
0.2750 0.8300 l
s
n
0.4000 0.1500 m
0.4000 0.1700 l
s
n
0.4000 0.8500 m
0.4000 0.8300 l
s
n
0.5250 0.1500 m
0.5250 0.1700 l
s
n
0.5250 0.8500 m
0.5250 0.8300 l
s
n
0.6500 0.1500 m
0.6500 0.1700 l
s
n
0.6500 0.8500 m
0.6500 0.8300 l
s
n
0.7750 0.1500 m
0.7750 0.1700 l
s
n
0.7750 0.8500 m
0.7750 0.8300 l
s
n
0.9000 0.1500 m
0.9000 0.1700 l
s
n
0.9000 0.8500 m
0.9000 0.8300 l
s
n
1.0250 0.1500 m
1.0250 0.1700 l
s
n
1.0250 0.8500 m
1.0250 0.8300 l
s
n
1.1500 0.1500 m
1.1500 0.1700 l
s
n
1.1500 0.8500 m
1.1500 0.8300 l
s
/Times-Roman findfont
dup length dict begin
 {1 index /FID ne {def} {pop pop} ifelse} forall
 /Encoding DefEncoding def
 currentdict
end
/Font0 exch definefont pop
/Font0 FFSF
0.1394 0.1094 m
GS
[0.0448 0.0000 0.0000 0.0448 0 0] CC
(0) show
GR
/Font0 FFSF
0.2493 0.1094 m
GS
[0.0448 0.0000 0.0000 0.0448 0 0] CC
(0.1) show
GR
/Font0 FFSF
0.3725 0.1094 m
GS
[0.0448 0.0000 0.0000 0.0448 0 0] CC
(0.2) show
GR
/Font0 FFSF
0.4983 0.1094 m
GS
[0.0448 0.0000 0.0000 0.0448 0 0] CC
(0.3) show
GR
/Font0 FFSF
0.6225 0.1094 m
GS
[0.0448 0.0000 0.0000 0.0448 0 0] CC
(0.4) show
GR
/Font0 FFSF
0.7483 0.1090 m
GS
[0.0448 0.0000 0.0000 0.0448 0 0] CC
(0.5) show
GR
/Font0 FFSF
0.8727 0.1094 m
GS
[0.0448 0.0000 0.0000 0.0448 0 0] CC
(0.6) show
GR
/Font0 FFSF
0.9981 0.1094 m
GS
[0.0448 0.0000 0.0000 0.0448 0 0] CC
(0.7) show
GR
/Font0 FFSF
1.1231 0.1094 m
GS
[0.0448 0.0000 0.0000 0.0448 0 0] CC
(0.8) show
GR
/Symbol findfont
/Font12 exch definefont pop
/Font12 FFSF
0.5722 0.0441 m
GS
[0.0504 0.0000 0.0000 0.0504 0 0] CC
(r) show
GR
/Font0 FFSF
0.6000 0.0441 m
GS
[0.0504 0.0000 0.0000 0.0504 0 0] CC
( [fm) show
GR
/Font0 FFSF
0.6855 0.0743 m
GS
[0.0356 0.0000 0.0000 0.0356 0 0] CC
(-3) show
GR
/Font0 FFSF
0.7153 0.0441 m
GS
[0.0504 0.0000 0.0000 0.0504 0 0] CC
(]) show
GR
n
0.1500 0.1500 m
0.1500 0.8500 l
s
n
1.1500 0.1500 m
1.1500 0.8500 l
s
n
0.1500 0.2000 m
0.1600 0.2000 l
s
n
1.1500 0.2000 m
1.1400 0.2000 l
s
n
0.1500 0.3000 m
0.1600 0.3000 l
s
n
1.1500 0.3000 m
1.1400 0.3000 l
s
n
0.1500 0.4000 m
0.1600 0.4000 l
s
n
1.1500 0.4000 m
1.1400 0.4000 l
s
n
0.1500 0.5000 m
0.1600 0.5000 l
s
n
1.1500 0.5000 m
1.1400 0.5000 l
s
n
0.1500 0.6000 m
0.1600 0.6000 l
s
n
1.1500 0.6000 m
1.1400 0.6000 l
s
n
0.1500 0.7000 m
0.1600 0.7000 l
s
n
1.1500 0.7000 m
1.1400 0.7000 l
s
n
0.1500 0.8000 m
0.1600 0.8000 l
s
n
1.1500 0.8000 m
1.1400 0.8000 l
s
n
0.1500 0.1500 m
0.1700 0.1500 l
s
n
1.1500 0.1500 m
1.1300 0.1500 l
s
n
0.1500 0.2500 m
0.1700 0.2500 l
s
n
1.1500 0.2500 m
1.1300 0.2500 l
s
n
0.1500 0.3500 m
0.1700 0.3500 l
s
n
1.1500 0.3500 m
1.1300 0.3500 l
s
n
0.1500 0.4500 m
0.1700 0.4500 l
s
n
1.1500 0.4500 m
1.1300 0.4500 l
s
n
0.1500 0.5500 m
0.1700 0.5500 l
s
n
1.1500 0.5500 m
1.1300 0.5500 l
s
n
0.1500 0.6500 m
0.1700 0.6500 l
s
n
1.1500 0.6500 m
1.1300 0.6500 l
s
n
0.1500 0.7500 m
0.1700 0.7500 l
s
n
1.1500 0.7500 m
1.1300 0.7500 l
s
n
0.1500 0.8500 m
0.1700 0.8500 l
s
n
1.1500 0.8500 m
1.1300 0.8500 l
s
/Font0 FFSF
0.0816 0.1351 m
GS
[0.0448 0.0000 0.0000 0.0448 0 0] CC
(-20) show
GR
/Font0 FFSF
0.1188 0.2351 m
GS
[0.0448 0.0000 0.0000 0.0448 0 0] CC
(0) show
GR
/Font0 FFSF
0.0965 0.3351 m
GS
[0.0448 0.0000 0.0000 0.0448 0 0] CC
(20) show
GR
/Font0 FFSF
0.0965 0.4351 m
GS
[0.0448 0.0000 0.0000 0.0448 0 0] CC
(40) show
GR
/Font0 FFSF
0.0965 0.5351 m
GS
[0.0448 0.0000 0.0000 0.0448 0 0] CC
(60) show
GR
/Font0 FFSF
0.0965 0.6351 m
GS
[0.0448 0.0000 0.0000 0.0448 0 0] CC
(80) show
GR
/Font0 FFSF
0.0741 0.7351 m
GS
[0.0448 0.0000 0.0000 0.0448 0 0] CC
(100) show
GR
/Font0 FFSF
0.0741 0.8351 m
GS
[0.0448 0.0000 0.0000 0.0448 0 0] CC
(120) show
GR
/Font0 FFSF
0.0563 0.3867 m
GS
[0.0000 0.0504 -0.0504 0.0000 0 0] CC
(E/A [MeV]) show
GR
[] 0 SD
0.0015 SLW
n
0.1500 0.1500 m
0.1500 0.8500 l
1.1500 0.8500 l
1.1500 0.1500 l
0.1500 0.1500 l
c
s
n
0.1500 0.8500 m
0.1500 0.7076 l
0.3428 0.7076 l
0.3428 0.8500 l
c
[/DeviceRGB] SCS
Color0 SC
fill
[/DeviceRGB] SCS
Color1 SC
[] 0 SD
0.0045 SLW
n
0.1500 0.8500 m
0.1500 0.7076 l
0.3428 0.7076 l
0.3428 0.8500 l
0.1500 0.8500 l
c
s
/Font0 FFSF
0.2288 0.8063 m
GS
[0.0498 0.0000 0.0000 0.0498 0 0] CC
(D1S) show
GR
[] 0 SD
0.0023 SLW
n
0.1689 0.8227 m
0.2089 0.8227 l
s
n
0.1689 0.8227 0.0081 0.0081 0 360 EARC c
fill
[] 0 SD
0.0015 SLW
n 0.1689 0.8227 0.0081 0.0081 0 360 EARC s
n
0.2089 0.8227 0.0081 0.0081 0 360 EARC c
fill
n 0.2089 0.8227 0.0081 0.0081 0 360 EARC s
/Font0 FFSF
0.2288 0.7618 m
GS
[0.0498 0.0000 0.0000 0.0498 0 0] CC
(D1N) show
GR
[/DeviceRGB] SCS
Color2 SC
[] 0 SD
0.0023 SLW
n
0.1689 0.7784 m
0.2089 0.7784 l
s
n
0.1689 0.7857 m
0.1615 0.7784 l
0.1689 0.7711 l
0.1762 0.7784 l
c
fill
[] 0 SD
0.0015 SLW
n
0.1689 0.7857 m
0.1615 0.7784 l
0.1689 0.7711 l
0.1762 0.7784 l
0.1689 0.7857 l
c
s
n
0.2089 0.7857 m
0.2016 0.7784 l
0.2089 0.7711 l
0.2162 0.7784 l
c
fill
n
0.2089 0.7857 m
0.2016 0.7784 l
0.2089 0.7711 l
0.2162 0.7784 l
0.2089 0.7857 l
c
s
/Font0 FFSF
[/DeviceRGB] SCS
Color1 SC
0.2288 0.7176 m
GS
[0.0498 0.0000 0.0000 0.0498 0 0] CC
(D1M) show
GR
[/DeviceRGB] SCS
Color4 SC
[] 0 SD
0.0023 SLW
n
0.1689 0.7345 m
0.2089 0.7345 l
s
n
0.1689 0.7439 m
0.1608 0.7298 l
0.1769 0.7298 l
c
fill
[] 0 SD
0.0015 SLW
n
0.1689 0.7439 m
0.1608 0.7298 l
0.1769 0.7298 l
0.1689 0.7439 l
c
s
n
0.2089 0.7439 m
0.2008 0.7298 l
0.2170 0.7298 l
c
fill
n
0.2089 0.7439 m
0.2008 0.7298 l
0.2170 0.7298 l
0.2089 0.7439 l
c
s
[/DeviceRGB] SCS
Color1 SC
n
0.3752 0.8497 m
0.3725 0.8458 l
s
showpage
%%PageTrailer
%%Trailer
%%DocumentNeededResources: font Times-Roman
%%+ font Symbol
%%EOF
