%!PS-Adobe-3.0
%%BoundingBox: 0 0 612 792
%%LanguageLevel: 2
%%Creator: Grace-5.1.25
%%CreationDate: Tue Dec  1 11:15:31 2015
%%DocumentData: Clean8Bit
%%Orientation: Landscape
%%Pages: 1
%%PageOrder: Ascend
%%Title: JLS_gogny1.agr
%%For: ap1450
%%DocumentNeededResources: (atend)
%%EndComments
%%BeginProlog
/PAGE_OFFSET_X 0 def
/PAGE_OFFSET_Y 0 def
/m {moveto} def
/l {lineto} def
/s {stroke} def
/n {newpath} def
/c {closepath} def
/RL {rlineto} def
/SLW {setlinewidth} def
/GS {gsave} def
/GR {grestore} def
/SC {setcolor} def
/SGRY {setgray} def
/SRGB {setrgbcolor} def
/SD {setdash} def
/SLC {setlinecap} def
/SLJ {setlinejoin} def
/SCS {setcolorspace} def
/FFSF {findfont setfont} def
/CC {concat} def
/PXL {n m 0 0 RL s} def
/Color0 {1.0000 1.0000 1.0000} def
/Color1 {0.0000 0.0000 0.0000} def
/Color2 {1.0000 0.0000 0.0000} def
/Color3 {0.0000 1.0000 0.0000} def
/Color4 {0.0000 0.0000 1.0000} def
/Color5 {1.0000 1.0000 0.0000} def
/Color6 {0.7373 0.5608 0.5608} def
/Color7 {0.8627 0.8627 0.8627} def
/Color8 {0.5804 0.0000 0.8275} def
/Color9 {0.0000 1.0000 1.0000} def
/Color10 {1.0000 0.0000 1.0000} def
/Color11 {1.0000 0.6471 0.0000} def
/Color12 {0.4471 0.1294 0.7373} def
/Color13 {0.4039 0.0275 0.2824} def
/Color14 {0.2510 0.8784 0.8157} def
/Color15 {0.0000 0.5451 0.0000} def
/Color16 {0.7529 0.7529 0.7529} def
/Color17 {0.5059 0.5059 0.5059} def
/Color18 {0.2588 0.2588 0.2588} def
/PTRN {
 /pat_bits exch def 
 <<
  /PaintType 2
  /PatternType 1 /TilingType 1
  /BBox[0 0 16 16]
  /XStep 16 /YStep 16
  /PaintProc {
   pop
   16 16 true [-1 0 0 -1 16 16] pat_bits imagemask
  }
 >>
 [0.0016 0 0 0.0016 0 0]
 makepattern
} def
/Pattern0 {<0000000000000000000000000000000000000000000000000000000000000000> PTRN} bind def
/Pattern1 {<ffffffffffffffffffffffffffffffffffffffffffffffffffffffffffffffff> PTRN} bind def
/Pattern2 {<eeeeffffbbbbffffeeeeffffbbbbffffeeeeffffbbbbffffeeeeffffbbbbffff> PTRN} bind def
/Pattern3 {<eeeebbbbeeeebbbbeeeebbbbeeeebbbbeeeebbbbeeeebbbbeeeebbbbeeeebbbb> PTRN} bind def
/Pattern4 {<5555aaaa5555aaaa5555aaaa5555aaaa5555aaaa5555aaaa5555aaaa5555aaaa> PTRN} bind def
/Pattern5 {<1111444411114444111144441111444411114444111144441111444411114444> PTRN} bind def
/Pattern6 {<1111000044440000111100004444000011110000444400001111000044440000> PTRN} bind def
/Pattern7 {<1010000000000000010100000000000010100000000000000101000000000000> PTRN} bind def
/Pattern8 {<0000000000000000000000000000000000000000000000000000000000000000> PTRN} bind def
/Pattern9 {<1e1e0f0f8787c3c3e1e1f0f078783c3c1e1e0f0f8787c3c3e1e1f0f078783c3c> PTRN} bind def
/Pattern10 {<7878f0f0e1e1c3c387870f0f1e1e3c3c7878f0f0e1e1c3c387870f0f1e1e3c3c> PTRN} bind def
/Pattern11 {<3333333333333333333333333333333333333333333333333333333333333333> PTRN} bind def
/Pattern12 {<ffffffff00000000ffffffff00000000ffffffff00000000ffffffff00000000> PTRN} bind def
/Pattern13 {<8181424224241818181824244242818181814242242418181818242442428181> PTRN} bind def
/Pattern14 {<8080404020201010080804040202010180804040202010100808040402020101> PTRN} bind def
/Pattern15 {<0101020204040808101020204040808001010202040408081010202040408080> PTRN} bind def
/Pattern16 {<2222222222222222222222222222222222222222222222222222222222222222> PTRN} bind def
/Pattern17 {<0000ffff000000000000ffff000000000000ffff000000000000ffff00000000> PTRN} bind def
/Pattern18 {<2222ffff222222222222ffff222222222222ffff222222222222ffff22222222> PTRN} bind def
/Pattern19 {<ffffffff33333333ffffffff33333333ffffffff33333333ffffffff33333333> PTRN} bind def
/Pattern20 {<0f0f0f0f0f0f0f0ff0f0f0f0f0f0f0f00f0f0f0f0f0f0f0ff0f0f0f0f0f0f0f0> PTRN} bind def
/Pattern21 {<ff00ff00ff00ff00ff00ff00ff00ff0000ff00ff00ff00ff00ff00ff00ff00ff> PTRN} bind def
/Pattern22 {<8001800180018001800180018001ffffffff8001800180018001800180018001> PTRN} bind def
/Pattern23 {<c003c003c003c003c003c003ffffffffffffffffc003c003c003c003c003c003> PTRN} bind def
/Pattern24 {<040404040404ffff404040404040ffff040404040404ffff404040404040ffff> PTRN} bind def
/Pattern25 {<180018001800180018001800ffffffff001800180018001800180018ffffffff> PTRN} bind def
/Pattern26 {<1111b8b87c7c3a3a1111a3a3c7c78b8b1111b8b87c7c3a3a1111a3a3c7c78b8b> PTRN} bind def
/Pattern27 {<101010102828c7c70101010182827c7c101010102828c7c70101010182827c7c> PTRN} bind def
/Pattern28 {<1c1c121211112121c1c12121111112121c1c121211112121c1c1212111111212> PTRN} bind def
/Pattern29 {<3e3e414180808080e3e31414080808083e3e414180808080e3e3141408080808> PTRN} bind def
/Pattern30 {<4848888884848383848488884848383848488888848483838484888848483838> PTRN} bind def
/Pattern31 {<03030404080808080c0c12122121c0c003030404080808080c0c12122121c0c0> PTRN} bind def
/ellipsedict 8 dict def
ellipsedict /mtrx matrix put
/EARC {
 ellipsedict begin
  /endangle exch def
  /startangle exch def
  /yrad exch def
  /xrad exch def
  /y exch def
  /x exch def
  /savematrix mtrx currentmatrix def
  x y translate
  xrad yrad scale
  0 0 1 startangle endangle arc
  savematrix setmatrix
 end
} def
/TL {
  /kcomp exch def
  /linewidth exch def
  /offset exch def
  GS
  0 offset rmoveto
  linewidth SLW
  dup stringwidth exch kcomp add exch RL s
  GR
} def
/KINIT
{
 /kvector exch def
 /kid 0 def
} def
/KPROC
{
 pop pop
 kvector kid get
 0 rmoveto
 /kid 1 kid add def
} def
/DefEncoding [
 /.notdef
 /.notdef
 /.notdef
 /.notdef
 /.notdef
 /.notdef
 /.notdef
 /.notdef
 /.notdef
 /.notdef
 /.notdef
 /.notdef
 /.notdef
 /.notdef
 /.notdef
 /.notdef
 /.notdef
 /.notdef
 /.notdef
 /.notdef
 /.notdef
 /.notdef
 /.notdef
 /.notdef
 /.notdef
 /.notdef
 /.notdef
 /.notdef
 /.notdef
 /.notdef
 /.notdef
 /.notdef
 /space
 /exclam
 /quotedbl
 /numbersign
 /dollar
 /percent
 /ampersand
 /quoteright
 /parenleft
 /parenright
 /asterisk
 /plus
 /comma
 /hyphen
 /period
 /slash
 /zero
 /one
 /two
 /three
 /four
 /five
 /six
 /seven
 /eight
 /nine
 /colon
 /semicolon
 /less
 /equal
 /greater
 /question
 /at
 /A
 /B
 /C
 /D
 /E
 /F
 /G
 /H
 /I
 /J
 /K
 /L
 /M
 /N
 /O
 /P
 /Q
 /R
 /S
 /T
 /U
 /V
 /W
 /X
 /Y
 /Z
 /bracketleft
 /backslash
 /bracketright
 /asciicircum
 /underscore
 /grave
 /a
 /b
 /c
 /d
 /e
 /f
 /g
 /h
 /i
 /j
 /k
 /l
 /m
 /n
 /o
 /p
 /q
 /r
 /s
 /t
 /u
 /v
 /w
 /x
 /y
 /z
 /braceleft
 /bar
 /braceright
 /asciitilde
 /.notdef
 /.notdef
 /.notdef
 /.notdef
 /.notdef
 /.notdef
 /.notdef
 /.notdef
 /.notdef
 /.notdef
 /.notdef
 /.notdef
 /.notdef
 /.notdef
 /.notdef
 /.notdef
 /.notdef
 /.notdef
 /.notdef
 /.notdef
 /.notdef
 /.notdef
 /.notdef
 /.notdef
 /.notdef
 /.notdef
 /.notdef
 /.notdef
 /.notdef
 /.notdef
 /.notdef
 /.notdef
 /.notdef
 /space
 /exclamdown
 /cent
 /sterling
 /currency
 /yen
 /brokenbar
 /section
 /dieresis
 /copyright
 /ordfeminine
 /guillemotleft
 /logicalnot
 /hyphen
 /registered
 /macron
 /degree
 /plusminus
 /twosuperior
 /threesuperior
 /acute
 /mu
 /paragraph
 /periodcentered
 /cedilla
 /onesuperior
 /ordmasculine
 /guillemotright
 /onequarter
 /onehalf
 /threequarters
 /questiondown
 /Agrave
 /Aacute
 /Acircumflex
 /Atilde
 /Adieresis
 /Aring
 /AE
 /Ccedilla
 /Egrave
 /Eacute
 /Ecircumflex
 /Edieresis
 /Igrave
 /Iacute
 /Icircumflex
 /Idieresis
 /Eth
 /Ntilde
 /Ograve
 /Oacute
 /Ocircumflex
 /Otilde
 /Odieresis
 /multiply
 /Oslash
 /Ugrave
 /Uacute
 /Ucircumflex
 /Udieresis
 /Yacute
 /Thorn
 /germandbls
 /agrave
 /aacute
 /acircumflex
 /atilde
 /adieresis
 /aring
 /ae
 /ccedilla
 /egrave
 /eacute
 /ecircumflex
 /edieresis
 /igrave
 /iacute
 /icircumflex
 /idieresis
 /eth
 /ntilde
 /ograve
 /oacute
 /ocircumflex
 /otilde
 /odieresis
 /divide
 /oslash
 /ugrave
 /uacute
 /ucircumflex
 /udieresis
 /yacute
 /thorn
 /ydieresis
] def
%%EndProlog
%%BeginSetup
%%EndSetup
%%Page: 1 1
PAGE_OFFSET_X PAGE_OFFSET_Y translate
612.00 612.00 scale
90 rotate
0.0 -1.0 translate
n
0.4267 0.6474 m
0.4267 0.6654 l
0.4447 0.6654 l
0.4447 0.6474 l
c
GS
[/DeviceRGB] SCS
Color0 SRGB
fill
GR
[/Pattern /DeviceRGB] SCS
Color1 Pattern8 SC
fill
[/DeviceRGB] SCS
Color1 SC
[] 0 SD
0.0045 SLW
0 SLC
0 SLJ
n
0.4267 0.6474 m
0.4267 0.6654 l
0.4447 0.6654 l
0.4447 0.6474 l
0.4267 0.6474 l
c
s
n
0.4981 0.5937 m
0.4981 0.6117 l
0.5162 0.6117 l
0.5162 0.5937 l
c
GS
Color0 SRGB
fill
GR
[/Pattern /DeviceRGB] SCS
Color1 Pattern8 SC
fill
[/DeviceRGB] SCS
Color1 SC
n
0.4981 0.5937 m
0.4981 0.6117 l
0.5162 0.6117 l
0.5162 0.5937 l
0.4981 0.5937 l
c
s
n
0.5696 0.5380 m
0.5696 0.5561 l
0.5876 0.5561 l
0.5876 0.5380 l
c
GS
Color0 SRGB
fill
GR
[/Pattern /DeviceRGB] SCS
Color1 Pattern8 SC
fill
[/DeviceRGB] SCS
Color1 SC
n
0.5696 0.5380 m
0.5696 0.5561 l
0.5876 0.5561 l
0.5876 0.5380 l
0.5696 0.5380 l
c
s
n
0.6410 0.4822 m
0.6410 0.5002 l
0.6590 0.5002 l
0.6590 0.4822 l
c
GS
Color0 SRGB
fill
GR
[/Pattern /DeviceRGB] SCS
Color1 Pattern8 SC
fill
[/DeviceRGB] SCS
Color1 SC
n
0.6410 0.4822 m
0.6410 0.5002 l
0.6590 0.5002 l
0.6590 0.4822 l
0.6410 0.4822 l
c
s
n
0.7124 0.4282 m
0.7124 0.4463 l
0.7304 0.4463 l
0.7304 0.4282 l
c
GS
Color0 SRGB
fill
GR
[/Pattern /DeviceRGB] SCS
Color1 Pattern8 SC
fill
[/DeviceRGB] SCS
Color1 SC
n
0.7124 0.4282 m
0.7124 0.4463 l
0.7304 0.4463 l
0.7304 0.4282 l
0.7124 0.4282 l
c
s
n
0.7838 0.3773 m
0.7838 0.3954 l
0.8019 0.3954 l
0.8019 0.3773 l
c
GS
Color0 SRGB
fill
GR
[/Pattern /DeviceRGB] SCS
Color1 Pattern8 SC
fill
[/DeviceRGB] SCS
Color1 SC
n
0.7838 0.3773 m
0.7838 0.3954 l
0.8019 0.3954 l
0.8019 0.3773 l
0.7838 0.3773 l
c
s
n
0.8553 0.3360 m
0.8553 0.3540 l
0.8733 0.3540 l
0.8733 0.3360 l
c
GS
Color0 SRGB
fill
GR
[/Pattern /DeviceRGB] SCS
Color1 Pattern8 SC
fill
[/DeviceRGB] SCS
Color1 SC
n
0.8553 0.3360 m
0.8553 0.3540 l
0.8733 0.3540 l
0.8733 0.3360 l
0.8553 0.3360 l
c
s
n
0.9267 0.3102 m
0.9267 0.3282 l
0.9447 0.3282 l
0.9447 0.3102 l
c
GS
Color0 SRGB
fill
GR
[/Pattern /DeviceRGB] SCS
Color1 Pattern8 SC
fill
[/DeviceRGB] SCS
Color1 SC
n
0.9267 0.3102 m
0.9267 0.3282 l
0.9447 0.3282 l
0.9447 0.3102 l
0.9267 0.3102 l
c
s
n
0.9981 0.3076 m
0.9981 0.3256 l
1.0162 0.3256 l
1.0162 0.3076 l
c
GS
Color0 SRGB
fill
GR
[/Pattern /DeviceRGB] SCS
Color1 Pattern8 SC
fill
[/DeviceRGB] SCS
Color1 SC
n
0.9981 0.3076 m
0.9981 0.3256 l
1.0162 0.3256 l
1.0162 0.3076 l
0.9981 0.3076 l
c
s
n
1.0696 0.3357 m
1.0696 0.3537 l
1.0876 0.3537 l
1.0876 0.3357 l
c
GS
Color0 SRGB
fill
GR
[/Pattern /DeviceRGB] SCS
Color1 Pattern8 SC
fill
[/DeviceRGB] SCS
Color1 SC
n
1.0696 0.3357 m
1.0696 0.3537 l
1.0876 0.3537 l
1.0876 0.3357 l
1.0696 0.3357 l
c
s
n
1.1410 0.4043 m
1.1410 0.4224 l
1.1590 0.4224 l
1.1590 0.4043 l
c
GS
Color0 SRGB
fill
GR
[/Pattern /DeviceRGB] SCS
Color1 Pattern8 SC
fill
[/DeviceRGB] SCS
Color1 SC
n
1.1410 0.4043 m
1.1410 0.4224 l
1.1590 0.4224 l
1.1590 0.4043 l
1.1410 0.4043 l
c
s
[] 0 SD
0.0037 SLW
n
0.1499 0.8287 m
0.1500 0.8287 l
0.1571 0.8271 l
0.1643 0.8254 l
0.1714 0.8237 l
0.1786 0.8219 l
0.1857 0.8200 l
0.1929 0.8180 l
0.2000 0.8160 l
0.2071 0.8139 l
0.2143 0.8117 l
0.2214 0.8094 l
0.2286 0.8070 l
0.2357 0.8045 l
0.2429 0.8020 l
0.2500 0.7994 l
0.2571 0.7967 l
0.2643 0.7939 l
0.2714 0.7910 l
0.2786 0.7880 l
0.2857 0.7850 l
0.2929 0.7818 l
0.3000 0.7786 l
0.3071 0.7753 l
0.3143 0.7719 l
0.3214 0.7683 l
0.3286 0.7647 l
0.3357 0.7611 l
0.3429 0.7573 l
0.3500 0.7534 l
0.3571 0.7494 l
0.3643 0.7454 l
0.3714 0.7412 l
0.3786 0.7370 l
0.3857 0.7327 l
0.3929 0.7283 l
0.4000 0.7237 l
0.4071 0.7191 l
0.4143 0.7144 l
0.4214 0.7096 l
0.4286 0.7048 l
0.4357 0.6998 l
0.4429 0.6947 l
0.4500 0.6896 l
0.4571 0.6843 l
0.4643 0.6790 l
0.4714 0.6735 l
0.4786 0.6680 l
0.4857 0.6624 l
0.4929 0.6567 l
0.5000 0.6509 l
0.5071 0.6451 l
0.5143 0.6391 l
0.5214 0.6331 l
0.5286 0.6269 l
0.5357 0.6207 l
0.5429 0.6144 l
0.5500 0.6080 l
0.5571 0.6016 l
0.5643 0.5950 l
0.5714 0.5884 l
0.5786 0.5817 l
0.5857 0.5749 l
0.5929 0.5680 l
0.6000 0.5611 l
0.6071 0.5540 l
0.6143 0.5469 l
0.6214 0.5397 l
0.6286 0.5325 l
0.6357 0.5251 l
0.6429 0.5177 l
0.6500 0.5103 l
0.6571 0.5027 l
0.6643 0.4951 l
0.6714 0.4874 l
0.6786 0.4796 l
0.6857 0.4718 l
0.6929 0.4639 l
0.7000 0.4559 l
0.7071 0.4479 l
0.7143 0.4398 l
0.7214 0.4317 l
0.7286 0.4234 l
0.7357 0.4152 l
0.7429 0.4068 l
0.7500 0.3984 l
0.7571 0.3900 l
0.7643 0.3815 l
0.7714 0.3729 l
0.7786 0.3643 l
0.7857 0.3556 l
0.7929 0.3469 l
0.8000 0.3381 l
0.8071 0.3293 l
0.8143 0.3204 l
0.8214 0.3115 l
0.8286 0.3025 l
0.8357 0.2935 l
0.8429 0.2844 l
0.8500 0.2753 l
0.8571 0.2662 l
0.8643 0.2570 l
0.8714 0.2477 l
0.8786 0.2385 l
0.8857 0.2292 l
0.8929 0.2198 l
0.9000 0.2104 l
0.9071 0.2010 l
0.9143 0.1916 l
0.9214 0.1821 l
0.9286 0.1725 l
0.9357 0.1630 l
0.9429 0.1534 l
0.9455 0.1499 l
s
[/DeviceRGB] SCS
Color2 SC
[0.0187 0.0112 ] 0 SD
0.0037 SLW
n
0.1499 0.8286 m
0.1500 0.8286 l
0.1571 0.8270 l
0.1643 0.8253 l
0.1714 0.8236 l
0.1786 0.8217 l
0.1857 0.8198 l
0.1929 0.8179 l
0.2000 0.8158 l
0.2071 0.8137 l
0.2143 0.8115 l
0.2214 0.8092 l
0.2286 0.8068 l
0.2357 0.8044 l
0.2429 0.8018 l
0.2500 0.7992 l
0.2571 0.7965 l
0.2643 0.7937 l
0.2714 0.7908 l
0.2786 0.7878 l
0.2857 0.7848 l
0.2929 0.7816 l
0.3000 0.7784 l
0.3071 0.7751 l
0.3143 0.7717 l
0.3214 0.7682 l
0.3286 0.7646 l
0.3357 0.7609 l
0.3429 0.7571 l
0.3500 0.7533 l
0.3571 0.7493 l
0.3643 0.7453 l
0.3714 0.7411 l
0.3786 0.7369 l
0.3857 0.7326 l
0.3929 0.7282 l
0.4000 0.7237 l
0.4071 0.7191 l
0.4143 0.7145 l
0.4214 0.7097 l
0.4286 0.7048 l
0.4357 0.6999 l
0.4429 0.6949 l
0.4500 0.6898 l
0.4571 0.6845 l
0.4643 0.6793 l
0.4714 0.6739 l
0.4786 0.6684 l
0.4857 0.6628 l
0.4929 0.6572 l
0.5000 0.6515 l
0.5071 0.6457 l
0.5143 0.6398 l
0.5214 0.6338 l
0.5286 0.6277 l
0.5357 0.6216 l
0.5429 0.6154 l
0.5500 0.6091 l
0.5571 0.6027 l
0.5643 0.5962 l
0.5714 0.5897 l
0.5786 0.5831 l
0.5857 0.5764 l
0.5929 0.5696 l
0.6000 0.5627 l
0.6071 0.5558 l
0.6143 0.5488 l
0.6214 0.5418 l
0.6286 0.5346 l
0.6357 0.5274 l
0.6429 0.5201 l
0.6500 0.5128 l
0.6571 0.5054 l
0.6643 0.4979 l
0.6714 0.4903 l
0.6786 0.4827 l
0.6857 0.4751 l
0.6929 0.4673 l
0.7000 0.4595 l
0.7071 0.4517 l
0.7143 0.4438 l
0.7214 0.4358 l
0.7286 0.4278 l
0.7357 0.4197 l
0.7429 0.4115 l
0.7500 0.4033 l
0.7571 0.3951 l
0.7643 0.3868 l
0.7714 0.3784 l
0.7786 0.3700 l
0.7857 0.3616 l
0.7929 0.3531 l
0.8000 0.3445 l
0.8071 0.3359 l
0.8143 0.3273 l
0.8214 0.3186 l
0.8286 0.3099 l
0.8357 0.3011 l
0.8429 0.2923 l
0.8500 0.2835 l
0.8571 0.2746 l
0.8643 0.2657 l
0.8714 0.2568 l
0.8786 0.2478 l
0.8857 0.2388 l
0.8929 0.2297 l
0.9000 0.2206 l
0.9071 0.2115 l
0.9143 0.2024 l
0.9214 0.1932 l
0.9286 0.1840 l
0.9357 0.1748 l
0.9429 0.1655 l
0.9500 0.1562 l
0.9549 0.1499 l
s
[/DeviceRGB] SCS
Color4 SC
[0.0037 0.0112 0.0262 0.0112 ] 0 SD
0.0037 SLW
n
0.1499 0.8358 m
0.1500 0.8358 l
0.1571 0.8348 l
0.1643 0.8336 l
0.1714 0.8325 l
0.1786 0.8312 l
0.1857 0.8300 l
0.1929 0.8286 l
0.2000 0.8273 l
0.2071 0.8258 l
0.2143 0.8243 l
0.2214 0.8228 l
0.2286 0.8212 l
0.2357 0.8195 l
0.2429 0.8178 l
0.2500 0.8160 l
0.2571 0.8141 l
0.2643 0.8122 l
0.2714 0.8102 l
0.2786 0.8082 l
0.2857 0.8061 l
0.2929 0.8039 l
0.3000 0.8017 l
0.3071 0.7994 l
0.3143 0.7970 l
0.3214 0.7945 l
0.3286 0.7920 l
0.3357 0.7895 l
0.3429 0.7868 l
0.3500 0.7841 l
0.3571 0.7813 l
0.3643 0.7785 l
0.3714 0.7756 l
0.3786 0.7726 l
0.3857 0.7695 l
0.3929 0.7664 l
0.4000 0.7632 l
0.4071 0.7599 l
0.4143 0.7566 l
0.4214 0.7531 l
0.4286 0.7496 l
0.4357 0.7461 l
0.4429 0.7424 l
0.4500 0.7387 l
0.4571 0.7349 l
0.4643 0.7311 l
0.4714 0.7272 l
0.4786 0.7232 l
0.4857 0.7191 l
0.4929 0.7149 l
0.5000 0.7107 l
0.5071 0.7064 l
0.5143 0.7020 l
0.5214 0.6976 l
0.5286 0.6931 l
0.5357 0.6885 l
0.5429 0.6838 l
0.5500 0.6791 l
0.5571 0.6742 l
0.5643 0.6694 l
0.5714 0.6644 l
0.5786 0.6594 l
0.5857 0.6543 l
0.5929 0.6491 l
0.6000 0.6438 l
0.6071 0.6385 l
0.6143 0.6331 l
0.6214 0.6277 l
0.6286 0.6221 l
0.6357 0.6165 l
0.6429 0.6109 l
0.6500 0.6051 l
0.6571 0.5993 l
0.6643 0.5934 l
0.6714 0.5875 l
0.6786 0.5814 l
0.6857 0.5754 l
0.6929 0.5692 l
0.7000 0.5630 l
0.7071 0.5567 l
0.7143 0.5503 l
0.7214 0.5439 l
0.7286 0.5374 l
0.7357 0.5309 l
0.7429 0.5243 l
0.7500 0.5176 l
0.7571 0.5109 l
0.7643 0.5041 l
0.7714 0.4972 l
0.7786 0.4903 l
0.7857 0.4833 l
0.7929 0.4762 l
0.8000 0.4691 l
0.8071 0.4620 l
0.8143 0.4547 l
0.8214 0.4474 l
0.8286 0.4401 l
0.8357 0.4327 l
0.8429 0.4253 l
0.8500 0.4177 l
0.8571 0.4102 l
0.8643 0.4026 l
0.8714 0.3949 l
0.8786 0.3872 l
0.8857 0.3794 l
0.8929 0.3716 l
0.9000 0.3637 l
0.9071 0.3558 l
0.9143 0.3478 l
0.9214 0.3398 l
0.9286 0.3317 l
0.9357 0.3236 l
0.9429 0.3154 l
0.9500 0.3072 l
0.9571 0.2989 l
0.9643 0.2906 l
0.9714 0.2823 l
0.9786 0.2739 l
0.9857 0.2654 l
0.9929 0.2570 l
1.0000 0.2484 l
1.0071 0.2399 l
1.0143 0.2313 l
1.0214 0.2227 l
1.0286 0.2140 l
1.0357 0.2053 l
1.0429 0.1965 l
1.0500 0.1877 l
1.0571 0.1789 l
1.0643 0.1701 l
1.0714 0.1612 l
1.0786 0.1522 l
1.0804 0.1499 l
s
[/DeviceRGB] SCS
Color11 SC
[0.0037 0.0112 0.0187 0.0112 0.0037 0.0112 ] 0 SD
0.0037 SLW
n
0.1499 0.8287 m
0.1500 0.8287 l
0.1571 0.8271 l
0.1643 0.8254 l
0.1714 0.8237 l
0.1786 0.8219 l
0.1857 0.8200 l
0.1929 0.8180 l
0.2000 0.8160 l
0.2071 0.8139 l
0.2143 0.8117 l
0.2214 0.8094 l
0.2286 0.8070 l
0.2357 0.8045 l
0.2429 0.8020 l
0.2500 0.7994 l
0.2571 0.7967 l
0.2643 0.7939 l
0.2714 0.7910 l
0.2786 0.7880 l
0.2857 0.7850 l
0.2929 0.7818 l
0.3000 0.7786 l
0.3071 0.7753 l
0.3143 0.7719 l
0.3214 0.7683 l
0.3286 0.7647 l
0.3357 0.7611 l
0.3429 0.7573 l
0.3500 0.7534 l
0.3571 0.7494 l
0.3643 0.7454 l
0.3714 0.7412 l
0.3786 0.7370 l
0.3857 0.7327 l
0.3929 0.7283 l
0.4000 0.7237 l
0.4071 0.7191 l
0.4143 0.7144 l
0.4214 0.7096 l
0.4286 0.7048 l
0.4357 0.6998 l
0.4429 0.6947 l
0.4500 0.6896 l
0.4571 0.6843 l
0.4643 0.6790 l
0.4714 0.6735 l
0.4786 0.6680 l
0.4857 0.6624 l
0.4929 0.6567 l
0.5000 0.6509 l
0.5071 0.6451 l
0.5143 0.6391 l
0.5214 0.6331 l
0.5286 0.6269 l
0.5357 0.6207 l
0.5429 0.6144 l
0.5500 0.6080 l
0.5571 0.6016 l
0.5643 0.5950 l
0.5714 0.5884 l
0.5786 0.5817 l
0.5857 0.5749 l
0.5929 0.5680 l
0.6000 0.5611 l
0.6071 0.5540 l
0.6143 0.5469 l
0.6214 0.5397 l
0.6286 0.5325 l
0.6357 0.5251 l
0.6429 0.5177 l
0.6500 0.5103 l
0.6571 0.5027 l
0.6643 0.4951 l
0.6714 0.4874 l
0.6786 0.4796 l
0.6857 0.4718 l
0.6929 0.4639 l
0.7000 0.4559 l
0.7071 0.4479 l
0.7143 0.4398 l
0.7214 0.4317 l
0.7286 0.4234 l
0.7357 0.4152 l
0.7429 0.4068 l
0.7500 0.3984 l
0.7571 0.3900 l
0.7643 0.3815 l
0.7714 0.3729 l
0.7786 0.3643 l
0.7857 0.3556 l
0.7929 0.3469 l
0.8000 0.3381 l
0.8071 0.3293 l
0.8143 0.3204 l
0.8214 0.3115 l
0.8286 0.3025 l
0.8357 0.2935 l
0.8429 0.2844 l
0.8500 0.2753 l
0.8571 0.2662 l
0.8643 0.2570 l
0.8714 0.2477 l
0.8786 0.2385 l
0.8857 0.2292 l
0.8929 0.2198 l
0.9000 0.2104 l
0.9071 0.2010 l
0.9143 0.1916 l
0.9214 0.1821 l
0.9286 0.1725 l
0.9357 0.1630 l
0.9429 0.1534 l
0.9455 0.1499 l
s
[/DeviceRGB] SCS
Color1 SC
[] 0 SD
0.0045 SLW
n
0.1500 0.1500 m
1.1500 0.1500 l
s
n
0.1500 0.8500 m
1.1500 0.8500 l
s
n
0.2214 0.1500 m
0.2214 0.1600 l
s
n
0.2214 0.8500 m
0.2214 0.8400 l
s
n
0.3643 0.1500 m
0.3643 0.1600 l
s
n
0.3643 0.8500 m
0.3643 0.8400 l
s
n
0.5071 0.1500 m
0.5071 0.1600 l
s
n
0.5071 0.8500 m
0.5071 0.8400 l
s
n
0.6500 0.1500 m
0.6500 0.1600 l
s
n
0.6500 0.8500 m
0.6500 0.8400 l
s
n
0.7929 0.1500 m
0.7929 0.1600 l
s
n
0.7929 0.8500 m
0.7929 0.8400 l
s
n
0.9357 0.1500 m
0.9357 0.1600 l
s
n
0.9357 0.8500 m
0.9357 0.8400 l
s
n
1.0786 0.1500 m
1.0786 0.1600 l
s
n
1.0786 0.8500 m
1.0786 0.8400 l
s
n
0.1500 0.1500 m
0.1500 0.1700 l
s
n
0.1500 0.8500 m
0.1500 0.8300 l
s
n
0.2929 0.1500 m
0.2929 0.1700 l
s
n
0.2929 0.8500 m
0.2929 0.8300 l
s
n
0.4357 0.1500 m
0.4357 0.1700 l
s
n
0.4357 0.8500 m
0.4357 0.8300 l
s
n
0.5786 0.1500 m
0.5786 0.1700 l
s
n
0.5786 0.8500 m
0.5786 0.8300 l
s
n
0.7214 0.1500 m
0.7214 0.1700 l
s
n
0.7214 0.8500 m
0.7214 0.8300 l
s
n
0.8643 0.1500 m
0.8643 0.1700 l
s
n
0.8643 0.8500 m
0.8643 0.8300 l
s
n
1.0071 0.1500 m
1.0071 0.1700 l
s
n
1.0071 0.8500 m
1.0071 0.8300 l
s
n
0.1500 0.1500 m
0.1500 0.8500 l
s
n
1.1500 0.1500 m
1.1500 0.8500 l
s
n
0.1500 0.2375 m
0.1600 0.2375 l
s
n
1.1500 0.2375 m
1.1400 0.2375 l
s
n
0.1500 0.4125 m
0.1600 0.4125 l
s
n
1.1500 0.4125 m
1.1400 0.4125 l
s
n
0.1500 0.5875 m
0.1600 0.5875 l
s
n
1.1500 0.5875 m
1.1400 0.5875 l
s
n
0.1500 0.7625 m
0.1600 0.7625 l
s
n
1.1500 0.7625 m
1.1400 0.7625 l
s
n
0.1500 0.1500 m
0.1700 0.1500 l
s
n
1.1500 0.1500 m
1.1300 0.1500 l
s
n
0.1500 0.3250 m
0.1700 0.3250 l
s
n
1.1500 0.3250 m
1.1300 0.3250 l
s
n
0.1500 0.5000 m
0.1700 0.5000 l
s
n
1.1500 0.5000 m
1.1300 0.5000 l
s
n
0.1500 0.6750 m
0.1700 0.6750 l
s
n
1.1500 0.6750 m
1.1300 0.6750 l
s
n
0.1500 0.8500 m
0.1700 0.8500 l
s
n
1.1500 0.8500 m
1.1300 0.8500 l
s
/Times-Roman findfont
dup length dict begin
 {1 index /FID ne {def} {pop pop} ifelse} forall
 /Encoding DefEncoding def
 currentdict
end
/Font0 exch definefont pop
/Font0 FFSF
0.0816 0.1351 m
GS
[0.0448 0.0000 0.0000 0.0448 0 0] CC
(-20) show
GR
/Font0 FFSF
0.0831 0.3099 m
GS
[0.0448 0.0000 0.0000 0.0448 0 0] CC
(-15) show
GR
/Font0 FFSF
0.0816 0.4851 m
GS
[0.0448 0.0000 0.0000 0.0448 0 0] CC
(-10) show
GR
/Font0 FFSF
0.1055 0.6599 m
GS
[0.0448 0.0000 0.0000 0.0448 0 0] CC
(-5) show
GR
/Font0 FFSF
0.1188 0.8351 m
GS
[0.0448 0.0000 0.0000 0.0448 0 0] CC
(0) show
GR
/Font0 FFSF
0.0677 0.4335 m
GS
[0.0000 0.0504 -0.0504 0.0000 0 0] CC
([MeV]) show
GR
[] 0 SD
0.0015 SLW
n
0.1500 0.1500 m
0.1500 0.8500 l
1.1500 0.8500 l
1.1500 0.1500 l
0.1500 0.1500 l
c
s
n
0.8640 0.8500 m
0.8640 0.6663 l
1.1488 0.6663 l
1.1488 0.8500 l
c
[/DeviceRGB] SCS
Color0 SC
fill
[/DeviceRGB] SCS
Color1 SC
[] 0 SD
0.0045 SLW
n
0.8640 0.8500 m
0.8640 0.6663 l
1.1488 0.6663 l
1.1488 0.8500 l
0.8640 0.8500 l
c
s
/Font0 FFSF
0.9765 0.8071 m
GS
[0.0487 0.0000 0.0000 0.0487 0 0] CC
(D1S) show
GR
[] 0 SD
0.0037 SLW
n
0.8759 0.8231 m
0.9559 0.8231 l
s
/Font0 FFSF
0.9765 0.7633 m
GS
[0.0487 0.0000 0.0000 0.0487 0 0] CC
(D1N) show
GR
[/DeviceRGB] SCS
Color2 SC
[0.0187 0.0112 ] 0 SD
0.0037 SLW
n
0.8759 0.7796 m
0.9559 0.7796 l
s
/Font0 FFSF
[/DeviceRGB] SCS
Color1 SC
0.9765 0.7200 m
GS
[0.0487 0.0000 0.0000 0.0487 0 0] CC
(D1M) show
GR
[/DeviceRGB] SCS
Color4 SC
[0.0037 0.0112 0.0262 0.0112 ] 0 SD
0.0037 SLW
n
0.8759 0.7365 m
0.9559 0.7365 l
s
/Font0 FFSF
[/DeviceRGB] SCS
Color1 SC
0.9765 0.6771 m
GS
[0.0487 0.0000 0.0000 0.0487 0 0] CC
(D1ST2a) show
GR
[/DeviceRGB] SCS
Color11 SC
[0.0037 0.0112 0.0187 0.0112 0.0037 0.0112 ] 0 SD
0.0037 SLW
n
0.8759 0.6931 m
0.9559 0.6931 l
s
/Font0 FFSF
[/DeviceRGB] SCS
Color1 SC
0.2000 0.2992 m
GS
[0.0580 0.0000 0.0000 0.0580 0 0] CC
(1) show
GR
/Font0 FFSF
0.2290 0.2500 m
GS
[0.0820 0.0000 0.0000 0.0820 0 0] CC
(S) show
GR
/Font0 FFSF
0.2745 0.2172 m
GS
[0.0580 0.0000 0.0000 0.0580 0 0] CC
(0) show
GR
showpage
%%PageTrailer
%%Trailer
%%DocumentNeededResources: font Times-Roman
%%EOF
