%!PS-Adobe-3.0
%%BoundingBox: 0 0 612 792
%%LanguageLevel: 2
%%Creator: Grace-5.1.25
%%CreationDate: Tue Dec  1 11:50:30 2015
%%DocumentData: Clean8Bit
%%Orientation: Landscape
%%Pages: 1
%%PageOrder: Ascend
%%Title: /Users/ap1450/Dropbox/Physics_Reports_LR/ST_channel_finite_range/Vers2/plots/JLS_gogny4.agr
%%For: ap1450
%%DocumentNeededResources: (atend)
%%EndComments
%%BeginProlog
/PAGE_OFFSET_X 0 def
/PAGE_OFFSET_Y 0 def
/m {moveto} def
/l {lineto} def
/s {stroke} def
/n {newpath} def
/c {closepath} def
/RL {rlineto} def
/SLW {setlinewidth} def
/GS {gsave} def
/GR {grestore} def
/SC {setcolor} def
/SGRY {setgray} def
/SRGB {setrgbcolor} def
/SD {setdash} def
/SLC {setlinecap} def
/SLJ {setlinejoin} def
/SCS {setcolorspace} def
/FFSF {findfont setfont} def
/CC {concat} def
/PXL {n m 0 0 RL s} def
/Color0 {1.0000 1.0000 1.0000} def
/Color1 {0.0000 0.0000 0.0000} def
/Color2 {1.0000 0.0000 0.0000} def
/Color3 {0.0000 1.0000 0.0000} def
/Color4 {0.0000 0.0000 1.0000} def
/Color5 {1.0000 1.0000 0.0000} def
/Color6 {0.7373 0.5608 0.5608} def
/Color7 {0.8627 0.8627 0.8627} def
/Color8 {0.5804 0.0000 0.8275} def
/Color9 {0.0000 1.0000 1.0000} def
/Color10 {1.0000 0.0000 1.0000} def
/Color11 {1.0000 0.6471 0.0000} def
/Color12 {0.4471 0.1294 0.7373} def
/Color13 {0.4039 0.0275 0.2824} def
/Color14 {0.2510 0.8784 0.8157} def
/Color15 {0.0000 0.5451 0.0000} def
/Color16 {0.7529 0.7529 0.7529} def
/Color17 {0.5059 0.5059 0.5059} def
/Color18 {0.2588 0.2588 0.2588} def
/PTRN {
 /pat_bits exch def 
 <<
  /PaintType 2
  /PatternType 1 /TilingType 1
  /BBox[0 0 16 16]
  /XStep 16 /YStep 16
  /PaintProc {
   pop
   16 16 true [-1 0 0 -1 16 16] pat_bits imagemask
  }
 >>
 [0.0016 0 0 0.0016 0 0]
 makepattern
} def
/Pattern0 {<0000000000000000000000000000000000000000000000000000000000000000> PTRN} bind def
/Pattern1 {<ffffffffffffffffffffffffffffffffffffffffffffffffffffffffffffffff> PTRN} bind def
/Pattern2 {<eeeeffffbbbbffffeeeeffffbbbbffffeeeeffffbbbbffffeeeeffffbbbbffff> PTRN} bind def
/Pattern3 {<eeeebbbbeeeebbbbeeeebbbbeeeebbbbeeeebbbbeeeebbbbeeeebbbbeeeebbbb> PTRN} bind def
/Pattern4 {<5555aaaa5555aaaa5555aaaa5555aaaa5555aaaa5555aaaa5555aaaa5555aaaa> PTRN} bind def
/Pattern5 {<1111444411114444111144441111444411114444111144441111444411114444> PTRN} bind def
/Pattern6 {<1111000044440000111100004444000011110000444400001111000044440000> PTRN} bind def
/Pattern7 {<1010000000000000010100000000000010100000000000000101000000000000> PTRN} bind def
/Pattern8 {<0000000000000000000000000000000000000000000000000000000000000000> PTRN} bind def
/Pattern9 {<1e1e0f0f8787c3c3e1e1f0f078783c3c1e1e0f0f8787c3c3e1e1f0f078783c3c> PTRN} bind def
/Pattern10 {<7878f0f0e1e1c3c387870f0f1e1e3c3c7878f0f0e1e1c3c387870f0f1e1e3c3c> PTRN} bind def
/Pattern11 {<3333333333333333333333333333333333333333333333333333333333333333> PTRN} bind def
/Pattern12 {<ffffffff00000000ffffffff00000000ffffffff00000000ffffffff00000000> PTRN} bind def
/Pattern13 {<8181424224241818181824244242818181814242242418181818242442428181> PTRN} bind def
/Pattern14 {<8080404020201010080804040202010180804040202010100808040402020101> PTRN} bind def
/Pattern15 {<0101020204040808101020204040808001010202040408081010202040408080> PTRN} bind def
/Pattern16 {<2222222222222222222222222222222222222222222222222222222222222222> PTRN} bind def
/Pattern17 {<0000ffff000000000000ffff000000000000ffff000000000000ffff00000000> PTRN} bind def
/Pattern18 {<2222ffff222222222222ffff222222222222ffff222222222222ffff22222222> PTRN} bind def
/Pattern19 {<ffffffff33333333ffffffff33333333ffffffff33333333ffffffff33333333> PTRN} bind def
/Pattern20 {<0f0f0f0f0f0f0f0ff0f0f0f0f0f0f0f00f0f0f0f0f0f0f0ff0f0f0f0f0f0f0f0> PTRN} bind def
/Pattern21 {<ff00ff00ff00ff00ff00ff00ff00ff0000ff00ff00ff00ff00ff00ff00ff00ff> PTRN} bind def
/Pattern22 {<8001800180018001800180018001ffffffff8001800180018001800180018001> PTRN} bind def
/Pattern23 {<c003c003c003c003c003c003ffffffffffffffffc003c003c003c003c003c003> PTRN} bind def
/Pattern24 {<040404040404ffff404040404040ffff040404040404ffff404040404040ffff> PTRN} bind def
/Pattern25 {<180018001800180018001800ffffffff001800180018001800180018ffffffff> PTRN} bind def
/Pattern26 {<1111b8b87c7c3a3a1111a3a3c7c78b8b1111b8b87c7c3a3a1111a3a3c7c78b8b> PTRN} bind def
/Pattern27 {<101010102828c7c70101010182827c7c101010102828c7c70101010182827c7c> PTRN} bind def
/Pattern28 {<1c1c121211112121c1c12121111112121c1c121211112121c1c1212111111212> PTRN} bind def
/Pattern29 {<3e3e414180808080e3e31414080808083e3e414180808080e3e3141408080808> PTRN} bind def
/Pattern30 {<4848888884848383848488884848383848488888848483838484888848483838> PTRN} bind def
/Pattern31 {<03030404080808080c0c12122121c0c003030404080808080c0c12122121c0c0> PTRN} bind def
/ellipsedict 8 dict def
ellipsedict /mtrx matrix put
/EARC {
 ellipsedict begin
  /endangle exch def
  /startangle exch def
  /yrad exch def
  /xrad exch def
  /y exch def
  /x exch def
  /savematrix mtrx currentmatrix def
  x y translate
  xrad yrad scale
  0 0 1 startangle endangle arc
  savematrix setmatrix
 end
} def
/TL {
  /kcomp exch def
  /linewidth exch def
  /offset exch def
  GS
  0 offset rmoveto
  linewidth SLW
  dup stringwidth exch kcomp add exch RL s
  GR
} def
/KINIT
{
 /kvector exch def
 /kid 0 def
} def
/KPROC
{
 pop pop
 kvector kid get
 0 rmoveto
 /kid 1 kid add def
} def
/DefEncoding [
 /.notdef
 /.notdef
 /.notdef
 /.notdef
 /.notdef
 /.notdef
 /.notdef
 /.notdef
 /.notdef
 /.notdef
 /.notdef
 /.notdef
 /.notdef
 /.notdef
 /.notdef
 /.notdef
 /.notdef
 /.notdef
 /.notdef
 /.notdef
 /.notdef
 /.notdef
 /.notdef
 /.notdef
 /.notdef
 /.notdef
 /.notdef
 /.notdef
 /.notdef
 /.notdef
 /.notdef
 /.notdef
 /space
 /exclam
 /quotedbl
 /numbersign
 /dollar
 /percent
 /ampersand
 /quoteright
 /parenleft
 /parenright
 /asterisk
 /plus
 /comma
 /hyphen
 /period
 /slash
 /zero
 /one
 /two
 /three
 /four
 /five
 /six
 /seven
 /eight
 /nine
 /colon
 /semicolon
 /less
 /equal
 /greater
 /question
 /at
 /A
 /B
 /C
 /D
 /E
 /F
 /G
 /H
 /I
 /J
 /K
 /L
 /M
 /N
 /O
 /P
 /Q
 /R
 /S
 /T
 /U
 /V
 /W
 /X
 /Y
 /Z
 /bracketleft
 /backslash
 /bracketright
 /asciicircum
 /underscore
 /grave
 /a
 /b
 /c
 /d
 /e
 /f
 /g
 /h
 /i
 /j
 /k
 /l
 /m
 /n
 /o
 /p
 /q
 /r
 /s
 /t
 /u
 /v
 /w
 /x
 /y
 /z
 /braceleft
 /bar
 /braceright
 /asciitilde
 /.notdef
 /.notdef
 /.notdef
 /.notdef
 /.notdef
 /.notdef
 /.notdef
 /.notdef
 /.notdef
 /.notdef
 /.notdef
 /.notdef
 /.notdef
 /.notdef
 /.notdef
 /.notdef
 /.notdef
 /.notdef
 /.notdef
 /.notdef
 /.notdef
 /.notdef
 /.notdef
 /.notdef
 /.notdef
 /.notdef
 /.notdef
 /.notdef
 /.notdef
 /.notdef
 /.notdef
 /.notdef
 /.notdef
 /space
 /exclamdown
 /cent
 /sterling
 /currency
 /yen
 /brokenbar
 /section
 /dieresis
 /copyright
 /ordfeminine
 /guillemotleft
 /logicalnot
 /hyphen
 /registered
 /macron
 /degree
 /plusminus
 /twosuperior
 /threesuperior
 /acute
 /mu
 /paragraph
 /periodcentered
 /cedilla
 /onesuperior
 /ordmasculine
 /guillemotright
 /onequarter
 /onehalf
 /threequarters
 /questiondown
 /Agrave
 /Aacute
 /Acircumflex
 /Atilde
 /Adieresis
 /Aring
 /AE
 /Ccedilla
 /Egrave
 /Eacute
 /Ecircumflex
 /Edieresis
 /Igrave
 /Iacute
 /Icircumflex
 /Idieresis
 /Eth
 /Ntilde
 /Ograve
 /Oacute
 /Ocircumflex
 /Otilde
 /Odieresis
 /multiply
 /Oslash
 /Ugrave
 /Uacute
 /Ucircumflex
 /Udieresis
 /Yacute
 /Thorn
 /germandbls
 /agrave
 /aacute
 /acircumflex
 /atilde
 /adieresis
 /aring
 /ae
 /ccedilla
 /egrave
 /eacute
 /ecircumflex
 /edieresis
 /igrave
 /iacute
 /icircumflex
 /idieresis
 /eth
 /ntilde
 /ograve
 /oacute
 /ocircumflex
 /otilde
 /odieresis
 /divide
 /oslash
 /ugrave
 /uacute
 /ucircumflex
 /udieresis
 /yacute
 /thorn
 /ydieresis
] def
%%EndProlog
%%BeginSetup
%%EndSetup
%%Page: 1 1
PAGE_OFFSET_X PAGE_OFFSET_Y translate
612.00 612.00 scale
90 rotate
0.0 -1.0 translate
n
0.4267 0.4293 m
0.4267 0.4473 l
0.4447 0.4473 l
0.4447 0.4293 l
c
GS
[/DeviceRGB] SCS
Color0 SRGB
fill
GR
[/Pattern /DeviceRGB] SCS
Color1 Pattern8 SC
fill
[/DeviceRGB] SCS
Color1 SC
[] 0 SD
0.0045 SLW
0 SLC
0 SLJ
n
0.4267 0.4293 m
0.4267 0.4473 l
0.4447 0.4473 l
0.4447 0.4293 l
0.4267 0.4293 l
c
s
n
0.4981 0.4178 m
0.4981 0.4358 l
0.5162 0.4358 l
0.5162 0.4178 l
c
GS
Color0 SRGB
fill
GR
[/Pattern /DeviceRGB] SCS
Color1 Pattern8 SC
fill
[/DeviceRGB] SCS
Color1 SC
n
0.4981 0.4178 m
0.4981 0.4358 l
0.5162 0.4358 l
0.5162 0.4178 l
0.4981 0.4178 l
c
s
n
0.5696 0.4034 m
0.5696 0.4214 l
0.5876 0.4214 l
0.5876 0.4034 l
c
GS
Color0 SRGB
fill
GR
[/Pattern /DeviceRGB] SCS
Color1 Pattern8 SC
fill
[/DeviceRGB] SCS
Color1 SC
n
0.5696 0.4034 m
0.5696 0.4214 l
0.5876 0.4214 l
0.5876 0.4034 l
0.5696 0.4034 l
c
s
n
0.6410 0.3860 m
0.6410 0.4040 l
0.6590 0.4040 l
0.6590 0.3860 l
c
GS
Color0 SRGB
fill
GR
[/Pattern /DeviceRGB] SCS
Color1 Pattern8 SC
fill
[/DeviceRGB] SCS
Color1 SC
n
0.6410 0.3860 m
0.6410 0.4040 l
0.6590 0.4040 l
0.6590 0.3860 l
0.6410 0.3860 l
c
s
n
0.7124 0.3657 m
0.7124 0.3837 l
0.7304 0.3837 l
0.7304 0.3657 l
c
GS
Color0 SRGB
fill
GR
[/Pattern /DeviceRGB] SCS
Color1 Pattern8 SC
fill
[/DeviceRGB] SCS
Color1 SC
n
0.7124 0.3657 m
0.7124 0.3837 l
0.7304 0.3837 l
0.7304 0.3657 l
0.7124 0.3657 l
c
s
n
0.7838 0.3424 m
0.7838 0.3604 l
0.8019 0.3604 l
0.8019 0.3424 l
c
GS
Color0 SRGB
fill
GR
[/Pattern /DeviceRGB] SCS
Color1 Pattern8 SC
fill
[/DeviceRGB] SCS
Color1 SC
n
0.7838 0.3424 m
0.7838 0.3604 l
0.8019 0.3604 l
0.8019 0.3424 l
0.7838 0.3424 l
c
s
n
0.8553 0.3159 m
0.8553 0.3339 l
0.8733 0.3339 l
0.8733 0.3159 l
c
GS
Color0 SRGB
fill
GR
[/Pattern /DeviceRGB] SCS
Color1 Pattern8 SC
fill
[/DeviceRGB] SCS
Color1 SC
n
0.8553 0.3159 m
0.8553 0.3339 l
0.8733 0.3339 l
0.8733 0.3159 l
0.8553 0.3159 l
c
s
n
0.9267 0.2860 m
0.9267 0.3040 l
0.9447 0.3040 l
0.9447 0.2860 l
c
GS
Color0 SRGB
fill
GR
[/Pattern /DeviceRGB] SCS
Color1 Pattern8 SC
fill
[/DeviceRGB] SCS
Color1 SC
n
0.9267 0.2860 m
0.9267 0.3040 l
0.9447 0.3040 l
0.9447 0.2860 l
0.9267 0.2860 l
c
s
n
0.9981 0.2518 m
0.9981 0.2698 l
1.0162 0.2698 l
1.0162 0.2518 l
c
GS
Color0 SRGB
fill
GR
[/Pattern /DeviceRGB] SCS
Color1 Pattern8 SC
fill
[/DeviceRGB] SCS
Color1 SC
n
0.9981 0.2518 m
0.9981 0.2698 l
1.0162 0.2698 l
1.0162 0.2518 l
0.9981 0.2518 l
c
s
n
1.0696 0.2128 m
1.0696 0.2309 l
1.0876 0.2309 l
1.0876 0.2128 l
c
GS
Color0 SRGB
fill
GR
[/Pattern /DeviceRGB] SCS
Color1 Pattern8 SC
fill
[/DeviceRGB] SCS
Color1 SC
n
1.0696 0.2128 m
1.0696 0.2309 l
1.0876 0.2309 l
1.0876 0.2128 l
1.0696 0.2128 l
c
s
n
1.1410 0.1679 m
1.1410 0.1860 l
1.1590 0.1860 l
1.1590 0.1679 l
c
GS
Color0 SRGB
fill
GR
[/Pattern /DeviceRGB] SCS
Color1 Pattern8 SC
fill
[/DeviceRGB] SCS
Color1 SC
n
1.1410 0.1679 m
1.1410 0.1860 l
1.1590 0.1860 l
1.1590 0.1679 l
1.1410 0.1679 l
c
s
[] 0 SD
0.0037 SLW
n
0.1499 0.4612 m
0.1500 0.4612 l
0.1571 0.4612 l
0.1643 0.4612 l
0.1714 0.4612 l
0.1786 0.4613 l
0.1857 0.4613 l
0.1929 0.4613 l
0.2000 0.4613 l
0.2071 0.4613 l
0.2143 0.4614 l
0.2214 0.4614 l
0.2286 0.4614 l
0.2357 0.4614 l
0.2429 0.4615 l
0.2500 0.4615 l
0.2571 0.4616 l
0.2643 0.4616 l
0.2714 0.4616 l
0.2786 0.4617 l
0.2857 0.4617 l
0.2929 0.4618 l
0.3000 0.4619 l
0.3071 0.4619 l
0.3143 0.4620 l
0.3214 0.4621 l
0.3286 0.4621 l
0.3357 0.4622 l
0.3429 0.4623 l
0.3500 0.4624 l
0.3571 0.4625 l
0.3643 0.4626 l
0.3714 0.4627 l
0.3786 0.4628 l
0.3857 0.4629 l
0.3929 0.4631 l
0.4000 0.4632 l
0.4071 0.4633 l
0.4143 0.4635 l
0.4214 0.4637 l
0.4286 0.4638 l
0.4357 0.4640 l
0.4429 0.4642 l
0.4500 0.4644 l
0.4571 0.4646 l
0.4643 0.4648 l
0.4714 0.4650 l
0.4786 0.4652 l
0.4857 0.4655 l
0.4929 0.4658 l
0.5000 0.4660 l
0.5071 0.4663 l
0.5143 0.4666 l
0.5214 0.4669 l
0.5286 0.4672 l
0.5357 0.4676 l
0.5429 0.4679 l
0.5500 0.4683 l
0.5571 0.4687 l
0.5643 0.4690 l
0.5714 0.4695 l
0.5786 0.4699 l
0.5857 0.4703 l
0.5929 0.4708 l
0.6000 0.4713 l
0.6071 0.4718 l
0.6143 0.4723 l
0.6214 0.4728 l
0.6286 0.4734 l
0.6357 0.4740 l
0.6429 0.4746 l
0.6500 0.4752 l
0.6571 0.4759 l
0.6643 0.4765 l
0.6714 0.4772 l
0.6786 0.4780 l
0.6857 0.4787 l
0.6929 0.4795 l
0.7000 0.4803 l
0.7071 0.4811 l
0.7143 0.4820 l
0.7214 0.4829 l
0.7286 0.4838 l
0.7357 0.4847 l
0.7429 0.4857 l
0.7500 0.4867 l
0.7571 0.4878 l
0.7643 0.4889 l
0.7714 0.4900 l
0.7786 0.4911 l
0.7857 0.4923 l
0.7929 0.4935 l
0.8000 0.4948 l
0.8071 0.4961 l
0.8143 0.4974 l
0.8214 0.4988 l
0.8286 0.5002 l
0.8357 0.5017 l
0.8429 0.5032 l
0.8500 0.5047 l
0.8571 0.5063 l
0.8643 0.5080 l
0.8714 0.5097 l
0.8786 0.5114 l
0.8857 0.5132 l
0.8929 0.5150 l
0.9000 0.5169 l
0.9071 0.5189 l
0.9143 0.5209 l
0.9214 0.5229 l
0.9286 0.5250 l
0.9357 0.5272 l
0.9429 0.5294 l
0.9500 0.5317 l
0.9571 0.5340 l
0.9643 0.5364 l
0.9714 0.5389 l
0.9786 0.5414 l
0.9857 0.5440 l
0.9929 0.5467 l
1.0000 0.5494 l
1.0071 0.5522 l
1.0143 0.5550 l
1.0214 0.5580 l
1.0286 0.5610 l
1.0357 0.5641 l
1.0429 0.5672 l
1.0500 0.5705 l
1.0571 0.5738 l
1.0643 0.5772 l
1.0714 0.5807 l
1.0786 0.5842 l
1.0857 0.5879 l
1.0929 0.5916 l
1.1000 0.5954 l
1.1071 0.5993 l
1.1143 0.6033 l
1.1214 0.6074 l
1.1286 0.6116 l
1.1357 0.6159 l
1.1429 0.6203 l
1.1500 0.6247 l
1.1501 0.6248 l
s
[/DeviceRGB] SCS
Color2 SC
[0.0187 0.0112 ] 0 SD
0.0037 SLW
n
0.1499 0.4611 m
0.1500 0.4611 l
0.1571 0.4611 l
0.1643 0.4611 l
0.1714 0.4611 l
0.1786 0.4611 l
0.1857 0.4611 l
0.1929 0.4611 l
0.2000 0.4611 l
0.2071 0.4611 l
0.2143 0.4611 l
0.2214 0.4610 l
0.2286 0.4610 l
0.2357 0.4610 l
0.2429 0.4610 l
0.2500 0.4610 l
0.2571 0.4610 l
0.2643 0.4610 l
0.2714 0.4610 l
0.2786 0.4610 l
0.2857 0.4610 l
0.2929 0.4610 l
0.3000 0.4610 l
0.3071 0.4610 l
0.3143 0.4610 l
0.3214 0.4610 l
0.3286 0.4610 l
0.3357 0.4610 l
0.3429 0.4610 l
0.3500 0.4610 l
0.3571 0.4610 l
0.3643 0.4610 l
0.3714 0.4610 l
0.3786 0.4610 l
0.3857 0.4611 l
0.3929 0.4611 l
0.4000 0.4611 l
0.4071 0.4611 l
0.4143 0.4611 l
0.4214 0.4612 l
0.4286 0.4612 l
0.4357 0.4612 l
0.4429 0.4613 l
0.4500 0.4613 l
0.4571 0.4613 l
0.4643 0.4614 l
0.4714 0.4615 l
0.4786 0.4615 l
0.4857 0.4616 l
0.4929 0.4617 l
0.5000 0.4617 l
0.5071 0.4618 l
0.5143 0.4619 l
0.5214 0.4620 l
0.5286 0.4622 l
0.5357 0.4623 l
0.5429 0.4624 l
0.5500 0.4625 l
0.5571 0.4627 l
0.5643 0.4629 l
0.5714 0.4630 l
0.5786 0.4632 l
0.5857 0.4634 l
0.5929 0.4637 l
0.6000 0.4639 l
0.6071 0.4641 l
0.6143 0.4644 l
0.6214 0.4647 l
0.6286 0.4650 l
0.6357 0.4653 l
0.6429 0.4656 l
0.6500 0.4660 l
0.6571 0.4663 l
0.6643 0.4667 l
0.6714 0.4672 l
0.6786 0.4676 l
0.6857 0.4681 l
0.6929 0.4686 l
0.7000 0.4691 l
0.7071 0.4696 l
0.7143 0.4702 l
0.7214 0.4708 l
0.7286 0.4714 l
0.7357 0.4721 l
0.7429 0.4728 l
0.7500 0.4735 l
0.7571 0.4743 l
0.7643 0.4751 l
0.7714 0.4759 l
0.7786 0.4768 l
0.7857 0.4777 l
0.7929 0.4786 l
0.8000 0.4796 l
0.8071 0.4807 l
0.8143 0.4818 l
0.8214 0.4829 l
0.8286 0.4841 l
0.8357 0.4853 l
0.8429 0.4866 l
0.8500 0.4879 l
0.8571 0.4893 l
0.8643 0.4907 l
0.8714 0.4922 l
0.8786 0.4938 l
0.8857 0.4954 l
0.8929 0.4971 l
0.9000 0.4988 l
0.9071 0.5006 l
0.9143 0.5025 l
0.9214 0.5044 l
0.9286 0.5064 l
0.9357 0.5085 l
0.9429 0.5107 l
0.9500 0.5129 l
0.9571 0.5152 l
0.9643 0.5176 l
0.9714 0.5200 l
0.9786 0.5226 l
0.9857 0.5252 l
0.9929 0.5279 l
1.0000 0.5307 l
1.0071 0.5336 l
1.0143 0.5366 l
1.0214 0.5397 l
1.0286 0.5429 l
1.0357 0.5461 l
1.0429 0.5495 l
1.0500 0.5530 l
1.0571 0.5566 l
1.0643 0.5602 l
1.0714 0.5640 l
1.0786 0.5679 l
1.0857 0.5720 l
1.0929 0.5761 l
1.1000 0.5803 l
1.1071 0.5847 l
1.1143 0.5892 l
1.1214 0.5938 l
1.1286 0.5985 l
1.1357 0.6034 l
1.1429 0.6084 l
1.1500 0.6135 l
1.1501 0.6136 l
s
[/DeviceRGB] SCS
Color4 SC
[0.0037 0.0112 0.0187 0.0112 ] 0 SD
0.0037 SLW
n
0.1499 0.4611 m
0.1500 0.4611 l
0.1571 0.4610 l
0.1643 0.4610 l
0.1714 0.4610 l
0.1786 0.4610 l
0.1857 0.4610 l
0.1929 0.4610 l
0.2000 0.4610 l
0.2071 0.4610 l
0.2143 0.4610 l
0.2214 0.4609 l
0.2286 0.4609 l
0.2357 0.4609 l
0.2429 0.4609 l
0.2500 0.4609 l
0.2571 0.4609 l
0.2643 0.4608 l
0.2714 0.4608 l
0.2786 0.4608 l
0.2857 0.4608 l
0.2929 0.4607 l
0.3000 0.4607 l
0.3071 0.4607 l
0.3143 0.4607 l
0.3214 0.4606 l
0.3286 0.4606 l
0.3357 0.4606 l
0.3429 0.4605 l
0.3500 0.4605 l
0.3571 0.4605 l
0.3643 0.4604 l
0.3714 0.4604 l
0.3786 0.4604 l
0.3857 0.4603 l
0.3929 0.4603 l
0.4000 0.4603 l
0.4071 0.4602 l
0.4143 0.4602 l
0.4214 0.4601 l
0.4286 0.4601 l
0.4357 0.4601 l
0.4429 0.4600 l
0.4500 0.4600 l
0.4571 0.4599 l
0.4643 0.4599 l
0.4714 0.4599 l
0.4786 0.4598 l
0.4857 0.4598 l
0.4929 0.4598 l
0.5000 0.4597 l
0.5071 0.4597 l
0.5143 0.4597 l
0.5214 0.4596 l
0.5286 0.4596 l
0.5357 0.4596 l
0.5429 0.4596 l
0.5500 0.4596 l
0.5571 0.4596 l
0.5643 0.4596 l
0.5714 0.4596 l
0.5786 0.4596 l
0.5857 0.4596 l
0.5929 0.4596 l
0.6000 0.4596 l
0.6071 0.4596 l
0.6143 0.4597 l
0.6214 0.4597 l
0.6286 0.4598 l
0.6357 0.4599 l
0.6429 0.4599 l
0.6500 0.4600 l
0.6571 0.4601 l
0.6643 0.4602 l
0.6714 0.4604 l
0.6786 0.4605 l
0.6857 0.4607 l
0.6929 0.4608 l
0.7000 0.4610 l
0.7071 0.4612 l
0.7143 0.4614 l
0.7214 0.4617 l
0.7286 0.4619 l
0.7357 0.4622 l
0.7429 0.4625 l
0.7500 0.4628 l
0.7571 0.4632 l
0.7643 0.4636 l
0.7714 0.4640 l
0.7786 0.4644 l
0.7857 0.4648 l
0.7929 0.4653 l
0.8000 0.4658 l
0.8071 0.4664 l
0.8143 0.4669 l
0.8214 0.4676 l
0.8286 0.4682 l
0.8357 0.4689 l
0.8429 0.4696 l
0.8500 0.4704 l
0.8571 0.4712 l
0.8643 0.4720 l
0.8714 0.4729 l
0.8786 0.4738 l
0.8857 0.4748 l
0.8929 0.4759 l
0.9000 0.4769 l
0.9071 0.4781 l
0.9143 0.4793 l
0.9214 0.4805 l
0.9286 0.4818 l
0.9357 0.4832 l
0.9429 0.4846 l
0.9500 0.4861 l
0.9571 0.4877 l
0.9643 0.4893 l
0.9714 0.4910 l
0.9786 0.4927 l
0.9857 0.4946 l
0.9929 0.4965 l
1.0000 0.4985 l
1.0071 0.5006 l
1.0143 0.5027 l
1.0214 0.5050 l
1.0286 0.5073 l
1.0357 0.5097 l
1.0429 0.5122 l
1.0500 0.5148 l
1.0571 0.5175 l
1.0643 0.5203 l
1.0714 0.5232 l
1.0786 0.5262 l
1.0857 0.5294 l
1.0929 0.5326 l
1.1000 0.5359 l
1.1071 0.5394 l
1.1143 0.5429 l
1.1214 0.5466 l
1.1286 0.5504 l
1.1357 0.5544 l
1.1429 0.5585 l
1.1500 0.5627 l
1.1501 0.5627 l
s
[/DeviceRGB] SCS
Color11 SC
[0.0037 0.0112 0.0187 0.0112 0.0037 0.0112 ] 0 SD
0.0037 SLW
n
0.1499 0.4619 m
0.1500 0.4619 l
0.1571 0.4620 l
0.1643 0.4621 l
0.1714 0.4622 l
0.1786 0.4623 l
0.1857 0.4625 l
0.1929 0.4626 l
0.2000 0.4628 l
0.2071 0.4630 l
0.2143 0.4632 l
0.2214 0.4634 l
0.2286 0.4636 l
0.2357 0.4639 l
0.2429 0.4641 l
0.2500 0.4644 l
0.2571 0.4647 l
0.2643 0.4651 l
0.2714 0.4654 l
0.2786 0.4658 l
0.2857 0.4662 l
0.2929 0.4666 l
0.3000 0.4670 l
0.3071 0.4675 l
0.3143 0.4680 l
0.3214 0.4685 l
0.3286 0.4691 l
0.3357 0.4697 l
0.3429 0.4703 l
0.3500 0.4710 l
0.3571 0.4717 l
0.3643 0.4724 l
0.3714 0.4732 l
0.3786 0.4740 l
0.3857 0.4748 l
0.3929 0.4757 l
0.4000 0.4766 l
0.4071 0.4776 l
0.4143 0.4786 l
0.4214 0.4797 l
0.4286 0.4808 l
0.4357 0.4820 l
0.4429 0.4832 l
0.4500 0.4844 l
0.4571 0.4857 l
0.4643 0.4871 l
0.4714 0.4885 l
0.4786 0.4900 l
0.4857 0.4916 l
0.4929 0.4932 l
0.5000 0.4948 l
0.5071 0.4965 l
0.5143 0.4983 l
0.5214 0.5002 l
0.5286 0.5021 l
0.5357 0.5041 l
0.5429 0.5061 l
0.5500 0.5082 l
0.5571 0.5104 l
0.5643 0.5127 l
0.5714 0.5150 l
0.5786 0.5174 l
0.5857 0.5199 l
0.5929 0.5224 l
0.6000 0.5251 l
0.6071 0.5278 l
0.6143 0.5306 l
0.6214 0.5335 l
0.6286 0.5364 l
0.6357 0.5395 l
0.6429 0.5426 l
0.6500 0.5458 l
0.6571 0.5491 l
0.6643 0.5525 l
0.6714 0.5560 l
0.6786 0.5596 l
0.6857 0.5632 l
0.6929 0.5670 l
0.7000 0.5708 l
0.7071 0.5748 l
0.7143 0.5788 l
0.7214 0.5830 l
0.7286 0.5872 l
0.7357 0.5916 l
0.7429 0.5960 l
0.7500 0.6005 l
0.7571 0.6052 l
0.7643 0.6099 l
0.7714 0.6148 l
0.7786 0.6197 l
0.7857 0.6248 l
0.7929 0.6300 l
0.8000 0.6352 l
0.8071 0.6406 l
0.8143 0.6461 l
0.8214 0.6517 l
0.8286 0.6574 l
0.8357 0.6633 l
0.8429 0.6692 l
0.8500 0.6753 l
0.8571 0.6814 l
0.8643 0.6877 l
0.8714 0.6941 l
0.8786 0.7007 l
0.8857 0.7073 l
0.8929 0.7141 l
0.9000 0.7209 l
0.9071 0.7279 l
0.9143 0.7351 l
0.9214 0.7423 l
0.9286 0.7497 l
0.9357 0.7572 l
0.9429 0.7648 l
0.9500 0.7725 l
0.9571 0.7804 l
0.9643 0.7884 l
0.9714 0.7965 l
0.9786 0.8047 l
0.9857 0.8131 l
0.9929 0.8216 l
1.0000 0.8303 l
1.0071 0.8390 l
1.0143 0.8479 l
1.0160 0.8501 l
s
[/DeviceRGB] SCS
Color1 SC
[] 0 SD
0.0045 SLW
n
0.1500 0.1500 m
1.1500 0.1500 l
s
n
0.1500 0.8500 m
1.1500 0.8500 l
s
n
0.2214 0.1500 m
0.2214 0.1600 l
s
n
0.2214 0.8500 m
0.2214 0.8400 l
s
n
0.3643 0.1500 m
0.3643 0.1600 l
s
n
0.3643 0.8500 m
0.3643 0.8400 l
s
n
0.5071 0.1500 m
0.5071 0.1600 l
s
n
0.5071 0.8500 m
0.5071 0.8400 l
s
n
0.6500 0.1500 m
0.6500 0.1600 l
s
n
0.6500 0.8500 m
0.6500 0.8400 l
s
n
0.7929 0.1500 m
0.7929 0.1600 l
s
n
0.7929 0.8500 m
0.7929 0.8400 l
s
n
0.9357 0.1500 m
0.9357 0.1600 l
s
n
0.9357 0.8500 m
0.9357 0.8400 l
s
n
1.0786 0.1500 m
1.0786 0.1600 l
s
n
1.0786 0.8500 m
1.0786 0.8400 l
s
n
0.1500 0.1500 m
0.1500 0.1700 l
s
n
0.1500 0.8500 m
0.1500 0.8300 l
s
n
0.2929 0.1500 m
0.2929 0.1700 l
s
n
0.2929 0.8500 m
0.2929 0.8300 l
s
n
0.4357 0.1500 m
0.4357 0.1700 l
s
n
0.4357 0.8500 m
0.4357 0.8300 l
s
n
0.5786 0.1500 m
0.5786 0.1700 l
s
n
0.5786 0.8500 m
0.5786 0.8300 l
s
n
0.7214 0.1500 m
0.7214 0.1700 l
s
n
0.7214 0.8500 m
0.7214 0.8300 l
s
n
0.8643 0.1500 m
0.8643 0.1700 l
s
n
0.8643 0.8500 m
0.8643 0.8300 l
s
n
1.0071 0.1500 m
1.0071 0.1700 l
s
n
1.0071 0.8500 m
1.0071 0.8300 l
s
n
0.1500 0.1500 m
0.1500 0.8500 l
s
n
1.1500 0.1500 m
1.1500 0.8500 l
s
n
0.1500 0.1889 m
0.1600 0.1889 l
s
n
1.1500 0.1889 m
1.1400 0.1889 l
s
n
0.1500 0.2667 m
0.1600 0.2667 l
s
n
1.1500 0.2667 m
1.1400 0.2667 l
s
n
0.1500 0.3444 m
0.1600 0.3444 l
s
n
1.1500 0.3444 m
1.1400 0.3444 l
s
n
0.1500 0.4222 m
0.1600 0.4222 l
s
n
1.1500 0.4222 m
1.1400 0.4222 l
s
n
0.1500 0.5000 m
0.1600 0.5000 l
s
n
1.1500 0.5000 m
1.1400 0.5000 l
s
n
0.1500 0.5778 m
0.1600 0.5778 l
s
n
1.1500 0.5778 m
1.1400 0.5778 l
s
n
0.1500 0.6556 m
0.1600 0.6556 l
s
n
1.1500 0.6556 m
1.1400 0.6556 l
s
n
0.1500 0.7333 m
0.1600 0.7333 l
s
n
1.1500 0.7333 m
1.1400 0.7333 l
s
n
0.1500 0.8111 m
0.1600 0.8111 l
s
n
1.1500 0.8111 m
1.1400 0.8111 l
s
n
0.1500 0.1500 m
0.1700 0.1500 l
s
n
1.1500 0.1500 m
1.1300 0.1500 l
s
n
0.1500 0.2278 m
0.1700 0.2278 l
s
n
1.1500 0.2278 m
1.1300 0.2278 l
s
n
0.1500 0.3056 m
0.1700 0.3056 l
s
n
1.1500 0.3056 m
1.1300 0.3056 l
s
n
0.1500 0.3833 m
0.1700 0.3833 l
s
n
1.1500 0.3833 m
1.1300 0.3833 l
s
n
0.1500 0.4611 m
0.1700 0.4611 l
s
n
1.1500 0.4611 m
1.1300 0.4611 l
s
n
0.1500 0.5389 m
0.1700 0.5389 l
s
n
1.1500 0.5389 m
1.1300 0.5389 l
s
n
0.1500 0.6167 m
0.1700 0.6167 l
s
n
1.1500 0.6167 m
1.1300 0.6167 l
s
n
0.1500 0.6944 m
0.1700 0.6944 l
s
n
1.1500 0.6944 m
1.1300 0.6944 l
s
n
0.1500 0.7722 m
0.1700 0.7722 l
s
n
1.1500 0.7722 m
1.1300 0.7722 l
s
n
0.1500 0.8500 m
0.1700 0.8500 l
s
n
1.1500 0.8500 m
1.1300 0.8500 l
s
/Times-Roman findfont
dup length dict begin
 {1 index /FID ne {def} {pop pop} ifelse} forall
 /Encoding DefEncoding def
 currentdict
end
/Font0 exch definefont pop
/Font0 FFSF
1.1600 0.1351 m
GS
[0.0448 0.0000 0.0000 0.0448 0 0] CC
(-8) show
GR
/Font0 FFSF
1.1600 0.2129 m
GS
[0.0448 0.0000 0.0000 0.0448 0 0] CC
(-6) show
GR
/Font0 FFSF
1.1600 0.2903 m
GS
[0.0448 0.0000 0.0000 0.0448 0 0] CC
(-4) show
GR
/Font0 FFSF
1.1600 0.3680 m
GS
[0.0448 0.0000 0.0000 0.0448 0 0] CC
(-2) show
GR
/Font0 FFSF
1.1600 0.4462 m
GS
[0.0448 0.0000 0.0000 0.0448 0 0] CC
(0) show
GR
/Font0 FFSF
1.1600 0.5236 m
GS
[0.0448 0.0000 0.0000 0.0448 0 0] CC
(2) show
GR
/Font0 FFSF
1.1600 0.6014 m
GS
[0.0448 0.0000 0.0000 0.0448 0 0] CC
(4) show
GR
/Font0 FFSF
1.1600 0.6795 m
GS
[0.0448 0.0000 0.0000 0.0448 0 0] CC
(6) show
GR
/Font0 FFSF
1.1600 0.7573 m
GS
[0.0448 0.0000 0.0000 0.0448 0 0] CC
(8) show
GR
/Font0 FFSF
1.1600 0.8351 m
GS
[0.0448 0.0000 0.0000 0.0448 0 0] CC
(10) show
GR
/Font0 FFSF
1.2577 0.4335 m
GS
[0.0000 0.0504 -0.0504 0.0000 0 0] CC
([MeV]) show
GR
[] 0 SD
0.0015 SLW
n
0.1500 0.1500 m
0.1500 0.8500 l
1.1500 0.8500 l
1.1500 0.1500 l
0.1500 0.1500 l
c
s
/Font0 FFSF
0.2000 0.3009 m
GS
[0.0600 0.0000 0.0000 0.0600 0 0] CC
(3) show
GR
/Font0 FFSF
0.2298 0.2500 m
GS
[0.0848 0.0000 0.0000 0.0848 0 0] CC
(P) show
GR
/Font0 FFSF
0.2769 0.2161 m
GS
[0.0600 0.0000 0.0000 0.0600 0 0] CC
(0) show
GR
showpage
%%PageTrailer
%%Trailer
%%DocumentNeededResources: font Times-Roman
%%EOF
