%!PS-Adobe-3.0
%%BoundingBox: 0 0 612 792
%%LanguageLevel: 2
%%Creator: Grace-5.1.25
%%CreationDate: Tue Dec  1 11:55:31 2015
%%DocumentData: Clean8Bit
%%Orientation: Landscape
%%Pages: 1
%%PageOrder: Ascend
%%Title: /Users/ap1450/Dropbox/Physics_Reports_LR/ST_channel_finite_range/Vers2/plots/JLS_nakada6.agr
%%For: ap1450
%%DocumentNeededResources: (atend)
%%EndComments
%%BeginProlog
/PAGE_OFFSET_X 0 def
/PAGE_OFFSET_Y 0 def
/m {moveto} def
/l {lineto} def
/s {stroke} def
/n {newpath} def
/c {closepath} def
/RL {rlineto} def
/SLW {setlinewidth} def
/GS {gsave} def
/GR {grestore} def
/SC {setcolor} def
/SGRY {setgray} def
/SRGB {setrgbcolor} def
/SD {setdash} def
/SLC {setlinecap} def
/SLJ {setlinejoin} def
/SCS {setcolorspace} def
/FFSF {findfont setfont} def
/CC {concat} def
/PXL {n m 0 0 RL s} def
/Color0 {1.0000 1.0000 1.0000} def
/Color1 {0.0000 0.0000 0.0000} def
/Color2 {1.0000 0.0000 0.0000} def
/Color3 {0.0000 1.0000 0.0000} def
/Color4 {0.0000 0.0000 1.0000} def
/Color5 {1.0000 1.0000 0.0000} def
/Color6 {0.7373 0.5608 0.5608} def
/Color7 {0.8627 0.8627 0.8627} def
/Color8 {0.5804 0.0000 0.8275} def
/Color9 {0.0000 1.0000 1.0000} def
/Color10 {1.0000 0.0000 1.0000} def
/Color11 {1.0000 0.6471 0.0000} def
/Color12 {0.4471 0.1294 0.7373} def
/Color13 {0.4039 0.0275 0.2824} def
/Color14 {0.2510 0.8784 0.8157} def
/Color15 {0.0000 0.5451 0.0000} def
/Color16 {0.7529 0.7529 0.7529} def
/Color17 {0.5059 0.5059 0.5059} def
/Color18 {0.2588 0.2588 0.2588} def
/PTRN {
 /pat_bits exch def 
 <<
  /PaintType 2
  /PatternType 1 /TilingType 1
  /BBox[0 0 16 16]
  /XStep 16 /YStep 16
  /PaintProc {
   pop
   16 16 true [-1 0 0 -1 16 16] pat_bits imagemask
  }
 >>
 [0.0016 0 0 0.0016 0 0]
 makepattern
} def
/Pattern0 {<0000000000000000000000000000000000000000000000000000000000000000> PTRN} bind def
/Pattern1 {<ffffffffffffffffffffffffffffffffffffffffffffffffffffffffffffffff> PTRN} bind def
/Pattern2 {<eeeeffffbbbbffffeeeeffffbbbbffffeeeeffffbbbbffffeeeeffffbbbbffff> PTRN} bind def
/Pattern3 {<eeeebbbbeeeebbbbeeeebbbbeeeebbbbeeeebbbbeeeebbbbeeeebbbbeeeebbbb> PTRN} bind def
/Pattern4 {<5555aaaa5555aaaa5555aaaa5555aaaa5555aaaa5555aaaa5555aaaa5555aaaa> PTRN} bind def
/Pattern5 {<1111444411114444111144441111444411114444111144441111444411114444> PTRN} bind def
/Pattern6 {<1111000044440000111100004444000011110000444400001111000044440000> PTRN} bind def
/Pattern7 {<1010000000000000010100000000000010100000000000000101000000000000> PTRN} bind def
/Pattern8 {<0000000000000000000000000000000000000000000000000000000000000000> PTRN} bind def
/Pattern9 {<1e1e0f0f8787c3c3e1e1f0f078783c3c1e1e0f0f8787c3c3e1e1f0f078783c3c> PTRN} bind def
/Pattern10 {<7878f0f0e1e1c3c387870f0f1e1e3c3c7878f0f0e1e1c3c387870f0f1e1e3c3c> PTRN} bind def
/Pattern11 {<3333333333333333333333333333333333333333333333333333333333333333> PTRN} bind def
/Pattern12 {<ffffffff00000000ffffffff00000000ffffffff00000000ffffffff00000000> PTRN} bind def
/Pattern13 {<8181424224241818181824244242818181814242242418181818242442428181> PTRN} bind def
/Pattern14 {<8080404020201010080804040202010180804040202010100808040402020101> PTRN} bind def
/Pattern15 {<0101020204040808101020204040808001010202040408081010202040408080> PTRN} bind def
/Pattern16 {<2222222222222222222222222222222222222222222222222222222222222222> PTRN} bind def
/Pattern17 {<0000ffff000000000000ffff000000000000ffff000000000000ffff00000000> PTRN} bind def
/Pattern18 {<2222ffff222222222222ffff222222222222ffff222222222222ffff22222222> PTRN} bind def
/Pattern19 {<ffffffff33333333ffffffff33333333ffffffff33333333ffffffff33333333> PTRN} bind def
/Pattern20 {<0f0f0f0f0f0f0f0ff0f0f0f0f0f0f0f00f0f0f0f0f0f0f0ff0f0f0f0f0f0f0f0> PTRN} bind def
/Pattern21 {<ff00ff00ff00ff00ff00ff00ff00ff0000ff00ff00ff00ff00ff00ff00ff00ff> PTRN} bind def
/Pattern22 {<8001800180018001800180018001ffffffff8001800180018001800180018001> PTRN} bind def
/Pattern23 {<c003c003c003c003c003c003ffffffffffffffffc003c003c003c003c003c003> PTRN} bind def
/Pattern24 {<040404040404ffff404040404040ffff040404040404ffff404040404040ffff> PTRN} bind def
/Pattern25 {<180018001800180018001800ffffffff001800180018001800180018ffffffff> PTRN} bind def
/Pattern26 {<1111b8b87c7c3a3a1111a3a3c7c78b8b1111b8b87c7c3a3a1111a3a3c7c78b8b> PTRN} bind def
/Pattern27 {<101010102828c7c70101010182827c7c101010102828c7c70101010182827c7c> PTRN} bind def
/Pattern28 {<1c1c121211112121c1c12121111112121c1c121211112121c1c1212111111212> PTRN} bind def
/Pattern29 {<3e3e414180808080e3e31414080808083e3e414180808080e3e3141408080808> PTRN} bind def
/Pattern30 {<4848888884848383848488884848383848488888848483838484888848483838> PTRN} bind def
/Pattern31 {<03030404080808080c0c12122121c0c003030404080808080c0c12122121c0c0> PTRN} bind def
/ellipsedict 8 dict def
ellipsedict /mtrx matrix put
/EARC {
 ellipsedict begin
  /endangle exch def
  /startangle exch def
  /yrad exch def
  /xrad exch def
  /y exch def
  /x exch def
  /savematrix mtrx currentmatrix def
  x y translate
  xrad yrad scale
  0 0 1 startangle endangle arc
  savematrix setmatrix
 end
} def
/TL {
  /kcomp exch def
  /linewidth exch def
  /offset exch def
  GS
  0 offset rmoveto
  linewidth SLW
  dup stringwidth exch kcomp add exch RL s
  GR
} def
/KINIT
{
 /kvector exch def
 /kid 0 def
} def
/KPROC
{
 pop pop
 kvector kid get
 0 rmoveto
 /kid 1 kid add def
} def
/DefEncoding [
 /.notdef
 /.notdef
 /.notdef
 /.notdef
 /.notdef
 /.notdef
 /.notdef
 /.notdef
 /.notdef
 /.notdef
 /.notdef
 /.notdef
 /.notdef
 /.notdef
 /.notdef
 /.notdef
 /.notdef
 /.notdef
 /.notdef
 /.notdef
 /.notdef
 /.notdef
 /.notdef
 /.notdef
 /.notdef
 /.notdef
 /.notdef
 /.notdef
 /.notdef
 /.notdef
 /.notdef
 /.notdef
 /space
 /exclam
 /quotedbl
 /numbersign
 /dollar
 /percent
 /ampersand
 /quoteright
 /parenleft
 /parenright
 /asterisk
 /plus
 /comma
 /hyphen
 /period
 /slash
 /zero
 /one
 /two
 /three
 /four
 /five
 /six
 /seven
 /eight
 /nine
 /colon
 /semicolon
 /less
 /equal
 /greater
 /question
 /at
 /A
 /B
 /C
 /D
 /E
 /F
 /G
 /H
 /I
 /J
 /K
 /L
 /M
 /N
 /O
 /P
 /Q
 /R
 /S
 /T
 /U
 /V
 /W
 /X
 /Y
 /Z
 /bracketleft
 /backslash
 /bracketright
 /asciicircum
 /underscore
 /grave
 /a
 /b
 /c
 /d
 /e
 /f
 /g
 /h
 /i
 /j
 /k
 /l
 /m
 /n
 /o
 /p
 /q
 /r
 /s
 /t
 /u
 /v
 /w
 /x
 /y
 /z
 /braceleft
 /bar
 /braceright
 /asciitilde
 /.notdef
 /.notdef
 /.notdef
 /.notdef
 /.notdef
 /.notdef
 /.notdef
 /.notdef
 /.notdef
 /.notdef
 /.notdef
 /.notdef
 /.notdef
 /.notdef
 /.notdef
 /.notdef
 /.notdef
 /.notdef
 /.notdef
 /.notdef
 /.notdef
 /.notdef
 /.notdef
 /.notdef
 /.notdef
 /.notdef
 /.notdef
 /.notdef
 /.notdef
 /.notdef
 /.notdef
 /.notdef
 /.notdef
 /space
 /exclamdown
 /cent
 /sterling
 /currency
 /yen
 /brokenbar
 /section
 /dieresis
 /copyright
 /ordfeminine
 /guillemotleft
 /logicalnot
 /hyphen
 /registered
 /macron
 /degree
 /plusminus
 /twosuperior
 /threesuperior
 /acute
 /mu
 /paragraph
 /periodcentered
 /cedilla
 /onesuperior
 /ordmasculine
 /guillemotright
 /onequarter
 /onehalf
 /threequarters
 /questiondown
 /Agrave
 /Aacute
 /Acircumflex
 /Atilde
 /Adieresis
 /Aring
 /AE
 /Ccedilla
 /Egrave
 /Eacute
 /Ecircumflex
 /Edieresis
 /Igrave
 /Iacute
 /Icircumflex
 /Idieresis
 /Eth
 /Ntilde
 /Ograve
 /Oacute
 /Ocircumflex
 /Otilde
 /Odieresis
 /multiply
 /Oslash
 /Ugrave
 /Uacute
 /Ucircumflex
 /Udieresis
 /Yacute
 /Thorn
 /germandbls
 /agrave
 /aacute
 /acircumflex
 /atilde
 /adieresis
 /aring
 /ae
 /ccedilla
 /egrave
 /eacute
 /ecircumflex
 /edieresis
 /igrave
 /iacute
 /icircumflex
 /idieresis
 /eth
 /ntilde
 /ograve
 /oacute
 /ocircumflex
 /otilde
 /odieresis
 /divide
 /oslash
 /ugrave
 /uacute
 /ucircumflex
 /udieresis
 /yacute
 /thorn
 /ydieresis
] def
%%EndProlog
%%BeginSetup
%%EndSetup
%%Page: 1 1
PAGE_OFFSET_X PAGE_OFFSET_Y translate
612.00 612.00 scale
90 rotate
0.0 -1.0 translate
n
0.4267 0.5887 m
0.4267 0.6067 l
0.4447 0.6067 l
0.4447 0.5887 l
c
GS
[/DeviceRGB] SCS
Color0 SRGB
fill
GR
[/Pattern /DeviceRGB] SCS
Color1 Pattern8 SC
fill
[/DeviceRGB] SCS
Color1 SC
[] 0 SD
0.0045 SLW
0 SLC
0 SLJ
n
0.4267 0.5887 m
0.4267 0.6067 l
0.4447 0.6067 l
0.4447 0.5887 l
0.4267 0.5887 l
c
s
n
0.4981 0.5759 m
0.4981 0.5939 l
0.5162 0.5939 l
0.5162 0.5759 l
c
GS
Color0 SRGB
fill
GR
[/Pattern /DeviceRGB] SCS
Color1 Pattern8 SC
fill
[/DeviceRGB] SCS
Color1 SC
n
0.4981 0.5759 m
0.4981 0.5939 l
0.5162 0.5939 l
0.5162 0.5759 l
0.4981 0.5759 l
c
s
n
0.5696 0.5579 m
0.5696 0.5759 l
0.5876 0.5759 l
0.5876 0.5579 l
c
GS
Color0 SRGB
fill
GR
[/Pattern /DeviceRGB] SCS
Color1 Pattern8 SC
fill
[/DeviceRGB] SCS
Color1 SC
n
0.5696 0.5579 m
0.5696 0.5759 l
0.5876 0.5759 l
0.5876 0.5579 l
0.5696 0.5579 l
c
s
n
0.6410 0.5336 m
0.6410 0.5516 l
0.6590 0.5516 l
0.6590 0.5336 l
c
GS
Color0 SRGB
fill
GR
[/Pattern /DeviceRGB] SCS
Color1 Pattern8 SC
fill
[/DeviceRGB] SCS
Color1 SC
n
0.6410 0.5336 m
0.6410 0.5516 l
0.6590 0.5516 l
0.6590 0.5336 l
0.6410 0.5336 l
c
s
n
0.7124 0.5025 m
0.7124 0.5205 l
0.7304 0.5205 l
0.7304 0.5025 l
c
GS
Color0 SRGB
fill
GR
[/Pattern /DeviceRGB] SCS
Color1 Pattern8 SC
fill
[/DeviceRGB] SCS
Color1 SC
n
0.7124 0.5025 m
0.7124 0.5205 l
0.7304 0.5205 l
0.7304 0.5025 l
0.7124 0.5025 l
c
s
n
0.7838 0.4637 m
0.7838 0.4818 l
0.8019 0.4818 l
0.8019 0.4637 l
c
GS
Color0 SRGB
fill
GR
[/Pattern /DeviceRGB] SCS
Color1 Pattern8 SC
fill
[/DeviceRGB] SCS
Color1 SC
n
0.7838 0.4637 m
0.7838 0.4818 l
0.8019 0.4818 l
0.8019 0.4637 l
0.7838 0.4637 l
c
s
n
0.8553 0.4165 m
0.8553 0.4345 l
0.8733 0.4345 l
0.8733 0.4165 l
c
GS
Color0 SRGB
fill
GR
[/Pattern /DeviceRGB] SCS
Color1 Pattern8 SC
fill
[/DeviceRGB] SCS
Color1 SC
n
0.8553 0.4165 m
0.8553 0.4345 l
0.8733 0.4345 l
0.8733 0.4165 l
0.8553 0.4165 l
c
s
n
0.9267 0.3601 m
0.9267 0.3781 l
0.9447 0.3781 l
0.9447 0.3601 l
c
GS
Color0 SRGB
fill
GR
[/Pattern /DeviceRGB] SCS
Color1 Pattern8 SC
fill
[/DeviceRGB] SCS
Color1 SC
n
0.9267 0.3601 m
0.9267 0.3781 l
0.9447 0.3781 l
0.9447 0.3601 l
0.9267 0.3601 l
c
s
n
0.9981 0.2935 m
0.9981 0.3115 l
1.0162 0.3115 l
1.0162 0.2935 l
c
GS
Color0 SRGB
fill
GR
[/Pattern /DeviceRGB] SCS
Color1 Pattern8 SC
fill
[/DeviceRGB] SCS
Color1 SC
n
0.9981 0.2935 m
0.9981 0.3115 l
1.0162 0.3115 l
1.0162 0.2935 l
0.9981 0.2935 l
c
s
n
1.0696 0.2159 m
1.0696 0.2339 l
1.0876 0.2339 l
1.0876 0.2159 l
c
GS
Color0 SRGB
fill
GR
[/Pattern /DeviceRGB] SCS
Color1 Pattern8 SC
fill
[/DeviceRGB] SCS
Color1 SC
n
1.0696 0.2159 m
1.0696 0.2339 l
1.0876 0.2339 l
1.0876 0.2159 l
1.0696 0.2159 l
c
s
[] 0 SD
0.0037 SLW
n
0.1499 0.6172 m
0.1500 0.6172 l
0.1571 0.6172 l
0.1643 0.6173 l
0.1714 0.6174 l
0.1786 0.6174 l
0.1857 0.6175 l
0.1929 0.6176 l
0.2000 0.6177 l
0.2071 0.6178 l
0.2143 0.6179 l
0.2214 0.6180 l
0.2286 0.6181 l
0.2357 0.6182 l
0.2429 0.6184 l
0.2500 0.6185 l
0.2571 0.6187 l
0.2643 0.6188 l
0.2714 0.6190 l
0.2786 0.6191 l
0.2857 0.6193 l
0.2929 0.6195 l
0.3000 0.6197 l
0.3071 0.6199 l
0.3143 0.6201 l
0.3214 0.6204 l
0.3286 0.6206 l
0.3357 0.6208 l
0.3429 0.6211 l
0.3500 0.6214 l
0.3571 0.6216 l
0.3643 0.6219 l
0.3714 0.6222 l
0.3786 0.6225 l
0.3857 0.6229 l
0.3929 0.6232 l
0.4000 0.6236 l
0.4071 0.6239 l
0.4143 0.6243 l
0.4214 0.6247 l
0.4286 0.6251 l
0.4357 0.6255 l
0.4429 0.6260 l
0.4500 0.6264 l
0.4571 0.6269 l
0.4643 0.6274 l
0.4714 0.6279 l
0.4786 0.6284 l
0.4857 0.6289 l
0.4929 0.6295 l
0.5000 0.6300 l
0.5071 0.6306 l
0.5143 0.6312 l
0.5214 0.6319 l
0.5286 0.6325 l
0.5357 0.6331 l
0.5429 0.6338 l
0.5500 0.6345 l
0.5571 0.6352 l
0.5643 0.6360 l
0.5714 0.6367 l
0.5786 0.6375 l
0.5857 0.6383 l
0.5929 0.6391 l
0.6000 0.6400 l
0.6071 0.6408 l
0.6143 0.6417 l
0.6214 0.6426 l
0.6286 0.6436 l
0.6357 0.6445 l
0.6429 0.6455 l
0.6500 0.6465 l
0.6571 0.6475 l
0.6643 0.6486 l
0.6714 0.6497 l
0.6786 0.6508 l
0.6857 0.6519 l
0.6929 0.6531 l
0.7000 0.6543 l
0.7071 0.6555 l
0.7143 0.6568 l
0.7214 0.6580 l
0.7286 0.6594 l
0.7357 0.6607 l
0.7429 0.6621 l
0.7500 0.6635 l
0.7571 0.6649 l
0.7643 0.6664 l
0.7714 0.6679 l
0.7786 0.6694 l
0.7857 0.6709 l
0.7929 0.6725 l
0.8000 0.6742 l
0.8071 0.6758 l
0.8143 0.6775 l
0.8214 0.6793 l
0.8286 0.6810 l
0.8357 0.6828 l
0.8429 0.6847 l
0.8500 0.6866 l
0.8571 0.6885 l
0.8643 0.6904 l
0.8714 0.6924 l
0.8786 0.6945 l
0.8857 0.6966 l
0.8929 0.6987 l
0.9000 0.7008 l
0.9071 0.7030 l
0.9143 0.7053 l
0.9214 0.7076 l
0.9286 0.7099 l
0.9357 0.7123 l
0.9429 0.7147 l
0.9500 0.7171 l
0.9571 0.7196 l
0.9643 0.7222 l
0.9714 0.7248 l
0.9786 0.7275 l
0.9857 0.7301 l
0.9929 0.7329 l
1.0000 0.7357 l
1.0071 0.7385 l
1.0143 0.7414 l
1.0214 0.7444 l
1.0286 0.7474 l
1.0357 0.7504 l
1.0429 0.7535 l
1.0500 0.7567 l
1.0571 0.7599 l
1.0643 0.7631 l
1.0714 0.7664 l
1.0786 0.7698 l
1.0857 0.7732 l
1.0929 0.7767 l
1.1000 0.7802 l
1.1071 0.7838 l
1.1143 0.7875 l
1.1214 0.7912 l
1.1286 0.7950 l
1.1357 0.7988 l
1.1429 0.8027 l
1.1500 0.8067 l
1.1501 0.8067 l
s
[/DeviceRGB] SCS
Color2 SC
[0.0187 0.0112 ] 0 SD
0.0037 SLW
n
0.1499 0.6170 m
0.1500 0.6170 l
0.1571 0.6170 l
0.1643 0.6171 l
0.1714 0.6171 l
0.1786 0.6172 l
0.1857 0.6172 l
0.1929 0.6172 l
0.2000 0.6173 l
0.2071 0.6174 l
0.2143 0.6174 l
0.2214 0.6175 l
0.2286 0.6175 l
0.2357 0.6176 l
0.2429 0.6177 l
0.2500 0.6178 l
0.2571 0.6178 l
0.2643 0.6179 l
0.2714 0.6180 l
0.2786 0.6181 l
0.2857 0.6182 l
0.2929 0.6183 l
0.3000 0.6184 l
0.3071 0.6185 l
0.3143 0.6186 l
0.3214 0.6187 l
0.3286 0.6189 l
0.3357 0.6190 l
0.3429 0.6191 l
0.3500 0.6193 l
0.3571 0.6194 l
0.3643 0.6196 l
0.3714 0.6197 l
0.3786 0.6199 l
0.3857 0.6200 l
0.3929 0.6202 l
0.4000 0.6204 l
0.4071 0.6206 l
0.4143 0.6207 l
0.4214 0.6209 l
0.4286 0.6211 l
0.4357 0.6213 l
0.4429 0.6216 l
0.4500 0.6218 l
0.4571 0.6220 l
0.4643 0.6222 l
0.4714 0.6225 l
0.4786 0.6227 l
0.4857 0.6230 l
0.4929 0.6233 l
0.5000 0.6235 l
0.5071 0.6238 l
0.5143 0.6241 l
0.5214 0.6244 l
0.5286 0.6247 l
0.5357 0.6251 l
0.5429 0.6254 l
0.5500 0.6257 l
0.5571 0.6261 l
0.5643 0.6265 l
0.5714 0.6268 l
0.5786 0.6272 l
0.5857 0.6276 l
0.5929 0.6281 l
0.6000 0.6285 l
0.6071 0.6289 l
0.6143 0.6294 l
0.6214 0.6299 l
0.6286 0.6303 l
0.6357 0.6308 l
0.6429 0.6314 l
0.6500 0.6319 l
0.6571 0.6324 l
0.6643 0.6330 l
0.6714 0.6336 l
0.6786 0.6342 l
0.6857 0.6348 l
0.6929 0.6355 l
0.7000 0.6361 l
0.7071 0.6368 l
0.7143 0.6375 l
0.7214 0.6382 l
0.7286 0.6390 l
0.7357 0.6398 l
0.7429 0.6406 l
0.7500 0.6414 l
0.7571 0.6422 l
0.7643 0.6431 l
0.7714 0.6440 l
0.7786 0.6449 l
0.7857 0.6459 l
0.7929 0.6469 l
0.8000 0.6479 l
0.8071 0.6489 l
0.8143 0.6500 l
0.8214 0.6511 l
0.8286 0.6522 l
0.8357 0.6534 l
0.8429 0.6546 l
0.8500 0.6559 l
0.8571 0.6571 l
0.8643 0.6585 l
0.8714 0.6598 l
0.8786 0.6612 l
0.8857 0.6627 l
0.8929 0.6641 l
0.9000 0.6657 l
0.9071 0.6672 l
0.9143 0.6688 l
0.9214 0.6705 l
0.9286 0.6722 l
0.9357 0.6739 l
0.9429 0.6757 l
0.9500 0.6776 l
0.9571 0.6795 l
0.9643 0.6814 l
0.9714 0.6834 l
0.9786 0.6855 l
0.9857 0.6876 l
0.9929 0.6898 l
1.0000 0.6920 l
1.0071 0.6943 l
1.0143 0.6966 l
1.0214 0.6990 l
1.0286 0.7015 l
1.0357 0.7040 l
1.0429 0.7066 l
1.0500 0.7093 l
1.0571 0.7120 l
1.0643 0.7148 l
1.0714 0.7177 l
1.0786 0.7206 l
1.0857 0.7236 l
1.0929 0.7267 l
1.1000 0.7298 l
1.1071 0.7331 l
1.1143 0.7364 l
1.1214 0.7398 l
1.1286 0.7433 l
1.1357 0.7468 l
1.1429 0.7504 l
1.1500 0.7542 l
1.1501 0.7542 l
s
[/DeviceRGB] SCS
Color4 SC
[0.0037 0.0112 ] 0 SD
0.0037 SLW
n
0.1499 0.6171 m
0.1500 0.6171 l
0.1571 0.6171 l
0.1643 0.6172 l
0.1714 0.6172 l
0.1786 0.6173 l
0.1857 0.6174 l
0.1929 0.6174 l
0.2000 0.6175 l
0.2071 0.6176 l
0.2143 0.6177 l
0.2214 0.6177 l
0.2286 0.6178 l
0.2357 0.6179 l
0.2429 0.6180 l
0.2500 0.6181 l
0.2571 0.6182 l
0.2643 0.6184 l
0.2714 0.6185 l
0.2786 0.6186 l
0.2857 0.6187 l
0.2929 0.6189 l
0.3000 0.6190 l
0.3071 0.6192 l
0.3143 0.6193 l
0.3214 0.6195 l
0.3286 0.6197 l
0.3357 0.6198 l
0.3429 0.6200 l
0.3500 0.6202 l
0.3571 0.6204 l
0.3643 0.6206 l
0.3714 0.6208 l
0.3786 0.6210 l
0.3857 0.6212 l
0.3929 0.6215 l
0.4000 0.6217 l
0.4071 0.6220 l
0.4143 0.6222 l
0.4214 0.6225 l
0.4286 0.6227 l
0.4357 0.6230 l
0.4429 0.6233 l
0.4500 0.6236 l
0.4571 0.6239 l
0.4643 0.6242 l
0.4714 0.6245 l
0.4786 0.6248 l
0.4857 0.6252 l
0.4929 0.6255 l
0.5000 0.6259 l
0.5071 0.6262 l
0.5143 0.6266 l
0.5214 0.6269 l
0.5286 0.6273 l
0.5357 0.6277 l
0.5429 0.6281 l
0.5500 0.6285 l
0.5571 0.6290 l
0.5643 0.6294 l
0.5714 0.6298 l
0.5786 0.6303 l
0.5857 0.6307 l
0.5929 0.6312 l
0.6000 0.6317 l
0.6071 0.6321 l
0.6143 0.6326 l
0.6214 0.6332 l
0.6286 0.6337 l
0.6357 0.6342 l
0.6429 0.6347 l
0.6500 0.6353 l
0.6571 0.6358 l
0.6643 0.6364 l
0.6714 0.6370 l
0.6786 0.6376 l
0.6857 0.6382 l
0.6929 0.6388 l
0.7000 0.6394 l
0.7071 0.6400 l
0.7143 0.6407 l
0.7214 0.6414 l
0.7286 0.6420 l
0.7357 0.6427 l
0.7429 0.6434 l
0.7500 0.6441 l
0.7571 0.6448 l
0.7643 0.6456 l
0.7714 0.6463 l
0.7786 0.6471 l
0.7857 0.6478 l
0.7929 0.6486 l
0.8000 0.6494 l
0.8071 0.6502 l
0.8143 0.6511 l
0.8214 0.6519 l
0.8286 0.6528 l
0.8357 0.6536 l
0.8429 0.6545 l
0.8500 0.6554 l
0.8571 0.6563 l
0.8643 0.6573 l
0.8714 0.6582 l
0.8786 0.6592 l
0.8857 0.6601 l
0.8929 0.6611 l
0.9000 0.6621 l
0.9071 0.6632 l
0.9143 0.6642 l
0.9214 0.6653 l
0.9286 0.6663 l
0.9357 0.6674 l
0.9429 0.6685 l
0.9500 0.6697 l
0.9571 0.6708 l
0.9643 0.6720 l
0.9714 0.6731 l
0.9786 0.6743 l
0.9857 0.6756 l
0.9929 0.6768 l
1.0000 0.6781 l
1.0071 0.6793 l
1.0143 0.6806 l
1.0214 0.6819 l
1.0286 0.6833 l
1.0357 0.6846 l
1.0429 0.6860 l
1.0500 0.6874 l
1.0571 0.6888 l
1.0643 0.6903 l
1.0714 0.6917 l
1.0786 0.6932 l
1.0857 0.6947 l
1.0929 0.6963 l
1.1000 0.6978 l
1.1071 0.6994 l
1.1143 0.7010 l
1.1214 0.7026 l
1.1286 0.7043 l
1.1357 0.7060 l
1.1429 0.7077 l
1.1500 0.7094 l
1.1501 0.7094 l
s
[/DeviceRGB] SCS
Color11 SC
[0.0037 0.0112 0.0187 0.0112 ] 0 SD
0.0037 SLW
n
0.1499 0.6170 m
0.1500 0.6170 l
0.1571 0.6171 l
0.1643 0.6171 l
0.1714 0.6172 l
0.1786 0.6172 l
0.1857 0.6173 l
0.1929 0.6174 l
0.2000 0.6174 l
0.2071 0.6175 l
0.2143 0.6176 l
0.2214 0.6176 l
0.2286 0.6177 l
0.2357 0.6178 l
0.2429 0.6179 l
0.2500 0.6180 l
0.2571 0.6181 l
0.2643 0.6182 l
0.2714 0.6183 l
0.2786 0.6184 l
0.2857 0.6186 l
0.2929 0.6187 l
0.3000 0.6188 l
0.3071 0.6190 l
0.3143 0.6191 l
0.3214 0.6193 l
0.3286 0.6194 l
0.3357 0.6196 l
0.3429 0.6198 l
0.3500 0.6200 l
0.3571 0.6202 l
0.3643 0.6204 l
0.3714 0.6206 l
0.3786 0.6208 l
0.3857 0.6210 l
0.3929 0.6213 l
0.4000 0.6215 l
0.4071 0.6218 l
0.4143 0.6221 l
0.4214 0.6223 l
0.4286 0.6226 l
0.4357 0.6229 l
0.4429 0.6232 l
0.4500 0.6235 l
0.4571 0.6239 l
0.4643 0.6242 l
0.4714 0.6246 l
0.4786 0.6249 l
0.4857 0.6253 l
0.4929 0.6257 l
0.5000 0.6261 l
0.5071 0.6266 l
0.5143 0.6270 l
0.5214 0.6274 l
0.5286 0.6279 l
0.5357 0.6284 l
0.5429 0.6289 l
0.5500 0.6294 l
0.5571 0.6300 l
0.5643 0.6305 l
0.5714 0.6311 l
0.5786 0.6317 l
0.5857 0.6323 l
0.5929 0.6329 l
0.6000 0.6336 l
0.6071 0.6342 l
0.6143 0.6349 l
0.6214 0.6356 l
0.6286 0.6364 l
0.6357 0.6371 l
0.6429 0.6379 l
0.6500 0.6387 l
0.6571 0.6396 l
0.6643 0.6404 l
0.6714 0.6413 l
0.6786 0.6422 l
0.6857 0.6432 l
0.6929 0.6442 l
0.7000 0.6452 l
0.7071 0.6462 l
0.7143 0.6473 l
0.7214 0.6484 l
0.7286 0.6495 l
0.7357 0.6507 l
0.7429 0.6519 l
0.7500 0.6531 l
0.7571 0.6543 l
0.7643 0.6557 l
0.7714 0.6570 l
0.7786 0.6584 l
0.7857 0.6598 l
0.7929 0.6613 l
0.8000 0.6628 l
0.8071 0.6644 l
0.8143 0.6660 l
0.8214 0.6676 l
0.8286 0.6693 l
0.8357 0.6710 l
0.8429 0.6728 l
0.8500 0.6746 l
0.8571 0.6765 l
0.8643 0.6784 l
0.8714 0.6804 l
0.8786 0.6825 l
0.8857 0.6845 l
0.8929 0.6867 l
0.9000 0.6889 l
0.9071 0.6912 l
0.9143 0.6935 l
0.9214 0.6959 l
0.9286 0.6983 l
0.9357 0.7008 l
0.9429 0.7034 l
0.9500 0.7060 l
0.9571 0.7087 l
0.9643 0.7115 l
0.9714 0.7143 l
0.9786 0.7172 l
0.9857 0.7202 l
0.9929 0.7233 l
1.0000 0.7264 l
1.0071 0.7296 l
1.0143 0.7329 l
1.0214 0.7363 l
1.0286 0.7397 l
1.0357 0.7432 l
1.0429 0.7468 l
1.0500 0.7505 l
1.0571 0.7543 l
1.0643 0.7582 l
1.0714 0.7621 l
1.0786 0.7662 l
1.0857 0.7703 l
1.0929 0.7745 l
1.1000 0.7789 l
1.1071 0.7833 l
1.1143 0.7878 l
1.1214 0.7924 l
1.1286 0.7971 l
1.1357 0.8019 l
1.1429 0.8069 l
1.1500 0.8119 l
1.1501 0.8120 l
s
[/DeviceRGB] SCS
Color3 SC
[0.0037 0.0112 0.0187 0.0112 0.0037 0.0112 ] 0 SD
0.0037 SLW
n
0.1499 0.6172 m
0.1500 0.6172 l
0.1571 0.6172 l
0.1643 0.6173 l
0.1714 0.6173 l
0.1786 0.6174 l
0.1857 0.6175 l
0.1929 0.6176 l
0.2000 0.6177 l
0.2071 0.6178 l
0.2143 0.6179 l
0.2214 0.6180 l
0.2286 0.6181 l
0.2357 0.6182 l
0.2429 0.6183 l
0.2500 0.6185 l
0.2571 0.6186 l
0.2643 0.6188 l
0.2714 0.6190 l
0.2786 0.6191 l
0.2857 0.6193 l
0.2929 0.6195 l
0.3000 0.6197 l
0.3071 0.6199 l
0.3143 0.6202 l
0.3214 0.6204 l
0.3286 0.6207 l
0.3357 0.6209 l
0.3429 0.6212 l
0.3500 0.6215 l
0.3571 0.6218 l
0.3643 0.6221 l
0.3714 0.6224 l
0.3786 0.6228 l
0.3857 0.6232 l
0.3929 0.6235 l
0.4000 0.6239 l
0.4071 0.6243 l
0.4143 0.6248 l
0.4214 0.6252 l
0.4286 0.6257 l
0.4357 0.6262 l
0.4429 0.6267 l
0.4500 0.6272 l
0.4571 0.6278 l
0.4643 0.6283 l
0.4714 0.6289 l
0.4786 0.6296 l
0.4857 0.6302 l
0.4929 0.6309 l
0.5000 0.6316 l
0.5071 0.6323 l
0.5143 0.6330 l
0.5214 0.6338 l
0.5286 0.6346 l
0.5357 0.6354 l
0.5429 0.6363 l
0.5500 0.6372 l
0.5571 0.6381 l
0.5643 0.6391 l
0.5714 0.6400 l
0.5786 0.6411 l
0.5857 0.6421 l
0.5929 0.6432 l
0.6000 0.6443 l
0.6071 0.6455 l
0.6143 0.6467 l
0.6214 0.6480 l
0.6286 0.6493 l
0.6357 0.6506 l
0.6429 0.6520 l
0.6500 0.6534 l
0.6571 0.6548 l
0.6643 0.6563 l
0.6714 0.6579 l
0.6786 0.6595 l
0.6857 0.6612 l
0.6929 0.6629 l
0.7000 0.6646 l
0.7071 0.6664 l
0.7143 0.6683 l
0.7214 0.6702 l
0.7286 0.6722 l
0.7357 0.6742 l
0.7429 0.6763 l
0.7500 0.6785 l
0.7571 0.6806 l
0.7643 0.6830 l
0.7714 0.6853 l
0.7786 0.6877 l
0.7857 0.6902 l
0.7929 0.6927 l
0.8000 0.6954 l
0.8071 0.6980 l
0.8143 0.7008 l
0.8214 0.7036 l
0.8286 0.7065 l
0.8357 0.7095 l
0.8429 0.7126 l
0.8500 0.7158 l
0.8571 0.7190 l
0.8643 0.7223 l
0.8714 0.7257 l
0.8786 0.7292 l
0.8857 0.7328 l
0.8929 0.7364 l
0.9000 0.7402 l
0.9071 0.7441 l
0.9143 0.7480 l
0.9214 0.7521 l
0.9286 0.7562 l
0.9357 0.7605 l
0.9429 0.7648 l
0.9500 0.7693 l
0.9571 0.7738 l
0.9643 0.7785 l
0.9714 0.7833 l
0.9786 0.7881 l
0.9857 0.7931 l
0.9929 0.7983 l
1.0000 0.8035 l
1.0071 0.8088 l
1.0143 0.8143 l
1.0214 0.8199 l
1.0286 0.8256 l
1.0357 0.8315 l
1.0429 0.8374 l
1.0500 0.8436 l
1.0571 0.8498 l
1.0575 0.8501 l
s
[/DeviceRGB] SCS
Color8 SC
[0.0187 0.0112 0.0037 0.0112 0.0187 0.0112 ] 0 SD
0.0037 SLW
n
0.1499 0.6171 m
0.1500 0.6171 l
0.1571 0.6172 l
0.1643 0.6172 l
0.1714 0.6173 l
0.1786 0.6174 l
0.1857 0.6174 l
0.1929 0.6175 l
0.2000 0.6176 l
0.2071 0.6177 l
0.2143 0.6178 l
0.2214 0.6179 l
0.2286 0.6180 l
0.2357 0.6181 l
0.2429 0.6182 l
0.2500 0.6183 l
0.2571 0.6185 l
0.2643 0.6186 l
0.2714 0.6188 l
0.2786 0.6189 l
0.2857 0.6191 l
0.2929 0.6193 l
0.3000 0.6195 l
0.3071 0.6197 l
0.3143 0.6199 l
0.3214 0.6201 l
0.3286 0.6203 l
0.3357 0.6205 l
0.3429 0.6208 l
0.3500 0.6211 l
0.3571 0.6213 l
0.3643 0.6216 l
0.3714 0.6219 l
0.3786 0.6222 l
0.3857 0.6226 l
0.3929 0.6229 l
0.4000 0.6232 l
0.4071 0.6236 l
0.4143 0.6240 l
0.4214 0.6244 l
0.4286 0.6248 l
0.4357 0.6253 l
0.4429 0.6257 l
0.4500 0.6262 l
0.4571 0.6267 l
0.4643 0.6272 l
0.4714 0.6277 l
0.4786 0.6283 l
0.4857 0.6289 l
0.4929 0.6295 l
0.5000 0.6301 l
0.5071 0.6307 l
0.5143 0.6314 l
0.5214 0.6321 l
0.5286 0.6328 l
0.5357 0.6336 l
0.5429 0.6343 l
0.5500 0.6351 l
0.5571 0.6360 l
0.5643 0.6368 l
0.5714 0.6377 l
0.5786 0.6386 l
0.5857 0.6396 l
0.5929 0.6406 l
0.6000 0.6416 l
0.6071 0.6426 l
0.6143 0.6437 l
0.6214 0.6449 l
0.6286 0.6460 l
0.6357 0.6472 l
0.6429 0.6485 l
0.6500 0.6497 l
0.6571 0.6511 l
0.6643 0.6524 l
0.6714 0.6538 l
0.6786 0.6553 l
0.6857 0.6568 l
0.6929 0.6583 l
0.7000 0.6599 l
0.7071 0.6616 l
0.7143 0.6633 l
0.7214 0.6650 l
0.7286 0.6668 l
0.7357 0.6687 l
0.7429 0.6706 l
0.7500 0.6725 l
0.7571 0.6745 l
0.7643 0.6767 l
0.7714 0.6788 l
0.7786 0.6810 l
0.7857 0.6833 l
0.7929 0.6856 l
0.8000 0.6880 l
0.8071 0.6905 l
0.8143 0.6930 l
0.8214 0.6956 l
0.8286 0.6983 l
0.8357 0.7011 l
0.8429 0.7039 l
0.8500 0.7068 l
0.8571 0.7098 l
0.8643 0.7129 l
0.8714 0.7160 l
0.8786 0.7192 l
0.8857 0.7225 l
0.8929 0.7260 l
0.9000 0.7294 l
0.9071 0.7330 l
0.9143 0.7367 l
0.9214 0.7405 l
0.9286 0.7443 l
0.9357 0.7483 l
0.9429 0.7523 l
0.9500 0.7565 l
0.9571 0.7607 l
0.9643 0.7651 l
0.9714 0.7696 l
0.9786 0.7741 l
0.9857 0.7788 l
0.9929 0.7836 l
1.0000 0.7885 l
1.0071 0.7935 l
1.0143 0.7987 l
1.0214 0.8039 l
1.0286 0.8093 l
1.0357 0.8148 l
1.0429 0.8204 l
1.0500 0.8262 l
1.0571 0.8320 l
1.0643 0.8381 l
1.0714 0.8442 l
1.0781 0.8501 l
s
[/DeviceRGB] SCS
Color1 SC
[] 0 SD
0.0045 SLW
n
0.1500 0.1500 m
1.1500 0.1500 l
s
n
0.1500 0.8500 m
1.1500 0.8500 l
s
n
0.2214 0.1500 m
0.2214 0.1600 l
s
n
0.2214 0.8500 m
0.2214 0.8400 l
s
n
0.3643 0.1500 m
0.3643 0.1600 l
s
n
0.3643 0.8500 m
0.3643 0.8400 l
s
n
0.5071 0.1500 m
0.5071 0.1600 l
s
n
0.5071 0.8500 m
0.5071 0.8400 l
s
n
0.6500 0.1500 m
0.6500 0.1600 l
s
n
0.6500 0.8500 m
0.6500 0.8400 l
s
n
0.7929 0.1500 m
0.7929 0.1600 l
s
n
0.7929 0.8500 m
0.7929 0.8400 l
s
n
0.9357 0.1500 m
0.9357 0.1600 l
s
n
0.9357 0.8500 m
0.9357 0.8400 l
s
n
1.0786 0.1500 m
1.0786 0.1600 l
s
n
1.0786 0.8500 m
1.0786 0.8400 l
s
n
0.1500 0.1500 m
0.1500 0.1700 l
s
n
0.1500 0.8500 m
0.1500 0.8300 l
s
n
0.2929 0.1500 m
0.2929 0.1700 l
s
n
0.2929 0.8500 m
0.2929 0.8300 l
s
n
0.4357 0.1500 m
0.4357 0.1700 l
s
n
0.4357 0.8500 m
0.4357 0.8300 l
s
n
0.5786 0.1500 m
0.5786 0.1700 l
s
n
0.5786 0.8500 m
0.5786 0.8300 l
s
n
0.7214 0.1500 m
0.7214 0.1700 l
s
n
0.7214 0.8500 m
0.7214 0.8300 l
s
n
0.8643 0.1500 m
0.8643 0.1700 l
s
n
0.8643 0.8500 m
0.8643 0.8300 l
s
n
1.0071 0.1500 m
1.0071 0.1700 l
s
n
1.0071 0.8500 m
1.0071 0.8300 l
s
/Times-Roman findfont
dup length dict begin
 {1 index /FID ne {def} {pop pop} ifelse} forall
 /Encoding DefEncoding def
 currentdict
end
/Font0 exch definefont pop
/Font0 FFSF
0.1225 0.1094 m
GS
[0.0448 0.0000 0.0000 0.0448 0 0] CC
(0.4) show
GR
/Font0 FFSF
0.2656 0.1094 m
GS
[0.0448 0.0000 0.0000 0.0448 0 0] CC
(0.6) show
GR
/Font0 FFSF
0.4089 0.1094 m
GS
[0.0448 0.0000 0.0000 0.0448 0 0] CC
(0.8) show
GR
/Font0 FFSF
0.5697 0.1094 m
GS
[0.0448 0.0000 0.0000 0.0448 0 0] CC
(1) show
GR
/Font0 FFSF
0.6940 0.1094 m
GS
[0.0448 0.0000 0.0000 0.0448 0 0] CC
(1.2) show
GR
/Font0 FFSF
0.8368 0.1094 m
GS
[0.0448 0.0000 0.0000 0.0448 0 0] CC
(1.4) show
GR
/Font0 FFSF
0.9799 0.1094 m
GS
[0.0448 0.0000 0.0000 0.0448 0 0] CC
(1.6) show
GR
/Font0 FFSF
0.5698 0.0445 m
GS
[0.0504 0.0000 0.0000 0.0504 0 0] CC
(k) show
GR
/Font0 FFSF
0.5949 0.0243 m
GS
[0.0356 0.0000 0.0000 0.0356 0 0] CC
(F) show
GR
/Font0 FFSF
0.6149 0.0445 m
GS
[0.0504 0.0000 0.0000 0.0504 0 0] CC
([fm) show
GR
/Font0 FFSF
0.6878 0.0747 m
GS
[0.0356 0.0000 0.0000 0.0356 0 0] CC
(-1) show
GR
/Font0 FFSF
0.7176 0.0445 m
GS
[0.0504 0.0000 0.0000 0.0504 0 0] CC
(]) show
GR
n
0.1500 0.1500 m
0.1500 0.8500 l
s
n
1.1500 0.1500 m
1.1500 0.8500 l
s
n
0.1500 0.1967 m
0.1600 0.1967 l
s
n
1.1500 0.1967 m
1.1400 0.1967 l
s
n
0.1500 0.2900 m
0.1600 0.2900 l
s
n
1.1500 0.2900 m
1.1400 0.2900 l
s
n
0.1500 0.3833 m
0.1600 0.3833 l
s
n
1.1500 0.3833 m
1.1400 0.3833 l
s
n
0.1500 0.4767 m
0.1600 0.4767 l
s
n
1.1500 0.4767 m
1.1400 0.4767 l
s
n
0.1500 0.5700 m
0.1600 0.5700 l
s
n
1.1500 0.5700 m
1.1400 0.5700 l
s
n
0.1500 0.6633 m
0.1600 0.6633 l
s
n
1.1500 0.6633 m
1.1400 0.6633 l
s
n
0.1500 0.7567 m
0.1600 0.7567 l
s
n
1.1500 0.7567 m
1.1400 0.7567 l
s
n
0.1500 0.8500 m
0.1600 0.8500 l
s
n
1.1500 0.8500 m
1.1400 0.8500 l
s
n
0.1500 0.1500 m
0.1700 0.1500 l
s
n
1.1500 0.1500 m
1.1300 0.1500 l
s
n
0.1500 0.2433 m
0.1700 0.2433 l
s
n
1.1500 0.2433 m
1.1300 0.2433 l
s
n
0.1500 0.3367 m
0.1700 0.3367 l
s
n
1.1500 0.3367 m
1.1300 0.3367 l
s
n
0.1500 0.4300 m
0.1700 0.4300 l
s
n
1.1500 0.4300 m
1.1300 0.4300 l
s
n
0.1500 0.5233 m
0.1700 0.5233 l
s
n
1.1500 0.5233 m
1.1300 0.5233 l
s
n
0.1500 0.6167 m
0.1700 0.6167 l
s
n
1.1500 0.6167 m
1.1300 0.6167 l
s
n
0.1500 0.7100 m
0.1700 0.7100 l
s
n
1.1500 0.7100 m
1.1300 0.7100 l
s
n
0.1500 0.8033 m
0.1700 0.8033 l
s
n
1.1500 0.8033 m
1.1300 0.8033 l
s
/Font0 FFSF
1.1600 0.1351 m
GS
[0.0448 0.0000 0.0000 0.0448 0 0] CC
(-20) show
GR
/Font0 FFSF
1.1600 0.2284 m
GS
[0.0448 0.0000 0.0000 0.0448 0 0] CC
(-16) show
GR
/Font0 FFSF
1.1600 0.3214 m
GS
[0.0448 0.0000 0.0000 0.0448 0 0] CC
(-12) show
GR
/Font0 FFSF
1.1600 0.4151 m
GS
[0.0448 0.0000 0.0000 0.0448 0 0] CC
(-8) show
GR
/Font0 FFSF
1.1600 0.5080 m
GS
[0.0448 0.0000 0.0000 0.0448 0 0] CC
(-4) show
GR
/Font0 FFSF
1.1600 0.6018 m
GS
[0.0448 0.0000 0.0000 0.0448 0 0] CC
(0) show
GR
/Font0 FFSF
1.1600 0.6947 m
GS
[0.0448 0.0000 0.0000 0.0448 0 0] CC
(4) show
GR
/Font0 FFSF
1.1600 0.7884 m
GS
[0.0448 0.0000 0.0000 0.0448 0 0] CC
(8) show
GR
/Font0 FFSF
1.2577 0.4335 m
GS
[0.0000 0.0504 -0.0504 0.0000 0 0] CC
([MeV]) show
GR
[] 0 SD
0.0015 SLW
n
0.1500 0.1500 m
0.1500 0.8500 l
1.1500 0.8500 l
1.1500 0.1500 l
0.1500 0.1500 l
c
s
/Font0 FFSF
0.2000 0.3009 m
GS
[0.0600 0.0000 0.0000 0.0600 0 0] CC
(3) show
GR
/Font0 FFSF
0.2298 0.2500 m
GS
[0.0848 0.0000 0.0000 0.0848 0 0] CC
(P) show
GR
/Font0 FFSF
0.2769 0.2161 m
GS
[0.0600 0.0000 0.0000 0.0600 0 0] CC
(2) show
GR
/Font0 FFSF
0.3067 0.2500 m
GS
[0.0848 0.0000 0.0000 0.0848 0 0] CC
(-) show
GR
/Font0 FFSF
0.3349 0.3009 m
GS
[0.0600 0.0000 0.0000 0.0600 0 0] CC
(3) show
GR
/Font0 FFSF
0.3647 0.2500 m
GS
[0.0848 0.0000 0.0000 0.0848 0 0] CC
(F) show
GR
/Font0 FFSF
0.4118 0.2161 m
GS
[0.0600 0.0000 0.0000 0.0600 0 0] CC
(2) show
GR
showpage
%%PageTrailer
%%Trailer
%%DocumentNeededResources: font Times-Roman
%%EOF
