%!PS-Adobe-3.0
%%BoundingBox: 0 0 612 792
%%LanguageLevel: 2
%%Creator: Grace-5.1.25
%%CreationDate: Mon Oct  3 12:23:00 2016
%%DocumentData: Clean8Bit
%%Orientation: Landscape
%%Pages: 1
%%PageOrder: Ascend
%%Title: EoS_SNM_ST_gogny_recomposed.agr
%%For: ap1450
%%DocumentNeededResources: (atend)
%%EndComments
%%BeginProlog
/PAGE_OFFSET_X 0 def
/PAGE_OFFSET_Y 0 def
/m {moveto} def
/l {lineto} def
/s {stroke} def
/n {newpath} def
/c {closepath} def
/RL {rlineto} def
/SLW {setlinewidth} def
/GS {gsave} def
/GR {grestore} def
/SC {setcolor} def
/SGRY {setgray} def
/SRGB {setrgbcolor} def
/SD {setdash} def
/SLC {setlinecap} def
/SLJ {setlinejoin} def
/SCS {setcolorspace} def
/FFSF {findfont setfont} def
/CC {concat} def
/PXL {n m 0 0 RL s} def
/Color0 {1.0000 1.0000 1.0000} def
/Color1 {0.0000 0.0000 0.0000} def
/Color2 {1.0000 0.0000 0.0000} def
/Color3 {0.0000 1.0000 0.0000} def
/Color4 {0.0000 0.0000 1.0000} def
/Color5 {1.0000 1.0000 0.0000} def
/Color6 {0.7373 0.5608 0.5608} def
/Color7 {0.8627 0.8627 0.8627} def
/Color8 {0.5804 0.0000 0.8275} def
/Color9 {0.0000 1.0000 1.0000} def
/Color10 {1.0000 0.0000 1.0000} def
/Color11 {1.0000 0.6471 0.0000} def
/Color12 {0.4471 0.1294 0.7373} def
/Color13 {0.4039 0.0275 0.2824} def
/Color14 {0.2510 0.8784 0.8157} def
/Color15 {0.0000 0.5451 0.0000} def
/Color16 {0.7529 0.7529 0.7529} def
/Color17 {0.5059 0.5059 0.5059} def
/Color18 {0.2588 0.2588 0.2588} def
/PTRN {
 /pat_bits exch def 
 <<
  /PaintType 2
  /PatternType 1 /TilingType 1
  /BBox[0 0 16 16]
  /XStep 16 /YStep 16
  /PaintProc {
   pop
   16 16 true [-1 0 0 -1 16 16] pat_bits imagemask
  }
 >>
 [0.0016 0 0 0.0016 0 0]
 makepattern
} def
/Pattern0 {<0000000000000000000000000000000000000000000000000000000000000000> PTRN} bind def
/Pattern1 {<ffffffffffffffffffffffffffffffffffffffffffffffffffffffffffffffff> PTRN} bind def
/Pattern2 {<eeeeffffbbbbffffeeeeffffbbbbffffeeeeffffbbbbffffeeeeffffbbbbffff> PTRN} bind def
/Pattern3 {<eeeebbbbeeeebbbbeeeebbbbeeeebbbbeeeebbbbeeeebbbbeeeebbbbeeeebbbb> PTRN} bind def
/Pattern4 {<5555aaaa5555aaaa5555aaaa5555aaaa5555aaaa5555aaaa5555aaaa5555aaaa> PTRN} bind def
/Pattern5 {<1111444411114444111144441111444411114444111144441111444411114444> PTRN} bind def
/Pattern6 {<1111000044440000111100004444000011110000444400001111000044440000> PTRN} bind def
/Pattern7 {<1010000000000000010100000000000010100000000000000101000000000000> PTRN} bind def
/Pattern8 {<0000000000000000000000000000000000000000000000000000000000000000> PTRN} bind def
/Pattern9 {<1e1e0f0f8787c3c3e1e1f0f078783c3c1e1e0f0f8787c3c3e1e1f0f078783c3c> PTRN} bind def
/Pattern10 {<7878f0f0e1e1c3c387870f0f1e1e3c3c7878f0f0e1e1c3c387870f0f1e1e3c3c> PTRN} bind def
/Pattern11 {<3333333333333333333333333333333333333333333333333333333333333333> PTRN} bind def
/Pattern12 {<ffffffff00000000ffffffff00000000ffffffff00000000ffffffff00000000> PTRN} bind def
/Pattern13 {<8181424224241818181824244242818181814242242418181818242442428181> PTRN} bind def
/Pattern14 {<8080404020201010080804040202010180804040202010100808040402020101> PTRN} bind def
/Pattern15 {<0101020204040808101020204040808001010202040408081010202040408080> PTRN} bind def
/Pattern16 {<2222222222222222222222222222222222222222222222222222222222222222> PTRN} bind def
/Pattern17 {<0000ffff000000000000ffff000000000000ffff000000000000ffff00000000> PTRN} bind def
/Pattern18 {<2222ffff222222222222ffff222222222222ffff222222222222ffff22222222> PTRN} bind def
/Pattern19 {<ffffffff33333333ffffffff33333333ffffffff33333333ffffffff33333333> PTRN} bind def
/Pattern20 {<0f0f0f0f0f0f0f0ff0f0f0f0f0f0f0f00f0f0f0f0f0f0f0ff0f0f0f0f0f0f0f0> PTRN} bind def
/Pattern21 {<ff00ff00ff00ff00ff00ff00ff00ff0000ff00ff00ff00ff00ff00ff00ff00ff> PTRN} bind def
/Pattern22 {<8001800180018001800180018001ffffffff8001800180018001800180018001> PTRN} bind def
/Pattern23 {<c003c003c003c003c003c003ffffffffffffffffc003c003c003c003c003c003> PTRN} bind def
/Pattern24 {<040404040404ffff404040404040ffff040404040404ffff404040404040ffff> PTRN} bind def
/Pattern25 {<180018001800180018001800ffffffff001800180018001800180018ffffffff> PTRN} bind def
/Pattern26 {<1111b8b87c7c3a3a1111a3a3c7c78b8b1111b8b87c7c3a3a1111a3a3c7c78b8b> PTRN} bind def
/Pattern27 {<101010102828c7c70101010182827c7c101010102828c7c70101010182827c7c> PTRN} bind def
/Pattern28 {<1c1c121211112121c1c12121111112121c1c121211112121c1c1212111111212> PTRN} bind def
/Pattern29 {<3e3e414180808080e3e31414080808083e3e414180808080e3e3141408080808> PTRN} bind def
/Pattern30 {<4848888884848383848488884848383848488888848483838484888848483838> PTRN} bind def
/Pattern31 {<03030404080808080c0c12122121c0c003030404080808080c0c12122121c0c0> PTRN} bind def
/ellipsedict 8 dict def
ellipsedict /mtrx matrix put
/EARC {
 ellipsedict begin
  /endangle exch def
  /startangle exch def
  /yrad exch def
  /xrad exch def
  /y exch def
  /x exch def
  /savematrix mtrx currentmatrix def
  x y translate
  xrad yrad scale
  0 0 1 startangle endangle arc
  savematrix setmatrix
 end
} def
/TL {
  /kcomp exch def
  /linewidth exch def
  /offset exch def
  GS
  0 offset rmoveto
  linewidth SLW
  dup stringwidth exch kcomp add exch RL s
  GR
} def
/KINIT
{
 /kvector exch def
 /kid 0 def
} def
/KPROC
{
 pop pop
 kvector kid get
 0 rmoveto
 /kid 1 kid add def
} def
/DefEncoding [
 /.notdef
 /.notdef
 /.notdef
 /.notdef
 /.notdef
 /.notdef
 /.notdef
 /.notdef
 /.notdef
 /.notdef
 /.notdef
 /.notdef
 /.notdef
 /.notdef
 /.notdef
 /.notdef
 /.notdef
 /.notdef
 /.notdef
 /.notdef
 /.notdef
 /.notdef
 /.notdef
 /.notdef
 /.notdef
 /.notdef
 /.notdef
 /.notdef
 /.notdef
 /.notdef
 /.notdef
 /.notdef
 /space
 /exclam
 /quotedbl
 /numbersign
 /dollar
 /percent
 /ampersand
 /quoteright
 /parenleft
 /parenright
 /asterisk
 /plus
 /comma
 /hyphen
 /period
 /slash
 /zero
 /one
 /two
 /three
 /four
 /five
 /six
 /seven
 /eight
 /nine
 /colon
 /semicolon
 /less
 /equal
 /greater
 /question
 /at
 /A
 /B
 /C
 /D
 /E
 /F
 /G
 /H
 /I
 /J
 /K
 /L
 /M
 /N
 /O
 /P
 /Q
 /R
 /S
 /T
 /U
 /V
 /W
 /X
 /Y
 /Z
 /bracketleft
 /backslash
 /bracketright
 /asciicircum
 /underscore
 /grave
 /a
 /b
 /c
 /d
 /e
 /f
 /g
 /h
 /i
 /j
 /k
 /l
 /m
 /n
 /o
 /p
 /q
 /r
 /s
 /t
 /u
 /v
 /w
 /x
 /y
 /z
 /braceleft
 /bar
 /braceright
 /asciitilde
 /.notdef
 /.notdef
 /.notdef
 /.notdef
 /.notdef
 /.notdef
 /.notdef
 /.notdef
 /.notdef
 /.notdef
 /.notdef
 /.notdef
 /.notdef
 /.notdef
 /.notdef
 /.notdef
 /.notdef
 /.notdef
 /.notdef
 /.notdef
 /.notdef
 /.notdef
 /.notdef
 /.notdef
 /.notdef
 /.notdef
 /.notdef
 /.notdef
 /.notdef
 /.notdef
 /.notdef
 /.notdef
 /.notdef
 /space
 /exclamdown
 /cent
 /sterling
 /currency
 /yen
 /brokenbar
 /section
 /dieresis
 /copyright
 /ordfeminine
 /guillemotleft
 /logicalnot
 /hyphen
 /registered
 /macron
 /degree
 /plusminus
 /twosuperior
 /threesuperior
 /acute
 /mu
 /paragraph
 /periodcentered
 /cedilla
 /onesuperior
 /ordmasculine
 /guillemotright
 /onequarter
 /onehalf
 /threequarters
 /questiondown
 /Agrave
 /Aacute
 /Acircumflex
 /Atilde
 /Adieresis
 /Aring
 /AE
 /Ccedilla
 /Egrave
 /Eacute
 /Ecircumflex
 /Edieresis
 /Igrave
 /Iacute
 /Icircumflex
 /Idieresis
 /Eth
 /Ntilde
 /Ograve
 /Oacute
 /Ocircumflex
 /Otilde
 /Odieresis
 /multiply
 /Oslash
 /Ugrave
 /Uacute
 /Ucircumflex
 /Udieresis
 /Yacute
 /Thorn
 /germandbls
 /agrave
 /aacute
 /acircumflex
 /atilde
 /adieresis
 /aring
 /ae
 /ccedilla
 /egrave
 /eacute
 /ecircumflex
 /edieresis
 /igrave
 /iacute
 /icircumflex
 /idieresis
 /eth
 /ntilde
 /ograve
 /oacute
 /ocircumflex
 /otilde
 /odieresis
 /divide
 /oslash
 /ugrave
 /uacute
 /ucircumflex
 /udieresis
 /yacute
 /thorn
 /ydieresis
] def
%%EndProlog
%%BeginSetup
%%EndSetup
%%Page: 1 1
PAGE_OFFSET_X PAGE_OFFSET_Y translate
612.00 612.00 scale
90 rotate
0.0 -1.0 translate
[/DeviceRGB] SCS
Color1 SC
[] 0 SD
0.0037 SLW
0 SLC
0 SLJ
n
0.1500 0.7800 m
0.1500 0.7800 l
0.1500 0.7800 l
0.1500 0.7800 l
0.1500 0.7800 l
0.1500 0.7800 l
0.1500 0.7800 l
0.1500 0.7800 l
0.1500 0.7800 l
0.1500 0.7800 l
0.1501 0.7800 l
0.1501 0.7800 l
0.1501 0.7800 l
0.1501 0.7800 l
0.1501 0.7800 l
0.1502 0.7800 l
0.1502 0.7800 l
0.1502 0.7800 l
0.1503 0.7800 l
0.1503 0.7800 l
0.1504 0.7800 l
0.1504 0.7800 l
0.1505 0.7800 l
0.1506 0.7800 l
0.1507 0.7800 l
0.1507 0.7800 l
0.1508 0.7800 l
0.1509 0.7800 l
0.1510 0.7800 l
0.1511 0.7800 l
0.1513 0.7800 l
0.1514 0.7800 l
0.1515 0.7801 l
0.1516 0.7801 l
0.1518 0.7801 l
0.1520 0.7801 l
0.1521 0.7801 l
0.1523 0.7801 l
0.1525 0.7801 l
0.1527 0.7801 l
0.1529 0.7801 l
0.1531 0.7802 l
0.1533 0.7802 l
0.1536 0.7802 l
0.1538 0.7802 l
0.1541 0.7803 l
0.1544 0.7803 l
0.1546 0.7803 l
0.1549 0.7803 l
0.1552 0.7804 l
0.1556 0.7804 l
0.1559 0.7805 l
0.1562 0.7805 l
0.1566 0.7805 l
0.1570 0.7806 l
0.1574 0.7806 l
0.1578 0.7807 l
0.1582 0.7807 l
0.1586 0.7808 l
0.1591 0.7809 l
0.1595 0.7809 l
0.1600 0.7810 l
0.1605 0.7811 l
0.1610 0.7812 l
0.1615 0.7812 l
0.1621 0.7813 l
0.1626 0.7814 l
0.1632 0.7815 l
0.1638 0.7816 l
0.1644 0.7817 l
0.1650 0.7818 l
0.1657 0.7819 l
0.1663 0.7820 l
0.1670 0.7822 l
0.1677 0.7823 l
0.1684 0.7824 l
0.1692 0.7826 l
0.1699 0.7827 l
0.1707 0.7828 l
0.1715 0.7830 l
0.1723 0.7831 l
0.1731 0.7833 l
0.1740 0.7835 l
0.1749 0.7836 l
0.1758 0.7838 l
0.1767 0.7840 l
0.1776 0.7842 l
0.1786 0.7844 l
0.1796 0.7846 l
0.1806 0.7848 l
0.1816 0.7850 l
0.1827 0.7852 l
0.1838 0.7854 l
0.1849 0.7856 l
0.1860 0.7858 l
0.1871 0.7860 l
0.1883 0.7863 l
0.1895 0.7865 l
0.1907 0.7867 l
0.1920 0.7870 l
0.1932 0.7872 l
0.1945 0.7874 l
0.1959 0.7877 l
0.1972 0.7879 l
0.1986 0.7882 l
0.2000 0.7884 l
0.2014 0.7887 l
0.2029 0.7889 l
0.2044 0.7892 l
0.2059 0.7894 l
0.2074 0.7897 l
0.2090 0.7900 l
0.2106 0.7902 l
0.2122 0.7905 l
0.2138 0.7907 l
0.2155 0.7910 l
0.2172 0.7912 l
0.2190 0.7915 l
0.2207 0.7917 l
0.2225 0.7920 l
0.2244 0.7922 l
0.2262 0.7924 l
0.2281 0.7927 l
0.2300 0.7929 l
0.2320 0.7931 l
0.2340 0.7933 l
0.2360 0.7935 l
0.2380 0.7937 l
0.2401 0.7939 l
0.2422 0.7941 l
0.2443 0.7943 l
0.2465 0.7945 l
0.2487 0.7946 l
0.2510 0.7947 l
0.2533 0.7949 l
0.2556 0.7950 l
0.2579 0.7951 l
0.2603 0.7952 l
0.2627 0.7953 l
0.2652 0.7953 l
0.2676 0.7954 l
0.2702 0.7954 l
0.2727 0.7954 l
0.2753 0.7954 l
0.2779 0.7954 l
0.2806 0.7953 l
0.2833 0.7953 l
0.2861 0.7952 l
0.2888 0.7951 l
0.2916 0.7949 l
0.2945 0.7948 l
0.2974 0.7946 l
0.3003 0.7944 l
0.3033 0.7942 l
0.3063 0.7939 l
0.3093 0.7936 l
0.3124 0.7933 l
0.3155 0.7929 l
0.3187 0.7926 l
0.3219 0.7921 l
0.3251 0.7917 l
0.3284 0.7912 l
0.3318 0.7907 l
0.3351 0.7902 l
0.3385 0.7896 l
0.3420 0.7889 l
0.3455 0.7883 l
0.3490 0.7876 l
0.3526 0.7868 l
0.3562 0.7860 l
0.3599 0.7852 l
0.3636 0.7843 l
0.3673 0.7834 l
0.3711 0.7825 l
0.3749 0.7814 l
0.3788 0.7804 l
0.3827 0.7793 l
0.3867 0.7781 l
0.3907 0.7769 l
0.3948 0.7757 l
0.3989 0.7743 l
0.4030 0.7730 l
0.4072 0.7715 l
0.4114 0.7701 l
0.4157 0.7685 l
0.4201 0.7669 l
0.4244 0.7653 l
0.4289 0.7636 l
0.4333 0.7618 l
0.4379 0.7599 l
0.4424 0.7580 l
0.4471 0.7561 l
0.4517 0.7540 l
0.4564 0.7519 l
0.4612 0.7498 l
0.4660 0.7475 l
0.4709 0.7452 l
0.4758 0.7428 l
0.4807 0.7404 l
0.4858 0.7378 l
0.4908 0.7352 l
0.4959 0.7326 l
0.5011 0.7298 l
0.5063 0.7270 l
0.5116 0.7241 l
0.5169 0.7211 l
0.5223 0.7180 l
0.5277 0.7148 l
0.5331 0.7116 l
0.5387 0.7083 l
0.5443 0.7049 l
0.5499 0.7014 l
0.5556 0.6978 l
0.5613 0.6941 l
0.5671 0.6904 l
0.5729 0.6865 l
0.5789 0.6826 l
0.5848 0.6785 l
0.5908 0.6744 l
0.5969 0.6702 l
0.6030 0.6658 l
0.6092 0.6614 l
0.6154 0.6569 l
0.6217 0.6523 l
0.6281 0.6476 l
0.6345 0.6428 l
0.6409 0.6378 l
0.6472 0.6330 l
s
[/DeviceRGB] SCS
Color2 SC
[0.0187 0.0112 ] 0 SD
0.0037 SLW
n
0.1500 0.7676 m
0.1500 0.7799 l
0.1500 0.7800 l
0.1500 0.7800 l
0.1500 0.7800 l
0.1500 0.7800 l
0.1500 0.7800 l
0.1500 0.7800 l
0.1500 0.7800 l
0.1500 0.7800 l
0.1501 0.7800 l
0.1501 0.7800 l
0.1501 0.7800 l
0.1501 0.7800 l
0.1501 0.7800 l
0.1502 0.7800 l
0.1502 0.7800 l
0.1502 0.7800 l
0.1503 0.7800 l
0.1503 0.7800 l
0.1504 0.7800 l
0.1504 0.7800 l
0.1505 0.7800 l
0.1506 0.7800 l
0.1507 0.7800 l
0.1507 0.7800 l
0.1508 0.7800 l
0.1509 0.7800 l
0.1510 0.7800 l
0.1511 0.7800 l
0.1513 0.7800 l
0.1514 0.7800 l
0.1515 0.7801 l
0.1516 0.7801 l
0.1518 0.7801 l
0.1520 0.7801 l
0.1521 0.7801 l
0.1523 0.7801 l
0.1525 0.7801 l
0.1527 0.7801 l
0.1529 0.7801 l
0.1531 0.7802 l
0.1533 0.7802 l
0.1536 0.7802 l
0.1538 0.7802 l
0.1541 0.7803 l
0.1544 0.7803 l
0.1546 0.7803 l
0.1549 0.7803 l
0.1552 0.7804 l
0.1556 0.7804 l
0.1559 0.7805 l
0.1562 0.7805 l
0.1566 0.7805 l
0.1570 0.7806 l
0.1574 0.7806 l
0.1578 0.7807 l
0.1582 0.7807 l
0.1586 0.7808 l
0.1591 0.7809 l
0.1595 0.7809 l
0.1600 0.7810 l
0.1605 0.7811 l
0.1610 0.7812 l
0.1615 0.7812 l
0.1621 0.7813 l
0.1626 0.7814 l
0.1632 0.7815 l
0.1638 0.7816 l
0.1644 0.7817 l
0.1650 0.7818 l
0.1657 0.7819 l
0.1663 0.7820 l
0.1670 0.7822 l
0.1677 0.7823 l
0.1684 0.7824 l
0.1692 0.7826 l
0.1699 0.7827 l
0.1707 0.7828 l
0.1715 0.7830 l
0.1723 0.7831 l
0.1731 0.7833 l
0.1740 0.7835 l
0.1749 0.7836 l
0.1758 0.7838 l
0.1767 0.7840 l
0.1776 0.7842 l
0.1786 0.7844 l
0.1796 0.7846 l
0.1806 0.7848 l
0.1816 0.7850 l
0.1827 0.7852 l
0.1838 0.7854 l
0.1849 0.7856 l
0.1860 0.7858 l
0.1871 0.7860 l
0.1883 0.7863 l
0.1895 0.7865 l
0.1907 0.7867 l
0.1920 0.7870 l
0.1932 0.7872 l
0.1945 0.7874 l
0.1959 0.7877 l
0.1972 0.7879 l
0.1986 0.7882 l
0.2000 0.7884 l
0.2014 0.7887 l
0.2029 0.7889 l
0.2044 0.7892 l
0.2059 0.7894 l
0.2074 0.7897 l
0.2090 0.7900 l
0.2106 0.7902 l
0.2122 0.7905 l
0.2138 0.7907 l
0.2155 0.7910 l
0.2172 0.7912 l
0.2190 0.7915 l
0.2207 0.7917 l
0.2225 0.7920 l
0.2244 0.7922 l
0.2262 0.7924 l
0.2281 0.7927 l
0.2300 0.7929 l
0.2320 0.7931 l
0.2340 0.7933 l
0.2360 0.7935 l
0.2380 0.7937 l
0.2401 0.7939 l
0.2422 0.7941 l
0.2443 0.7943 l
0.2465 0.7944 l
0.2487 0.7946 l
0.2510 0.7947 l
0.2533 0.7949 l
0.2556 0.7950 l
0.2579 0.7951 l
0.2603 0.7952 l
0.2627 0.7952 l
0.2652 0.7953 l
0.2676 0.7953 l
0.2702 0.7954 l
0.2727 0.7954 l
0.2753 0.7954 l
0.2779 0.7953 l
0.2806 0.7953 l
0.2833 0.7952 l
0.2861 0.7951 l
0.2888 0.7950 l
0.2916 0.7949 l
0.2945 0.7947 l
0.2974 0.7945 l
0.3003 0.7943 l
0.3033 0.7941 l
0.3063 0.7938 l
0.3093 0.7935 l
0.3124 0.7932 l
0.3155 0.7928 l
0.3187 0.7924 l
0.3219 0.7920 l
0.3251 0.7916 l
0.3284 0.7911 l
0.3318 0.7905 l
0.3351 0.7900 l
0.3385 0.7894 l
0.3420 0.7887 l
0.3455 0.7881 l
0.3490 0.7873 l
0.3526 0.7866 l
0.3562 0.7858 l
0.3599 0.7849 l
0.3636 0.7840 l
0.3673 0.7831 l
0.3711 0.7821 l
0.3749 0.7811 l
0.3788 0.7800 l
0.3827 0.7789 l
0.3867 0.7777 l
0.3907 0.7765 l
0.3948 0.7752 l
0.3989 0.7738 l
0.4030 0.7724 l
0.4072 0.7710 l
0.4114 0.7695 l
0.4157 0.7679 l
0.4201 0.7663 l
0.4244 0.7646 l
0.4289 0.7628 l
0.4333 0.7610 l
0.4379 0.7591 l
0.4424 0.7572 l
0.4471 0.7552 l
0.4517 0.7531 l
0.4564 0.7509 l
0.4612 0.7487 l
0.4660 0.7464 l
0.4709 0.7440 l
0.4758 0.7416 l
0.4807 0.7391 l
0.4858 0.7365 l
0.4908 0.7338 l
0.4959 0.7310 l
0.5011 0.7282 l
0.5063 0.7253 l
0.5116 0.7223 l
0.5169 0.7192 l
0.5223 0.7161 l
0.5277 0.7128 l
0.5331 0.7095 l
0.5387 0.7060 l
0.5443 0.7025 l
0.5499 0.6989 l
0.5556 0.6952 l
0.5613 0.6914 l
0.5671 0.6876 l
0.5729 0.6836 l
0.5789 0.6795 l
0.5848 0.6753 l
0.5908 0.6711 l
0.5969 0.6667 l
0.6030 0.6622 l
0.6092 0.6576 l
0.6154 0.6529 l
0.6217 0.6482 l
0.6281 0.6433 l
0.6345 0.6383 l
0.6409 0.6332 l
0.6472 0.6282 l
s
[/DeviceRGB] SCS
Color1 SC
[] 0 SD
0.0045 SLW
n
0.1500 0.5000 m
0.6471 0.5000 l
s
n
0.1500 0.8500 m
0.6471 0.8500 l
s
n
0.2121 0.5000 m
0.2121 0.5100 l
s
n
0.2121 0.8500 m
0.2121 0.8400 l
s
n
0.3364 0.5000 m
0.3364 0.5100 l
s
n
0.3364 0.8500 m
0.3364 0.8400 l
s
n
0.4607 0.5000 m
0.4607 0.5100 l
s
n
0.4607 0.8500 m
0.4607 0.8400 l
s
n
0.5849 0.5000 m
0.5849 0.5100 l
s
n
0.5849 0.8500 m
0.5849 0.8400 l
s
n
0.1500 0.5000 m
0.1500 0.5200 l
s
n
0.1500 0.8500 m
0.1500 0.8300 l
s
n
0.2743 0.5000 m
0.2743 0.5200 l
s
n
0.2743 0.8500 m
0.2743 0.8300 l
s
n
0.3985 0.5000 m
0.3985 0.5200 l
s
n
0.3985 0.8500 m
0.3985 0.8300 l
s
n
0.5228 0.5000 m
0.5228 0.5200 l
s
n
0.5228 0.8500 m
0.5228 0.8300 l
s
n
0.6471 0.5000 m
0.6471 0.5200 l
s
n
0.6471 0.8500 m
0.6471 0.8300 l
s
n
0.1500 0.5000 m
0.1500 0.8500 l
s
n
0.1500 0.5350 m
0.1600 0.5350 l
s
n
0.1500 0.6050 m
0.1600 0.6050 l
s
n
0.1500 0.6750 m
0.1600 0.6750 l
s
n
0.1500 0.7450 m
0.1600 0.7450 l
s
n
0.1500 0.8150 m
0.1600 0.8150 l
s
n
0.1500 0.5000 m
0.1700 0.5000 l
s
n
0.1500 0.5700 m
0.1700 0.5700 l
s
n
0.1500 0.6400 m
0.1700 0.6400 l
s
n
0.1500 0.7100 m
0.1700 0.7100 l
s
n
0.1500 0.7800 m
0.1700 0.7800 l
s
n
0.1500 0.8500 m
0.1700 0.8500 l
s
/Times-Roman findfont
dup length dict begin
 {1 index /FID ne {def} {pop pop} ifelse} forall
 /Encoding DefEncoding def
 currentdict
end
/Font0 exch definefont pop
/Font0 FFSF
0.0816 0.4851 m
GS
[0.0448 0.0000 0.0000 0.0448 0 0] CC
(-40) show
GR
/Font0 FFSF
0.0816 0.5551 m
GS
[0.0448 0.0000 0.0000 0.0448 0 0] CC
(-30) show
GR
/Font0 FFSF
0.0816 0.6251 m
GS
[0.0448 0.0000 0.0000 0.0448 0 0] CC
(-20) show
GR
/Font0 FFSF
0.0816 0.6951 m
GS
[0.0448 0.0000 0.0000 0.0448 0 0] CC
(-10) show
GR
/Font0 FFSF
0.1188 0.7651 m
GS
[0.0448 0.0000 0.0000 0.0448 0 0] CC
(0) show
GR
/Font0 FFSF
0.0965 0.8351 m
GS
[0.0448 0.0000 0.0000 0.0448 0 0] CC
(10) show
GR
/Font0 FFSF
0.0633 0.5795 m
GS
[0.0000 0.0459 -0.0459 0.0000 0 0] CC
(\(S=0,T=0\)) show
GR
[] 0 SD
0.0015 SLW
n
0.1500 0.5000 m
0.1500 0.8500 l
0.6471 0.8500 l
0.6471 0.5000 l
0.1500 0.5000 l
c
s
/Font0 FFSF
0.5228 0.8850 m
GS
[0.0580 0.0000 0.0000 0.0580 0 0] CC
(Gogny D1S) show
GR
[] 0 SD
0.0037 SLW
n
0.6471 0.6167 m
0.6471 0.6167 l
0.6471 0.6167 l
0.6471 0.6167 l
0.6471 0.6167 l
0.6471 0.6167 l
0.6471 0.6167 l
0.6471 0.6167 l
0.6471 0.6167 l
0.6471 0.6167 l
0.6471 0.6167 l
0.6471 0.6167 l
0.6472 0.6167 l
0.6472 0.6167 l
0.6472 0.6167 l
0.6472 0.6167 l
0.6473 0.6167 l
0.6473 0.6167 l
0.6473 0.6167 l
0.6474 0.6167 l
0.6474 0.6167 l
0.6475 0.6167 l
0.6476 0.6167 l
0.6476 0.6167 l
0.6477 0.6167 l
0.6478 0.6167 l
0.6479 0.6167 l
0.6480 0.6167 l
0.6481 0.6167 l
0.6482 0.6167 l
0.6483 0.6167 l
0.6484 0.6167 l
0.6486 0.6167 l
0.6487 0.6167 l
0.6489 0.6167 l
0.6490 0.6167 l
0.6492 0.6167 l
0.6494 0.6167 l
0.6495 0.6167 l
0.6497 0.6167 l
0.6500 0.6167 l
0.6502 0.6167 l
0.6504 0.6167 l
0.6506 0.6167 l
0.6509 0.6167 l
0.6511 0.6167 l
0.6514 0.6167 l
0.6517 0.6167 l
0.6520 0.6167 l
0.6523 0.6167 l
0.6526 0.6167 l
0.6530 0.6167 l
0.6533 0.6167 l
0.6537 0.6167 l
0.6540 0.6167 l
0.6544 0.6168 l
0.6548 0.6168 l
0.6552 0.6168 l
0.6557 0.6168 l
0.6561 0.6168 l
0.6566 0.6168 l
0.6571 0.6168 l
0.6576 0.6168 l
0.6581 0.6168 l
0.6586 0.6168 l
0.6591 0.6169 l
0.6597 0.6169 l
0.6603 0.6169 l
0.6608 0.6169 l
0.6615 0.6169 l
0.6621 0.6169 l
0.6627 0.6170 l
0.6634 0.6170 l
0.6641 0.6170 l
0.6648 0.6170 l
0.6655 0.6170 l
0.6662 0.6171 l
0.6670 0.6171 l
0.6678 0.6171 l
0.6685 0.6171 l
0.6694 0.6172 l
0.6702 0.6172 l
0.6711 0.6172 l
0.6719 0.6173 l
0.6728 0.6173 l
0.6738 0.6173 l
0.6747 0.6174 l
0.6757 0.6174 l
0.6766 0.6174 l
0.6777 0.6175 l
0.6787 0.6175 l
0.6797 0.6176 l
0.6808 0.6176 l
0.6819 0.6177 l
0.6830 0.6177 l
0.6842 0.6178 l
0.6854 0.6178 l
0.6866 0.6179 l
0.6878 0.6179 l
0.6890 0.6180 l
0.6903 0.6180 l
0.6916 0.6181 l
0.6929 0.6181 l
0.6943 0.6182 l
0.6956 0.6183 l
0.6970 0.6183 l
0.6985 0.6184 l
0.6999 0.6185 l
0.7014 0.6186 l
0.7029 0.6186 l
0.7045 0.6187 l
0.7060 0.6188 l
0.7076 0.6189 l
0.7092 0.6189 l
0.7109 0.6190 l
0.7126 0.6191 l
0.7143 0.6192 l
0.7160 0.6193 l
0.7178 0.6194 l
0.7196 0.6195 l
0.7214 0.6196 l
0.7233 0.6197 l
0.7252 0.6198 l
0.7271 0.6199 l
0.7290 0.6200 l
0.7310 0.6201 l
0.7330 0.6202 l
0.7351 0.6204 l
0.7372 0.6205 l
0.7393 0.6206 l
0.7414 0.6207 l
0.7436 0.6208 l
0.7458 0.6210 l
0.7480 0.6211 l
0.7503 0.6212 l
0.7526 0.6214 l
0.7550 0.6215 l
0.7574 0.6217 l
0.7598 0.6218 l
0.7622 0.6220 l
0.7647 0.6221 l
0.7672 0.6223 l
0.7698 0.6224 l
0.7724 0.6226 l
0.7750 0.6227 l
0.7777 0.6229 l
0.7804 0.6231 l
0.7831 0.6232 l
0.7859 0.6234 l
0.7887 0.6236 l
0.7916 0.6238 l
0.7944 0.6239 l
0.7974 0.6241 l
0.8003 0.6243 l
0.8033 0.6245 l
0.8064 0.6247 l
0.8095 0.6249 l
0.8126 0.6251 l
0.8158 0.6253 l
0.8190 0.6255 l
0.8222 0.6257 l
0.8255 0.6259 l
0.8288 0.6261 l
0.8322 0.6263 l
0.8356 0.6266 l
0.8390 0.6268 l
0.8425 0.6270 l
0.8461 0.6272 l
0.8496 0.6275 l
0.8533 0.6277 l
0.8569 0.6279 l
0.8606 0.6282 l
0.8644 0.6284 l
0.8682 0.6287 l
0.8720 0.6289 l
0.8759 0.6292 l
0.8798 0.6294 l
0.8838 0.6297 l
0.8878 0.6299 l
0.8918 0.6302 l
0.8959 0.6305 l
0.9001 0.6307 l
0.9043 0.6310 l
0.9085 0.6313 l
0.9128 0.6316 l
0.9171 0.6319 l
0.9215 0.6321 l
0.9259 0.6324 l
0.9304 0.6327 l
0.9349 0.6330 l
0.9395 0.6333 l
0.9441 0.6336 l
0.9488 0.6339 l
0.9535 0.6342 l
0.9583 0.6345 l
0.9631 0.6349 l
0.9679 0.6352 l
0.9728 0.6355 l
0.9778 0.6358 l
0.9828 0.6361 l
0.9879 0.6365 l
0.9930 0.6368 l
0.9981 0.6371 l
1.0034 0.6375 l
1.0086 0.6378 l
1.0139 0.6382 l
1.0193 0.6385 l
1.0247 0.6389 l
1.0302 0.6392 l
1.0357 0.6396 l
1.0413 0.6399 l
1.0469 0.6403 l
1.0526 0.6407 l
1.0584 0.6410 l
1.0642 0.6414 l
1.0700 0.6418 l
1.0759 0.6422 l
1.0819 0.6425 l
1.0879 0.6429 l
1.0939 0.6433 l
1.1001 0.6437 l
1.1062 0.6441 l
1.1125 0.6445 l
1.1188 0.6449 l
1.1251 0.6453 l
1.1315 0.6457 l
1.1380 0.6461 l
1.1442 0.6465 l
s
[/DeviceRGB] SCS
Color2 SC
[0.0187 0.0112 ] 0 SD
0.0037 SLW
n
0.6471 0.6164 m
0.6471 0.6167 l
0.6471 0.6167 l
0.6471 0.6167 l
0.6471 0.6167 l
0.6471 0.6167 l
0.6471 0.6167 l
0.6471 0.6167 l
0.6471 0.6167 l
0.6471 0.6167 l
0.6471 0.6167 l
0.6471 0.6167 l
0.6472 0.6167 l
0.6472 0.6167 l
0.6472 0.6167 l
0.6472 0.6167 l
0.6473 0.6167 l
0.6473 0.6167 l
0.6473 0.6167 l
0.6474 0.6167 l
0.6474 0.6167 l
0.6475 0.6167 l
0.6476 0.6167 l
0.6476 0.6167 l
0.6477 0.6167 l
0.6478 0.6167 l
0.6479 0.6167 l
0.6480 0.6167 l
0.6481 0.6167 l
0.6482 0.6167 l
0.6483 0.6167 l
0.6484 0.6167 l
0.6486 0.6167 l
0.6487 0.6167 l
0.6489 0.6167 l
0.6490 0.6167 l
0.6492 0.6167 l
0.6494 0.6167 l
0.6495 0.6167 l
0.6497 0.6167 l
0.6500 0.6167 l
0.6502 0.6167 l
0.6504 0.6167 l
0.6506 0.6167 l
0.6509 0.6167 l
0.6511 0.6167 l
0.6514 0.6167 l
0.6517 0.6167 l
0.6520 0.6167 l
0.6523 0.6167 l
0.6526 0.6167 l
0.6530 0.6167 l
0.6533 0.6167 l
0.6537 0.6167 l
0.6540 0.6167 l
0.6544 0.6168 l
0.6548 0.6168 l
0.6552 0.6168 l
0.6557 0.6168 l
0.6561 0.6168 l
0.6566 0.6168 l
0.6571 0.6168 l
0.6576 0.6168 l
0.6581 0.6168 l
0.6586 0.6168 l
0.6591 0.6169 l
0.6597 0.6169 l
0.6603 0.6169 l
0.6608 0.6169 l
0.6615 0.6169 l
0.6621 0.6169 l
0.6627 0.6170 l
0.6634 0.6170 l
0.6641 0.6170 l
0.6648 0.6170 l
0.6655 0.6170 l
0.6662 0.6171 l
0.6670 0.6171 l
0.6678 0.6171 l
0.6685 0.6171 l
0.6694 0.6172 l
0.6702 0.6172 l
0.6711 0.6172 l
0.6719 0.6173 l
0.6728 0.6173 l
0.6738 0.6173 l
0.6747 0.6174 l
0.6757 0.6174 l
0.6766 0.6174 l
0.6777 0.6175 l
0.6787 0.6175 l
0.6797 0.6176 l
0.6808 0.6176 l
0.6819 0.6177 l
0.6830 0.6177 l
0.6842 0.6178 l
0.6854 0.6178 l
0.6866 0.6179 l
0.6878 0.6179 l
0.6890 0.6180 l
0.6903 0.6180 l
0.6916 0.6181 l
0.6929 0.6181 l
0.6943 0.6182 l
0.6956 0.6183 l
0.6970 0.6183 l
0.6985 0.6184 l
0.6999 0.6185 l
0.7014 0.6186 l
0.7029 0.6186 l
0.7045 0.6187 l
0.7060 0.6188 l
0.7076 0.6189 l
0.7092 0.6189 l
0.7109 0.6190 l
0.7126 0.6191 l
0.7143 0.6192 l
0.7160 0.6193 l
0.7178 0.6194 l
0.7196 0.6195 l
0.7214 0.6196 l
0.7233 0.6197 l
0.7252 0.6198 l
0.7271 0.6199 l
0.7290 0.6200 l
0.7310 0.6201 l
0.7330 0.6202 l
0.7351 0.6204 l
0.7372 0.6205 l
0.7393 0.6206 l
0.7414 0.6207 l
0.7436 0.6208 l
0.7458 0.6210 l
0.7480 0.6211 l
0.7503 0.6212 l
0.7526 0.6214 l
0.7550 0.6215 l
0.7574 0.6217 l
0.7598 0.6218 l
0.7622 0.6220 l
0.7647 0.6221 l
0.7672 0.6223 l
0.7698 0.6224 l
0.7724 0.6226 l
0.7750 0.6227 l
0.7777 0.6229 l
0.7804 0.6231 l
0.7831 0.6232 l
0.7859 0.6234 l
0.7887 0.6236 l
0.7916 0.6238 l
0.7944 0.6239 l
0.7974 0.6241 l
0.8003 0.6243 l
0.8033 0.6245 l
0.8064 0.6247 l
0.8095 0.6249 l
0.8126 0.6251 l
0.8158 0.6253 l
0.8190 0.6255 l
0.8222 0.6257 l
0.8255 0.6259 l
0.8288 0.6261 l
0.8322 0.6263 l
0.8356 0.6265 l
0.8390 0.6268 l
0.8425 0.6270 l
0.8461 0.6272 l
0.8496 0.6275 l
0.8533 0.6277 l
0.8569 0.6279 l
0.8606 0.6282 l
0.8644 0.6284 l
0.8682 0.6286 l
0.8720 0.6289 l
0.8759 0.6291 l
0.8798 0.6294 l
0.8838 0.6297 l
0.8878 0.6299 l
0.8918 0.6302 l
0.8959 0.6304 l
0.9001 0.6307 l
0.9043 0.6310 l
0.9085 0.6313 l
0.9128 0.6315 l
0.9171 0.6318 l
0.9215 0.6321 l
0.9259 0.6324 l
0.9304 0.6327 l
0.9349 0.6330 l
0.9395 0.6333 l
0.9441 0.6336 l
0.9488 0.6339 l
0.9535 0.6342 l
0.9583 0.6345 l
0.9631 0.6348 l
0.9679 0.6351 l
0.9728 0.6354 l
0.9778 0.6357 l
0.9828 0.6361 l
0.9879 0.6364 l
0.9930 0.6367 l
0.9981 0.6371 l
1.0034 0.6374 l
1.0086 0.6377 l
1.0139 0.6381 l
1.0193 0.6384 l
1.0247 0.6387 l
1.0302 0.6391 l
1.0357 0.6394 l
1.0413 0.6398 l
1.0469 0.6402 l
1.0526 0.6405 l
1.0584 0.6409 l
1.0642 0.6412 l
1.0700 0.6416 l
1.0759 0.6420 l
1.0819 0.6424 l
1.0879 0.6427 l
1.0939 0.6431 l
1.1001 0.6435 l
1.1062 0.6439 l
1.1125 0.6443 l
1.1188 0.6447 l
1.1251 0.6451 l
1.1315 0.6455 l
1.1380 0.6459 l
1.1442 0.6462 l
s
[/DeviceRGB] SCS
Color1 SC
[] 0 SD
0.0045 SLW
n
0.6471 0.5000 m
1.1441 0.5000 l
s
n
0.6471 0.8500 m
1.1441 0.8500 l
s
n
0.7092 0.5000 m
0.7092 0.5100 l
s
n
0.7092 0.8500 m
0.7092 0.8400 l
s
n
0.8335 0.5000 m
0.8335 0.5100 l
s
n
0.8335 0.8500 m
0.8335 0.8400 l
s
n
0.9577 0.5000 m
0.9577 0.5100 l
s
n
0.9577 0.8500 m
0.9577 0.8400 l
s
n
1.0820 0.5000 m
1.0820 0.5100 l
s
n
1.0820 0.8500 m
1.0820 0.8400 l
s
n
0.6471 0.5000 m
0.6471 0.5200 l
s
n
0.6471 0.8500 m
0.6471 0.8300 l
s
n
0.7713 0.5000 m
0.7713 0.5200 l
s
n
0.7713 0.8500 m
0.7713 0.8300 l
s
n
0.8956 0.5000 m
0.8956 0.5200 l
s
n
0.8956 0.8500 m
0.8956 0.8300 l
s
n
1.0199 0.5000 m
1.0199 0.5200 l
s
n
1.0199 0.8500 m
1.0199 0.8300 l
s
n
1.1441 0.5000 m
1.1441 0.5200 l
s
n
1.1441 0.8500 m
1.1441 0.8300 l
s
n
0.6471 0.5000 m
0.6471 0.8500 l
s
n
1.1441 0.5000 m
1.1441 0.8500 l
s
n
0.6471 0.5000 m
0.6571 0.5000 l
s
n
1.1441 0.5000 m
1.1341 0.5000 l
s
n
0.6471 0.5467 m
0.6571 0.5467 l
s
n
1.1441 0.5467 m
1.1341 0.5467 l
s
n
0.6471 0.5933 m
0.6571 0.5933 l
s
n
1.1441 0.5933 m
1.1341 0.5933 l
s
n
0.6471 0.6400 m
0.6571 0.6400 l
s
n
1.1441 0.6400 m
1.1341 0.6400 l
s
n
0.6471 0.6867 m
0.6571 0.6867 l
s
n
1.1441 0.6867 m
1.1341 0.6867 l
s
n
0.6471 0.7333 m
0.6571 0.7333 l
s
n
1.1441 0.7333 m
1.1341 0.7333 l
s
n
0.6471 0.7800 m
0.6571 0.7800 l
s
n
1.1441 0.7800 m
1.1341 0.7800 l
s
n
0.6471 0.8267 m
0.6571 0.8267 l
s
n
1.1441 0.8267 m
1.1341 0.8267 l
s
n
0.6471 0.5233 m
0.6671 0.5233 l
s
n
1.1441 0.5233 m
1.1241 0.5233 l
s
n
0.6471 0.5700 m
0.6671 0.5700 l
s
n
1.1441 0.5700 m
1.1241 0.5700 l
s
n
0.6471 0.6167 m
0.6671 0.6167 l
s
n
1.1441 0.6167 m
1.1241 0.6167 l
s
n
0.6471 0.6633 m
0.6671 0.6633 l
s
n
1.1441 0.6633 m
1.1241 0.6633 l
s
n
0.6471 0.7100 m
0.6671 0.7100 l
s
n
1.1441 0.7100 m
1.1241 0.7100 l
s
n
0.6471 0.7567 m
0.6671 0.7567 l
s
n
1.1441 0.7567 m
1.1241 0.7567 l
s
n
0.6471 0.8033 m
0.6671 0.8033 l
s
n
1.1441 0.8033 m
1.1241 0.8033 l
s
n
0.6471 0.8500 m
0.6671 0.8500 l
s
n
1.1441 0.8500 m
1.1241 0.8500 l
s
/Font0 FFSF
1.1541 0.5080 m
GS
[0.0448 0.0000 0.0000 0.0448 0 0] CC
(-4) show
GR
/Font0 FFSF
1.1541 0.5547 m
GS
[0.0448 0.0000 0.0000 0.0448 0 0] CC
(-2) show
GR
/Font0 FFSF
1.1541 0.6018 m
GS
[0.0448 0.0000 0.0000 0.0448 0 0] CC
(0) show
GR
/Font0 FFSF
1.1541 0.6480 m
GS
[0.0448 0.0000 0.0000 0.0448 0 0] CC
(2) show
GR
/Font0 FFSF
1.1541 0.6947 m
GS
[0.0448 0.0000 0.0000 0.0448 0 0] CC
(4) show
GR
/Font0 FFSF
1.1541 0.7418 m
GS
[0.0448 0.0000 0.0000 0.0448 0 0] CC
(6) show
GR
/Font0 FFSF
1.1541 0.7884 m
GS
[0.0448 0.0000 0.0000 0.0448 0 0] CC
(8) show
GR
/Font0 FFSF
1.1541 0.8351 m
GS
[0.0448 0.0000 0.0000 0.0448 0 0] CC
(10) show
GR
/Font0 FFSF
1.2390 0.5795 m
GS
[0.0000 0.0459 -0.0459 0.0000 0 0] CC
(\(S=1,T=1\)) show
GR
[] 0 SD
0.0015 SLW
n
0.6471 0.5000 m
0.6471 0.8500 l
1.1441 0.8500 l
1.1441 0.5000 l
0.6471 0.5000 l
c
s
n
0.6470 0.8500 m
0.6470 0.7392 l
0.9481 0.7392 l
0.9481 0.8500 l
c
[/DeviceRGB] SCS
Color0 SC
fill
[/DeviceRGB] SCS
Color1 SC
[] 0 SD
0.0045 SLW
n
0.6470 0.8500 m
0.6470 0.7392 l
0.9481 0.7392 l
0.9481 0.8500 l
0.6470 0.8500 l
c
s
/Font0 FFSF
0.7189 0.8051 m
GS
[0.0510 0.0000 0.0000 0.0510 0 0] CC
(Full) show
GR
[] 0 SD
0.0037 SLW
n
0.6589 0.8224 m
0.6989 0.8224 l
s
/Font0 FFSF
0.7189 0.7602 m
GS
[0.0510 0.0000 0.0000 0.0510 0 0] CC
(Eqs. 41-44) show
GR
[/DeviceRGB] SCS
Color2 SC
[0.0187 0.0112 ] 0 SD
0.0037 SLW
n
0.6589 0.7720 m
0.6989 0.7720 l
s
[/DeviceRGB] SCS
Color1 SC
[] 0 SD
0.0037 SLW
n
0.1500 0.3000 m
0.1500 0.3000 l
0.1500 0.3000 l
0.1500 0.3000 l
0.1500 0.3000 l
0.1500 0.3000 l
0.1500 0.2999 l
0.1500 0.2999 l
0.1500 0.2999 l
0.1500 0.2998 l
0.1501 0.2998 l
0.1501 0.2997 l
0.1501 0.2996 l
0.1501 0.2995 l
0.1501 0.2994 l
0.1502 0.2993 l
0.1502 0.2992 l
0.1502 0.2991 l
0.1503 0.2989 l
0.1503 0.2987 l
0.1504 0.2985 l
0.1504 0.2983 l
0.1505 0.2981 l
0.1506 0.2978 l
0.1507 0.2976 l
0.1507 0.2973 l
0.1508 0.2970 l
0.1509 0.2966 l
0.1510 0.2963 l
0.1511 0.2959 l
0.1513 0.2955 l
0.1514 0.2951 l
0.1515 0.2947 l
0.1516 0.2942 l
0.1518 0.2937 l
0.1520 0.2932 l
0.1521 0.2926 l
0.1523 0.2921 l
0.1525 0.2915 l
0.1527 0.2909 l
0.1529 0.2902 l
0.1531 0.2896 l
0.1533 0.2889 l
0.1536 0.2882 l
0.1538 0.2874 l
0.1541 0.2867 l
0.1544 0.2859 l
0.1546 0.2850 l
0.1549 0.2842 l
0.1552 0.2833 l
0.1556 0.2824 l
0.1559 0.2815 l
0.1562 0.2805 l
0.1566 0.2796 l
0.1570 0.2786 l
0.1574 0.2775 l
0.1578 0.2765 l
0.1582 0.2754 l
0.1586 0.2743 l
0.1591 0.2732 l
0.1595 0.2721 l
0.1600 0.2709 l
0.1605 0.2697 l
0.1610 0.2685 l
0.1615 0.2672 l
0.1621 0.2660 l
0.1626 0.2647 l
0.1632 0.2634 l
0.1638 0.2621 l
0.1644 0.2608 l
0.1650 0.2594 l
0.1657 0.2580 l
0.1663 0.2566 l
0.1670 0.2552 l
0.1677 0.2538 l
0.1684 0.2524 l
0.1692 0.2509 l
0.1699 0.2495 l
0.1707 0.2480 l
0.1715 0.2465 l
0.1723 0.2450 l
0.1731 0.2435 l
0.1740 0.2419 l
0.1749 0.2404 l
0.1758 0.2389 l
0.1767 0.2373 l
0.1776 0.2358 l
0.1786 0.2342 l
0.1796 0.2327 l
0.1806 0.2311 l
0.1816 0.2295 l
0.1827 0.2280 l
0.1838 0.2264 l
0.1849 0.2249 l
0.1860 0.2233 l
0.1871 0.2218 l
0.1883 0.2202 l
0.1895 0.2187 l
0.1907 0.2172 l
0.1920 0.2156 l
0.1932 0.2141 l
0.1945 0.2126 l
0.1959 0.2111 l
0.1972 0.2097 l
0.1986 0.2082 l
0.2000 0.2068 l
0.2014 0.2054 l
0.2029 0.2040 l
0.2044 0.2026 l
0.2059 0.2013 l
0.2074 0.2000 l
0.2090 0.1987 l
0.2106 0.1974 l
0.2122 0.1962 l
0.2138 0.1950 l
0.2155 0.1938 l
0.2172 0.1926 l
0.2190 0.1915 l
0.2207 0.1905 l
0.2225 0.1895 l
0.2244 0.1885 l
0.2262 0.1876 l
0.2281 0.1867 l
0.2300 0.1858 l
0.2320 0.1850 l
0.2340 0.1843 l
0.2360 0.1836 l
0.2380 0.1830 l
0.2401 0.1824 l
0.2422 0.1819 l
0.2443 0.1814 l
0.2465 0.1810 l
0.2487 0.1807 l
0.2510 0.1804 l
0.2533 0.1802 l
0.2556 0.1801 l
0.2579 0.1800 l
0.2603 0.1800 l
0.2627 0.1801 l
0.2652 0.1803 l
0.2676 0.1805 l
0.2702 0.1809 l
0.2727 0.1813 l
0.2753 0.1818 l
0.2779 0.1824 l
0.2806 0.1831 l
0.2833 0.1838 l
0.2861 0.1847 l
0.2888 0.1857 l
0.2916 0.1868 l
0.2945 0.1879 l
0.2974 0.1892 l
0.3003 0.1906 l
0.3033 0.1921 l
0.3063 0.1937 l
0.3093 0.1954 l
0.3124 0.1972 l
0.3155 0.1992 l
0.3187 0.2013 l
0.3219 0.2035 l
0.3251 0.2058 l
0.3284 0.2083 l
0.3318 0.2108 l
0.3351 0.2136 l
0.3385 0.2164 l
0.3420 0.2194 l
0.3455 0.2225 l
0.3490 0.2258 l
0.3526 0.2292 l
0.3562 0.2328 l
0.3599 0.2365 l
0.3636 0.2404 l
0.3673 0.2444 l
0.3711 0.2486 l
0.3749 0.2530 l
0.3788 0.2575 l
0.3827 0.2622 l
0.3867 0.2671 l
0.3907 0.2721 l
0.3948 0.2773 l
0.3989 0.2827 l
0.4030 0.2882 l
0.4072 0.2940 l
0.4114 0.2999 l
0.4157 0.3060 l
0.4201 0.3124 l
0.4244 0.3189 l
0.4289 0.3256 l
0.4333 0.3325 l
0.4379 0.3396 l
0.4424 0.3469 l
0.4471 0.3545 l
0.4517 0.3622 l
0.4564 0.3702 l
0.4612 0.3783 l
0.4660 0.3867 l
0.4709 0.3954 l
0.4758 0.4042 l
0.4807 0.4133 l
0.4858 0.4226 l
0.4908 0.4322 l
0.4959 0.4420 l
0.5011 0.4520 l
0.5063 0.4623 l
0.5116 0.4728 l
0.5169 0.4836 l
0.5223 0.4946 l
0.5249 0.5001 l
s
[/DeviceRGB] SCS
Color2 SC
[0.0187 0.0112 ] 0 SD
0.0037 SLW
n
0.1500 0.3000 m
0.1500 0.3000 l
0.1500 0.3000 l
0.1500 0.3000 l
0.1500 0.3000 l
0.1500 0.3000 l
0.1500 0.2999 l
0.1500 0.2999 l
0.1500 0.2999 l
0.1500 0.2998 l
0.1501 0.2998 l
0.1501 0.2997 l
0.1501 0.2996 l
0.1501 0.2995 l
0.1501 0.2994 l
0.1502 0.2993 l
0.1502 0.2992 l
0.1502 0.2991 l
0.1503 0.2989 l
0.1503 0.2987 l
0.1504 0.2985 l
0.1504 0.2983 l
0.1505 0.2981 l
0.1506 0.2978 l
0.1507 0.2976 l
0.1507 0.2973 l
0.1508 0.2970 l
0.1509 0.2966 l
0.1510 0.2963 l
0.1511 0.2959 l
0.1513 0.2955 l
0.1514 0.2951 l
0.1515 0.2947 l
0.1516 0.2942 l
0.1518 0.2937 l
0.1520 0.2932 l
0.1521 0.2926 l
0.1523 0.2921 l
0.1525 0.2915 l
0.1527 0.2909 l
0.1529 0.2902 l
0.1531 0.2896 l
0.1533 0.2889 l
0.1536 0.2882 l
0.1538 0.2874 l
0.1541 0.2867 l
0.1544 0.2859 l
0.1546 0.2850 l
0.1549 0.2842 l
0.1552 0.2833 l
0.1556 0.2824 l
0.1559 0.2815 l
0.1562 0.2805 l
0.1566 0.2796 l
0.1570 0.2786 l
0.1574 0.2775 l
0.1578 0.2765 l
0.1582 0.2754 l
0.1586 0.2743 l
0.1591 0.2732 l
0.1595 0.2721 l
0.1600 0.2709 l
0.1605 0.2697 l
0.1610 0.2685 l
0.1615 0.2672 l
0.1621 0.2660 l
0.1626 0.2647 l
0.1632 0.2634 l
0.1638 0.2621 l
0.1644 0.2608 l
0.1650 0.2594 l
0.1657 0.2580 l
0.1663 0.2566 l
0.1670 0.2552 l
0.1677 0.2538 l
0.1684 0.2524 l
0.1692 0.2509 l
0.1699 0.2495 l
0.1707 0.2480 l
0.1715 0.2465 l
0.1723 0.2450 l
0.1731 0.2435 l
0.1740 0.2419 l
0.1749 0.2404 l
0.1758 0.2389 l
0.1767 0.2373 l
0.1776 0.2358 l
0.1786 0.2342 l
0.1796 0.2327 l
0.1806 0.2311 l
0.1816 0.2296 l
0.1827 0.2280 l
0.1838 0.2264 l
0.1849 0.2249 l
0.1860 0.2233 l
0.1871 0.2218 l
0.1883 0.2202 l
0.1895 0.2187 l
0.1907 0.2172 l
0.1920 0.2156 l
0.1932 0.2141 l
0.1945 0.2126 l
0.1959 0.2112 l
0.1972 0.2097 l
0.1986 0.2082 l
0.2000 0.2068 l
0.2014 0.2054 l
0.2029 0.2040 l
0.2044 0.2026 l
0.2059 0.2013 l
0.2074 0.2000 l
0.2090 0.1987 l
0.2106 0.1974 l
0.2122 0.1962 l
0.2138 0.1950 l
0.2155 0.1938 l
0.2172 0.1927 l
0.2190 0.1916 l
0.2207 0.1905 l
0.2225 0.1895 l
0.2244 0.1885 l
0.2262 0.1876 l
0.2281 0.1867 l
0.2300 0.1859 l
0.2320 0.1851 l
0.2340 0.1843 l
0.2360 0.1836 l
0.2380 0.1830 l
0.2401 0.1824 l
0.2422 0.1819 l
0.2443 0.1815 l
0.2465 0.1811 l
0.2487 0.1807 l
0.2510 0.1805 l
0.2533 0.1803 l
0.2556 0.1802 l
0.2579 0.1801 l
0.2603 0.1801 l
0.2627 0.1802 l
0.2652 0.1804 l
0.2676 0.1807 l
0.2702 0.1810 l
0.2727 0.1814 l
0.2753 0.1820 l
0.2779 0.1826 l
0.2806 0.1833 l
0.2833 0.1840 l
0.2861 0.1849 l
0.2888 0.1859 l
0.2916 0.1870 l
0.2945 0.1882 l
0.2974 0.1895 l
0.3003 0.1909 l
0.3033 0.1924 l
0.3063 0.1940 l
0.3093 0.1958 l
0.3124 0.1976 l
0.3155 0.1996 l
0.3187 0.2017 l
0.3219 0.2039 l
0.3251 0.2063 l
0.3284 0.2088 l
0.3318 0.2114 l
0.3351 0.2141 l
0.3385 0.2170 l
0.3420 0.2201 l
0.3455 0.2232 l
0.3490 0.2265 l
0.3526 0.2300 l
0.3562 0.2336 l
0.3599 0.2374 l
0.3636 0.2413 l
0.3673 0.2454 l
0.3711 0.2496 l
0.3749 0.2540 l
0.3788 0.2586 l
0.3827 0.2634 l
0.3867 0.2683 l
0.3907 0.2734 l
0.3948 0.2786 l
0.3989 0.2841 l
0.4030 0.2897 l
0.4072 0.2955 l
0.4114 0.3015 l
0.4157 0.3077 l
0.4201 0.3141 l
0.4244 0.3207 l
0.4289 0.3275 l
0.4333 0.3345 l
0.4379 0.3418 l
0.4424 0.3492 l
0.4471 0.3568 l
0.4517 0.3647 l
0.4564 0.3727 l
0.4612 0.3810 l
0.4660 0.3895 l
0.4709 0.3983 l
0.4758 0.4073 l
0.4807 0.4165 l
0.4858 0.4259 l
0.4908 0.4356 l
0.4959 0.4456 l
0.5011 0.4558 l
0.5063 0.4662 l
0.5116 0.4769 l
0.5169 0.4878 l
0.5223 0.4991 l
0.5227 0.5001 l
s
[/DeviceRGB] SCS
Color1 SC
[] 0 SD
0.0045 SLW
n
0.1500 0.1500 m
0.6471 0.1500 l
s
n
0.2121 0.1500 m
0.2121 0.1600 l
s
n
0.3364 0.1500 m
0.3364 0.1600 l
s
n
0.4607 0.1500 m
0.4607 0.1600 l
s
n
0.5849 0.1500 m
0.5849 0.1600 l
s
n
0.1500 0.1500 m
0.1500 0.1700 l
s
n
0.2743 0.1500 m
0.2743 0.1700 l
s
n
0.3985 0.1500 m
0.3985 0.1700 l
s
n
0.5228 0.1500 m
0.5228 0.1700 l
s
/Font0 FFSF
0.1394 0.1094 m
GS
[0.0448 0.0000 0.0000 0.0448 0 0] CC
(0) show
GR
/Font0 FFSF
0.2468 0.1094 m
GS
[0.0448 0.0000 0.0000 0.0448 0 0] CC
(0.2) show
GR
/Font0 FFSF
0.3711 0.1094 m
GS
[0.0448 0.0000 0.0000 0.0448 0 0] CC
(0.4) show
GR
/Font0 FFSF
0.4955 0.1094 m
GS
[0.0448 0.0000 0.0000 0.0448 0 0] CC
(0.6) show
GR
/Symbol findfont
/Font12 exch definefont pop
/Font12 FFSF
0.5779 0.0503 m
GS
[0.0459 0.0000 0.0000 0.0459 0 0] CC
(r) show
GR
/Font0 FFSF
0.6030 0.0503 m
GS
[0.0459 0.0000 0.0000 0.0459 0 0] CC
( [fm) show
GR
/Font0 FFSF
0.6807 0.0779 m
GS
[0.0325 0.0000 0.0000 0.0325 0 0] CC
(-3) show
GR
/Font0 FFSF
0.7077 0.0503 m
GS
[0.0459 0.0000 0.0000 0.0459 0 0] CC
(]) show
GR
n
0.1500 0.1500 m
0.1500 0.5000 l
s
n
0.1500 0.1500 m
0.1600 0.1500 l
s
n
0.1500 0.2500 m
0.1600 0.2500 l
s
n
0.1500 0.3500 m
0.1600 0.3500 l
s
n
0.1500 0.4500 m
0.1600 0.4500 l
s
n
0.1500 0.2000 m
0.1700 0.2000 l
s
n
0.1500 0.3000 m
0.1700 0.3000 l
s
n
0.1500 0.4000 m
0.1700 0.4000 l
s
n
0.1500 0.5000 m
0.1700 0.5000 l
s
/Font0 FFSF
0.0816 0.1851 m
GS
[0.0448 0.0000 0.0000 0.0448 0 0] CC
(-20) show
GR
/Font0 FFSF
0.1188 0.2851 m
GS
[0.0448 0.0000 0.0000 0.0448 0 0] CC
(0) show
GR
/Font0 FFSF
0.0965 0.3851 m
GS
[0.0448 0.0000 0.0000 0.0448 0 0] CC
(20) show
GR
/Font0 FFSF
0.0965 0.4851 m
GS
[0.0448 0.0000 0.0000 0.0448 0 0] CC
(40) show
GR
/Font0 FFSF
0.0633 0.2295 m
GS
[0.0000 0.0459 -0.0459 0.0000 0 0] CC
(\(S=1,T=0\)) show
GR
[] 0 SD
0.0015 SLW
n
0.1500 0.1500 m
0.1500 0.5000 l
0.6471 0.5000 l
0.6471 0.1500 l
0.1500 0.1500 l
c
s
[] 0 SD
0.0037 SLW
n
0.6471 0.4650 m
0.6471 0.4650 l
0.6471 0.4650 l
0.6471 0.4650 l
0.6471 0.4650 l
0.6471 0.4650 l
0.6471 0.4650 l
0.6471 0.4650 l
0.6471 0.4649 l
0.6471 0.4649 l
0.6471 0.4649 l
0.6471 0.4649 l
0.6472 0.4648 l
0.6472 0.4648 l
0.6472 0.4648 l
0.6472 0.4647 l
0.6473 0.4647 l
0.6473 0.4646 l
0.6473 0.4645 l
0.6474 0.4644 l
0.6474 0.4644 l
0.6475 0.4643 l
0.6476 0.4642 l
0.6476 0.4641 l
0.6477 0.4639 l
0.6478 0.4638 l
0.6479 0.4637 l
0.6480 0.4635 l
0.6481 0.4633 l
0.6482 0.4632 l
0.6483 0.4630 l
0.6484 0.4628 l
0.6486 0.4626 l
0.6487 0.4623 l
0.6489 0.4621 l
0.6490 0.4619 l
0.6492 0.4616 l
0.6494 0.4613 l
0.6495 0.4610 l
0.6497 0.4607 l
0.6500 0.4604 l
0.6502 0.4601 l
0.6504 0.4597 l
0.6506 0.4594 l
0.6509 0.4590 l
0.6511 0.4586 l
0.6514 0.4582 l
0.6517 0.4578 l
0.6520 0.4573 l
0.6523 0.4569 l
0.6526 0.4564 l
0.6530 0.4559 l
0.6533 0.4554 l
0.6537 0.4549 l
0.6540 0.4543 l
0.6544 0.4537 l
0.6548 0.4532 l
0.6552 0.4526 l
0.6557 0.4519 l
0.6561 0.4513 l
0.6566 0.4507 l
0.6571 0.4500 l
0.6576 0.4493 l
0.6581 0.4486 l
0.6586 0.4479 l
0.6591 0.4471 l
0.6597 0.4463 l
0.6603 0.4456 l
0.6608 0.4448 l
0.6615 0.4439 l
0.6621 0.4431 l
0.6627 0.4422 l
0.6634 0.4413 l
0.6641 0.4404 l
0.6648 0.4395 l
0.6655 0.4386 l
0.6662 0.4376 l
0.6670 0.4366 l
0.6678 0.4356 l
0.6685 0.4346 l
0.6694 0.4336 l
0.6702 0.4325 l
0.6711 0.4314 l
0.6719 0.4303 l
0.6728 0.4292 l
0.6738 0.4280 l
0.6747 0.4269 l
0.6757 0.4257 l
0.6766 0.4245 l
0.6777 0.4232 l
0.6787 0.4220 l
0.6797 0.4207 l
0.6808 0.4194 l
0.6819 0.4181 l
0.6830 0.4168 l
0.6842 0.4154 l
0.6854 0.4141 l
0.6866 0.4127 l
0.6878 0.4112 l
0.6890 0.4098 l
0.6903 0.4084 l
0.6916 0.4069 l
0.6929 0.4054 l
0.6943 0.4039 l
0.6956 0.4023 l
0.6970 0.4007 l
0.6985 0.3992 l
0.6999 0.3976 l
0.7014 0.3959 l
0.7029 0.3943 l
0.7045 0.3926 l
0.7060 0.3909 l
0.7076 0.3892 l
0.7092 0.3875 l
0.7109 0.3857 l
0.7126 0.3839 l
0.7143 0.3821 l
0.7160 0.3803 l
0.7178 0.3785 l
0.7196 0.3766 l
0.7214 0.3747 l
0.7233 0.3728 l
0.7252 0.3709 l
0.7271 0.3689 l
0.7290 0.3670 l
0.7310 0.3650 l
0.7330 0.3629 l
0.7351 0.3609 l
0.7372 0.3588 l
0.7393 0.3567 l
0.7414 0.3546 l
0.7436 0.3525 l
0.7458 0.3503 l
0.7480 0.3481 l
0.7503 0.3459 l
0.7526 0.3437 l
0.7550 0.3415 l
0.7574 0.3392 l
0.7598 0.3369 l
0.7622 0.3346 l
0.7647 0.3322 l
0.7672 0.3299 l
0.7698 0.3275 l
0.7724 0.3250 l
0.7750 0.3226 l
0.7777 0.3201 l
0.7804 0.3176 l
0.7831 0.3151 l
0.7859 0.3126 l
0.7887 0.3100 l
0.7916 0.3074 l
0.7944 0.3048 l
0.7974 0.3022 l
0.8003 0.2995 l
0.8033 0.2968 l
0.8064 0.2941 l
0.8095 0.2913 l
0.8126 0.2885 l
0.8158 0.2857 l
0.8190 0.2829 l
0.8222 0.2800 l
0.8255 0.2772 l
0.8288 0.2743 l
0.8322 0.2713 l
0.8356 0.2683 l
0.8390 0.2654 l
0.8425 0.2623 l
0.8461 0.2593 l
0.8496 0.2562 l
0.8533 0.2531 l
0.8569 0.2499 l
0.8606 0.2468 l
0.8644 0.2436 l
0.8682 0.2403 l
0.8720 0.2371 l
0.8759 0.2338 l
0.8798 0.2305 l
0.8838 0.2271 l
0.8878 0.2237 l
0.8918 0.2203 l
0.8959 0.2169 l
0.9001 0.2134 l
0.9043 0.2099 l
0.9085 0.2064 l
0.9128 0.2028 l
0.9171 0.1992 l
0.9215 0.1956 l
0.9259 0.1919 l
0.9304 0.1882 l
0.9349 0.1844 l
0.9395 0.1807 l
0.9441 0.1769 l
0.9488 0.1730 l
0.9535 0.1691 l
0.9583 0.1652 l
0.9631 0.1613 l
0.9679 0.1573 l
0.9728 0.1533 l
0.9770 0.1499 l
s
[/DeviceRGB] SCS
Color2 SC
[0.0187 0.0112 ] 0 SD
0.0037 SLW
n
0.6471 0.4650 m
0.6471 0.4650 l
0.6471 0.4650 l
0.6471 0.4650 l
0.6471 0.4650 l
0.6471 0.4650 l
0.6471 0.4650 l
0.6471 0.4650 l
0.6471 0.4649 l
0.6471 0.4649 l
0.6471 0.4649 l
0.6471 0.4649 l
0.6472 0.4648 l
0.6472 0.4648 l
0.6472 0.4648 l
0.6472 0.4647 l
0.6473 0.4647 l
0.6473 0.4646 l
0.6473 0.4645 l
0.6474 0.4644 l
0.6474 0.4644 l
0.6475 0.4643 l
0.6476 0.4642 l
0.6476 0.4641 l
0.6477 0.4639 l
0.6478 0.4638 l
0.6479 0.4637 l
0.6480 0.4635 l
0.6481 0.4633 l
0.6482 0.4632 l
0.6483 0.4630 l
0.6484 0.4628 l
0.6486 0.4626 l
0.6487 0.4623 l
0.6489 0.4621 l
0.6490 0.4619 l
0.6492 0.4616 l
0.6494 0.4613 l
0.6495 0.4610 l
0.6497 0.4607 l
0.6500 0.4604 l
0.6502 0.4601 l
0.6504 0.4597 l
0.6506 0.4594 l
0.6509 0.4590 l
0.6511 0.4586 l
0.6514 0.4582 l
0.6517 0.4578 l
0.6520 0.4573 l
0.6523 0.4569 l
0.6526 0.4564 l
0.6530 0.4559 l
0.6533 0.4554 l
0.6537 0.4549 l
0.6540 0.4543 l
0.6544 0.4537 l
0.6548 0.4532 l
0.6552 0.4526 l
0.6557 0.4519 l
0.6561 0.4513 l
0.6566 0.4507 l
0.6571 0.4500 l
0.6576 0.4493 l
0.6581 0.4486 l
0.6586 0.4479 l
0.6591 0.4471 l
0.6597 0.4463 l
0.6603 0.4456 l
0.6608 0.4448 l
0.6615 0.4439 l
0.6621 0.4431 l
0.6627 0.4422 l
0.6634 0.4413 l
0.6641 0.4404 l
0.6648 0.4395 l
0.6655 0.4386 l
0.6662 0.4376 l
0.6670 0.4366 l
0.6678 0.4356 l
0.6685 0.4346 l
0.6694 0.4336 l
0.6702 0.4325 l
0.6711 0.4314 l
0.6719 0.4303 l
0.6728 0.4292 l
0.6738 0.4280 l
0.6747 0.4269 l
0.6757 0.4257 l
0.6766 0.4245 l
0.6777 0.4232 l
0.6787 0.4220 l
0.6797 0.4207 l
0.6808 0.4194 l
0.6819 0.4181 l
0.6830 0.4168 l
0.6842 0.4154 l
0.6854 0.4141 l
0.6866 0.4127 l
0.6878 0.4113 l
0.6890 0.4098 l
0.6903 0.4084 l
0.6916 0.4069 l
0.6929 0.4054 l
0.6943 0.4039 l
0.6956 0.4023 l
0.6970 0.4008 l
0.6985 0.3992 l
0.6999 0.3976 l
0.7014 0.3959 l
0.7029 0.3943 l
0.7045 0.3926 l
0.7060 0.3909 l
0.7076 0.3892 l
0.7092 0.3875 l
0.7109 0.3857 l
0.7126 0.3840 l
0.7143 0.3822 l
0.7160 0.3804 l
0.7178 0.3785 l
0.7196 0.3766 l
0.7214 0.3748 l
0.7233 0.3729 l
0.7252 0.3709 l
0.7271 0.3690 l
0.7290 0.3670 l
0.7310 0.3650 l
0.7330 0.3630 l
0.7351 0.3610 l
0.7372 0.3589 l
0.7393 0.3568 l
0.7414 0.3547 l
0.7436 0.3526 l
0.7458 0.3504 l
0.7480 0.3483 l
0.7503 0.3461 l
0.7526 0.3439 l
0.7550 0.3416 l
0.7574 0.3393 l
0.7598 0.3371 l
0.7622 0.3348 l
0.7647 0.3324 l
0.7672 0.3301 l
0.7698 0.3277 l
0.7724 0.3253 l
0.7750 0.3228 l
0.7777 0.3204 l
0.7804 0.3179 l
0.7831 0.3154 l
0.7859 0.3129 l
0.7887 0.3104 l
0.7916 0.3078 l
0.7944 0.3052 l
0.7974 0.3026 l
0.8003 0.2999 l
0.8033 0.2972 l
0.8064 0.2946 l
0.8095 0.2918 l
0.8126 0.2891 l
0.8158 0.2863 l
0.8190 0.2835 l
0.8222 0.2807 l
0.8255 0.2779 l
0.8288 0.2750 l
0.8322 0.2721 l
0.8356 0.2692 l
0.8390 0.2662 l
0.8425 0.2632 l
0.8461 0.2602 l
0.8496 0.2572 l
0.8533 0.2541 l
0.8569 0.2511 l
0.8606 0.2480 l
0.8644 0.2448 l
0.8682 0.2417 l
0.8720 0.2385 l
0.8759 0.2352 l
0.8798 0.2320 l
0.8838 0.2287 l
0.8878 0.2254 l
0.8918 0.2221 l
0.8959 0.2187 l
0.9001 0.2154 l
0.9043 0.2119 l
0.9085 0.2085 l
0.9128 0.2050 l
0.9171 0.2015 l
0.9215 0.1980 l
0.9259 0.1944 l
0.9304 0.1909 l
0.9349 0.1872 l
0.9395 0.1836 l
0.9441 0.1799 l
0.9488 0.1762 l
0.9535 0.1725 l
0.9583 0.1687 l
0.9631 0.1649 l
0.9679 0.1611 l
0.9728 0.1573 l
0.9778 0.1534 l
0.9823 0.1499 l
s
[/DeviceRGB] SCS
Color1 SC
[] 0 SD
0.0045 SLW
n
0.6471 0.1500 m
1.1441 0.1500 l
s
n
0.7092 0.1500 m
0.7092 0.1600 l
s
n
0.8335 0.1500 m
0.8335 0.1600 l
s
n
0.9577 0.1500 m
0.9577 0.1600 l
s
n
1.0820 0.1500 m
1.0820 0.1600 l
s
n
0.6471 0.1500 m
0.6471 0.1700 l
s
n
0.7713 0.1500 m
0.7713 0.1700 l
s
n
0.8956 0.1500 m
0.8956 0.1700 l
s
n
1.0199 0.1500 m
1.0199 0.1700 l
s
n
1.1441 0.1500 m
1.1441 0.1700 l
s
/Font0 FFSF
0.6365 0.1094 m
GS
[0.0448 0.0000 0.0000 0.0448 0 0] CC
(0) show
GR
/Font0 FFSF
0.7439 0.1094 m
GS
[0.0448 0.0000 0.0000 0.0448 0 0] CC
(0.2) show
GR
/Font0 FFSF
0.8681 0.1094 m
GS
[0.0448 0.0000 0.0000 0.0448 0 0] CC
(0.4) show
GR
/Font0 FFSF
0.9926 0.1094 m
GS
[0.0448 0.0000 0.0000 0.0448 0 0] CC
(0.6) show
GR
/Font0 FFSF
1.1173 0.1094 m
GS
[0.0448 0.0000 0.0000 0.0448 0 0] CC
(0.8) show
GR
n
0.6471 0.1500 m
0.6471 0.5000 l
s
n
1.1441 0.1500 m
1.1441 0.5000 l
s
n
0.6471 0.1500 m
0.6571 0.1500 l
s
n
1.1441 0.1500 m
1.1341 0.1500 l
s
n
0.6471 0.2200 m
0.6571 0.2200 l
s
n
1.1441 0.2200 m
1.1341 0.2200 l
s
n
0.6471 0.2900 m
0.6571 0.2900 l
s
n
1.1441 0.2900 m
1.1341 0.2900 l
s
n
0.6471 0.3600 m
0.6571 0.3600 l
s
n
1.1441 0.3600 m
1.1341 0.3600 l
s
n
0.6471 0.4300 m
0.6571 0.4300 l
s
n
1.1441 0.4300 m
1.1341 0.4300 l
s
n
0.6471 0.5000 m
0.6571 0.5000 l
s
n
1.1441 0.5000 m
1.1341 0.5000 l
s
n
0.6471 0.1850 m
0.6671 0.1850 l
s
n
1.1441 0.1850 m
1.1241 0.1850 l
s
n
0.6471 0.2550 m
0.6671 0.2550 l
s
n
1.1441 0.2550 m
1.1241 0.2550 l
s
n
0.6471 0.3250 m
0.6671 0.3250 l
s
n
1.1441 0.3250 m
1.1241 0.3250 l
s
n
0.6471 0.3950 m
0.6671 0.3950 l
s
n
1.1441 0.3950 m
1.1241 0.3950 l
s
n
0.6471 0.4650 m
0.6671 0.4650 l
s
n
1.1441 0.4650 m
1.1241 0.4650 l
s
/Font0 FFSF
1.1541 0.1701 m
GS
[0.0448 0.0000 0.0000 0.0448 0 0] CC
(-40) show
GR
/Font0 FFSF
1.1541 0.2401 m
GS
[0.0448 0.0000 0.0000 0.0448 0 0] CC
(-30) show
GR
/Font0 FFSF
1.1541 0.3101 m
GS
[0.0448 0.0000 0.0000 0.0448 0 0] CC
(-20) show
GR
/Font0 FFSF
1.1541 0.3801 m
GS
[0.0448 0.0000 0.0000 0.0448 0 0] CC
(-10) show
GR
/Font0 FFSF
1.1541 0.4501 m
GS
[0.0448 0.0000 0.0000 0.0448 0 0] CC
(0) show
GR
/Font0 FFSF
1.2539 0.2295 m
GS
[0.0000 0.0459 -0.0459 0.0000 0 0] CC
(\(S=0,T=1\)) show
GR
[] 0 SD
0.0015 SLW
n
0.6471 0.1500 m
0.6471 0.5000 l
1.1441 0.5000 l
1.1441 0.1500 l
0.6471 0.1500 l
c
s
showpage
%%PageTrailer
%%Trailer
%%DocumentNeededResources: font Times-Roman
%%+ font Symbol
%%EOF
