%!PS-Adobe-3.0
%%BoundingBox: 0 0 612 792
%%LanguageLevel: 2
%%Creator: Grace-5.1.25
%%CreationDate: Tue Dec  1 11:27:31 2015
%%DocumentData: Clean8Bit
%%Orientation: Landscape
%%Pages: 1
%%PageOrder: Ascend
%%Title: /Users/ap1450/Dropbox/Physics_Reports_LR/ST_channel_finite_range/Vers2/plots/JLS_gogny2.agr
%%For: ap1450
%%DocumentNeededResources: (atend)
%%EndComments
%%BeginProlog
/PAGE_OFFSET_X 0 def
/PAGE_OFFSET_Y 0 def
/m {moveto} def
/l {lineto} def
/s {stroke} def
/n {newpath} def
/c {closepath} def
/RL {rlineto} def
/SLW {setlinewidth} def
/GS {gsave} def
/GR {grestore} def
/SC {setcolor} def
/SGRY {setgray} def
/SRGB {setrgbcolor} def
/SD {setdash} def
/SLC {setlinecap} def
/SLJ {setlinejoin} def
/SCS {setcolorspace} def
/FFSF {findfont setfont} def
/CC {concat} def
/PXL {n m 0 0 RL s} def
/Color0 {1.0000 1.0000 1.0000} def
/Color1 {0.0000 0.0000 0.0000} def
/Color2 {1.0000 0.0000 0.0000} def
/Color3 {0.0000 1.0000 0.0000} def
/Color4 {0.0000 0.0000 1.0000} def
/Color5 {1.0000 1.0000 0.0000} def
/Color6 {0.7373 0.5608 0.5608} def
/Color7 {0.8627 0.8627 0.8627} def
/Color8 {0.5804 0.0000 0.8275} def
/Color9 {0.0000 1.0000 1.0000} def
/Color10 {1.0000 0.0000 1.0000} def
/Color11 {1.0000 0.6471 0.0000} def
/Color12 {0.4471 0.1294 0.7373} def
/Color13 {0.4039 0.0275 0.2824} def
/Color14 {0.2510 0.8784 0.8157} def
/Color15 {0.0000 0.5451 0.0000} def
/Color16 {0.7529 0.7529 0.7529} def
/Color17 {0.5059 0.5059 0.5059} def
/Color18 {0.2588 0.2588 0.2588} def
/PTRN {
 /pat_bits exch def 
 <<
  /PaintType 2
  /PatternType 1 /TilingType 1
  /BBox[0 0 16 16]
  /XStep 16 /YStep 16
  /PaintProc {
   pop
   16 16 true [-1 0 0 -1 16 16] pat_bits imagemask
  }
 >>
 [0.0016 0 0 0.0016 0 0]
 makepattern
} def
/Pattern0 {<0000000000000000000000000000000000000000000000000000000000000000> PTRN} bind def
/Pattern1 {<ffffffffffffffffffffffffffffffffffffffffffffffffffffffffffffffff> PTRN} bind def
/Pattern2 {<eeeeffffbbbbffffeeeeffffbbbbffffeeeeffffbbbbffffeeeeffffbbbbffff> PTRN} bind def
/Pattern3 {<eeeebbbbeeeebbbbeeeebbbbeeeebbbbeeeebbbbeeeebbbbeeeebbbbeeeebbbb> PTRN} bind def
/Pattern4 {<5555aaaa5555aaaa5555aaaa5555aaaa5555aaaa5555aaaa5555aaaa5555aaaa> PTRN} bind def
/Pattern5 {<1111444411114444111144441111444411114444111144441111444411114444> PTRN} bind def
/Pattern6 {<1111000044440000111100004444000011110000444400001111000044440000> PTRN} bind def
/Pattern7 {<1010000000000000010100000000000010100000000000000101000000000000> PTRN} bind def
/Pattern8 {<0000000000000000000000000000000000000000000000000000000000000000> PTRN} bind def
/Pattern9 {<1e1e0f0f8787c3c3e1e1f0f078783c3c1e1e0f0f8787c3c3e1e1f0f078783c3c> PTRN} bind def
/Pattern10 {<7878f0f0e1e1c3c387870f0f1e1e3c3c7878f0f0e1e1c3c387870f0f1e1e3c3c> PTRN} bind def
/Pattern11 {<3333333333333333333333333333333333333333333333333333333333333333> PTRN} bind def
/Pattern12 {<ffffffff00000000ffffffff00000000ffffffff00000000ffffffff00000000> PTRN} bind def
/Pattern13 {<8181424224241818181824244242818181814242242418181818242442428181> PTRN} bind def
/Pattern14 {<8080404020201010080804040202010180804040202010100808040402020101> PTRN} bind def
/Pattern15 {<0101020204040808101020204040808001010202040408081010202040408080> PTRN} bind def
/Pattern16 {<2222222222222222222222222222222222222222222222222222222222222222> PTRN} bind def
/Pattern17 {<0000ffff000000000000ffff000000000000ffff000000000000ffff00000000> PTRN} bind def
/Pattern18 {<2222ffff222222222222ffff222222222222ffff222222222222ffff22222222> PTRN} bind def
/Pattern19 {<ffffffff33333333ffffffff33333333ffffffff33333333ffffffff33333333> PTRN} bind def
/Pattern20 {<0f0f0f0f0f0f0f0ff0f0f0f0f0f0f0f00f0f0f0f0f0f0f0ff0f0f0f0f0f0f0f0> PTRN} bind def
/Pattern21 {<ff00ff00ff00ff00ff00ff00ff00ff0000ff00ff00ff00ff00ff00ff00ff00ff> PTRN} bind def
/Pattern22 {<8001800180018001800180018001ffffffff8001800180018001800180018001> PTRN} bind def
/Pattern23 {<c003c003c003c003c003c003ffffffffffffffffc003c003c003c003c003c003> PTRN} bind def
/Pattern24 {<040404040404ffff404040404040ffff040404040404ffff404040404040ffff> PTRN} bind def
/Pattern25 {<180018001800180018001800ffffffff001800180018001800180018ffffffff> PTRN} bind def
/Pattern26 {<1111b8b87c7c3a3a1111a3a3c7c78b8b1111b8b87c7c3a3a1111a3a3c7c78b8b> PTRN} bind def
/Pattern27 {<101010102828c7c70101010182827c7c101010102828c7c70101010182827c7c> PTRN} bind def
/Pattern28 {<1c1c121211112121c1c12121111112121c1c121211112121c1c1212111111212> PTRN} bind def
/Pattern29 {<3e3e414180808080e3e31414080808083e3e414180808080e3e3141408080808> PTRN} bind def
/Pattern30 {<4848888884848383848488884848383848488888848483838484888848483838> PTRN} bind def
/Pattern31 {<03030404080808080c0c12122121c0c003030404080808080c0c12122121c0c0> PTRN} bind def
/ellipsedict 8 dict def
ellipsedict /mtrx matrix put
/EARC {
 ellipsedict begin
  /endangle exch def
  /startangle exch def
  /yrad exch def
  /xrad exch def
  /y exch def
  /x exch def
  /savematrix mtrx currentmatrix def
  x y translate
  xrad yrad scale
  0 0 1 startangle endangle arc
  savematrix setmatrix
 end
} def
/TL {
  /kcomp exch def
  /linewidth exch def
  /offset exch def
  GS
  0 offset rmoveto
  linewidth SLW
  dup stringwidth exch kcomp add exch RL s
  GR
} def
/KINIT
{
 /kvector exch def
 /kid 0 def
} def
/KPROC
{
 pop pop
 kvector kid get
 0 rmoveto
 /kid 1 kid add def
} def
/DefEncoding [
 /.notdef
 /.notdef
 /.notdef
 /.notdef
 /.notdef
 /.notdef
 /.notdef
 /.notdef
 /.notdef
 /.notdef
 /.notdef
 /.notdef
 /.notdef
 /.notdef
 /.notdef
 /.notdef
 /.notdef
 /.notdef
 /.notdef
 /.notdef
 /.notdef
 /.notdef
 /.notdef
 /.notdef
 /.notdef
 /.notdef
 /.notdef
 /.notdef
 /.notdef
 /.notdef
 /.notdef
 /.notdef
 /space
 /exclam
 /quotedbl
 /numbersign
 /dollar
 /percent
 /ampersand
 /quoteright
 /parenleft
 /parenright
 /asterisk
 /plus
 /comma
 /hyphen
 /period
 /slash
 /zero
 /one
 /two
 /three
 /four
 /five
 /six
 /seven
 /eight
 /nine
 /colon
 /semicolon
 /less
 /equal
 /greater
 /question
 /at
 /A
 /B
 /C
 /D
 /E
 /F
 /G
 /H
 /I
 /J
 /K
 /L
 /M
 /N
 /O
 /P
 /Q
 /R
 /S
 /T
 /U
 /V
 /W
 /X
 /Y
 /Z
 /bracketleft
 /backslash
 /bracketright
 /asciicircum
 /underscore
 /grave
 /a
 /b
 /c
 /d
 /e
 /f
 /g
 /h
 /i
 /j
 /k
 /l
 /m
 /n
 /o
 /p
 /q
 /r
 /s
 /t
 /u
 /v
 /w
 /x
 /y
 /z
 /braceleft
 /bar
 /braceright
 /asciitilde
 /.notdef
 /.notdef
 /.notdef
 /.notdef
 /.notdef
 /.notdef
 /.notdef
 /.notdef
 /.notdef
 /.notdef
 /.notdef
 /.notdef
 /.notdef
 /.notdef
 /.notdef
 /.notdef
 /.notdef
 /.notdef
 /.notdef
 /.notdef
 /.notdef
 /.notdef
 /.notdef
 /.notdef
 /.notdef
 /.notdef
 /.notdef
 /.notdef
 /.notdef
 /.notdef
 /.notdef
 /.notdef
 /.notdef
 /space
 /exclamdown
 /cent
 /sterling
 /currency
 /yen
 /brokenbar
 /section
 /dieresis
 /copyright
 /ordfeminine
 /guillemotleft
 /logicalnot
 /hyphen
 /registered
 /macron
 /degree
 /plusminus
 /twosuperior
 /threesuperior
 /acute
 /mu
 /paragraph
 /periodcentered
 /cedilla
 /onesuperior
 /ordmasculine
 /guillemotright
 /onequarter
 /onehalf
 /threequarters
 /questiondown
 /Agrave
 /Aacute
 /Acircumflex
 /Atilde
 /Adieresis
 /Aring
 /AE
 /Ccedilla
 /Egrave
 /Eacute
 /Ecircumflex
 /Edieresis
 /Igrave
 /Iacute
 /Icircumflex
 /Idieresis
 /Eth
 /Ntilde
 /Ograve
 /Oacute
 /Ocircumflex
 /Otilde
 /Odieresis
 /multiply
 /Oslash
 /Ugrave
 /Uacute
 /Ucircumflex
 /Udieresis
 /Yacute
 /Thorn
 /germandbls
 /agrave
 /aacute
 /acircumflex
 /atilde
 /adieresis
 /aring
 /ae
 /ccedilla
 /egrave
 /eacute
 /ecircumflex
 /edieresis
 /igrave
 /iacute
 /icircumflex
 /idieresis
 /eth
 /ntilde
 /ograve
 /oacute
 /ocircumflex
 /otilde
 /odieresis
 /divide
 /oslash
 /ugrave
 /uacute
 /ucircumflex
 /udieresis
 /yacute
 /thorn
 /ydieresis
] def
%%EndProlog
%%BeginSetup
%%EndSetup
%%Page: 1 1
PAGE_OFFSET_X PAGE_OFFSET_Y translate
612.00 612.00 scale
90 rotate
0.0 -1.0 translate
n
0.4267 0.6117 m
0.4267 0.6297 l
0.4447 0.6297 l
0.4447 0.6117 l
c
GS
[/DeviceRGB] SCS
Color0 SRGB
fill
GR
[/Pattern /DeviceRGB] SCS
Color1 Pattern8 SC
fill
[/DeviceRGB] SCS
Color1 SC
[] 0 SD
0.0045 SLW
0 SLC
0 SLJ
n
0.4267 0.6117 m
0.4267 0.6297 l
0.4447 0.6297 l
0.4447 0.6117 l
0.4267 0.6117 l
c
s
n
0.4981 0.5577 m
0.4981 0.5757 l
0.5162 0.5757 l
0.5162 0.5577 l
c
GS
Color0 SRGB
fill
GR
[/Pattern /DeviceRGB] SCS
Color1 Pattern8 SC
fill
[/DeviceRGB] SCS
Color1 SC
n
0.4981 0.5577 m
0.4981 0.5757 l
0.5162 0.5757 l
0.5162 0.5577 l
0.4981 0.5577 l
c
s
n
0.5696 0.5041 m
0.5696 0.5221 l
0.5876 0.5221 l
0.5876 0.5041 l
c
GS
Color0 SRGB
fill
GR
[/Pattern /DeviceRGB] SCS
Color1 Pattern8 SC
fill
[/DeviceRGB] SCS
Color1 SC
n
0.5696 0.5041 m
0.5696 0.5221 l
0.5876 0.5221 l
0.5876 0.5041 l
0.5696 0.5041 l
c
s
n
0.6410 0.4502 m
0.6410 0.4682 l
0.6590 0.4682 l
0.6590 0.4502 l
c
GS
Color0 SRGB
fill
GR
[/Pattern /DeviceRGB] SCS
Color1 Pattern8 SC
fill
[/DeviceRGB] SCS
Color1 SC
n
0.6410 0.4502 m
0.6410 0.4682 l
0.6590 0.4682 l
0.6590 0.4502 l
0.6410 0.4502 l
c
s
n
0.7124 0.3989 m
0.7124 0.4169 l
0.7304 0.4169 l
0.7304 0.3989 l
c
GS
Color0 SRGB
fill
GR
[/Pattern /DeviceRGB] SCS
Color1 Pattern8 SC
fill
[/DeviceRGB] SCS
Color1 SC
n
0.7124 0.3989 m
0.7124 0.4169 l
0.7304 0.4169 l
0.7304 0.3989 l
0.7124 0.3989 l
c
s
n
0.7838 0.3464 m
0.7838 0.3645 l
0.8019 0.3645 l
0.8019 0.3464 l
c
GS
Color0 SRGB
fill
GR
[/Pattern /DeviceRGB] SCS
Color1 Pattern8 SC
fill
[/DeviceRGB] SCS
Color1 SC
n
0.7838 0.3464 m
0.7838 0.3645 l
0.8019 0.3645 l
0.8019 0.3464 l
0.7838 0.3464 l
c
s
n
0.8553 0.2986 m
0.8553 0.3166 l
0.8733 0.3166 l
0.8733 0.2986 l
c
GS
Color0 SRGB
fill
GR
[/Pattern /DeviceRGB] SCS
Color1 Pattern8 SC
fill
[/DeviceRGB] SCS
Color1 SC
n
0.8553 0.2986 m
0.8553 0.3166 l
0.8733 0.3166 l
0.8733 0.2986 l
0.8553 0.2986 l
c
s
n
0.9267 0.2566 m
0.9267 0.2746 l
0.9447 0.2746 l
0.9447 0.2566 l
c
GS
Color0 SRGB
fill
GR
[/Pattern /DeviceRGB] SCS
Color1 Pattern8 SC
fill
[/DeviceRGB] SCS
Color1 SC
n
0.9267 0.2566 m
0.9267 0.2746 l
0.9447 0.2746 l
0.9447 0.2566 l
0.9267 0.2566 l
c
s
n
0.9981 0.2278 m
0.9981 0.2458 l
1.0162 0.2458 l
1.0162 0.2278 l
c
GS
Color0 SRGB
fill
GR
[/Pattern /DeviceRGB] SCS
Color1 Pattern8 SC
fill
[/DeviceRGB] SCS
Color1 SC
n
0.9981 0.2278 m
0.9981 0.2458 l
1.0162 0.2458 l
1.0162 0.2278 l
0.9981 0.2278 l
c
s
n
1.0696 0.2159 m
1.0696 0.2339 l
1.0876 0.2339 l
1.0876 0.2159 l
c
GS
Color0 SRGB
fill
GR
[/Pattern /DeviceRGB] SCS
Color1 Pattern8 SC
fill
[/DeviceRGB] SCS
Color1 SC
n
1.0696 0.2159 m
1.0696 0.2339 l
1.0876 0.2339 l
1.0876 0.2159 l
1.0696 0.2159 l
c
s
n
1.1410 0.2254 m
1.1410 0.2434 l
1.1590 0.2434 l
1.1590 0.2254 l
c
GS
Color0 SRGB
fill
GR
[/Pattern /DeviceRGB] SCS
Color1 Pattern8 SC
fill
[/DeviceRGB] SCS
Color1 SC
n
1.1410 0.2254 m
1.1410 0.2434 l
1.1590 0.2434 l
1.1590 0.2254 l
1.1410 0.2254 l
c
s
[] 0 SD
0.0037 SLW
n
0.1499 0.8075 m
0.1500 0.8074 l
0.1571 0.8045 l
0.1643 0.8014 l
0.1714 0.7981 l
0.1786 0.7948 l
0.1857 0.7913 l
0.1929 0.7877 l
0.2000 0.7840 l
0.2071 0.7802 l
0.2143 0.7763 l
0.2214 0.7722 l
0.2286 0.7680 l
0.2357 0.7637 l
0.2429 0.7593 l
0.2500 0.7548 l
0.2571 0.7501 l
0.2643 0.7453 l
0.2714 0.7404 l
0.2786 0.7354 l
0.2857 0.7303 l
0.2929 0.7251 l
0.3000 0.7198 l
0.3071 0.7144 l
0.3143 0.7088 l
0.3214 0.7032 l
0.3286 0.6975 l
0.3357 0.6916 l
0.3429 0.6857 l
0.3500 0.6797 l
0.3571 0.6736 l
0.3643 0.6674 l
0.3714 0.6611 l
0.3786 0.6548 l
0.3857 0.6483 l
0.3929 0.6418 l
0.4000 0.6352 l
0.4071 0.6286 l
0.4143 0.6219 l
0.4214 0.6151 l
0.4286 0.6083 l
0.4357 0.6015 l
0.4429 0.5945 l
0.4500 0.5876 l
0.4571 0.5806 l
0.4643 0.5736 l
0.4714 0.5666 l
0.4786 0.5595 l
0.4857 0.5524 l
0.4929 0.5453 l
0.5000 0.5382 l
0.5071 0.5311 l
0.5143 0.5240 l
0.5214 0.5170 l
0.5286 0.5099 l
0.5357 0.5029 l
0.5429 0.4958 l
0.5500 0.4889 l
0.5571 0.4819 l
0.5643 0.4751 l
0.5714 0.4682 l
0.5786 0.4615 l
0.5857 0.4548 l
0.5929 0.4481 l
0.6000 0.4416 l
0.6071 0.4351 l
0.6143 0.4288 l
0.6214 0.4225 l
0.6286 0.4164 l
0.6357 0.4104 l
0.6429 0.4045 l
0.6500 0.3988 l
0.6571 0.3931 l
0.6643 0.3877 l
0.6714 0.3824 l
0.6786 0.3773 l
0.6857 0.3723 l
0.6929 0.3676 l
0.7000 0.3630 l
0.7071 0.3586 l
0.7143 0.3545 l
0.7214 0.3505 l
0.7286 0.3468 l
0.7357 0.3434 l
0.7429 0.3401 l
0.7500 0.3372 l
0.7571 0.3345 l
0.7643 0.3321 l
0.7714 0.3300 l
0.7786 0.3281 l
0.7857 0.3266 l
0.7929 0.3254 l
0.8000 0.3246 l
0.8071 0.3240 l
0.8143 0.3238 l
0.8214 0.3240 l
0.8286 0.3246 l
0.8357 0.3255 l
0.8429 0.3268 l
0.8500 0.3285 l
0.8571 0.3307 l
0.8643 0.3332 l
0.8714 0.3362 l
0.8786 0.3397 l
0.8857 0.3436 l
0.8929 0.3479 l
0.9000 0.3528 l
0.9071 0.3582 l
0.9143 0.3640 l
0.9214 0.3704 l
0.9286 0.3773 l
0.9357 0.3847 l
0.9429 0.3927 l
0.9500 0.4013 l
0.9571 0.4104 l
0.9643 0.4202 l
0.9714 0.4305 l
0.9786 0.4415 l
0.9857 0.4531 l
0.9929 0.4653 l
1.0000 0.4782 l
1.0071 0.4918 l
1.0143 0.5060 l
1.0214 0.5209 l
1.0286 0.5366 l
1.0357 0.5529 l
1.0429 0.5700 l
1.0500 0.5879 l
1.0571 0.6065 l
1.0643 0.6259 l
1.0714 0.6461 l
1.0786 0.6671 l
1.0857 0.6889 l
1.0929 0.7115 l
1.1000 0.7350 l
1.1071 0.7594 l
1.1143 0.7846 l
1.1214 0.8107 l
1.1286 0.8378 l
1.1317 0.8501 l
s
[/DeviceRGB] SCS
Color2 SC
[0.0187 0.0112 ] 0 SD
0.0037 SLW
n
0.1499 0.8098 m
0.1500 0.8097 l
0.1571 0.8069 l
0.1643 0.8040 l
0.1714 0.8010 l
0.1786 0.7979 l
0.1857 0.7946 l
0.1929 0.7913 l
0.2000 0.7878 l
0.2071 0.7842 l
0.2143 0.7805 l
0.2214 0.7767 l
0.2286 0.7728 l
0.2357 0.7688 l
0.2429 0.7647 l
0.2500 0.7604 l
0.2571 0.7561 l
0.2643 0.7516 l
0.2714 0.7471 l
0.2786 0.7424 l
0.2857 0.7377 l
0.2929 0.7328 l
0.3000 0.7279 l
0.3071 0.7228 l
0.3143 0.7177 l
0.3214 0.7125 l
0.3286 0.7071 l
0.3357 0.7017 l
0.3429 0.6962 l
0.3500 0.6907 l
0.3571 0.6850 l
0.3643 0.6793 l
0.3714 0.6735 l
0.3786 0.6676 l
0.3857 0.6617 l
0.3929 0.6557 l
0.4000 0.6496 l
0.4071 0.6435 l
0.4143 0.6374 l
0.4214 0.6312 l
0.4286 0.6249 l
0.4357 0.6186 l
0.4429 0.6123 l
0.4500 0.6059 l
0.4571 0.5995 l
0.4643 0.5931 l
0.4714 0.5867 l
0.4786 0.5803 l
0.4857 0.5739 l
0.4929 0.5674 l
0.5000 0.5610 l
0.5071 0.5546 l
0.5143 0.5482 l
0.5214 0.5418 l
0.5286 0.5354 l
0.5357 0.5291 l
0.5429 0.5228 l
0.5500 0.5166 l
0.5571 0.5104 l
0.5643 0.5043 l
0.5714 0.4983 l
0.5786 0.4923 l
0.5857 0.4864 l
0.5929 0.4806 l
0.6000 0.4749 l
0.6071 0.4694 l
0.6143 0.4639 l
0.6214 0.4585 l
0.6286 0.4533 l
0.6357 0.4482 l
0.6429 0.4432 l
0.6500 0.4384 l
0.6571 0.4338 l
0.6643 0.4293 l
0.6714 0.4250 l
0.6786 0.4209 l
0.6857 0.4170 l
0.6929 0.4133 l
0.7000 0.4098 l
0.7071 0.4066 l
0.7143 0.4036 l
0.7214 0.4008 l
0.7286 0.3983 l
0.7357 0.3960 l
0.7429 0.3940 l
0.7500 0.3923 l
0.7571 0.3909 l
0.7643 0.3899 l
0.7714 0.3891 l
0.7786 0.3886 l
0.7857 0.3885 l
0.7929 0.3888 l
0.8000 0.3894 l
0.8071 0.3904 l
0.8143 0.3917 l
0.8214 0.3935 l
0.8286 0.3956 l
0.8357 0.3982 l
0.8429 0.4012 l
0.8500 0.4047 l
0.8571 0.4086 l
0.8643 0.4130 l
0.8714 0.4179 l
0.8786 0.4233 l
0.8857 0.4292 l
0.8929 0.4355 l
0.9000 0.4425 l
0.9071 0.4500 l
0.9143 0.4580 l
0.9214 0.4666 l
0.9286 0.4758 l
0.9357 0.4856 l
0.9429 0.4960 l
0.9500 0.5071 l
0.9571 0.5188 l
0.9643 0.5311 l
0.9714 0.5442 l
0.9786 0.5579 l
0.9857 0.5723 l
0.9929 0.5874 l
1.0000 0.6033 l
1.0071 0.6199 l
1.0143 0.6373 l
1.0214 0.6554 l
1.0286 0.6744 l
1.0357 0.6941 l
1.0429 0.7147 l
1.0500 0.7361 l
1.0571 0.7584 l
1.0643 0.7815 l
1.0714 0.8055 l
1.0786 0.8304 l
1.0840 0.8501 l
s
[/DeviceRGB] SCS
Color4 SC
[0.0037 0.0112 0.0187 0.0112 ] 0 SD
0.0037 SLW
n
0.1499 0.8057 m
0.1500 0.8056 l
0.1571 0.8025 l
0.1643 0.7993 l
0.1714 0.7959 l
0.1786 0.7925 l
0.1857 0.7889 l
0.1929 0.7851 l
0.2000 0.7813 l
0.2071 0.7773 l
0.2143 0.7732 l
0.2214 0.7689 l
0.2286 0.7646 l
0.2357 0.7601 l
0.2429 0.7555 l
0.2500 0.7508 l
0.2571 0.7459 l
0.2643 0.7409 l
0.2714 0.7359 l
0.2786 0.7306 l
0.2857 0.7253 l
0.2929 0.7199 l
0.3000 0.7143 l
0.3071 0.7087 l
0.3143 0.7029 l
0.3214 0.6970 l
0.3286 0.6910 l
0.3357 0.6849 l
0.3429 0.6788 l
0.3500 0.6725 l
0.3571 0.6661 l
0.3643 0.6596 l
0.3714 0.6531 l
0.3786 0.6464 l
0.3857 0.6397 l
0.3929 0.6329 l
0.4000 0.6260 l
0.4071 0.6191 l
0.4143 0.6120 l
0.4214 0.6050 l
0.4286 0.5978 l
0.4357 0.5906 l
0.4429 0.5834 l
0.4500 0.5761 l
0.4571 0.5688 l
0.4643 0.5614 l
0.4714 0.5540 l
0.4786 0.5466 l
0.4857 0.5391 l
0.4929 0.5317 l
0.5000 0.5242 l
0.5071 0.5167 l
0.5143 0.5093 l
0.5214 0.5018 l
0.5286 0.4944 l
0.5357 0.4869 l
0.5429 0.4795 l
0.5500 0.4721 l
0.5571 0.4648 l
0.5643 0.4575 l
0.5714 0.4503 l
0.5786 0.4431 l
0.5857 0.4360 l
0.5929 0.4290 l
0.6000 0.4220 l
0.6071 0.4151 l
0.6143 0.4084 l
0.6214 0.4017 l
0.6286 0.3951 l
0.6357 0.3887 l
0.6429 0.3824 l
0.6500 0.3762 l
0.6571 0.3702 l
0.6643 0.3643 l
0.6714 0.3586 l
0.6786 0.3530 l
0.6857 0.3477 l
0.6929 0.3425 l
0.7000 0.3375 l
0.7071 0.3327 l
0.7143 0.3282 l
0.7214 0.3238 l
0.7286 0.3197 l
0.7357 0.3159 l
0.7429 0.3123 l
0.7500 0.3089 l
0.7571 0.3059 l
0.7643 0.3031 l
0.7714 0.3006 l
0.7786 0.2984 l
0.7857 0.2966 l
0.7929 0.2950 l
0.8000 0.2938 l
0.8071 0.2930 l
0.8143 0.2925 l
0.8214 0.2924 l
0.8286 0.2926 l
0.8357 0.2933 l
0.8429 0.2943 l
0.8500 0.2958 l
0.8571 0.2977 l
0.8643 0.3001 l
0.8714 0.3029 l
0.8786 0.3061 l
0.8857 0.3098 l
0.8929 0.3141 l
0.9000 0.3188 l
0.9071 0.3240 l
0.9143 0.3298 l
0.9214 0.3361 l
0.9286 0.3430 l
0.9357 0.3504 l
0.9429 0.3584 l
0.9500 0.3670 l
0.9571 0.3761 l
0.9643 0.3860 l
0.9714 0.3964 l
0.9786 0.4075 l
0.9857 0.4192 l
0.9929 0.4316 l
1.0000 0.4447 l
1.0071 0.4586 l
1.0143 0.4731 l
1.0214 0.4883 l
1.0286 0.5043 l
1.0357 0.5211 l
1.0429 0.5386 l
1.0500 0.5569 l
1.0571 0.5760 l
1.0643 0.5959 l
1.0714 0.6167 l
1.0786 0.6383 l
1.0857 0.6608 l
1.0929 0.6841 l
1.1000 0.7083 l
1.1071 0.7335 l
1.1143 0.7596 l
1.1214 0.7866 l
1.1286 0.8146 l
1.1357 0.8435 l
1.1373 0.8501 l
s
[/DeviceRGB] SCS
Color11 SC
[0.0037 0.0112 0.0187 0.0112 0.0037 0.0112 ] 0 SD
0.0037 SLW
n
0.1499 0.8075 m
0.1500 0.8074 l
0.1571 0.8045 l
0.1643 0.8014 l
0.1714 0.7981 l
0.1786 0.7948 l
0.1857 0.7913 l
0.1929 0.7878 l
0.2000 0.7841 l
0.2071 0.7802 l
0.2143 0.7763 l
0.2214 0.7722 l
0.2286 0.7681 l
0.2357 0.7638 l
0.2429 0.7593 l
0.2500 0.7548 l
0.2571 0.7502 l
0.2643 0.7454 l
0.2714 0.7405 l
0.2786 0.7355 l
0.2857 0.7304 l
0.2929 0.7252 l
0.3000 0.7199 l
0.3071 0.7145 l
0.3143 0.7090 l
0.3214 0.7034 l
0.3286 0.6977 l
0.3357 0.6919 l
0.3429 0.6859 l
0.3500 0.6800 l
0.3571 0.6739 l
0.3643 0.6677 l
0.3714 0.6615 l
0.3786 0.6551 l
0.3857 0.6487 l
0.3929 0.6423 l
0.4000 0.6357 l
0.4071 0.6292 l
0.4143 0.6225 l
0.4214 0.6158 l
0.4286 0.6090 l
0.4357 0.6022 l
0.4429 0.5954 l
0.4500 0.5885 l
0.4571 0.5816 l
0.4643 0.5747 l
0.4714 0.5677 l
0.4786 0.5607 l
0.4857 0.5537 l
0.4929 0.5467 l
0.5000 0.5398 l
0.5071 0.5328 l
0.5143 0.5258 l
0.5214 0.5188 l
0.5286 0.5119 l
0.5357 0.5050 l
0.5429 0.4981 l
0.5500 0.4913 l
0.5571 0.4846 l
0.5643 0.4778 l
0.5714 0.4712 l
0.5786 0.4646 l
0.5857 0.4581 l
0.5929 0.4517 l
0.6000 0.4454 l
0.6071 0.4392 l
0.6143 0.4330 l
0.6214 0.4270 l
0.6286 0.4212 l
0.6357 0.4154 l
0.6429 0.4098 l
0.6500 0.4044 l
0.6571 0.3991 l
0.6643 0.3939 l
0.6714 0.3890 l
0.6786 0.3842 l
0.6857 0.3796 l
0.6929 0.3752 l
0.7000 0.3711 l
0.7071 0.3671 l
0.7143 0.3634 l
0.7214 0.3599 l
0.7286 0.3567 l
0.7357 0.3537 l
0.7429 0.3510 l
0.7500 0.3485 l
0.7571 0.3464 l
0.7643 0.3445 l
0.7714 0.3430 l
0.7786 0.3417 l
0.7857 0.3408 l
0.7929 0.3403 l
0.8000 0.3401 l
0.8071 0.3402 l
0.8143 0.3407 l
0.8214 0.3416 l
0.8286 0.3429 l
0.8357 0.3446 l
0.8429 0.3467 l
0.8500 0.3492 l
0.8571 0.3522 l
0.8643 0.3556 l
0.8714 0.3595 l
0.8786 0.3639 l
0.8857 0.3687 l
0.8929 0.3741 l
0.9000 0.3799 l
0.9071 0.3863 l
0.9143 0.3932 l
0.9214 0.4006 l
0.9286 0.4087 l
0.9357 0.4172 l
0.9429 0.4264 l
0.9500 0.4362 l
0.9571 0.4465 l
0.9643 0.4575 l
0.9714 0.4691 l
0.9786 0.4814 l
0.9857 0.4944 l
0.9929 0.5080 l
1.0000 0.5223 l
1.0071 0.5373 l
1.0143 0.5530 l
1.0214 0.5694 l
1.0286 0.5866 l
1.0357 0.6045 l
1.0429 0.6233 l
1.0500 0.6428 l
1.0571 0.6630 l
1.0643 0.6841 l
1.0714 0.7061 l
1.0786 0.7289 l
1.0857 0.7525 l
1.0929 0.7770 l
1.1000 0.8024 l
1.1071 0.8286 l
1.1128 0.8501 l
s
[/DeviceRGB] SCS
Color1 SC
[] 0 SD
0.0045 SLW
n
0.1500 0.1500 m
1.1500 0.1500 l
s
n
0.1500 0.8500 m
1.1500 0.8500 l
s
n
0.2214 0.1500 m
0.2214 0.1600 l
s
n
0.2214 0.8500 m
0.2214 0.8400 l
s
n
0.3643 0.1500 m
0.3643 0.1600 l
s
n
0.3643 0.8500 m
0.3643 0.8400 l
s
n
0.5071 0.1500 m
0.5071 0.1600 l
s
n
0.5071 0.8500 m
0.5071 0.8400 l
s
n
0.6500 0.1500 m
0.6500 0.1600 l
s
n
0.6500 0.8500 m
0.6500 0.8400 l
s
n
0.7929 0.1500 m
0.7929 0.1600 l
s
n
0.7929 0.8500 m
0.7929 0.8400 l
s
n
0.9357 0.1500 m
0.9357 0.1600 l
s
n
0.9357 0.8500 m
0.9357 0.8400 l
s
n
1.0786 0.1500 m
1.0786 0.1600 l
s
n
1.0786 0.8500 m
1.0786 0.8400 l
s
n
0.1500 0.1500 m
0.1500 0.1700 l
s
n
0.1500 0.8500 m
0.1500 0.8300 l
s
n
0.2929 0.1500 m
0.2929 0.1700 l
s
n
0.2929 0.8500 m
0.2929 0.8300 l
s
n
0.4357 0.1500 m
0.4357 0.1700 l
s
n
0.4357 0.8500 m
0.4357 0.8300 l
s
n
0.5786 0.1500 m
0.5786 0.1700 l
s
n
0.5786 0.8500 m
0.5786 0.8300 l
s
n
0.7214 0.1500 m
0.7214 0.1700 l
s
n
0.7214 0.8500 m
0.7214 0.8300 l
s
n
0.8643 0.1500 m
0.8643 0.1700 l
s
n
0.8643 0.8500 m
0.8643 0.8300 l
s
n
1.0071 0.1500 m
1.0071 0.1700 l
s
n
1.0071 0.8500 m
1.0071 0.8300 l
s
n
0.1500 0.1500 m
0.1500 0.8500 l
s
n
1.1500 0.1500 m
1.1500 0.8500 l
s
n
0.1500 0.2083 m
0.1600 0.2083 l
s
n
1.1500 0.2083 m
1.1400 0.2083 l
s
n
0.1500 0.3250 m
0.1600 0.3250 l
s
n
1.1500 0.3250 m
1.1400 0.3250 l
s
n
0.1500 0.4417 m
0.1600 0.4417 l
s
n
1.1500 0.4417 m
1.1400 0.4417 l
s
n
0.1500 0.5583 m
0.1600 0.5583 l
s
n
1.1500 0.5583 m
1.1400 0.5583 l
s
n
0.1500 0.6750 m
0.1600 0.6750 l
s
n
1.1500 0.6750 m
1.1400 0.6750 l
s
n
0.1500 0.7917 m
0.1600 0.7917 l
s
n
1.1500 0.7917 m
1.1400 0.7917 l
s
n
0.1500 0.2667 m
0.1700 0.2667 l
s
n
1.1500 0.2667 m
1.1300 0.2667 l
s
n
0.1500 0.3833 m
0.1700 0.3833 l
s
n
1.1500 0.3833 m
1.1300 0.3833 l
s
n
0.1500 0.5000 m
0.1700 0.5000 l
s
n
1.1500 0.5000 m
1.1300 0.5000 l
s
n
0.1500 0.6167 m
0.1700 0.6167 l
s
n
1.1500 0.6167 m
1.1300 0.6167 l
s
n
0.1500 0.7333 m
0.1700 0.7333 l
s
n
1.1500 0.7333 m
1.1300 0.7333 l
s
n
0.1500 0.8500 m
0.1700 0.8500 l
s
n
1.1500 0.8500 m
1.1300 0.8500 l
s
/Times-Roman findfont
dup length dict begin
 {1 index /FID ne {def} {pop pop} ifelse} forall
 /Encoding DefEncoding def
 currentdict
end
/Font0 exch definefont pop
/Font0 FFSF
1.1600 0.2516 m
GS
[0.0448 0.0000 0.0000 0.0448 0 0] CC
(-25) show
GR
/Font0 FFSF
1.1600 0.3684 m
GS
[0.0448 0.0000 0.0000 0.0448 0 0] CC
(-20) show
GR
/Font0 FFSF
1.1600 0.4849 m
GS
[0.0448 0.0000 0.0000 0.0448 0 0] CC
(-15) show
GR
/Font0 FFSF
1.1600 0.6018 m
GS
[0.0448 0.0000 0.0000 0.0448 0 0] CC
(-10) show
GR
/Font0 FFSF
1.1600 0.7182 m
GS
[0.0448 0.0000 0.0000 0.0448 0 0] CC
(-5) show
GR
/Font0 FFSF
1.1600 0.8351 m
GS
[0.0448 0.0000 0.0000 0.0448 0 0] CC
(0) show
GR
/Font0 FFSF
1.2577 0.4335 m
GS
[0.0000 0.0504 -0.0504 0.0000 0 0] CC
([MeV]) show
GR
[] 0 SD
0.0015 SLW
n
0.1500 0.1500 m
0.1500 0.8500 l
1.1500 0.8500 l
1.1500 0.1500 l
0.1500 0.1500 l
c
s
/Font0 FFSF
0.2000 0.3009 m
GS
[0.0600 0.0000 0.0000 0.0600 0 0] CC
(3) show
GR
/Font0 FFSF
0.2298 0.2500 m
GS
[0.0848 0.0000 0.0000 0.0848 0 0] CC
(S) show
GR
/Font0 FFSF
0.2769 0.2161 m
GS
[0.0600 0.0000 0.0000 0.0600 0 0] CC
(1) show
GR
/Font0 FFSF
0.3067 0.2500 m
GS
[0.0848 0.0000 0.0000 0.0848 0 0] CC
(-) show
GR
/Font0 FFSF
0.3349 0.3009 m
GS
[0.0600 0.0000 0.0000 0.0600 0 0] CC
(3) show
GR
/Font0 FFSF
0.3647 0.2500 m
GS
[0.0848 0.0000 0.0000 0.0848 0 0] CC
(D) show
GR
/Font0 FFSF
0.4259 0.2161 m
GS
[0.0600 0.0000 0.0000 0.0600 0 0] CC
(1) show
GR
showpage
%%PageTrailer
%%Trailer
%%DocumentNeededResources: font Times-Roman
%%EOF
