%!PS-Adobe-3.0
%%BoundingBox: 0 0 612 792
%%LanguageLevel: 2
%%Creator: Grace-5.1.25
%%CreationDate: Tue Dec  1 10:52:10 2015
%%DocumentData: Clean8Bit
%%Orientation: Landscape
%%Pages: 1
%%PageOrder: Ascend
%%Title: JLS_nakada1.agr
%%For: ap1450
%%DocumentNeededResources: (atend)
%%EndComments
%%BeginProlog
/PAGE_OFFSET_X 0 def
/PAGE_OFFSET_Y 0 def
/m {moveto} def
/l {lineto} def
/s {stroke} def
/n {newpath} def
/c {closepath} def
/RL {rlineto} def
/SLW {setlinewidth} def
/GS {gsave} def
/GR {grestore} def
/SC {setcolor} def
/SGRY {setgray} def
/SRGB {setrgbcolor} def
/SD {setdash} def
/SLC {setlinecap} def
/SLJ {setlinejoin} def
/SCS {setcolorspace} def
/FFSF {findfont setfont} def
/CC {concat} def
/PXL {n m 0 0 RL s} def
/Color0 {1.0000 1.0000 1.0000} def
/Color1 {0.0000 0.0000 0.0000} def
/Color2 {1.0000 0.0000 0.0000} def
/Color3 {0.0000 1.0000 0.0000} def
/Color4 {0.0000 0.0000 1.0000} def
/Color5 {1.0000 1.0000 0.0000} def
/Color6 {0.7373 0.5608 0.5608} def
/Color7 {0.8627 0.8627 0.8627} def
/Color8 {0.5804 0.0000 0.8275} def
/Color9 {0.0000 1.0000 1.0000} def
/Color10 {1.0000 0.0000 1.0000} def
/Color11 {1.0000 0.6471 0.0000} def
/Color12 {0.4471 0.1294 0.7373} def
/Color13 {0.4039 0.0275 0.2824} def
/Color14 {0.2510 0.8784 0.8157} def
/Color15 {0.0000 0.5451 0.0000} def
/Color16 {0.7529 0.7529 0.7529} def
/Color17 {0.5059 0.5059 0.5059} def
/Color18 {0.2588 0.2588 0.2588} def
/PTRN {
 /pat_bits exch def 
 <<
  /PaintType 2
  /PatternType 1 /TilingType 1
  /BBox[0 0 16 16]
  /XStep 16 /YStep 16
  /PaintProc {
   pop
   16 16 true [-1 0 0 -1 16 16] pat_bits imagemask
  }
 >>
 [0.0016 0 0 0.0016 0 0]
 makepattern
} def
/Pattern0 {<0000000000000000000000000000000000000000000000000000000000000000> PTRN} bind def
/Pattern1 {<ffffffffffffffffffffffffffffffffffffffffffffffffffffffffffffffff> PTRN} bind def
/Pattern2 {<eeeeffffbbbbffffeeeeffffbbbbffffeeeeffffbbbbffffeeeeffffbbbbffff> PTRN} bind def
/Pattern3 {<eeeebbbbeeeebbbbeeeebbbbeeeebbbbeeeebbbbeeeebbbbeeeebbbbeeeebbbb> PTRN} bind def
/Pattern4 {<5555aaaa5555aaaa5555aaaa5555aaaa5555aaaa5555aaaa5555aaaa5555aaaa> PTRN} bind def
/Pattern5 {<1111444411114444111144441111444411114444111144441111444411114444> PTRN} bind def
/Pattern6 {<1111000044440000111100004444000011110000444400001111000044440000> PTRN} bind def
/Pattern7 {<1010000000000000010100000000000010100000000000000101000000000000> PTRN} bind def
/Pattern8 {<0000000000000000000000000000000000000000000000000000000000000000> PTRN} bind def
/Pattern9 {<1e1e0f0f8787c3c3e1e1f0f078783c3c1e1e0f0f8787c3c3e1e1f0f078783c3c> PTRN} bind def
/Pattern10 {<7878f0f0e1e1c3c387870f0f1e1e3c3c7878f0f0e1e1c3c387870f0f1e1e3c3c> PTRN} bind def
/Pattern11 {<3333333333333333333333333333333333333333333333333333333333333333> PTRN} bind def
/Pattern12 {<ffffffff00000000ffffffff00000000ffffffff00000000ffffffff00000000> PTRN} bind def
/Pattern13 {<8181424224241818181824244242818181814242242418181818242442428181> PTRN} bind def
/Pattern14 {<8080404020201010080804040202010180804040202010100808040402020101> PTRN} bind def
/Pattern15 {<0101020204040808101020204040808001010202040408081010202040408080> PTRN} bind def
/Pattern16 {<2222222222222222222222222222222222222222222222222222222222222222> PTRN} bind def
/Pattern17 {<0000ffff000000000000ffff000000000000ffff000000000000ffff00000000> PTRN} bind def
/Pattern18 {<2222ffff222222222222ffff222222222222ffff222222222222ffff22222222> PTRN} bind def
/Pattern19 {<ffffffff33333333ffffffff33333333ffffffff33333333ffffffff33333333> PTRN} bind def
/Pattern20 {<0f0f0f0f0f0f0f0ff0f0f0f0f0f0f0f00f0f0f0f0f0f0f0ff0f0f0f0f0f0f0f0> PTRN} bind def
/Pattern21 {<ff00ff00ff00ff00ff00ff00ff00ff0000ff00ff00ff00ff00ff00ff00ff00ff> PTRN} bind def
/Pattern22 {<8001800180018001800180018001ffffffff8001800180018001800180018001> PTRN} bind def
/Pattern23 {<c003c003c003c003c003c003ffffffffffffffffc003c003c003c003c003c003> PTRN} bind def
/Pattern24 {<040404040404ffff404040404040ffff040404040404ffff404040404040ffff> PTRN} bind def
/Pattern25 {<180018001800180018001800ffffffff001800180018001800180018ffffffff> PTRN} bind def
/Pattern26 {<1111b8b87c7c3a3a1111a3a3c7c78b8b1111b8b87c7c3a3a1111a3a3c7c78b8b> PTRN} bind def
/Pattern27 {<101010102828c7c70101010182827c7c101010102828c7c70101010182827c7c> PTRN} bind def
/Pattern28 {<1c1c121211112121c1c12121111112121c1c121211112121c1c1212111111212> PTRN} bind def
/Pattern29 {<3e3e414180808080e3e31414080808083e3e414180808080e3e3141408080808> PTRN} bind def
/Pattern30 {<4848888884848383848488884848383848488888848483838484888848483838> PTRN} bind def
/Pattern31 {<03030404080808080c0c12122121c0c003030404080808080c0c12122121c0c0> PTRN} bind def
/ellipsedict 8 dict def
ellipsedict /mtrx matrix put
/EARC {
 ellipsedict begin
  /endangle exch def
  /startangle exch def
  /yrad exch def
  /xrad exch def
  /y exch def
  /x exch def
  /savematrix mtrx currentmatrix def
  x y translate
  xrad yrad scale
  0 0 1 startangle endangle arc
  savematrix setmatrix
 end
} def
/TL {
  /kcomp exch def
  /linewidth exch def
  /offset exch def
  GS
  0 offset rmoveto
  linewidth SLW
  dup stringwidth exch kcomp add exch RL s
  GR
} def
/KINIT
{
 /kvector exch def
 /kid 0 def
} def
/KPROC
{
 pop pop
 kvector kid get
 0 rmoveto
 /kid 1 kid add def
} def
/DefEncoding [
 /.notdef
 /.notdef
 /.notdef
 /.notdef
 /.notdef
 /.notdef
 /.notdef
 /.notdef
 /.notdef
 /.notdef
 /.notdef
 /.notdef
 /.notdef
 /.notdef
 /.notdef
 /.notdef
 /.notdef
 /.notdef
 /.notdef
 /.notdef
 /.notdef
 /.notdef
 /.notdef
 /.notdef
 /.notdef
 /.notdef
 /.notdef
 /.notdef
 /.notdef
 /.notdef
 /.notdef
 /.notdef
 /space
 /exclam
 /quotedbl
 /numbersign
 /dollar
 /percent
 /ampersand
 /quoteright
 /parenleft
 /parenright
 /asterisk
 /plus
 /comma
 /hyphen
 /period
 /slash
 /zero
 /one
 /two
 /three
 /four
 /five
 /six
 /seven
 /eight
 /nine
 /colon
 /semicolon
 /less
 /equal
 /greater
 /question
 /at
 /A
 /B
 /C
 /D
 /E
 /F
 /G
 /H
 /I
 /J
 /K
 /L
 /M
 /N
 /O
 /P
 /Q
 /R
 /S
 /T
 /U
 /V
 /W
 /X
 /Y
 /Z
 /bracketleft
 /backslash
 /bracketright
 /asciicircum
 /underscore
 /grave
 /a
 /b
 /c
 /d
 /e
 /f
 /g
 /h
 /i
 /j
 /k
 /l
 /m
 /n
 /o
 /p
 /q
 /r
 /s
 /t
 /u
 /v
 /w
 /x
 /y
 /z
 /braceleft
 /bar
 /braceright
 /asciitilde
 /.notdef
 /.notdef
 /.notdef
 /.notdef
 /.notdef
 /.notdef
 /.notdef
 /.notdef
 /.notdef
 /.notdef
 /.notdef
 /.notdef
 /.notdef
 /.notdef
 /.notdef
 /.notdef
 /.notdef
 /.notdef
 /.notdef
 /.notdef
 /.notdef
 /.notdef
 /.notdef
 /.notdef
 /.notdef
 /.notdef
 /.notdef
 /.notdef
 /.notdef
 /.notdef
 /.notdef
 /.notdef
 /.notdef
 /space
 /exclamdown
 /cent
 /sterling
 /currency
 /yen
 /brokenbar
 /section
 /dieresis
 /copyright
 /ordfeminine
 /guillemotleft
 /logicalnot
 /hyphen
 /registered
 /macron
 /degree
 /plusminus
 /twosuperior
 /threesuperior
 /acute
 /mu
 /paragraph
 /periodcentered
 /cedilla
 /onesuperior
 /ordmasculine
 /guillemotright
 /onequarter
 /onehalf
 /threequarters
 /questiondown
 /Agrave
 /Aacute
 /Acircumflex
 /Atilde
 /Adieresis
 /Aring
 /AE
 /Ccedilla
 /Egrave
 /Eacute
 /Ecircumflex
 /Edieresis
 /Igrave
 /Iacute
 /Icircumflex
 /Idieresis
 /Eth
 /Ntilde
 /Ograve
 /Oacute
 /Ocircumflex
 /Otilde
 /Odieresis
 /multiply
 /Oslash
 /Ugrave
 /Uacute
 /Ucircumflex
 /Udieresis
 /Yacute
 /Thorn
 /germandbls
 /agrave
 /aacute
 /acircumflex
 /atilde
 /adieresis
 /aring
 /ae
 /ccedilla
 /egrave
 /eacute
 /ecircumflex
 /edieresis
 /igrave
 /iacute
 /icircumflex
 /idieresis
 /eth
 /ntilde
 /ograve
 /oacute
 /ocircumflex
 /otilde
 /odieresis
 /divide
 /oslash
 /ugrave
 /uacute
 /ucircumflex
 /udieresis
 /yacute
 /thorn
 /ydieresis
] def
%%EndProlog
%%BeginSetup
%%EndSetup
%%Page: 1 1
PAGE_OFFSET_X PAGE_OFFSET_Y translate
612.00 612.00 scale
90 rotate
0.0 -1.0 translate
n
0.4267 0.6474 m
0.4267 0.6654 l
0.4447 0.6654 l
0.4447 0.6474 l
c
GS
[/DeviceRGB] SCS
Color0 SRGB
fill
GR
[/Pattern /DeviceRGB] SCS
Color1 Pattern8 SC
fill
[/DeviceRGB] SCS
Color1 SC
[] 0 SD
0.0045 SLW
0 SLC
0 SLJ
n
0.4267 0.6474 m
0.4267 0.6654 l
0.4447 0.6654 l
0.4447 0.6474 l
0.4267 0.6474 l
c
s
n
0.4981 0.5937 m
0.4981 0.6117 l
0.5162 0.6117 l
0.5162 0.5937 l
c
GS
Color0 SRGB
fill
GR
[/Pattern /DeviceRGB] SCS
Color1 Pattern8 SC
fill
[/DeviceRGB] SCS
Color1 SC
n
0.4981 0.5937 m
0.4981 0.6117 l
0.5162 0.6117 l
0.5162 0.5937 l
0.4981 0.5937 l
c
s
n
0.5696 0.5380 m
0.5696 0.5561 l
0.5876 0.5561 l
0.5876 0.5380 l
c
GS
Color0 SRGB
fill
GR
[/Pattern /DeviceRGB] SCS
Color1 Pattern8 SC
fill
[/DeviceRGB] SCS
Color1 SC
n
0.5696 0.5380 m
0.5696 0.5561 l
0.5876 0.5561 l
0.5876 0.5380 l
0.5696 0.5380 l
c
s
n
0.6410 0.4822 m
0.6410 0.5002 l
0.6590 0.5002 l
0.6590 0.4822 l
c
GS
Color0 SRGB
fill
GR
[/Pattern /DeviceRGB] SCS
Color1 Pattern8 SC
fill
[/DeviceRGB] SCS
Color1 SC
n
0.6410 0.4822 m
0.6410 0.5002 l
0.6590 0.5002 l
0.6590 0.4822 l
0.6410 0.4822 l
c
s
n
0.7124 0.4282 m
0.7124 0.4463 l
0.7304 0.4463 l
0.7304 0.4282 l
c
GS
Color0 SRGB
fill
GR
[/Pattern /DeviceRGB] SCS
Color1 Pattern8 SC
fill
[/DeviceRGB] SCS
Color1 SC
n
0.7124 0.4282 m
0.7124 0.4463 l
0.7304 0.4463 l
0.7304 0.4282 l
0.7124 0.4282 l
c
s
n
0.7838 0.3773 m
0.7838 0.3954 l
0.8019 0.3954 l
0.8019 0.3773 l
c
GS
Color0 SRGB
fill
GR
[/Pattern /DeviceRGB] SCS
Color1 Pattern8 SC
fill
[/DeviceRGB] SCS
Color1 SC
n
0.7838 0.3773 m
0.7838 0.3954 l
0.8019 0.3954 l
0.8019 0.3773 l
0.7838 0.3773 l
c
s
n
0.8553 0.3360 m
0.8553 0.3540 l
0.8733 0.3540 l
0.8733 0.3360 l
c
GS
Color0 SRGB
fill
GR
[/Pattern /DeviceRGB] SCS
Color1 Pattern8 SC
fill
[/DeviceRGB] SCS
Color1 SC
n
0.8553 0.3360 m
0.8553 0.3540 l
0.8733 0.3540 l
0.8733 0.3360 l
0.8553 0.3360 l
c
s
n
0.9267 0.3102 m
0.9267 0.3282 l
0.9447 0.3282 l
0.9447 0.3102 l
c
GS
Color0 SRGB
fill
GR
[/Pattern /DeviceRGB] SCS
Color1 Pattern8 SC
fill
[/DeviceRGB] SCS
Color1 SC
n
0.9267 0.3102 m
0.9267 0.3282 l
0.9447 0.3282 l
0.9447 0.3102 l
0.9267 0.3102 l
c
s
n
0.9981 0.3076 m
0.9981 0.3256 l
1.0162 0.3256 l
1.0162 0.3076 l
c
GS
Color0 SRGB
fill
GR
[/Pattern /DeviceRGB] SCS
Color1 Pattern8 SC
fill
[/DeviceRGB] SCS
Color1 SC
n
0.9981 0.3076 m
0.9981 0.3256 l
1.0162 0.3256 l
1.0162 0.3076 l
0.9981 0.3076 l
c
s
n
1.0696 0.3357 m
1.0696 0.3537 l
1.0876 0.3537 l
1.0876 0.3357 l
c
GS
Color0 SRGB
fill
GR
[/Pattern /DeviceRGB] SCS
Color1 Pattern8 SC
fill
[/DeviceRGB] SCS
Color1 SC
n
1.0696 0.3357 m
1.0696 0.3537 l
1.0876 0.3537 l
1.0876 0.3357 l
1.0696 0.3357 l
c
s
n
1.1410 0.4043 m
1.1410 0.4224 l
1.1590 0.4224 l
1.1590 0.4043 l
c
GS
Color0 SRGB
fill
GR
[/Pattern /DeviceRGB] SCS
Color1 Pattern8 SC
fill
[/DeviceRGB] SCS
Color1 SC
n
1.1410 0.4043 m
1.1410 0.4224 l
1.1590 0.4224 l
1.1590 0.4043 l
1.1410 0.4043 l
c
s
[] 0 SD
0.0037 SLW
n
0.1499 0.8224 m
0.1500 0.8224 l
0.1571 0.8204 l
0.1643 0.8183 l
0.1714 0.8162 l
0.1786 0.8139 l
0.1857 0.8116 l
0.1929 0.8092 l
0.2000 0.8067 l
0.2071 0.8042 l
0.2143 0.8015 l
0.2214 0.7987 l
0.2286 0.7959 l
0.2357 0.7930 l
0.2429 0.7899 l
0.2500 0.7868 l
0.2571 0.7836 l
0.2643 0.7803 l
0.2714 0.7770 l
0.2786 0.7735 l
0.2857 0.7699 l
0.2929 0.7663 l
0.3000 0.7625 l
0.3071 0.7587 l
0.3143 0.7548 l
0.3214 0.7508 l
0.3286 0.7467 l
0.3357 0.7425 l
0.3429 0.7382 l
0.3500 0.7339 l
0.3571 0.7294 l
0.3643 0.7249 l
0.3714 0.7203 l
0.3786 0.7156 l
0.3857 0.7108 l
0.3929 0.7060 l
0.4000 0.7010 l
0.4071 0.6960 l
0.4143 0.6909 l
0.4214 0.6857 l
0.4286 0.6804 l
0.4357 0.6751 l
0.4429 0.6697 l
0.4500 0.6642 l
0.4571 0.6586 l
0.4643 0.6530 l
0.4714 0.6473 l
0.4786 0.6415 l
0.4857 0.6357 l
0.4929 0.6297 l
0.5000 0.6238 l
0.5071 0.6177 l
0.5143 0.6116 l
0.5214 0.6055 l
0.5286 0.5993 l
0.5357 0.5930 l
0.5429 0.5866 l
0.5500 0.5803 l
0.5571 0.5738 l
0.5643 0.5673 l
0.5714 0.5608 l
0.5786 0.5542 l
0.5857 0.5476 l
0.5929 0.5409 l
0.6000 0.5342 l
0.6071 0.5275 l
0.6143 0.5207 l
0.6214 0.5139 l
0.6286 0.5071 l
0.6357 0.5002 l
0.6429 0.4933 l
0.6500 0.4864 l
0.6571 0.4794 l
0.6643 0.4725 l
0.6714 0.4655 l
0.6786 0.4585 l
0.6857 0.4515 l
0.6929 0.4445 l
0.7000 0.4375 l
0.7071 0.4304 l
0.7143 0.4234 l
0.7214 0.4164 l
0.7286 0.4093 l
0.7357 0.4023 l
0.7429 0.3953 l
0.7500 0.3883 l
0.7571 0.3813 l
0.7643 0.3743 l
0.7714 0.3674 l
0.7786 0.3605 l
0.7857 0.3536 l
0.7929 0.3467 l
0.8000 0.3398 l
0.8071 0.3330 l
0.8143 0.3262 l
0.8214 0.3195 l
0.8286 0.3128 l
0.8357 0.3062 l
0.8429 0.2996 l
0.8500 0.2931 l
0.8571 0.2866 l
0.8643 0.2801 l
0.8714 0.2738 l
0.8786 0.2675 l
0.8857 0.2612 l
0.8929 0.2551 l
0.9000 0.2490 l
0.9071 0.2430 l
0.9143 0.2371 l
0.9214 0.2312 l
0.9286 0.2255 l
0.9357 0.2198 l
0.9429 0.2143 l
0.9500 0.2088 l
0.9571 0.2035 l
0.9643 0.1982 l
0.9714 0.1931 l
0.9786 0.1880 l
0.9857 0.1831 l
0.9929 0.1783 l
1.0000 0.1737 l
1.0071 0.1691 l
1.0143 0.1647 l
1.0214 0.1604 l
1.0286 0.1563 l
1.0357 0.1523 l
1.0401 0.1499 l
s
[/DeviceRGB] SCS
Color2 SC
[0.0187 0.0112 ] 0 SD
0.0037 SLW
n
0.1499 0.8262 m
0.1500 0.8262 l
0.1571 0.8245 l
0.1643 0.8227 l
0.1714 0.8208 l
0.1786 0.8188 l
0.1857 0.8168 l
0.1929 0.8147 l
0.2000 0.8125 l
0.2071 0.8102 l
0.2143 0.8079 l
0.2214 0.8054 l
0.2286 0.8029 l
0.2357 0.8003 l
0.2429 0.7976 l
0.2500 0.7949 l
0.2571 0.7920 l
0.2643 0.7891 l
0.2714 0.7861 l
0.2786 0.7830 l
0.2857 0.7798 l
0.2929 0.7765 l
0.3000 0.7732 l
0.3071 0.7697 l
0.3143 0.7662 l
0.3214 0.7626 l
0.3286 0.7589 l
0.3357 0.7551 l
0.3429 0.7513 l
0.3500 0.7473 l
0.3571 0.7433 l
0.3643 0.7392 l
0.3714 0.7350 l
0.3786 0.7307 l
0.3857 0.7264 l
0.3929 0.7219 l
0.4000 0.7174 l
0.4071 0.7128 l
0.4143 0.7082 l
0.4214 0.7034 l
0.4286 0.6986 l
0.4357 0.6937 l
0.4429 0.6887 l
0.4500 0.6836 l
0.4571 0.6785 l
0.4643 0.6733 l
0.4714 0.6681 l
0.4786 0.6627 l
0.4857 0.6573 l
0.4929 0.6518 l
0.5000 0.6463 l
0.5071 0.6407 l
0.5143 0.6350 l
0.5214 0.6293 l
0.5286 0.6235 l
0.5357 0.6177 l
0.5429 0.6118 l
0.5500 0.6059 l
0.5571 0.5999 l
0.5643 0.5938 l
0.5714 0.5877 l
0.5786 0.5816 l
0.5857 0.5754 l
0.5929 0.5692 l
0.6000 0.5629 l
0.6071 0.5566 l
0.6143 0.5503 l
0.6214 0.5440 l
0.6286 0.5376 l
0.6357 0.5312 l
0.6429 0.5247 l
0.6500 0.5183 l
0.6571 0.5118 l
0.6643 0.5053 l
0.6714 0.4988 l
0.6786 0.4923 l
0.6857 0.4858 l
0.6929 0.4793 l
0.7000 0.4728 l
0.7071 0.4662 l
0.7143 0.4597 l
0.7214 0.4533 l
0.7286 0.4468 l
0.7357 0.4403 l
0.7429 0.4339 l
0.7500 0.4275 l
0.7571 0.4211 l
0.7643 0.4148 l
0.7714 0.4085 l
0.7786 0.4023 l
0.7857 0.3961 l
0.7929 0.3899 l
0.8000 0.3838 l
0.8071 0.3778 l
0.8143 0.3718 l
0.8214 0.3659 l
0.8286 0.3601 l
0.8357 0.3543 l
0.8429 0.3487 l
0.8500 0.3431 l
0.8571 0.3377 l
0.8643 0.3323 l
0.8714 0.3270 l
0.8786 0.3219 l
0.8857 0.3168 l
0.8929 0.3119 l
0.9000 0.3071 l
0.9071 0.3025 l
0.9143 0.2980 l
0.9214 0.2936 l
0.9286 0.2894 l
0.9357 0.2854 l
0.9429 0.2815 l
0.9500 0.2778 l
0.9571 0.2743 l
0.9643 0.2709 l
0.9714 0.2678 l
0.9786 0.2648 l
0.9857 0.2621 l
0.9929 0.2596 l
1.0000 0.2573 l
1.0071 0.2552 l
1.0143 0.2534 l
1.0214 0.2518 l
1.0286 0.2504 l
1.0357 0.2494 l
1.0429 0.2485 l
1.0500 0.2480 l
1.0571 0.2478 l
1.0643 0.2478 l
1.0714 0.2482 l
1.0786 0.2488 l
1.0857 0.2498 l
1.0929 0.2511 l
1.1000 0.2527 l
1.1071 0.2547 l
1.1143 0.2571 l
1.1214 0.2598 l
1.1286 0.2629 l
1.1357 0.2664 l
1.1429 0.2703 l
1.1500 0.2745 l
1.1501 0.2746 l
s
[/DeviceRGB] SCS
Color4 SC
[0.0037 0.0112 ] 0 SD
0.0037 SLW
n
0.1499 0.8262 m
0.1500 0.8262 l
0.1571 0.8245 l
0.1643 0.8227 l
0.1714 0.8208 l
0.1786 0.8188 l
0.1857 0.8168 l
0.1929 0.8147 l
0.2000 0.8125 l
0.2071 0.8102 l
0.2143 0.8079 l
0.2214 0.8055 l
0.2286 0.8029 l
0.2357 0.8004 l
0.2429 0.7977 l
0.2500 0.7949 l
0.2571 0.7921 l
0.2643 0.7891 l
0.2714 0.7861 l
0.2786 0.7830 l
0.2857 0.7799 l
0.2929 0.7766 l
0.3000 0.7733 l
0.3071 0.7698 l
0.3143 0.7663 l
0.3214 0.7627 l
0.3286 0.7590 l
0.3357 0.7553 l
0.3429 0.7514 l
0.3500 0.7475 l
0.3571 0.7435 l
0.3643 0.7394 l
0.3714 0.7352 l
0.3786 0.7310 l
0.3857 0.7266 l
0.3929 0.7222 l
0.4000 0.7177 l
0.4071 0.7132 l
0.4143 0.7085 l
0.4214 0.7038 l
0.4286 0.6990 l
0.4357 0.6941 l
0.4429 0.6892 l
0.4500 0.6842 l
0.4571 0.6791 l
0.4643 0.6739 l
0.4714 0.6687 l
0.4786 0.6634 l
0.4857 0.6580 l
0.4929 0.6526 l
0.5000 0.6471 l
0.5071 0.6416 l
0.5143 0.6360 l
0.5214 0.6303 l
0.5286 0.6246 l
0.5357 0.6189 l
0.5429 0.6130 l
0.5500 0.6072 l
0.5571 0.6013 l
0.5643 0.5953 l
0.5714 0.5893 l
0.5786 0.5833 l
0.5857 0.5772 l
0.5929 0.5711 l
0.6000 0.5649 l
0.6071 0.5588 l
0.6143 0.5526 l
0.6214 0.5463 l
0.6286 0.5401 l
0.6357 0.5338 l
0.6429 0.5275 l
0.6500 0.5212 l
0.6571 0.5149 l
0.6643 0.5086 l
0.6714 0.5023 l
0.6786 0.4960 l
0.6857 0.4897 l
0.6929 0.4834 l
0.7000 0.4771 l
0.7071 0.4708 l
0.7143 0.4645 l
0.7214 0.4583 l
0.7286 0.4521 l
0.7357 0.4459 l
0.7429 0.4397 l
0.7500 0.4336 l
0.7571 0.4275 l
0.7643 0.4215 l
0.7714 0.4155 l
0.7786 0.4096 l
0.7857 0.4038 l
0.7929 0.3980 l
0.8000 0.3923 l
0.8071 0.3866 l
0.8143 0.3811 l
0.8214 0.3756 l
0.8286 0.3702 l
0.8357 0.3650 l
0.8429 0.3598 l
0.8500 0.3547 l
0.8571 0.3497 l
0.8643 0.3449 l
0.8714 0.3402 l
0.8786 0.3356 l
0.8857 0.3312 l
0.8929 0.3269 l
0.9000 0.3227 l
0.9071 0.3187 l
0.9143 0.3149 l
0.9214 0.3113 l
0.9286 0.3078 l
0.9357 0.3045 l
0.9429 0.3014 l
0.9500 0.2985 l
0.9571 0.2958 l
0.9643 0.2933 l
0.9714 0.2910 l
0.9786 0.2890 l
0.9857 0.2872 l
0.9929 0.2857 l
1.0000 0.2844 l
1.0071 0.2833 l
1.0143 0.2826 l
1.0214 0.2821 l
1.0286 0.2819 l
1.0357 0.2820 l
1.0429 0.2824 l
1.0500 0.2831 l
1.0571 0.2841 l
1.0643 0.2855 l
1.0714 0.2872 l
1.0786 0.2893 l
1.0857 0.2917 l
1.0929 0.2945 l
1.1000 0.2977 l
1.1071 0.3013 l
1.1143 0.3053 l
1.1214 0.3096 l
1.1286 0.3145 l
1.1357 0.3197 l
1.1429 0.3254 l
1.1500 0.3316 l
1.1501 0.3317 l
s
[/DeviceRGB] SCS
Color11 SC
[0.0037 0.0112 0.0187 0.0112 ] 0 SD
0.0037 SLW
n
0.1499 0.8259 m
0.1500 0.8259 l
0.1571 0.8241 l
0.1643 0.8223 l
0.1714 0.8204 l
0.1786 0.8184 l
0.1857 0.8163 l
0.1929 0.8142 l
0.2000 0.8120 l
0.2071 0.8097 l
0.2143 0.8073 l
0.2214 0.8048 l
0.2286 0.8022 l
0.2357 0.7996 l
0.2429 0.7968 l
0.2500 0.7940 l
0.2571 0.7911 l
0.2643 0.7881 l
0.2714 0.7851 l
0.2786 0.7819 l
0.2857 0.7786 l
0.2929 0.7753 l
0.3000 0.7719 l
0.3071 0.7683 l
0.3143 0.7647 l
0.3214 0.7610 l
0.3286 0.7573 l
0.3357 0.7534 l
0.3429 0.7494 l
0.3500 0.7454 l
0.3571 0.7412 l
0.3643 0.7370 l
0.3714 0.7327 l
0.3786 0.7283 l
0.3857 0.7238 l
0.3929 0.7192 l
0.4000 0.7146 l
0.4071 0.7098 l
0.4143 0.7050 l
0.4214 0.7001 l
0.4286 0.6951 l
0.4357 0.6900 l
0.4429 0.6848 l
0.4500 0.6795 l
0.4571 0.6742 l
0.4643 0.6688 l
0.4714 0.6633 l
0.4786 0.6577 l
0.4857 0.6520 l
0.4929 0.6463 l
0.5000 0.6405 l
0.5071 0.6346 l
0.5143 0.6286 l
0.5214 0.6226 l
0.5286 0.6164 l
0.5357 0.6103 l
0.5429 0.6040 l
0.5500 0.5977 l
0.5571 0.5913 l
0.5643 0.5848 l
0.5714 0.5783 l
0.5786 0.5717 l
0.5857 0.5651 l
0.5929 0.5584 l
0.6000 0.5516 l
0.6071 0.5448 l
0.6143 0.5379 l
0.6214 0.5309 l
0.6286 0.5240 l
0.6357 0.5169 l
0.6429 0.5098 l
0.6500 0.5027 l
0.6571 0.4955 l
0.6643 0.4883 l
0.6714 0.4811 l
0.6786 0.4738 l
0.6857 0.4664 l
0.6929 0.4591 l
0.7000 0.4517 l
0.7071 0.4443 l
0.7143 0.4368 l
0.7214 0.4293 l
0.7286 0.4218 l
0.7357 0.4143 l
0.7429 0.4068 l
0.7500 0.3992 l
0.7571 0.3917 l
0.7643 0.3841 l
0.7714 0.3766 l
0.7786 0.3690 l
0.7857 0.3614 l
0.7929 0.3538 l
0.8000 0.3463 l
0.8071 0.3387 l
0.8143 0.3312 l
0.8214 0.3236 l
0.8286 0.3161 l
0.8357 0.3087 l
0.8429 0.3012 l
0.8500 0.2938 l
0.8571 0.2864 l
0.8643 0.2790 l
0.8714 0.2717 l
0.8786 0.2644 l
0.8857 0.2571 l
0.8929 0.2499 l
0.9000 0.2428 l
0.9071 0.2357 l
0.9143 0.2287 l
0.9214 0.2218 l
0.9286 0.2149 l
0.9357 0.2081 l
0.9429 0.2014 l
0.9500 0.1947 l
0.9571 0.1882 l
0.9643 0.1817 l
0.9714 0.1753 l
0.9786 0.1691 l
0.9857 0.1629 l
0.9929 0.1568 l
1.0000 0.1509 l
1.0012 0.1499 l
s
[/DeviceRGB] SCS
Color3 SC
[0.0037 0.0112 0.0187 0.0112 0.0037 0.0112 ] 0 SD
0.0037 SLW
n
0.1499 0.8215 m
0.1500 0.8215 l
0.1571 0.8194 l
0.1643 0.8173 l
0.1714 0.8150 l
0.1786 0.8127 l
0.1857 0.8102 l
0.1929 0.8077 l
0.2000 0.8050 l
0.2071 0.8023 l
0.2143 0.7994 l
0.2214 0.7965 l
0.2286 0.7934 l
0.2357 0.7903 l
0.2429 0.7871 l
0.2500 0.7837 l
0.2571 0.7803 l
0.2643 0.7767 l
0.2714 0.7731 l
0.2786 0.7693 l
0.2857 0.7654 l
0.2929 0.7615 l
0.3000 0.7574 l
0.3071 0.7532 l
0.3143 0.7489 l
0.3214 0.7445 l
0.3286 0.7401 l
0.3357 0.7355 l
0.3429 0.7308 l
0.3500 0.7259 l
0.3571 0.7210 l
0.3643 0.7160 l
0.3714 0.7109 l
0.3786 0.7057 l
0.3857 0.7003 l
0.3929 0.6949 l
0.4000 0.6894 l
0.4071 0.6837 l
0.4143 0.6780 l
0.4214 0.6722 l
0.4286 0.6662 l
0.4357 0.6602 l
0.4429 0.6541 l
0.4500 0.6479 l
0.4571 0.6415 l
0.4643 0.6351 l
0.4714 0.6286 l
0.4786 0.6220 l
0.4857 0.6153 l
0.4929 0.6086 l
0.5000 0.6017 l
0.5071 0.5948 l
0.5143 0.5877 l
0.5214 0.5806 l
0.5286 0.5734 l
0.5357 0.5661 l
0.5429 0.5588 l
0.5500 0.5514 l
0.5571 0.5439 l
0.5643 0.5363 l
0.5714 0.5286 l
0.5786 0.5209 l
0.5857 0.5132 l
0.5929 0.5053 l
0.6000 0.4974 l
0.6071 0.4895 l
0.6143 0.4814 l
0.6214 0.4734 l
0.6286 0.4653 l
0.6357 0.4571 l
0.6429 0.4489 l
0.6500 0.4406 l
0.6571 0.4323 l
0.6643 0.4240 l
0.6714 0.4156 l
0.6786 0.4072 l
0.6857 0.3988 l
0.6929 0.3904 l
0.7000 0.3819 l
0.7071 0.3734 l
0.7143 0.3649 l
0.7214 0.3564 l
0.7286 0.3479 l
0.7357 0.3394 l
0.7429 0.3309 l
0.7500 0.3224 l
0.7571 0.3139 l
0.7643 0.3054 l
0.7714 0.2969 l
0.7786 0.2884 l
0.7857 0.2800 l
0.7929 0.2716 l
0.8000 0.2632 l
0.8071 0.2549 l
0.8143 0.2466 l
0.8214 0.2384 l
0.8286 0.2302 l
0.8357 0.2220 l
0.8429 0.2140 l
0.8500 0.2059 l
0.8571 0.1980 l
0.8643 0.1901 l
0.8714 0.1824 l
0.8786 0.1747 l
0.8857 0.1671 l
0.8929 0.1596 l
0.9000 0.1522 l
0.9022 0.1499 l
s
[/DeviceRGB] SCS
Color8 SC
[0.0187 0.0112 0.0037 0.0112 0.0187 0.0112 ] 0 SD
0.0037 SLW
n
0.1499 0.8202 m
0.1500 0.8202 l
0.1571 0.8180 l
0.1643 0.8157 l
0.1714 0.8133 l
0.1786 0.8109 l
0.1857 0.8083 l
0.1929 0.8056 l
0.2000 0.8029 l
0.2071 0.8000 l
0.2143 0.7970 l
0.2214 0.7939 l
0.2286 0.7908 l
0.2357 0.7875 l
0.2429 0.7841 l
0.2500 0.7806 l
0.2571 0.7770 l
0.2643 0.7733 l
0.2714 0.7694 l
0.2786 0.7655 l
0.2857 0.7615 l
0.2929 0.7574 l
0.3000 0.7531 l
0.3071 0.7488 l
0.3143 0.7443 l
0.3214 0.7397 l
0.3286 0.7351 l
0.3357 0.7303 l
0.3429 0.7254 l
0.3500 0.7204 l
0.3571 0.7153 l
0.3643 0.7101 l
0.3714 0.7048 l
0.3786 0.6994 l
0.3857 0.6939 l
0.3929 0.6883 l
0.4000 0.6826 l
0.4071 0.6768 l
0.4143 0.6709 l
0.4214 0.6649 l
0.4286 0.6589 l
0.4357 0.6527 l
0.4429 0.6464 l
0.4500 0.6401 l
0.4571 0.6336 l
0.4643 0.6271 l
0.4714 0.6205 l
0.4786 0.6138 l
0.4857 0.6070 l
0.4929 0.6002 l
0.5000 0.5933 l
0.5071 0.5863 l
0.5143 0.5792 l
0.5214 0.5721 l
0.5286 0.5649 l
0.5357 0.5577 l
0.5429 0.5504 l
0.5500 0.5431 l
0.5571 0.5356 l
0.5643 0.5282 l
0.5714 0.5207 l
0.5786 0.5132 l
0.5857 0.5056 l
0.5929 0.4980 l
0.6000 0.4904 l
0.6071 0.4827 l
0.6143 0.4750 l
0.6214 0.4674 l
0.6286 0.4597 l
0.6357 0.4519 l
0.6429 0.4442 l
0.6500 0.4365 l
0.6571 0.4288 l
0.6643 0.4211 l
0.6714 0.4135 l
0.6786 0.4058 l
0.6857 0.3982 l
0.6929 0.3906 l
0.7000 0.3831 l
0.7071 0.3756 l
0.7143 0.3681 l
0.7214 0.3607 l
0.7286 0.3534 l
0.7357 0.3461 l
0.7429 0.3389 l
0.7500 0.3318 l
0.7571 0.3248 l
0.7643 0.3179 l
0.7714 0.3111 l
0.7786 0.3044 l
0.7857 0.2978 l
0.7929 0.2914 l
0.8000 0.2851 l
0.8071 0.2789 l
0.8143 0.2729 l
0.8214 0.2670 l
0.8286 0.2613 l
0.8357 0.2558 l
0.8429 0.2505 l
0.8500 0.2453 l
0.8571 0.2404 l
0.8643 0.2357 l
0.8714 0.2312 l
0.8786 0.2269 l
0.8857 0.2229 l
0.8929 0.2191 l
0.9000 0.2156 l
0.9071 0.2124 l
0.9143 0.2094 l
0.9214 0.2067 l
0.9286 0.2044 l
0.9357 0.2023 l
0.9429 0.2006 l
0.9500 0.1992 l
0.9571 0.1982 l
0.9643 0.1976 l
0.9714 0.1973 l
0.9786 0.1974 l
0.9857 0.1979 l
0.9929 0.1988 l
1.0000 0.2002 l
1.0071 0.2019 l
1.0143 0.2042 l
1.0214 0.2069 l
1.0286 0.2101 l
1.0357 0.2138 l
1.0429 0.2180 l
1.0500 0.2227 l
1.0571 0.2280 l
1.0643 0.2338 l
1.0714 0.2402 l
1.0786 0.2472 l
1.0857 0.2548 l
1.0929 0.2630 l
1.1000 0.2718 l
1.1071 0.2813 l
1.1143 0.2915 l
1.1214 0.3023 l
1.1286 0.3139 l
1.1357 0.3262 l
1.1429 0.3392 l
1.1500 0.3530 l
1.1501 0.3532 l
s
[/DeviceRGB] SCS
Color1 SC
[] 0 SD
0.0045 SLW
n
0.1500 0.1500 m
1.1500 0.1500 l
s
n
0.1500 0.8500 m
1.1500 0.8500 l
s
n
0.2214 0.1500 m
0.2214 0.1600 l
s
n
0.2214 0.8500 m
0.2214 0.8400 l
s
n
0.3643 0.1500 m
0.3643 0.1600 l
s
n
0.3643 0.8500 m
0.3643 0.8400 l
s
n
0.5071 0.1500 m
0.5071 0.1600 l
s
n
0.5071 0.8500 m
0.5071 0.8400 l
s
n
0.6500 0.1500 m
0.6500 0.1600 l
s
n
0.6500 0.8500 m
0.6500 0.8400 l
s
n
0.7929 0.1500 m
0.7929 0.1600 l
s
n
0.7929 0.8500 m
0.7929 0.8400 l
s
n
0.9357 0.1500 m
0.9357 0.1600 l
s
n
0.9357 0.8500 m
0.9357 0.8400 l
s
n
1.0786 0.1500 m
1.0786 0.1600 l
s
n
1.0786 0.8500 m
1.0786 0.8400 l
s
n
0.1500 0.1500 m
0.1500 0.1700 l
s
n
0.1500 0.8500 m
0.1500 0.8300 l
s
n
0.2929 0.1500 m
0.2929 0.1700 l
s
n
0.2929 0.8500 m
0.2929 0.8300 l
s
n
0.4357 0.1500 m
0.4357 0.1700 l
s
n
0.4357 0.8500 m
0.4357 0.8300 l
s
n
0.5786 0.1500 m
0.5786 0.1700 l
s
n
0.5786 0.8500 m
0.5786 0.8300 l
s
n
0.7214 0.1500 m
0.7214 0.1700 l
s
n
0.7214 0.8500 m
0.7214 0.8300 l
s
n
0.8643 0.1500 m
0.8643 0.1700 l
s
n
0.8643 0.8500 m
0.8643 0.8300 l
s
n
1.0071 0.1500 m
1.0071 0.1700 l
s
n
1.0071 0.8500 m
1.0071 0.8300 l
s
n
0.1500 0.1500 m
0.1500 0.8500 l
s
n
1.1500 0.1500 m
1.1500 0.8500 l
s
n
0.1500 0.2375 m
0.1600 0.2375 l
s
n
1.1500 0.2375 m
1.1400 0.2375 l
s
n
0.1500 0.4125 m
0.1600 0.4125 l
s
n
1.1500 0.4125 m
1.1400 0.4125 l
s
n
0.1500 0.5875 m
0.1600 0.5875 l
s
n
1.1500 0.5875 m
1.1400 0.5875 l
s
n
0.1500 0.7625 m
0.1600 0.7625 l
s
n
1.1500 0.7625 m
1.1400 0.7625 l
s
n
0.1500 0.1500 m
0.1700 0.1500 l
s
n
1.1500 0.1500 m
1.1300 0.1500 l
s
n
0.1500 0.3250 m
0.1700 0.3250 l
s
n
1.1500 0.3250 m
1.1300 0.3250 l
s
n
0.1500 0.5000 m
0.1700 0.5000 l
s
n
1.1500 0.5000 m
1.1300 0.5000 l
s
n
0.1500 0.6750 m
0.1700 0.6750 l
s
n
1.1500 0.6750 m
1.1300 0.6750 l
s
n
0.1500 0.8500 m
0.1700 0.8500 l
s
n
1.1500 0.8500 m
1.1300 0.8500 l
s
/Times-Roman findfont
dup length dict begin
 {1 index /FID ne {def} {pop pop} ifelse} forall
 /Encoding DefEncoding def
 currentdict
end
/Font0 exch definefont pop
/Font0 FFSF
0.0816 0.1351 m
GS
[0.0448 0.0000 0.0000 0.0448 0 0] CC
(-20) show
GR
/Font0 FFSF
0.0831 0.3099 m
GS
[0.0448 0.0000 0.0000 0.0448 0 0] CC
(-15) show
GR
/Font0 FFSF
0.0816 0.4851 m
GS
[0.0448 0.0000 0.0000 0.0448 0 0] CC
(-10) show
GR
/Font0 FFSF
0.1055 0.6599 m
GS
[0.0448 0.0000 0.0000 0.0448 0 0] CC
(-5) show
GR
/Font0 FFSF
0.1188 0.8351 m
GS
[0.0448 0.0000 0.0000 0.0448 0 0] CC
(0) show
GR
/Font0 FFSF
0.0677 0.4335 m
GS
[0.0000 0.0504 -0.0504 0.0000 0 0] CC
([MeV]) show
GR
[] 0 SD
0.0015 SLW
n
0.1500 0.1500 m
0.1500 0.8500 l
1.1500 0.8500 l
1.1500 0.1500 l
0.1500 0.1500 l
c
s
n
0.8580 0.8500 m
0.8580 0.5769 l
1.1499 0.5769 l
1.1499 0.8500 l
c
[/DeviceRGB] SCS
Color0 SC
fill
[/DeviceRGB] SCS
Color1 SC
[] 0 SD
0.0045 SLW
n
0.8580 0.8500 m
0.8580 0.5769 l
1.1499 0.5769 l
1.1499 0.8500 l
0.8580 0.8500 l
c
s
/Font0 FFSF
0.9705 0.8071 m
GS
[0.0487 0.0000 0.0000 0.0487 0 0] CC
(M3Y-P2) show
GR
[] 0 SD
0.0037 SLW
n
0.8699 0.8231 m
0.9499 0.8231 l
s
/Font0 FFSF
0.9705 0.7633 m
GS
[0.0487 0.0000 0.0000 0.0487 0 0] CC
(M3Y-P3) show
GR
[/DeviceRGB] SCS
Color2 SC
[0.0187 0.0112 ] 0 SD
0.0037 SLW
n
0.8699 0.7794 m
0.9499 0.7794 l
s
/Font0 FFSF
[/DeviceRGB] SCS
Color1 SC
0.9705 0.7196 m
GS
[0.0487 0.0000 0.0000 0.0487 0 0] CC
(M3Y-P4) show
GR
[/DeviceRGB] SCS
Color4 SC
[0.0037 0.0112 ] 0 SD
0.0037 SLW
n
0.8699 0.7357 m
0.9499 0.7357 l
s
/Font0 FFSF
[/DeviceRGB] SCS
Color1 SC
0.9705 0.6755 m
GS
[0.0487 0.0000 0.0000 0.0487 0 0] CC
(M3Y-P5) show
GR
[/DeviceRGB] SCS
Color11 SC
[0.0037 0.0112 0.0187 0.0112 ] 0 SD
0.0037 SLW
n
0.8699 0.6918 m
0.9499 0.6918 l
s
/Font0 FFSF
[/DeviceRGB] SCS
Color1 SC
0.9705 0.6314 m
GS
[0.0487 0.0000 0.0000 0.0487 0 0] CC
(M3Y-P6) show
GR
[/DeviceRGB] SCS
Color3 SC
[0.0037 0.0112 0.0187 0.0112 0.0037 0.0112 ] 0 SD
0.0037 SLW
n
0.8699 0.6476 m
0.9499 0.6476 l
s
/Font0 FFSF
[/DeviceRGB] SCS
Color1 SC
0.9705 0.5876 m
GS
[0.0487 0.0000 0.0000 0.0487 0 0] CC
(M3Y-P7) show
GR
[/DeviceRGB] SCS
Color8 SC
[0.0187 0.0112 0.0037 0.0112 0.0187 0.0112 ] 0 SD
0.0037 SLW
n
0.8699 0.6037 m
0.9499 0.6037 l
s
/Font0 FFSF
[/DeviceRGB] SCS
Color1 SC
0.2000 0.2992 m
GS
[0.0580 0.0000 0.0000 0.0580 0 0] CC
(1) show
GR
/Font0 FFSF
0.2290 0.2500 m
GS
[0.0820 0.0000 0.0000 0.0820 0 0] CC
(S) show
GR
/Font0 FFSF
0.2745 0.2172 m
GS
[0.0580 0.0000 0.0000 0.0580 0 0] CC
(0) show
GR
showpage
%%PageTrailer
%%Trailer
%%DocumentNeededResources: font Times-Roman
%%EOF
