%!PS-Adobe-2.0 EPSF-2.0
%%Title: plot_bhf6.eps
%%Creator: gnuplot 5.0 patchlevel 3
%%CreationDate: Thu Jun 29 08:33:45 2017
%%DocumentFonts: (atend)
%%BoundingBox: 50 50 518 454
%%EndComments
%%BeginProlog
/gnudict 256 dict def
gnudict begin
%
% The following true/false flags may be edited by hand if desired.
% The unit line width and grayscale image gamma correction may also be changed.
%
/Color true def
/Blacktext false def
/Solid false def
/Dashlength 1 def
/Landscape false def
/Level1 false def
/Level3 false def
/Rounded false def
/ClipToBoundingBox false def
/SuppressPDFMark false def
/TransparentPatterns false def
/gnulinewidth 10.000 def
/userlinewidth gnulinewidth def
/Gamma 1.0 def
/BackgroundColor {-1.000 -1.000 -1.000} def
%
/vshift -66 def
/dl1 {
  10.0 Dashlength userlinewidth gnulinewidth div mul mul mul
  Rounded { currentlinewidth 0.75 mul sub dup 0 le { pop 0.01 } if } if
} def
/dl2 {
  10.0 Dashlength userlinewidth gnulinewidth div mul mul mul
  Rounded { currentlinewidth 0.75 mul add } if
} def
/hpt_ 31.5 def
/vpt_ 31.5 def
/hpt hpt_ def
/vpt vpt_ def
/doclip {
  ClipToBoundingBox {
    newpath 50 50 moveto 518 50 lineto 518 454 lineto 50 454 lineto closepath
    clip
  } if
} def
%
% Gnuplot Prolog Version 5.1 (Oct 2015)
%
%/SuppressPDFMark true def
%
/M {moveto} bind def
/L {lineto} bind def
/R {rmoveto} bind def
/V {rlineto} bind def
/N {newpath moveto} bind def
/Z {closepath} bind def
/C {setrgbcolor} bind def
/f {rlineto fill} bind def
/g {setgray} bind def
/Gshow {show} def   % May be redefined later in the file to support UTF-8
/vpt2 vpt 2 mul def
/hpt2 hpt 2 mul def
/Lshow {currentpoint stroke M 0 vshift R 
	Blacktext {gsave 0 setgray textshow grestore} {textshow} ifelse} def
/Rshow {currentpoint stroke M dup stringwidth pop neg vshift R
	Blacktext {gsave 0 setgray textshow grestore} {textshow} ifelse} def
/Cshow {currentpoint stroke M dup stringwidth pop -2 div vshift R 
	Blacktext {gsave 0 setgray textshow grestore} {textshow} ifelse} def
/UP {dup vpt_ mul /vpt exch def hpt_ mul /hpt exch def
  /hpt2 hpt 2 mul def /vpt2 vpt 2 mul def} def
/DL {Color {setrgbcolor Solid {pop []} if 0 setdash}
 {pop pop pop 0 setgray Solid {pop []} if 0 setdash} ifelse} def
/BL {stroke userlinewidth 2 mul setlinewidth
	Rounded {1 setlinejoin 1 setlinecap} if} def
/AL {stroke userlinewidth 2 div setlinewidth
	Rounded {1 setlinejoin 1 setlinecap} if} def
/UL {dup gnulinewidth mul /userlinewidth exch def
	dup 1 lt {pop 1} if 10 mul /udl exch def} def
/PL {stroke userlinewidth setlinewidth
	Rounded {1 setlinejoin 1 setlinecap} if} def
3.8 setmiterlimit
% Classic Line colors (version 5.0)
/LCw {1 1 1} def
/LCb {0 0 0} def
/LCa {0 0 0} def
/LC0 {1 0 0} def
/LC1 {0 1 0} def
/LC2 {0 0 1} def
/LC3 {1 0 1} def
/LC4 {0 1 1} def
/LC5 {1 1 0} def
/LC6 {0 0 0} def
/LC7 {1 0.3 0} def
/LC8 {0.5 0.5 0.5} def
% Default dash patterns (version 5.0)
/LTB {BL [] LCb DL} def
/LTw {PL [] 1 setgray} def
/LTb {PL [] LCb DL} def
/LTa {AL [1 udl mul 2 udl mul] 0 setdash LCa setrgbcolor} def
/LT0 {PL [] LC0 DL} def
/LT1 {PL [2 dl1 3 dl2] LC1 DL} def
/LT2 {PL [1 dl1 1.5 dl2] LC2 DL} def
/LT3 {PL [6 dl1 2 dl2 1 dl1 2 dl2] LC3 DL} def
/LT4 {PL [1 dl1 2 dl2 6 dl1 2 dl2 1 dl1 2 dl2] LC4 DL} def
/LT5 {PL [4 dl1 2 dl2] LC5 DL} def
/LT6 {PL [1.5 dl1 1.5 dl2 1.5 dl1 1.5 dl2 1.5 dl1 6 dl2] LC6 DL} def
/LT7 {PL [3 dl1 3 dl2 1 dl1 3 dl2] LC7 DL} def
/LT8 {PL [2 dl1 2 dl2 2 dl1 6 dl2] LC8 DL} def
/SL {[] 0 setdash} def
/Pnt {stroke [] 0 setdash gsave 1 setlinecap M 0 0 V stroke grestore} def
/Dia {stroke [] 0 setdash 2 copy vpt add M
  hpt neg vpt neg V hpt vpt neg V
  hpt vpt V hpt neg vpt V closepath stroke
  Pnt} def
/Pls {stroke [] 0 setdash vpt sub M 0 vpt2 V
  currentpoint stroke M
  hpt neg vpt neg R hpt2 0 V stroke
 } def
/Box {stroke [] 0 setdash 2 copy exch hpt sub exch vpt add M
  0 vpt2 neg V hpt2 0 V 0 vpt2 V
  hpt2 neg 0 V closepath stroke
  Pnt} def
/Crs {stroke [] 0 setdash exch hpt sub exch vpt add M
  hpt2 vpt2 neg V currentpoint stroke M
  hpt2 neg 0 R hpt2 vpt2 V stroke} def
/TriU {stroke [] 0 setdash 2 copy vpt 1.12 mul add M
  hpt neg vpt -1.62 mul V
  hpt 2 mul 0 V
  hpt neg vpt 1.62 mul V closepath stroke
  Pnt} def
/Star {2 copy Pls Crs} def
/BoxF {stroke [] 0 setdash exch hpt sub exch vpt add M
  0 vpt2 neg V hpt2 0 V 0 vpt2 V
  hpt2 neg 0 V closepath fill} def
/TriUF {stroke [] 0 setdash vpt 1.12 mul add M
  hpt neg vpt -1.62 mul V
  hpt 2 mul 0 V
  hpt neg vpt 1.62 mul V closepath fill} def
/TriD {stroke [] 0 setdash 2 copy vpt 1.12 mul sub M
  hpt neg vpt 1.62 mul V
  hpt 2 mul 0 V
  hpt neg vpt -1.62 mul V closepath stroke
  Pnt} def
/TriDF {stroke [] 0 setdash vpt 1.12 mul sub M
  hpt neg vpt 1.62 mul V
  hpt 2 mul 0 V
  hpt neg vpt -1.62 mul V closepath fill} def
/DiaF {stroke [] 0 setdash vpt add M
  hpt neg vpt neg V hpt vpt neg V
  hpt vpt V hpt neg vpt V closepath fill} def
/Pent {stroke [] 0 setdash 2 copy gsave
  translate 0 hpt M 4 {72 rotate 0 hpt L} repeat
  closepath stroke grestore Pnt} def
/PentF {stroke [] 0 setdash gsave
  translate 0 hpt M 4 {72 rotate 0 hpt L} repeat
  closepath fill grestore} def
/Circle {stroke [] 0 setdash 2 copy
  hpt 0 360 arc stroke Pnt} def
/CircleF {stroke [] 0 setdash hpt 0 360 arc fill} def
/C0 {BL [] 0 setdash 2 copy moveto vpt 90 450 arc} bind def
/C1 {BL [] 0 setdash 2 copy moveto
	2 copy vpt 0 90 arc closepath fill
	vpt 0 360 arc closepath} bind def
/C2 {BL [] 0 setdash 2 copy moveto
	2 copy vpt 90 180 arc closepath fill
	vpt 0 360 arc closepath} bind def
/C3 {BL [] 0 setdash 2 copy moveto
	2 copy vpt 0 180 arc closepath fill
	vpt 0 360 arc closepath} bind def
/C4 {BL [] 0 setdash 2 copy moveto
	2 copy vpt 180 270 arc closepath fill
	vpt 0 360 arc closepath} bind def
/C5 {BL [] 0 setdash 2 copy moveto
	2 copy vpt 0 90 arc
	2 copy moveto
	2 copy vpt 180 270 arc closepath fill
	vpt 0 360 arc} bind def
/C6 {BL [] 0 setdash 2 copy moveto
	2 copy vpt 90 270 arc closepath fill
	vpt 0 360 arc closepath} bind def
/C7 {BL [] 0 setdash 2 copy moveto
	2 copy vpt 0 270 arc closepath fill
	vpt 0 360 arc closepath} bind def
/C8 {BL [] 0 setdash 2 copy moveto
	2 copy vpt 270 360 arc closepath fill
	vpt 0 360 arc closepath} bind def
/C9 {BL [] 0 setdash 2 copy moveto
	2 copy vpt 270 450 arc closepath fill
	vpt 0 360 arc closepath} bind def
/C10 {BL [] 0 setdash 2 copy 2 copy moveto vpt 270 360 arc closepath fill
	2 copy moveto
	2 copy vpt 90 180 arc closepath fill
	vpt 0 360 arc closepath} bind def
/C11 {BL [] 0 setdash 2 copy moveto
	2 copy vpt 0 180 arc closepath fill
	2 copy moveto
	2 copy vpt 270 360 arc closepath fill
	vpt 0 360 arc closepath} bind def
/C12 {BL [] 0 setdash 2 copy moveto
	2 copy vpt 180 360 arc closepath fill
	vpt 0 360 arc closepath} bind def
/C13 {BL [] 0 setdash 2 copy moveto
	2 copy vpt 0 90 arc closepath fill
	2 copy moveto
	2 copy vpt 180 360 arc closepath fill
	vpt 0 360 arc closepath} bind def
/C14 {BL [] 0 setdash 2 copy moveto
	2 copy vpt 90 360 arc closepath fill
	vpt 0 360 arc} bind def
/C15 {BL [] 0 setdash 2 copy vpt 0 360 arc closepath fill
	vpt 0 360 arc closepath} bind def
/Rec {newpath 4 2 roll moveto 1 index 0 rlineto 0 exch rlineto
	neg 0 rlineto closepath} bind def
/Square {dup Rec} bind def
/Bsquare {vpt sub exch vpt sub exch vpt2 Square} bind def
/S0 {BL [] 0 setdash 2 copy moveto 0 vpt rlineto BL Bsquare} bind def
/S1 {BL [] 0 setdash 2 copy vpt Square fill Bsquare} bind def
/S2 {BL [] 0 setdash 2 copy exch vpt sub exch vpt Square fill Bsquare} bind def
/S3 {BL [] 0 setdash 2 copy exch vpt sub exch vpt2 vpt Rec fill Bsquare} bind def
/S4 {BL [] 0 setdash 2 copy exch vpt sub exch vpt sub vpt Square fill Bsquare} bind def
/S5 {BL [] 0 setdash 2 copy 2 copy vpt Square fill
	exch vpt sub exch vpt sub vpt Square fill Bsquare} bind def
/S6 {BL [] 0 setdash 2 copy exch vpt sub exch vpt sub vpt vpt2 Rec fill Bsquare} bind def
/S7 {BL [] 0 setdash 2 copy exch vpt sub exch vpt sub vpt vpt2 Rec fill
	2 copy vpt Square fill Bsquare} bind def
/S8 {BL [] 0 setdash 2 copy vpt sub vpt Square fill Bsquare} bind def
/S9 {BL [] 0 setdash 2 copy vpt sub vpt vpt2 Rec fill Bsquare} bind def
/S10 {BL [] 0 setdash 2 copy vpt sub vpt Square fill 2 copy exch vpt sub exch vpt Square fill
	Bsquare} bind def
/S11 {BL [] 0 setdash 2 copy vpt sub vpt Square fill 2 copy exch vpt sub exch vpt2 vpt Rec fill
	Bsquare} bind def
/S12 {BL [] 0 setdash 2 copy exch vpt sub exch vpt sub vpt2 vpt Rec fill Bsquare} bind def
/S13 {BL [] 0 setdash 2 copy exch vpt sub exch vpt sub vpt2 vpt Rec fill
	2 copy vpt Square fill Bsquare} bind def
/S14 {BL [] 0 setdash 2 copy exch vpt sub exch vpt sub vpt2 vpt Rec fill
	2 copy exch vpt sub exch vpt Square fill Bsquare} bind def
/S15 {BL [] 0 setdash 2 copy Bsquare fill Bsquare} bind def
/D0 {gsave translate 45 rotate 0 0 S0 stroke grestore} bind def
/D1 {gsave translate 45 rotate 0 0 S1 stroke grestore} bind def
/D2 {gsave translate 45 rotate 0 0 S2 stroke grestore} bind def
/D3 {gsave translate 45 rotate 0 0 S3 stroke grestore} bind def
/D4 {gsave translate 45 rotate 0 0 S4 stroke grestore} bind def
/D5 {gsave translate 45 rotate 0 0 S5 stroke grestore} bind def
/D6 {gsave translate 45 rotate 0 0 S6 stroke grestore} bind def
/D7 {gsave translate 45 rotate 0 0 S7 stroke grestore} bind def
/D8 {gsave translate 45 rotate 0 0 S8 stroke grestore} bind def
/D9 {gsave translate 45 rotate 0 0 S9 stroke grestore} bind def
/D10 {gsave translate 45 rotate 0 0 S10 stroke grestore} bind def
/D11 {gsave translate 45 rotate 0 0 S11 stroke grestore} bind def
/D12 {gsave translate 45 rotate 0 0 S12 stroke grestore} bind def
/D13 {gsave translate 45 rotate 0 0 S13 stroke grestore} bind def
/D14 {gsave translate 45 rotate 0 0 S14 stroke grestore} bind def
/D15 {gsave translate 45 rotate 0 0 S15 stroke grestore} bind def
/DiaE {stroke [] 0 setdash vpt add M
  hpt neg vpt neg V hpt vpt neg V
  hpt vpt V hpt neg vpt V closepath stroke} def
/BoxE {stroke [] 0 setdash exch hpt sub exch vpt add M
  0 vpt2 neg V hpt2 0 V 0 vpt2 V
  hpt2 neg 0 V closepath stroke} def
/TriUE {stroke [] 0 setdash vpt 1.12 mul add M
  hpt neg vpt -1.62 mul V
  hpt 2 mul 0 V
  hpt neg vpt 1.62 mul V closepath stroke} def
/TriDE {stroke [] 0 setdash vpt 1.12 mul sub M
  hpt neg vpt 1.62 mul V
  hpt 2 mul 0 V
  hpt neg vpt -1.62 mul V closepath stroke} def
/PentE {stroke [] 0 setdash gsave
  translate 0 hpt M 4 {72 rotate 0 hpt L} repeat
  closepath stroke grestore} def
/CircE {stroke [] 0 setdash 
  hpt 0 360 arc stroke} def
/Opaque {gsave closepath 1 setgray fill grestore 0 setgray closepath} def
/DiaW {stroke [] 0 setdash vpt add M
  hpt neg vpt neg V hpt vpt neg V
  hpt vpt V hpt neg vpt V Opaque stroke} def
/BoxW {stroke [] 0 setdash exch hpt sub exch vpt add M
  0 vpt2 neg V hpt2 0 V 0 vpt2 V
  hpt2 neg 0 V Opaque stroke} def
/TriUW {stroke [] 0 setdash vpt 1.12 mul add M
  hpt neg vpt -1.62 mul V
  hpt 2 mul 0 V
  hpt neg vpt 1.62 mul V Opaque stroke} def
/TriDW {stroke [] 0 setdash vpt 1.12 mul sub M
  hpt neg vpt 1.62 mul V
  hpt 2 mul 0 V
  hpt neg vpt -1.62 mul V Opaque stroke} def
/PentW {stroke [] 0 setdash gsave
  translate 0 hpt M 4 {72 rotate 0 hpt L} repeat
  Opaque stroke grestore} def
/CircW {stroke [] 0 setdash 
  hpt 0 360 arc Opaque stroke} def
/BoxFill {gsave Rec 1 setgray fill grestore} def
/Density {
  /Fillden exch def
  currentrgbcolor
  /ColB exch def /ColG exch def /ColR exch def
  /ColR ColR Fillden mul Fillden sub 1 add def
  /ColG ColG Fillden mul Fillden sub 1 add def
  /ColB ColB Fillden mul Fillden sub 1 add def
  ColR ColG ColB setrgbcolor} def
/BoxColFill {gsave Rec PolyFill} def
/PolyFill {gsave Density fill grestore grestore} def
/h {rlineto rlineto rlineto gsave closepath fill grestore} bind def
%
% PostScript Level 1 Pattern Fill routine for rectangles
% Usage: x y w h s a XX PatternFill
%	x,y = lower left corner of box to be filled
%	w,h = width and height of box
%	  a = angle in degrees between lines and x-axis
%	 XX = 0/1 for no/yes cross-hatch
%
/PatternFill {gsave /PFa [ 9 2 roll ] def
  PFa 0 get PFa 2 get 2 div add PFa 1 get PFa 3 get 2 div add translate
  PFa 2 get -2 div PFa 3 get -2 div PFa 2 get PFa 3 get Rec
  TransparentPatterns {} {gsave 1 setgray fill grestore} ifelse
  clip
  currentlinewidth 0.5 mul setlinewidth
  /PFs PFa 2 get dup mul PFa 3 get dup mul add sqrt def
  0 0 M PFa 5 get rotate PFs -2 div dup translate
  0 1 PFs PFa 4 get div 1 add floor cvi
	{PFa 4 get mul 0 M 0 PFs V} for
  0 PFa 6 get ne {
	0 1 PFs PFa 4 get div 1 add floor cvi
	{PFa 4 get mul 0 2 1 roll M PFs 0 V} for
 } if
  stroke grestore} def
%
/languagelevel where
 {pop languagelevel} {1} ifelse
dup 2 lt
	{/InterpretLevel1 true def
	 /InterpretLevel3 false def}
	{/InterpretLevel1 Level1 def
	 2 gt
	    {/InterpretLevel3 Level3 def}
	    {/InterpretLevel3 false def}
	 ifelse }
 ifelse
%
% PostScript level 2 pattern fill definitions
%
/Level2PatternFill {
/Tile8x8 {/PaintType 2 /PatternType 1 /TilingType 1 /BBox [0 0 8 8] /XStep 8 /YStep 8}
	bind def
/KeepColor {currentrgbcolor [/Pattern /DeviceRGB] setcolorspace} bind def
<< Tile8x8
 /PaintProc {0.5 setlinewidth pop 0 0 M 8 8 L 0 8 M 8 0 L stroke} 
>> matrix makepattern
/Pat1 exch def
<< Tile8x8
 /PaintProc {0.5 setlinewidth pop 0 0 M 8 8 L 0 8 M 8 0 L stroke
	0 4 M 4 8 L 8 4 L 4 0 L 0 4 L stroke}
>> matrix makepattern
/Pat2 exch def
<< Tile8x8
 /PaintProc {0.5 setlinewidth pop 0 0 M 0 8 L
	8 8 L 8 0 L 0 0 L fill}
>> matrix makepattern
/Pat3 exch def
<< Tile8x8
 /PaintProc {0.5 setlinewidth pop -4 8 M 8 -4 L
	0 12 M 12 0 L stroke}
>> matrix makepattern
/Pat4 exch def
<< Tile8x8
 /PaintProc {0.5 setlinewidth pop -4 0 M 8 12 L
	0 -4 M 12 8 L stroke}
>> matrix makepattern
/Pat5 exch def
<< Tile8x8
 /PaintProc {0.5 setlinewidth pop -2 8 M 4 -4 L
	0 12 M 8 -4 L 4 12 M 10 0 L stroke}
>> matrix makepattern
/Pat6 exch def
<< Tile8x8
 /PaintProc {0.5 setlinewidth pop -2 0 M 4 12 L
	0 -4 M 8 12 L 4 -4 M 10 8 L stroke}
>> matrix makepattern
/Pat7 exch def
<< Tile8x8
 /PaintProc {0.5 setlinewidth pop 8 -2 M -4 4 L
	12 0 M -4 8 L 12 4 M 0 10 L stroke}
>> matrix makepattern
/Pat8 exch def
<< Tile8x8
 /PaintProc {0.5 setlinewidth pop 0 -2 M 12 4 L
	-4 0 M 12 8 L -4 4 M 8 10 L stroke}
>> matrix makepattern
/Pat9 exch def
/Pattern1 {PatternBgnd KeepColor Pat1 setpattern} bind def
/Pattern2 {PatternBgnd KeepColor Pat2 setpattern} bind def
/Pattern3 {PatternBgnd KeepColor Pat3 setpattern} bind def
/Pattern4 {PatternBgnd KeepColor Landscape {Pat5} {Pat4} ifelse setpattern} bind def
/Pattern5 {PatternBgnd KeepColor Landscape {Pat4} {Pat5} ifelse setpattern} bind def
/Pattern6 {PatternBgnd KeepColor Landscape {Pat9} {Pat6} ifelse setpattern} bind def
/Pattern7 {PatternBgnd KeepColor Landscape {Pat8} {Pat7} ifelse setpattern} bind def
} def
%
%
%End of PostScript Level 2 code
%
/PatternBgnd {
  TransparentPatterns {} {gsave 1 setgray fill grestore} ifelse
} def
%
% Substitute for Level 2 pattern fill codes with
% grayscale if Level 2 support is not selected.
%
/Level1PatternFill {
/Pattern1 {0.250 Density} bind def
/Pattern2 {0.500 Density} bind def
/Pattern3 {0.750 Density} bind def
/Pattern4 {0.125 Density} bind def
/Pattern5 {0.375 Density} bind def
/Pattern6 {0.625 Density} bind def
/Pattern7 {0.875 Density} bind def
} def
%
% Now test for support of Level 2 code
%
Level1 {Level1PatternFill} {Level2PatternFill} ifelse
%
/Symbol-Oblique /Symbol findfont [1 0 .167 1 0 0] makefont
dup length dict begin {1 index /FID eq {pop pop} {def} ifelse} forall
currentdict end definefont pop
%
/MFshow {
   { dup 5 get 3 ge
     { 5 get 3 eq {gsave} {grestore} ifelse }
     {dup dup 0 get findfont exch 1 get scalefont setfont
     [ currentpoint ] exch dup 2 get 0 exch R dup 5 get 2 ne {dup dup 6
     get exch 4 get {textshow} {stringwidth pop 0 R} ifelse }if dup 5 get 0 eq
     {dup 3 get {2 get neg 0 exch R pop} {pop aload pop M} ifelse} {dup 5
     get 1 eq {dup 2 get exch dup 3 get exch 6 get stringwidth pop -2 div
     dup 0 R} {dup 6 get stringwidth pop -2 div 0 R 6 get
     textshow 2 index {aload pop M neg 3 -1 roll neg R pop pop} {pop pop pop
     pop aload pop M} ifelse }ifelse }ifelse }
     ifelse }
   forall} def
/Gswidth {dup type /stringtype eq {stringwidth} {pop (n) stringwidth} ifelse} def
/MFwidth {0 exch { dup 5 get 3 ge { 5 get 3 eq { 0 } { pop } ifelse }
 {dup 3 get{dup dup 0 get findfont exch 1 get scalefont setfont
     6 get Gswidth pop add} {pop} ifelse} ifelse} forall} def
/MLshow { currentpoint stroke M
  0 exch R
  Blacktext {gsave 0 setgray MFshow grestore} {MFshow} ifelse } bind def
/MRshow { currentpoint stroke M
  exch dup MFwidth neg 3 -1 roll R
  Blacktext {gsave 0 setgray MFshow grestore} {MFshow} ifelse } bind def
/MCshow { currentpoint stroke M
  exch dup MFwidth -2 div 3 -1 roll R
  Blacktext {gsave 0 setgray MFshow grestore} {MFshow} ifelse } bind def
/XYsave    { [( ) 1 2 true false 3 ()] } bind def
/XYrestore { [( ) 1 2 true false 4 ()] } bind def
Level1 SuppressPDFMark or 
{} {
/SDict 10 dict def
systemdict /pdfmark known not {
  userdict /pdfmark systemdict /cleartomark get put
} if
SDict begin [
  /Title (plot_bhf6.eps)
  /Subject (gnuplot plot)
  /Creator (gnuplot 5.0 patchlevel 3)
  /Author (kb2)
%  /Producer (gnuplot)
%  /Keywords ()
  /CreationDate (Thu Jun 29 08:33:45 2017)
  /DOCINFO pdfmark
end
} ifelse
%
% Support for boxed text - Ethan A Merritt May 2005
%
/InitTextBox { userdict /TBy2 3 -1 roll put userdict /TBx2 3 -1 roll put
           userdict /TBy1 3 -1 roll put userdict /TBx1 3 -1 roll put
	   /Boxing true def } def
/ExtendTextBox { Boxing
    { gsave dup false charpath pathbbox
      dup TBy2 gt {userdict /TBy2 3 -1 roll put} {pop} ifelse
      dup TBx2 gt {userdict /TBx2 3 -1 roll put} {pop} ifelse
      dup TBy1 lt {userdict /TBy1 3 -1 roll put} {pop} ifelse
      dup TBx1 lt {userdict /TBx1 3 -1 roll put} {pop} ifelse
      grestore } if } def
/PopTextBox { newpath TBx1 TBxmargin sub TBy1 TBymargin sub M
               TBx1 TBxmargin sub TBy2 TBymargin add L
	       TBx2 TBxmargin add TBy2 TBymargin add L
	       TBx2 TBxmargin add TBy1 TBymargin sub L closepath } def
/DrawTextBox { PopTextBox stroke /Boxing false def} def
/FillTextBox { gsave PopTextBox 1 1 1 setrgbcolor fill grestore /Boxing false def} def
0 0 0 0 InitTextBox
/TBxmargin 20 def
/TBymargin 20 def
/Boxing false def
/textshow { ExtendTextBox Gshow } def
%
% redundant definitions for compatibility with prologue.ps older than 5.0.2
/LTB {BL [] LCb DL} def
/LTb {PL [] LCb DL} def
end
%%EndProlog
%%Page: 1 1
gnudict begin
gsave
doclip
50 50 translate
0.050 0.050 scale
0 setgray
newpath
(Helvetica) findfont 200 scalefont setfont
BackgroundColor 0 lt 3 1 roll 0 lt exch 0 lt or or not {BackgroundColor C 1.000 0 0 9360.00 8092.00 BoxColFill} if
1.000 UL
LTb
0.50 0.50 0.50 C 1.000 UL
LTa
0.50 0.50 0.50 C 936 4855 M
3743 0 V
stroke
LTb
0.50 0.50 0.50 C 936 4855 M
-47 0 V
stroke
769 4855 M
[ [(Helvetica) 200.0 0.0 true true 0 (0)]
] -66.7 MRshow
1.000 UL
LTb
0.50 0.50 0.50 C 1.000 UL
LTa
0.50 0.50 0.50 C 936 5209 M
3743 0 V
stroke
LTb
0.50 0.50 0.50 C 936 5209 M
-47 0 V
stroke
769 5209 M
[ [(Helvetica) 200.0 0.0 true true 0 (5)]
] -66.7 MRshow
1.000 UL
LTb
0.50 0.50 0.50 C 1.000 UL
LTa
0.50 0.50 0.50 C 936 5563 M
3743 0 V
stroke
LTb
0.50 0.50 0.50 C 936 5563 M
-47 0 V
stroke
769 5563 M
[ [(Helvetica) 200.0 0.0 true true 0 (10)]
] -66.7 MRshow
1.000 UL
LTb
0.50 0.50 0.50 C 1.000 UL
LTa
0.50 0.50 0.50 C 936 5917 M
3743 0 V
stroke
LTb
0.50 0.50 0.50 C 936 5917 M
-47 0 V
stroke
769 5917 M
[ [(Helvetica) 200.0 0.0 true true 0 (15)]
] -66.7 MRshow
1.000 UL
LTb
0.50 0.50 0.50 C 1.000 UL
LTa
0.50 0.50 0.50 C 936 6271 M
3743 0 V
stroke
LTb
0.50 0.50 0.50 C 936 6271 M
-47 0 V
stroke
769 6271 M
[ [(Helvetica) 200.0 0.0 true true 0 (20)]
] -66.7 MRshow
1.000 UL
LTb
0.50 0.50 0.50 C 1.000 UL
LTa
0.50 0.50 0.50 C 936 6624 M
3743 0 V
stroke
LTb
0.50 0.50 0.50 C 936 6624 M
-47 0 V
stroke
769 6624 M
[ [(Helvetica) 200.0 0.0 true true 0 (25)]
] -66.7 MRshow
1.000 UL
LTb
0.50 0.50 0.50 C 1.000 UL
LTa
0.50 0.50 0.50 C 936 6978 M
3743 0 V
stroke
LTb
0.50 0.50 0.50 C 936 6978 M
-47 0 V
stroke
769 6978 M
[ [(Helvetica) 200.0 0.0 true true 0 (30)]
] -66.7 MRshow
1.000 UL
LTb
0.50 0.50 0.50 C 1.000 UL
LTa
0.50 0.50 0.50 C 936 7332 M
3743 0 V
stroke
LTb
0.50 0.50 0.50 C 936 7332 M
-47 0 V
stroke
769 7332 M
[ [(Helvetica) 200.0 0.0 true true 0 (35)]
] -66.7 MRshow
1.000 UL
LTb
0.50 0.50 0.50 C 1.000 UL
LTa
0.50 0.50 0.50 C 936 7686 M
3743 0 V
stroke
LTb
0.50 0.50 0.50 C 936 7686 M
-47 0 V
stroke
769 7686 M
[ [(Helvetica) 200.0 0.0 true true 0 (40)]
] -66.7 MRshow
1.000 UL
LTb
0.50 0.50 0.50 C 1.000 UL
LTa
0.50 0.50 0.50 C 936 4855 M
0 2831 V
stroke
LTb
0.50 0.50 0.50 C 936 4855 M
0 -47 V
stroke
LTb
0.50 0.50 0.50 C 1.000 UL
LTa
0.50 0.50 0.50 C 1352 4855 M
0 2831 V
stroke
LTb
0.50 0.50 0.50 C 1352 4855 M
0 -47 V
stroke
LTb
0.50 0.50 0.50 C 1.000 UL
LTa
0.50 0.50 0.50 C 1768 4855 M
0 2831 V
stroke
LTb
0.50 0.50 0.50 C 1768 4855 M
0 -47 V
stroke
LTb
0.50 0.50 0.50 C 1.000 UL
LTa
0.50 0.50 0.50 C 2184 4855 M
0 2831 V
stroke
LTb
0.50 0.50 0.50 C 2184 4855 M
0 -47 V
stroke
LTb
0.50 0.50 0.50 C 1.000 UL
LTa
0.50 0.50 0.50 C 2600 4855 M
0 2831 V
stroke
LTb
0.50 0.50 0.50 C 2600 4855 M
0 -47 V
stroke
LTb
0.50 0.50 0.50 C 1.000 UL
LTa
0.50 0.50 0.50 C 3015 4855 M
0 2831 V
stroke
LTb
0.50 0.50 0.50 C 3015 4855 M
0 -47 V
stroke
LTb
0.50 0.50 0.50 C 1.000 UL
LTa
0.50 0.50 0.50 C 3431 4855 M
0 2831 V
stroke
LTb
0.50 0.50 0.50 C 3431 4855 M
0 -47 V
stroke
LTb
0.50 0.50 0.50 C 1.000 UL
LTa
0.50 0.50 0.50 C 3847 4855 M
0 2831 V
stroke
LTb
0.50 0.50 0.50 C 3847 4855 M
0 -47 V
stroke
LTb
0.50 0.50 0.50 C 1.000 UL
LTa
0.50 0.50 0.50 C 4263 4855 M
0 2831 V
stroke
LTb
0.50 0.50 0.50 C 4263 4855 M
0 -47 V
stroke
LTb
0.50 0.50 0.50 C 1.000 UL
LTa
0.50 0.50 0.50 C 4679 4855 M
0 2831 V
stroke
LTb
0.50 0.50 0.50 C 4679 4855 M
0 -47 V
stroke
LTb
0.50 0.50 0.50 C 1.000 UL
LTB
0.50 0.50 0.50 C 936 7686 M
0 -2831 V
3743 0 V
0 2831 R
-3743 0 R
1.000 UP
stroke
LTb
0.50 0.50 0.50 C LCb setrgbcolor
309 6270 M
currentpoint gsave translate -270 rotate 0 0 moveto
[ [(Helvetica) 200.0 0.0 true true 0 (\(S=0,T=0\))]
] -66.7 MCshow
grestore
LTb
% Begin plot #1
1.000 UP
1.000 UL
LTb
0.91 0.59 0.48 C 1196 4901 CircleF
1404 4928 CircleF
1612 4965 CircleF
1820 5014 CircleF
2028 5078 CircleF
2236 5161 CircleF
2444 5267 CircleF
2652 5398 CircleF
2859 5558 CircleF
3067 5749 CircleF
3275 5974 CircleF
3483 6233 CircleF
3691 6519 CircleF
3899 6824 CircleF
4107 7133 CircleF
4315 7423 CircleF
% End plot #1
% Begin plot #2
2.000 UL
LTb
0.91 0.59 0.48 C 1196 4894 M
208 30 V
208 41 V
208 56 V
208 71 V
208 85 V
208 100 V
208 112 V
207 121 V
208 127 V
208 125 V
208 117 V
208 102 V
208 75 V
208 38 V
208 -12 V
% End plot #2
% Begin plot #3
stroke
LTb
0.90 0.62 0.00 C 1196 4894 M
208 30 V
208 41 V
208 56 V
208 71 V
208 86 V
208 100 V
208 113 V
207 124 V
208 129 V
208 131 V
208 126 V
208 113 V
208 93 V
208 63 V
208 20 V
% End plot #3
% Begin plot #4
stroke
LTb
0.55 0.00 0.00 C 1196 4901 M
208 28 V
208 37 V
208 50 V
208 64 V
208 83 V
208 102 V
208 126 V
207 150 V
208 176 V
208 201 V
208 223 V
208 240 V
208 244 V
208 234 V
208 199 V
% End plot #4
stroke
LTb
LCb setrgbcolor
1.000 UP
1.000 UL
LTb
0.50 0.50 0.50 C 1.000 UL
LTb
0.50 0.50 0.50 C 1.000 UL
LTa
0.50 0.50 0.50 C 4680 4855 M
3743 0 V
stroke
LTb
0.50 0.50 0.50 C 4680 4855 M
-47 0 V
stroke
LTb
0.50 0.50 0.50 C 1.000 UL
LTa
0.50 0.50 0.50 C 4680 5112 M
3743 0 V
stroke
LTb
0.50 0.50 0.50 C 4680 5112 M
-47 0 V
stroke
LTb
0.50 0.50 0.50 C 1.000 UL
LTa
0.50 0.50 0.50 C 4680 5370 M
3743 0 V
stroke
LTb
0.50 0.50 0.50 C 4680 5370 M
-47 0 V
stroke
LTb
0.50 0.50 0.50 C 1.000 UL
LTa
0.50 0.50 0.50 C 4680 5627 M
3743 0 V
stroke
LTb
0.50 0.50 0.50 C 4680 5627 M
-47 0 V
stroke
LTb
0.50 0.50 0.50 C 1.000 UL
LTa
0.50 0.50 0.50 C 4680 5884 M
3743 0 V
stroke
LTb
0.50 0.50 0.50 C 4680 5884 M
-47 0 V
stroke
LTb
0.50 0.50 0.50 C 1.000 UL
LTa
0.50 0.50 0.50 C 4680 6142 M
3743 0 V
stroke
LTb
0.50 0.50 0.50 C 4680 6142 M
-47 0 V
stroke
LTb
0.50 0.50 0.50 C 1.000 UL
LTa
0.50 0.50 0.50 C 4680 6399 M
3743 0 V
stroke
LTb
0.50 0.50 0.50 C 4680 6399 M
-47 0 V
stroke
LTb
0.50 0.50 0.50 C 1.000 UL
LTa
0.50 0.50 0.50 C 4680 6657 M
3743 0 V
stroke
LTb
0.50 0.50 0.50 C 4680 6657 M
-47 0 V
stroke
LTb
0.50 0.50 0.50 C 1.000 UL
LTa
0.50 0.50 0.50 C 4680 6914 M
104 0 V
2703 0 R
936 0 V
stroke
LTb
0.50 0.50 0.50 C 4680 6914 M
-47 0 V
stroke
LTb
0.50 0.50 0.50 C 1.000 UL
LTa
0.50 0.50 0.50 C 4680 7171 M
104 0 V
2703 0 R
936 0 V
stroke
LTb
0.50 0.50 0.50 C 4680 7171 M
-47 0 V
stroke
LTb
0.50 0.50 0.50 C 1.000 UL
LTa
0.50 0.50 0.50 C 4680 7429 M
3743 0 V
stroke
LTb
0.50 0.50 0.50 C 4680 7429 M
-47 0 V
stroke
LTb
0.50 0.50 0.50 C 1.000 UL
LTa
0.50 0.50 0.50 C 4680 7686 M
3743 0 V
stroke
LTb
0.50 0.50 0.50 C 4680 7686 M
-47 0 V
stroke
LTb
0.50 0.50 0.50 C 1.000 UL
LTa
0.50 0.50 0.50 C 4680 4855 M
0 2831 V
stroke
LTb
0.50 0.50 0.50 C 4680 4855 M
0 -47 V
stroke
LTb
0.50 0.50 0.50 C 1.000 UL
LTa
0.50 0.50 0.50 C 5096 4855 M
0 1828 V
0 720 R
0 283 V
stroke
LTb
0.50 0.50 0.50 C 5096 4855 M
0 -47 V
stroke
LTb
0.50 0.50 0.50 C 1.000 UL
LTa
0.50 0.50 0.50 C 5512 4855 M
0 1828 V
0 720 R
0 283 V
stroke
LTb
0.50 0.50 0.50 C 5512 4855 M
0 -47 V
stroke
LTb
0.50 0.50 0.50 C 1.000 UL
LTa
0.50 0.50 0.50 C 5928 4855 M
0 1828 V
0 720 R
0 283 V
stroke
LTb
0.50 0.50 0.50 C 5928 4855 M
0 -47 V
stroke
LTb
0.50 0.50 0.50 C 1.000 UL
LTa
0.50 0.50 0.50 C 6344 4855 M
0 1828 V
0 720 R
0 283 V
stroke
LTb
0.50 0.50 0.50 C 6344 4855 M
0 -47 V
stroke
LTb
0.50 0.50 0.50 C 1.000 UL
LTa
0.50 0.50 0.50 C 6759 4855 M
0 1828 V
0 720 R
0 283 V
stroke
LTb
0.50 0.50 0.50 C 6759 4855 M
0 -47 V
stroke
LTb
0.50 0.50 0.50 C 1.000 UL
LTa
0.50 0.50 0.50 C 7175 4855 M
0 1828 V
0 720 R
0 283 V
stroke
LTb
0.50 0.50 0.50 C 7175 4855 M
0 -47 V
stroke
LTb
0.50 0.50 0.50 C 1.000 UL
LTa
0.50 0.50 0.50 C 7591 4855 M
0 2831 V
stroke
LTb
0.50 0.50 0.50 C 7591 4855 M
0 -47 V
stroke
LTb
0.50 0.50 0.50 C 1.000 UL
LTa
0.50 0.50 0.50 C 8007 4855 M
0 2831 V
stroke
LTb
0.50 0.50 0.50 C 8007 4855 M
0 -47 V
stroke
LTb
0.50 0.50 0.50 C 1.000 UL
LTa
0.50 0.50 0.50 C 8423 4855 M
0 2831 V
stroke
LTb
0.50 0.50 0.50 C 8423 4855 M
0 -47 V
stroke
LTb
0.50 0.50 0.50 C 8423 4855 M
47 0 V
stroke
8590 4855 M
[ [(Helvetica) 200.0 0.0 true true 0 (-5)]
] -66.7 MLshow
1.000 UL
LTb
0.50 0.50 0.50 C 8423 5112 M
47 0 V
stroke
8590 5112 M
[ [(Helvetica) 200.0 0.0 true true 0 ( 0)]
] -66.7 MLshow
1.000 UL
LTb
0.50 0.50 0.50 C 8423 5370 M
47 0 V
stroke
8590 5370 M
[ [(Helvetica) 200.0 0.0 true true 0 ( 5)]
] -66.7 MLshow
1.000 UL
LTb
0.50 0.50 0.50 C 8423 5627 M
47 0 V
stroke
8590 5627 M
[ [(Helvetica) 200.0 0.0 true true 0 ( 10)]
] -66.7 MLshow
1.000 UL
LTb
0.50 0.50 0.50 C 8423 5884 M
47 0 V
stroke
8590 5884 M
[ [(Helvetica) 200.0 0.0 true true 0 ( 15)]
] -66.7 MLshow
1.000 UL
LTb
0.50 0.50 0.50 C 8423 6142 M
47 0 V
stroke
8590 6142 M
[ [(Helvetica) 200.0 0.0 true true 0 ( 20)]
] -66.7 MLshow
1.000 UL
LTb
0.50 0.50 0.50 C 8423 6399 M
47 0 V
stroke
8590 6399 M
[ [(Helvetica) 200.0 0.0 true true 0 ( 25)]
] -66.7 MLshow
1.000 UL
LTb
0.50 0.50 0.50 C 8423 6657 M
47 0 V
stroke
8590 6657 M
[ [(Helvetica) 200.0 0.0 true true 0 ( 30)]
] -66.7 MLshow
1.000 UL
LTb
0.50 0.50 0.50 C 8423 6914 M
47 0 V
stroke
8590 6914 M
[ [(Helvetica) 200.0 0.0 true true 0 ( 35)]
] -66.7 MLshow
1.000 UL
LTb
0.50 0.50 0.50 C 8423 7171 M
47 0 V
stroke
8590 7171 M
[ [(Helvetica) 200.0 0.0 true true 0 ( 40)]
] -66.7 MLshow
1.000 UL
LTb
0.50 0.50 0.50 C 8423 7429 M
47 0 V
stroke
8590 7429 M
[ [(Helvetica) 200.0 0.0 true true 0 ( 45)]
] -66.7 MLshow
1.000 UL
LTb
0.50 0.50 0.50 C 8423 7686 M
47 0 V
stroke
8590 7686 M
[ [(Helvetica) 200.0 0.0 true true 0 ( 50)]
] -66.7 MLshow
1.000 UL
LTb
0.50 0.50 0.50 C 1.000 UL
LTB
0.50 0.50 0.50 C 4680 7686 M
0 -2831 V
3743 0 V
0 2831 R
-3743 0 R
1.000 UP
stroke
LTb
0.50 0.50 0.50 C LCb setrgbcolor
9169 6270 M
currentpoint gsave translate -270 rotate 0 0 moveto
[ [(Helvetica) 200.0 0.0 true true 0 (\(S=1,T=1\))]
] -66.7 MCshow
grestore
LTb
1.000 UL
LTb
LCb setrgbcolor
4784 6683 N
0 720 V
2703 0 V
0 -720 V
-2703 0 V
Z stroke
% Begin plot #1
1.000 UP
1.000 UL
LTb
0.91 0.59 0.48 C LCb setrgbcolor
6944 7313 M
[ [(Helvetica) 200.0 0.0 true true 0 (somme JLS HFB)]
] -66.7 MRshow
1.000 UP
1.000 UL
LTb
0.91 0.59 0.48 C 4940 5106 CircleF
5148 5102 CircleF
5356 5098 CircleF
5564 5095 CircleF
5772 5096 CircleF
5980 5105 CircleF
6188 5128 CircleF
6396 5172 CircleF
6603 5244 CircleF
6811 5355 CircleF
7019 5515 CircleF
7227 5740 CircleF
7435 6048 CircleF
7643 6442 CircleF
7851 6949 CircleF
8059 7593 CircleF
7215 7313 CircleF
% End plot #1
% Begin plot #2
2.000 UL
LTb
0.91 0.59 0.48 C LCb setrgbcolor
6944 7133 M
[ [(Helvetica) 200.0 0.0 true true 0 (somme JLS Gogny 3G)]
] -66.7 MRshow
2.000 UL
LTb
0.91 0.59 0.48 C 7064 7133 M
303 0 V
4940 5111 M
208 -1 V
208 -2 V
208 -2 V
208 -2 V
208 1 V
208 6 V
208 17 V
207 34 V
208 63 V
208 103 V
208 159 V
208 236 V
208 336 V
208 464 V
208 621 V
% End plot #2
% Begin plot #3
stroke
LTb
0.90 0.62 0.00 C LCb setrgbcolor
6944 6953 M
[ [(Helvetica) 200.0 0.0 true true 0 (\(S,T\) Gogny 3G)]
] -66.7 MRshow
2.000 UL
LTb
0.90 0.62 0.00 C 7064 6953 M
303 0 V
4940 5111 M
208 -1 V
208 -2 V
208 -2 V
208 -2 V
208 1 V
208 7 V
208 17 V
207 35 V
208 64 V
208 104 V
208 163 V
208 241 V
208 342 V
208 472 V
208 632 V
% End plot #3
% Begin plot #4
stroke
LTb
0.55 0.00 0.00 C LCb setrgbcolor
6944 6773 M
[ [(Helvetica) 200.0 0.0 true true 0 (\(S,T\) HFB)]
] -66.7 MRshow
2.000 UL
LTb
0.55 0.00 0.00 C 7064 6773 M
303 0 V
4940 5106 M
208 -3 V
208 -4 V
208 -4 V
208 1 V
208 8 V
208 20 V
208 37 V
207 60 V
208 92 V
208 133 V
208 186 V
208 255 V
208 325 V
208 420 V
208 537 V
% End plot #4
stroke
LTb
LCb setrgbcolor
1.000 UP
1.000 UL
LTb
0.50 0.50 0.50 C 1.000 UL
LTb
0.50 0.50 0.50 C 1.000 UL
LTa
0.50 0.50 0.50 C 936 1618 M
3743 0 V
stroke
LTb
0.50 0.50 0.50 C 936 1618 M
-47 0 V
stroke
769 1618 M
[ [(Helvetica) 200.0 0.0 true true 0 (-50)]
] -66.7 MRshow
1.000 UL
LTb
0.50 0.50 0.50 C 1.000 UL
LTa
0.50 0.50 0.50 C 936 1951 M
3743 0 V
stroke
LTb
0.50 0.50 0.50 C 936 1951 M
-47 0 V
stroke
769 1951 M
[ [(Helvetica) 200.0 0.0 true true 0 (-45)]
] -66.7 MRshow
1.000 UL
LTb
0.50 0.50 0.50 C 1.000 UL
LTa
0.50 0.50 0.50 C 936 2283 M
3743 0 V
stroke
LTb
0.50 0.50 0.50 C 936 2283 M
-47 0 V
stroke
769 2283 M
[ [(Helvetica) 200.0 0.0 true true 0 (-40)]
] -66.7 MRshow
1.000 UL
LTb
0.50 0.50 0.50 C 1.000 UL
LTa
0.50 0.50 0.50 C 936 2616 M
3743 0 V
stroke
LTb
0.50 0.50 0.50 C 936 2616 M
-47 0 V
stroke
769 2616 M
[ [(Helvetica) 200.0 0.0 true true 0 (-35)]
] -66.7 MRshow
1.000 UL
LTb
0.50 0.50 0.50 C 1.000 UL
LTa
0.50 0.50 0.50 C 936 2948 M
3743 0 V
stroke
LTb
0.50 0.50 0.50 C 936 2948 M
-47 0 V
stroke
769 2948 M
[ [(Helvetica) 200.0 0.0 true true 0 (-30)]
] -66.7 MRshow
1.000 UL
LTb
0.50 0.50 0.50 C 1.000 UL
LTa
0.50 0.50 0.50 C 936 3281 M
3743 0 V
stroke
LTb
0.50 0.50 0.50 C 936 3281 M
-47 0 V
stroke
769 3281 M
[ [(Helvetica) 200.0 0.0 true true 0 (-25)]
] -66.7 MRshow
1.000 UL
LTb
0.50 0.50 0.50 C 1.000 UL
LTa
0.50 0.50 0.50 C 936 3613 M
3743 0 V
stroke
LTb
0.50 0.50 0.50 C 936 3613 M
-47 0 V
stroke
769 3613 M
[ [(Helvetica) 200.0 0.0 true true 0 (-20)]
] -66.7 MRshow
1.000 UL
LTb
0.50 0.50 0.50 C 1.000 UL
LTa
0.50 0.50 0.50 C 936 3946 M
3743 0 V
stroke
LTb
0.50 0.50 0.50 C 936 3946 M
-47 0 V
stroke
769 3946 M
[ [(Helvetica) 200.0 0.0 true true 0 (-15)]
] -66.7 MRshow
1.000 UL
LTb
0.50 0.50 0.50 C 1.000 UL
LTa
0.50 0.50 0.50 C 936 4278 M
3743 0 V
stroke
LTb
0.50 0.50 0.50 C 936 4278 M
-47 0 V
stroke
769 4278 M
[ [(Helvetica) 200.0 0.0 true true 0 (-10)]
] -66.7 MRshow
1.000 UL
LTb
0.50 0.50 0.50 C 1.000 UL
LTa
0.50 0.50 0.50 C 936 4611 M
3743 0 V
stroke
LTb
0.50 0.50 0.50 C 936 4611 M
-47 0 V
stroke
769 4611 M
[ [(Helvetica) 200.0 0.0 true true 0 (-5)]
] -66.7 MRshow
1.000 UL
LTb
0.50 0.50 0.50 C 1.000 UL
LTa
0.50 0.50 0.50 C 936 1618 M
0 2993 V
stroke
LTb
0.50 0.50 0.50 C 936 1618 M
0 -47 V
stroke
936 1371 M
[ [(Helvetica) 200.0 0.0 true true 0 (0.6)]
] -66.7 MCshow
1.000 UL
LTb
0.50 0.50 0.50 C 1.000 UL
LTa
0.50 0.50 0.50 C 1352 1618 M
0 2993 V
stroke
LTb
0.50 0.50 0.50 C 1352 1618 M
0 -47 V
stroke
1352 1371 M
[ [(Helvetica) 200.0 0.0 true true 0 (0.8)]
] -66.7 MCshow
1.000 UL
LTb
0.50 0.50 0.50 C 1.000 UL
LTa
0.50 0.50 0.50 C 1768 1618 M
0 2993 V
stroke
LTb
0.50 0.50 0.50 C 1768 1618 M
0 -47 V
stroke
1768 1371 M
[ [(Helvetica) 200.0 0.0 true true 0 (1.0)]
] -66.7 MCshow
1.000 UL
LTb
0.50 0.50 0.50 C 1.000 UL
LTa
0.50 0.50 0.50 C 2184 1618 M
0 2993 V
stroke
LTb
0.50 0.50 0.50 C 2184 1618 M
0 -47 V
stroke
2184 1371 M
[ [(Helvetica) 200.0 0.0 true true 0 (1.2)]
] -66.7 MCshow
1.000 UL
LTb
0.50 0.50 0.50 C 1.000 UL
LTa
0.50 0.50 0.50 C 2600 1618 M
0 2993 V
stroke
LTb
0.50 0.50 0.50 C 2600 1618 M
0 -47 V
stroke
2600 1371 M
[ [(Helvetica) 200.0 0.0 true true 0 (1.4)]
] -66.7 MCshow
1.000 UL
LTb
0.50 0.50 0.50 C 1.000 UL
LTa
0.50 0.50 0.50 C 3015 1618 M
0 2993 V
stroke
LTb
0.50 0.50 0.50 C 3015 1618 M
0 -47 V
stroke
3015 1371 M
[ [(Helvetica) 200.0 0.0 true true 0 (1.6)]
] -66.7 MCshow
1.000 UL
LTb
0.50 0.50 0.50 C 1.000 UL
LTa
0.50 0.50 0.50 C 3431 1618 M
0 2993 V
stroke
LTb
0.50 0.50 0.50 C 3431 1618 M
0 -47 V
stroke
3431 1371 M
[ [(Helvetica) 200.0 0.0 true true 0 (1.8)]
] -66.7 MCshow
1.000 UL
LTb
0.50 0.50 0.50 C 1.000 UL
LTa
0.50 0.50 0.50 C 3847 1618 M
0 2993 V
stroke
LTb
0.50 0.50 0.50 C 3847 1618 M
0 -47 V
stroke
3847 1371 M
[ [(Helvetica) 200.0 0.0 true true 0 (2.0)]
] -66.7 MCshow
1.000 UL
LTb
0.50 0.50 0.50 C 1.000 UL
LTa
0.50 0.50 0.50 C 4263 1618 M
0 2993 V
stroke
LTb
0.50 0.50 0.50 C 4263 1618 M
0 -47 V
stroke
4263 1371 M
[ [(Helvetica) 200.0 0.0 true true 0 (2.2)]
] -66.7 MCshow
1.000 UL
LTb
0.50 0.50 0.50 C 1.000 UL
LTa
0.50 0.50 0.50 C 4679 1618 M
0 2993 V
stroke
LTb
0.50 0.50 0.50 C 4679 1618 M
0 -47 V
stroke
LTb
0.50 0.50 0.50 C 1.000 UL
LTB
0.50 0.50 0.50 C 936 4611 M
0 -2993 V
3743 0 V
0 2993 R
-3743 0 R
1.000 UP
stroke
LTb
0.50 0.50 0.50 C LCb setrgbcolor
189 3114 M
currentpoint gsave translate -270 rotate 0 0 moveto
[ [(Helvetica) 200.0 0.0 true true 0 (\(S=1,T=0\))]
] -66.7 MCshow
grestore
LTb
LCb setrgbcolor
2807 1071 M
[ [(Helvetica) 200.0 0.0 true true 0 (k)]
[(Helvetica) 160.0 -60.0 true true 0 (F)]
[(Helvetica) 200.0 0.0 true true 0 ( [fm)]
[(Helvetica) 160.0 100.0 true true 0 (-1)]
[(Helvetica) 200.0 0.0 true true 0 (])]
] -66.7 MCshow
LTb
% Begin plot #1
1.000 UP
1.000 UL
LTb
0.91 0.59 0.48 C 1196 4268 CircleF
1404 4096 CircleF
1612 3918 CircleF
1820 3730 CircleF
2028 3537 CircleF
2236 3325 CircleF
2444 3107 CircleF
2652 2881 CircleF
2859 2663 CircleF
3067 2454 CircleF
3275 2260 CircleF
3483 2097 CircleF
3691 1983 CircleF
3899 1916 CircleF
4107 1936 CircleF
4315 2050 CircleF
% End plot #1
% Begin plot #2
2.000 UL
LTb
0.91 0.59 0.48 C 1196 4487 M
208 -166 V
208 -188 V
208 -207 V
208 -221 V
208 -231 V
208 -233 V
208 -228 V
207 -211 V
208 -182 V
208 -135 V
208 -70 V
208 21 V
208 138 V
208 286 V
208 471 V
% End plot #2
% Begin plot #3
stroke
LTb
0.90 0.62 0.00 C 1196 4487 M
208 -166 V
208 -189 V
208 -207 V
208 -223 V
208 -233 V
208 -239 V
208 -238 V
207 -226 V
208 -206 V
208 -169 V
208 -117 V
208 -44 V
208 53 V
208 179 V
208 334 V
% End plot #3
% Begin plot #4
stroke
LTb
0.55 0.00 0.00 C 1196 4265 M
208 -172 V
208 -179 V
208 -191 V
208 -196 V
208 -214 V
208 -220 V
208 -224 V
207 -213 V
208 -198 V
208 -175 V
208 -136 V
208 -77 V
208 -20 V
208 78 V
208 181 V
% End plot #4
stroke
LTb
LCb setrgbcolor
1.000 UP
1.000 UL
LTb
0.50 0.50 0.50 C 1.000 UL
LTb
0.50 0.50 0.50 C 1.000 UL
LTa
0.50 0.50 0.50 C 4680 1618 M
3743 0 V
stroke
LTb
0.50 0.50 0.50 C 4680 1618 M
-47 0 V
stroke
LTb
0.50 0.50 0.50 C 1.000 UL
LTa
0.50 0.50 0.50 C 4680 2217 M
3743 0 V
stroke
LTb
0.50 0.50 0.50 C 4680 2217 M
-47 0 V
stroke
LTb
0.50 0.50 0.50 C 1.000 UL
LTa
0.50 0.50 0.50 C 4680 2815 M
3743 0 V
stroke
LTb
0.50 0.50 0.50 C 4680 2815 M
-47 0 V
stroke
LTb
0.50 0.50 0.50 C 1.000 UL
LTa
0.50 0.50 0.50 C 4680 3414 M
3743 0 V
stroke
LTb
0.50 0.50 0.50 C 4680 3414 M
-47 0 V
stroke
LTb
0.50 0.50 0.50 C 1.000 UL
LTa
0.50 0.50 0.50 C 4680 4012 M
3743 0 V
stroke
LTb
0.50 0.50 0.50 C 4680 4012 M
-47 0 V
stroke
LTb
0.50 0.50 0.50 C 1.000 UL
LTa
0.50 0.50 0.50 C 4680 4611 M
3743 0 V
stroke
LTb
0.50 0.50 0.50 C 4680 4611 M
-47 0 V
stroke
LTb
0.50 0.50 0.50 C 1.000 UL
LTa
0.50 0.50 0.50 C 4680 1618 M
0 2993 V
stroke
LTb
0.50 0.50 0.50 C 4680 1618 M
0 -47 V
stroke
4680 1371 M
[ [(Helvetica) 200.0 0.0 true true 0 (0.6)]
] -66.7 MCshow
1.000 UL
LTb
0.50 0.50 0.50 C 1.000 UL
LTa
0.50 0.50 0.50 C 5096 1618 M
0 2993 V
stroke
LTb
0.50 0.50 0.50 C 5096 1618 M
0 -47 V
stroke
5096 1371 M
[ [(Helvetica) 200.0 0.0 true true 0 (0.8)]
] -66.7 MCshow
1.000 UL
LTb
0.50 0.50 0.50 C 1.000 UL
LTa
0.50 0.50 0.50 C 5512 1618 M
0 2993 V
stroke
LTb
0.50 0.50 0.50 C 5512 1618 M
0 -47 V
stroke
5512 1371 M
[ [(Helvetica) 200.0 0.0 true true 0 (1.0)]
] -66.7 MCshow
1.000 UL
LTb
0.50 0.50 0.50 C 1.000 UL
LTa
0.50 0.50 0.50 C 5928 1618 M
0 2993 V
stroke
LTb
0.50 0.50 0.50 C 5928 1618 M
0 -47 V
stroke
5928 1371 M
[ [(Helvetica) 200.0 0.0 true true 0 (1.2)]
] -66.7 MCshow
1.000 UL
LTb
0.50 0.50 0.50 C 1.000 UL
LTa
0.50 0.50 0.50 C 6344 1618 M
0 2993 V
stroke
LTb
0.50 0.50 0.50 C 6344 1618 M
0 -47 V
stroke
6344 1371 M
[ [(Helvetica) 200.0 0.0 true true 0 (1.4)]
] -66.7 MCshow
1.000 UL
LTb
0.50 0.50 0.50 C 1.000 UL
LTa
0.50 0.50 0.50 C 6759 1618 M
0 2993 V
stroke
LTb
0.50 0.50 0.50 C 6759 1618 M
0 -47 V
stroke
6759 1371 M
[ [(Helvetica) 200.0 0.0 true true 0 (1.6)]
] -66.7 MCshow
1.000 UL
LTb
0.50 0.50 0.50 C 1.000 UL
LTa
0.50 0.50 0.50 C 7175 1618 M
0 2993 V
stroke
LTb
0.50 0.50 0.50 C 7175 1618 M
0 -47 V
stroke
7175 1371 M
[ [(Helvetica) 200.0 0.0 true true 0 (1.8)]
] -66.7 MCshow
1.000 UL
LTb
0.50 0.50 0.50 C 1.000 UL
LTa
0.50 0.50 0.50 C 7591 1618 M
0 2993 V
stroke
LTb
0.50 0.50 0.50 C 7591 1618 M
0 -47 V
stroke
7591 1371 M
[ [(Helvetica) 200.0 0.0 true true 0 (2.0)]
] -66.7 MCshow
1.000 UL
LTb
0.50 0.50 0.50 C 1.000 UL
LTa
0.50 0.50 0.50 C 8007 1618 M
0 2993 V
stroke
LTb
0.50 0.50 0.50 C 8007 1618 M
0 -47 V
stroke
8007 1371 M
[ [(Helvetica) 200.0 0.0 true true 0 (2.2)]
] -66.7 MCshow
1.000 UL
LTb
0.50 0.50 0.50 C 1.000 UL
LTa
0.50 0.50 0.50 C 8423 1618 M
0 2993 V
stroke
LTb
0.50 0.50 0.50 C 8423 1618 M
0 -47 V
stroke
LTb
0.50 0.50 0.50 C 8423 1618 M
-63 0 V
stroke
8543 1618 M
[ [(Helvetica) 200.0 0.0 true true 0 (-1)]
] -66.7 MLshow
1.000 UL
LTb
0.50 0.50 0.50 C 8423 2117 M
-63 0 V
stroke
8543 2117 M
[ [(Helvetica) 200.0 0.0 true true 0 ( 0)]
] -66.7 MLshow
1.000 UL
LTb
0.50 0.50 0.50 C 8423 2616 M
-63 0 V
stroke
8543 2616 M
[ [(Helvetica) 200.0 0.0 true true 0 ( 1)]
] -66.7 MLshow
1.000 UL
LTb
0.50 0.50 0.50 C 8423 3115 M
-63 0 V
stroke
8543 3115 M
[ [(Helvetica) 200.0 0.0 true true 0 ( 2)]
] -66.7 MLshow
1.000 UL
LTb
0.50 0.50 0.50 C 8423 3613 M
-63 0 V
stroke
8543 3613 M
[ [(Helvetica) 200.0 0.0 true true 0 ( 3)]
] -66.7 MLshow
1.000 UL
LTb
0.50 0.50 0.50 C 8423 4112 M
-63 0 V
stroke
8543 4112 M
[ [(Helvetica) 200.0 0.0 true true 0 ( 4)]
] -66.7 MLshow
1.000 UL
LTb
0.50 0.50 0.50 C 8423 4611 M
-63 0 V
stroke
8543 4611 M
[ [(Helvetica) 200.0 0.0 true true 0 ( 5)]
] -66.7 MLshow
1.000 UL
LTb
0.50 0.50 0.50 C 1.000 UL
LTB
0.50 0.50 0.50 C 4680 4611 M
0 -2993 V
3743 0 V
0 2993 R
-3743 0 R
1.000 UP
stroke
LTb
0.50 0.50 0.50 C LCb setrgbcolor
9002 3114 M
currentpoint gsave translate -270 rotate 0 0 moveto
[ [(Helvetica) 200.0 0.0 true true 0 (\(S=0,T=1\))]
] -66.7 MCshow
grestore
LTb
LCb setrgbcolor
6551 1071 M
[ [(Helvetica) 200.0 0.0 true true 0 (k)]
[(Helvetica) 160.0 -60.0 true true 0 (F)]
[(Helvetica) 200.0 0.0 true true 0 ( [fm)]
[(Helvetica) 160.0 100.0 true true 0 (-1)]
[(Helvetica) 200.0 0.0 true true 0 (])]
] -66.7 MCshow
LTb
% Begin plot #1
1.000 UP
1.000 UL
LTb
0.91 0.59 0.48 C 4940 3924 CircleF
5148 3721 CircleF
5356 3501 CircleF
5564 3268 CircleF
5772 3024 CircleF
5980 2768 CircleF
6188 2517 CircleF
6396 2286 CircleF
6603 2094 CircleF
6811 1960 CircleF
7019 1909 CircleF
7227 1972 CircleF
7435 2194 CircleF
7643 2607 CircleF
7851 3267 CircleF
8059 4224 CircleF
% End plot #1
% Begin plot #2
2.000 UL
LTb
0.91 0.59 0.48 C 4940 4112 M
208 -195 V
208 -222 V
208 -244 V
208 -256 V
208 -258 V
208 -249 V
208 -228 V
207 -193 V
208 -145 V
208 -83 V
208 -11 V
208 75 V
208 171 V
208 274 V
208 385 V
% End plot #2
% Begin plot #3
stroke
LTb
0.90 0.62 0.00 C 4940 4112 M
208 -195 V
208 -223 V
208 -243 V
208 -257 V
208 -260 V
208 -251 V
208 -233 V
207 -200 V
208 -156 V
208 -100 V
208 -34 V
208 42 V
208 126 V
208 217 V
208 310 V
% End plot #3
% Begin plot #4
stroke
LTb
0.55 0.00 0.00 C 4940 3922 M
208 -204 V
208 -222 V
208 -236 V
208 -247 V
208 -259 V
208 -252 V
208 -230 V
207 -186 V
208 -124 V
208 -34 V
208 87 V
208 253 V
208 450 V
208 702 V
208 999 V
% End plot #4
stroke
LTb
LCb setrgbcolor
1.000 UP
1.000 UL
LTb
0.50 0.50 0.50 C stroke
grestore
end
showpage
%%Trailer
%%DocumentFonts: Helvetica
