  9.99999978E-03  0.52900976      5.23492321E-02  -1.2402766      -3.7264533     -3.21475253E-03  -1.4334772      -1.4334769    
  1.99999996E-02  0.66651052      0.16281664      -2.5761130      -6.4234767     -7.14293960E-03  -3.3132231      -3.3132231    
  2.99999993E-02  0.76296407      0.31444994      -3.8910420      -8.7019835     -8.98972061E-03  -5.0403080      -5.0403061    
  3.99999991E-02  0.83975059      0.49986732      -5.1651840      -10.710254     -7.23954616E-03  -6.6033835      -6.6033835    
  4.99999970E-02  0.90459394      0.71434021      -6.3915529      -12.520755     -7.94642780E-04  -8.0111389      -8.0111370    
  5.99999949E-02  0.96127445      0.95441943      -7.5674725      -14.176684      1.12213083E-02  -9.2742128      -9.2742147    
  6.99999928E-02   1.0119592       1.2174054      -8.6921158      -15.706710      2.95453575E-02  -10.402423      -10.402421    
  7.99999908E-02   1.0580195       1.5010873      -9.7655621      -17.131168      5.48179485E-02  -11.404352      -11.404349    
  8.99999887E-02   1.1003846       1.8035964      -10.788369      -18.465200      8.76080394E-02  -12.287462      -12.287465    
  9.99999866E-02   1.1397169       2.1233182      -11.761352      -19.720482      0.12842976      -13.058245      -13.058240    
  0.10999998       1.1765071       2.4588315      -12.685460      -20.906227      0.17775334      -13.722350      -13.722352    
  0.11999998       1.2111299       2.8088672      -13.561729      -22.029900      0.23601283      -14.284806      -14.284805    
  0.12999998       1.2438788       3.1722817      -14.391219      -23.097618      0.30361250      -14.750043      -14.750045    
  0.13999999       1.2749887       3.5480323      -15.175005      -24.114508      0.38093129      -15.122057      -15.122048    
  0.14999999       1.3046502       3.9351618      -15.914151      -25.084854      0.46832579      -15.404409      -15.404407    
  0.16000000       1.3330210       4.3327842      -16.609716      -26.012329      0.56613386      -15.600356      -15.600354    
  0.17000000       1.3602329       4.7400770      -17.262733      -26.900084      0.67467552      -15.712858      -15.712859    
  0.18000001       1.3863978       5.1562738      -17.874205      -27.750875      0.79425800      -15.744628      -15.744619    
  0.19000001       1.4116105       5.5806503      -18.445133      -28.567022      0.92517215      -15.698133      -15.698127    
  0.20000002       1.4359535       6.0125294      -18.976467      -29.350636       1.0676999      -15.575667      -15.575664    
  0.21000002       1.4594978       6.4512677      -19.469149      -30.103537       1.2221094      -15.379375      -15.379376    
  0.22000003       1.4823061       6.8962564      -19.924084      -30.827353       1.3886611      -15.111229      -15.111222    
  0.23000003       1.5044334       7.3469162      -20.342163      -31.523487       1.5676056      -14.773046      -14.773033    
  0.24000004       1.5259283       7.8026962      -20.724237      -32.193249       1.7591850      -14.366570      -14.366557    
  0.25000003       1.5468340       8.2630663      -21.071152      -32.837742       1.9636331      -13.893399      -13.893390    
  0.26000002       1.5671892       8.7275219      -21.383728      -33.458004       2.1811759      -13.355083      -13.355074    
  0.27000001       1.5870293       9.1955824      -21.662741      -34.054943       2.4120386      -12.752996      -12.752985    
  0.28000000       1.6063851       9.6667786      -21.908989      -34.629356       2.6564300      -12.088531      -12.088517    
  0.28999999       1.6252855       10.140662      -22.123209      -35.182007       2.9145632      -11.362947      -11.362928    
  0.29999998       1.6437563       10.616802      -22.306133      -35.713547       3.1866395      -10.577449      -10.577438    
  0.30999997       1.6618210       11.094781      -22.458487      -36.224548       3.4728580      -9.7331686      -9.7331562    
  0.31999996       1.6795012       11.574196      -22.580971      -36.715584       3.7734101      -8.8312426      -8.8312330    
  0.32999995       1.6968169       12.054657      -22.674250      -37.187138       4.0884881      -7.8726726      -7.8726702    
  0.33999994       1.7137861       12.535783      -22.739008      -37.639626       4.4182720      -6.8584685      -6.8584518    
  0.34999993       1.7304258       13.017210      -22.775900      -38.073418       4.7629466      -5.7895393      -5.7895494    
  0.35999992       1.7467517       13.498583      -22.785530      -38.488945       5.1226883      -4.6668291      -4.6668186    
  0.36999992       1.7627778       13.979551      -22.768566      -38.886425       5.4976683      -3.4911625      -3.4911742    
  0.37999991       1.7785176       14.459784      -22.725592      -39.266228       5.8880544      -2.2634246      -2.2634330    
  0.38999990       1.7939838       14.938947      -22.657198      -39.628574       6.2940192     -0.98435497     -0.98434180    
  0.39999989       1.8091877       15.416727      -22.563986      -39.973717       6.7157187      0.34522477      0.34525183    
  0.40999988       1.8241403       15.892809      -22.446516      -40.301804       7.1533198       1.7246672       1.7246969    
  0.41999987       1.8388518       16.366892      -22.305344      -40.613079       7.6069775       3.1532056       3.1532176    
  0.42999986       1.8533316       16.838676      -22.141029      -40.907692       8.0768442       4.6301537       4.6301765    
  0.43999985       1.8675884       17.307873      -21.954117      -41.185753       8.5630732       6.1548786       6.1548996    
  0.44999984       1.8816310       17.774202      -21.745113      -41.447407       9.0658169       7.7267742       7.7267709    
  0.45999983       1.8954670       18.237383      -21.514545      -41.692802       9.5852184       9.3451595       9.3451452    
  0.46999982       1.9091039       18.697144      -21.262941      -41.921993       10.121422       11.009466       11.009442    
  0.47999981       1.9225488       19.153223      -20.990784      -42.135094       10.674575       12.719127       12.719151    
  0.48999980       1.9358082       19.605358      -20.698566      -42.332100       11.244816       14.473644       14.473688    
  0.49999979       1.9488883       20.053297      -20.386774      -42.513142       11.832279       16.272406       16.272423    
