%!PS-Adobe-2.0
%%Title: EOS_SNM_ST_fit.eps
%%Creator: gnuplot 5.0 patchlevel 3
%%CreationDate: Mon May 22 15:51:08 2017
%%DocumentFonts: (atend)
%%BoundingBox: 50 50 554 770
%%Orientation: Landscape
%%Pages: (atend)
%%EndComments
%%BeginProlog
/gnudict 256 dict def
gnudict begin
%
% The following true/false flags may be edited by hand if desired.
% The unit line width and grayscale image gamma correction may also be changed.
%
/Color true def
/Blacktext false def
/Solid false def
/Dashlength 1 def
/Landscape true def
/Level1 false def
/Level3 false def
/Rounded false def
/ClipToBoundingBox false def
/SuppressPDFMark false def
/TransparentPatterns false def
/gnulinewidth 5.000 def
/userlinewidth gnulinewidth def
/Gamma 1.0 def
/BackgroundColor {-1.000 -1.000 -1.000} def
%
/vshift -40 def
/dl1 {
  10.0 Dashlength userlinewidth gnulinewidth div mul mul mul
  Rounded { currentlinewidth 0.75 mul sub dup 0 le { pop 0.01 } if } if
} def
/dl2 {
  10.0 Dashlength userlinewidth gnulinewidth div mul mul mul
  Rounded { currentlinewidth 0.75 mul add } if
} def
/hpt_ 31.5 def
/vpt_ 31.5 def
/hpt hpt_ def
/vpt vpt_ def
/doclip {
  ClipToBoundingBox {
    newpath 50 50 moveto 554 50 lineto 554 770 lineto 50 770 lineto closepath
    clip
  } if
} def
%
% Gnuplot Prolog Version 5.1 (Oct 2015)
%
%/SuppressPDFMark true def
%
/M {moveto} bind def
/L {lineto} bind def
/R {rmoveto} bind def
/V {rlineto} bind def
/N {newpath moveto} bind def
/Z {closepath} bind def
/C {setrgbcolor} bind def
/f {rlineto fill} bind def
/g {setgray} bind def
/Gshow {show} def   % May be redefined later in the file to support UTF-8
/vpt2 vpt 2 mul def
/hpt2 hpt 2 mul def
/Lshow {currentpoint stroke M 0 vshift R 
	Blacktext {gsave 0 setgray textshow grestore} {textshow} ifelse} def
/Rshow {currentpoint stroke M dup stringwidth pop neg vshift R
	Blacktext {gsave 0 setgray textshow grestore} {textshow} ifelse} def
/Cshow {currentpoint stroke M dup stringwidth pop -2 div vshift R 
	Blacktext {gsave 0 setgray textshow grestore} {textshow} ifelse} def
/UP {dup vpt_ mul /vpt exch def hpt_ mul /hpt exch def
  /hpt2 hpt 2 mul def /vpt2 vpt 2 mul def} def
/DL {Color {setrgbcolor Solid {pop []} if 0 setdash}
 {pop pop pop 0 setgray Solid {pop []} if 0 setdash} ifelse} def
/BL {stroke userlinewidth 2 mul setlinewidth
	Rounded {1 setlinejoin 1 setlinecap} if} def
/AL {stroke userlinewidth 2 div setlinewidth
	Rounded {1 setlinejoin 1 setlinecap} if} def
/UL {dup gnulinewidth mul /userlinewidth exch def
	dup 1 lt {pop 1} if 10 mul /udl exch def} def
/PL {stroke userlinewidth setlinewidth
	Rounded {1 setlinejoin 1 setlinecap} if} def
3.8 setmiterlimit
% Classic Line colors (version 5.0)
/LCw {1 1 1} def
/LCb {0 0 0} def
/LCa {0 0 0} def
/LC0 {1 0 0} def
/LC1 {0 1 0} def
/LC2 {0 0 1} def
/LC3 {1 0 1} def
/LC4 {0 1 1} def
/LC5 {1 1 0} def
/LC6 {0 0 0} def
/LC7 {1 0.3 0} def
/LC8 {0.5 0.5 0.5} def
% Default dash patterns (version 5.0)
/LTB {BL [] LCb DL} def
/LTw {PL [] 1 setgray} def
/LTb {PL [] LCb DL} def
/LTa {AL [1 udl mul 2 udl mul] 0 setdash LCa setrgbcolor} def
/LT0 {PL [] LC0 DL} def
/LT1 {PL [2 dl1 3 dl2] LC1 DL} def
/LT2 {PL [1 dl1 1.5 dl2] LC2 DL} def
/LT3 {PL [6 dl1 2 dl2 1 dl1 2 dl2] LC3 DL} def
/LT4 {PL [1 dl1 2 dl2 6 dl1 2 dl2 1 dl1 2 dl2] LC4 DL} def
/LT5 {PL [4 dl1 2 dl2] LC5 DL} def
/LT6 {PL [1.5 dl1 1.5 dl2 1.5 dl1 1.5 dl2 1.5 dl1 6 dl2] LC6 DL} def
/LT7 {PL [3 dl1 3 dl2 1 dl1 3 dl2] LC7 DL} def
/LT8 {PL [2 dl1 2 dl2 2 dl1 6 dl2] LC8 DL} def
/SL {[] 0 setdash} def
/Pnt {stroke [] 0 setdash gsave 1 setlinecap M 0 0 V stroke grestore} def
/Dia {stroke [] 0 setdash 2 copy vpt add M
  hpt neg vpt neg V hpt vpt neg V
  hpt vpt V hpt neg vpt V closepath stroke
  Pnt} def
/Pls {stroke [] 0 setdash vpt sub M 0 vpt2 V
  currentpoint stroke M
  hpt neg vpt neg R hpt2 0 V stroke
 } def
/Box {stroke [] 0 setdash 2 copy exch hpt sub exch vpt add M
  0 vpt2 neg V hpt2 0 V 0 vpt2 V
  hpt2 neg 0 V closepath stroke
  Pnt} def
/Crs {stroke [] 0 setdash exch hpt sub exch vpt add M
  hpt2 vpt2 neg V currentpoint stroke M
  hpt2 neg 0 R hpt2 vpt2 V stroke} def
/TriU {stroke [] 0 setdash 2 copy vpt 1.12 mul add M
  hpt neg vpt -1.62 mul V
  hpt 2 mul 0 V
  hpt neg vpt 1.62 mul V closepath stroke
  Pnt} def
/Star {2 copy Pls Crs} def
/BoxF {stroke [] 0 setdash exch hpt sub exch vpt add M
  0 vpt2 neg V hpt2 0 V 0 vpt2 V
  hpt2 neg 0 V closepath fill} def
/TriUF {stroke [] 0 setdash vpt 1.12 mul add M
  hpt neg vpt -1.62 mul V
  hpt 2 mul 0 V
  hpt neg vpt 1.62 mul V closepath fill} def
/TriD {stroke [] 0 setdash 2 copy vpt 1.12 mul sub M
  hpt neg vpt 1.62 mul V
  hpt 2 mul 0 V
  hpt neg vpt -1.62 mul V closepath stroke
  Pnt} def
/TriDF {stroke [] 0 setdash vpt 1.12 mul sub M
  hpt neg vpt 1.62 mul V
  hpt 2 mul 0 V
  hpt neg vpt -1.62 mul V closepath fill} def
/DiaF {stroke [] 0 setdash vpt add M
  hpt neg vpt neg V hpt vpt neg V
  hpt vpt V hpt neg vpt V closepath fill} def
/Pent {stroke [] 0 setdash 2 copy gsave
  translate 0 hpt M 4 {72 rotate 0 hpt L} repeat
  closepath stroke grestore Pnt} def
/PentF {stroke [] 0 setdash gsave
  translate 0 hpt M 4 {72 rotate 0 hpt L} repeat
  closepath fill grestore} def
/Circle {stroke [] 0 setdash 2 copy
  hpt 0 360 arc stroke Pnt} def
/CircleF {stroke [] 0 setdash hpt 0 360 arc fill} def
/C0 {BL [] 0 setdash 2 copy moveto vpt 90 450 arc} bind def
/C1 {BL [] 0 setdash 2 copy moveto
	2 copy vpt 0 90 arc closepath fill
	vpt 0 360 arc closepath} bind def
/C2 {BL [] 0 setdash 2 copy moveto
	2 copy vpt 90 180 arc closepath fill
	vpt 0 360 arc closepath} bind def
/C3 {BL [] 0 setdash 2 copy moveto
	2 copy vpt 0 180 arc closepath fill
	vpt 0 360 arc closepath} bind def
/C4 {BL [] 0 setdash 2 copy moveto
	2 copy vpt 180 270 arc closepath fill
	vpt 0 360 arc closepath} bind def
/C5 {BL [] 0 setdash 2 copy moveto
	2 copy vpt 0 90 arc
	2 copy moveto
	2 copy vpt 180 270 arc closepath fill
	vpt 0 360 arc} bind def
/C6 {BL [] 0 setdash 2 copy moveto
	2 copy vpt 90 270 arc closepath fill
	vpt 0 360 arc closepath} bind def
/C7 {BL [] 0 setdash 2 copy moveto
	2 copy vpt 0 270 arc closepath fill
	vpt 0 360 arc closepath} bind def
/C8 {BL [] 0 setdash 2 copy moveto
	2 copy vpt 270 360 arc closepath fill
	vpt 0 360 arc closepath} bind def
/C9 {BL [] 0 setdash 2 copy moveto
	2 copy vpt 270 450 arc closepath fill
	vpt 0 360 arc closepath} bind def
/C10 {BL [] 0 setdash 2 copy 2 copy moveto vpt 270 360 arc closepath fill
	2 copy moveto
	2 copy vpt 90 180 arc closepath fill
	vpt 0 360 arc closepath} bind def
/C11 {BL [] 0 setdash 2 copy moveto
	2 copy vpt 0 180 arc closepath fill
	2 copy moveto
	2 copy vpt 270 360 arc closepath fill
	vpt 0 360 arc closepath} bind def
/C12 {BL [] 0 setdash 2 copy moveto
	2 copy vpt 180 360 arc closepath fill
	vpt 0 360 arc closepath} bind def
/C13 {BL [] 0 setdash 2 copy moveto
	2 copy vpt 0 90 arc closepath fill
	2 copy moveto
	2 copy vpt 180 360 arc closepath fill
	vpt 0 360 arc closepath} bind def
/C14 {BL [] 0 setdash 2 copy moveto
	2 copy vpt 90 360 arc closepath fill
	vpt 0 360 arc} bind def
/C15 {BL [] 0 setdash 2 copy vpt 0 360 arc closepath fill
	vpt 0 360 arc closepath} bind def
/Rec {newpath 4 2 roll moveto 1 index 0 rlineto 0 exch rlineto
	neg 0 rlineto closepath} bind def
/Square {dup Rec} bind def
/Bsquare {vpt sub exch vpt sub exch vpt2 Square} bind def
/S0 {BL [] 0 setdash 2 copy moveto 0 vpt rlineto BL Bsquare} bind def
/S1 {BL [] 0 setdash 2 copy vpt Square fill Bsquare} bind def
/S2 {BL [] 0 setdash 2 copy exch vpt sub exch vpt Square fill Bsquare} bind def
/S3 {BL [] 0 setdash 2 copy exch vpt sub exch vpt2 vpt Rec fill Bsquare} bind def
/S4 {BL [] 0 setdash 2 copy exch vpt sub exch vpt sub vpt Square fill Bsquare} bind def
/S5 {BL [] 0 setdash 2 copy 2 copy vpt Square fill
	exch vpt sub exch vpt sub vpt Square fill Bsquare} bind def
/S6 {BL [] 0 setdash 2 copy exch vpt sub exch vpt sub vpt vpt2 Rec fill Bsquare} bind def
/S7 {BL [] 0 setdash 2 copy exch vpt sub exch vpt sub vpt vpt2 Rec fill
	2 copy vpt Square fill Bsquare} bind def
/S8 {BL [] 0 setdash 2 copy vpt sub vpt Square fill Bsquare} bind def
/S9 {BL [] 0 setdash 2 copy vpt sub vpt vpt2 Rec fill Bsquare} bind def
/S10 {BL [] 0 setdash 2 copy vpt sub vpt Square fill 2 copy exch vpt sub exch vpt Square fill
	Bsquare} bind def
/S11 {BL [] 0 setdash 2 copy vpt sub vpt Square fill 2 copy exch vpt sub exch vpt2 vpt Rec fill
	Bsquare} bind def
/S12 {BL [] 0 setdash 2 copy exch vpt sub exch vpt sub vpt2 vpt Rec fill Bsquare} bind def
/S13 {BL [] 0 setdash 2 copy exch vpt sub exch vpt sub vpt2 vpt Rec fill
	2 copy vpt Square fill Bsquare} bind def
/S14 {BL [] 0 setdash 2 copy exch vpt sub exch vpt sub vpt2 vpt Rec fill
	2 copy exch vpt sub exch vpt Square fill Bsquare} bind def
/S15 {BL [] 0 setdash 2 copy Bsquare fill Bsquare} bind def
/D0 {gsave translate 45 rotate 0 0 S0 stroke grestore} bind def
/D1 {gsave translate 45 rotate 0 0 S1 stroke grestore} bind def
/D2 {gsave translate 45 rotate 0 0 S2 stroke grestore} bind def
/D3 {gsave translate 45 rotate 0 0 S3 stroke grestore} bind def
/D4 {gsave translate 45 rotate 0 0 S4 stroke grestore} bind def
/D5 {gsave translate 45 rotate 0 0 S5 stroke grestore} bind def
/D6 {gsave translate 45 rotate 0 0 S6 stroke grestore} bind def
/D7 {gsave translate 45 rotate 0 0 S7 stroke grestore} bind def
/D8 {gsave translate 45 rotate 0 0 S8 stroke grestore} bind def
/D9 {gsave translate 45 rotate 0 0 S9 stroke grestore} bind def
/D10 {gsave translate 45 rotate 0 0 S10 stroke grestore} bind def
/D11 {gsave translate 45 rotate 0 0 S11 stroke grestore} bind def
/D12 {gsave translate 45 rotate 0 0 S12 stroke grestore} bind def
/D13 {gsave translate 45 rotate 0 0 S13 stroke grestore} bind def
/D14 {gsave translate 45 rotate 0 0 S14 stroke grestore} bind def
/D15 {gsave translate 45 rotate 0 0 S15 stroke grestore} bind def
/DiaE {stroke [] 0 setdash vpt add M
  hpt neg vpt neg V hpt vpt neg V
  hpt vpt V hpt neg vpt V closepath stroke} def
/BoxE {stroke [] 0 setdash exch hpt sub exch vpt add M
  0 vpt2 neg V hpt2 0 V 0 vpt2 V
  hpt2 neg 0 V closepath stroke} def
/TriUE {stroke [] 0 setdash vpt 1.12 mul add M
  hpt neg vpt -1.62 mul V
  hpt 2 mul 0 V
  hpt neg vpt 1.62 mul V closepath stroke} def
/TriDE {stroke [] 0 setdash vpt 1.12 mul sub M
  hpt neg vpt 1.62 mul V
  hpt 2 mul 0 V
  hpt neg vpt -1.62 mul V closepath stroke} def
/PentE {stroke [] 0 setdash gsave
  translate 0 hpt M 4 {72 rotate 0 hpt L} repeat
  closepath stroke grestore} def
/CircE {stroke [] 0 setdash 
  hpt 0 360 arc stroke} def
/Opaque {gsave closepath 1 setgray fill grestore 0 setgray closepath} def
/DiaW {stroke [] 0 setdash vpt add M
  hpt neg vpt neg V hpt vpt neg V
  hpt vpt V hpt neg vpt V Opaque stroke} def
/BoxW {stroke [] 0 setdash exch hpt sub exch vpt add M
  0 vpt2 neg V hpt2 0 V 0 vpt2 V
  hpt2 neg 0 V Opaque stroke} def
/TriUW {stroke [] 0 setdash vpt 1.12 mul add M
  hpt neg vpt -1.62 mul V
  hpt 2 mul 0 V
  hpt neg vpt 1.62 mul V Opaque stroke} def
/TriDW {stroke [] 0 setdash vpt 1.12 mul sub M
  hpt neg vpt 1.62 mul V
  hpt 2 mul 0 V
  hpt neg vpt -1.62 mul V Opaque stroke} def
/PentW {stroke [] 0 setdash gsave
  translate 0 hpt M 4 {72 rotate 0 hpt L} repeat
  Opaque stroke grestore} def
/CircW {stroke [] 0 setdash 
  hpt 0 360 arc Opaque stroke} def
/BoxFill {gsave Rec 1 setgray fill grestore} def
/Density {
  /Fillden exch def
  currentrgbcolor
  /ColB exch def /ColG exch def /ColR exch def
  /ColR ColR Fillden mul Fillden sub 1 add def
  /ColG ColG Fillden mul Fillden sub 1 add def
  /ColB ColB Fillden mul Fillden sub 1 add def
  ColR ColG ColB setrgbcolor} def
/BoxColFill {gsave Rec PolyFill} def
/PolyFill {gsave Density fill grestore grestore} def
/h {rlineto rlineto rlineto gsave closepath fill grestore} bind def
%
% PostScript Level 1 Pattern Fill routine for rectangles
% Usage: x y w h s a XX PatternFill
%	x,y = lower left corner of box to be filled
%	w,h = width and height of box
%	  a = angle in degrees between lines and x-axis
%	 XX = 0/1 for no/yes cross-hatch
%
/PatternFill {gsave /PFa [ 9 2 roll ] def
  PFa 0 get PFa 2 get 2 div add PFa 1 get PFa 3 get 2 div add translate
  PFa 2 get -2 div PFa 3 get -2 div PFa 2 get PFa 3 get Rec
  TransparentPatterns {} {gsave 1 setgray fill grestore} ifelse
  clip
  currentlinewidth 0.5 mul setlinewidth
  /PFs PFa 2 get dup mul PFa 3 get dup mul add sqrt def
  0 0 M PFa 5 get rotate PFs -2 div dup translate
  0 1 PFs PFa 4 get div 1 add floor cvi
	{PFa 4 get mul 0 M 0 PFs V} for
  0 PFa 6 get ne {
	0 1 PFs PFa 4 get div 1 add floor cvi
	{PFa 4 get mul 0 2 1 roll M PFs 0 V} for
 } if
  stroke grestore} def
%
/languagelevel where
 {pop languagelevel} {1} ifelse
dup 2 lt
	{/InterpretLevel1 true def
	 /InterpretLevel3 false def}
	{/InterpretLevel1 Level1 def
	 2 gt
	    {/InterpretLevel3 Level3 def}
	    {/InterpretLevel3 false def}
	 ifelse }
 ifelse
%
% PostScript level 2 pattern fill definitions
%
/Level2PatternFill {
/Tile8x8 {/PaintType 2 /PatternType 1 /TilingType 1 /BBox [0 0 8 8] /XStep 8 /YStep 8}
	bind def
/KeepColor {currentrgbcolor [/Pattern /DeviceRGB] setcolorspace} bind def
<< Tile8x8
 /PaintProc {0.5 setlinewidth pop 0 0 M 8 8 L 0 8 M 8 0 L stroke} 
>> matrix makepattern
/Pat1 exch def
<< Tile8x8
 /PaintProc {0.5 setlinewidth pop 0 0 M 8 8 L 0 8 M 8 0 L stroke
	0 4 M 4 8 L 8 4 L 4 0 L 0 4 L stroke}
>> matrix makepattern
/Pat2 exch def
<< Tile8x8
 /PaintProc {0.5 setlinewidth pop 0 0 M 0 8 L
	8 8 L 8 0 L 0 0 L fill}
>> matrix makepattern
/Pat3 exch def
<< Tile8x8
 /PaintProc {0.5 setlinewidth pop -4 8 M 8 -4 L
	0 12 M 12 0 L stroke}
>> matrix makepattern
/Pat4 exch def
<< Tile8x8
 /PaintProc {0.5 setlinewidth pop -4 0 M 8 12 L
	0 -4 M 12 8 L stroke}
>> matrix makepattern
/Pat5 exch def
<< Tile8x8
 /PaintProc {0.5 setlinewidth pop -2 8 M 4 -4 L
	0 12 M 8 -4 L 4 12 M 10 0 L stroke}
>> matrix makepattern
/Pat6 exch def
<< Tile8x8
 /PaintProc {0.5 setlinewidth pop -2 0 M 4 12 L
	0 -4 M 8 12 L 4 -4 M 10 8 L stroke}
>> matrix makepattern
/Pat7 exch def
<< Tile8x8
 /PaintProc {0.5 setlinewidth pop 8 -2 M -4 4 L
	12 0 M -4 8 L 12 4 M 0 10 L stroke}
>> matrix makepattern
/Pat8 exch def
<< Tile8x8
 /PaintProc {0.5 setlinewidth pop 0 -2 M 12 4 L
	-4 0 M 12 8 L -4 4 M 8 10 L stroke}
>> matrix makepattern
/Pat9 exch def
/Pattern1 {PatternBgnd KeepColor Pat1 setpattern} bind def
/Pattern2 {PatternBgnd KeepColor Pat2 setpattern} bind def
/Pattern3 {PatternBgnd KeepColor Pat3 setpattern} bind def
/Pattern4 {PatternBgnd KeepColor Landscape {Pat5} {Pat4} ifelse setpattern} bind def
/Pattern5 {PatternBgnd KeepColor Landscape {Pat4} {Pat5} ifelse setpattern} bind def
/Pattern6 {PatternBgnd KeepColor Landscape {Pat9} {Pat6} ifelse setpattern} bind def
/Pattern7 {PatternBgnd KeepColor Landscape {Pat8} {Pat7} ifelse setpattern} bind def
} def
%
%
%End of PostScript Level 2 code
%
/PatternBgnd {
  TransparentPatterns {} {gsave 1 setgray fill grestore} ifelse
} def
%
% Substitute for Level 2 pattern fill codes with
% grayscale if Level 2 support is not selected.
%
/Level1PatternFill {
/Pattern1 {0.250 Density} bind def
/Pattern2 {0.500 Density} bind def
/Pattern3 {0.750 Density} bind def
/Pattern4 {0.125 Density} bind def
/Pattern5 {0.375 Density} bind def
/Pattern6 {0.625 Density} bind def
/Pattern7 {0.875 Density} bind def
} def
%
% Now test for support of Level 2 code
%
Level1 {Level1PatternFill} {Level2PatternFill} ifelse
%
/Symbol-Oblique /Symbol findfont [1 0 .167 1 0 0] makefont
dup length dict begin {1 index /FID eq {pop pop} {def} ifelse} forall
currentdict end definefont pop
%
/MFshow {
   { dup 5 get 3 ge
     { 5 get 3 eq {gsave} {grestore} ifelse }
     {dup dup 0 get findfont exch 1 get scalefont setfont
     [ currentpoint ] exch dup 2 get 0 exch R dup 5 get 2 ne {dup dup 6
     get exch 4 get {textshow} {stringwidth pop 0 R} ifelse }if dup 5 get 0 eq
     {dup 3 get {2 get neg 0 exch R pop} {pop aload pop M} ifelse} {dup 5
     get 1 eq {dup 2 get exch dup 3 get exch 6 get stringwidth pop -2 div
     dup 0 R} {dup 6 get stringwidth pop -2 div 0 R 6 get
     textshow 2 index {aload pop M neg 3 -1 roll neg R pop pop} {pop pop pop
     pop aload pop M} ifelse }ifelse }ifelse }
     ifelse }
   forall} def
/Gswidth {dup type /stringtype eq {stringwidth} {pop (n) stringwidth} ifelse} def
/MFwidth {0 exch { dup 5 get 3 ge { 5 get 3 eq { 0 } { pop } ifelse }
 {dup 3 get{dup dup 0 get findfont exch 1 get scalefont setfont
     6 get Gswidth pop add} {pop} ifelse} ifelse} forall} def
/MLshow { currentpoint stroke M
  0 exch R
  Blacktext {gsave 0 setgray MFshow grestore} {MFshow} ifelse } bind def
/MRshow { currentpoint stroke M
  exch dup MFwidth neg 3 -1 roll R
  Blacktext {gsave 0 setgray MFshow grestore} {MFshow} ifelse } bind def
/MCshow { currentpoint stroke M
  exch dup MFwidth -2 div 3 -1 roll R
  Blacktext {gsave 0 setgray MFshow grestore} {MFshow} ifelse } bind def
/XYsave    { [( ) 1 2 true false 3 ()] } bind def
/XYrestore { [( ) 1 2 true false 4 ()] } bind def
Level1 SuppressPDFMark or 
{} {
/SDict 10 dict def
systemdict /pdfmark known not {
  userdict /pdfmark systemdict /cleartomark get put
} if
SDict begin [
  /Title (EOS_SNM_ST_fit.eps)
  /Subject (gnuplot plot)
  /Creator (gnuplot 5.0 patchlevel 3)
  /Author (kb2)
%  /Producer (gnuplot)
%  /Keywords ()
  /CreationDate (Mon May 22 15:51:08 2017)
  /DOCINFO pdfmark
end
} ifelse
%
% Support for boxed text - Ethan A Merritt May 2005
%
/InitTextBox { userdict /TBy2 3 -1 roll put userdict /TBx2 3 -1 roll put
           userdict /TBy1 3 -1 roll put userdict /TBx1 3 -1 roll put
	   /Boxing true def } def
/ExtendTextBox { Boxing
    { gsave dup false charpath pathbbox
      dup TBy2 gt {userdict /TBy2 3 -1 roll put} {pop} ifelse
      dup TBx2 gt {userdict /TBx2 3 -1 roll put} {pop} ifelse
      dup TBy1 lt {userdict /TBy1 3 -1 roll put} {pop} ifelse
      dup TBx1 lt {userdict /TBx1 3 -1 roll put} {pop} ifelse
      grestore } if } def
/PopTextBox { newpath TBx1 TBxmargin sub TBy1 TBymargin sub M
               TBx1 TBxmargin sub TBy2 TBymargin add L
	       TBx2 TBxmargin add TBy2 TBymargin add L
	       TBx2 TBxmargin add TBy1 TBymargin sub L closepath } def
/DrawTextBox { PopTextBox stroke /Boxing false def} def
/FillTextBox { gsave PopTextBox 1 1 1 setrgbcolor fill grestore /Boxing false def} def
0 0 0 0 InitTextBox
/TBxmargin 20 def
/TBymargin 20 def
/Boxing false def
/textshow { ExtendTextBox Gshow } def
%
% redundant definitions for compatibility with prologue.ps older than 5.0.2
/LTB {BL [] LCb DL} def
/LTb {PL [] LCb DL} def
end
%%EndProlog
%%Page: 1 1
gnudict begin
gsave
doclip
50 50 translate
0.100 0.100 scale
90 rotate
0 -5040 translate
0 setgray
newpath
(Helvetica) findfont 120 scalefont setfont
BackgroundColor 0 lt 3 1 roll 0 lt exch 0 lt or or not {gsave BackgroundColor C clippath fill grestore} if
1.000 UL
LTb
LCb setrgbcolor
1.000 UL
LTa
0.50 0.50 0.50 C 720 2772 M
2879 0 V
stroke
LTb
LCb setrgbcolor
720 2772 M
63 0 V
2816 0 R
-63 0 V
stroke
648 2772 M
[ [(Helvetica) 120.0 0.0 true true 0 (0)]
] -40.0 MRshow
1.000 UL
LTb
LCb setrgbcolor
1.000 UL
LTa
0.50 0.50 0.50 C 720 2992 M
2879 0 V
stroke
LTb
LCb setrgbcolor
720 2992 M
63 0 V
2816 0 R
-63 0 V
stroke
648 2992 M
[ [(Helvetica) 120.0 0.0 true true 0 (5)]
] -40.0 MRshow
1.000 UL
LTb
LCb setrgbcolor
1.000 UL
LTa
0.50 0.50 0.50 C 720 3213 M
2879 0 V
stroke
LTb
LCb setrgbcolor
720 3213 M
63 0 V
2816 0 R
-63 0 V
stroke
648 3213 M
[ [(Helvetica) 120.0 0.0 true true 0 (10)]
] -40.0 MRshow
1.000 UL
LTb
LCb setrgbcolor
1.000 UL
LTa
0.50 0.50 0.50 C 720 3433 M
2879 0 V
stroke
LTb
LCb setrgbcolor
720 3433 M
63 0 V
2816 0 R
-63 0 V
stroke
648 3433 M
[ [(Helvetica) 120.0 0.0 true true 0 (15)]
] -40.0 MRshow
1.000 UL
LTb
LCb setrgbcolor
1.000 UL
LTa
0.50 0.50 0.50 C 720 3654 M
2879 0 V
stroke
LTb
LCb setrgbcolor
720 3654 M
63 0 V
2816 0 R
-63 0 V
stroke
648 3654 M
[ [(Helvetica) 120.0 0.0 true true 0 (20)]
] -40.0 MRshow
1.000 UL
LTb
LCb setrgbcolor
1.000 UL
LTa
0.50 0.50 0.50 C 720 3874 M
2879 0 V
stroke
LTb
LCb setrgbcolor
720 3874 M
63 0 V
2816 0 R
-63 0 V
stroke
648 3874 M
[ [(Helvetica) 120.0 0.0 true true 0 (25)]
] -40.0 MRshow
1.000 UL
LTb
LCb setrgbcolor
1.000 UL
LTa
0.50 0.50 0.50 C 720 4094 M
2879 0 V
stroke
LTb
LCb setrgbcolor
720 4094 M
63 0 V
2816 0 R
-63 0 V
stroke
648 4094 M
[ [(Helvetica) 120.0 0.0 true true 0 (30)]
] -40.0 MRshow
1.000 UL
LTb
LCb setrgbcolor
1.000 UL
LTa
0.50 0.50 0.50 C 720 4315 M
2879 0 V
stroke
LTb
LCb setrgbcolor
720 4315 M
63 0 V
2816 0 R
-63 0 V
stroke
648 4315 M
[ [(Helvetica) 120.0 0.0 true true 0 (35)]
] -40.0 MRshow
1.000 UL
LTb
LCb setrgbcolor
1.000 UL
LTa
0.50 0.50 0.50 C 720 4535 M
2879 0 V
stroke
LTb
LCb setrgbcolor
720 4535 M
63 0 V
2816 0 R
-63 0 V
stroke
648 4535 M
[ [(Helvetica) 120.0 0.0 true true 0 (40)]
] -40.0 MRshow
1.000 UL
LTb
LCb setrgbcolor
1.000 UL
LTa
0.50 0.50 0.50 C 720 2772 M
0 1763 V
stroke
LTb
LCb setrgbcolor
720 2772 M
0 63 V
0 1700 R
0 -63 V
stroke
LTb
LCb setrgbcolor
1.000 UL
LTa
0.50 0.50 0.50 C 1296 2772 M
0 1763 V
stroke
LTb
LCb setrgbcolor
1296 2772 M
0 63 V
0 1700 R
0 -63 V
stroke
LTb
LCb setrgbcolor
1.000 UL
LTa
0.50 0.50 0.50 C 1872 2772 M
0 1763 V
stroke
LTb
LCb setrgbcolor
1872 2772 M
0 63 V
0 1700 R
0 -63 V
stroke
LTb
LCb setrgbcolor
1.000 UL
LTa
0.50 0.50 0.50 C 2447 2772 M
0 1763 V
stroke
LTb
LCb setrgbcolor
2447 2772 M
0 63 V
0 1700 R
0 -63 V
stroke
LTb
LCb setrgbcolor
1.000 UL
LTa
0.50 0.50 0.50 C 3023 2772 M
0 1763 V
stroke
LTb
LCb setrgbcolor
3023 2772 M
0 63 V
0 1700 R
0 -63 V
stroke
LTb
LCb setrgbcolor
1.000 UL
LTB
LCb setrgbcolor
720 4535 N
0 -1763 V
2879 0 V
0 1763 V
-2879 0 V
Z stroke
1.000 UP
1.000 UL
LTb
LCb setrgbcolor
LCb setrgbcolor
372 3653 M
currentpoint gsave translate -270 rotate 0 0 moveto
[ [(Helvetica) 120.0 0.0 true true 0 ( \(S=0,T=0\))]
] -40.0 MCshow
grestore
LTb
% Begin plot #1
1.000 UP
1.000 UL
LTb
0.91 0.59 0.48 C 820 2801 CircleF
862 2818 CircleF
914 2841 CircleF
979 2872 CircleF
1056 2912 CircleF
1147 2964 CircleF
1254 3028 CircleF
1376 3106 CircleF
1517 3199 CircleF
1675 3309 CircleF
1854 3434 CircleF
2054 3573 CircleF
2276 3722 CircleF
2521 3874 CircleF
2791 4020 CircleF
3086 4144 CircleF
% End plot #1
% Begin plot #2
2.000 UL
LTb
0.91 0.59 0.48 C 720 2772 M
1 0 V
1 0 V
1 0 V
1 0 V
1 0 V
1 0 V
1 0 V
1 0 V
1 0 V
1 0 V
1 0 V
1 1 V
1 0 V
1 0 V
1 0 V
2 0 V
1 0 V
1 0 V
1 0 V
2 0 V
1 1 V
1 0 V
2 0 V
1 0 V
2 0 V
2 1 V
1 0 V
2 0 V
2 0 V
2 1 V
2 0 V
2 0 V
2 1 V
2 0 V
3 0 V
2 1 V
2 0 V
3 1 V
2 0 V
3 1 V
3 1 V
3 0 V
3 1 V
3 0 V
3 1 V
3 1 V
3 1 V
3 1 V
4 1 V
3 0 V
4 1 V
4 2 V
3 1 V
4 1 V
4 1 V
4 1 V
4 1 V
5 2 V
4 1 V
5 2 V
4 1 V
5 2 V
5 2 V
4 1 V
5 2 V
6 2 V
5 2 V
5 2 V
5 2 V
6 2 V
6 3 V
5 2 V
6 2 V
6 3 V
7 3 V
6 2 V
6 3 V
7 3 V
6 3 V
7 3 V
7 3 V
7 4 V
7 3 V
7 4 V
8 3 V
7 4 V
8 4 V
8 4 V
7 4 V
9 4 V
8 5 V
8 4 V
9 5 V
8 4 V
9 5 V
9 5 V
9 5 V
9 6 V
9 5 V
10 6 V
9 5 V
10 6 V
10 6 V
10 6 V
stroke 1167 2955 M
11 7 V
10 6 V
10 7 V
11 6 V
11 7 V
11 7 V
11 8 V
12 7 V
11 7 V
12 8 V
12 8 V
12 8 V
12 8 V
12 9 V
13 8 V
12 9 V
13 9 V
13 9 V
14 9 V
13 9 V
14 10 V
13 9 V
14 10 V
14 10 V
15 11 V
14 10 V
15 11 V
15 10 V
15 11 V
15 11 V
15 11 V
16 12 V
16 11 V
16 12 V
16 12 V
16 12 V
17 12 V
16 12 V
17 13 V
18 13 V
17 12 V
17 13 V
18 14 V
18 13 V
18 13 V
19 14 V
18 13 V
19 14 V
19 14 V
19 14 V
20 14 V
19 14 V
20 15 V
20 14 V
21 15 V
20 14 V
21 15 V
21 15 V
21 15 V
21 15 V
22 15 V
22 15 V
22 15 V
22 15 V
23 15 V
23 15 V
23 15 V
23 15 V
23 16 V
24 15 V
24 15 V
24 15 V
24 15 V
25 15 V
25 15 V
25 15 V
25 14 V
26 15 V
26 15 V
26 14 V
26 14 V
27 14 V
27 14 V
27 14 V
27 13 V
28 14 V
28 13 V
28 12 V
28 13 V
29 12 V
29 12 V
29 12 V
29 11 V
30 11 V
30 10 V
30 10 V
30 10 V
31 9 V
31 9 V
31 8 V
32 8 V
32 7 V
32 7 V
32 6 V
stroke 3276 4176 M
33 6 V
33 4 V
33 4 V
33 4 V
% End plot #2
% Begin plot #3
1.000 UP
stroke
1.000 UL
LTb
0.55 0.00 0.00 C 979 2872 TriUF
1056 2909 TriUF
1147 2954 TriUF
1254 3005 TriUF
1376 3067 TriUF
1517 3134 TriUF
1675 3209 TriUF
% End plot #3
% Begin plot #4
2.000 UL
LTb
0.55 0.00 0.00 C 744 2774 M
18 3 V
25 6 V
33 10 V
42 15 V
52 22 V
65 31 V
77 40 V
91 49 V
107 59 V
122 65 V
141 67 V
158 61 V
179 45 V
200 13 V
222 -42 V
245 -124 V
270 -242 V
58 -80 V
% End plot #4
% Begin plot #5
1.000 UP
stroke
1.000 UL
LTb
0.33 0.42 0.18 C 820 2797 DiaF
862 2813 DiaF
914 2796 DiaF
979 2884 DiaF
1056 2956 DiaF
1147 3022 DiaF
1254 3132 DiaF
1376 3237 DiaF
1517 3403 DiaF
1675 3591 DiaF
1854 3796 DiaF
2054 4045 DiaF
2276 4272 DiaF
% End plot #5
% Begin plot #6
2.000 UL
LTb
0.33 0.42 0.18 C 720 2772 M
1 0 V
1 0 V
1 0 V
1 0 V
1 0 V
1 0 V
1 0 V
1 0 V
1 0 V
1 1 V
1 0 V
1 0 V
1 0 V
1 0 V
1 0 V
2 0 V
1 1 V
1 0 V
1 0 V
2 0 V
1 0 V
1 1 V
2 0 V
1 0 V
2 0 V
2 1 V
1 0 V
2 0 V
2 1 V
2 0 V
2 1 V
2 0 V
2 1 V
2 0 V
3 1 V
2 1 V
2 0 V
3 1 V
2 1 V
3 1 V
3 0 V
3 1 V
3 1 V
3 1 V
3 1 V
3 1 V
3 2 V
3 1 V
4 1 V
3 1 V
4 2 V
4 1 V
3 2 V
4 2 V
4 1 V
4 2 V
4 2 V
5 2 V
4 2 V
5 2 V
4 3 V
5 2 V
5 2 V
4 3 V
5 3 V
6 2 V
5 3 V
5 3 V
5 3 V
6 4 V
6 3 V
5 3 V
6 4 V
6 4 V
7 4 V
6 4 V
6 4 V
7 4 V
6 4 V
7 5 V
7 5 V
7 5 V
7 5 V
7 5 V
8 5 V
7 6 V
8 6 V
8 6 V
7 6 V
9 6 V
8 6 V
8 7 V
9 7 V
8 7 V
9 7 V
9 8 V
9 7 V
9 8 V
9 8 V
10 9 V
9 8 V
10 9 V
10 9 V
10 9 V
stroke 1167 3043 M
11 10 V
10 9 V
10 10 V
11 10 V
11 11 V
11 10 V
11 11 V
12 11 V
11 12 V
12 11 V
12 12 V
12 12 V
12 13 V
12 12 V
13 13 V
12 14 V
13 13 V
13 14 V
14 14 V
13 14 V
14 15 V
13 15 V
14 15 V
14 15 V
15 16 V
14 16 V
15 16 V
15 17 V
15 17 V
15 17 V
15 17 V
16 18 V
16 18 V
16 18 V
16 19 V
16 19 V
17 19 V
16 19 V
17 20 V
18 20 V
17 20 V
17 21 V
18 20 V
18 21 V
18 22 V
19 21 V
18 22 V
19 22 V
19 23 V
19 22 V
20 23 V
19 23 V
20 24 V
20 23 V
21 24 V
20 24 V
21 24 V
21 25 V
21 24 V
21 25 V
22 25 V
22 26 V
22 25 V
22 25 V
23 26 V
23 26 V
23 26 V
23 26 V
23 26 V
24 27 V
24 26 V
24 27 V
24 26 V
25 27 V
25 27 V
25 27 V
25 26 V
12 13 V
% End plot #6
stroke
LTb
LCb setrgbcolor
1.000 UL
LTB
LCb setrgbcolor
720 4535 N
0 -1763 V
2879 0 V
0 1763 V
-2879 0 V
Z stroke
1.000 UP
1.000 UL
LTb
LCb setrgbcolor
1.000 UL
LTb
LCb setrgbcolor
1.000 UL
LTa
0.50 0.50 0.50 C 3600 2772 M
2879 0 V
stroke
LTb
LCb setrgbcolor
3600 2772 M
63 0 V
2816 0 R
-63 0 V
stroke
LTb
LCb setrgbcolor
1.000 UL
LTa
0.50 0.50 0.50 C 3600 2992 M
2879 0 V
stroke
LTb
LCb setrgbcolor
3600 2992 M
63 0 V
2816 0 R
-63 0 V
stroke
LTb
LCb setrgbcolor
1.000 UL
LTa
0.50 0.50 0.50 C 3600 3213 M
2879 0 V
stroke
LTb
LCb setrgbcolor
3600 3213 M
63 0 V
2816 0 R
-63 0 V
stroke
LTb
LCb setrgbcolor
1.000 UL
LTa
0.50 0.50 0.50 C 3600 3433 M
2879 0 V
stroke
LTb
LCb setrgbcolor
3600 3433 M
63 0 V
2816 0 R
-63 0 V
stroke
LTb
LCb setrgbcolor
1.000 UL
LTa
0.50 0.50 0.50 C 3600 3654 M
2879 0 V
stroke
LTb
LCb setrgbcolor
3600 3654 M
63 0 V
2816 0 R
-63 0 V
stroke
LTb
LCb setrgbcolor
1.000 UL
LTa
0.50 0.50 0.50 C 3600 3874 M
2879 0 V
stroke
LTb
LCb setrgbcolor
3600 3874 M
63 0 V
2816 0 R
-63 0 V
stroke
LTb
LCb setrgbcolor
1.000 UL
LTa
0.50 0.50 0.50 C 3600 4094 M
297 0 V
855 0 R
1727 0 V
stroke
LTb
LCb setrgbcolor
3600 4094 M
63 0 V
2816 0 R
-63 0 V
stroke
LTb
LCb setrgbcolor
1.000 UL
LTa
0.50 0.50 0.50 C 3600 4315 M
297 0 V
855 0 R
1727 0 V
stroke
LTb
LCb setrgbcolor
3600 4315 M
63 0 V
2816 0 R
-63 0 V
stroke
LTb
LCb setrgbcolor
1.000 UL
LTa
0.50 0.50 0.50 C 3600 4535 M
2879 0 V
stroke
LTb
LCb setrgbcolor
3600 4535 M
63 0 V
2816 0 R
-63 0 V
stroke
LTb
LCb setrgbcolor
1.000 UL
LTa
0.50 0.50 0.50 C 3600 2772 M
0 1763 V
stroke
LTb
LCb setrgbcolor
3600 2772 M
0 63 V
0 1700 R
0 -63 V
stroke
LTb
LCb setrgbcolor
1.000 UL
LTa
0.50 0.50 0.50 C 4176 2772 M
0 1227 V
0 360 R
0 176 V
stroke
LTb
LCb setrgbcolor
4176 2772 M
0 63 V
0 1700 R
0 -63 V
stroke
LTb
LCb setrgbcolor
1.000 UL
LTa
0.50 0.50 0.50 C 4752 2772 M
0 1763 V
stroke
LTb
LCb setrgbcolor
4752 2772 M
0 63 V
0 1700 R
0 -63 V
stroke
LTb
LCb setrgbcolor
1.000 UL
LTa
0.50 0.50 0.50 C 5327 2772 M
0 1763 V
stroke
LTb
LCb setrgbcolor
5327 2772 M
0 63 V
0 1700 R
0 -63 V
stroke
LTb
LCb setrgbcolor
1.000 UL
LTa
0.50 0.50 0.50 C 5903 2772 M
0 1763 V
stroke
LTb
LCb setrgbcolor
5903 2772 M
0 63 V
0 1700 R
0 -63 V
stroke
LTb
LCb setrgbcolor
6479 2772 M
-63 0 V
stroke
6551 2772 M
[ [(Helvetica) 120.0 0.0 true true 0 ( 0)]
] -40.0 MLshow
1.000 UL
LTb
LCb setrgbcolor
6479 2992 M
-63 0 V
stroke
6551 2992 M
[ [(Helvetica) 120.0 0.0 true true 0 ( 5)]
] -40.0 MLshow
1.000 UL
LTb
LCb setrgbcolor
6479 3213 M
-63 0 V
stroke
6551 3213 M
[ [(Helvetica) 120.0 0.0 true true 0 ( 10)]
] -40.0 MLshow
1.000 UL
LTb
LCb setrgbcolor
6479 3433 M
-63 0 V
stroke
6551 3433 M
[ [(Helvetica) 120.0 0.0 true true 0 ( 15)]
] -40.0 MLshow
1.000 UL
LTb
LCb setrgbcolor
6479 3654 M
-63 0 V
stroke
6551 3654 M
[ [(Helvetica) 120.0 0.0 true true 0 ( 20)]
] -40.0 MLshow
1.000 UL
LTb
LCb setrgbcolor
6479 3874 M
-63 0 V
stroke
6551 3874 M
[ [(Helvetica) 120.0 0.0 true true 0 ( 25)]
] -40.0 MLshow
1.000 UL
LTb
LCb setrgbcolor
6479 4094 M
-63 0 V
stroke
6551 4094 M
[ [(Helvetica) 120.0 0.0 true true 0 ( 30)]
] -40.0 MLshow
1.000 UL
LTb
LCb setrgbcolor
6479 4315 M
-63 0 V
stroke
6551 4315 M
[ [(Helvetica) 120.0 0.0 true true 0 ( 35)]
] -40.0 MLshow
1.000 UL
LTb
LCb setrgbcolor
6479 4535 M
-63 0 V
stroke
6551 4535 M
[ [(Helvetica) 120.0 0.0 true true 0 ( 40)]
] -40.0 MLshow
1.000 UL
LTb
LCb setrgbcolor
1.000 UL
LTB
LCb setrgbcolor
3600 4535 N
0 -1763 V
2879 0 V
0 1763 V
-2879 0 V
Z stroke
1.000 UP
1.000 UL
LTb
LCb setrgbcolor
LCb setrgbcolor
6898 3653 M
currentpoint gsave translate -270 rotate 0 0 moveto
[ [(Helvetica) 120.0 0.0 true true 0 (\(S=1,T=1\))]
] -40.0 MCshow
grestore
LTb
1.000 UL
LTb
LCb setrgbcolor
3897 3999 N
0 360 V
855 0 V
0 -360 V
-855 0 V
Z stroke
% Begin plot #1
1.000 UP
1.000 UL
LTb
0.91 0.59 0.48 C LCb setrgbcolor
4257 4299 M
[ [(Helvetica) 120.0 0.0 true true 0 (BHF)]
] -40.0 MRshow
1.000 UP
1.000 UL
LTb
0.91 0.59 0.48 C 4134 2782 CircleF
4256 2813 CircleF
4397 2865 CircleF
4555 2944 CircleF
4734 3057 CircleF
4934 3217 CircleF
5156 3435 CircleF
5401 3714 CircleF
5671 4073 CircleF
5966 4533 CircleF
4504 4299 CircleF
% End plot #1
% Begin plot #2
2.000 UL
LTb
0.91 0.59 0.48 C 3600 2772 M
138 0 R
4 0 V
5 0 V
4 0 V
5 0 V
6 0 V
5 1 V
5 0 V
5 0 V
6 0 V
6 0 V
5 0 V
6 0 V
6 1 V
7 0 V
6 0 V
6 0 V
7 1 V
6 0 V
7 0 V
7 1 V
7 0 V
7 1 V
7 0 V
8 0 V
7 1 V
8 1 V
8 0 V
7 1 V
9 0 V
8 1 V
8 1 V
9 1 V
8 1 V
9 0 V
9 1 V
9 1 V
9 2 V
9 1 V
10 1 V
9 1 V
10 2 V
10 1 V
10 1 V
11 2 V
10 2 V
10 1 V
11 2 V
11 2 V
11 2 V
11 2 V
12 3 V
11 2 V
12 3 V
12 2 V
12 3 V
12 3 V
12 3 V
13 3 V
12 3 V
13 4 V
13 3 V
14 4 V
13 4 V
14 4 V
13 4 V
14 5 V
14 5 V
15 5 V
14 5 V
15 5 V
15 6 V
15 5 V
15 6 V
15 7 V
16 6 V
16 7 V
16 7 V
16 7 V
16 8 V
17 8 V
16 8 V
17 9 V
18 9 V
17 9 V
17 9 V
18 10 V
18 11 V
18 10 V
19 12 V
18 11 V
19 12 V
19 12 V
19 13 V
20 13 V
19 14 V
20 14 V
20 15 V
21 15 V
20 16 V
21 17 V
21 16 V
21 18 V
21 18 V
stroke 4976 3239 M
22 19 V
22 19 V
22 20 V
22 21 V
23 21 V
23 22 V
23 23 V
23 23 V
23 24 V
24 25 V
24 26 V
24 26 V
24 28 V
25 28 V
25 29 V
25 30 V
25 31 V
26 32 V
26 33 V
26 34 V
26 35 V
27 36 V
27 37 V
27 38 V
27 39 V
28 40 V
28 42 V
28 43 V
28 44 V
29 45 V
29 47 V
29 47 V
29 50 V
30 50 V
30 52 V
30 54 V
30 55 V
16 28 V
% End plot #2
% Begin plot #3
1.000 UP
stroke
1.000 UL
LTb
0.55 0.00 0.00 C LCb setrgbcolor
4257 4179 M
[ [(Symbol) 120.0 0.0 true true 0 (c)]
[(Helvetica) 120.0 0.0 true true 0 (-EFT)]
] -40.0 MRshow
1.000 UP
1.000 UL
LTb
0.55 0.00 0.00 C 3859 2829 TriUF
3936 2866 TriUF
4027 2922 TriUF
4134 3002 TriUF
4256 3115 TriUF
4397 3262 TriUF
4555 3454 TriUF
4504 4179 TriUF
% End plot #3
% Begin plot #4
2.000 UL
LTb
0.55 0.00 0.00 C 3624 2773 M
18 2 V
25 3 V
33 5 V
42 10 V
52 16 V
65 25 V
77 37 V
91 54 V
107 77 V
122 108 V
141 148 V
158 200 V
179 266 V
200 351 V
222 456 V
1 4 V
% End plot #4
% Begin plot #5
1.000 UP
stroke
1.000 UL
LTb
0.33 0.42 0.18 C LCb setrgbcolor
4257 4059 M
[ [(Helvetica) 120.0 0.0 true true 0 (MBTP)]
] -40.0 MRshow
1.000 UP
1.000 UL
LTb
0.33 0.42 0.18 C 3936 2775 DiaF
4027 2787 DiaF
4134 2814 DiaF
4256 2854 DiaF
4397 2906 DiaF
4555 2976 DiaF
4734 3057 DiaF
4934 3157 DiaF
5156 3258 DiaF
4504 4059 DiaF
% End plot #5
% Begin plot #6
2.000 UL
LTb
0.33 0.42 0.18 C 3600 2772 M
1 0 V
1 0 V
1 0 V
1 0 V
1 0 V
1 0 V
1 0 V
1 0 V
1 0 V
1 0 V
1 0 V
1 0 V
1 0 V
1 0 V
1 0 V
2 0 V
1 0 V
1 0 V
1 0 V
2 0 V
1 0 V
1 0 V
2 0 V
1 0 V
2 0 V
2 0 V
1 0 V
2 0 V
2 0 V
2 0 V
2 0 V
2 1 V
2 0 V
2 0 V
3 0 V
2 0 V
2 0 V
3 0 V
2 0 V
3 0 V
3 0 V
3 0 V
3 0 V
3 0 V
3 1 V
3 0 V
3 0 V
3 0 V
4 0 V
3 0 V
4 0 V
4 1 V
3 0 V
4 0 V
4 0 V
4 0 V
4 1 V
5 0 V
4 0 V
5 0 V
4 1 V
5 0 V
5 0 V
4 0 V
5 1 V
6 0 V
5 0 V
5 1 V
5 0 V
6 1 V
6 0 V
5 1 V
6 0 V
6 1 V
7 0 V
6 1 V
6 0 V
7 1 V
6 1 V
7 0 V
7 1 V
7 1 V
7 0 V
7 1 V
8 1 V
7 1 V
8 1 V
8 1 V
7 1 V
9 1 V
8 1 V
8 1 V
9 1 V
8 1 V
9 2 V
9 1 V
9 1 V
9 2 V
9 1 V
10 2 V
9 1 V
10 2 V
10 2 V
10 2 V
stroke 4047 2814 M
11 1 V
10 2 V
10 2 V
11 3 V
11 2 V
11 2 V
11 2 V
12 3 V
11 2 V
12 3 V
12 2 V
12 3 V
12 3 V
12 3 V
13 3 V
12 3 V
13 4 V
13 3 V
14 4 V
13 3 V
14 4 V
13 4 V
14 4 V
14 4 V
15 5 V
14 4 V
15 5 V
15 5 V
15 5 V
15 5 V
15 5 V
16 6 V
16 5 V
16 6 V
16 6 V
16 6 V
17 7 V
16 6 V
17 7 V
18 7 V
17 7 V
17 8 V
18 7 V
18 8 V
18 8 V
19 9 V
18 8 V
19 9 V
19 9 V
19 10 V
20 9 V
19 10 V
20 11 V
20 10 V
21 11 V
20 11 V
21 12 V
21 12 V
21 12 V
21 13 V
22 12 V
22 14 V
22 13 V
22 14 V
23 15 V
23 14 V
23 16 V
23 15 V
23 16 V
24 17 V
24 17 V
24 17 V
24 18 V
25 18 V
25 19 V
25 19 V
25 20 V
26 21 V
26 20 V
26 22 V
26 22 V
27 22 V
27 23 V
27 24 V
27 25 V
28 24 V
28 26 V
28 26 V
28 27 V
29 28 V
29 28 V
29 29 V
29 29 V
30 31 V
30 31 V
30 32 V
30 32 V
31 34 V
31 34 V
31 35 V
32 36 V
32 37 V
32 38 V
32 38 V
stroke 6156 4215 M
33 40 V
33 40 V
33 41 V
33 43 V
% End plot #6
stroke
LTb
LCb setrgbcolor
1.000 UL
LTB
LCb setrgbcolor
3600 4535 N
0 -1763 V
2879 0 V
0 1763 V
-2879 0 V
Z stroke
1.000 UP
1.000 UL
LTb
LCb setrgbcolor
1.000 UL
LTb
LCb setrgbcolor
1.000 UL
LTa
0.50 0.50 0.50 C 720 1168 M
2879 0 V
stroke
LTb
LCb setrgbcolor
720 1168 M
63 0 V
2816 0 R
-63 0 V
stroke
648 1168 M
[ [(Helvetica) 120.0 0.0 true true 0 (-40)]
] -40.0 MRshow
1.000 UL
LTb
LCb setrgbcolor
1.000 UL
LTa
0.50 0.50 0.50 C 720 1369 M
2879 0 V
stroke
LTb
LCb setrgbcolor
720 1369 M
63 0 V
2816 0 R
-63 0 V
stroke
648 1369 M
[ [(Helvetica) 120.0 0.0 true true 0 (-35)]
] -40.0 MRshow
1.000 UL
LTb
LCb setrgbcolor
1.000 UL
LTa
0.50 0.50 0.50 C 720 1569 M
2879 0 V
stroke
LTb
LCb setrgbcolor
720 1569 M
63 0 V
2816 0 R
-63 0 V
stroke
648 1569 M
[ [(Helvetica) 120.0 0.0 true true 0 (-30)]
] -40.0 MRshow
1.000 UL
LTb
LCb setrgbcolor
1.000 UL
LTa
0.50 0.50 0.50 C 720 1769 M
2879 0 V
stroke
LTb
LCb setrgbcolor
720 1769 M
63 0 V
2816 0 R
-63 0 V
stroke
648 1769 M
[ [(Helvetica) 120.0 0.0 true true 0 (-25)]
] -40.0 MRshow
1.000 UL
LTb
LCb setrgbcolor
1.000 UL
LTa
0.50 0.50 0.50 C 720 1970 M
2879 0 V
stroke
LTb
LCb setrgbcolor
720 1970 M
63 0 V
2816 0 R
-63 0 V
stroke
648 1970 M
[ [(Helvetica) 120.0 0.0 true true 0 (-20)]
] -40.0 MRshow
1.000 UL
LTb
LCb setrgbcolor
1.000 UL
LTa
0.50 0.50 0.50 C 720 2170 M
2879 0 V
stroke
LTb
LCb setrgbcolor
720 2170 M
63 0 V
2816 0 R
-63 0 V
stroke
648 2170 M
[ [(Helvetica) 120.0 0.0 true true 0 (-15)]
] -40.0 MRshow
1.000 UL
LTb
LCb setrgbcolor
1.000 UL
LTa
0.50 0.50 0.50 C 720 2370 M
2879 0 V
stroke
LTb
LCb setrgbcolor
720 2370 M
63 0 V
2816 0 R
-63 0 V
stroke
648 2370 M
[ [(Helvetica) 120.0 0.0 true true 0 (-10)]
] -40.0 MRshow
1.000 UL
LTb
LCb setrgbcolor
1.000 UL
LTa
0.50 0.50 0.50 C 720 2571 M
2879 0 V
stroke
LTb
LCb setrgbcolor
720 2571 M
63 0 V
2816 0 R
-63 0 V
stroke
648 2571 M
[ [(Helvetica) 120.0 0.0 true true 0 (-5)]
] -40.0 MRshow
1.000 UL
LTb
LCb setrgbcolor
1.000 UL
LTa
0.50 0.50 0.50 C 720 2771 M
2879 0 V
stroke
LTb
LCb setrgbcolor
720 2771 M
63 0 V
2816 0 R
-63 0 V
stroke
648 2771 M
[ [(Helvetica) 120.0 0.0 true true 0 (0)]
] -40.0 MRshow
1.000 UL
LTb
LCb setrgbcolor
1.000 UL
LTa
0.50 0.50 0.50 C 720 1008 M
0 1763 V
stroke
LTb
LCb setrgbcolor
720 1008 M
0 63 V
0 1700 R
0 -63 V
stroke
720 888 M
[ [(Helvetica) 120.0 0.0 true true 0 (0)]
] -40.0 MCshow
1.000 UL
LTb
LCb setrgbcolor
1.000 UL
LTa
0.50 0.50 0.50 C 1296 1008 M
0 1763 V
stroke
LTb
LCb setrgbcolor
1296 1008 M
0 63 V
0 1700 R
0 -63 V
stroke
1296 888 M
[ [(Helvetica) 120.0 0.0 true true 0 (0.2)]
] -40.0 MCshow
1.000 UL
LTb
LCb setrgbcolor
1.000 UL
LTa
0.50 0.50 0.50 C 1872 1008 M
0 1763 V
stroke
LTb
LCb setrgbcolor
1872 1008 M
0 63 V
0 1700 R
0 -63 V
stroke
1872 888 M
[ [(Helvetica) 120.0 0.0 true true 0 (0.4)]
] -40.0 MCshow
1.000 UL
LTb
LCb setrgbcolor
1.000 UL
LTa
0.50 0.50 0.50 C 2447 1008 M
0 1763 V
stroke
LTb
LCb setrgbcolor
2447 1008 M
0 63 V
0 1700 R
0 -63 V
stroke
2447 888 M
[ [(Helvetica) 120.0 0.0 true true 0 (0.6)]
] -40.0 MCshow
1.000 UL
LTb
LCb setrgbcolor
1.000 UL
LTa
0.50 0.50 0.50 C 3023 1008 M
0 1763 V
stroke
LTb
LCb setrgbcolor
3023 1008 M
0 63 V
0 1700 R
0 -63 V
stroke
3023 888 M
[ [(Helvetica) 120.0 0.0 true true 0 (0.8)]
] -40.0 MCshow
1.000 UL
LTb
LCb setrgbcolor
1.000 UL
LTB
LCb setrgbcolor
720 2771 N
0 -1763 V
2879 0 V
0 1763 V
-2879 0 V
Z stroke
1.000 UP
1.000 UL
LTb
LCb setrgbcolor
LCb setrgbcolor
300 1889 M
currentpoint gsave translate -270 rotate 0 0 moveto
[ [(Helvetica) 120.0 0.0 true true 0 ( \(S=1,T=0\))]
] -40.0 MCshow
grestore
LTb
LCb setrgbcolor
2159 708 M
[ [(Symbol) 120.0 0.0 true true 0 (r)]
[(Helvetica) 120.0 0.0 true true 0 ( [fm)]
[(Helvetica) 96.0 60.0 true true 0 (-3)]
[(Helvetica) 120.0 0.0 true true 0 (])]
] -52.0 MCshow
LTb
% Begin plot #1
1.000 UP
1.000 UL
LTb
0.91 0.59 0.48 C 820 2362 CircleF
862 2259 CircleF
914 2151 CircleF
979 2036 CircleF
1056 1918 CircleF
1147 1788 CircleF
1254 1656 CircleF
1376 1521 CircleF
1517 1393 CircleF
1675 1274 CircleF
1854 1168 CircleF
2054 1086 CircleF
2276 1040 CircleF
2521 1028 CircleF
2791 1075 CircleF
3086 1184 CircleF
% End plot #1
% Begin plot #2
2.000 UL
LTb
0.91 0.59 0.48 C 720 2771 M
0 -1 V
0 -1 V
0 -1 V
1 -1 V
0 -1 V
0 -1 V
0 -1 V
0 -1 V
0 -1 V
1 -2 V
0 -1 V
0 -2 V
0 -2 V
1 -1 V
0 -2 V
0 -3 V
1 -2 V
0 -2 V
1 -3 V
0 -3 V
1 -3 V
0 -3 V
1 -3 V
1 -3 V
0 -4 V
1 -4 V
1 -3 V
1 -4 V
1 -5 V
0 -4 V
1 -4 V
1 -5 V
1 -5 V
2 -5 V
1 -5 V
1 -5 V
1 -6 V
2 -5 V
1 -6 V
1 -6 V
2 -6 V
1 -6 V
2 -7 V
2 -6 V
1 -7 V
2 -7 V
2 -7 V
2 -7 V
2 -7 V
2 -8 V
2 -8 V
2 -7 V
3 -8 V
2 -9 V
2 -8 V
3 -8 V
2 -9 V
3 -9 V
3 -8 V
3 -9 V
3 -10 V
3 -9 V
3 -9 V
3 -10 V
3 -9 V
3 -10 V
4 -10 V
3 -10 V
4 -11 V
4 -10 V
3 -10 V
4 -11 V
4 -11 V
4 -10 V
4 -11 V
5 -11 V
4 -11 V
5 -12 V
4 -11 V
5 -12 V
5 -11 V
4 -12 V
5 -12 V
6 -11 V
5 -12 V
5 -12 V
5 -13 V
6 -12 V
6 -12 V
5 -13 V
6 -12 V
6 -13 V
7 -12 V
6 -13 V
6 -13 V
7 -12 V
6 -13 V
7 -13 V
7 -13 V
7 -13 V
7 -13 V
7 -14 V
8 -13 V
7 -13 V
stroke 1008 1992 M
8 -13 V
8 -14 V
7 -13 V
9 -14 V
8 -13 V
8 -14 V
9 -13 V
8 -14 V
9 -13 V
9 -14 V
9 -13 V
9 -14 V
9 -13 V
10 -14 V
9 -14 V
10 -13 V
10 -14 V
10 -14 V
11 -13 V
10 -14 V
10 -13 V
11 -14 V
11 -14 V
11 -13 V
11 -14 V
12 -13 V
11 -13 V
12 -14 V
12 -13 V
12 -13 V
12 -14 V
12 -13 V
13 -13 V
12 -13 V
13 -13 V
13 -13 V
14 -13 V
13 -13 V
14 -13 V
13 -12 V
14 -13 V
14 -12 V
15 -13 V
14 -12 V
15 -12 V
15 -12 V
15 -12 V
15 -12 V
15 -12 V
16 -12 V
16 -11 V
16 -12 V
16 -11 V
16 -11 V
17 -11 V
16 -11 V
17 -10 V
18 -11 V
17 -10 V
17 -10 V
18 -10 V
18 -10 V
18 -9 V
19 -10 V
18 -9 V
19 -9 V
19 -8 V
19 -9 V
20 -8 V
19 -8 V
20 -8 V
20 -8 V
21 -7 V
20 -7 V
21 -7 V
21 -6 V
21 -6 V
21 -6 V
22 -6 V
22 -5 V
22 -5 V
22 -5 V
23 -4 V
23 -4 V
23 -3 V
23 -4 V
23 -2 V
24 -3 V
24 -2 V
24 -2 V
24 -1 V
25 -1 V
25 0 V
25 0 V
25 1 V
26 1 V
26 1 V
26 2 V
26 3 V
27 3 V
27 3 V
27 4 V
27 5 V
28 5 V
stroke 2735 1063 M
28 6 V
28 7 V
28 7 V
29 7 V
29 9 V
29 9 V
29 9 V
30 11 V
30 11 V
30 12 V
30 12 V
31 14 V
31 14 V
31 15 V
32 15 V
32 17 V
32 17 V
32 19 V
33 19 V
33 20 V
33 21 V
33 22 V
% End plot #2
% Begin plot #3
1.000 UP
stroke
1.000 UL
LTb
0.55 0.00 0.00 C 820 2394 TriUF
862 2291 TriUF
914 2171 TriUF
979 2031 TriUF
1056 1908 TriUF
1147 1775 TriUF
1254 1669 TriUF
1376 1562 TriUF
1517 1489 TriUF
1675 1419 TriUF
1854 1389 TriUF
2054 1386 TriUF
2276 1406 TriUF
% End plot #3
% Begin plot #4
2.000 UL
LTb
0.55 0.00 0.00 C 720 2771 M
0 -1 V
0 -1 V
0 -1 V
1 -1 V
0 -1 V
0 -1 V
0 -1 V
0 -1 V
0 -1 V
1 -2 V
0 -1 V
0 -2 V
0 -2 V
1 -2 V
0 -2 V
0 -2 V
1 -2 V
0 -3 V
1 -3 V
0 -2 V
1 -3 V
0 -4 V
1 -3 V
1 -3 V
0 -4 V
1 -4 V
1 -4 V
1 -4 V
1 -4 V
0 -5 V
1 -4 V
1 -5 V
1 -5 V
2 -5 V
1 -5 V
1 -6 V
1 -5 V
2 -6 V
1 -6 V
1 -6 V
2 -7 V
1 -6 V
2 -7 V
2 -7 V
1 -6 V
2 -8 V
2 -7 V
2 -7 V
2 -8 V
2 -8 V
2 -8 V
2 -8 V
3 -8 V
2 -8 V
2 -9 V
3 -9 V
2 -9 V
3 -9 V
3 -9 V
3 -9 V
3 -9 V
3 -10 V
3 -10 V
3 -10 V
3 -10 V
3 -10 V
4 -10 V
3 -10 V
4 -11 V
4 -10 V
3 -11 V
4 -11 V
4 -11 V
4 -11 V
4 -11 V
5 -11 V
4 -11 V
5 -12 V
4 -11 V
5 -12 V
5 -12 V
4 -11 V
5 -12 V
6 -12 V
5 -12 V
5 -12 V
5 -12 V
6 -13 V
6 -12 V
5 -12 V
6 -12 V
6 -13 V
7 -12 V
6 -13 V
6 -12 V
7 -13 V
6 -12 V
7 -13 V
7 -12 V
7 -13 V
7 -13 V
7 -12 V
8 -13 V
7 -12 V
stroke 1008 1984 M
8 -13 V
8 -13 V
7 -12 V
9 -13 V
8 -12 V
8 -13 V
9 -12 V
8 -13 V
9 -12 V
9 -12 V
9 -13 V
9 -12 V
9 -12 V
10 -12 V
9 -12 V
10 -12 V
10 -12 V
10 -12 V
11 -12 V
10 -11 V
10 -12 V
11 -11 V
11 -11 V
11 -12 V
11 -11 V
12 -11 V
11 -11 V
12 -10 V
12 -11 V
12 -10 V
12 -11 V
12 -10 V
13 -10 V
12 -10 V
13 -9 V
13 -10 V
14 -9 V
13 -9 V
14 -9 V
13 -9 V
14 -9 V
14 -8 V
15 -8 V
14 -8 V
15 -8 V
15 -8 V
15 -7 V
15 -7 V
15 -7 V
16 -7 V
16 -6 V
16 -7 V
16 -5 V
16 -6 V
17 -6 V
16 -5 V
17 -5 V
18 -4 V
17 -5 V
17 -4 V
18 -4 V
18 -3 V
18 -3 V
19 -3 V
18 -3 V
19 -2 V
19 -2 V
19 -2 V
20 -1 V
19 -1 V
20 -1 V
20 0 V
21 0 V
20 0 V
21 1 V
21 1 V
21 1 V
21 2 V
22 2 V
22 3 V
22 3 V
22 3 V
23 4 V
23 4 V
23 4 V
23 5 V
23 5 V
24 6 V
24 6 V
24 7 V
24 7 V
25 7 V
25 8 V
25 8 V
25 9 V
26 9 V
26 10 V
26 10 V
26 10 V
27 11 V
27 12 V
27 12 V
27 12 V
28 13 V
stroke 2735 1573 M
28 13 V
28 14 V
28 14 V
29 15 V
29 16 V
29 16 V
29 16 V
30 17 V
30 17 V
30 18 V
30 19 V
31 19 V
31 19 V
31 20 V
32 21 V
32 21 V
32 22 V
32 22 V
33 23 V
33 24 V
33 24 V
33 24 V
% End plot #4
% Begin plot #5
1.000 UP
stroke
1.000 UL
LTb
0.33 0.42 0.18 C 744 2660 DiaF
762 2592 DiaF
787 2507 DiaF
820 2404 DiaF
862 2286 DiaF
914 2154 DiaF
979 2011 DiaF
1056 1861 DiaF
1147 1706 DiaF
1254 1548 DiaF
1376 1390 DiaF
1517 1231 DiaF
1675 1072 DiaF
% End plot #5
% Begin plot #6
2.000 UL
LTb
0.33 0.42 0.18 C 979 2009 M
77 -149 V
91 -152 V
107 -156 V
122 -163 V
141 -162 V
158 -153 V
% End plot #6
stroke
LTb
LCb setrgbcolor
1.000 UL
LTB
LCb setrgbcolor
720 2771 N
0 -1763 V
2879 0 V
0 1763 V
-2879 0 V
Z stroke
1.000 UP
1.000 UL
LTb
LCb setrgbcolor
1.000 UL
LTb
LCb setrgbcolor
1.000 UL
LTa
0.50 0.50 0.50 C 3600 1168 M
2879 0 V
stroke
LTb
LCb setrgbcolor
3600 1168 M
63 0 V
2816 0 R
-63 0 V
stroke
LTb
LCb setrgbcolor
1.000 UL
LTa
0.50 0.50 0.50 C 3600 1369 M
2879 0 V
stroke
LTb
LCb setrgbcolor
3600 1369 M
63 0 V
2816 0 R
-63 0 V
stroke
LTb
LCb setrgbcolor
1.000 UL
LTa
0.50 0.50 0.50 C 3600 1569 M
2879 0 V
stroke
LTb
LCb setrgbcolor
3600 1569 M
63 0 V
2816 0 R
-63 0 V
stroke
LTb
LCb setrgbcolor
1.000 UL
LTa
0.50 0.50 0.50 C 3600 1769 M
2879 0 V
stroke
LTb
LCb setrgbcolor
3600 1769 M
63 0 V
2816 0 R
-63 0 V
stroke
LTb
LCb setrgbcolor
1.000 UL
LTa
0.50 0.50 0.50 C 3600 1970 M
2879 0 V
stroke
LTb
LCb setrgbcolor
3600 1970 M
63 0 V
2816 0 R
-63 0 V
stroke
LTb
LCb setrgbcolor
1.000 UL
LTa
0.50 0.50 0.50 C 3600 2170 M
2879 0 V
stroke
LTb
LCb setrgbcolor
3600 2170 M
63 0 V
2816 0 R
-63 0 V
stroke
LTb
LCb setrgbcolor
1.000 UL
LTa
0.50 0.50 0.50 C 3600 2370 M
2879 0 V
stroke
LTb
LCb setrgbcolor
3600 2370 M
63 0 V
2816 0 R
-63 0 V
stroke
LTb
LCb setrgbcolor
1.000 UL
LTa
0.50 0.50 0.50 C 3600 2571 M
2879 0 V
stroke
LTb
LCb setrgbcolor
3600 2571 M
63 0 V
2816 0 R
-63 0 V
stroke
LTb
LCb setrgbcolor
1.000 UL
LTa
0.50 0.50 0.50 C 3600 2771 M
2879 0 V
stroke
LTb
LCb setrgbcolor
3600 2771 M
63 0 V
2816 0 R
-63 0 V
stroke
LTb
LCb setrgbcolor
1.000 UL
LTa
0.50 0.50 0.50 C 3600 1008 M
0 1763 V
stroke
LTb
LCb setrgbcolor
3600 1008 M
0 63 V
0 1700 R
0 -63 V
stroke
3600 888 M
[ [(Helvetica) 120.0 0.0 true true 0 (0)]
] -40.0 MCshow
1.000 UL
LTb
LCb setrgbcolor
1.000 UL
LTa
0.50 0.50 0.50 C 4176 1008 M
0 1763 V
stroke
LTb
LCb setrgbcolor
4176 1008 M
0 63 V
0 1700 R
0 -63 V
stroke
4176 888 M
[ [(Helvetica) 120.0 0.0 true true 0 (0.2)]
] -40.0 MCshow
1.000 UL
LTb
LCb setrgbcolor
1.000 UL
LTa
0.50 0.50 0.50 C 4752 1008 M
0 1763 V
stroke
LTb
LCb setrgbcolor
4752 1008 M
0 63 V
0 1700 R
0 -63 V
stroke
4752 888 M
[ [(Helvetica) 120.0 0.0 true true 0 (0.4)]
] -40.0 MCshow
1.000 UL
LTb
LCb setrgbcolor
1.000 UL
LTa
0.50 0.50 0.50 C 5327 1008 M
0 1763 V
stroke
LTb
LCb setrgbcolor
5327 1008 M
0 63 V
0 1700 R
0 -63 V
stroke
5327 888 M
[ [(Helvetica) 120.0 0.0 true true 0 (0.6)]
] -40.0 MCshow
1.000 UL
LTb
LCb setrgbcolor
1.000 UL
LTa
0.50 0.50 0.50 C 5903 1008 M
0 1763 V
stroke
LTb
LCb setrgbcolor
5903 1008 M
0 63 V
0 1700 R
0 -63 V
stroke
5903 888 M
[ [(Helvetica) 120.0 0.0 true true 0 (0.8)]
] -40.0 MCshow
1.000 UL
LTb
LCb setrgbcolor
6479 1168 M
-63 0 V
stroke
6551 1168 M
[ [(Helvetica) 120.0 0.0 true true 0 (-40)]
] -40.0 MLshow
1.000 UL
LTb
LCb setrgbcolor
6479 1369 M
-63 0 V
stroke
6551 1369 M
[ [(Helvetica) 120.0 0.0 true true 0 (-35)]
] -40.0 MLshow
1.000 UL
LTb
LCb setrgbcolor
6479 1569 M
-63 0 V
stroke
6551 1569 M
[ [(Helvetica) 120.0 0.0 true true 0 (-30)]
] -40.0 MLshow
1.000 UL
LTb
LCb setrgbcolor
6479 1769 M
-63 0 V
stroke
6551 1769 M
[ [(Helvetica) 120.0 0.0 true true 0 (-25)]
] -40.0 MLshow
1.000 UL
LTb
LCb setrgbcolor
6479 1970 M
-63 0 V
stroke
6551 1970 M
[ [(Helvetica) 120.0 0.0 true true 0 (-20)]
] -40.0 MLshow
1.000 UL
LTb
LCb setrgbcolor
6479 2170 M
-63 0 V
stroke
6551 2170 M
[ [(Helvetica) 120.0 0.0 true true 0 (-15)]
] -40.0 MLshow
1.000 UL
LTb
LCb setrgbcolor
6479 2370 M
-63 0 V
stroke
6551 2370 M
[ [(Helvetica) 120.0 0.0 true true 0 (-10)]
] -40.0 MLshow
1.000 UL
LTb
LCb setrgbcolor
6479 2571 M
-63 0 V
stroke
6551 2571 M
[ [(Helvetica) 120.0 0.0 true true 0 (-5)]
] -40.0 MLshow
1.000 UL
LTb
LCb setrgbcolor
6479 2771 M
-63 0 V
stroke
6551 2771 M
[ [(Helvetica) 120.0 0.0 true true 0 ( 0)]
] -40.0 MLshow
1.000 UL
LTb
LCb setrgbcolor
1.000 UL
LTB
LCb setrgbcolor
3600 2771 N
0 -1763 V
2879 0 V
0 1763 V
-2879 0 V
Z stroke
1.000 UP
1.000 UL
LTb
LCb setrgbcolor
LCb setrgbcolor
6898 1889 M
currentpoint gsave translate -270 rotate 0 0 moveto
[ [(Helvetica) 120.0 0.0 true true 0 (\(S=0,T=1\))]
] -40.0 MCshow
grestore
LTb
LCb setrgbcolor
5039 708 M
[ [(Symbol) 120.0 0.0 true true 0 (r)]
[(Helvetica) 120.0 0.0 true true 0 ( [fm)]
[(Helvetica) 96.0 60.0 true true 0 (-3)]
[(Helvetica) 120.0 0.0 true true 0 (])]
] -52.0 MCshow
LTb
% Begin plot #1
1.000 UP
1.000 UL
LTb
0.91 0.59 0.48 C 3700 2541 CircleF
3742 2472 CircleF
3794 2398 CircleF
3859 2319 CircleF
3936 2236 CircleF
4027 2150 CircleF
4134 2065 CircleF
4256 1988 CircleF
4397 1926 CircleF
4555 1884 CircleF
4734 1873 CircleF
4934 1902 CircleF
5156 1987 CircleF
5401 2138 CircleF
5671 2372 CircleF
5966 2707 CircleF
% End plot #1
% Begin plot #2
2.000 UL
LTb
0.91 0.59 0.48 C 3600 2771 M
0 -1 V
1 0 V
0 -1 V
0 -1 V
1 -1 V
0 -1 V
1 -1 V
0 -1 V
0 -1 V
1 -1 V
0 -1 V
1 -1 V
0 -1 V
1 -1 V
0 -1 V
1 -2 V
1 -1 V
0 -2 V
1 -1 V
1 -2 V
1 -2 V
1 -2 V
0 -2 V
1 -2 V
1 -2 V
1 -2 V
2 -2 V
1 -3 V
1 -2 V
1 -3 V
2 -3 V
1 -3 V
1 -3 V
2 -3 V
1 -3 V
2 -3 V
2 -4 V
1 -3 V
2 -4 V
2 -4 V
2 -4 V
2 -4 V
2 -4 V
2 -4 V
2 -4 V
3 -5 V
2 -4 V
2 -5 V
3 -5 V
2 -5 V
3 -5 V
3 -5 V
3 -6 V
3 -5 V
3 -6 V
3 -5 V
3 -6 V
3 -6 V
3 -6 V
4 -6 V
3 -6 V
4 -7 V
4 -6 V
3 -7 V
4 -7 V
4 -7 V
4 -6 V
4 -8 V
5 -7 V
4 -7 V
5 -7 V
4 -8 V
5 -8 V
5 -7 V
4 -8 V
5 -8 V
6 -8 V
5 -8 V
5 -8 V
5 -9 V
6 -8 V
6 -9 V
5 -8 V
6 -9 V
6 -8 V
7 -9 V
6 -9 V
6 -9 V
7 -9 V
6 -9 V
7 -9 V
7 -9 V
7 -9 V
7 -10 V
7 -9 V
8 -9 V
7 -10 V
8 -9 V
8 -10 V
7 -9 V
9 -10 V
8 -9 V
8 -10 V
9 -9 V
stroke 3945 2229 M
8 -10 V
9 -9 V
9 -10 V
9 -9 V
9 -10 V
9 -9 V
10 -10 V
9 -9 V
10 -10 V
10 -9 V
10 -9 V
11 -9 V
10 -10 V
10 -9 V
11 -9 V
11 -9 V
11 -9 V
11 -8 V
12 -9 V
11 -9 V
12 -8 V
12 -9 V
12 -8 V
12 -8 V
12 -8 V
13 -8 V
12 -7 V
13 -8 V
13 -7 V
14 -8 V
13 -7 V
14 -6 V
13 -7 V
14 -6 V
14 -7 V
15 -6 V
14 -5 V
15 -6 V
15 -5 V
15 -5 V
15 -5 V
15 -5 V
16 -4 V
16 -4 V
16 -3 V
16 -4 V
16 -3 V
17 -3 V
16 -2 V
17 -2 V
18 -2 V
17 -1 V
17 -1 V
18 -1 V
18 0 V
18 0 V
19 1 V
18 0 V
19 2 V
19 2 V
19 2 V
20 3 V
19 3 V
20 3 V
20 4 V
21 5 V
20 5 V
21 6 V
21 6 V
21 6 V
21 7 V
22 8 V
22 8 V
22 9 V
22 10 V
23 10 V
23 10 V
23 11 V
23 12 V
23 13 V
24 13 V
24 14 V
24 14 V
24 15 V
25 16 V
25 16 V
25 17 V
25 18 V
26 19 V
26 19 V
26 20 V
26 21 V
27 22 V
27 22 V
27 23 V
27 24 V
28 25 V
28 25 V
28 27 V
28 27 V
29 28 V
29 29 V
29 29 V
29 31 V
stroke 5815 2525 M
30 32 V
30 32 V
30 33 V
30 35 V
31 35 V
31 36 V
31 37 V
5 6 V
% End plot #2
% Begin plot #3
1.000 UP
stroke
1.000 UL
LTb
0.55 0.00 0.00 C 3700 2527 TriUF
3742 2456 TriUF
3794 2375 TriUF
3859 2284 TriUF
3936 2173 TriUF
4027 2057 TriUF
4134 1931 TriUF
4256 1795 TriUF
4397 1673 TriUF
4555 1542 TriUF
4734 1421 TriUF
4934 1284 TriUF
5156 1178 TriUF
% End plot #3
% Begin plot #4
2.000 UL
LTb
0.55 0.00 0.00 C 3600 2771 M
0 -1 V
1 0 V
0 -1 V
0 -1 V
1 -1 V
0 -1 V
0 -1 V
1 -1 V
0 -1 V
0 -1 V
1 -1 V
0 -1 V
1 -1 V
0 -1 V
1 -1 V
0 -2 V
1 -1 V
1 -2 V
0 -1 V
1 -2 V
1 -2 V
1 -2 V
1 -2 V
0 -2 V
1 -3 V
1 -2 V
1 -2 V
2 -3 V
1 -3 V
1 -3 V
1 -3 V
2 -3 V
1 -3 V
1 -3 V
2 -3 V
1 -4 V
2 -4 V
2 -3 V
1 -4 V
2 -4 V
2 -4 V
2 -5 V
2 -4 V
2 -5 V
2 -4 V
2 -5 V
3 -5 V
2 -5 V
2 -5 V
3 -6 V
2 -5 V
3 -6 V
3 -6 V
3 -6 V
3 -6 V
3 -6 V
3 -6 V
3 -7 V
3 -6 V
3 -7 V
4 -7 V
3 -7 V
4 -7 V
4 -7 V
3 -7 V
4 -8 V
4 -8 V
4 -7 V
4 -8 V
5 -8 V
4 -8 V
5 -9 V
4 -8 V
5 -9 V
5 -8 V
4 -9 V
5 -9 V
6 -9 V
5 -9 V
5 -10 V
5 -9 V
6 -10 V
6 -9 V
5 -10 V
6 -10 V
6 -10 V
7 -10 V
6 -10 V
6 -11 V
7 -10 V
6 -11 V
7 -10 V
7 -11 V
7 -11 V
7 -11 V
7 -11 V
8 -11 V
7 -11 V
8 -11 V
8 -11 V
7 -12 V
9 -11 V
8 -12 V
8 -11 V
stroke 3936 2166 M
9 -12 V
8 -12 V
9 -12 V
9 -11 V
9 -12 V
9 -12 V
9 -12 V
10 -13 V
9 -12 V
10 -12 V
10 -12 V
10 -12 V
11 -13 V
10 -12 V
10 -12 V
11 -13 V
11 -12 V
11 -13 V
11 -12 V
12 -13 V
11 -12 V
12 -13 V
12 -13 V
12 -12 V
12 -13 V
12 -12 V
13 -13 V
12 -13 V
13 -12 V
13 -13 V
14 -12 V
13 -13 V
14 -13 V
13 -12 V
14 -13 V
14 -12 V
15 -13 V
14 -13 V
15 -12 V
15 -13 V
15 -12 V
15 -13 V
15 -12 V
16 -13 V
16 -12 V
16 -13 V
16 -12 V
16 -13 V
17 -12 V
16 -12 V
17 -13 V
18 -12 V
17 -12 V
17 -13 V
18 -12 V
18 -13 V
18 -12 V
19 -12 V
18 -12 V
19 -13 V
19 -12 V
19 -13 V
20 -12 V
19 -12 V
20 -13 V
20 -12 V
21 -12 V
20 -13 V
21 -12 V
21 -13 V
21 -13 V
21 -12 V
22 -13 V
22 -13 V
22 -13 V
22 -12 V
23 -13 V
23 -14 V
23 -13 V
23 -13 V
23 -14 V
24 -13 V
24 -14 V
24 -14 V
24 -14 V
25 -14 V
25 -14 V
25 -15 V
25 -15 V
26 -15 V
26 -15 V
7 -4 V
% End plot #4
% Begin plot #5
1.000 UP
stroke
1.000 UL
LTb
0.33 0.42 0.18 C 3859 2294 DiaF
3936 2197 DiaF
4027 2101 DiaF
4134 2009 DiaF
4256 1921 DiaF
4397 1850 DiaF
4555 1799 DiaF
% End plot #5
% Begin plot #6
2.000 UL
LTb
0.33 0.42 0.18 C 3624 2698 M
18 -43 V
25 -54 V
33 -64 V
42 -73 V
52 -82 V
65 -90 V
77 -94 V
91 -96 V
107 -94 V
122 -86 V
141 -73 V
158 -50 V
179 -15 V
200 35 V
222 104 V
245 195 V
270 317 V
208 336 V
% End plot #6
stroke
LTb
LCb setrgbcolor
1.000 UL
LTB
LCb setrgbcolor
3600 2771 N
0 -1763 V
2879 0 V
0 1763 V
-2879 0 V
Z stroke
1.000 UP
1.000 UL
LTb
LCb setrgbcolor
stroke
grestore
end
showpage
%%Trailer
%%DocumentFonts: Symbol Helvetica
%%Pages: 1
