%!PS-Adobe-2.0
%%Title: EOS_SNM_ST_param.eps
%%Creator: gnuplot 5.0 patchlevel 3
%%CreationDate: Fri Jun 23 12:02:56 2017
%%DocumentFonts: (atend)
%%BoundingBox: 50 50 554 770
%%Orientation: Landscape
%%Pages: (atend)
%%EndComments
%%BeginProlog
/gnudict 256 dict def
gnudict begin
%
% The following true/false flags may be edited by hand if desired.
% The unit line width and grayscale image gamma correction may also be changed.
%
/Color false def
/Blacktext false def
/Solid false def
/Dashlength 1 def
/Landscape true def
/Level1 false def
/Level3 false def
/Rounded false def
/ClipToBoundingBox false def
/SuppressPDFMark false def
/TransparentPatterns false def
/gnulinewidth 5.000 def
/userlinewidth gnulinewidth def
/Gamma 1.0 def
/BackgroundColor {-1.000 -1.000 -1.000} def
%
/vshift -40 def
/dl1 {
  10.0 Dashlength userlinewidth gnulinewidth div mul mul mul
  Rounded { currentlinewidth 0.75 mul sub dup 0 le { pop 0.01 } if } if
} def
/dl2 {
  10.0 Dashlength userlinewidth gnulinewidth div mul mul mul
  Rounded { currentlinewidth 0.75 mul add } if
} def
/hpt_ 31.5 def
/vpt_ 31.5 def
/hpt hpt_ def
/vpt vpt_ def
/doclip {
  ClipToBoundingBox {
    newpath 50 50 moveto 554 50 lineto 554 770 lineto 50 770 lineto closepath
    clip
  } if
} def
%
% Gnuplot Prolog Version 5.1 (Oct 2015)
%
%/SuppressPDFMark true def
%
/M {moveto} bind def
/L {lineto} bind def
/R {rmoveto} bind def
/V {rlineto} bind def
/N {newpath moveto} bind def
/Z {closepath} bind def
/C {setrgbcolor} bind def
/f {rlineto fill} bind def
/g {setgray} bind def
/Gshow {show} def   % May be redefined later in the file to support UTF-8
/vpt2 vpt 2 mul def
/hpt2 hpt 2 mul def
/Lshow {currentpoint stroke M 0 vshift R 
	Blacktext {gsave 0 setgray textshow grestore} {textshow} ifelse} def
/Rshow {currentpoint stroke M dup stringwidth pop neg vshift R
	Blacktext {gsave 0 setgray textshow grestore} {textshow} ifelse} def
/Cshow {currentpoint stroke M dup stringwidth pop -2 div vshift R 
	Blacktext {gsave 0 setgray textshow grestore} {textshow} ifelse} def
/UP {dup vpt_ mul /vpt exch def hpt_ mul /hpt exch def
  /hpt2 hpt 2 mul def /vpt2 vpt 2 mul def} def
/DL {Color {setrgbcolor Solid {pop []} if 0 setdash}
 {pop pop pop 0 setgray Solid {pop []} if 0 setdash} ifelse} def
/BL {stroke userlinewidth 2 mul setlinewidth
	Rounded {1 setlinejoin 1 setlinecap} if} def
/AL {stroke userlinewidth 2 div setlinewidth
	Rounded {1 setlinejoin 1 setlinecap} if} def
/UL {dup gnulinewidth mul /userlinewidth exch def
	dup 1 lt {pop 1} if 10 mul /udl exch def} def
/PL {stroke userlinewidth setlinewidth
	Rounded {1 setlinejoin 1 setlinecap} if} def
3.8 setmiterlimit
% Classic Line colors (version 5.0)
/LCw {1 1 1} def
/LCb {0 0 0} def
/LCa {0 0 0} def
/LC0 {1 0 0} def
/LC1 {0 1 0} def
/LC2 {0 0 1} def
/LC3 {1 0 1} def
/LC4 {0 1 1} def
/LC5 {1 1 0} def
/LC6 {0 0 0} def
/LC7 {1 0.3 0} def
/LC8 {0.5 0.5 0.5} def
% Default dash patterns (version 5.0)
/LTB {BL [] LCb DL} def
/LTw {PL [] 1 setgray} def
/LTb {PL [] LCb DL} def
/LTa {AL [1 udl mul 2 udl mul] 0 setdash LCa setrgbcolor} def
/LT0 {PL [] LC0 DL} def
/LT1 {PL [2 dl1 3 dl2] LC1 DL} def
/LT2 {PL [1 dl1 1.5 dl2] LC2 DL} def
/LT3 {PL [6 dl1 2 dl2 1 dl1 2 dl2] LC3 DL} def
/LT4 {PL [1 dl1 2 dl2 6 dl1 2 dl2 1 dl1 2 dl2] LC4 DL} def
/LT5 {PL [4 dl1 2 dl2] LC5 DL} def
/LT6 {PL [1.5 dl1 1.5 dl2 1.5 dl1 1.5 dl2 1.5 dl1 6 dl2] LC6 DL} def
/LT7 {PL [3 dl1 3 dl2 1 dl1 3 dl2] LC7 DL} def
/LT8 {PL [2 dl1 2 dl2 2 dl1 6 dl2] LC8 DL} def
/SL {[] 0 setdash} def
/Pnt {stroke [] 0 setdash gsave 1 setlinecap M 0 0 V stroke grestore} def
/Dia {stroke [] 0 setdash 2 copy vpt add M
  hpt neg vpt neg V hpt vpt neg V
  hpt vpt V hpt neg vpt V closepath stroke
  Pnt} def
/Pls {stroke [] 0 setdash vpt sub M 0 vpt2 V
  currentpoint stroke M
  hpt neg vpt neg R hpt2 0 V stroke
 } def
/Box {stroke [] 0 setdash 2 copy exch hpt sub exch vpt add M
  0 vpt2 neg V hpt2 0 V 0 vpt2 V
  hpt2 neg 0 V closepath stroke
  Pnt} def
/Crs {stroke [] 0 setdash exch hpt sub exch vpt add M
  hpt2 vpt2 neg V currentpoint stroke M
  hpt2 neg 0 R hpt2 vpt2 V stroke} def
/TriU {stroke [] 0 setdash 2 copy vpt 1.12 mul add M
  hpt neg vpt -1.62 mul V
  hpt 2 mul 0 V
  hpt neg vpt 1.62 mul V closepath stroke
  Pnt} def
/Star {2 copy Pls Crs} def
/BoxF {stroke [] 0 setdash exch hpt sub exch vpt add M
  0 vpt2 neg V hpt2 0 V 0 vpt2 V
  hpt2 neg 0 V closepath fill} def
/TriUF {stroke [] 0 setdash vpt 1.12 mul add M
  hpt neg vpt -1.62 mul V
  hpt 2 mul 0 V
  hpt neg vpt 1.62 mul V closepath fill} def
/TriD {stroke [] 0 setdash 2 copy vpt 1.12 mul sub M
  hpt neg vpt 1.62 mul V
  hpt 2 mul 0 V
  hpt neg vpt -1.62 mul V closepath stroke
  Pnt} def
/TriDF {stroke [] 0 setdash vpt 1.12 mul sub M
  hpt neg vpt 1.62 mul V
  hpt 2 mul 0 V
  hpt neg vpt -1.62 mul V closepath fill} def
/DiaF {stroke [] 0 setdash vpt add M
  hpt neg vpt neg V hpt vpt neg V
  hpt vpt V hpt neg vpt V closepath fill} def
/Pent {stroke [] 0 setdash 2 copy gsave
  translate 0 hpt M 4 {72 rotate 0 hpt L} repeat
  closepath stroke grestore Pnt} def
/PentF {stroke [] 0 setdash gsave
  translate 0 hpt M 4 {72 rotate 0 hpt L} repeat
  closepath fill grestore} def
/Circle {stroke [] 0 setdash 2 copy
  hpt 0 360 arc stroke Pnt} def
/CircleF {stroke [] 0 setdash hpt 0 360 arc fill} def
/C0 {BL [] 0 setdash 2 copy moveto vpt 90 450 arc} bind def
/C1 {BL [] 0 setdash 2 copy moveto
	2 copy vpt 0 90 arc closepath fill
	vpt 0 360 arc closepath} bind def
/C2 {BL [] 0 setdash 2 copy moveto
	2 copy vpt 90 180 arc closepath fill
	vpt 0 360 arc closepath} bind def
/C3 {BL [] 0 setdash 2 copy moveto
	2 copy vpt 0 180 arc closepath fill
	vpt 0 360 arc closepath} bind def
/C4 {BL [] 0 setdash 2 copy moveto
	2 copy vpt 180 270 arc closepath fill
	vpt 0 360 arc closepath} bind def
/C5 {BL [] 0 setdash 2 copy moveto
	2 copy vpt 0 90 arc
	2 copy moveto
	2 copy vpt 180 270 arc closepath fill
	vpt 0 360 arc} bind def
/C6 {BL [] 0 setdash 2 copy moveto
	2 copy vpt 90 270 arc closepath fill
	vpt 0 360 arc closepath} bind def
/C7 {BL [] 0 setdash 2 copy moveto
	2 copy vpt 0 270 arc closepath fill
	vpt 0 360 arc closepath} bind def
/C8 {BL [] 0 setdash 2 copy moveto
	2 copy vpt 270 360 arc closepath fill
	vpt 0 360 arc closepath} bind def
/C9 {BL [] 0 setdash 2 copy moveto
	2 copy vpt 270 450 arc closepath fill
	vpt 0 360 arc closepath} bind def
/C10 {BL [] 0 setdash 2 copy 2 copy moveto vpt 270 360 arc closepath fill
	2 copy moveto
	2 copy vpt 90 180 arc closepath fill
	vpt 0 360 arc closepath} bind def
/C11 {BL [] 0 setdash 2 copy moveto
	2 copy vpt 0 180 arc closepath fill
	2 copy moveto
	2 copy vpt 270 360 arc closepath fill
	vpt 0 360 arc closepath} bind def
/C12 {BL [] 0 setdash 2 copy moveto
	2 copy vpt 180 360 arc closepath fill
	vpt 0 360 arc closepath} bind def
/C13 {BL [] 0 setdash 2 copy moveto
	2 copy vpt 0 90 arc closepath fill
	2 copy moveto
	2 copy vpt 180 360 arc closepath fill
	vpt 0 360 arc closepath} bind def
/C14 {BL [] 0 setdash 2 copy moveto
	2 copy vpt 90 360 arc closepath fill
	vpt 0 360 arc} bind def
/C15 {BL [] 0 setdash 2 copy vpt 0 360 arc closepath fill
	vpt 0 360 arc closepath} bind def
/Rec {newpath 4 2 roll moveto 1 index 0 rlineto 0 exch rlineto
	neg 0 rlineto closepath} bind def
/Square {dup Rec} bind def
/Bsquare {vpt sub exch vpt sub exch vpt2 Square} bind def
/S0 {BL [] 0 setdash 2 copy moveto 0 vpt rlineto BL Bsquare} bind def
/S1 {BL [] 0 setdash 2 copy vpt Square fill Bsquare} bind def
/S2 {BL [] 0 setdash 2 copy exch vpt sub exch vpt Square fill Bsquare} bind def
/S3 {BL [] 0 setdash 2 copy exch vpt sub exch vpt2 vpt Rec fill Bsquare} bind def
/S4 {BL [] 0 setdash 2 copy exch vpt sub exch vpt sub vpt Square fill Bsquare} bind def
/S5 {BL [] 0 setdash 2 copy 2 copy vpt Square fill
	exch vpt sub exch vpt sub vpt Square fill Bsquare} bind def
/S6 {BL [] 0 setdash 2 copy exch vpt sub exch vpt sub vpt vpt2 Rec fill Bsquare} bind def
/S7 {BL [] 0 setdash 2 copy exch vpt sub exch vpt sub vpt vpt2 Rec fill
	2 copy vpt Square fill Bsquare} bind def
/S8 {BL [] 0 setdash 2 copy vpt sub vpt Square fill Bsquare} bind def
/S9 {BL [] 0 setdash 2 copy vpt sub vpt vpt2 Rec fill Bsquare} bind def
/S10 {BL [] 0 setdash 2 copy vpt sub vpt Square fill 2 copy exch vpt sub exch vpt Square fill
	Bsquare} bind def
/S11 {BL [] 0 setdash 2 copy vpt sub vpt Square fill 2 copy exch vpt sub exch vpt2 vpt Rec fill
	Bsquare} bind def
/S12 {BL [] 0 setdash 2 copy exch vpt sub exch vpt sub vpt2 vpt Rec fill Bsquare} bind def
/S13 {BL [] 0 setdash 2 copy exch vpt sub exch vpt sub vpt2 vpt Rec fill
	2 copy vpt Square fill Bsquare} bind def
/S14 {BL [] 0 setdash 2 copy exch vpt sub exch vpt sub vpt2 vpt Rec fill
	2 copy exch vpt sub exch vpt Square fill Bsquare} bind def
/S15 {BL [] 0 setdash 2 copy Bsquare fill Bsquare} bind def
/D0 {gsave translate 45 rotate 0 0 S0 stroke grestore} bind def
/D1 {gsave translate 45 rotate 0 0 S1 stroke grestore} bind def
/D2 {gsave translate 45 rotate 0 0 S2 stroke grestore} bind def
/D3 {gsave translate 45 rotate 0 0 S3 stroke grestore} bind def
/D4 {gsave translate 45 rotate 0 0 S4 stroke grestore} bind def
/D5 {gsave translate 45 rotate 0 0 S5 stroke grestore} bind def
/D6 {gsave translate 45 rotate 0 0 S6 stroke grestore} bind def
/D7 {gsave translate 45 rotate 0 0 S7 stroke grestore} bind def
/D8 {gsave translate 45 rotate 0 0 S8 stroke grestore} bind def
/D9 {gsave translate 45 rotate 0 0 S9 stroke grestore} bind def
/D10 {gsave translate 45 rotate 0 0 S10 stroke grestore} bind def
/D11 {gsave translate 45 rotate 0 0 S11 stroke grestore} bind def
/D12 {gsave translate 45 rotate 0 0 S12 stroke grestore} bind def
/D13 {gsave translate 45 rotate 0 0 S13 stroke grestore} bind def
/D14 {gsave translate 45 rotate 0 0 S14 stroke grestore} bind def
/D15 {gsave translate 45 rotate 0 0 S15 stroke grestore} bind def
/DiaE {stroke [] 0 setdash vpt add M
  hpt neg vpt neg V hpt vpt neg V
  hpt vpt V hpt neg vpt V closepath stroke} def
/BoxE {stroke [] 0 setdash exch hpt sub exch vpt add M
  0 vpt2 neg V hpt2 0 V 0 vpt2 V
  hpt2 neg 0 V closepath stroke} def
/TriUE {stroke [] 0 setdash vpt 1.12 mul add M
  hpt neg vpt -1.62 mul V
  hpt 2 mul 0 V
  hpt neg vpt 1.62 mul V closepath stroke} def
/TriDE {stroke [] 0 setdash vpt 1.12 mul sub M
  hpt neg vpt 1.62 mul V
  hpt 2 mul 0 V
  hpt neg vpt -1.62 mul V closepath stroke} def
/PentE {stroke [] 0 setdash gsave
  translate 0 hpt M 4 {72 rotate 0 hpt L} repeat
  closepath stroke grestore} def
/CircE {stroke [] 0 setdash 
  hpt 0 360 arc stroke} def
/Opaque {gsave closepath 1 setgray fill grestore 0 setgray closepath} def
/DiaW {stroke [] 0 setdash vpt add M
  hpt neg vpt neg V hpt vpt neg V
  hpt vpt V hpt neg vpt V Opaque stroke} def
/BoxW {stroke [] 0 setdash exch hpt sub exch vpt add M
  0 vpt2 neg V hpt2 0 V 0 vpt2 V
  hpt2 neg 0 V Opaque stroke} def
/TriUW {stroke [] 0 setdash vpt 1.12 mul add M
  hpt neg vpt -1.62 mul V
  hpt 2 mul 0 V
  hpt neg vpt 1.62 mul V Opaque stroke} def
/TriDW {stroke [] 0 setdash vpt 1.12 mul sub M
  hpt neg vpt 1.62 mul V
  hpt 2 mul 0 V
  hpt neg vpt -1.62 mul V Opaque stroke} def
/PentW {stroke [] 0 setdash gsave
  translate 0 hpt M 4 {72 rotate 0 hpt L} repeat
  Opaque stroke grestore} def
/CircW {stroke [] 0 setdash 
  hpt 0 360 arc Opaque stroke} def
/BoxFill {gsave Rec 1 setgray fill grestore} def
/Density {
  /Fillden exch def
  currentrgbcolor
  /ColB exch def /ColG exch def /ColR exch def
  /ColR ColR Fillden mul Fillden sub 1 add def
  /ColG ColG Fillden mul Fillden sub 1 add def
  /ColB ColB Fillden mul Fillden sub 1 add def
  ColR ColG ColB setrgbcolor} def
/BoxColFill {gsave Rec PolyFill} def
/PolyFill {gsave Density fill grestore grestore} def
/h {rlineto rlineto rlineto gsave closepath fill grestore} bind def
%
% PostScript Level 1 Pattern Fill routine for rectangles
% Usage: x y w h s a XX PatternFill
%	x,y = lower left corner of box to be filled
%	w,h = width and height of box
%	  a = angle in degrees between lines and x-axis
%	 XX = 0/1 for no/yes cross-hatch
%
/PatternFill {gsave /PFa [ 9 2 roll ] def
  PFa 0 get PFa 2 get 2 div add PFa 1 get PFa 3 get 2 div add translate
  PFa 2 get -2 div PFa 3 get -2 div PFa 2 get PFa 3 get Rec
  TransparentPatterns {} {gsave 1 setgray fill grestore} ifelse
  clip
  currentlinewidth 0.5 mul setlinewidth
  /PFs PFa 2 get dup mul PFa 3 get dup mul add sqrt def
  0 0 M PFa 5 get rotate PFs -2 div dup translate
  0 1 PFs PFa 4 get div 1 add floor cvi
	{PFa 4 get mul 0 M 0 PFs V} for
  0 PFa 6 get ne {
	0 1 PFs PFa 4 get div 1 add floor cvi
	{PFa 4 get mul 0 2 1 roll M PFs 0 V} for
 } if
  stroke grestore} def
%
/languagelevel where
 {pop languagelevel} {1} ifelse
dup 2 lt
	{/InterpretLevel1 true def
	 /InterpretLevel3 false def}
	{/InterpretLevel1 Level1 def
	 2 gt
	    {/InterpretLevel3 Level3 def}
	    {/InterpretLevel3 false def}
	 ifelse }
 ifelse
%
% PostScript level 2 pattern fill definitions
%
/Level2PatternFill {
/Tile8x8 {/PaintType 2 /PatternType 1 /TilingType 1 /BBox [0 0 8 8] /XStep 8 /YStep 8}
	bind def
/KeepColor {currentrgbcolor [/Pattern /DeviceRGB] setcolorspace} bind def
<< Tile8x8
 /PaintProc {0.5 setlinewidth pop 0 0 M 8 8 L 0 8 M 8 0 L stroke} 
>> matrix makepattern
/Pat1 exch def
<< Tile8x8
 /PaintProc {0.5 setlinewidth pop 0 0 M 8 8 L 0 8 M 8 0 L stroke
	0 4 M 4 8 L 8 4 L 4 0 L 0 4 L stroke}
>> matrix makepattern
/Pat2 exch def
<< Tile8x8
 /PaintProc {0.5 setlinewidth pop 0 0 M 0 8 L
	8 8 L 8 0 L 0 0 L fill}
>> matrix makepattern
/Pat3 exch def
<< Tile8x8
 /PaintProc {0.5 setlinewidth pop -4 8 M 8 -4 L
	0 12 M 12 0 L stroke}
>> matrix makepattern
/Pat4 exch def
<< Tile8x8
 /PaintProc {0.5 setlinewidth pop -4 0 M 8 12 L
	0 -4 M 12 8 L stroke}
>> matrix makepattern
/Pat5 exch def
<< Tile8x8
 /PaintProc {0.5 setlinewidth pop -2 8 M 4 -4 L
	0 12 M 8 -4 L 4 12 M 10 0 L stroke}
>> matrix makepattern
/Pat6 exch def
<< Tile8x8
 /PaintProc {0.5 setlinewidth pop -2 0 M 4 12 L
	0 -4 M 8 12 L 4 -4 M 10 8 L stroke}
>> matrix makepattern
/Pat7 exch def
<< Tile8x8
 /PaintProc {0.5 setlinewidth pop 8 -2 M -4 4 L
	12 0 M -4 8 L 12 4 M 0 10 L stroke}
>> matrix makepattern
/Pat8 exch def
<< Tile8x8
 /PaintProc {0.5 setlinewidth pop 0 -2 M 12 4 L
	-4 0 M 12 8 L -4 4 M 8 10 L stroke}
>> matrix makepattern
/Pat9 exch def
/Pattern1 {PatternBgnd KeepColor Pat1 setpattern} bind def
/Pattern2 {PatternBgnd KeepColor Pat2 setpattern} bind def
/Pattern3 {PatternBgnd KeepColor Pat3 setpattern} bind def
/Pattern4 {PatternBgnd KeepColor Landscape {Pat5} {Pat4} ifelse setpattern} bind def
/Pattern5 {PatternBgnd KeepColor Landscape {Pat4} {Pat5} ifelse setpattern} bind def
/Pattern6 {PatternBgnd KeepColor Landscape {Pat9} {Pat6} ifelse setpattern} bind def
/Pattern7 {PatternBgnd KeepColor Landscape {Pat8} {Pat7} ifelse setpattern} bind def
} def
%
%
%End of PostScript Level 2 code
%
/PatternBgnd {
  TransparentPatterns {} {gsave 1 setgray fill grestore} ifelse
} def
%
% Substitute for Level 2 pattern fill codes with
% grayscale if Level 2 support is not selected.
%
/Level1PatternFill {
/Pattern1 {0.250 Density} bind def
/Pattern2 {0.500 Density} bind def
/Pattern3 {0.750 Density} bind def
/Pattern4 {0.125 Density} bind def
/Pattern5 {0.375 Density} bind def
/Pattern6 {0.625 Density} bind def
/Pattern7 {0.875 Density} bind def
} def
%
% Now test for support of Level 2 code
%
Level1 {Level1PatternFill} {Level2PatternFill} ifelse
%
/Symbol-Oblique /Symbol findfont [1 0 .167 1 0 0] makefont
dup length dict begin {1 index /FID eq {pop pop} {def} ifelse} forall
currentdict end definefont pop
%
/MFshow {
   { dup 5 get 3 ge
     { 5 get 3 eq {gsave} {grestore} ifelse }
     {dup dup 0 get findfont exch 1 get scalefont setfont
     [ currentpoint ] exch dup 2 get 0 exch R dup 5 get 2 ne {dup dup 6
     get exch 4 get {textshow} {stringwidth pop 0 R} ifelse }if dup 5 get 0 eq
     {dup 3 get {2 get neg 0 exch R pop} {pop aload pop M} ifelse} {dup 5
     get 1 eq {dup 2 get exch dup 3 get exch 6 get stringwidth pop -2 div
     dup 0 R} {dup 6 get stringwidth pop -2 div 0 R 6 get
     textshow 2 index {aload pop M neg 3 -1 roll neg R pop pop} {pop pop pop
     pop aload pop M} ifelse }ifelse }ifelse }
     ifelse }
   forall} def
/Gswidth {dup type /stringtype eq {stringwidth} {pop (n) stringwidth} ifelse} def
/MFwidth {0 exch { dup 5 get 3 ge { 5 get 3 eq { 0 } { pop } ifelse }
 {dup 3 get{dup dup 0 get findfont exch 1 get scalefont setfont
     6 get Gswidth pop add} {pop} ifelse} ifelse} forall} def
/MLshow { currentpoint stroke M
  0 exch R
  Blacktext {gsave 0 setgray MFshow grestore} {MFshow} ifelse } bind def
/MRshow { currentpoint stroke M
  exch dup MFwidth neg 3 -1 roll R
  Blacktext {gsave 0 setgray MFshow grestore} {MFshow} ifelse } bind def
/MCshow { currentpoint stroke M
  exch dup MFwidth -2 div 3 -1 roll R
  Blacktext {gsave 0 setgray MFshow grestore} {MFshow} ifelse } bind def
/XYsave    { [( ) 1 2 true false 3 ()] } bind def
/XYrestore { [( ) 1 2 true false 4 ()] } bind def
Level1 SuppressPDFMark or 
{} {
/SDict 10 dict def
systemdict /pdfmark known not {
  userdict /pdfmark systemdict /cleartomark get put
} if
SDict begin [
  /Title (EOS_SNM_ST_param.eps)
  /Subject (gnuplot plot)
  /Creator (gnuplot 5.0 patchlevel 3)
  /Author (kb2)
%  /Producer (gnuplot)
%  /Keywords ()
  /CreationDate (Fri Jun 23 12:02:56 2017)
  /DOCINFO pdfmark
end
} ifelse
%
% Support for boxed text - Ethan A Merritt May 2005
%
/InitTextBox { userdict /TBy2 3 -1 roll put userdict /TBx2 3 -1 roll put
           userdict /TBy1 3 -1 roll put userdict /TBx1 3 -1 roll put
	   /Boxing true def } def
/ExtendTextBox { Boxing
    { gsave dup false charpath pathbbox
      dup TBy2 gt {userdict /TBy2 3 -1 roll put} {pop} ifelse
      dup TBx2 gt {userdict /TBx2 3 -1 roll put} {pop} ifelse
      dup TBy1 lt {userdict /TBy1 3 -1 roll put} {pop} ifelse
      dup TBx1 lt {userdict /TBx1 3 -1 roll put} {pop} ifelse
      grestore } if } def
/PopTextBox { newpath TBx1 TBxmargin sub TBy1 TBymargin sub M
               TBx1 TBxmargin sub TBy2 TBymargin add L
	       TBx2 TBxmargin add TBy2 TBymargin add L
	       TBx2 TBxmargin add TBy1 TBymargin sub L closepath } def
/DrawTextBox { PopTextBox stroke /Boxing false def} def
/FillTextBox { gsave PopTextBox 1 1 1 setrgbcolor fill grestore /Boxing false def} def
0 0 0 0 InitTextBox
/TBxmargin 20 def
/TBymargin 20 def
/Boxing false def
/textshow { ExtendTextBox Gshow } def
%
% redundant definitions for compatibility with prologue.ps older than 5.0.2
/LTB {BL [] LCb DL} def
/LTb {PL [] LCb DL} def
end
%%EndProlog
%%Page: 1 1
gnudict begin
gsave
doclip
50 50 translate
0.100 0.100 scale
90 rotate
0 -5040 translate
0 setgray
newpath
(Helvetica) findfont 120 scalefont setfont
BackgroundColor 0 lt 3 1 roll 0 lt exch 0 lt or or not {gsave BackgroundColor C clippath fill grestore} if
1.000 UL
LTb
LCb setrgbcolor
1.000 UL
LTa
LCb setrgbcolor
720 2932 M
2879 0 V
stroke
LTb
LCb setrgbcolor
720 2932 M
63 0 V
2816 0 R
-63 0 V
stroke
648 2932 M
[ [(Helvetica) 120.0 0.0 true true 0 (-15)]
] -40.0 MRshow
1.000 UL
LTb
LCb setrgbcolor
1.000 UL
LTa
LCb setrgbcolor
720 3199 M
2879 0 V
stroke
LTb
LCb setrgbcolor
720 3199 M
63 0 V
2816 0 R
-63 0 V
stroke
648 3199 M
[ [(Helvetica) 120.0 0.0 true true 0 (-10)]
] -40.0 MRshow
1.000 UL
LTb
LCb setrgbcolor
1.000 UL
LTa
LCb setrgbcolor
720 3467 M
2879 0 V
stroke
LTb
LCb setrgbcolor
720 3467 M
63 0 V
2816 0 R
-63 0 V
stroke
648 3467 M
[ [(Helvetica) 120.0 0.0 true true 0 (-5)]
] -40.0 MRshow
1.000 UL
LTb
LCb setrgbcolor
1.000 UL
LTa
LCb setrgbcolor
720 3734 M
2879 0 V
stroke
LTb
LCb setrgbcolor
720 3734 M
63 0 V
2816 0 R
-63 0 V
stroke
648 3734 M
[ [(Helvetica) 120.0 0.0 true true 0 (0)]
] -40.0 MRshow
1.000 UL
LTb
LCb setrgbcolor
1.000 UL
LTa
LCb setrgbcolor
720 4001 M
2879 0 V
stroke
LTb
LCb setrgbcolor
720 4001 M
63 0 V
2816 0 R
-63 0 V
stroke
648 4001 M
[ [(Helvetica) 120.0 0.0 true true 0 (5)]
] -40.0 MRshow
1.000 UL
LTb
LCb setrgbcolor
1.000 UL
LTa
LCb setrgbcolor
720 4268 M
2879 0 V
stroke
LTb
LCb setrgbcolor
720 4268 M
63 0 V
2816 0 R
-63 0 V
stroke
648 4268 M
[ [(Helvetica) 120.0 0.0 true true 0 (10)]
] -40.0 MRshow
1.000 UL
LTb
LCb setrgbcolor
1.000 UL
LTa
LCb setrgbcolor
720 4535 M
2879 0 V
stroke
LTb
LCb setrgbcolor
720 4535 M
63 0 V
2816 0 R
-63 0 V
stroke
648 4535 M
[ [(Helvetica) 120.0 0.0 true true 0 (15)]
] -40.0 MRshow
1.000 UL
LTb
LCb setrgbcolor
1.000 UL
LTa
LCb setrgbcolor
720 2772 M
0 1763 V
stroke
LTb
LCb setrgbcolor
720 2772 M
0 63 V
0 1700 R
0 -63 V
stroke
LTb
LCb setrgbcolor
1.000 UL
LTa
LCb setrgbcolor
1543 2772 M
0 1763 V
stroke
LTb
LCb setrgbcolor
1543 2772 M
0 63 V
0 1700 R
0 -63 V
stroke
LTb
LCb setrgbcolor
1.000 UL
LTa
LCb setrgbcolor
2365 2772 M
0 1763 V
stroke
LTb
LCb setrgbcolor
2365 2772 M
0 63 V
0 1700 R
0 -63 V
stroke
LTb
LCb setrgbcolor
1.000 UL
LTa
LCb setrgbcolor
3188 2772 M
0 1763 V
stroke
LTb
LCb setrgbcolor
3188 2772 M
0 63 V
0 1700 R
0 -63 V
stroke
LTb
LCb setrgbcolor
1.000 UL
LTB
LCb setrgbcolor
720 4535 N
0 -1763 V
2879 0 V
0 1763 V
-2879 0 V
Z stroke
1.000 UP
1.000 UL
LTb
LCb setrgbcolor
LCb setrgbcolor
300 3653 M
currentpoint gsave translate -270 rotate 0 0 moveto
[ [(Helvetica) 120.0 0.0 true true 0 ( \(S=0,T=0\))]
] -40.0 MCshow
grestore
LTb
% Begin plot #1
1.000 UP
1.000 UL
LTb
LCb setrgbcolor
1004 3769 CircleF
1125 3789 CircleF
1276 3817 CircleF
1460 3855 CircleF
1680 3904 CircleF
1941 3966 CircleF
2245 4043 CircleF
2595 4138 CircleF
2996 4252 CircleF
3450 4384 CircleF
% End plot #1
% Begin plot #2
1.000 UL
LTb
LT1
LCb setrgbcolor
720 3734 M
1 0 V
1 0 V
1 0 V
1 0 V
1 0 V
1 0 V
1 0 V
1 0 V
1 0 V
1 0 V
1 0 V
1 0 V
2 0 V
1 -1 V
2 0 V
1 0 V
2 0 V
2 0 V
2 0 V
2 0 V
2 0 V
2 0 V
3 0 V
3 0 V
2 0 V
3 0 V
3 0 V
3 0 V
4 0 V
3 -1 V
4 0 V
3 0 V
4 0 V
4 0 V
5 0 V
4 -1 V
5 0 V
4 0 V
5 0 V
6 -1 V
5 0 V
5 0 V
6 -1 V
6 0 V
6 -1 V
6 0 V
7 0 V
7 -1 V
7 -1 V
7 0 V
7 -1 V
8 0 V
8 -1 V
8 -1 V
8 -1 V
8 0 V
9 -1 V
9 -1 V
9 -1 V
10 -1 V
10 -1 V
10 -1 V
10 -1 V
10 -2 V
11 -1 V
11 -1 V
12 -2 V
11 -1 V
12 -2 V
12 -2 V
13 -1 V
13 -2 V
13 -2 V
13 -2 V
14 -2 V
14 -3 V
14 -2 V
14 -2 V
15 -3 V
16 -2 V
15 -3 V
16 -3 V
16 -3 V
17 -3 V
16 -3 V
18 -4 V
17 -3 V
18 -4 V
18 -4 V
19 -4 V
19 -4 V
19 -4 V
20 -4 V
20 -5 V
20 -5 V
21 -5 V
21 -5 V
21 -5 V
22 -6 V
22 -5 V
23 -6 V
23 -6 V
23 -7 V
24 -6 V
stroke 1680 3576 M
24 -7 V
25 -7 V
25 -7 V
25 -8 V
26 -8 V
26 -8 V
27 -8 V
27 -9 V
28 -8 V
28 -10 V
28 -9 V
29 -10 V
29 -10 V
30 -10 V
30 -11 V
31 -11 V
31 -11 V
31 -12 V
32 -12 V
33 -12 V
33 -13 V
33 -13 V
34 -14 V
34 -14 V
35 -14 V
35 -15 V
36 -15 V
36 -16 V
37 -16 V
37 -17 V
38 -17 V
38 -17 V
39 -18 V
39 -19 V
40 -19 V
40 -19 V
41 -20 V
42 -21 V
41 -21 V
43 -22 V
43 -22 V
43 -23 V
44 -23 V
45 -24 V
45 -25 V
46 -25 V
46 -26 V
47 -27 V
47 -27 V
48 -28 V
43 -26 V
% End plot #2
% Begin plot #3
stroke
1.200 UL
LTb
[8.0 dl1 4.0 dl2 1.0 dl1 2.5 dl2 1.0 dl1 2.5 dl2 1.0 dl1 4.0 dl2 ] 0 setdash
LCb setrgbcolor
802 3733 M
83 -1 V
82 -2 V
82 -3 V
82 -3 V
83 -3 V
82 -3 V
82 -4 V
82 -5 V
83 -5 V
82 -5 V
82 -5 V
82 -6 V
83 -5 V
82 -7 V
82 -6 V
82 -7 V
83 -7 V
82 -7 V
82 -8 V
82 -8 V
83 -8 V
82 -8 V
82 -9 V
82 -9 V
83 -9 V
82 -9 V
82 -10 V
82 -9 V
83 -10 V
82 -11 V
82 -10 V
82 -11 V
83 -11 V
82 -11 V
% End plot #3
stroke
2.000 UL
LTb
LCb setrgbcolor
1.000 UL
LTB
LCb setrgbcolor
720 4535 N
0 -1763 V
2879 0 V
0 1763 V
-2879 0 V
Z stroke
1.000 UP
1.000 UL
LTb
LCb setrgbcolor
1.000 UL
LTb
LCb setrgbcolor
1.000 UL
LTa
LCb setrgbcolor
3600 2932 M
2879 0 V
stroke
LTb
LCb setrgbcolor
3600 2932 M
63 0 V
2816 0 R
-63 0 V
stroke
LTb
LCb setrgbcolor
1.000 UL
LTa
LCb setrgbcolor
3600 3199 M
2879 0 V
stroke
LTb
LCb setrgbcolor
3600 3199 M
63 0 V
2816 0 R
-63 0 V
stroke
LTb
LCb setrgbcolor
1.000 UL
LTa
LCb setrgbcolor
3600 3467 M
2879 0 V
stroke
LTb
LCb setrgbcolor
3600 3467 M
63 0 V
2816 0 R
-63 0 V
stroke
LTb
LCb setrgbcolor
1.000 UL
LTa
LCb setrgbcolor
3600 3734 M
2879 0 V
stroke
LTb
LCb setrgbcolor
3600 3734 M
63 0 V
2816 0 R
-63 0 V
stroke
LTb
LCb setrgbcolor
1.000 UL
LTa
LCb setrgbcolor
3600 4001 M
153 0 V
999 0 R
1727 0 V
stroke
LTb
LCb setrgbcolor
3600 4001 M
63 0 V
2816 0 R
-63 0 V
stroke
LTb
LCb setrgbcolor
1.000 UL
LTa
LCb setrgbcolor
3600 4268 M
153 0 V
999 0 R
1727 0 V
stroke
LTb
LCb setrgbcolor
3600 4268 M
63 0 V
2816 0 R
-63 0 V
stroke
LTb
LCb setrgbcolor
1.000 UL
LTa
LCb setrgbcolor
3600 4535 M
2879 0 V
stroke
LTb
LCb setrgbcolor
3600 4535 M
63 0 V
2816 0 R
-63 0 V
stroke
LTb
LCb setrgbcolor
1.000 UL
LTa
LCb setrgbcolor
3600 2772 M
0 1763 V
stroke
LTb
LCb setrgbcolor
3600 2772 M
0 63 V
0 1700 R
0 -63 V
stroke
LTb
LCb setrgbcolor
1.000 UL
LTa
LCb setrgbcolor
4423 2772 M
0 1227 V
0 360 R
0 176 V
stroke
LTb
LCb setrgbcolor
4423 2772 M
0 63 V
0 1700 R
0 -63 V
stroke
LTb
LCb setrgbcolor
1.000 UL
LTa
LCb setrgbcolor
5245 2772 M
0 1763 V
stroke
LTb
LCb setrgbcolor
5245 2772 M
0 63 V
0 1700 R
0 -63 V
stroke
LTb
LCb setrgbcolor
1.000 UL
LTa
LCb setrgbcolor
6068 2772 M
0 1763 V
stroke
LTb
LCb setrgbcolor
6068 2772 M
0 63 V
0 1700 R
0 -63 V
stroke
LTb
LCb setrgbcolor
6479 2932 M
-63 0 V
stroke
6551 2932 M
[ [(Helvetica) 120.0 0.0 true true 0 (-15)]
] -40.0 MLshow
1.000 UL
LTb
LCb setrgbcolor
6479 3199 M
-63 0 V
stroke
6551 3199 M
[ [(Helvetica) 120.0 0.0 true true 0 (-10)]
] -40.0 MLshow
1.000 UL
LTb
LCb setrgbcolor
6479 3467 M
-63 0 V
stroke
6551 3467 M
[ [(Helvetica) 120.0 0.0 true true 0 (-5)]
] -40.0 MLshow
1.000 UL
LTb
LCb setrgbcolor
6479 3734 M
-63 0 V
stroke
6551 3734 M
[ [(Helvetica) 120.0 0.0 true true 0 ( 0)]
] -40.0 MLshow
1.000 UL
LTb
LCb setrgbcolor
6479 4001 M
-63 0 V
stroke
6551 4001 M
[ [(Helvetica) 120.0 0.0 true true 0 ( 5)]
] -40.0 MLshow
1.000 UL
LTb
LCb setrgbcolor
6479 4268 M
-63 0 V
stroke
6551 4268 M
[ [(Helvetica) 120.0 0.0 true true 0 ( 10)]
] -40.0 MLshow
1.000 UL
LTb
LCb setrgbcolor
6479 4535 M
-63 0 V
stroke
6551 4535 M
[ [(Helvetica) 120.0 0.0 true true 0 ( 15)]
] -40.0 MLshow
1.000 UL
LTb
LCb setrgbcolor
1.000 UL
LTB
LCb setrgbcolor
3600 4535 N
0 -1763 V
2879 0 V
0 1763 V
-2879 0 V
Z stroke
1.000 UP
1.000 UL
LTb
LCb setrgbcolor
LCb setrgbcolor
6898 3653 M
currentpoint gsave translate -270 rotate 0 0 moveto
[ [(Helvetica) 120.0 0.0 true true 0 (\(S=1,T=1\))]
] -40.0 MCshow
grestore
LTb
1.000 UL
LTb
LCb setrgbcolor
3753 3999 N
0 360 V
999 0 V
0 -360 V
-999 0 V
Z stroke
% Begin plot #1
1.000 UP
1.000 UL
LTb
LCb setrgbcolor
LCb setrgbcolor
4257 4299 M
[ [(Helvetica) 120.0 0.0 true true 0 (BHF)]
] -40.0 MRshow
1.000 UP
1.000 UL
LTb
LCb setrgbcolor
3884 3727 CircleF
4005 3723 CircleF
4156 3720 CircleF
4340 3716 CircleF
4560 3717 CircleF
4821 3725 CircleF
5125 3745 CircleF
5475 3784 CircleF
5876 3847 CircleF
6330 3942 CircleF
4504 4299 CircleF
% End plot #1
% Begin plot #2
1.000 UL
LTb
LT1
LCb setrgbcolor
LCb setrgbcolor
4257 4179 M
[ [(Helvetica) 120.0 0.0 true true 0 (SN2LO1)]
] -40.0 MRshow
1.000 UL
LTb
LT1
LCb setrgbcolor
4329 4179 M
351 0 V
3600 3734 M
1 0 V
1 0 V
1 0 V
1 0 V
1 0 V
1 0 V
1 0 V
1 0 V
1 0 V
1 0 V
1 0 V
1 0 V
2 0 V
1 0 V
2 0 V
1 0 V
2 0 V
2 0 V
2 0 V
2 0 V
2 0 V
2 0 V
3 0 V
3 0 V
2 0 V
3 0 V
3 0 V
3 0 V
4 0 V
3 0 V
4 0 V
3 0 V
4 0 V
4 0 V
5 0 V
4 0 V
5 0 V
4 0 V
5 0 V
6 0 V
5 0 V
5 0 V
6 0 V
6 0 V
6 0 V
6 0 V
7 0 V
7 0 V
7 0 V
7 0 V
7 0 V
8 0 V
8 0 V
8 0 V
8 -1 V
8 0 V
9 0 V
9 0 V
9 0 V
10 0 V
10 0 V
10 0 V
10 0 V
10 0 V
11 0 V
11 0 V
12 0 V
11 0 V
12 0 V
12 0 V
13 0 V
13 0 V
13 0 V
13 0 V
14 0 V
14 0 V
14 0 V
14 0 V
15 0 V
16 0 V
15 0 V
16 0 V
16 0 V
17 0 V
16 -1 V
18 0 V
17 0 V
18 0 V
18 0 V
19 0 V
19 0 V
19 0 V
20 0 V
20 0 V
20 0 V
21 -1 V
21 0 V
21 0 V
22 0 V
22 0 V
23 0 V
23 0 V
stroke 4513 3731 M
23 -1 V
24 0 V
24 0 V
25 0 V
25 0 V
25 0 V
26 -1 V
26 0 V
27 0 V
27 0 V
28 -1 V
28 0 V
28 0 V
29 0 V
29 -1 V
30 0 V
30 0 V
31 -1 V
31 0 V
31 0 V
32 -1 V
33 0 V
33 0 V
33 -1 V
34 0 V
34 -1 V
35 0 V
35 -1 V
36 0 V
36 -1 V
37 0 V
37 -1 V
38 0 V
38 -1 V
39 -1 V
39 0 V
40 -1 V
40 -1 V
41 0 V
42 -1 V
41 -1 V
43 -1 V
43 -1 V
43 0 V
44 -1 V
45 -1 V
45 -1 V
46 -1 V
46 -1 V
47 -1 V
47 -1 V
48 -2 V
48 -1 V
49 -1 V
50 -1 V
2 0 V
% End plot #2
% Begin plot #3
stroke
1.200 UL
LTb
[8.0 dl1 4.0 dl2 1.0 dl1 2.5 dl2 1.0 dl1 2.5 dl2 1.0 dl1 4.0 dl2 ] 0 setdash
LCb setrgbcolor
LCb setrgbcolor
4257 4059 M
[ [(Helvetica) 120.0 0.0 true true 0 (SLy5)]
] -40.0 MRshow
1.200 UL
LTb
[8.0 dl1 4.0 dl2 1.0 dl1 2.5 dl2 1.0 dl1 2.5 dl2 1.0 dl1 4.0 dl2 ] 0 setdash
LCb setrgbcolor
4329 4059 M
351 0 V
3682 3733 M
83 -1 V
82 -2 V
82 -3 V
82 -3 V
83 -3 V
82 -3 V
82 -4 V
82 -5 V
83 -5 V
82 -5 V
82 -5 V
82 -6 V
83 -5 V
82 -7 V
82 -6 V
82 -7 V
83 -7 V
82 -7 V
82 -8 V
82 -8 V
83 -8 V
82 -8 V
82 -9 V
82 -9 V
83 -9 V
82 -9 V
82 -10 V
82 -9 V
83 -10 V
82 -11 V
82 -10 V
82 -11 V
83 -11 V
82 -11 V
% End plot #3
stroke
2.000 UL
LTb
LCb setrgbcolor
1.000 UL
LTB
LCb setrgbcolor
3600 4535 N
0 -1763 V
2879 0 V
0 1763 V
-2879 0 V
Z stroke
1.000 UP
1.000 UL
LTb
LCb setrgbcolor
1.000 UL
LTb
LCb setrgbcolor
1.000 UL
LTa
LCb setrgbcolor
720 1008 M
2879 0 V
stroke
LTb
LCb setrgbcolor
720 1008 M
63 0 V
2816 0 R
-63 0 V
stroke
648 1008 M
[ [(Helvetica) 120.0 0.0 true true 0 (-30)]
] -40.0 MRshow
1.000 UL
LTb
LCb setrgbcolor
1.000 UL
LTa
LCb setrgbcolor
720 1302 M
2879 0 V
stroke
LTb
LCb setrgbcolor
720 1302 M
63 0 V
2816 0 R
-63 0 V
stroke
648 1302 M
[ [(Helvetica) 120.0 0.0 true true 0 (-25)]
] -40.0 MRshow
1.000 UL
LTb
LCb setrgbcolor
1.000 UL
LTa
LCb setrgbcolor
720 1596 M
2879 0 V
stroke
LTb
LCb setrgbcolor
720 1596 M
63 0 V
2816 0 R
-63 0 V
stroke
648 1596 M
[ [(Helvetica) 120.0 0.0 true true 0 (-20)]
] -40.0 MRshow
1.000 UL
LTb
LCb setrgbcolor
1.000 UL
LTa
LCb setrgbcolor
720 1890 M
2879 0 V
stroke
LTb
LCb setrgbcolor
720 1890 M
63 0 V
2816 0 R
-63 0 V
stroke
648 1890 M
[ [(Helvetica) 120.0 0.0 true true 0 (-15)]
] -40.0 MRshow
1.000 UL
LTb
LCb setrgbcolor
1.000 UL
LTa
LCb setrgbcolor
720 2183 M
2879 0 V
stroke
LTb
LCb setrgbcolor
720 2183 M
63 0 V
2816 0 R
-63 0 V
stroke
648 2183 M
[ [(Helvetica) 120.0 0.0 true true 0 (-10)]
] -40.0 MRshow
1.000 UL
LTb
LCb setrgbcolor
1.000 UL
LTa
LCb setrgbcolor
720 2477 M
2879 0 V
stroke
LTb
LCb setrgbcolor
720 2477 M
63 0 V
2816 0 R
-63 0 V
stroke
648 2477 M
[ [(Helvetica) 120.0 0.0 true true 0 (-5)]
] -40.0 MRshow
1.000 UL
LTb
LCb setrgbcolor
1.000 UL
LTa
LCb setrgbcolor
720 2771 M
2879 0 V
stroke
LTb
LCb setrgbcolor
720 2771 M
63 0 V
2816 0 R
-63 0 V
stroke
648 2771 M
[ [(Helvetica) 120.0 0.0 true true 0 (0)]
] -40.0 MRshow
1.000 UL
LTb
LCb setrgbcolor
1.000 UL
LTa
LCb setrgbcolor
720 1008 M
0 1763 V
stroke
LTb
LCb setrgbcolor
720 1008 M
0 63 V
0 1700 R
0 -63 V
stroke
720 888 M
[ [(Helvetica) 120.0 0.0 true true 0 (0)]
] -40.0 MCshow
1.000 UL
LTb
LCb setrgbcolor
1.000 UL
LTa
LCb setrgbcolor
1543 1008 M
0 1763 V
stroke
LTb
LCb setrgbcolor
1543 1008 M
0 63 V
0 1700 R
0 -63 V
stroke
1543 888 M
[ [(Helvetica) 120.0 0.0 true true 0 (0.1)]
] -40.0 MCshow
1.000 UL
LTb
LCb setrgbcolor
1.000 UL
LTa
LCb setrgbcolor
2365 1008 M
0 1763 V
stroke
LTb
LCb setrgbcolor
2365 1008 M
0 63 V
0 1700 R
0 -63 V
stroke
2365 888 M
[ [(Helvetica) 120.0 0.0 true true 0 (0.2)]
] -40.0 MCshow
1.000 UL
LTb
LCb setrgbcolor
1.000 UL
LTa
LCb setrgbcolor
3188 1008 M
0 1763 V
stroke
LTb
LCb setrgbcolor
3188 1008 M
0 63 V
0 1700 R
0 -63 V
stroke
3188 888 M
[ [(Helvetica) 120.0 0.0 true true 0 (0.3)]
] -40.0 MCshow
1.000 UL
LTb
LCb setrgbcolor
1.000 UL
LTB
LCb setrgbcolor
720 2771 N
0 -1763 V
2879 0 V
0 1763 V
-2879 0 V
Z stroke
1.000 UP
1.000 UL
LTb
LCb setrgbcolor
LCb setrgbcolor
300 1889 M
currentpoint gsave translate -270 rotate 0 0 moveto
[ [(Helvetica) 120.0 0.0 true true 0 ( \(S=1,T=0\))]
] -40.0 MCshow
grestore
LTb
LCb setrgbcolor
2159 708 M
[ [(Symbol) 120.0 0.0 true true 0 (r)]
[(Helvetica) 120.0 0.0 true true 0 ( [fm)]
[(Helvetica) 96.0 60.0 true true 0 (-3)]
[(Helvetica) 120.0 0.0 true true 0 (])]
] -52.0 MCshow
LTb
% Begin plot #1
1.000 UP
1.000 UL
LTb
LCb setrgbcolor
1004 2172 CircleF
1125 2020 CircleF
1276 1861 CircleF
1460 1692 CircleF
1680 1519 CircleF
1941 1330 CircleF
2245 1136 CircleF
% End plot #1
% Begin plot #2
1.000 UL
LTb
LT1
LCb setrgbcolor
720 2771 M
0 -1 V
0 -1 V
1 0 V
0 -1 V
0 -1 V
0 -1 V
1 -1 V
0 -1 V
0 -2 V
1 -1 V
0 -2 V
1 -2 V
0 -2 V
1 -2 V
1 -3 V
1 -2 V
1 -3 V
1 -3 V
1 -4 V
1 -3 V
1 -4 V
2 -4 V
1 -4 V
2 -4 V
1 -5 V
2 -5 V
2 -5 V
2 -5 V
2 -6 V
2 -6 V
2 -6 V
3 -6 V
3 -6 V
2 -7 V
3 -7 V
3 -7 V
3 -7 V
4 -8 V
3 -8 V
4 -8 V
3 -8 V
4 -9 V
4 -8 V
5 -9 V
4 -9 V
5 -10 V
4 -9 V
5 -10 V
6 -10 V
5 -10 V
5 -10 V
6 -11 V
6 -11 V
6 -10 V
6 -12 V
7 -11 V
7 -11 V
7 -11 V
7 -12 V
7 -12 V
8 -12 V
8 -12 V
8 -12 V
8 -12 V
8 -12 V
9 -13 V
9 -12 V
9 -13 V
10 -12 V
10 -13 V
10 -12 V
10 -13 V
10 -13 V
11 -13 V
11 -12 V
12 -13 V
11 -13 V
12 -12 V
12 -13 V
13 -13 V
13 -12 V
13 -12 V
13 -13 V
14 -12 V
14 -12 V
14 -12 V
14 -12 V
15 -12 V
16 -11 V
15 -11 V
16 -11 V
16 -11 V
17 -11 V
16 -10 V
18 -10 V
17 -10 V
18 -10 V
18 -9 V
19 -9 V
19 -9 V
19 -8 V
20 -8 V
20 -7 V
20 -7 V
stroke 1480 1915 M
21 -7 V
21 -6 V
21 -6 V
22 -5 V
22 -5 V
23 -4 V
23 -4 V
23 -3 V
24 -3 V
24 -2 V
25 -1 V
25 -1 V
25 0 V
26 1 V
26 1 V
27 2 V
27 3 V
28 4 V
28 4 V
28 5 V
29 6 V
29 7 V
30 8 V
30 8 V
31 10 V
31 10 V
31 12 V
32 12 V
33 14 V
33 14 V
33 16 V
34 17 V
34 17 V
35 19 V
35 20 V
36 22 V
36 22 V
37 24 V
37 25 V
38 26 V
38 28 V
39 29 V
39 30 V
40 32 V
40 34 V
41 34 V
42 37 V
41 37 V
43 40 V
43 40 V
43 43 V
44 44 V
45 46 V
45 47 V
46 50 V
3 3 V
% End plot #2
% Begin plot #3
stroke
1.200 UL
LTb
[8.0 dl1 4.0 dl2 1.0 dl1 2.5 dl2 1.0 dl1 2.5 dl2 1.0 dl1 4.0 dl2 ] 0 setdash
LCb setrgbcolor
802 2558 M
83 -152 V
82 -122 V
82 -102 V
82 -84 V
83 -70 V
82 -58 V
82 -46 V
82 -36 V
83 -27 V
82 -18 V
82 -10 V
82 -3 V
83 5 V
82 11 V
82 18 V
82 25 V
83 30 V
82 36 V
82 41 V
82 47 V
83 52 V
82 57 V
82 62 V
82 66 V
83 71 V
82 76 V
82 80 V
82 84 V
83 88 V
81 92 V
% End plot #3
stroke
2.000 UL
LTb
LCb setrgbcolor
1.000 UL
LTB
LCb setrgbcolor
720 2771 N
0 -1763 V
2879 0 V
0 1763 V
-2879 0 V
Z stroke
1.000 UP
1.000 UL
LTb
LCb setrgbcolor
1.000 UL
LTb
LCb setrgbcolor
1.000 UL
LTa
LCb setrgbcolor
3600 1008 M
2879 0 V
stroke
LTb
LCb setrgbcolor
3600 1008 M
63 0 V
2816 0 R
-63 0 V
stroke
LTb
LCb setrgbcolor
1.000 UL
LTa
LCb setrgbcolor
3600 1302 M
2879 0 V
stroke
LTb
LCb setrgbcolor
3600 1302 M
63 0 V
2816 0 R
-63 0 V
stroke
LTb
LCb setrgbcolor
1.000 UL
LTa
LCb setrgbcolor
3600 1596 M
2879 0 V
stroke
LTb
LCb setrgbcolor
3600 1596 M
63 0 V
2816 0 R
-63 0 V
stroke
LTb
LCb setrgbcolor
1.000 UL
LTa
LCb setrgbcolor
3600 1890 M
2879 0 V
stroke
LTb
LCb setrgbcolor
3600 1890 M
63 0 V
2816 0 R
-63 0 V
stroke
LTb
LCb setrgbcolor
1.000 UL
LTa
LCb setrgbcolor
3600 2183 M
2879 0 V
stroke
LTb
LCb setrgbcolor
3600 2183 M
63 0 V
2816 0 R
-63 0 V
stroke
LTb
LCb setrgbcolor
1.000 UL
LTa
LCb setrgbcolor
3600 2477 M
2879 0 V
stroke
LTb
LCb setrgbcolor
3600 2477 M
63 0 V
2816 0 R
-63 0 V
stroke
LTb
LCb setrgbcolor
1.000 UL
LTa
LCb setrgbcolor
3600 2771 M
2879 0 V
stroke
LTb
LCb setrgbcolor
3600 2771 M
63 0 V
2816 0 R
-63 0 V
stroke
LTb
LCb setrgbcolor
1.000 UL
LTa
LCb setrgbcolor
3600 1008 M
0 1763 V
stroke
LTb
LCb setrgbcolor
3600 1008 M
0 63 V
0 1700 R
0 -63 V
stroke
3600 888 M
[ [(Helvetica) 120.0 0.0 true true 0 (0)]
] -40.0 MCshow
1.000 UL
LTb
LCb setrgbcolor
1.000 UL
LTa
LCb setrgbcolor
4423 1008 M
0 1763 V
stroke
LTb
LCb setrgbcolor
4423 1008 M
0 63 V
0 1700 R
0 -63 V
stroke
4423 888 M
[ [(Helvetica) 120.0 0.0 true true 0 (0.1)]
] -40.0 MCshow
1.000 UL
LTb
LCb setrgbcolor
1.000 UL
LTa
LCb setrgbcolor
5245 1008 M
0 1763 V
stroke
LTb
LCb setrgbcolor
5245 1008 M
0 63 V
0 1700 R
0 -63 V
stroke
5245 888 M
[ [(Helvetica) 120.0 0.0 true true 0 (0.2)]
] -40.0 MCshow
1.000 UL
LTb
LCb setrgbcolor
1.000 UL
LTa
LCb setrgbcolor
6068 1008 M
0 1763 V
stroke
LTb
LCb setrgbcolor
6068 1008 M
0 63 V
0 1700 R
0 -63 V
stroke
6068 888 M
[ [(Helvetica) 120.0 0.0 true true 0 (0.3)]
] -40.0 MCshow
1.000 UL
LTb
LCb setrgbcolor
6479 1008 M
-63 0 V
stroke
6551 1008 M
[ [(Helvetica) 120.0 0.0 true true 0 (-30)]
] -40.0 MLshow
1.000 UL
LTb
LCb setrgbcolor
6479 1302 M
-63 0 V
stroke
6551 1302 M
[ [(Helvetica) 120.0 0.0 true true 0 (-25)]
] -40.0 MLshow
1.000 UL
LTb
LCb setrgbcolor
6479 1596 M
-63 0 V
stroke
6551 1596 M
[ [(Helvetica) 120.0 0.0 true true 0 (-20)]
] -40.0 MLshow
1.000 UL
LTb
LCb setrgbcolor
6479 1890 M
-63 0 V
stroke
6551 1890 M
[ [(Helvetica) 120.0 0.0 true true 0 (-15)]
] -40.0 MLshow
1.000 UL
LTb
LCb setrgbcolor
6479 2183 M
-63 0 V
stroke
6551 2183 M
[ [(Helvetica) 120.0 0.0 true true 0 (-10)]
] -40.0 MLshow
1.000 UL
LTb
LCb setrgbcolor
6479 2477 M
-63 0 V
stroke
6551 2477 M
[ [(Helvetica) 120.0 0.0 true true 0 (-5)]
] -40.0 MLshow
1.000 UL
LTb
LCb setrgbcolor
6479 2771 M
-63 0 V
stroke
6551 2771 M
[ [(Helvetica) 120.0 0.0 true true 0 ( 0)]
] -40.0 MLshow
1.000 UL
LTb
LCb setrgbcolor
1.000 UL
LTB
LCb setrgbcolor
3600 2771 N
0 -1763 V
2879 0 V
0 1763 V
-2879 0 V
Z stroke
1.000 UP
1.000 UL
LTb
LCb setrgbcolor
LCb setrgbcolor
6898 1889 M
currentpoint gsave translate -270 rotate 0 0 moveto
[ [(Helvetica) 120.0 0.0 true true 0 (\(S=0,T=1\))]
] -40.0 MCshow
grestore
LTb
LCb setrgbcolor
5039 708 M
[ [(Symbol) 120.0 0.0 true true 0 (r)]
[(Helvetica) 120.0 0.0 true true 0 ( [fm)]
[(Helvetica) 96.0 60.0 true true 0 (-3)]
[(Helvetica) 120.0 0.0 true true 0 (])]
] -52.0 MCshow
LTb
% Begin plot #1
1.000 UP
1.000 UL
LTb
LCb setrgbcolor
3884 2433 CircleF
4005 2333 CircleF
4156 2224 CircleF
4340 2108 CircleF
4560 1986 CircleF
4821 1860 CircleF
5125 1736 CircleF
5475 1623 CircleF
5876 1531 CircleF
6330 1470 CircleF
% End plot #1
% Begin plot #2
1.000 UL
LTb
LT1
LCb setrgbcolor
3600 2771 M
0 -1 V
1 0 V
0 -1 V
1 0 V
0 -1 V
1 -1 V
1 -1 V
0 -1 V
1 -1 V
1 -1 V
1 -1 V
1 -1 V
1 -1 V
1 -2 V
1 -1 V
1 -2 V
2 -1 V
1 -2 V
2 -2 V
1 -2 V
2 -3 V
2 -2 V
2 -2 V
2 -3 V
2 -3 V
2 -2 V
3 -3 V
3 -4 V
2 -3 V
3 -3 V
3 -4 V
3 -4 V
4 -4 V
3 -4 V
4 -4 V
3 -4 V
4 -5 V
4 -5 V
5 -5 V
4 -5 V
5 -5 V
4 -5 V
5 -6 V
6 -6 V
5 -6 V
5 -6 V
6 -6 V
6 -7 V
6 -6 V
6 -7 V
7 -7 V
7 -8 V
7 -7 V
7 -8 V
7 -8 V
8 -8 V
8 -8 V
8 -8 V
8 -9 V
8 -9 V
9 -9 V
9 -9 V
9 -9 V
10 -10 V
10 -10 V
10 -9 V
10 -11 V
10 -10 V
11 -10 V
11 -11 V
12 -11 V
11 -11 V
12 -11 V
12 -12 V
13 -11 V
13 -12 V
13 -12 V
13 -12 V
14 -12 V
14 -13 V
14 -12 V
14 -13 V
15 -13 V
16 -13 V
15 -14 V
16 -13 V
16 -14 V
17 -13 V
16 -14 V
18 -14 V
17 -14 V
18 -14 V
18 -15 V
19 -14 V
19 -15 V
19 -15 V
20 -15 V
20 -15 V
20 -15 V
21 -15 V
21 -15 V
21 -15 V
22 -16 V
22 -15 V
stroke 4467 1980 M
23 -16 V
23 -15 V
23 -16 V
24 -16 V
24 -16 V
25 -15 V
25 -16 V
25 -16 V
26 -16 V
26 -16 V
27 -16 V
27 -16 V
28 -16 V
28 -16 V
28 -16 V
29 -15 V
29 -16 V
30 -16 V
30 -16 V
31 -15 V
31 -16 V
31 -15 V
32 -16 V
33 -15 V
33 -15 V
33 -15 V
34 -15 V
34 -15 V
35 -15 V
35 -14 V
36 -15 V
36 -14 V
37 -14 V
37 -13 V
38 -14 V
38 -13 V
39 -14 V
39 -12 V
40 -13 V
40 -12 V
41 -12 V
42 -12 V
41 -12 V
43 -11 V
43 -11 V
43 -10 V
44 -10 V
45 -10 V
45 -10 V
46 -9 V
46 -8 V
47 -8 V
47 -8 V
48 -7 V
48 -7 V
49 -7 V
50 -6 V
2 0 V
% End plot #2
% Begin plot #3
stroke
2.000 UL
LTb
[8.0 dl1 4.0 dl2 1.0 dl1 2.5 dl2 1.0 dl1 2.5 dl2 1.0 dl1 4.0 dl2 ] 0 setdash
LCb setrgbcolor
3682 2679 M
41 -41 V
41 -40 V
40 -38 V
41 -38 V
41 -37 V
41 -36 V
40 -34 V
41 -34 V
41 -34 V
40 -32 V
41 -32 V
41 -30 V
41 -31 V
40 -29 V
41 -29 V
41 -28 V
40 -27 V
41 -27 V
41 -25 V
41 -26 V
40 -25 V
41 -24 V
41 -23 V
40 -23 V
41 -22 V
41 -22 V
41 -21 V
40 -20 V
41 -20 V
41 -20 V
40 -19 V
41 -18 V
41 -18 V
41 -17 V
40 -17 V
41 -16 V
41 -15 V
40 -15 V
41 -15 V
41 -14 V
40 -14 V
41 -13 V
41 -12 V
41 -13 V
40 -11 V
41 -11 V
41 -11 V
40 -10 V
41 -10 V
41 -9 V
41 -9 V
40 -8 V
41 -8 V
41 -8 V
40 -6 V
41 -7 V
41 -6 V
41 -6 V
40 -5 V
41 -5 V
41 -4 V
40 -4 V
41 -3 V
41 -3 V
41 -3 V
40 -2 V
41 -1 V
41 -2 V
28 0 V
% End plot #3
stroke
LTb
LCb setrgbcolor
1.000 UL
LTB
LCb setrgbcolor
3600 2771 N
0 -1763 V
2879 0 V
0 1763 V
-2879 0 V
Z stroke
1.000 UP
1.000 UL
LTb
LCb setrgbcolor
stroke
grestore
end
showpage
%%Trailer
%%DocumentFonts: Symbol Helvetica
%%Pages: 1
