%!PS-Adobe-2.0
%%Title: EOS_SNM_ST_fit3.eps
%%Creator: gnuplot 5.0 patchlevel 3
%%CreationDate: Tue Jun 27 20:38:58 2017
%%DocumentFonts: (atend)
%%BoundingBox: 50 50 554 770
%%Orientation: Landscape
%%Pages: (atend)
%%EndComments
%%BeginProlog
/gnudict 256 dict def
gnudict begin
%
% The following true/false flags may be edited by hand if desired.
% The unit line width and grayscale image gamma correction may also be changed.
%
/Color false def
/Blacktext false def
/Solid false def
/Dashlength 1 def
/Landscape true def
/Level1 false def
/Level3 false def
/Rounded false def
/ClipToBoundingBox false def
/SuppressPDFMark false def
/TransparentPatterns false def
/gnulinewidth 5.000 def
/userlinewidth gnulinewidth def
/Gamma 1.0 def
/BackgroundColor {-1.000 -1.000 -1.000} def
%
/vshift -60 def
/dl1 {
  10.0 Dashlength userlinewidth gnulinewidth div mul mul mul
  Rounded { currentlinewidth 0.75 mul sub dup 0 le { pop 0.01 } if } if
} def
/dl2 {
  10.0 Dashlength userlinewidth gnulinewidth div mul mul mul
  Rounded { currentlinewidth 0.75 mul add } if
} def
/hpt_ 31.5 def
/vpt_ 31.5 def
/hpt hpt_ def
/vpt vpt_ def
/doclip {
  ClipToBoundingBox {
    newpath 50 50 moveto 554 50 lineto 554 770 lineto 50 770 lineto closepath
    clip
  } if
} def
%
% Gnuplot Prolog Version 5.1 (Oct 2015)
%
%/SuppressPDFMark true def
%
/M {moveto} bind def
/L {lineto} bind def
/R {rmoveto} bind def
/V {rlineto} bind def
/N {newpath moveto} bind def
/Z {closepath} bind def
/C {setrgbcolor} bind def
/f {rlineto fill} bind def
/g {setgray} bind def
/Gshow {show} def   % May be redefined later in the file to support UTF-8
/vpt2 vpt 2 mul def
/hpt2 hpt 2 mul def
/Lshow {currentpoint stroke M 0 vshift R 
	Blacktext {gsave 0 setgray textshow grestore} {textshow} ifelse} def
/Rshow {currentpoint stroke M dup stringwidth pop neg vshift R
	Blacktext {gsave 0 setgray textshow grestore} {textshow} ifelse} def
/Cshow {currentpoint stroke M dup stringwidth pop -2 div vshift R 
	Blacktext {gsave 0 setgray textshow grestore} {textshow} ifelse} def
/UP {dup vpt_ mul /vpt exch def hpt_ mul /hpt exch def
  /hpt2 hpt 2 mul def /vpt2 vpt 2 mul def} def
/DL {Color {setrgbcolor Solid {pop []} if 0 setdash}
 {pop pop pop 0 setgray Solid {pop []} if 0 setdash} ifelse} def
/BL {stroke userlinewidth 2 mul setlinewidth
	Rounded {1 setlinejoin 1 setlinecap} if} def
/AL {stroke userlinewidth 2 div setlinewidth
	Rounded {1 setlinejoin 1 setlinecap} if} def
/UL {dup gnulinewidth mul /userlinewidth exch def
	dup 1 lt {pop 1} if 10 mul /udl exch def} def
/PL {stroke userlinewidth setlinewidth
	Rounded {1 setlinejoin 1 setlinecap} if} def
3.8 setmiterlimit
% Classic Line colors (version 5.0)
/LCw {1 1 1} def
/LCb {0 0 0} def
/LCa {0 0 0} def
/LC0 {1 0 0} def
/LC1 {0 1 0} def
/LC2 {0 0 1} def
/LC3 {1 0 1} def
/LC4 {0 1 1} def
/LC5 {1 1 0} def
/LC6 {0 0 0} def
/LC7 {1 0.3 0} def
/LC8 {0.5 0.5 0.5} def
% Default dash patterns (version 5.0)
/LTB {BL [] LCb DL} def
/LTw {PL [] 1 setgray} def
/LTb {PL [] LCb DL} def
/LTa {AL [1 udl mul 2 udl mul] 0 setdash LCa setrgbcolor} def
/LT0 {PL [] LC0 DL} def
/LT1 {PL [2 dl1 3 dl2] LC1 DL} def
/LT2 {PL [1 dl1 1.5 dl2] LC2 DL} def
/LT3 {PL [6 dl1 2 dl2 1 dl1 2 dl2] LC3 DL} def
/LT4 {PL [1 dl1 2 dl2 6 dl1 2 dl2 1 dl1 2 dl2] LC4 DL} def
/LT5 {PL [4 dl1 2 dl2] LC5 DL} def
/LT6 {PL [1.5 dl1 1.5 dl2 1.5 dl1 1.5 dl2 1.5 dl1 6 dl2] LC6 DL} def
/LT7 {PL [3 dl1 3 dl2 1 dl1 3 dl2] LC7 DL} def
/LT8 {PL [2 dl1 2 dl2 2 dl1 6 dl2] LC8 DL} def
/SL {[] 0 setdash} def
/Pnt {stroke [] 0 setdash gsave 1 setlinecap M 0 0 V stroke grestore} def
/Dia {stroke [] 0 setdash 2 copy vpt add M
  hpt neg vpt neg V hpt vpt neg V
  hpt vpt V hpt neg vpt V closepath stroke
  Pnt} def
/Pls {stroke [] 0 setdash vpt sub M 0 vpt2 V
  currentpoint stroke M
  hpt neg vpt neg R hpt2 0 V stroke
 } def
/Box {stroke [] 0 setdash 2 copy exch hpt sub exch vpt add M
  0 vpt2 neg V hpt2 0 V 0 vpt2 V
  hpt2 neg 0 V closepath stroke
  Pnt} def
/Crs {stroke [] 0 setdash exch hpt sub exch vpt add M
  hpt2 vpt2 neg V currentpoint stroke M
  hpt2 neg 0 R hpt2 vpt2 V stroke} def
/TriU {stroke [] 0 setdash 2 copy vpt 1.12 mul add M
  hpt neg vpt -1.62 mul V
  hpt 2 mul 0 V
  hpt neg vpt 1.62 mul V closepath stroke
  Pnt} def
/Star {2 copy Pls Crs} def
/BoxF {stroke [] 0 setdash exch hpt sub exch vpt add M
  0 vpt2 neg V hpt2 0 V 0 vpt2 V
  hpt2 neg 0 V closepath fill} def
/TriUF {stroke [] 0 setdash vpt 1.12 mul add M
  hpt neg vpt -1.62 mul V
  hpt 2 mul 0 V
  hpt neg vpt 1.62 mul V closepath fill} def
/TriD {stroke [] 0 setdash 2 copy vpt 1.12 mul sub M
  hpt neg vpt 1.62 mul V
  hpt 2 mul 0 V
  hpt neg vpt -1.62 mul V closepath stroke
  Pnt} def
/TriDF {stroke [] 0 setdash vpt 1.12 mul sub M
  hpt neg vpt 1.62 mul V
  hpt 2 mul 0 V
  hpt neg vpt -1.62 mul V closepath fill} def
/DiaF {stroke [] 0 setdash vpt add M
  hpt neg vpt neg V hpt vpt neg V
  hpt vpt V hpt neg vpt V closepath fill} def
/Pent {stroke [] 0 setdash 2 copy gsave
  translate 0 hpt M 4 {72 rotate 0 hpt L} repeat
  closepath stroke grestore Pnt} def
/PentF {stroke [] 0 setdash gsave
  translate 0 hpt M 4 {72 rotate 0 hpt L} repeat
  closepath fill grestore} def
/Circle {stroke [] 0 setdash 2 copy
  hpt 0 360 arc stroke Pnt} def
/CircleF {stroke [] 0 setdash hpt 0 360 arc fill} def
/C0 {BL [] 0 setdash 2 copy moveto vpt 90 450 arc} bind def
/C1 {BL [] 0 setdash 2 copy moveto
	2 copy vpt 0 90 arc closepath fill
	vpt 0 360 arc closepath} bind def
/C2 {BL [] 0 setdash 2 copy moveto
	2 copy vpt 90 180 arc closepath fill
	vpt 0 360 arc closepath} bind def
/C3 {BL [] 0 setdash 2 copy moveto
	2 copy vpt 0 180 arc closepath fill
	vpt 0 360 arc closepath} bind def
/C4 {BL [] 0 setdash 2 copy moveto
	2 copy vpt 180 270 arc closepath fill
	vpt 0 360 arc closepath} bind def
/C5 {BL [] 0 setdash 2 copy moveto
	2 copy vpt 0 90 arc
	2 copy moveto
	2 copy vpt 180 270 arc closepath fill
	vpt 0 360 arc} bind def
/C6 {BL [] 0 setdash 2 copy moveto
	2 copy vpt 90 270 arc closepath fill
	vpt 0 360 arc closepath} bind def
/C7 {BL [] 0 setdash 2 copy moveto
	2 copy vpt 0 270 arc closepath fill
	vpt 0 360 arc closepath} bind def
/C8 {BL [] 0 setdash 2 copy moveto
	2 copy vpt 270 360 arc closepath fill
	vpt 0 360 arc closepath} bind def
/C9 {BL [] 0 setdash 2 copy moveto
	2 copy vpt 270 450 arc closepath fill
	vpt 0 360 arc closepath} bind def
/C10 {BL [] 0 setdash 2 copy 2 copy moveto vpt 270 360 arc closepath fill
	2 copy moveto
	2 copy vpt 90 180 arc closepath fill
	vpt 0 360 arc closepath} bind def
/C11 {BL [] 0 setdash 2 copy moveto
	2 copy vpt 0 180 arc closepath fill
	2 copy moveto
	2 copy vpt 270 360 arc closepath fill
	vpt 0 360 arc closepath} bind def
/C12 {BL [] 0 setdash 2 copy moveto
	2 copy vpt 180 360 arc closepath fill
	vpt 0 360 arc closepath} bind def
/C13 {BL [] 0 setdash 2 copy moveto
	2 copy vpt 0 90 arc closepath fill
	2 copy moveto
	2 copy vpt 180 360 arc closepath fill
	vpt 0 360 arc closepath} bind def
/C14 {BL [] 0 setdash 2 copy moveto
	2 copy vpt 90 360 arc closepath fill
	vpt 0 360 arc} bind def
/C15 {BL [] 0 setdash 2 copy vpt 0 360 arc closepath fill
	vpt 0 360 arc closepath} bind def
/Rec {newpath 4 2 roll moveto 1 index 0 rlineto 0 exch rlineto
	neg 0 rlineto closepath} bind def
/Square {dup Rec} bind def
/Bsquare {vpt sub exch vpt sub exch vpt2 Square} bind def
/S0 {BL [] 0 setdash 2 copy moveto 0 vpt rlineto BL Bsquare} bind def
/S1 {BL [] 0 setdash 2 copy vpt Square fill Bsquare} bind def
/S2 {BL [] 0 setdash 2 copy exch vpt sub exch vpt Square fill Bsquare} bind def
/S3 {BL [] 0 setdash 2 copy exch vpt sub exch vpt2 vpt Rec fill Bsquare} bind def
/S4 {BL [] 0 setdash 2 copy exch vpt sub exch vpt sub vpt Square fill Bsquare} bind def
/S5 {BL [] 0 setdash 2 copy 2 copy vpt Square fill
	exch vpt sub exch vpt sub vpt Square fill Bsquare} bind def
/S6 {BL [] 0 setdash 2 copy exch vpt sub exch vpt sub vpt vpt2 Rec fill Bsquare} bind def
/S7 {BL [] 0 setdash 2 copy exch vpt sub exch vpt sub vpt vpt2 Rec fill
	2 copy vpt Square fill Bsquare} bind def
/S8 {BL [] 0 setdash 2 copy vpt sub vpt Square fill Bsquare} bind def
/S9 {BL [] 0 setdash 2 copy vpt sub vpt vpt2 Rec fill Bsquare} bind def
/S10 {BL [] 0 setdash 2 copy vpt sub vpt Square fill 2 copy exch vpt sub exch vpt Square fill
	Bsquare} bind def
/S11 {BL [] 0 setdash 2 copy vpt sub vpt Square fill 2 copy exch vpt sub exch vpt2 vpt Rec fill
	Bsquare} bind def
/S12 {BL [] 0 setdash 2 copy exch vpt sub exch vpt sub vpt2 vpt Rec fill Bsquare} bind def
/S13 {BL [] 0 setdash 2 copy exch vpt sub exch vpt sub vpt2 vpt Rec fill
	2 copy vpt Square fill Bsquare} bind def
/S14 {BL [] 0 setdash 2 copy exch vpt sub exch vpt sub vpt2 vpt Rec fill
	2 copy exch vpt sub exch vpt Square fill Bsquare} bind def
/S15 {BL [] 0 setdash 2 copy Bsquare fill Bsquare} bind def
/D0 {gsave translate 45 rotate 0 0 S0 stroke grestore} bind def
/D1 {gsave translate 45 rotate 0 0 S1 stroke grestore} bind def
/D2 {gsave translate 45 rotate 0 0 S2 stroke grestore} bind def
/D3 {gsave translate 45 rotate 0 0 S3 stroke grestore} bind def
/D4 {gsave translate 45 rotate 0 0 S4 stroke grestore} bind def
/D5 {gsave translate 45 rotate 0 0 S5 stroke grestore} bind def
/D6 {gsave translate 45 rotate 0 0 S6 stroke grestore} bind def
/D7 {gsave translate 45 rotate 0 0 S7 stroke grestore} bind def
/D8 {gsave translate 45 rotate 0 0 S8 stroke grestore} bind def
/D9 {gsave translate 45 rotate 0 0 S9 stroke grestore} bind def
/D10 {gsave translate 45 rotate 0 0 S10 stroke grestore} bind def
/D11 {gsave translate 45 rotate 0 0 S11 stroke grestore} bind def
/D12 {gsave translate 45 rotate 0 0 S12 stroke grestore} bind def
/D13 {gsave translate 45 rotate 0 0 S13 stroke grestore} bind def
/D14 {gsave translate 45 rotate 0 0 S14 stroke grestore} bind def
/D15 {gsave translate 45 rotate 0 0 S15 stroke grestore} bind def
/DiaE {stroke [] 0 setdash vpt add M
  hpt neg vpt neg V hpt vpt neg V
  hpt vpt V hpt neg vpt V closepath stroke} def
/BoxE {stroke [] 0 setdash exch hpt sub exch vpt add M
  0 vpt2 neg V hpt2 0 V 0 vpt2 V
  hpt2 neg 0 V closepath stroke} def
/TriUE {stroke [] 0 setdash vpt 1.12 mul add M
  hpt neg vpt -1.62 mul V
  hpt 2 mul 0 V
  hpt neg vpt 1.62 mul V closepath stroke} def
/TriDE {stroke [] 0 setdash vpt 1.12 mul sub M
  hpt neg vpt 1.62 mul V
  hpt 2 mul 0 V
  hpt neg vpt -1.62 mul V closepath stroke} def
/PentE {stroke [] 0 setdash gsave
  translate 0 hpt M 4 {72 rotate 0 hpt L} repeat
  closepath stroke grestore} def
/CircE {stroke [] 0 setdash 
  hpt 0 360 arc stroke} def
/Opaque {gsave closepath 1 setgray fill grestore 0 setgray closepath} def
/DiaW {stroke [] 0 setdash vpt add M
  hpt neg vpt neg V hpt vpt neg V
  hpt vpt V hpt neg vpt V Opaque stroke} def
/BoxW {stroke [] 0 setdash exch hpt sub exch vpt add M
  0 vpt2 neg V hpt2 0 V 0 vpt2 V
  hpt2 neg 0 V Opaque stroke} def
/TriUW {stroke [] 0 setdash vpt 1.12 mul add M
  hpt neg vpt -1.62 mul V
  hpt 2 mul 0 V
  hpt neg vpt 1.62 mul V Opaque stroke} def
/TriDW {stroke [] 0 setdash vpt 1.12 mul sub M
  hpt neg vpt 1.62 mul V
  hpt 2 mul 0 V
  hpt neg vpt -1.62 mul V Opaque stroke} def
/PentW {stroke [] 0 setdash gsave
  translate 0 hpt M 4 {72 rotate 0 hpt L} repeat
  Opaque stroke grestore} def
/CircW {stroke [] 0 setdash 
  hpt 0 360 arc Opaque stroke} def
/BoxFill {gsave Rec 1 setgray fill grestore} def
/Density {
  /Fillden exch def
  currentrgbcolor
  /ColB exch def /ColG exch def /ColR exch def
  /ColR ColR Fillden mul Fillden sub 1 add def
  /ColG ColG Fillden mul Fillden sub 1 add def
  /ColB ColB Fillden mul Fillden sub 1 add def
  ColR ColG ColB setrgbcolor} def
/BoxColFill {gsave Rec PolyFill} def
/PolyFill {gsave Density fill grestore grestore} def
/h {rlineto rlineto rlineto gsave closepath fill grestore} bind def
%
% PostScript Level 1 Pattern Fill routine for rectangles
% Usage: x y w h s a XX PatternFill
%	x,y = lower left corner of box to be filled
%	w,h = width and height of box
%	  a = angle in degrees between lines and x-axis
%	 XX = 0/1 for no/yes cross-hatch
%
/PatternFill {gsave /PFa [ 9 2 roll ] def
  PFa 0 get PFa 2 get 2 div add PFa 1 get PFa 3 get 2 div add translate
  PFa 2 get -2 div PFa 3 get -2 div PFa 2 get PFa 3 get Rec
  TransparentPatterns {} {gsave 1 setgray fill grestore} ifelse
  clip
  currentlinewidth 0.5 mul setlinewidth
  /PFs PFa 2 get dup mul PFa 3 get dup mul add sqrt def
  0 0 M PFa 5 get rotate PFs -2 div dup translate
  0 1 PFs PFa 4 get div 1 add floor cvi
	{PFa 4 get mul 0 M 0 PFs V} for
  0 PFa 6 get ne {
	0 1 PFs PFa 4 get div 1 add floor cvi
	{PFa 4 get mul 0 2 1 roll M PFs 0 V} for
 } if
  stroke grestore} def
%
/languagelevel where
 {pop languagelevel} {1} ifelse
dup 2 lt
	{/InterpretLevel1 true def
	 /InterpretLevel3 false def}
	{/InterpretLevel1 Level1 def
	 2 gt
	    {/InterpretLevel3 Level3 def}
	    {/InterpretLevel3 false def}
	 ifelse }
 ifelse
%
% PostScript level 2 pattern fill definitions
%
/Level2PatternFill {
/Tile8x8 {/PaintType 2 /PatternType 1 /TilingType 1 /BBox [0 0 8 8] /XStep 8 /YStep 8}
	bind def
/KeepColor {currentrgbcolor [/Pattern /DeviceRGB] setcolorspace} bind def
<< Tile8x8
 /PaintProc {0.5 setlinewidth pop 0 0 M 8 8 L 0 8 M 8 0 L stroke} 
>> matrix makepattern
/Pat1 exch def
<< Tile8x8
 /PaintProc {0.5 setlinewidth pop 0 0 M 8 8 L 0 8 M 8 0 L stroke
	0 4 M 4 8 L 8 4 L 4 0 L 0 4 L stroke}
>> matrix makepattern
/Pat2 exch def
<< Tile8x8
 /PaintProc {0.5 setlinewidth pop 0 0 M 0 8 L
	8 8 L 8 0 L 0 0 L fill}
>> matrix makepattern
/Pat3 exch def
<< Tile8x8
 /PaintProc {0.5 setlinewidth pop -4 8 M 8 -4 L
	0 12 M 12 0 L stroke}
>> matrix makepattern
/Pat4 exch def
<< Tile8x8
 /PaintProc {0.5 setlinewidth pop -4 0 M 8 12 L
	0 -4 M 12 8 L stroke}
>> matrix makepattern
/Pat5 exch def
<< Tile8x8
 /PaintProc {0.5 setlinewidth pop -2 8 M 4 -4 L
	0 12 M 8 -4 L 4 12 M 10 0 L stroke}
>> matrix makepattern
/Pat6 exch def
<< Tile8x8
 /PaintProc {0.5 setlinewidth pop -2 0 M 4 12 L
	0 -4 M 8 12 L 4 -4 M 10 8 L stroke}
>> matrix makepattern
/Pat7 exch def
<< Tile8x8
 /PaintProc {0.5 setlinewidth pop 8 -2 M -4 4 L
	12 0 M -4 8 L 12 4 M 0 10 L stroke}
>> matrix makepattern
/Pat8 exch def
<< Tile8x8
 /PaintProc {0.5 setlinewidth pop 0 -2 M 12 4 L
	-4 0 M 12 8 L -4 4 M 8 10 L stroke}
>> matrix makepattern
/Pat9 exch def
/Pattern1 {PatternBgnd KeepColor Pat1 setpattern} bind def
/Pattern2 {PatternBgnd KeepColor Pat2 setpattern} bind def
/Pattern3 {PatternBgnd KeepColor Pat3 setpattern} bind def
/Pattern4 {PatternBgnd KeepColor Landscape {Pat5} {Pat4} ifelse setpattern} bind def
/Pattern5 {PatternBgnd KeepColor Landscape {Pat4} {Pat5} ifelse setpattern} bind def
/Pattern6 {PatternBgnd KeepColor Landscape {Pat9} {Pat6} ifelse setpattern} bind def
/Pattern7 {PatternBgnd KeepColor Landscape {Pat8} {Pat7} ifelse setpattern} bind def
} def
%
%
%End of PostScript Level 2 code
%
/PatternBgnd {
  TransparentPatterns {} {gsave 1 setgray fill grestore} ifelse
} def
%
% Substitute for Level 2 pattern fill codes with
% grayscale if Level 2 support is not selected.
%
/Level1PatternFill {
/Pattern1 {0.250 Density} bind def
/Pattern2 {0.500 Density} bind def
/Pattern3 {0.750 Density} bind def
/Pattern4 {0.125 Density} bind def
/Pattern5 {0.375 Density} bind def
/Pattern6 {0.625 Density} bind def
/Pattern7 {0.875 Density} bind def
} def
%
% Now test for support of Level 2 code
%
Level1 {Level1PatternFill} {Level2PatternFill} ifelse
%
/Symbol-Oblique /Symbol findfont [1 0 .167 1 0 0] makefont
dup length dict begin {1 index /FID eq {pop pop} {def} ifelse} forall
currentdict end definefont pop
%
/MFshow {
   { dup 5 get 3 ge
     { 5 get 3 eq {gsave} {grestore} ifelse }
     {dup dup 0 get findfont exch 1 get scalefont setfont
     [ currentpoint ] exch dup 2 get 0 exch R dup 5 get 2 ne {dup dup 6
     get exch 4 get {textshow} {stringwidth pop 0 R} ifelse }if dup 5 get 0 eq
     {dup 3 get {2 get neg 0 exch R pop} {pop aload pop M} ifelse} {dup 5
     get 1 eq {dup 2 get exch dup 3 get exch 6 get stringwidth pop -2 div
     dup 0 R} {dup 6 get stringwidth pop -2 div 0 R 6 get
     textshow 2 index {aload pop M neg 3 -1 roll neg R pop pop} {pop pop pop
     pop aload pop M} ifelse }ifelse }ifelse }
     ifelse }
   forall} def
/Gswidth {dup type /stringtype eq {stringwidth} {pop (n) stringwidth} ifelse} def
/MFwidth {0 exch { dup 5 get 3 ge { 5 get 3 eq { 0 } { pop } ifelse }
 {dup 3 get{dup dup 0 get findfont exch 1 get scalefont setfont
     6 get Gswidth pop add} {pop} ifelse} ifelse} forall} def
/MLshow { currentpoint stroke M
  0 exch R
  Blacktext {gsave 0 setgray MFshow grestore} {MFshow} ifelse } bind def
/MRshow { currentpoint stroke M
  exch dup MFwidth neg 3 -1 roll R
  Blacktext {gsave 0 setgray MFshow grestore} {MFshow} ifelse } bind def
/MCshow { currentpoint stroke M
  exch dup MFwidth -2 div 3 -1 roll R
  Blacktext {gsave 0 setgray MFshow grestore} {MFshow} ifelse } bind def
/XYsave    { [( ) 1 2 true false 3 ()] } bind def
/XYrestore { [( ) 1 2 true false 4 ()] } bind def
Level1 SuppressPDFMark or 
{} {
/SDict 10 dict def
systemdict /pdfmark known not {
  userdict /pdfmark systemdict /cleartomark get put
} if
SDict begin [
  /Title (EOS_SNM_ST_fit3.eps)
  /Subject (gnuplot plot)
  /Creator (gnuplot 5.0 patchlevel 3)
  /Author (kb2)
%  /Producer (gnuplot)
%  /Keywords ()
  /CreationDate (Tue Jun 27 20:38:58 2017)
  /DOCINFO pdfmark
end
} ifelse
%
% Support for boxed text - Ethan A Merritt May 2005
%
/InitTextBox { userdict /TBy2 3 -1 roll put userdict /TBx2 3 -1 roll put
           userdict /TBy1 3 -1 roll put userdict /TBx1 3 -1 roll put
	   /Boxing true def } def
/ExtendTextBox { Boxing
    { gsave dup false charpath pathbbox
      dup TBy2 gt {userdict /TBy2 3 -1 roll put} {pop} ifelse
      dup TBx2 gt {userdict /TBx2 3 -1 roll put} {pop} ifelse
      dup TBy1 lt {userdict /TBy1 3 -1 roll put} {pop} ifelse
      dup TBx1 lt {userdict /TBx1 3 -1 roll put} {pop} ifelse
      grestore } if } def
/PopTextBox { newpath TBx1 TBxmargin sub TBy1 TBymargin sub M
               TBx1 TBxmargin sub TBy2 TBymargin add L
	       TBx2 TBxmargin add TBy2 TBymargin add L
	       TBx2 TBxmargin add TBy1 TBymargin sub L closepath } def
/DrawTextBox { PopTextBox stroke /Boxing false def} def
/FillTextBox { gsave PopTextBox 1 1 1 setrgbcolor fill grestore /Boxing false def} def
0 0 0 0 InitTextBox
/TBxmargin 20 def
/TBymargin 20 def
/Boxing false def
/textshow { ExtendTextBox Gshow } def
%
% redundant definitions for compatibility with prologue.ps older than 5.0.2
/LTB {BL [] LCb DL} def
/LTb {PL [] LCb DL} def
end
%%EndProlog
%%Page: 1 1
gnudict begin
gsave
doclip
50 50 translate
0.100 0.100 scale
90 rotate
0 -5040 translate
0 setgray
newpath
(Helvetica) findfont 180 scalefont setfont
BackgroundColor 0 lt 3 1 roll 0 lt exch 0 lt or or not {gsave BackgroundColor C clippath fill grestore} if
1.000 UL
LTb
LCb setrgbcolor
1.000 UL
LTa
LCb setrgbcolor
720 2856 M
2879 0 V
stroke
LTb
LCb setrgbcolor
720 2856 M
63 0 V
2816 0 R
-63 0 V
stroke
612 2856 M
[ [(Helvetica) 180.0 0.0 true true 0 (0)]
] -60.0 MRshow
1.000 UL
LTb
LCb setrgbcolor
1.000 UL
LTa
LCb setrgbcolor
720 3066 M
2879 0 V
stroke
LTb
LCb setrgbcolor
720 3066 M
63 0 V
2816 0 R
-63 0 V
stroke
612 3066 M
[ [(Helvetica) 180.0 0.0 true true 0 (5)]
] -60.0 MRshow
1.000 UL
LTb
LCb setrgbcolor
1.000 UL
LTa
LCb setrgbcolor
720 3276 M
2879 0 V
stroke
LTb
LCb setrgbcolor
720 3276 M
63 0 V
2816 0 R
-63 0 V
stroke
612 3276 M
[ [(Helvetica) 180.0 0.0 true true 0 (10)]
] -60.0 MRshow
1.000 UL
LTb
LCb setrgbcolor
1.000 UL
LTa
LCb setrgbcolor
720 3486 M
2879 0 V
stroke
LTb
LCb setrgbcolor
720 3486 M
63 0 V
2816 0 R
-63 0 V
stroke
612 3486 M
[ [(Helvetica) 180.0 0.0 true true 0 (15)]
] -60.0 MRshow
1.000 UL
LTb
LCb setrgbcolor
1.000 UL
LTa
LCb setrgbcolor
720 3695 M
2879 0 V
stroke
LTb
LCb setrgbcolor
720 3695 M
63 0 V
2816 0 R
-63 0 V
stroke
612 3695 M
[ [(Helvetica) 180.0 0.0 true true 0 (20)]
] -60.0 MRshow
1.000 UL
LTb
LCb setrgbcolor
1.000 UL
LTa
LCb setrgbcolor
720 3905 M
2879 0 V
stroke
LTb
LCb setrgbcolor
720 3905 M
63 0 V
2816 0 R
-63 0 V
stroke
612 3905 M
[ [(Helvetica) 180.0 0.0 true true 0 (25)]
] -60.0 MRshow
1.000 UL
LTb
LCb setrgbcolor
1.000 UL
LTa
LCb setrgbcolor
720 4115 M
2879 0 V
stroke
LTb
LCb setrgbcolor
720 4115 M
63 0 V
2816 0 R
-63 0 V
stroke
612 4115 M
[ [(Helvetica) 180.0 0.0 true true 0 (30)]
] -60.0 MRshow
1.000 UL
LTb
LCb setrgbcolor
1.000 UL
LTa
LCb setrgbcolor
720 4325 M
2879 0 V
stroke
LTb
LCb setrgbcolor
720 4325 M
63 0 V
2816 0 R
-63 0 V
stroke
612 4325 M
[ [(Helvetica) 180.0 0.0 true true 0 (35)]
] -60.0 MRshow
1.000 UL
LTb
LCb setrgbcolor
1.000 UL
LTa
LCb setrgbcolor
720 4535 M
2879 0 V
stroke
LTb
LCb setrgbcolor
720 4535 M
63 0 V
2816 0 R
-63 0 V
stroke
612 4535 M
[ [(Helvetica) 180.0 0.0 true true 0 (40)]
] -60.0 MRshow
1.000 UL
LTb
LCb setrgbcolor
1.000 UL
LTa
LCb setrgbcolor
720 2772 M
0 1763 V
stroke
LTb
LCb setrgbcolor
720 2772 M
0 63 V
0 1700 R
0 -63 V
stroke
LTb
LCb setrgbcolor
1.000 UL
LTa
LCb setrgbcolor
1296 2772 M
0 1763 V
stroke
LTb
LCb setrgbcolor
1296 2772 M
0 63 V
0 1700 R
0 -63 V
stroke
LTb
LCb setrgbcolor
1.000 UL
LTa
LCb setrgbcolor
1872 2772 M
0 1763 V
stroke
LTb
LCb setrgbcolor
1872 2772 M
0 63 V
0 1700 R
0 -63 V
stroke
LTb
LCb setrgbcolor
1.000 UL
LTa
LCb setrgbcolor
2447 2772 M
0 1763 V
stroke
LTb
LCb setrgbcolor
2447 2772 M
0 63 V
0 1700 R
0 -63 V
stroke
LTb
LCb setrgbcolor
1.000 UL
LTa
LCb setrgbcolor
3023 2772 M
0 1763 V
stroke
LTb
LCb setrgbcolor
3023 2772 M
0 63 V
0 1700 R
0 -63 V
stroke
LTb
LCb setrgbcolor
1.000 UL
LTB
LCb setrgbcolor
720 4535 N
0 -1763 V
2879 0 V
0 1763 V
-2879 0 V
Z stroke
1.000 UP
1.000 UL
LTb
LCb setrgbcolor
LCb setrgbcolor
198 3653 M
currentpoint gsave translate -270 rotate 0 0 moveto
[ [(Helvetica) 150.0 0.0 true true 0 ( \(S=0,T=0\))]
] -50.0 MCshow
grestore
LTb
% Begin plot #1
1.300 UP
1.000 UL
LTb
LCb setrgbcolor
820 2883 CircleF
862 2900 CircleF
914 2922 CircleF
979 2951 CircleF
1056 2990 CircleF
1147 3038 CircleF
1254 3099 CircleF
1376 3174 CircleF
1517 3263 CircleF
1675 3367 CircleF
1854 3486 CircleF
2054 3619 CircleF
2276 3761 CircleF
2521 3906 CircleF
2791 4044 CircleF
3086 4162 CircleF
% End plot #1
% Begin plot #2
3.000 UL
LTb
LT1
LCb setrgbcolor
720 2856 M
1 0 V
1 0 V
1 0 V
1 0 V
1 0 V
1 0 V
1 0 V
1 0 V
1 0 V
1 0 V
1 0 V
1 0 V
1 0 V
1 0 V
1 0 V
2 0 V
1 0 V
1 0 V
1 1 V
2 0 V
1 0 V
1 0 V
2 0 V
1 0 V
2 0 V
2 0 V
1 0 V
2 0 V
2 0 V
2 1 V
2 0 V
2 0 V
2 0 V
2 0 V
3 0 V
2 1 V
2 0 V
3 0 V
2 0 V
3 0 V
3 1 V
3 0 V
3 0 V
3 1 V
3 0 V
3 0 V
3 1 V
3 0 V
4 1 V
3 0 V
4 0 V
4 1 V
3 0 V
4 1 V
4 1 V
4 0 V
4 1 V
5 0 V
4 1 V
5 1 V
4 1 V
5 0 V
5 1 V
4 1 V
5 1 V
6 1 V
5 1 V
5 1 V
5 1 V
6 1 V
6 1 V
5 1 V
6 1 V
6 2 V
7 1 V
6 2 V
6 1 V
7 1 V
6 2 V
7 2 V
7 1 V
7 2 V
7 2 V
7 2 V
8 2 V
7 2 V
8 2 V
8 2 V
7 2 V
9 3 V
8 2 V
8 2 V
9 3 V
8 3 V
9 2 V
9 3 V
9 3 V
9 3 V
9 3 V
10 3 V
9 4 V
10 3 V
10 4 V
10 3 V
stroke 1167 2953 M
11 4 V
10 4 V
10 4 V
11 4 V
11 4 V
11 5 V
11 4 V
12 5 V
11 4 V
12 5 V
12 5 V
12 5 V
12 6 V
12 5 V
13 6 V
12 6 V
13 5 V
13 6 V
14 7 V
13 6 V
14 7 V
13 6 V
14 7 V
14 7 V
15 8 V
14 7 V
15 8 V
15 8 V
15 8 V
15 8 V
15 9 V
16 8 V
16 9 V
16 9 V
16 10 V
16 9 V
17 10 V
16 10 V
17 10 V
18 11 V
17 11 V
17 11 V
18 11 V
18 11 V
18 12 V
19 12 V
18 13 V
19 12 V
19 13 V
19 13 V
20 14 V
19 14 V
20 14 V
20 14 V
21 15 V
20 15 V
21 15 V
21 16 V
21 16 V
21 16 V
22 17 V
22 17 V
22 17 V
22 18 V
23 18 V
23 19 V
23 18 V
23 20 V
23 19 V
24 20 V
24 21 V
24 21 V
24 21 V
25 21 V
25 23 V
25 22 V
25 23 V
26 23 V
26 24 V
26 25 V
26 24 V
27 26 V
27 25 V
27 27 V
27 26 V
28 28 V
28 27 V
28 28 V
28 29 V
29 29 V
29 30 V
29 30 V
29 31 V
30 32 V
30 32 V
30 32 V
30 33 V
31 34 V
31 34 V
31 35 V
32 36 V
9 10 V
% End plot #2
% Begin plot #3
stroke
LTb
[8.0 dl1 4.0 dl2 1.0 dl1 2.5 dl2 1.0 dl1 2.5 dl2 1.0 dl1 4.0 dl2 ] 0 setdash
LCb setrgbcolor
720 2856 M
1 0 V
1 0 V
1 0 V
1 0 V
1 0 V
1 0 V
1 0 V
1 0 V
1 0 V
1 0 V
1 0 V
1 0 V
0 1 V
1 0 V
1 0 V
1 0 V
2 0 V
1 0 V
1 0 V
1 0 V
2 0 V
1 0 V
1 1 V
2 0 V
1 0 V
2 0 V
2 0 V
1 1 V
2 0 V
2 0 V
2 0 V
2 1 V
2 0 V
2 0 V
2 1 V
3 0 V
2 1 V
2 0 V
3 0 V
2 1 V
3 1 V
3 0 V
3 1 V
3 0 V
3 1 V
3 1 V
3 0 V
3 1 V
3 1 V
4 1 V
3 1 V
4 1 V
4 1 V
3 1 V
4 1 V
4 1 V
4 1 V
4 1 V
5 2 V
4 1 V
5 1 V
4 2 V
5 1 V
5 2 V
4 2 V
5 1 V
6 2 V
5 2 V
5 2 V
5 2 V
6 2 V
6 2 V
5 2 V
6 3 V
6 2 V
7 3 V
6 2 V
6 3 V
7 3 V
6 3 V
7 3 V
7 3 V
7 3 V
7 3 V
7 3 V
8 4 V
7 3 V
8 4 V
8 4 V
7 4 V
9 4 V
8 4 V
8 4 V
9 5 V
8 4 V
9 5 V
9 5 V
9 5 V
9 5 V
9 5 V
10 5 V
9 5 V
10 6 V
10 6 V
stroke 1157 3025 M
10 6 V
11 6 V
10 6 V
10 6 V
11 6 V
11 7 V
11 7 V
11 7 V
12 7 V
11 7 V
12 7 V
12 8 V
12 7 V
12 8 V
12 8 V
13 8 V
12 8 V
13 9 V
13 8 V
14 9 V
13 9 V
14 9 V
13 9 V
14 10 V
14 9 V
15 10 V
14 10 V
15 10 V
15 10 V
15 11 V
15 10 V
15 11 V
16 11 V
16 11 V
16 11 V
16 11 V
16 12 V
17 11 V
16 12 V
17 12 V
18 12 V
17 12 V
17 12 V
18 13 V
18 12 V
18 13 V
19 13 V
18 13 V
19 13 V
19 13 V
19 14 V
20 13 V
19 14 V
20 13 V
20 14 V
21 14 V
20 14 V
21 14 V
21 14 V
21 14 V
21 14 V
22 15 V
22 14 V
22 14 V
22 15 V
23 14 V
23 15 V
23 14 V
23 15 V
23 14 V
24 14 V
24 15 V
24 14 V
24 15 V
25 14 V
25 14 V
25 14 V
25 14 V
26 14 V
26 14 V
26 14 V
26 13 V
27 14 V
27 13 V
27 13 V
27 13 V
28 12 V
28 13 V
28 12 V
28 12 V
29 12 V
29 11 V
29 11 V
29 11 V
30 10 V
30 10 V
30 10 V
30 9 V
31 9 V
31 8 V
31 8 V
32 7 V
32 7 V
32 6 V
stroke 3244 4187 M
32 6 V
33 5 V
33 5 V
33 4 V
33 3 V
% End plot #3
% Begin plot #4
stroke
LTb
LCb setrgbcolor
720 2856 M
1 0 V
1 0 V
1 0 V
1 0 V
1 0 V
1 0 V
1 0 V
1 0 V
1 0 V
1 0 V
1 0 V
1 1 V
1 0 V
1 0 V
1 0 V
2 0 V
1 0 V
1 0 V
1 0 V
2 1 V
1 0 V
1 0 V
2 0 V
1 0 V
2 1 V
2 0 V
1 0 V
2 0 V
2 1 V
2 0 V
2 0 V
2 1 V
2 0 V
2 1 V
3 0 V
2 0 V
2 1 V
3 0 V
2 1 V
3 1 V
3 0 V
3 1 V
3 1 V
3 0 V
3 1 V
3 1 V
3 1 V
3 1 V
4 1 V
3 1 V
4 1 V
4 1 V
3 1 V
4 1 V
4 2 V
4 1 V
4 1 V
5 2 V
4 1 V
5 2 V
4 1 V
5 2 V
5 2 V
4 2 V
5 2 V
6 1 V
5 3 V
5 2 V
5 2 V
6 2 V
6 3 V
5 2 V
6 3 V
6 2 V
7 3 V
6 3 V
6 3 V
7 3 V
6 3 V
7 3 V
7 3 V
7 3 V
7 4 V
7 4 V
8 3 V
7 4 V
8 4 V
8 4 V
7 4 V
9 4 V
8 5 V
8 4 V
9 5 V
8 5 V
9 5 V
9 5 V
9 5 V
9 5 V
9 5 V
10 6 V
9 5 V
10 6 V
10 6 V
10 6 V
stroke 1167 3043 M
11 6 V
10 6 V
10 7 V
11 6 V
11 7 V
11 7 V
11 7 V
12 7 V
11 7 V
12 8 V
12 7 V
12 8 V
12 8 V
12 8 V
13 8 V
12 8 V
13 8 V
13 9 V
14 9 V
13 8 V
14 9 V
13 9 V
14 10 V
14 9 V
15 10 V
14 9 V
15 10 V
15 10 V
15 10 V
15 10 V
15 11 V
16 10 V
16 11 V
16 11 V
16 10 V
16 11 V
17 12 V
16 11 V
17 11 V
18 12 V
17 11 V
17 12 V
18 12 V
18 12 V
18 12 V
19 12 V
18 13 V
19 12 V
19 13 V
19 12 V
20 13 V
19 13 V
20 13 V
20 13 V
21 13 V
20 13 V
21 13 V
21 13 V
21 14 V
21 13 V
22 14 V
22 13 V
22 14 V
22 13 V
23 14 V
23 14 V
23 14 V
23 14 V
23 13 V
24 14 V
24 14 V
24 14 V
24 14 V
25 14 V
25 14 V
25 14 V
25 14 V
26 14 V
26 14 V
26 14 V
26 13 V
27 14 V
27 14 V
27 14 V
27 14 V
28 13 V
28 14 V
28 14 V
28 13 V
29 14 V
29 13 V
29 13 V
29 14 V
30 13 V
30 13 V
30 13 V
30 13 V
31 13 V
31 12 V
31 13 V
32 13 V
32 12 V
32 12 V
32 13 V
stroke 3276 4244 M
33 12 V
33 12 V
33 12 V
33 11 V
% End plot #4
stroke
2.000 UL
LTb
LCb setrgbcolor
1.000 UL
LTB
LCb setrgbcolor
720 4535 N
0 -1763 V
2879 0 V
0 1763 V
-2879 0 V
Z stroke
1.000 UP
1.000 UL
LTb
LCb setrgbcolor
1.000 UL
LTb
LCb setrgbcolor
1.000 UL
LTa
LCb setrgbcolor
3600 2856 M
2879 0 V
stroke
LTb
LCb setrgbcolor
3600 2856 M
63 0 V
2816 0 R
-63 0 V
stroke
LTb
LCb setrgbcolor
1.000 UL
LTa
LCb setrgbcolor
3600 3066 M
2879 0 V
stroke
LTb
LCb setrgbcolor
3600 3066 M
63 0 V
2816 0 R
-63 0 V
stroke
LTb
LCb setrgbcolor
1.000 UL
LTa
LCb setrgbcolor
3600 3276 M
2879 0 V
stroke
LTb
LCb setrgbcolor
3600 3276 M
63 0 V
2816 0 R
-63 0 V
stroke
LTb
LCb setrgbcolor
1.000 UL
LTa
LCb setrgbcolor
3600 3486 M
2879 0 V
stroke
LTb
LCb setrgbcolor
3600 3486 M
63 0 V
2816 0 R
-63 0 V
stroke
LTb
LCb setrgbcolor
1.000 UL
LTa
LCb setrgbcolor
3600 3695 M
2879 0 V
stroke
LTb
LCb setrgbcolor
3600 3695 M
63 0 V
2816 0 R
-63 0 V
stroke
LTb
LCb setrgbcolor
1.000 UL
LTa
LCb setrgbcolor
3600 3905 M
54 0 V
1098 0 R
1727 0 V
stroke
LTb
LCb setrgbcolor
3600 3905 M
63 0 V
2816 0 R
-63 0 V
stroke
LTb
LCb setrgbcolor
1.000 UL
LTa
LCb setrgbcolor
3600 4115 M
54 0 V
1098 0 R
1727 0 V
stroke
LTb
LCb setrgbcolor
3600 4115 M
63 0 V
2816 0 R
-63 0 V
stroke
LTb
LCb setrgbcolor
1.000 UL
LTa
LCb setrgbcolor
3600 4325 M
54 0 V
1098 0 R
1727 0 V
stroke
LTb
LCb setrgbcolor
3600 4325 M
63 0 V
2816 0 R
-63 0 V
stroke
LTb
LCb setrgbcolor
1.000 UL
LTa
LCb setrgbcolor
3600 4535 M
2879 0 V
stroke
LTb
LCb setrgbcolor
3600 4535 M
63 0 V
2816 0 R
-63 0 V
stroke
LTb
LCb setrgbcolor
1.000 UL
LTa
LCb setrgbcolor
3600 2772 M
0 1763 V
stroke
LTb
LCb setrgbcolor
3600 2772 M
0 63 V
0 1700 R
0 -63 V
stroke
LTb
LCb setrgbcolor
1.000 UL
LTa
LCb setrgbcolor
4176 2772 M
0 987 V
0 600 R
0 176 V
stroke
LTb
LCb setrgbcolor
4176 2772 M
0 63 V
0 1700 R
0 -63 V
stroke
LTb
LCb setrgbcolor
1.000 UL
LTa
LCb setrgbcolor
4752 2772 M
0 1763 V
stroke
LTb
LCb setrgbcolor
4752 2772 M
0 63 V
0 1700 R
0 -63 V
stroke
LTb
LCb setrgbcolor
1.000 UL
LTa
LCb setrgbcolor
5327 2772 M
0 1763 V
stroke
LTb
LCb setrgbcolor
5327 2772 M
0 63 V
0 1700 R
0 -63 V
stroke
LTb
LCb setrgbcolor
1.000 UL
LTa
LCb setrgbcolor
5903 2772 M
0 1763 V
stroke
LTb
LCb setrgbcolor
5903 2772 M
0 63 V
0 1700 R
0 -63 V
stroke
LTb
LCb setrgbcolor
6479 2856 M
-63 0 V
stroke
6587 2856 M
[ [(Helvetica) 180.0 0.0 true true 0 ( 0)]
] -60.0 MLshow
1.000 UL
LTb
LCb setrgbcolor
6479 3066 M
-63 0 V
stroke
6587 3066 M
[ [(Helvetica) 180.0 0.0 true true 0 ( 5)]
] -60.0 MLshow
1.000 UL
LTb
LCb setrgbcolor
6479 3276 M
-63 0 V
stroke
6587 3276 M
[ [(Helvetica) 180.0 0.0 true true 0 ( 10)]
] -60.0 MLshow
1.000 UL
LTb
LCb setrgbcolor
6479 3486 M
-63 0 V
stroke
6587 3486 M
[ [(Helvetica) 180.0 0.0 true true 0 ( 15)]
] -60.0 MLshow
1.000 UL
LTb
LCb setrgbcolor
6479 3695 M
-63 0 V
stroke
6587 3695 M
[ [(Helvetica) 180.0 0.0 true true 0 ( 20)]
] -60.0 MLshow
1.000 UL
LTb
LCb setrgbcolor
6479 3905 M
-63 0 V
stroke
6587 3905 M
[ [(Helvetica) 180.0 0.0 true true 0 ( 25)]
] -60.0 MLshow
1.000 UL
LTb
LCb setrgbcolor
6479 4115 M
-63 0 V
stroke
6587 4115 M
[ [(Helvetica) 180.0 0.0 true true 0 ( 30)]
] -60.0 MLshow
1.000 UL
LTb
LCb setrgbcolor
6479 4325 M
-63 0 V
stroke
6587 4325 M
[ [(Helvetica) 180.0 0.0 true true 0 ( 35)]
] -60.0 MLshow
1.000 UL
LTb
LCb setrgbcolor
6479 4535 M
-63 0 V
stroke
6587 4535 M
[ [(Helvetica) 180.0 0.0 true true 0 ( 40)]
] -60.0 MLshow
1.000 UL
LTb
LCb setrgbcolor
1.000 UL
LTB
LCb setrgbcolor
3600 4535 N
0 -1763 V
2879 0 V
0 1763 V
-2879 0 V
Z stroke
1.000 UP
1.000 UL
LTb
LCb setrgbcolor
LCb setrgbcolor
7108 3653 M
currentpoint gsave translate -270 rotate 0 0 moveto
[ [(Helvetica) 150.0 0.0 true true 0 (\(S=1,T=1\))]
] -50.0 MCshow
grestore
LTb
1.000 UL
LTb
LCb setrgbcolor
3654 3759 N
0 600 V
1098 0 V
0 -600 V
-1098 0 V
Z stroke
% Begin plot #1
1.300 UP
1.000 UL
LTb
LCb setrgbcolor
LCb setrgbcolor
4149 4284 M
[ [(Helvetica) 150.0 0.0 true true 0 (BHF)]
] -50.0 MRshow
1.300 UP
1.000 UL
LTb
LCb setrgbcolor
3700 2851 CircleF
3742 2848 CircleF
3794 2845 CircleF
3859 2842 CircleF
3936 2843 CircleF
4027 2849 CircleF
4134 2865 CircleF
4256 2895 CircleF
4397 2945 CircleF
4555 3020 CircleF
4734 3128 CircleF
4934 3280 CircleF
5156 3488 CircleF
5401 3753 CircleF
5671 4095 CircleF
5966 4533 CircleF
4450 4284 CircleF
% End plot #1
% Begin plot #2
3.000 UL
LTb
LT1
LCb setrgbcolor
LCb setrgbcolor
4149 4134 M
[ [(Helvetica) 150.0 0.0 true true 0 (N1LO)]
] -50.0 MRshow
3.000 UL
LTb
LT1
LCb setrgbcolor
4239 4134 M
423 0 V
3600 2856 M
1 0 V
1 0 V
1 0 V
1 0 V
1 0 V
1 0 V
1 0 V
1 0 V
1 0 V
1 0 V
1 0 V
1 0 V
1 0 V
1 0 V
1 0 V
2 0 V
1 0 V
1 0 V
1 0 V
2 1 V
1 0 V
1 0 V
2 0 V
1 0 V
2 0 V
2 0 V
1 0 V
2 0 V
2 0 V
2 0 V
2 1 V
2 0 V
2 0 V
2 0 V
3 0 V
2 0 V
2 1 V
3 0 V
2 0 V
3 0 V
3 1 V
3 0 V
3 0 V
3 0 V
3 1 V
3 0 V
3 0 V
3 1 V
4 0 V
3 1 V
4 0 V
4 0 V
3 1 V
4 0 V
4 1 V
4 0 V
4 1 V
5 1 V
4 0 V
5 1 V
4 1 V
5 0 V
5 1 V
4 1 V
5 1 V
6 1 V
5 1 V
5 1 V
5 1 V
6 1 V
6 1 V
5 1 V
6 1 V
6 1 V
7 1 V
6 2 V
6 1 V
7 1 V
6 2 V
7 1 V
7 2 V
7 2 V
7 1 V
7 2 V
8 2 V
7 2 V
8 2 V
8 2 V
7 2 V
9 2 V
8 2 V
8 3 V
9 2 V
8 2 V
9 3 V
9 3 V
9 2 V
9 3 V
9 3 V
10 3 V
9 3 V
10 3 V
stroke 4027 2940 M
10 4 V
10 3 V
11 4 V
10 3 V
10 4 V
11 4 V
11 4 V
11 4 V
11 4 V
12 4 V
11 5 V
12 4 V
12 5 V
12 5 V
12 5 V
12 5 V
13 5 V
12 6 V
13 5 V
13 6 V
14 6 V
13 6 V
14 6 V
13 6 V
14 7 V
14 6 V
15 7 V
14 7 V
15 7 V
15 8 V
15 7 V
15 8 V
15 8 V
16 8 V
16 8 V
16 9 V
16 9 V
16 9 V
17 9 V
16 9 V
17 10 V
18 10 V
17 10 V
17 10 V
18 11 V
18 10 V
18 12 V
19 11 V
18 11 V
19 12 V
19 12 V
19 13 V
20 12 V
19 13 V
20 13 V
20 14 V
21 14 V
20 14 V
21 14 V
21 15 V
21 15 V
21 15 V
22 16 V
22 16 V
22 16 V
22 17 V
23 17 V
23 17 V
23 18 V
23 18 V
23 18 V
24 19 V
24 19 V
24 19 V
24 20 V
25 21 V
25 20 V
25 21 V
25 22 V
26 22 V
26 22 V
26 23 V
26 23 V
27 24 V
27 24 V
27 25 V
27 25 V
28 25 V
28 26 V
28 26 V
28 27 V
29 28 V
29 28 V
29 28 V
29 29 V
30 29 V
30 30 V
30 31 V
30 31 V
31 32 V
31 32 V
31 32 V
32 34 V
32 34 V
stroke 6092 4454 M
32 34 V
32 35 V
11 12 V
% End plot #2
% Begin plot #3
stroke
LTb
[8.0 dl1 4.0 dl2 1.0 dl1 2.5 dl2 1.0 dl1 2.5 dl2 1.0 dl1 4.0 dl2 ] 0 setdash
LCb setrgbcolor
LCb setrgbcolor
4149 3984 M
[ [(Helvetica) 150.0 0.0 true true 0 (N2LO)]
] -50.0 MRshow
3.000 UL
LTb
[8.0 dl1 4.0 dl2 1.0 dl1 2.5 dl2 1.0 dl1 2.5 dl2 1.0 dl1 4.0 dl2 ] 0 setdash
LCb setrgbcolor
4239 3984 M
423 0 V
3600 2856 M
1 0 V
1 0 V
1 0 V
1 0 V
1 0 V
1 0 V
1 0 V
1 0 V
1 0 V
1 0 V
1 0 V
1 0 V
1 0 V
1 0 V
1 0 V
2 0 V
1 0 V
1 0 V
1 0 V
2 0 V
1 0 V
1 0 V
2 0 V
1 0 V
2 0 V
2 0 V
1 0 V
2 0 V
2 0 V
2 0 V
2 0 V
2 0 V
2 0 V
2 0 V
3 0 V
2 0 V
2 0 V
3 0 V
2 0 V
3 0 V
3 0 V
3 0 V
3 0 V
3 0 V
3 0 V
3 0 V
3 0 V
3 0 V
4 0 V
3 0 V
4 0 V
4 0 V
3 0 V
4 0 V
4 0 V
4 0 V
4 0 V
5 0 V
4 0 V
5 0 V
4 0 V
5 0 V
5 0 V
4 0 V
5 0 V
6 0 V
5 0 V
5 1 V
5 0 V
6 0 V
6 0 V
5 0 V
6 0 V
6 1 V
7 0 V
6 0 V
6 0 V
7 1 V
6 0 V
7 0 V
7 1 V
7 0 V
7 0 V
7 1 V
8 0 V
7 1 V
8 0 V
8 1 V
7 0 V
9 1 V
8 1 V
8 0 V
9 1 V
8 1 V
9 1 V
9 1 V
9 1 V
9 1 V
9 1 V
10 1 V
9 1 V
10 2 V
stroke 4027 2876 M
10 1 V
10 1 V
11 2 V
10 1 V
10 2 V
11 2 V
11 2 V
11 2 V
11 2 V
12 2 V
11 2 V
12 2 V
12 3 V
12 3 V
12 2 V
12 3 V
13 3 V
12 3 V
13 4 V
13 3 V
14 4 V
13 3 V
14 4 V
13 4 V
14 5 V
14 4 V
15 5 V
14 5 V
15 5 V
15 5 V
15 6 V
15 5 V
15 6 V
16 6 V
16 7 V
16 7 V
16 7 V
16 7 V
17 7 V
16 8 V
17 8 V
18 9 V
17 9 V
17 9 V
18 9 V
18 10 V
18 10 V
19 11 V
18 11 V
19 11 V
19 12 V
19 12 V
20 13 V
19 13 V
20 14 V
20 14 V
21 14 V
20 15 V
21 16 V
21 16 V
21 17 V
21 17 V
22 18 V
22 18 V
22 19 V
22 20 V
23 20 V
23 21 V
23 21 V
23 23 V
23 23 V
24 23 V
24 25 V
24 25 V
24 26 V
25 27 V
25 28 V
25 29 V
25 29 V
26 31 V
26 31 V
26 32 V
26 33 V
27 35 V
27 35 V
27 36 V
27 37 V
28 39 V
28 39 V
28 41 V
28 42 V
29 43 V
29 45 V
29 45 V
29 47 V
30 48 V
30 50 V
30 51 V
30 52 V
16 27 V
% End plot #3
% Begin plot #4
stroke
LTb
LCb setrgbcolor
LCb setrgbcolor
4149 3834 M
[ [(Helvetica) 150.0 0.0 true true 0 (N3LO)]
] -50.0 MRshow
3.000 UL
LTb
LCb setrgbcolor
4239 3834 M
423 0 V
3600 2856 M
1 0 V
1 0 V
1 0 V
1 0 V
1 0 V
1 0 V
1 0 V
1 0 V
1 0 V
1 0 V
1 0 V
1 0 V
1 0 V
1 0 V
1 0 V
2 0 V
1 0 V
1 0 V
1 0 V
2 -1 V
1 0 V
1 0 V
2 0 V
1 0 V
2 0 V
2 0 V
1 0 V
2 0 V
2 0 V
2 0 V
2 0 V
2 0 V
2 -1 V
2 0 V
3 0 V
2 0 V
2 0 V
3 0 V
2 0 V
3 0 V
3 -1 V
3 0 V
3 0 V
3 0 V
3 0 V
3 0 V
3 -1 V
3 0 V
4 0 V
3 0 V
4 0 V
4 -1 V
3 0 V
4 0 V
4 0 V
4 0 V
4 -1 V
5 0 V
4 0 V
5 0 V
4 -1 V
5 0 V
5 0 V
4 0 V
5 0 V
6 -1 V
5 0 V
5 0 V
5 0 V
6 -1 V
6 0 V
5 0 V
6 0 V
6 0 V
7 -1 V
6 0 V
6 0 V
7 0 V
6 0 V
7 0 V
7 0 V
7 0 V
7 0 V
7 0 V
8 0 V
7 0 V
8 0 V
8 0 V
7 0 V
9 1 V
8 0 V
8 0 V
9 0 V
8 1 V
9 0 V
9 1 V
9 0 V
9 1 V
9 1 V
10 1 V
9 1 V
10 0 V
stroke 4027 2853 M
10 2 V
10 1 V
11 1 V
10 1 V
10 2 V
11 1 V
11 2 V
11 1 V
11 2 V
12 2 V
11 2 V
12 3 V
12 2 V
12 3 V
12 2 V
12 3 V
13 3 V
12 3 V
13 4 V
13 3 V
14 4 V
13 4 V
14 4 V
13 4 V
14 5 V
14 5 V
15 5 V
14 5 V
15 6 V
15 5 V
15 6 V
15 7 V
15 6 V
16 7 V
16 7 V
16 8 V
16 7 V
16 8 V
17 9 V
16 9 V
17 9 V
18 9 V
17 10 V
17 10 V
18 11 V
18 11 V
18 11 V
19 12 V
18 12 V
19 13 V
19 13 V
19 13 V
20 14 V
19 15 V
20 15 V
20 15 V
21 16 V
20 17 V
21 17 V
21 17 V
21 18 V
21 19 V
22 19 V
22 20 V
22 20 V
22 21 V
23 22 V
23 22 V
23 23 V
23 24 V
23 24 V
24 24 V
24 26 V
24 26 V
24 27 V
25 27 V
25 28 V
25 29 V
25 30 V
26 30 V
26 32 V
26 31 V
26 33 V
27 33 V
27 35 V
27 35 V
27 35 V
28 37 V
28 37 V
28 38 V
28 39 V
29 40 V
29 41 V
29 41 V
29 42 V
30 43 V
30 44 V
30 45 V
30 45 V
31 47 V
4 6 V
% End plot #4
stroke
2.000 UL
LTb
LCb setrgbcolor
1.000 UL
LTB
LCb setrgbcolor
3600 4535 N
0 -1763 V
2879 0 V
0 1763 V
-2879 0 V
Z stroke
1.000 UP
1.000 UL
LTb
LCb setrgbcolor
1.000 UL
LTb
LCb setrgbcolor
1.000 UL
LTa
LCb setrgbcolor
720 1080 M
2879 0 V
stroke
LTb
LCb setrgbcolor
720 1080 M
63 0 V
2816 0 R
-63 0 V
stroke
612 1080 M
[ [(Helvetica) 180.0 0.0 true true 0 (-45)]
] -60.0 MRshow
1.000 UL
LTb
LCb setrgbcolor
1.000 UL
LTa
LCb setrgbcolor
720 1260 M
2879 0 V
stroke
LTb
LCb setrgbcolor
720 1260 M
63 0 V
2816 0 R
-63 0 V
stroke
612 1260 M
[ [(Helvetica) 180.0 0.0 true true 0 (-40)]
] -60.0 MRshow
1.000 UL
LTb
LCb setrgbcolor
1.000 UL
LTa
LCb setrgbcolor
720 1440 M
2879 0 V
stroke
LTb
LCb setrgbcolor
720 1440 M
63 0 V
2816 0 R
-63 0 V
stroke
612 1440 M
[ [(Helvetica) 180.0 0.0 true true 0 (-35)]
] -60.0 MRshow
1.000 UL
LTb
LCb setrgbcolor
1.000 UL
LTa
LCb setrgbcolor
720 1620 M
2879 0 V
stroke
LTb
LCb setrgbcolor
720 1620 M
63 0 V
2816 0 R
-63 0 V
stroke
612 1620 M
[ [(Helvetica) 180.0 0.0 true true 0 (-30)]
] -60.0 MRshow
1.000 UL
LTb
LCb setrgbcolor
1.000 UL
LTa
LCb setrgbcolor
720 1800 M
2879 0 V
stroke
LTb
LCb setrgbcolor
720 1800 M
63 0 V
2816 0 R
-63 0 V
stroke
612 1800 M
[ [(Helvetica) 180.0 0.0 true true 0 (-25)]
] -60.0 MRshow
1.000 UL
LTb
LCb setrgbcolor
1.000 UL
LTa
LCb setrgbcolor
720 1979 M
2879 0 V
stroke
LTb
LCb setrgbcolor
720 1979 M
63 0 V
2816 0 R
-63 0 V
stroke
612 1979 M
[ [(Helvetica) 180.0 0.0 true true 0 (-20)]
] -60.0 MRshow
1.000 UL
LTb
LCb setrgbcolor
1.000 UL
LTa
LCb setrgbcolor
720 2159 M
2879 0 V
stroke
LTb
LCb setrgbcolor
720 2159 M
63 0 V
2816 0 R
-63 0 V
stroke
612 2159 M
[ [(Helvetica) 180.0 0.0 true true 0 (-15)]
] -60.0 MRshow
1.000 UL
LTb
LCb setrgbcolor
1.000 UL
LTa
LCb setrgbcolor
720 2339 M
2879 0 V
stroke
LTb
LCb setrgbcolor
720 2339 M
63 0 V
2816 0 R
-63 0 V
stroke
612 2339 M
[ [(Helvetica) 180.0 0.0 true true 0 (-10)]
] -60.0 MRshow
1.000 UL
LTb
LCb setrgbcolor
1.000 UL
LTa
LCb setrgbcolor
720 2519 M
2879 0 V
stroke
LTb
LCb setrgbcolor
720 2519 M
63 0 V
2816 0 R
-63 0 V
stroke
612 2519 M
[ [(Helvetica) 180.0 0.0 true true 0 (-5)]
] -60.0 MRshow
1.000 UL
LTb
LCb setrgbcolor
1.000 UL
LTa
LCb setrgbcolor
720 2699 M
2879 0 V
stroke
LTb
LCb setrgbcolor
720 2699 M
63 0 V
2816 0 R
-63 0 V
stroke
612 2699 M
[ [(Helvetica) 180.0 0.0 true true 0 (0)]
] -60.0 MRshow
1.000 UL
LTb
LCb setrgbcolor
1.000 UL
LTa
LCb setrgbcolor
720 1008 M
0 1763 V
stroke
LTb
LCb setrgbcolor
720 1008 M
0 63 V
0 1700 R
0 -63 V
stroke
720 828 M
[ [(Helvetica) 180.0 0.0 true true 0 (0)]
] -60.0 MCshow
1.000 UL
LTb
LCb setrgbcolor
1.000 UL
LTa
LCb setrgbcolor
1296 1008 M
0 1763 V
stroke
LTb
LCb setrgbcolor
1296 1008 M
0 63 V
0 1700 R
0 -63 V
stroke
1296 828 M
[ [(Helvetica) 180.0 0.0 true true 0 (0.2)]
] -60.0 MCshow
1.000 UL
LTb
LCb setrgbcolor
1.000 UL
LTa
LCb setrgbcolor
1872 1008 M
0 1763 V
stroke
LTb
LCb setrgbcolor
1872 1008 M
0 63 V
0 1700 R
0 -63 V
stroke
1872 828 M
[ [(Helvetica) 180.0 0.0 true true 0 (0.4)]
] -60.0 MCshow
1.000 UL
LTb
LCb setrgbcolor
1.000 UL
LTa
LCb setrgbcolor
2447 1008 M
0 1763 V
stroke
LTb
LCb setrgbcolor
2447 1008 M
0 63 V
0 1700 R
0 -63 V
stroke
2447 828 M
[ [(Helvetica) 180.0 0.0 true true 0 (0.6)]
] -60.0 MCshow
1.000 UL
LTb
LCb setrgbcolor
1.000 UL
LTa
LCb setrgbcolor
3023 1008 M
0 1763 V
stroke
LTb
LCb setrgbcolor
3023 1008 M
0 63 V
0 1700 R
0 -63 V
stroke
3023 828 M
[ [(Helvetica) 180.0 0.0 true true 0 (0.8)]
] -60.0 MCshow
1.000 UL
LTb
LCb setrgbcolor
1.000 UL
LTB
LCb setrgbcolor
720 2771 N
0 -1763 V
2879 0 V
0 1763 V
-2879 0 V
Z stroke
1.000 UP
1.000 UL
LTb
LCb setrgbcolor
LCb setrgbcolor
90 1889 M
currentpoint gsave translate -270 rotate 0 0 moveto
[ [(Helvetica) 150.0 0.0 true true 0 ( \(S=1,T=0\))]
] -50.0 MCshow
grestore
LTb
LCb setrgbcolor
2159 558 M
[ [(Symbol) 180.0 0.0 true true 0 (r)]
[(Helvetica) 180.0 0.0 true true 0 ( [fm)]
[(Helvetica) 144.0 90.0 true true 0 (-3)]
[(Helvetica) 180.0 0.0 true true 0 (])]
] -78.0 MCshow
LTb
% Begin plot #1
1.300 UP
1.000 UL
LTb
LCb setrgbcolor
820 2332 CircleF
862 2239 CircleF
914 2142 CircleF
979 2039 CircleF
1056 1933 CircleF
1147 1817 CircleF
1254 1698 CircleF
1376 1577 CircleF
1517 1461 CircleF
1675 1355 CircleF
1854 1260 CircleF
2054 1186 CircleF
2276 1145 CircleF
2521 1134 CircleF
2791 1176 CircleF
3086 1274 CircleF
% End plot #1
% Begin plot #2
3.000 UL
LTb
LT1
LCb setrgbcolor
720 2699 M
0 -1 V
0 -1 V
0 -1 V
1 -1 V
0 -1 V
0 -1 V
0 -1 V
0 -2 V
1 -1 V
0 -1 V
0 -2 V
0 -2 V
1 -2 V
0 -2 V
0 -2 V
1 -2 V
0 -2 V
1 -3 V
0 -2 V
1 -3 V
0 -3 V
1 -3 V
1 -3 V
0 -4 V
1 -3 V
1 -4 V
1 -4 V
1 -4 V
0 -4 V
1 -4 V
1 -5 V
1 -4 V
2 -5 V
1 -5 V
1 -5 V
1 -5 V
2 -6 V
1 -5 V
1 -6 V
2 -6 V
1 -6 V
2 -6 V
2 -7 V
1 -6 V
2 -7 V
2 -7 V
2 -7 V
2 -7 V
2 -7 V
2 -7 V
2 -8 V
3 -8 V
2 -7 V
2 -8 V
3 -9 V
2 -8 V
3 -8 V
3 -9 V
3 -8 V
3 -9 V
3 -9 V
3 -9 V
3 -9 V
3 -10 V
3 -9 V
4 -10 V
3 -9 V
4 -10 V
4 -10 V
3 -10 V
4 -10 V
4 -10 V
4 -11 V
4 -10 V
5 -11 V
4 -10 V
5 -11 V
4 -11 V
5 -11 V
5 -11 V
4 -11 V
5 -11 V
6 -11 V
5 -11 V
5 -12 V
5 -11 V
6 -12 V
6 -11 V
5 -12 V
6 -11 V
6 -12 V
7 -12 V
6 -12 V
6 -12 V
7 -11 V
6 -12 V
7 -12 V
7 -12 V
7 -12 V
7 -12 V
7 -12 V
8 -12 V
7 -13 V
8 -12 V
stroke 1016 1947 M
8 -12 V
7 -12 V
9 -12 V
8 -12 V
8 -12 V
9 -12 V
8 -12 V
9 -12 V
9 -12 V
9 -12 V
9 -12 V
9 -12 V
10 -12 V
9 -12 V
10 -12 V
10 -12 V
10 -12 V
11 -11 V
10 -12 V
10 -12 V
11 -11 V
11 -12 V
11 -11 V
11 -12 V
12 -11 V
11 -11 V
12 -11 V
12 -12 V
12 -11 V
12 -10 V
12 -11 V
13 -11 V
12 -11 V
13 -10 V
13 -11 V
14 -10 V
13 -10 V
14 -10 V
13 -10 V
14 -10 V
14 -10 V
15 -10 V
14 -9 V
15 -10 V
15 -9 V
15 -9 V
15 -9 V
15 -9 V
16 -9 V
16 -9 V
16 -8 V
16 -9 V
16 -8 V
17 -8 V
16 -8 V
17 -8 V
18 -7 V
17 -8 V
17 -7 V
18 -7 V
18 -7 V
18 -7 V
19 -7 V
18 -6 V
19 -7 V
19 -6 V
19 -6 V
20 -6 V
19 -5 V
20 -6 V
20 -5 V
21 -5 V
20 -5 V
21 -5 V
21 -4 V
21 -5 V
21 -4 V
22 -4 V
22 -4 V
22 -4 V
22 -3 V
23 -3 V
23 -3 V
23 -3 V
23 -3 V
23 -3 V
24 -2 V
24 -2 V
24 -2 V
24 -2 V
25 -2 V
25 -1 V
25 -1 V
25 -1 V
26 -1 V
26 -1 V
26 0 V
26 -1 V
27 0 V
27 0 V
27 1 V
27 0 V
28 1 V
28 0 V
stroke 2763 1181 M
28 1 V
28 2 V
29 1 V
29 1 V
29 2 V
29 2 V
30 2 V
30 2 V
30 2 V
30 3 V
31 3 V
31 2 V
31 3 V
32 3 V
32 4 V
32 3 V
32 4 V
33 3 V
33 4 V
33 4 V
33 4 V
% End plot #2
% Begin plot #3
stroke
LTb
[8.0 dl1 4.0 dl2 1.0 dl1 2.5 dl2 1.0 dl1 2.5 dl2 1.0 dl1 4.0 dl2 ] 0 setdash
LCb setrgbcolor
720 2699 M
0 -1 V
0 -1 V
0 -1 V
1 0 V
0 -1 V
0 -1 V
0 -1 V
0 -1 V
0 -1 V
1 -1 V
0 -2 V
0 -1 V
0 -2 V
1 -2 V
0 -1 V
0 -2 V
1 -3 V
0 -2 V
1 -2 V
0 -3 V
1 -2 V
0 -3 V
1 -3 V
1 -3 V
0 -3 V
1 -3 V
1 -4 V
1 -3 V
1 -4 V
0 -4 V
1 -4 V
1 -4 V
1 -4 V
2 -5 V
1 -4 V
1 -5 V
1 -5 V
2 -5 V
1 -5 V
1 -6 V
2 -5 V
1 -6 V
2 -5 V
2 -6 V
1 -6 V
2 -7 V
2 -6 V
2 -6 V
2 -7 V
2 -7 V
2 -7 V
2 -7 V
3 -7 V
2 -7 V
2 -8 V
3 -7 V
2 -8 V
3 -8 V
3 -8 V
3 -8 V
3 -8 V
3 -8 V
3 -9 V
3 -8 V
3 -9 V
3 -9 V
4 -9 V
3 -9 V
4 -9 V
4 -9 V
3 -10 V
4 -9 V
4 -10 V
4 -9 V
4 -10 V
5 -10 V
4 -10 V
5 -10 V
4 -10 V
5 -11 V
5 -10 V
4 -11 V
5 -10 V
6 -11 V
5 -11 V
5 -10 V
5 -11 V
6 -11 V
6 -11 V
5 -11 V
6 -12 V
6 -11 V
7 -11 V
6 -12 V
6 -11 V
7 -12 V
6 -11 V
7 -12 V
7 -11 V
7 -12 V
7 -12 V
7 -12 V
8 -12 V
7 -12 V
stroke 1008 1999 M
8 -12 V
8 -12 V
7 -12 V
9 -12 V
8 -12 V
8 -12 V
9 -12 V
8 -12 V
9 -12 V
9 -12 V
9 -13 V
9 -12 V
9 -12 V
10 -12 V
9 -13 V
10 -12 V
10 -12 V
10 -12 V
11 -12 V
10 -13 V
10 -12 V
11 -12 V
11 -12 V
11 -12 V
11 -12 V
12 -13 V
11 -12 V
12 -12 V
12 -12 V
12 -12 V
12 -11 V
12 -12 V
13 -12 V
12 -12 V
13 -12 V
13 -11 V
14 -12 V
13 -11 V
14 -12 V
13 -11 V
14 -11 V
14 -12 V
15 -11 V
14 -11 V
15 -11 V
15 -11 V
15 -10 V
15 -11 V
15 -11 V
16 -10 V
16 -10 V
16 -11 V
16 -10 V
16 -10 V
17 -9 V
16 -10 V
17 -10 V
18 -9 V
17 -9 V
17 -9 V
18 -9 V
18 -9 V
18 -9 V
19 -8 V
18 -8 V
19 -8 V
19 -8 V
19 -8 V
20 -7 V
19 -7 V
20 -7 V
20 -7 V
21 -7 V
20 -6 V
21 -6 V
21 -6 V
21 -5 V
21 -6 V
22 -5 V
22 -5 V
22 -4 V
22 -4 V
23 -4 V
23 -3 V
23 -4 V
23 -3 V
23 -2 V
24 -2 V
24 -2 V
24 -2 V
24 -1 V
25 0 V
25 -1 V
25 0 V
25 1 V
26 1 V
26 1 V
26 2 V
26 2 V
27 3 V
27 3 V
27 4 V
27 4 V
28 5 V
stroke 2735 1166 M
28 5 V
28 6 V
28 6 V
29 7 V
29 7 V
29 8 V
29 9 V
30 9 V
30 10 V
30 11 V
30 11 V
31 12 V
31 13 V
31 13 V
32 14 V
32 15 V
32 16 V
32 16 V
33 18 V
33 18 V
33 19 V
33 19 V
% End plot #3
% Begin plot #4
stroke
LTb
LCb setrgbcolor
720 2699 M
0 -1 V
0 -1 V
0 -1 V
1 -1 V
0 -1 V
0 -1 V
0 -1 V
0 -1 V
1 -2 V
0 -1 V
0 -2 V
0 -1 V
1 -2 V
0 -2 V
0 -2 V
1 -2 V
0 -3 V
1 -2 V
0 -3 V
1 -2 V
0 -3 V
1 -3 V
1 -3 V
0 -4 V
1 -3 V
1 -4 V
1 -3 V
1 -4 V
0 -4 V
1 -4 V
1 -5 V
1 -4 V
2 -5 V
1 -4 V
1 -5 V
1 -5 V
2 -6 V
1 -5 V
1 -6 V
2 -5 V
1 -6 V
2 -6 V
2 -6 V
1 -6 V
2 -7 V
2 -6 V
2 -7 V
2 -7 V
2 -7 V
2 -7 V
2 -7 V
3 -7 V
2 -8 V
2 -8 V
3 -7 V
2 -8 V
3 -8 V
3 -8 V
3 -9 V
3 -8 V
3 -9 V
3 -8 V
3 -9 V
3 -9 V
3 -9 V
4 -9 V
3 -9 V
4 -10 V
4 -9 V
3 -10 V
4 -9 V
4 -10 V
4 -10 V
4 -10 V
5 -10 V
4 -10 V
5 -10 V
4 -10 V
5 -11 V
5 -10 V
4 -11 V
5 -10 V
6 -11 V
5 -11 V
5 -10 V
5 -11 V
6 -11 V
6 -11 V
5 -11 V
6 -11 V
6 -12 V
7 -11 V
6 -11 V
6 -11 V
7 -12 V
6 -11 V
7 -12 V
7 -11 V
7 -12 V
7 -11 V
7 -12 V
8 -12 V
7 -11 V
8 -12 V
stroke 1016 1979 M
8 -12 V
7 -11 V
9 -12 V
8 -12 V
8 -12 V
9 -11 V
8 -12 V
9 -12 V
9 -12 V
9 -11 V
9 -12 V
9 -12 V
10 -12 V
9 -12 V
10 -11 V
10 -12 V
10 -12 V
11 -12 V
10 -11 V
10 -12 V
11 -12 V
11 -12 V
11 -11 V
11 -12 V
12 -11 V
11 -12 V
12 -12 V
12 -11 V
12 -12 V
12 -11 V
12 -11 V
13 -12 V
12 -11 V
13 -11 V
13 -12 V
14 -11 V
13 -11 V
14 -11 V
13 -11 V
14 -11 V
14 -11 V
15 -11 V
14 -10 V
15 -11 V
15 -11 V
15 -10 V
15 -11 V
15 -10 V
16 -10 V
16 -11 V
16 -10 V
16 -10 V
16 -10 V
17 -10 V
16 -9 V
17 -10 V
18 -9 V
17 -10 V
17 -9 V
18 -9 V
18 -9 V
18 -9 V
19 -9 V
18 -9 V
19 -8 V
19 -8 V
19 -8 V
20 -8 V
19 -8 V
20 -8 V
20 -7 V
21 -7 V
20 -7 V
21 -7 V
21 -7 V
21 -6 V
21 -6 V
22 -6 V
22 -6 V
22 -5 V
22 -5 V
23 -5 V
23 -4 V
23 -4 V
23 -4 V
23 -3 V
24 -3 V
24 -3 V
24 -2 V
24 -2 V
25 -2 V
25 -1 V
25 0 V
25 0 V
26 0 V
26 1 V
26 2 V
26 2 V
27 2 V
27 4 V
27 4 V
27 4 V
28 5 V
28 6 V
stroke 2763 1158 M
28 7 V
28 8 V
29 8 V
29 9 V
29 10 V
29 11 V
30 12 V
30 13 V
30 14 V
30 15 V
31 16 V
31 17 V
31 18 V
32 20 V
32 21 V
32 22 V
32 24 V
33 25 V
33 26 V
33 28 V
33 30 V
% End plot #4
stroke
2.000 UL
LTb
LCb setrgbcolor
1.000 UL
LTB
LCb setrgbcolor
720 2771 N
0 -1763 V
2879 0 V
0 1763 V
-2879 0 V
Z stroke
1.000 UP
1.000 UL
LTb
LCb setrgbcolor
1.000 UL
LTb
LCb setrgbcolor
1.000 UL
LTa
LCb setrgbcolor
3600 1080 M
2879 0 V
stroke
LTb
LCb setrgbcolor
3600 1080 M
63 0 V
2816 0 R
-63 0 V
stroke
LTb
LCb setrgbcolor
1.000 UL
LTa
LCb setrgbcolor
3600 1260 M
2879 0 V
stroke
LTb
LCb setrgbcolor
3600 1260 M
63 0 V
2816 0 R
-63 0 V
stroke
LTb
LCb setrgbcolor
1.000 UL
LTa
LCb setrgbcolor
3600 1440 M
2879 0 V
stroke
LTb
LCb setrgbcolor
3600 1440 M
63 0 V
2816 0 R
-63 0 V
stroke
LTb
LCb setrgbcolor
1.000 UL
LTa
LCb setrgbcolor
3600 1620 M
2879 0 V
stroke
LTb
LCb setrgbcolor
3600 1620 M
63 0 V
2816 0 R
-63 0 V
stroke
LTb
LCb setrgbcolor
1.000 UL
LTa
LCb setrgbcolor
3600 1800 M
2879 0 V
stroke
LTb
LCb setrgbcolor
3600 1800 M
63 0 V
2816 0 R
-63 0 V
stroke
LTb
LCb setrgbcolor
1.000 UL
LTa
LCb setrgbcolor
3600 1979 M
2879 0 V
stroke
LTb
LCb setrgbcolor
3600 1979 M
63 0 V
2816 0 R
-63 0 V
stroke
LTb
LCb setrgbcolor
1.000 UL
LTa
LCb setrgbcolor
3600 2159 M
2879 0 V
stroke
LTb
LCb setrgbcolor
3600 2159 M
63 0 V
2816 0 R
-63 0 V
stroke
LTb
LCb setrgbcolor
1.000 UL
LTa
LCb setrgbcolor
3600 2339 M
2879 0 V
stroke
LTb
LCb setrgbcolor
3600 2339 M
63 0 V
2816 0 R
-63 0 V
stroke
LTb
LCb setrgbcolor
1.000 UL
LTa
LCb setrgbcolor
3600 2519 M
2879 0 V
stroke
LTb
LCb setrgbcolor
3600 2519 M
63 0 V
2816 0 R
-63 0 V
stroke
LTb
LCb setrgbcolor
1.000 UL
LTa
LCb setrgbcolor
3600 2699 M
2879 0 V
stroke
LTb
LCb setrgbcolor
3600 2699 M
63 0 V
2816 0 R
-63 0 V
stroke
LTb
LCb setrgbcolor
1.000 UL
LTa
LCb setrgbcolor
3600 1008 M
0 1763 V
stroke
LTb
LCb setrgbcolor
3600 1008 M
0 63 V
0 1700 R
0 -63 V
stroke
3600 828 M
[ [(Helvetica) 180.0 0.0 true true 0 (0)]
] -60.0 MCshow
1.000 UL
LTb
LCb setrgbcolor
1.000 UL
LTa
LCb setrgbcolor
4176 1008 M
0 1763 V
stroke
LTb
LCb setrgbcolor
4176 1008 M
0 63 V
0 1700 R
0 -63 V
stroke
4176 828 M
[ [(Helvetica) 180.0 0.0 true true 0 (0.2)]
] -60.0 MCshow
1.000 UL
LTb
LCb setrgbcolor
1.000 UL
LTa
LCb setrgbcolor
4752 1008 M
0 1763 V
stroke
LTb
LCb setrgbcolor
4752 1008 M
0 63 V
0 1700 R
0 -63 V
stroke
4752 828 M
[ [(Helvetica) 180.0 0.0 true true 0 (0.4)]
] -60.0 MCshow
1.000 UL
LTb
LCb setrgbcolor
1.000 UL
LTa
LCb setrgbcolor
5327 1008 M
0 1763 V
stroke
LTb
LCb setrgbcolor
5327 1008 M
0 63 V
0 1700 R
0 -63 V
stroke
5327 828 M
[ [(Helvetica) 180.0 0.0 true true 0 (0.6)]
] -60.0 MCshow
1.000 UL
LTb
LCb setrgbcolor
1.000 UL
LTa
LCb setrgbcolor
5903 1008 M
0 1763 V
stroke
LTb
LCb setrgbcolor
5903 1008 M
0 63 V
0 1700 R
0 -63 V
stroke
5903 828 M
[ [(Helvetica) 180.0 0.0 true true 0 (0.8)]
] -60.0 MCshow
1.000 UL
LTb
LCb setrgbcolor
6479 1080 M
-63 0 V
stroke
6587 1080 M
[ [(Helvetica) 180.0 0.0 true true 0 (-45)]
] -60.0 MLshow
1.000 UL
LTb
LCb setrgbcolor
6479 1260 M
-63 0 V
stroke
6587 1260 M
[ [(Helvetica) 180.0 0.0 true true 0 (-40)]
] -60.0 MLshow
1.000 UL
LTb
LCb setrgbcolor
6479 1440 M
-63 0 V
stroke
6587 1440 M
[ [(Helvetica) 180.0 0.0 true true 0 (-35)]
] -60.0 MLshow
1.000 UL
LTb
LCb setrgbcolor
6479 1620 M
-63 0 V
stroke
6587 1620 M
[ [(Helvetica) 180.0 0.0 true true 0 (-30)]
] -60.0 MLshow
1.000 UL
LTb
LCb setrgbcolor
6479 1800 M
-63 0 V
stroke
6587 1800 M
[ [(Helvetica) 180.0 0.0 true true 0 (-25)]
] -60.0 MLshow
1.000 UL
LTb
LCb setrgbcolor
6479 1979 M
-63 0 V
stroke
6587 1979 M
[ [(Helvetica) 180.0 0.0 true true 0 (-20)]
] -60.0 MLshow
1.000 UL
LTb
LCb setrgbcolor
6479 2159 M
-63 0 V
stroke
6587 2159 M
[ [(Helvetica) 180.0 0.0 true true 0 (-15)]
] -60.0 MLshow
1.000 UL
LTb
LCb setrgbcolor
6479 2339 M
-63 0 V
stroke
6587 2339 M
[ [(Helvetica) 180.0 0.0 true true 0 (-10)]
] -60.0 MLshow
1.000 UL
LTb
LCb setrgbcolor
6479 2519 M
-63 0 V
stroke
6587 2519 M
[ [(Helvetica) 180.0 0.0 true true 0 (-5)]
] -60.0 MLshow
1.000 UL
LTb
LCb setrgbcolor
6479 2699 M
-63 0 V
stroke
6587 2699 M
[ [(Helvetica) 180.0 0.0 true true 0 ( 0)]
] -60.0 MLshow
1.000 UL
LTb
LCb setrgbcolor
1.000 UL
LTB
LCb setrgbcolor
3600 2771 N
0 -1763 V
2879 0 V
0 1763 V
-2879 0 V
Z stroke
1.000 UP
1.000 UL
LTb
LCb setrgbcolor
LCb setrgbcolor
7108 1889 M
currentpoint gsave translate -270 rotate 0 0 moveto
[ [(Helvetica) 150.0 0.0 true true 0 (\(S=0,T=1\))]
] -50.0 MCshow
grestore
LTb
LCb setrgbcolor
5039 558 M
[ [(Symbol) 180.0 0.0 true true 0 (r)]
[(Helvetica) 180.0 0.0 true true 0 ( [fm)]
[(Helvetica) 144.0 90.0 true true 0 (-3)]
[(Helvetica) 180.0 0.0 true true 0 (])]
] -78.0 MCshow
LTb
% Begin plot #1
1.300 UP
1.000 UL
LTb
LCb setrgbcolor
3700 2492 CircleF
3742 2431 CircleF
3794 2364 CircleF
3859 2293 CircleF
3936 2219 CircleF
4027 2141 CircleF
4134 2065 CircleF
4256 1996 CircleF
4397 1940 CircleF
4555 1903 CircleF
4734 1893 CircleF
4934 1919 CircleF
5156 1995 CircleF
5401 2130 CircleF
5671 2341 CircleF
5966 2641 CircleF
% End plot #1
% Begin plot #2
3.000 UL
LTb
LT1
LCb setrgbcolor
3600 2699 M
0 -1 V
1 0 V
0 -1 V
1 -1 V
0 -1 V
1 -1 V
0 -1 V
1 -1 V
0 -1 V
1 -1 V
0 -1 V
1 -1 V
0 -1 V
1 -1 V
1 -1 V
0 -1 V
1 -1 V
1 -2 V
1 -1 V
1 -2 V
0 -1 V
1 -2 V
1 -2 V
1 -2 V
2 -2 V
1 -2 V
1 -2 V
1 -2 V
2 -2 V
1 -3 V
1 -2 V
2 -3 V
1 -2 V
2 -3 V
2 -3 V
1 -3 V
2 -3 V
2 -3 V
2 -3 V
2 -3 V
2 -4 V
2 -3 V
2 -4 V
3 -4 V
2 -3 V
2 -4 V
3 -4 V
2 -4 V
3 -5 V
3 -4 V
3 -4 V
3 -5 V
3 -5 V
3 -4 V
3 -5 V
3 -5 V
3 -5 V
4 -5 V
3 -6 V
4 -5 V
4 -6 V
3 -5 V
4 -6 V
4 -6 V
4 -6 V
4 -6 V
5 -6 V
4 -6 V
5 -6 V
4 -7 V
5 -6 V
5 -7 V
4 -6 V
5 -7 V
6 -7 V
5 -7 V
5 -7 V
5 -7 V
6 -8 V
6 -7 V
5 -7 V
6 -8 V
6 -7 V
7 -8 V
6 -8 V
6 -7 V
7 -8 V
6 -8 V
7 -8 V
7 -8 V
7 -8 V
7 -9 V
7 -8 V
8 -8 V
7 -8 V
8 -9 V
8 -8 V
7 -9 V
9 -8 V
8 -9 V
8 -8 V
9 -9 V
8 -8 V
9 -9 V
stroke 3962 2218 M
9 -9 V
9 -8 V
9 -9 V
9 -9 V
10 -8 V
9 -9 V
10 -9 V
10 -8 V
10 -9 V
11 -8 V
10 -9 V
10 -8 V
11 -9 V
11 -8 V
11 -9 V
11 -8 V
12 -8 V
11 -9 V
12 -8 V
12 -8 V
12 -8 V
12 -7 V
12 -8 V
13 -8 V
12 -7 V
13 -8 V
13 -7 V
14 -7 V
13 -7 V
14 -7 V
13 -7 V
14 -6 V
14 -7 V
15 -6 V
14 -6 V
15 -6 V
15 -6 V
15 -5 V
15 -5 V
15 -5 V
16 -5 V
16 -4 V
16 -5 V
16 -4 V
16 -3 V
17 -4 V
16 -3 V
17 -3 V
18 -2 V
17 -3 V
17 -2 V
18 -1 V
18 -1 V
18 -1 V
19 -1 V
18 0 V
19 0 V
19 1 V
19 1 V
20 2 V
19 1 V
20 3 V
20 3 V
21 3 V
20 4 V
21 4 V
21 5 V
21 5 V
21 6 V
22 6 V
22 7 V
22 8 V
22 8 V
23 8 V
23 10 V
23 10 V
23 10 V
23 11 V
24 12 V
24 13 V
24 13 V
24 14 V
25 14 V
25 16 V
25 16 V
25 17 V
26 18 V
26 18 V
26 19 V
26 21 V
27 20 V
27 22 V
27 23 V
27 24 V
28 24 V
28 26 V
28 26 V
28 28 V
29 28 V
29 29 V
29 31 V
29 31 V
30 33 V
30 33 V
stroke 5875 2558 M
30 35 V
30 36 V
31 36 V
31 38 V
31 40 V
22 28 V
% End plot #2
% Begin plot #3
stroke
LTb
[8.0 dl1 4.0 dl2 1.0 dl1 2.5 dl2 1.0 dl1 2.5 dl2 1.0 dl1 4.0 dl2 ] 0 setdash
LCb setrgbcolor
3600 2699 M
0 -1 V
1 0 V
0 -1 V
0 -1 V
1 0 V
0 -1 V
0 -1 V
1 0 V
0 -1 V
0 -1 V
1 -1 V
0 -1 V
1 -1 V
0 -1 V
1 -1 V
0 -1 V
1 -1 V
1 -1 V
0 -2 V
1 -1 V
1 -2 V
1 -1 V
1 -2 V
0 -2 V
1 -2 V
1 -1 V
1 -3 V
2 -2 V
1 -2 V
1 -2 V
1 -3 V
2 -2 V
1 -3 V
1 -2 V
2 -3 V
1 -3 V
2 -3 V
2 -3 V
1 -3 V
2 -3 V
2 -4 V
2 -3 V
2 -4 V
2 -4 V
2 -3 V
2 -4 V
3 -4 V
2 -4 V
2 -5 V
3 -4 V
2 -5 V
3 -4 V
3 -5 V
3 -5 V
3 -4 V
3 -5 V
3 -6 V
3 -5 V
3 -5 V
3 -5 V
4 -6 V
3 -6 V
4 -5 V
4 -6 V
3 -6 V
4 -6 V
4 -6 V
4 -7 V
4 -6 V
5 -6 V
4 -7 V
5 -7 V
4 -6 V
5 -7 V
5 -7 V
4 -7 V
5 -7 V
6 -8 V
5 -7 V
5 -7 V
5 -8 V
6 -7 V
6 -8 V
5 -7 V
6 -8 V
6 -8 V
7 -8 V
6 -8 V
6 -8 V
7 -8 V
6 -8 V
7 -8 V
7 -8 V
7 -9 V
7 -8 V
7 -8 V
8 -9 V
7 -8 V
8 -9 V
8 -8 V
7 -9 V
9 -8 V
8 -9 V
8 -8 V
stroke 3936 2221 M
9 -9 V
8 -8 V
9 -9 V
9 -9 V
9 -8 V
9 -9 V
9 -8 V
10 -9 V
9 -8 V
10 -9 V
10 -8 V
10 -8 V
11 -9 V
10 -8 V
10 -8 V
11 -8 V
11 -8 V
11 -8 V
11 -8 V
12 -8 V
11 -8 V
12 -7 V
12 -8 V
12 -7 V
12 -7 V
12 -8 V
13 -7 V
12 -7 V
13 -6 V
13 -7 V
14 -6 V
13 -7 V
14 -6 V
13 -6 V
14 -5 V
14 -6 V
15 -5 V
14 -6 V
15 -5 V
15 -4 V
15 -5 V
15 -4 V
15 -4 V
16 -4 V
16 -4 V
16 -3 V
16 -3 V
16 -3 V
17 -2 V
16 -2 V
17 -2 V
18 -2 V
17 -1 V
17 -1 V
18 0 V
18 -1 V
18 0 V
19 1 V
18 1 V
19 1 V
19 2 V
19 2 V
20 2 V
19 3 V
20 3 V
20 4 V
21 4 V
20 4 V
21 5 V
21 6 V
21 6 V
21 6 V
22 7 V
22 8 V
22 8 V
22 8 V
23 9 V
23 10 V
23 10 V
23 10 V
23 11 V
24 12 V
24 12 V
24 13 V
24 14 V
25 14 V
25 15 V
25 15 V
25 16 V
26 17 V
26 17 V
26 18 V
26 19 V
27 19 V
27 20 V
27 21 V
27 22 V
28 22 V
28 23 V
28 23 V
28 25 V
29 25 V
29 26 V
29 27 V
stroke 5786 2451 M
29 27 V
30 29 V
30 29 V
30 30 V
30 30 V
31 32 V
31 32 V
31 34 V
32 34 V
32 35 V
7 8 V
% End plot #3
% Begin plot #4
stroke
LTb
LCb setrgbcolor
3600 2699 M
0 -1 V
1 0 V
0 -1 V
0 -1 V
1 -1 V
0 -1 V
1 -1 V
0 -1 V
0 -1 V
1 -1 V
0 -1 V
1 -1 V
0 -1 V
1 -1 V
0 -1 V
1 -2 V
1 -1 V
0 -2 V
1 -1 V
1 -2 V
1 -2 V
1 -2 V
0 -2 V
1 -2 V
1 -2 V
1 -2 V
2 -3 V
1 -2 V
1 -3 V
1 -2 V
2 -3 V
1 -3 V
1 -3 V
2 -3 V
1 -3 V
2 -3 V
2 -3 V
1 -4 V
2 -3 V
2 -4 V
2 -4 V
2 -4 V
2 -4 V
2 -4 V
2 -4 V
3 -4 V
2 -5 V
2 -4 V
3 -5 V
2 -5 V
3 -5 V
3 -5 V
3 -5 V
3 -5 V
3 -5 V
3 -5 V
3 -6 V
3 -6 V
3 -5 V
4 -6 V
3 -6 V
4 -6 V
4 -6 V
3 -6 V
4 -6 V
4 -7 V
4 -6 V
4 -7 V
5 -6 V
4 -7 V
5 -7 V
4 -6 V
5 -7 V
5 -7 V
4 -7 V
5 -8 V
6 -7 V
5 -7 V
5 -7 V
5 -8 V
6 -7 V
6 -8 V
5 -8 V
6 -7 V
6 -8 V
7 -8 V
6 -7 V
6 -8 V
7 -8 V
6 -8 V
7 -8 V
7 -8 V
7 -8 V
7 -8 V
7 -8 V
8 -8 V
7 -8 V
8 -8 V
8 -8 V
7 -8 V
9 -8 V
8 -9 V
8 -8 V
9 -8 V
stroke 3945 2203 M
8 -8 V
9 -8 V
9 -8 V
9 -8 V
9 -8 V
9 -8 V
10 -8 V
9 -7 V
10 -8 V
10 -8 V
10 -8 V
11 -7 V
10 -8 V
10 -7 V
11 -8 V
11 -7 V
11 -8 V
11 -7 V
12 -7 V
11 -7 V
12 -7 V
12 -7 V
12 -7 V
12 -6 V
12 -7 V
13 -6 V
12 -6 V
13 -7 V
13 -6 V
14 -5 V
13 -6 V
14 -6 V
13 -5 V
14 -6 V
14 -5 V
15 -5 V
14 -4 V
15 -5 V
15 -4 V
15 -5 V
15 -4 V
15 -3 V
16 -4 V
16 -4 V
16 -3 V
16 -3 V
16 -2 V
17 -3 V
16 -2 V
17 -2 V
18 -2 V
17 -1 V
17 -1 V
18 -1 V
18 -1 V
18 0 V
19 0 V
18 0 V
19 1 V
19 1 V
19 1 V
20 2 V
19 2 V
20 2 V
20 3 V
21 3 V
20 4 V
21 4 V
21 4 V
21 5 V
21 5 V
22 6 V
22 6 V
22 7 V
22 7 V
23 8 V
23 8 V
23 9 V
23 9 V
23 10 V
24 11 V
24 11 V
24 12 V
24 12 V
25 13 V
25 14 V
25 15 V
25 15 V
26 16 V
26 17 V
26 18 V
26 18 V
27 19 V
27 21 V
27 21 V
27 22 V
28 23 V
28 24 V
28 25 V
28 26 V
29 27 V
29 28 V
29 30 V
29 30 V
stroke 5815 2474 M
30 32 V
30 33 V
30 35 V
30 36 V
31 37 V
31 38 V
31 41 V
32 41 V
3 4 V
% End plot #4
stroke
2.000 UL
LTb
LCb setrgbcolor
1.000 UL
LTB
LCb setrgbcolor
3600 2771 N
0 -1763 V
2879 0 V
0 1763 V
-2879 0 V
Z stroke
1.000 UP
1.000 UL
LTb
LCb setrgbcolor
stroke
grestore
end
showpage
%%Trailer
%%DocumentFonts: Symbol Helvetica
%%Pages: 1
