%!PS-Adobe-2.0
%%Title: isoton_rad_param_2.eps
%%Creator: gnuplot 5.0 patchlevel 3
%%CreationDate: Tue Jul  4 00:12:11 2017
%%DocumentFonts: (atend)
%%BoundingBox: 50 50 554 770
%%Orientation: Landscape
%%Pages: (atend)
%%EndComments
%%BeginProlog
/gnudict 256 dict def
gnudict begin
%
% The following true/false flags may be edited by hand if desired.
% The unit line width and grayscale image gamma correction may also be changed.
%
/Color true def
/Blacktext false def
/Solid false def
/Dashlength 1 def
/Landscape true def
/Level1 false def
/Level3 false def
/Rounded false def
/ClipToBoundingBox false def
/SuppressPDFMark false def
/TransparentPatterns false def
/gnulinewidth 5.000 def
/userlinewidth gnulinewidth def
/Gamma 1.0 def
/BackgroundColor {-1.000 -1.000 -1.000} def
%
/vshift -46 def
/dl1 {
  10.0 Dashlength userlinewidth gnulinewidth div mul mul mul
  Rounded { currentlinewidth 0.75 mul sub dup 0 le { pop 0.01 } if } if
} def
/dl2 {
  10.0 Dashlength userlinewidth gnulinewidth div mul mul mul
  Rounded { currentlinewidth 0.75 mul add } if
} def
/hpt_ 31.5 def
/vpt_ 31.5 def
/hpt hpt_ def
/vpt vpt_ def
/doclip {
  ClipToBoundingBox {
    newpath 50 50 moveto 554 50 lineto 554 770 lineto 50 770 lineto closepath
    clip
  } if
} def
%
% Gnuplot Prolog Version 5.1 (Oct 2015)
%
%/SuppressPDFMark true def
%
/M {moveto} bind def
/L {lineto} bind def
/R {rmoveto} bind def
/V {rlineto} bind def
/N {newpath moveto} bind def
/Z {closepath} bind def
/C {setrgbcolor} bind def
/f {rlineto fill} bind def
/g {setgray} bind def
/Gshow {show} def   % May be redefined later in the file to support UTF-8
/vpt2 vpt 2 mul def
/hpt2 hpt 2 mul def
/Lshow {currentpoint stroke M 0 vshift R 
	Blacktext {gsave 0 setgray textshow grestore} {textshow} ifelse} def
/Rshow {currentpoint stroke M dup stringwidth pop neg vshift R
	Blacktext {gsave 0 setgray textshow grestore} {textshow} ifelse} def
/Cshow {currentpoint stroke M dup stringwidth pop -2 div vshift R 
	Blacktext {gsave 0 setgray textshow grestore} {textshow} ifelse} def
/UP {dup vpt_ mul /vpt exch def hpt_ mul /hpt exch def
  /hpt2 hpt 2 mul def /vpt2 vpt 2 mul def} def
/DL {Color {setrgbcolor Solid {pop []} if 0 setdash}
 {pop pop pop 0 setgray Solid {pop []} if 0 setdash} ifelse} def
/BL {stroke userlinewidth 2 mul setlinewidth
	Rounded {1 setlinejoin 1 setlinecap} if} def
/AL {stroke userlinewidth 2 div setlinewidth
	Rounded {1 setlinejoin 1 setlinecap} if} def
/UL {dup gnulinewidth mul /userlinewidth exch def
	dup 1 lt {pop 1} if 10 mul /udl exch def} def
/PL {stroke userlinewidth setlinewidth
	Rounded {1 setlinejoin 1 setlinecap} if} def
3.8 setmiterlimit
% Classic Line colors (version 5.0)
/LCw {1 1 1} def
/LCb {0 0 0} def
/LCa {0 0 0} def
/LC0 {1 0 0} def
/LC1 {0 1 0} def
/LC2 {0 0 1} def
/LC3 {1 0 1} def
/LC4 {0 1 1} def
/LC5 {1 1 0} def
/LC6 {0 0 0} def
/LC7 {1 0.3 0} def
/LC8 {0.5 0.5 0.5} def
% Default dash patterns (version 5.0)
/LTB {BL [] LCb DL} def
/LTw {PL [] 1 setgray} def
/LTb {PL [] LCb DL} def
/LTa {AL [1 udl mul 2 udl mul] 0 setdash LCa setrgbcolor} def
/LT0 {PL [] LC0 DL} def
/LT1 {PL [2 dl1 3 dl2] LC1 DL} def
/LT2 {PL [1 dl1 1.5 dl2] LC2 DL} def
/LT3 {PL [6 dl1 2 dl2 1 dl1 2 dl2] LC3 DL} def
/LT4 {PL [1 dl1 2 dl2 6 dl1 2 dl2 1 dl1 2 dl2] LC4 DL} def
/LT5 {PL [4 dl1 2 dl2] LC5 DL} def
/LT6 {PL [1.5 dl1 1.5 dl2 1.5 dl1 1.5 dl2 1.5 dl1 6 dl2] LC6 DL} def
/LT7 {PL [3 dl1 3 dl2 1 dl1 3 dl2] LC7 DL} def
/LT8 {PL [2 dl1 2 dl2 2 dl1 6 dl2] LC8 DL} def
/SL {[] 0 setdash} def
/Pnt {stroke [] 0 setdash gsave 1 setlinecap M 0 0 V stroke grestore} def
/Dia {stroke [] 0 setdash 2 copy vpt add M
  hpt neg vpt neg V hpt vpt neg V
  hpt vpt V hpt neg vpt V closepath stroke
  Pnt} def
/Pls {stroke [] 0 setdash vpt sub M 0 vpt2 V
  currentpoint stroke M
  hpt neg vpt neg R hpt2 0 V stroke
 } def
/Box {stroke [] 0 setdash 2 copy exch hpt sub exch vpt add M
  0 vpt2 neg V hpt2 0 V 0 vpt2 V
  hpt2 neg 0 V closepath stroke
  Pnt} def
/Crs {stroke [] 0 setdash exch hpt sub exch vpt add M
  hpt2 vpt2 neg V currentpoint stroke M
  hpt2 neg 0 R hpt2 vpt2 V stroke} def
/TriU {stroke [] 0 setdash 2 copy vpt 1.12 mul add M
  hpt neg vpt -1.62 mul V
  hpt 2 mul 0 V
  hpt neg vpt 1.62 mul V closepath stroke
  Pnt} def
/Star {2 copy Pls Crs} def
/BoxF {stroke [] 0 setdash exch hpt sub exch vpt add M
  0 vpt2 neg V hpt2 0 V 0 vpt2 V
  hpt2 neg 0 V closepath fill} def
/TriUF {stroke [] 0 setdash vpt 1.12 mul add M
  hpt neg vpt -1.62 mul V
  hpt 2 mul 0 V
  hpt neg vpt 1.62 mul V closepath fill} def
/TriD {stroke [] 0 setdash 2 copy vpt 1.12 mul sub M
  hpt neg vpt 1.62 mul V
  hpt 2 mul 0 V
  hpt neg vpt -1.62 mul V closepath stroke
  Pnt} def
/TriDF {stroke [] 0 setdash vpt 1.12 mul sub M
  hpt neg vpt 1.62 mul V
  hpt 2 mul 0 V
  hpt neg vpt -1.62 mul V closepath fill} def
/DiaF {stroke [] 0 setdash vpt add M
  hpt neg vpt neg V hpt vpt neg V
  hpt vpt V hpt neg vpt V closepath fill} def
/Pent {stroke [] 0 setdash 2 copy gsave
  translate 0 hpt M 4 {72 rotate 0 hpt L} repeat
  closepath stroke grestore Pnt} def
/PentF {stroke [] 0 setdash gsave
  translate 0 hpt M 4 {72 rotate 0 hpt L} repeat
  closepath fill grestore} def
/Circle {stroke [] 0 setdash 2 copy
  hpt 0 360 arc stroke Pnt} def
/CircleF {stroke [] 0 setdash hpt 0 360 arc fill} def
/C0 {BL [] 0 setdash 2 copy moveto vpt 90 450 arc} bind def
/C1 {BL [] 0 setdash 2 copy moveto
	2 copy vpt 0 90 arc closepath fill
	vpt 0 360 arc closepath} bind def
/C2 {BL [] 0 setdash 2 copy moveto
	2 copy vpt 90 180 arc closepath fill
	vpt 0 360 arc closepath} bind def
/C3 {BL [] 0 setdash 2 copy moveto
	2 copy vpt 0 180 arc closepath fill
	vpt 0 360 arc closepath} bind def
/C4 {BL [] 0 setdash 2 copy moveto
	2 copy vpt 180 270 arc closepath fill
	vpt 0 360 arc closepath} bind def
/C5 {BL [] 0 setdash 2 copy moveto
	2 copy vpt 0 90 arc
	2 copy moveto
	2 copy vpt 180 270 arc closepath fill
	vpt 0 360 arc} bind def
/C6 {BL [] 0 setdash 2 copy moveto
	2 copy vpt 90 270 arc closepath fill
	vpt 0 360 arc closepath} bind def
/C7 {BL [] 0 setdash 2 copy moveto
	2 copy vpt 0 270 arc closepath fill
	vpt 0 360 arc closepath} bind def
/C8 {BL [] 0 setdash 2 copy moveto
	2 copy vpt 270 360 arc closepath fill
	vpt 0 360 arc closepath} bind def
/C9 {BL [] 0 setdash 2 copy moveto
	2 copy vpt 270 450 arc closepath fill
	vpt 0 360 arc closepath} bind def
/C10 {BL [] 0 setdash 2 copy 2 copy moveto vpt 270 360 arc closepath fill
	2 copy moveto
	2 copy vpt 90 180 arc closepath fill
	vpt 0 360 arc closepath} bind def
/C11 {BL [] 0 setdash 2 copy moveto
	2 copy vpt 0 180 arc closepath fill
	2 copy moveto
	2 copy vpt 270 360 arc closepath fill
	vpt 0 360 arc closepath} bind def
/C12 {BL [] 0 setdash 2 copy moveto
	2 copy vpt 180 360 arc closepath fill
	vpt 0 360 arc closepath} bind def
/C13 {BL [] 0 setdash 2 copy moveto
	2 copy vpt 0 90 arc closepath fill
	2 copy moveto
	2 copy vpt 180 360 arc closepath fill
	vpt 0 360 arc closepath} bind def
/C14 {BL [] 0 setdash 2 copy moveto
	2 copy vpt 90 360 arc closepath fill
	vpt 0 360 arc} bind def
/C15 {BL [] 0 setdash 2 copy vpt 0 360 arc closepath fill
	vpt 0 360 arc closepath} bind def
/Rec {newpath 4 2 roll moveto 1 index 0 rlineto 0 exch rlineto
	neg 0 rlineto closepath} bind def
/Square {dup Rec} bind def
/Bsquare {vpt sub exch vpt sub exch vpt2 Square} bind def
/S0 {BL [] 0 setdash 2 copy moveto 0 vpt rlineto BL Bsquare} bind def
/S1 {BL [] 0 setdash 2 copy vpt Square fill Bsquare} bind def
/S2 {BL [] 0 setdash 2 copy exch vpt sub exch vpt Square fill Bsquare} bind def
/S3 {BL [] 0 setdash 2 copy exch vpt sub exch vpt2 vpt Rec fill Bsquare} bind def
/S4 {BL [] 0 setdash 2 copy exch vpt sub exch vpt sub vpt Square fill Bsquare} bind def
/S5 {BL [] 0 setdash 2 copy 2 copy vpt Square fill
	exch vpt sub exch vpt sub vpt Square fill Bsquare} bind def
/S6 {BL [] 0 setdash 2 copy exch vpt sub exch vpt sub vpt vpt2 Rec fill Bsquare} bind def
/S7 {BL [] 0 setdash 2 copy exch vpt sub exch vpt sub vpt vpt2 Rec fill
	2 copy vpt Square fill Bsquare} bind def
/S8 {BL [] 0 setdash 2 copy vpt sub vpt Square fill Bsquare} bind def
/S9 {BL [] 0 setdash 2 copy vpt sub vpt vpt2 Rec fill Bsquare} bind def
/S10 {BL [] 0 setdash 2 copy vpt sub vpt Square fill 2 copy exch vpt sub exch vpt Square fill
	Bsquare} bind def
/S11 {BL [] 0 setdash 2 copy vpt sub vpt Square fill 2 copy exch vpt sub exch vpt2 vpt Rec fill
	Bsquare} bind def
/S12 {BL [] 0 setdash 2 copy exch vpt sub exch vpt sub vpt2 vpt Rec fill Bsquare} bind def
/S13 {BL [] 0 setdash 2 copy exch vpt sub exch vpt sub vpt2 vpt Rec fill
	2 copy vpt Square fill Bsquare} bind def
/S14 {BL [] 0 setdash 2 copy exch vpt sub exch vpt sub vpt2 vpt Rec fill
	2 copy exch vpt sub exch vpt Square fill Bsquare} bind def
/S15 {BL [] 0 setdash 2 copy Bsquare fill Bsquare} bind def
/D0 {gsave translate 45 rotate 0 0 S0 stroke grestore} bind def
/D1 {gsave translate 45 rotate 0 0 S1 stroke grestore} bind def
/D2 {gsave translate 45 rotate 0 0 S2 stroke grestore} bind def
/D3 {gsave translate 45 rotate 0 0 S3 stroke grestore} bind def
/D4 {gsave translate 45 rotate 0 0 S4 stroke grestore} bind def
/D5 {gsave translate 45 rotate 0 0 S5 stroke grestore} bind def
/D6 {gsave translate 45 rotate 0 0 S6 stroke grestore} bind def
/D7 {gsave translate 45 rotate 0 0 S7 stroke grestore} bind def
/D8 {gsave translate 45 rotate 0 0 S8 stroke grestore} bind def
/D9 {gsave translate 45 rotate 0 0 S9 stroke grestore} bind def
/D10 {gsave translate 45 rotate 0 0 S10 stroke grestore} bind def
/D11 {gsave translate 45 rotate 0 0 S11 stroke grestore} bind def
/D12 {gsave translate 45 rotate 0 0 S12 stroke grestore} bind def
/D13 {gsave translate 45 rotate 0 0 S13 stroke grestore} bind def
/D14 {gsave translate 45 rotate 0 0 S14 stroke grestore} bind def
/D15 {gsave translate 45 rotate 0 0 S15 stroke grestore} bind def
/DiaE {stroke [] 0 setdash vpt add M
  hpt neg vpt neg V hpt vpt neg V
  hpt vpt V hpt neg vpt V closepath stroke} def
/BoxE {stroke [] 0 setdash exch hpt sub exch vpt add M
  0 vpt2 neg V hpt2 0 V 0 vpt2 V
  hpt2 neg 0 V closepath stroke} def
/TriUE {stroke [] 0 setdash vpt 1.12 mul add M
  hpt neg vpt -1.62 mul V
  hpt 2 mul 0 V
  hpt neg vpt 1.62 mul V closepath stroke} def
/TriDE {stroke [] 0 setdash vpt 1.12 mul sub M
  hpt neg vpt 1.62 mul V
  hpt 2 mul 0 V
  hpt neg vpt -1.62 mul V closepath stroke} def
/PentE {stroke [] 0 setdash gsave
  translate 0 hpt M 4 {72 rotate 0 hpt L} repeat
  closepath stroke grestore} def
/CircE {stroke [] 0 setdash 
  hpt 0 360 arc stroke} def
/Opaque {gsave closepath 1 setgray fill grestore 0 setgray closepath} def
/DiaW {stroke [] 0 setdash vpt add M
  hpt neg vpt neg V hpt vpt neg V
  hpt vpt V hpt neg vpt V Opaque stroke} def
/BoxW {stroke [] 0 setdash exch hpt sub exch vpt add M
  0 vpt2 neg V hpt2 0 V 0 vpt2 V
  hpt2 neg 0 V Opaque stroke} def
/TriUW {stroke [] 0 setdash vpt 1.12 mul add M
  hpt neg vpt -1.62 mul V
  hpt 2 mul 0 V
  hpt neg vpt 1.62 mul V Opaque stroke} def
/TriDW {stroke [] 0 setdash vpt 1.12 mul sub M
  hpt neg vpt 1.62 mul V
  hpt 2 mul 0 V
  hpt neg vpt -1.62 mul V Opaque stroke} def
/PentW {stroke [] 0 setdash gsave
  translate 0 hpt M 4 {72 rotate 0 hpt L} repeat
  Opaque stroke grestore} def
/CircW {stroke [] 0 setdash 
  hpt 0 360 arc Opaque stroke} def
/BoxFill {gsave Rec 1 setgray fill grestore} def
/Density {
  /Fillden exch def
  currentrgbcolor
  /ColB exch def /ColG exch def /ColR exch def
  /ColR ColR Fillden mul Fillden sub 1 add def
  /ColG ColG Fillden mul Fillden sub 1 add def
  /ColB ColB Fillden mul Fillden sub 1 add def
  ColR ColG ColB setrgbcolor} def
/BoxColFill {gsave Rec PolyFill} def
/PolyFill {gsave Density fill grestore grestore} def
/h {rlineto rlineto rlineto gsave closepath fill grestore} bind def
%
% PostScript Level 1 Pattern Fill routine for rectangles
% Usage: x y w h s a XX PatternFill
%	x,y = lower left corner of box to be filled
%	w,h = width and height of box
%	  a = angle in degrees between lines and x-axis
%	 XX = 0/1 for no/yes cross-hatch
%
/PatternFill {gsave /PFa [ 9 2 roll ] def
  PFa 0 get PFa 2 get 2 div add PFa 1 get PFa 3 get 2 div add translate
  PFa 2 get -2 div PFa 3 get -2 div PFa 2 get PFa 3 get Rec
  TransparentPatterns {} {gsave 1 setgray fill grestore} ifelse
  clip
  currentlinewidth 0.5 mul setlinewidth
  /PFs PFa 2 get dup mul PFa 3 get dup mul add sqrt def
  0 0 M PFa 5 get rotate PFs -2 div dup translate
  0 1 PFs PFa 4 get div 1 add floor cvi
	{PFa 4 get mul 0 M 0 PFs V} for
  0 PFa 6 get ne {
	0 1 PFs PFa 4 get div 1 add floor cvi
	{PFa 4 get mul 0 2 1 roll M PFs 0 V} for
 } if
  stroke grestore} def
%
/languagelevel where
 {pop languagelevel} {1} ifelse
dup 2 lt
	{/InterpretLevel1 true def
	 /InterpretLevel3 false def}
	{/InterpretLevel1 Level1 def
	 2 gt
	    {/InterpretLevel3 Level3 def}
	    {/InterpretLevel3 false def}
	 ifelse }
 ifelse
%
% PostScript level 2 pattern fill definitions
%
/Level2PatternFill {
/Tile8x8 {/PaintType 2 /PatternType 1 /TilingType 1 /BBox [0 0 8 8] /XStep 8 /YStep 8}
	bind def
/KeepColor {currentrgbcolor [/Pattern /DeviceRGB] setcolorspace} bind def
<< Tile8x8
 /PaintProc {0.5 setlinewidth pop 0 0 M 8 8 L 0 8 M 8 0 L stroke} 
>> matrix makepattern
/Pat1 exch def
<< Tile8x8
 /PaintProc {0.5 setlinewidth pop 0 0 M 8 8 L 0 8 M 8 0 L stroke
	0 4 M 4 8 L 8 4 L 4 0 L 0 4 L stroke}
>> matrix makepattern
/Pat2 exch def
<< Tile8x8
 /PaintProc {0.5 setlinewidth pop 0 0 M 0 8 L
	8 8 L 8 0 L 0 0 L fill}
>> matrix makepattern
/Pat3 exch def
<< Tile8x8
 /PaintProc {0.5 setlinewidth pop -4 8 M 8 -4 L
	0 12 M 12 0 L stroke}
>> matrix makepattern
/Pat4 exch def
<< Tile8x8
 /PaintProc {0.5 setlinewidth pop -4 0 M 8 12 L
	0 -4 M 12 8 L stroke}
>> matrix makepattern
/Pat5 exch def
<< Tile8x8
 /PaintProc {0.5 setlinewidth pop -2 8 M 4 -4 L
	0 12 M 8 -4 L 4 12 M 10 0 L stroke}
>> matrix makepattern
/Pat6 exch def
<< Tile8x8
 /PaintProc {0.5 setlinewidth pop -2 0 M 4 12 L
	0 -4 M 8 12 L 4 -4 M 10 8 L stroke}
>> matrix makepattern
/Pat7 exch def
<< Tile8x8
 /PaintProc {0.5 setlinewidth pop 8 -2 M -4 4 L
	12 0 M -4 8 L 12 4 M 0 10 L stroke}
>> matrix makepattern
/Pat8 exch def
<< Tile8x8
 /PaintProc {0.5 setlinewidth pop 0 -2 M 12 4 L
	-4 0 M 12 8 L -4 4 M 8 10 L stroke}
>> matrix makepattern
/Pat9 exch def
/Pattern1 {PatternBgnd KeepColor Pat1 setpattern} bind def
/Pattern2 {PatternBgnd KeepColor Pat2 setpattern} bind def
/Pattern3 {PatternBgnd KeepColor Pat3 setpattern} bind def
/Pattern4 {PatternBgnd KeepColor Landscape {Pat5} {Pat4} ifelse setpattern} bind def
/Pattern5 {PatternBgnd KeepColor Landscape {Pat4} {Pat5} ifelse setpattern} bind def
/Pattern6 {PatternBgnd KeepColor Landscape {Pat9} {Pat6} ifelse setpattern} bind def
/Pattern7 {PatternBgnd KeepColor Landscape {Pat8} {Pat7} ifelse setpattern} bind def
} def
%
%
%End of PostScript Level 2 code
%
/PatternBgnd {
  TransparentPatterns {} {gsave 1 setgray fill grestore} ifelse
} def
%
% Substitute for Level 2 pattern fill codes with
% grayscale if Level 2 support is not selected.
%
/Level1PatternFill {
/Pattern1 {0.250 Density} bind def
/Pattern2 {0.500 Density} bind def
/Pattern3 {0.750 Density} bind def
/Pattern4 {0.125 Density} bind def
/Pattern5 {0.375 Density} bind def
/Pattern6 {0.625 Density} bind def
/Pattern7 {0.875 Density} bind def
} def
%
% Now test for support of Level 2 code
%
Level1 {Level1PatternFill} {Level2PatternFill} ifelse
%
/Symbol-Oblique /Symbol findfont [1 0 .167 1 0 0] makefont
dup length dict begin {1 index /FID eq {pop pop} {def} ifelse} forall
currentdict end definefont pop
%
/MFshow {
   { dup 5 get 3 ge
     { 5 get 3 eq {gsave} {grestore} ifelse }
     {dup dup 0 get findfont exch 1 get scalefont setfont
     [ currentpoint ] exch dup 2 get 0 exch R dup 5 get 2 ne {dup dup 6
     get exch 4 get {textshow} {stringwidth pop 0 R} ifelse }if dup 5 get 0 eq
     {dup 3 get {2 get neg 0 exch R pop} {pop aload pop M} ifelse} {dup 5
     get 1 eq {dup 2 get exch dup 3 get exch 6 get stringwidth pop -2 div
     dup 0 R} {dup 6 get stringwidth pop -2 div 0 R 6 get
     textshow 2 index {aload pop M neg 3 -1 roll neg R pop pop} {pop pop pop
     pop aload pop M} ifelse }ifelse }ifelse }
     ifelse }
   forall} def
/Gswidth {dup type /stringtype eq {stringwidth} {pop (n) stringwidth} ifelse} def
/MFwidth {0 exch { dup 5 get 3 ge { 5 get 3 eq { 0 } { pop } ifelse }
 {dup 3 get{dup dup 0 get findfont exch 1 get scalefont setfont
     6 get Gswidth pop add} {pop} ifelse} ifelse} forall} def
/MLshow { currentpoint stroke M
  0 exch R
  Blacktext {gsave 0 setgray MFshow grestore} {MFshow} ifelse } bind def
/MRshow { currentpoint stroke M
  exch dup MFwidth neg 3 -1 roll R
  Blacktext {gsave 0 setgray MFshow grestore} {MFshow} ifelse } bind def
/MCshow { currentpoint stroke M
  exch dup MFwidth -2 div 3 -1 roll R
  Blacktext {gsave 0 setgray MFshow grestore} {MFshow} ifelse } bind def
/XYsave    { [( ) 1 2 true false 3 ()] } bind def
/XYrestore { [( ) 1 2 true false 4 ()] } bind def
Level1 SuppressPDFMark or 
{} {
/SDict 10 dict def
systemdict /pdfmark known not {
  userdict /pdfmark systemdict /cleartomark get put
} if
SDict begin [
  /Title (isoton_rad_param_2.eps)
  /Subject (gnuplot plot)
  /Creator (gnuplot 5.0 patchlevel 3)
  /Author (kb2)
%  /Producer (gnuplot)
%  /Keywords ()
  /CreationDate (Tue Jul  4 00:12:11 2017)
  /DOCINFO pdfmark
end
} ifelse
%
% Support for boxed text - Ethan A Merritt May 2005
%
/InitTextBox { userdict /TBy2 3 -1 roll put userdict /TBx2 3 -1 roll put
           userdict /TBy1 3 -1 roll put userdict /TBx1 3 -1 roll put
	   /Boxing true def } def
/ExtendTextBox { Boxing
    { gsave dup false charpath pathbbox
      dup TBy2 gt {userdict /TBy2 3 -1 roll put} {pop} ifelse
      dup TBx2 gt {userdict /TBx2 3 -1 roll put} {pop} ifelse
      dup TBy1 lt {userdict /TBy1 3 -1 roll put} {pop} ifelse
      dup TBx1 lt {userdict /TBx1 3 -1 roll put} {pop} ifelse
      grestore } if } def
/PopTextBox { newpath TBx1 TBxmargin sub TBy1 TBymargin sub M
               TBx1 TBxmargin sub TBy2 TBymargin add L
	       TBx2 TBxmargin add TBy2 TBymargin add L
	       TBx2 TBxmargin add TBy1 TBymargin sub L closepath } def
/DrawTextBox { PopTextBox stroke /Boxing false def} def
/FillTextBox { gsave PopTextBox 1 1 1 setrgbcolor fill grestore /Boxing false def} def
0 0 0 0 InitTextBox
/TBxmargin 20 def
/TBymargin 20 def
/Boxing false def
/textshow { ExtendTextBox Gshow } def
%
% redundant definitions for compatibility with prologue.ps older than 5.0.2
/LTB {BL [] LCb DL} def
/LTb {PL [] LCb DL} def
end
%%EndProlog
%%Page: 1 1
gnudict begin
gsave
doclip
50 50 translate
0.100 0.100 scale
90 rotate
0 -5040 translate
0 setgray
newpath
(Helvetica) findfont 140 scalefont setfont
BackgroundColor 0 lt 3 1 roll 0 lt exch 0 lt or or not {gsave BackgroundColor C clippath fill grestore} if
1.000 UL
LTb
LCb setrgbcolor
1.000 UL
LTa
0.50 0.50 0.50 C 864 3024 M
2591 0 V
stroke
LTb
LCb setrgbcolor
864 3024 M
63 0 V
2528 0 R
-63 0 V
stroke
780 3024 M
[ [(Helvetica) 140.0 0.0 true true 0 (3.40)]
] -46.7 MRshow
1.000 UL
LTb
LCb setrgbcolor
1.000 UL
LTa
0.50 0.50 0.50 C 864 3200 M
2591 0 V
stroke
LTb
LCb setrgbcolor
864 3200 M
63 0 V
2528 0 R
-63 0 V
stroke
780 3200 M
[ [(Helvetica) 140.0 0.0 true true 0 (3.45)]
] -46.7 MRshow
1.000 UL
LTb
LCb setrgbcolor
1.000 UL
LTa
0.50 0.50 0.50 C 864 3377 M
2591 0 V
stroke
LTb
LCb setrgbcolor
864 3377 M
63 0 V
2528 0 R
-63 0 V
stroke
780 3377 M
[ [(Helvetica) 140.0 0.0 true true 0 (3.50)]
] -46.7 MRshow
1.000 UL
LTb
LCb setrgbcolor
1.000 UL
LTa
0.50 0.50 0.50 C 864 3553 M
2591 0 V
stroke
LTb
LCb setrgbcolor
864 3553 M
63 0 V
2528 0 R
-63 0 V
stroke
780 3553 M
[ [(Helvetica) 140.0 0.0 true true 0 (3.55)]
] -46.7 MRshow
1.000 UL
LTb
LCb setrgbcolor
1.000 UL
LTa
0.50 0.50 0.50 C 864 3729 M
2591 0 V
stroke
LTb
LCb setrgbcolor
864 3729 M
63 0 V
2528 0 R
-63 0 V
stroke
780 3729 M
[ [(Helvetica) 140.0 0.0 true true 0 (3.60)]
] -46.7 MRshow
1.000 UL
LTb
LCb setrgbcolor
1.000 UL
LTa
0.50 0.50 0.50 C 864 3905 M
2591 0 V
stroke
LTb
LCb setrgbcolor
864 3905 M
63 0 V
2528 0 R
-63 0 V
stroke
780 3905 M
[ [(Helvetica) 140.0 0.0 true true 0 (3.65)]
] -46.7 MRshow
1.000 UL
LTb
LCb setrgbcolor
1.000 UL
LTa
0.50 0.50 0.50 C 864 4082 M
2591 0 V
stroke
LTb
LCb setrgbcolor
864 4082 M
63 0 V
2528 0 R
-63 0 V
stroke
780 4082 M
[ [(Helvetica) 140.0 0.0 true true 0 (3.70)]
] -46.7 MRshow
1.000 UL
LTb
LCb setrgbcolor
1.000 UL
LTa
0.50 0.50 0.50 C 864 4258 M
2591 0 V
stroke
LTb
LCb setrgbcolor
864 4258 M
63 0 V
2528 0 R
-63 0 V
stroke
780 4258 M
[ [(Helvetica) 140.0 0.0 true true 0 (3.75)]
] -46.7 MRshow
1.000 UL
LTb
LCb setrgbcolor
1.000 UL
LTa
0.50 0.50 0.50 C 864 4434 M
2591 0 V
stroke
LTb
LCb setrgbcolor
864 4434 M
63 0 V
2528 0 R
-63 0 V
stroke
780 4434 M
[ [(Helvetica) 140.0 0.0 true true 0 (3.80)]
] -46.7 MRshow
1.000 UL
LTb
LCb setrgbcolor
1.000 UL
LTa
0.50 0.50 0.50 C 864 4611 M
2591 0 V
stroke
LTb
LCb setrgbcolor
864 4611 M
63 0 V
2528 0 R
-63 0 V
stroke
780 4611 M
[ [(Helvetica) 140.0 0.0 true true 0 (3.85)]
] -46.7 MRshow
1.000 UL
LTb
LCb setrgbcolor
1.000 UL
LTa
0.50 0.50 0.50 C 864 4787 M
2591 0 V
stroke
LTb
LCb setrgbcolor
864 4787 M
63 0 V
2528 0 R
-63 0 V
stroke
780 4787 M
[ [(Helvetica) 140.0 0.0 true true 0 (3.90)]
] -46.7 MRshow
1.000 UL
LTb
LCb setrgbcolor
1.000 UL
LTa
0.50 0.50 0.50 C 864 3024 M
0 1763 V
stroke
LTb
LCb setrgbcolor
864 3024 M
0 63 V
0 1700 R
0 -63 V
stroke
864 2884 M
[ [(Helvetica) 140.0 0.0 true true 0 ( 20)]
] -46.7 MCshow
1.000 UL
LTb
LCb setrgbcolor
1.000 UL
LTa
0.50 0.50 0.50 C 1296 3024 M
0 1763 V
stroke
LTb
LCb setrgbcolor
1296 3024 M
0 63 V
0 1700 R
0 -63 V
stroke
1296 2884 M
[ [(Helvetica) 140.0 0.0 true true 0 ( 22)]
] -46.7 MCshow
1.000 UL
LTb
LCb setrgbcolor
1.000 UL
LTa
0.50 0.50 0.50 C 1728 3024 M
0 1763 V
stroke
LTb
LCb setrgbcolor
1728 3024 M
0 63 V
0 1700 R
0 -63 V
stroke
1728 2884 M
[ [(Helvetica) 140.0 0.0 true true 0 ( 24)]
] -46.7 MCshow
1.000 UL
LTb
LCb setrgbcolor
1.000 UL
LTa
0.50 0.50 0.50 C 2160 3024 M
0 1763 V
stroke
LTb
LCb setrgbcolor
2160 3024 M
0 63 V
0 1700 R
0 -63 V
stroke
2160 2884 M
[ [(Helvetica) 140.0 0.0 true true 0 ( 26)]
] -46.7 MCshow
1.000 UL
LTb
LCb setrgbcolor
1.000 UL
LTa
0.50 0.50 0.50 C 2591 3024 M
0 1763 V
stroke
LTb
LCb setrgbcolor
2591 3024 M
0 63 V
0 1700 R
0 -63 V
stroke
2591 2884 M
[ [(Helvetica) 140.0 0.0 true true 0 ( 28)]
] -46.7 MCshow
1.000 UL
LTb
LCb setrgbcolor
1.000 UL
LTa
0.50 0.50 0.50 C 3023 3024 M
0 1763 V
stroke
LTb
LCb setrgbcolor
3023 3024 M
0 63 V
0 1700 R
0 -63 V
stroke
3023 2884 M
[ [(Helvetica) 140.0 0.0 true true 0 ( 30)]
] -46.7 MCshow
1.000 UL
LTb
LCb setrgbcolor
1.000 UL
LTa
0.50 0.50 0.50 C 3455 3024 M
0 1763 V
stroke
LTb
LCb setrgbcolor
3455 3024 M
0 63 V
0 1700 R
0 -63 V
stroke
3455 2884 M
[ [(Helvetica) 140.0 0.0 true true 0 ( 32)]
] -46.7 MCshow
1.000 UL
LTb
LCb setrgbcolor
1.000 UL
LTB
LCb setrgbcolor
864 4787 N
0 -1763 V
2591 0 V
0 1763 V
-2591 0 V
Z stroke
1.000 UL
LTb
1.00 1.00 1.00 C 1.000 2944 3060 504 280 BoxColFill
LCb setrgbcolor
2944 3060 N
0 280 V
504 0 V
0 -280 V
-504 0 V
Z stroke
1.000 UP
1.000 UL
LTb
LCb setrgbcolor
LCb setrgbcolor
290 3905 M
currentpoint gsave translate -270 rotate 0 0 moveto
[ [(Helvetica) 140.0 0.0 true true 0 (r)]
[(Helvetica) 112.0 -42.0 true true 0 (p)]
] -32.7 MCshow
grestore
LTb
LCb setrgbcolor
2159 2674 M
[ [(Helvetica) 140.0 0.0 true true 0 (Nombre de protons)]
] -46.7 MCshow
LTb
% Begin plot #1
1.000 UP
1.000 UL
LTb
0.91 0.59 0.48 C 864 3165 CircleF
1080 3294 CircleF
1296 3415 CircleF
1512 3531 CircleF
1728 3642 CircleF
1944 3748 CircleF
2160 3849 CircleF
2375 3947 CircleF
2591 4041 CircleF
2807 4193 CircleF
3023 4337 CircleF
3239 4473 CircleF
3455 4603 CircleF
% End plot #1
% Begin plot #2
2.000 UL
LTb
0.91 0.59 0.48 C 864 3165 M
216 129 V
216 121 V
216 116 V
216 111 V
216 106 V
216 101 V
215 98 V
216 94 V
216 152 V
216 144 V
216 136 V
216 130 V
% End plot #2
% Begin plot #3
1.000 UP
stroke
1.000 UL
LTb
0.55 0.00 0.00 C 864 3203 TriUF
1080 3329 TriUF
1296 3450 TriUF
1512 3565 TriUF
1728 3675 TriUF
1944 3780 TriUF
2160 3882 TriUF
2375 3980 TriUF
2591 4074 TriUF
2807 4227 TriUF
3023 4373 TriUF
3239 4512 TriUF
3455 4646 TriUF
% End plot #3
% Begin plot #4
2.000 UL
LTb
0.55 0.00 0.00 C 864 3203 M
216 126 V
216 121 V
216 115 V
216 110 V
216 105 V
216 102 V
215 98 V
216 94 V
216 153 V
216 146 V
216 139 V
216 134 V
% End plot #4
stroke
LTb
LCb setrgbcolor
1.000 UL
LTB
LCb setrgbcolor
864 4787 N
0 -1763 V
2591 0 V
0 1763 V
-2591 0 V
Z stroke
1.000 UP
LCb setrgbcolor
3196 3200 M
[ [(Helvetica) 180.0 0.0 true true 0 (N=28)]
] -60.0 MCshow
1.000 UL
LTb
LCb setrgbcolor
1.000 UL
LTb
LCb setrgbcolor
1.000 UL
LTa
0.50 0.50 0.50 C 3744 3024 M
2591 0 V
stroke
LTb
LCb setrgbcolor
3744 3024 M
63 0 V
2528 0 R
-63 0 V
stroke
LTb
LCb setrgbcolor
1.000 UL
LTa
0.50 0.50 0.50 C 3744 3276 M
2591 0 V
stroke
LTb
LCb setrgbcolor
3744 3276 M
63 0 V
2528 0 R
-63 0 V
stroke
LTb
LCb setrgbcolor
1.000 UL
LTa
0.50 0.50 0.50 C 3744 3528 M
2591 0 V
stroke
LTb
LCb setrgbcolor
3744 3528 M
63 0 V
2528 0 R
-63 0 V
stroke
LTb
LCb setrgbcolor
1.000 UL
LTa
0.50 0.50 0.50 C 3744 3780 M
2591 0 V
stroke
LTb
LCb setrgbcolor
3744 3780 M
63 0 V
2528 0 R
-63 0 V
stroke
LTb
LCb setrgbcolor
1.000 UL
LTa
0.50 0.50 0.50 C 3744 4031 M
2591 0 V
stroke
LTb
LCb setrgbcolor
3744 4031 M
63 0 V
2528 0 R
-63 0 V
stroke
LTb
LCb setrgbcolor
1.000 UL
LTa
0.50 0.50 0.50 C 3744 4283 M
2591 0 V
stroke
LTb
LCb setrgbcolor
3744 4283 M
63 0 V
2528 0 R
-63 0 V
stroke
LTb
LCb setrgbcolor
1.000 UL
LTa
0.50 0.50 0.50 C 3744 4535 M
95 0 V
1071 0 R
1425 0 V
stroke
LTb
LCb setrgbcolor
3744 4535 M
63 0 V
2528 0 R
-63 0 V
stroke
LTb
LCb setrgbcolor
1.000 UL
LTa
0.50 0.50 0.50 C 3744 4787 M
2591 0 V
stroke
LTb
LCb setrgbcolor
3744 4787 M
63 0 V
2528 0 R
-63 0 V
stroke
LTb
LCb setrgbcolor
1.000 UL
LTa
0.50 0.50 0.50 C 3744 3024 M
0 1763 V
stroke
LTb
LCb setrgbcolor
3744 3024 M
0 63 V
0 1700 R
0 -63 V
stroke
3744 2884 M
[ [(Helvetica) 140.0 0.0 true true 0 ( 25)]
] -46.7 MCshow
1.000 UL
LTb
LCb setrgbcolor
1.000 UL
LTa
0.50 0.50 0.50 C 4262 3024 M
0 1382 V
0 240 R
0 141 V
stroke
LTb
LCb setrgbcolor
4262 3024 M
0 63 V
0 1700 R
0 -63 V
stroke
4262 2884 M
[ [(Helvetica) 140.0 0.0 true true 0 ( 30)]
] -46.7 MCshow
1.000 UL
LTb
LCb setrgbcolor
1.000 UL
LTa
0.50 0.50 0.50 C 4780 3024 M
0 1382 V
0 240 R
0 141 V
stroke
LTb
LCb setrgbcolor
4780 3024 M
0 63 V
0 1700 R
0 -63 V
stroke
4780 2884 M
[ [(Helvetica) 140.0 0.0 true true 0 ( 35)]
] -46.7 MCshow
1.000 UL
LTb
LCb setrgbcolor
1.000 UL
LTa
0.50 0.50 0.50 C 5299 3024 M
0 1763 V
stroke
LTb
LCb setrgbcolor
5299 3024 M
0 63 V
0 1700 R
0 -63 V
stroke
5299 2884 M
[ [(Helvetica) 140.0 0.0 true true 0 ( 40)]
] -46.7 MCshow
1.000 UL
LTb
LCb setrgbcolor
1.000 UL
LTa
0.50 0.50 0.50 C 5817 3024 M
0 1763 V
stroke
LTb
LCb setrgbcolor
5817 3024 M
0 63 V
0 1700 R
0 -63 V
stroke
5817 2884 M
[ [(Helvetica) 140.0 0.0 true true 0 ( 45)]
] -46.7 MCshow
1.000 UL
LTb
LCb setrgbcolor
1.000 UL
LTa
0.50 0.50 0.50 C 6335 3024 M
0 1763 V
stroke
LTb
LCb setrgbcolor
6335 3024 M
0 63 V
0 1700 R
0 -63 V
stroke
6335 2884 M
[ [(Helvetica) 140.0 0.0 true true 0 ( 50)]
] -46.7 MCshow
1.000 UL
LTb
LCb setrgbcolor
6335 3024 M
-63 0 V
stroke
6419 3024 M
[ [(Helvetica) 140.0 0.0 true true 0 ( 3.8)]
] -46.7 MLshow
1.000 UL
LTb
LCb setrgbcolor
6335 3276 M
-63 0 V
stroke
6419 3276 M
[ [(Helvetica) 140.0 0.0 true true 0 ( 3.9)]
] -46.7 MLshow
1.000 UL
LTb
LCb setrgbcolor
6335 3528 M
-63 0 V
stroke
6419 3528 M
[ [(Helvetica) 140.0 0.0 true true 0 ( 4)]
] -46.7 MLshow
1.000 UL
LTb
LCb setrgbcolor
6335 3780 M
-63 0 V
stroke
6419 3780 M
[ [(Helvetica) 140.0 0.0 true true 0 ( 4.1)]
] -46.7 MLshow
1.000 UL
LTb
LCb setrgbcolor
6335 4031 M
-63 0 V
stroke
6419 4031 M
[ [(Helvetica) 140.0 0.0 true true 0 ( 4.2)]
] -46.7 MLshow
1.000 UL
LTb
LCb setrgbcolor
6335 4283 M
-63 0 V
stroke
6419 4283 M
[ [(Helvetica) 140.0 0.0 true true 0 ( 4.3)]
] -46.7 MLshow
1.000 UL
LTb
LCb setrgbcolor
6335 4535 M
-63 0 V
stroke
6419 4535 M
[ [(Helvetica) 140.0 0.0 true true 0 ( 4.4)]
] -46.7 MLshow
1.000 UL
LTb
LCb setrgbcolor
6335 4787 M
-63 0 V
stroke
6419 4787 M
[ [(Helvetica) 140.0 0.0 true true 0 ( 4.5)]
] -46.7 MLshow
1.000 UL
LTb
LCb setrgbcolor
1.000 UL
LTB
LCb setrgbcolor
3744 4787 N
0 -1763 V
2591 0 V
0 1763 V
-2591 0 V
Z stroke
1.000 UL
LTb
1.00 1.00 1.00 C 1.000 5824 3060 504 280 BoxColFill
LCb setrgbcolor
5824 3060 N
0 280 V
504 0 V
0 -280 V
-504 0 V
Z stroke
1.000 UP
1.000 UL
LTb
LCb setrgbcolor
LCb setrgbcolor
6908 3905 M
currentpoint gsave translate -270 rotate 0 0 moveto
[ [(Helvetica) 140.0 0.0 true true 0 (r)]
[(Helvetica) 112.0 -42.0 true true 0 (p)]
] -32.7 MCshow
grestore
LTb
LCb setrgbcolor
5039 2674 M
[ [(Helvetica) 140.0 0.0 true true 0 (Nombre de protons)]
] -46.7 MCshow
LTb
1.000 UL
LTb
LCb setrgbcolor
3839 4406 N
0 240 V
1071 0 V
0 -240 V
-1071 0 V
Z stroke
% Begin plot #1
1.000 UP
1.000 UL
LTb
0.91 0.59 0.48 C LCb setrgbcolor
4415 4586 M
[ [(Helvetica) 120.0 0.0 true true 0 (SN2LO1)]
] -40.0 MRshow
1.000 UP
1.000 UL
LTb
0.91 0.59 0.48 C 4055 3273 CircleF
4159 3342 CircleF
4262 3408 CircleF
4366 3472 CircleF
4469 3532 CircleF
4573 3605 CircleF
4677 3676 CircleF
4780 3745 CircleF
4884 3811 CircleF
4988 3876 CircleF
5091 3939 CircleF
5195 3998 CircleF
5299 4056 CircleF
5402 4112 CircleF
5506 4166 CircleF
5610 4220 CircleF
5713 4272 CircleF
5817 4323 CircleF
5920 4374 CircleF
6024 4424 CircleF
6128 4473 CircleF
6231 4521 CircleF
6335 4568 CircleF
4662 4586 CircleF
% End plot #1
% Begin plot #2
2.000 UL
LTb
0.91 0.59 0.48 C 4055 3273 M
104 69 V
103 66 V
104 64 V
103 60 V
104 73 V
104 71 V
103 69 V
104 66 V
104 65 V
103 63 V
104 59 V
104 58 V
103 56 V
104 54 V
104 54 V
103 52 V
104 51 V
103 51 V
104 50 V
104 49 V
103 48 V
104 47 V
% End plot #2
% Begin plot #3
1.000 UP
stroke
1.000 UL
LTb
0.55 0.00 0.00 C LCb setrgbcolor
4415 4466 M
[ [(Helvetica) 120.0 0.0 true true 0 (SLy5)]
] -40.0 MRshow
1.000 UP
1.000 UL
LTb
0.55 0.00 0.00 C 4055 3310 TriUF
4159 3378 TriUF
4262 3442 TriUF
4366 3505 TriUF
4469 3565 TriUF
4573 3637 TriUF
4677 3707 TriUF
4780 3775 TriUF
4884 3841 TriUF
4988 3905 TriUF
5091 3968 TriUF
5195 4027 TriUF
5299 4085 TriUF
5402 4140 TriUF
5506 4194 TriUF
5610 4246 TriUF
5713 4298 TriUF
5817 4349 TriUF
5920 4400 TriUF
6024 4449 TriUF
6128 4498 TriUF
6231 4546 TriUF
6335 4593 TriUF
4662 4466 TriUF
% End plot #3
% Begin plot #4
2.000 UL
LTb
0.55 0.00 0.00 C 4055 3310 M
104 68 V
103 64 V
104 63 V
103 60 V
104 72 V
104 70 V
103 68 V
104 66 V
104 64 V
103 63 V
104 59 V
104 58 V
103 55 V
104 54 V
104 52 V
103 52 V
104 51 V
103 51 V
104 49 V
104 49 V
103 48 V
104 47 V
% End plot #4
stroke
LTb
LCb setrgbcolor
1.000 UL
LTB
LCb setrgbcolor
3744 4787 N
0 -1763 V
2591 0 V
0 1763 V
-2591 0 V
Z stroke
1.000 UP
LCb setrgbcolor
6076 3200 M
[ [(Helvetica) 180.0 0.0 true true 0 (N=50)]
] -60.0 MCshow
1.000 UL
LTb
LCb setrgbcolor
1.000 UL
LTb
LCb setrgbcolor
1.000 UL
LTa
0.50 0.50 0.50 C 864 756 M
2591 0 V
stroke
LTb
LCb setrgbcolor
864 756 M
63 0 V
2528 0 R
-63 0 V
stroke
780 756 M
[ [(Helvetica) 140.0 0.0 true true 0 (4.55)]
] -46.7 MRshow
1.000 UL
LTb
LCb setrgbcolor
1.000 UL
LTa
0.50 0.50 0.50 C 864 932 M
2591 0 V
stroke
LTb
LCb setrgbcolor
864 932 M
63 0 V
2528 0 R
-63 0 V
stroke
780 932 M
[ [(Helvetica) 140.0 0.0 true true 0 (4.60)]
] -46.7 MRshow
1.000 UL
LTb
LCb setrgbcolor
1.000 UL
LTa
0.50 0.50 0.50 C 864 1109 M
2591 0 V
stroke
LTb
LCb setrgbcolor
864 1109 M
63 0 V
2528 0 R
-63 0 V
stroke
780 1109 M
[ [(Helvetica) 140.0 0.0 true true 0 (4.65)]
] -46.7 MRshow
1.000 UL
LTb
LCb setrgbcolor
1.000 UL
LTa
0.50 0.50 0.50 C 864 1285 M
2591 0 V
stroke
LTb
LCb setrgbcolor
864 1285 M
63 0 V
2528 0 R
-63 0 V
stroke
780 1285 M
[ [(Helvetica) 140.0 0.0 true true 0 (4.70)]
] -46.7 MRshow
1.000 UL
LTb
LCb setrgbcolor
1.000 UL
LTa
0.50 0.50 0.50 C 864 1461 M
2591 0 V
stroke
LTb
LCb setrgbcolor
864 1461 M
63 0 V
2528 0 R
-63 0 V
stroke
780 1461 M
[ [(Helvetica) 140.0 0.0 true true 0 (4.75)]
] -46.7 MRshow
1.000 UL
LTb
LCb setrgbcolor
1.000 UL
LTa
0.50 0.50 0.50 C 864 1637 M
2591 0 V
stroke
LTb
LCb setrgbcolor
864 1637 M
63 0 V
2528 0 R
-63 0 V
stroke
780 1637 M
[ [(Helvetica) 140.0 0.0 true true 0 (4.80)]
] -46.7 MRshow
1.000 UL
LTb
LCb setrgbcolor
1.000 UL
LTa
0.50 0.50 0.50 C 864 1814 M
2591 0 V
stroke
LTb
LCb setrgbcolor
864 1814 M
63 0 V
2528 0 R
-63 0 V
stroke
780 1814 M
[ [(Helvetica) 140.0 0.0 true true 0 (4.85)]
] -46.7 MRshow
1.000 UL
LTb
LCb setrgbcolor
1.000 UL
LTa
0.50 0.50 0.50 C 864 1990 M
2591 0 V
stroke
LTb
LCb setrgbcolor
864 1990 M
63 0 V
2528 0 R
-63 0 V
stroke
780 1990 M
[ [(Helvetica) 140.0 0.0 true true 0 (4.90)]
] -46.7 MRshow
1.000 UL
LTb
LCb setrgbcolor
1.000 UL
LTa
0.50 0.50 0.50 C 864 2166 M
2591 0 V
stroke
LTb
LCb setrgbcolor
864 2166 M
63 0 V
2528 0 R
-63 0 V
stroke
780 2166 M
[ [(Helvetica) 140.0 0.0 true true 0 (4.95)]
] -46.7 MRshow
1.000 UL
LTb
LCb setrgbcolor
1.000 UL
LTa
0.50 0.50 0.50 C 864 2343 M
2591 0 V
stroke
LTb
LCb setrgbcolor
864 2343 M
63 0 V
2528 0 R
-63 0 V
stroke
780 2343 M
[ [(Helvetica) 140.0 0.0 true true 0 (5.00)]
] -46.7 MRshow
1.000 UL
LTb
LCb setrgbcolor
1.000 UL
LTa
0.50 0.50 0.50 C 864 2519 M
2591 0 V
stroke
LTb
LCb setrgbcolor
864 2519 M
63 0 V
2528 0 R
-63 0 V
stroke
780 2519 M
[ [(Helvetica) 140.0 0.0 true true 0 (5.05)]
] -46.7 MRshow
1.000 UL
LTb
LCb setrgbcolor
1.000 UL
LTa
0.50 0.50 0.50 C 864 756 M
0 1763 V
stroke
LTb
LCb setrgbcolor
864 756 M
0 63 V
0 1700 R
0 -63 V
stroke
864 616 M
[ [(Helvetica) 140.0 0.0 true true 0 ( 45)]
] -46.7 MCshow
1.000 UL
LTb
LCb setrgbcolor
1.000 UL
LTa
0.50 0.50 0.50 C 1382 756 M
0 1763 V
stroke
LTb
LCb setrgbcolor
1382 756 M
0 63 V
0 1700 R
0 -63 V
stroke
1382 616 M
[ [(Helvetica) 140.0 0.0 true true 0 ( 50)]
] -46.7 MCshow
1.000 UL
LTb
LCb setrgbcolor
1.000 UL
LTa
0.50 0.50 0.50 C 1900 756 M
0 1763 V
stroke
LTb
LCb setrgbcolor
1900 756 M
0 63 V
0 1700 R
0 -63 V
stroke
1900 616 M
[ [(Helvetica) 140.0 0.0 true true 0 ( 55)]
] -46.7 MCshow
1.000 UL
LTb
LCb setrgbcolor
1.000 UL
LTa
0.50 0.50 0.50 C 2419 756 M
0 1763 V
stroke
LTb
LCb setrgbcolor
2419 756 M
0 63 V
0 1700 R
0 -63 V
stroke
2419 616 M
[ [(Helvetica) 140.0 0.0 true true 0 ( 60)]
] -46.7 MCshow
1.000 UL
LTb
LCb setrgbcolor
1.000 UL
LTa
0.50 0.50 0.50 C 2937 756 M
0 1763 V
stroke
LTb
LCb setrgbcolor
2937 756 M
0 63 V
0 1700 R
0 -63 V
stroke
2937 616 M
[ [(Helvetica) 140.0 0.0 true true 0 ( 65)]
] -46.7 MCshow
1.000 UL
LTb
LCb setrgbcolor
1.000 UL
LTa
0.50 0.50 0.50 C 3455 756 M
0 1763 V
stroke
LTb
LCb setrgbcolor
3455 756 M
0 63 V
0 1700 R
0 -63 V
stroke
3455 616 M
[ [(Helvetica) 140.0 0.0 true true 0 ( 70)]
] -46.7 MCshow
1.000 UL
LTb
LCb setrgbcolor
1.000 UL
LTB
LCb setrgbcolor
864 2519 N
864 756 L
2591 0 V
0 1763 V
-2591 0 V
Z stroke
1.000 UL
LTb
1.00 1.00 1.00 C 1.000 2944 792 504 280 BoxColFill
LCb setrgbcolor
2944 792 N
0 280 V
504 0 V
0 -280 V
-504 0 V
Z stroke
1.000 UP
1.000 UL
LTb
LCb setrgbcolor
LCb setrgbcolor
290 1637 M
currentpoint gsave translate -270 rotate 0 0 moveto
[ [(Helvetica) 140.0 0.0 true true 0 ( r)]
[(Helvetica) 112.0 -42.0 true true 0 (p)]
] -32.7 MCshow
grestore
LTb
LCb setrgbcolor
2159 406 M
[ [(Helvetica) 140.0 0.0 true true 0 (Nombre de protons)]
] -46.7 MCshow
LTb
% Begin plot #1
1.000 UP
1.000 UL
LTb
0.91 0.59 0.48 C 1071 929 CircleF
1175 987 CircleF
1279 1044 CircleF
1382 1099 CircleF
1486 1183 CircleF
1589 1265 CircleF
1693 1345 CircleF
1797 1424 CircleF
1900 1501 CircleF
2004 1577 CircleF
2108 1652 CircleF
2211 1726 CircleF
2315 1777 CircleF
2419 1828 CircleF
2522 1878 CircleF
2626 1928 CircleF
2730 1978 CircleF
2833 2026 CircleF
2937 2089 CircleF
3040 2186 CircleF
3144 2179 CircleF
3248 2220 CircleF
3351 2301 CircleF
3455 2350 CircleF
% End plot #1
% Begin plot #2
2.000 UL
LTb
0.91 0.59 0.48 C 1071 929 M
104 58 V
104 57 V
103 55 V
104 84 V
103 82 V
104 80 V
104 79 V
103 77 V
104 76 V
104 75 V
103 74 V
104 51 V
104 51 V
103 50 V
104 50 V
104 50 V
103 48 V
104 63 V
103 97 V
104 -7 V
104 41 V
103 81 V
104 49 V
% End plot #2
% Begin plot #3
1.000 UP
stroke
1.000 UL
LTb
0.55 0.00 0.00 C 1071 982 TriUF
1175 1040 TriUF
1279 1097 TriUF
1382 1152 TriUF
1486 1235 TriUF
1589 1316 TriUF
1693 1395 TriUF
1797 1454 TriUF
1900 1526 TriUF
2004 1584 TriUF
2108 1658 TriUF
2211 1727 TriUF
2315 1796 TriUF
2419 1859 TriUF
2522 1924 TriUF
2626 1973 TriUF
2730 2022 TriUF
2833 2071 TriUF
2937 2131 TriUF
3040 2206 TriUF
3144 2281 TriUF
3248 2339 TriUF
3351 2418 TriUF
3455 2480 TriUF
% End plot #3
% Begin plot #4
2.000 UL
LTb
0.55 0.00 0.00 C 1071 982 M
104 58 V
104 57 V
103 55 V
104 83 V
103 81 V
104 79 V
104 59 V
103 72 V
104 58 V
104 74 V
103 69 V
104 69 V
104 63 V
103 65 V
104 49 V
104 49 V
103 49 V
104 60 V
103 75 V
104 75 V
104 58 V
103 79 V
104 62 V
% End plot #4
stroke
LTb
LCb setrgbcolor
1.000 UL
LTB
LCb setrgbcolor
864 2519 N
864 756 L
2591 0 V
0 1763 V
-2591 0 V
Z stroke
1.000 UP
LCb setrgbcolor
3196 932 M
[ [(Helvetica) 180.0 0.0 true true 0 (N=82)]
] -60.0 MCshow
1.000 UL
LTb
LCb setrgbcolor
1.000 UL
LTb
LCb setrgbcolor
1.000 UL
LTa
0.50 0.50 0.50 C 3744 756 M
2591 0 V
stroke
LTb
LCb setrgbcolor
3744 756 M
63 0 V
2528 0 R
-63 0 V
stroke
LTb
LCb setrgbcolor
1.000 UL
LTa
0.50 0.50 0.50 C 3744 1109 M
2591 0 V
stroke
LTb
LCb setrgbcolor
3744 1109 M
63 0 V
2528 0 R
-63 0 V
stroke
LTb
LCb setrgbcolor
1.000 UL
LTa
0.50 0.50 0.50 C 3744 1461 M
2591 0 V
stroke
LTb
LCb setrgbcolor
3744 1461 M
63 0 V
2528 0 R
-63 0 V
stroke
LTb
LCb setrgbcolor
1.000 UL
LTa
0.50 0.50 0.50 C 3744 1814 M
2591 0 V
stroke
LTb
LCb setrgbcolor
3744 1814 M
63 0 V
2528 0 R
-63 0 V
stroke
LTb
LCb setrgbcolor
1.000 UL
LTa
0.50 0.50 0.50 C 3744 2166 M
2591 0 V
stroke
LTb
LCb setrgbcolor
3744 2166 M
63 0 V
2528 0 R
-63 0 V
stroke
LTb
LCb setrgbcolor
1.000 UL
LTa
0.50 0.50 0.50 C 3744 2519 M
2591 0 V
stroke
LTb
LCb setrgbcolor
3744 2519 M
63 0 V
2528 0 R
-63 0 V
stroke
LTb
LCb setrgbcolor
1.000 UL
LTa
0.50 0.50 0.50 C 3744 756 M
0 1763 V
stroke
LTb
LCb setrgbcolor
3744 756 M
0 63 V
0 1700 R
0 -63 V
stroke
3744 616 M
[ [(Helvetica) 140.0 0.0 true true 0 ( 78)]
] -46.7 MCshow
1.000 UL
LTb
LCb setrgbcolor
1.000 UL
LTa
0.50 0.50 0.50 C 4114 756 M
0 1763 V
stroke
LTb
LCb setrgbcolor
4114 756 M
0 63 V
0 1700 R
0 -63 V
stroke
4114 616 M
[ [(Helvetica) 140.0 0.0 true true 0 ( 80)]
] -46.7 MCshow
1.000 UL
LTb
LCb setrgbcolor
1.000 UL
LTa
0.50 0.50 0.50 C 4484 756 M
0 1763 V
stroke
LTb
LCb setrgbcolor
4484 756 M
0 63 V
0 1700 R
0 -63 V
stroke
4484 616 M
[ [(Helvetica) 140.0 0.0 true true 0 ( 82)]
] -46.7 MCshow
1.000 UL
LTb
LCb setrgbcolor
1.000 UL
LTa
0.50 0.50 0.50 C 4854 756 M
0 1763 V
stroke
LTb
LCb setrgbcolor
4854 756 M
0 63 V
0 1700 R
0 -63 V
stroke
4854 616 M
[ [(Helvetica) 140.0 0.0 true true 0 ( 84)]
] -46.7 MCshow
1.000 UL
LTb
LCb setrgbcolor
1.000 UL
LTa
0.50 0.50 0.50 C 5225 756 M
0 1763 V
stroke
LTb
LCb setrgbcolor
5225 756 M
0 63 V
0 1700 R
0 -63 V
stroke
5225 616 M
[ [(Helvetica) 140.0 0.0 true true 0 ( 86)]
] -46.7 MCshow
1.000 UL
LTb
LCb setrgbcolor
1.000 UL
LTa
0.50 0.50 0.50 C 5595 756 M
0 1763 V
stroke
LTb
LCb setrgbcolor
5595 756 M
0 63 V
0 1700 R
0 -63 V
stroke
5595 616 M
[ [(Helvetica) 140.0 0.0 true true 0 ( 88)]
] -46.7 MCshow
1.000 UL
LTb
LCb setrgbcolor
1.000 UL
LTa
0.50 0.50 0.50 C 5965 756 M
0 1763 V
stroke
LTb
LCb setrgbcolor
5965 756 M
0 63 V
0 1700 R
0 -63 V
stroke
5965 616 M
[ [(Helvetica) 140.0 0.0 true true 0 ( 90)]
] -46.7 MCshow
1.000 UL
LTb
LCb setrgbcolor
1.000 UL
LTa
0.50 0.50 0.50 C 6335 756 M
0 1763 V
stroke
LTb
LCb setrgbcolor
6335 756 M
0 63 V
0 1700 R
0 -63 V
stroke
6335 616 M
[ [(Helvetica) 140.0 0.0 true true 0 ( 92)]
] -46.7 MCshow
1.000 UL
LTb
LCb setrgbcolor
6335 756 M
-63 0 V
stroke
6419 756 M
[ [(Helvetica) 140.0 0.0 true true 0 ( 5.4)]
] -46.7 MLshow
1.000 UL
LTb
LCb setrgbcolor
6335 1109 M
-63 0 V
stroke
6419 1109 M
[ [(Helvetica) 140.0 0.0 true true 0 ( 5.45)]
] -46.7 MLshow
1.000 UL
LTb
LCb setrgbcolor
6335 1461 M
-63 0 V
stroke
6419 1461 M
[ [(Helvetica) 140.0 0.0 true true 0 ( 5.5)]
] -46.7 MLshow
1.000 UL
LTb
LCb setrgbcolor
6335 1814 M
-63 0 V
stroke
6419 1814 M
[ [(Helvetica) 140.0 0.0 true true 0 ( 5.55)]
] -46.7 MLshow
1.000 UL
LTb
LCb setrgbcolor
6335 2166 M
-63 0 V
stroke
6419 2166 M
[ [(Helvetica) 140.0 0.0 true true 0 ( 5.6)]
] -46.7 MLshow
1.000 UL
LTb
LCb setrgbcolor
6335 2519 M
-63 0 V
stroke
6419 2519 M
[ [(Helvetica) 140.0 0.0 true true 0 ( 5.65)]
] -46.7 MLshow
1.000 UL
LTb
LCb setrgbcolor
1.000 UL
LTB
LCb setrgbcolor
3744 2519 N
0 -1763 V
2591 0 V
0 1763 V
-2591 0 V
Z stroke
1.000 UL
LTb
1.00 1.00 1.00 C 1.000 5782 792 588 280 BoxColFill
LCb setrgbcolor
5782 792 N
0 280 V
588 0 V
0 -280 V
-588 0 V
Z stroke
1.000 UP
1.000 UL
LTb
LCb setrgbcolor
LCb setrgbcolor
6992 1637 M
currentpoint gsave translate -270 rotate 0 0 moveto
[ [(Helvetica) 140.0 0.0 true true 0 (r)]
[(Helvetica) 112.0 -42.0 true true 0 (p)]
] -32.7 MCshow
grestore
LTb
LCb setrgbcolor
5039 406 M
[ [(Helvetica) 140.0 0.0 true true 0 (Nombre de protons)]
] -46.7 MCshow
LTb
% Begin plot #1
1.000 UP
1.000 UL
LTb
0.91 0.59 0.48 C 3929 804 CircleF
4114 893 CircleF
4299 945 CircleF
4484 998 CircleF
4669 1121 CircleF
4854 1243 CircleF
5040 1364 CircleF
5225 1484 CircleF
5410 1602 CircleF
5595 1720 CircleF
5780 1836 CircleF
5965 1952 CircleF
6150 2066 CircleF
6335 2180 CircleF
% End plot #1
% Begin plot #2
2.000 UL
LTb
0.91 0.59 0.48 C 3929 804 M
185 89 V
185 52 V
185 53 V
185 123 V
185 122 V
186 121 V
185 120 V
185 118 V
185 118 V
185 116 V
185 116 V
185 114 V
185 114 V
% End plot #2
% Begin plot #3
1.000 UP
stroke
1.000 UL
LTb
0.55 0.00 0.00 C 3929 888 TriUF
4114 996 TriUF
4299 1050 TriUF
4484 1105 TriUF
4669 1226 TriUF
4854 1347 TriUF
5040 1466 TriUF
5225 1585 TriUF
5410 1703 TriUF
5595 1819 TriUF
5780 1935 TriUF
5965 2050 TriUF
6150 2164 TriUF
6335 2277 TriUF
% End plot #3
% Begin plot #4
2.000 UL
LTb
0.55 0.00 0.00 C 3929 888 M
185 108 V
185 54 V
185 55 V
185 121 V
185 121 V
186 119 V
185 119 V
185 118 V
185 116 V
185 116 V
185 115 V
185 114 V
185 113 V
% End plot #4
stroke
LTb
LCb setrgbcolor
1.000 UL
LTB
LCb setrgbcolor
3744 2519 N
0 -1763 V
2591 0 V
0 1763 V
-2591 0 V
Z stroke
1.000 UP
LCb setrgbcolor
6076 932 M
[ [(Helvetica) 180.0 0.0 true true 0 (N=126)]
] -60.0 MCshow
1.000 UL
LTb
LCb setrgbcolor
stroke
grestore
end
showpage
%%Trailer
%%DocumentFonts: Helvetica
%%Pages: 1
