%!PS-Adobe-2.0
%%Title: isoton_param2.eps
%%Creator: gnuplot 5.0 patchlevel 3
%%CreationDate: Tue Jul  4 00:06:37 2017
%%DocumentFonts: (atend)
%%BoundingBox: 50 50 554 770
%%Orientation: Landscape
%%Pages: (atend)
%%EndComments
%%BeginProlog
/gnudict 256 dict def
gnudict begin
%
% The following true/false flags may be edited by hand if desired.
% The unit line width and grayscale image gamma correction may also be changed.
%
/Color true def
/Blacktext false def
/Solid false def
/Dashlength 1 def
/Landscape true def
/Level1 false def
/Level3 false def
/Rounded false def
/ClipToBoundingBox false def
/SuppressPDFMark false def
/TransparentPatterns false def
/gnulinewidth 5.000 def
/userlinewidth gnulinewidth def
/Gamma 1.0 def
/BackgroundColor {-1.000 -1.000 -1.000} def
%
/vshift -40 def
/dl1 {
  10.0 Dashlength userlinewidth gnulinewidth div mul mul mul
  Rounded { currentlinewidth 0.75 mul sub dup 0 le { pop 0.01 } if } if
} def
/dl2 {
  10.0 Dashlength userlinewidth gnulinewidth div mul mul mul
  Rounded { currentlinewidth 0.75 mul add } if
} def
/hpt_ 31.5 def
/vpt_ 31.5 def
/hpt hpt_ def
/vpt vpt_ def
/doclip {
  ClipToBoundingBox {
    newpath 50 50 moveto 554 50 lineto 554 770 lineto 50 770 lineto closepath
    clip
  } if
} def
%
% Gnuplot Prolog Version 5.1 (Oct 2015)
%
%/SuppressPDFMark true def
%
/M {moveto} bind def
/L {lineto} bind def
/R {rmoveto} bind def
/V {rlineto} bind def
/N {newpath moveto} bind def
/Z {closepath} bind def
/C {setrgbcolor} bind def
/f {rlineto fill} bind def
/g {setgray} bind def
/Gshow {show} def   % May be redefined later in the file to support UTF-8
/vpt2 vpt 2 mul def
/hpt2 hpt 2 mul def
/Lshow {currentpoint stroke M 0 vshift R 
	Blacktext {gsave 0 setgray textshow grestore} {textshow} ifelse} def
/Rshow {currentpoint stroke M dup stringwidth pop neg vshift R
	Blacktext {gsave 0 setgray textshow grestore} {textshow} ifelse} def
/Cshow {currentpoint stroke M dup stringwidth pop -2 div vshift R 
	Blacktext {gsave 0 setgray textshow grestore} {textshow} ifelse} def
/UP {dup vpt_ mul /vpt exch def hpt_ mul /hpt exch def
  /hpt2 hpt 2 mul def /vpt2 vpt 2 mul def} def
/DL {Color {setrgbcolor Solid {pop []} if 0 setdash}
 {pop pop pop 0 setgray Solid {pop []} if 0 setdash} ifelse} def
/BL {stroke userlinewidth 2 mul setlinewidth
	Rounded {1 setlinejoin 1 setlinecap} if} def
/AL {stroke userlinewidth 2 div setlinewidth
	Rounded {1 setlinejoin 1 setlinecap} if} def
/UL {dup gnulinewidth mul /userlinewidth exch def
	dup 1 lt {pop 1} if 10 mul /udl exch def} def
/PL {stroke userlinewidth setlinewidth
	Rounded {1 setlinejoin 1 setlinecap} if} def
3.8 setmiterlimit
% Classic Line colors (version 5.0)
/LCw {1 1 1} def
/LCb {0 0 0} def
/LCa {0 0 0} def
/LC0 {1 0 0} def
/LC1 {0 1 0} def
/LC2 {0 0 1} def
/LC3 {1 0 1} def
/LC4 {0 1 1} def
/LC5 {1 1 0} def
/LC6 {0 0 0} def
/LC7 {1 0.3 0} def
/LC8 {0.5 0.5 0.5} def
% Default dash patterns (version 5.0)
/LTB {BL [] LCb DL} def
/LTw {PL [] 1 setgray} def
/LTb {PL [] LCb DL} def
/LTa {AL [1 udl mul 2 udl mul] 0 setdash LCa setrgbcolor} def
/LT0 {PL [] LC0 DL} def
/LT1 {PL [2 dl1 3 dl2] LC1 DL} def
/LT2 {PL [1 dl1 1.5 dl2] LC2 DL} def
/LT3 {PL [6 dl1 2 dl2 1 dl1 2 dl2] LC3 DL} def
/LT4 {PL [1 dl1 2 dl2 6 dl1 2 dl2 1 dl1 2 dl2] LC4 DL} def
/LT5 {PL [4 dl1 2 dl2] LC5 DL} def
/LT6 {PL [1.5 dl1 1.5 dl2 1.5 dl1 1.5 dl2 1.5 dl1 6 dl2] LC6 DL} def
/LT7 {PL [3 dl1 3 dl2 1 dl1 3 dl2] LC7 DL} def
/LT8 {PL [2 dl1 2 dl2 2 dl1 6 dl2] LC8 DL} def
/SL {[] 0 setdash} def
/Pnt {stroke [] 0 setdash gsave 1 setlinecap M 0 0 V stroke grestore} def
/Dia {stroke [] 0 setdash 2 copy vpt add M
  hpt neg vpt neg V hpt vpt neg V
  hpt vpt V hpt neg vpt V closepath stroke
  Pnt} def
/Pls {stroke [] 0 setdash vpt sub M 0 vpt2 V
  currentpoint stroke M
  hpt neg vpt neg R hpt2 0 V stroke
 } def
/Box {stroke [] 0 setdash 2 copy exch hpt sub exch vpt add M
  0 vpt2 neg V hpt2 0 V 0 vpt2 V
  hpt2 neg 0 V closepath stroke
  Pnt} def
/Crs {stroke [] 0 setdash exch hpt sub exch vpt add M
  hpt2 vpt2 neg V currentpoint stroke M
  hpt2 neg 0 R hpt2 vpt2 V stroke} def
/TriU {stroke [] 0 setdash 2 copy vpt 1.12 mul add M
  hpt neg vpt -1.62 mul V
  hpt 2 mul 0 V
  hpt neg vpt 1.62 mul V closepath stroke
  Pnt} def
/Star {2 copy Pls Crs} def
/BoxF {stroke [] 0 setdash exch hpt sub exch vpt add M
  0 vpt2 neg V hpt2 0 V 0 vpt2 V
  hpt2 neg 0 V closepath fill} def
/TriUF {stroke [] 0 setdash vpt 1.12 mul add M
  hpt neg vpt -1.62 mul V
  hpt 2 mul 0 V
  hpt neg vpt 1.62 mul V closepath fill} def
/TriD {stroke [] 0 setdash 2 copy vpt 1.12 mul sub M
  hpt neg vpt 1.62 mul V
  hpt 2 mul 0 V
  hpt neg vpt -1.62 mul V closepath stroke
  Pnt} def
/TriDF {stroke [] 0 setdash vpt 1.12 mul sub M
  hpt neg vpt 1.62 mul V
  hpt 2 mul 0 V
  hpt neg vpt -1.62 mul V closepath fill} def
/DiaF {stroke [] 0 setdash vpt add M
  hpt neg vpt neg V hpt vpt neg V
  hpt vpt V hpt neg vpt V closepath fill} def
/Pent {stroke [] 0 setdash 2 copy gsave
  translate 0 hpt M 4 {72 rotate 0 hpt L} repeat
  closepath stroke grestore Pnt} def
/PentF {stroke [] 0 setdash gsave
  translate 0 hpt M 4 {72 rotate 0 hpt L} repeat
  closepath fill grestore} def
/Circle {stroke [] 0 setdash 2 copy
  hpt 0 360 arc stroke Pnt} def
/CircleF {stroke [] 0 setdash hpt 0 360 arc fill} def
/C0 {BL [] 0 setdash 2 copy moveto vpt 90 450 arc} bind def
/C1 {BL [] 0 setdash 2 copy moveto
	2 copy vpt 0 90 arc closepath fill
	vpt 0 360 arc closepath} bind def
/C2 {BL [] 0 setdash 2 copy moveto
	2 copy vpt 90 180 arc closepath fill
	vpt 0 360 arc closepath} bind def
/C3 {BL [] 0 setdash 2 copy moveto
	2 copy vpt 0 180 arc closepath fill
	vpt 0 360 arc closepath} bind def
/C4 {BL [] 0 setdash 2 copy moveto
	2 copy vpt 180 270 arc closepath fill
	vpt 0 360 arc closepath} bind def
/C5 {BL [] 0 setdash 2 copy moveto
	2 copy vpt 0 90 arc
	2 copy moveto
	2 copy vpt 180 270 arc closepath fill
	vpt 0 360 arc} bind def
/C6 {BL [] 0 setdash 2 copy moveto
	2 copy vpt 90 270 arc closepath fill
	vpt 0 360 arc closepath} bind def
/C7 {BL [] 0 setdash 2 copy moveto
	2 copy vpt 0 270 arc closepath fill
	vpt 0 360 arc closepath} bind def
/C8 {BL [] 0 setdash 2 copy moveto
	2 copy vpt 270 360 arc closepath fill
	vpt 0 360 arc closepath} bind def
/C9 {BL [] 0 setdash 2 copy moveto
	2 copy vpt 270 450 arc closepath fill
	vpt 0 360 arc closepath} bind def
/C10 {BL [] 0 setdash 2 copy 2 copy moveto vpt 270 360 arc closepath fill
	2 copy moveto
	2 copy vpt 90 180 arc closepath fill
	vpt 0 360 arc closepath} bind def
/C11 {BL [] 0 setdash 2 copy moveto
	2 copy vpt 0 180 arc closepath fill
	2 copy moveto
	2 copy vpt 270 360 arc closepath fill
	vpt 0 360 arc closepath} bind def
/C12 {BL [] 0 setdash 2 copy moveto
	2 copy vpt 180 360 arc closepath fill
	vpt 0 360 arc closepath} bind def
/C13 {BL [] 0 setdash 2 copy moveto
	2 copy vpt 0 90 arc closepath fill
	2 copy moveto
	2 copy vpt 180 360 arc closepath fill
	vpt 0 360 arc closepath} bind def
/C14 {BL [] 0 setdash 2 copy moveto
	2 copy vpt 90 360 arc closepath fill
	vpt 0 360 arc} bind def
/C15 {BL [] 0 setdash 2 copy vpt 0 360 arc closepath fill
	vpt 0 360 arc closepath} bind def
/Rec {newpath 4 2 roll moveto 1 index 0 rlineto 0 exch rlineto
	neg 0 rlineto closepath} bind def
/Square {dup Rec} bind def
/Bsquare {vpt sub exch vpt sub exch vpt2 Square} bind def
/S0 {BL [] 0 setdash 2 copy moveto 0 vpt rlineto BL Bsquare} bind def
/S1 {BL [] 0 setdash 2 copy vpt Square fill Bsquare} bind def
/S2 {BL [] 0 setdash 2 copy exch vpt sub exch vpt Square fill Bsquare} bind def
/S3 {BL [] 0 setdash 2 copy exch vpt sub exch vpt2 vpt Rec fill Bsquare} bind def
/S4 {BL [] 0 setdash 2 copy exch vpt sub exch vpt sub vpt Square fill Bsquare} bind def
/S5 {BL [] 0 setdash 2 copy 2 copy vpt Square fill
	exch vpt sub exch vpt sub vpt Square fill Bsquare} bind def
/S6 {BL [] 0 setdash 2 copy exch vpt sub exch vpt sub vpt vpt2 Rec fill Bsquare} bind def
/S7 {BL [] 0 setdash 2 copy exch vpt sub exch vpt sub vpt vpt2 Rec fill
	2 copy vpt Square fill Bsquare} bind def
/S8 {BL [] 0 setdash 2 copy vpt sub vpt Square fill Bsquare} bind def
/S9 {BL [] 0 setdash 2 copy vpt sub vpt vpt2 Rec fill Bsquare} bind def
/S10 {BL [] 0 setdash 2 copy vpt sub vpt Square fill 2 copy exch vpt sub exch vpt Square fill
	Bsquare} bind def
/S11 {BL [] 0 setdash 2 copy vpt sub vpt Square fill 2 copy exch vpt sub exch vpt2 vpt Rec fill
	Bsquare} bind def
/S12 {BL [] 0 setdash 2 copy exch vpt sub exch vpt sub vpt2 vpt Rec fill Bsquare} bind def
/S13 {BL [] 0 setdash 2 copy exch vpt sub exch vpt sub vpt2 vpt Rec fill
	2 copy vpt Square fill Bsquare} bind def
/S14 {BL [] 0 setdash 2 copy exch vpt sub exch vpt sub vpt2 vpt Rec fill
	2 copy exch vpt sub exch vpt Square fill Bsquare} bind def
/S15 {BL [] 0 setdash 2 copy Bsquare fill Bsquare} bind def
/D0 {gsave translate 45 rotate 0 0 S0 stroke grestore} bind def
/D1 {gsave translate 45 rotate 0 0 S1 stroke grestore} bind def
/D2 {gsave translate 45 rotate 0 0 S2 stroke grestore} bind def
/D3 {gsave translate 45 rotate 0 0 S3 stroke grestore} bind def
/D4 {gsave translate 45 rotate 0 0 S4 stroke grestore} bind def
/D5 {gsave translate 45 rotate 0 0 S5 stroke grestore} bind def
/D6 {gsave translate 45 rotate 0 0 S6 stroke grestore} bind def
/D7 {gsave translate 45 rotate 0 0 S7 stroke grestore} bind def
/D8 {gsave translate 45 rotate 0 0 S8 stroke grestore} bind def
/D9 {gsave translate 45 rotate 0 0 S9 stroke grestore} bind def
/D10 {gsave translate 45 rotate 0 0 S10 stroke grestore} bind def
/D11 {gsave translate 45 rotate 0 0 S11 stroke grestore} bind def
/D12 {gsave translate 45 rotate 0 0 S12 stroke grestore} bind def
/D13 {gsave translate 45 rotate 0 0 S13 stroke grestore} bind def
/D14 {gsave translate 45 rotate 0 0 S14 stroke grestore} bind def
/D15 {gsave translate 45 rotate 0 0 S15 stroke grestore} bind def
/DiaE {stroke [] 0 setdash vpt add M
  hpt neg vpt neg V hpt vpt neg V
  hpt vpt V hpt neg vpt V closepath stroke} def
/BoxE {stroke [] 0 setdash exch hpt sub exch vpt add M
  0 vpt2 neg V hpt2 0 V 0 vpt2 V
  hpt2 neg 0 V closepath stroke} def
/TriUE {stroke [] 0 setdash vpt 1.12 mul add M
  hpt neg vpt -1.62 mul V
  hpt 2 mul 0 V
  hpt neg vpt 1.62 mul V closepath stroke} def
/TriDE {stroke [] 0 setdash vpt 1.12 mul sub M
  hpt neg vpt 1.62 mul V
  hpt 2 mul 0 V
  hpt neg vpt -1.62 mul V closepath stroke} def
/PentE {stroke [] 0 setdash gsave
  translate 0 hpt M 4 {72 rotate 0 hpt L} repeat
  closepath stroke grestore} def
/CircE {stroke [] 0 setdash 
  hpt 0 360 arc stroke} def
/Opaque {gsave closepath 1 setgray fill grestore 0 setgray closepath} def
/DiaW {stroke [] 0 setdash vpt add M
  hpt neg vpt neg V hpt vpt neg V
  hpt vpt V hpt neg vpt V Opaque stroke} def
/BoxW {stroke [] 0 setdash exch hpt sub exch vpt add M
  0 vpt2 neg V hpt2 0 V 0 vpt2 V
  hpt2 neg 0 V Opaque stroke} def
/TriUW {stroke [] 0 setdash vpt 1.12 mul add M
  hpt neg vpt -1.62 mul V
  hpt 2 mul 0 V
  hpt neg vpt 1.62 mul V Opaque stroke} def
/TriDW {stroke [] 0 setdash vpt 1.12 mul sub M
  hpt neg vpt 1.62 mul V
  hpt 2 mul 0 V
  hpt neg vpt -1.62 mul V Opaque stroke} def
/PentW {stroke [] 0 setdash gsave
  translate 0 hpt M 4 {72 rotate 0 hpt L} repeat
  Opaque stroke grestore} def
/CircW {stroke [] 0 setdash 
  hpt 0 360 arc Opaque stroke} def
/BoxFill {gsave Rec 1 setgray fill grestore} def
/Density {
  /Fillden exch def
  currentrgbcolor
  /ColB exch def /ColG exch def /ColR exch def
  /ColR ColR Fillden mul Fillden sub 1 add def
  /ColG ColG Fillden mul Fillden sub 1 add def
  /ColB ColB Fillden mul Fillden sub 1 add def
  ColR ColG ColB setrgbcolor} def
/BoxColFill {gsave Rec PolyFill} def
/PolyFill {gsave Density fill grestore grestore} def
/h {rlineto rlineto rlineto gsave closepath fill grestore} bind def
%
% PostScript Level 1 Pattern Fill routine for rectangles
% Usage: x y w h s a XX PatternFill
%	x,y = lower left corner of box to be filled
%	w,h = width and height of box
%	  a = angle in degrees between lines and x-axis
%	 XX = 0/1 for no/yes cross-hatch
%
/PatternFill {gsave /PFa [ 9 2 roll ] def
  PFa 0 get PFa 2 get 2 div add PFa 1 get PFa 3 get 2 div add translate
  PFa 2 get -2 div PFa 3 get -2 div PFa 2 get PFa 3 get Rec
  TransparentPatterns {} {gsave 1 setgray fill grestore} ifelse
  clip
  currentlinewidth 0.5 mul setlinewidth
  /PFs PFa 2 get dup mul PFa 3 get dup mul add sqrt def
  0 0 M PFa 5 get rotate PFs -2 div dup translate
  0 1 PFs PFa 4 get div 1 add floor cvi
	{PFa 4 get mul 0 M 0 PFs V} for
  0 PFa 6 get ne {
	0 1 PFs PFa 4 get div 1 add floor cvi
	{PFa 4 get mul 0 2 1 roll M PFs 0 V} for
 } if
  stroke grestore} def
%
/languagelevel where
 {pop languagelevel} {1} ifelse
dup 2 lt
	{/InterpretLevel1 true def
	 /InterpretLevel3 false def}
	{/InterpretLevel1 Level1 def
	 2 gt
	    {/InterpretLevel3 Level3 def}
	    {/InterpretLevel3 false def}
	 ifelse }
 ifelse
%
% PostScript level 2 pattern fill definitions
%
/Level2PatternFill {
/Tile8x8 {/PaintType 2 /PatternType 1 /TilingType 1 /BBox [0 0 8 8] /XStep 8 /YStep 8}
	bind def
/KeepColor {currentrgbcolor [/Pattern /DeviceRGB] setcolorspace} bind def
<< Tile8x8
 /PaintProc {0.5 setlinewidth pop 0 0 M 8 8 L 0 8 M 8 0 L stroke} 
>> matrix makepattern
/Pat1 exch def
<< Tile8x8
 /PaintProc {0.5 setlinewidth pop 0 0 M 8 8 L 0 8 M 8 0 L stroke
	0 4 M 4 8 L 8 4 L 4 0 L 0 4 L stroke}
>> matrix makepattern
/Pat2 exch def
<< Tile8x8
 /PaintProc {0.5 setlinewidth pop 0 0 M 0 8 L
	8 8 L 8 0 L 0 0 L fill}
>> matrix makepattern
/Pat3 exch def
<< Tile8x8
 /PaintProc {0.5 setlinewidth pop -4 8 M 8 -4 L
	0 12 M 12 0 L stroke}
>> matrix makepattern
/Pat4 exch def
<< Tile8x8
 /PaintProc {0.5 setlinewidth pop -4 0 M 8 12 L
	0 -4 M 12 8 L stroke}
>> matrix makepattern
/Pat5 exch def
<< Tile8x8
 /PaintProc {0.5 setlinewidth pop -2 8 M 4 -4 L
	0 12 M 8 -4 L 4 12 M 10 0 L stroke}
>> matrix makepattern
/Pat6 exch def
<< Tile8x8
 /PaintProc {0.5 setlinewidth pop -2 0 M 4 12 L
	0 -4 M 8 12 L 4 -4 M 10 8 L stroke}
>> matrix makepattern
/Pat7 exch def
<< Tile8x8
 /PaintProc {0.5 setlinewidth pop 8 -2 M -4 4 L
	12 0 M -4 8 L 12 4 M 0 10 L stroke}
>> matrix makepattern
/Pat8 exch def
<< Tile8x8
 /PaintProc {0.5 setlinewidth pop 0 -2 M 12 4 L
	-4 0 M 12 8 L -4 4 M 8 10 L stroke}
>> matrix makepattern
/Pat9 exch def
/Pattern1 {PatternBgnd KeepColor Pat1 setpattern} bind def
/Pattern2 {PatternBgnd KeepColor Pat2 setpattern} bind def
/Pattern3 {PatternBgnd KeepColor Pat3 setpattern} bind def
/Pattern4 {PatternBgnd KeepColor Landscape {Pat5} {Pat4} ifelse setpattern} bind def
/Pattern5 {PatternBgnd KeepColor Landscape {Pat4} {Pat5} ifelse setpattern} bind def
/Pattern6 {PatternBgnd KeepColor Landscape {Pat9} {Pat6} ifelse setpattern} bind def
/Pattern7 {PatternBgnd KeepColor Landscape {Pat8} {Pat7} ifelse setpattern} bind def
} def
%
%
%End of PostScript Level 2 code
%
/PatternBgnd {
  TransparentPatterns {} {gsave 1 setgray fill grestore} ifelse
} def
%
% Substitute for Level 2 pattern fill codes with
% grayscale if Level 2 support is not selected.
%
/Level1PatternFill {
/Pattern1 {0.250 Density} bind def
/Pattern2 {0.500 Density} bind def
/Pattern3 {0.750 Density} bind def
/Pattern4 {0.125 Density} bind def
/Pattern5 {0.375 Density} bind def
/Pattern6 {0.625 Density} bind def
/Pattern7 {0.875 Density} bind def
} def
%
% Now test for support of Level 2 code
%
Level1 {Level1PatternFill} {Level2PatternFill} ifelse
%
/Symbol-Oblique /Symbol findfont [1 0 .167 1 0 0] makefont
dup length dict begin {1 index /FID eq {pop pop} {def} ifelse} forall
currentdict end definefont pop
%
/MFshow {
   { dup 5 get 3 ge
     { 5 get 3 eq {gsave} {grestore} ifelse }
     {dup dup 0 get findfont exch 1 get scalefont setfont
     [ currentpoint ] exch dup 2 get 0 exch R dup 5 get 2 ne {dup dup 6
     get exch 4 get {textshow} {stringwidth pop 0 R} ifelse }if dup 5 get 0 eq
     {dup 3 get {2 get neg 0 exch R pop} {pop aload pop M} ifelse} {dup 5
     get 1 eq {dup 2 get exch dup 3 get exch 6 get stringwidth pop -2 div
     dup 0 R} {dup 6 get stringwidth pop -2 div 0 R 6 get
     textshow 2 index {aload pop M neg 3 -1 roll neg R pop pop} {pop pop pop
     pop aload pop M} ifelse }ifelse }ifelse }
     ifelse }
   forall} def
/Gswidth {dup type /stringtype eq {stringwidth} {pop (n) stringwidth} ifelse} def
/MFwidth {0 exch { dup 5 get 3 ge { 5 get 3 eq { 0 } { pop } ifelse }
 {dup 3 get{dup dup 0 get findfont exch 1 get scalefont setfont
     6 get Gswidth pop add} {pop} ifelse} ifelse} forall} def
/MLshow { currentpoint stroke M
  0 exch R
  Blacktext {gsave 0 setgray MFshow grestore} {MFshow} ifelse } bind def
/MRshow { currentpoint stroke M
  exch dup MFwidth neg 3 -1 roll R
  Blacktext {gsave 0 setgray MFshow grestore} {MFshow} ifelse } bind def
/MCshow { currentpoint stroke M
  exch dup MFwidth -2 div 3 -1 roll R
  Blacktext {gsave 0 setgray MFshow grestore} {MFshow} ifelse } bind def
/XYsave    { [( ) 1 2 true false 3 ()] } bind def
/XYrestore { [( ) 1 2 true false 4 ()] } bind def
Level1 SuppressPDFMark or 
{} {
/SDict 10 dict def
systemdict /pdfmark known not {
  userdict /pdfmark systemdict /cleartomark get put
} if
SDict begin [
  /Title (isoton_param2.eps)
  /Subject (gnuplot plot)
  /Creator (gnuplot 5.0 patchlevel 3)
  /Author (kb2)
%  /Producer (gnuplot)
%  /Keywords ()
  /CreationDate (Tue Jul  4 00:06:37 2017)
  /DOCINFO pdfmark
end
} ifelse
%
% Support for boxed text - Ethan A Merritt May 2005
%
/InitTextBox { userdict /TBy2 3 -1 roll put userdict /TBx2 3 -1 roll put
           userdict /TBy1 3 -1 roll put userdict /TBx1 3 -1 roll put
	   /Boxing true def } def
/ExtendTextBox { Boxing
    { gsave dup false charpath pathbbox
      dup TBy2 gt {userdict /TBy2 3 -1 roll put} {pop} ifelse
      dup TBx2 gt {userdict /TBx2 3 -1 roll put} {pop} ifelse
      dup TBy1 lt {userdict /TBy1 3 -1 roll put} {pop} ifelse
      dup TBx1 lt {userdict /TBx1 3 -1 roll put} {pop} ifelse
      grestore } if } def
/PopTextBox { newpath TBx1 TBxmargin sub TBy1 TBymargin sub M
               TBx1 TBxmargin sub TBy2 TBymargin add L
	       TBx2 TBxmargin add TBy2 TBymargin add L
	       TBx2 TBxmargin add TBy1 TBymargin sub L closepath } def
/DrawTextBox { PopTextBox stroke /Boxing false def} def
/FillTextBox { gsave PopTextBox 1 1 1 setrgbcolor fill grestore /Boxing false def} def
0 0 0 0 InitTextBox
/TBxmargin 20 def
/TBymargin 20 def
/Boxing false def
/textshow { ExtendTextBox Gshow } def
%
% redundant definitions for compatibility with prologue.ps older than 5.0.2
/LTB {BL [] LCb DL} def
/LTb {PL [] LCb DL} def
end
%%EndProlog
%%Page: 1 1
gnudict begin
gsave
doclip
50 50 translate
0.100 0.100 scale
90 rotate
0 -5040 translate
0 setgray
newpath
(Helvetica) findfont 120 scalefont setfont
BackgroundColor 0 lt 3 1 roll 0 lt exch 0 lt or or not {gsave BackgroundColor C clippath fill grestore} if
1.000 UL
LTb
LCb setrgbcolor
1.000 UL
LTa
0.50 0.50 0.50 C 576 3024 M
2879 0 V
stroke
LTb
LCb setrgbcolor
576 3024 M
63 0 V
2816 0 R
-63 0 V
stroke
504 3024 M
[ [(Helvetica) 120.0 0.0 true true 0 (-2)]
] -40.0 MRshow
1.000 UL
LTb
LCb setrgbcolor
1.000 UL
LTa
0.50 0.50 0.50 C 576 3200 M
2879 0 V
stroke
LTb
LCb setrgbcolor
576 3200 M
63 0 V
2816 0 R
-63 0 V
stroke
504 3200 M
[ [(Helvetica) 120.0 0.0 true true 0 (-1)]
] -40.0 MRshow
1.000 UL
LTb
LCb setrgbcolor
1.000 UL
LTa
0.50 0.50 0.50 C 576 3377 M
2879 0 V
stroke
LTb
LCb setrgbcolor
576 3377 M
63 0 V
2816 0 R
-63 0 V
stroke
504 3377 M
[ [(Helvetica) 120.0 0.0 true true 0 (-0)]
] -40.0 MRshow
1.000 UL
LTb
LCb setrgbcolor
1.000 UL
LTa
0.50 0.50 0.50 C 576 3553 M
2879 0 V
stroke
LTb
LCb setrgbcolor
576 3553 M
63 0 V
2816 0 R
-63 0 V
stroke
504 3553 M
[ [(Helvetica) 120.0 0.0 true true 0 (0)]
] -40.0 MRshow
1.000 UL
LTb
LCb setrgbcolor
1.000 UL
LTa
0.50 0.50 0.50 C 576 3729 M
2879 0 V
stroke
LTb
LCb setrgbcolor
576 3729 M
63 0 V
2816 0 R
-63 0 V
stroke
504 3729 M
[ [(Helvetica) 120.0 0.0 true true 0 (0)]
] -40.0 MRshow
1.000 UL
LTb
LCb setrgbcolor
1.000 UL
LTa
0.50 0.50 0.50 C 576 3906 M
2879 0 V
stroke
LTb
LCb setrgbcolor
576 3906 M
63 0 V
2816 0 R
-63 0 V
stroke
504 3906 M
[ [(Helvetica) 120.0 0.0 true true 0 (1)]
] -40.0 MRshow
1.000 UL
LTb
LCb setrgbcolor
1.000 UL
LTa
0.50 0.50 0.50 C 576 4082 M
2879 0 V
stroke
LTb
LCb setrgbcolor
576 4082 M
63 0 V
2816 0 R
-63 0 V
stroke
504 4082 M
[ [(Helvetica) 120.0 0.0 true true 0 (2)]
] -40.0 MRshow
1.000 UL
LTb
LCb setrgbcolor
1.000 UL
LTa
0.50 0.50 0.50 C 576 4258 M
2879 0 V
stroke
LTb
LCb setrgbcolor
576 4258 M
63 0 V
2816 0 R
-63 0 V
stroke
504 4258 M
[ [(Helvetica) 120.0 0.0 true true 0 (2)]
] -40.0 MRshow
1.000 UL
LTb
LCb setrgbcolor
1.000 UL
LTa
0.50 0.50 0.50 C 576 4434 M
2879 0 V
stroke
LTb
LCb setrgbcolor
576 4434 M
63 0 V
2816 0 R
-63 0 V
stroke
504 4434 M
[ [(Helvetica) 120.0 0.0 true true 0 (2)]
] -40.0 MRshow
1.000 UL
LTb
LCb setrgbcolor
1.000 UL
LTa
0.50 0.50 0.50 C 576 4611 M
2879 0 V
stroke
LTb
LCb setrgbcolor
576 4611 M
63 0 V
2816 0 R
-63 0 V
stroke
504 4611 M
[ [(Helvetica) 120.0 0.0 true true 0 (3)]
] -40.0 MRshow
1.000 UL
LTb
LCb setrgbcolor
1.000 UL
LTa
0.50 0.50 0.50 C 576 4787 M
2879 0 V
stroke
LTb
LCb setrgbcolor
576 4787 M
63 0 V
2816 0 R
-63 0 V
stroke
504 4787 M
[ [(Helvetica) 120.0 0.0 true true 0 (4)]
] -40.0 MRshow
1.000 UL
LTb
LCb setrgbcolor
1.000 UL
LTa
0.50 0.50 0.50 C 576 3024 M
0 1763 V
stroke
LTb
LCb setrgbcolor
576 3024 M
0 63 V
0 1700 R
0 -63 V
stroke
576 2904 M
[ [(Helvetica) 120.0 0.0 true true 0 ( 20)]
] -40.0 MCshow
1.000 UL
LTb
LCb setrgbcolor
1.000 UL
LTa
0.50 0.50 0.50 C 1056 3024 M
0 1763 V
stroke
LTb
LCb setrgbcolor
1056 3024 M
0 63 V
0 1700 R
0 -63 V
stroke
1056 2904 M
[ [(Helvetica) 120.0 0.0 true true 0 ( 22)]
] -40.0 MCshow
1.000 UL
LTb
LCb setrgbcolor
1.000 UL
LTa
0.50 0.50 0.50 C 1536 3024 M
0 1763 V
stroke
LTb
LCb setrgbcolor
1536 3024 M
0 63 V
0 1700 R
0 -63 V
stroke
1536 2904 M
[ [(Helvetica) 120.0 0.0 true true 0 ( 24)]
] -40.0 MCshow
1.000 UL
LTb
LCb setrgbcolor
1.000 UL
LTa
0.50 0.50 0.50 C 2016 3024 M
0 1763 V
stroke
LTb
LCb setrgbcolor
2016 3024 M
0 63 V
0 1700 R
0 -63 V
stroke
2016 2904 M
[ [(Helvetica) 120.0 0.0 true true 0 ( 26)]
] -40.0 MCshow
1.000 UL
LTb
LCb setrgbcolor
1.000 UL
LTa
0.50 0.50 0.50 C 2495 3024 M
0 1763 V
stroke
LTb
LCb setrgbcolor
2495 3024 M
0 63 V
0 1700 R
0 -63 V
stroke
2495 2904 M
[ [(Helvetica) 120.0 0.0 true true 0 ( 28)]
] -40.0 MCshow
1.000 UL
LTb
LCb setrgbcolor
1.000 UL
LTa
0.50 0.50 0.50 C 2975 3024 M
0 1763 V
stroke
LTb
LCb setrgbcolor
2975 3024 M
0 63 V
0 1700 R
0 -63 V
stroke
2975 2904 M
[ [(Helvetica) 120.0 0.0 true true 0 ( 30)]
] -40.0 MCshow
1.000 UL
LTb
LCb setrgbcolor
1.000 UL
LTa
0.50 0.50 0.50 C 3455 3024 M
0 1763 V
stroke
LTb
LCb setrgbcolor
3455 3024 M
0 63 V
0 1700 R
0 -63 V
stroke
3455 2904 M
[ [(Helvetica) 120.0 0.0 true true 0 ( 32)]
] -40.0 MCshow
1.000 UL
LTb
LCb setrgbcolor
1.000 UL
LTB
LCb setrgbcolor
576 4787 N
0 -1763 V
2879 0 V
0 1763 V
-2879 0 V
Z stroke
1.000 UL
LTb
1.00 1.00 1.00 C 1.000 2951 3080 432 240 BoxColFill
LCb setrgbcolor
2951 3080 N
0 240 V
432 0 V
0 -240 V
-432 0 V
Z stroke
1.000 UP
1.000 UL
LTb
LCb setrgbcolor
LCb setrgbcolor
228 3905 M
currentpoint gsave translate -270 rotate 0 0 moveto
[ [(Symbol) 120.0 0.0 true true 0 (D)]
[(Helvetica) 120.0 0.0 true true 0 ( E)]
[(Helvetica) 96.0 -36.0 true true 0 (tot)]
] -28.0 MCshow
grestore
LTb
LCb setrgbcolor
2015 2724 M
[ [(Helvetica) 120.0 0.0 true true 0 (Nombre de protons)]
] -40.0 MCshow
LTb
% Begin plot #1
1.000 UP
1.000 UL
LTb
0.91 0.59 0.48 C 576 3172 CircleF
1056 4181 CircleF
1536 4688 CircleF
2016 4666 CircleF
2495 4059 CircleF
2975 4010 CircleF
3455 3238 CircleF
% End plot #1
% Begin plot #2
2.000 UL
LTb
0.91 0.59 0.48 C 576 3172 M
480 1009 V
480 507 V
480 -22 V
479 -607 V
480 -49 V
480 -772 V
% End plot #2
% Begin plot #3
1.000 UP
stroke
1.000 UL
LTb
0.55 0.00 0.00 C 576 3574 TriUF
1056 4359 TriUF
1536 4727 TriUF
2016 4634 TriUF
2495 4008 TriUF
2975 3968 TriUF
3455 3264 TriUF
% End plot #3
% Begin plot #4
2.000 UL
LTb
0.55 0.00 0.00 C 576 3574 M
480 785 V
480 368 V
480 -93 V
479 -626 V
480 -40 V
480 -704 V
% End plot #4
% Begin plot #5
stroke
3.000 UL
LTb
LT2
0.34 0.71 0.91 C 576 3553 M
29 0 V
29 0 V
29 0 V
29 0 V
29 0 V
29 0 V
30 0 V
29 0 V
29 0 V
29 0 V
29 0 V
29 0 V
29 0 V
29 0 V
29 0 V
29 0 V
29 0 V
29 0 V
30 0 V
29 0 V
29 0 V
29 0 V
29 0 V
29 0 V
29 0 V
29 0 V
29 0 V
29 0 V
29 0 V
29 0 V
30 0 V
29 0 V
29 0 V
29 0 V
29 0 V
29 0 V
29 0 V
29 0 V
29 0 V
29 0 V
29 0 V
29 0 V
29 0 V
30 0 V
29 0 V
29 0 V
29 0 V
29 0 V
29 0 V
29 0 V
29 0 V
29 0 V
29 0 V
29 0 V
29 0 V
30 0 V
29 0 V
29 0 V
29 0 V
29 0 V
29 0 V
29 0 V
29 0 V
29 0 V
29 0 V
29 0 V
29 0 V
29 0 V
30 0 V
29 0 V
29 0 V
29 0 V
29 0 V
29 0 V
29 0 V
29 0 V
29 0 V
29 0 V
29 0 V
29 0 V
30 0 V
29 0 V
29 0 V
29 0 V
29 0 V
29 0 V
29 0 V
29 0 V
29 0 V
29 0 V
29 0 V
29 0 V
30 0 V
29 0 V
29 0 V
29 0 V
29 0 V
29 0 V
29 0 V
% End plot #5
stroke
2.000 UL
LTb
LCb setrgbcolor
1.000 UL
LTB
LCb setrgbcolor
576 4787 N
0 -1763 V
2879 0 V
0 1763 V
-2879 0 V
Z stroke
1.000 UP
LCb setrgbcolor
3167 3200 M
[ [(Helvetica) 180.0 0.0 true true 0 (N=28)]
] -60.0 MCshow
1.000 UL
LTb
LCb setrgbcolor
1.000 UL
LTb
LCb setrgbcolor
1.000 UL
LTa
0.50 0.50 0.50 C 3744 3024 M
2879 0 V
stroke
LTb
LCb setrgbcolor
3744 3024 M
63 0 V
2816 0 R
-63 0 V
stroke
LTb
LCb setrgbcolor
1.000 UL
LTa
0.50 0.50 0.50 C 3744 3200 M
2879 0 V
stroke
LTb
LCb setrgbcolor
3744 3200 M
63 0 V
2816 0 R
-63 0 V
stroke
LTb
LCb setrgbcolor
1.000 UL
LTa
0.50 0.50 0.50 C 3744 3377 M
2879 0 V
stroke
LTb
LCb setrgbcolor
3744 3377 M
63 0 V
2816 0 R
-63 0 V
stroke
LTb
LCb setrgbcolor
1.000 UL
LTa
0.50 0.50 0.50 C 3744 3553 M
2879 0 V
stroke
LTb
LCb setrgbcolor
3744 3553 M
63 0 V
2816 0 R
-63 0 V
stroke
LTb
LCb setrgbcolor
1.000 UL
LTa
0.50 0.50 0.50 C 3744 3729 M
2879 0 V
stroke
LTb
LCb setrgbcolor
3744 3729 M
63 0 V
2816 0 R
-63 0 V
stroke
LTb
LCb setrgbcolor
1.000 UL
LTa
0.50 0.50 0.50 C 3744 3906 M
2879 0 V
stroke
LTb
LCb setrgbcolor
3744 3906 M
63 0 V
2816 0 R
-63 0 V
stroke
LTb
LCb setrgbcolor
1.000 UL
LTa
0.50 0.50 0.50 C 3744 4082 M
2879 0 V
stroke
LTb
LCb setrgbcolor
3744 4082 M
63 0 V
2816 0 R
-63 0 V
stroke
LTb
LCb setrgbcolor
1.000 UL
LTa
0.50 0.50 0.50 C 3744 4258 M
2879 0 V
stroke
LTb
LCb setrgbcolor
3744 4258 M
63 0 V
2816 0 R
-63 0 V
stroke
LTb
LCb setrgbcolor
1.000 UL
LTa
0.50 0.50 0.50 C 3744 4434 M
1578 0 V
1071 0 R
230 0 V
stroke
LTb
LCb setrgbcolor
3744 4434 M
63 0 V
2816 0 R
-63 0 V
stroke
LTb
LCb setrgbcolor
1.000 UL
LTa
0.50 0.50 0.50 C 3744 4611 M
1578 0 V
1071 0 R
230 0 V
stroke
LTb
LCb setrgbcolor
3744 4611 M
63 0 V
2816 0 R
-63 0 V
stroke
LTb
LCb setrgbcolor
1.000 UL
LTa
0.50 0.50 0.50 C 3744 4787 M
2879 0 V
stroke
LTb
LCb setrgbcolor
3744 4787 M
63 0 V
2816 0 R
-63 0 V
stroke
LTb
LCb setrgbcolor
1.000 UL
LTa
0.50 0.50 0.50 C 3744 3024 M
0 1763 V
stroke
LTb
LCb setrgbcolor
3744 3024 M
0 63 V
0 1700 R
0 -63 V
stroke
3744 2904 M
[ [(Helvetica) 120.0 0.0 true true 0 ( 25)]
] -40.0 MCshow
1.000 UL
LTb
LCb setrgbcolor
1.000 UL
LTa
0.50 0.50 0.50 C 4320 3024 M
0 1763 V
stroke
LTb
LCb setrgbcolor
4320 3024 M
0 63 V
0 1700 R
0 -63 V
stroke
4320 2904 M
[ [(Helvetica) 120.0 0.0 true true 0 ( 30)]
] -40.0 MCshow
1.000 UL
LTb
LCb setrgbcolor
1.000 UL
LTa
0.50 0.50 0.50 C 4896 3024 M
0 1763 V
stroke
LTb
LCb setrgbcolor
4896 3024 M
0 63 V
0 1700 R
0 -63 V
stroke
4896 2904 M
[ [(Helvetica) 120.0 0.0 true true 0 ( 35)]
] -40.0 MCshow
1.000 UL
LTb
LCb setrgbcolor
1.000 UL
LTa
0.50 0.50 0.50 C 5471 3024 M
0 1382 V
0 240 R
0 141 V
stroke
LTb
LCb setrgbcolor
5471 3024 M
0 63 V
0 1700 R
0 -63 V
stroke
5471 2904 M
[ [(Helvetica) 120.0 0.0 true true 0 ( 40)]
] -40.0 MCshow
1.000 UL
LTb
LCb setrgbcolor
1.000 UL
LTa
0.50 0.50 0.50 C 6047 3024 M
0 1382 V
0 240 R
0 141 V
stroke
LTb
LCb setrgbcolor
6047 3024 M
0 63 V
0 1700 R
0 -63 V
stroke
6047 2904 M
[ [(Helvetica) 120.0 0.0 true true 0 ( 45)]
] -40.0 MCshow
1.000 UL
LTb
LCb setrgbcolor
1.000 UL
LTa
0.50 0.50 0.50 C 6623 3024 M
0 1763 V
stroke
LTb
LCb setrgbcolor
6623 3024 M
0 63 V
0 1700 R
0 -63 V
stroke
6623 2904 M
[ [(Helvetica) 120.0 0.0 true true 0 ( 50)]
] -40.0 MCshow
1.000 UL
LTb
LCb setrgbcolor
6623 3024 M
-63 0 V
stroke
6695 3024 M
[ [(Helvetica) 120.0 0.0 true true 0 (-5)]
] -40.0 MLshow
1.000 UL
LTb
LCb setrgbcolor
6623 3200 M
-63 0 V
stroke
6695 3200 M
[ [(Helvetica) 120.0 0.0 true true 0 (-4)]
] -40.0 MLshow
1.000 UL
LTb
LCb setrgbcolor
6623 3377 M
-63 0 V
stroke
6695 3377 M
[ [(Helvetica) 120.0 0.0 true true 0 (-3)]
] -40.0 MLshow
1.000 UL
LTb
LCb setrgbcolor
6623 3553 M
-63 0 V
stroke
6695 3553 M
[ [(Helvetica) 120.0 0.0 true true 0 (-2)]
] -40.0 MLshow
1.000 UL
LTb
LCb setrgbcolor
6623 3729 M
-63 0 V
stroke
6695 3729 M
[ [(Helvetica) 120.0 0.0 true true 0 (-1)]
] -40.0 MLshow
1.000 UL
LTb
LCb setrgbcolor
6623 3906 M
-63 0 V
stroke
6695 3906 M
[ [(Helvetica) 120.0 0.0 true true 0 ( 0)]
] -40.0 MLshow
1.000 UL
LTb
LCb setrgbcolor
6623 4082 M
-63 0 V
stroke
6695 4082 M
[ [(Helvetica) 120.0 0.0 true true 0 ( 1)]
] -40.0 MLshow
1.000 UL
LTb
LCb setrgbcolor
6623 4258 M
-63 0 V
stroke
6695 4258 M
[ [(Helvetica) 120.0 0.0 true true 0 ( 2)]
] -40.0 MLshow
1.000 UL
LTb
LCb setrgbcolor
6623 4434 M
-63 0 V
stroke
6695 4434 M
[ [(Helvetica) 120.0 0.0 true true 0 ( 3)]
] -40.0 MLshow
1.000 UL
LTb
LCb setrgbcolor
6623 4611 M
-63 0 V
stroke
6695 4611 M
[ [(Helvetica) 120.0 0.0 true true 0 ( 4)]
] -40.0 MLshow
1.000 UL
LTb
LCb setrgbcolor
6623 4787 M
-63 0 V
stroke
6695 4787 M
[ [(Helvetica) 120.0 0.0 true true 0 ( 5)]
] -40.0 MLshow
1.000 UL
LTb
LCb setrgbcolor
1.000 UL
LTB
LCb setrgbcolor
3744 4787 N
0 -1763 V
2879 0 V
0 1763 V
-2879 0 V
Z stroke
1.000 UL
LTb
1.00 1.00 1.00 C 1.000 6119 3080 432 240 BoxColFill
LCb setrgbcolor
6119 3080 N
0 240 V
432 0 V
0 -240 V
-432 0 V
Z stroke
1.000 UP
1.000 UL
LTb
LCb setrgbcolor
LCb setrgbcolor
6970 3905 M
currentpoint gsave translate -270 rotate 0 0 moveto
[ [(Symbol) 120.0 0.0 true true 0 (D)]
[(Helvetica) 120.0 0.0 true true 0 ( E)]
[(Helvetica) 96.0 -36.0 true true 0 (tot)]
] -28.0 MCshow
grestore
LTb
LCb setrgbcolor
5183 2724 M
[ [(Helvetica) 120.0 0.0 true true 0 (Nombre de protons)]
] -40.0 MCshow
LTb
1.000 UL
LTb
LCb setrgbcolor
5322 4406 N
0 240 V
1071 0 V
0 -240 V
-1071 0 V
Z stroke
% Begin plot #1
1.000 UP
1.000 UL
LTb
0.91 0.59 0.48 C LCb setrgbcolor
5898 4586 M
[ [(Helvetica) 120.0 0.0 true true 0 (SN2LO1)]
] -40.0 MRshow
1.000 UP
1.000 UL
LTb
0.91 0.59 0.48 C 4089 3167 CircleF
4320 3950 CircleF
4550 4368 CircleF
4780 4554 CircleF
5011 4477 CircleF
5241 4187 CircleF
5471 3970 CircleF
5702 4211 CircleF
5932 4293 CircleF
6162 4236 CircleF
6393 4001 CircleF
6623 3581 CircleF
6145 4586 CircleF
% End plot #1
% Begin plot #2
2.000 UL
LTb
0.91 0.59 0.48 C 4089 3167 M
231 783 V
230 418 V
230 186 V
231 -77 V
230 -290 V
230 -217 V
231 241 V
230 82 V
230 -57 V
231 -235 V
230 -420 V
% End plot #2
% Begin plot #3
1.000 UP
stroke
1.000 UL
LTb
0.55 0.00 0.00 C LCb setrgbcolor
5898 4466 M
[ [(Helvetica) 120.0 0.0 true true 0 (SLy5)]
] -40.0 MRshow
1.000 UP
1.000 UL
LTb
0.55 0.00 0.00 C 4089 3537 TriUF
4320 4194 TriUF
4550 4528 TriUF
4780 4649 TriUF
5011 4540 TriUF
5241 4246 TriUF
5471 4005 TriUF
5702 4153 TriUF
5932 4165 TriUF
6162 4059 TriUF
6393 3794 TriUF
6623 3359 TriUF
6145 4466 TriUF
% End plot #3
% Begin plot #4
2.000 UL
LTb
0.55 0.00 0.00 C 4089 3537 M
231 657 V
230 334 V
230 121 V
231 -109 V
230 -294 V
230 -241 V
231 148 V
230 12 V
230 -106 V
231 -265 V
230 -435 V
% End plot #4
% Begin plot #5
stroke
3.000 UL
LTb
LT2
0.34 0.71 0.91 C 4089 3906 M
26 0 V
26 0 V
25 0 V
26 0 V
25 0 V
26 0 V
26 0 V
25 0 V
26 0 V
25 0 V
26 0 V
26 0 V
25 0 V
26 0 V
25 0 V
26 0 V
26 0 V
25 0 V
26 0 V
25 0 V
26 0 V
25 0 V
26 0 V
26 0 V
25 0 V
26 0 V
25 0 V
26 0 V
26 0 V
25 0 V
26 0 V
25 0 V
26 0 V
26 0 V
25 0 V
26 0 V
25 0 V
26 0 V
26 0 V
25 0 V
26 0 V
25 0 V
26 0 V
25 0 V
26 0 V
26 0 V
25 0 V
26 0 V
25 0 V
26 0 V
26 0 V
25 0 V
26 0 V
25 0 V
26 0 V
26 0 V
25 0 V
26 0 V
25 0 V
26 0 V
26 0 V
25 0 V
26 0 V
25 0 V
26 0 V
25 0 V
26 0 V
26 0 V
25 0 V
26 0 V
25 0 V
26 0 V
26 0 V
25 0 V
26 0 V
25 0 V
26 0 V
26 0 V
25 0 V
26 0 V
25 0 V
26 0 V
26 0 V
25 0 V
26 0 V
25 0 V
26 0 V
25 0 V
26 0 V
26 0 V
25 0 V
26 0 V
25 0 V
26 0 V
26 0 V
25 0 V
26 0 V
25 0 V
26 0 V
% End plot #5
stroke
2.000 UL
LTb
LCb setrgbcolor
1.000 UL
LTB
LCb setrgbcolor
3744 4787 N
0 -1763 V
2879 0 V
0 1763 V
-2879 0 V
Z stroke
1.000 UP
LCb setrgbcolor
6335 3200 M
[ [(Helvetica) 180.0 0.0 true true 0 (N=50)]
] -60.0 MCshow
1.000 UL
LTb
LCb setrgbcolor
1.000 UL
LTb
LCb setrgbcolor
1.000 UL
LTa
0.50 0.50 0.50 C 576 756 M
2879 0 V
stroke
LTb
LCb setrgbcolor
576 756 M
63 0 V
2816 0 R
-63 0 V
stroke
504 756 M
[ [(Helvetica) 120.0 0.0 true true 0 (-3)]
] -40.0 MRshow
1.000 UL
LTb
LCb setrgbcolor
1.000 UL
LTa
0.50 0.50 0.50 C 576 932 M
2879 0 V
stroke
LTb
LCb setrgbcolor
576 932 M
63 0 V
2816 0 R
-63 0 V
stroke
504 932 M
[ [(Helvetica) 120.0 0.0 true true 0 (-2)]
] -40.0 MRshow
1.000 UL
LTb
LCb setrgbcolor
1.000 UL
LTa
0.50 0.50 0.50 C 576 1109 M
2879 0 V
stroke
LTb
LCb setrgbcolor
576 1109 M
63 0 V
2816 0 R
-63 0 V
stroke
504 1109 M
[ [(Helvetica) 120.0 0.0 true true 0 (-1)]
] -40.0 MRshow
1.000 UL
LTb
LCb setrgbcolor
1.000 UL
LTa
0.50 0.50 0.50 C 576 1285 M
2879 0 V
stroke
LTb
LCb setrgbcolor
576 1285 M
63 0 V
2816 0 R
-63 0 V
stroke
504 1285 M
[ [(Helvetica) 120.0 0.0 true true 0 (0)]
] -40.0 MRshow
1.000 UL
LTb
LCb setrgbcolor
1.000 UL
LTa
0.50 0.50 0.50 C 576 1461 M
2879 0 V
stroke
LTb
LCb setrgbcolor
576 1461 M
63 0 V
2816 0 R
-63 0 V
stroke
504 1461 M
[ [(Helvetica) 120.0 0.0 true true 0 (1)]
] -40.0 MRshow
1.000 UL
LTb
LCb setrgbcolor
1.000 UL
LTa
0.50 0.50 0.50 C 576 1638 M
2879 0 V
stroke
LTb
LCb setrgbcolor
576 1638 M
63 0 V
2816 0 R
-63 0 V
stroke
504 1638 M
[ [(Helvetica) 120.0 0.0 true true 0 (2)]
] -40.0 MRshow
1.000 UL
LTb
LCb setrgbcolor
1.000 UL
LTa
0.50 0.50 0.50 C 576 1814 M
2879 0 V
stroke
LTb
LCb setrgbcolor
576 1814 M
63 0 V
2816 0 R
-63 0 V
stroke
504 1814 M
[ [(Helvetica) 120.0 0.0 true true 0 (3)]
] -40.0 MRshow
1.000 UL
LTb
LCb setrgbcolor
1.000 UL
LTa
0.50 0.50 0.50 C 576 1990 M
2879 0 V
stroke
LTb
LCb setrgbcolor
576 1990 M
63 0 V
2816 0 R
-63 0 V
stroke
504 1990 M
[ [(Helvetica) 120.0 0.0 true true 0 (4)]
] -40.0 MRshow
1.000 UL
LTb
LCb setrgbcolor
1.000 UL
LTa
0.50 0.50 0.50 C 576 2166 M
2879 0 V
stroke
LTb
LCb setrgbcolor
576 2166 M
63 0 V
2816 0 R
-63 0 V
stroke
504 2166 M
[ [(Helvetica) 120.0 0.0 true true 0 (5)]
] -40.0 MRshow
1.000 UL
LTb
LCb setrgbcolor
1.000 UL
LTa
0.50 0.50 0.50 C 576 2343 M
2879 0 V
stroke
LTb
LCb setrgbcolor
576 2343 M
63 0 V
2816 0 R
-63 0 V
stroke
504 2343 M
[ [(Helvetica) 120.0 0.0 true true 0 (6)]
] -40.0 MRshow
1.000 UL
LTb
LCb setrgbcolor
1.000 UL
LTa
0.50 0.50 0.50 C 576 2519 M
2879 0 V
stroke
LTb
LCb setrgbcolor
576 2519 M
63 0 V
2816 0 R
-63 0 V
stroke
504 2519 M
[ [(Helvetica) 120.0 0.0 true true 0 (7)]
] -40.0 MRshow
1.000 UL
LTb
LCb setrgbcolor
1.000 UL
LTa
0.50 0.50 0.50 C 576 756 M
0 1763 V
stroke
LTb
LCb setrgbcolor
576 756 M
0 63 V
0 1700 R
0 -63 V
stroke
576 636 M
[ [(Helvetica) 120.0 0.0 true true 0 ( 45)]
] -40.0 MCshow
1.000 UL
LTb
LCb setrgbcolor
1.000 UL
LTa
0.50 0.50 0.50 C 1152 756 M
0 1763 V
stroke
LTb
LCb setrgbcolor
1152 756 M
0 63 V
0 1700 R
0 -63 V
stroke
1152 636 M
[ [(Helvetica) 120.0 0.0 true true 0 ( 50)]
] -40.0 MCshow
1.000 UL
LTb
LCb setrgbcolor
1.000 UL
LTa
0.50 0.50 0.50 C 1728 756 M
0 1763 V
stroke
LTb
LCb setrgbcolor
1728 756 M
0 63 V
0 1700 R
0 -63 V
stroke
1728 636 M
[ [(Helvetica) 120.0 0.0 true true 0 ( 55)]
] -40.0 MCshow
1.000 UL
LTb
LCb setrgbcolor
1.000 UL
LTa
0.50 0.50 0.50 C 2303 756 M
0 1763 V
stroke
LTb
LCb setrgbcolor
2303 756 M
0 63 V
0 1700 R
0 -63 V
stroke
2303 636 M
[ [(Helvetica) 120.0 0.0 true true 0 ( 60)]
] -40.0 MCshow
1.000 UL
LTb
LCb setrgbcolor
1.000 UL
LTa
0.50 0.50 0.50 C 2879 756 M
0 1763 V
stroke
LTb
LCb setrgbcolor
2879 756 M
0 63 V
0 1700 R
0 -63 V
stroke
2879 636 M
[ [(Helvetica) 120.0 0.0 true true 0 ( 65)]
] -40.0 MCshow
1.000 UL
LTb
LCb setrgbcolor
1.000 UL
LTa
0.50 0.50 0.50 C 3455 756 M
0 1763 V
stroke
LTb
LCb setrgbcolor
3455 756 M
0 63 V
0 1700 R
0 -63 V
stroke
3455 636 M
[ [(Helvetica) 120.0 0.0 true true 0 ( 70)]
] -40.0 MCshow
1.000 UL
LTb
LCb setrgbcolor
1.000 UL
LTB
LCb setrgbcolor
576 2519 N
576 756 L
2879 0 V
0 1763 V
-2879 0 V
Z stroke
1.000 UL
LTb
1.00 1.00 1.00 C 1.000 2951 812 432 240 BoxColFill
LCb setrgbcolor
2951 812 N
0 240 V
432 0 V
0 -240 V
-432 0 V
Z stroke
1.000 UP
1.000 UL
LTb
LCb setrgbcolor
LCb setrgbcolor
228 1637 M
currentpoint gsave translate -270 rotate 0 0 moveto
[ [(Helvetica) 120.0 0.0 true true 0 ( )]
[(Symbol) 120.0 0.0 true true 0 (D)]
[(Helvetica) 120.0 0.0 true true 0 ( E)]
[(Helvetica) 96.0 -36.0 true true 0 (tot)]
] -28.0 MCshow
grestore
LTb
LCb setrgbcolor
2015 456 M
[ [(Helvetica) 120.0 0.0 true true 0 (Nombre de protons)]
] -40.0 MCshow
LTb
% Begin plot #1
1.000 UP
1.000 UL
LTb
0.91 0.59 0.48 C 806 1071 CircleF
1037 826 CircleF
1267 1070 CircleF
1497 1583 CircleF
1728 1938 CircleF
1958 2132 CircleF
2188 2202 CircleF
2419 2171 CircleF
2649 2012 CircleF
2879 2034 CircleF
3110 2357 CircleF
3340 2482 CircleF
% End plot #1
% Begin plot #2
2.000 UL
LTb
0.91 0.59 0.48 C 806 1071 M
1037 826 L
230 244 V
230 513 V
231 355 V
230 194 V
230 70 V
231 -31 V
230 -159 V
230 22 V
231 323 V
230 125 V
% End plot #2
% Begin plot #3
1.000 UP
stroke
1.000 UL
LTb
0.55 0.00 0.00 C 806 1407 TriUF
1037 1062 TriUF
1267 1222 TriUF
1497 1672 TriUF
1728 2013 TriUF
1958 2274 TriUF
2188 2209 TriUF
2419 2058 TriUF
2649 1831 TriUF
2879 1789 TriUF
3110 2035 TriUF
3340 2189 TriUF
% End plot #3
% Begin plot #4
2.000 UL
LTb
0.55 0.00 0.00 C 806 1407 M
231 -345 V
230 160 V
230 450 V
231 341 V
230 261 V
230 -65 V
231 -151 V
230 -227 V
230 -42 V
231 246 V
230 154 V
% End plot #4
% Begin plot #5
stroke
3.000 UL
LTb
LT2
0.34 0.71 0.91 C 806 1285 M
26 0 V
26 0 V
25 0 V
26 0 V
25 0 V
26 0 V
25 0 V
26 0 V
26 0 V
25 0 V
26 0 V
25 0 V
26 0 V
26 0 V
25 0 V
26 0 V
25 0 V
26 0 V
26 0 V
25 0 V
26 0 V
25 0 V
26 0 V
26 0 V
25 0 V
26 0 V
25 0 V
26 0 V
25 0 V
26 0 V
26 0 V
25 0 V
26 0 V
25 0 V
26 0 V
26 0 V
25 0 V
26 0 V
25 0 V
26 0 V
26 0 V
25 0 V
26 0 V
25 0 V
26 0 V
26 0 V
25 0 V
26 0 V
25 0 V
26 0 V
25 0 V
26 0 V
26 0 V
25 0 V
26 0 V
25 0 V
26 0 V
26 0 V
25 0 V
26 0 V
25 0 V
26 0 V
26 0 V
25 0 V
26 0 V
25 0 V
26 0 V
26 0 V
25 0 V
26 0 V
25 0 V
26 0 V
25 0 V
26 0 V
26 0 V
25 0 V
26 0 V
25 0 V
26 0 V
26 0 V
25 0 V
26 0 V
25 0 V
26 0 V
26 0 V
25 0 V
26 0 V
25 0 V
26 0 V
26 0 V
25 0 V
26 0 V
25 0 V
26 0 V
25 0 V
26 0 V
26 0 V
25 0 V
26 0 V
% End plot #5
stroke
2.000 UL
LTb
LCb setrgbcolor
1.000 UL
LTB
LCb setrgbcolor
576 2519 N
576 756 L
2879 0 V
0 1763 V
-2879 0 V
Z stroke
1.000 UP
LCb setrgbcolor
3167 932 M
[ [(Helvetica) 180.0 0.0 true true 0 (N=82)]
] -60.0 MCshow
1.000 UL
LTb
LCb setrgbcolor
1.000 UL
LTb
LCb setrgbcolor
1.000 UL
LTa
0.50 0.50 0.50 C 3744 1077 M
2879 0 V
stroke
LTb
LCb setrgbcolor
3744 1077 M
63 0 V
2816 0 R
-63 0 V
stroke
LTb
LCb setrgbcolor
1.000 UL
LTa
0.50 0.50 0.50 C 3744 1477 M
2879 0 V
stroke
LTb
LCb setrgbcolor
3744 1477 M
63 0 V
2816 0 R
-63 0 V
stroke
LTb
LCb setrgbcolor
1.000 UL
LTa
0.50 0.50 0.50 C 3744 1878 M
2879 0 V
stroke
LTb
LCb setrgbcolor
3744 1878 M
63 0 V
2816 0 R
-63 0 V
stroke
LTb
LCb setrgbcolor
1.000 UL
LTa
0.50 0.50 0.50 C 3744 2279 M
2879 0 V
stroke
LTb
LCb setrgbcolor
3744 2279 M
63 0 V
2816 0 R
-63 0 V
stroke
LTb
LCb setrgbcolor
1.000 UL
LTa
0.50 0.50 0.50 C 3744 756 M
0 1763 V
stroke
LTb
LCb setrgbcolor
3744 756 M
0 63 V
0 1700 R
0 -63 V
stroke
3744 636 M
[ [(Helvetica) 120.0 0.0 true true 0 ( 78)]
] -40.0 MCshow
1.000 UL
LTb
LCb setrgbcolor
1.000 UL
LTa
0.50 0.50 0.50 C 4155 756 M
0 1763 V
stroke
LTb
LCb setrgbcolor
4155 756 M
0 63 V
0 1700 R
0 -63 V
stroke
4155 636 M
[ [(Helvetica) 120.0 0.0 true true 0 ( 80)]
] -40.0 MCshow
1.000 UL
LTb
LCb setrgbcolor
1.000 UL
LTa
0.50 0.50 0.50 C 4567 756 M
0 1763 V
stroke
LTb
LCb setrgbcolor
4567 756 M
0 63 V
0 1700 R
0 -63 V
stroke
4567 636 M
[ [(Helvetica) 120.0 0.0 true true 0 ( 82)]
] -40.0 MCshow
1.000 UL
LTb
LCb setrgbcolor
1.000 UL
LTa
0.50 0.50 0.50 C 4978 756 M
0 1763 V
stroke
LTb
LCb setrgbcolor
4978 756 M
0 63 V
0 1700 R
0 -63 V
stroke
4978 636 M
[ [(Helvetica) 120.0 0.0 true true 0 ( 84)]
] -40.0 MCshow
1.000 UL
LTb
LCb setrgbcolor
1.000 UL
LTa
0.50 0.50 0.50 C 5389 756 M
0 1763 V
stroke
LTb
LCb setrgbcolor
5389 756 M
0 63 V
0 1700 R
0 -63 V
stroke
5389 636 M
[ [(Helvetica) 120.0 0.0 true true 0 ( 86)]
] -40.0 MCshow
1.000 UL
LTb
LCb setrgbcolor
1.000 UL
LTa
0.50 0.50 0.50 C 5800 756 M
0 1763 V
stroke
LTb
LCb setrgbcolor
5800 756 M
0 63 V
0 1700 R
0 -63 V
stroke
5800 636 M
[ [(Helvetica) 120.0 0.0 true true 0 ( 88)]
] -40.0 MCshow
1.000 UL
LTb
LCb setrgbcolor
1.000 UL
LTa
0.50 0.50 0.50 C 6212 756 M
0 1763 V
stroke
LTb
LCb setrgbcolor
6212 756 M
0 63 V
0 1700 R
0 -63 V
stroke
6212 636 M
[ [(Helvetica) 120.0 0.0 true true 0 ( 90)]
] -40.0 MCshow
1.000 UL
LTb
LCb setrgbcolor
1.000 UL
LTa
0.50 0.50 0.50 C 6623 756 M
0 1763 V
stroke
LTb
LCb setrgbcolor
6623 756 M
0 63 V
0 1700 R
0 -63 V
stroke
6623 636 M
[ [(Helvetica) 120.0 0.0 true true 0 ( 92)]
] -40.0 MCshow
1.000 UL
LTb
LCb setrgbcolor
6623 1077 M
-63 0 V
stroke
6695 1077 M
[ [(Helvetica) 120.0 0.0 true true 0 ( 0)]
] -40.0 MLshow
1.000 UL
LTb
LCb setrgbcolor
6623 1477 M
-63 0 V
stroke
6695 1477 M
[ [(Helvetica) 120.0 0.0 true true 0 ( 5)]
] -40.0 MLshow
1.000 UL
LTb
LCb setrgbcolor
6623 1878 M
-63 0 V
stroke
6695 1878 M
[ [(Helvetica) 120.0 0.0 true true 0 ( 10)]
] -40.0 MLshow
1.000 UL
LTb
LCb setrgbcolor
6623 2279 M
-63 0 V
stroke
6695 2279 M
[ [(Helvetica) 120.0 0.0 true true 0 ( 15)]
] -40.0 MLshow
1.000 UL
LTb
LCb setrgbcolor
1.000 UL
LTB
LCb setrgbcolor
3744 2519 N
0 -1763 V
2879 0 V
0 1763 V
-2879 0 V
Z stroke
1.000 UL
LTb
1.00 1.00 1.00 C 1.000 6083 812 504 240 BoxColFill
LCb setrgbcolor
6083 812 N
0 240 V
504 0 V
0 -240 V
-504 0 V
Z stroke
1.000 UP
1.000 UL
LTb
LCb setrgbcolor
LCb setrgbcolor
7042 1637 M
currentpoint gsave translate -270 rotate 0 0 moveto
[ [(Symbol) 120.0 0.0 true true 0 (D)]
[(Helvetica) 120.0 0.0 true true 0 ( E)]
[(Helvetica) 96.0 -36.0 true true 0 (tot)]
] -28.0 MCshow
grestore
LTb
LCb setrgbcolor
5183 456 M
[ [(Helvetica) 120.0 0.0 true true 0 (Nombre de protons)]
] -40.0 MCshow
LTb
% Begin plot #1
1.000 UP
1.000 UL
LTb
0.91 0.59 0.48 C 3950 1428 CircleF
4361 1246 CircleF
4772 1224 CircleF
5184 1387 CircleF
5595 1506 CircleF
6006 1582 CircleF
6417 1612 CircleF
% End plot #1
% Begin plot #2
2.000 UL
LTb
0.91 0.59 0.48 C 3950 1428 M
411 -182 V
411 -22 V
412 163 V
411 119 V
411 76 V
411 30 V
% End plot #2
% Begin plot #3
1.000 UP
stroke
1.000 UL
LTb
0.55 0.00 0.00 C 3950 1392 TriUF
4361 1174 TriUF
4772 1124 TriUF
5184 1260 TriUF
5595 1359 TriUF
6006 1422 TriUF
6417 1444 TriUF
% End plot #3
% Begin plot #4
2.000 UL
LTb
0.55 0.00 0.00 C 3950 1392 M
411 -218 V
411 -50 V
412 136 V
411 99 V
411 63 V
411 22 V
% End plot #4
% Begin plot #5
stroke
3.000 UL
LTb
LT2
0.34 0.71 0.91 C 3950 1077 M
25 0 V
24 0 V
25 0 V
25 0 V
25 0 V
25 0 V
25 0 V
25 0 V
25 0 V
25 0 V
25 0 V
25 0 V
25 0 V
25 0 V
25 0 V
24 0 V
25 0 V
25 0 V
25 0 V
25 0 V
25 0 V
25 0 V
25 0 V
25 0 V
25 0 V
25 0 V
25 0 V
25 0 V
25 0 V
24 0 V
25 0 V
25 0 V
25 0 V
25 0 V
25 0 V
25 0 V
25 0 V
25 0 V
25 0 V
25 0 V
25 0 V
25 0 V
24 0 V
25 0 V
25 0 V
25 0 V
25 0 V
25 0 V
25 0 V
25 0 V
25 0 V
25 0 V
25 0 V
25 0 V
25 0 V
25 0 V
24 0 V
25 0 V
25 0 V
25 0 V
25 0 V
25 0 V
25 0 V
25 0 V
25 0 V
25 0 V
25 0 V
25 0 V
25 0 V
24 0 V
25 0 V
25 0 V
25 0 V
25 0 V
25 0 V
25 0 V
25 0 V
25 0 V
25 0 V
25 0 V
25 0 V
25 0 V
25 0 V
24 0 V
25 0 V
25 0 V
25 0 V
25 0 V
25 0 V
25 0 V
25 0 V
25 0 V
25 0 V
25 0 V
25 0 V
25 0 V
25 0 V
24 0 V
25 0 V
% End plot #5
stroke
2.000 UL
LTb
LCb setrgbcolor
1.000 UL
LTB
LCb setrgbcolor
3744 2519 N
0 -1763 V
2879 0 V
0 1763 V
-2879 0 V
Z stroke
1.000 UP
LCb setrgbcolor
6335 932 M
[ [(Helvetica) 180.0 0.0 true true 0 (N=126)]
] -60.0 MCshow
1.000 UL
LTb
LCb setrgbcolor
stroke
grestore
end
showpage
%%Trailer
%%DocumentFonts: Symbol Helvetica
%%Pages: 1
