%!PS-Adobe-2.0
%%Title: isot_rad_param.eps
%%Creator: gnuplot 5.0 patchlevel 3
%%CreationDate: Sun Jun 25 13:24:48 2017
%%DocumentFonts: (atend)
%%BoundingBox: 50 50 554 770
%%Orientation: Landscape
%%Pages: (atend)
%%EndComments
%%BeginProlog
/gnudict 256 dict def
gnudict begin
%
% The following true/false flags may be edited by hand if desired.
% The unit line width and grayscale image gamma correction may also be changed.
%
/Color true def
/Blacktext false def
/Solid false def
/Dashlength 1 def
/Landscape true def
/Level1 false def
/Level3 false def
/Rounded false def
/ClipToBoundingBox false def
/SuppressPDFMark false def
/TransparentPatterns false def
/gnulinewidth 5.000 def
/userlinewidth gnulinewidth def
/Gamma 1.0 def
/BackgroundColor {-1.000 -1.000 -1.000} def
%
/vshift -46 def
/dl1 {
  10.0 Dashlength userlinewidth gnulinewidth div mul mul mul
  Rounded { currentlinewidth 0.75 mul sub dup 0 le { pop 0.01 } if } if
} def
/dl2 {
  10.0 Dashlength userlinewidth gnulinewidth div mul mul mul
  Rounded { currentlinewidth 0.75 mul add } if
} def
/hpt_ 31.5 def
/vpt_ 31.5 def
/hpt hpt_ def
/vpt vpt_ def
/doclip {
  ClipToBoundingBox {
    newpath 50 50 moveto 554 50 lineto 554 770 lineto 50 770 lineto closepath
    clip
  } if
} def
%
% Gnuplot Prolog Version 5.1 (Oct 2015)
%
%/SuppressPDFMark true def
%
/M {moveto} bind def
/L {lineto} bind def
/R {rmoveto} bind def
/V {rlineto} bind def
/N {newpath moveto} bind def
/Z {closepath} bind def
/C {setrgbcolor} bind def
/f {rlineto fill} bind def
/g {setgray} bind def
/Gshow {show} def   % May be redefined later in the file to support UTF-8
/vpt2 vpt 2 mul def
/hpt2 hpt 2 mul def
/Lshow {currentpoint stroke M 0 vshift R 
	Blacktext {gsave 0 setgray textshow grestore} {textshow} ifelse} def
/Rshow {currentpoint stroke M dup stringwidth pop neg vshift R
	Blacktext {gsave 0 setgray textshow grestore} {textshow} ifelse} def
/Cshow {currentpoint stroke M dup stringwidth pop -2 div vshift R 
	Blacktext {gsave 0 setgray textshow grestore} {textshow} ifelse} def
/UP {dup vpt_ mul /vpt exch def hpt_ mul /hpt exch def
  /hpt2 hpt 2 mul def /vpt2 vpt 2 mul def} def
/DL {Color {setrgbcolor Solid {pop []} if 0 setdash}
 {pop pop pop 0 setgray Solid {pop []} if 0 setdash} ifelse} def
/BL {stroke userlinewidth 2 mul setlinewidth
	Rounded {1 setlinejoin 1 setlinecap} if} def
/AL {stroke userlinewidth 2 div setlinewidth
	Rounded {1 setlinejoin 1 setlinecap} if} def
/UL {dup gnulinewidth mul /userlinewidth exch def
	dup 1 lt {pop 1} if 10 mul /udl exch def} def
/PL {stroke userlinewidth setlinewidth
	Rounded {1 setlinejoin 1 setlinecap} if} def
3.8 setmiterlimit
% Classic Line colors (version 5.0)
/LCw {1 1 1} def
/LCb {0 0 0} def
/LCa {0 0 0} def
/LC0 {1 0 0} def
/LC1 {0 1 0} def
/LC2 {0 0 1} def
/LC3 {1 0 1} def
/LC4 {0 1 1} def
/LC5 {1 1 0} def
/LC6 {0 0 0} def
/LC7 {1 0.3 0} def
/LC8 {0.5 0.5 0.5} def
% Default dash patterns (version 5.0)
/LTB {BL [] LCb DL} def
/LTw {PL [] 1 setgray} def
/LTb {PL [] LCb DL} def
/LTa {AL [1 udl mul 2 udl mul] 0 setdash LCa setrgbcolor} def
/LT0 {PL [] LC0 DL} def
/LT1 {PL [2 dl1 3 dl2] LC1 DL} def
/LT2 {PL [1 dl1 1.5 dl2] LC2 DL} def
/LT3 {PL [6 dl1 2 dl2 1 dl1 2 dl2] LC3 DL} def
/LT4 {PL [1 dl1 2 dl2 6 dl1 2 dl2 1 dl1 2 dl2] LC4 DL} def
/LT5 {PL [4 dl1 2 dl2] LC5 DL} def
/LT6 {PL [1.5 dl1 1.5 dl2 1.5 dl1 1.5 dl2 1.5 dl1 6 dl2] LC6 DL} def
/LT7 {PL [3 dl1 3 dl2 1 dl1 3 dl2] LC7 DL} def
/LT8 {PL [2 dl1 2 dl2 2 dl1 6 dl2] LC8 DL} def
/SL {[] 0 setdash} def
/Pnt {stroke [] 0 setdash gsave 1 setlinecap M 0 0 V stroke grestore} def
/Dia {stroke [] 0 setdash 2 copy vpt add M
  hpt neg vpt neg V hpt vpt neg V
  hpt vpt V hpt neg vpt V closepath stroke
  Pnt} def
/Pls {stroke [] 0 setdash vpt sub M 0 vpt2 V
  currentpoint stroke M
  hpt neg vpt neg R hpt2 0 V stroke
 } def
/Box {stroke [] 0 setdash 2 copy exch hpt sub exch vpt add M
  0 vpt2 neg V hpt2 0 V 0 vpt2 V
  hpt2 neg 0 V closepath stroke
  Pnt} def
/Crs {stroke [] 0 setdash exch hpt sub exch vpt add M
  hpt2 vpt2 neg V currentpoint stroke M
  hpt2 neg 0 R hpt2 vpt2 V stroke} def
/TriU {stroke [] 0 setdash 2 copy vpt 1.12 mul add M
  hpt neg vpt -1.62 mul V
  hpt 2 mul 0 V
  hpt neg vpt 1.62 mul V closepath stroke
  Pnt} def
/Star {2 copy Pls Crs} def
/BoxF {stroke [] 0 setdash exch hpt sub exch vpt add M
  0 vpt2 neg V hpt2 0 V 0 vpt2 V
  hpt2 neg 0 V closepath fill} def
/TriUF {stroke [] 0 setdash vpt 1.12 mul add M
  hpt neg vpt -1.62 mul V
  hpt 2 mul 0 V
  hpt neg vpt 1.62 mul V closepath fill} def
/TriD {stroke [] 0 setdash 2 copy vpt 1.12 mul sub M
  hpt neg vpt 1.62 mul V
  hpt 2 mul 0 V
  hpt neg vpt -1.62 mul V closepath stroke
  Pnt} def
/TriDF {stroke [] 0 setdash vpt 1.12 mul sub M
  hpt neg vpt 1.62 mul V
  hpt 2 mul 0 V
  hpt neg vpt -1.62 mul V closepath fill} def
/DiaF {stroke [] 0 setdash vpt add M
  hpt neg vpt neg V hpt vpt neg V
  hpt vpt V hpt neg vpt V closepath fill} def
/Pent {stroke [] 0 setdash 2 copy gsave
  translate 0 hpt M 4 {72 rotate 0 hpt L} repeat
  closepath stroke grestore Pnt} def
/PentF {stroke [] 0 setdash gsave
  translate 0 hpt M 4 {72 rotate 0 hpt L} repeat
  closepath fill grestore} def
/Circle {stroke [] 0 setdash 2 copy
  hpt 0 360 arc stroke Pnt} def
/CircleF {stroke [] 0 setdash hpt 0 360 arc fill} def
/C0 {BL [] 0 setdash 2 copy moveto vpt 90 450 arc} bind def
/C1 {BL [] 0 setdash 2 copy moveto
	2 copy vpt 0 90 arc closepath fill
	vpt 0 360 arc closepath} bind def
/C2 {BL [] 0 setdash 2 copy moveto
	2 copy vpt 90 180 arc closepath fill
	vpt 0 360 arc closepath} bind def
/C3 {BL [] 0 setdash 2 copy moveto
	2 copy vpt 0 180 arc closepath fill
	vpt 0 360 arc closepath} bind def
/C4 {BL [] 0 setdash 2 copy moveto
	2 copy vpt 180 270 arc closepath fill
	vpt 0 360 arc closepath} bind def
/C5 {BL [] 0 setdash 2 copy moveto
	2 copy vpt 0 90 arc
	2 copy moveto
	2 copy vpt 180 270 arc closepath fill
	vpt 0 360 arc} bind def
/C6 {BL [] 0 setdash 2 copy moveto
	2 copy vpt 90 270 arc closepath fill
	vpt 0 360 arc closepath} bind def
/C7 {BL [] 0 setdash 2 copy moveto
	2 copy vpt 0 270 arc closepath fill
	vpt 0 360 arc closepath} bind def
/C8 {BL [] 0 setdash 2 copy moveto
	2 copy vpt 270 360 arc closepath fill
	vpt 0 360 arc closepath} bind def
/C9 {BL [] 0 setdash 2 copy moveto
	2 copy vpt 270 450 arc closepath fill
	vpt 0 360 arc closepath} bind def
/C10 {BL [] 0 setdash 2 copy 2 copy moveto vpt 270 360 arc closepath fill
	2 copy moveto
	2 copy vpt 90 180 arc closepath fill
	vpt 0 360 arc closepath} bind def
/C11 {BL [] 0 setdash 2 copy moveto
	2 copy vpt 0 180 arc closepath fill
	2 copy moveto
	2 copy vpt 270 360 arc closepath fill
	vpt 0 360 arc closepath} bind def
/C12 {BL [] 0 setdash 2 copy moveto
	2 copy vpt 180 360 arc closepath fill
	vpt 0 360 arc closepath} bind def
/C13 {BL [] 0 setdash 2 copy moveto
	2 copy vpt 0 90 arc closepath fill
	2 copy moveto
	2 copy vpt 180 360 arc closepath fill
	vpt 0 360 arc closepath} bind def
/C14 {BL [] 0 setdash 2 copy moveto
	2 copy vpt 90 360 arc closepath fill
	vpt 0 360 arc} bind def
/C15 {BL [] 0 setdash 2 copy vpt 0 360 arc closepath fill
	vpt 0 360 arc closepath} bind def
/Rec {newpath 4 2 roll moveto 1 index 0 rlineto 0 exch rlineto
	neg 0 rlineto closepath} bind def
/Square {dup Rec} bind def
/Bsquare {vpt sub exch vpt sub exch vpt2 Square} bind def
/S0 {BL [] 0 setdash 2 copy moveto 0 vpt rlineto BL Bsquare} bind def
/S1 {BL [] 0 setdash 2 copy vpt Square fill Bsquare} bind def
/S2 {BL [] 0 setdash 2 copy exch vpt sub exch vpt Square fill Bsquare} bind def
/S3 {BL [] 0 setdash 2 copy exch vpt sub exch vpt2 vpt Rec fill Bsquare} bind def
/S4 {BL [] 0 setdash 2 copy exch vpt sub exch vpt sub vpt Square fill Bsquare} bind def
/S5 {BL [] 0 setdash 2 copy 2 copy vpt Square fill
	exch vpt sub exch vpt sub vpt Square fill Bsquare} bind def
/S6 {BL [] 0 setdash 2 copy exch vpt sub exch vpt sub vpt vpt2 Rec fill Bsquare} bind def
/S7 {BL [] 0 setdash 2 copy exch vpt sub exch vpt sub vpt vpt2 Rec fill
	2 copy vpt Square fill Bsquare} bind def
/S8 {BL [] 0 setdash 2 copy vpt sub vpt Square fill Bsquare} bind def
/S9 {BL [] 0 setdash 2 copy vpt sub vpt vpt2 Rec fill Bsquare} bind def
/S10 {BL [] 0 setdash 2 copy vpt sub vpt Square fill 2 copy exch vpt sub exch vpt Square fill
	Bsquare} bind def
/S11 {BL [] 0 setdash 2 copy vpt sub vpt Square fill 2 copy exch vpt sub exch vpt2 vpt Rec fill
	Bsquare} bind def
/S12 {BL [] 0 setdash 2 copy exch vpt sub exch vpt sub vpt2 vpt Rec fill Bsquare} bind def
/S13 {BL [] 0 setdash 2 copy exch vpt sub exch vpt sub vpt2 vpt Rec fill
	2 copy vpt Square fill Bsquare} bind def
/S14 {BL [] 0 setdash 2 copy exch vpt sub exch vpt sub vpt2 vpt Rec fill
	2 copy exch vpt sub exch vpt Square fill Bsquare} bind def
/S15 {BL [] 0 setdash 2 copy Bsquare fill Bsquare} bind def
/D0 {gsave translate 45 rotate 0 0 S0 stroke grestore} bind def
/D1 {gsave translate 45 rotate 0 0 S1 stroke grestore} bind def
/D2 {gsave translate 45 rotate 0 0 S2 stroke grestore} bind def
/D3 {gsave translate 45 rotate 0 0 S3 stroke grestore} bind def
/D4 {gsave translate 45 rotate 0 0 S4 stroke grestore} bind def
/D5 {gsave translate 45 rotate 0 0 S5 stroke grestore} bind def
/D6 {gsave translate 45 rotate 0 0 S6 stroke grestore} bind def
/D7 {gsave translate 45 rotate 0 0 S7 stroke grestore} bind def
/D8 {gsave translate 45 rotate 0 0 S8 stroke grestore} bind def
/D9 {gsave translate 45 rotate 0 0 S9 stroke grestore} bind def
/D10 {gsave translate 45 rotate 0 0 S10 stroke grestore} bind def
/D11 {gsave translate 45 rotate 0 0 S11 stroke grestore} bind def
/D12 {gsave translate 45 rotate 0 0 S12 stroke grestore} bind def
/D13 {gsave translate 45 rotate 0 0 S13 stroke grestore} bind def
/D14 {gsave translate 45 rotate 0 0 S14 stroke grestore} bind def
/D15 {gsave translate 45 rotate 0 0 S15 stroke grestore} bind def
/DiaE {stroke [] 0 setdash vpt add M
  hpt neg vpt neg V hpt vpt neg V
  hpt vpt V hpt neg vpt V closepath stroke} def
/BoxE {stroke [] 0 setdash exch hpt sub exch vpt add M
  0 vpt2 neg V hpt2 0 V 0 vpt2 V
  hpt2 neg 0 V closepath stroke} def
/TriUE {stroke [] 0 setdash vpt 1.12 mul add M
  hpt neg vpt -1.62 mul V
  hpt 2 mul 0 V
  hpt neg vpt 1.62 mul V closepath stroke} def
/TriDE {stroke [] 0 setdash vpt 1.12 mul sub M
  hpt neg vpt 1.62 mul V
  hpt 2 mul 0 V
  hpt neg vpt -1.62 mul V closepath stroke} def
/PentE {stroke [] 0 setdash gsave
  translate 0 hpt M 4 {72 rotate 0 hpt L} repeat
  closepath stroke grestore} def
/CircE {stroke [] 0 setdash 
  hpt 0 360 arc stroke} def
/Opaque {gsave closepath 1 setgray fill grestore 0 setgray closepath} def
/DiaW {stroke [] 0 setdash vpt add M
  hpt neg vpt neg V hpt vpt neg V
  hpt vpt V hpt neg vpt V Opaque stroke} def
/BoxW {stroke [] 0 setdash exch hpt sub exch vpt add M
  0 vpt2 neg V hpt2 0 V 0 vpt2 V
  hpt2 neg 0 V Opaque stroke} def
/TriUW {stroke [] 0 setdash vpt 1.12 mul add M
  hpt neg vpt -1.62 mul V
  hpt 2 mul 0 V
  hpt neg vpt 1.62 mul V Opaque stroke} def
/TriDW {stroke [] 0 setdash vpt 1.12 mul sub M
  hpt neg vpt 1.62 mul V
  hpt 2 mul 0 V
  hpt neg vpt -1.62 mul V Opaque stroke} def
/PentW {stroke [] 0 setdash gsave
  translate 0 hpt M 4 {72 rotate 0 hpt L} repeat
  Opaque stroke grestore} def
/CircW {stroke [] 0 setdash 
  hpt 0 360 arc Opaque stroke} def
/BoxFill {gsave Rec 1 setgray fill grestore} def
/Density {
  /Fillden exch def
  currentrgbcolor
  /ColB exch def /ColG exch def /ColR exch def
  /ColR ColR Fillden mul Fillden sub 1 add def
  /ColG ColG Fillden mul Fillden sub 1 add def
  /ColB ColB Fillden mul Fillden sub 1 add def
  ColR ColG ColB setrgbcolor} def
/BoxColFill {gsave Rec PolyFill} def
/PolyFill {gsave Density fill grestore grestore} def
/h {rlineto rlineto rlineto gsave closepath fill grestore} bind def
%
% PostScript Level 1 Pattern Fill routine for rectangles
% Usage: x y w h s a XX PatternFill
%	x,y = lower left corner of box to be filled
%	w,h = width and height of box
%	  a = angle in degrees between lines and x-axis
%	 XX = 0/1 for no/yes cross-hatch
%
/PatternFill {gsave /PFa [ 9 2 roll ] def
  PFa 0 get PFa 2 get 2 div add PFa 1 get PFa 3 get 2 div add translate
  PFa 2 get -2 div PFa 3 get -2 div PFa 2 get PFa 3 get Rec
  TransparentPatterns {} {gsave 1 setgray fill grestore} ifelse
  clip
  currentlinewidth 0.5 mul setlinewidth
  /PFs PFa 2 get dup mul PFa 3 get dup mul add sqrt def
  0 0 M PFa 5 get rotate PFs -2 div dup translate
  0 1 PFs PFa 4 get div 1 add floor cvi
	{PFa 4 get mul 0 M 0 PFs V} for
  0 PFa 6 get ne {
	0 1 PFs PFa 4 get div 1 add floor cvi
	{PFa 4 get mul 0 2 1 roll M PFs 0 V} for
 } if
  stroke grestore} def
%
/languagelevel where
 {pop languagelevel} {1} ifelse
dup 2 lt
	{/InterpretLevel1 true def
	 /InterpretLevel3 false def}
	{/InterpretLevel1 Level1 def
	 2 gt
	    {/InterpretLevel3 Level3 def}
	    {/InterpretLevel3 false def}
	 ifelse }
 ifelse
%
% PostScript level 2 pattern fill definitions
%
/Level2PatternFill {
/Tile8x8 {/PaintType 2 /PatternType 1 /TilingType 1 /BBox [0 0 8 8] /XStep 8 /YStep 8}
	bind def
/KeepColor {currentrgbcolor [/Pattern /DeviceRGB] setcolorspace} bind def
<< Tile8x8
 /PaintProc {0.5 setlinewidth pop 0 0 M 8 8 L 0 8 M 8 0 L stroke} 
>> matrix makepattern
/Pat1 exch def
<< Tile8x8
 /PaintProc {0.5 setlinewidth pop 0 0 M 8 8 L 0 8 M 8 0 L stroke
	0 4 M 4 8 L 8 4 L 4 0 L 0 4 L stroke}
>> matrix makepattern
/Pat2 exch def
<< Tile8x8
 /PaintProc {0.5 setlinewidth pop 0 0 M 0 8 L
	8 8 L 8 0 L 0 0 L fill}
>> matrix makepattern
/Pat3 exch def
<< Tile8x8
 /PaintProc {0.5 setlinewidth pop -4 8 M 8 -4 L
	0 12 M 12 0 L stroke}
>> matrix makepattern
/Pat4 exch def
<< Tile8x8
 /PaintProc {0.5 setlinewidth pop -4 0 M 8 12 L
	0 -4 M 12 8 L stroke}
>> matrix makepattern
/Pat5 exch def
<< Tile8x8
 /PaintProc {0.5 setlinewidth pop -2 8 M 4 -4 L
	0 12 M 8 -4 L 4 12 M 10 0 L stroke}
>> matrix makepattern
/Pat6 exch def
<< Tile8x8
 /PaintProc {0.5 setlinewidth pop -2 0 M 4 12 L
	0 -4 M 8 12 L 4 -4 M 10 8 L stroke}
>> matrix makepattern
/Pat7 exch def
<< Tile8x8
 /PaintProc {0.5 setlinewidth pop 8 -2 M -4 4 L
	12 0 M -4 8 L 12 4 M 0 10 L stroke}
>> matrix makepattern
/Pat8 exch def
<< Tile8x8
 /PaintProc {0.5 setlinewidth pop 0 -2 M 12 4 L
	-4 0 M 12 8 L -4 4 M 8 10 L stroke}
>> matrix makepattern
/Pat9 exch def
/Pattern1 {PatternBgnd KeepColor Pat1 setpattern} bind def
/Pattern2 {PatternBgnd KeepColor Pat2 setpattern} bind def
/Pattern3 {PatternBgnd KeepColor Pat3 setpattern} bind def
/Pattern4 {PatternBgnd KeepColor Landscape {Pat5} {Pat4} ifelse setpattern} bind def
/Pattern5 {PatternBgnd KeepColor Landscape {Pat4} {Pat5} ifelse setpattern} bind def
/Pattern6 {PatternBgnd KeepColor Landscape {Pat9} {Pat6} ifelse setpattern} bind def
/Pattern7 {PatternBgnd KeepColor Landscape {Pat8} {Pat7} ifelse setpattern} bind def
} def
%
%
%End of PostScript Level 2 code
%
/PatternBgnd {
  TransparentPatterns {} {gsave 1 setgray fill grestore} ifelse
} def
%
% Substitute for Level 2 pattern fill codes with
% grayscale if Level 2 support is not selected.
%
/Level1PatternFill {
/Pattern1 {0.250 Density} bind def
/Pattern2 {0.500 Density} bind def
/Pattern3 {0.750 Density} bind def
/Pattern4 {0.125 Density} bind def
/Pattern5 {0.375 Density} bind def
/Pattern6 {0.625 Density} bind def
/Pattern7 {0.875 Density} bind def
} def
%
% Now test for support of Level 2 code
%
Level1 {Level1PatternFill} {Level2PatternFill} ifelse
%
/Symbol-Oblique /Symbol findfont [1 0 .167 1 0 0] makefont
dup length dict begin {1 index /FID eq {pop pop} {def} ifelse} forall
currentdict end definefont pop
%
/MFshow {
   { dup 5 get 3 ge
     { 5 get 3 eq {gsave} {grestore} ifelse }
     {dup dup 0 get findfont exch 1 get scalefont setfont
     [ currentpoint ] exch dup 2 get 0 exch R dup 5 get 2 ne {dup dup 6
     get exch 4 get {textshow} {stringwidth pop 0 R} ifelse }if dup 5 get 0 eq
     {dup 3 get {2 get neg 0 exch R pop} {pop aload pop M} ifelse} {dup 5
     get 1 eq {dup 2 get exch dup 3 get exch 6 get stringwidth pop -2 div
     dup 0 R} {dup 6 get stringwidth pop -2 div 0 R 6 get
     textshow 2 index {aload pop M neg 3 -1 roll neg R pop pop} {pop pop pop
     pop aload pop M} ifelse }ifelse }ifelse }
     ifelse }
   forall} def
/Gswidth {dup type /stringtype eq {stringwidth} {pop (n) stringwidth} ifelse} def
/MFwidth {0 exch { dup 5 get 3 ge { 5 get 3 eq { 0 } { pop } ifelse }
 {dup 3 get{dup dup 0 get findfont exch 1 get scalefont setfont
     6 get Gswidth pop add} {pop} ifelse} ifelse} forall} def
/MLshow { currentpoint stroke M
  0 exch R
  Blacktext {gsave 0 setgray MFshow grestore} {MFshow} ifelse } bind def
/MRshow { currentpoint stroke M
  exch dup MFwidth neg 3 -1 roll R
  Blacktext {gsave 0 setgray MFshow grestore} {MFshow} ifelse } bind def
/MCshow { currentpoint stroke M
  exch dup MFwidth -2 div 3 -1 roll R
  Blacktext {gsave 0 setgray MFshow grestore} {MFshow} ifelse } bind def
/XYsave    { [( ) 1 2 true false 3 ()] } bind def
/XYrestore { [( ) 1 2 true false 4 ()] } bind def
Level1 SuppressPDFMark or 
{} {
/SDict 10 dict def
systemdict /pdfmark known not {
  userdict /pdfmark systemdict /cleartomark get put
} if
SDict begin [
  /Title (isot_rad_param.eps)
  /Subject (gnuplot plot)
  /Creator (gnuplot 5.0 patchlevel 3)
  /Author (kb2)
%  /Producer (gnuplot)
%  /Keywords ()
  /CreationDate (Sun Jun 25 13:24:48 2017)
  /DOCINFO pdfmark
end
} ifelse
%
% Support for boxed text - Ethan A Merritt May 2005
%
/InitTextBox { userdict /TBy2 3 -1 roll put userdict /TBx2 3 -1 roll put
           userdict /TBy1 3 -1 roll put userdict /TBx1 3 -1 roll put
	   /Boxing true def } def
/ExtendTextBox { Boxing
    { gsave dup false charpath pathbbox
      dup TBy2 gt {userdict /TBy2 3 -1 roll put} {pop} ifelse
      dup TBx2 gt {userdict /TBx2 3 -1 roll put} {pop} ifelse
      dup TBy1 lt {userdict /TBy1 3 -1 roll put} {pop} ifelse
      dup TBx1 lt {userdict /TBx1 3 -1 roll put} {pop} ifelse
      grestore } if } def
/PopTextBox { newpath TBx1 TBxmargin sub TBy1 TBymargin sub M
               TBx1 TBxmargin sub TBy2 TBymargin add L
	       TBx2 TBxmargin add TBy2 TBymargin add L
	       TBx2 TBxmargin add TBy1 TBymargin sub L closepath } def
/DrawTextBox { PopTextBox stroke /Boxing false def} def
/FillTextBox { gsave PopTextBox 1 1 1 setrgbcolor fill grestore /Boxing false def} def
0 0 0 0 InitTextBox
/TBxmargin 20 def
/TBymargin 20 def
/Boxing false def
/textshow { ExtendTextBox Gshow } def
%
% redundant definitions for compatibility with prologue.ps older than 5.0.2
/LTB {BL [] LCb DL} def
/LTb {PL [] LCb DL} def
end
%%EndProlog
%%Page: 1 1
gnudict begin
gsave
doclip
50 50 translate
0.100 0.100 scale
90 rotate
0 -5040 translate
0 setgray
newpath
(Helvetica) findfont 140 scalefont setfont
BackgroundColor 0 lt 3 1 roll 0 lt exch 0 lt or or not {gsave BackgroundColor C clippath fill grestore} if
1.000 UL
LTb
LCb setrgbcolor
1.000 UL
LTa
0.50 0.50 0.50 C 864 3024 M
2591 0 V
stroke
LTb
LCb setrgbcolor
864 3024 M
63 0 V
2528 0 R
-63 0 V
stroke
780 3024 M
[ [(Helvetica) 140.0 0.0 true true 0 (3.38)]
] -46.7 MRshow
1.000 UL
LTb
LCb setrgbcolor
1.000 UL
LTa
0.50 0.50 0.50 C 864 3220 M
2591 0 V
stroke
LTb
LCb setrgbcolor
864 3220 M
63 0 V
2528 0 R
-63 0 V
stroke
780 3220 M
[ [(Helvetica) 140.0 0.0 true true 0 (3.40)]
] -46.7 MRshow
1.000 UL
LTb
LCb setrgbcolor
1.000 UL
LTa
0.50 0.50 0.50 C 864 3416 M
2591 0 V
stroke
LTb
LCb setrgbcolor
864 3416 M
63 0 V
2528 0 R
-63 0 V
stroke
780 3416 M
[ [(Helvetica) 140.0 0.0 true true 0 (3.42)]
] -46.7 MRshow
1.000 UL
LTb
LCb setrgbcolor
1.000 UL
LTa
0.50 0.50 0.50 C 864 3612 M
2591 0 V
stroke
LTb
LCb setrgbcolor
864 3612 M
63 0 V
2528 0 R
-63 0 V
stroke
780 3612 M
[ [(Helvetica) 140.0 0.0 true true 0 (3.44)]
] -46.7 MRshow
1.000 UL
LTb
LCb setrgbcolor
1.000 UL
LTa
0.50 0.50 0.50 C 864 3808 M
2591 0 V
stroke
LTb
LCb setrgbcolor
864 3808 M
63 0 V
2528 0 R
-63 0 V
stroke
780 3808 M
[ [(Helvetica) 140.0 0.0 true true 0 (3.46)]
] -46.7 MRshow
1.000 UL
LTb
LCb setrgbcolor
1.000 UL
LTa
0.50 0.50 0.50 C 864 4003 M
2591 0 V
stroke
LTb
LCb setrgbcolor
864 4003 M
63 0 V
2528 0 R
-63 0 V
stroke
780 4003 M
[ [(Helvetica) 140.0 0.0 true true 0 (3.48)]
] -46.7 MRshow
1.000 UL
LTb
LCb setrgbcolor
1.000 UL
LTa
0.50 0.50 0.50 C 864 4199 M
2591 0 V
stroke
LTb
LCb setrgbcolor
864 4199 M
63 0 V
2528 0 R
-63 0 V
stroke
780 4199 M
[ [(Helvetica) 140.0 0.0 true true 0 (3.50)]
] -46.7 MRshow
1.000 UL
LTb
LCb setrgbcolor
1.000 UL
LTa
0.50 0.50 0.50 C 864 4395 M
2591 0 V
stroke
LTb
LCb setrgbcolor
864 4395 M
63 0 V
2528 0 R
-63 0 V
stroke
780 4395 M
[ [(Helvetica) 140.0 0.0 true true 0 (3.52)]
] -46.7 MRshow
1.000 UL
LTb
LCb setrgbcolor
1.000 UL
LTa
0.50 0.50 0.50 C 864 4591 M
2591 0 V
stroke
LTb
LCb setrgbcolor
864 4591 M
63 0 V
2528 0 R
-63 0 V
stroke
780 4591 M
[ [(Helvetica) 140.0 0.0 true true 0 (3.54)]
] -46.7 MRshow
1.000 UL
LTb
LCb setrgbcolor
1.000 UL
LTa
0.50 0.50 0.50 C 864 4787 M
2591 0 V
stroke
LTb
LCb setrgbcolor
864 4787 M
63 0 V
2528 0 R
-63 0 V
stroke
780 4787 M
[ [(Helvetica) 140.0 0.0 true true 0 (3.56)]
] -46.7 MRshow
1.000 UL
LTb
LCb setrgbcolor
1.000 UL
LTa
0.50 0.50 0.50 C 864 3024 M
0 1763 V
stroke
LTb
LCb setrgbcolor
864 3024 M
0 63 V
0 1700 R
0 -63 V
stroke
864 2884 M
[ [(Helvetica) 140.0 0.0 true true 0 ( 10)]
] -46.7 MCshow
1.000 UL
LTb
LCb setrgbcolor
1.000 UL
LTa
0.50 0.50 0.50 C 1296 3024 M
0 1763 V
stroke
LTb
LCb setrgbcolor
1296 3024 M
0 63 V
0 1700 R
0 -63 V
stroke
1296 2884 M
[ [(Helvetica) 140.0 0.0 true true 0 ( 15)]
] -46.7 MCshow
1.000 UL
LTb
LCb setrgbcolor
1.000 UL
LTa
0.50 0.50 0.50 C 1728 3024 M
0 1763 V
stroke
LTb
LCb setrgbcolor
1728 3024 M
0 63 V
0 1700 R
0 -63 V
stroke
1728 2884 M
[ [(Helvetica) 140.0 0.0 true true 0 ( 20)]
] -46.7 MCshow
1.000 UL
LTb
LCb setrgbcolor
1.000 UL
LTa
0.50 0.50 0.50 C 2160 3024 M
0 1763 V
stroke
LTb
LCb setrgbcolor
2160 3024 M
0 63 V
0 1700 R
0 -63 V
stroke
2160 2884 M
[ [(Helvetica) 140.0 0.0 true true 0 ( 25)]
] -46.7 MCshow
1.000 UL
LTb
LCb setrgbcolor
1.000 UL
LTa
0.50 0.50 0.50 C 2591 3024 M
0 1763 V
stroke
LTb
LCb setrgbcolor
2591 3024 M
0 63 V
0 1700 R
0 -63 V
stroke
2591 2884 M
[ [(Helvetica) 140.0 0.0 true true 0 ( 30)]
] -46.7 MCshow
1.000 UL
LTb
LCb setrgbcolor
1.000 UL
LTa
0.50 0.50 0.50 C 3023 3024 M
0 1763 V
stroke
LTb
LCb setrgbcolor
3023 3024 M
0 63 V
0 1700 R
0 -63 V
stroke
3023 2884 M
[ [(Helvetica) 140.0 0.0 true true 0 ( 35)]
] -46.7 MCshow
1.000 UL
LTb
LCb setrgbcolor
1.000 UL
LTa
0.50 0.50 0.50 C 3455 3024 M
0 1763 V
stroke
LTb
LCb setrgbcolor
3455 3024 M
0 63 V
0 1700 R
0 -63 V
stroke
3455 2884 M
[ [(Helvetica) 140.0 0.0 true true 0 ( 40)]
] -46.7 MCshow
1.000 UL
LTb
LCb setrgbcolor
1.000 UL
LTB
LCb setrgbcolor
864 4787 N
0 -1763 V
2591 0 V
0 1763 V
-2591 0 V
Z stroke
1.000 UL
LTb
1.00 1.00 1.00 C 1.000 3028 3060 336 280 BoxColFill
LCb setrgbcolor
3028 3060 N
0 280 V
336 0 V
0 -280 V
-336 0 V
Z stroke
1.000 UP
1.000 UL
LTb
LCb setrgbcolor
LCb setrgbcolor
290 3905 M
currentpoint gsave translate -270 rotate 0 0 moveto
[ [(Helvetica) 140.0 0.0 true true 0 (r)]
[(Helvetica) 112.0 -42.0 true true 0 (p)]
] -32.7 MCshow
grestore
LTb
LCb setrgbcolor
2159 2674 M
[ [(Helvetica) 140.0 0.0 true true 0 (Nombre de neutrons)]
] -46.7 MCshow
LTb
% Begin plot #1
1.000 UP
1.000 UL
LTb
0.91 0.59 0.48 C 1209 3103 CircleF
1296 3093 CircleF
1382 3093 CircleF
1469 3112 CircleF
1555 3153 CircleF
1641 3210 CircleF
1728 3277 CircleF
1814 3304 CircleF
1900 3338 CircleF
1987 3376 CircleF
2073 3418 CircleF
2160 3464 CircleF
2246 3512 CircleF
2332 3562 CircleF
2419 3614 CircleF
2505 3712 CircleF
2591 3805 CircleF
2678 3895 CircleF
2764 3981 CircleF
2850 4088 CircleF
2937 4192 CircleF
3023 4350 CircleF
3110 4507 CircleF
% End plot #1
% Begin plot #2
2.000 UL
LTb
0.91 0.59 0.48 C 1209 3103 M
87 -10 V
86 0 V
87 19 V
86 41 V
86 57 V
87 67 V
86 27 V
86 34 V
87 38 V
86 42 V
87 46 V
86 48 V
86 50 V
87 52 V
86 98 V
86 93 V
87 90 V
86 86 V
86 107 V
87 104 V
86 158 V
87 157 V
% End plot #2
% Begin plot #3
1.000 UP
stroke
1.000 UL
LTb
0.55 0.00 0.00 C 1209 3188 TriUF
1296 3173 TriUF
1382 3176 TriUF
1469 3216 TriUF
1555 3272 TriUF
1641 3339 TriUF
1728 3413 TriUF
1814 3441 TriUF
1900 3474 TriUF
1987 3512 TriUF
2073 3553 TriUF
2160 3597 TriUF
2246 3642 TriUF
2332 3690 TriUF
2419 3738 TriUF
2505 3840 TriUF
2591 3941 TriUF
2678 4039 TriUF
2764 4135 TriUF
2850 4256 TriUF
2937 4375 TriUF
3023 4541 TriUF
3110 4705 TriUF
% End plot #3
% Begin plot #4
2.000 UL
LTb
0.55 0.00 0.00 C 1209 3188 M
87 -15 V
86 3 V
87 40 V
86 56 V
86 67 V
87 74 V
86 28 V
86 33 V
87 38 V
86 41 V
87 44 V
86 45 V
86 48 V
87 48 V
86 102 V
86 101 V
87 98 V
86 96 V
86 121 V
87 119 V
86 166 V
87 164 V
% End plot #4
stroke
LTb
LCb setrgbcolor
1.000 UL
LTB
LCb setrgbcolor
864 4787 N
0 -1763 V
2591 0 V
0 1763 V
-2591 0 V
Z stroke
1.000 UP
LCb setrgbcolor
3196 3200 M
[ [(Helvetica) 180.0 0.0 true true 0 (Ca)]
] -60.0 MCshow
1.000 UL
LTb
LCb setrgbcolor
1.000 UL
LTb
LCb setrgbcolor
1.000 UL
LTa
0.50 0.50 0.50 C 3744 3024 M
2591 0 V
stroke
LTb
LCb setrgbcolor
3744 3024 M
63 0 V
2528 0 R
-63 0 V
stroke
LTb
LCb setrgbcolor
1.000 UL
LTa
0.50 0.50 0.50 C 3744 3276 M
2591 0 V
stroke
LTb
LCb setrgbcolor
3744 3276 M
63 0 V
2528 0 R
-63 0 V
stroke
LTb
LCb setrgbcolor
1.000 UL
LTa
0.50 0.50 0.50 C 3744 3528 M
2591 0 V
stroke
LTb
LCb setrgbcolor
3744 3528 M
63 0 V
2528 0 R
-63 0 V
stroke
LTb
LCb setrgbcolor
1.000 UL
LTa
0.50 0.50 0.50 C 3744 3780 M
2591 0 V
stroke
LTb
LCb setrgbcolor
3744 3780 M
63 0 V
2528 0 R
-63 0 V
stroke
LTb
LCb setrgbcolor
1.000 UL
LTa
0.50 0.50 0.50 C 3744 4031 M
2591 0 V
stroke
LTb
LCb setrgbcolor
3744 4031 M
63 0 V
2528 0 R
-63 0 V
stroke
LTb
LCb setrgbcolor
1.000 UL
LTa
0.50 0.50 0.50 C 3744 4283 M
2591 0 V
stroke
LTb
LCb setrgbcolor
3744 4283 M
63 0 V
2528 0 R
-63 0 V
stroke
LTb
LCb setrgbcolor
1.000 UL
LTa
0.50 0.50 0.50 C 3744 4535 M
95 0 V
1071 0 R
1425 0 V
stroke
LTb
LCb setrgbcolor
3744 4535 M
63 0 V
2528 0 R
-63 0 V
stroke
LTb
LCb setrgbcolor
1.000 UL
LTa
0.50 0.50 0.50 C 3744 4787 M
2591 0 V
stroke
LTb
LCb setrgbcolor
3744 4787 M
63 0 V
2528 0 R
-63 0 V
stroke
LTb
LCb setrgbcolor
1.000 UL
LTa
0.50 0.50 0.50 C 3744 3024 M
0 1763 V
stroke
LTb
LCb setrgbcolor
3744 3024 M
0 63 V
0 1700 R
0 -63 V
stroke
3744 2884 M
[ [(Helvetica) 140.0 0.0 true true 0 ( 50)]
] -46.7 MCshow
1.000 UL
LTb
LCb setrgbcolor
1.000 UL
LTa
0.50 0.50 0.50 C 4068 3024 M
0 1382 V
0 240 R
0 141 V
stroke
LTb
LCb setrgbcolor
4068 3024 M
0 63 V
0 1700 R
0 -63 V
stroke
4068 2884 M
[ [(Helvetica) 140.0 0.0 true true 0 ( 55)]
] -46.7 MCshow
1.000 UL
LTb
LCb setrgbcolor
1.000 UL
LTa
0.50 0.50 0.50 C 4392 3024 M
0 1382 V
0 240 R
0 141 V
stroke
LTb
LCb setrgbcolor
4392 3024 M
0 63 V
0 1700 R
0 -63 V
stroke
4392 2884 M
[ [(Helvetica) 140.0 0.0 true true 0 ( 60)]
] -46.7 MCshow
1.000 UL
LTb
LCb setrgbcolor
1.000 UL
LTa
0.50 0.50 0.50 C 4716 3024 M
0 1382 V
0 240 R
0 141 V
stroke
LTb
LCb setrgbcolor
4716 3024 M
0 63 V
0 1700 R
0 -63 V
stroke
4716 2884 M
[ [(Helvetica) 140.0 0.0 true true 0 ( 65)]
] -46.7 MCshow
1.000 UL
LTb
LCb setrgbcolor
1.000 UL
LTa
0.50 0.50 0.50 C 5040 3024 M
0 1763 V
stroke
LTb
LCb setrgbcolor
5040 3024 M
0 63 V
0 1700 R
0 -63 V
stroke
5040 2884 M
[ [(Helvetica) 140.0 0.0 true true 0 ( 70)]
] -46.7 MCshow
1.000 UL
LTb
LCb setrgbcolor
1.000 UL
LTa
0.50 0.50 0.50 C 5363 3024 M
0 1763 V
stroke
LTb
LCb setrgbcolor
5363 3024 M
0 63 V
0 1700 R
0 -63 V
stroke
5363 2884 M
[ [(Helvetica) 140.0 0.0 true true 0 ( 75)]
] -46.7 MCshow
1.000 UL
LTb
LCb setrgbcolor
1.000 UL
LTa
0.50 0.50 0.50 C 5687 3024 M
0 1763 V
stroke
LTb
LCb setrgbcolor
5687 3024 M
0 63 V
0 1700 R
0 -63 V
stroke
5687 2884 M
[ [(Helvetica) 140.0 0.0 true true 0 ( 80)]
] -46.7 MCshow
1.000 UL
LTb
LCb setrgbcolor
1.000 UL
LTa
0.50 0.50 0.50 C 6011 3024 M
0 1763 V
stroke
LTb
LCb setrgbcolor
6011 3024 M
0 63 V
0 1700 R
0 -63 V
stroke
6011 2884 M
[ [(Helvetica) 140.0 0.0 true true 0 ( 85)]
] -46.7 MCshow
1.000 UL
LTb
LCb setrgbcolor
1.000 UL
LTa
0.50 0.50 0.50 C 6335 3024 M
0 1763 V
stroke
LTb
LCb setrgbcolor
6335 3024 M
0 63 V
0 1700 R
0 -63 V
stroke
6335 2884 M
[ [(Helvetica) 140.0 0.0 true true 0 ( 90)]
] -46.7 MCshow
1.000 UL
LTb
LCb setrgbcolor
6335 3024 M
-63 0 V
stroke
6419 3024 M
[ [(Helvetica) 140.0 0.0 true true 0 ( 4.4)]
] -46.7 MLshow
1.000 UL
LTb
LCb setrgbcolor
6335 3276 M
-63 0 V
stroke
6419 3276 M
[ [(Helvetica) 140.0 0.0 true true 0 ( 4.45)]
] -46.7 MLshow
1.000 UL
LTb
LCb setrgbcolor
6335 3528 M
-63 0 V
stroke
6419 3528 M
[ [(Helvetica) 140.0 0.0 true true 0 ( 4.5)]
] -46.7 MLshow
1.000 UL
LTb
LCb setrgbcolor
6335 3780 M
-63 0 V
stroke
6419 3780 M
[ [(Helvetica) 140.0 0.0 true true 0 ( 4.55)]
] -46.7 MLshow
1.000 UL
LTb
LCb setrgbcolor
6335 4031 M
-63 0 V
stroke
6419 4031 M
[ [(Helvetica) 140.0 0.0 true true 0 ( 4.6)]
] -46.7 MLshow
1.000 UL
LTb
LCb setrgbcolor
6335 4283 M
-63 0 V
stroke
6419 4283 M
[ [(Helvetica) 140.0 0.0 true true 0 ( 4.65)]
] -46.7 MLshow
1.000 UL
LTb
LCb setrgbcolor
6335 4535 M
-63 0 V
stroke
6419 4535 M
[ [(Helvetica) 140.0 0.0 true true 0 ( 4.7)]
] -46.7 MLshow
1.000 UL
LTb
LCb setrgbcolor
6335 4787 M
-63 0 V
stroke
6419 4787 M
[ [(Helvetica) 140.0 0.0 true true 0 ( 4.75)]
] -46.7 MLshow
1.000 UL
LTb
LCb setrgbcolor
1.000 UL
LTB
LCb setrgbcolor
3744 4787 N
0 -1763 V
2591 0 V
0 1763 V
-2591 0 V
Z stroke
1.000 UL
LTb
1.00 1.00 1.00 C 1.000 5908 3060 336 280 BoxColFill
LCb setrgbcolor
5908 3060 N
0 280 V
336 0 V
0 -280 V
-336 0 V
Z stroke
1.000 UP
1.000 UL
LTb
LCb setrgbcolor
LCb setrgbcolor
6992 3905 M
currentpoint gsave translate -270 rotate 0 0 moveto
[ [(Helvetica) 140.0 0.0 true true 0 (r)]
[(Helvetica) 112.0 -42.0 true true 0 (p)]
] -32.7 MCshow
grestore
LTb
LCb setrgbcolor
5039 2674 M
[ [(Helvetica) 140.0 0.0 true true 0 (Nombre de neutrons)]
] -46.7 MCshow
LTb
1.000 UL
LTb
LCb setrgbcolor
3839 4406 N
0 240 V
1071 0 V
0 -240 V
-1071 0 V
Z stroke
% Begin plot #1
1.000 UP
1.000 UL
LTb
0.91 0.59 0.48 C LCb setrgbcolor
4415 4586 M
[ [(Helvetica) 120.0 0.0 true true 0 (SN2LO1)]
] -40.0 MRshow
1.000 UP
1.000 UL
LTb
0.91 0.59 0.48 C 3744 3098 CircleF
3809 3125 CircleF
3874 3151 CircleF
3938 3178 CircleF
4003 3204 CircleF
4068 3230 CircleF
4133 3257 CircleF
4197 3316 CircleF
4262 3375 CircleF
4327 3435 CircleF
4392 3494 CircleF
4457 3553 CircleF
4521 3612 CircleF
4586 3671 CircleF
4651 3729 CircleF
4716 3755 CircleF
4780 3779 CircleF
4845 3815 CircleF
4910 3850 CircleF
4975 3886 CircleF
5040 3920 CircleF
5104 3949 CircleF
5169 3978 CircleF
5234 4007 CircleF
5299 4036 CircleF
5363 4066 CircleF
5428 4095 CircleF
5493 4125 CircleF
5558 4155 CircleF
5622 4186 CircleF
5687 4216 CircleF
5752 4247 CircleF
5817 4277 CircleF
5882 4309 CircleF
5946 4341 CircleF
6011 4372 CircleF
6076 4403 CircleF
6141 4434 CircleF
4662 4586 CircleF
% End plot #1
% Begin plot #2
2.000 UL
LTb
0.91 0.59 0.48 C 3744 3098 M
65 27 V
65 26 V
64 27 V
65 26 V
65 26 V
65 27 V
64 59 V
65 59 V
65 60 V
65 59 V
65 59 V
64 59 V
65 59 V
65 58 V
65 26 V
64 24 V
65 36 V
65 35 V
65 36 V
65 34 V
64 29 V
65 29 V
65 29 V
65 29 V
64 30 V
65 29 V
65 30 V
65 30 V
64 31 V
65 30 V
65 31 V
65 30 V
65 32 V
64 32 V
65 31 V
65 31 V
65 31 V
% End plot #2
% Begin plot #3
1.000 UP
stroke
1.000 UL
LTb
0.55 0.00 0.00 C LCb setrgbcolor
4415 4466 M
[ [(Helvetica) 120.0 0.0 true true 0 (SLy4)]
] -40.0 MRshow
1.000 UP
1.000 UL
LTb
0.55 0.00 0.00 C 3744 3169 TriUF
3809 3198 TriUF
3874 3227 TriUF
3938 3256 TriUF
4003 3285 TriUF
4068 3314 TriUF
4133 3343 TriUF
4197 3402 TriUF
4262 3461 TriUF
4327 3519 TriUF
4392 3578 TriUF
4457 3635 TriUF
4521 3693 TriUF
4586 3750 TriUF
4651 3807 TriUF
4716 3835 TriUF
4780 3864 TriUF
4845 3902 TriUF
4910 3940 TriUF
4975 3977 TriUF
5040 4014 TriUF
5104 4045 TriUF
5169 4075 TriUF
5234 4106 TriUF
5299 4137 TriUF
5363 4168 TriUF
5428 4198 TriUF
5493 4229 TriUF
5558 4260 TriUF
5622 4290 TriUF
5687 4320 TriUF
5752 4351 TriUF
5817 4381 TriUF
5882 4415 TriUF
5946 4449 TriUF
6011 4482 TriUF
6076 4515 TriUF
6141 4548 TriUF
4662 4466 TriUF
% End plot #3
% Begin plot #4
2.000 UL
LTb
0.55 0.00 0.00 C 3744 3169 M
65 29 V
65 29 V
64 29 V
65 29 V
65 29 V
65 29 V
64 59 V
65 59 V
65 58 V
65 59 V
65 57 V
64 58 V
65 57 V
65 57 V
65 28 V
64 29 V
65 38 V
65 38 V
65 37 V
65 37 V
64 31 V
65 30 V
65 31 V
65 31 V
64 31 V
65 30 V
65 31 V
65 31 V
64 30 V
65 30 V
65 31 V
65 30 V
65 34 V
64 34 V
65 33 V
65 33 V
65 33 V
% End plot #4
stroke
LTb
LCb setrgbcolor
1.000 UL
LTB
LCb setrgbcolor
3744 4787 N
0 -1763 V
2591 0 V
0 1763 V
-2591 0 V
Z stroke
1.000 UP
LCb setrgbcolor
6076 3200 M
[ [(Helvetica) 180.0 0.0 true true 0 (Sn)]
] -60.0 MCshow
1.000 UL
LTb
LCb setrgbcolor
1.000 UL
LTb
LCb setrgbcolor
1.000 UL
LTa
0.50 0.50 0.50 C 864 756 M
2591 0 V
stroke
LTb
LCb setrgbcolor
864 756 M
63 0 V
2528 0 R
-63 0 V
stroke
780 756 M
[ [(Helvetica) 140.0 0.0 true true 0 (3.65)]
] -46.7 MRshow
1.000 UL
LTb
LCb setrgbcolor
1.000 UL
LTa
0.50 0.50 0.50 C 864 1050 M
2591 0 V
stroke
LTb
LCb setrgbcolor
864 1050 M
63 0 V
2528 0 R
-63 0 V
stroke
780 1050 M
[ [(Helvetica) 140.0 0.0 true true 0 (3.70)]
] -46.7 MRshow
1.000 UL
LTb
LCb setrgbcolor
1.000 UL
LTa
0.50 0.50 0.50 C 864 1344 M
2591 0 V
stroke
LTb
LCb setrgbcolor
864 1344 M
63 0 V
2528 0 R
-63 0 V
stroke
780 1344 M
[ [(Helvetica) 140.0 0.0 true true 0 (3.75)]
] -46.7 MRshow
1.000 UL
LTb
LCb setrgbcolor
1.000 UL
LTa
0.50 0.50 0.50 C 864 1637 M
2591 0 V
stroke
LTb
LCb setrgbcolor
864 1637 M
63 0 V
2528 0 R
-63 0 V
stroke
780 1637 M
[ [(Helvetica) 140.0 0.0 true true 0 (3.80)]
] -46.7 MRshow
1.000 UL
LTb
LCb setrgbcolor
1.000 UL
LTa
0.50 0.50 0.50 C 864 1931 M
2591 0 V
stroke
LTb
LCb setrgbcolor
864 1931 M
63 0 V
2528 0 R
-63 0 V
stroke
780 1931 M
[ [(Helvetica) 140.0 0.0 true true 0 (3.85)]
] -46.7 MRshow
1.000 UL
LTb
LCb setrgbcolor
1.000 UL
LTa
0.50 0.50 0.50 C 864 2225 M
2591 0 V
stroke
LTb
LCb setrgbcolor
864 2225 M
63 0 V
2528 0 R
-63 0 V
stroke
780 2225 M
[ [(Helvetica) 140.0 0.0 true true 0 (3.90)]
] -46.7 MRshow
1.000 UL
LTb
LCb setrgbcolor
1.000 UL
LTa
0.50 0.50 0.50 C 864 2519 M
2591 0 V
stroke
LTb
LCb setrgbcolor
864 2519 M
63 0 V
2528 0 R
-63 0 V
stroke
780 2519 M
[ [(Helvetica) 140.0 0.0 true true 0 (3.95)]
] -46.7 MRshow
1.000 UL
LTb
LCb setrgbcolor
1.000 UL
LTa
0.50 0.50 0.50 C 864 756 M
0 1763 V
stroke
LTb
LCb setrgbcolor
864 756 M
0 63 V
0 1700 R
0 -63 V
stroke
864 616 M
[ [(Helvetica) 140.0 0.0 true true 0 ( 20)]
] -46.7 MCshow
1.000 UL
LTb
LCb setrgbcolor
1.000 UL
LTa
0.50 0.50 0.50 C 1296 756 M
0 1763 V
stroke
LTb
LCb setrgbcolor
1296 756 M
0 63 V
0 1700 R
0 -63 V
stroke
1296 616 M
[ [(Helvetica) 140.0 0.0 true true 0 ( 25)]
] -46.7 MCshow
1.000 UL
LTb
LCb setrgbcolor
1.000 UL
LTa
0.50 0.50 0.50 C 1728 756 M
0 1763 V
stroke
LTb
LCb setrgbcolor
1728 756 M
0 63 V
0 1700 R
0 -63 V
stroke
1728 616 M
[ [(Helvetica) 140.0 0.0 true true 0 ( 30)]
] -46.7 MCshow
1.000 UL
LTb
LCb setrgbcolor
1.000 UL
LTa
0.50 0.50 0.50 C 2160 756 M
0 1763 V
stroke
LTb
LCb setrgbcolor
2160 756 M
0 63 V
0 1700 R
0 -63 V
stroke
2160 616 M
[ [(Helvetica) 140.0 0.0 true true 0 ( 35)]
] -46.7 MCshow
1.000 UL
LTb
LCb setrgbcolor
1.000 UL
LTa
0.50 0.50 0.50 C 2591 756 M
0 1763 V
stroke
LTb
LCb setrgbcolor
2591 756 M
0 63 V
0 1700 R
0 -63 V
stroke
2591 616 M
[ [(Helvetica) 140.0 0.0 true true 0 ( 40)]
] -46.7 MCshow
1.000 UL
LTb
LCb setrgbcolor
1.000 UL
LTa
0.50 0.50 0.50 C 3023 756 M
0 1763 V
stroke
LTb
LCb setrgbcolor
3023 756 M
0 63 V
0 1700 R
0 -63 V
stroke
3023 616 M
[ [(Helvetica) 140.0 0.0 true true 0 ( 45)]
] -46.7 MCshow
1.000 UL
LTb
LCb setrgbcolor
1.000 UL
LTa
0.50 0.50 0.50 C 3455 756 M
0 1763 V
stroke
LTb
LCb setrgbcolor
3455 756 M
0 63 V
0 1700 R
0 -63 V
stroke
3455 616 M
[ [(Helvetica) 140.0 0.0 true true 0 ( 50)]
] -46.7 MCshow
1.000 UL
LTb
LCb setrgbcolor
1.000 UL
LTB
LCb setrgbcolor
864 2519 N
864 756 L
2591 0 V
0 1763 V
-2591 0 V
Z stroke
1.000 UL
LTb
1.00 1.00 1.00 C 1.000 3028 792 336 280 BoxColFill
LCb setrgbcolor
3028 792 N
0 280 V
336 0 V
0 -280 V
-336 0 V
Z stroke
1.000 UP
1.000 UL
LTb
LCb setrgbcolor
LCb setrgbcolor
290 1637 M
currentpoint gsave translate -270 rotate 0 0 moveto
[ [(Helvetica) 140.0 0.0 true true 0 ( r)]
[(Helvetica) 112.0 -42.0 true true 0 (p)]
] -32.7 MCshow
grestore
LTb
LCb setrgbcolor
2159 406 M
[ [(Helvetica) 140.0 0.0 true true 0 (Nombre de neutrons)]
] -46.7 MCshow
LTb
% Begin plot #1
1.000 UP
1.000 UL
LTb
0.91 0.59 0.48 C 864 1040 CircleF
950 1008 CircleF
1037 988 CircleF
1123 976 CircleF
1209 970 CircleF
1296 970 CircleF
1382 975 CircleF
1469 983 CircleF
1555 994 CircleF
1641 1030 CircleF
1728 1066 CircleF
1814 1099 CircleF
1900 1132 CircleF
1987 1181 CircleF
2073 1229 CircleF
2160 1322 CircleF
2246 1415 CircleF
2332 1506 CircleF
2419 1597 CircleF
2505 1687 CircleF
2591 1776 CircleF
2678 1820 CircleF
2764 1865 CircleF
2850 1910 CircleF
2937 1955 CircleF
3023 2000 CircleF
3110 2046 CircleF
3196 2092 CircleF
3282 2138 CircleF
3369 2184 CircleF
3455 2230 CircleF
% End plot #1
% Begin plot #2
2.000 UL
LTb
0.91 0.59 0.48 C 864 1040 M
86 -32 V
87 -20 V
86 -12 V
86 -6 V
87 0 V
86 5 V
87 8 V
86 11 V
86 36 V
87 36 V
86 33 V
86 33 V
87 49 V
86 48 V
87 93 V
86 93 V
86 91 V
87 91 V
86 90 V
86 89 V
87 44 V
86 45 V
86 45 V
87 45 V
86 45 V
87 46 V
86 46 V
86 46 V
87 46 V
86 46 V
% End plot #2
% Begin plot #3
1.000 UP
stroke
1.000 UL
LTb
0.55 0.00 0.00 C 864 1046 TriUF
950 1027 TriUF
1037 1017 TriUF
1123 1013 TriUF
1209 1016 TriUF
1296 1022 TriUF
1382 1032 TriUF
1469 1045 TriUF
1555 1061 TriUF
1641 1102 TriUF
1728 1143 TriUF
1814 1184 TriUF
1900 1225 TriUF
1987 1285 TriUF
2073 1343 TriUF
2160 1433 TriUF
2246 1521 TriUF
2332 1609 TriUF
2419 1695 TriUF
2505 1780 TriUF
2591 1864 TriUF
2678 1913 TriUF
2764 1961 TriUF
2850 2009 TriUF
2937 2057 TriUF
3023 2105 TriUF
3110 2153 TriUF
3196 2200 TriUF
3282 2246 TriUF
3369 2292 TriUF
3455 2338 TriUF
% End plot #3
% Begin plot #4
2.000 UL
LTb
0.55 0.00 0.00 C 864 1046 M
86 -19 V
87 -10 V
86 -4 V
86 3 V
87 6 V
86 10 V
87 13 V
86 16 V
86 41 V
87 41 V
86 41 V
86 41 V
87 60 V
86 58 V
87 90 V
86 88 V
86 88 V
87 86 V
86 85 V
86 84 V
87 49 V
86 48 V
86 48 V
87 48 V
86 48 V
87 48 V
86 47 V
86 46 V
87 46 V
86 46 V
% End plot #4
stroke
LTb
LCb setrgbcolor
1.000 UL
LTB
LCb setrgbcolor
864 2519 N
864 756 L
2591 0 V
0 1763 V
-2591 0 V
Z stroke
1.000 UP
LCb setrgbcolor
3196 932 M
[ [(Helvetica) 180.0 0.0 true true 0 (Ni)]
] -60.0 MCshow
1.000 UL
LTb
LCb setrgbcolor
1.000 UL
LTb
LCb setrgbcolor
1.000 UL
LTa
0.50 0.50 0.50 C 3744 756 M
2591 0 V
stroke
LTb
LCb setrgbcolor
3744 756 M
63 0 V
2528 0 R
-63 0 V
stroke
LTb
LCb setrgbcolor
1.000 UL
LTa
0.50 0.50 0.50 C 3744 1109 M
2591 0 V
stroke
LTb
LCb setrgbcolor
3744 1109 M
63 0 V
2528 0 R
-63 0 V
stroke
LTb
LCb setrgbcolor
1.000 UL
LTa
0.50 0.50 0.50 C 3744 1461 M
2591 0 V
stroke
LTb
LCb setrgbcolor
3744 1461 M
63 0 V
2528 0 R
-63 0 V
stroke
LTb
LCb setrgbcolor
1.000 UL
LTa
0.50 0.50 0.50 C 3744 1814 M
2591 0 V
stroke
LTb
LCb setrgbcolor
3744 1814 M
63 0 V
2528 0 R
-63 0 V
stroke
LTb
LCb setrgbcolor
1.000 UL
LTa
0.50 0.50 0.50 C 3744 2166 M
2591 0 V
stroke
LTb
LCb setrgbcolor
3744 2166 M
63 0 V
2528 0 R
-63 0 V
stroke
LTb
LCb setrgbcolor
1.000 UL
LTa
0.50 0.50 0.50 C 3744 2519 M
2591 0 V
stroke
LTb
LCb setrgbcolor
3744 2519 M
63 0 V
2528 0 R
-63 0 V
stroke
LTb
LCb setrgbcolor
1.000 UL
LTa
0.50 0.50 0.50 C 3744 756 M
0 1763 V
stroke
LTb
LCb setrgbcolor
3744 756 M
0 63 V
0 1700 R
0 -63 V
stroke
3744 616 M
[ [(Helvetica) 140.0 0.0 true true 0 ( 95)]
] -46.7 MCshow
1.000 UL
LTb
LCb setrgbcolor
1.000 UL
LTa
0.50 0.50 0.50 C 4068 756 M
0 1763 V
stroke
LTb
LCb setrgbcolor
4068 756 M
0 63 V
0 1700 R
0 -63 V
stroke
4068 616 M
[ [(Helvetica) 140.0 0.0 true true 0 ( 100)]
] -46.7 MCshow
1.000 UL
LTb
LCb setrgbcolor
1.000 UL
LTa
0.50 0.50 0.50 C 4392 756 M
0 1763 V
stroke
LTb
LCb setrgbcolor
4392 756 M
0 63 V
0 1700 R
0 -63 V
stroke
4392 616 M
[ [(Helvetica) 140.0 0.0 true true 0 ( 105)]
] -46.7 MCshow
1.000 UL
LTb
LCb setrgbcolor
1.000 UL
LTa
0.50 0.50 0.50 C 4716 756 M
0 1763 V
stroke
LTb
LCb setrgbcolor
4716 756 M
0 63 V
0 1700 R
0 -63 V
stroke
4716 616 M
[ [(Helvetica) 140.0 0.0 true true 0 ( 110)]
] -46.7 MCshow
1.000 UL
LTb
LCb setrgbcolor
1.000 UL
LTa
0.50 0.50 0.50 C 5040 756 M
0 1763 V
stroke
LTb
LCb setrgbcolor
5040 756 M
0 63 V
0 1700 R
0 -63 V
stroke
5040 616 M
[ [(Helvetica) 140.0 0.0 true true 0 ( 115)]
] -46.7 MCshow
1.000 UL
LTb
LCb setrgbcolor
1.000 UL
LTa
0.50 0.50 0.50 C 5363 756 M
0 1763 V
stroke
LTb
LCb setrgbcolor
5363 756 M
0 63 V
0 1700 R
0 -63 V
stroke
5363 616 M
[ [(Helvetica) 140.0 0.0 true true 0 ( 120)]
] -46.7 MCshow
1.000 UL
LTb
LCb setrgbcolor
1.000 UL
LTa
0.50 0.50 0.50 C 5687 756 M
0 1763 V
stroke
LTb
LCb setrgbcolor
5687 756 M
0 63 V
0 1700 R
0 -63 V
stroke
5687 616 M
[ [(Helvetica) 140.0 0.0 true true 0 ( 125)]
] -46.7 MCshow
1.000 UL
LTb
LCb setrgbcolor
1.000 UL
LTa
0.50 0.50 0.50 C 6011 756 M
0 1763 V
stroke
LTb
LCb setrgbcolor
6011 756 M
0 63 V
0 1700 R
0 -63 V
stroke
6011 616 M
[ [(Helvetica) 140.0 0.0 true true 0 ( 130)]
] -46.7 MCshow
1.000 UL
LTb
LCb setrgbcolor
1.000 UL
LTa
0.50 0.50 0.50 C 6335 756 M
0 1763 V
stroke
LTb
LCb setrgbcolor
6335 756 M
0 63 V
0 1700 R
0 -63 V
stroke
6335 616 M
[ [(Helvetica) 140.0 0.0 true true 0 ( 135)]
] -46.7 MCshow
1.000 UL
LTb
LCb setrgbcolor
6335 756 M
-63 0 V
stroke
6419 756 M
[ [(Helvetica) 140.0 0.0 true true 0 ( 5.25)]
] -46.7 MLshow
1.000 UL
LTb
LCb setrgbcolor
6335 1109 M
-63 0 V
stroke
6419 1109 M
[ [(Helvetica) 140.0 0.0 true true 0 ( 5.3)]
] -46.7 MLshow
1.000 UL
LTb
LCb setrgbcolor
6335 1461 M
-63 0 V
stroke
6419 1461 M
[ [(Helvetica) 140.0 0.0 true true 0 ( 5.35)]
] -46.7 MLshow
1.000 UL
LTb
LCb setrgbcolor
6335 1814 M
-63 0 V
stroke
6419 1814 M
[ [(Helvetica) 140.0 0.0 true true 0 ( 5.4)]
] -46.7 MLshow
1.000 UL
LTb
LCb setrgbcolor
6335 2166 M
-63 0 V
stroke
6419 2166 M
[ [(Helvetica) 140.0 0.0 true true 0 ( 5.45)]
] -46.7 MLshow
1.000 UL
LTb
LCb setrgbcolor
6335 2519 M
-63 0 V
stroke
6419 2519 M
[ [(Helvetica) 140.0 0.0 true true 0 ( 5.5)]
] -46.7 MLshow
1.000 UL
LTb
LCb setrgbcolor
1.000 UL
LTB
LCb setrgbcolor
3744 2519 N
0 -1763 V
2591 0 V
0 1763 V
-2591 0 V
Z stroke
1.000 UL
LTb
1.00 1.00 1.00 C 1.000 5908 792 336 280 BoxColFill
LCb setrgbcolor
5908 792 N
0 280 V
336 0 V
0 -280 V
-336 0 V
Z stroke
1.000 UP
1.000 UL
LTb
LCb setrgbcolor
LCb setrgbcolor
6992 1637 M
currentpoint gsave translate -270 rotate 0 0 moveto
[ [(Helvetica) 140.0 0.0 true true 0 (r)]
[(Helvetica) 112.0 -42.0 true true 0 (p)]
] -32.7 MCshow
grestore
LTb
LCb setrgbcolor
5039 406 M
[ [(Helvetica) 140.0 0.0 true true 0 (Nombre de neutrons)]
] -46.7 MCshow
LTb
% Begin plot #1
1.000 UP
1.000 UL
LTb
0.91 0.59 0.48 C 3809 950 CircleF
3874 1010 CircleF
3938 1070 CircleF
4003 1130 CircleF
4068 1190 CircleF
4133 1224 CircleF
4197 1257 CircleF
4262 1292 CircleF
4327 1326 CircleF
4392 1361 CircleF
4457 1396 CircleF
4521 1431 CircleF
4586 1475 CircleF
4651 1519 CircleF
4716 1552 CircleF
4780 1580 CircleF
4845 1631 CircleF
4910 1661 CircleF
4975 1710 CircleF
5040 1735 CircleF
5104 1784 CircleF
5169 1814 CircleF
5234 1858 CircleF
5299 1892 CircleF
5363 1931 CircleF
5428 1949 CircleF
5493 1968 CircleF
5558 1988 CircleF
5622 2009 CircleF
5687 2036 CircleF
5752 2064 CircleF
5817 2100 CircleF
5882 2137 CircleF
5946 2173 CircleF
6011 2209 CircleF
6076 2246 CircleF
6141 2281 CircleF
6205 2317 CircleF
% End plot #1
% Begin plot #2
2.000 UL
LTb
0.91 0.59 0.48 C 3809 950 M
65 60 V
64 60 V
65 60 V
65 60 V
65 34 V
64 33 V
65 35 V
65 34 V
65 35 V
65 35 V
64 35 V
65 44 V
65 44 V
65 33 V
64 28 V
65 51 V
65 30 V
65 49 V
65 25 V
64 49 V
65 30 V
65 44 V
65 34 V
64 39 V
65 18 V
65 19 V
65 20 V
64 21 V
65 27 V
65 28 V
65 36 V
65 37 V
64 36 V
65 36 V
65 37 V
65 35 V
64 36 V
% End plot #2
% Begin plot #3
1.000 UP
stroke
1.000 UL
LTb
0.55 0.00 0.00 C 3809 1078 TriUF
3874 1136 TriUF
3938 1195 TriUF
4003 1254 TriUF
4068 1312 TriUF
4133 1347 TriUF
4197 1383 TriUF
4262 1419 TriUF
4327 1455 TriUF
4392 1491 TriUF
4457 1527 TriUF
4521 1563 TriUF
4586 1599 TriUF
4651 1635 TriUF
4716 1672 TriUF
4780 1708 TriUF
4845 1745 TriUF
4910 1781 TriUF
4975 1818 TriUF
5040 1840 TriUF
5104 1864 TriUF
5169 1889 TriUF
5234 1914 TriUF
5299 1956 TriUF
5363 1997 TriUF
5428 2038 TriUF
5493 2079 TriUF
5558 2119 TriUF
5622 2159 TriUF
5687 2190 TriUF
5752 2220 TriUF
5817 2259 TriUF
5882 2298 TriUF
5946 2336 TriUF
6011 2374 TriUF
6076 2412 TriUF
6141 2450 TriUF
6205 2487 TriUF
% End plot #3
% Begin plot #4
2.000 UL
LTb
0.55 0.00 0.00 C 3809 1078 M
65 58 V
64 59 V
65 59 V
65 58 V
65 35 V
64 36 V
65 36 V
65 36 V
65 36 V
65 36 V
64 36 V
65 36 V
65 36 V
65 37 V
64 36 V
65 37 V
65 36 V
65 37 V
65 22 V
64 24 V
65 25 V
65 25 V
65 42 V
64 41 V
65 41 V
65 41 V
65 40 V
64 40 V
65 31 V
65 30 V
65 39 V
65 39 V
64 38 V
65 38 V
65 38 V
65 38 V
64 37 V
% End plot #4
stroke
LTb
LCb setrgbcolor
1.000 UL
LTB
LCb setrgbcolor
3744 2519 N
0 -1763 V
2591 0 V
0 1763 V
-2591 0 V
Z stroke
1.000 UP
LCb setrgbcolor
6076 932 M
[ [(Helvetica) 180.0 0.0 true true 0 (Pb)]
] -60.0 MCshow
1.000 UL
LTb
LCb setrgbcolor
stroke
grestore
end
showpage
%%Trailer
%%DocumentFonts: Helvetica
%%Pages: 1
