%!PS-Adobe-3.0 EPSF-3.0
%%BoundingBox: (atend)
%%LanguageLevel: 2
%%Creator: Grace-5.1.24
%%CreationDate: Tue Feb 24 09:47:57 2015
%%DocumentData: Clean8Bit
%%Orientation: Portrait
%%Title: JLS.agr
%%For: navarro
%%DocumentNeededResources: (atend)
%%EndComments
%%BeginProlog
/m {moveto} def
/l {lineto} def
/s {stroke} def
/n {newpath} def
/c {closepath} def
/RL {rlineto} def
/SLW {setlinewidth} def
/GS {gsave} def
/GR {grestore} def
/SC {setcolor} def
/SGRY {setgray} def
/SRGB {setrgbcolor} def
/SD {setdash} def
/SLC {setlinecap} def
/SLJ {setlinejoin} def
/SCS {setcolorspace} def
/FFSF {findfont setfont} def
/CC {concat} def
/PXL {n m 0 0 RL s} def
/Color0 {1.0000 1.0000 1.0000} def
/Color1 {0.0000 0.0000 0.0000} def
/Color2 {1.0000 0.0000 0.0000} def
/Color3 {0.0000 1.0000 0.0000} def
/Color4 {0.0000 0.0000 1.0000} def
/Color5 {1.0000 1.0000 0.0000} def
/Color6 {0.7373 0.5608 0.5608} def
/Color7 {0.8627 0.8627 0.8627} def
/Color8 {0.5804 0.0000 0.8275} def
/Color9 {0.0000 1.0000 1.0000} def
/Color10 {1.0000 0.0000 1.0000} def
/Color11 {1.0000 0.6471 0.0000} def
/Color12 {0.4471 0.1294 0.7373} def
/Color13 {0.4039 0.0275 0.2824} def
/Color14 {0.2510 0.8784 0.8157} def
/Color15 {0.0000 0.5451 0.0000} def
/Color16 {0.7529 0.7529 0.7529} def
/Color17 {0.5059 0.5059 0.5059} def
/Color18 {0.2588 0.2588 0.2588} def
/PTRN {
 /pat_bits exch def 
 <<
  /PaintType 2
  /PatternType 1 /TilingType 1
  /BBox[0 0 16 16]
  /XStep 16 /YStep 16
  /PaintProc {
   pop
   16 16 true [-1 0 0 -1 16 16] pat_bits imagemask
  }
 >>
 [0.0016 0 0 0.0016 0 0]
 makepattern
} def
/Pattern0 {<0000000000000000000000000000000000000000000000000000000000000000> PTRN} bind def
/Pattern1 {<ffffffffffffffffffffffffffffffffffffffffffffffffffffffffffffffff> PTRN} bind def
/Pattern2 {<eeeeffffbbbbffffeeeeffffbbbbffffeeeeffffbbbbffffeeeeffffbbbbffff> PTRN} bind def
/Pattern3 {<eeeebbbbeeeebbbbeeeebbbbeeeebbbbeeeebbbbeeeebbbbeeeebbbbeeeebbbb> PTRN} bind def
/Pattern4 {<5555aaaa5555aaaa5555aaaa5555aaaa5555aaaa5555aaaa5555aaaa5555aaaa> PTRN} bind def
/Pattern5 {<1111444411114444111144441111444411114444111144441111444411114444> PTRN} bind def
/Pattern6 {<1111000044440000111100004444000011110000444400001111000044440000> PTRN} bind def
/Pattern7 {<1010000000000000010100000000000010100000000000000101000000000000> PTRN} bind def
/Pattern8 {<0000000000000000000000000000000000000000000000000000000000000000> PTRN} bind def
/Pattern9 {<1e1e0f0f8787c3c3e1e1f0f078783c3c1e1e0f0f8787c3c3e1e1f0f078783c3c> PTRN} bind def
/Pattern10 {<7878f0f0e1e1c3c387870f0f1e1e3c3c7878f0f0e1e1c3c387870f0f1e1e3c3c> PTRN} bind def
/Pattern11 {<3333333333333333333333333333333333333333333333333333333333333333> PTRN} bind def
/Pattern12 {<ffffffff00000000ffffffff00000000ffffffff00000000ffffffff00000000> PTRN} bind def
/Pattern13 {<8181424224241818181824244242818181814242242418181818242442428181> PTRN} bind def
/Pattern14 {<8080404020201010080804040202010180804040202010100808040402020101> PTRN} bind def
/Pattern15 {<0101020204040808101020204040808001010202040408081010202040408080> PTRN} bind def
/Pattern16 {<2222222222222222222222222222222222222222222222222222222222222222> PTRN} bind def
/Pattern17 {<0000ffff000000000000ffff000000000000ffff000000000000ffff00000000> PTRN} bind def
/Pattern18 {<2222ffff222222222222ffff222222222222ffff222222222222ffff22222222> PTRN} bind def
/Pattern19 {<ffffffff33333333ffffffff33333333ffffffff33333333ffffffff33333333> PTRN} bind def
/Pattern20 {<0f0f0f0f0f0f0f0ff0f0f0f0f0f0f0f00f0f0f0f0f0f0f0ff0f0f0f0f0f0f0f0> PTRN} bind def
/Pattern21 {<ff00ff00ff00ff00ff00ff00ff00ff0000ff00ff00ff00ff00ff00ff00ff00ff> PTRN} bind def
/Pattern22 {<8001800180018001800180018001ffffffff8001800180018001800180018001> PTRN} bind def
/Pattern23 {<c003c003c003c003c003c003ffffffffffffffffc003c003c003c003c003c003> PTRN} bind def
/Pattern24 {<040404040404ffff404040404040ffff040404040404ffff404040404040ffff> PTRN} bind def
/Pattern25 {<180018001800180018001800ffffffff001800180018001800180018ffffffff> PTRN} bind def
/Pattern26 {<1111b8b87c7c3a3a1111a3a3c7c78b8b1111b8b87c7c3a3a1111a3a3c7c78b8b> PTRN} bind def
/Pattern27 {<101010102828c7c70101010182827c7c101010102828c7c70101010182827c7c> PTRN} bind def
/Pattern28 {<1c1c121211112121c1c12121111112121c1c121211112121c1c1212111111212> PTRN} bind def
/Pattern29 {<3e3e414180808080e3e31414080808083e3e414180808080e3e3141408080808> PTRN} bind def
/Pattern30 {<4848888884848383848488884848383848488888848483838484888848483838> PTRN} bind def
/Pattern31 {<03030404080808080c0c12122121c0c003030404080808080c0c12122121c0c0> PTRN} bind def
/ellipsedict 8 dict def
ellipsedict /mtrx matrix put
/EARC {
 ellipsedict begin
  /endangle exch def
  /startangle exch def
  /yrad exch def
  /xrad exch def
  /y exch def
  /x exch def
  /savematrix mtrx currentmatrix def
  x y translate
  xrad yrad scale
  0 0 1 startangle endangle arc
  savematrix setmatrix
 end
} def
/TL {
  /kcomp exch def
  /linewidth exch def
  /offset exch def
  GS
  0 offset rmoveto
  linewidth SLW
  dup stringwidth exch kcomp add exch RL s
  GR
} def
/KINIT
{
 /kvector exch def
 /kid 0 def
} def
/KPROC
{
 pop pop
 kvector kid get
 0 rmoveto
 /kid 1 kid add def
} def
/DefEncoding [
 /.notdef
 /.notdef
 /.notdef
 /.notdef
 /.notdef
 /.notdef
 /.notdef
 /.notdef
 /.notdef
 /.notdef
 /.notdef
 /.notdef
 /.notdef
 /.notdef
 /.notdef
 /.notdef
 /.notdef
 /.notdef
 /.notdef
 /.notdef
 /.notdef
 /.notdef
 /.notdef
 /.notdef
 /.notdef
 /.notdef
 /.notdef
 /.notdef
 /.notdef
 /.notdef
 /.notdef
 /.notdef
 /space
 /exclam
 /quotedbl
 /numbersign
 /dollar
 /percent
 /ampersand
 /quoteright
 /parenleft
 /parenright
 /asterisk
 /plus
 /comma
 /hyphen
 /period
 /slash
 /zero
 /one
 /two
 /three
 /four
 /five
 /six
 /seven
 /eight
 /nine
 /colon
 /semicolon
 /less
 /equal
 /greater
 /question
 /at
 /A
 /B
 /C
 /D
 /E
 /F
 /G
 /H
 /I
 /J
 /K
 /L
 /M
 /N
 /O
 /P
 /Q
 /R
 /S
 /T
 /U
 /V
 /W
 /X
 /Y
 /Z
 /bracketleft
 /backslash
 /bracketright
 /asciicircum
 /underscore
 /grave
 /a
 /b
 /c
 /d
 /e
 /f
 /g
 /h
 /i
 /j
 /k
 /l
 /m
 /n
 /o
 /p
 /q
 /r
 /s
 /t
 /u
 /v
 /w
 /x
 /y
 /z
 /braceleft
 /bar
 /braceright
 /asciitilde
 /.notdef
 /.notdef
 /.notdef
 /.notdef
 /.notdef
 /.notdef
 /.notdef
 /.notdef
 /.notdef
 /.notdef
 /.notdef
 /.notdef
 /.notdef
 /.notdef
 /.notdef
 /.notdef
 /.notdef
 /.notdef
 /.notdef
 /.notdef
 /.notdef
 /.notdef
 /.notdef
 /.notdef
 /.notdef
 /.notdef
 /.notdef
 /.notdef
 /.notdef
 /.notdef
 /.notdef
 /.notdef
 /.notdef
 /space
 /exclamdown
 /cent
 /sterling
 /currency
 /yen
 /brokenbar
 /section
 /dieresis
 /copyright
 /ordfeminine
 /guillemotleft
 /logicalnot
 /hyphen
 /registered
 /macron
 /degree
 /plusminus
 /twosuperior
 /threesuperior
 /acute
 /mu
 /paragraph
 /periodcentered
 /cedilla
 /onesuperior
 /ordmasculine
 /guillemotright
 /onequarter
 /onehalf
 /threequarters
 /questiondown
 /Agrave
 /Aacute
 /Acircumflex
 /Atilde
 /Adieresis
 /Aring
 /AE
 /Ccedilla
 /Egrave
 /Eacute
 /Ecircumflex
 /Edieresis
 /Igrave
 /Iacute
 /Icircumflex
 /Idieresis
 /Eth
 /Ntilde
 /Ograve
 /Oacute
 /Ocircumflex
 /Otilde
 /Odieresis
 /multiply
 /Oslash
 /Ugrave
 /Uacute
 /Ucircumflex
 /Udieresis
 /Yacute
 /Thorn
 /germandbls
 /agrave
 /aacute
 /acircumflex
 /atilde
 /adieresis
 /aring
 /ae
 /ccedilla
 /egrave
 /eacute
 /ecircumflex
 /edieresis
 /igrave
 /iacute
 /icircumflex
 /idieresis
 /eth
 /ntilde
 /ograve
 /oacute
 /ocircumflex
 /otilde
 /odieresis
 /divide
 /oslash
 /ugrave
 /uacute
 /ucircumflex
 /udieresis
 /yacute
 /thorn
 /ydieresis
] def
%%EndProlog
%%BeginSetup
%%EndSetup
612.00 612.00 scale
n
0.3038 0.4677 0.0098 0.0098 0 360 EARC c
[/DeviceRGB] SCS
Color1 SC
fill
[] 0 SD
0.0015 SLW
n 0.3038 0.4677 0.0098 0.0098 0 360 EARC s
n
0.3423 0.4588 0.0098 0.0098 0 360 EARC c
fill
n 0.3423 0.4588 0.0098 0.0098 0 360 EARC s
n
0.3808 0.4495 0.0098 0.0098 0 360 EARC c
fill
n 0.3808 0.4495 0.0098 0.0098 0 360 EARC s
n
0.4192 0.4402 0.0098 0.0098 0 360 EARC c
fill
n 0.4192 0.4402 0.0098 0.0098 0 360 EARC s
n
0.4577 0.4312 0.0098 0.0098 0 360 EARC c
fill
n 0.4577 0.4312 0.0098 0.0098 0 360 EARC s
n
0.4962 0.4227 0.0098 0.0098 0 360 EARC c
fill
n 0.4962 0.4227 0.0098 0.0098 0 360 EARC s
n
0.5346 0.4158 0.0098 0.0098 0 360 EARC c
fill
n 0.5346 0.4158 0.0098 0.0098 0 360 EARC s
n
0.5731 0.4115 0.0098 0.0098 0 360 EARC c
fill
n 0.5731 0.4115 0.0098 0.0098 0 360 EARC s
n
0.6115 0.4111 0.0098 0.0098 0 360 EARC c
fill
n 0.6115 0.4111 0.0098 0.0098 0 360 EARC s
n
0.6500 0.4158 0.0098 0.0098 0 360 EARC c
fill
n 0.6500 0.4158 0.0098 0.0098 0 360 EARC s
n
0.6885 0.4272 0.0098 0.0098 0 360 EARC c
fill
n 0.6885 0.4272 0.0098 0.0098 0 360 EARC s
n
0.7269 0.4471 0.0098 0.0098 0 360 EARC c
fill
n 0.7269 0.4471 0.0098 0.0098 0 360 EARC s
n
0.7654 0.4781 0.0098 0.0098 0 360 EARC c
fill
n 0.7654 0.4781 0.0098 0.0098 0 360 EARC s
n
0.8038 0.5218 0.0098 0.0098 0 360 EARC c
fill
n 0.8038 0.5218 0.0098 0.0098 0 360 EARC s
n
0.8423 0.5813 0.0098 0.0098 0 360 EARC c
fill
n 0.8423 0.5813 0.0098 0.0098 0 360 EARC s
n
0.8808 0.6589 0.0098 0.0098 0 360 EARC c
fill
n 0.8808 0.6589 0.0098 0.0098 0 360 EARC s
n
0.2953 0.4950 m
0.2953 0.5120 l
0.3123 0.5120 l
0.3123 0.4950 l
c
[/DeviceRGB] SCS
Color2 SC
fill
0 SLC
0 SLJ
n
0.2953 0.4950 m
0.2953 0.5120 l
0.3123 0.5120 l
0.3123 0.4950 l
0.2953 0.4950 l
c
s
n
0.3338 0.4970 m
0.3338 0.5140 l
0.3508 0.5140 l
0.3508 0.4970 l
c
fill
n
0.3338 0.4970 m
0.3338 0.5140 l
0.3508 0.5140 l
0.3508 0.4970 l
0.3338 0.4970 l
c
s
n
0.3723 0.4997 m
0.3723 0.5167 l
0.3893 0.5167 l
0.3893 0.4997 l
c
fill
n
0.3723 0.4997 m
0.3723 0.5167 l
0.3893 0.5167 l
0.3893 0.4997 l
0.3723 0.4997 l
c
s
n
0.4107 0.5033 m
0.4107 0.5203 l
0.4277 0.5203 l
0.4277 0.5033 l
c
fill
n
0.4107 0.5033 m
0.4107 0.5203 l
0.4277 0.5203 l
0.4277 0.5033 l
0.4107 0.5033 l
c
s
n
0.4492 0.5079 m
0.4492 0.5249 l
0.4662 0.5249 l
0.4662 0.5079 l
c
fill
n
0.4492 0.5079 m
0.4492 0.5249 l
0.4662 0.5249 l
0.4662 0.5079 l
0.4492 0.5079 l
c
s
n
0.4877 0.5139 m
0.4877 0.5309 l
0.5047 0.5309 l
0.5047 0.5139 l
c
fill
n
0.4877 0.5139 m
0.4877 0.5309 l
0.5047 0.5309 l
0.5047 0.5139 l
0.4877 0.5139 l
c
s
n
0.5261 0.5214 m
0.5261 0.5384 l
0.5431 0.5384 l
0.5431 0.5214 l
c
fill
n
0.5261 0.5214 m
0.5261 0.5384 l
0.5431 0.5384 l
0.5431 0.5214 l
0.5261 0.5214 l
c
s
n
0.5646 0.5306 m
0.5646 0.5476 l
0.5816 0.5476 l
0.5816 0.5306 l
c
fill
n
0.5646 0.5306 m
0.5646 0.5476 l
0.5816 0.5476 l
0.5816 0.5306 l
0.5646 0.5306 l
c
s
n
0.6030 0.5416 m
0.6030 0.5586 l
0.6200 0.5586 l
0.6200 0.5416 l
c
fill
n
0.6030 0.5416 m
0.6030 0.5586 l
0.6200 0.5586 l
0.6200 0.5416 l
0.6030 0.5416 l
c
s
n
0.6415 0.5543 m
0.6415 0.5713 l
0.6585 0.5713 l
0.6585 0.5543 l
c
fill
n
0.6415 0.5543 m
0.6415 0.5713 l
0.6585 0.5713 l
0.6585 0.5543 l
0.6415 0.5543 l
c
s
n
0.6800 0.5687 m
0.6800 0.5857 l
0.6970 0.5857 l
0.6970 0.5687 l
c
fill
n
0.6800 0.5687 m
0.6800 0.5857 l
0.6970 0.5857 l
0.6970 0.5687 l
0.6800 0.5687 l
c
s
n
0.7184 0.5842 m
0.7184 0.6012 l
0.7354 0.6012 l
0.7354 0.5842 l
c
fill
n
0.7184 0.5842 m
0.7184 0.6012 l
0.7354 0.6012 l
0.7354 0.5842 l
0.7184 0.5842 l
c
s
n
0.7569 0.6001 m
0.7569 0.6171 l
0.7739 0.6171 l
0.7739 0.6001 l
c
fill
n
0.7569 0.6001 m
0.7569 0.6171 l
0.7739 0.6171 l
0.7739 0.6001 l
0.7569 0.6001 l
c
s
n
0.7953 0.6149 m
0.7953 0.6319 l
0.8123 0.6319 l
0.8123 0.6149 l
c
fill
n
0.7953 0.6149 m
0.7953 0.6319 l
0.8123 0.6319 l
0.8123 0.6149 l
0.7953 0.6149 l
c
s
n
0.8338 0.6268 m
0.8338 0.6438 l
0.8508 0.6438 l
0.8508 0.6268 l
c
fill
n
0.8338 0.6268 m
0.8338 0.6438 l
0.8508 0.6438 l
0.8508 0.6268 l
0.8338 0.6268 l
c
s
n
0.8723 0.6330 m
0.8723 0.6500 l
0.8893 0.6500 l
0.8893 0.6330 l
c
fill
n
0.8723 0.6330 m
0.8723 0.6500 l
0.8893 0.6500 l
0.8893 0.6330 l
0.8723 0.6330 l
c
s
n
0.2953 0.4881 m
0.2953 0.5051 l
0.3123 0.5051 l
0.3123 0.4881 l
c
GS
Color0 SRGB
fill
GR
[/Pattern /DeviceRGB] SCS
Color3 Pattern8 SC
fill
[/DeviceRGB] SCS
Color3 SC
[] 0 SD
0.0037 SLW
n
0.2953 0.4881 m
0.2953 0.5051 l
0.3123 0.5051 l
0.3123 0.4881 l
0.2953 0.4881 l
c
s
n
0.3338 0.4864 m
0.3338 0.5034 l
0.3508 0.5034 l
0.3508 0.4864 l
c
GS
Color0 SRGB
fill
GR
[/Pattern /DeviceRGB] SCS
Color3 Pattern8 SC
fill
[/DeviceRGB] SCS
Color3 SC
n
0.3338 0.4864 m
0.3338 0.5034 l
0.3508 0.5034 l
0.3508 0.4864 l
0.3338 0.4864 l
c
s
n
0.3723 0.4842 m
0.3723 0.5012 l
0.3893 0.5012 l
0.3893 0.4842 l
c
GS
Color0 SRGB
fill
GR
[/Pattern /DeviceRGB] SCS
Color3 Pattern8 SC
fill
[/DeviceRGB] SCS
Color3 SC
n
0.3723 0.4842 m
0.3723 0.5012 l
0.3893 0.5012 l
0.3893 0.4842 l
0.3723 0.4842 l
c
s
n
0.4107 0.4816 m
0.4107 0.4986 l
0.4277 0.4986 l
0.4277 0.4816 l
c
GS
Color0 SRGB
fill
GR
[/Pattern /DeviceRGB] SCS
Color3 Pattern8 SC
fill
[/DeviceRGB] SCS
Color3 SC
n
0.4107 0.4816 m
0.4107 0.4986 l
0.4277 0.4986 l
0.4277 0.4816 l
0.4107 0.4816 l
c
s
n
0.4492 0.4785 m
0.4492 0.4955 l
0.4662 0.4955 l
0.4662 0.4785 l
c
GS
Color0 SRGB
fill
GR
[/Pattern /DeviceRGB] SCS
Color3 Pattern8 SC
fill
[/DeviceRGB] SCS
Color3 SC
n
0.4492 0.4785 m
0.4492 0.4955 l
0.4662 0.4955 l
0.4662 0.4785 l
0.4492 0.4785 l
c
s
n
0.4877 0.4750 m
0.4877 0.4920 l
0.5047 0.4920 l
0.5047 0.4750 l
c
GS
Color0 SRGB
fill
GR
[/Pattern /DeviceRGB] SCS
Color3 Pattern8 SC
fill
[/DeviceRGB] SCS
Color3 SC
n
0.4877 0.4750 m
0.4877 0.4920 l
0.5047 0.4920 l
0.5047 0.4750 l
0.4877 0.4750 l
c
s
n
0.5261 0.4711 m
0.5261 0.4881 l
0.5431 0.4881 l
0.5431 0.4711 l
c
GS
Color0 SRGB
fill
GR
[/Pattern /DeviceRGB] SCS
Color3 Pattern8 SC
fill
[/DeviceRGB] SCS
Color3 SC
n
0.5261 0.4711 m
0.5261 0.4881 l
0.5431 0.4881 l
0.5431 0.4711 l
0.5261 0.4711 l
c
s
n
0.5646 0.4666 m
0.5646 0.4836 l
0.5816 0.4836 l
0.5816 0.4666 l
c
GS
Color0 SRGB
fill
GR
[/Pattern /DeviceRGB] SCS
Color3 Pattern8 SC
fill
[/DeviceRGB] SCS
Color3 SC
n
0.5646 0.4666 m
0.5646 0.4836 l
0.5816 0.4836 l
0.5816 0.4666 l
0.5646 0.4666 l
c
s
n
0.6030 0.4615 m
0.6030 0.4785 l
0.6200 0.4785 l
0.6200 0.4615 l
c
GS
Color0 SRGB
fill
GR
[/Pattern /DeviceRGB] SCS
Color3 Pattern8 SC
fill
[/DeviceRGB] SCS
Color3 SC
n
0.6030 0.4615 m
0.6030 0.4785 l
0.6200 0.4785 l
0.6200 0.4615 l
0.6030 0.4615 l
c
s
n
0.6415 0.4556 m
0.6415 0.4726 l
0.6585 0.4726 l
0.6585 0.4556 l
c
GS
Color0 SRGB
fill
GR
[/Pattern /DeviceRGB] SCS
Color3 Pattern8 SC
fill
[/DeviceRGB] SCS
Color3 SC
n
0.6415 0.4556 m
0.6415 0.4726 l
0.6585 0.4726 l
0.6585 0.4556 l
0.6415 0.4556 l
c
s
n
0.6800 0.4489 m
0.6800 0.4659 l
0.6970 0.4659 l
0.6970 0.4489 l
c
GS
Color0 SRGB
fill
GR
[/Pattern /DeviceRGB] SCS
Color3 Pattern8 SC
fill
[/DeviceRGB] SCS
Color3 SC
n
0.6800 0.4489 m
0.6800 0.4659 l
0.6970 0.4659 l
0.6970 0.4489 l
0.6800 0.4489 l
c
s
n
0.7184 0.4410 m
0.7184 0.4580 l
0.7354 0.4580 l
0.7354 0.4410 l
c
GS
Color0 SRGB
fill
GR
[/Pattern /DeviceRGB] SCS
Color3 Pattern8 SC
fill
[/DeviceRGB] SCS
Color3 SC
n
0.7184 0.4410 m
0.7184 0.4580 l
0.7354 0.4580 l
0.7354 0.4410 l
0.7184 0.4410 l
c
s
n
0.7569 0.4316 m
0.7569 0.4486 l
0.7739 0.4486 l
0.7739 0.4316 l
c
GS
Color0 SRGB
fill
GR
[/Pattern /DeviceRGB] SCS
Color3 Pattern8 SC
fill
[/DeviceRGB] SCS
Color3 SC
n
0.7569 0.4316 m
0.7569 0.4486 l
0.7739 0.4486 l
0.7739 0.4316 l
0.7569 0.4316 l
c
s
n
0.7953 0.4205 m
0.7953 0.4375 l
0.8123 0.4375 l
0.8123 0.4205 l
c
GS
Color0 SRGB
fill
GR
[/Pattern /DeviceRGB] SCS
Color3 Pattern8 SC
fill
[/DeviceRGB] SCS
Color3 SC
n
0.7953 0.4205 m
0.7953 0.4375 l
0.8123 0.4375 l
0.8123 0.4205 l
0.7953 0.4205 l
c
s
n
0.8338 0.4070 m
0.8338 0.4240 l
0.8508 0.4240 l
0.8508 0.4070 l
c
GS
Color0 SRGB
fill
GR
[/Pattern /DeviceRGB] SCS
Color3 Pattern8 SC
fill
[/DeviceRGB] SCS
Color3 SC
n
0.8338 0.4070 m
0.8338 0.4240 l
0.8508 0.4240 l
0.8508 0.4070 l
0.8338 0.4070 l
c
s
n
0.8723 0.3907 m
0.8723 0.4077 l
0.8893 0.4077 l
0.8893 0.3907 l
c
GS
Color0 SRGB
fill
GR
[/Pattern /DeviceRGB] SCS
Color3 Pattern8 SC
fill
[/DeviceRGB] SCS
Color3 SC
n
0.8723 0.3907 m
0.8723 0.4077 l
0.8893 0.4077 l
0.8893 0.3907 l
0.8723 0.3907 l
c
s
n
0.2953 0.4986 m
0.2953 0.5156 l
0.3123 0.5156 l
0.3123 0.4986 l
c
GS
Color0 SRGB
fill
GR
[/Pattern /DeviceRGB] SCS
Color4 Pattern5 SC
fill
[/DeviceRGB] SCS
Color4 SC
n
0.2953 0.4986 m
0.2953 0.5156 l
0.3123 0.5156 l
0.3123 0.4986 l
0.2953 0.4986 l
c
s
n
0.3338 0.5028 m
0.3338 0.5198 l
0.3508 0.5198 l
0.3508 0.5028 l
c
GS
Color0 SRGB
fill
GR
[/Pattern /DeviceRGB] SCS
Color4 Pattern5 SC
fill
[/DeviceRGB] SCS
Color4 SC
n
0.3338 0.5028 m
0.3338 0.5198 l
0.3508 0.5198 l
0.3508 0.5028 l
0.3338 0.5028 l
c
s
n
0.3723 0.5087 m
0.3723 0.5257 l
0.3893 0.5257 l
0.3893 0.5087 l
c
GS
Color0 SRGB
fill
GR
[/Pattern /DeviceRGB] SCS
Color4 Pattern5 SC
fill
[/DeviceRGB] SCS
Color4 SC
n
0.3723 0.5087 m
0.3723 0.5257 l
0.3893 0.5257 l
0.3893 0.5087 l
0.3723 0.5087 l
c
s
n
0.4107 0.5165 m
0.4107 0.5335 l
0.4277 0.5335 l
0.4277 0.5165 l
c
GS
Color0 SRGB
fill
GR
[/Pattern /DeviceRGB] SCS
Color4 Pattern5 SC
fill
[/DeviceRGB] SCS
Color4 SC
n
0.4107 0.5165 m
0.4107 0.5335 l
0.4277 0.5335 l
0.4277 0.5165 l
0.4107 0.5165 l
c
s
n
0.4492 0.5269 m
0.4492 0.5439 l
0.4662 0.5439 l
0.4662 0.5269 l
c
GS
Color0 SRGB
fill
GR
[/Pattern /DeviceRGB] SCS
Color4 Pattern5 SC
fill
[/DeviceRGB] SCS
Color4 SC
n
0.4492 0.5269 m
0.4492 0.5439 l
0.4662 0.5439 l
0.4662 0.5269 l
0.4492 0.5269 l
c
s
n
0.4877 0.5405 m
0.4877 0.5575 l
0.5047 0.5575 l
0.5047 0.5405 l
c
GS
Color0 SRGB
fill
GR
[/Pattern /DeviceRGB] SCS
Color4 Pattern5 SC
fill
[/DeviceRGB] SCS
Color4 SC
n
0.4877 0.5405 m
0.4877 0.5575 l
0.5047 0.5575 l
0.5047 0.5405 l
0.4877 0.5405 l
c
s
n
0.5261 0.5581 m
0.5261 0.5751 l
0.5431 0.5751 l
0.5431 0.5581 l
c
GS
Color0 SRGB
fill
GR
[/Pattern /DeviceRGB] SCS
Color4 Pattern5 SC
fill
[/DeviceRGB] SCS
Color4 SC
n
0.5261 0.5581 m
0.5261 0.5751 l
0.5431 0.5751 l
0.5431 0.5581 l
0.5261 0.5581 l
c
s
n
0.5646 0.5808 m
0.5646 0.5978 l
0.5816 0.5978 l
0.5816 0.5808 l
c
GS
Color0 SRGB
fill
GR
[/Pattern /DeviceRGB] SCS
Color4 Pattern5 SC
fill
[/DeviceRGB] SCS
Color4 SC
n
0.5646 0.5808 m
0.5646 0.5978 l
0.5816 0.5978 l
0.5816 0.5808 l
0.5646 0.5808 l
c
s
n
0.6030 0.6095 m
0.6030 0.6264 l
0.6200 0.6264 l
0.6200 0.6095 l
c
GS
Color0 SRGB
fill
GR
[/Pattern /DeviceRGB] SCS
Color4 Pattern5 SC
fill
[/DeviceRGB] SCS
Color4 SC
n
0.6030 0.6095 m
0.6030 0.6264 l
0.6200 0.6264 l
0.6200 0.6095 l
0.6030 0.6095 l
c
s
n
0.6415 0.6455 m
0.6415 0.6625 l
0.6585 0.6625 l
0.6585 0.6455 l
c
GS
Color0 SRGB
fill
GR
[/Pattern /DeviceRGB] SCS
Color4 Pattern5 SC
fill
[/DeviceRGB] SCS
Color4 SC
n
0.6415 0.6455 m
0.6415 0.6625 l
0.6585 0.6625 l
0.6585 0.6455 l
0.6415 0.6455 l
c
s
n
0.6800 0.6904 m
0.6800 0.7074 l
0.6970 0.7074 l
0.6970 0.6904 l
c
GS
Color0 SRGB
fill
GR
[/Pattern /DeviceRGB] SCS
Color4 Pattern5 SC
fill
[/DeviceRGB] SCS
Color4 SC
n
0.6800 0.6904 m
0.6800 0.7074 l
0.6970 0.7074 l
0.6970 0.6904 l
0.6800 0.6904 l
c
s
n
0.7184 0.7459 m
0.7184 0.7629 l
0.7354 0.7629 l
0.7354 0.7459 l
c
GS
Color0 SRGB
fill
GR
[/Pattern /DeviceRGB] SCS
Color4 Pattern5 SC
fill
[/DeviceRGB] SCS
Color4 SC
n
0.7184 0.7459 m
0.7184 0.7629 l
0.7354 0.7629 l
0.7354 0.7459 l
0.7184 0.7459 l
c
s
n
0.7569 0.8139 m
0.7569 0.8309 l
0.7739 0.8309 l
0.7739 0.8139 l
c
GS
Color0 SRGB
fill
GR
[/Pattern /DeviceRGB] SCS
Color4 Pattern5 SC
fill
[/DeviceRGB] SCS
Color4 SC
n
0.7569 0.8139 m
0.7569 0.8309 l
0.7739 0.8309 l
0.7739 0.8139 l
0.7569 0.8139 l
c
s
n
0.3038 0.5068 m
0.2938 0.4895 l
0.3138 0.4895 l
c
[/DeviceRGB] SCS
Color11 SC
fill
[] 0 SD
0.0015 SLW
n
0.3038 0.5068 m
0.2938 0.4895 l
0.3138 0.4895 l
0.3038 0.5068 l
c
s
n
0.3423 0.5036 m
0.3323 0.4863 l
0.3523 0.4863 l
c
fill
n
0.3423 0.5036 m
0.3323 0.4863 l
0.3523 0.4863 l
0.3423 0.5036 l
c
s
n
0.3808 0.4991 m
0.3708 0.4818 l
0.3908 0.4818 l
c
fill
n
0.3808 0.4991 m
0.3708 0.4818 l
0.3908 0.4818 l
0.3808 0.4991 l
c
s
n
0.4192 0.4930 m
0.4092 0.4757 l
0.4292 0.4757 l
c
fill
n
0.4192 0.4930 m
0.4092 0.4757 l
0.4292 0.4757 l
0.4192 0.4930 l
c
s
n
0.4577 0.4853 m
0.4477 0.4679 l
0.4677 0.4679 l
c
fill
n
0.4577 0.4853 m
0.4477 0.4679 l
0.4677 0.4679 l
0.4577 0.4853 l
c
s
n
0.4962 0.4756 m
0.4862 0.4582 l
0.5062 0.4582 l
c
fill
n
0.4962 0.4756 m
0.4862 0.4582 l
0.5062 0.4582 l
0.4962 0.4756 l
c
s
n
0.5346 0.4638 m
0.5246 0.4464 l
0.5446 0.4464 l
c
fill
n
0.5346 0.4638 m
0.5246 0.4464 l
0.5446 0.4464 l
0.5346 0.4638 l
c
s
n
0.5731 0.4496 m
0.5631 0.4323 l
0.5831 0.4323 l
c
fill
n
0.5731 0.4496 m
0.5631 0.4323 l
0.5831 0.4323 l
0.5731 0.4496 l
c
s
n
0.6115 0.4330 m
0.6015 0.4157 l
0.6215 0.4157 l
c
fill
n
0.6115 0.4330 m
0.6015 0.4157 l
0.6215 0.4157 l
0.6115 0.4330 l
c
s
n
0.6500 0.4136 m
0.6400 0.3963 l
0.6600 0.3963 l
c
fill
n
0.6500 0.4136 m
0.6400 0.3963 l
0.6600 0.3963 l
0.6500 0.4136 l
c
s
n
0.6885 0.3911 m
0.6785 0.3738 l
0.6985 0.3738 l
c
fill
n
0.6885 0.3911 m
0.6785 0.3738 l
0.6985 0.3738 l
0.6885 0.3911 l
c
s
n
0.7269 0.3653 m
0.7169 0.3480 l
0.7369 0.3480 l
c
fill
n
0.7269 0.3653 m
0.7169 0.3480 l
0.7369 0.3480 l
0.7269 0.3653 l
c
s
n
0.7654 0.3360 m
0.7554 0.3187 l
0.7754 0.3187 l
c
fill
n
0.7654 0.3360 m
0.7554 0.3187 l
0.7754 0.3187 l
0.7654 0.3360 l
c
s
n
0.8038 0.3021 m
0.7938 0.2848 l
0.8138 0.2848 l
c
fill
n
0.8038 0.3021 m
0.7938 0.2848 l
0.8138 0.2848 l
0.8038 0.3021 l
c
s
n
0.8423 0.2636 m
0.8323 0.2463 l
0.8523 0.2463 l
c
fill
n
0.8423 0.2636 m
0.8323 0.2463 l
0.8523 0.2463 l
0.8423 0.2636 l
c
s
n
0.8808 0.2198 m
0.8708 0.2025 l
0.8908 0.2025 l
c
fill
n
0.8808 0.2198 m
0.8708 0.2025 l
0.8908 0.2025 l
0.8808 0.2198 l
c
s
n
0.3038 0.4527 m
0.2938 0.4427 l
0.3038 0.4327 l
0.3138 0.4427 l
c
GS
Color0 SRGB
fill
GR
[/Pattern /DeviceRGB] SCS
Color6 Pattern16 SC
fill
[/DeviceRGB] SCS
Color6 SC
[] 0 SD
0.0030 SLW
n
0.3038 0.4527 m
0.2938 0.4427 l
0.3038 0.4327 l
0.3138 0.4427 l
0.3038 0.4527 l
c
s
n
0.3423 0.4392 m
0.3323 0.4292 l
0.3423 0.4192 l
0.3523 0.4292 l
c
GS
Color0 SRGB
fill
GR
[/Pattern /DeviceRGB] SCS
Color6 Pattern16 SC
fill
[/DeviceRGB] SCS
Color6 SC
n
0.3423 0.4392 m
0.3323 0.4292 l
0.3423 0.4192 l
0.3523 0.4292 l
0.3423 0.4392 l
c
s
n
0.3808 0.4258 m
0.3708 0.4158 l
0.3808 0.4058 l
0.3908 0.4158 l
c
GS
Color0 SRGB
fill
GR
[/Pattern /DeviceRGB] SCS
Color6 Pattern16 SC
fill
[/DeviceRGB] SCS
Color6 SC
n
0.3808 0.4258 m
0.3708 0.4158 l
0.3808 0.4058 l
0.3908 0.4158 l
0.3808 0.4258 l
c
s
n
0.4192 0.4123 m
0.4092 0.4023 l
0.4192 0.3923 l
0.4292 0.4023 l
c
GS
Color0 SRGB
fill
GR
[/Pattern /DeviceRGB] SCS
Color6 Pattern16 SC
fill
[/DeviceRGB] SCS
Color6 SC
n
0.4192 0.4123 m
0.4092 0.4023 l
0.4192 0.3923 l
0.4292 0.4023 l
0.4192 0.4123 l
c
s
n
0.4577 0.3995 m
0.4477 0.3895 l
0.4577 0.3795 l
0.4677 0.3895 l
c
GS
Color0 SRGB
fill
GR
[/Pattern /DeviceRGB] SCS
Color6 Pattern16 SC
fill
[/DeviceRGB] SCS
Color6 SC
n
0.4577 0.3995 m
0.4477 0.3895 l
0.4577 0.3795 l
0.4677 0.3895 l
0.4577 0.3995 l
c
s
n
0.4962 0.3864 m
0.4862 0.3764 l
0.4962 0.3664 l
0.5062 0.3764 l
c
GS
Color0 SRGB
fill
GR
[/Pattern /DeviceRGB] SCS
Color6 Pattern16 SC
fill
[/DeviceRGB] SCS
Color6 SC
n
0.4962 0.3864 m
0.4862 0.3764 l
0.4962 0.3664 l
0.5062 0.3764 l
0.4962 0.3864 l
c
s
n
0.5346 0.3744 m
0.5246 0.3644 l
0.5346 0.3544 l
0.5446 0.3644 l
c
GS
Color0 SRGB
fill
GR
[/Pattern /DeviceRGB] SCS
Color6 Pattern16 SC
fill
[/DeviceRGB] SCS
Color6 SC
n
0.5346 0.3744 m
0.5246 0.3644 l
0.5346 0.3544 l
0.5446 0.3644 l
0.5346 0.3744 l
c
s
n
0.5731 0.3639 m
0.5631 0.3539 l
0.5731 0.3439 l
0.5831 0.3539 l
c
GS
Color0 SRGB
fill
GR
[/Pattern /DeviceRGB] SCS
Color6 Pattern16 SC
fill
[/DeviceRGB] SCS
Color6 SC
n
0.5731 0.3639 m
0.5631 0.3539 l
0.5731 0.3439 l
0.5831 0.3539 l
0.5731 0.3639 l
c
s
n
0.6115 0.3567 m
0.6015 0.3467 l
0.6115 0.3367 l
0.6215 0.3467 l
c
GS
Color0 SRGB
fill
GR
[/Pattern /DeviceRGB] SCS
Color6 Pattern16 SC
fill
[/DeviceRGB] SCS
Color6 SC
n
0.6115 0.3567 m
0.6015 0.3467 l
0.6115 0.3367 l
0.6215 0.3467 l
0.6115 0.3567 l
c
s
n
0.6500 0.3537 m
0.6400 0.3437 l
0.6500 0.3337 l
0.6600 0.3437 l
c
GS
Color0 SRGB
fill
GR
[/Pattern /DeviceRGB] SCS
Color6 Pattern16 SC
fill
[/DeviceRGB] SCS
Color6 SC
n
0.6500 0.3537 m
0.6400 0.3437 l
0.6500 0.3337 l
0.6600 0.3437 l
0.6500 0.3537 l
c
s
n
0.6885 0.3561 m
0.6785 0.3461 l
0.6885 0.3361 l
0.6985 0.3461 l
c
GS
Color0 SRGB
fill
GR
[/Pattern /DeviceRGB] SCS
Color6 Pattern16 SC
fill
[/DeviceRGB] SCS
Color6 SC
n
0.6885 0.3561 m
0.6785 0.3461 l
0.6885 0.3361 l
0.6985 0.3461 l
0.6885 0.3561 l
c
s
n
0.7269 0.3659 m
0.7169 0.3559 l
0.7269 0.3459 l
0.7369 0.3559 l
c
GS
Color0 SRGB
fill
GR
[/Pattern /DeviceRGB] SCS
Color6 Pattern16 SC
fill
[/DeviceRGB] SCS
Color6 SC
n
0.7269 0.3659 m
0.7169 0.3559 l
0.7269 0.3459 l
0.7369 0.3559 l
0.7269 0.3659 l
c
s
n
0.7654 0.3856 m
0.7554 0.3756 l
0.7654 0.3656 l
0.7754 0.3756 l
c
GS
Color0 SRGB
fill
GR
[/Pattern /DeviceRGB] SCS
Color6 Pattern16 SC
fill
[/DeviceRGB] SCS
Color6 SC
n
0.7654 0.3856 m
0.7554 0.3756 l
0.7654 0.3656 l
0.7754 0.3756 l
0.7654 0.3856 l
c
s
n
0.8038 0.4164 m
0.7938 0.4064 l
0.8038 0.3964 l
0.8138 0.4064 l
c
GS
Color0 SRGB
fill
GR
[/Pattern /DeviceRGB] SCS
Color6 Pattern16 SC
fill
[/DeviceRGB] SCS
Color6 SC
n
0.8038 0.4164 m
0.7938 0.4064 l
0.8038 0.3964 l
0.8138 0.4064 l
0.8038 0.4164 l
c
s
n
0.8423 0.4626 m
0.8323 0.4526 l
0.8423 0.4426 l
0.8523 0.4526 l
c
GS
Color0 SRGB
fill
GR
[/Pattern /DeviceRGB] SCS
Color6 Pattern16 SC
fill
[/DeviceRGB] SCS
Color6 SC
n
0.8423 0.4626 m
0.8323 0.4526 l
0.8423 0.4426 l
0.8523 0.4526 l
0.8423 0.4626 l
c
s
n
0.8808 0.5255 m
0.8708 0.5155 l
0.8808 0.5055 l
0.8908 0.5155 l
c
GS
Color0 SRGB
fill
GR
[/Pattern /DeviceRGB] SCS
Color6 Pattern16 SC
fill
[/DeviceRGB] SCS
Color6 SC
n
0.8808 0.5255 m
0.8708 0.5155 l
0.8808 0.5055 l
0.8908 0.5155 l
0.8808 0.5255 l
c
s
[/DeviceRGB] SCS
Color1 SC
[] 0 SD
0.0037 SLW
n
0.1499 0.4955 m
0.1500 0.4955 l
0.1538 0.4952 l
0.1577 0.4948 l
0.1615 0.4945 l
0.1654 0.4941 l
0.1692 0.4937 l
0.1731 0.4933 l
0.1769 0.4928 l
0.1808 0.4924 l
0.1846 0.4919 l
0.1885 0.4915 l
0.1923 0.4910 l
0.1962 0.4905 l
0.2000 0.4899 l
0.2038 0.4894 l
0.2077 0.4888 l
0.2115 0.4883 l
0.2154 0.4877 l
0.2192 0.4871 l
0.2231 0.4864 l
0.2269 0.4858 l
0.2308 0.4851 l
0.2346 0.4844 l
0.2385 0.4837 l
0.2423 0.4830 l
0.2462 0.4823 l
0.2500 0.4816 l
0.2538 0.4808 l
0.2577 0.4800 l
0.2615 0.4792 l
0.2654 0.4784 l
0.2692 0.4776 l
0.2731 0.4767 l
0.2769 0.4759 l
0.2808 0.4750 l
0.2846 0.4741 l
0.2885 0.4732 l
0.2923 0.4723 l
0.2962 0.4713 l
0.3000 0.4704 l
0.3038 0.4694 l
0.3077 0.4684 l
0.3115 0.4675 l
0.3154 0.4664 l
0.3192 0.4654 l
0.3231 0.4644 l
0.3269 0.4634 l
0.3308 0.4623 l
0.3346 0.4612 l
0.3385 0.4601 l
0.3423 0.4591 l
0.3462 0.4580 l
0.3500 0.4569 l
0.3538 0.4557 l
0.3577 0.4546 l
0.3615 0.4535 l
0.3654 0.4523 l
0.3692 0.4512 l
0.3731 0.4500 l
0.3769 0.4489 l
0.3808 0.4477 l
0.3846 0.4465 l
0.3885 0.4453 l
0.3923 0.4442 l
0.3962 0.4430 l
0.4000 0.4418 l
0.4038 0.4406 l
0.4077 0.4394 l
0.4115 0.4382 l
0.4154 0.4370 l
0.4192 0.4358 l
0.4231 0.4346 l
0.4269 0.4335 l
0.4308 0.4323 l
0.4346 0.4311 l
0.4385 0.4299 l
0.4423 0.4288 l
0.4462 0.4276 l
0.4500 0.4264 l
0.4538 0.4253 l
0.4577 0.4242 l
0.4615 0.4230 l
0.4654 0.4219 l
0.4692 0.4208 l
0.4731 0.4197 l
0.4769 0.4186 l
0.4808 0.4176 l
0.4846 0.4165 l
0.4885 0.4155 l
0.4923 0.4145 l
0.4962 0.4135 l
0.5000 0.4125 l
0.5038 0.4115 l
0.5077 0.4106 l
0.5115 0.4097 l
0.5154 0.4088 l
0.5192 0.4079 l
0.5231 0.4071 l
0.5269 0.4063 l
0.5308 0.4055 l
0.5346 0.4047 l
0.5385 0.4040 l
0.5423 0.4033 l
0.5462 0.4026 l
0.5500 0.4020 l
0.5538 0.4014 l
0.5577 0.4008 l
0.5615 0.4003 l
0.5654 0.3998 l
0.5692 0.3993 l
0.5731 0.3989 l
0.5769 0.3985 l
0.5808 0.3982 l
0.5846 0.3979 l
0.5885 0.3976 l
0.5923 0.3974 l
0.5962 0.3973 l
0.6000 0.3972 l
0.6038 0.3971 l
0.6077 0.3971 l
0.6115 0.3972 l
0.6154 0.3973 l
0.6192 0.3974 l
0.6231 0.3976 l
0.6269 0.3979 l
0.6308 0.3982 l
0.6346 0.3986 l
0.6385 0.3991 l
0.6423 0.3996 l
0.6462 0.4002 l
0.6500 0.4008 l
0.6538 0.4015 l
0.6577 0.4023 l
0.6615 0.4032 l
0.6654 0.4041 l
0.6692 0.4051 l
0.6731 0.4062 l
0.6769 0.4073 l
0.6808 0.4086 l
0.6846 0.4099 l
0.6885 0.4113 l
0.6923 0.4127 l
0.6962 0.4143 l
0.7000 0.4159 l
0.7038 0.4177 l
0.7077 0.4195 l
0.7115 0.4214 l
0.7154 0.4234 l
0.7192 0.4255 l
0.7231 0.4277 l
0.7269 0.4300 l
0.7308 0.4324 l
0.7346 0.4349 l
0.7385 0.4375 l
0.7423 0.4402 l
0.7462 0.4430 l
0.7500 0.4459 l
0.7538 0.4490 l
0.7577 0.4521 l
0.7615 0.4554 l
0.7654 0.4588 l
0.7692 0.4623 l
0.7731 0.4659 l
0.7769 0.4697 l
0.7808 0.4736 l
0.7846 0.4776 l
0.7885 0.4817 l
0.7923 0.4860 l
0.7962 0.4904 l
0.8000 0.4950 l
0.8038 0.4997 l
0.8077 0.5045 l
0.8115 0.5095 l
0.8154 0.5146 l
0.8192 0.5199 l
0.8231 0.5253 l
0.8269 0.5309 l
0.8308 0.5367 l
0.8346 0.5426 l
0.8385 0.5487 l
0.8423 0.5550 l
0.8462 0.5614 l
0.8500 0.5680 l
0.8538 0.5748 l
0.8577 0.5818 l
0.8615 0.5889 l
0.8654 0.5963 l
0.8692 0.6038 l
0.8731 0.6116 l
0.8769 0.6195 l
0.8808 0.6277 l
0.8846 0.6360 l
0.8885 0.6446 l
0.8923 0.6534 l
0.8962 0.6624 l
0.9000 0.6716 l
0.9038 0.6811 l
0.9077 0.6908 l
0.9115 0.7007 l
0.9154 0.7109 l
0.9192 0.7214 l
s
[/DeviceRGB] SCS
Color2 SC
n
0.1499 0.5001 m
0.1500 0.5001 l
0.1538 0.5001 l
0.1577 0.5001 l
0.1615 0.5001 l
0.1654 0.5001 l
0.1692 0.5002 l
0.1731 0.5002 l
0.1769 0.5002 l
0.1808 0.5002 l
0.1846 0.5002 l
0.1885 0.5003 l
0.1923 0.5003 l
0.1962 0.5003 l
0.2000 0.5004 l
0.2038 0.5004 l
0.2077 0.5004 l
0.2115 0.5005 l
0.2154 0.5005 l
0.2192 0.5006 l
0.2231 0.5006 l
0.2269 0.5007 l
0.2308 0.5007 l
0.2346 0.5008 l
0.2385 0.5008 l
0.2423 0.5009 l
0.2462 0.5010 l
0.2500 0.5010 l
0.2538 0.5011 l
0.2577 0.5012 l
0.2615 0.5013 l
0.2654 0.5014 l
0.2692 0.5015 l
0.2731 0.5016 l
0.2769 0.5017 l
0.2808 0.5018 l
0.2846 0.5019 l
0.2885 0.5021 l
0.2923 0.5022 l
0.2962 0.5023 l
0.3000 0.5025 l
0.3038 0.5026 l
0.3077 0.5028 l
0.3115 0.5030 l
0.3154 0.5031 l
0.3192 0.5033 l
0.3231 0.5035 l
0.3269 0.5037 l
0.3308 0.5039 l
0.3346 0.5041 l
0.3385 0.5044 l
0.3423 0.5046 l
0.3462 0.5048 l
0.3500 0.5051 l
0.3538 0.5054 l
0.3577 0.5056 l
0.3615 0.5059 l
0.3654 0.5062 l
0.3692 0.5065 l
0.3731 0.5068 l
0.3769 0.5072 l
0.3808 0.5075 l
0.3846 0.5079 l
0.3885 0.5082 l
0.3923 0.5086 l
0.3962 0.5090 l
0.4000 0.5094 l
0.4038 0.5098 l
0.4077 0.5102 l
0.4115 0.5107 l
0.4154 0.5111 l
0.4192 0.5116 l
0.4231 0.5121 l
0.4269 0.5126 l
0.4308 0.5131 l
0.4346 0.5136 l
0.4385 0.5142 l
0.4423 0.5147 l
0.4462 0.5153 l
0.4500 0.5159 l
0.4538 0.5165 l
0.4577 0.5171 l
0.4615 0.5177 l
0.4654 0.5184 l
0.4692 0.5191 l
0.4731 0.5198 l
0.4769 0.5205 l
0.4808 0.5212 l
0.4846 0.5219 l
0.4885 0.5227 l
0.4923 0.5235 l
0.4962 0.5242 l
0.5000 0.5251 l
0.5038 0.5259 l
0.5077 0.5267 l
0.5115 0.5276 l
0.5154 0.5285 l
0.5192 0.5294 l
0.5231 0.5303 l
0.5269 0.5312 l
0.5308 0.5322 l
0.5346 0.5332 l
0.5385 0.5342 l
0.5423 0.5352 l
0.5462 0.5362 l
0.5500 0.5373 l
0.5538 0.5384 l
0.5577 0.5394 l
0.5615 0.5406 l
0.5654 0.5417 l
0.5692 0.5428 l
0.5731 0.5440 l
0.5769 0.5452 l
0.5808 0.5464 l
0.5846 0.5476 l
0.5885 0.5489 l
0.5923 0.5501 l
0.5962 0.5514 l
0.6000 0.5527 l
0.6038 0.5540 l
0.6077 0.5554 l
0.6115 0.5567 l
0.6154 0.5581 l
0.6192 0.5595 l
0.6231 0.5609 l
0.6269 0.5623 l
0.6308 0.5637 l
0.6346 0.5652 l
0.6385 0.5666 l
0.6423 0.5681 l
0.6462 0.5696 l
0.6500 0.5711 l
0.6538 0.5727 l
0.6577 0.5742 l
0.6615 0.5758 l
0.6654 0.5774 l
0.6692 0.5789 l
0.6731 0.5805 l
0.6769 0.5822 l
0.6808 0.5838 l
0.6846 0.5854 l
0.6885 0.5871 l
0.6923 0.5887 l
0.6962 0.5904 l
0.7000 0.5921 l
0.7038 0.5937 l
0.7077 0.5954 l
0.7115 0.5971 l
0.7154 0.5989 l
0.7192 0.6006 l
0.7231 0.6023 l
0.7269 0.6040 l
0.7308 0.6057 l
0.7346 0.6075 l
0.7385 0.6092 l
0.7423 0.6110 l
0.7462 0.6127 l
0.7500 0.6144 l
0.7538 0.6162 l
0.7577 0.6179 l
0.7615 0.6197 l
0.7654 0.6214 l
0.7692 0.6231 l
0.7731 0.6249 l
0.7769 0.6266 l
0.7808 0.6283 l
0.7846 0.6300 l
0.7885 0.6317 l
0.7923 0.6334 l
0.7962 0.6351 l
0.8000 0.6368 l
0.8038 0.6384 l
0.8077 0.6401 l
0.8115 0.6417 l
0.8154 0.6434 l
0.8192 0.6450 l
0.8231 0.6466 l
0.8269 0.6481 l
0.8308 0.6497 l
0.8346 0.6512 l
0.8385 0.6527 l
0.8423 0.6542 l
0.8462 0.6557 l
0.8500 0.6572 l
0.8538 0.6586 l
0.8577 0.6600 l
0.8615 0.6613 l
0.8654 0.6627 l
0.8692 0.6640 l
0.8731 0.6653 l
0.8769 0.6665 l
0.8808 0.6677 l
0.8846 0.6689 l
0.8885 0.6701 l
0.8923 0.6712 l
0.8962 0.6723 l
0.9000 0.6733 l
0.9038 0.6743 l
0.9077 0.6753 l
0.9115 0.6762 l
0.9154 0.6771 l
0.9192 0.6779 l
s
[/DeviceRGB] SCS
Color3 SC
n
0.1499 0.4999 m
0.1500 0.4999 l
0.1538 0.4999 l
0.1577 0.4999 l
0.1615 0.4999 l
0.1654 0.4999 l
0.1692 0.4999 l
0.1731 0.4999 l
0.1769 0.4999 l
0.1808 0.4998 l
0.1846 0.4998 l
0.1885 0.4998 l
0.1923 0.4998 l
0.1962 0.4998 l
0.2000 0.4997 l
0.2038 0.4997 l
0.2077 0.4997 l
0.2115 0.4997 l
0.2154 0.4996 l
0.2192 0.4996 l
0.2231 0.4996 l
0.2269 0.4995 l
0.2308 0.4995 l
0.2346 0.4994 l
0.2385 0.4994 l
0.2423 0.4993 l
0.2462 0.4993 l
0.2500 0.4992 l
0.2538 0.4992 l
0.2577 0.4991 l
0.2615 0.4991 l
0.2654 0.4990 l
0.2692 0.4989 l
0.2731 0.4989 l
0.2769 0.4988 l
0.2808 0.4987 l
0.2846 0.4986 l
0.2885 0.4985 l
0.2923 0.4984 l
0.2962 0.4983 l
0.3000 0.4982 l
0.3038 0.4981 l
0.3077 0.4980 l
0.3115 0.4979 l
0.3154 0.4978 l
0.3192 0.4977 l
0.3231 0.4975 l
0.3269 0.4974 l
0.3308 0.4973 l
0.3346 0.4971 l
0.3385 0.4970 l
0.3423 0.4968 l
0.3462 0.4966 l
0.3500 0.4965 l
0.3538 0.4963 l
0.3577 0.4961 l
0.3615 0.4959 l
0.3654 0.4957 l
0.3692 0.4955 l
0.3731 0.4953 l
0.3769 0.4951 l
0.3808 0.4949 l
0.3846 0.4947 l
0.3885 0.4945 l
0.3923 0.4942 l
0.3962 0.4940 l
0.4000 0.4937 l
0.4038 0.4935 l
0.4077 0.4932 l
0.4115 0.4929 l
0.4154 0.4927 l
0.4192 0.4924 l
0.4231 0.4921 l
0.4269 0.4918 l
0.4308 0.4915 l
0.4346 0.4911 l
0.4385 0.4908 l
0.4423 0.4905 l
0.4462 0.4902 l
0.4500 0.4898 l
0.4538 0.4895 l
0.4577 0.4891 l
0.4615 0.4887 l
0.4654 0.4883 l
0.4692 0.4880 l
0.4731 0.4876 l
0.4769 0.4872 l
0.4808 0.4868 l
0.4846 0.4863 l
0.4885 0.4859 l
0.4923 0.4855 l
0.4962 0.4851 l
0.5000 0.4846 l
0.5038 0.4842 l
0.5077 0.4837 l
0.5115 0.4832 l
0.5154 0.4828 l
0.5192 0.4823 l
0.5231 0.4818 l
0.5269 0.4813 l
0.5308 0.4808 l
0.5346 0.4803 l
0.5385 0.4798 l
0.5423 0.4793 l
0.5462 0.4788 l
0.5500 0.4782 l
0.5538 0.4777 l
0.5577 0.4771 l
0.5615 0.4766 l
0.5654 0.4760 l
0.5692 0.4755 l
0.5731 0.4749 l
0.5769 0.4743 l
0.5808 0.4738 l
0.5846 0.4732 l
0.5885 0.4726 l
0.5923 0.4720 l
0.5962 0.4714 l
0.6000 0.4708 l
0.6038 0.4702 l
0.6077 0.4696 l
0.6115 0.4690 l
0.6154 0.4684 l
0.6192 0.4677 l
0.6231 0.4671 l
0.6269 0.4665 l
0.6308 0.4658 l
0.6346 0.4652 l
0.6385 0.4645 l
0.6423 0.4639 l
0.6462 0.4632 l
0.6500 0.4626 l
0.6538 0.4619 l
0.6577 0.4613 l
0.6615 0.4606 l
0.6654 0.4599 l
0.6692 0.4593 l
0.6731 0.4586 l
0.6769 0.4579 l
0.6808 0.4572 l
0.6846 0.4565 l
0.6885 0.4558 l
0.6923 0.4551 l
0.6962 0.4544 l
0.7000 0.4537 l
0.7038 0.4530 l
0.7077 0.4523 l
0.7115 0.4515 l
0.7154 0.4508 l
0.7192 0.4500 l
0.7231 0.4493 l
0.7269 0.4485 l
0.7308 0.4478 l
0.7346 0.4470 l
0.7385 0.4462 l
0.7423 0.4454 l
0.7462 0.4446 l
0.7500 0.4438 l
0.7538 0.4429 l
0.7577 0.4421 l
0.7615 0.4412 l
0.7654 0.4404 l
0.7692 0.4395 l
0.7731 0.4386 l
0.7769 0.4376 l
0.7808 0.4367 l
0.7846 0.4357 l
0.7885 0.4347 l
0.7923 0.4337 l
0.7962 0.4326 l
0.8000 0.4315 l
0.8038 0.4304 l
0.8077 0.4293 l
0.8115 0.4281 l
0.8154 0.4269 l
0.8192 0.4256 l
0.8231 0.4243 l
0.8269 0.4230 l
0.8308 0.4216 l
0.8346 0.4202 l
0.8385 0.4187 l
0.8423 0.4171 l
0.8462 0.4155 l
0.8500 0.4139 l
0.8538 0.4121 l
0.8577 0.4103 l
0.8615 0.4084 l
0.8654 0.4065 l
0.8692 0.4045 l
0.8731 0.4023 l
0.8769 0.4001 l
0.8808 0.3978 l
0.8846 0.3954 l
0.8885 0.3929 l
0.8923 0.3903 l
0.8962 0.3876 l
0.9000 0.3847 l
0.9038 0.3818 l
0.9077 0.3786 l
0.9115 0.3754 l
0.9154 0.3720 l
0.9192 0.3684 l
s
[/DeviceRGB] SCS
Color4 SC
n
0.1499 0.5002 m
0.1500 0.5002 l
0.1538 0.5002 l
0.1577 0.5002 l
0.1615 0.5002 l
0.1654 0.5003 l
0.1692 0.5003 l
0.1731 0.5003 l
0.1769 0.5004 l
0.1808 0.5004 l
0.1846 0.5004 l
0.1885 0.5005 l
0.1923 0.5005 l
0.1962 0.5006 l
0.2000 0.5006 l
0.2038 0.5007 l
0.2077 0.5008 l
0.2115 0.5008 l
0.2154 0.5009 l
0.2192 0.5010 l
0.2231 0.5011 l
0.2269 0.5012 l
0.2308 0.5013 l
0.2346 0.5014 l
0.2385 0.5015 l
0.2423 0.5016 l
0.2462 0.5018 l
0.2500 0.5019 l
0.2538 0.5020 l
0.2577 0.5022 l
0.2615 0.5024 l
0.2654 0.5025 l
0.2692 0.5027 l
0.2731 0.5029 l
0.2769 0.5031 l
0.2808 0.5033 l
0.2846 0.5035 l
0.2885 0.5038 l
0.2923 0.5040 l
0.2962 0.5043 l
0.3000 0.5046 l
0.3038 0.5048 l
0.3077 0.5051 l
0.3115 0.5055 l
0.3154 0.5058 l
0.3192 0.5061 l
0.3231 0.5065 l
0.3269 0.5069 l
0.3308 0.5073 l
0.3346 0.5077 l
0.3385 0.5081 l
0.3423 0.5085 l
0.3462 0.5090 l
0.3500 0.5095 l
0.3538 0.5100 l
0.3577 0.5105 l
0.3615 0.5111 l
0.3654 0.5116 l
0.3692 0.5122 l
0.3731 0.5129 l
0.3769 0.5135 l
0.3808 0.5142 l
0.3846 0.5148 l
0.3885 0.5156 l
0.3923 0.5163 l
0.3962 0.5171 l
0.4000 0.5179 l
0.4038 0.5187 l
0.4077 0.5195 l
0.4115 0.5204 l
0.4154 0.5213 l
0.4192 0.5223 l
0.4231 0.5232 l
0.4269 0.5242 l
0.4308 0.5253 l
0.4346 0.5264 l
0.4385 0.5275 l
0.4423 0.5286 l
0.4462 0.5298 l
0.4500 0.5310 l
0.4538 0.5323 l
0.4577 0.5336 l
0.4615 0.5349 l
0.4654 0.5363 l
0.4692 0.5377 l
0.4731 0.5392 l
0.4769 0.5407 l
0.4808 0.5422 l
0.4846 0.5438 l
0.4885 0.5454 l
0.4923 0.5471 l
0.4962 0.5488 l
0.5000 0.5506 l
0.5038 0.5524 l
0.5077 0.5543 l
0.5115 0.5563 l
0.5154 0.5582 l
0.5192 0.5603 l
0.5231 0.5624 l
0.5269 0.5645 l
0.5308 0.5667 l
0.5346 0.5690 l
0.5385 0.5713 l
0.5423 0.5737 l
0.5462 0.5761 l
0.5500 0.5786 l
0.5538 0.5812 l
0.5577 0.5838 l
0.5615 0.5865 l
0.5654 0.5892 l
0.5692 0.5921 l
0.5731 0.5950 l
0.5769 0.5979 l
0.5808 0.6010 l
0.5846 0.6041 l
0.5885 0.6073 l
0.5923 0.6105 l
0.5962 0.6139 l
0.6000 0.6173 l
0.6038 0.6208 l
0.6077 0.6244 l
0.6115 0.6280 l
0.6154 0.6318 l
0.6192 0.6356 l
0.6231 0.6395 l
0.6269 0.6436 l
0.6308 0.6477 l
0.6346 0.6519 l
0.6385 0.6561 l
0.6423 0.6605 l
0.6462 0.6650 l
0.6500 0.6696 l
0.6538 0.6743 l
0.6577 0.6791 l
0.6615 0.6840 l
0.6654 0.6890 l
0.6692 0.6941 l
0.6731 0.6993 l
0.6769 0.7047 l
0.6808 0.7101 l
0.6846 0.7157 l
0.6885 0.7214 l
0.6923 0.7273 l
0.6962 0.7332 l
0.7000 0.7393 l
0.7038 0.7455 l
0.7077 0.7519 l
0.7115 0.7584 l
0.7154 0.7650 l
0.7192 0.7718 l
0.7231 0.7787 l
0.7269 0.7858 l
0.7308 0.7930 l
0.7346 0.8004 l
0.7385 0.8079 l
0.7423 0.8157 l
0.7462 0.8235 l
0.7500 0.8316 l
0.7538 0.8398 l
0.7577 0.8482 l
0.7585 0.8501 l
s
[/DeviceRGB] SCS
Color6 SC
n
0.1499 0.4898 m
0.1500 0.4898 l
0.1538 0.4891 l
0.1577 0.4884 l
0.1615 0.4877 l
0.1654 0.4869 l
0.1692 0.4861 l
0.1731 0.4854 l
0.1769 0.4845 l
0.1808 0.4837 l
0.1846 0.4828 l
0.1885 0.4819 l
0.1923 0.4810 l
0.1962 0.4801 l
0.2000 0.4791 l
0.2038 0.4781 l
0.2077 0.4771 l
0.2115 0.4761 l
0.2154 0.4750 l
0.2192 0.4740 l
0.2231 0.4729 l
0.2269 0.4717 l
0.2308 0.4706 l
0.2346 0.4694 l
0.2385 0.4682 l
0.2423 0.4670 l
0.2462 0.4658 l
0.2500 0.4645 l
0.2538 0.4633 l
0.2577 0.4620 l
0.2615 0.4607 l
0.2654 0.4594 l
0.2692 0.4580 l
0.2731 0.4566 l
0.2769 0.4553 l
0.2808 0.4539 l
0.2846 0.4524 l
0.2885 0.4510 l
0.2923 0.4496 l
0.2962 0.4481 l
0.3000 0.4466 l
0.3038 0.4451 l
0.3077 0.4436 l
0.3115 0.4421 l
0.3154 0.4405 l
0.3192 0.4390 l
0.3231 0.4374 l
0.3269 0.4359 l
0.3308 0.4343 l
0.3346 0.4327 l
0.3385 0.4311 l
0.3423 0.4295 l
0.3462 0.4278 l
0.3500 0.4262 l
0.3538 0.4246 l
0.3577 0.4229 l
0.3615 0.4213 l
0.3654 0.4196 l
0.3692 0.4179 l
0.3731 0.4163 l
0.3769 0.4146 l
0.3808 0.4129 l
0.3846 0.4112 l
0.3885 0.4096 l
0.3923 0.4079 l
0.3962 0.4062 l
0.4000 0.4045 l
0.4038 0.4028 l
0.4077 0.4012 l
0.4115 0.3995 l
0.4154 0.3978 l
0.4192 0.3961 l
0.4231 0.3945 l
0.4269 0.3928 l
0.4308 0.3912 l
0.4346 0.3895 l
0.4385 0.3879 l
0.4423 0.3863 l
0.4462 0.3847 l
0.4500 0.3831 l
0.4538 0.3815 l
0.4577 0.3799 l
0.4615 0.3783 l
0.4654 0.3768 l
0.4692 0.3752 l
0.4731 0.3737 l
0.4769 0.3722 l
0.4808 0.3707 l
0.4846 0.3692 l
0.4885 0.3678 l
0.4923 0.3663 l
0.4962 0.3649 l
0.5000 0.3635 l
0.5038 0.3622 l
0.5077 0.3608 l
0.5115 0.3595 l
0.5154 0.3582 l
0.5192 0.3569 l
0.5231 0.3557 l
0.5269 0.3545 l
0.5308 0.3533 l
0.5346 0.3521 l
0.5385 0.3510 l
0.5423 0.3499 l
0.5462 0.3489 l
0.5500 0.3478 l
0.5538 0.3469 l
0.5577 0.3459 l
0.5615 0.3450 l
0.5654 0.3441 l
0.5692 0.3433 l
0.5731 0.3425 l
0.5769 0.3417 l
0.5808 0.3410 l
0.5846 0.3404 l
0.5885 0.3397 l
0.5923 0.3392 l
0.5962 0.3386 l
0.6000 0.3382 l
0.6038 0.3377 l
0.6077 0.3373 l
0.6115 0.3370 l
0.6154 0.3367 l
0.6192 0.3365 l
0.6231 0.3363 l
0.6269 0.3362 l
0.6308 0.3361 l
0.6346 0.3361 l
0.6385 0.3361 l
0.6423 0.3363 l
0.6462 0.3364 l
0.6500 0.3366 l
0.6538 0.3369 l
0.6577 0.3373 l
0.6615 0.3377 l
0.6654 0.3382 l
0.6692 0.3387 l
0.6731 0.3393 l
0.6769 0.3400 l
0.6808 0.3408 l
0.6846 0.3416 l
0.6885 0.3425 l
0.6923 0.3434 l
0.6962 0.3444 l
0.7000 0.3455 l
0.7038 0.3467 l
0.7077 0.3480 l
0.7115 0.3493 l
0.7154 0.3507 l
0.7192 0.3522 l
0.7231 0.3538 l
0.7269 0.3554 l
0.7308 0.3571 l
0.7346 0.3589 l
0.7385 0.3608 l
0.7423 0.3628 l
0.7462 0.3648 l
0.7500 0.3669 l
0.7538 0.3691 l
0.7577 0.3714 l
0.7615 0.3738 l
0.7654 0.3763 l
0.7692 0.3788 l
0.7731 0.3815 l
0.7769 0.3842 l
0.7808 0.3870 l
0.7846 0.3899 l
0.7885 0.3929 l
0.7923 0.3960 l
0.7962 0.3992 l
0.8000 0.4024 l
0.8038 0.4058 l
0.8077 0.4092 l
0.8115 0.4128 l
0.8154 0.4164 l
0.8192 0.4201 l
0.8231 0.4239 l
0.8269 0.4278 l
0.8308 0.4318 l
0.8346 0.4358 l
0.8385 0.4400 l
0.8423 0.4442 l
0.8462 0.4486 l
0.8500 0.4530 l
0.8538 0.4575 l
0.8577 0.4621 l
0.8615 0.4668 l
0.8654 0.4716 l
0.8692 0.4764 l
0.8731 0.4814 l
0.8769 0.4864 l
0.8808 0.4915 l
0.8846 0.4967 l
0.8885 0.5020 l
0.8923 0.5073 l
0.8962 0.5127 l
0.9000 0.5182 l
0.9038 0.5238 l
0.9077 0.5295 l
0.9115 0.5352 l
0.9154 0.5410 l
0.9192 0.5468 l
s
[/DeviceRGB] SCS
Color11 SC
n
0.1499 0.4999 m
0.1500 0.4999 l
0.1538 0.4999 l
0.1577 0.4998 l
0.1615 0.4998 l
0.1654 0.4998 l
0.1692 0.4998 l
0.1731 0.4998 l
0.1769 0.4997 l
0.1808 0.4997 l
0.1846 0.4997 l
0.1885 0.4996 l
0.1923 0.4996 l
0.1962 0.4996 l
0.2000 0.4995 l
0.2038 0.4995 l
0.2077 0.4994 l
0.2115 0.4994 l
0.2154 0.4993 l
0.2192 0.4992 l
0.2231 0.4992 l
0.2269 0.4991 l
0.2308 0.4990 l
0.2346 0.4990 l
0.2385 0.4989 l
0.2423 0.4988 l
0.2462 0.4987 l
0.2500 0.4986 l
0.2538 0.4985 l
0.2577 0.4984 l
0.2615 0.4982 l
0.2654 0.4981 l
0.2692 0.4980 l
0.2731 0.4978 l
0.2769 0.4977 l
0.2808 0.4975 l
0.2846 0.4974 l
0.2885 0.4972 l
0.2923 0.4970 l
0.2962 0.4968 l
0.3000 0.4966 l
0.3038 0.4964 l
0.3077 0.4962 l
0.3115 0.4960 l
0.3154 0.4957 l
0.3192 0.4955 l
0.3231 0.4952 l
0.3269 0.4949 l
0.3308 0.4946 l
0.3346 0.4943 l
0.3385 0.4940 l
0.3423 0.4937 l
0.3462 0.4934 l
0.3500 0.4930 l
0.3538 0.4927 l
0.3577 0.4923 l
0.3615 0.4919 l
0.3654 0.4915 l
0.3692 0.4910 l
0.3731 0.4906 l
0.3769 0.4901 l
0.3808 0.4897 l
0.3846 0.4892 l
0.3885 0.4887 l
0.3923 0.4881 l
0.3962 0.4876 l
0.4000 0.4870 l
0.4038 0.4864 l
0.4077 0.4858 l
0.4115 0.4852 l
0.4154 0.4846 l
0.4192 0.4839 l
0.4231 0.4832 l
0.4269 0.4825 l
0.4308 0.4818 l
0.4346 0.4810 l
0.4385 0.4803 l
0.4423 0.4795 l
0.4462 0.4786 l
0.4500 0.4778 l
0.4538 0.4769 l
0.4577 0.4760 l
0.4615 0.4751 l
0.4654 0.4742 l
0.4692 0.4732 l
0.4731 0.4722 l
0.4769 0.4712 l
0.4808 0.4701 l
0.4846 0.4690 l
0.4885 0.4679 l
0.4923 0.4668 l
0.4962 0.4656 l
0.5000 0.4644 l
0.5038 0.4631 l
0.5077 0.4619 l
0.5115 0.4606 l
0.5154 0.4592 l
0.5192 0.4579 l
0.5231 0.4565 l
0.5269 0.4551 l
0.5308 0.4536 l
0.5346 0.4521 l
0.5385 0.4506 l
0.5423 0.4490 l
0.5462 0.4474 l
0.5500 0.4457 l
0.5538 0.4441 l
0.5577 0.4423 l
0.5615 0.4406 l
0.5654 0.4388 l
0.5692 0.4370 l
0.5731 0.4351 l
0.5769 0.4332 l
0.5808 0.4312 l
0.5846 0.4292 l
0.5885 0.4272 l
0.5923 0.4251 l
0.5962 0.4230 l
0.6000 0.4208 l
0.6038 0.4186 l
0.6077 0.4163 l
0.6115 0.4140 l
0.6154 0.4116 l
0.6192 0.4092 l
0.6231 0.4068 l
0.6269 0.4043 l
0.6308 0.4017 l
0.6346 0.3991 l
0.6385 0.3965 l
0.6423 0.3937 l
0.6462 0.3910 l
0.6500 0.3882 l
0.6538 0.3853 l
0.6577 0.3824 l
0.6615 0.3794 l
0.6654 0.3763 l
0.6692 0.3732 l
0.6731 0.3701 l
0.6769 0.3669 l
0.6808 0.3636 l
0.6846 0.3602 l
0.6885 0.3568 l
0.6923 0.3533 l
0.6962 0.3498 l
0.7000 0.3462 l
0.7038 0.3425 l
0.7077 0.3387 l
0.7115 0.3349 l
0.7154 0.3310 l
0.7192 0.3271 l
0.7231 0.3230 l
0.7269 0.3189 l
0.7308 0.3147 l
0.7346 0.3104 l
0.7385 0.3060 l
0.7423 0.3015 l
0.7462 0.2970 l
0.7500 0.2924 l
0.7538 0.2876 l
0.7577 0.2828 l
0.7615 0.2779 l
0.7654 0.2729 l
0.7692 0.2678 l
0.7731 0.2626 l
0.7769 0.2573 l
0.7808 0.2518 l
0.7846 0.2463 l
0.7885 0.2406 l
0.7923 0.2349 l
0.7962 0.2290 l
0.8000 0.2230 l
0.8038 0.2169 l
0.8077 0.2106 l
0.8115 0.2042 l
0.8154 0.1977 l
0.8192 0.1910 l
0.8231 0.1842 l
0.8269 0.1773 l
0.8308 0.1701 l
0.8346 0.1629 l
0.8385 0.1555 l
0.8413 0.1499 l
s
[/DeviceRGB] SCS
Color1 SC
[] 0 SD
0.0045 SLW
n
0.1500 0.1500 m
1.1500 0.1500 l
s
n
0.1500 0.8500 m
1.1500 0.8500 l
s
n
0.2846 0.1500 m
0.2846 0.1600 l
s
n
0.2846 0.8500 m
0.2846 0.8400 l
s
n
0.4769 0.1500 m
0.4769 0.1600 l
s
n
0.4769 0.8500 m
0.4769 0.8400 l
s
n
0.6692 0.1500 m
0.6692 0.1600 l
s
n
0.6692 0.8500 m
0.6692 0.8400 l
s
n
0.8615 0.1500 m
0.8615 0.1600 l
s
n
0.8615 0.8500 m
0.8615 0.8400 l
s
n
1.0538 0.1500 m
1.0538 0.1600 l
s
n
1.0538 0.8500 m
1.0538 0.8400 l
s
n
0.1885 0.1500 m
0.1885 0.1700 l
s
n
0.1885 0.8500 m
0.1885 0.8300 l
s
n
0.3808 0.1500 m
0.3808 0.1700 l
s
n
0.3808 0.8500 m
0.3808 0.8300 l
s
n
0.5731 0.1500 m
0.5731 0.1700 l
s
n
0.5731 0.8500 m
0.5731 0.8300 l
s
n
0.7654 0.1500 m
0.7654 0.1700 l
s
n
0.7654 0.8500 m
0.7654 0.8300 l
s
n
0.9577 0.1500 m
0.9577 0.1700 l
s
n
0.9577 0.8500 m
0.9577 0.8300 l
s
n
1.1500 0.1500 m
1.1500 0.1700 l
s
n
1.1500 0.8500 m
1.1500 0.8300 l
s
/Times-Roman findfont
dup length dict begin
 {1 index /FID ne {def} {pop pop} ifelse} forall
 /Encoding DefEncoding def
 currentdict
end
/Font0 exch definefont pop
/Font0 FFSF
0.1618 0.1090 m
GS
[0.0448 0.0000 0.0000 0.0448 0 0] CC
(0,5) show
GR
/Font0 FFSF
0.3719 0.1094 m
GS
[0.0448 0.0000 0.0000 0.0448 0 0] CC
(1) show
GR
/Font0 FFSF
0.5464 0.1090 m
GS
[0.0448 0.0000 0.0000 0.0448 0 0] CC
(1,5) show
GR
/Font0 FFSF
0.7548 0.1094 m
GS
[0.0448 0.0000 0.0000 0.0448 0 0] CC
(2) show
GR
/Font0 FFSF
0.9310 0.1090 m
GS
[0.0448 0.0000 0.0000 0.0448 0 0] CC
(2,5) show
GR
/Font0 FFSF
1.1402 0.1094 m
GS
[0.0448 0.0000 0.0000 0.0448 0 0] CC
(3) show
GR
/Font0 FFSF
0.5635 0.0386 m
GS
[0.0504 0.0000 0.0000 0.0504 0 0] CC
(k) show
GR
/Font0 FFSF
0.5886 0.0184 m
GS
[0.0356 0.0000 0.0000 0.0356 0 0] CC
(F) show
GR
/Font0 FFSF
0.6086 0.0386 m
GS
[0.0504 0.0000 0.0000 0.0504 0 0] CC
( [fm) show
GR
/Font0 FFSF
0.6941 0.0688 m
GS
[0.0356 0.0000 0.0000 0.0356 0 0] CC
(-1) show
GR
/Font0 FFSF
0.7239 0.0386 m
GS
[0.0504 0.0000 0.0000 0.0504 0 0] CC
(]) show
GR
n
0.1500 0.1500 m
0.1500 0.8500 l
s
n
1.1500 0.1500 m
1.1500 0.8500 l
s
n
0.1500 0.2083 m
0.1600 0.2083 l
s
n
1.1500 0.2083 m
1.1400 0.2083 l
s
n
0.1500 0.3250 m
0.1600 0.3250 l
s
n
1.1500 0.3250 m
1.1400 0.3250 l
s
n
0.1500 0.4417 m
0.1600 0.4417 l
s
n
1.1500 0.4417 m
1.1400 0.4417 l
s
n
0.1500 0.5583 m
0.1600 0.5583 l
s
n
1.1500 0.5583 m
1.1400 0.5583 l
s
n
0.1500 0.6750 m
0.1600 0.6750 l
s
n
1.1500 0.6750 m
1.1400 0.6750 l
s
n
0.1500 0.7917 m
0.1600 0.7917 l
s
n
1.1500 0.7917 m
1.1400 0.7917 l
s
n
0.1500 0.1500 m
0.1700 0.1500 l
s
n
1.1500 0.1500 m
1.1300 0.1500 l
s
n
0.1500 0.2667 m
0.1700 0.2667 l
s
n
1.1500 0.2667 m
1.1300 0.2667 l
s
n
0.1500 0.3833 m
0.1700 0.3833 l
s
n
1.1500 0.3833 m
1.1300 0.3833 l
s
n
0.1500 0.5000 m
0.1700 0.5000 l
s
n
1.1500 0.5000 m
1.1300 0.5000 l
s
n
0.1500 0.6167 m
0.1700 0.6167 l
s
n
1.1500 0.6167 m
1.1300 0.6167 l
s
n
0.1500 0.7333 m
0.1700 0.7333 l
s
n
1.1500 0.7333 m
1.1300 0.7333 l
s
n
0.1500 0.8500 m
0.1700 0.8500 l
s
n
1.1500 0.8500 m
1.1300 0.8500 l
s
/Font0 FFSF
0.0816 0.1351 m
GS
[0.0448 0.0000 0.0000 0.0448 0 0] CC
(-60) show
GR
/Font0 FFSF
0.0816 0.2518 m
GS
[0.0448 0.0000 0.0000 0.0448 0 0] CC
(-40) show
GR
/Font0 FFSF
0.0816 0.3684 m
GS
[0.0448 0.0000 0.0000 0.0448 0 0] CC
(-20) show
GR
/Font0 FFSF
0.1188 0.4851 m
GS
[0.0448 0.0000 0.0000 0.0448 0 0] CC
(0) show
GR
/Font0 FFSF
0.0965 0.6018 m
GS
[0.0448 0.0000 0.0000 0.0448 0 0] CC
(20) show
GR
/Font0 FFSF
0.0965 0.7184 m
GS
[0.0448 0.0000 0.0000 0.0448 0 0] CC
(40) show
GR
/Font0 FFSF
0.0965 0.8351 m
GS
[0.0448 0.0000 0.0000 0.0448 0 0] CC
(60) show
GR
/Font0 FFSF
0.0718 0.3320 m
GS
[0.0000 0.0504 -0.0504 0.0126 0 0] CC
(V) show
GR
/Font0 FFSF
0.0718 0.3684 m
GS
[0.0000 0.0504 -0.0504 0.0000 0 0] CC
(\() show
GR
/Font0 FFSF
0.0416 0.3853 m
GS
[0.0000 0.0356 -0.0356 0.0000 0 0] CC
(2S+1) show
GR
/Font0 FFSF
0.0718 0.4610 m
GS
[0.0000 0.0504 -0.0504 0.0000 0 0] CC
(L) show
GR
/Font0 FFSF
0.0920 0.4920 m
GS
[0.0000 0.0356 -0.0356 0.0000 0 0] CC
(J) show
GR
/Font0 FFSF
0.0718 0.5057 m
GS
[0.0000 0.0504 -0.0504 0.0000 0 0] CC
(\) [MeV]) show
GR
[] 0 SD
0.0015 SLW
n
0.1500 0.1500 m
0.1500 0.8500 l
1.1500 0.8500 l
1.1500 0.1500 l
0.1500 0.1500 l
c
s
n
0.9300 0.8500 m
0.9300 0.3481 l
1.1500 0.3481 l
1.1500 0.8500 l
c
[/DeviceRGB] SCS
Color0 SC
fill
[/DeviceRGB] SCS
Color1 SC
[] 0 SD
0.0045 SLW
n
0.9300 0.8500 m
0.9300 0.3481 l
1.1500 0.3481 l
1.1500 0.8500 l
0.9300 0.8500 l
c
s
/Font0 FFSF
1.0000 0.8169 m
GS
[0.0345 0.0000 0.0000 0.0345 0 0] CC
(1) show
GR
/Font0 FFSF
1.0173 0.7876 m
GS
[0.0487 0.0000 0.0000 0.0487 0 0] CC
(S) show
GR
/Font0 FFSF
1.0443 0.7681 m
GS
[0.0345 0.0000 0.0000 0.0345 0 0] CC
(0) show
GR
n
0.9600 0.8039 0.0098 0.0098 0 360 EARC c
fill
[] 0 SD
0.0015 SLW
n 0.9600 0.8039 0.0098 0.0098 0 360 EARC s
/Font0 FFSF
1.0000 0.7346 m
GS
[0.0345 0.0000 0.0000 0.0345 0 0] CC
(1) show
GR
/Font0 FFSF
1.0173 0.7054 m
GS
[0.0487 0.0000 0.0000 0.0487 0 0] CC
(P) show
GR
/Font0 FFSF
1.0443 0.6859 m
GS
[0.0345 0.0000 0.0000 0.0345 0 0] CC
(1) show
GR
n
0.9515 0.7133 m
0.9515 0.7303 l
0.9685 0.7303 l
0.9685 0.7133 l
c
[/DeviceRGB] SCS
Color2 SC
fill
n
0.9515 0.7133 m
0.9515 0.7303 l
0.9685 0.7303 l
0.9685 0.7133 l
0.9515 0.7133 l
c
s
/Font0 FFSF
[/DeviceRGB] SCS
Color1 SC
1.0000 0.6528 m
GS
[0.0345 0.0000 0.0000 0.0345 0 0] CC
(3) show
GR
/Font0 FFSF
1.0173 0.6235 m
GS
[0.0487 0.0000 0.0000 0.0487 0 0] CC
(P) show
GR
/Font0 FFSF
1.0443 0.6040 m
GS
[0.0345 0.0000 0.0000 0.0345 0 0] CC
(0) show
GR
n
0.9515 0.6313 m
0.9515 0.6483 l
0.9685 0.6483 l
0.9685 0.6313 l
c
GS
Color0 SRGB
fill
GR
[/Pattern /DeviceRGB] SCS
Color3 Pattern8 SC
fill
[/DeviceRGB] SCS
Color3 SC
[] 0 SD
0.0037 SLW
n
0.9515 0.6313 m
0.9515 0.6483 l
0.9685 0.6483 l
0.9685 0.6313 l
0.9515 0.6313 l
c
s
/Font0 FFSF
[/DeviceRGB] SCS
Color1 SC
1.0000 0.5705 m
GS
[0.0345 0.0000 0.0000 0.0345 0 0] CC
(3) show
GR
/Font0 FFSF
1.0173 0.5413 m
GS
[0.0487 0.0000 0.0000 0.0487 0 0] CC
(P) show
GR
/Font0 FFSF
1.0443 0.5218 m
GS
[0.0345 0.0000 0.0000 0.0345 0 0] CC
(1) show
GR
n
0.9515 0.5492 m
0.9515 0.5662 l
0.9685 0.5662 l
0.9685 0.5492 l
c
GS
Color0 SRGB
fill
GR
[/Pattern /DeviceRGB] SCS
Color4 Pattern5 SC
fill
[/DeviceRGB] SCS
Color4 SC
n
0.9515 0.5492 m
0.9515 0.5662 l
0.9685 0.5662 l
0.9685 0.5492 l
0.9515 0.5492 l
c
s
/Font0 FFSF
[/DeviceRGB] SCS
Color1 SC
1.0000 0.4886 m
GS
[0.0345 0.0000 0.0000 0.0345 0 0] CC
(3) show
GR
/Font0 FFSF
1.0173 0.4594 m
GS
[0.0487 0.0000 0.0000 0.0487 0 0] CC
(P) show
GR
/Font0 FFSF
1.0443 0.4399 m
GS
[0.0345 0.0000 0.0000 0.0345 0 0] CC
(2) show
GR
/Font0 FFSF
1.0737 0.4886 m
GS
[0.0345 0.0000 0.0000 0.0345 0 0] CC
(3) show
GR
/Font0 FFSF
1.0910 0.4594 m
GS
[0.0487 0.0000 0.0000 0.0487 0 0] CC
(F) show
GR
/Font0 FFSF
1.1180 0.4399 m
GS
[0.0345 0.0000 0.0000 0.0345 0 0] CC
(2) show
GR
n
0.9600 0.4874 m
0.9500 0.4701 l
0.9700 0.4701 l
c
[/DeviceRGB] SCS
Color11 SC
fill
[] 0 SD
0.0015 SLW
n
0.9600 0.4874 m
0.9500 0.4701 l
0.9700 0.4701 l
0.9600 0.4874 l
c
s
/Font0 FFSF
[/DeviceRGB] SCS
Color1 SC
1.0000 0.4068 m
GS
[0.0345 0.0000 0.0000 0.0345 0 0] CC
(3) show
GR
/Font0 FFSF
1.0173 0.3776 m
GS
[0.0487 0.0000 0.0000 0.0487 0 0] CC
(S) show
GR
/Font0 FFSF
1.0443 0.3581 m
GS
[0.0345 0.0000 0.0000 0.0345 0 0] CC
(1) show
GR
/Font0 FFSF
1.0737 0.4068 m
GS
[0.0345 0.0000 0.0000 0.0345 0 0] CC
(3) show
GR
/Font0 FFSF
1.0910 0.3776 m
GS
[0.0487 0.0000 0.0000 0.0487 0 0] CC
(D) show
GR
/Font0 FFSF
1.1263 0.3581 m
GS
[0.0345 0.0000 0.0000 0.0345 0 0] CC
(1) show
GR
n
0.9600 0.4040 m
0.9500 0.3940 l
0.9600 0.3840 l
0.9700 0.3940 l
c
GS
Color0 SRGB
fill
GR
[/Pattern /DeviceRGB] SCS
Color6 Pattern16 SC
fill
[/DeviceRGB] SCS
Color6 SC
[] 0 SD
0.0030 SLW
n
0.9600 0.4040 m
0.9500 0.3940 l
0.9600 0.3840 l
0.9700 0.3940 l
0.9600 0.4040 l
c
s
%%Trailer
%%BoundingBox: 9 10 711 531
%%DocumentNeededResources: font Times-Roman
%%EOF
