%!PS-Adobe-2.0 EPSF-2.0
%%Title: lr_PNM.eps
%%Creator: gnuplot 5.0 patchlevel 3
%%CreationDate: Fri Jun 23 22:47:21 2017
%%DocumentFonts: (atend)
%%BoundingBox: 50 50 410 302
%%EndComments
%%BeginProlog
/gnudict 256 dict def
gnudict begin
%
% The following true/false flags may be edited by hand if desired.
% The unit line width and grayscale image gamma correction may also be changed.
%
/Color true def
/Blacktext false def
/Solid false def
/Dashlength 1 def
/Landscape false def
/Level1 false def
/Level3 false def
/Rounded false def
/ClipToBoundingBox false def
/SuppressPDFMark false def
/TransparentPatterns false def
/gnulinewidth 5.000 def
/userlinewidth gnulinewidth def
/Gamma 1.0 def
/BackgroundColor {-1.000 -1.000 -1.000} def
%
/vshift -60 def
/dl1 {
  10.0 Dashlength userlinewidth gnulinewidth div mul mul mul
  Rounded { currentlinewidth 0.75 mul sub dup 0 le { pop 0.01 } if } if
} def
/dl2 {
  10.0 Dashlength userlinewidth gnulinewidth div mul mul mul
  Rounded { currentlinewidth 0.75 mul add } if
} def
/hpt_ 31.5 def
/vpt_ 31.5 def
/hpt hpt_ def
/vpt vpt_ def
/doclip {
  ClipToBoundingBox {
    newpath 50 50 moveto 410 50 lineto 410 302 lineto 50 302 lineto closepath
    clip
  } if
} def
%
% Gnuplot Prolog Version 5.1 (Oct 2015)
%
%/SuppressPDFMark true def
%
/M {moveto} bind def
/L {lineto} bind def
/R {rmoveto} bind def
/V {rlineto} bind def
/N {newpath moveto} bind def
/Z {closepath} bind def
/C {setrgbcolor} bind def
/f {rlineto fill} bind def
/g {setgray} bind def
/Gshow {show} def   % May be redefined later in the file to support UTF-8
/vpt2 vpt 2 mul def
/hpt2 hpt 2 mul def
/Lshow {currentpoint stroke M 0 vshift R 
	Blacktext {gsave 0 setgray textshow grestore} {textshow} ifelse} def
/Rshow {currentpoint stroke M dup stringwidth pop neg vshift R
	Blacktext {gsave 0 setgray textshow grestore} {textshow} ifelse} def
/Cshow {currentpoint stroke M dup stringwidth pop -2 div vshift R 
	Blacktext {gsave 0 setgray textshow grestore} {textshow} ifelse} def
/UP {dup vpt_ mul /vpt exch def hpt_ mul /hpt exch def
  /hpt2 hpt 2 mul def /vpt2 vpt 2 mul def} def
/DL {Color {setrgbcolor Solid {pop []} if 0 setdash}
 {pop pop pop 0 setgray Solid {pop []} if 0 setdash} ifelse} def
/BL {stroke userlinewidth 2 mul setlinewidth
	Rounded {1 setlinejoin 1 setlinecap} if} def
/AL {stroke userlinewidth 2 div setlinewidth
	Rounded {1 setlinejoin 1 setlinecap} if} def
/UL {dup gnulinewidth mul /userlinewidth exch def
	dup 1 lt {pop 1} if 10 mul /udl exch def} def
/PL {stroke userlinewidth setlinewidth
	Rounded {1 setlinejoin 1 setlinecap} if} def
3.8 setmiterlimit
% Classic Line colors (version 5.0)
/LCw {1 1 1} def
/LCb {0 0 0} def
/LCa {0 0 0} def
/LC0 {1 0 0} def
/LC1 {0 1 0} def
/LC2 {0 0 1} def
/LC3 {1 0 1} def
/LC4 {0 1 1} def
/LC5 {1 1 0} def
/LC6 {0 0 0} def
/LC7 {1 0.3 0} def
/LC8 {0.5 0.5 0.5} def
% Default dash patterns (version 5.0)
/LTB {BL [] LCb DL} def
/LTw {PL [] 1 setgray} def
/LTb {PL [] LCb DL} def
/LTa {AL [1 udl mul 2 udl mul] 0 setdash LCa setrgbcolor} def
/LT0 {PL [] LC0 DL} def
/LT1 {PL [2 dl1 3 dl2] LC1 DL} def
/LT2 {PL [1 dl1 1.5 dl2] LC2 DL} def
/LT3 {PL [6 dl1 2 dl2 1 dl1 2 dl2] LC3 DL} def
/LT4 {PL [1 dl1 2 dl2 6 dl1 2 dl2 1 dl1 2 dl2] LC4 DL} def
/LT5 {PL [4 dl1 2 dl2] LC5 DL} def
/LT6 {PL [1.5 dl1 1.5 dl2 1.5 dl1 1.5 dl2 1.5 dl1 6 dl2] LC6 DL} def
/LT7 {PL [3 dl1 3 dl2 1 dl1 3 dl2] LC7 DL} def
/LT8 {PL [2 dl1 2 dl2 2 dl1 6 dl2] LC8 DL} def
/SL {[] 0 setdash} def
/Pnt {stroke [] 0 setdash gsave 1 setlinecap M 0 0 V stroke grestore} def
/Dia {stroke [] 0 setdash 2 copy vpt add M
  hpt neg vpt neg V hpt vpt neg V
  hpt vpt V hpt neg vpt V closepath stroke
  Pnt} def
/Pls {stroke [] 0 setdash vpt sub M 0 vpt2 V
  currentpoint stroke M
  hpt neg vpt neg R hpt2 0 V stroke
 } def
/Box {stroke [] 0 setdash 2 copy exch hpt sub exch vpt add M
  0 vpt2 neg V hpt2 0 V 0 vpt2 V
  hpt2 neg 0 V closepath stroke
  Pnt} def
/Crs {stroke [] 0 setdash exch hpt sub exch vpt add M
  hpt2 vpt2 neg V currentpoint stroke M
  hpt2 neg 0 R hpt2 vpt2 V stroke} def
/TriU {stroke [] 0 setdash 2 copy vpt 1.12 mul add M
  hpt neg vpt -1.62 mul V
  hpt 2 mul 0 V
  hpt neg vpt 1.62 mul V closepath stroke
  Pnt} def
/Star {2 copy Pls Crs} def
/BoxF {stroke [] 0 setdash exch hpt sub exch vpt add M
  0 vpt2 neg V hpt2 0 V 0 vpt2 V
  hpt2 neg 0 V closepath fill} def
/TriUF {stroke [] 0 setdash vpt 1.12 mul add M
  hpt neg vpt -1.62 mul V
  hpt 2 mul 0 V
  hpt neg vpt 1.62 mul V closepath fill} def
/TriD {stroke [] 0 setdash 2 copy vpt 1.12 mul sub M
  hpt neg vpt 1.62 mul V
  hpt 2 mul 0 V
  hpt neg vpt -1.62 mul V closepath stroke
  Pnt} def
/TriDF {stroke [] 0 setdash vpt 1.12 mul sub M
  hpt neg vpt 1.62 mul V
  hpt 2 mul 0 V
  hpt neg vpt -1.62 mul V closepath fill} def
/DiaF {stroke [] 0 setdash vpt add M
  hpt neg vpt neg V hpt vpt neg V
  hpt vpt V hpt neg vpt V closepath fill} def
/Pent {stroke [] 0 setdash 2 copy gsave
  translate 0 hpt M 4 {72 rotate 0 hpt L} repeat
  closepath stroke grestore Pnt} def
/PentF {stroke [] 0 setdash gsave
  translate 0 hpt M 4 {72 rotate 0 hpt L} repeat
  closepath fill grestore} def
/Circle {stroke [] 0 setdash 2 copy
  hpt 0 360 arc stroke Pnt} def
/CircleF {stroke [] 0 setdash hpt 0 360 arc fill} def
/C0 {BL [] 0 setdash 2 copy moveto vpt 90 450 arc} bind def
/C1 {BL [] 0 setdash 2 copy moveto
	2 copy vpt 0 90 arc closepath fill
	vpt 0 360 arc closepath} bind def
/C2 {BL [] 0 setdash 2 copy moveto
	2 copy vpt 90 180 arc closepath fill
	vpt 0 360 arc closepath} bind def
/C3 {BL [] 0 setdash 2 copy moveto
	2 copy vpt 0 180 arc closepath fill
	vpt 0 360 arc closepath} bind def
/C4 {BL [] 0 setdash 2 copy moveto
	2 copy vpt 180 270 arc closepath fill
	vpt 0 360 arc closepath} bind def
/C5 {BL [] 0 setdash 2 copy moveto
	2 copy vpt 0 90 arc
	2 copy moveto
	2 copy vpt 180 270 arc closepath fill
	vpt 0 360 arc} bind def
/C6 {BL [] 0 setdash 2 copy moveto
	2 copy vpt 90 270 arc closepath fill
	vpt 0 360 arc closepath} bind def
/C7 {BL [] 0 setdash 2 copy moveto
	2 copy vpt 0 270 arc closepath fill
	vpt 0 360 arc closepath} bind def
/C8 {BL [] 0 setdash 2 copy moveto
	2 copy vpt 270 360 arc closepath fill
	vpt 0 360 arc closepath} bind def
/C9 {BL [] 0 setdash 2 copy moveto
	2 copy vpt 270 450 arc closepath fill
	vpt 0 360 arc closepath} bind def
/C10 {BL [] 0 setdash 2 copy 2 copy moveto vpt 270 360 arc closepath fill
	2 copy moveto
	2 copy vpt 90 180 arc closepath fill
	vpt 0 360 arc closepath} bind def
/C11 {BL [] 0 setdash 2 copy moveto
	2 copy vpt 0 180 arc closepath fill
	2 copy moveto
	2 copy vpt 270 360 arc closepath fill
	vpt 0 360 arc closepath} bind def
/C12 {BL [] 0 setdash 2 copy moveto
	2 copy vpt 180 360 arc closepath fill
	vpt 0 360 arc closepath} bind def
/C13 {BL [] 0 setdash 2 copy moveto
	2 copy vpt 0 90 arc closepath fill
	2 copy moveto
	2 copy vpt 180 360 arc closepath fill
	vpt 0 360 arc closepath} bind def
/C14 {BL [] 0 setdash 2 copy moveto
	2 copy vpt 90 360 arc closepath fill
	vpt 0 360 arc} bind def
/C15 {BL [] 0 setdash 2 copy vpt 0 360 arc closepath fill
	vpt 0 360 arc closepath} bind def
/Rec {newpath 4 2 roll moveto 1 index 0 rlineto 0 exch rlineto
	neg 0 rlineto closepath} bind def
/Square {dup Rec} bind def
/Bsquare {vpt sub exch vpt sub exch vpt2 Square} bind def
/S0 {BL [] 0 setdash 2 copy moveto 0 vpt rlineto BL Bsquare} bind def
/S1 {BL [] 0 setdash 2 copy vpt Square fill Bsquare} bind def
/S2 {BL [] 0 setdash 2 copy exch vpt sub exch vpt Square fill Bsquare} bind def
/S3 {BL [] 0 setdash 2 copy exch vpt sub exch vpt2 vpt Rec fill Bsquare} bind def
/S4 {BL [] 0 setdash 2 copy exch vpt sub exch vpt sub vpt Square fill Bsquare} bind def
/S5 {BL [] 0 setdash 2 copy 2 copy vpt Square fill
	exch vpt sub exch vpt sub vpt Square fill Bsquare} bind def
/S6 {BL [] 0 setdash 2 copy exch vpt sub exch vpt sub vpt vpt2 Rec fill Bsquare} bind def
/S7 {BL [] 0 setdash 2 copy exch vpt sub exch vpt sub vpt vpt2 Rec fill
	2 copy vpt Square fill Bsquare} bind def
/S8 {BL [] 0 setdash 2 copy vpt sub vpt Square fill Bsquare} bind def
/S9 {BL [] 0 setdash 2 copy vpt sub vpt vpt2 Rec fill Bsquare} bind def
/S10 {BL [] 0 setdash 2 copy vpt sub vpt Square fill 2 copy exch vpt sub exch vpt Square fill
	Bsquare} bind def
/S11 {BL [] 0 setdash 2 copy vpt sub vpt Square fill 2 copy exch vpt sub exch vpt2 vpt Rec fill
	Bsquare} bind def
/S12 {BL [] 0 setdash 2 copy exch vpt sub exch vpt sub vpt2 vpt Rec fill Bsquare} bind def
/S13 {BL [] 0 setdash 2 copy exch vpt sub exch vpt sub vpt2 vpt Rec fill
	2 copy vpt Square fill Bsquare} bind def
/S14 {BL [] 0 setdash 2 copy exch vpt sub exch vpt sub vpt2 vpt Rec fill
	2 copy exch vpt sub exch vpt Square fill Bsquare} bind def
/S15 {BL [] 0 setdash 2 copy Bsquare fill Bsquare} bind def
/D0 {gsave translate 45 rotate 0 0 S0 stroke grestore} bind def
/D1 {gsave translate 45 rotate 0 0 S1 stroke grestore} bind def
/D2 {gsave translate 45 rotate 0 0 S2 stroke grestore} bind def
/D3 {gsave translate 45 rotate 0 0 S3 stroke grestore} bind def
/D4 {gsave translate 45 rotate 0 0 S4 stroke grestore} bind def
/D5 {gsave translate 45 rotate 0 0 S5 stroke grestore} bind def
/D6 {gsave translate 45 rotate 0 0 S6 stroke grestore} bind def
/D7 {gsave translate 45 rotate 0 0 S7 stroke grestore} bind def
/D8 {gsave translate 45 rotate 0 0 S8 stroke grestore} bind def
/D9 {gsave translate 45 rotate 0 0 S9 stroke grestore} bind def
/D10 {gsave translate 45 rotate 0 0 S10 stroke grestore} bind def
/D11 {gsave translate 45 rotate 0 0 S11 stroke grestore} bind def
/D12 {gsave translate 45 rotate 0 0 S12 stroke grestore} bind def
/D13 {gsave translate 45 rotate 0 0 S13 stroke grestore} bind def
/D14 {gsave translate 45 rotate 0 0 S14 stroke grestore} bind def
/D15 {gsave translate 45 rotate 0 0 S15 stroke grestore} bind def
/DiaE {stroke [] 0 setdash vpt add M
  hpt neg vpt neg V hpt vpt neg V
  hpt vpt V hpt neg vpt V closepath stroke} def
/BoxE {stroke [] 0 setdash exch hpt sub exch vpt add M
  0 vpt2 neg V hpt2 0 V 0 vpt2 V
  hpt2 neg 0 V closepath stroke} def
/TriUE {stroke [] 0 setdash vpt 1.12 mul add M
  hpt neg vpt -1.62 mul V
  hpt 2 mul 0 V
  hpt neg vpt 1.62 mul V closepath stroke} def
/TriDE {stroke [] 0 setdash vpt 1.12 mul sub M
  hpt neg vpt 1.62 mul V
  hpt 2 mul 0 V
  hpt neg vpt -1.62 mul V closepath stroke} def
/PentE {stroke [] 0 setdash gsave
  translate 0 hpt M 4 {72 rotate 0 hpt L} repeat
  closepath stroke grestore} def
/CircE {stroke [] 0 setdash 
  hpt 0 360 arc stroke} def
/Opaque {gsave closepath 1 setgray fill grestore 0 setgray closepath} def
/DiaW {stroke [] 0 setdash vpt add M
  hpt neg vpt neg V hpt vpt neg V
  hpt vpt V hpt neg vpt V Opaque stroke} def
/BoxW {stroke [] 0 setdash exch hpt sub exch vpt add M
  0 vpt2 neg V hpt2 0 V 0 vpt2 V
  hpt2 neg 0 V Opaque stroke} def
/TriUW {stroke [] 0 setdash vpt 1.12 mul add M
  hpt neg vpt -1.62 mul V
  hpt 2 mul 0 V
  hpt neg vpt 1.62 mul V Opaque stroke} def
/TriDW {stroke [] 0 setdash vpt 1.12 mul sub M
  hpt neg vpt 1.62 mul V
  hpt 2 mul 0 V
  hpt neg vpt -1.62 mul V Opaque stroke} def
/PentW {stroke [] 0 setdash gsave
  translate 0 hpt M 4 {72 rotate 0 hpt L} repeat
  Opaque stroke grestore} def
/CircW {stroke [] 0 setdash 
  hpt 0 360 arc Opaque stroke} def
/BoxFill {gsave Rec 1 setgray fill grestore} def
/Density {
  /Fillden exch def
  currentrgbcolor
  /ColB exch def /ColG exch def /ColR exch def
  /ColR ColR Fillden mul Fillden sub 1 add def
  /ColG ColG Fillden mul Fillden sub 1 add def
  /ColB ColB Fillden mul Fillden sub 1 add def
  ColR ColG ColB setrgbcolor} def
/BoxColFill {gsave Rec PolyFill} def
/PolyFill {gsave Density fill grestore grestore} def
/h {rlineto rlineto rlineto gsave closepath fill grestore} bind def
%
% PostScript Level 1 Pattern Fill routine for rectangles
% Usage: x y w h s a XX PatternFill
%	x,y = lower left corner of box to be filled
%	w,h = width and height of box
%	  a = angle in degrees between lines and x-axis
%	 XX = 0/1 for no/yes cross-hatch
%
/PatternFill {gsave /PFa [ 9 2 roll ] def
  PFa 0 get PFa 2 get 2 div add PFa 1 get PFa 3 get 2 div add translate
  PFa 2 get -2 div PFa 3 get -2 div PFa 2 get PFa 3 get Rec
  TransparentPatterns {} {gsave 1 setgray fill grestore} ifelse
  clip
  currentlinewidth 0.5 mul setlinewidth
  /PFs PFa 2 get dup mul PFa 3 get dup mul add sqrt def
  0 0 M PFa 5 get rotate PFs -2 div dup translate
  0 1 PFs PFa 4 get div 1 add floor cvi
	{PFa 4 get mul 0 M 0 PFs V} for
  0 PFa 6 get ne {
	0 1 PFs PFa 4 get div 1 add floor cvi
	{PFa 4 get mul 0 2 1 roll M PFs 0 V} for
 } if
  stroke grestore} def
%
/languagelevel where
 {pop languagelevel} {1} ifelse
dup 2 lt
	{/InterpretLevel1 true def
	 /InterpretLevel3 false def}
	{/InterpretLevel1 Level1 def
	 2 gt
	    {/InterpretLevel3 Level3 def}
	    {/InterpretLevel3 false def}
	 ifelse }
 ifelse
%
% PostScript level 2 pattern fill definitions
%
/Level2PatternFill {
/Tile8x8 {/PaintType 2 /PatternType 1 /TilingType 1 /BBox [0 0 8 8] /XStep 8 /YStep 8}
	bind def
/KeepColor {currentrgbcolor [/Pattern /DeviceRGB] setcolorspace} bind def
<< Tile8x8
 /PaintProc {0.5 setlinewidth pop 0 0 M 8 8 L 0 8 M 8 0 L stroke} 
>> matrix makepattern
/Pat1 exch def
<< Tile8x8
 /PaintProc {0.5 setlinewidth pop 0 0 M 8 8 L 0 8 M 8 0 L stroke
	0 4 M 4 8 L 8 4 L 4 0 L 0 4 L stroke}
>> matrix makepattern
/Pat2 exch def
<< Tile8x8
 /PaintProc {0.5 setlinewidth pop 0 0 M 0 8 L
	8 8 L 8 0 L 0 0 L fill}
>> matrix makepattern
/Pat3 exch def
<< Tile8x8
 /PaintProc {0.5 setlinewidth pop -4 8 M 8 -4 L
	0 12 M 12 0 L stroke}
>> matrix makepattern
/Pat4 exch def
<< Tile8x8
 /PaintProc {0.5 setlinewidth pop -4 0 M 8 12 L
	0 -4 M 12 8 L stroke}
>> matrix makepattern
/Pat5 exch def
<< Tile8x8
 /PaintProc {0.5 setlinewidth pop -2 8 M 4 -4 L
	0 12 M 8 -4 L 4 12 M 10 0 L stroke}
>> matrix makepattern
/Pat6 exch def
<< Tile8x8
 /PaintProc {0.5 setlinewidth pop -2 0 M 4 12 L
	0 -4 M 8 12 L 4 -4 M 10 8 L stroke}
>> matrix makepattern
/Pat7 exch def
<< Tile8x8
 /PaintProc {0.5 setlinewidth pop 8 -2 M -4 4 L
	12 0 M -4 8 L 12 4 M 0 10 L stroke}
>> matrix makepattern
/Pat8 exch def
<< Tile8x8
 /PaintProc {0.5 setlinewidth pop 0 -2 M 12 4 L
	-4 0 M 12 8 L -4 4 M 8 10 L stroke}
>> matrix makepattern
/Pat9 exch def
/Pattern1 {PatternBgnd KeepColor Pat1 setpattern} bind def
/Pattern2 {PatternBgnd KeepColor Pat2 setpattern} bind def
/Pattern3 {PatternBgnd KeepColor Pat3 setpattern} bind def
/Pattern4 {PatternBgnd KeepColor Landscape {Pat5} {Pat4} ifelse setpattern} bind def
/Pattern5 {PatternBgnd KeepColor Landscape {Pat4} {Pat5} ifelse setpattern} bind def
/Pattern6 {PatternBgnd KeepColor Landscape {Pat9} {Pat6} ifelse setpattern} bind def
/Pattern7 {PatternBgnd KeepColor Landscape {Pat8} {Pat7} ifelse setpattern} bind def
} def
%
%
%End of PostScript Level 2 code
%
/PatternBgnd {
  TransparentPatterns {} {gsave 1 setgray fill grestore} ifelse
} def
%
% Substitute for Level 2 pattern fill codes with
% grayscale if Level 2 support is not selected.
%
/Level1PatternFill {
/Pattern1 {0.250 Density} bind def
/Pattern2 {0.500 Density} bind def
/Pattern3 {0.750 Density} bind def
/Pattern4 {0.125 Density} bind def
/Pattern5 {0.375 Density} bind def
/Pattern6 {0.625 Density} bind def
/Pattern7 {0.875 Density} bind def
} def
%
% Now test for support of Level 2 code
%
Level1 {Level1PatternFill} {Level2PatternFill} ifelse
%
/Symbol-Oblique /Symbol findfont [1 0 .167 1 0 0] makefont
dup length dict begin {1 index /FID eq {pop pop} {def} ifelse} forall
currentdict end definefont pop
%
/MFshow {
   { dup 5 get 3 ge
     { 5 get 3 eq {gsave} {grestore} ifelse }
     {dup dup 0 get findfont exch 1 get scalefont setfont
     [ currentpoint ] exch dup 2 get 0 exch R dup 5 get 2 ne {dup dup 6
     get exch 4 get {textshow} {stringwidth pop 0 R} ifelse }if dup 5 get 0 eq
     {dup 3 get {2 get neg 0 exch R pop} {pop aload pop M} ifelse} {dup 5
     get 1 eq {dup 2 get exch dup 3 get exch 6 get stringwidth pop -2 div
     dup 0 R} {dup 6 get stringwidth pop -2 div 0 R 6 get
     textshow 2 index {aload pop M neg 3 -1 roll neg R pop pop} {pop pop pop
     pop aload pop M} ifelse }ifelse }ifelse }
     ifelse }
   forall} def
/Gswidth {dup type /stringtype eq {stringwidth} {pop (n) stringwidth} ifelse} def
/MFwidth {0 exch { dup 5 get 3 ge { 5 get 3 eq { 0 } { pop } ifelse }
 {dup 3 get{dup dup 0 get findfont exch 1 get scalefont setfont
     6 get Gswidth pop add} {pop} ifelse} ifelse} forall} def
/MLshow { currentpoint stroke M
  0 exch R
  Blacktext {gsave 0 setgray MFshow grestore} {MFshow} ifelse } bind def
/MRshow { currentpoint stroke M
  exch dup MFwidth neg 3 -1 roll R
  Blacktext {gsave 0 setgray MFshow grestore} {MFshow} ifelse } bind def
/MCshow { currentpoint stroke M
  exch dup MFwidth -2 div 3 -1 roll R
  Blacktext {gsave 0 setgray MFshow grestore} {MFshow} ifelse } bind def
/XYsave    { [( ) 1 2 true false 3 ()] } bind def
/XYrestore { [( ) 1 2 true false 4 ()] } bind def
Level1 SuppressPDFMark or 
{} {
/SDict 10 dict def
systemdict /pdfmark known not {
  userdict /pdfmark systemdict /cleartomark get put
} if
SDict begin [
  /Title (lr_PNM.eps)
  /Subject (gnuplot plot)
  /Creator (gnuplot 5.0 patchlevel 3)
  /Author (kb2)
%  /Producer (gnuplot)
%  /Keywords ()
  /CreationDate (Fri Jun 23 22:47:21 2017)
  /DOCINFO pdfmark
end
} ifelse
%
% Support for boxed text - Ethan A Merritt May 2005
%
/InitTextBox { userdict /TBy2 3 -1 roll put userdict /TBx2 3 -1 roll put
           userdict /TBy1 3 -1 roll put userdict /TBx1 3 -1 roll put
	   /Boxing true def } def
/ExtendTextBox { Boxing
    { gsave dup false charpath pathbbox
      dup TBy2 gt {userdict /TBy2 3 -1 roll put} {pop} ifelse
      dup TBx2 gt {userdict /TBx2 3 -1 roll put} {pop} ifelse
      dup TBy1 lt {userdict /TBy1 3 -1 roll put} {pop} ifelse
      dup TBx1 lt {userdict /TBx1 3 -1 roll put} {pop} ifelse
      grestore } if } def
/PopTextBox { newpath TBx1 TBxmargin sub TBy1 TBymargin sub M
               TBx1 TBxmargin sub TBy2 TBymargin add L
	       TBx2 TBxmargin add TBy2 TBymargin add L
	       TBx2 TBxmargin add TBy1 TBymargin sub L closepath } def
/DrawTextBox { PopTextBox stroke /Boxing false def} def
/FillTextBox { gsave PopTextBox 1 1 1 setrgbcolor fill grestore /Boxing false def} def
0 0 0 0 InitTextBox
/TBxmargin 20 def
/TBymargin 20 def
/Boxing false def
/textshow { ExtendTextBox Gshow } def
%
% redundant definitions for compatibility with prologue.ps older than 5.0.2
/LTB {BL [] LCb DL} def
/LTb {PL [] LCb DL} def
end
%%EndProlog
%%Page: 1 1
gnudict begin
gsave
doclip
50 50 translate
0.050 0.050 scale
0 setgray
newpath
(Helvetica) findfont 180 scalefont setfont
BackgroundColor 0 lt 3 1 roll 0 lt exch 0 lt or or not {BackgroundColor C 1.000 0 0 7200.00 5040.00 BoxColFill} if
1.000 UL
LTb
0.50 0.50 0.50 C 1.000 UL
LTa
0.50 0.50 0.50 C 882 756 M
5993 0 V
stroke
LTb
0.50 0.50 0.50 C 882 756 M
63 0 V
5930 0 R
-63 0 V
stroke
774 756 M
[ [(Helvetica) 180.0 0.0 true true 0 ( 0)]
] -60.0 MRshow
1.000 UL
LTb
0.50 0.50 0.50 C 1.000 UL
LTa
0.50 0.50 0.50 C 882 1569 M
5993 0 V
stroke
LTb
0.50 0.50 0.50 C 882 1569 M
63 0 V
5930 0 R
-63 0 V
stroke
774 1569 M
[ [(Helvetica) 180.0 0.0 true true 0 ( 0.1)]
] -60.0 MRshow
1.000 UL
LTb
0.50 0.50 0.50 C 1.000 UL
LTa
0.50 0.50 0.50 C 882 2383 M
5993 0 V
stroke
LTb
0.50 0.50 0.50 C 882 2383 M
63 0 V
5930 0 R
-63 0 V
stroke
774 2383 M
[ [(Helvetica) 180.0 0.0 true true 0 ( 0.2)]
] -60.0 MRshow
1.000 UL
LTb
0.50 0.50 0.50 C 1.000 UL
LTa
0.50 0.50 0.50 C 882 3196 M
5993 0 V
stroke
LTb
0.50 0.50 0.50 C 882 3196 M
63 0 V
5930 0 R
-63 0 V
stroke
774 3196 M
[ [(Helvetica) 180.0 0.0 true true 0 ( 0.3)]
] -60.0 MRshow
1.000 UL
LTb
0.50 0.50 0.50 C 1.000 UL
LTa
0.50 0.50 0.50 C 882 4010 M
5993 0 V
stroke
LTb
0.50 0.50 0.50 C 882 4010 M
63 0 V
5930 0 R
-63 0 V
stroke
774 4010 M
[ [(Helvetica) 180.0 0.0 true true 0 ( 0.4)]
] -60.0 MRshow
1.000 UL
LTb
0.50 0.50 0.50 C 1.000 UL
LTa
0.50 0.50 0.50 C 882 4823 M
5993 0 V
stroke
LTb
0.50 0.50 0.50 C 882 4823 M
63 0 V
5930 0 R
-63 0 V
stroke
774 4823 M
[ [(Helvetica) 180.0 0.0 true true 0 ( 0.5)]
] -60.0 MRshow
1.000 UL
LTb
0.50 0.50 0.50 C 1.000 UL
LTa
0.50 0.50 0.50 C 882 756 M
0 4067 V
stroke
LTb
0.50 0.50 0.50 C 882 756 M
0 63 V
0 4004 R
0 -63 V
stroke
882 576 M
[ [(Helvetica) 180.0 0.0 true true 0 ( 0)]
] -60.0 MCshow
1.000 UL
LTb
0.50 0.50 0.50 C 1.000 UL
LTa
0.50 0.50 0.50 C 1548 756 M
0 4067 V
stroke
LTb
0.50 0.50 0.50 C 1548 756 M
0 63 V
0 4004 R
0 -63 V
stroke
1548 576 M
[ [(Helvetica) 180.0 0.0 true true 0 ( 1)]
] -60.0 MCshow
1.000 UL
LTb
0.50 0.50 0.50 C 1.000 UL
LTa
0.50 0.50 0.50 C 2214 756 M
0 4067 V
stroke
LTb
0.50 0.50 0.50 C 2214 756 M
0 63 V
0 4004 R
0 -63 V
stroke
2214 576 M
[ [(Helvetica) 180.0 0.0 true true 0 ( 2)]
] -60.0 MCshow
1.000 UL
LTb
0.50 0.50 0.50 C 1.000 UL
LTa
0.50 0.50 0.50 C 2880 756 M
0 4067 V
stroke
LTb
0.50 0.50 0.50 C 2880 756 M
0 63 V
0 4004 R
0 -63 V
stroke
2880 576 M
[ [(Helvetica) 180.0 0.0 true true 0 ( 3)]
] -60.0 MCshow
1.000 UL
LTb
0.50 0.50 0.50 C 1.000 UL
LTa
0.50 0.50 0.50 C 3546 756 M
0 4067 V
stroke
LTb
0.50 0.50 0.50 C 3546 756 M
0 63 V
0 4004 R
0 -63 V
stroke
3546 576 M
[ [(Helvetica) 180.0 0.0 true true 0 ( 4)]
] -60.0 MCshow
1.000 UL
LTb
0.50 0.50 0.50 C 1.000 UL
LTa
0.50 0.50 0.50 C 4211 756 M
0 4067 V
stroke
LTb
0.50 0.50 0.50 C 4211 756 M
0 63 V
0 4004 R
0 -63 V
stroke
4211 576 M
[ [(Helvetica) 180.0 0.0 true true 0 ( 5)]
] -60.0 MCshow
1.000 UL
LTb
0.50 0.50 0.50 C 1.000 UL
LTa
0.50 0.50 0.50 C 4877 756 M
0 4067 V
stroke
LTb
0.50 0.50 0.50 C 4877 756 M
0 63 V
0 4004 R
0 -63 V
stroke
4877 576 M
[ [(Helvetica) 180.0 0.0 true true 0 ( 6)]
] -60.0 MCshow
1.000 UL
LTb
0.50 0.50 0.50 C 1.000 UL
LTa
0.50 0.50 0.50 C 5543 756 M
0 4067 V
stroke
LTb
0.50 0.50 0.50 C 5543 756 M
0 63 V
0 4004 R
0 -63 V
stroke
5543 576 M
[ [(Helvetica) 180.0 0.0 true true 0 ( 7)]
] -60.0 MCshow
1.000 UL
LTb
0.50 0.50 0.50 C 1.000 UL
LTa
0.50 0.50 0.50 C 6209 756 M
0 1014 V
0 450 R
0 2603 V
stroke
LTb
0.50 0.50 0.50 C 6209 756 M
0 63 V
0 4004 R
0 -63 V
stroke
6209 576 M
[ [(Helvetica) 180.0 0.0 true true 0 ( 8)]
] -60.0 MCshow
1.000 UL
LTb
0.50 0.50 0.50 C 1.000 UL
LTa
0.50 0.50 0.50 C 6875 756 M
0 4067 V
stroke
LTb
0.50 0.50 0.50 C 6875 756 M
0 63 V
0 4004 R
0 -63 V
stroke
6875 576 M
[ [(Helvetica) 180.0 0.0 true true 0 ( 9)]
] -60.0 MCshow
1.000 UL
LTb
0.50 0.50 0.50 C 1.000 UL
LTB
0.50 0.50 0.50 C 882 4823 M
882 756 L
5993 0 V
0 4067 R
-5993 0 R
stroke
LTb
1.00 1.00 1.00 C 1.000 6085 4236 648 360 BoxColFill
LCb setrgbcolor
6085 4236 N
0 360 V
648 0 V
0 -360 V
-648 0 V
Z stroke
1.000 UP
LCb setrgbcolor
416 1407 M
[ [(Symbol) 180.0 0.0 true true 0 (r)]
[(Helvetica) 144.0 -54.0 true true 0 (sat)]
] -42.0 MLshow
LCb setrgbcolor
416 2627 M
[ [(Symbol) 180.0 0.0 true true 0 (r)]
[(Helvetica) 144.0 -54.0 true true 0 (crit)]
] -42.0 MLshow
1.000 UL
LTb
0.50 0.50 0.50 C LCb setrgbcolor
144 2789 M
currentpoint gsave translate -270 rotate 0 0 moveto
[ [(Symbol) 180.0 0.0 true true 0 (r)]
[(Helvetica) 180.0 0.0 true true 0 ( [fm)]
[(Helvetica) 144.0 90.0 true true 0 (-3)]
[(Helvetica) 180.0 0.0 true true 0 (])]
] -78.0 MCshow
grestore
LTb
LCb setrgbcolor
3878 306 M
[ [(Helvetica) 180.0 0.0 true true 0 (q [fm)]
[(Helvetica) 144.0 90.0 true true 0 (-1)]
[(Helvetica) 180.0 0.0 true true 0 (])]
] -78.0 MCshow
LTb
% Begin plot #1
2.000 UP
1.000 UL
LTb
0.91 0.59 0.48 C LCb setrgbcolor
6272 2145 M
[ [(Helvetica) 150.0 0.0 true true 0 (Canal S=0 M=0)]
] -50.0 MRshow
2.000 UP
1.000 UL
LTb
0.91 0.59 0.48 C 6573 2145 CircleF
% End plot #1
% Begin plot #2
0.250 UP
1.000 UL
LTb
0.91 0.59 0.48 C % End plot #2
% Begin plot #3
2.000 UP
1.000 UL
LTb
1.00 0.55 0.00 C LCb setrgbcolor
6272 1995 M
[ [(Helvetica) 150.0 0.0 true true 0 (Canal S=1 M=0)]
] -50.0 MRshow
2.000 UP
1.000 UL
LTb
1.00 0.55 0.00 C 6573 1995 CircleF
% End plot #3
% Begin plot #4
0.250 UP
1.000 UL
LTb
1.00 0.55 0.00 C 1561 4813 Circle
1568 4800 Circle
1575 4787 Circle
1581 4774 Circle
1588 4761 Circle
1595 4747 Circle
1601 4734 Circle
1608 4720 Circle
1614 4707 Circle
1621 4693 Circle
1628 4679 Circle
1634 4665 Circle
1641 4651 Circle
1648 4637 Circle
1654 4623 Circle
1661 4609 Circle
1668 4595 Circle
1674 4580 Circle
1681 4566 Circle
1688 4551 Circle
1694 4536 Circle
1701 4522 Circle
1708 4507 Circle
1714 4492 Circle
1721 4477 Circle
1728 4462 Circle
1734 4446 Circle
1741 4431 Circle
1748 4416 Circle
1754 4400 Circle
1761 4385 Circle
1768 4369 Circle
1774 4353 Circle
1781 4338 Circle
1788 4322 Circle
1794 4306 Circle
1801 4290 Circle
1808 4274 Circle
1814 4258 Circle
1821 4242 Circle
1828 4225 Circle
1834 4209 Circle
1841 4193 Circle
1848 4176 Circle
1854 4160 Circle
1861 4143 Circle
1868 4127 Circle
1874 4110 Circle
1881 4093 Circle
1887 4076 Circle
1894 4059 Circle
1901 4043 Circle
1907 4026 Circle
1914 4009 Circle
1921 3991 Circle
1927 3974 Circle
1934 3957 Circle
1941 3940 Circle
1947 3923 Circle
1954 3905 Circle
1961 3888 Circle
1967 3871 Circle
1974 3853 Circle
1981 3836 Circle
1987 3818 Circle
1994 3801 Circle
2001 3783 Circle
2007 3765 Circle
2014 3748 Circle
2021 3730 Circle
2027 3712 Circle
2034 3695 Circle
2041 3677 Circle
2047 3659 Circle
2054 3641 Circle
2061 3624 Circle
2067 3606 Circle
2074 3588 Circle
2081 3570 Circle
2087 3552 Circle
2094 3534 Circle
2101 3516 Circle
2107 3498 Circle
2114 3480 Circle
2121 3463 Circle
2127 3445 Circle
2134 3427 Circle
2141 3409 Circle
2147 3391 Circle
2154 3373 Circle
2161 3355 Circle
2167 3337 Circle
2174 3319 Circle
2180 3301 Circle
2187 3283 Circle
2194 3265 Circle
2200 3247 Circle
2207 3229 Circle
2214 3212 Circle
2220 3194 Circle
2227 3176 Circle
2234 3158 Circle
2240 3140 Circle
2247 3123 Circle
2254 3105 Circle
2260 3087 Circle
2267 3070 Circle
2274 3052 Circle
2280 3035 Circle
2287 3017 Circle
2294 3000 Circle
2300 2982 Circle
2307 2965 Circle
2314 2948 Circle
2320 2930 Circle
2327 2913 Circle
2334 2896 Circle
2340 2879 Circle
2347 2862 Circle
2354 2845 Circle
2360 2828 Circle
2367 2811 Circle
2374 2794 Circle
2380 2778 Circle
2387 2761 Circle
2394 2745 Circle
2400 2728 Circle
2407 2712 Circle
2414 2695 Circle
2420 2679 Circle
2427 2663 Circle
2434 2647 Circle
2440 2631 Circle
2447 2615 Circle
2453 2599 Circle
2460 2584 Circle
2467 2568 Circle
2473 2553 Circle
2480 2538 Circle
2487 2522 Circle
2493 2507 Circle
2500 2492 Circle
2507 2477 Circle
2513 2463 Circle
2520 2448 Circle
2527 2433 Circle
2533 2419 Circle
2540 2405 Circle
2547 2391 Circle
2553 2377 Circle
2560 2363 Circle
2567 2349 Circle
2573 2336 Circle
2580 2322 Circle
2587 2309 Circle
2593 2296 Circle
2600 2283 Circle
2607 2270 Circle
2613 2258 Circle
2620 2245 Circle
2627 2233 Circle
2633 2221 Circle
2640 2209 Circle
2647 2197 Circle
2653 2185 Circle
2660 2174 Circle
2667 2162 Circle
2673 2151 Circle
2680 2140 Circle
2687 2130 Circle
2693 2119 Circle
2700 2109 Circle
2707 2099 Circle
2713 2089 Circle
2720 2079 Circle
2727 2069 Circle
2733 2060 Circle
2740 2051 Circle
2746 2042 Circle
2753 2033 Circle
2760 2025 Circle
2766 2016 Circle
2773 2008 Circle
2780 2000 Circle
2786 1993 Circle
2793 1985 Circle
2800 1978 Circle
2806 1971 Circle
2813 1964 Circle
2820 1958 Circle
2826 1952 Circle
2833 1946 Circle
2840 1940 Circle
2846 1934 Circle
2853 1929 Circle
2860 1924 Circle
2866 1919 Circle
2873 1915 Circle
2880 1910 Circle
2886 1906 Circle
2893 1902 Circle
2900 1899 Circle
2906 1896 Circle
2913 1893 Circle
2920 1890 Circle
2926 1888 Circle
2933 1886 Circle
2940 1884 Circle
2946 1882 Circle
2953 1881 Circle
2960 1880 Circle
2966 1880 Circle
2973 1880 Circle
2980 1880 Circle
2986 1880 Circle
2993 1881 Circle
3000 1883 Circle
3006 1885 Circle
3013 1888 Circle
3020 1892 Circle
3026 1896 Circle
3033 1899 Circle
3039 1902 Circle
3046 1904 Circle
3053 1906 Circle
3059 1908 Circle
3066 1909 Circle
3073 1911 Circle
3079 1912 Circle
3086 1913 Circle
3093 1914 Circle
3099 1915 Circle
3106 1916 Circle
3113 1917 Circle
3119 1918 Circle
3126 1918 Circle
3133 1919 Circle
3139 1920 Circle
3146 1920 Circle
3153 1921 Circle
3159 1921 Circle
3166 1921 Circle
3173 1922 Circle
3179 1922 Circle
3186 1922 Circle
3193 1922 Circle
3199 1923 Circle
3206 1923 Circle
3213 1923 Circle
3219 1923 Circle
3226 1923 Circle
3233 1923 Circle
3239 1923 Circle
3246 1923 Circle
3253 1923 Circle
3259 1923 Circle
3266 1923 Circle
3273 1923 Circle
3279 1923 Circle
3286 1923 Circle
3293 1923 Circle
3299 1923 Circle
3306 1923 Circle
3312 1923 Circle
3319 1922 Circle
3326 1922 Circle
3332 1922 Circle
3339 1922 Circle
3346 1922 Circle
3352 1922 Circle
3359 1921 Circle
3366 1921 Circle
3372 1921 Circle
3379 1921 Circle
3386 1921 Circle
3392 1920 Circle
3399 1920 Circle
3406 1920 Circle
3412 1920 Circle
3419 1919 Circle
3426 1919 Circle
3432 1919 Circle
3439 1919 Circle
3446 1918 Circle
3452 1918 Circle
3459 1918 Circle
3466 1917 Circle
3472 1917 Circle
3479 1917 Circle
3486 1916 Circle
3492 1916 Circle
3499 1916 Circle
3506 1916 Circle
3512 1915 Circle
3519 1915 Circle
3526 1915 Circle
3532 1914 Circle
3539 1914 Circle
3546 1914 Circle
3552 1913 Circle
3559 1913 Circle
3566 1913 Circle
3572 1912 Circle
3579 1912 Circle
3586 1912 Circle
3592 1911 Circle
3599 1911 Circle
3605 1911 Circle
3612 1910 Circle
3619 1910 Circle
3625 1910 Circle
3632 1909 Circle
3639 1909 Circle
3645 1909 Circle
3652 1908 Circle
3659 1908 Circle
3665 1908 Circle
3672 1907 Circle
3679 1907 Circle
3685 1907 Circle
3692 1906 Circle
3699 1906 Circle
3705 1906 Circle
3712 1905 Circle
3719 1905 Circle
3725 1905 Circle
3732 1904 Circle
3739 1904 Circle
3745 1904 Circle
3752 1903 Circle
3759 1903 Circle
3765 1903 Circle
3772 1902 Circle
3779 1902 Circle
3785 1902 Circle
3792 1901 Circle
3799 1901 Circle
3805 1901 Circle
3812 1900 Circle
3819 1900 Circle
3825 1900 Circle
3832 1899 Circle
3839 1899 Circle
3845 1899 Circle
3852 1898 Circle
3859 1898 Circle
3865 1898 Circle
3872 1898 Circle
3879 1897 Circle
3885 1897 Circle
3892 1897 Circle
3898 1896 Circle
3905 1896 Circle
3912 1896 Circle
3918 1895 Circle
3925 1895 Circle
3932 1895 Circle
3938 1894 Circle
3945 1894 Circle
3952 1894 Circle
3958 1893 Circle
3965 1893 Circle
3972 1893 Circle
3978 1892 Circle
3985 1892 Circle
3992 1892 Circle
3998 1892 Circle
4005 1891 Circle
4012 1891 Circle
4018 1891 Circle
4025 1890 Circle
4032 1890 Circle
4038 1890 Circle
4045 1890 Circle
4052 1889 Circle
4058 1889 Circle
4065 1889 Circle
4072 1888 Circle
4078 1888 Circle
4085 1888 Circle
4092 1888 Circle
4098 1887 Circle
4105 1887 Circle
4112 1887 Circle
4118 1886 Circle
4125 1886 Circle
4132 1886 Circle
4138 1886 Circle
4145 1885 Circle
4152 1885 Circle
4158 1885 Circle
4165 1885 Circle
4171 1884 Circle
4178 1884 Circle
4185 1884 Circle
4191 1883 Circle
4198 1883 Circle
4205 1883 Circle
4211 1883 Circle
4218 1882 Circle
4225 1882 Circle
4231 1882 Circle
4238 1882 Circle
4245 1881 Circle
4251 1881 Circle
4258 1881 Circle
4265 1881 Circle
4271 1880 Circle
4278 1880 Circle
4285 1880 Circle
4291 1880 Circle
4298 1879 Circle
4305 1879 Circle
4311 1879 Circle
4318 1878 Circle
4325 1878 Circle
4331 1878 Circle
4338 1878 Circle
4345 1878 Circle
4351 1877 Circle
4358 1877 Circle
4365 1877 Circle
4371 1877 Circle
4378 1876 Circle
4385 1876 Circle
4391 1876 Circle
4398 1876 Circle
4405 1875 Circle
4411 1875 Circle
4418 1875 Circle
4425 1875 Circle
4431 1875 Circle
4438 1874 Circle
4445 1874 Circle
4451 1874 Circle
4458 1874 Circle
4464 1873 Circle
4471 1873 Circle
4478 1873 Circle
4484 1873 Circle
4491 1872 Circle
4498 1872 Circle
4504 1872 Circle
4511 1872 Circle
4518 1872 Circle
4524 1871 Circle
4531 1871 Circle
4538 1871 Circle
4544 1871 Circle
4551 1871 Circle
4558 1870 Circle
4564 1870 Circle
4571 1870 Circle
4578 1870 Circle
4584 1870 Circle
4591 1869 Circle
4598 1869 Circle
4604 1869 Circle
4611 1869 Circle
4618 1868 Circle
4624 1868 Circle
4631 1868 Circle
4638 1868 Circle
4644 1868 Circle
4651 1868 Circle
4658 1867 Circle
4664 1867 Circle
4671 1867 Circle
4678 1867 Circle
4684 1867 Circle
4691 1866 Circle
4698 1866 Circle
4704 1866 Circle
4711 1866 Circle
4718 1866 Circle
4724 1865 Circle
4731 1865 Circle
4737 1865 Circle
4744 1865 Circle
4751 1865 Circle
4757 1865 Circle
4764 1864 Circle
4771 1864 Circle
4777 1864 Circle
4784 1864 Circle
4791 1864 Circle
4797 1863 Circle
4804 1863 Circle
4811 1863 Circle
4817 1863 Circle
4824 1863 Circle
4831 1862 Circle
4837 1862 Circle
4844 1862 Circle
4851 1862 Circle
4857 1862 Circle
4864 1862 Circle
4871 1861 Circle
4877 1861 Circle
4884 1861 Circle
4891 1861 Circle
4897 1861 Circle
4904 1861 Circle
4911 1860 Circle
4917 1860 Circle
4924 1860 Circle
4931 1860 Circle
4937 1860 Circle
4944 1860 Circle
4951 1859 Circle
4957 1859 Circle
4964 1859 Circle
4971 1859 Circle
4977 1859 Circle
4984 1859 Circle
4991 1859 Circle
4997 1858 Circle
5004 1858 Circle
5011 1858 Circle
5017 1858 Circle
5024 1858 Circle
5030 1858 Circle
5037 1857 Circle
5044 1857 Circle
5050 1857 Circle
5057 1857 Circle
5064 1857 Circle
5070 1857 Circle
5077 1857 Circle
5084 1856 Circle
5090 1856 Circle
5097 1856 Circle
5104 1856 Circle
5110 1856 Circle
5117 1856 Circle
5124 1856 Circle
5130 1855 Circle
5137 1855 Circle
5144 1855 Circle
5150 1855 Circle
5157 1855 Circle
5164 1855 Circle
5170 1855 Circle
5177 1854 Circle
5184 1854 Circle
5190 1854 Circle
5197 1854 Circle
5204 1854 Circle
5210 1854 Circle
5217 1854 Circle
5224 1853 Circle
5230 1853 Circle
5237 1853 Circle
5244 1853 Circle
5250 1853 Circle
5257 1853 Circle
5264 1853 Circle
5270 1853 Circle
5277 1852 Circle
5284 1852 Circle
5290 1852 Circle
5297 1852 Circle
5304 1852 Circle
5310 1852 Circle
5317 1852 Circle
5323 1851 Circle
5330 1851 Circle
5337 1851 Circle
5343 1851 Circle
5350 1851 Circle
5357 1851 Circle
5363 1851 Circle
5370 1851 Circle
5377 1851 Circle
5383 1850 Circle
5390 1850 Circle
5397 1850 Circle
5403 1850 Circle
5410 1850 Circle
5417 1850 Circle
5423 1850 Circle
5430 1850 Circle
5437 1849 Circle
5443 1849 Circle
5450 1849 Circle
5457 1849 Circle
5463 1849 Circle
5470 1849 Circle
5477 1849 Circle
5483 1849 Circle
5490 1848 Circle
5497 1848 Circle
5503 1848 Circle
5510 1848 Circle
5517 1848 Circle
5523 1848 Circle
5530 1848 Circle
5537 1848 Circle
5543 1848 Circle
5550 1848 Circle
5557 1847 Circle
5563 1847 Circle
5570 1847 Circle
5577 1847 Circle
5583 1847 Circle
5590 1847 Circle
5596 1847 Circle
5603 1847 Circle
5610 1847 Circle
5616 1846 Circle
5623 1846 Circle
5630 1846 Circle
5636 1846 Circle
5643 1846 Circle
5650 1846 Circle
5656 1846 Circle
5663 1846 Circle
5670 1846 Circle
5676 1845 Circle
5683 1845 Circle
5690 1845 Circle
5696 1845 Circle
5703 1845 Circle
5710 1845 Circle
5716 1845 Circle
5723 1845 Circle
5730 1845 Circle
5736 1845 Circle
5743 1844 Circle
5750 1844 Circle
5756 1844 Circle
5763 1844 Circle
5770 1844 Circle
5776 1844 Circle
5783 1844 Circle
5790 1844 Circle
5796 1844 Circle
5803 1844 Circle
5810 1844 Circle
5816 1843 Circle
5823 1843 Circle
5830 1843 Circle
5836 1843 Circle
5843 1843 Circle
5850 1843 Circle
5856 1843 Circle
5863 1843 Circle
5870 1843 Circle
5876 1843 Circle
5883 1842 Circle
5889 1842 Circle
5896 1842 Circle
5903 1842 Circle
5909 1842 Circle
5916 1842 Circle
5923 1842 Circle
5929 1842 Circle
5936 1842 Circle
5943 1842 Circle
5949 1842 Circle
5956 1841 Circle
5963 1841 Circle
5969 1841 Circle
5976 1841 Circle
5983 1841 Circle
5989 1841 Circle
5996 1841 Circle
6003 1841 Circle
6009 1841 Circle
6016 1841 Circle
6023 1841 Circle
6029 1841 Circle
6036 1841 Circle
6043 1840 Circle
6049 1840 Circle
6056 1840 Circle
6063 1840 Circle
6069 1840 Circle
6076 1840 Circle
6083 1840 Circle
6089 1840 Circle
6096 1840 Circle
6103 1840 Circle
6109 1840 Circle
6116 1840 Circle
6123 1839 Circle
6129 1839 Circle
6136 1839 Circle
6143 1839 Circle
6149 1839 Circle
6156 1839 Circle
6162 1839 Circle
6169 1839 Circle
6176 1839 Circle
6182 1839 Circle
6189 1839 Circle
6196 1839 Circle
6202 1838 Circle
6209 1838 Circle
6216 1838 Circle
6222 1838 Circle
6229 1838 Circle
6236 1838 Circle
6242 1838 Circle
6249 1838 Circle
6256 1838 Circle
6262 1838 Circle
6269 1838 Circle
6276 1838 Circle
6282 1838 Circle
6289 1837 Circle
6296 1837 Circle
6302 1837 Circle
6309 1837 Circle
6316 1837 Circle
6322 1837 Circle
6329 1837 Circle
6336 1837 Circle
6342 1837 Circle
6349 1837 Circle
6356 1837 Circle
6362 1837 Circle
6369 1837 Circle
6376 1837 Circle
6382 1837 Circle
6389 1836 Circle
6396 1836 Circle
6402 1836 Circle
6409 1836 Circle
6416 1836 Circle
6422 1836 Circle
6429 1836 Circle
6436 1836 Circle
6442 1836 Circle
6449 1836 Circle
6455 1836 Circle
6462 1836 Circle
6469 1836 Circle
6475 1836 Circle
6482 1836 Circle
6489 1835 Circle
6495 1835 Circle
6502 1835 Circle
6509 1835 Circle
6515 1835 Circle
6522 1835 Circle
6529 1835 Circle
6535 1835 Circle
6542 1835 Circle
6549 1835 Circle
6555 1835 Circle
6562 1835 Circle
6569 1835 Circle
6575 1835 Circle
6582 1835 Circle
6589 1834 Circle
6595 1834 Circle
6602 1834 Circle
6609 1834 Circle
6615 1834 Circle
6622 1834 Circle
6629 1834 Circle
6635 1834 Circle
6642 1834 Circle
6649 1834 Circle
6655 1834 Circle
6662 1834 Circle
6669 1834 Circle
6675 1834 Circle
6682 1834 Circle
6689 1834 Circle
6695 1834 Circle
6702 1834 Circle
6709 1833 Circle
6715 1833 Circle
6722 1833 Circle
6729 1833 Circle
6735 1833 Circle
6742 1833 Circle
6748 1833 Circle
6755 1833 Circle
6762 1833 Circle
6768 1833 Circle
6775 1833 Circle
6782 1833 Circle
6788 1833 Circle
6795 1833 Circle
6802 1833 Circle
6808 1833 Circle
6815 1833 Circle
6822 1832 Circle
6828 1832 Circle
6835 1832 Circle
6842 1832 Circle
6848 1832 Circle
6855 1832 Circle
6862 1832 Circle
6868 1832 Circle
6875 1832 Circle
% End plot #4
% Begin plot #5
2.000 UP
1.000 UL
LTb
0.00 0.55 0.55 C LCb setrgbcolor
6272 1845 M
[ [(Helvetica) 150.0 0.0 true true 0 (Canal S=1 M=1)]
] -50.0 MRshow
2.000 UP
1.000 UL
LTb
0.00 0.55 0.55 C 6573 1845 CircleF
% End plot #5
% Begin plot #6
0.250 UP
1.000 UL
LTb
0.00 0.55 0.55 C 1235 4817 Circle
1242 4795 Circle
1248 4774 Circle
1255 4752 Circle
1262 4729 Circle
1268 4707 Circle
1275 4685 Circle
1282 4663 Circle
1288 4640 Circle
1295 4617 Circle
1302 4595 Circle
1308 4572 Circle
1315 4549 Circle
1321 4526 Circle
1328 4504 Circle
1335 4481 Circle
1341 4458 Circle
1348 4435 Circle
1355 4412 Circle
1361 4389 Circle
1368 4366 Circle
1375 4343 Circle
1381 4320 Circle
1388 4297 Circle
1395 4274 Circle
1401 4251 Circle
1408 4228 Circle
1415 4205 Circle
1421 4182 Circle
1428 4160 Circle
1435 4137 Circle
1441 4114 Circle
1448 4092 Circle
1455 4069 Circle
1461 4047 Circle
1468 4024 Circle
1475 4002 Circle
1481 3980 Circle
1488 3957 Circle
1495 3935 Circle
1501 3913 Circle
1508 3891 Circle
1515 3870 Circle
1521 3848 Circle
1528 3826 Circle
1535 3805 Circle
1541 3783 Circle
1548 3762 Circle
1555 3741 Circle
1561 3720 Circle
1568 3699 Circle
1575 3678 Circle
1581 3657 Circle
1588 3636 Circle
1595 3616 Circle
1601 3596 Circle
1608 3575 Circle
1614 3555 Circle
1621 3535 Circle
1628 3515 Circle
1634 3496 Circle
1641 3476 Circle
1648 3456 Circle
1654 3437 Circle
1661 3418 Circle
1668 3399 Circle
1674 3380 Circle
1681 3361 Circle
1688 3342 Circle
1694 3323 Circle
1701 3305 Circle
1708 3287 Circle
1714 3269 Circle
1721 3250 Circle
1728 3233 Circle
1734 3215 Circle
1741 3197 Circle
1748 3180 Circle
1754 3162 Circle
1761 3145 Circle
1768 3128 Circle
1774 3111 Circle
1781 3094 Circle
1788 3077 Circle
1794 3061 Circle
1801 3044 Circle
1808 3028 Circle
1814 3011 Circle
1821 2995 Circle
1828 2980 Circle
1834 2964 Circle
1841 2948 Circle
1848 2932 Circle
1854 2917 Circle
1861 2902 Circle
1868 2887 Circle
1874 2871 Circle
1881 2857 Circle
1887 2842 Circle
1894 2827 Circle
1901 2813 Circle
1907 2798 Circle
1914 2784 Circle
1921 2770 Circle
1927 2756 Circle
1934 2742 Circle
1941 2728 Circle
1947 2714 Circle
1954 2701 Circle
1961 2687 Circle
1967 2674 Circle
1974 2661 Circle
1981 2648 Circle
1987 2635 Circle
1994 2622 Circle
2001 2609 Circle
2007 2596 Circle
2014 2584 Circle
2021 2571 Circle
2027 2559 Circle
2034 2547 Circle
2041 2535 Circle
2047 2523 Circle
2054 2511 Circle
2061 2499 Circle
2067 2488 Circle
2074 2476 Circle
2081 2465 Circle
2087 2453 Circle
2094 2442 Circle
2101 2431 Circle
2107 2420 Circle
2114 2409 Circle
2121 2398 Circle
2127 2388 Circle
2134 2377 Circle
2141 2367 Circle
2147 2356 Circle
2154 2346 Circle
2161 2336 Circle
2167 2326 Circle
2174 2316 Circle
2180 2306 Circle
2187 2296 Circle
2194 2286 Circle
2200 2277 Circle
2207 2267 Circle
2214 2258 Circle
2220 2249 Circle
2227 2239 Circle
2234 2230 Circle
2240 2221 Circle
2247 2212 Circle
2254 2203 Circle
2260 2195 Circle
2267 2186 Circle
2274 2177 Circle
2280 2169 Circle
2287 2160 Circle
2294 2152 Circle
2300 2144 Circle
2307 2136 Circle
2314 2128 Circle
2320 2120 Circle
2327 2112 Circle
2334 2104 Circle
2340 2096 Circle
2347 2089 Circle
2354 2081 Circle
2360 2074 Circle
2367 2066 Circle
2374 2059 Circle
2380 2052 Circle
2387 2045 Circle
2394 2038 Circle
2400 2031 Circle
2407 2024 Circle
2414 2017 Circle
2420 2010 Circle
2427 2004 Circle
2434 1997 Circle
2440 1990 Circle
2447 1984 Circle
2453 1978 Circle
2460 1971 Circle
2467 1965 Circle
2473 1959 Circle
2480 1953 Circle
2487 1947 Circle
2493 1942 Circle
2500 1936 Circle
2507 1930 Circle
2513 1925 Circle
2520 1919 Circle
2527 1914 Circle
2533 1908 Circle
2540 1903 Circle
2547 1898 Circle
2553 1893 Circle
2560 1888 Circle
2567 1883 Circle
2573 1878 Circle
2580 1873 Circle
2587 1868 Circle
2593 1864 Circle
2600 1859 Circle
2607 1855 Circle
2613 1851 Circle
2620 1846 Circle
2627 1842 Circle
2633 1838 Circle
2640 1834 Circle
2647 1830 Circle
2653 1826 Circle
2660 1822 Circle
2667 1819 Circle
2673 1815 Circle
2680 1812 Circle
2687 1808 Circle
2693 1805 Circle
2700 1802 Circle
2707 1799 Circle
2713 1796 Circle
2720 1793 Circle
2727 1790 Circle
2733 1788 Circle
2740 1785 Circle
2746 1783 Circle
2753 1780 Circle
2760 1778 Circle
2766 1776 Circle
2773 1774 Circle
2780 1772 Circle
2786 1770 Circle
2793 1769 Circle
2800 1767 Circle
2806 1766 Circle
2813 1765 Circle
2820 1763 Circle
2826 1763 Circle
2833 1762 Circle
2840 1761 Circle
2846 1760 Circle
2853 1760 Circle
2860 1760 Circle
2866 1760 Circle
2873 1760 Circle
2880 1760 Circle
2886 1761 Circle
2893 1762 Circle
2900 1763 Circle
2906 1764 Circle
2913 1765 Circle
2920 1767 Circle
2926 1769 Circle
2933 1772 Circle
2940 1775 Circle
2946 1779 Circle
2953 1783 Circle
2960 1786 Circle
2966 1789 Circle
2973 1792 Circle
2980 1794 Circle
2986 1797 Circle
2993 1799 Circle
3000 1801 Circle
3006 1802 Circle
3013 1804 Circle
3020 1806 Circle
3026 1807 Circle
3033 1809 Circle
3039 1810 Circle
3046 1812 Circle
3053 1813 Circle
3059 1814 Circle
3066 1815 Circle
3073 1817 Circle
3079 1818 Circle
3086 1819 Circle
3093 1820 Circle
3099 1821 Circle
3106 1822 Circle
3113 1822 Circle
3119 1823 Circle
3126 1824 Circle
3133 1825 Circle
3139 1826 Circle
3146 1826 Circle
3153 1827 Circle
3159 1828 Circle
3166 1829 Circle
3173 1829 Circle
3179 1830 Circle
3186 1830 Circle
3193 1831 Circle
3199 1832 Circle
3206 1832 Circle
3213 1833 Circle
3219 1833 Circle
3226 1834 Circle
3233 1834 Circle
3239 1834 Circle
3246 1835 Circle
3253 1835 Circle
3259 1836 Circle
3266 1836 Circle
3273 1837 Circle
3279 1837 Circle
3286 1837 Circle
3293 1838 Circle
3299 1838 Circle
3306 1838 Circle
3312 1839 Circle
3319 1839 Circle
3326 1839 Circle
3332 1839 Circle
3339 1840 Circle
3346 1840 Circle
3352 1840 Circle
3359 1840 Circle
3366 1841 Circle
3372 1841 Circle
3379 1841 Circle
3386 1841 Circle
3392 1841 Circle
3399 1842 Circle
3406 1842 Circle
3412 1842 Circle
3419 1842 Circle
3426 1842 Circle
3432 1842 Circle
3439 1843 Circle
3446 1843 Circle
3452 1843 Circle
3459 1843 Circle
3466 1843 Circle
3472 1843 Circle
3479 1843 Circle
3486 1844 Circle
3492 1844 Circle
3499 1844 Circle
3506 1844 Circle
3512 1844 Circle
3519 1844 Circle
3526 1844 Circle
3532 1844 Circle
3539 1844 Circle
3546 1844 Circle
3552 1844 Circle
3559 1844 Circle
3566 1844 Circle
3572 1844 Circle
3579 1845 Circle
3586 1845 Circle
3592 1845 Circle
3599 1845 Circle
3605 1845 Circle
3612 1845 Circle
3619 1845 Circle
3625 1845 Circle
3632 1845 Circle
3639 1845 Circle
3645 1845 Circle
3652 1845 Circle
3659 1845 Circle
3665 1845 Circle
3672 1845 Circle
3679 1845 Circle
3685 1845 Circle
3692 1845 Circle
3699 1845 Circle
3705 1845 Circle
3712 1845 Circle
3719 1845 Circle
3725 1845 Circle
3732 1845 Circle
3739 1845 Circle
3745 1845 Circle
3752 1845 Circle
3759 1845 Circle
3765 1845 Circle
3772 1845 Circle
3779 1845 Circle
3785 1845 Circle
3792 1845 Circle
3799 1845 Circle
3805 1845 Circle
3812 1845 Circle
3819 1845 Circle
3825 1844 Circle
3832 1844 Circle
3839 1844 Circle
3845 1844 Circle
3852 1844 Circle
3859 1844 Circle
3865 1844 Circle
3872 1844 Circle
3879 1844 Circle
3885 1844 Circle
3892 1844 Circle
3898 1844 Circle
3905 1844 Circle
3912 1844 Circle
3918 1844 Circle
3925 1844 Circle
3932 1844 Circle
3938 1844 Circle
3945 1844 Circle
3952 1844 Circle
3958 1844 Circle
3965 1844 Circle
3972 1843 Circle
3978 1843 Circle
3985 1843 Circle
3992 1843 Circle
3998 1843 Circle
4005 1843 Circle
4012 1843 Circle
4018 1843 Circle
4025 1843 Circle
4032 1843 Circle
4038 1843 Circle
4045 1843 Circle
4052 1843 Circle
4058 1843 Circle
4065 1843 Circle
4072 1843 Circle
4078 1842 Circle
4085 1842 Circle
4092 1842 Circle
4098 1842 Circle
4105 1842 Circle
4112 1842 Circle
4118 1842 Circle
4125 1842 Circle
4132 1842 Circle
4138 1842 Circle
4145 1842 Circle
4152 1842 Circle
4158 1842 Circle
4165 1842 Circle
4171 1842 Circle
4178 1841 Circle
4185 1841 Circle
4191 1841 Circle
4198 1841 Circle
4205 1841 Circle
4211 1841 Circle
4218 1841 Circle
4225 1841 Circle
4231 1841 Circle
4238 1841 Circle
4245 1841 Circle
4251 1841 Circle
4258 1841 Circle
4265 1841 Circle
4271 1841 Circle
4278 1840 Circle
4285 1840 Circle
4291 1840 Circle
4298 1840 Circle
4305 1840 Circle
4311 1840 Circle
4318 1840 Circle
4325 1840 Circle
4331 1840 Circle
4338 1840 Circle
4345 1840 Circle
4351 1840 Circle
4358 1840 Circle
4365 1839 Circle
4371 1839 Circle
4378 1839 Circle
4385 1839 Circle
4391 1839 Circle
4398 1839 Circle
4405 1839 Circle
4411 1839 Circle
4418 1839 Circle
4425 1839 Circle
4431 1839 Circle
4438 1839 Circle
4445 1839 Circle
4451 1838 Circle
4458 1838 Circle
4464 1838 Circle
4471 1838 Circle
4478 1838 Circle
4484 1838 Circle
4491 1838 Circle
4498 1838 Circle
4504 1838 Circle
4511 1838 Circle
4518 1838 Circle
4524 1838 Circle
4531 1838 Circle
4538 1838 Circle
4544 1837 Circle
4551 1837 Circle
4558 1837 Circle
4564 1837 Circle
4571 1837 Circle
4578 1837 Circle
4584 1837 Circle
4591 1837 Circle
4598 1837 Circle
4604 1837 Circle
4611 1837 Circle
4618 1837 Circle
4624 1837 Circle
4631 1837 Circle
4638 1836 Circle
4644 1836 Circle
4651 1836 Circle
4658 1836 Circle
4664 1836 Circle
4671 1836 Circle
4678 1836 Circle
4684 1836 Circle
4691 1836 Circle
4698 1836 Circle
4704 1836 Circle
4711 1836 Circle
4718 1836 Circle
4724 1836 Circle
4731 1835 Circle
4737 1835 Circle
4744 1835 Circle
4751 1835 Circle
4757 1835 Circle
4764 1835 Circle
4771 1835 Circle
4777 1835 Circle
4784 1835 Circle
4791 1835 Circle
4797 1835 Circle
4804 1835 Circle
4811 1835 Circle
4817 1835 Circle
4824 1835 Circle
4831 1834 Circle
4837 1834 Circle
4844 1834 Circle
4851 1834 Circle
4857 1834 Circle
4864 1834 Circle
4871 1834 Circle
4877 1834 Circle
4884 1834 Circle
4891 1834 Circle
4897 1834 Circle
4904 1834 Circle
4911 1834 Circle
4917 1834 Circle
4924 1834 Circle
4931 1834 Circle
4937 1833 Circle
4944 1833 Circle
4951 1833 Circle
4957 1833 Circle
4964 1833 Circle
4971 1833 Circle
4977 1833 Circle
4984 1833 Circle
4991 1833 Circle
4997 1833 Circle
5004 1833 Circle
5011 1833 Circle
5017 1833 Circle
5024 1833 Circle
5030 1833 Circle
5037 1832 Circle
5044 1832 Circle
5050 1832 Circle
5057 1832 Circle
5064 1832 Circle
5070 1832 Circle
5077 1832 Circle
5084 1832 Circle
5090 1832 Circle
5097 1832 Circle
5104 1832 Circle
5110 1832 Circle
5117 1832 Circle
5124 1832 Circle
5130 1832 Circle
5137 1832 Circle
5144 1831 Circle
5150 1831 Circle
5157 1831 Circle
5164 1831 Circle
5170 1831 Circle
5177 1831 Circle
5184 1831 Circle
5190 1831 Circle
5197 1831 Circle
5204 1831 Circle
5210 1831 Circle
5217 1831 Circle
5224 1831 Circle
5230 1831 Circle
5237 1831 Circle
5244 1831 Circle
5250 1831 Circle
5257 1831 Circle
5264 1831 Circle
5270 1830 Circle
5277 1830 Circle
5284 1830 Circle
5290 1830 Circle
5297 1830 Circle
5304 1830 Circle
5310 1830 Circle
5317 1830 Circle
5323 1830 Circle
5330 1830 Circle
5337 1830 Circle
5343 1830 Circle
5350 1830 Circle
5357 1830 Circle
5363 1830 Circle
5370 1830 Circle
5377 1830 Circle
5383 1829 Circle
5390 1829 Circle
5397 1829 Circle
5403 1829 Circle
5410 1829 Circle
5417 1829 Circle
5423 1829 Circle
5430 1829 Circle
5437 1829 Circle
5443 1829 Circle
5450 1829 Circle
5457 1829 Circle
5463 1829 Circle
5470 1829 Circle
5477 1829 Circle
5483 1829 Circle
5490 1829 Circle
5497 1829 Circle
5503 1829 Circle
5510 1828 Circle
5517 1828 Circle
5523 1828 Circle
5530 1828 Circle
5537 1828 Circle
5543 1828 Circle
5550 1828 Circle
5557 1828 Circle
5563 1828 Circle
5570 1828 Circle
5577 1828 Circle
5583 1828 Circle
5590 1828 Circle
5596 1828 Circle
5603 1828 Circle
5610 1828 Circle
5616 1828 Circle
5623 1828 Circle
5630 1828 Circle
5636 1828 Circle
5643 1827 Circle
5650 1827 Circle
5656 1827 Circle
5663 1827 Circle
5670 1827 Circle
5676 1827 Circle
5683 1827 Circle
5690 1827 Circle
5696 1827 Circle
5703 1827 Circle
5710 1827 Circle
5716 1827 Circle
5723 1827 Circle
5730 1827 Circle
5736 1827 Circle
5743 1827 Circle
5750 1827 Circle
5756 1827 Circle
5763 1827 Circle
5770 1827 Circle
5776 1827 Circle
5783 1827 Circle
5790 1827 Circle
5796 1826 Circle
5803 1826 Circle
5810 1826 Circle
5816 1826 Circle
5823 1826 Circle
5830 1826 Circle
5836 1826 Circle
5843 1826 Circle
5850 1826 Circle
5856 1826 Circle
5863 1826 Circle
5870 1826 Circle
5876 1826 Circle
5883 1826 Circle
5889 1826 Circle
5896 1826 Circle
5903 1826 Circle
5909 1826 Circle
5916 1826 Circle
5923 1826 Circle
5929 1826 Circle
5936 1826 Circle
5943 1826 Circle
5949 1825 Circle
5956 1825 Circle
5963 1825 Circle
5969 1825 Circle
5976 1825 Circle
5983 1825 Circle
5989 1825 Circle
5996 1825 Circle
6003 1825 Circle
6009 1825 Circle
6016 1825 Circle
6023 1825 Circle
6029 1825 Circle
6036 1825 Circle
6043 1825 Circle
6049 1825 Circle
6056 1825 Circle
6063 1825 Circle
6069 1825 Circle
6076 1825 Circle
6083 1825 Circle
6089 1825 Circle
6096 1825 Circle
6103 1825 Circle
6109 1825 Circle
6116 1824 Circle
6123 1824 Circle
6129 1824 Circle
6136 1824 Circle
6143 1824 Circle
6149 1824 Circle
6156 1824 Circle
6162 1824 Circle
6169 1824 Circle
6176 1824 Circle
6182 1824 Circle
6189 1824 Circle
6196 1824 Circle
6202 1824 Circle
6209 1824 Circle
6216 1824 Circle
6222 1824 Circle
6229 1824 Circle
6236 1824 Circle
6242 1824 Circle
6249 1824 Circle
6256 1824 Circle
6262 1824 Circle
6269 1824 Circle
6276 1824 Circle
6282 1824 Circle
6289 1824 Circle
6296 1824 Circle
6302 1824 Circle
6309 1823 Circle
6316 1823 Circle
6322 1823 Circle
6329 1823 Circle
6336 1823 Circle
6342 1823 Circle
6349 1823 Circle
6356 1823 Circle
6362 1823 Circle
6369 1823 Circle
6376 1823 Circle
6382 1823 Circle
6389 1823 Circle
6396 1823 Circle
6402 1823 Circle
6409 1823 Circle
6416 1823 Circle
6422 1823 Circle
6429 1823 Circle
6436 1823 Circle
6442 1823 Circle
6449 1823 Circle
6455 1823 Circle
6462 1823 Circle
6469 1823 Circle
6475 1823 Circle
6482 1823 Circle
6489 1823 Circle
6495 1823 Circle
6502 1822 Circle
6509 1822 Circle
6515 1822 Circle
6522 1822 Circle
6529 1822 Circle
6535 1822 Circle
6542 1822 Circle
6549 1822 Circle
6555 1822 Circle
6562 1822 Circle
6569 1822 Circle
6575 1822 Circle
6582 1822 Circle
6589 1822 Circle
6595 1822 Circle
6602 1822 Circle
6609 1822 Circle
6615 1822 Circle
6622 1822 Circle
6629 1822 Circle
6635 1822 Circle
6642 1822 Circle
6649 1822 Circle
6655 1822 Circle
6662 1822 Circle
6669 1822 Circle
6675 1822 Circle
6682 1822 Circle
6689 1822 Circle
6695 1822 Circle
6702 1822 Circle
6709 1822 Circle
6715 1821 Circle
6722 1821 Circle
6729 1821 Circle
6735 1821 Circle
6742 1821 Circle
6748 1821 Circle
6755 1821 Circle
6762 1821 Circle
6768 1821 Circle
6775 1821 Circle
6782 1821 Circle
6788 1821 Circle
6795 1821 Circle
6802 1821 Circle
6808 1821 Circle
6815 1821 Circle
6822 1821 Circle
6828 1821 Circle
6835 1821 Circle
6842 1821 Circle
6848 1821 Circle
6855 1821 Circle
6862 1821 Circle
6868 1821 Circle
6875 1821 Circle
% End plot #6
% Begin plot #7
3.000 UL
LTb
LT2
0.34 0.71 0.91 C 882 1407 M
61 0 V
60 0 V
61 0 V
60 0 V
61 0 V
60 0 V
61 0 V
60 0 V
61 0 V
60 0 V
61 0 V
60 0 V
61 0 V
60 0 V
61 0 V
61 0 V
60 0 V
61 0 V
60 0 V
61 0 V
60 0 V
61 0 V
60 0 V
61 0 V
60 0 V
61 0 V
60 0 V
61 0 V
61 0 V
60 0 V
61 0 V
60 0 V
61 0 V
60 0 V
61 0 V
60 0 V
61 0 V
60 0 V
61 0 V
60 0 V
61 0 V
60 0 V
61 0 V
61 0 V
60 0 V
61 0 V
60 0 V
61 0 V
60 0 V
61 0 V
60 0 V
61 0 V
60 0 V
61 0 V
60 0 V
61 0 V
61 0 V
60 0 V
61 0 V
60 0 V
61 0 V
60 0 V
61 0 V
60 0 V
61 0 V
60 0 V
61 0 V
60 0 V
61 0 V
60 0 V
61 0 V
61 0 V
60 0 V
61 0 V
60 0 V
61 0 V
60 0 V
61 0 V
60 0 V
61 0 V
60 0 V
61 0 V
60 0 V
61 0 V
61 0 V
60 0 V
61 0 V
60 0 V
61 0 V
60 0 V
61 0 V
60 0 V
61 0 V
60 0 V
61 0 V
60 0 V
61 0 V
60 0 V
61 0 V
% End plot #7
% Begin plot #8
stroke
2.000 UL
LTb
LT1
0.00 0.00 0.00 C 882 2545 M
61 0 V
60 0 V
61 0 V
60 0 V
61 0 V
60 0 V
61 0 V
60 0 V
61 0 V
60 0 V
61 0 V
60 0 V
61 0 V
60 0 V
61 0 V
61 0 V
60 0 V
61 0 V
60 0 V
61 0 V
60 0 V
61 0 V
60 0 V
61 0 V
60 0 V
61 0 V
60 0 V
61 0 V
61 0 V
60 0 V
61 0 V
60 0 V
61 0 V
60 0 V
61 0 V
60 0 V
61 0 V
60 0 V
61 0 V
60 0 V
61 0 V
60 0 V
61 0 V
61 0 V
60 0 V
61 0 V
60 0 V
61 0 V
60 0 V
61 0 V
60 0 V
61 0 V
60 0 V
61 0 V
60 0 V
61 0 V
61 0 V
60 0 V
61 0 V
60 0 V
61 0 V
60 0 V
61 0 V
60 0 V
61 0 V
60 0 V
61 0 V
60 0 V
61 0 V
60 0 V
61 0 V
61 0 V
60 0 V
61 0 V
60 0 V
61 0 V
60 0 V
61 0 V
60 0 V
61 0 V
60 0 V
61 0 V
60 0 V
61 0 V
61 0 V
60 0 V
61 0 V
60 0 V
61 0 V
60 0 V
61 0 V
60 0 V
61 0 V
60 0 V
61 0 V
60 0 V
61 0 V
60 0 V
61 0 V
% End plot #8
stroke
LTb
LCb setrgbcolor
1.000 UP
LCb setrgbcolor
6409 4416 M
[ [(Helvetica) 180.0 0.0 true true 0 (SLy5)]
] -60.0 MCshow
1.000 UL
LTb
0.50 0.50 0.50 C stroke
grestore
end
showpage
%%Trailer
%%DocumentFonts: Symbol Helvetica
