%!PS-Adobe-2.0 EPSF-2.0
%%Title: lr_PNM.eps
%%Creator: gnuplot 5.0 patchlevel 3
%%CreationDate: Fri Jun 23 23:05:20 2017
%%DocumentFonts: (atend)
%%BoundingBox: 50 50 410 302
%%EndComments
%%BeginProlog
/gnudict 256 dict def
gnudict begin
%
% The following true/false flags may be edited by hand if desired.
% The unit line width and grayscale image gamma correction may also be changed.
%
/Color true def
/Blacktext false def
/Solid false def
/Dashlength 1 def
/Landscape false def
/Level1 false def
/Level3 false def
/Rounded false def
/ClipToBoundingBox false def
/SuppressPDFMark false def
/TransparentPatterns false def
/gnulinewidth 5.000 def
/userlinewidth gnulinewidth def
/Gamma 1.0 def
/BackgroundColor {-1.000 -1.000 -1.000} def
%
/vshift -60 def
/dl1 {
  10.0 Dashlength userlinewidth gnulinewidth div mul mul mul
  Rounded { currentlinewidth 0.75 mul sub dup 0 le { pop 0.01 } if } if
} def
/dl2 {
  10.0 Dashlength userlinewidth gnulinewidth div mul mul mul
  Rounded { currentlinewidth 0.75 mul add } if
} def
/hpt_ 31.5 def
/vpt_ 31.5 def
/hpt hpt_ def
/vpt vpt_ def
/doclip {
  ClipToBoundingBox {
    newpath 50 50 moveto 410 50 lineto 410 302 lineto 50 302 lineto closepath
    clip
  } if
} def
%
% Gnuplot Prolog Version 5.1 (Oct 2015)
%
%/SuppressPDFMark true def
%
/M {moveto} bind def
/L {lineto} bind def
/R {rmoveto} bind def
/V {rlineto} bind def
/N {newpath moveto} bind def
/Z {closepath} bind def
/C {setrgbcolor} bind def
/f {rlineto fill} bind def
/g {setgray} bind def
/Gshow {show} def   % May be redefined later in the file to support UTF-8
/vpt2 vpt 2 mul def
/hpt2 hpt 2 mul def
/Lshow {currentpoint stroke M 0 vshift R 
	Blacktext {gsave 0 setgray textshow grestore} {textshow} ifelse} def
/Rshow {currentpoint stroke M dup stringwidth pop neg vshift R
	Blacktext {gsave 0 setgray textshow grestore} {textshow} ifelse} def
/Cshow {currentpoint stroke M dup stringwidth pop -2 div vshift R 
	Blacktext {gsave 0 setgray textshow grestore} {textshow} ifelse} def
/UP {dup vpt_ mul /vpt exch def hpt_ mul /hpt exch def
  /hpt2 hpt 2 mul def /vpt2 vpt 2 mul def} def
/DL {Color {setrgbcolor Solid {pop []} if 0 setdash}
 {pop pop pop 0 setgray Solid {pop []} if 0 setdash} ifelse} def
/BL {stroke userlinewidth 2 mul setlinewidth
	Rounded {1 setlinejoin 1 setlinecap} if} def
/AL {stroke userlinewidth 2 div setlinewidth
	Rounded {1 setlinejoin 1 setlinecap} if} def
/UL {dup gnulinewidth mul /userlinewidth exch def
	dup 1 lt {pop 1} if 10 mul /udl exch def} def
/PL {stroke userlinewidth setlinewidth
	Rounded {1 setlinejoin 1 setlinecap} if} def
3.8 setmiterlimit
% Classic Line colors (version 5.0)
/LCw {1 1 1} def
/LCb {0 0 0} def
/LCa {0 0 0} def
/LC0 {1 0 0} def
/LC1 {0 1 0} def
/LC2 {0 0 1} def
/LC3 {1 0 1} def
/LC4 {0 1 1} def
/LC5 {1 1 0} def
/LC6 {0 0 0} def
/LC7 {1 0.3 0} def
/LC8 {0.5 0.5 0.5} def
% Default dash patterns (version 5.0)
/LTB {BL [] LCb DL} def
/LTw {PL [] 1 setgray} def
/LTb {PL [] LCb DL} def
/LTa {AL [1 udl mul 2 udl mul] 0 setdash LCa setrgbcolor} def
/LT0 {PL [] LC0 DL} def
/LT1 {PL [2 dl1 3 dl2] LC1 DL} def
/LT2 {PL [1 dl1 1.5 dl2] LC2 DL} def
/LT3 {PL [6 dl1 2 dl2 1 dl1 2 dl2] LC3 DL} def
/LT4 {PL [1 dl1 2 dl2 6 dl1 2 dl2 1 dl1 2 dl2] LC4 DL} def
/LT5 {PL [4 dl1 2 dl2] LC5 DL} def
/LT6 {PL [1.5 dl1 1.5 dl2 1.5 dl1 1.5 dl2 1.5 dl1 6 dl2] LC6 DL} def
/LT7 {PL [3 dl1 3 dl2 1 dl1 3 dl2] LC7 DL} def
/LT8 {PL [2 dl1 2 dl2 2 dl1 6 dl2] LC8 DL} def
/SL {[] 0 setdash} def
/Pnt {stroke [] 0 setdash gsave 1 setlinecap M 0 0 V stroke grestore} def
/Dia {stroke [] 0 setdash 2 copy vpt add M
  hpt neg vpt neg V hpt vpt neg V
  hpt vpt V hpt neg vpt V closepath stroke
  Pnt} def
/Pls {stroke [] 0 setdash vpt sub M 0 vpt2 V
  currentpoint stroke M
  hpt neg vpt neg R hpt2 0 V stroke
 } def
/Box {stroke [] 0 setdash 2 copy exch hpt sub exch vpt add M
  0 vpt2 neg V hpt2 0 V 0 vpt2 V
  hpt2 neg 0 V closepath stroke
  Pnt} def
/Crs {stroke [] 0 setdash exch hpt sub exch vpt add M
  hpt2 vpt2 neg V currentpoint stroke M
  hpt2 neg 0 R hpt2 vpt2 V stroke} def
/TriU {stroke [] 0 setdash 2 copy vpt 1.12 mul add M
  hpt neg vpt -1.62 mul V
  hpt 2 mul 0 V
  hpt neg vpt 1.62 mul V closepath stroke
  Pnt} def
/Star {2 copy Pls Crs} def
/BoxF {stroke [] 0 setdash exch hpt sub exch vpt add M
  0 vpt2 neg V hpt2 0 V 0 vpt2 V
  hpt2 neg 0 V closepath fill} def
/TriUF {stroke [] 0 setdash vpt 1.12 mul add M
  hpt neg vpt -1.62 mul V
  hpt 2 mul 0 V
  hpt neg vpt 1.62 mul V closepath fill} def
/TriD {stroke [] 0 setdash 2 copy vpt 1.12 mul sub M
  hpt neg vpt 1.62 mul V
  hpt 2 mul 0 V
  hpt neg vpt -1.62 mul V closepath stroke
  Pnt} def
/TriDF {stroke [] 0 setdash vpt 1.12 mul sub M
  hpt neg vpt 1.62 mul V
  hpt 2 mul 0 V
  hpt neg vpt -1.62 mul V closepath fill} def
/DiaF {stroke [] 0 setdash vpt add M
  hpt neg vpt neg V hpt vpt neg V
  hpt vpt V hpt neg vpt V closepath fill} def
/Pent {stroke [] 0 setdash 2 copy gsave
  translate 0 hpt M 4 {72 rotate 0 hpt L} repeat
  closepath stroke grestore Pnt} def
/PentF {stroke [] 0 setdash gsave
  translate 0 hpt M 4 {72 rotate 0 hpt L} repeat
  closepath fill grestore} def
/Circle {stroke [] 0 setdash 2 copy
  hpt 0 360 arc stroke Pnt} def
/CircleF {stroke [] 0 setdash hpt 0 360 arc fill} def
/C0 {BL [] 0 setdash 2 copy moveto vpt 90 450 arc} bind def
/C1 {BL [] 0 setdash 2 copy moveto
	2 copy vpt 0 90 arc closepath fill
	vpt 0 360 arc closepath} bind def
/C2 {BL [] 0 setdash 2 copy moveto
	2 copy vpt 90 180 arc closepath fill
	vpt 0 360 arc closepath} bind def
/C3 {BL [] 0 setdash 2 copy moveto
	2 copy vpt 0 180 arc closepath fill
	vpt 0 360 arc closepath} bind def
/C4 {BL [] 0 setdash 2 copy moveto
	2 copy vpt 180 270 arc closepath fill
	vpt 0 360 arc closepath} bind def
/C5 {BL [] 0 setdash 2 copy moveto
	2 copy vpt 0 90 arc
	2 copy moveto
	2 copy vpt 180 270 arc closepath fill
	vpt 0 360 arc} bind def
/C6 {BL [] 0 setdash 2 copy moveto
	2 copy vpt 90 270 arc closepath fill
	vpt 0 360 arc closepath} bind def
/C7 {BL [] 0 setdash 2 copy moveto
	2 copy vpt 0 270 arc closepath fill
	vpt 0 360 arc closepath} bind def
/C8 {BL [] 0 setdash 2 copy moveto
	2 copy vpt 270 360 arc closepath fill
	vpt 0 360 arc closepath} bind def
/C9 {BL [] 0 setdash 2 copy moveto
	2 copy vpt 270 450 arc closepath fill
	vpt 0 360 arc closepath} bind def
/C10 {BL [] 0 setdash 2 copy 2 copy moveto vpt 270 360 arc closepath fill
	2 copy moveto
	2 copy vpt 90 180 arc closepath fill
	vpt 0 360 arc closepath} bind def
/C11 {BL [] 0 setdash 2 copy moveto
	2 copy vpt 0 180 arc closepath fill
	2 copy moveto
	2 copy vpt 270 360 arc closepath fill
	vpt 0 360 arc closepath} bind def
/C12 {BL [] 0 setdash 2 copy moveto
	2 copy vpt 180 360 arc closepath fill
	vpt 0 360 arc closepath} bind def
/C13 {BL [] 0 setdash 2 copy moveto
	2 copy vpt 0 90 arc closepath fill
	2 copy moveto
	2 copy vpt 180 360 arc closepath fill
	vpt 0 360 arc closepath} bind def
/C14 {BL [] 0 setdash 2 copy moveto
	2 copy vpt 90 360 arc closepath fill
	vpt 0 360 arc} bind def
/C15 {BL [] 0 setdash 2 copy vpt 0 360 arc closepath fill
	vpt 0 360 arc closepath} bind def
/Rec {newpath 4 2 roll moveto 1 index 0 rlineto 0 exch rlineto
	neg 0 rlineto closepath} bind def
/Square {dup Rec} bind def
/Bsquare {vpt sub exch vpt sub exch vpt2 Square} bind def
/S0 {BL [] 0 setdash 2 copy moveto 0 vpt rlineto BL Bsquare} bind def
/S1 {BL [] 0 setdash 2 copy vpt Square fill Bsquare} bind def
/S2 {BL [] 0 setdash 2 copy exch vpt sub exch vpt Square fill Bsquare} bind def
/S3 {BL [] 0 setdash 2 copy exch vpt sub exch vpt2 vpt Rec fill Bsquare} bind def
/S4 {BL [] 0 setdash 2 copy exch vpt sub exch vpt sub vpt Square fill Bsquare} bind def
/S5 {BL [] 0 setdash 2 copy 2 copy vpt Square fill
	exch vpt sub exch vpt sub vpt Square fill Bsquare} bind def
/S6 {BL [] 0 setdash 2 copy exch vpt sub exch vpt sub vpt vpt2 Rec fill Bsquare} bind def
/S7 {BL [] 0 setdash 2 copy exch vpt sub exch vpt sub vpt vpt2 Rec fill
	2 copy vpt Square fill Bsquare} bind def
/S8 {BL [] 0 setdash 2 copy vpt sub vpt Square fill Bsquare} bind def
/S9 {BL [] 0 setdash 2 copy vpt sub vpt vpt2 Rec fill Bsquare} bind def
/S10 {BL [] 0 setdash 2 copy vpt sub vpt Square fill 2 copy exch vpt sub exch vpt Square fill
	Bsquare} bind def
/S11 {BL [] 0 setdash 2 copy vpt sub vpt Square fill 2 copy exch vpt sub exch vpt2 vpt Rec fill
	Bsquare} bind def
/S12 {BL [] 0 setdash 2 copy exch vpt sub exch vpt sub vpt2 vpt Rec fill Bsquare} bind def
/S13 {BL [] 0 setdash 2 copy exch vpt sub exch vpt sub vpt2 vpt Rec fill
	2 copy vpt Square fill Bsquare} bind def
/S14 {BL [] 0 setdash 2 copy exch vpt sub exch vpt sub vpt2 vpt Rec fill
	2 copy exch vpt sub exch vpt Square fill Bsquare} bind def
/S15 {BL [] 0 setdash 2 copy Bsquare fill Bsquare} bind def
/D0 {gsave translate 45 rotate 0 0 S0 stroke grestore} bind def
/D1 {gsave translate 45 rotate 0 0 S1 stroke grestore} bind def
/D2 {gsave translate 45 rotate 0 0 S2 stroke grestore} bind def
/D3 {gsave translate 45 rotate 0 0 S3 stroke grestore} bind def
/D4 {gsave translate 45 rotate 0 0 S4 stroke grestore} bind def
/D5 {gsave translate 45 rotate 0 0 S5 stroke grestore} bind def
/D6 {gsave translate 45 rotate 0 0 S6 stroke grestore} bind def
/D7 {gsave translate 45 rotate 0 0 S7 stroke grestore} bind def
/D8 {gsave translate 45 rotate 0 0 S8 stroke grestore} bind def
/D9 {gsave translate 45 rotate 0 0 S9 stroke grestore} bind def
/D10 {gsave translate 45 rotate 0 0 S10 stroke grestore} bind def
/D11 {gsave translate 45 rotate 0 0 S11 stroke grestore} bind def
/D12 {gsave translate 45 rotate 0 0 S12 stroke grestore} bind def
/D13 {gsave translate 45 rotate 0 0 S13 stroke grestore} bind def
/D14 {gsave translate 45 rotate 0 0 S14 stroke grestore} bind def
/D15 {gsave translate 45 rotate 0 0 S15 stroke grestore} bind def
/DiaE {stroke [] 0 setdash vpt add M
  hpt neg vpt neg V hpt vpt neg V
  hpt vpt V hpt neg vpt V closepath stroke} def
/BoxE {stroke [] 0 setdash exch hpt sub exch vpt add M
  0 vpt2 neg V hpt2 0 V 0 vpt2 V
  hpt2 neg 0 V closepath stroke} def
/TriUE {stroke [] 0 setdash vpt 1.12 mul add M
  hpt neg vpt -1.62 mul V
  hpt 2 mul 0 V
  hpt neg vpt 1.62 mul V closepath stroke} def
/TriDE {stroke [] 0 setdash vpt 1.12 mul sub M
  hpt neg vpt 1.62 mul V
  hpt 2 mul 0 V
  hpt neg vpt -1.62 mul V closepath stroke} def
/PentE {stroke [] 0 setdash gsave
  translate 0 hpt M 4 {72 rotate 0 hpt L} repeat
  closepath stroke grestore} def
/CircE {stroke [] 0 setdash 
  hpt 0 360 arc stroke} def
/Opaque {gsave closepath 1 setgray fill grestore 0 setgray closepath} def
/DiaW {stroke [] 0 setdash vpt add M
  hpt neg vpt neg V hpt vpt neg V
  hpt vpt V hpt neg vpt V Opaque stroke} def
/BoxW {stroke [] 0 setdash exch hpt sub exch vpt add M
  0 vpt2 neg V hpt2 0 V 0 vpt2 V
  hpt2 neg 0 V Opaque stroke} def
/TriUW {stroke [] 0 setdash vpt 1.12 mul add M
  hpt neg vpt -1.62 mul V
  hpt 2 mul 0 V
  hpt neg vpt 1.62 mul V Opaque stroke} def
/TriDW {stroke [] 0 setdash vpt 1.12 mul sub M
  hpt neg vpt 1.62 mul V
  hpt 2 mul 0 V
  hpt neg vpt -1.62 mul V Opaque stroke} def
/PentW {stroke [] 0 setdash gsave
  translate 0 hpt M 4 {72 rotate 0 hpt L} repeat
  Opaque stroke grestore} def
/CircW {stroke [] 0 setdash 
  hpt 0 360 arc Opaque stroke} def
/BoxFill {gsave Rec 1 setgray fill grestore} def
/Density {
  /Fillden exch def
  currentrgbcolor
  /ColB exch def /ColG exch def /ColR exch def
  /ColR ColR Fillden mul Fillden sub 1 add def
  /ColG ColG Fillden mul Fillden sub 1 add def
  /ColB ColB Fillden mul Fillden sub 1 add def
  ColR ColG ColB setrgbcolor} def
/BoxColFill {gsave Rec PolyFill} def
/PolyFill {gsave Density fill grestore grestore} def
/h {rlineto rlineto rlineto gsave closepath fill grestore} bind def
%
% PostScript Level 1 Pattern Fill routine for rectangles
% Usage: x y w h s a XX PatternFill
%	x,y = lower left corner of box to be filled
%	w,h = width and height of box
%	  a = angle in degrees between lines and x-axis
%	 XX = 0/1 for no/yes cross-hatch
%
/PatternFill {gsave /PFa [ 9 2 roll ] def
  PFa 0 get PFa 2 get 2 div add PFa 1 get PFa 3 get 2 div add translate
  PFa 2 get -2 div PFa 3 get -2 div PFa 2 get PFa 3 get Rec
  TransparentPatterns {} {gsave 1 setgray fill grestore} ifelse
  clip
  currentlinewidth 0.5 mul setlinewidth
  /PFs PFa 2 get dup mul PFa 3 get dup mul add sqrt def
  0 0 M PFa 5 get rotate PFs -2 div dup translate
  0 1 PFs PFa 4 get div 1 add floor cvi
	{PFa 4 get mul 0 M 0 PFs V} for
  0 PFa 6 get ne {
	0 1 PFs PFa 4 get div 1 add floor cvi
	{PFa 4 get mul 0 2 1 roll M PFs 0 V} for
 } if
  stroke grestore} def
%
/languagelevel where
 {pop languagelevel} {1} ifelse
dup 2 lt
	{/InterpretLevel1 true def
	 /InterpretLevel3 false def}
	{/InterpretLevel1 Level1 def
	 2 gt
	    {/InterpretLevel3 Level3 def}
	    {/InterpretLevel3 false def}
	 ifelse }
 ifelse
%
% PostScript level 2 pattern fill definitions
%
/Level2PatternFill {
/Tile8x8 {/PaintType 2 /PatternType 1 /TilingType 1 /BBox [0 0 8 8] /XStep 8 /YStep 8}
	bind def
/KeepColor {currentrgbcolor [/Pattern /DeviceRGB] setcolorspace} bind def
<< Tile8x8
 /PaintProc {0.5 setlinewidth pop 0 0 M 8 8 L 0 8 M 8 0 L stroke} 
>> matrix makepattern
/Pat1 exch def
<< Tile8x8
 /PaintProc {0.5 setlinewidth pop 0 0 M 8 8 L 0 8 M 8 0 L stroke
	0 4 M 4 8 L 8 4 L 4 0 L 0 4 L stroke}
>> matrix makepattern
/Pat2 exch def
<< Tile8x8
 /PaintProc {0.5 setlinewidth pop 0 0 M 0 8 L
	8 8 L 8 0 L 0 0 L fill}
>> matrix makepattern
/Pat3 exch def
<< Tile8x8
 /PaintProc {0.5 setlinewidth pop -4 8 M 8 -4 L
	0 12 M 12 0 L stroke}
>> matrix makepattern
/Pat4 exch def
<< Tile8x8
 /PaintProc {0.5 setlinewidth pop -4 0 M 8 12 L
	0 -4 M 12 8 L stroke}
>> matrix makepattern
/Pat5 exch def
<< Tile8x8
 /PaintProc {0.5 setlinewidth pop -2 8 M 4 -4 L
	0 12 M 8 -4 L 4 12 M 10 0 L stroke}
>> matrix makepattern
/Pat6 exch def
<< Tile8x8
 /PaintProc {0.5 setlinewidth pop -2 0 M 4 12 L
	0 -4 M 8 12 L 4 -4 M 10 8 L stroke}
>> matrix makepattern
/Pat7 exch def
<< Tile8x8
 /PaintProc {0.5 setlinewidth pop 8 -2 M -4 4 L
	12 0 M -4 8 L 12 4 M 0 10 L stroke}
>> matrix makepattern
/Pat8 exch def
<< Tile8x8
 /PaintProc {0.5 setlinewidth pop 0 -2 M 12 4 L
	-4 0 M 12 8 L -4 4 M 8 10 L stroke}
>> matrix makepattern
/Pat9 exch def
/Pattern1 {PatternBgnd KeepColor Pat1 setpattern} bind def
/Pattern2 {PatternBgnd KeepColor Pat2 setpattern} bind def
/Pattern3 {PatternBgnd KeepColor Pat3 setpattern} bind def
/Pattern4 {PatternBgnd KeepColor Landscape {Pat5} {Pat4} ifelse setpattern} bind def
/Pattern5 {PatternBgnd KeepColor Landscape {Pat4} {Pat5} ifelse setpattern} bind def
/Pattern6 {PatternBgnd KeepColor Landscape {Pat9} {Pat6} ifelse setpattern} bind def
/Pattern7 {PatternBgnd KeepColor Landscape {Pat8} {Pat7} ifelse setpattern} bind def
} def
%
%
%End of PostScript Level 2 code
%
/PatternBgnd {
  TransparentPatterns {} {gsave 1 setgray fill grestore} ifelse
} def
%
% Substitute for Level 2 pattern fill codes with
% grayscale if Level 2 support is not selected.
%
/Level1PatternFill {
/Pattern1 {0.250 Density} bind def
/Pattern2 {0.500 Density} bind def
/Pattern3 {0.750 Density} bind def
/Pattern4 {0.125 Density} bind def
/Pattern5 {0.375 Density} bind def
/Pattern6 {0.625 Density} bind def
/Pattern7 {0.875 Density} bind def
} def
%
% Now test for support of Level 2 code
%
Level1 {Level1PatternFill} {Level2PatternFill} ifelse
%
/Symbol-Oblique /Symbol findfont [1 0 .167 1 0 0] makefont
dup length dict begin {1 index /FID eq {pop pop} {def} ifelse} forall
currentdict end definefont pop
%
/MFshow {
   { dup 5 get 3 ge
     { 5 get 3 eq {gsave} {grestore} ifelse }
     {dup dup 0 get findfont exch 1 get scalefont setfont
     [ currentpoint ] exch dup 2 get 0 exch R dup 5 get 2 ne {dup dup 6
     get exch 4 get {textshow} {stringwidth pop 0 R} ifelse }if dup 5 get 0 eq
     {dup 3 get {2 get neg 0 exch R pop} {pop aload pop M} ifelse} {dup 5
     get 1 eq {dup 2 get exch dup 3 get exch 6 get stringwidth pop -2 div
     dup 0 R} {dup 6 get stringwidth pop -2 div 0 R 6 get
     textshow 2 index {aload pop M neg 3 -1 roll neg R pop pop} {pop pop pop
     pop aload pop M} ifelse }ifelse }ifelse }
     ifelse }
   forall} def
/Gswidth {dup type /stringtype eq {stringwidth} {pop (n) stringwidth} ifelse} def
/MFwidth {0 exch { dup 5 get 3 ge { 5 get 3 eq { 0 } { pop } ifelse }
 {dup 3 get{dup dup 0 get findfont exch 1 get scalefont setfont
     6 get Gswidth pop add} {pop} ifelse} ifelse} forall} def
/MLshow { currentpoint stroke M
  0 exch R
  Blacktext {gsave 0 setgray MFshow grestore} {MFshow} ifelse } bind def
/MRshow { currentpoint stroke M
  exch dup MFwidth neg 3 -1 roll R
  Blacktext {gsave 0 setgray MFshow grestore} {MFshow} ifelse } bind def
/MCshow { currentpoint stroke M
  exch dup MFwidth -2 div 3 -1 roll R
  Blacktext {gsave 0 setgray MFshow grestore} {MFshow} ifelse } bind def
/XYsave    { [( ) 1 2 true false 3 ()] } bind def
/XYrestore { [( ) 1 2 true false 4 ()] } bind def
Level1 SuppressPDFMark or 
{} {
/SDict 10 dict def
systemdict /pdfmark known not {
  userdict /pdfmark systemdict /cleartomark get put
} if
SDict begin [
  /Title (lr_PNM.eps)
  /Subject (gnuplot plot)
  /Creator (gnuplot 5.0 patchlevel 3)
  /Author (kb2)
%  /Producer (gnuplot)
%  /Keywords ()
  /CreationDate (Fri Jun 23 23:05:20 2017)
  /DOCINFO pdfmark
end
} ifelse
%
% Support for boxed text - Ethan A Merritt May 2005
%
/InitTextBox { userdict /TBy2 3 -1 roll put userdict /TBx2 3 -1 roll put
           userdict /TBy1 3 -1 roll put userdict /TBx1 3 -1 roll put
	   /Boxing true def } def
/ExtendTextBox { Boxing
    { gsave dup false charpath pathbbox
      dup TBy2 gt {userdict /TBy2 3 -1 roll put} {pop} ifelse
      dup TBx2 gt {userdict /TBx2 3 -1 roll put} {pop} ifelse
      dup TBy1 lt {userdict /TBy1 3 -1 roll put} {pop} ifelse
      dup TBx1 lt {userdict /TBx1 3 -1 roll put} {pop} ifelse
      grestore } if } def
/PopTextBox { newpath TBx1 TBxmargin sub TBy1 TBymargin sub M
               TBx1 TBxmargin sub TBy2 TBymargin add L
	       TBx2 TBxmargin add TBy2 TBymargin add L
	       TBx2 TBxmargin add TBy1 TBymargin sub L closepath } def
/DrawTextBox { PopTextBox stroke /Boxing false def} def
/FillTextBox { gsave PopTextBox 1 1 1 setrgbcolor fill grestore /Boxing false def} def
0 0 0 0 InitTextBox
/TBxmargin 20 def
/TBymargin 20 def
/Boxing false def
/textshow { ExtendTextBox Gshow } def
%
% redundant definitions for compatibility with prologue.ps older than 5.0.2
/LTB {BL [] LCb DL} def
/LTb {PL [] LCb DL} def
end
%%EndProlog
%%Page: 1 1
gnudict begin
gsave
doclip
50 50 translate
0.050 0.050 scale
0 setgray
newpath
(Helvetica) findfont 180 scalefont setfont
BackgroundColor 0 lt 3 1 roll 0 lt exch 0 lt or or not {BackgroundColor C 1.000 0 0 7200.00 5040.00 BoxColFill} if
1.000 UL
LTb
0.50 0.50 0.50 C 1.000 UL
LTa
0.50 0.50 0.50 C 882 756 M
5993 0 V
stroke
LTb
0.50 0.50 0.50 C 882 756 M
63 0 V
5930 0 R
-63 0 V
stroke
774 756 M
[ [(Helvetica) 180.0 0.0 true true 0 ( 0)]
] -60.0 MRshow
1.000 UL
LTb
0.50 0.50 0.50 C 1.000 UL
LTa
0.50 0.50 0.50 C 882 1569 M
5993 0 V
stroke
LTb
0.50 0.50 0.50 C 882 1569 M
63 0 V
5930 0 R
-63 0 V
stroke
774 1569 M
[ [(Helvetica) 180.0 0.0 true true 0 ( 0.1)]
] -60.0 MRshow
1.000 UL
LTb
0.50 0.50 0.50 C 1.000 UL
LTa
0.50 0.50 0.50 C 882 2383 M
5993 0 V
stroke
LTb
0.50 0.50 0.50 C 882 2383 M
63 0 V
5930 0 R
-63 0 V
stroke
774 2383 M
[ [(Helvetica) 180.0 0.0 true true 0 ( 0.2)]
] -60.0 MRshow
1.000 UL
LTb
0.50 0.50 0.50 C 1.000 UL
LTa
0.50 0.50 0.50 C 882 3196 M
5993 0 V
stroke
LTb
0.50 0.50 0.50 C 882 3196 M
63 0 V
5930 0 R
-63 0 V
stroke
774 3196 M
[ [(Helvetica) 180.0 0.0 true true 0 ( 0.3)]
] -60.0 MRshow
1.000 UL
LTb
0.50 0.50 0.50 C 1.000 UL
LTa
0.50 0.50 0.50 C 882 4010 M
5993 0 V
stroke
LTb
0.50 0.50 0.50 C 882 4010 M
63 0 V
5930 0 R
-63 0 V
stroke
774 4010 M
[ [(Helvetica) 180.0 0.0 true true 0 ( 0.4)]
] -60.0 MRshow
1.000 UL
LTb
0.50 0.50 0.50 C 1.000 UL
LTa
0.50 0.50 0.50 C 882 4823 M
5993 0 V
stroke
LTb
0.50 0.50 0.50 C 882 4823 M
63 0 V
5930 0 R
-63 0 V
stroke
774 4823 M
[ [(Helvetica) 180.0 0.0 true true 0 ( 0.5)]
] -60.0 MRshow
1.000 UL
LTb
0.50 0.50 0.50 C 1.000 UL
LTa
0.50 0.50 0.50 C 882 756 M
0 4067 V
stroke
LTb
0.50 0.50 0.50 C 882 756 M
0 63 V
0 4004 R
0 -63 V
stroke
882 576 M
[ [(Helvetica) 180.0 0.0 true true 0 ( 0)]
] -60.0 MCshow
1.000 UL
LTb
0.50 0.50 0.50 C 1.000 UL
LTa
0.50 0.50 0.50 C 1548 756 M
0 4067 V
stroke
LTb
0.50 0.50 0.50 C 1548 756 M
0 63 V
0 4004 R
0 -63 V
stroke
1548 576 M
[ [(Helvetica) 180.0 0.0 true true 0 ( 1)]
] -60.0 MCshow
1.000 UL
LTb
0.50 0.50 0.50 C 1.000 UL
LTa
0.50 0.50 0.50 C 2214 756 M
0 4067 V
stroke
LTb
0.50 0.50 0.50 C 2214 756 M
0 63 V
0 4004 R
0 -63 V
stroke
2214 576 M
[ [(Helvetica) 180.0 0.0 true true 0 ( 2)]
] -60.0 MCshow
1.000 UL
LTb
0.50 0.50 0.50 C 1.000 UL
LTa
0.50 0.50 0.50 C 2880 756 M
0 4067 V
stroke
LTb
0.50 0.50 0.50 C 2880 756 M
0 63 V
0 4004 R
0 -63 V
stroke
2880 576 M
[ [(Helvetica) 180.0 0.0 true true 0 ( 3)]
] -60.0 MCshow
1.000 UL
LTb
0.50 0.50 0.50 C 1.000 UL
LTa
0.50 0.50 0.50 C 3546 756 M
0 4067 V
stroke
LTb
0.50 0.50 0.50 C 3546 756 M
0 63 V
0 4004 R
0 -63 V
stroke
3546 576 M
[ [(Helvetica) 180.0 0.0 true true 0 ( 4)]
] -60.0 MCshow
1.000 UL
LTb
0.50 0.50 0.50 C 1.000 UL
LTa
0.50 0.50 0.50 C 4211 756 M
0 4067 V
stroke
LTb
0.50 0.50 0.50 C 4211 756 M
0 63 V
0 4004 R
0 -63 V
stroke
4211 576 M
[ [(Helvetica) 180.0 0.0 true true 0 ( 5)]
] -60.0 MCshow
1.000 UL
LTb
0.50 0.50 0.50 C 1.000 UL
LTa
0.50 0.50 0.50 C 4877 756 M
0 4067 V
stroke
LTb
0.50 0.50 0.50 C 4877 756 M
0 63 V
0 4004 R
0 -63 V
stroke
4877 576 M
[ [(Helvetica) 180.0 0.0 true true 0 ( 6)]
] -60.0 MCshow
1.000 UL
LTb
0.50 0.50 0.50 C 1.000 UL
LTa
0.50 0.50 0.50 C 5543 756 M
0 4067 V
stroke
LTb
0.50 0.50 0.50 C 5543 756 M
0 63 V
0 4004 R
0 -63 V
stroke
5543 576 M
[ [(Helvetica) 180.0 0.0 true true 0 ( 7)]
] -60.0 MCshow
1.000 UL
LTb
0.50 0.50 0.50 C 1.000 UL
LTa
0.50 0.50 0.50 C 6209 756 M
0 1014 V
0 450 R
0 2603 V
stroke
LTb
0.50 0.50 0.50 C 6209 756 M
0 63 V
0 4004 R
0 -63 V
stroke
6209 576 M
[ [(Helvetica) 180.0 0.0 true true 0 ( 8)]
] -60.0 MCshow
1.000 UL
LTb
0.50 0.50 0.50 C 1.000 UL
LTa
0.50 0.50 0.50 C 6875 756 M
0 4067 V
stroke
LTb
0.50 0.50 0.50 C 6875 756 M
0 63 V
0 4004 R
0 -63 V
stroke
6875 576 M
[ [(Helvetica) 180.0 0.0 true true 0 ( 9)]
] -60.0 MCshow
1.000 UL
LTb
0.50 0.50 0.50 C 1.000 UL
LTB
0.50 0.50 0.50 C 882 4823 M
882 756 L
5993 0 V
0 4067 R
-5993 0 R
stroke
LTb
1.00 1.00 1.00 C 1.000 5977 4236 864 360 BoxColFill
LCb setrgbcolor
5977 4236 N
0 360 V
864 0 V
0 -360 V
-864 0 V
Z stroke
1.000 UP
LCb setrgbcolor
416 1407 M
[ [(Symbol) 180.0 0.0 true true 0 (r)]
[(Helvetica) 144.0 -54.0 true true 0 (sat)]
] -42.0 MLshow
LCb setrgbcolor
416 2627 M
[ [(Symbol) 180.0 0.0 true true 0 (r)]
[(Helvetica) 144.0 -54.0 true true 0 (crit)]
] -42.0 MLshow
1.000 UL
LTb
0.50 0.50 0.50 C LCb setrgbcolor
144 2789 M
currentpoint gsave translate -270 rotate 0 0 moveto
[ [(Symbol) 180.0 0.0 true true 0 (r)]
[(Helvetica) 180.0 0.0 true true 0 ( [fm)]
[(Helvetica) 144.0 90.0 true true 0 (-3)]
[(Helvetica) 180.0 0.0 true true 0 (])]
] -78.0 MCshow
grestore
LTb
LCb setrgbcolor
3878 306 M
[ [(Helvetica) 180.0 0.0 true true 0 (q [fm)]
[(Helvetica) 144.0 90.0 true true 0 (-1)]
[(Helvetica) 180.0 0.0 true true 0 (])]
] -78.0 MCshow
LTb
% Begin plot #1
2.000 UP
1.000 UL
LTb
0.91 0.59 0.48 C LCb setrgbcolor
6272 2145 M
[ [(Helvetica) 150.0 0.0 true true 0 (Canal S=0 M=0)]
] -50.0 MRshow
2.000 UP
1.000 UL
LTb
0.91 0.59 0.48 C 6573 2145 CircleF
% End plot #1
% Begin plot #2
0.250 UP
1.000 UL
LTb
0.91 0.59 0.48 C 2340 3188 Circle
2347 3356 Circle
2354 3490 Circle
2360 3608 Circle
2367 3719 Circle
2374 3824 Circle
2380 3925 Circle
2387 4024 Circle
2394 4121 Circle
2400 4216 Circle
2407 4311 Circle
2414 4404 Circle
2420 4497 Circle
2427 4590 Circle
2434 4682 Circle
2440 4775 Circle
2447 2315 Circle
2453 2306 Circle
2460 2299 Circle
2467 2292 Circle
2473 2285 Circle
2480 2279 Circle
2487 2274 Circle
2493 2269 Circle
2500 2264 Circle
2507 2260 Circle
2513 2256 Circle
2520 2253 Circle
2527 2250 Circle
2533 2247 Circle
2540 2245 Circle
2547 2242 Circle
2553 2240 Circle
2560 2239 Circle
2567 2237 Circle
2573 2236 Circle
2580 2235 Circle
2587 2234 Circle
2593 2233 Circle
2600 2233 Circle
2607 2232 Circle
2613 2232 Circle
2620 2232 Circle
2627 2232 Circle
2633 2232 Circle
2640 2233 Circle
2647 2234 Circle
2653 2234 Circle
2660 2235 Circle
2667 2236 Circle
2673 2237 Circle
2680 2238 Circle
2687 2240 Circle
2693 2241 Circle
2700 2243 Circle
2707 2244 Circle
2713 2246 Circle
2720 2248 Circle
2727 2250 Circle
2733 2252 Circle
2740 2254 Circle
2746 2256 Circle
2753 2259 Circle
2760 2261 Circle
2766 2264 Circle
2773 2266 Circle
2780 2269 Circle
2786 2272 Circle
2793 2274 Circle
2800 2277 Circle
2806 2280 Circle
2813 2283 Circle
2820 2286 Circle
2826 2290 Circle
2833 2293 Circle
2840 2296 Circle
2846 2299 Circle
2853 2303 Circle
2860 2306 Circle
2866 2310 Circle
2873 2314 Circle
2880 2317 Circle
2886 2321 Circle
2893 2325 Circle
2900 2329 Circle
2906 2333 Circle
2913 2337 Circle
2920 2341 Circle
2926 2345 Circle
2933 2349 Circle
2940 2353 Circle
2946 2358 Circle
2953 2362 Circle
2960 2366 Circle
2966 2371 Circle
2973 2375 Circle
2980 2380 Circle
2986 2384 Circle
2993 2389 Circle
3000 2394 Circle
3006 2398 Circle
3013 2403 Circle
3020 2408 Circle
3026 2413 Circle
3033 2418 Circle
3039 2423 Circle
3046 2428 Circle
3053 2433 Circle
3059 2438 Circle
3066 2443 Circle
3073 2449 Circle
3079 2454 Circle
3086 2459 Circle
3093 2465 Circle
3099 2470 Circle
3106 2476 Circle
3113 2481 Circle
3119 2487 Circle
3126 2492 Circle
3133 2498 Circle
3139 2504 Circle
3146 2510 Circle
3153 2515 Circle
3159 2521 Circle
3166 2527 Circle
3173 2533 Circle
3179 2539 Circle
3186 2545 Circle
3193 2551 Circle
3199 2558 Circle
3206 2564 Circle
3213 2570 Circle
3219 2576 Circle
3226 2583 Circle
3233 2589 Circle
3239 2596 Circle
3246 2602 Circle
3253 2609 Circle
3259 2616 Circle
3266 2622 Circle
3273 2629 Circle
3279 2636 Circle
3286 2643 Circle
3293 2650 Circle
3299 2657 Circle
3306 2664 Circle
3312 2671 Circle
3319 2678 Circle
3326 2686 Circle
3332 2693 Circle
3339 2700 Circle
3346 2708 Circle
3352 2715 Circle
3359 2723 Circle
3366 2731 Circle
3372 2738 Circle
3379 2746 Circle
3386 2754 Circle
3392 2762 Circle
3399 2770 Circle
3406 2778 Circle
3412 2787 Circle
3419 2795 Circle
3426 2803 Circle
3432 2812 Circle
3439 2820 Circle
3446 2829 Circle
3452 2838 Circle
3459 2847 Circle
3466 2856 Circle
3472 2865 Circle
3479 2875 Circle
3486 2884 Circle
3492 2893 Circle
3499 2903 Circle
3506 2913 Circle
3512 2923 Circle
3519 2933 Circle
3526 2943 Circle
3532 2954 Circle
3539 2965 Circle
3546 2976 Circle
3552 2987 Circle
3559 2998 Circle
3566 3010 Circle
3572 3022 Circle
3579 3036 Circle
3586 3048 Circle
3592 3060 Circle
3599 3072 Circle
3605 3084 Circle
3612 3095 Circle
3619 3106 Circle
3625 3118 Circle
3632 3129 Circle
3639 3139 Circle
3645 3150 Circle
3652 3161 Circle
3659 3171 Circle
3665 3182 Circle
3672 3192 Circle
3679 3203 Circle
3685 3213 Circle
3692 3223 Circle
3699 3233 Circle
3705 3243 Circle
3712 3253 Circle
3719 3263 Circle
3725 3273 Circle
3732 3282 Circle
3739 3292 Circle
3745 3301 Circle
3752 3311 Circle
3759 3320 Circle
3765 3330 Circle
3772 3339 Circle
3779 3348 Circle
3785 3357 Circle
3792 3366 Circle
3799 3375 Circle
3805 3384 Circle
3812 3393 Circle
3819 3402 Circle
3825 3410 Circle
3832 3419 Circle
3839 3427 Circle
3845 3436 Circle
3852 3444 Circle
3859 3453 Circle
3865 3461 Circle
3872 3469 Circle
3879 3477 Circle
3885 3485 Circle
3892 3493 Circle
3898 3501 Circle
3905 3509 Circle
3912 3517 Circle
3918 3524 Circle
3925 3532 Circle
3932 3539 Circle
3938 3547 Circle
3945 3554 Circle
3952 3561 Circle
3958 3568 Circle
3965 3576 Circle
3972 3583 Circle
3978 3590 Circle
3985 3597 Circle
3992 3603 Circle
3998 3610 Circle
4005 3617 Circle
4012 3623 Circle
4018 3630 Circle
4025 3636 Circle
4032 3643 Circle
4038 3649 Circle
4045 3655 Circle
4052 3661 Circle
4058 3667 Circle
4065 3673 Circle
4072 3679 Circle
4078 3684 Circle
4085 3690 Circle
4092 3696 Circle
4098 3701 Circle
4105 3706 Circle
4112 3712 Circle
4118 3717 Circle
4125 3722 Circle
4132 3727 Circle
4138 3732 Circle
4145 3737 Circle
4152 3742 Circle
4158 3746 Circle
4165 3751 Circle
4171 3755 Circle
4178 3760 Circle
4185 3764 Circle
4191 3768 Circle
4198 3772 Circle
4205 3776 Circle
4211 3780 Circle
4218 3784 Circle
4225 3787 Circle
4231 3791 Circle
4238 3794 Circle
4245 3798 Circle
4251 3801 Circle
4258 3804 Circle
4265 3807 Circle
4271 3810 Circle
4278 3813 Circle
4285 3816 Circle
4291 3819 Circle
4298 3821 Circle
4305 3824 Circle
4311 3826 Circle
4318 3828 Circle
4325 3830 Circle
4331 3832 Circle
4338 3834 Circle
4345 3836 Circle
4351 3838 Circle
4358 3839 Circle
4365 3841 Circle
4371 3842 Circle
4378 3844 Circle
4385 3845 Circle
4391 3846 Circle
4398 3847 Circle
4405 3847 Circle
4411 3848 Circle
4418 3849 Circle
4425 3849 Circle
4431 3850 Circle
4438 3850 Circle
4445 3850 Circle
4451 3850 Circle
4458 3850 Circle
4464 3850 Circle
4471 3849 Circle
4478 3849 Circle
4484 3848 Circle
4491 3848 Circle
4498 3847 Circle
4504 3846 Circle
4511 3845 Circle
4518 3844 Circle
4524 3843 Circle
4531 3841 Circle
4538 3840 Circle
4544 3838 Circle
4551 3837 Circle
4558 3835 Circle
4564 3833 Circle
4571 3831 Circle
4578 3829 Circle
4584 3826 Circle
4591 3824 Circle
4598 3821 Circle
4604 3819 Circle
4611 3816 Circle
4618 3813 Circle
4624 3810 Circle
4631 3807 Circle
4638 3803 Circle
4644 3800 Circle
4651 3797 Circle
4658 3793 Circle
4664 3789 Circle
4671 3785 Circle
4678 3782 Circle
4684 3777 Circle
4691 3773 Circle
4698 3769 Circle
4704 3764 Circle
4711 3760 Circle
4718 3755 Circle
4724 3750 Circle
4731 3746 Circle
4737 3741 Circle
4744 3735 Circle
4751 3730 Circle
4757 3725 Circle
4764 3719 Circle
4771 3714 Circle
4777 3708 Circle
4784 3702 Circle
4791 3696 Circle
4797 3690 Circle
4804 3684 Circle
4811 3678 Circle
4817 3672 Circle
4824 3665 Circle
4831 3658 Circle
4837 3652 Circle
4844 3645 Circle
4851 3638 Circle
4857 3631 Circle
4864 3624 Circle
4871 3617 Circle
4877 3609 Circle
4884 3602 Circle
4891 3594 Circle
4897 3587 Circle
4904 3579 Circle
4911 3571 Circle
4917 3563 Circle
4924 3555 Circle
4931 3547 Circle
4937 3539 Circle
4944 3531 Circle
4951 3522 Circle
4957 3514 Circle
4964 3505 Circle
4971 3496 Circle
4977 3488 Circle
4984 3479 Circle
4991 3470 Circle
4997 3461 Circle
5004 3452 Circle
5011 3442 Circle
5017 3433 Circle
5024 3424 Circle
5030 3414 Circle
5037 3405 Circle
5044 3395 Circle
5050 3386 Circle
5057 3376 Circle
5064 3366 Circle
5070 3356 Circle
5077 3346 Circle
5084 3336 Circle
5090 3326 Circle
5097 3316 Circle
5104 3306 Circle
5110 3295 Circle
5117 3285 Circle
5124 3274 Circle
5130 3264 Circle
5137 3253 Circle
5144 3243 Circle
5150 3232 Circle
5157 3221 Circle
5164 3211 Circle
5170 3200 Circle
5177 3189 Circle
5184 3178 Circle
5190 3167 Circle
5197 3156 Circle
5204 3145 Circle
5210 3134 Circle
5217 3123 Circle
5224 3112 Circle
5230 3100 Circle
5237 3089 Circle
5244 3078 Circle
5250 3067 Circle
5257 3055 Circle
5264 3044 Circle
5270 3033 Circle
5277 3021 Circle
5284 3010 Circle
5290 2998 Circle
5297 2987 Circle
5304 2975 Circle
5310 2964 Circle
5317 2952 Circle
5323 2941 Circle
5330 2929 Circle
5337 2918 Circle
5343 2906 Circle
5350 2895 Circle
5357 2883 Circle
5363 2871 Circle
5370 2860 Circle
5377 2848 Circle
5383 2837 Circle
5390 2825 Circle
5397 2814 Circle
5403 2802 Circle
5410 2790 Circle
5417 2779 Circle
5423 2767 Circle
5430 2756 Circle
5437 2744 Circle
5443 2733 Circle
5450 2721 Circle
5457 2710 Circle
5463 2699 Circle
5470 2687 Circle
5477 2676 Circle
5483 2664 Circle
5490 2653 Circle
5497 2642 Circle
5503 2630 Circle
5510 2619 Circle
5517 2608 Circle
5523 2597 Circle
5530 2586 Circle
5537 2574 Circle
5543 2563 Circle
5550 2552 Circle
5557 2541 Circle
5563 2530 Circle
5570 2519 Circle
5577 2508 Circle
5583 2497 Circle
5590 2487 Circle
5596 2476 Circle
5603 2465 Circle
5610 2454 Circle
5616 2444 Circle
5623 2433 Circle
5630 2423 Circle
5636 2412 Circle
5643 2402 Circle
5650 2391 Circle
5656 2381 Circle
5663 2371 Circle
5670 2360 Circle
5676 2350 Circle
5683 2340 Circle
5690 2330 Circle
5696 2320 Circle
5703 2310 Circle
5710 2300 Circle
5716 2290 Circle
5723 2280 Circle
5730 2270 Circle
5736 2261 Circle
5743 2251 Circle
5750 2241 Circle
5756 2232 Circle
5763 2222 Circle
5770 2213 Circle
5776 2204 Circle
5783 2194 Circle
5790 2185 Circle
5796 2176 Circle
5803 2167 Circle
5810 2158 Circle
5816 2149 Circle
5823 2140 Circle
5830 2131 Circle
5836 2122 Circle
5843 2113 Circle
5850 2105 Circle
5856 2096 Circle
5863 2087 Circle
5870 2079 Circle
5876 2070 Circle
5883 2062 Circle
5889 2054 Circle
5896 2045 Circle
5903 2037 Circle
5909 2029 Circle
5916 2021 Circle
5923 2013 Circle
5929 2005 Circle
5936 1997 Circle
5943 1989 Circle
5949 1981 Circle
5956 1973 Circle
5963 1966 Circle
5969 1958 Circle
5976 1951 Circle
5983 1943 Circle
5989 1936 Circle
5996 1928 Circle
6003 1921 Circle
6009 1914 Circle
6016 1907 Circle
6023 1899 Circle
6029 1892 Circle
6036 1885 Circle
6043 1878 Circle
6049 1871 Circle
6056 1865 Circle
6063 1858 Circle
6069 1851 Circle
6076 1844 Circle
6083 1838 Circle
6089 1831 Circle
6096 1824 Circle
6103 1818 Circle
6109 1812 Circle
6116 1805 Circle
6123 1799 Circle
6129 1793 Circle
6136 1786 Circle
6143 1780 Circle
6149 1774 Circle
6156 1768 Circle
6162 1762 Circle
6169 1756 Circle
6176 1750 Circle
6182 1744 Circle
6189 1738 Circle
6196 1733 Circle
6202 1727 Circle
6209 1721 Circle
6216 1716 Circle
6222 1710 Circle
6229 1704 Circle
6236 1699 Circle
6242 1694 Circle
6249 1688 Circle
6256 1683 Circle
6262 1678 Circle
6269 1672 Circle
6276 1667 Circle
6282 1662 Circle
6289 1657 Circle
6296 1652 Circle
6302 1647 Circle
6309 1642 Circle
6316 1637 Circle
6322 1632 Circle
6329 1627 Circle
6336 1622 Circle
6342 1617 Circle
6349 1612 Circle
6356 1608 Circle
6362 1603 Circle
6369 1598 Circle
6376 1594 Circle
6382 1589 Circle
6389 1585 Circle
6396 1580 Circle
6402 1576 Circle
6409 1571 Circle
6416 1567 Circle
6422 1563 Circle
6429 1558 Circle
6436 1554 Circle
6442 1550 Circle
6449 1546 Circle
6455 1541 Circle
6462 1537 Circle
6469 1533 Circle
6475 1529 Circle
6482 1525 Circle
6489 1521 Circle
6495 1517 Circle
6502 1513 Circle
6509 1509 Circle
6515 1505 Circle
6522 1501 Circle
6529 1498 Circle
6535 1494 Circle
6542 1490 Circle
6549 1486 Circle
6555 1483 Circle
6562 1479 Circle
6569 1475 Circle
6575 1472 Circle
6582 1468 Circle
6589 1465 Circle
6595 1461 Circle
6602 1458 Circle
6609 1454 Circle
6615 1451 Circle
6622 1447 Circle
6629 1444 Circle
6635 1441 Circle
6642 1437 Circle
6649 1434 Circle
6655 1431 Circle
6662 1427 Circle
6669 1424 Circle
6675 1421 Circle
6682 1418 Circle
6689 1415 Circle
6695 1412 Circle
6702 1408 Circle
6709 1405 Circle
6715 1402 Circle
6722 1399 Circle
6729 1396 Circle
6735 1393 Circle
6742 1390 Circle
6748 1387 Circle
6755 1384 Circle
6762 1381 Circle
6768 1379 Circle
6775 1376 Circle
6782 1373 Circle
6788 1370 Circle
6795 1367 Circle
6802 1365 Circle
6808 1362 Circle
6815 1359 Circle
6822 1356 Circle
6828 1354 Circle
6835 1351 Circle
6842 1348 Circle
6848 1346 Circle
6855 1343 Circle
6862 1340 Circle
6868 1338 Circle
6875 1335 Circle
2340 2762 Circle
2347 2664 Circle
2354 2603 Circle
2360 2556 Circle
2367 2519 Circle
2374 2488 Circle
2380 2462 Circle
2387 2439 Circle
2394 2418 Circle
2400 2400 Circle
2407 2384 Circle
2414 2370 Circle
2420 2357 Circle
2427 2345 Circle
2434 2334 Circle
2440 2324 Circle
% End plot #2
% Begin plot #3
2.000 UP
1.000 UL
LTb
1.00 0.55 0.00 C LCb setrgbcolor
6272 1995 M
[ [(Helvetica) 150.0 0.0 true true 0 (Canal S=1 M=0)]
] -50.0 MRshow
2.000 UP
1.000 UL
LTb
1.00 0.55 0.00 C 6573 1995 CircleF
% End plot #3
% Begin plot #4
0.250 UP
1.000 UL
LTb
1.00 0.55 0.00 C 2733 3832 Circle
2740 4008 Circle
2746 4134 Circle
2753 4239 Circle
2760 4332 Circle
2766 4416 Circle
2773 4494 Circle
2780 4568 Circle
2786 4637 Circle
2793 4704 Circle
2800 4768 Circle
2806 2719 Circle
2813 2689 Circle
2820 2662 Circle
2826 2636 Circle
2833 2612 Circle
2840 2589 Circle
2846 2567 Circle
2853 2547 Circle
2860 2527 Circle
2866 2509 Circle
2873 2491 Circle
2880 2475 Circle
2886 2459 Circle
2893 2444 Circle
2900 2430 Circle
2906 2417 Circle
2913 2404 Circle
2920 2392 Circle
2926 2381 Circle
2933 2370 Circle
2940 2360 Circle
2946 2350 Circle
2953 2341 Circle
2960 2332 Circle
2966 2324 Circle
2973 2317 Circle
2980 2309 Circle
2986 2303 Circle
2993 2296 Circle
3000 2291 Circle
3006 2285 Circle
3013 2280 Circle
3020 2276 Circle
3026 2272 Circle
3033 2268 Circle
3039 2264 Circle
3046 2261 Circle
3053 2259 Circle
3059 2256 Circle
3066 2255 Circle
3073 2253 Circle
3079 2252 Circle
3086 2251 Circle
3093 2250 Circle
3099 2250 Circle
3106 2250 Circle
3113 2251 Circle
3119 2251 Circle
3126 2252 Circle
3133 2254 Circle
3139 2255 Circle
3146 2257 Circle
3153 2260 Circle
3159 2262 Circle
3166 2265 Circle
3173 2269 Circle
3179 2272 Circle
3186 2276 Circle
3193 2280 Circle
3199 2284 Circle
3206 2289 Circle
3213 2294 Circle
3219 2300 Circle
3226 2305 Circle
3233 2311 Circle
3239 2317 Circle
3246 2324 Circle
3253 2331 Circle
3259 2338 Circle
3266 2346 Circle
3273 2354 Circle
3279 2363 Circle
3286 2373 Circle
3293 2383 Circle
3299 2392 Circle
3306 2401 Circle
3312 2410 Circle
3319 2418 Circle
3326 2427 Circle
3332 2435 Circle
3339 2443 Circle
3346 2451 Circle
3352 2459 Circle
3359 2467 Circle
3366 2475 Circle
3372 2483 Circle
3379 2491 Circle
3386 2499 Circle
3392 2507 Circle
3399 2514 Circle
3406 2522 Circle
3412 2530 Circle
3419 2538 Circle
3426 2546 Circle
3432 2554 Circle
3439 2561 Circle
3446 2569 Circle
3452 2577 Circle
3459 2585 Circle
3466 2593 Circle
3472 2601 Circle
3479 2609 Circle
3486 2616 Circle
3492 2624 Circle
3499 2633 Circle
3506 2640 Circle
3512 2649 Circle
3519 2657 Circle
3526 2665 Circle
3532 2673 Circle
3539 2681 Circle
3546 2689 Circle
3552 2698 Circle
3559 2706 Circle
3566 2714 Circle
3572 2723 Circle
3579 2731 Circle
3586 2740 Circle
3592 2748 Circle
3599 2757 Circle
3605 2766 Circle
3612 2775 Circle
3619 2783 Circle
3625 2792 Circle
3632 2801 Circle
3639 2810 Circle
3645 2819 Circle
3652 2828 Circle
3659 2837 Circle
3665 2847 Circle
3672 2856 Circle
3679 2865 Circle
3685 2875 Circle
3692 2884 Circle
3699 2894 Circle
3705 2904 Circle
3712 2914 Circle
3719 2923 Circle
3725 2933 Circle
3732 2943 Circle
3739 2953 Circle
3745 2964 Circle
3752 2974 Circle
3759 2984 Circle
3765 2995 Circle
3772 3005 Circle
3779 3016 Circle
3785 3027 Circle
3792 3038 Circle
3799 3049 Circle
3805 3060 Circle
3812 3071 Circle
3819 3082 Circle
3825 3093 Circle
3832 3105 Circle
3839 3117 Circle
3845 3128 Circle
3852 3140 Circle
3859 3152 Circle
3865 3164 Circle
3872 3176 Circle
3879 3189 Circle
3885 3201 Circle
3892 3214 Circle
3898 3226 Circle
3905 3239 Circle
3912 3252 Circle
3918 3265 Circle
3925 3278 Circle
3932 3292 Circle
3938 3305 Circle
3945 3319 Circle
3952 3333 Circle
3958 3347 Circle
3965 3361 Circle
3972 3375 Circle
3978 3389 Circle
3985 3404 Circle
3992 3419 Circle
3998 3434 Circle
4005 3449 Circle
4012 3464 Circle
4018 3479 Circle
4025 3495 Circle
4032 3511 Circle
4038 3527 Circle
4045 3543 Circle
4052 3559 Circle
4058 3576 Circle
4065 3592 Circle
4072 3609 Circle
4078 3626 Circle
4085 3644 Circle
4092 3661 Circle
4098 3679 Circle
4105 3697 Circle
4112 3715 Circle
4118 3733 Circle
4125 3752 Circle
4132 3771 Circle
4138 3790 Circle
4145 3809 Circle
4152 3828 Circle
4158 3848 Circle
4165 3868 Circle
4171 3888 Circle
4178 3909 Circle
4185 3930 Circle
4191 3951 Circle
4198 3972 Circle
4205 3993 Circle
4211 4015 Circle
4218 4037 Circle
4225 4060 Circle
4231 4082 Circle
4238 4105 Circle
4245 4129 Circle
4251 4152 Circle
4258 4176 Circle
4265 4200 Circle
4271 4224 Circle
4278 4249 Circle
4285 4274 Circle
4291 4300 Circle
4298 4325 Circle
4305 4351 Circle
4311 4378 Circle
4318 4404 Circle
4325 4431 Circle
4331 4459 Circle
4338 4487 Circle
4345 4515 Circle
4351 4543 Circle
4358 4572 Circle
4365 4601 Circle
4371 4631 Circle
4378 4661 Circle
4385 4691 Circle
4391 4722 Circle
4398 4753 Circle
4405 4784 Circle
4411 4816 Circle
2733 3391 Circle
2740 3244 Circle
2746 3147 Circle
2753 3071 Circle
2760 3008 Circle
2766 2953 Circle
2773 2904 Circle
2780 2861 Circle
2786 2821 Circle
2793 2784 Circle
2800 2750 Circle
% End plot #4
% Begin plot #5
2.000 UP
1.000 UL
LTb
0.00 0.55 0.55 C LCb setrgbcolor
6272 1845 M
[ [(Helvetica) 150.0 0.0 true true 0 (Canal S=1 M=1)]
] -50.0 MRshow
2.000 UP
1.000 UL
LTb
0.00 0.55 0.55 C 6573 1845 CircleF
% End plot #5
% Begin plot #6
0.250 UP
1.000 UL
LTb
0.00 0.55 0.55 C 1441 4655 Circle
1448 4469 Circle
1455 4313 Circle
1461 4178 Circle
1468 4058 Circle
1475 3950 Circle
1481 3853 Circle
1488 3763 Circle
1495 3680 Circle
1501 3604 Circle
1508 3532 Circle
1515 3465 Circle
1521 3402 Circle
1528 3343 Circle
1535 3287 Circle
1541 3234 Circle
1548 3183 Circle
1555 3135 Circle
1561 3089 Circle
1568 3045 Circle
1575 3003 Circle
1581 2963 Circle
1588 2924 Circle
1595 2887 Circle
1601 2851 Circle
1608 2817 Circle
1614 2784 Circle
1621 2752 Circle
1628 2721 Circle
1634 2691 Circle
1641 2662 Circle
1648 2634 Circle
1654 2607 Circle
1661 2581 Circle
1668 2556 Circle
1674 2531 Circle
1681 2507 Circle
1688 2484 Circle
1694 2461 Circle
1701 2439 Circle
1708 2418 Circle
1714 2398 Circle
1721 2377 Circle
1728 2358 Circle
1734 2339 Circle
1741 2320 Circle
1748 2302 Circle
1754 2284 Circle
1761 2267 Circle
1768 2251 Circle
1774 2234 Circle
1781 2218 Circle
1788 2203 Circle
1794 2188 Circle
1801 2173 Circle
1808 2158 Circle
1814 2144 Circle
1821 2130 Circle
1828 2117 Circle
1834 2104 Circle
1841 2091 Circle
1848 2079 Circle
1854 2066 Circle
1861 2054 Circle
1868 2043 Circle
1874 2031 Circle
1881 2020 Circle
1887 2009 Circle
1894 1998 Circle
1901 1988 Circle
1907 1978 Circle
1914 1968 Circle
1921 1958 Circle
1927 1948 Circle
1934 1939 Circle
1941 1930 Circle
1947 1921 Circle
1954 1912 Circle
1961 1903 Circle
1967 1895 Circle
1974 1887 Circle
1981 1879 Circle
1987 1871 Circle
1994 1863 Circle
2001 1855 Circle
2007 1848 Circle
2014 1841 Circle
2021 1834 Circle
2027 1827 Circle
2034 1820 Circle
2041 1814 Circle
2047 1807 Circle
2054 1801 Circle
2061 1794 Circle
2067 1788 Circle
2074 1782 Circle
2081 1777 Circle
2087 1771 Circle
2094 1765 Circle
2101 1760 Circle
2107 1755 Circle
2114 1749 Circle
2121 1744 Circle
2127 1739 Circle
2134 1735 Circle
2141 1730 Circle
2147 1725 Circle
2154 1721 Circle
2161 1716 Circle
2167 1712 Circle
2174 1708 Circle
2180 1704 Circle
2187 1699 Circle
2194 1696 Circle
2200 1692 Circle
2207 1688 Circle
2214 1684 Circle
2220 1681 Circle
2227 1677 Circle
2234 1674 Circle
2240 1671 Circle
2247 1667 Circle
2254 1664 Circle
2260 1661 Circle
2267 1658 Circle
2274 1655 Circle
2280 1653 Circle
2287 1650 Circle
2294 1647 Circle
2300 1645 Circle
2307 1642 Circle
2314 1640 Circle
2320 1638 Circle
2327 1635 Circle
2334 1633 Circle
2340 1631 Circle
2347 1629 Circle
2354 1627 Circle
2360 1625 Circle
2367 1623 Circle
2374 1622 Circle
2380 1620 Circle
2387 1618 Circle
2394 1617 Circle
2400 1615 Circle
2407 1614 Circle
2414 1613 Circle
2420 1611 Circle
2427 1610 Circle
2434 1609 Circle
2440 1608 Circle
2447 1607 Circle
2453 1606 Circle
2460 1605 Circle
2467 1604 Circle
2473 1603 Circle
2480 1603 Circle
2487 1602 Circle
2493 1602 Circle
2500 1601 Circle
2507 1601 Circle
2513 1600 Circle
2520 1600 Circle
2527 1600 Circle
2533 1599 Circle
2540 1599 Circle
2547 1599 Circle
2553 1599 Circle
2560 1599 Circle
2567 1599 Circle
2573 1599 Circle
2580 1600 Circle
2587 1600 Circle
2593 1600 Circle
2600 1601 Circle
2607 1601 Circle
2613 1602 Circle
2620 1602 Circle
2627 1603 Circle
2633 1603 Circle
2640 1604 Circle
2647 1605 Circle
2653 1606 Circle
2660 1607 Circle
2667 1608 Circle
2673 1609 Circle
2680 1610 Circle
2687 1611 Circle
2693 1613 Circle
2700 1614 Circle
2707 1616 Circle
2713 1617 Circle
2720 1619 Circle
2727 1620 Circle
2733 1622 Circle
2740 1624 Circle
2746 1626 Circle
2753 1628 Circle
2760 1630 Circle
2766 1632 Circle
2773 1634 Circle
2780 1637 Circle
2786 1639 Circle
2793 1642 Circle
2800 1644 Circle
2806 1647 Circle
2813 1650 Circle
2820 1653 Circle
2826 1656 Circle
2833 1659 Circle
2840 1663 Circle
2846 1666 Circle
2853 1670 Circle
2860 1674 Circle
2866 1678 Circle
2873 1683 Circle
2880 1687 Circle
2886 1693 Circle
2893 1698 Circle
2900 1703 Circle
2906 1708 Circle
2913 1712 Circle
2920 1717 Circle
2926 1721 Circle
2933 1725 Circle
2940 1729 Circle
2946 1733 Circle
2953 1737 Circle
2960 1741 Circle
2966 1745 Circle
2973 1749 Circle
2980 1753 Circle
2986 1757 Circle
2993 1761 Circle
3000 1764 Circle
3006 1768 Circle
3013 1772 Circle
3020 1775 Circle
3026 1779 Circle
3033 1783 Circle
3039 1786 Circle
3046 1790 Circle
3053 1794 Circle
3059 1797 Circle
3066 1801 Circle
3073 1804 Circle
3079 1808 Circle
3086 1811 Circle
3093 1815 Circle
3099 1818 Circle
3106 1822 Circle
3113 1825 Circle
3119 1829 Circle
3126 1832 Circle
3133 1836 Circle
3139 1839 Circle
3146 1843 Circle
3153 1846 Circle
3159 1850 Circle
3166 1853 Circle
3173 1857 Circle
3179 1860 Circle
3186 1864 Circle
3193 1867 Circle
3199 1871 Circle
3206 1874 Circle
3213 1878 Circle
3219 1881 Circle
3226 1885 Circle
3233 1888 Circle
3239 1892 Circle
3246 1895 Circle
3253 1899 Circle
3259 1902 Circle
3266 1906 Circle
3273 1909 Circle
3279 1913 Circle
3286 1916 Circle
3293 1920 Circle
3299 1923 Circle
3306 1927 Circle
3312 1931 Circle
3319 1934 Circle
3326 1938 Circle
3332 1941 Circle
3339 1945 Circle
3346 1949 Circle
3352 1952 Circle
3359 1956 Circle
3366 1959 Circle
3372 1963 Circle
3379 1967 Circle
3386 1970 Circle
3392 1974 Circle
3399 1978 Circle
3406 1981 Circle
3412 1985 Circle
3419 1989 Circle
3426 1993 Circle
3432 1996 Circle
3439 2000 Circle
3446 2004 Circle
3452 2008 Circle
3459 2011 Circle
3466 2015 Circle
3472 2019 Circle
3479 2023 Circle
3486 2027 Circle
3492 2031 Circle
3499 2035 Circle
3506 2038 Circle
3512 2042 Circle
3519 2046 Circle
3526 2050 Circle
3532 2054 Circle
3539 2058 Circle
3546 2062 Circle
3552 2066 Circle
3559 2070 Circle
3566 2074 Circle
3572 2078 Circle
3579 2082 Circle
3586 2087 Circle
3592 2091 Circle
3599 2095 Circle
3605 2099 Circle
3612 2103 Circle
3619 2107 Circle
3625 2112 Circle
3632 2116 Circle
3639 2120 Circle
3645 2124 Circle
3652 2129 Circle
3659 2133 Circle
3665 2137 Circle
3672 2142 Circle
3679 2146 Circle
3685 2151 Circle
3692 2155 Circle
3699 2159 Circle
3705 2164 Circle
3712 2168 Circle
3719 2173 Circle
3725 2177 Circle
3732 2182 Circle
3739 2187 Circle
3745 2191 Circle
3752 2196 Circle
3759 2201 Circle
3765 2205 Circle
3772 2210 Circle
3779 2215 Circle
3785 2220 Circle
3792 2224 Circle
3799 2229 Circle
3805 2234 Circle
3812 2239 Circle
3819 2244 Circle
3825 2249 Circle
3832 2254 Circle
3839 2259 Circle
3845 2264 Circle
3852 2269 Circle
3859 2274 Circle
3865 2279 Circle
3872 2284 Circle
3879 2289 Circle
3885 2294 Circle
3892 2300 Circle
3898 2305 Circle
3905 2310 Circle
3912 2316 Circle
3918 2321 Circle
3925 2326 Circle
3932 2332 Circle
3938 2337 Circle
3945 2343 Circle
3952 2348 Circle
3958 2354 Circle
3965 2359 Circle
3972 2365 Circle
3978 2371 Circle
3985 2377 Circle
3992 2382 Circle
3998 2388 Circle
4005 2394 Circle
4012 2400 Circle
4018 2406 Circle
4025 2412 Circle
4032 2418 Circle
4038 2424 Circle
4045 2430 Circle
4052 2436 Circle
4058 2442 Circle
4065 2448 Circle
4072 2454 Circle
4078 2460 Circle
4085 2467 Circle
4092 2473 Circle
4098 2480 Circle
4105 2486 Circle
4112 2492 Circle
4118 2499 Circle
4125 2506 Circle
4132 2512 Circle
4138 2519 Circle
4145 2525 Circle
4152 2532 Circle
4158 2539 Circle
4165 2546 Circle
4171 2553 Circle
4178 2560 Circle
4185 2567 Circle
4191 2574 Circle
4198 2581 Circle
4205 2588 Circle
4211 2595 Circle
4218 2602 Circle
4225 2610 Circle
4231 2617 Circle
4238 2624 Circle
4245 2632 Circle
4251 2639 Circle
4258 2647 Circle
4265 2655 Circle
4271 2662 Circle
4278 2670 Circle
4285 2678 Circle
4291 2686 Circle
4298 2694 Circle
4305 2701 Circle
4311 2710 Circle
4318 2718 Circle
4325 2726 Circle
4331 2734 Circle
4338 2742 Circle
4345 2751 Circle
4351 2759 Circle
4358 2767 Circle
4365 2776 Circle
4371 2784 Circle
4378 2793 Circle
4385 2802 Circle
4391 2811 Circle
4398 2820 Circle
4405 2828 Circle
4411 2837 Circle
4418 2846 Circle
4425 2856 Circle
4431 2865 Circle
4438 2874 Circle
4445 2883 Circle
4451 2893 Circle
4458 2902 Circle
4464 2912 Circle
4471 2922 Circle
4478 2931 Circle
4484 2941 Circle
4491 2951 Circle
4498 2961 Circle
4504 2971 Circle
4511 2981 Circle
4518 2991 Circle
4524 3001 Circle
4531 3012 Circle
4538 3022 Circle
4544 3033 Circle
4551 3043 Circle
4558 3054 Circle
4564 3065 Circle
4571 3076 Circle
4578 3087 Circle
4584 3098 Circle
4591 3109 Circle
4598 3120 Circle
4604 3132 Circle
4611 3143 Circle
4618 3154 Circle
4624 3166 Circle
4631 3178 Circle
4638 3190 Circle
4644 3201 Circle
4651 3214 Circle
4658 3226 Circle
4664 3238 Circle
4671 3250 Circle
4678 3263 Circle
4684 3275 Circle
4691 3288 Circle
4698 3300 Circle
4704 3313 Circle
4711 3326 Circle
4718 3339 Circle
4724 3352 Circle
4731 3366 Circle
4737 3379 Circle
4744 3393 Circle
4751 3406 Circle
4757 3420 Circle
4764 3434 Circle
4771 3448 Circle
4777 3462 Circle
4784 3476 Circle
4791 3490 Circle
4797 3505 Circle
4804 3520 Circle
4811 3534 Circle
4817 3549 Circle
4824 3564 Circle
4831 3579 Circle
4837 3594 Circle
4844 3610 Circle
4851 3625 Circle
4857 3641 Circle
4864 3657 Circle
4871 3673 Circle
4877 3689 Circle
4884 3705 Circle
4891 3721 Circle
4897 3738 Circle
4904 3754 Circle
4911 3771 Circle
4917 3788 Circle
4924 3805 Circle
4931 3822 Circle
4937 3840 Circle
4944 3857 Circle
4951 3875 Circle
4957 3893 Circle
4964 3911 Circle
4971 3929 Circle
4977 3947 Circle
4984 3966 Circle
4991 3985 Circle
4997 4003 Circle
5004 4022 Circle
5011 4042 Circle
5017 4061 Circle
5024 4080 Circle
5030 4100 Circle
5037 4120 Circle
5044 4140 Circle
5050 4160 Circle
5057 4181 Circle
5064 4201 Circle
5070 4222 Circle
5077 4243 Circle
5084 4264 Circle
5090 4286 Circle
5097 4307 Circle
5104 4329 Circle
5110 4351 Circle
5117 4373 Circle
5124 4396 Circle
5130 4418 Circle
5137 4441 Circle
5144 4464 Circle
5150 4487 Circle
5157 4511 Circle
5164 4534 Circle
5170 4558 Circle
5177 4582 Circle
5184 4606 Circle
5190 4631 Circle
5197 4656 Circle
5204 4681 Circle
5210 4706 Circle
5217 4731 Circle
5224 4757 Circle
5230 4783 Circle
5237 4809 Circle
% End plot #6
% Begin plot #7
3.000 UL
LTb
LT2
0.34 0.71 0.91 C 882 1407 M
61 0 V
60 0 V
61 0 V
60 0 V
61 0 V
60 0 V
61 0 V
60 0 V
61 0 V
60 0 V
61 0 V
60 0 V
61 0 V
60 0 V
61 0 V
61 0 V
60 0 V
61 0 V
60 0 V
61 0 V
60 0 V
61 0 V
60 0 V
61 0 V
60 0 V
61 0 V
60 0 V
61 0 V
61 0 V
60 0 V
61 0 V
60 0 V
61 0 V
60 0 V
61 0 V
60 0 V
61 0 V
60 0 V
61 0 V
60 0 V
61 0 V
60 0 V
61 0 V
61 0 V
60 0 V
61 0 V
60 0 V
61 0 V
60 0 V
61 0 V
60 0 V
61 0 V
60 0 V
61 0 V
60 0 V
61 0 V
61 0 V
60 0 V
61 0 V
60 0 V
61 0 V
60 0 V
61 0 V
60 0 V
61 0 V
60 0 V
61 0 V
60 0 V
61 0 V
60 0 V
61 0 V
61 0 V
60 0 V
61 0 V
60 0 V
61 0 V
60 0 V
61 0 V
60 0 V
61 0 V
60 0 V
61 0 V
60 0 V
61 0 V
61 0 V
60 0 V
61 0 V
60 0 V
61 0 V
60 0 V
61 0 V
60 0 V
61 0 V
60 0 V
61 0 V
60 0 V
61 0 V
60 0 V
61 0 V
% End plot #7
% Begin plot #8
stroke
2.000 UL
LTb
LT1
0.00 0.00 0.00 C 882 2545 M
61 0 V
60 0 V
61 0 V
60 0 V
61 0 V
60 0 V
61 0 V
60 0 V
61 0 V
60 0 V
61 0 V
60 0 V
61 0 V
60 0 V
61 0 V
61 0 V
60 0 V
61 0 V
60 0 V
61 0 V
60 0 V
61 0 V
60 0 V
61 0 V
60 0 V
61 0 V
60 0 V
61 0 V
61 0 V
60 0 V
61 0 V
60 0 V
61 0 V
60 0 V
61 0 V
60 0 V
61 0 V
60 0 V
61 0 V
60 0 V
61 0 V
60 0 V
61 0 V
61 0 V
60 0 V
61 0 V
60 0 V
61 0 V
60 0 V
61 0 V
60 0 V
61 0 V
60 0 V
61 0 V
60 0 V
61 0 V
61 0 V
60 0 V
61 0 V
60 0 V
61 0 V
60 0 V
61 0 V
60 0 V
61 0 V
60 0 V
61 0 V
60 0 V
61 0 V
60 0 V
61 0 V
61 0 V
60 0 V
61 0 V
60 0 V
61 0 V
60 0 V
61 0 V
60 0 V
61 0 V
60 0 V
61 0 V
60 0 V
61 0 V
61 0 V
60 0 V
61 0 V
60 0 V
61 0 V
60 0 V
61 0 V
60 0 V
61 0 V
60 0 V
61 0 V
60 0 V
61 0 V
60 0 V
61 0 V
% End plot #8
stroke
LTb
LCb setrgbcolor
1.000 UP
LCb setrgbcolor
6409 4416 M
[ [(Helvetica) 180.0 0.0 true true 0 (VLyB62)]
] -60.0 MCshow
1.000 UL
LTb
0.50 0.50 0.50 C stroke
grestore
end
showpage
%%Trailer
%%DocumentFonts: Symbol Helvetica
