%!PS-Adobe-2.0 EPSF-2.0
%%Title: lr_PNM.eps
%%Creator: gnuplot 5.0 patchlevel 3
%%CreationDate: Fri Jun 23 22:51:41 2017
%%DocumentFonts: (atend)
%%BoundingBox: 50 50 410 302
%%EndComments
%%BeginProlog
/gnudict 256 dict def
gnudict begin
%
% The following true/false flags may be edited by hand if desired.
% The unit line width and grayscale image gamma correction may also be changed.
%
/Color true def
/Blacktext false def
/Solid false def
/Dashlength 1 def
/Landscape false def
/Level1 false def
/Level3 false def
/Rounded false def
/ClipToBoundingBox false def
/SuppressPDFMark false def
/TransparentPatterns false def
/gnulinewidth 5.000 def
/userlinewidth gnulinewidth def
/Gamma 1.0 def
/BackgroundColor {-1.000 -1.000 -1.000} def
%
/vshift -60 def
/dl1 {
  10.0 Dashlength userlinewidth gnulinewidth div mul mul mul
  Rounded { currentlinewidth 0.75 mul sub dup 0 le { pop 0.01 } if } if
} def
/dl2 {
  10.0 Dashlength userlinewidth gnulinewidth div mul mul mul
  Rounded { currentlinewidth 0.75 mul add } if
} def
/hpt_ 31.5 def
/vpt_ 31.5 def
/hpt hpt_ def
/vpt vpt_ def
/doclip {
  ClipToBoundingBox {
    newpath 50 50 moveto 410 50 lineto 410 302 lineto 50 302 lineto closepath
    clip
  } if
} def
%
% Gnuplot Prolog Version 5.1 (Oct 2015)
%
%/SuppressPDFMark true def
%
/M {moveto} bind def
/L {lineto} bind def
/R {rmoveto} bind def
/V {rlineto} bind def
/N {newpath moveto} bind def
/Z {closepath} bind def
/C {setrgbcolor} bind def
/f {rlineto fill} bind def
/g {setgray} bind def
/Gshow {show} def   % May be redefined later in the file to support UTF-8
/vpt2 vpt 2 mul def
/hpt2 hpt 2 mul def
/Lshow {currentpoint stroke M 0 vshift R 
	Blacktext {gsave 0 setgray textshow grestore} {textshow} ifelse} def
/Rshow {currentpoint stroke M dup stringwidth pop neg vshift R
	Blacktext {gsave 0 setgray textshow grestore} {textshow} ifelse} def
/Cshow {currentpoint stroke M dup stringwidth pop -2 div vshift R 
	Blacktext {gsave 0 setgray textshow grestore} {textshow} ifelse} def
/UP {dup vpt_ mul /vpt exch def hpt_ mul /hpt exch def
  /hpt2 hpt 2 mul def /vpt2 vpt 2 mul def} def
/DL {Color {setrgbcolor Solid {pop []} if 0 setdash}
 {pop pop pop 0 setgray Solid {pop []} if 0 setdash} ifelse} def
/BL {stroke userlinewidth 2 mul setlinewidth
	Rounded {1 setlinejoin 1 setlinecap} if} def
/AL {stroke userlinewidth 2 div setlinewidth
	Rounded {1 setlinejoin 1 setlinecap} if} def
/UL {dup gnulinewidth mul /userlinewidth exch def
	dup 1 lt {pop 1} if 10 mul /udl exch def} def
/PL {stroke userlinewidth setlinewidth
	Rounded {1 setlinejoin 1 setlinecap} if} def
3.8 setmiterlimit
% Classic Line colors (version 5.0)
/LCw {1 1 1} def
/LCb {0 0 0} def
/LCa {0 0 0} def
/LC0 {1 0 0} def
/LC1 {0 1 0} def
/LC2 {0 0 1} def
/LC3 {1 0 1} def
/LC4 {0 1 1} def
/LC5 {1 1 0} def
/LC6 {0 0 0} def
/LC7 {1 0.3 0} def
/LC8 {0.5 0.5 0.5} def
% Default dash patterns (version 5.0)
/LTB {BL [] LCb DL} def
/LTw {PL [] 1 setgray} def
/LTb {PL [] LCb DL} def
/LTa {AL [1 udl mul 2 udl mul] 0 setdash LCa setrgbcolor} def
/LT0 {PL [] LC0 DL} def
/LT1 {PL [2 dl1 3 dl2] LC1 DL} def
/LT2 {PL [1 dl1 1.5 dl2] LC2 DL} def
/LT3 {PL [6 dl1 2 dl2 1 dl1 2 dl2] LC3 DL} def
/LT4 {PL [1 dl1 2 dl2 6 dl1 2 dl2 1 dl1 2 dl2] LC4 DL} def
/LT5 {PL [4 dl1 2 dl2] LC5 DL} def
/LT6 {PL [1.5 dl1 1.5 dl2 1.5 dl1 1.5 dl2 1.5 dl1 6 dl2] LC6 DL} def
/LT7 {PL [3 dl1 3 dl2 1 dl1 3 dl2] LC7 DL} def
/LT8 {PL [2 dl1 2 dl2 2 dl1 6 dl2] LC8 DL} def
/SL {[] 0 setdash} def
/Pnt {stroke [] 0 setdash gsave 1 setlinecap M 0 0 V stroke grestore} def
/Dia {stroke [] 0 setdash 2 copy vpt add M
  hpt neg vpt neg V hpt vpt neg V
  hpt vpt V hpt neg vpt V closepath stroke
  Pnt} def
/Pls {stroke [] 0 setdash vpt sub M 0 vpt2 V
  currentpoint stroke M
  hpt neg vpt neg R hpt2 0 V stroke
 } def
/Box {stroke [] 0 setdash 2 copy exch hpt sub exch vpt add M
  0 vpt2 neg V hpt2 0 V 0 vpt2 V
  hpt2 neg 0 V closepath stroke
  Pnt} def
/Crs {stroke [] 0 setdash exch hpt sub exch vpt add M
  hpt2 vpt2 neg V currentpoint stroke M
  hpt2 neg 0 R hpt2 vpt2 V stroke} def
/TriU {stroke [] 0 setdash 2 copy vpt 1.12 mul add M
  hpt neg vpt -1.62 mul V
  hpt 2 mul 0 V
  hpt neg vpt 1.62 mul V closepath stroke
  Pnt} def
/Star {2 copy Pls Crs} def
/BoxF {stroke [] 0 setdash exch hpt sub exch vpt add M
  0 vpt2 neg V hpt2 0 V 0 vpt2 V
  hpt2 neg 0 V closepath fill} def
/TriUF {stroke [] 0 setdash vpt 1.12 mul add M
  hpt neg vpt -1.62 mul V
  hpt 2 mul 0 V
  hpt neg vpt 1.62 mul V closepath fill} def
/TriD {stroke [] 0 setdash 2 copy vpt 1.12 mul sub M
  hpt neg vpt 1.62 mul V
  hpt 2 mul 0 V
  hpt neg vpt -1.62 mul V closepath stroke
  Pnt} def
/TriDF {stroke [] 0 setdash vpt 1.12 mul sub M
  hpt neg vpt 1.62 mul V
  hpt 2 mul 0 V
  hpt neg vpt -1.62 mul V closepath fill} def
/DiaF {stroke [] 0 setdash vpt add M
  hpt neg vpt neg V hpt vpt neg V
  hpt vpt V hpt neg vpt V closepath fill} def
/Pent {stroke [] 0 setdash 2 copy gsave
  translate 0 hpt M 4 {72 rotate 0 hpt L} repeat
  closepath stroke grestore Pnt} def
/PentF {stroke [] 0 setdash gsave
  translate 0 hpt M 4 {72 rotate 0 hpt L} repeat
  closepath fill grestore} def
/Circle {stroke [] 0 setdash 2 copy
  hpt 0 360 arc stroke Pnt} def
/CircleF {stroke [] 0 setdash hpt 0 360 arc fill} def
/C0 {BL [] 0 setdash 2 copy moveto vpt 90 450 arc} bind def
/C1 {BL [] 0 setdash 2 copy moveto
	2 copy vpt 0 90 arc closepath fill
	vpt 0 360 arc closepath} bind def
/C2 {BL [] 0 setdash 2 copy moveto
	2 copy vpt 90 180 arc closepath fill
	vpt 0 360 arc closepath} bind def
/C3 {BL [] 0 setdash 2 copy moveto
	2 copy vpt 0 180 arc closepath fill
	vpt 0 360 arc closepath} bind def
/C4 {BL [] 0 setdash 2 copy moveto
	2 copy vpt 180 270 arc closepath fill
	vpt 0 360 arc closepath} bind def
/C5 {BL [] 0 setdash 2 copy moveto
	2 copy vpt 0 90 arc
	2 copy moveto
	2 copy vpt 180 270 arc closepath fill
	vpt 0 360 arc} bind def
/C6 {BL [] 0 setdash 2 copy moveto
	2 copy vpt 90 270 arc closepath fill
	vpt 0 360 arc closepath} bind def
/C7 {BL [] 0 setdash 2 copy moveto
	2 copy vpt 0 270 arc closepath fill
	vpt 0 360 arc closepath} bind def
/C8 {BL [] 0 setdash 2 copy moveto
	2 copy vpt 270 360 arc closepath fill
	vpt 0 360 arc closepath} bind def
/C9 {BL [] 0 setdash 2 copy moveto
	2 copy vpt 270 450 arc closepath fill
	vpt 0 360 arc closepath} bind def
/C10 {BL [] 0 setdash 2 copy 2 copy moveto vpt 270 360 arc closepath fill
	2 copy moveto
	2 copy vpt 90 180 arc closepath fill
	vpt 0 360 arc closepath} bind def
/C11 {BL [] 0 setdash 2 copy moveto
	2 copy vpt 0 180 arc closepath fill
	2 copy moveto
	2 copy vpt 270 360 arc closepath fill
	vpt 0 360 arc closepath} bind def
/C12 {BL [] 0 setdash 2 copy moveto
	2 copy vpt 180 360 arc closepath fill
	vpt 0 360 arc closepath} bind def
/C13 {BL [] 0 setdash 2 copy moveto
	2 copy vpt 0 90 arc closepath fill
	2 copy moveto
	2 copy vpt 180 360 arc closepath fill
	vpt 0 360 arc closepath} bind def
/C14 {BL [] 0 setdash 2 copy moveto
	2 copy vpt 90 360 arc closepath fill
	vpt 0 360 arc} bind def
/C15 {BL [] 0 setdash 2 copy vpt 0 360 arc closepath fill
	vpt 0 360 arc closepath} bind def
/Rec {newpath 4 2 roll moveto 1 index 0 rlineto 0 exch rlineto
	neg 0 rlineto closepath} bind def
/Square {dup Rec} bind def
/Bsquare {vpt sub exch vpt sub exch vpt2 Square} bind def
/S0 {BL [] 0 setdash 2 copy moveto 0 vpt rlineto BL Bsquare} bind def
/S1 {BL [] 0 setdash 2 copy vpt Square fill Bsquare} bind def
/S2 {BL [] 0 setdash 2 copy exch vpt sub exch vpt Square fill Bsquare} bind def
/S3 {BL [] 0 setdash 2 copy exch vpt sub exch vpt2 vpt Rec fill Bsquare} bind def
/S4 {BL [] 0 setdash 2 copy exch vpt sub exch vpt sub vpt Square fill Bsquare} bind def
/S5 {BL [] 0 setdash 2 copy 2 copy vpt Square fill
	exch vpt sub exch vpt sub vpt Square fill Bsquare} bind def
/S6 {BL [] 0 setdash 2 copy exch vpt sub exch vpt sub vpt vpt2 Rec fill Bsquare} bind def
/S7 {BL [] 0 setdash 2 copy exch vpt sub exch vpt sub vpt vpt2 Rec fill
	2 copy vpt Square fill Bsquare} bind def
/S8 {BL [] 0 setdash 2 copy vpt sub vpt Square fill Bsquare} bind def
/S9 {BL [] 0 setdash 2 copy vpt sub vpt vpt2 Rec fill Bsquare} bind def
/S10 {BL [] 0 setdash 2 copy vpt sub vpt Square fill 2 copy exch vpt sub exch vpt Square fill
	Bsquare} bind def
/S11 {BL [] 0 setdash 2 copy vpt sub vpt Square fill 2 copy exch vpt sub exch vpt2 vpt Rec fill
	Bsquare} bind def
/S12 {BL [] 0 setdash 2 copy exch vpt sub exch vpt sub vpt2 vpt Rec fill Bsquare} bind def
/S13 {BL [] 0 setdash 2 copy exch vpt sub exch vpt sub vpt2 vpt Rec fill
	2 copy vpt Square fill Bsquare} bind def
/S14 {BL [] 0 setdash 2 copy exch vpt sub exch vpt sub vpt2 vpt Rec fill
	2 copy exch vpt sub exch vpt Square fill Bsquare} bind def
/S15 {BL [] 0 setdash 2 copy Bsquare fill Bsquare} bind def
/D0 {gsave translate 45 rotate 0 0 S0 stroke grestore} bind def
/D1 {gsave translate 45 rotate 0 0 S1 stroke grestore} bind def
/D2 {gsave translate 45 rotate 0 0 S2 stroke grestore} bind def
/D3 {gsave translate 45 rotate 0 0 S3 stroke grestore} bind def
/D4 {gsave translate 45 rotate 0 0 S4 stroke grestore} bind def
/D5 {gsave translate 45 rotate 0 0 S5 stroke grestore} bind def
/D6 {gsave translate 45 rotate 0 0 S6 stroke grestore} bind def
/D7 {gsave translate 45 rotate 0 0 S7 stroke grestore} bind def
/D8 {gsave translate 45 rotate 0 0 S8 stroke grestore} bind def
/D9 {gsave translate 45 rotate 0 0 S9 stroke grestore} bind def
/D10 {gsave translate 45 rotate 0 0 S10 stroke grestore} bind def
/D11 {gsave translate 45 rotate 0 0 S11 stroke grestore} bind def
/D12 {gsave translate 45 rotate 0 0 S12 stroke grestore} bind def
/D13 {gsave translate 45 rotate 0 0 S13 stroke grestore} bind def
/D14 {gsave translate 45 rotate 0 0 S14 stroke grestore} bind def
/D15 {gsave translate 45 rotate 0 0 S15 stroke grestore} bind def
/DiaE {stroke [] 0 setdash vpt add M
  hpt neg vpt neg V hpt vpt neg V
  hpt vpt V hpt neg vpt V closepath stroke} def
/BoxE {stroke [] 0 setdash exch hpt sub exch vpt add M
  0 vpt2 neg V hpt2 0 V 0 vpt2 V
  hpt2 neg 0 V closepath stroke} def
/TriUE {stroke [] 0 setdash vpt 1.12 mul add M
  hpt neg vpt -1.62 mul V
  hpt 2 mul 0 V
  hpt neg vpt 1.62 mul V closepath stroke} def
/TriDE {stroke [] 0 setdash vpt 1.12 mul sub M
  hpt neg vpt 1.62 mul V
  hpt 2 mul 0 V
  hpt neg vpt -1.62 mul V closepath stroke} def
/PentE {stroke [] 0 setdash gsave
  translate 0 hpt M 4 {72 rotate 0 hpt L} repeat
  closepath stroke grestore} def
/CircE {stroke [] 0 setdash 
  hpt 0 360 arc stroke} def
/Opaque {gsave closepath 1 setgray fill grestore 0 setgray closepath} def
/DiaW {stroke [] 0 setdash vpt add M
  hpt neg vpt neg V hpt vpt neg V
  hpt vpt V hpt neg vpt V Opaque stroke} def
/BoxW {stroke [] 0 setdash exch hpt sub exch vpt add M
  0 vpt2 neg V hpt2 0 V 0 vpt2 V
  hpt2 neg 0 V Opaque stroke} def
/TriUW {stroke [] 0 setdash vpt 1.12 mul add M
  hpt neg vpt -1.62 mul V
  hpt 2 mul 0 V
  hpt neg vpt 1.62 mul V Opaque stroke} def
/TriDW {stroke [] 0 setdash vpt 1.12 mul sub M
  hpt neg vpt 1.62 mul V
  hpt 2 mul 0 V
  hpt neg vpt -1.62 mul V Opaque stroke} def
/PentW {stroke [] 0 setdash gsave
  translate 0 hpt M 4 {72 rotate 0 hpt L} repeat
  Opaque stroke grestore} def
/CircW {stroke [] 0 setdash 
  hpt 0 360 arc Opaque stroke} def
/BoxFill {gsave Rec 1 setgray fill grestore} def
/Density {
  /Fillden exch def
  currentrgbcolor
  /ColB exch def /ColG exch def /ColR exch def
  /ColR ColR Fillden mul Fillden sub 1 add def
  /ColG ColG Fillden mul Fillden sub 1 add def
  /ColB ColB Fillden mul Fillden sub 1 add def
  ColR ColG ColB setrgbcolor} def
/BoxColFill {gsave Rec PolyFill} def
/PolyFill {gsave Density fill grestore grestore} def
/h {rlineto rlineto rlineto gsave closepath fill grestore} bind def
%
% PostScript Level 1 Pattern Fill routine for rectangles
% Usage: x y w h s a XX PatternFill
%	x,y = lower left corner of box to be filled
%	w,h = width and height of box
%	  a = angle in degrees between lines and x-axis
%	 XX = 0/1 for no/yes cross-hatch
%
/PatternFill {gsave /PFa [ 9 2 roll ] def
  PFa 0 get PFa 2 get 2 div add PFa 1 get PFa 3 get 2 div add translate
  PFa 2 get -2 div PFa 3 get -2 div PFa 2 get PFa 3 get Rec
  TransparentPatterns {} {gsave 1 setgray fill grestore} ifelse
  clip
  currentlinewidth 0.5 mul setlinewidth
  /PFs PFa 2 get dup mul PFa 3 get dup mul add sqrt def
  0 0 M PFa 5 get rotate PFs -2 div dup translate
  0 1 PFs PFa 4 get div 1 add floor cvi
	{PFa 4 get mul 0 M 0 PFs V} for
  0 PFa 6 get ne {
	0 1 PFs PFa 4 get div 1 add floor cvi
	{PFa 4 get mul 0 2 1 roll M PFs 0 V} for
 } if
  stroke grestore} def
%
/languagelevel where
 {pop languagelevel} {1} ifelse
dup 2 lt
	{/InterpretLevel1 true def
	 /InterpretLevel3 false def}
	{/InterpretLevel1 Level1 def
	 2 gt
	    {/InterpretLevel3 Level3 def}
	    {/InterpretLevel3 false def}
	 ifelse }
 ifelse
%
% PostScript level 2 pattern fill definitions
%
/Level2PatternFill {
/Tile8x8 {/PaintType 2 /PatternType 1 /TilingType 1 /BBox [0 0 8 8] /XStep 8 /YStep 8}
	bind def
/KeepColor {currentrgbcolor [/Pattern /DeviceRGB] setcolorspace} bind def
<< Tile8x8
 /PaintProc {0.5 setlinewidth pop 0 0 M 8 8 L 0 8 M 8 0 L stroke} 
>> matrix makepattern
/Pat1 exch def
<< Tile8x8
 /PaintProc {0.5 setlinewidth pop 0 0 M 8 8 L 0 8 M 8 0 L stroke
	0 4 M 4 8 L 8 4 L 4 0 L 0 4 L stroke}
>> matrix makepattern
/Pat2 exch def
<< Tile8x8
 /PaintProc {0.5 setlinewidth pop 0 0 M 0 8 L
	8 8 L 8 0 L 0 0 L fill}
>> matrix makepattern
/Pat3 exch def
<< Tile8x8
 /PaintProc {0.5 setlinewidth pop -4 8 M 8 -4 L
	0 12 M 12 0 L stroke}
>> matrix makepattern
/Pat4 exch def
<< Tile8x8
 /PaintProc {0.5 setlinewidth pop -4 0 M 8 12 L
	0 -4 M 12 8 L stroke}
>> matrix makepattern
/Pat5 exch def
<< Tile8x8
 /PaintProc {0.5 setlinewidth pop -2 8 M 4 -4 L
	0 12 M 8 -4 L 4 12 M 10 0 L stroke}
>> matrix makepattern
/Pat6 exch def
<< Tile8x8
 /PaintProc {0.5 setlinewidth pop -2 0 M 4 12 L
	0 -4 M 8 12 L 4 -4 M 10 8 L stroke}
>> matrix makepattern
/Pat7 exch def
<< Tile8x8
 /PaintProc {0.5 setlinewidth pop 8 -2 M -4 4 L
	12 0 M -4 8 L 12 4 M 0 10 L stroke}
>> matrix makepattern
/Pat8 exch def
<< Tile8x8
 /PaintProc {0.5 setlinewidth pop 0 -2 M 12 4 L
	-4 0 M 12 8 L -4 4 M 8 10 L stroke}
>> matrix makepattern
/Pat9 exch def
/Pattern1 {PatternBgnd KeepColor Pat1 setpattern} bind def
/Pattern2 {PatternBgnd KeepColor Pat2 setpattern} bind def
/Pattern3 {PatternBgnd KeepColor Pat3 setpattern} bind def
/Pattern4 {PatternBgnd KeepColor Landscape {Pat5} {Pat4} ifelse setpattern} bind def
/Pattern5 {PatternBgnd KeepColor Landscape {Pat4} {Pat5} ifelse setpattern} bind def
/Pattern6 {PatternBgnd KeepColor Landscape {Pat9} {Pat6} ifelse setpattern} bind def
/Pattern7 {PatternBgnd KeepColor Landscape {Pat8} {Pat7} ifelse setpattern} bind def
} def
%
%
%End of PostScript Level 2 code
%
/PatternBgnd {
  TransparentPatterns {} {gsave 1 setgray fill grestore} ifelse
} def
%
% Substitute for Level 2 pattern fill codes with
% grayscale if Level 2 support is not selected.
%
/Level1PatternFill {
/Pattern1 {0.250 Density} bind def
/Pattern2 {0.500 Density} bind def
/Pattern3 {0.750 Density} bind def
/Pattern4 {0.125 Density} bind def
/Pattern5 {0.375 Density} bind def
/Pattern6 {0.625 Density} bind def
/Pattern7 {0.875 Density} bind def
} def
%
% Now test for support of Level 2 code
%
Level1 {Level1PatternFill} {Level2PatternFill} ifelse
%
/Symbol-Oblique /Symbol findfont [1 0 .167 1 0 0] makefont
dup length dict begin {1 index /FID eq {pop pop} {def} ifelse} forall
currentdict end definefont pop
%
/MFshow {
   { dup 5 get 3 ge
     { 5 get 3 eq {gsave} {grestore} ifelse }
     {dup dup 0 get findfont exch 1 get scalefont setfont
     [ currentpoint ] exch dup 2 get 0 exch R dup 5 get 2 ne {dup dup 6
     get exch 4 get {textshow} {stringwidth pop 0 R} ifelse }if dup 5 get 0 eq
     {dup 3 get {2 get neg 0 exch R pop} {pop aload pop M} ifelse} {dup 5
     get 1 eq {dup 2 get exch dup 3 get exch 6 get stringwidth pop -2 div
     dup 0 R} {dup 6 get stringwidth pop -2 div 0 R 6 get
     textshow 2 index {aload pop M neg 3 -1 roll neg R pop pop} {pop pop pop
     pop aload pop M} ifelse }ifelse }ifelse }
     ifelse }
   forall} def
/Gswidth {dup type /stringtype eq {stringwidth} {pop (n) stringwidth} ifelse} def
/MFwidth {0 exch { dup 5 get 3 ge { 5 get 3 eq { 0 } { pop } ifelse }
 {dup 3 get{dup dup 0 get findfont exch 1 get scalefont setfont
     6 get Gswidth pop add} {pop} ifelse} ifelse} forall} def
/MLshow { currentpoint stroke M
  0 exch R
  Blacktext {gsave 0 setgray MFshow grestore} {MFshow} ifelse } bind def
/MRshow { currentpoint stroke M
  exch dup MFwidth neg 3 -1 roll R
  Blacktext {gsave 0 setgray MFshow grestore} {MFshow} ifelse } bind def
/MCshow { currentpoint stroke M
  exch dup MFwidth -2 div 3 -1 roll R
  Blacktext {gsave 0 setgray MFshow grestore} {MFshow} ifelse } bind def
/XYsave    { [( ) 1 2 true false 3 ()] } bind def
/XYrestore { [( ) 1 2 true false 4 ()] } bind def
Level1 SuppressPDFMark or 
{} {
/SDict 10 dict def
systemdict /pdfmark known not {
  userdict /pdfmark systemdict /cleartomark get put
} if
SDict begin [
  /Title (lr_PNM.eps)
  /Subject (gnuplot plot)
  /Creator (gnuplot 5.0 patchlevel 3)
  /Author (kb2)
%  /Producer (gnuplot)
%  /Keywords ()
  /CreationDate (Fri Jun 23 22:51:41 2017)
  /DOCINFO pdfmark
end
} ifelse
%
% Support for boxed text - Ethan A Merritt May 2005
%
/InitTextBox { userdict /TBy2 3 -1 roll put userdict /TBx2 3 -1 roll put
           userdict /TBy1 3 -1 roll put userdict /TBx1 3 -1 roll put
	   /Boxing true def } def
/ExtendTextBox { Boxing
    { gsave dup false charpath pathbbox
      dup TBy2 gt {userdict /TBy2 3 -1 roll put} {pop} ifelse
      dup TBx2 gt {userdict /TBx2 3 -1 roll put} {pop} ifelse
      dup TBy1 lt {userdict /TBy1 3 -1 roll put} {pop} ifelse
      dup TBx1 lt {userdict /TBx1 3 -1 roll put} {pop} ifelse
      grestore } if } def
/PopTextBox { newpath TBx1 TBxmargin sub TBy1 TBymargin sub M
               TBx1 TBxmargin sub TBy2 TBymargin add L
	       TBx2 TBxmargin add TBy2 TBymargin add L
	       TBx2 TBxmargin add TBy1 TBymargin sub L closepath } def
/DrawTextBox { PopTextBox stroke /Boxing false def} def
/FillTextBox { gsave PopTextBox 1 1 1 setrgbcolor fill grestore /Boxing false def} def
0 0 0 0 InitTextBox
/TBxmargin 20 def
/TBymargin 20 def
/Boxing false def
/textshow { ExtendTextBox Gshow } def
%
% redundant definitions for compatibility with prologue.ps older than 5.0.2
/LTB {BL [] LCb DL} def
/LTb {PL [] LCb DL} def
end
%%EndProlog
%%Page: 1 1
gnudict begin
gsave
doclip
50 50 translate
0.050 0.050 scale
0 setgray
newpath
(Helvetica) findfont 180 scalefont setfont
BackgroundColor 0 lt 3 1 roll 0 lt exch 0 lt or or not {BackgroundColor C 1.000 0 0 7200.00 5040.00 BoxColFill} if
1.000 UL
LTb
0.50 0.50 0.50 C 1.000 UL
LTa
0.50 0.50 0.50 C 882 756 M
5993 0 V
stroke
LTb
0.50 0.50 0.50 C 882 756 M
63 0 V
5930 0 R
-63 0 V
stroke
774 756 M
[ [(Helvetica) 180.0 0.0 true true 0 ( 0)]
] -60.0 MRshow
1.000 UL
LTb
0.50 0.50 0.50 C 1.000 UL
LTa
0.50 0.50 0.50 C 882 1569 M
5993 0 V
stroke
LTb
0.50 0.50 0.50 C 882 1569 M
63 0 V
5930 0 R
-63 0 V
stroke
774 1569 M
[ [(Helvetica) 180.0 0.0 true true 0 ( 0.1)]
] -60.0 MRshow
1.000 UL
LTb
0.50 0.50 0.50 C 1.000 UL
LTa
0.50 0.50 0.50 C 882 2383 M
5993 0 V
stroke
LTb
0.50 0.50 0.50 C 882 2383 M
63 0 V
5930 0 R
-63 0 V
stroke
774 2383 M
[ [(Helvetica) 180.0 0.0 true true 0 ( 0.2)]
] -60.0 MRshow
1.000 UL
LTb
0.50 0.50 0.50 C 1.000 UL
LTa
0.50 0.50 0.50 C 882 3196 M
5993 0 V
stroke
LTb
0.50 0.50 0.50 C 882 3196 M
63 0 V
5930 0 R
-63 0 V
stroke
774 3196 M
[ [(Helvetica) 180.0 0.0 true true 0 ( 0.3)]
] -60.0 MRshow
1.000 UL
LTb
0.50 0.50 0.50 C 1.000 UL
LTa
0.50 0.50 0.50 C 882 4010 M
5993 0 V
stroke
LTb
0.50 0.50 0.50 C 882 4010 M
63 0 V
5930 0 R
-63 0 V
stroke
774 4010 M
[ [(Helvetica) 180.0 0.0 true true 0 ( 0.4)]
] -60.0 MRshow
1.000 UL
LTb
0.50 0.50 0.50 C 1.000 UL
LTa
0.50 0.50 0.50 C 882 4823 M
5993 0 V
stroke
LTb
0.50 0.50 0.50 C 882 4823 M
63 0 V
5930 0 R
-63 0 V
stroke
774 4823 M
[ [(Helvetica) 180.0 0.0 true true 0 ( 0.5)]
] -60.0 MRshow
1.000 UL
LTb
0.50 0.50 0.50 C 1.000 UL
LTa
0.50 0.50 0.50 C 882 756 M
0 4067 V
stroke
LTb
0.50 0.50 0.50 C 882 756 M
0 63 V
0 4004 R
0 -63 V
stroke
882 576 M
[ [(Helvetica) 180.0 0.0 true true 0 ( 0)]
] -60.0 MCshow
1.000 UL
LTb
0.50 0.50 0.50 C 1.000 UL
LTa
0.50 0.50 0.50 C 1548 756 M
0 4067 V
stroke
LTb
0.50 0.50 0.50 C 1548 756 M
0 63 V
0 4004 R
0 -63 V
stroke
1548 576 M
[ [(Helvetica) 180.0 0.0 true true 0 ( 1)]
] -60.0 MCshow
1.000 UL
LTb
0.50 0.50 0.50 C 1.000 UL
LTa
0.50 0.50 0.50 C 2214 756 M
0 4067 V
stroke
LTb
0.50 0.50 0.50 C 2214 756 M
0 63 V
0 4004 R
0 -63 V
stroke
2214 576 M
[ [(Helvetica) 180.0 0.0 true true 0 ( 2)]
] -60.0 MCshow
1.000 UL
LTb
0.50 0.50 0.50 C 1.000 UL
LTa
0.50 0.50 0.50 C 2880 756 M
0 4067 V
stroke
LTb
0.50 0.50 0.50 C 2880 756 M
0 63 V
0 4004 R
0 -63 V
stroke
2880 576 M
[ [(Helvetica) 180.0 0.0 true true 0 ( 3)]
] -60.0 MCshow
1.000 UL
LTb
0.50 0.50 0.50 C 1.000 UL
LTa
0.50 0.50 0.50 C 3546 756 M
0 4067 V
stroke
LTb
0.50 0.50 0.50 C 3546 756 M
0 63 V
0 4004 R
0 -63 V
stroke
3546 576 M
[ [(Helvetica) 180.0 0.0 true true 0 ( 4)]
] -60.0 MCshow
1.000 UL
LTb
0.50 0.50 0.50 C 1.000 UL
LTa
0.50 0.50 0.50 C 4211 756 M
0 4067 V
stroke
LTb
0.50 0.50 0.50 C 4211 756 M
0 63 V
0 4004 R
0 -63 V
stroke
4211 576 M
[ [(Helvetica) 180.0 0.0 true true 0 ( 5)]
] -60.0 MCshow
1.000 UL
LTb
0.50 0.50 0.50 C 1.000 UL
LTa
0.50 0.50 0.50 C 4877 756 M
0 4067 V
stroke
LTb
0.50 0.50 0.50 C 4877 756 M
0 63 V
0 4004 R
0 -63 V
stroke
4877 576 M
[ [(Helvetica) 180.0 0.0 true true 0 ( 6)]
] -60.0 MCshow
1.000 UL
LTb
0.50 0.50 0.50 C 1.000 UL
LTa
0.50 0.50 0.50 C 5543 756 M
0 4067 V
stroke
LTb
0.50 0.50 0.50 C 5543 756 M
0 63 V
0 4004 R
0 -63 V
stroke
5543 576 M
[ [(Helvetica) 180.0 0.0 true true 0 ( 7)]
] -60.0 MCshow
1.000 UL
LTb
0.50 0.50 0.50 C 1.000 UL
LTa
0.50 0.50 0.50 C 6209 756 M
0 1014 V
0 450 R
0 2603 V
stroke
LTb
0.50 0.50 0.50 C 6209 756 M
0 63 V
0 4004 R
0 -63 V
stroke
6209 576 M
[ [(Helvetica) 180.0 0.0 true true 0 ( 8)]
] -60.0 MCshow
1.000 UL
LTb
0.50 0.50 0.50 C 1.000 UL
LTa
0.50 0.50 0.50 C 6875 756 M
0 4067 V
stroke
LTb
0.50 0.50 0.50 C 6875 756 M
0 63 V
0 4004 R
0 -63 V
stroke
6875 576 M
[ [(Helvetica) 180.0 0.0 true true 0 ( 9)]
] -60.0 MCshow
1.000 UL
LTb
0.50 0.50 0.50 C 1.000 UL
LTB
0.50 0.50 0.50 C 882 4823 M
882 756 L
5993 0 V
0 4067 R
-5993 0 R
stroke
LTb
1.00 1.00 1.00 C 1.000 6031 4236 756 360 BoxColFill
LCb setrgbcolor
6031 4236 N
0 360 V
756 0 V
0 -360 V
-756 0 V
Z stroke
1.000 UP
LCb setrgbcolor
416 1407 M
[ [(Symbol) 180.0 0.0 true true 0 (r)]
[(Helvetica) 144.0 -54.0 true true 0 (sat)]
] -42.0 MLshow
LCb setrgbcolor
416 2627 M
[ [(Symbol) 180.0 0.0 true true 0 (r)]
[(Helvetica) 144.0 -54.0 true true 0 (crit)]
] -42.0 MLshow
1.000 UL
LTb
0.50 0.50 0.50 C LCb setrgbcolor
144 2789 M
currentpoint gsave translate -270 rotate 0 0 moveto
[ [(Symbol) 180.0 0.0 true true 0 (r)]
[(Helvetica) 180.0 0.0 true true 0 ( [fm)]
[(Helvetica) 144.0 90.0 true true 0 (-3)]
[(Helvetica) 180.0 0.0 true true 0 (])]
] -78.0 MCshow
grestore
LTb
LCb setrgbcolor
3878 306 M
[ [(Helvetica) 180.0 0.0 true true 0 (q [fm)]
[(Helvetica) 144.0 90.0 true true 0 (-1)]
[(Helvetica) 180.0 0.0 true true 0 (])]
] -78.0 MCshow
LTb
% Begin plot #1
2.000 UP
1.000 UL
LTb
0.91 0.59 0.48 C LCb setrgbcolor
6272 2145 M
[ [(Helvetica) 150.0 0.0 true true 0 (Canal S=0 M=0)]
] -50.0 MRshow
2.000 UP
1.000 UL
LTb
0.91 0.59 0.48 C 6573 2145 CircleF
% End plot #1
% Begin plot #2
0.250 UP
1.000 UL
LTb
0.91 0.59 0.48 C % End plot #2
% Begin plot #3
2.000 UP
1.000 UL
LTb
1.00 0.55 0.00 C LCb setrgbcolor
6272 1995 M
[ [(Helvetica) 150.0 0.0 true true 0 (Canal S=1 M=0)]
] -50.0 MRshow
2.000 UP
1.000 UL
LTb
1.00 0.55 0.00 C 6573 1995 CircleF
% End plot #3
% Begin plot #4
0.250 UP
1.000 UL
LTb
1.00 0.55 0.00 C 889 4564 Circle
895 4564 Circle
902 4563 Circle
909 4563 Circle
915 4563 Circle
922 4562 Circle
929 4561 Circle
935 4561 Circle
942 4560 Circle
949 4559 Circle
955 4558 Circle
962 4557 Circle
969 4556 Circle
975 4555 Circle
982 4554 Circle
989 4552 Circle
995 4551 Circle
1002 4549 Circle
1009 4548 Circle
1015 4546 Circle
1022 4544 Circle
1028 4542 Circle
1035 4540 Circle
1042 4538 Circle
1048 4536 Circle
1055 4533 Circle
1062 4531 Circle
1068 4529 Circle
1075 4526 Circle
1082 4523 Circle
1088 4521 Circle
1095 4518 Circle
1102 4515 Circle
1108 4512 Circle
1115 4509 Circle
1122 4506 Circle
1128 4503 Circle
1135 4499 Circle
1142 4496 Circle
1148 4492 Circle
1155 4489 Circle
1162 4485 Circle
1168 4481 Circle
1175 4477 Circle
1182 4474 Circle
1188 4469 Circle
1195 4465 Circle
1202 4461 Circle
1208 4457 Circle
1215 4453 Circle
1222 4448 Circle
1228 4444 Circle
1235 4439 Circle
1242 4434 Circle
1248 4430 Circle
1255 4425 Circle
1262 4420 Circle
1268 4415 Circle
1275 4410 Circle
1282 4404 Circle
1288 4399 Circle
1295 4394 Circle
1302 4388 Circle
1308 4383 Circle
1315 4377 Circle
1321 4372 Circle
1328 4366 Circle
1335 4360 Circle
1341 4354 Circle
1348 4348 Circle
1355 4342 Circle
1361 4336 Circle
1368 4330 Circle
1375 4323 Circle
1381 4317 Circle
1388 4310 Circle
1395 4304 Circle
1401 4297 Circle
1408 4291 Circle
1415 4284 Circle
1421 4277 Circle
1428 4270 Circle
1435 4263 Circle
1441 4256 Circle
1448 4249 Circle
1455 4242 Circle
1461 4234 Circle
1468 4227 Circle
1475 4219 Circle
1481 4212 Circle
1488 4204 Circle
1495 4197 Circle
1501 4189 Circle
1508 4181 Circle
1515 4173 Circle
1521 4165 Circle
1528 4157 Circle
1535 4149 Circle
1541 4141 Circle
1548 4133 Circle
1555 4125 Circle
1561 4116 Circle
1568 4108 Circle
1575 4099 Circle
1581 4091 Circle
1588 4082 Circle
1595 4073 Circle
1601 4065 Circle
1608 4056 Circle
1614 4047 Circle
1621 4038 Circle
1628 4029 Circle
1634 4020 Circle
1641 4011 Circle
1648 4002 Circle
1654 3992 Circle
1661 3983 Circle
1668 3974 Circle
1674 3964 Circle
1681 3955 Circle
1688 3945 Circle
1694 3936 Circle
1701 3926 Circle
1708 3916 Circle
1714 3906 Circle
1721 3897 Circle
1728 3887 Circle
1734 3877 Circle
1741 3867 Circle
1748 3857 Circle
1754 3847 Circle
1761 3837 Circle
1768 3826 Circle
1774 3816 Circle
1781 3806 Circle
1788 3795 Circle
1794 3785 Circle
1801 3775 Circle
1808 3764 Circle
1814 3754 Circle
1821 3743 Circle
1828 3732 Circle
1834 3722 Circle
1841 3711 Circle
1848 3700 Circle
1854 3689 Circle
1861 3678 Circle
1868 3668 Circle
1874 3657 Circle
1881 3646 Circle
1887 3635 Circle
1894 3624 Circle
1901 3613 Circle
1907 3601 Circle
1914 3590 Circle
1921 3579 Circle
1927 3568 Circle
1934 3557 Circle
1941 3545 Circle
1947 3534 Circle
1954 3523 Circle
1961 3511 Circle
1967 3500 Circle
1974 3488 Circle
1981 3477 Circle
1987 3465 Circle
1994 3454 Circle
2001 3442 Circle
2007 3431 Circle
2014 3419 Circle
2021 3407 Circle
2027 3396 Circle
2034 3384 Circle
2041 3372 Circle
2047 3361 Circle
2054 3349 Circle
2061 3337 Circle
2067 3325 Circle
2074 3314 Circle
2081 3302 Circle
2087 3290 Circle
2094 3278 Circle
2101 3266 Circle
2107 3254 Circle
2114 3242 Circle
2121 3231 Circle
2127 3219 Circle
2134 3207 Circle
2141 3195 Circle
2147 3183 Circle
2154 3171 Circle
2161 3159 Circle
2167 3147 Circle
2174 3135 Circle
2180 3123 Circle
2187 3111 Circle
2194 3099 Circle
2200 3087 Circle
2207 3075 Circle
2214 3063 Circle
2220 3051 Circle
2227 3040 Circle
2234 3028 Circle
2240 3016 Circle
2247 3004 Circle
2254 2992 Circle
2260 2980 Circle
2267 2968 Circle
2274 2956 Circle
2280 2944 Circle
2287 2932 Circle
2294 2921 Circle
2300 2909 Circle
2307 2897 Circle
2314 2885 Circle
2320 2873 Circle
2327 2862 Circle
2334 2850 Circle
2340 2838 Circle
2347 2826 Circle
2354 2815 Circle
2360 2803 Circle
2367 2792 Circle
2374 2780 Circle
2380 2768 Circle
2387 2757 Circle
2394 2745 Circle
2400 2734 Circle
2407 2723 Circle
2414 2711 Circle
2420 2700 Circle
2427 2689 Circle
2434 2677 Circle
2440 2666 Circle
2447 2655 Circle
2453 2644 Circle
2460 2633 Circle
2467 2622 Circle
2473 2611 Circle
2480 2600 Circle
2487 2589 Circle
2493 2578 Circle
2500 2567 Circle
2507 2556 Circle
2513 2546 Circle
2520 2535 Circle
2527 2524 Circle
2533 2514 Circle
2540 2503 Circle
2547 2493 Circle
2553 2483 Circle
2560 2472 Circle
2567 2462 Circle
2573 2452 Circle
2580 2442 Circle
2587 2432 Circle
2593 2422 Circle
2600 2412 Circle
2607 2402 Circle
2613 2392 Circle
2620 2383 Circle
2627 2373 Circle
2633 2364 Circle
2640 2354 Circle
2647 2345 Circle
2653 2336 Circle
2660 2327 Circle
2667 2318 Circle
2673 2309 Circle
2680 2300 Circle
2687 2291 Circle
2693 2282 Circle
2700 2274 Circle
2707 2265 Circle
2713 2257 Circle
2720 2249 Circle
2727 2240 Circle
2733 2232 Circle
2740 2224 Circle
2746 2217 Circle
2753 2209 Circle
2760 2201 Circle
2766 2194 Circle
2773 2186 Circle
2780 2179 Circle
2786 2172 Circle
2793 2165 Circle
2800 2158 Circle
2806 2151 Circle
2813 2144 Circle
2820 2138 Circle
2826 2131 Circle
2833 2125 Circle
2840 2119 Circle
2846 2113 Circle
2853 2107 Circle
2860 2102 Circle
2866 2096 Circle
2873 2091 Circle
2880 2085 Circle
2886 2080 Circle
2893 2075 Circle
2900 2071 Circle
2906 2066 Circle
2913 2061 Circle
2920 2057 Circle
2926 2053 Circle
2933 2049 Circle
2940 2045 Circle
2946 2042 Circle
2953 2038 Circle
2960 2035 Circle
2966 2032 Circle
2973 2029 Circle
2980 2027 Circle
2986 2024 Circle
2993 2022 Circle
3000 2020 Circle
3006 2019 Circle
3013 2017 Circle
3020 2016 Circle
3026 2015 Circle
3033 2014 Circle
3039 2014 Circle
3046 2013 Circle
3053 2014 Circle
3059 2014 Circle
3066 2015 Circle
3073 2016 Circle
3079 2017 Circle
3086 2020 Circle
3093 2022 Circle
3099 2026 Circle
3106 2031 Circle
3113 2034 Circle
3119 2037 Circle
3126 2039 Circle
3133 2041 Circle
3139 2043 Circle
3146 2045 Circle
3153 2047 Circle
3159 2048 Circle
3166 2050 Circle
3173 2051 Circle
3179 2052 Circle
3186 2053 Circle
3193 2054 Circle
3199 2055 Circle
3206 2056 Circle
3213 2057 Circle
3219 2058 Circle
3226 2059 Circle
3233 2059 Circle
3239 2060 Circle
3246 2061 Circle
3253 2061 Circle
3259 2062 Circle
3266 2062 Circle
3273 2063 Circle
3279 2063 Circle
3286 2063 Circle
3293 2064 Circle
3299 2064 Circle
3306 2064 Circle
3312 2065 Circle
3319 2065 Circle
3326 2065 Circle
3332 2065 Circle
3339 2066 Circle
3346 2066 Circle
3352 2066 Circle
3359 2066 Circle
3366 2066 Circle
3372 2066 Circle
3379 2067 Circle
3386 2067 Circle
3392 2067 Circle
3399 2067 Circle
3406 2067 Circle
3412 2067 Circle
3419 2067 Circle
3426 2067 Circle
3432 2067 Circle
3439 2067 Circle
3446 2067 Circle
3452 2067 Circle
3459 2067 Circle
3466 2067 Circle
3472 2067 Circle
3479 2067 Circle
3486 2067 Circle
3492 2067 Circle
3499 2067 Circle
3506 2067 Circle
3512 2066 Circle
3519 2066 Circle
3526 2066 Circle
3532 2066 Circle
3539 2066 Circle
3546 2066 Circle
3552 2066 Circle
3559 2066 Circle
3566 2066 Circle
3572 2065 Circle
3579 2065 Circle
3586 2065 Circle
3592 2065 Circle
3599 2065 Circle
3605 2065 Circle
3612 2065 Circle
3619 2065 Circle
3625 2064 Circle
3632 2064 Circle
3639 2064 Circle
3645 2064 Circle
3652 2064 Circle
3659 2064 Circle
3665 2063 Circle
3672 2063 Circle
3679 2063 Circle
3685 2063 Circle
3692 2063 Circle
3699 2062 Circle
3705 2062 Circle
3712 2062 Circle
3719 2062 Circle
3725 2062 Circle
3732 2062 Circle
3739 2061 Circle
3745 2061 Circle
3752 2061 Circle
3759 2061 Circle
3765 2061 Circle
3772 2060 Circle
3779 2060 Circle
3785 2060 Circle
3792 2060 Circle
3799 2060 Circle
3805 2059 Circle
3812 2059 Circle
3819 2059 Circle
3825 2059 Circle
3832 2058 Circle
3839 2058 Circle
3845 2058 Circle
3852 2058 Circle
3859 2058 Circle
3865 2058 Circle
3872 2057 Circle
3879 2057 Circle
3885 2057 Circle
3892 2057 Circle
3898 2056 Circle
3905 2056 Circle
3912 2056 Circle
3918 2056 Circle
3925 2056 Circle
3932 2055 Circle
3938 2055 Circle
3945 2055 Circle
3952 2055 Circle
3958 2055 Circle
3965 2054 Circle
3972 2054 Circle
3978 2054 Circle
3985 2054 Circle
3992 2053 Circle
3998 2053 Circle
4005 2053 Circle
4012 2053 Circle
4018 2053 Circle
4025 2052 Circle
4032 2052 Circle
4038 2052 Circle
4045 2052 Circle
4052 2052 Circle
4058 2051 Circle
4065 2051 Circle
4072 2051 Circle
4078 2051 Circle
4085 2051 Circle
4092 2050 Circle
4098 2050 Circle
4105 2050 Circle
4112 2050 Circle
4118 2050 Circle
4125 2049 Circle
4132 2049 Circle
4138 2049 Circle
4145 2049 Circle
4152 2048 Circle
4158 2048 Circle
4165 2048 Circle
4171 2048 Circle
4178 2048 Circle
4185 2048 Circle
4191 2047 Circle
4198 2047 Circle
4205 2047 Circle
4211 2047 Circle
4218 2047 Circle
4225 2046 Circle
4231 2046 Circle
4238 2046 Circle
4245 2046 Circle
4251 2045 Circle
4258 2045 Circle
4265 2045 Circle
4271 2045 Circle
4278 2045 Circle
4285 2045 Circle
4291 2044 Circle
4298 2044 Circle
4305 2044 Circle
4311 2044 Circle
4318 2044 Circle
4325 2043 Circle
4331 2043 Circle
4338 2043 Circle
4345 2043 Circle
4351 2043 Circle
4358 2042 Circle
4365 2042 Circle
4371 2042 Circle
4378 2042 Circle
4385 2042 Circle
4391 2041 Circle
4398 2041 Circle
4405 2041 Circle
4411 2041 Circle
4418 2041 Circle
4425 2041 Circle
4431 2040 Circle
4438 2040 Circle
4445 2040 Circle
4451 2040 Circle
4458 2040 Circle
4464 2040 Circle
4471 2039 Circle
4478 2039 Circle
4484 2039 Circle
4491 2039 Circle
4498 2039 Circle
4504 2038 Circle
4511 2038 Circle
4518 2038 Circle
4524 2038 Circle
4531 2038 Circle
4538 2038 Circle
4544 2037 Circle
4551 2037 Circle
4558 2037 Circle
4564 2037 Circle
4571 2037 Circle
4578 2037 Circle
4584 2036 Circle
4591 2036 Circle
4598 2036 Circle
4604 2036 Circle
4611 2036 Circle
4618 2036 Circle
4624 2035 Circle
4631 2035 Circle
4638 2035 Circle
4644 2035 Circle
4651 2035 Circle
4658 2035 Circle
4664 2035 Circle
4671 2034 Circle
4678 2034 Circle
4684 2034 Circle
4691 2034 Circle
4698 2034 Circle
4704 2034 Circle
4711 2033 Circle
4718 2033 Circle
4724 2033 Circle
4731 2033 Circle
4737 2033 Circle
4744 2033 Circle
4751 2032 Circle
4757 2032 Circle
4764 2032 Circle
4771 2032 Circle
4777 2032 Circle
4784 2032 Circle
4791 2032 Circle
4797 2031 Circle
4804 2031 Circle
4811 2031 Circle
4817 2031 Circle
4824 2031 Circle
4831 2031 Circle
4837 2031 Circle
4844 2030 Circle
4851 2030 Circle
4857 2030 Circle
4864 2030 Circle
4871 2030 Circle
4877 2030 Circle
4884 2030 Circle
4891 2029 Circle
4897 2029 Circle
4904 2029 Circle
4911 2029 Circle
4917 2029 Circle
4924 2029 Circle
4931 2029 Circle
4937 2028 Circle
4944 2028 Circle
4951 2028 Circle
4957 2028 Circle
4964 2028 Circle
4971 2028 Circle
4977 2028 Circle
4984 2028 Circle
4991 2027 Circle
4997 2027 Circle
5004 2027 Circle
5011 2027 Circle
5017 2027 Circle
5024 2027 Circle
5030 2027 Circle
5037 2026 Circle
5044 2026 Circle
5050 2026 Circle
5057 2026 Circle
5064 2026 Circle
5070 2026 Circle
5077 2026 Circle
5084 2026 Circle
5090 2025 Circle
5097 2025 Circle
5104 2025 Circle
5110 2025 Circle
5117 2025 Circle
5124 2025 Circle
5130 2025 Circle
5137 2025 Circle
5144 2024 Circle
5150 2024 Circle
5157 2024 Circle
5164 2024 Circle
5170 2024 Circle
5177 2024 Circle
5184 2024 Circle
5190 2024 Circle
5197 2024 Circle
5204 2023 Circle
5210 2023 Circle
5217 2023 Circle
5224 2023 Circle
5230 2023 Circle
5237 2023 Circle
5244 2023 Circle
5250 2023 Circle
5257 2022 Circle
5264 2022 Circle
5270 2022 Circle
5277 2022 Circle
5284 2022 Circle
5290 2022 Circle
5297 2022 Circle
5304 2022 Circle
5310 2022 Circle
5317 2021 Circle
5323 2021 Circle
5330 2021 Circle
5337 2021 Circle
5343 2021 Circle
5350 2021 Circle
5357 2021 Circle
5363 2021 Circle
5370 2021 Circle
5377 2021 Circle
5383 2020 Circle
5390 2020 Circle
5397 2020 Circle
5403 2020 Circle
5410 2020 Circle
5417 2020 Circle
5423 2020 Circle
5430 2020 Circle
5437 2020 Circle
5443 2019 Circle
5450 2019 Circle
5457 2019 Circle
5463 2019 Circle
5470 2019 Circle
5477 2019 Circle
5483 2019 Circle
5490 2019 Circle
5497 2019 Circle
5503 2019 Circle
5510 2018 Circle
5517 2018 Circle
5523 2018 Circle
5530 2018 Circle
5537 2018 Circle
5543 2018 Circle
5550 2018 Circle
5557 2018 Circle
5563 2018 Circle
5570 2018 Circle
5577 2018 Circle
5583 2017 Circle
5590 2017 Circle
5596 2017 Circle
5603 2017 Circle
5610 2017 Circle
5616 2017 Circle
5623 2017 Circle
5630 2017 Circle
5636 2017 Circle
5643 2017 Circle
5650 2017 Circle
5656 2016 Circle
5663 2016 Circle
5670 2016 Circle
5676 2016 Circle
5683 2016 Circle
5690 2016 Circle
5696 2016 Circle
5703 2016 Circle
5710 2016 Circle
5716 2016 Circle
5723 2016 Circle
5730 2015 Circle
5736 2015 Circle
5743 2015 Circle
5750 2015 Circle
5756 2015 Circle
5763 2015 Circle
5770 2015 Circle
5776 2015 Circle
5783 2015 Circle
5790 2015 Circle
5796 2015 Circle
5803 2014 Circle
5810 2014 Circle
5816 2014 Circle
5823 2014 Circle
5830 2014 Circle
5836 2014 Circle
5843 2014 Circle
5850 2014 Circle
5856 2014 Circle
5863 2014 Circle
5870 2014 Circle
5876 2014 Circle
5883 2014 Circle
5889 2013 Circle
5896 2013 Circle
5903 2013 Circle
5909 2013 Circle
5916 2013 Circle
5923 2013 Circle
5929 2013 Circle
5936 2013 Circle
5943 2013 Circle
5949 2013 Circle
5956 2013 Circle
5963 2013 Circle
5969 2013 Circle
5976 2012 Circle
5983 2012 Circle
5989 2012 Circle
5996 2012 Circle
6003 2012 Circle
6009 2012 Circle
6016 2012 Circle
6023 2012 Circle
6029 2012 Circle
6036 2012 Circle
6043 2012 Circle
6049 2012 Circle
6056 2012 Circle
6063 2011 Circle
6069 2011 Circle
6076 2011 Circle
6083 2011 Circle
6089 2011 Circle
6096 2011 Circle
6103 2011 Circle
6109 2011 Circle
6116 2011 Circle
6123 2011 Circle
6129 2011 Circle
6136 2011 Circle
6143 2011 Circle
6149 2011 Circle
6156 2011 Circle
6162 2010 Circle
6169 2010 Circle
6176 2010 Circle
6182 2010 Circle
6189 2010 Circle
6196 2010 Circle
6202 2010 Circle
6209 2010 Circle
6216 2010 Circle
6222 2010 Circle
6229 2010 Circle
6236 2010 Circle
6242 2010 Circle
6249 2010 Circle
6256 2009 Circle
6262 2009 Circle
6269 2009 Circle
6276 2009 Circle
6282 2009 Circle
6289 2009 Circle
6296 2009 Circle
6302 2009 Circle
6309 2009 Circle
6316 2009 Circle
6322 2009 Circle
6329 2009 Circle
6336 2009 Circle
6342 2009 Circle
6349 2009 Circle
6356 2008 Circle
6362 2008 Circle
6369 2008 Circle
6376 2008 Circle
6382 2008 Circle
6389 2008 Circle
6396 2008 Circle
6402 2008 Circle
6409 2008 Circle
6416 2008 Circle
6422 2008 Circle
6429 2008 Circle
6436 2008 Circle
6442 2008 Circle
6449 2008 Circle
6455 2008 Circle
6462 2007 Circle
6469 2007 Circle
6475 2007 Circle
6482 2007 Circle
6489 2007 Circle
6495 2007 Circle
6502 2007 Circle
6509 2007 Circle
6515 2007 Circle
6522 2007 Circle
6529 2007 Circle
6535 2007 Circle
6542 2007 Circle
6549 2007 Circle
6555 2007 Circle
6562 2007 Circle
6569 2007 Circle
6575 2007 Circle
6582 2007 Circle
6589 2006 Circle
6595 2006 Circle
6602 2006 Circle
6609 2006 Circle
6615 2006 Circle
6622 2006 Circle
6629 2006 Circle
6635 2006 Circle
6642 2006 Circle
6649 2006 Circle
6655 2006 Circle
6662 2006 Circle
6669 2006 Circle
6675 2006 Circle
6682 2006 Circle
6689 2006 Circle
6695 2006 Circle
6702 2006 Circle
6709 2005 Circle
6715 2005 Circle
6722 2005 Circle
6729 2005 Circle
6735 2005 Circle
6742 2005 Circle
6748 2005 Circle
6755 2005 Circle
6762 2005 Circle
6768 2005 Circle
6775 2005 Circle
6782 2005 Circle
6788 2005 Circle
6795 2005 Circle
6802 2005 Circle
6808 2005 Circle
6815 2005 Circle
6822 2005 Circle
6828 2005 Circle
6835 2004 Circle
6842 2004 Circle
6848 2004 Circle
6855 2004 Circle
6862 2004 Circle
6868 2004 Circle
6875 2004 Circle
% End plot #4
% Begin plot #5
2.000 UP
1.000 UL
LTb
0.00 0.55 0.55 C LCb setrgbcolor
6272 1845 M
[ [(Helvetica) 150.0 0.0 true true 0 (Canal S=1 M=1)]
] -50.0 MRshow
2.000 UP
1.000 UL
LTb
0.00 0.55 0.55 C 6573 1845 CircleF
% End plot #5
% Begin plot #6
0.250 UP
1.000 UL
LTb
0.00 0.55 0.55 C 889 4564 Circle
895 4563 Circle
902 4562 Circle
909 4561 Circle
915 4559 Circle
922 4557 Circle
929 4555 Circle
935 4552 Circle
942 4549 Circle
949 4546 Circle
955 4542 Circle
962 4538 Circle
969 4533 Circle
975 4528 Circle
982 4523 Circle
989 4518 Circle
995 4512 Circle
1002 4506 Circle
1009 4499 Circle
1015 4492 Circle
1022 4485 Circle
1028 4478 Circle
1035 4470 Circle
1042 4462 Circle
1048 4454 Circle
1055 4445 Circle
1062 4436 Circle
1068 4427 Circle
1075 4417 Circle
1082 4408 Circle
1088 4398 Circle
1095 4387 Circle
1102 4377 Circle
1108 4366 Circle
1115 4355 Circle
1122 4344 Circle
1128 4332 Circle
1135 4320 Circle
1142 4308 Circle
1148 4296 Circle
1155 4284 Circle
1162 4271 Circle
1168 4258 Circle
1175 4245 Circle
1182 4232 Circle
1188 4219 Circle
1195 4205 Circle
1202 4192 Circle
1208 4178 Circle
1215 4164 Circle
1222 4150 Circle
1228 4136 Circle
1235 4121 Circle
1242 4107 Circle
1248 4092 Circle
1255 4077 Circle
1262 4062 Circle
1268 4047 Circle
1275 4032 Circle
1282 4017 Circle
1288 4002 Circle
1295 3986 Circle
1302 3971 Circle
1308 3955 Circle
1315 3940 Circle
1321 3924 Circle
1328 3908 Circle
1335 3893 Circle
1341 3877 Circle
1348 3861 Circle
1355 3845 Circle
1361 3829 Circle
1368 3813 Circle
1375 3797 Circle
1381 3781 Circle
1388 3765 Circle
1395 3749 Circle
1401 3733 Circle
1408 3717 Circle
1415 3701 Circle
1421 3685 Circle
1428 3669 Circle
1435 3653 Circle
1441 3637 Circle
1448 3621 Circle
1455 3605 Circle
1461 3589 Circle
1468 3574 Circle
1475 3558 Circle
1481 3542 Circle
1488 3526 Circle
1495 3510 Circle
1501 3494 Circle
1508 3479 Circle
1515 3463 Circle
1521 3447 Circle
1528 3432 Circle
1535 3416 Circle
1541 3401 Circle
1548 3386 Circle
1555 3370 Circle
1561 3355 Circle
1568 3340 Circle
1575 3325 Circle
1581 3309 Circle
1588 3294 Circle
1595 3279 Circle
1601 3265 Circle
1608 3250 Circle
1614 3235 Circle
1621 3220 Circle
1628 3206 Circle
1634 3191 Circle
1641 3177 Circle
1648 3162 Circle
1654 3148 Circle
1661 3134 Circle
1668 3120 Circle
1674 3106 Circle
1681 3092 Circle
1688 3078 Circle
1694 3064 Circle
1701 3050 Circle
1708 3036 Circle
1714 3023 Circle
1721 3009 Circle
1728 2996 Circle
1734 2983 Circle
1741 2970 Circle
1748 2956 Circle
1754 2943 Circle
1761 2930 Circle
1768 2918 Circle
1774 2905 Circle
1781 2892 Circle
1788 2879 Circle
1794 2867 Circle
1801 2854 Circle
1808 2842 Circle
1814 2830 Circle
1821 2818 Circle
1828 2806 Circle
1834 2794 Circle
1841 2782 Circle
1848 2770 Circle
1854 2758 Circle
1861 2747 Circle
1868 2735 Circle
1874 2724 Circle
1881 2712 Circle
1887 2701 Circle
1894 2690 Circle
1901 2679 Circle
1907 2668 Circle
1914 2657 Circle
1921 2646 Circle
1927 2636 Circle
1934 2625 Circle
1941 2614 Circle
1947 2604 Circle
1954 2593 Circle
1961 2583 Circle
1967 2573 Circle
1974 2563 Circle
1981 2553 Circle
1987 2543 Circle
1994 2533 Circle
2001 2523 Circle
2007 2514 Circle
2014 2504 Circle
2021 2494 Circle
2027 2485 Circle
2034 2476 Circle
2041 2466 Circle
2047 2457 Circle
2054 2448 Circle
2061 2439 Circle
2067 2430 Circle
2074 2421 Circle
2081 2412 Circle
2087 2404 Circle
2094 2395 Circle
2101 2387 Circle
2107 2378 Circle
2114 2370 Circle
2121 2361 Circle
2127 2353 Circle
2134 2345 Circle
2141 2337 Circle
2147 2329 Circle
2154 2321 Circle
2161 2313 Circle
2167 2305 Circle
2174 2298 Circle
2180 2290 Circle
2187 2283 Circle
2194 2275 Circle
2200 2268 Circle
2207 2260 Circle
2214 2253 Circle
2220 2246 Circle
2227 2239 Circle
2234 2232 Circle
2240 2225 Circle
2247 2218 Circle
2254 2211 Circle
2260 2204 Circle
2267 2198 Circle
2274 2191 Circle
2280 2184 Circle
2287 2178 Circle
2294 2171 Circle
2300 2165 Circle
2307 2159 Circle
2314 2153 Circle
2320 2146 Circle
2327 2140 Circle
2334 2134 Circle
2340 2128 Circle
2347 2122 Circle
2354 2117 Circle
2360 2111 Circle
2367 2105 Circle
2374 2100 Circle
2380 2094 Circle
2387 2089 Circle
2394 2083 Circle
2400 2078 Circle
2407 2072 Circle
2414 2067 Circle
2420 2062 Circle
2427 2057 Circle
2434 2052 Circle
2440 2047 Circle
2447 2042 Circle
2453 2037 Circle
2460 2032 Circle
2467 2027 Circle
2473 2023 Circle
2480 2018 Circle
2487 2013 Circle
2493 2009 Circle
2500 2004 Circle
2507 2000 Circle
2513 1996 Circle
2520 1991 Circle
2527 1987 Circle
2533 1983 Circle
2540 1979 Circle
2547 1975 Circle
2553 1971 Circle
2560 1967 Circle
2567 1963 Circle
2573 1960 Circle
2580 1956 Circle
2587 1952 Circle
2593 1949 Circle
2600 1945 Circle
2607 1941 Circle
2613 1938 Circle
2620 1935 Circle
2627 1931 Circle
2633 1928 Circle
2640 1925 Circle
2647 1922 Circle
2653 1919 Circle
2660 1916 Circle
2667 1913 Circle
2673 1910 Circle
2680 1907 Circle
2687 1904 Circle
2693 1902 Circle
2700 1899 Circle
2707 1897 Circle
2713 1894 Circle
2720 1892 Circle
2727 1889 Circle
2733 1887 Circle
2740 1885 Circle
2746 1883 Circle
2753 1881 Circle
2760 1879 Circle
2766 1877 Circle
2773 1875 Circle
2780 1873 Circle
2786 1871 Circle
2793 1870 Circle
2800 1868 Circle
2806 1867 Circle
2813 1865 Circle
2820 1864 Circle
2826 1863 Circle
2833 1862 Circle
2840 1861 Circle
2846 1860 Circle
2853 1859 Circle
2860 1858 Circle
2866 1858 Circle
2873 1857 Circle
2880 1857 Circle
2886 1856 Circle
2893 1856 Circle
2900 1856 Circle
2906 1856 Circle
2913 1856 Circle
2920 1856 Circle
2926 1857 Circle
2933 1857 Circle
2940 1858 Circle
2946 1859 Circle
2953 1860 Circle
2960 1861 Circle
2966 1862 Circle
2973 1864 Circle
2980 1866 Circle
2986 1868 Circle
2993 1870 Circle
3000 1873 Circle
3006 1877 Circle
3013 1881 Circle
3020 1885 Circle
3026 1888 Circle
3033 1892 Circle
3039 1894 Circle
3046 1897 Circle
3053 1899 Circle
3059 1902 Circle
3066 1904 Circle
3073 1906 Circle
3079 1908 Circle
3086 1910 Circle
3093 1912 Circle
3099 1913 Circle
3106 1915 Circle
3113 1917 Circle
3119 1918 Circle
3126 1920 Circle
3133 1921 Circle
3139 1922 Circle
3146 1924 Circle
3153 1925 Circle
3159 1926 Circle
3166 1928 Circle
3173 1929 Circle
3179 1930 Circle
3186 1931 Circle
3193 1932 Circle
3199 1933 Circle
3206 1935 Circle
3213 1936 Circle
3219 1937 Circle
3226 1938 Circle
3233 1938 Circle
3239 1939 Circle
3246 1940 Circle
3253 1941 Circle
3259 1942 Circle
3266 1943 Circle
3273 1944 Circle
3279 1945 Circle
3286 1945 Circle
3293 1946 Circle
3299 1947 Circle
3306 1948 Circle
3312 1948 Circle
3319 1949 Circle
3326 1950 Circle
3332 1950 Circle
3339 1951 Circle
3346 1952 Circle
3352 1952 Circle
3359 1953 Circle
3366 1954 Circle
3372 1954 Circle
3379 1955 Circle
3386 1955 Circle
3392 1956 Circle
3399 1956 Circle
3406 1957 Circle
3412 1957 Circle
3419 1958 Circle
3426 1958 Circle
3432 1959 Circle
3439 1959 Circle
3446 1960 Circle
3452 1960 Circle
3459 1961 Circle
3466 1961 Circle
3472 1962 Circle
3479 1962 Circle
3486 1963 Circle
3492 1963 Circle
3499 1963 Circle
3506 1964 Circle
3512 1964 Circle
3519 1965 Circle
3526 1965 Circle
3532 1965 Circle
3539 1966 Circle
3546 1966 Circle
3552 1967 Circle
3559 1967 Circle
3566 1967 Circle
3572 1967 Circle
3579 1968 Circle
3586 1968 Circle
3592 1968 Circle
3599 1969 Circle
3605 1969 Circle
3612 1969 Circle
3619 1970 Circle
3625 1970 Circle
3632 1970 Circle
3639 1970 Circle
3645 1971 Circle
3652 1971 Circle
3659 1971 Circle
3665 1972 Circle
3672 1972 Circle
3679 1972 Circle
3685 1972 Circle
3692 1973 Circle
3699 1973 Circle
3705 1973 Circle
3712 1973 Circle
3719 1973 Circle
3725 1974 Circle
3732 1974 Circle
3739 1974 Circle
3745 1974 Circle
3752 1975 Circle
3759 1975 Circle
3765 1975 Circle
3772 1975 Circle
3779 1975 Circle
3785 1976 Circle
3792 1976 Circle
3799 1976 Circle
3805 1976 Circle
3812 1976 Circle
3819 1977 Circle
3825 1977 Circle
3832 1977 Circle
3839 1977 Circle
3845 1977 Circle
3852 1977 Circle
3859 1978 Circle
3865 1978 Circle
3872 1978 Circle
3879 1978 Circle
3885 1978 Circle
3892 1978 Circle
3898 1978 Circle
3905 1979 Circle
3912 1979 Circle
3918 1979 Circle
3925 1979 Circle
3932 1979 Circle
3938 1979 Circle
3945 1979 Circle
3952 1980 Circle
3958 1980 Circle
3965 1980 Circle
3972 1980 Circle
3978 1980 Circle
3985 1980 Circle
3992 1980 Circle
3998 1980 Circle
4005 1980 Circle
4012 1981 Circle
4018 1981 Circle
4025 1981 Circle
4032 1981 Circle
4038 1981 Circle
4045 1981 Circle
4052 1981 Circle
4058 1981 Circle
4065 1981 Circle
4072 1982 Circle
4078 1982 Circle
4085 1982 Circle
4092 1982 Circle
4098 1982 Circle
4105 1982 Circle
4112 1982 Circle
4118 1982 Circle
4125 1982 Circle
4132 1982 Circle
4138 1982 Circle
4145 1983 Circle
4152 1983 Circle
4158 1983 Circle
4165 1983 Circle
4171 1983 Circle
4178 1983 Circle
4185 1983 Circle
4191 1983 Circle
4198 1983 Circle
4205 1983 Circle
4211 1983 Circle
4218 1983 Circle
4225 1983 Circle
4231 1983 Circle
4238 1984 Circle
4245 1984 Circle
4251 1984 Circle
4258 1984 Circle
4265 1984 Circle
4271 1984 Circle
4278 1984 Circle
4285 1984 Circle
4291 1984 Circle
4298 1984 Circle
4305 1984 Circle
4311 1984 Circle
4318 1984 Circle
4325 1984 Circle
4331 1984 Circle
4338 1984 Circle
4345 1984 Circle
4351 1984 Circle
4358 1984 Circle
4365 1985 Circle
4371 1985 Circle
4378 1985 Circle
4385 1985 Circle
4391 1985 Circle
4398 1985 Circle
4405 1985 Circle
4411 1985 Circle
4418 1985 Circle
4425 1985 Circle
4431 1985 Circle
4438 1985 Circle
4445 1985 Circle
4451 1985 Circle
4458 1985 Circle
4464 1985 Circle
4471 1985 Circle
4478 1985 Circle
4484 1985 Circle
4491 1985 Circle
4498 1985 Circle
4504 1985 Circle
4511 1985 Circle
4518 1985 Circle
4524 1985 Circle
4531 1986 Circle
4538 1986 Circle
4544 1986 Circle
4551 1986 Circle
4558 1986 Circle
4564 1986 Circle
4571 1986 Circle
4578 1986 Circle
4584 1986 Circle
4591 1986 Circle
4598 1986 Circle
4604 1986 Circle
4611 1986 Circle
4618 1986 Circle
4624 1986 Circle
4631 1986 Circle
4638 1986 Circle
4644 1986 Circle
4651 1986 Circle
4658 1986 Circle
4664 1986 Circle
4671 1986 Circle
4678 1986 Circle
4684 1986 Circle
4691 1986 Circle
4698 1986 Circle
4704 1986 Circle
4711 1986 Circle
4718 1986 Circle
4724 1986 Circle
4731 1986 Circle
4737 1986 Circle
4744 1986 Circle
4751 1986 Circle
4757 1986 Circle
4764 1986 Circle
4771 1986 Circle
4777 1986 Circle
4784 1986 Circle
4791 1986 Circle
4797 1986 Circle
4804 1986 Circle
4811 1986 Circle
4817 1986 Circle
4824 1986 Circle
4831 1987 Circle
4837 1987 Circle
4844 1987 Circle
4851 1987 Circle
4857 1987 Circle
4864 1987 Circle
4871 1987 Circle
4877 1987 Circle
4884 1987 Circle
4891 1987 Circle
4897 1987 Circle
4904 1987 Circle
4911 1987 Circle
4917 1987 Circle
4924 1987 Circle
4931 1987 Circle
4937 1987 Circle
4944 1987 Circle
4951 1987 Circle
4957 1987 Circle
4964 1987 Circle
4971 1987 Circle
4977 1987 Circle
4984 1987 Circle
4991 1987 Circle
4997 1987 Circle
5004 1987 Circle
5011 1987 Circle
5017 1987 Circle
5024 1987 Circle
5030 1987 Circle
5037 1987 Circle
5044 1987 Circle
5050 1987 Circle
5057 1987 Circle
5064 1987 Circle
5070 1987 Circle
5077 1987 Circle
5084 1987 Circle
5090 1987 Circle
5097 1987 Circle
5104 1987 Circle
5110 1987 Circle
5117 1987 Circle
5124 1987 Circle
5130 1987 Circle
5137 1987 Circle
5144 1987 Circle
5150 1987 Circle
5157 1987 Circle
5164 1987 Circle
5170 1987 Circle
5177 1987 Circle
5184 1987 Circle
5190 1987 Circle
5197 1987 Circle
5204 1987 Circle
5210 1987 Circle
5217 1987 Circle
5224 1987 Circle
5230 1987 Circle
5237 1987 Circle
5244 1987 Circle
5250 1987 Circle
5257 1987 Circle
5264 1987 Circle
5270 1987 Circle
5277 1987 Circle
5284 1987 Circle
5290 1987 Circle
5297 1987 Circle
5304 1987 Circle
5310 1987 Circle
5317 1987 Circle
5323 1987 Circle
5330 1987 Circle
5337 1987 Circle
5343 1987 Circle
5350 1987 Circle
5357 1987 Circle
5363 1987 Circle
5370 1987 Circle
5377 1987 Circle
5383 1987 Circle
5390 1987 Circle
5397 1987 Circle
5403 1987 Circle
5410 1987 Circle
5417 1987 Circle
5423 1987 Circle
5430 1987 Circle
5437 1987 Circle
5443 1987 Circle
5450 1987 Circle
5457 1987 Circle
5463 1987 Circle
5470 1987 Circle
5477 1987 Circle
5483 1987 Circle
5490 1987 Circle
5497 1987 Circle
5503 1987 Circle
5510 1987 Circle
5517 1987 Circle
5523 1987 Circle
5530 1987 Circle
5537 1987 Circle
5543 1987 Circle
5550 1987 Circle
5557 1987 Circle
5563 1987 Circle
5570 1987 Circle
5577 1987 Circle
5583 1987 Circle
5590 1987 Circle
5596 1987 Circle
5603 1987 Circle
5610 1987 Circle
5616 1987 Circle
5623 1987 Circle
5630 1987 Circle
5636 1987 Circle
5643 1987 Circle
5650 1987 Circle
5656 1987 Circle
5663 1987 Circle
5670 1987 Circle
5676 1987 Circle
5683 1987 Circle
5690 1987 Circle
5696 1987 Circle
5703 1987 Circle
5710 1987 Circle
5716 1987 Circle
5723 1987 Circle
5730 1987 Circle
5736 1987 Circle
5743 1987 Circle
5750 1987 Circle
5756 1987 Circle
5763 1987 Circle
5770 1987 Circle
5776 1987 Circle
5783 1987 Circle
5790 1987 Circle
5796 1987 Circle
5803 1987 Circle
5810 1987 Circle
5816 1987 Circle
5823 1987 Circle
5830 1987 Circle
5836 1987 Circle
5843 1987 Circle
5850 1987 Circle
5856 1987 Circle
5863 1987 Circle
5870 1987 Circle
5876 1987 Circle
5883 1987 Circle
5889 1987 Circle
5896 1987 Circle
5903 1987 Circle
5909 1987 Circle
5916 1987 Circle
5923 1987 Circle
5929 1987 Circle
5936 1987 Circle
5943 1987 Circle
5949 1987 Circle
5956 1987 Circle
5963 1987 Circle
5969 1987 Circle
5976 1987 Circle
5983 1987 Circle
5989 1987 Circle
5996 1987 Circle
6003 1987 Circle
6009 1987 Circle
6016 1987 Circle
6023 1987 Circle
6029 1987 Circle
6036 1987 Circle
6043 1987 Circle
6049 1987 Circle
6056 1987 Circle
6063 1987 Circle
6069 1987 Circle
6076 1986 Circle
6083 1986 Circle
6089 1986 Circle
6096 1986 Circle
6103 1986 Circle
6109 1986 Circle
6116 1986 Circle
6123 1986 Circle
6129 1986 Circle
6136 1986 Circle
6143 1986 Circle
6149 1986 Circle
6156 1986 Circle
6162 1986 Circle
6169 1986 Circle
6176 1986 Circle
6182 1986 Circle
6189 1986 Circle
6196 1986 Circle
6202 1986 Circle
6209 1986 Circle
6216 1986 Circle
6222 1986 Circle
6229 1986 Circle
6236 1986 Circle
6242 1986 Circle
6249 1986 Circle
6256 1986 Circle
6262 1986 Circle
6269 1986 Circle
6276 1986 Circle
6282 1986 Circle
6289 1986 Circle
6296 1986 Circle
6302 1986 Circle
6309 1986 Circle
6316 1986 Circle
6322 1986 Circle
6329 1986 Circle
6336 1986 Circle
6342 1986 Circle
6349 1986 Circle
6356 1986 Circle
6362 1986 Circle
6369 1986 Circle
6376 1986 Circle
6382 1986 Circle
6389 1986 Circle
6396 1986 Circle
6402 1986 Circle
6409 1986 Circle
6416 1986 Circle
6422 1986 Circle
6429 1986 Circle
6436 1986 Circle
6442 1986 Circle
6449 1986 Circle
6455 1986 Circle
6462 1986 Circle
6469 1986 Circle
6475 1986 Circle
6482 1986 Circle
6489 1986 Circle
6495 1986 Circle
6502 1986 Circle
6509 1986 Circle
6515 1986 Circle
6522 1986 Circle
6529 1986 Circle
6535 1986 Circle
6542 1986 Circle
6549 1986 Circle
6555 1986 Circle
6562 1986 Circle
6569 1986 Circle
6575 1986 Circle
6582 1986 Circle
6589 1986 Circle
6595 1986 Circle
6602 1986 Circle
6609 1986 Circle
6615 1986 Circle
6622 1986 Circle
6629 1986 Circle
6635 1986 Circle
6642 1986 Circle
6649 1986 Circle
6655 1986 Circle
6662 1986 Circle
6669 1986 Circle
6675 1986 Circle
6682 1986 Circle
6689 1986 Circle
6695 1986 Circle
6702 1986 Circle
6709 1986 Circle
6715 1986 Circle
6722 1986 Circle
6729 1986 Circle
6735 1986 Circle
6742 1986 Circle
6748 1986 Circle
6755 1986 Circle
6762 1986 Circle
6768 1986 Circle
6775 1986 Circle
6782 1986 Circle
6788 1986 Circle
6795 1986 Circle
6802 1986 Circle
6808 1986 Circle
6815 1986 Circle
6822 1986 Circle
6828 1986 Circle
6835 1986 Circle
6842 1986 Circle
6848 1986 Circle
6855 1986 Circle
6862 1986 Circle
6868 1986 Circle
6875 1986 Circle
% End plot #6
% Begin plot #7
3.000 UL
LTb
LT2
0.34 0.71 0.91 C 882 1407 M
61 0 V
60 0 V
61 0 V
60 0 V
61 0 V
60 0 V
61 0 V
60 0 V
61 0 V
60 0 V
61 0 V
60 0 V
61 0 V
60 0 V
61 0 V
61 0 V
60 0 V
61 0 V
60 0 V
61 0 V
60 0 V
61 0 V
60 0 V
61 0 V
60 0 V
61 0 V
60 0 V
61 0 V
61 0 V
60 0 V
61 0 V
60 0 V
61 0 V
60 0 V
61 0 V
60 0 V
61 0 V
60 0 V
61 0 V
60 0 V
61 0 V
60 0 V
61 0 V
61 0 V
60 0 V
61 0 V
60 0 V
61 0 V
60 0 V
61 0 V
60 0 V
61 0 V
60 0 V
61 0 V
60 0 V
61 0 V
61 0 V
60 0 V
61 0 V
60 0 V
61 0 V
60 0 V
61 0 V
60 0 V
61 0 V
60 0 V
61 0 V
60 0 V
61 0 V
60 0 V
61 0 V
61 0 V
60 0 V
61 0 V
60 0 V
61 0 V
60 0 V
61 0 V
60 0 V
61 0 V
60 0 V
61 0 V
60 0 V
61 0 V
61 0 V
60 0 V
61 0 V
60 0 V
61 0 V
60 0 V
61 0 V
60 0 V
61 0 V
60 0 V
61 0 V
60 0 V
61 0 V
60 0 V
61 0 V
% End plot #7
% Begin plot #8
stroke
2.000 UL
LTb
LT1
0.00 0.00 0.00 C 882 2545 M
61 0 V
60 0 V
61 0 V
60 0 V
61 0 V
60 0 V
61 0 V
60 0 V
61 0 V
60 0 V
61 0 V
60 0 V
61 0 V
60 0 V
61 0 V
61 0 V
60 0 V
61 0 V
60 0 V
61 0 V
60 0 V
61 0 V
60 0 V
61 0 V
60 0 V
61 0 V
60 0 V
61 0 V
61 0 V
60 0 V
61 0 V
60 0 V
61 0 V
60 0 V
61 0 V
60 0 V
61 0 V
60 0 V
61 0 V
60 0 V
61 0 V
60 0 V
61 0 V
61 0 V
60 0 V
61 0 V
60 0 V
61 0 V
60 0 V
61 0 V
60 0 V
61 0 V
60 0 V
61 0 V
60 0 V
61 0 V
61 0 V
60 0 V
61 0 V
60 0 V
61 0 V
60 0 V
61 0 V
60 0 V
61 0 V
60 0 V
61 0 V
60 0 V
61 0 V
60 0 V
61 0 V
61 0 V
60 0 V
61 0 V
60 0 V
61 0 V
60 0 V
61 0 V
60 0 V
61 0 V
60 0 V
61 0 V
60 0 V
61 0 V
61 0 V
60 0 V
61 0 V
60 0 V
61 0 V
60 0 V
61 0 V
60 0 V
61 0 V
60 0 V
61 0 V
60 0 V
61 0 V
60 0 V
61 0 V
% End plot #8
stroke
LTb
LCb setrgbcolor
1.000 UP
LCb setrgbcolor
6409 4416 M
[ [(Helvetica) 180.0 0.0 true true 0 (SLy5*)]
] -60.0 MCshow
1.000 UL
LTb
0.50 0.50 0.50 C stroke
grestore
end
showpage
%%Trailer
%%DocumentFonts: Symbol Helvetica
