%!PS-Adobe-2.0 EPSF-2.0
%%Title: lr_SNM.eps
%%Creator: gnuplot 5.0 patchlevel 3
%%CreationDate: Fri Jun 23 22:51:41 2017
%%DocumentFonts: (atend)
%%BoundingBox: 50 50 410 302
%%EndComments
%%BeginProlog
/gnudict 256 dict def
gnudict begin
%
% The following true/false flags may be edited by hand if desired.
% The unit line width and grayscale image gamma correction may also be changed.
%
/Color true def
/Blacktext false def
/Solid false def
/Dashlength 1 def
/Landscape false def
/Level1 false def
/Level3 false def
/Rounded false def
/ClipToBoundingBox false def
/SuppressPDFMark false def
/TransparentPatterns false def
/gnulinewidth 5.000 def
/userlinewidth gnulinewidth def
/Gamma 1.0 def
/BackgroundColor {-1.000 -1.000 -1.000} def
%
/vshift -60 def
/dl1 {
  10.0 Dashlength userlinewidth gnulinewidth div mul mul mul
  Rounded { currentlinewidth 0.75 mul sub dup 0 le { pop 0.01 } if } if
} def
/dl2 {
  10.0 Dashlength userlinewidth gnulinewidth div mul mul mul
  Rounded { currentlinewidth 0.75 mul add } if
} def
/hpt_ 31.5 def
/vpt_ 31.5 def
/hpt hpt_ def
/vpt vpt_ def
/doclip {
  ClipToBoundingBox {
    newpath 50 50 moveto 410 50 lineto 410 302 lineto 50 302 lineto closepath
    clip
  } if
} def
%
% Gnuplot Prolog Version 5.1 (Oct 2015)
%
%/SuppressPDFMark true def
%
/M {moveto} bind def
/L {lineto} bind def
/R {rmoveto} bind def
/V {rlineto} bind def
/N {newpath moveto} bind def
/Z {closepath} bind def
/C {setrgbcolor} bind def
/f {rlineto fill} bind def
/g {setgray} bind def
/Gshow {show} def   % May be redefined later in the file to support UTF-8
/vpt2 vpt 2 mul def
/hpt2 hpt 2 mul def
/Lshow {currentpoint stroke M 0 vshift R 
	Blacktext {gsave 0 setgray textshow grestore} {textshow} ifelse} def
/Rshow {currentpoint stroke M dup stringwidth pop neg vshift R
	Blacktext {gsave 0 setgray textshow grestore} {textshow} ifelse} def
/Cshow {currentpoint stroke M dup stringwidth pop -2 div vshift R 
	Blacktext {gsave 0 setgray textshow grestore} {textshow} ifelse} def
/UP {dup vpt_ mul /vpt exch def hpt_ mul /hpt exch def
  /hpt2 hpt 2 mul def /vpt2 vpt 2 mul def} def
/DL {Color {setrgbcolor Solid {pop []} if 0 setdash}
 {pop pop pop 0 setgray Solid {pop []} if 0 setdash} ifelse} def
/BL {stroke userlinewidth 2 mul setlinewidth
	Rounded {1 setlinejoin 1 setlinecap} if} def
/AL {stroke userlinewidth 2 div setlinewidth
	Rounded {1 setlinejoin 1 setlinecap} if} def
/UL {dup gnulinewidth mul /userlinewidth exch def
	dup 1 lt {pop 1} if 10 mul /udl exch def} def
/PL {stroke userlinewidth setlinewidth
	Rounded {1 setlinejoin 1 setlinecap} if} def
3.8 setmiterlimit
% Classic Line colors (version 5.0)
/LCw {1 1 1} def
/LCb {0 0 0} def
/LCa {0 0 0} def
/LC0 {1 0 0} def
/LC1 {0 1 0} def
/LC2 {0 0 1} def
/LC3 {1 0 1} def
/LC4 {0 1 1} def
/LC5 {1 1 0} def
/LC6 {0 0 0} def
/LC7 {1 0.3 0} def
/LC8 {0.5 0.5 0.5} def
% Default dash patterns (version 5.0)
/LTB {BL [] LCb DL} def
/LTw {PL [] 1 setgray} def
/LTb {PL [] LCb DL} def
/LTa {AL [1 udl mul 2 udl mul] 0 setdash LCa setrgbcolor} def
/LT0 {PL [] LC0 DL} def
/LT1 {PL [2 dl1 3 dl2] LC1 DL} def
/LT2 {PL [1 dl1 1.5 dl2] LC2 DL} def
/LT3 {PL [6 dl1 2 dl2 1 dl1 2 dl2] LC3 DL} def
/LT4 {PL [1 dl1 2 dl2 6 dl1 2 dl2 1 dl1 2 dl2] LC4 DL} def
/LT5 {PL [4 dl1 2 dl2] LC5 DL} def
/LT6 {PL [1.5 dl1 1.5 dl2 1.5 dl1 1.5 dl2 1.5 dl1 6 dl2] LC6 DL} def
/LT7 {PL [3 dl1 3 dl2 1 dl1 3 dl2] LC7 DL} def
/LT8 {PL [2 dl1 2 dl2 2 dl1 6 dl2] LC8 DL} def
/SL {[] 0 setdash} def
/Pnt {stroke [] 0 setdash gsave 1 setlinecap M 0 0 V stroke grestore} def
/Dia {stroke [] 0 setdash 2 copy vpt add M
  hpt neg vpt neg V hpt vpt neg V
  hpt vpt V hpt neg vpt V closepath stroke
  Pnt} def
/Pls {stroke [] 0 setdash vpt sub M 0 vpt2 V
  currentpoint stroke M
  hpt neg vpt neg R hpt2 0 V stroke
 } def
/Box {stroke [] 0 setdash 2 copy exch hpt sub exch vpt add M
  0 vpt2 neg V hpt2 0 V 0 vpt2 V
  hpt2 neg 0 V closepath stroke
  Pnt} def
/Crs {stroke [] 0 setdash exch hpt sub exch vpt add M
  hpt2 vpt2 neg V currentpoint stroke M
  hpt2 neg 0 R hpt2 vpt2 V stroke} def
/TriU {stroke [] 0 setdash 2 copy vpt 1.12 mul add M
  hpt neg vpt -1.62 mul V
  hpt 2 mul 0 V
  hpt neg vpt 1.62 mul V closepath stroke
  Pnt} def
/Star {2 copy Pls Crs} def
/BoxF {stroke [] 0 setdash exch hpt sub exch vpt add M
  0 vpt2 neg V hpt2 0 V 0 vpt2 V
  hpt2 neg 0 V closepath fill} def
/TriUF {stroke [] 0 setdash vpt 1.12 mul add M
  hpt neg vpt -1.62 mul V
  hpt 2 mul 0 V
  hpt neg vpt 1.62 mul V closepath fill} def
/TriD {stroke [] 0 setdash 2 copy vpt 1.12 mul sub M
  hpt neg vpt 1.62 mul V
  hpt 2 mul 0 V
  hpt neg vpt -1.62 mul V closepath stroke
  Pnt} def
/TriDF {stroke [] 0 setdash vpt 1.12 mul sub M
  hpt neg vpt 1.62 mul V
  hpt 2 mul 0 V
  hpt neg vpt -1.62 mul V closepath fill} def
/DiaF {stroke [] 0 setdash vpt add M
  hpt neg vpt neg V hpt vpt neg V
  hpt vpt V hpt neg vpt V closepath fill} def
/Pent {stroke [] 0 setdash 2 copy gsave
  translate 0 hpt M 4 {72 rotate 0 hpt L} repeat
  closepath stroke grestore Pnt} def
/PentF {stroke [] 0 setdash gsave
  translate 0 hpt M 4 {72 rotate 0 hpt L} repeat
  closepath fill grestore} def
/Circle {stroke [] 0 setdash 2 copy
  hpt 0 360 arc stroke Pnt} def
/CircleF {stroke [] 0 setdash hpt 0 360 arc fill} def
/C0 {BL [] 0 setdash 2 copy moveto vpt 90 450 arc} bind def
/C1 {BL [] 0 setdash 2 copy moveto
	2 copy vpt 0 90 arc closepath fill
	vpt 0 360 arc closepath} bind def
/C2 {BL [] 0 setdash 2 copy moveto
	2 copy vpt 90 180 arc closepath fill
	vpt 0 360 arc closepath} bind def
/C3 {BL [] 0 setdash 2 copy moveto
	2 copy vpt 0 180 arc closepath fill
	vpt 0 360 arc closepath} bind def
/C4 {BL [] 0 setdash 2 copy moveto
	2 copy vpt 180 270 arc closepath fill
	vpt 0 360 arc closepath} bind def
/C5 {BL [] 0 setdash 2 copy moveto
	2 copy vpt 0 90 arc
	2 copy moveto
	2 copy vpt 180 270 arc closepath fill
	vpt 0 360 arc} bind def
/C6 {BL [] 0 setdash 2 copy moveto
	2 copy vpt 90 270 arc closepath fill
	vpt 0 360 arc closepath} bind def
/C7 {BL [] 0 setdash 2 copy moveto
	2 copy vpt 0 270 arc closepath fill
	vpt 0 360 arc closepath} bind def
/C8 {BL [] 0 setdash 2 copy moveto
	2 copy vpt 270 360 arc closepath fill
	vpt 0 360 arc closepath} bind def
/C9 {BL [] 0 setdash 2 copy moveto
	2 copy vpt 270 450 arc closepath fill
	vpt 0 360 arc closepath} bind def
/C10 {BL [] 0 setdash 2 copy 2 copy moveto vpt 270 360 arc closepath fill
	2 copy moveto
	2 copy vpt 90 180 arc closepath fill
	vpt 0 360 arc closepath} bind def
/C11 {BL [] 0 setdash 2 copy moveto
	2 copy vpt 0 180 arc closepath fill
	2 copy moveto
	2 copy vpt 270 360 arc closepath fill
	vpt 0 360 arc closepath} bind def
/C12 {BL [] 0 setdash 2 copy moveto
	2 copy vpt 180 360 arc closepath fill
	vpt 0 360 arc closepath} bind def
/C13 {BL [] 0 setdash 2 copy moveto
	2 copy vpt 0 90 arc closepath fill
	2 copy moveto
	2 copy vpt 180 360 arc closepath fill
	vpt 0 360 arc closepath} bind def
/C14 {BL [] 0 setdash 2 copy moveto
	2 copy vpt 90 360 arc closepath fill
	vpt 0 360 arc} bind def
/C15 {BL [] 0 setdash 2 copy vpt 0 360 arc closepath fill
	vpt 0 360 arc closepath} bind def
/Rec {newpath 4 2 roll moveto 1 index 0 rlineto 0 exch rlineto
	neg 0 rlineto closepath} bind def
/Square {dup Rec} bind def
/Bsquare {vpt sub exch vpt sub exch vpt2 Square} bind def
/S0 {BL [] 0 setdash 2 copy moveto 0 vpt rlineto BL Bsquare} bind def
/S1 {BL [] 0 setdash 2 copy vpt Square fill Bsquare} bind def
/S2 {BL [] 0 setdash 2 copy exch vpt sub exch vpt Square fill Bsquare} bind def
/S3 {BL [] 0 setdash 2 copy exch vpt sub exch vpt2 vpt Rec fill Bsquare} bind def
/S4 {BL [] 0 setdash 2 copy exch vpt sub exch vpt sub vpt Square fill Bsquare} bind def
/S5 {BL [] 0 setdash 2 copy 2 copy vpt Square fill
	exch vpt sub exch vpt sub vpt Square fill Bsquare} bind def
/S6 {BL [] 0 setdash 2 copy exch vpt sub exch vpt sub vpt vpt2 Rec fill Bsquare} bind def
/S7 {BL [] 0 setdash 2 copy exch vpt sub exch vpt sub vpt vpt2 Rec fill
	2 copy vpt Square fill Bsquare} bind def
/S8 {BL [] 0 setdash 2 copy vpt sub vpt Square fill Bsquare} bind def
/S9 {BL [] 0 setdash 2 copy vpt sub vpt vpt2 Rec fill Bsquare} bind def
/S10 {BL [] 0 setdash 2 copy vpt sub vpt Square fill 2 copy exch vpt sub exch vpt Square fill
	Bsquare} bind def
/S11 {BL [] 0 setdash 2 copy vpt sub vpt Square fill 2 copy exch vpt sub exch vpt2 vpt Rec fill
	Bsquare} bind def
/S12 {BL [] 0 setdash 2 copy exch vpt sub exch vpt sub vpt2 vpt Rec fill Bsquare} bind def
/S13 {BL [] 0 setdash 2 copy exch vpt sub exch vpt sub vpt2 vpt Rec fill
	2 copy vpt Square fill Bsquare} bind def
/S14 {BL [] 0 setdash 2 copy exch vpt sub exch vpt sub vpt2 vpt Rec fill
	2 copy exch vpt sub exch vpt Square fill Bsquare} bind def
/S15 {BL [] 0 setdash 2 copy Bsquare fill Bsquare} bind def
/D0 {gsave translate 45 rotate 0 0 S0 stroke grestore} bind def
/D1 {gsave translate 45 rotate 0 0 S1 stroke grestore} bind def
/D2 {gsave translate 45 rotate 0 0 S2 stroke grestore} bind def
/D3 {gsave translate 45 rotate 0 0 S3 stroke grestore} bind def
/D4 {gsave translate 45 rotate 0 0 S4 stroke grestore} bind def
/D5 {gsave translate 45 rotate 0 0 S5 stroke grestore} bind def
/D6 {gsave translate 45 rotate 0 0 S6 stroke grestore} bind def
/D7 {gsave translate 45 rotate 0 0 S7 stroke grestore} bind def
/D8 {gsave translate 45 rotate 0 0 S8 stroke grestore} bind def
/D9 {gsave translate 45 rotate 0 0 S9 stroke grestore} bind def
/D10 {gsave translate 45 rotate 0 0 S10 stroke grestore} bind def
/D11 {gsave translate 45 rotate 0 0 S11 stroke grestore} bind def
/D12 {gsave translate 45 rotate 0 0 S12 stroke grestore} bind def
/D13 {gsave translate 45 rotate 0 0 S13 stroke grestore} bind def
/D14 {gsave translate 45 rotate 0 0 S14 stroke grestore} bind def
/D15 {gsave translate 45 rotate 0 0 S15 stroke grestore} bind def
/DiaE {stroke [] 0 setdash vpt add M
  hpt neg vpt neg V hpt vpt neg V
  hpt vpt V hpt neg vpt V closepath stroke} def
/BoxE {stroke [] 0 setdash exch hpt sub exch vpt add M
  0 vpt2 neg V hpt2 0 V 0 vpt2 V
  hpt2 neg 0 V closepath stroke} def
/TriUE {stroke [] 0 setdash vpt 1.12 mul add M
  hpt neg vpt -1.62 mul V
  hpt 2 mul 0 V
  hpt neg vpt 1.62 mul V closepath stroke} def
/TriDE {stroke [] 0 setdash vpt 1.12 mul sub M
  hpt neg vpt 1.62 mul V
  hpt 2 mul 0 V
  hpt neg vpt -1.62 mul V closepath stroke} def
/PentE {stroke [] 0 setdash gsave
  translate 0 hpt M 4 {72 rotate 0 hpt L} repeat
  closepath stroke grestore} def
/CircE {stroke [] 0 setdash 
  hpt 0 360 arc stroke} def
/Opaque {gsave closepath 1 setgray fill grestore 0 setgray closepath} def
/DiaW {stroke [] 0 setdash vpt add M
  hpt neg vpt neg V hpt vpt neg V
  hpt vpt V hpt neg vpt V Opaque stroke} def
/BoxW {stroke [] 0 setdash exch hpt sub exch vpt add M
  0 vpt2 neg V hpt2 0 V 0 vpt2 V
  hpt2 neg 0 V Opaque stroke} def
/TriUW {stroke [] 0 setdash vpt 1.12 mul add M
  hpt neg vpt -1.62 mul V
  hpt 2 mul 0 V
  hpt neg vpt 1.62 mul V Opaque stroke} def
/TriDW {stroke [] 0 setdash vpt 1.12 mul sub M
  hpt neg vpt 1.62 mul V
  hpt 2 mul 0 V
  hpt neg vpt -1.62 mul V Opaque stroke} def
/PentW {stroke [] 0 setdash gsave
  translate 0 hpt M 4 {72 rotate 0 hpt L} repeat
  Opaque stroke grestore} def
/CircW {stroke [] 0 setdash 
  hpt 0 360 arc Opaque stroke} def
/BoxFill {gsave Rec 1 setgray fill grestore} def
/Density {
  /Fillden exch def
  currentrgbcolor
  /ColB exch def /ColG exch def /ColR exch def
  /ColR ColR Fillden mul Fillden sub 1 add def
  /ColG ColG Fillden mul Fillden sub 1 add def
  /ColB ColB Fillden mul Fillden sub 1 add def
  ColR ColG ColB setrgbcolor} def
/BoxColFill {gsave Rec PolyFill} def
/PolyFill {gsave Density fill grestore grestore} def
/h {rlineto rlineto rlineto gsave closepath fill grestore} bind def
%
% PostScript Level 1 Pattern Fill routine for rectangles
% Usage: x y w h s a XX PatternFill
%	x,y = lower left corner of box to be filled
%	w,h = width and height of box
%	  a = angle in degrees between lines and x-axis
%	 XX = 0/1 for no/yes cross-hatch
%
/PatternFill {gsave /PFa [ 9 2 roll ] def
  PFa 0 get PFa 2 get 2 div add PFa 1 get PFa 3 get 2 div add translate
  PFa 2 get -2 div PFa 3 get -2 div PFa 2 get PFa 3 get Rec
  TransparentPatterns {} {gsave 1 setgray fill grestore} ifelse
  clip
  currentlinewidth 0.5 mul setlinewidth
  /PFs PFa 2 get dup mul PFa 3 get dup mul add sqrt def
  0 0 M PFa 5 get rotate PFs -2 div dup translate
  0 1 PFs PFa 4 get div 1 add floor cvi
	{PFa 4 get mul 0 M 0 PFs V} for
  0 PFa 6 get ne {
	0 1 PFs PFa 4 get div 1 add floor cvi
	{PFa 4 get mul 0 2 1 roll M PFs 0 V} for
 } if
  stroke grestore} def
%
/languagelevel where
 {pop languagelevel} {1} ifelse
dup 2 lt
	{/InterpretLevel1 true def
	 /InterpretLevel3 false def}
	{/InterpretLevel1 Level1 def
	 2 gt
	    {/InterpretLevel3 Level3 def}
	    {/InterpretLevel3 false def}
	 ifelse }
 ifelse
%
% PostScript level 2 pattern fill definitions
%
/Level2PatternFill {
/Tile8x8 {/PaintType 2 /PatternType 1 /TilingType 1 /BBox [0 0 8 8] /XStep 8 /YStep 8}
	bind def
/KeepColor {currentrgbcolor [/Pattern /DeviceRGB] setcolorspace} bind def
<< Tile8x8
 /PaintProc {0.5 setlinewidth pop 0 0 M 8 8 L 0 8 M 8 0 L stroke} 
>> matrix makepattern
/Pat1 exch def
<< Tile8x8
 /PaintProc {0.5 setlinewidth pop 0 0 M 8 8 L 0 8 M 8 0 L stroke
	0 4 M 4 8 L 8 4 L 4 0 L 0 4 L stroke}
>> matrix makepattern
/Pat2 exch def
<< Tile8x8
 /PaintProc {0.5 setlinewidth pop 0 0 M 0 8 L
	8 8 L 8 0 L 0 0 L fill}
>> matrix makepattern
/Pat3 exch def
<< Tile8x8
 /PaintProc {0.5 setlinewidth pop -4 8 M 8 -4 L
	0 12 M 12 0 L stroke}
>> matrix makepattern
/Pat4 exch def
<< Tile8x8
 /PaintProc {0.5 setlinewidth pop -4 0 M 8 12 L
	0 -4 M 12 8 L stroke}
>> matrix makepattern
/Pat5 exch def
<< Tile8x8
 /PaintProc {0.5 setlinewidth pop -2 8 M 4 -4 L
	0 12 M 8 -4 L 4 12 M 10 0 L stroke}
>> matrix makepattern
/Pat6 exch def
<< Tile8x8
 /PaintProc {0.5 setlinewidth pop -2 0 M 4 12 L
	0 -4 M 8 12 L 4 -4 M 10 8 L stroke}
>> matrix makepattern
/Pat7 exch def
<< Tile8x8
 /PaintProc {0.5 setlinewidth pop 8 -2 M -4 4 L
	12 0 M -4 8 L 12 4 M 0 10 L stroke}
>> matrix makepattern
/Pat8 exch def
<< Tile8x8
 /PaintProc {0.5 setlinewidth pop 0 -2 M 12 4 L
	-4 0 M 12 8 L -4 4 M 8 10 L stroke}
>> matrix makepattern
/Pat9 exch def
/Pattern1 {PatternBgnd KeepColor Pat1 setpattern} bind def
/Pattern2 {PatternBgnd KeepColor Pat2 setpattern} bind def
/Pattern3 {PatternBgnd KeepColor Pat3 setpattern} bind def
/Pattern4 {PatternBgnd KeepColor Landscape {Pat5} {Pat4} ifelse setpattern} bind def
/Pattern5 {PatternBgnd KeepColor Landscape {Pat4} {Pat5} ifelse setpattern} bind def
/Pattern6 {PatternBgnd KeepColor Landscape {Pat9} {Pat6} ifelse setpattern} bind def
/Pattern7 {PatternBgnd KeepColor Landscape {Pat8} {Pat7} ifelse setpattern} bind def
} def
%
%
%End of PostScript Level 2 code
%
/PatternBgnd {
  TransparentPatterns {} {gsave 1 setgray fill grestore} ifelse
} def
%
% Substitute for Level 2 pattern fill codes with
% grayscale if Level 2 support is not selected.
%
/Level1PatternFill {
/Pattern1 {0.250 Density} bind def
/Pattern2 {0.500 Density} bind def
/Pattern3 {0.750 Density} bind def
/Pattern4 {0.125 Density} bind def
/Pattern5 {0.375 Density} bind def
/Pattern6 {0.625 Density} bind def
/Pattern7 {0.875 Density} bind def
} def
%
% Now test for support of Level 2 code
%
Level1 {Level1PatternFill} {Level2PatternFill} ifelse
%
/Symbol-Oblique /Symbol findfont [1 0 .167 1 0 0] makefont
dup length dict begin {1 index /FID eq {pop pop} {def} ifelse} forall
currentdict end definefont pop
%
/MFshow {
   { dup 5 get 3 ge
     { 5 get 3 eq {gsave} {grestore} ifelse }
     {dup dup 0 get findfont exch 1 get scalefont setfont
     [ currentpoint ] exch dup 2 get 0 exch R dup 5 get 2 ne {dup dup 6
     get exch 4 get {textshow} {stringwidth pop 0 R} ifelse }if dup 5 get 0 eq
     {dup 3 get {2 get neg 0 exch R pop} {pop aload pop M} ifelse} {dup 5
     get 1 eq {dup 2 get exch dup 3 get exch 6 get stringwidth pop -2 div
     dup 0 R} {dup 6 get stringwidth pop -2 div 0 R 6 get
     textshow 2 index {aload pop M neg 3 -1 roll neg R pop pop} {pop pop pop
     pop aload pop M} ifelse }ifelse }ifelse }
     ifelse }
   forall} def
/Gswidth {dup type /stringtype eq {stringwidth} {pop (n) stringwidth} ifelse} def
/MFwidth {0 exch { dup 5 get 3 ge { 5 get 3 eq { 0 } { pop } ifelse }
 {dup 3 get{dup dup 0 get findfont exch 1 get scalefont setfont
     6 get Gswidth pop add} {pop} ifelse} ifelse} forall} def
/MLshow { currentpoint stroke M
  0 exch R
  Blacktext {gsave 0 setgray MFshow grestore} {MFshow} ifelse } bind def
/MRshow { currentpoint stroke M
  exch dup MFwidth neg 3 -1 roll R
  Blacktext {gsave 0 setgray MFshow grestore} {MFshow} ifelse } bind def
/MCshow { currentpoint stroke M
  exch dup MFwidth -2 div 3 -1 roll R
  Blacktext {gsave 0 setgray MFshow grestore} {MFshow} ifelse } bind def
/XYsave    { [( ) 1 2 true false 3 ()] } bind def
/XYrestore { [( ) 1 2 true false 4 ()] } bind def
Level1 SuppressPDFMark or 
{} {
/SDict 10 dict def
systemdict /pdfmark known not {
  userdict /pdfmark systemdict /cleartomark get put
} if
SDict begin [
  /Title (lr_SNM.eps)
  /Subject (gnuplot plot)
  /Creator (gnuplot 5.0 patchlevel 3)
  /Author (kb2)
%  /Producer (gnuplot)
%  /Keywords ()
  /CreationDate (Fri Jun 23 22:51:41 2017)
  /DOCINFO pdfmark
end
} ifelse
%
% Support for boxed text - Ethan A Merritt May 2005
%
/InitTextBox { userdict /TBy2 3 -1 roll put userdict /TBx2 3 -1 roll put
           userdict /TBy1 3 -1 roll put userdict /TBx1 3 -1 roll put
	   /Boxing true def } def
/ExtendTextBox { Boxing
    { gsave dup false charpath pathbbox
      dup TBy2 gt {userdict /TBy2 3 -1 roll put} {pop} ifelse
      dup TBx2 gt {userdict /TBx2 3 -1 roll put} {pop} ifelse
      dup TBy1 lt {userdict /TBy1 3 -1 roll put} {pop} ifelse
      dup TBx1 lt {userdict /TBx1 3 -1 roll put} {pop} ifelse
      grestore } if } def
/PopTextBox { newpath TBx1 TBxmargin sub TBy1 TBymargin sub M
               TBx1 TBxmargin sub TBy2 TBymargin add L
	       TBx2 TBxmargin add TBy2 TBymargin add L
	       TBx2 TBxmargin add TBy1 TBymargin sub L closepath } def
/DrawTextBox { PopTextBox stroke /Boxing false def} def
/FillTextBox { gsave PopTextBox 1 1 1 setrgbcolor fill grestore /Boxing false def} def
0 0 0 0 InitTextBox
/TBxmargin 20 def
/TBymargin 20 def
/Boxing false def
/textshow { ExtendTextBox Gshow } def
%
% redundant definitions for compatibility with prologue.ps older than 5.0.2
/LTB {BL [] LCb DL} def
/LTb {PL [] LCb DL} def
end
%%EndProlog
%%Page: 1 1
gnudict begin
gsave
doclip
50 50 translate
0.050 0.050 scale
0 setgray
newpath
(Helvetica) findfont 180 scalefont setfont
BackgroundColor 0 lt 3 1 roll 0 lt exch 0 lt or or not {BackgroundColor C 1.000 0 0 7200.00 5040.00 BoxColFill} if
1.000 UL
LTb
0.50 0.50 0.50 C 1.000 UL
LTa
0.50 0.50 0.50 C 882 756 M
5993 0 V
stroke
LTb
0.50 0.50 0.50 C 882 756 M
63 0 V
5930 0 R
-63 0 V
stroke
774 756 M
[ [(Helvetica) 180.0 0.0 true true 0 ( 0)]
] -60.0 MRshow
1.000 UL
LTb
0.50 0.50 0.50 C 1.000 UL
LTa
0.50 0.50 0.50 C 882 1569 M
4535 0 V
stroke
LTb
0.50 0.50 0.50 C 882 1569 M
63 0 V
5930 0 R
-63 0 V
stroke
774 1569 M
[ [(Helvetica) 180.0 0.0 true true 0 ( 0.1)]
] -60.0 MRshow
1.000 UL
LTb
0.50 0.50 0.50 C 1.000 UL
LTa
0.50 0.50 0.50 C 882 2383 M
5993 0 V
stroke
LTb
0.50 0.50 0.50 C 882 2383 M
63 0 V
5930 0 R
-63 0 V
stroke
774 2383 M
[ [(Helvetica) 180.0 0.0 true true 0 ( 0.2)]
] -60.0 MRshow
1.000 UL
LTb
0.50 0.50 0.50 C 1.000 UL
LTa
0.50 0.50 0.50 C 882 3196 M
5993 0 V
stroke
LTb
0.50 0.50 0.50 C 882 3196 M
63 0 V
5930 0 R
-63 0 V
stroke
774 3196 M
[ [(Helvetica) 180.0 0.0 true true 0 ( 0.3)]
] -60.0 MRshow
1.000 UL
LTb
0.50 0.50 0.50 C 1.000 UL
LTa
0.50 0.50 0.50 C 882 4010 M
5993 0 V
stroke
LTb
0.50 0.50 0.50 C 882 4010 M
63 0 V
5930 0 R
-63 0 V
stroke
774 4010 M
[ [(Helvetica) 180.0 0.0 true true 0 ( 0.4)]
] -60.0 MRshow
1.000 UL
LTb
0.50 0.50 0.50 C 1.000 UL
LTa
0.50 0.50 0.50 C 882 4823 M
5993 0 V
stroke
LTb
0.50 0.50 0.50 C 882 4823 M
63 0 V
5930 0 R
-63 0 V
stroke
774 4823 M
[ [(Helvetica) 180.0 0.0 true true 0 ( 0.5)]
] -60.0 MRshow
1.000 UL
LTb
0.50 0.50 0.50 C 1.000 UL
LTa
0.50 0.50 0.50 C 882 756 M
0 4067 V
stroke
LTb
0.50 0.50 0.50 C 882 756 M
0 63 V
0 4004 R
0 -63 V
stroke
882 576 M
[ [(Helvetica) 180.0 0.0 true true 0 ( 0)]
] -60.0 MCshow
1.000 UL
LTb
0.50 0.50 0.50 C 1.000 UL
LTa
0.50 0.50 0.50 C 1548 756 M
0 4067 V
stroke
LTb
0.50 0.50 0.50 C 1548 756 M
0 63 V
0 4004 R
0 -63 V
stroke
1548 576 M
[ [(Helvetica) 180.0 0.0 true true 0 ( 1)]
] -60.0 MCshow
1.000 UL
LTb
0.50 0.50 0.50 C 1.000 UL
LTa
0.50 0.50 0.50 C 2214 756 M
0 4067 V
stroke
LTb
0.50 0.50 0.50 C 2214 756 M
0 63 V
0 4004 R
0 -63 V
stroke
2214 576 M
[ [(Helvetica) 180.0 0.0 true true 0 ( 2)]
] -60.0 MCshow
1.000 UL
LTb
0.50 0.50 0.50 C 1.000 UL
LTa
0.50 0.50 0.50 C 2880 756 M
0 4067 V
stroke
LTb
0.50 0.50 0.50 C 2880 756 M
0 63 V
0 4004 R
0 -63 V
stroke
2880 576 M
[ [(Helvetica) 180.0 0.0 true true 0 ( 3)]
] -60.0 MCshow
1.000 UL
LTb
0.50 0.50 0.50 C 1.000 UL
LTa
0.50 0.50 0.50 C 3546 756 M
0 4067 V
stroke
LTb
0.50 0.50 0.50 C 3546 756 M
0 63 V
0 4004 R
0 -63 V
stroke
3546 576 M
[ [(Helvetica) 180.0 0.0 true true 0 ( 4)]
] -60.0 MCshow
1.000 UL
LTb
0.50 0.50 0.50 C 1.000 UL
LTa
0.50 0.50 0.50 C 4211 756 M
0 4067 V
stroke
LTb
0.50 0.50 0.50 C 4211 756 M
0 63 V
0 4004 R
0 -63 V
stroke
4211 576 M
[ [(Helvetica) 180.0 0.0 true true 0 ( 5)]
] -60.0 MCshow
1.000 UL
LTb
0.50 0.50 0.50 C 1.000 UL
LTa
0.50 0.50 0.50 C 4877 756 M
0 4067 V
stroke
LTb
0.50 0.50 0.50 C 4877 756 M
0 63 V
0 4004 R
0 -63 V
stroke
4877 576 M
[ [(Helvetica) 180.0 0.0 true true 0 ( 6)]
] -60.0 MCshow
1.000 UL
LTb
0.50 0.50 0.50 C 1.000 UL
LTa
0.50 0.50 0.50 C 5543 756 M
0 157 V
0 900 R
0 3010 V
stroke
LTb
0.50 0.50 0.50 C 5543 756 M
0 63 V
0 4004 R
0 -63 V
stroke
5543 576 M
[ [(Helvetica) 180.0 0.0 true true 0 ( 7)]
] -60.0 MCshow
1.000 UL
LTb
0.50 0.50 0.50 C 1.000 UL
LTa
0.50 0.50 0.50 C 6209 756 M
0 157 V
0 900 R
0 3010 V
stroke
LTb
0.50 0.50 0.50 C 6209 756 M
0 63 V
0 4004 R
0 -63 V
stroke
6209 576 M
[ [(Helvetica) 180.0 0.0 true true 0 ( 8)]
] -60.0 MCshow
1.000 UL
LTb
0.50 0.50 0.50 C 1.000 UL
LTa
0.50 0.50 0.50 C 6875 756 M
0 4067 V
stroke
LTb
0.50 0.50 0.50 C 6875 756 M
0 63 V
0 4004 R
0 -63 V
stroke
6875 576 M
[ [(Helvetica) 180.0 0.0 true true 0 ( 9)]
] -60.0 MCshow
1.000 UL
LTb
0.50 0.50 0.50 C 1.000 UL
LTB
0.50 0.50 0.50 C 882 4823 M
882 756 L
5993 0 V
0 4067 R
-5993 0 R
stroke
LTb
1.00 1.00 1.00 C 1.000 5831 4236 756 360 BoxColFill
LCb setrgbcolor
5831 4236 N
0 360 V
756 0 V
0 -360 V
-756 0 V
Z stroke
1.000 UP
LCb setrgbcolor
416 2057 M
[ [(Symbol) 180.0 0.0 true true 0 (r)]
[(Helvetica) 144.0 -54.0 true true 0 (sat)]
] -42.0 MLshow
LCb setrgbcolor
416 2627 M
[ [(Symbol) 180.0 0.0 true true 0 (r)]
[(Helvetica) 144.0 -54.0 true true 0 (crit)]
] -42.0 MLshow
1.000 UL
LTb
0.50 0.50 0.50 C LCb setrgbcolor
144 2789 M
currentpoint gsave translate -270 rotate 0 0 moveto
[ [(Symbol) 180.0 0.0 true true 0 (r)]
[(Helvetica) 180.0 0.0 true true 0 ( [fm)]
[(Helvetica) 144.0 90.0 true true 0 (-3)]
[(Helvetica) 180.0 0.0 true true 0 (])]
] -78.0 MCshow
grestore
LTb
LCb setrgbcolor
3878 306 M
[ [(Helvetica) 180.0 0.0 true true 0 (q [fm)]
[(Helvetica) 144.0 90.0 true true 0 (-1)]
[(Helvetica) 180.0 0.0 true true 0 (])]
] -78.0 MCshow
LTb
% Begin plot #1
2.000 UP
1.000 UL
LTb
0.91 0.59 0.48 C LCb setrgbcolor
6272 1738 M
[ [(Helvetica) 150.0 0.0 true true 0 (Canal S=0 M=0 I=0)]
] -50.0 MRshow
2.000 UP
1.000 UL
LTb
0.91 0.59 0.48 C 6573 1738 CircleF
% End plot #1
% Begin plot #2
0.250 UP
1.000 UL
LTb
0.91 0.59 0.48 C 889 1590 Circle
895 1590 Circle
902 1590 Circle
909 1590 Circle
915 1590 Circle
922 1589 Circle
929 1589 Circle
935 1589 Circle
942 1588 Circle
949 1588 Circle
955 1587 Circle
962 1587 Circle
969 1586 Circle
975 1585 Circle
982 1585 Circle
989 1584 Circle
995 1583 Circle
1002 1582 Circle
1009 1581 Circle
1015 1580 Circle
1022 1579 Circle
1028 1578 Circle
1035 1577 Circle
1042 1576 Circle
1048 1574 Circle
1055 1573 Circle
1062 1572 Circle
1068 1570 Circle
1075 1569 Circle
1082 1567 Circle
1088 1565 Circle
1095 1564 Circle
1102 1562 Circle
1108 1560 Circle
1115 1558 Circle
1122 1557 Circle
1128 1555 Circle
1135 1553 Circle
1142 1551 Circle
1148 1548 Circle
1155 1546 Circle
1162 1544 Circle
1168 1542 Circle
1175 1540 Circle
1182 1537 Circle
1188 1535 Circle
1195 1532 Circle
1202 1530 Circle
1208 1527 Circle
1215 1524 Circle
1222 1522 Circle
1228 1519 Circle
1235 1516 Circle
1242 1513 Circle
1248 1510 Circle
1255 1507 Circle
1262 1504 Circle
1268 1501 Circle
1275 1497 Circle
1282 1494 Circle
1288 1491 Circle
1295 1487 Circle
1302 1484 Circle
1308 1480 Circle
1315 1477 Circle
1321 1473 Circle
1328 1469 Circle
1335 1465 Circle
1341 1461 Circle
1348 1457 Circle
1355 1453 Circle
1361 1449 Circle
1368 1445 Circle
1375 1441 Circle
1381 1437 Circle
1388 1432 Circle
1395 1428 Circle
1401 1423 Circle
1408 1419 Circle
1415 1414 Circle
1421 1409 Circle
1428 1404 Circle
1435 1399 Circle
1441 1394 Circle
1448 1389 Circle
1455 1384 Circle
1461 1379 Circle
1468 1373 Circle
1475 1368 Circle
1481 1362 Circle
1488 1357 Circle
1495 1351 Circle
1501 1345 Circle
1508 1339 Circle
1515 1334 Circle
1521 1327 Circle
1528 1321 Circle
1535 1315 Circle
1541 1309 Circle
1548 1302 Circle
1555 1295 Circle
1561 1289 Circle
1568 1282 Circle
1575 1275 Circle
1581 1268 Circle
1588 1261 Circle
1595 1253 Circle
1601 1246 Circle
1608 1238 Circle
1614 1230 Circle
1621 1222 Circle
1628 1214 Circle
1634 1205 Circle
1641 1196 Circle
1648 1187 Circle
1654 1178 Circle
1661 1169 Circle
1668 1159 Circle
1674 1148 Circle
1681 1138 Circle
1688 1126 Circle
1694 1114 Circle
1701 1100 Circle
1708 1086 Circle
1714 1068 Circle
1721 1046 Circle
1428 798 Circle
1435 799 Circle
1441 801 Circle
1448 802 Circle
1455 804 Circle
1461 806 Circle
1468 807 Circle
1475 809 Circle
1481 811 Circle
1488 813 Circle
1495 815 Circle
1501 817 Circle
1508 819 Circle
1515 821 Circle
1521 823 Circle
1528 825 Circle
1535 827 Circle
1541 829 Circle
1548 832 Circle
1555 834 Circle
1561 837 Circle
1568 840 Circle
1575 842 Circle
1581 845 Circle
1588 848 Circle
1595 851 Circle
1601 854 Circle
1608 857 Circle
1614 861 Circle
1621 864 Circle
1628 868 Circle
1634 872 Circle
1641 876 Circle
1648 880 Circle
1654 885 Circle
1661 890 Circle
1668 895 Circle
1674 901 Circle
1681 907 Circle
1688 913 Circle
1694 921 Circle
1701 929 Circle
1708 939 Circle
1714 951 Circle
1721 969 Circle
% End plot #2
% Begin plot #3
2.000 UP
1.000 UL
LTb
0.55 0.00 0.00 C LCb setrgbcolor
6272 1588 M
[ [(Helvetica) 150.0 0.0 true true 0 (Canal S=0 M=0 I=1)]
] -50.0 MRshow
2.000 UP
1.000 UL
LTb
0.55 0.00 0.00 C 6573 1588 CircleF
% End plot #3
% Begin plot #4
0.250 UP
1.000 UL
LTb
0.55 0.00 0.00 C 2127 4803 Circle
2134 4767 Circle
2141 4731 Circle
2147 4695 Circle
2154 4660 Circle
2161 4625 Circle
2167 4591 Circle
2174 4556 Circle
2180 4522 Circle
2187 4489 Circle
2194 4455 Circle
2200 4423 Circle
2207 4390 Circle
2214 4358 Circle
2220 4326 Circle
2227 4294 Circle
2234 4263 Circle
2240 4232 Circle
2247 4202 Circle
2254 4172 Circle
2260 4142 Circle
2267 4112 Circle
2274 4083 Circle
2280 4054 Circle
2287 4026 Circle
2294 3997 Circle
2300 3970 Circle
2307 3942 Circle
2314 3915 Circle
2320 3888 Circle
2327 3861 Circle
2334 3835 Circle
2340 3809 Circle
2347 3784 Circle
2354 3759 Circle
2360 3734 Circle
2367 3709 Circle
2374 3685 Circle
2380 3661 Circle
2387 3637 Circle
2394 3614 Circle
2400 3591 Circle
2407 3568 Circle
2414 3546 Circle
2420 3524 Circle
2427 3502 Circle
2434 3481 Circle
2440 3460 Circle
2447 3439 Circle
2453 3419 Circle
2460 3399 Circle
2467 3379 Circle
2473 3360 Circle
2480 3340 Circle
2487 3322 Circle
2493 3303 Circle
2500 3285 Circle
2507 3267 Circle
2513 3249 Circle
2520 3232 Circle
2527 3215 Circle
2533 3199 Circle
2540 3182 Circle
2547 3166 Circle
2553 3151 Circle
2560 3135 Circle
2567 3120 Circle
2573 3105 Circle
2580 3091 Circle
2587 3077 Circle
2593 3063 Circle
2600 3050 Circle
2607 3037 Circle
2613 3024 Circle
2620 3011 Circle
2627 2999 Circle
2633 2987 Circle
2640 2976 Circle
2647 2965 Circle
2653 2954 Circle
2660 2943 Circle
2667 2933 Circle
2673 2923 Circle
2680 2913 Circle
2687 2904 Circle
2693 2895 Circle
2700 2887 Circle
2707 2879 Circle
2713 2871 Circle
2720 2863 Circle
2727 2856 Circle
2733 2849 Circle
2740 2843 Circle
2746 2837 Circle
2753 2831 Circle
2760 2826 Circle
2766 2821 Circle
2773 2816 Circle
2780 2812 Circle
2786 2808 Circle
2793 2805 Circle
2800 2801 Circle
2806 2799 Circle
2813 2796 Circle
2820 2794 Circle
2826 2793 Circle
2833 2792 Circle
2840 2791 Circle
2846 2791 Circle
2853 2791 Circle
2860 2792 Circle
2866 2793 Circle
2873 2794 Circle
2880 2796 Circle
2886 2798 Circle
2893 2801 Circle
2900 2804 Circle
2906 2808 Circle
2913 2813 Circle
2920 2817 Circle
2926 2823 Circle
2933 2829 Circle
2940 2835 Circle
2946 2843 Circle
2953 2851 Circle
2960 2860 Circle
2966 2870 Circle
2973 2882 Circle
2980 2894 Circle
2986 2904 Circle
2993 2914 Circle
3000 2923 Circle
3006 2932 Circle
3013 2940 Circle
3020 2948 Circle
3026 2956 Circle
3033 2963 Circle
3039 2971 Circle
3046 2978 Circle
3053 2985 Circle
3059 2992 Circle
3066 2999 Circle
3073 3005 Circle
3079 3012 Circle
3086 3018 Circle
3093 3024 Circle
3099 3031 Circle
3106 3037 Circle
3113 3043 Circle
3119 3049 Circle
3126 3054 Circle
3133 3060 Circle
3139 3066 Circle
3146 3071 Circle
3153 3077 Circle
3159 3082 Circle
3166 3087 Circle
3173 3093 Circle
3179 3098 Circle
3186 3103 Circle
3193 3108 Circle
3199 3113 Circle
3206 3118 Circle
3213 3123 Circle
3219 3128 Circle
3226 3133 Circle
3233 3137 Circle
3239 3142 Circle
3246 3147 Circle
3253 3151 Circle
3259 3156 Circle
3266 3160 Circle
3273 3165 Circle
3279 3169 Circle
3286 3174 Circle
3293 3178 Circle
3299 3183 Circle
3306 3187 Circle
3312 3191 Circle
3319 3195 Circle
3326 3200 Circle
3332 3204 Circle
3339 3208 Circle
3346 3212 Circle
3352 3216 Circle
3359 3220 Circle
3366 3224 Circle
3372 3228 Circle
3379 3232 Circle
3386 3236 Circle
3392 3240 Circle
3399 3244 Circle
3406 3248 Circle
3412 3251 Circle
3419 3255 Circle
3426 3259 Circle
3432 3263 Circle
3439 3266 Circle
3446 3270 Circle
3452 3274 Circle
3459 3277 Circle
3466 3281 Circle
3472 3284 Circle
3479 3288 Circle
3486 3292 Circle
3492 3295 Circle
3499 3299 Circle
3506 3302 Circle
3512 3306 Circle
3519 3309 Circle
3526 3312 Circle
3532 3316 Circle
3539 3319 Circle
3546 3323 Circle
3552 3326 Circle
3559 3329 Circle
3566 3332 Circle
3572 3336 Circle
3579 3339 Circle
3586 3342 Circle
3592 3345 Circle
3599 3349 Circle
3605 3352 Circle
3612 3355 Circle
3619 3358 Circle
3625 3361 Circle
3632 3364 Circle
3639 3368 Circle
3645 3371 Circle
3652 3374 Circle
3659 3377 Circle
3665 3380 Circle
3672 3383 Circle
3679 3386 Circle
3685 3389 Circle
3692 3392 Circle
3699 3395 Circle
3705 3398 Circle
3712 3401 Circle
3719 3404 Circle
3725 3406 Circle
3732 3409 Circle
3739 3412 Circle
3745 3415 Circle
3752 3418 Circle
3759 3421 Circle
3765 3424 Circle
3772 3426 Circle
3779 3429 Circle
3785 3432 Circle
3792 3435 Circle
3799 3438 Circle
3805 3440 Circle
3812 3443 Circle
3819 3446 Circle
3825 3448 Circle
3832 3451 Circle
3839 3454 Circle
3845 3456 Circle
3852 3459 Circle
3859 3462 Circle
3865 3464 Circle
3872 3467 Circle
3879 3470 Circle
3885 3472 Circle
3892 3475 Circle
3898 3477 Circle
3905 3480 Circle
3912 3483 Circle
3918 3485 Circle
3925 3488 Circle
3932 3490 Circle
3938 3493 Circle
3945 3495 Circle
3952 3498 Circle
3958 3500 Circle
3965 3503 Circle
3972 3505 Circle
3978 3507 Circle
3985 3510 Circle
3992 3512 Circle
3998 3515 Circle
4005 3517 Circle
4012 3520 Circle
4018 3522 Circle
4025 3524 Circle
4032 3527 Circle
4038 3529 Circle
4045 3531 Circle
4052 3534 Circle
4058 3536 Circle
4065 3538 Circle
4072 3541 Circle
4078 3543 Circle
4085 3545 Circle
4092 3548 Circle
4098 3550 Circle
4105 3552 Circle
4112 3554 Circle
4118 3557 Circle
4125 3559 Circle
4132 3561 Circle
4138 3563 Circle
4145 3566 Circle
4152 3568 Circle
4158 3570 Circle
4165 3572 Circle
4171 3574 Circle
4178 3576 Circle
4185 3579 Circle
4191 3581 Circle
4198 3583 Circle
4205 3585 Circle
4211 3587 Circle
4218 3589 Circle
4225 3591 Circle
4231 3594 Circle
4238 3596 Circle
4245 3598 Circle
4251 3600 Circle
4258 3602 Circle
4265 3604 Circle
4271 3606 Circle
4278 3608 Circle
4285 3610 Circle
4291 3612 Circle
4298 3614 Circle
4305 3616 Circle
4311 3618 Circle
4318 3620 Circle
4325 3622 Circle
4331 3624 Circle
4338 3626 Circle
4345 3628 Circle
4351 3630 Circle
4358 3632 Circle
4365 3634 Circle
4371 3636 Circle
4378 3638 Circle
4385 3640 Circle
4391 3642 Circle
4398 3644 Circle
4405 3646 Circle
4411 3647 Circle
4418 3649 Circle
4425 3651 Circle
4431 3653 Circle
4438 3655 Circle
4445 3657 Circle
4451 3659 Circle
4458 3661 Circle
4464 3663 Circle
4471 3664 Circle
4478 3666 Circle
4484 3668 Circle
4491 3670 Circle
4498 3672 Circle
4504 3673 Circle
4511 3675 Circle
4518 3677 Circle
4524 3679 Circle
4531 3681 Circle
4538 3682 Circle
4544 3684 Circle
4551 3686 Circle
4558 3688 Circle
4564 3689 Circle
4571 3691 Circle
4578 3693 Circle
4584 3695 Circle
4591 3696 Circle
4598 3698 Circle
4604 3700 Circle
4611 3702 Circle
4618 3703 Circle
4624 3705 Circle
4631 3707 Circle
4638 3708 Circle
4644 3710 Circle
4651 3712 Circle
4658 3713 Circle
4664 3715 Circle
4671 3717 Circle
4678 3718 Circle
4684 3720 Circle
4691 3722 Circle
4698 3723 Circle
4704 3725 Circle
4711 3727 Circle
4718 3728 Circle
4724 3730 Circle
4731 3731 Circle
4737 3733 Circle
4744 3735 Circle
4751 3736 Circle
4757 3738 Circle
4764 3739 Circle
4771 3741 Circle
4777 3743 Circle
4784 3744 Circle
4791 3746 Circle
4797 3747 Circle
4804 3749 Circle
4811 3750 Circle
4817 3752 Circle
4824 3753 Circle
4831 3755 Circle
4837 3757 Circle
4844 3758 Circle
4851 3760 Circle
4857 3761 Circle
4864 3763 Circle
4871 3764 Circle
4877 3766 Circle
4884 3767 Circle
4891 3769 Circle
4897 3770 Circle
4904 3772 Circle
4911 3773 Circle
4917 3775 Circle
4924 3776 Circle
4931 3777 Circle
4937 3779 Circle
4944 3780 Circle
4951 3782 Circle
4957 3783 Circle
4964 3785 Circle
4971 3786 Circle
4977 3788 Circle
4984 3789 Circle
4991 3790 Circle
4997 3792 Circle
5004 3793 Circle
5011 3795 Circle
5017 3796 Circle
5024 3797 Circle
5030 3799 Circle
5037 3800 Circle
5044 3802 Circle
5050 3803 Circle
5057 3804 Circle
5064 3806 Circle
5070 3807 Circle
5077 3808 Circle
5084 3810 Circle
5090 3811 Circle
5097 3812 Circle
5104 3814 Circle
5110 3815 Circle
5117 3816 Circle
5124 3818 Circle
5130 3819 Circle
5137 3820 Circle
5144 3822 Circle
5150 3823 Circle
5157 3824 Circle
5164 3826 Circle
5170 3827 Circle
5177 3828 Circle
5184 3830 Circle
5190 3831 Circle
5197 3832 Circle
5204 3833 Circle
5210 3835 Circle
5217 3836 Circle
5224 3837 Circle
5230 3839 Circle
5237 3840 Circle
5244 3841 Circle
5250 3842 Circle
5257 3844 Circle
5264 3845 Circle
5270 3846 Circle
5277 3847 Circle
5284 3849 Circle
5290 3850 Circle
5297 3851 Circle
5304 3852 Circle
5310 3853 Circle
5317 3855 Circle
5323 3856 Circle
5330 3857 Circle
5337 3858 Circle
5343 3859 Circle
5350 3861 Circle
5357 3862 Circle
5363 3863 Circle
5370 3864 Circle
5377 3865 Circle
5383 3867 Circle
5390 3868 Circle
5397 3869 Circle
5403 3870 Circle
5410 3871 Circle
5417 3872 Circle
5423 3874 Circle
5430 3875 Circle
5437 3876 Circle
5443 3877 Circle
5450 3878 Circle
5457 3879 Circle
5463 3880 Circle
5470 3882 Circle
5477 3883 Circle
5483 3884 Circle
5490 3885 Circle
5497 3886 Circle
5503 3887 Circle
5510 3888 Circle
5517 3889 Circle
5523 3891 Circle
5530 3892 Circle
5537 3893 Circle
5543 3894 Circle
5550 3895 Circle
5557 3896 Circle
5563 3897 Circle
5570 3898 Circle
5577 3899 Circle
5583 3900 Circle
5590 3901 Circle
5596 3903 Circle
5603 3904 Circle
5610 3905 Circle
5616 3906 Circle
5623 3907 Circle
5630 3908 Circle
5636 3909 Circle
5643 3910 Circle
5650 3911 Circle
5656 3912 Circle
5663 3913 Circle
5670 3914 Circle
5676 3915 Circle
5683 3916 Circle
5690 3917 Circle
5696 3918 Circle
5703 3919 Circle
5710 3920 Circle
5716 3921 Circle
5723 3922 Circle
5730 3923 Circle
5736 3924 Circle
5743 3925 Circle
5750 3926 Circle
5756 3927 Circle
5763 3928 Circle
5770 3929 Circle
5776 3930 Circle
5783 3931 Circle
5790 3932 Circle
5796 3933 Circle
5803 3934 Circle
5810 3935 Circle
5816 3936 Circle
5823 3937 Circle
5830 3938 Circle
5836 3939 Circle
5843 3940 Circle
5850 3941 Circle
5856 3942 Circle
5863 3943 Circle
5870 3944 Circle
5876 3945 Circle
5883 3946 Circle
5889 3947 Circle
5896 3948 Circle
5903 3949 Circle
5909 3949 Circle
5916 3950 Circle
5923 3951 Circle
5929 3952 Circle
5936 3953 Circle
5943 3954 Circle
5949 3955 Circle
5956 3956 Circle
5963 3957 Circle
5969 3958 Circle
5976 3959 Circle
5983 3960 Circle
5989 3961 Circle
5996 3961 Circle
6003 3962 Circle
6009 3963 Circle
6016 3964 Circle
6023 3965 Circle
6029 3966 Circle
6036 3967 Circle
6043 3968 Circle
6049 3969 Circle
6056 3969 Circle
6063 3970 Circle
6069 3971 Circle
6076 3972 Circle
6083 3973 Circle
6089 3974 Circle
6096 3975 Circle
6103 3976 Circle
6109 3976 Circle
6116 3977 Circle
6123 3978 Circle
6129 3979 Circle
6136 3980 Circle
6143 3981 Circle
6149 3981 Circle
6156 3982 Circle
6162 3983 Circle
6169 3984 Circle
6176 3985 Circle
6182 3986 Circle
6189 3986 Circle
6196 3987 Circle
6202 3988 Circle
6209 3989 Circle
6216 3990 Circle
6222 3991 Circle
6229 3991 Circle
6236 3992 Circle
6242 3993 Circle
6249 3994 Circle
6256 3995 Circle
6262 3995 Circle
6269 3996 Circle
6276 3997 Circle
6282 3998 Circle
6289 3999 Circle
6296 4000 Circle
6302 4000 Circle
6309 4001 Circle
6316 4002 Circle
6322 4003 Circle
6329 4003 Circle
6336 4004 Circle
6342 4005 Circle
6349 4006 Circle
6356 4007 Circle
6362 4007 Circle
6369 4008 Circle
6376 4009 Circle
6382 4010 Circle
6389 4010 Circle
6396 4011 Circle
6402 4012 Circle
6409 4013 Circle
6416 4013 Circle
6422 4014 Circle
6429 4015 Circle
6436 4016 Circle
6442 4016 Circle
6449 4017 Circle
6455 4018 Circle
6462 4019 Circle
6469 4019 Circle
6475 4020 Circle
6482 4021 Circle
6489 4022 Circle
6495 4022 Circle
6502 4023 Circle
6509 4024 Circle
6515 4025 Circle
6522 4025 Circle
6529 4026 Circle
6535 4027 Circle
6542 4027 Circle
6549 4028 Circle
6555 4029 Circle
6562 4030 Circle
6569 4030 Circle
6575 4031 Circle
6582 4032 Circle
6589 4032 Circle
6595 4033 Circle
6602 4034 Circle
6609 4034 Circle
6615 4035 Circle
6622 4036 Circle
6629 4037 Circle
6635 4037 Circle
6642 4038 Circle
6649 4039 Circle
6655 4039 Circle
6662 4040 Circle
6669 4041 Circle
6675 4041 Circle
6682 4042 Circle
6689 4043 Circle
6695 4043 Circle
6702 4044 Circle
6709 4045 Circle
6715 4045 Circle
6722 4046 Circle
6729 4047 Circle
6735 4048 Circle
6742 4048 Circle
6748 4049 Circle
6755 4049 Circle
6762 4050 Circle
6768 4051 Circle
6775 4051 Circle
6782 4052 Circle
6788 4053 Circle
6795 4053 Circle
6802 4054 Circle
6808 4055 Circle
6815 4055 Circle
6822 4056 Circle
6828 4057 Circle
6835 4057 Circle
6842 4058 Circle
6848 4059 Circle
6855 4059 Circle
6862 4060 Circle
6868 4061 Circle
6875 4061 Circle
% End plot #4
% Begin plot #5
2.000 UP
1.000 UL
LTb
0.33 0.42 0.18 C LCb setrgbcolor
6272 1438 M
[ [(Helvetica) 150.0 0.0 true true 0 (Canal S=1 M=0 I=0)]
] -50.0 MRshow
2.000 UP
1.000 UL
LTb
0.33 0.42 0.18 C 6573 1438 CircleF
% End plot #5
% Begin plot #6
0.250 UP
1.000 UL
LTb
0.33 0.42 0.18 C 2873 4596 Circle
2880 3568 Circle
2886 3455 Circle
2893 3374 Circle
2900 3313 Circle
2906 3265 Circle
2913 3226 Circle
2920 3194 Circle
2926 3167 Circle
2933 3145 Circle
2940 3127 Circle
2946 3113 Circle
2953 3101 Circle
2960 3091 Circle
2966 3084 Circle
2973 3079 Circle
2980 3075 Circle
2986 3074 Circle
2993 3074 Circle
3000 3075 Circle
3006 3078 Circle
3013 3082 Circle
3020 3087 Circle
3026 3094 Circle
3033 3102 Circle
3039 3111 Circle
3046 3122 Circle
3053 3135 Circle
3059 3149 Circle
3066 3160 Circle
3073 3170 Circle
3079 3180 Circle
3086 3189 Circle
3093 3197 Circle
3099 3204 Circle
3106 3211 Circle
3113 3218 Circle
3119 3224 Circle
3126 3230 Circle
3133 3235 Circle
3139 3241 Circle
3146 3245 Circle
3153 3250 Circle
3159 3254 Circle
3166 3258 Circle
3173 3262 Circle
3179 3266 Circle
3186 3269 Circle
3193 3272 Circle
3199 3275 Circle
3206 3278 Circle
3213 3280 Circle
3219 3283 Circle
3226 3285 Circle
3233 3287 Circle
3239 3289 Circle
3246 3291 Circle
3253 3292 Circle
3259 3294 Circle
3266 3295 Circle
3273 3297 Circle
3279 3298 Circle
3286 3299 Circle
3293 3300 Circle
3299 3301 Circle
3306 3302 Circle
3312 3302 Circle
3319 3303 Circle
3326 3303 Circle
3332 3304 Circle
3339 3304 Circle
3346 3305 Circle
3352 3305 Circle
3359 3305 Circle
3366 3305 Circle
3372 3305 Circle
3379 3305 Circle
3386 3305 Circle
3392 3305 Circle
3399 3305 Circle
3406 3305 Circle
3412 3304 Circle
3419 3304 Circle
3426 3304 Circle
3432 3303 Circle
3439 3303 Circle
3446 3302 Circle
3452 3302 Circle
3459 3301 Circle
3466 3301 Circle
3472 3300 Circle
3479 3300 Circle
3486 3299 Circle
3492 3298 Circle
3499 3298 Circle
3506 3297 Circle
3512 3296 Circle
3519 3295 Circle
3526 3294 Circle
3532 3294 Circle
3539 3293 Circle
3546 3292 Circle
3552 3291 Circle
3559 3290 Circle
3566 3289 Circle
3572 3288 Circle
3579 3287 Circle
3586 3286 Circle
3592 3286 Circle
3599 3285 Circle
3605 3284 Circle
3612 3283 Circle
3619 3282 Circle
3625 3281 Circle
3632 3279 Circle
3639 3279 Circle
3645 3277 Circle
3652 3276 Circle
3659 3275 Circle
3665 3274 Circle
3672 3273 Circle
3679 3272 Circle
3685 3271 Circle
3692 3270 Circle
3699 3269 Circle
3705 3268 Circle
3712 3267 Circle
3719 3266 Circle
3725 3265 Circle
3732 3263 Circle
3739 3262 Circle
3745 3261 Circle
3752 3260 Circle
3759 3259 Circle
3765 3258 Circle
3772 3257 Circle
3779 3256 Circle
3785 3254 Circle
3792 3253 Circle
3799 3252 Circle
3805 3251 Circle
3812 3250 Circle
3819 3249 Circle
3825 3248 Circle
3832 3247 Circle
3839 3245 Circle
3845 3244 Circle
3852 3243 Circle
3859 3242 Circle
3865 3241 Circle
3872 3240 Circle
3879 3239 Circle
3885 3238 Circle
3892 3237 Circle
3898 3235 Circle
3905 3234 Circle
3912 3233 Circle
3918 3232 Circle
3925 3231 Circle
3932 3230 Circle
3938 3229 Circle
3945 3228 Circle
3952 3227 Circle
3958 3226 Circle
3965 3225 Circle
3972 3223 Circle
3978 3222 Circle
3985 3221 Circle
3992 3220 Circle
3998 3219 Circle
4005 3218 Circle
4012 3217 Circle
4018 3216 Circle
4025 3215 Circle
4032 3214 Circle
4038 3213 Circle
4045 3212 Circle
4052 3211 Circle
4058 3210 Circle
4065 3209 Circle
4072 3208 Circle
4078 3207 Circle
4085 3206 Circle
4092 3205 Circle
4098 3204 Circle
4105 3203 Circle
4112 3202 Circle
4118 3201 Circle
4125 3200 Circle
4132 3199 Circle
4138 3198 Circle
4145 3197 Circle
4152 3196 Circle
4158 3195 Circle
4165 3194 Circle
4171 3193 Circle
4178 3192 Circle
4185 3191 Circle
4191 3190 Circle
4198 3189 Circle
4205 3188 Circle
4211 3187 Circle
4218 3186 Circle
4225 3185 Circle
4231 3184 Circle
4238 3183 Circle
4245 3182 Circle
4251 3181 Circle
4258 3181 Circle
4265 3180 Circle
4271 3179 Circle
4278 3178 Circle
4285 3177 Circle
4291 3176 Circle
4298 3175 Circle
4305 3174 Circle
4311 3173 Circle
4318 3173 Circle
4325 3172 Circle
4331 3171 Circle
4338 3170 Circle
4345 3169 Circle
4351 3168 Circle
4358 3167 Circle
4365 3167 Circle
4371 3166 Circle
4378 3165 Circle
4385 3164 Circle
4391 3163 Circle
4398 3162 Circle
4405 3161 Circle
4411 3161 Circle
4418 3160 Circle
4425 3159 Circle
4431 3158 Circle
4438 3157 Circle
4445 3157 Circle
4451 3156 Circle
4458 3155 Circle
4464 3154 Circle
4471 3153 Circle
4478 3153 Circle
4484 3152 Circle
4491 3151 Circle
4498 3150 Circle
4504 3150 Circle
4511 3149 Circle
4518 3148 Circle
4524 3147 Circle
4531 3147 Circle
4538 3146 Circle
4544 3145 Circle
4551 3144 Circle
4558 3143 Circle
4564 3143 Circle
4571 3142 Circle
4578 3141 Circle
4584 3141 Circle
4591 3140 Circle
4598 3139 Circle
4604 3138 Circle
4611 3138 Circle
4618 3137 Circle
4624 3136 Circle
4631 3136 Circle
4638 3135 Circle
4644 3134 Circle
4651 3133 Circle
4658 3133 Circle
4664 3132 Circle
4671 3131 Circle
4678 3131 Circle
4684 3130 Circle
4691 3129 Circle
4698 3129 Circle
4704 3128 Circle
4711 3127 Circle
4718 3127 Circle
4724 3126 Circle
4731 3125 Circle
4737 3125 Circle
4744 3124 Circle
4751 3123 Circle
4757 3123 Circle
4764 3122 Circle
4771 3122 Circle
4777 3121 Circle
4784 3120 Circle
4791 3120 Circle
4797 3119 Circle
4804 3118 Circle
4811 3118 Circle
4817 3117 Circle
4824 3117 Circle
4831 3116 Circle
4837 3115 Circle
4844 3115 Circle
4851 3114 Circle
4857 3114 Circle
4864 3113 Circle
4871 3112 Circle
4877 3112 Circle
4884 3111 Circle
4891 3111 Circle
4897 3110 Circle
4904 3109 Circle
4911 3109 Circle
4917 3108 Circle
4924 3108 Circle
4931 3107 Circle
4937 3107 Circle
4944 3106 Circle
4951 3106 Circle
4957 3105 Circle
4964 3104 Circle
4971 3104 Circle
4977 3103 Circle
4984 3103 Circle
4991 3102 Circle
4997 3102 Circle
5004 3101 Circle
5011 3101 Circle
5017 3100 Circle
5024 3099 Circle
5030 3099 Circle
5037 3098 Circle
5044 3098 Circle
5050 3097 Circle
5057 3097 Circle
5064 3096 Circle
5070 3096 Circle
5077 3095 Circle
5084 3095 Circle
5090 3094 Circle
5097 3094 Circle
5104 3093 Circle
5110 3093 Circle
5117 3092 Circle
5124 3092 Circle
5130 3091 Circle
5137 3091 Circle
5144 3090 Circle
5150 3090 Circle
5157 3089 Circle
5164 3089 Circle
5170 3088 Circle
5177 3088 Circle
5184 3087 Circle
5190 3087 Circle
5197 3086 Circle
5204 3086 Circle
5210 3086 Circle
5217 3085 Circle
5224 3085 Circle
5230 3084 Circle
5237 3084 Circle
5244 3083 Circle
5250 3083 Circle
5257 3082 Circle
5264 3082 Circle
5270 3081 Circle
5277 3081 Circle
5284 3081 Circle
5290 3080 Circle
5297 3080 Circle
5304 3079 Circle
5310 3079 Circle
5317 3078 Circle
5323 3078 Circle
5330 3077 Circle
5337 3077 Circle
5343 3077 Circle
5350 3076 Circle
5357 3076 Circle
5363 3075 Circle
5370 3075 Circle
5377 3075 Circle
5383 3074 Circle
5390 3074 Circle
5397 3073 Circle
5403 3073 Circle
5410 3072 Circle
5417 3072 Circle
5423 3072 Circle
5430 3071 Circle
5437 3071 Circle
5443 3070 Circle
5450 3070 Circle
5457 3070 Circle
5463 3069 Circle
5470 3069 Circle
5477 3068 Circle
5483 3068 Circle
5490 3068 Circle
5497 3067 Circle
5503 3067 Circle
5510 3067 Circle
5517 3066 Circle
5523 3066 Circle
5530 3065 Circle
5537 3065 Circle
5543 3065 Circle
5550 3064 Circle
5557 3064 Circle
5563 3064 Circle
5570 3063 Circle
5577 3063 Circle
5583 3062 Circle
5590 3062 Circle
5596 3062 Circle
5603 3061 Circle
5610 3061 Circle
5616 3061 Circle
5623 3060 Circle
5630 3060 Circle
5636 3060 Circle
5643 3059 Circle
5650 3059 Circle
5656 3058 Circle
5663 3058 Circle
5670 3058 Circle
5676 3057 Circle
5683 3057 Circle
5690 3057 Circle
5696 3056 Circle
5703 3056 Circle
5710 3056 Circle
5716 3055 Circle
5723 3055 Circle
5730 3055 Circle
5736 3054 Circle
5743 3054 Circle
5750 3054 Circle
5756 3053 Circle
5763 3053 Circle
5770 3053 Circle
5776 3052 Circle
5783 3052 Circle
5790 3052 Circle
5796 3051 Circle
5803 3051 Circle
5810 3051 Circle
5816 3051 Circle
5823 3050 Circle
5830 3050 Circle
5836 3050 Circle
5843 3049 Circle
5850 3049 Circle
5856 3049 Circle
5863 3048 Circle
5870 3048 Circle
5876 3048 Circle
5883 3047 Circle
5889 3047 Circle
5896 3047 Circle
5903 3047 Circle
5909 3046 Circle
5916 3046 Circle
5923 3046 Circle
5929 3045 Circle
5936 3045 Circle
5943 3045 Circle
5949 3044 Circle
5956 3044 Circle
5963 3044 Circle
5969 3044 Circle
5976 3043 Circle
5983 3043 Circle
5989 3043 Circle
5996 3042 Circle
6003 3042 Circle
6009 3042 Circle
6016 3042 Circle
6023 3041 Circle
6029 3041 Circle
6036 3041 Circle
6043 3040 Circle
6049 3040 Circle
6056 3040 Circle
6063 3040 Circle
6069 3039 Circle
6076 3039 Circle
6083 3039 Circle
6089 3039 Circle
6096 3038 Circle
6103 3038 Circle
6109 3038 Circle
6116 3038 Circle
6123 3037 Circle
6129 3037 Circle
6136 3037 Circle
6143 3036 Circle
6149 3036 Circle
6156 3036 Circle
6162 3036 Circle
6169 3035 Circle
6176 3035 Circle
6182 3035 Circle
6189 3035 Circle
6196 3034 Circle
6202 3034 Circle
6209 3034 Circle
6216 3034 Circle
6222 3033 Circle
6229 3033 Circle
6236 3033 Circle
6242 3033 Circle
6249 3032 Circle
6256 3032 Circle
6262 3032 Circle
6269 3032 Circle
6276 3031 Circle
6282 3031 Circle
6289 3031 Circle
6296 3031 Circle
6302 3030 Circle
6309 3030 Circle
6316 3030 Circle
6322 3030 Circle
6329 3030 Circle
6336 3029 Circle
6342 3029 Circle
6349 3029 Circle
6356 3029 Circle
6362 3028 Circle
6369 3028 Circle
6376 3028 Circle
6382 3028 Circle
6389 3027 Circle
6396 3027 Circle
6402 3027 Circle
6409 3027 Circle
6416 3027 Circle
6422 3026 Circle
6429 3026 Circle
6436 3026 Circle
6442 3026 Circle
6449 3025 Circle
6455 3025 Circle
6462 3025 Circle
6469 3025 Circle
6475 3025 Circle
6482 3024 Circle
6489 3024 Circle
6495 3024 Circle
6502 3024 Circle
6509 3024 Circle
6515 3023 Circle
6522 3023 Circle
6529 3023 Circle
6535 3023 Circle
6542 3022 Circle
6549 3022 Circle
6555 3022 Circle
6562 3022 Circle
6569 3022 Circle
6575 3021 Circle
6582 3021 Circle
6589 3021 Circle
6595 3021 Circle
6602 3021 Circle
6609 3020 Circle
6615 3020 Circle
6622 3020 Circle
6629 3020 Circle
6635 3020 Circle
6642 3019 Circle
6649 3019 Circle
6655 3019 Circle
6662 3019 Circle
6669 3019 Circle
6675 3018 Circle
6682 3018 Circle
6689 3018 Circle
6695 3018 Circle
6702 3018 Circle
6709 3017 Circle
6715 3017 Circle
6722 3017 Circle
6729 3017 Circle
6735 3017 Circle
6742 3017 Circle
6748 3016 Circle
6755 3016 Circle
6762 3016 Circle
6768 3016 Circle
6775 3016 Circle
6782 3015 Circle
6788 3015 Circle
6795 3015 Circle
6802 3015 Circle
6808 3015 Circle
6815 3014 Circle
6822 3014 Circle
6828 3014 Circle
6835 3014 Circle
6842 3014 Circle
6848 3014 Circle
6855 3013 Circle
6862 3013 Circle
6868 3013 Circle
6875 3013 Circle
2873 3763 Circle
% End plot #6
% Begin plot #7
2.000 UP
1.000 UL
LTb
0.00 0.00 0.55 C LCb setrgbcolor
6272 1288 M
[ [(Helvetica) 150.0 0.0 true true 0 (Canal S=1 M=0 I=1)]
] -50.0 MRshow
2.000 UP
1.000 UL
LTb
0.00 0.00 0.55 C 6573 1288 CircleF
% End plot #7
% Begin plot #8
0.250 UP
1.000 UL
LTb
0.00 0.00 0.55 C 889 3707 Circle
895 3707 Circle
902 3707 Circle
909 3707 Circle
915 3707 Circle
922 3708 Circle
929 3708 Circle
935 3708 Circle
942 3708 Circle
949 3708 Circle
955 3708 Circle
962 3709 Circle
969 3709 Circle
975 3709 Circle
982 3709 Circle
989 3710 Circle
995 3710 Circle
1002 3711 Circle
1009 3711 Circle
1015 3711 Circle
1022 3712 Circle
1028 3712 Circle
1035 3713 Circle
1042 3713 Circle
1048 3714 Circle
1055 3714 Circle
1062 3715 Circle
1068 3715 Circle
1075 3716 Circle
1082 3716 Circle
1088 3717 Circle
1095 3718 Circle
1102 3718 Circle
1108 3719 Circle
1115 3720 Circle
1122 3720 Circle
1128 3721 Circle
1135 3722 Circle
1142 3723 Circle
1148 3724 Circle
1155 3724 Circle
1162 3725 Circle
1168 3726 Circle
1175 3727 Circle
1182 3728 Circle
1188 3729 Circle
1195 3730 Circle
1202 3731 Circle
1208 3732 Circle
1215 3733 Circle
1222 3734 Circle
1228 3735 Circle
1235 3736 Circle
1242 3737 Circle
1248 3738 Circle
1255 3739 Circle
1262 3740 Circle
1268 3741 Circle
1275 3743 Circle
1282 3744 Circle
1288 3745 Circle
1295 3746 Circle
1302 3748 Circle
1308 3749 Circle
1315 3750 Circle
1321 3751 Circle
1328 3753 Circle
1335 3754 Circle
1341 3755 Circle
1348 3757 Circle
1355 3758 Circle
1361 3760 Circle
1368 3761 Circle
1375 3763 Circle
1381 3764 Circle
1388 3766 Circle
1395 3767 Circle
1401 3769 Circle
1408 3770 Circle
1415 3772 Circle
1421 3774 Circle
1428 3775 Circle
1435 3777 Circle
1441 3779 Circle
1448 3780 Circle
1455 3782 Circle
1461 3784 Circle
1468 3786 Circle
1475 3787 Circle
1481 3789 Circle
1488 3791 Circle
1495 3793 Circle
1501 3795 Circle
1508 3796 Circle
1515 3798 Circle
1521 3800 Circle
1528 3802 Circle
1535 3804 Circle
1541 3806 Circle
1548 3808 Circle
1555 3810 Circle
1561 3812 Circle
1568 3814 Circle
1575 3816 Circle
1581 3818 Circle
1588 3820 Circle
1595 3823 Circle
1601 3825 Circle
1608 3827 Circle
1614 3829 Circle
1621 3831 Circle
1628 3833 Circle
1634 3836 Circle
1641 3838 Circle
1648 3840 Circle
1654 3842 Circle
1661 3845 Circle
1668 3847 Circle
1674 3849 Circle
1681 3852 Circle
1688 3854 Circle
1694 3857 Circle
1701 3859 Circle
1708 3861 Circle
1714 3864 Circle
1721 3866 Circle
1728 3869 Circle
1734 3871 Circle
1741 3874 Circle
1748 3876 Circle
1754 3879 Circle
1761 3881 Circle
1768 3884 Circle
1774 3887 Circle
1781 3889 Circle
1788 3892 Circle
1794 3895 Circle
1801 3897 Circle
1808 3900 Circle
1814 3903 Circle
1821 3905 Circle
1828 3908 Circle
1834 3911 Circle
1841 3914 Circle
1848 3917 Circle
1854 3919 Circle
1861 3922 Circle
1868 3925 Circle
1874 3928 Circle
1881 3931 Circle
1887 3934 Circle
1894 3937 Circle
1901 3940 Circle
1907 3943 Circle
1914 3946 Circle
1921 3949 Circle
1927 3952 Circle
1934 3955 Circle
1941 3958 Circle
1947 3961 Circle
1954 3964 Circle
1961 3967 Circle
1967 3970 Circle
1974 3973 Circle
1981 3976 Circle
1987 3980 Circle
1994 3983 Circle
2001 3986 Circle
2007 3989 Circle
2014 3993 Circle
2021 3996 Circle
2027 3999 Circle
2034 4002 Circle
2041 4006 Circle
2047 4009 Circle
2054 4012 Circle
2061 4016 Circle
2067 4019 Circle
2074 4023 Circle
2081 4026 Circle
2087 4029 Circle
2094 4033 Circle
2101 4036 Circle
2107 4040 Circle
2114 4043 Circle
2121 4047 Circle
2127 4050 Circle
2134 4054 Circle
2141 4057 Circle
2147 4061 Circle
2154 4065 Circle
2161 4068 Circle
2167 4072 Circle
2174 4075 Circle
2180 4079 Circle
2187 4083 Circle
2194 4087 Circle
2200 4090 Circle
2207 4094 Circle
2214 4098 Circle
2220 4101 Circle
2227 4105 Circle
2234 4109 Circle
2240 4113 Circle
2247 4117 Circle
2254 4121 Circle
2260 4124 Circle
2267 4128 Circle
2274 4132 Circle
2280 4136 Circle
2287 4140 Circle
2294 4144 Circle
2300 4148 Circle
2307 4152 Circle
2314 4156 Circle
2320 4160 Circle
2327 4164 Circle
2334 4168 Circle
2340 4172 Circle
2347 4176 Circle
2354 4180 Circle
2360 4184 Circle
2367 4188 Circle
2374 4193 Circle
2380 4197 Circle
2387 4201 Circle
2394 4205 Circle
2400 4209 Circle
2407 4213 Circle
2414 4218 Circle
2420 4222 Circle
2427 4226 Circle
2434 4230 Circle
2440 4235 Circle
2447 4239 Circle
2453 4243 Circle
2460 4248 Circle
2467 4252 Circle
2473 4256 Circle
2480 4261 Circle
2487 4265 Circle
2493 4270 Circle
2500 4274 Circle
2507 4279 Circle
2513 4283 Circle
2520 4288 Circle
2527 4292 Circle
2533 4297 Circle
2540 4301 Circle
2547 4306 Circle
2553 4310 Circle
2560 4315 Circle
2567 4320 Circle
2573 4324 Circle
2580 4329 Circle
2587 4333 Circle
2593 4338 Circle
2600 4343 Circle
2607 4348 Circle
2613 4352 Circle
2620 4357 Circle
2627 4362 Circle
2633 4367 Circle
2640 4371 Circle
2647 4376 Circle
2653 4381 Circle
2660 4386 Circle
2667 4391 Circle
2673 4396 Circle
2680 4401 Circle
2687 4406 Circle
2693 4410 Circle
2700 4415 Circle
2707 4420 Circle
2713 4425 Circle
2720 4430 Circle
2727 4435 Circle
2733 4441 Circle
2740 4446 Circle
2746 4451 Circle
2753 4456 Circle
2760 4461 Circle
2766 4466 Circle
2773 4471 Circle
2780 4476 Circle
2786 4482 Circle
2793 4487 Circle
2800 4492 Circle
2806 4497 Circle
2813 4503 Circle
2820 4508 Circle
2826 4513 Circle
2833 4519 Circle
2840 4524 Circle
2846 4529 Circle
2853 4535 Circle
2860 4540 Circle
2866 4546 Circle
2873 4551 Circle
2880 4557 Circle
2886 4562 Circle
2893 4568 Circle
2900 4573 Circle
2906 4579 Circle
2913 4584 Circle
2920 4590 Circle
2926 4596 Circle
2933 4601 Circle
2940 4607 Circle
2946 4613 Circle
2953 4618 Circle
2960 4624 Circle
2966 4630 Circle
2973 4636 Circle
2980 4642 Circle
2986 4647 Circle
2993 4653 Circle
3000 4659 Circle
3006 4665 Circle
3013 4671 Circle
3020 4677 Circle
3026 4683 Circle
3033 4689 Circle
3039 4695 Circle
3046 4701 Circle
3053 4708 Circle
3059 4714 Circle
3066 4720 Circle
3073 4726 Circle
3079 4732 Circle
3086 4739 Circle
3093 4745 Circle
3099 4751 Circle
3106 4758 Circle
3113 4764 Circle
3119 4771 Circle
3126 4777 Circle
3133 4784 Circle
3139 4790 Circle
3146 4797 Circle
3153 4803 Circle
3159 4810 Circle
3166 4817 Circle
% End plot #8
% Begin plot #9
2.000 UP
1.000 UL
LTb
1.00 0.55 0.00 C LCb setrgbcolor
6272 1138 M
[ [(Helvetica) 150.0 0.0 true true 0 (Canal S=1 M=1 I=0)]
] -50.0 MRshow
2.000 UP
1.000 UL
LTb
1.00 0.55 0.00 C 6573 1138 CircleF
% End plot #9
% Begin plot #10
0.250 UP
1.000 UL
LTb
1.00 0.55 0.00 C 2287 4812 Circle
2294 4747 Circle
2300 4683 Circle
2307 4621 Circle
2314 4560 Circle
2320 4500 Circle
2327 4441 Circle
2334 4383 Circle
2340 4327 Circle
2347 4271 Circle
2354 4217 Circle
2360 4164 Circle
2367 4112 Circle
2374 4061 Circle
2380 4010 Circle
2387 3961 Circle
2394 3913 Circle
2400 3866 Circle
2407 3820 Circle
2414 3775 Circle
2420 3731 Circle
2427 3688 Circle
2434 3646 Circle
2440 3605 Circle
2447 3565 Circle
2453 3525 Circle
2460 3487 Circle
2467 3449 Circle
2473 3413 Circle
2480 3377 Circle
2487 3342 Circle
2493 3308 Circle
2500 3275 Circle
2507 3243 Circle
2513 3212 Circle
2520 3182 Circle
2527 3152 Circle
2533 3123 Circle
2540 3095 Circle
2547 3068 Circle
2553 3042 Circle
2560 3017 Circle
2567 2992 Circle
2573 2968 Circle
2580 2946 Circle
2587 2923 Circle
2593 2902 Circle
2600 2881 Circle
2607 2862 Circle
2613 2843 Circle
2620 2825 Circle
2627 2807 Circle
2633 2790 Circle
2640 2774 Circle
2647 2759 Circle
2653 2745 Circle
2660 2731 Circle
2667 2718 Circle
2673 2706 Circle
2680 2694 Circle
2687 2683 Circle
2693 2673 Circle
2700 2664 Circle
2707 2655 Circle
2713 2647 Circle
2720 2639 Circle
2727 2632 Circle
2733 2626 Circle
2740 2620 Circle
2746 2615 Circle
2753 2611 Circle
2760 2607 Circle
2766 2604 Circle
2773 2601 Circle
2780 2599 Circle
2786 2598 Circle
2793 2597 Circle
2800 2597 Circle
2806 2598 Circle
2813 2599 Circle
2820 2600 Circle
2826 2602 Circle
2833 2605 Circle
2840 2608 Circle
2846 2612 Circle
2853 2617 Circle
2860 2622 Circle
2866 2628 Circle
2873 2635 Circle
2880 2642 Circle
2886 2650 Circle
2893 2659 Circle
2900 2670 Circle
2906 2682 Circle
2913 2692 Circle
2920 2702 Circle
2926 2711 Circle
2933 2719 Circle
2940 2727 Circle
2946 2735 Circle
2953 2742 Circle
2960 2749 Circle
2966 2755 Circle
2973 2762 Circle
2980 2768 Circle
2986 2774 Circle
2993 2780 Circle
3000 2785 Circle
3006 2791 Circle
3013 2796 Circle
3020 2801 Circle
3026 2806 Circle
3033 2811 Circle
3039 2816 Circle
3046 2820 Circle
3053 2825 Circle
3059 2829 Circle
3066 2833 Circle
3073 2837 Circle
3079 2841 Circle
3086 2845 Circle
3093 2849 Circle
3099 2852 Circle
3106 2856 Circle
3113 2859 Circle
3119 2863 Circle
3126 2866 Circle
3133 2869 Circle
3139 2872 Circle
3146 2875 Circle
3153 2878 Circle
3159 2881 Circle
3166 2884 Circle
3173 2887 Circle
3179 2890 Circle
3186 2892 Circle
3193 2895 Circle
3199 2897 Circle
3206 2900 Circle
3213 2902 Circle
3219 2905 Circle
3226 2907 Circle
3233 2909 Circle
3239 2911 Circle
3246 2913 Circle
3253 2916 Circle
3259 2918 Circle
3266 2920 Circle
3273 2922 Circle
3279 2923 Circle
3286 2925 Circle
3293 2927 Circle
3299 2929 Circle
3306 2931 Circle
3312 2932 Circle
3319 2934 Circle
3326 2936 Circle
3332 2937 Circle
3339 2939 Circle
3346 2940 Circle
3352 2942 Circle
3359 2943 Circle
3366 2945 Circle
3372 2946 Circle
3379 2947 Circle
3386 2949 Circle
3392 2950 Circle
3399 2951 Circle
3406 2952 Circle
3412 2953 Circle
3419 2955 Circle
3426 2956 Circle
3432 2957 Circle
3439 2958 Circle
3446 2959 Circle
3452 2960 Circle
3459 2961 Circle
3466 2962 Circle
3472 2963 Circle
3479 2964 Circle
3486 2965 Circle
3492 2966 Circle
3499 2967 Circle
3506 2968 Circle
3512 2969 Circle
3519 2969 Circle
3526 2970 Circle
3532 2971 Circle
3539 2972 Circle
3546 2972 Circle
3552 2973 Circle
3559 2974 Circle
3566 2975 Circle
3572 2975 Circle
3579 2976 Circle
3586 2977 Circle
3592 2977 Circle
3599 2978 Circle
3605 2978 Circle
3612 2979 Circle
3619 2980 Circle
3625 2980 Circle
3632 2981 Circle
3639 2981 Circle
3645 2982 Circle
3652 2982 Circle
3659 2983 Circle
3665 2983 Circle
3672 2984 Circle
3679 2984 Circle
3685 2985 Circle
3692 2985 Circle
3699 2986 Circle
3705 2986 Circle
3712 2986 Circle
3719 2987 Circle
3725 2987 Circle
3732 2987 Circle
3739 2988 Circle
3745 2988 Circle
3752 2989 Circle
3759 2989 Circle
3765 2989 Circle
3772 2990 Circle
3779 2990 Circle
3785 2990 Circle
3792 2990 Circle
3799 2991 Circle
3805 2991 Circle
3812 2991 Circle
3819 2991 Circle
3825 2992 Circle
3832 2992 Circle
3839 2992 Circle
3845 2992 Circle
3852 2993 Circle
3859 2993 Circle
3865 2993 Circle
3872 2993 Circle
3879 2994 Circle
3885 2994 Circle
3892 2994 Circle
3898 2994 Circle
3905 2994 Circle
3912 2994 Circle
3918 2995 Circle
3925 2995 Circle
3932 2995 Circle
3938 2995 Circle
3945 2995 Circle
3952 2995 Circle
3958 2995 Circle
3965 2996 Circle
3972 2996 Circle
3978 2996 Circle
3985 2996 Circle
3992 2996 Circle
3998 2996 Circle
4005 2996 Circle
4012 2996 Circle
4018 2996 Circle
4025 2996 Circle
4032 2997 Circle
4038 2997 Circle
4045 2997 Circle
4052 2997 Circle
4058 2997 Circle
4065 2997 Circle
4072 2997 Circle
4078 2997 Circle
4085 2997 Circle
4092 2997 Circle
4098 2997 Circle
4105 2997 Circle
4112 2997 Circle
4118 2997 Circle
4125 2997 Circle
4132 2997 Circle
4138 2997 Circle
4145 2997 Circle
4152 2997 Circle
4158 2997 Circle
4165 2997 Circle
4171 2997 Circle
4178 2997 Circle
4185 2997 Circle
4191 2997 Circle
4198 2997 Circle
4205 2997 Circle
4211 2997 Circle
4218 2997 Circle
4225 2997 Circle
4231 2997 Circle
4238 2997 Circle
4245 2997 Circle
4251 2997 Circle
4258 2997 Circle
4265 2997 Circle
4271 2997 Circle
4278 2997 Circle
4285 2997 Circle
4291 2997 Circle
4298 2997 Circle
4305 2997 Circle
4311 2997 Circle
4318 2997 Circle
4325 2997 Circle
4331 2997 Circle
4338 2997 Circle
4345 2997 Circle
4351 2997 Circle
4358 2997 Circle
4365 2997 Circle
4371 2997 Circle
4378 2997 Circle
4385 2997 Circle
4391 2996 Circle
4398 2996 Circle
4405 2996 Circle
4411 2996 Circle
4418 2996 Circle
4425 2996 Circle
4431 2996 Circle
4438 2996 Circle
4445 2996 Circle
4451 2996 Circle
4458 2996 Circle
4464 2996 Circle
4471 2996 Circle
4478 2996 Circle
4484 2996 Circle
4491 2995 Circle
4498 2995 Circle
4504 2995 Circle
4511 2995 Circle
4518 2995 Circle
4524 2995 Circle
4531 2995 Circle
4538 2995 Circle
4544 2995 Circle
4551 2995 Circle
4558 2995 Circle
4564 2995 Circle
4571 2995 Circle
4578 2994 Circle
4584 2994 Circle
4591 2994 Circle
4598 2994 Circle
4604 2994 Circle
4611 2994 Circle
4618 2994 Circle
4624 2994 Circle
4631 2994 Circle
4638 2994 Circle
4644 2994 Circle
4651 2994 Circle
4658 2993 Circle
4664 2993 Circle
4671 2993 Circle
4678 2993 Circle
4684 2993 Circle
4691 2993 Circle
4698 2993 Circle
4704 2993 Circle
4711 2993 Circle
4718 2993 Circle
4724 2993 Circle
4731 2992 Circle
4737 2992 Circle
4744 2992 Circle
4751 2992 Circle
4757 2992 Circle
4764 2992 Circle
4771 2992 Circle
4777 2992 Circle
4784 2992 Circle
4791 2992 Circle
4797 2991 Circle
4804 2991 Circle
4811 2991 Circle
4817 2991 Circle
4824 2991 Circle
4831 2991 Circle
4837 2991 Circle
4844 2991 Circle
4851 2991 Circle
4857 2991 Circle
4864 2990 Circle
4871 2990 Circle
4877 2990 Circle
4884 2990 Circle
4891 2990 Circle
4897 2990 Circle
4904 2990 Circle
4911 2990 Circle
4917 2990 Circle
4924 2990 Circle
4931 2989 Circle
4937 2989 Circle
4944 2989 Circle
4951 2989 Circle
4957 2989 Circle
4964 2989 Circle
4971 2989 Circle
4977 2989 Circle
4984 2989 Circle
4991 2989 Circle
4997 2988 Circle
5004 2988 Circle
5011 2988 Circle
5017 2988 Circle
5024 2988 Circle
5030 2988 Circle
5037 2988 Circle
5044 2988 Circle
5050 2988 Circle
5057 2987 Circle
5064 2987 Circle
5070 2987 Circle
5077 2987 Circle
5084 2987 Circle
5090 2987 Circle
5097 2987 Circle
5104 2987 Circle
5110 2987 Circle
5117 2987 Circle
5124 2987 Circle
5130 2986 Circle
5137 2986 Circle
5144 2986 Circle
5150 2986 Circle
5157 2986 Circle
5164 2986 Circle
5170 2986 Circle
5177 2986 Circle
5184 2986 Circle
5190 2985 Circle
5197 2985 Circle
5204 2985 Circle
5210 2985 Circle
5217 2985 Circle
5224 2985 Circle
5230 2985 Circle
5237 2985 Circle
5244 2985 Circle
5250 2985 Circle
5257 2984 Circle
5264 2984 Circle
5270 2984 Circle
5277 2984 Circle
5284 2984 Circle
5290 2984 Circle
5297 2984 Circle
5304 2984 Circle
5310 2984 Circle
5317 2984 Circle
5323 2983 Circle
5330 2983 Circle
5337 2983 Circle
5343 2983 Circle
5350 2983 Circle
5357 2983 Circle
5363 2983 Circle
5370 2983 Circle
5377 2983 Circle
5383 2983 Circle
5390 2982 Circle
5397 2982 Circle
5403 2982 Circle
5410 2982 Circle
5417 2982 Circle
5423 2982 Circle
5430 2982 Circle
5437 2982 Circle
5443 2982 Circle
5450 2982 Circle
5457 2981 Circle
5463 2981 Circle
5470 2981 Circle
5477 2981 Circle
5483 2981 Circle
5490 2981 Circle
5497 2981 Circle
5503 2981 Circle
5510 2981 Circle
5517 2981 Circle
5523 2981 Circle
5530 2980 Circle
5537 2980 Circle
5543 2980 Circle
5550 2980 Circle
5557 2980 Circle
5563 2980 Circle
5570 2980 Circle
5577 2980 Circle
5583 2980 Circle
5590 2980 Circle
5596 2980 Circle
5603 2979 Circle
5610 2979 Circle
5616 2979 Circle
5623 2979 Circle
5630 2979 Circle
5636 2979 Circle
5643 2979 Circle
5650 2979 Circle
5656 2979 Circle
5663 2979 Circle
5670 2979 Circle
5676 2978 Circle
5683 2978 Circle
5690 2978 Circle
5696 2978 Circle
5703 2978 Circle
5710 2978 Circle
5716 2978 Circle
5723 2978 Circle
5730 2978 Circle
5736 2978 Circle
5743 2977 Circle
5750 2977 Circle
5756 2977 Circle
5763 2977 Circle
5770 2977 Circle
5776 2977 Circle
5783 2977 Circle
5790 2977 Circle
5796 2977 Circle
5803 2977 Circle
5810 2977 Circle
5816 2977 Circle
5823 2977 Circle
5830 2976 Circle
5836 2976 Circle
5843 2976 Circle
5850 2976 Circle
5856 2976 Circle
5863 2976 Circle
5870 2976 Circle
5876 2976 Circle
5883 2976 Circle
5889 2976 Circle
5896 2976 Circle
5903 2975 Circle
5909 2975 Circle
5916 2975 Circle
5923 2975 Circle
5929 2975 Circle
5936 2975 Circle
5943 2975 Circle
5949 2975 Circle
5956 2975 Circle
5963 2975 Circle
5969 2975 Circle
5976 2975 Circle
5983 2974 Circle
5989 2974 Circle
5996 2974 Circle
6003 2974 Circle
6009 2974 Circle
6016 2974 Circle
6023 2974 Circle
6029 2974 Circle
6036 2974 Circle
6043 2974 Circle
6049 2974 Circle
6056 2974 Circle
6063 2973 Circle
6069 2973 Circle
6076 2973 Circle
6083 2973 Circle
6089 2973 Circle
6096 2973 Circle
6103 2973 Circle
6109 2973 Circle
6116 2973 Circle
6123 2973 Circle
6129 2973 Circle
6136 2973 Circle
6143 2973 Circle
6149 2972 Circle
6156 2972 Circle
6162 2972 Circle
6169 2972 Circle
6176 2972 Circle
6182 2972 Circle
6189 2972 Circle
6196 2972 Circle
6202 2972 Circle
6209 2972 Circle
6216 2972 Circle
6222 2972 Circle
6229 2972 Circle
6236 2971 Circle
6242 2971 Circle
6249 2971 Circle
6256 2971 Circle
6262 2971 Circle
6269 2971 Circle
6276 2971 Circle
6282 2971 Circle
6289 2971 Circle
6296 2971 Circle
6302 2971 Circle
6309 2971 Circle
6316 2971 Circle
6322 2971 Circle
6329 2970 Circle
6336 2970 Circle
6342 2970 Circle
6349 2970 Circle
6356 2970 Circle
6362 2970 Circle
6369 2970 Circle
6376 2970 Circle
6382 2970 Circle
6389 2970 Circle
6396 2970 Circle
6402 2970 Circle
6409 2970 Circle
6416 2970 Circle
6422 2970 Circle
6429 2969 Circle
6436 2969 Circle
6442 2969 Circle
6449 2969 Circle
6455 2969 Circle
6462 2969 Circle
6469 2969 Circle
6475 2969 Circle
6482 2969 Circle
6489 2969 Circle
6495 2969 Circle
6502 2969 Circle
6509 2969 Circle
6515 2969 Circle
6522 2968 Circle
6529 2968 Circle
6535 2968 Circle
6542 2968 Circle
6549 2968 Circle
6555 2968 Circle
6562 2968 Circle
6569 2968 Circle
6575 2968 Circle
6582 2968 Circle
6589 2968 Circle
6595 2968 Circle
6602 2968 Circle
6609 2968 Circle
6615 2968 Circle
6622 2967 Circle
6629 2967 Circle
6635 2967 Circle
6642 2967 Circle
6649 2967 Circle
6655 2967 Circle
6662 2967 Circle
6669 2967 Circle
6675 2967 Circle
6682 2967 Circle
6689 2967 Circle
6695 2967 Circle
6702 2967 Circle
6709 2967 Circle
6715 2967 Circle
6722 2966 Circle
6729 2966 Circle
6735 2966 Circle
6742 2966 Circle
6748 2966 Circle
6755 2966 Circle
6762 2966 Circle
6768 2966 Circle
6775 2966 Circle
6782 2966 Circle
6788 2966 Circle
6795 2966 Circle
6802 2966 Circle
6808 2966 Circle
6815 2966 Circle
6822 2966 Circle
6828 2966 Circle
6835 2966 Circle
6842 2965 Circle
6848 2965 Circle
6855 2965 Circle
6862 2965 Circle
6868 2965 Circle
6875 2965 Circle
% End plot #10
% Begin plot #11
2.000 UP
1.000 UL
LTb
0.00 0.55 0.55 C LCb setrgbcolor
6272 988 M
[ [(Helvetica) 150.0 0.0 true true 0 (Canal S=1 M=1 I=1)]
] -50.0 MRshow
2.000 UP
1.000 UL
LTb
0.00 0.55 0.55 C 6573 988 CircleF
% End plot #11
% Begin plot #12
0.250 UP
1.000 UL
LTb
0.00 0.55 0.55 C 889 3707 Circle
895 3707 Circle
902 3707 Circle
909 3707 Circle
915 3707 Circle
922 3707 Circle
929 3708 Circle
935 3708 Circle
942 3708 Circle
949 3708 Circle
955 3708 Circle
962 3708 Circle
969 3708 Circle
975 3708 Circle
982 3709 Circle
989 3709 Circle
995 3709 Circle
1002 3709 Circle
1009 3709 Circle
1015 3710 Circle
1022 3710 Circle
1028 3710 Circle
1035 3710 Circle
1042 3711 Circle
1048 3711 Circle
1055 3711 Circle
1062 3712 Circle
1068 3712 Circle
1075 3712 Circle
1082 3713 Circle
1088 3713 Circle
1095 3713 Circle
1102 3714 Circle
1108 3714 Circle
1115 3715 Circle
1122 3715 Circle
1128 3715 Circle
1135 3716 Circle
1142 3716 Circle
1148 3717 Circle
1155 3717 Circle
1162 3718 Circle
1168 3718 Circle
1175 3719 Circle
1182 3720 Circle
1188 3720 Circle
1195 3721 Circle
1202 3721 Circle
1208 3722 Circle
1215 3722 Circle
1222 3723 Circle
1228 3724 Circle
1235 3724 Circle
1242 3725 Circle
1248 3726 Circle
1255 3726 Circle
1262 3727 Circle
1268 3728 Circle
1275 3728 Circle
1282 3729 Circle
1288 3730 Circle
1295 3731 Circle
1302 3731 Circle
1308 3732 Circle
1315 3733 Circle
1321 3734 Circle
1328 3735 Circle
1335 3736 Circle
1341 3736 Circle
1348 3737 Circle
1355 3738 Circle
1361 3739 Circle
1368 3740 Circle
1375 3741 Circle
1381 3742 Circle
1388 3743 Circle
1395 3744 Circle
1401 3745 Circle
1408 3746 Circle
1415 3747 Circle
1421 3748 Circle
1428 3749 Circle
1435 3750 Circle
1441 3751 Circle
1448 3752 Circle
1455 3753 Circle
1461 3754 Circle
1468 3755 Circle
1475 3756 Circle
1481 3757 Circle
1488 3759 Circle
1495 3760 Circle
1501 3761 Circle
1508 3762 Circle
1515 3763 Circle
1521 3765 Circle
1528 3766 Circle
1535 3767 Circle
1541 3768 Circle
1548 3770 Circle
1555 3771 Circle
1561 3772 Circle
1568 3773 Circle
1575 3775 Circle
1581 3776 Circle
1588 3778 Circle
1595 3779 Circle
1601 3780 Circle
1608 3782 Circle
1614 3783 Circle
1621 3785 Circle
1628 3786 Circle
1634 3787 Circle
1641 3789 Circle
1648 3790 Circle
1654 3792 Circle
1661 3793 Circle
1668 3795 Circle
1674 3797 Circle
1681 3798 Circle
1688 3800 Circle
1694 3801 Circle
1701 3803 Circle
1708 3805 Circle
1714 3806 Circle
1721 3808 Circle
1728 3810 Circle
1734 3811 Circle
1741 3813 Circle
1748 3815 Circle
1754 3816 Circle
1761 3818 Circle
1768 3820 Circle
1774 3822 Circle
1781 3823 Circle
1788 3825 Circle
1794 3827 Circle
1801 3829 Circle
1808 3831 Circle
1814 3833 Circle
1821 3835 Circle
1828 3837 Circle
1834 3838 Circle
1841 3840 Circle
1848 3842 Circle
1854 3844 Circle
1861 3846 Circle
1868 3848 Circle
1874 3850 Circle
1881 3852 Circle
1887 3854 Circle
1894 3856 Circle
1901 3859 Circle
1907 3861 Circle
1914 3863 Circle
1921 3865 Circle
1927 3867 Circle
1934 3869 Circle
1941 3871 Circle
1947 3874 Circle
1954 3876 Circle
1961 3878 Circle
1967 3880 Circle
1974 3883 Circle
1981 3885 Circle
1987 3887 Circle
1994 3890 Circle
2001 3892 Circle
2007 3894 Circle
2014 3897 Circle
2021 3899 Circle
2027 3901 Circle
2034 3904 Circle
2041 3906 Circle
2047 3909 Circle
2054 3911 Circle
2061 3914 Circle
2067 3916 Circle
2074 3919 Circle
2081 3921 Circle
2087 3924 Circle
2094 3927 Circle
2101 3929 Circle
2107 3932 Circle
2114 3934 Circle
2121 3937 Circle
2127 3940 Circle
2134 3942 Circle
2141 3945 Circle
2147 3948 Circle
2154 3951 Circle
2161 3953 Circle
2167 3956 Circle
2174 3959 Circle
2180 3962 Circle
2187 3965 Circle
2194 3968 Circle
2200 3971 Circle
2207 3973 Circle
2214 3976 Circle
2220 3979 Circle
2227 3982 Circle
2234 3985 Circle
2240 3988 Circle
2247 3991 Circle
2254 3994 Circle
2260 3997 Circle
2267 4001 Circle
2274 4004 Circle
2280 4007 Circle
2287 4010 Circle
2294 4013 Circle
2300 4016 Circle
2307 4020 Circle
2314 4023 Circle
2320 4026 Circle
2327 4029 Circle
2334 4033 Circle
2340 4036 Circle
2347 4039 Circle
2354 4043 Circle
2360 4046 Circle
2367 4049 Circle
2374 4053 Circle
2380 4056 Circle
2387 4060 Circle
2394 4063 Circle
2400 4067 Circle
2407 4070 Circle
2414 4074 Circle
2420 4077 Circle
2427 4081 Circle
2434 4084 Circle
2440 4088 Circle
2447 4092 Circle
2453 4095 Circle
2460 4099 Circle
2467 4103 Circle
2473 4106 Circle
2480 4110 Circle
2487 4114 Circle
2493 4118 Circle
2500 4122 Circle
2507 4126 Circle
2513 4129 Circle
2520 4133 Circle
2527 4137 Circle
2533 4141 Circle
2540 4145 Circle
2547 4149 Circle
2553 4153 Circle
2560 4157 Circle
2567 4161 Circle
2573 4165 Circle
2580 4169 Circle
2587 4174 Circle
2593 4178 Circle
2600 4182 Circle
2607 4186 Circle
2613 4190 Circle
2620 4195 Circle
2627 4199 Circle
2633 4203 Circle
2640 4207 Circle
2647 4212 Circle
2653 4216 Circle
2660 4221 Circle
2667 4225 Circle
2673 4229 Circle
2680 4234 Circle
2687 4238 Circle
2693 4243 Circle
2700 4247 Circle
2707 4252 Circle
2713 4257 Circle
2720 4261 Circle
2727 4266 Circle
2733 4271 Circle
2740 4275 Circle
2746 4280 Circle
2753 4285 Circle
2760 4290 Circle
2766 4294 Circle
2773 4299 Circle
2780 4304 Circle
2786 4309 Circle
2793 4314 Circle
2800 4319 Circle
2806 4324 Circle
2813 4329 Circle
2820 4334 Circle
2826 4339 Circle
2833 4344 Circle
2840 4349 Circle
2846 4354 Circle
2853 4360 Circle
2860 4365 Circle
2866 4370 Circle
2873 4375 Circle
2880 4381 Circle
2886 4386 Circle
2893 4391 Circle
2900 4397 Circle
2906 4402 Circle
2913 4408 Circle
2920 4413 Circle
2926 4418 Circle
2933 4424 Circle
2940 4430 Circle
2946 4435 Circle
2953 4441 Circle
2960 4447 Circle
2966 4452 Circle
2973 4458 Circle
2980 4464 Circle
2986 4470 Circle
2993 4475 Circle
3000 4481 Circle
3006 4487 Circle
3013 4493 Circle
3020 4499 Circle
3026 4505 Circle
3033 4511 Circle
3039 4517 Circle
3046 4523 Circle
3053 4530 Circle
3059 4536 Circle
3066 4542 Circle
3073 4548 Circle
3079 4555 Circle
3086 4561 Circle
3093 4567 Circle
3099 4574 Circle
3106 4580 Circle
3113 4587 Circle
3119 4593 Circle
3126 4600 Circle
3133 4607 Circle
3139 4613 Circle
3146 4620 Circle
3153 4627 Circle
3159 4634 Circle
3166 4641 Circle
3173 4648 Circle
3179 4655 Circle
3186 4662 Circle
3193 4669 Circle
3199 4676 Circle
3206 4683 Circle
3213 4690 Circle
3219 4697 Circle
3226 4705 Circle
3233 4712 Circle
3239 4720 Circle
3246 4727 Circle
3253 4735 Circle
3259 4742 Circle
3266 4750 Circle
3273 4758 Circle
3279 4765 Circle
3286 4773 Circle
3293 4781 Circle
3299 4789 Circle
3306 4797 Circle
3312 4805 Circle
3319 4814 Circle
3326 4822 Circle
% End plot #12
% Begin plot #13
3.000 UL
LTb
LT2
0.34 0.71 0.91 C 882 2057 M
61 0 V
60 0 V
61 0 V
60 0 V
61 0 V
60 0 V
61 0 V
60 0 V
61 0 V
60 0 V
61 0 V
60 0 V
61 0 V
60 0 V
61 0 V
61 0 V
60 0 V
61 0 V
60 0 V
61 0 V
60 0 V
61 0 V
60 0 V
61 0 V
60 0 V
61 0 V
60 0 V
61 0 V
61 0 V
60 0 V
61 0 V
60 0 V
61 0 V
60 0 V
61 0 V
60 0 V
61 0 V
60 0 V
61 0 V
60 0 V
61 0 V
60 0 V
61 0 V
61 0 V
60 0 V
61 0 V
60 0 V
61 0 V
60 0 V
61 0 V
60 0 V
61 0 V
60 0 V
61 0 V
60 0 V
61 0 V
61 0 V
60 0 V
61 0 V
60 0 V
61 0 V
60 0 V
61 0 V
60 0 V
61 0 V
60 0 V
61 0 V
60 0 V
61 0 V
60 0 V
61 0 V
61 0 V
60 0 V
61 0 V
60 0 V
61 0 V
60 0 V
61 0 V
60 0 V
61 0 V
60 0 V
61 0 V
60 0 V
61 0 V
61 0 V
60 0 V
61 0 V
60 0 V
61 0 V
60 0 V
61 0 V
60 0 V
61 0 V
60 0 V
61 0 V
60 0 V
61 0 V
60 0 V
61 0 V
% End plot #13
% Begin plot #14
stroke
2.000 UL
LTb
LT1
0.00 0.45 0.70 C 882 2545 M
61 0 V
60 0 V
61 0 V
60 0 V
61 0 V
60 0 V
61 0 V
60 0 V
61 0 V
60 0 V
61 0 V
60 0 V
61 0 V
60 0 V
61 0 V
61 0 V
60 0 V
61 0 V
60 0 V
61 0 V
60 0 V
61 0 V
60 0 V
61 0 V
60 0 V
61 0 V
60 0 V
61 0 V
61 0 V
60 0 V
61 0 V
60 0 V
61 0 V
60 0 V
61 0 V
60 0 V
61 0 V
60 0 V
61 0 V
60 0 V
61 0 V
60 0 V
61 0 V
61 0 V
60 0 V
61 0 V
60 0 V
61 0 V
60 0 V
61 0 V
60 0 V
61 0 V
60 0 V
61 0 V
60 0 V
61 0 V
61 0 V
60 0 V
61 0 V
60 0 V
61 0 V
60 0 V
61 0 V
60 0 V
61 0 V
60 0 V
61 0 V
60 0 V
61 0 V
60 0 V
61 0 V
61 0 V
60 0 V
61 0 V
60 0 V
61 0 V
60 0 V
61 0 V
60 0 V
61 0 V
60 0 V
61 0 V
60 0 V
61 0 V
61 0 V
60 0 V
61 0 V
60 0 V
61 0 V
60 0 V
61 0 V
60 0 V
61 0 V
60 0 V
61 0 V
60 0 V
61 0 V
60 0 V
61 0 V
% End plot #14
stroke
LTb
LCb setrgbcolor
1.000 UP
LCb setrgbcolor
6209 4416 M
[ [(Helvetica) 180.0 0.0 true true 0 (SLY5*)]
] -60.0 MCshow
1.000 UL
LTb
0.50 0.50 0.50 C stroke
grestore
end
showpage
%%Trailer
%%DocumentFonts: Symbol Helvetica
