%!PS-Adobe-2.0 EPSF-2.0
%%Title: lr_SNM.eps
%%Creator: gnuplot 5.0 patchlevel 3
%%CreationDate: Fri Jun 23 23:05:20 2017
%%DocumentFonts: (atend)
%%BoundingBox: 50 50 410 302
%%EndComments
%%BeginProlog
/gnudict 256 dict def
gnudict begin
%
% The following true/false flags may be edited by hand if desired.
% The unit line width and grayscale image gamma correction may also be changed.
%
/Color true def
/Blacktext false def
/Solid false def
/Dashlength 1 def
/Landscape false def
/Level1 false def
/Level3 false def
/Rounded false def
/ClipToBoundingBox false def
/SuppressPDFMark false def
/TransparentPatterns false def
/gnulinewidth 5.000 def
/userlinewidth gnulinewidth def
/Gamma 1.0 def
/BackgroundColor {-1.000 -1.000 -1.000} def
%
/vshift -60 def
/dl1 {
  10.0 Dashlength userlinewidth gnulinewidth div mul mul mul
  Rounded { currentlinewidth 0.75 mul sub dup 0 le { pop 0.01 } if } if
} def
/dl2 {
  10.0 Dashlength userlinewidth gnulinewidth div mul mul mul
  Rounded { currentlinewidth 0.75 mul add } if
} def
/hpt_ 31.5 def
/vpt_ 31.5 def
/hpt hpt_ def
/vpt vpt_ def
/doclip {
  ClipToBoundingBox {
    newpath 50 50 moveto 410 50 lineto 410 302 lineto 50 302 lineto closepath
    clip
  } if
} def
%
% Gnuplot Prolog Version 5.1 (Oct 2015)
%
%/SuppressPDFMark true def
%
/M {moveto} bind def
/L {lineto} bind def
/R {rmoveto} bind def
/V {rlineto} bind def
/N {newpath moveto} bind def
/Z {closepath} bind def
/C {setrgbcolor} bind def
/f {rlineto fill} bind def
/g {setgray} bind def
/Gshow {show} def   % May be redefined later in the file to support UTF-8
/vpt2 vpt 2 mul def
/hpt2 hpt 2 mul def
/Lshow {currentpoint stroke M 0 vshift R 
	Blacktext {gsave 0 setgray textshow grestore} {textshow} ifelse} def
/Rshow {currentpoint stroke M dup stringwidth pop neg vshift R
	Blacktext {gsave 0 setgray textshow grestore} {textshow} ifelse} def
/Cshow {currentpoint stroke M dup stringwidth pop -2 div vshift R 
	Blacktext {gsave 0 setgray textshow grestore} {textshow} ifelse} def
/UP {dup vpt_ mul /vpt exch def hpt_ mul /hpt exch def
  /hpt2 hpt 2 mul def /vpt2 vpt 2 mul def} def
/DL {Color {setrgbcolor Solid {pop []} if 0 setdash}
 {pop pop pop 0 setgray Solid {pop []} if 0 setdash} ifelse} def
/BL {stroke userlinewidth 2 mul setlinewidth
	Rounded {1 setlinejoin 1 setlinecap} if} def
/AL {stroke userlinewidth 2 div setlinewidth
	Rounded {1 setlinejoin 1 setlinecap} if} def
/UL {dup gnulinewidth mul /userlinewidth exch def
	dup 1 lt {pop 1} if 10 mul /udl exch def} def
/PL {stroke userlinewidth setlinewidth
	Rounded {1 setlinejoin 1 setlinecap} if} def
3.8 setmiterlimit
% Classic Line colors (version 5.0)
/LCw {1 1 1} def
/LCb {0 0 0} def
/LCa {0 0 0} def
/LC0 {1 0 0} def
/LC1 {0 1 0} def
/LC2 {0 0 1} def
/LC3 {1 0 1} def
/LC4 {0 1 1} def
/LC5 {1 1 0} def
/LC6 {0 0 0} def
/LC7 {1 0.3 0} def
/LC8 {0.5 0.5 0.5} def
% Default dash patterns (version 5.0)
/LTB {BL [] LCb DL} def
/LTw {PL [] 1 setgray} def
/LTb {PL [] LCb DL} def
/LTa {AL [1 udl mul 2 udl mul] 0 setdash LCa setrgbcolor} def
/LT0 {PL [] LC0 DL} def
/LT1 {PL [2 dl1 3 dl2] LC1 DL} def
/LT2 {PL [1 dl1 1.5 dl2] LC2 DL} def
/LT3 {PL [6 dl1 2 dl2 1 dl1 2 dl2] LC3 DL} def
/LT4 {PL [1 dl1 2 dl2 6 dl1 2 dl2 1 dl1 2 dl2] LC4 DL} def
/LT5 {PL [4 dl1 2 dl2] LC5 DL} def
/LT6 {PL [1.5 dl1 1.5 dl2 1.5 dl1 1.5 dl2 1.5 dl1 6 dl2] LC6 DL} def
/LT7 {PL [3 dl1 3 dl2 1 dl1 3 dl2] LC7 DL} def
/LT8 {PL [2 dl1 2 dl2 2 dl1 6 dl2] LC8 DL} def
/SL {[] 0 setdash} def
/Pnt {stroke [] 0 setdash gsave 1 setlinecap M 0 0 V stroke grestore} def
/Dia {stroke [] 0 setdash 2 copy vpt add M
  hpt neg vpt neg V hpt vpt neg V
  hpt vpt V hpt neg vpt V closepath stroke
  Pnt} def
/Pls {stroke [] 0 setdash vpt sub M 0 vpt2 V
  currentpoint stroke M
  hpt neg vpt neg R hpt2 0 V stroke
 } def
/Box {stroke [] 0 setdash 2 copy exch hpt sub exch vpt add M
  0 vpt2 neg V hpt2 0 V 0 vpt2 V
  hpt2 neg 0 V closepath stroke
  Pnt} def
/Crs {stroke [] 0 setdash exch hpt sub exch vpt add M
  hpt2 vpt2 neg V currentpoint stroke M
  hpt2 neg 0 R hpt2 vpt2 V stroke} def
/TriU {stroke [] 0 setdash 2 copy vpt 1.12 mul add M
  hpt neg vpt -1.62 mul V
  hpt 2 mul 0 V
  hpt neg vpt 1.62 mul V closepath stroke
  Pnt} def
/Star {2 copy Pls Crs} def
/BoxF {stroke [] 0 setdash exch hpt sub exch vpt add M
  0 vpt2 neg V hpt2 0 V 0 vpt2 V
  hpt2 neg 0 V closepath fill} def
/TriUF {stroke [] 0 setdash vpt 1.12 mul add M
  hpt neg vpt -1.62 mul V
  hpt 2 mul 0 V
  hpt neg vpt 1.62 mul V closepath fill} def
/TriD {stroke [] 0 setdash 2 copy vpt 1.12 mul sub M
  hpt neg vpt 1.62 mul V
  hpt 2 mul 0 V
  hpt neg vpt -1.62 mul V closepath stroke
  Pnt} def
/TriDF {stroke [] 0 setdash vpt 1.12 mul sub M
  hpt neg vpt 1.62 mul V
  hpt 2 mul 0 V
  hpt neg vpt -1.62 mul V closepath fill} def
/DiaF {stroke [] 0 setdash vpt add M
  hpt neg vpt neg V hpt vpt neg V
  hpt vpt V hpt neg vpt V closepath fill} def
/Pent {stroke [] 0 setdash 2 copy gsave
  translate 0 hpt M 4 {72 rotate 0 hpt L} repeat
  closepath stroke grestore Pnt} def
/PentF {stroke [] 0 setdash gsave
  translate 0 hpt M 4 {72 rotate 0 hpt L} repeat
  closepath fill grestore} def
/Circle {stroke [] 0 setdash 2 copy
  hpt 0 360 arc stroke Pnt} def
/CircleF {stroke [] 0 setdash hpt 0 360 arc fill} def
/C0 {BL [] 0 setdash 2 copy moveto vpt 90 450 arc} bind def
/C1 {BL [] 0 setdash 2 copy moveto
	2 copy vpt 0 90 arc closepath fill
	vpt 0 360 arc closepath} bind def
/C2 {BL [] 0 setdash 2 copy moveto
	2 copy vpt 90 180 arc closepath fill
	vpt 0 360 arc closepath} bind def
/C3 {BL [] 0 setdash 2 copy moveto
	2 copy vpt 0 180 arc closepath fill
	vpt 0 360 arc closepath} bind def
/C4 {BL [] 0 setdash 2 copy moveto
	2 copy vpt 180 270 arc closepath fill
	vpt 0 360 arc closepath} bind def
/C5 {BL [] 0 setdash 2 copy moveto
	2 copy vpt 0 90 arc
	2 copy moveto
	2 copy vpt 180 270 arc closepath fill
	vpt 0 360 arc} bind def
/C6 {BL [] 0 setdash 2 copy moveto
	2 copy vpt 90 270 arc closepath fill
	vpt 0 360 arc closepath} bind def
/C7 {BL [] 0 setdash 2 copy moveto
	2 copy vpt 0 270 arc closepath fill
	vpt 0 360 arc closepath} bind def
/C8 {BL [] 0 setdash 2 copy moveto
	2 copy vpt 270 360 arc closepath fill
	vpt 0 360 arc closepath} bind def
/C9 {BL [] 0 setdash 2 copy moveto
	2 copy vpt 270 450 arc closepath fill
	vpt 0 360 arc closepath} bind def
/C10 {BL [] 0 setdash 2 copy 2 copy moveto vpt 270 360 arc closepath fill
	2 copy moveto
	2 copy vpt 90 180 arc closepath fill
	vpt 0 360 arc closepath} bind def
/C11 {BL [] 0 setdash 2 copy moveto
	2 copy vpt 0 180 arc closepath fill
	2 copy moveto
	2 copy vpt 270 360 arc closepath fill
	vpt 0 360 arc closepath} bind def
/C12 {BL [] 0 setdash 2 copy moveto
	2 copy vpt 180 360 arc closepath fill
	vpt 0 360 arc closepath} bind def
/C13 {BL [] 0 setdash 2 copy moveto
	2 copy vpt 0 90 arc closepath fill
	2 copy moveto
	2 copy vpt 180 360 arc closepath fill
	vpt 0 360 arc closepath} bind def
/C14 {BL [] 0 setdash 2 copy moveto
	2 copy vpt 90 360 arc closepath fill
	vpt 0 360 arc} bind def
/C15 {BL [] 0 setdash 2 copy vpt 0 360 arc closepath fill
	vpt 0 360 arc closepath} bind def
/Rec {newpath 4 2 roll moveto 1 index 0 rlineto 0 exch rlineto
	neg 0 rlineto closepath} bind def
/Square {dup Rec} bind def
/Bsquare {vpt sub exch vpt sub exch vpt2 Square} bind def
/S0 {BL [] 0 setdash 2 copy moveto 0 vpt rlineto BL Bsquare} bind def
/S1 {BL [] 0 setdash 2 copy vpt Square fill Bsquare} bind def
/S2 {BL [] 0 setdash 2 copy exch vpt sub exch vpt Square fill Bsquare} bind def
/S3 {BL [] 0 setdash 2 copy exch vpt sub exch vpt2 vpt Rec fill Bsquare} bind def
/S4 {BL [] 0 setdash 2 copy exch vpt sub exch vpt sub vpt Square fill Bsquare} bind def
/S5 {BL [] 0 setdash 2 copy 2 copy vpt Square fill
	exch vpt sub exch vpt sub vpt Square fill Bsquare} bind def
/S6 {BL [] 0 setdash 2 copy exch vpt sub exch vpt sub vpt vpt2 Rec fill Bsquare} bind def
/S7 {BL [] 0 setdash 2 copy exch vpt sub exch vpt sub vpt vpt2 Rec fill
	2 copy vpt Square fill Bsquare} bind def
/S8 {BL [] 0 setdash 2 copy vpt sub vpt Square fill Bsquare} bind def
/S9 {BL [] 0 setdash 2 copy vpt sub vpt vpt2 Rec fill Bsquare} bind def
/S10 {BL [] 0 setdash 2 copy vpt sub vpt Square fill 2 copy exch vpt sub exch vpt Square fill
	Bsquare} bind def
/S11 {BL [] 0 setdash 2 copy vpt sub vpt Square fill 2 copy exch vpt sub exch vpt2 vpt Rec fill
	Bsquare} bind def
/S12 {BL [] 0 setdash 2 copy exch vpt sub exch vpt sub vpt2 vpt Rec fill Bsquare} bind def
/S13 {BL [] 0 setdash 2 copy exch vpt sub exch vpt sub vpt2 vpt Rec fill
	2 copy vpt Square fill Bsquare} bind def
/S14 {BL [] 0 setdash 2 copy exch vpt sub exch vpt sub vpt2 vpt Rec fill
	2 copy exch vpt sub exch vpt Square fill Bsquare} bind def
/S15 {BL [] 0 setdash 2 copy Bsquare fill Bsquare} bind def
/D0 {gsave translate 45 rotate 0 0 S0 stroke grestore} bind def
/D1 {gsave translate 45 rotate 0 0 S1 stroke grestore} bind def
/D2 {gsave translate 45 rotate 0 0 S2 stroke grestore} bind def
/D3 {gsave translate 45 rotate 0 0 S3 stroke grestore} bind def
/D4 {gsave translate 45 rotate 0 0 S4 stroke grestore} bind def
/D5 {gsave translate 45 rotate 0 0 S5 stroke grestore} bind def
/D6 {gsave translate 45 rotate 0 0 S6 stroke grestore} bind def
/D7 {gsave translate 45 rotate 0 0 S7 stroke grestore} bind def
/D8 {gsave translate 45 rotate 0 0 S8 stroke grestore} bind def
/D9 {gsave translate 45 rotate 0 0 S9 stroke grestore} bind def
/D10 {gsave translate 45 rotate 0 0 S10 stroke grestore} bind def
/D11 {gsave translate 45 rotate 0 0 S11 stroke grestore} bind def
/D12 {gsave translate 45 rotate 0 0 S12 stroke grestore} bind def
/D13 {gsave translate 45 rotate 0 0 S13 stroke grestore} bind def
/D14 {gsave translate 45 rotate 0 0 S14 stroke grestore} bind def
/D15 {gsave translate 45 rotate 0 0 S15 stroke grestore} bind def
/DiaE {stroke [] 0 setdash vpt add M
  hpt neg vpt neg V hpt vpt neg V
  hpt vpt V hpt neg vpt V closepath stroke} def
/BoxE {stroke [] 0 setdash exch hpt sub exch vpt add M
  0 vpt2 neg V hpt2 0 V 0 vpt2 V
  hpt2 neg 0 V closepath stroke} def
/TriUE {stroke [] 0 setdash vpt 1.12 mul add M
  hpt neg vpt -1.62 mul V
  hpt 2 mul 0 V
  hpt neg vpt 1.62 mul V closepath stroke} def
/TriDE {stroke [] 0 setdash vpt 1.12 mul sub M
  hpt neg vpt 1.62 mul V
  hpt 2 mul 0 V
  hpt neg vpt -1.62 mul V closepath stroke} def
/PentE {stroke [] 0 setdash gsave
  translate 0 hpt M 4 {72 rotate 0 hpt L} repeat
  closepath stroke grestore} def
/CircE {stroke [] 0 setdash 
  hpt 0 360 arc stroke} def
/Opaque {gsave closepath 1 setgray fill grestore 0 setgray closepath} def
/DiaW {stroke [] 0 setdash vpt add M
  hpt neg vpt neg V hpt vpt neg V
  hpt vpt V hpt neg vpt V Opaque stroke} def
/BoxW {stroke [] 0 setdash exch hpt sub exch vpt add M
  0 vpt2 neg V hpt2 0 V 0 vpt2 V
  hpt2 neg 0 V Opaque stroke} def
/TriUW {stroke [] 0 setdash vpt 1.12 mul add M
  hpt neg vpt -1.62 mul V
  hpt 2 mul 0 V
  hpt neg vpt 1.62 mul V Opaque stroke} def
/TriDW {stroke [] 0 setdash vpt 1.12 mul sub M
  hpt neg vpt 1.62 mul V
  hpt 2 mul 0 V
  hpt neg vpt -1.62 mul V Opaque stroke} def
/PentW {stroke [] 0 setdash gsave
  translate 0 hpt M 4 {72 rotate 0 hpt L} repeat
  Opaque stroke grestore} def
/CircW {stroke [] 0 setdash 
  hpt 0 360 arc Opaque stroke} def
/BoxFill {gsave Rec 1 setgray fill grestore} def
/Density {
  /Fillden exch def
  currentrgbcolor
  /ColB exch def /ColG exch def /ColR exch def
  /ColR ColR Fillden mul Fillden sub 1 add def
  /ColG ColG Fillden mul Fillden sub 1 add def
  /ColB ColB Fillden mul Fillden sub 1 add def
  ColR ColG ColB setrgbcolor} def
/BoxColFill {gsave Rec PolyFill} def
/PolyFill {gsave Density fill grestore grestore} def
/h {rlineto rlineto rlineto gsave closepath fill grestore} bind def
%
% PostScript Level 1 Pattern Fill routine for rectangles
% Usage: x y w h s a XX PatternFill
%	x,y = lower left corner of box to be filled
%	w,h = width and height of box
%	  a = angle in degrees between lines and x-axis
%	 XX = 0/1 for no/yes cross-hatch
%
/PatternFill {gsave /PFa [ 9 2 roll ] def
  PFa 0 get PFa 2 get 2 div add PFa 1 get PFa 3 get 2 div add translate
  PFa 2 get -2 div PFa 3 get -2 div PFa 2 get PFa 3 get Rec
  TransparentPatterns {} {gsave 1 setgray fill grestore} ifelse
  clip
  currentlinewidth 0.5 mul setlinewidth
  /PFs PFa 2 get dup mul PFa 3 get dup mul add sqrt def
  0 0 M PFa 5 get rotate PFs -2 div dup translate
  0 1 PFs PFa 4 get div 1 add floor cvi
	{PFa 4 get mul 0 M 0 PFs V} for
  0 PFa 6 get ne {
	0 1 PFs PFa 4 get div 1 add floor cvi
	{PFa 4 get mul 0 2 1 roll M PFs 0 V} for
 } if
  stroke grestore} def
%
/languagelevel where
 {pop languagelevel} {1} ifelse
dup 2 lt
	{/InterpretLevel1 true def
	 /InterpretLevel3 false def}
	{/InterpretLevel1 Level1 def
	 2 gt
	    {/InterpretLevel3 Level3 def}
	    {/InterpretLevel3 false def}
	 ifelse }
 ifelse
%
% PostScript level 2 pattern fill definitions
%
/Level2PatternFill {
/Tile8x8 {/PaintType 2 /PatternType 1 /TilingType 1 /BBox [0 0 8 8] /XStep 8 /YStep 8}
	bind def
/KeepColor {currentrgbcolor [/Pattern /DeviceRGB] setcolorspace} bind def
<< Tile8x8
 /PaintProc {0.5 setlinewidth pop 0 0 M 8 8 L 0 8 M 8 0 L stroke} 
>> matrix makepattern
/Pat1 exch def
<< Tile8x8
 /PaintProc {0.5 setlinewidth pop 0 0 M 8 8 L 0 8 M 8 0 L stroke
	0 4 M 4 8 L 8 4 L 4 0 L 0 4 L stroke}
>> matrix makepattern
/Pat2 exch def
<< Tile8x8
 /PaintProc {0.5 setlinewidth pop 0 0 M 0 8 L
	8 8 L 8 0 L 0 0 L fill}
>> matrix makepattern
/Pat3 exch def
<< Tile8x8
 /PaintProc {0.5 setlinewidth pop -4 8 M 8 -4 L
	0 12 M 12 0 L stroke}
>> matrix makepattern
/Pat4 exch def
<< Tile8x8
 /PaintProc {0.5 setlinewidth pop -4 0 M 8 12 L
	0 -4 M 12 8 L stroke}
>> matrix makepattern
/Pat5 exch def
<< Tile8x8
 /PaintProc {0.5 setlinewidth pop -2 8 M 4 -4 L
	0 12 M 8 -4 L 4 12 M 10 0 L stroke}
>> matrix makepattern
/Pat6 exch def
<< Tile8x8
 /PaintProc {0.5 setlinewidth pop -2 0 M 4 12 L
	0 -4 M 8 12 L 4 -4 M 10 8 L stroke}
>> matrix makepattern
/Pat7 exch def
<< Tile8x8
 /PaintProc {0.5 setlinewidth pop 8 -2 M -4 4 L
	12 0 M -4 8 L 12 4 M 0 10 L stroke}
>> matrix makepattern
/Pat8 exch def
<< Tile8x8
 /PaintProc {0.5 setlinewidth pop 0 -2 M 12 4 L
	-4 0 M 12 8 L -4 4 M 8 10 L stroke}
>> matrix makepattern
/Pat9 exch def
/Pattern1 {PatternBgnd KeepColor Pat1 setpattern} bind def
/Pattern2 {PatternBgnd KeepColor Pat2 setpattern} bind def
/Pattern3 {PatternBgnd KeepColor Pat3 setpattern} bind def
/Pattern4 {PatternBgnd KeepColor Landscape {Pat5} {Pat4} ifelse setpattern} bind def
/Pattern5 {PatternBgnd KeepColor Landscape {Pat4} {Pat5} ifelse setpattern} bind def
/Pattern6 {PatternBgnd KeepColor Landscape {Pat9} {Pat6} ifelse setpattern} bind def
/Pattern7 {PatternBgnd KeepColor Landscape {Pat8} {Pat7} ifelse setpattern} bind def
} def
%
%
%End of PostScript Level 2 code
%
/PatternBgnd {
  TransparentPatterns {} {gsave 1 setgray fill grestore} ifelse
} def
%
% Substitute for Level 2 pattern fill codes with
% grayscale if Level 2 support is not selected.
%
/Level1PatternFill {
/Pattern1 {0.250 Density} bind def
/Pattern2 {0.500 Density} bind def
/Pattern3 {0.750 Density} bind def
/Pattern4 {0.125 Density} bind def
/Pattern5 {0.375 Density} bind def
/Pattern6 {0.625 Density} bind def
/Pattern7 {0.875 Density} bind def
} def
%
% Now test for support of Level 2 code
%
Level1 {Level1PatternFill} {Level2PatternFill} ifelse
%
/Symbol-Oblique /Symbol findfont [1 0 .167 1 0 0] makefont
dup length dict begin {1 index /FID eq {pop pop} {def} ifelse} forall
currentdict end definefont pop
%
/MFshow {
   { dup 5 get 3 ge
     { 5 get 3 eq {gsave} {grestore} ifelse }
     {dup dup 0 get findfont exch 1 get scalefont setfont
     [ currentpoint ] exch dup 2 get 0 exch R dup 5 get 2 ne {dup dup 6
     get exch 4 get {textshow} {stringwidth pop 0 R} ifelse }if dup 5 get 0 eq
     {dup 3 get {2 get neg 0 exch R pop} {pop aload pop M} ifelse} {dup 5
     get 1 eq {dup 2 get exch dup 3 get exch 6 get stringwidth pop -2 div
     dup 0 R} {dup 6 get stringwidth pop -2 div 0 R 6 get
     textshow 2 index {aload pop M neg 3 -1 roll neg R pop pop} {pop pop pop
     pop aload pop M} ifelse }ifelse }ifelse }
     ifelse }
   forall} def
/Gswidth {dup type /stringtype eq {stringwidth} {pop (n) stringwidth} ifelse} def
/MFwidth {0 exch { dup 5 get 3 ge { 5 get 3 eq { 0 } { pop } ifelse }
 {dup 3 get{dup dup 0 get findfont exch 1 get scalefont setfont
     6 get Gswidth pop add} {pop} ifelse} ifelse} forall} def
/MLshow { currentpoint stroke M
  0 exch R
  Blacktext {gsave 0 setgray MFshow grestore} {MFshow} ifelse } bind def
/MRshow { currentpoint stroke M
  exch dup MFwidth neg 3 -1 roll R
  Blacktext {gsave 0 setgray MFshow grestore} {MFshow} ifelse } bind def
/MCshow { currentpoint stroke M
  exch dup MFwidth -2 div 3 -1 roll R
  Blacktext {gsave 0 setgray MFshow grestore} {MFshow} ifelse } bind def
/XYsave    { [( ) 1 2 true false 3 ()] } bind def
/XYrestore { [( ) 1 2 true false 4 ()] } bind def
Level1 SuppressPDFMark or 
{} {
/SDict 10 dict def
systemdict /pdfmark known not {
  userdict /pdfmark systemdict /cleartomark get put
} if
SDict begin [
  /Title (lr_SNM.eps)
  /Subject (gnuplot plot)
  /Creator (gnuplot 5.0 patchlevel 3)
  /Author (kb2)
%  /Producer (gnuplot)
%  /Keywords ()
  /CreationDate (Fri Jun 23 23:05:20 2017)
  /DOCINFO pdfmark
end
} ifelse
%
% Support for boxed text - Ethan A Merritt May 2005
%
/InitTextBox { userdict /TBy2 3 -1 roll put userdict /TBx2 3 -1 roll put
           userdict /TBy1 3 -1 roll put userdict /TBx1 3 -1 roll put
	   /Boxing true def } def
/ExtendTextBox { Boxing
    { gsave dup false charpath pathbbox
      dup TBy2 gt {userdict /TBy2 3 -1 roll put} {pop} ifelse
      dup TBx2 gt {userdict /TBx2 3 -1 roll put} {pop} ifelse
      dup TBy1 lt {userdict /TBy1 3 -1 roll put} {pop} ifelse
      dup TBx1 lt {userdict /TBx1 3 -1 roll put} {pop} ifelse
      grestore } if } def
/PopTextBox { newpath TBx1 TBxmargin sub TBy1 TBymargin sub M
               TBx1 TBxmargin sub TBy2 TBymargin add L
	       TBx2 TBxmargin add TBy2 TBymargin add L
	       TBx2 TBxmargin add TBy1 TBymargin sub L closepath } def
/DrawTextBox { PopTextBox stroke /Boxing false def} def
/FillTextBox { gsave PopTextBox 1 1 1 setrgbcolor fill grestore /Boxing false def} def
0 0 0 0 InitTextBox
/TBxmargin 20 def
/TBymargin 20 def
/Boxing false def
/textshow { ExtendTextBox Gshow } def
%
% redundant definitions for compatibility with prologue.ps older than 5.0.2
/LTB {BL [] LCb DL} def
/LTb {PL [] LCb DL} def
end
%%EndProlog
%%Page: 1 1
gnudict begin
gsave
doclip
50 50 translate
0.050 0.050 scale
0 setgray
newpath
(Helvetica) findfont 180 scalefont setfont
BackgroundColor 0 lt 3 1 roll 0 lt exch 0 lt or or not {BackgroundColor C 1.000 0 0 7200.00 5040.00 BoxColFill} if
1.000 UL
LTb
0.50 0.50 0.50 C 1.000 UL
LTa
0.50 0.50 0.50 C 882 756 M
5993 0 V
stroke
LTb
0.50 0.50 0.50 C 882 756 M
63 0 V
5930 0 R
-63 0 V
stroke
774 756 M
[ [(Helvetica) 180.0 0.0 true true 0 ( 0)]
] -60.0 MRshow
1.000 UL
LTb
0.50 0.50 0.50 C 1.000 UL
LTa
0.50 0.50 0.50 C 882 1569 M
4535 0 V
stroke
LTb
0.50 0.50 0.50 C 882 1569 M
63 0 V
5930 0 R
-63 0 V
stroke
774 1569 M
[ [(Helvetica) 180.0 0.0 true true 0 ( 0.1)]
] -60.0 MRshow
1.000 UL
LTb
0.50 0.50 0.50 C 1.000 UL
LTa
0.50 0.50 0.50 C 882 2383 M
5993 0 V
stroke
LTb
0.50 0.50 0.50 C 882 2383 M
63 0 V
5930 0 R
-63 0 V
stroke
774 2383 M
[ [(Helvetica) 180.0 0.0 true true 0 ( 0.2)]
] -60.0 MRshow
1.000 UL
LTb
0.50 0.50 0.50 C 1.000 UL
LTa
0.50 0.50 0.50 C 882 3196 M
5993 0 V
stroke
LTb
0.50 0.50 0.50 C 882 3196 M
63 0 V
5930 0 R
-63 0 V
stroke
774 3196 M
[ [(Helvetica) 180.0 0.0 true true 0 ( 0.3)]
] -60.0 MRshow
1.000 UL
LTb
0.50 0.50 0.50 C 1.000 UL
LTa
0.50 0.50 0.50 C 882 4010 M
5993 0 V
stroke
LTb
0.50 0.50 0.50 C 882 4010 M
63 0 V
5930 0 R
-63 0 V
stroke
774 4010 M
[ [(Helvetica) 180.0 0.0 true true 0 ( 0.4)]
] -60.0 MRshow
1.000 UL
LTb
0.50 0.50 0.50 C 1.000 UL
LTa
0.50 0.50 0.50 C 882 4823 M
5993 0 V
stroke
LTb
0.50 0.50 0.50 C 882 4823 M
63 0 V
5930 0 R
-63 0 V
stroke
774 4823 M
[ [(Helvetica) 180.0 0.0 true true 0 ( 0.5)]
] -60.0 MRshow
1.000 UL
LTb
0.50 0.50 0.50 C 1.000 UL
LTa
0.50 0.50 0.50 C 882 756 M
0 4067 V
stroke
LTb
0.50 0.50 0.50 C 882 756 M
0 63 V
0 4004 R
0 -63 V
stroke
882 576 M
[ [(Helvetica) 180.0 0.0 true true 0 ( 0)]
] -60.0 MCshow
1.000 UL
LTb
0.50 0.50 0.50 C 1.000 UL
LTa
0.50 0.50 0.50 C 1548 756 M
0 4067 V
stroke
LTb
0.50 0.50 0.50 C 1548 756 M
0 63 V
0 4004 R
0 -63 V
stroke
1548 576 M
[ [(Helvetica) 180.0 0.0 true true 0 ( 1)]
] -60.0 MCshow
1.000 UL
LTb
0.50 0.50 0.50 C 1.000 UL
LTa
0.50 0.50 0.50 C 2214 756 M
0 4067 V
stroke
LTb
0.50 0.50 0.50 C 2214 756 M
0 63 V
0 4004 R
0 -63 V
stroke
2214 576 M
[ [(Helvetica) 180.0 0.0 true true 0 ( 2)]
] -60.0 MCshow
1.000 UL
LTb
0.50 0.50 0.50 C 1.000 UL
LTa
0.50 0.50 0.50 C 2880 756 M
0 4067 V
stroke
LTb
0.50 0.50 0.50 C 2880 756 M
0 63 V
0 4004 R
0 -63 V
stroke
2880 576 M
[ [(Helvetica) 180.0 0.0 true true 0 ( 3)]
] -60.0 MCshow
1.000 UL
LTb
0.50 0.50 0.50 C 1.000 UL
LTa
0.50 0.50 0.50 C 3546 756 M
0 4067 V
stroke
LTb
0.50 0.50 0.50 C 3546 756 M
0 63 V
0 4004 R
0 -63 V
stroke
3546 576 M
[ [(Helvetica) 180.0 0.0 true true 0 ( 4)]
] -60.0 MCshow
1.000 UL
LTb
0.50 0.50 0.50 C 1.000 UL
LTa
0.50 0.50 0.50 C 4211 756 M
0 4067 V
stroke
LTb
0.50 0.50 0.50 C 4211 756 M
0 63 V
0 4004 R
0 -63 V
stroke
4211 576 M
[ [(Helvetica) 180.0 0.0 true true 0 ( 5)]
] -60.0 MCshow
1.000 UL
LTb
0.50 0.50 0.50 C 1.000 UL
LTa
0.50 0.50 0.50 C 4877 756 M
0 4067 V
stroke
LTb
0.50 0.50 0.50 C 4877 756 M
0 63 V
0 4004 R
0 -63 V
stroke
4877 576 M
[ [(Helvetica) 180.0 0.0 true true 0 ( 6)]
] -60.0 MCshow
1.000 UL
LTb
0.50 0.50 0.50 C 1.000 UL
LTa
0.50 0.50 0.50 C 5543 756 M
0 157 V
0 900 R
0 3010 V
stroke
LTb
0.50 0.50 0.50 C 5543 756 M
0 63 V
0 4004 R
0 -63 V
stroke
5543 576 M
[ [(Helvetica) 180.0 0.0 true true 0 ( 7)]
] -60.0 MCshow
1.000 UL
LTb
0.50 0.50 0.50 C 1.000 UL
LTa
0.50 0.50 0.50 C 6209 756 M
0 157 V
0 900 R
0 3010 V
stroke
LTb
0.50 0.50 0.50 C 6209 756 M
0 63 V
0 4004 R
0 -63 V
stroke
6209 576 M
[ [(Helvetica) 180.0 0.0 true true 0 ( 8)]
] -60.0 MCshow
1.000 UL
LTb
0.50 0.50 0.50 C 1.000 UL
LTa
0.50 0.50 0.50 C 6875 756 M
0 4067 V
stroke
LTb
0.50 0.50 0.50 C 6875 756 M
0 63 V
0 4004 R
0 -63 V
stroke
6875 576 M
[ [(Helvetica) 180.0 0.0 true true 0 ( 9)]
] -60.0 MCshow
1.000 UL
LTb
0.50 0.50 0.50 C 1.000 UL
LTB
0.50 0.50 0.50 C 882 4823 M
882 756 L
5993 0 V
0 4067 R
-5993 0 R
stroke
LTb
1.00 1.00 1.00 C 1.000 5777 4236 864 360 BoxColFill
LCb setrgbcolor
5777 4236 N
0 360 V
864 0 V
0 -360 V
-864 0 V
Z stroke
1.000 UP
LCb setrgbcolor
416 2057 M
[ [(Symbol) 180.0 0.0 true true 0 (r)]
[(Helvetica) 144.0 -54.0 true true 0 (sat)]
] -42.0 MLshow
LCb setrgbcolor
416 2627 M
[ [(Symbol) 180.0 0.0 true true 0 (r)]
[(Helvetica) 144.0 -54.0 true true 0 (crit)]
] -42.0 MLshow
1.000 UL
LTb
0.50 0.50 0.50 C LCb setrgbcolor
144 2789 M
currentpoint gsave translate -270 rotate 0 0 moveto
[ [(Symbol) 180.0 0.0 true true 0 (r)]
[(Helvetica) 180.0 0.0 true true 0 ( [fm)]
[(Helvetica) 144.0 90.0 true true 0 (-3)]
[(Helvetica) 180.0 0.0 true true 0 (])]
] -78.0 MCshow
grestore
LTb
LCb setrgbcolor
3878 306 M
[ [(Helvetica) 180.0 0.0 true true 0 (q [fm)]
[(Helvetica) 144.0 90.0 true true 0 (-1)]
[(Helvetica) 180.0 0.0 true true 0 (])]
] -78.0 MCshow
LTb
% Begin plot #1
2.000 UP
1.000 UL
LTb
0.91 0.59 0.48 C LCb setrgbcolor
6272 1738 M
[ [(Helvetica) 150.0 0.0 true true 0 (Canal S=0 M=0 I=0)]
] -50.0 MRshow
2.000 UP
1.000 UL
LTb
0.91 0.59 0.48 C 6573 1738 CircleF
% End plot #1
% Begin plot #2
0.250 UP
1.000 UL
LTb
0.91 0.59 0.48 C 889 1686 Circle
895 1686 Circle
902 1686 Circle
909 1687 Circle
915 1687 Circle
922 1688 Circle
929 1688 Circle
935 1689 Circle
942 1690 Circle
949 1691 Circle
955 1692 Circle
962 1693 Circle
969 1694 Circle
975 1695 Circle
982 1697 Circle
989 1698 Circle
995 1700 Circle
1002 1701 Circle
1009 1703 Circle
1015 1705 Circle
1022 1707 Circle
1028 1709 Circle
1035 1712 Circle
1042 1714 Circle
1048 1716 Circle
1055 1719 Circle
1062 1721 Circle
1068 1724 Circle
1075 1727 Circle
1082 1730 Circle
1088 1733 Circle
1095 1736 Circle
1102 1740 Circle
1108 1743 Circle
1115 1746 Circle
1122 1750 Circle
1128 1754 Circle
1135 1758 Circle
1142 1762 Circle
1148 1766 Circle
1155 1770 Circle
1162 1775 Circle
1168 1779 Circle
1175 1784 Circle
1182 1789 Circle
1188 1794 Circle
1195 1799 Circle
1202 1804 Circle
1208 1810 Circle
1215 1815 Circle
1222 1821 Circle
1228 1827 Circle
1235 1833 Circle
1242 1839 Circle
1248 1845 Circle
1255 1852 Circle
1262 1858 Circle
1268 1865 Circle
1275 1872 Circle
1282 1880 Circle
1288 1887 Circle
1295 1895 Circle
1302 1902 Circle
1308 1910 Circle
1315 1919 Circle
1321 1927 Circle
1328 1936 Circle
1335 1945 Circle
1341 1954 Circle
1348 1963 Circle
1355 1973 Circle
1361 1982 Circle
1368 1993 Circle
1375 2003 Circle
1381 2013 Circle
1388 2024 Circle
1395 2035 Circle
1401 2047 Circle
1408 2059 Circle
1415 2071 Circle
1421 2083 Circle
1428 2096 Circle
1435 2109 Circle
1441 2122 Circle
1448 2136 Circle
1455 2150 Circle
1461 2165 Circle
1468 2180 Circle
1475 2195 Circle
1481 2211 Circle
1488 2227 Circle
1495 2244 Circle
1501 2261 Circle
1508 2278 Circle
1515 2296 Circle
1521 2315 Circle
1528 2334 Circle
1535 2354 Circle
1541 2374 Circle
1548 2395 Circle
1555 2417 Circle
1561 2439 Circle
1568 2462 Circle
1575 2486 Circle
1581 2510 Circle
1588 2535 Circle
1595 2561 Circle
1601 2588 Circle
1608 2616 Circle
1614 2645 Circle
1621 2674 Circle
1628 2705 Circle
1634 2737 Circle
1641 2770 Circle
1648 2804 Circle
1654 2839 Circle
1661 2876 Circle
1668 2914 Circle
1674 2953 Circle
1681 2994 Circle
1688 3037 Circle
1694 3082 Circle
1701 3128 Circle
1708 3176 Circle
1714 3227 Circle
1721 3279 Circle
1728 3334 Circle
1734 3392 Circle
1741 3452 Circle
1748 3516 Circle
1754 3582 Circle
1761 3653 Circle
1768 3727 Circle
1774 3806 Circle
1781 3889 Circle
1788 3977 Circle
1794 4072 Circle
1801 4173 Circle
1808 4282 Circle
1814 4401 Circle
1821 4530 Circle
1828 4672 Circle
1834 940 Circle
1841 944 Circle
1848 948 Circle
1854 952 Circle
1861 955 Circle
1868 959 Circle
1874 963 Circle
1881 967 Circle
1887 971 Circle
1894 975 Circle
1901 979 Circle
1907 983 Circle
1914 987 Circle
1921 991 Circle
1927 996 Circle
1934 1000 Circle
1941 1004 Circle
1947 1009 Circle
1954 1013 Circle
1961 1018 Circle
1967 1022 Circle
1974 1027 Circle
1981 1032 Circle
1987 1036 Circle
1994 1041 Circle
2001 1046 Circle
2007 1051 Circle
2014 1056 Circle
2021 1061 Circle
2027 1066 Circle
2034 1071 Circle
2041 1076 Circle
2047 1081 Circle
2054 1087 Circle
2061 1092 Circle
2067 1097 Circle
2074 1103 Circle
2081 1108 Circle
2087 1114 Circle
2094 1119 Circle
2101 1125 Circle
2107 1131 Circle
2114 1136 Circle
2121 1142 Circle
2127 1148 Circle
2134 1154 Circle
2141 1160 Circle
2147 1166 Circle
2154 1172 Circle
2161 1178 Circle
2167 1184 Circle
2174 1190 Circle
2180 1196 Circle
2187 1203 Circle
2194 1209 Circle
2200 1215 Circle
2207 1222 Circle
2214 1228 Circle
2220 1235 Circle
2227 1241 Circle
2234 1248 Circle
2240 1255 Circle
2247 1261 Circle
2254 1268 Circle
2260 1275 Circle
2267 1282 Circle
2274 1289 Circle
2280 1296 Circle
2287 1303 Circle
2294 1310 Circle
2300 1317 Circle
2307 1324 Circle
2314 1331 Circle
2320 1338 Circle
2327 1346 Circle
2334 1353 Circle
2340 1360 Circle
2347 1367 Circle
2354 1375 Circle
2360 1382 Circle
2367 1390 Circle
2374 1397 Circle
2380 1405 Circle
2387 1412 Circle
2394 1420 Circle
2400 1428 Circle
2407 1435 Circle
2414 1443 Circle
2420 1451 Circle
2427 1459 Circle
2434 1466 Circle
2440 1474 Circle
2447 1482 Circle
2453 1490 Circle
2460 1498 Circle
2467 1506 Circle
2473 1514 Circle
2480 1522 Circle
2487 1530 Circle
2493 1538 Circle
2500 1546 Circle
2507 1554 Circle
2513 1563 Circle
2520 1571 Circle
2527 1579 Circle
2533 1587 Circle
2540 1596 Circle
2547 1604 Circle
2553 1612 Circle
2560 1621 Circle
2567 1629 Circle
2573 1637 Circle
2580 1646 Circle
2587 1654 Circle
2593 1663 Circle
2600 1671 Circle
2607 1680 Circle
2613 1688 Circle
2620 1697 Circle
2627 1705 Circle
2633 1714 Circle
2640 1722 Circle
2647 1731 Circle
2653 1740 Circle
2660 1748 Circle
2667 1757 Circle
2673 1766 Circle
2680 1774 Circle
2687 1783 Circle
2693 1792 Circle
2700 1801 Circle
2707 1810 Circle
2713 1818 Circle
2720 1827 Circle
2727 1836 Circle
2733 1845 Circle
2740 1854 Circle
2746 1863 Circle
2753 1871 Circle
2760 1880 Circle
2766 1889 Circle
2773 1898 Circle
2780 1907 Circle
2786 1916 Circle
2793 1925 Circle
2800 1934 Circle
2806 1943 Circle
2813 1952 Circle
2820 1962 Circle
2826 1971 Circle
2833 1980 Circle
2840 1989 Circle
2846 1998 Circle
2853 2007 Circle
2860 2016 Circle
2866 2026 Circle
2873 2035 Circle
2880 2044 Circle
2886 2053 Circle
2893 2062 Circle
2900 2072 Circle
2906 2081 Circle
2913 2090 Circle
2920 2100 Circle
2926 2109 Circle
2933 2118 Circle
2940 2128 Circle
2946 2137 Circle
2953 2147 Circle
2960 2156 Circle
2966 2165 Circle
2973 2175 Circle
2980 2184 Circle
2986 2194 Circle
2993 2203 Circle
3000 2213 Circle
3006 2222 Circle
3013 2232 Circle
3020 2242 Circle
3026 2251 Circle
3033 2261 Circle
3039 2270 Circle
3046 2280 Circle
3053 2290 Circle
3059 2299 Circle
3066 2309 Circle
3073 2319 Circle
3079 2329 Circle
3086 2338 Circle
3093 2348 Circle
3099 2358 Circle
3106 2368 Circle
3113 2378 Circle
3119 2387 Circle
3126 2397 Circle
3133 2407 Circle
3139 2417 Circle
3146 2427 Circle
3153 2437 Circle
3159 2447 Circle
3166 2457 Circle
3173 2467 Circle
3179 2477 Circle
3186 2487 Circle
3193 2497 Circle
3199 2507 Circle
3206 2518 Circle
3213 2528 Circle
3219 2538 Circle
3226 2548 Circle
3233 2558 Circle
3239 2569 Circle
3246 2579 Circle
3253 2589 Circle
3259 2600 Circle
3266 2610 Circle
3273 2620 Circle
3279 2631 Circle
3286 2641 Circle
3293 2652 Circle
3299 2662 Circle
3306 2673 Circle
3312 2683 Circle
3319 2694 Circle
3326 2704 Circle
3332 2715 Circle
3339 2726 Circle
3346 2736 Circle
3352 2747 Circle
3359 2758 Circle
3366 2769 Circle
3372 2779 Circle
3379 2790 Circle
3386 2801 Circle
3392 2812 Circle
3399 2823 Circle
3406 2834 Circle
3412 2845 Circle
3419 2856 Circle
3426 2867 Circle
3432 2878 Circle
3439 2889 Circle
3446 2900 Circle
3452 2911 Circle
3459 2922 Circle
3466 2933 Circle
3472 2945 Circle
3479 2956 Circle
3486 2967 Circle
3492 2978 Circle
3499 2990 Circle
3506 3001 Circle
3512 3013 Circle
3519 3024 Circle
3526 3036 Circle
3532 3047 Circle
3539 3059 Circle
3546 3070 Circle
3552 3082 Circle
3559 3094 Circle
3566 3105 Circle
3572 3117 Circle
3579 3129 Circle
3586 3140 Circle
3592 3152 Circle
3599 3164 Circle
3605 3176 Circle
3612 3188 Circle
3619 3200 Circle
3625 3212 Circle
3632 3224 Circle
3639 3236 Circle
3645 3248 Circle
3652 3260 Circle
3659 3273 Circle
3665 3285 Circle
3672 3297 Circle
3679 3310 Circle
3685 3322 Circle
3692 3334 Circle
3699 3347 Circle
3705 3359 Circle
3712 3372 Circle
3719 3384 Circle
3725 3397 Circle
3732 3409 Circle
3739 3422 Circle
3745 3435 Circle
3752 3448 Circle
3759 3460 Circle
3765 3473 Circle
3772 3486 Circle
3779 3499 Circle
3785 3512 Circle
3792 3525 Circle
3799 3538 Circle
3805 3551 Circle
3812 3564 Circle
3819 3577 Circle
3825 3591 Circle
3832 3604 Circle
3839 3617 Circle
3845 3631 Circle
3852 3644 Circle
3859 3657 Circle
3865 3671 Circle
3872 3684 Circle
3879 3698 Circle
3885 3712 Circle
3892 3725 Circle
3898 3739 Circle
3905 3753 Circle
3912 3767 Circle
3918 3780 Circle
3925 3794 Circle
3932 3808 Circle
3938 3822 Circle
3945 3836 Circle
3952 3850 Circle
3958 3865 Circle
3965 3879 Circle
3972 3893 Circle
3978 3907 Circle
3985 3922 Circle
3992 3936 Circle
3998 3950 Circle
4005 3965 Circle
4012 3980 Circle
4018 3994 Circle
4025 4009 Circle
4032 4023 Circle
4038 4038 Circle
4045 4053 Circle
4052 4068 Circle
4058 4083 Circle
4065 4098 Circle
4072 4113 Circle
4078 4128 Circle
4085 4143 Circle
4092 4158 Circle
4098 4173 Circle
4105 4188 Circle
4112 4204 Circle
4118 4219 Circle
4125 4235 Circle
4132 4250 Circle
4138 4265 Circle
4145 4281 Circle
4152 4297 Circle
4158 4312 Circle
4165 4328 Circle
4171 4344 Circle
4178 4360 Circle
4185 4376 Circle
4191 4392 Circle
4198 4408 Circle
4205 4424 Circle
4211 4440 Circle
4218 4456 Circle
4225 4472 Circle
4231 4489 Circle
4238 4505 Circle
4245 4521 Circle
4251 4538 Circle
4258 4554 Circle
4265 4571 Circle
4271 4588 Circle
4278 4604 Circle
4285 4621 Circle
4291 4638 Circle
4298 4655 Circle
4305 4672 Circle
4311 4689 Circle
4318 4706 Circle
4325 4723 Circle
4331 4740 Circle
4338 4757 Circle
4345 4775 Circle
4351 4792 Circle
4358 4809 Circle
1435 797 Circle
1441 798 Circle
1448 800 Circle
1455 801 Circle
1461 803 Circle
1468 804 Circle
1475 805 Circle
1481 807 Circle
1488 809 Circle
1495 810 Circle
1501 812 Circle
1508 813 Circle
1515 815 Circle
1521 817 Circle
1528 819 Circle
1535 821 Circle
1541 822 Circle
1548 824 Circle
1555 826 Circle
1561 828 Circle
1568 830 Circle
1575 832 Circle
1581 834 Circle
1588 836 Circle
1595 839 Circle
1601 841 Circle
1608 843 Circle
1614 845 Circle
1621 847 Circle
1628 850 Circle
1634 852 Circle
1641 854 Circle
1648 857 Circle
1654 859 Circle
1661 862 Circle
1668 864 Circle
1674 867 Circle
1681 869 Circle
1688 872 Circle
1694 875 Circle
1701 877 Circle
1708 880 Circle
1714 883 Circle
1721 886 Circle
1728 889 Circle
1734 892 Circle
1741 894 Circle
1748 897 Circle
1754 901 Circle
1761 904 Circle
1768 907 Circle
1774 910 Circle
1781 913 Circle
1788 916 Circle
1794 920 Circle
1801 923 Circle
1808 926 Circle
1814 930 Circle
1821 933 Circle
1828 937 Circle
% End plot #2
% Begin plot #3
2.000 UP
1.000 UL
LTb
0.55 0.00 0.00 C LCb setrgbcolor
6272 1588 M
[ [(Helvetica) 150.0 0.0 true true 0 (Canal S=0 M=0 I=1)]
] -50.0 MRshow
2.000 UP
1.000 UL
LTb
0.55 0.00 0.00 C 6573 1588 CircleF
% End plot #3
% Begin plot #4
0.250 UP
1.000 UL
LTb
0.55 0.00 0.00 C 4671 4814 Circle
4678 4753 Circle
4684 4693 Circle
4691 4634 Circle
4698 4575 Circle
4704 4517 Circle
4711 4460 Circle
4718 4404 Circle
4724 4349 Circle
4731 4295 Circle
4737 4242 Circle
4744 4189 Circle
4751 4137 Circle
4757 4086 Circle
4764 4037 Circle
4771 3987 Circle
4777 3939 Circle
4784 3892 Circle
4791 3845 Circle
4797 3799 Circle
4804 3754 Circle
4811 3710 Circle
4817 3667 Circle
4824 3624 Circle
4831 3583 Circle
4837 3542 Circle
4844 3502 Circle
4851 3462 Circle
4857 3423 Circle
4864 3385 Circle
4871 3348 Circle
4877 3312 Circle
4884 3276 Circle
4891 3240 Circle
4897 3206 Circle
4904 3172 Circle
4911 3139 Circle
4917 3106 Circle
4924 3074 Circle
4931 3043 Circle
4937 3012 Circle
4944 2982 Circle
4951 2953 Circle
4957 2924 Circle
4964 2895 Circle
4971 2868 Circle
4977 2840 Circle
4984 2813 Circle
4991 2787 Circle
4997 2761 Circle
5004 2736 Circle
5011 2711 Circle
5017 2687 Circle
5024 2663 Circle
5030 2639 Circle
5037 2616 Circle
5044 2594 Circle
5050 2572 Circle
5057 2550 Circle
5064 2529 Circle
5070 2508 Circle
5077 2487 Circle
5084 2467 Circle
5090 2447 Circle
5097 2428 Circle
5104 2409 Circle
5110 2390 Circle
5117 2372 Circle
5124 2354 Circle
5130 2336 Circle
5137 2319 Circle
5144 2301 Circle
5150 2285 Circle
5157 2268 Circle
5164 2252 Circle
5170 2236 Circle
5177 2220 Circle
5184 2205 Circle
5190 2190 Circle
5197 2175 Circle
5204 2160 Circle
5210 2146 Circle
5217 2132 Circle
5224 2118 Circle
5230 2104 Circle
5237 2091 Circle
5244 2078 Circle
5250 2065 Circle
5257 2052 Circle
5264 2039 Circle
5270 2027 Circle
5277 2015 Circle
5284 2003 Circle
5290 1991 Circle
5297 1979 Circle
5304 1968 Circle
5310 1957 Circle
5317 1946 Circle
5323 1935 Circle
5330 1924 Circle
5337 1913 Circle
5343 1903 Circle
5350 1893 Circle
5357 1883 Circle
5363 1873 Circle
5370 1863 Circle
5377 1853 Circle
5383 1844 Circle
5390 1834 Circle
5397 1825 Circle
5403 1816 Circle
5410 1807 Circle
5417 1798 Circle
5423 1790 Circle
5430 1781 Circle
5437 1773 Circle
5443 1764 Circle
5450 1756 Circle
5457 1748 Circle
5463 1740 Circle
5470 1732 Circle
5477 1724 Circle
5483 1717 Circle
5490 1709 Circle
5497 1702 Circle
5503 1694 Circle
5510 1687 Circle
5517 1680 Circle
5523 1673 Circle
5530 1666 Circle
5537 1659 Circle
5543 1652 Circle
5550 1645 Circle
5557 1639 Circle
5563 1632 Circle
5570 1626 Circle
5577 1619 Circle
5583 1613 Circle
5590 1607 Circle
5596 1601 Circle
5603 1595 Circle
5610 1589 Circle
5616 1583 Circle
5623 1577 Circle
5630 1571 Circle
5636 1566 Circle
5643 1560 Circle
5650 1554 Circle
5656 1549 Circle
5663 1543 Circle
5670 1538 Circle
5676 1533 Circle
5683 1527 Circle
5690 1522 Circle
5696 1517 Circle
5703 1512 Circle
5710 1507 Circle
5716 1502 Circle
5723 1497 Circle
5730 1492 Circle
5736 1488 Circle
5743 1483 Circle
5750 1478 Circle
5756 1474 Circle
5763 1469 Circle
5770 1465 Circle
5776 1460 Circle
5783 1456 Circle
5790 1451 Circle
5796 1447 Circle
5803 1443 Circle
5810 1438 Circle
5816 1434 Circle
5823 1430 Circle
5830 1426 Circle
5836 1422 Circle
5843 1418 Circle
5850 1414 Circle
5856 1410 Circle
5863 1406 Circle
5870 1402 Circle
5876 1398 Circle
5883 1395 Circle
5889 1391 Circle
5896 1387 Circle
5903 1384 Circle
5909 1380 Circle
5916 1376 Circle
5923 1373 Circle
5929 1369 Circle
5936 1366 Circle
5943 1362 Circle
5949 1359 Circle
5956 1356 Circle
5963 1352 Circle
5969 1349 Circle
5976 1346 Circle
5983 1342 Circle
5989 1339 Circle
5996 1336 Circle
6003 1333 Circle
6009 1330 Circle
6016 1327 Circle
6023 1323 Circle
6029 1320 Circle
6036 1317 Circle
6043 1314 Circle
6049 1311 Circle
6056 1308 Circle
6063 1306 Circle
6069 1303 Circle
6076 1300 Circle
6083 1297 Circle
6089 1294 Circle
6096 1291 Circle
6103 1289 Circle
6109 1286 Circle
6116 1283 Circle
6123 1281 Circle
6129 1278 Circle
6136 1275 Circle
6143 1273 Circle
6149 1270 Circle
6156 1267 Circle
6162 1265 Circle
6169 1262 Circle
6176 1260 Circle
6182 1257 Circle
6189 1255 Circle
6196 1253 Circle
6202 1250 Circle
6209 1248 Circle
6216 1245 Circle
6222 1243 Circle
6229 1241 Circle
6236 1238 Circle
6242 1236 Circle
6249 1234 Circle
6256 1231 Circle
6262 1229 Circle
6269 1227 Circle
6276 1225 Circle
6282 1223 Circle
6289 1220 Circle
6296 1218 Circle
6302 1216 Circle
6309 1214 Circle
6316 1212 Circle
6322 1210 Circle
6329 1208 Circle
6336 1206 Circle
6342 1204 Circle
6349 1202 Circle
6356 1200 Circle
6362 1198 Circle
6369 1196 Circle
6376 1194 Circle
6382 1192 Circle
6389 1190 Circle
6396 1188 Circle
6402 1186 Circle
6409 1184 Circle
6416 1182 Circle
6422 1180 Circle
6429 1178 Circle
6436 1177 Circle
6442 1175 Circle
6449 1173 Circle
6455 1171 Circle
6462 1169 Circle
6469 1168 Circle
6475 1166 Circle
6482 1164 Circle
6489 1162 Circle
6495 1161 Circle
6502 1159 Circle
6509 1157 Circle
6515 1156 Circle
6522 1154 Circle
6529 1152 Circle
6535 1151 Circle
6542 1149 Circle
6549 1147 Circle
6555 1146 Circle
6562 1144 Circle
6569 1143 Circle
6575 1141 Circle
6582 1139 Circle
6589 1138 Circle
6595 1136 Circle
6602 1135 Circle
6609 1133 Circle
6615 1132 Circle
6622 1130 Circle
6629 1129 Circle
6635 1127 Circle
6642 1126 Circle
6649 1124 Circle
6655 1123 Circle
6662 1121 Circle
6669 1120 Circle
6675 1119 Circle
6682 1117 Circle
6689 1116 Circle
6695 1114 Circle
6702 1113 Circle
6709 1112 Circle
6715 1110 Circle
6722 1109 Circle
6729 1108 Circle
6735 1106 Circle
6742 1105 Circle
6748 1104 Circle
6755 1102 Circle
6762 1101 Circle
6768 1100 Circle
6775 1098 Circle
6782 1097 Circle
6788 1096 Circle
6795 1094 Circle
6802 1093 Circle
6808 1092 Circle
6815 1091 Circle
6822 1090 Circle
6828 1088 Circle
6835 1087 Circle
6842 1086 Circle
6848 1085 Circle
6855 1083 Circle
6862 1082 Circle
6868 1081 Circle
6875 1080 Circle
% End plot #4
% Begin plot #5
2.000 UP
1.000 UL
LTb
0.33 0.42 0.18 C LCb setrgbcolor
6272 1438 M
[ [(Helvetica) 150.0 0.0 true true 0 (Canal S=1 M=0 I=0)]
] -50.0 MRshow
2.000 UP
1.000 UL
LTb
0.33 0.42 0.18 C 6573 1438 CircleF
% End plot #5
% Begin plot #6
0.250 UP
1.000 UL
LTb
0.33 0.42 0.18 C 1448 4697 Circle
1455 4206 Circle
1461 4120 Circle
1468 4051 Circle
1475 3991 Circle
1481 3937 Circle
1488 3888 Circle
1495 3842 Circle
1501 3799 Circle
1508 3759 Circle
1515 3720 Circle
1521 3684 Circle
1528 3649 Circle
1535 3615 Circle
1541 3582 Circle
1548 3551 Circle
1555 3520 Circle
1561 3490 Circle
1568 3461 Circle
1575 3433 Circle
1581 3405 Circle
1588 3378 Circle
1595 3352 Circle
1601 3326 Circle
1608 3300 Circle
1614 3276 Circle
1621 3251 Circle
1628 3227 Circle
1634 3204 Circle
1641 3180 Circle
1648 3157 Circle
1654 3135 Circle
1661 3113 Circle
1668 3091 Circle
1674 3069 Circle
1681 3048 Circle
1688 3027 Circle
1694 3007 Circle
1701 2986 Circle
1708 2966 Circle
1714 2946 Circle
1721 2926 Circle
1728 2907 Circle
1734 2888 Circle
1741 2869 Circle
1748 2850 Circle
1754 2832 Circle
1761 2813 Circle
1768 2795 Circle
1774 2777 Circle
1781 2760 Circle
1788 2742 Circle
1794 2725 Circle
1801 2708 Circle
1808 2691 Circle
1814 2674 Circle
1821 2657 Circle
1828 2641 Circle
1834 2624 Circle
1841 2608 Circle
1848 2592 Circle
1854 2576 Circle
1861 2561 Circle
1868 2545 Circle
1874 2530 Circle
1881 2515 Circle
1887 2500 Circle
1894 2485 Circle
1901 2470 Circle
1907 2456 Circle
1914 2441 Circle
1921 2427 Circle
1927 2413 Circle
1934 2399 Circle
1941 2385 Circle
1947 2371 Circle
1954 2358 Circle
1961 2345 Circle
1967 2331 Circle
1974 2318 Circle
1981 2305 Circle
1987 2292 Circle
1994 2280 Circle
2001 2267 Circle
2007 2255 Circle
2014 2242 Circle
2021 2230 Circle
2027 2218 Circle
2034 2206 Circle
2041 2195 Circle
2047 2183 Circle
2054 2172 Circle
2061 2160 Circle
2067 2149 Circle
2074 2138 Circle
2081 2127 Circle
2087 2117 Circle
2094 2106 Circle
2101 2096 Circle
2107 2085 Circle
2114 2075 Circle
2121 2065 Circle
2127 2055 Circle
2134 2045 Circle
2141 2036 Circle
2147 2026 Circle
2154 2017 Circle
2161 2008 Circle
2167 1999 Circle
2174 1990 Circle
2180 1981 Circle
2187 1973 Circle
2194 1964 Circle
2200 1956 Circle
2207 1948 Circle
2214 1940 Circle
2220 1932 Circle
2227 1925 Circle
2234 1917 Circle
2240 1910 Circle
2247 1903 Circle
2254 1896 Circle
2260 1889 Circle
2267 1882 Circle
2274 1876 Circle
2280 1869 Circle
2287 1863 Circle
2294 1857 Circle
2300 1852 Circle
2307 1846 Circle
2314 1841 Circle
2320 1835 Circle
2327 1830 Circle
2334 1825 Circle
2340 1821 Circle
2347 1816 Circle
2354 1812 Circle
2360 1808 Circle
2367 1804 Circle
2374 1800 Circle
2380 1797 Circle
2387 1794 Circle
2394 1791 Circle
2400 1788 Circle
2407 1786 Circle
2414 1783 Circle
2420 1781 Circle
2427 1780 Circle
2434 1778 Circle
2440 1777 Circle
2447 1776 Circle
2453 1775 Circle
2460 1775 Circle
2467 1775 Circle
2473 1775 Circle
2480 1776 Circle
2487 1777 Circle
2493 1779 Circle
2500 1781 Circle
2507 1783 Circle
2513 1786 Circle
2520 1789 Circle
2527 1794 Circle
2533 1800 Circle
2540 1805 Circle
2547 1809 Circle
2553 1813 Circle
2560 1816 Circle
2567 1819 Circle
2573 1822 Circle
2580 1825 Circle
2587 1828 Circle
2593 1830 Circle
2600 1833 Circle
2607 1835 Circle
2613 1838 Circle
2620 1840 Circle
2627 1842 Circle
2633 1844 Circle
2640 1846 Circle
2647 1848 Circle
2653 1850 Circle
2660 1852 Circle
2667 1854 Circle
2673 1856 Circle
2680 1857 Circle
2687 1859 Circle
2693 1861 Circle
2700 1863 Circle
2707 1864 Circle
2713 1866 Circle
2720 1867 Circle
2727 1869 Circle
2733 1871 Circle
2740 1872 Circle
2746 1874 Circle
2753 1875 Circle
2760 1877 Circle
2766 1878 Circle
2773 1880 Circle
2780 1881 Circle
2786 1883 Circle
2793 1884 Circle
2800 1885 Circle
2806 1887 Circle
2813 1888 Circle
2820 1890 Circle
2826 1891 Circle
2833 1892 Circle
2840 1894 Circle
2846 1895 Circle
2853 1896 Circle
2860 1898 Circle
2866 1899 Circle
2873 1901 Circle
2880 1902 Circle
2886 1903 Circle
2893 1905 Circle
2900 1906 Circle
2906 1907 Circle
2913 1909 Circle
2920 1910 Circle
2926 1911 Circle
2933 1912 Circle
2940 1914 Circle
2946 1915 Circle
2953 1916 Circle
2960 1918 Circle
2966 1919 Circle
2973 1920 Circle
2980 1922 Circle
2986 1923 Circle
2993 1924 Circle
3000 1926 Circle
3006 1927 Circle
3013 1928 Circle
3020 1929 Circle
3026 1931 Circle
3033 1932 Circle
3039 1933 Circle
3046 1935 Circle
3053 1936 Circle
3059 1937 Circle
3066 1939 Circle
3073 1940 Circle
3079 1941 Circle
3086 1943 Circle
3093 1944 Circle
3099 1945 Circle
3106 1947 Circle
3113 1948 Circle
3119 1949 Circle
3126 1951 Circle
3133 1952 Circle
3139 1953 Circle
3146 1955 Circle
3153 1956 Circle
3159 1958 Circle
3166 1959 Circle
3173 1960 Circle
3179 1962 Circle
3186 1963 Circle
3193 1965 Circle
3199 1966 Circle
3206 1967 Circle
3213 1969 Circle
3219 1970 Circle
3226 1972 Circle
3233 1973 Circle
3239 1974 Circle
3246 1976 Circle
3253 1977 Circle
3259 1979 Circle
3266 1980 Circle
3273 1982 Circle
3279 1983 Circle
3286 1984 Circle
3293 1986 Circle
3299 1987 Circle
3306 1989 Circle
3312 1990 Circle
3319 1992 Circle
3326 1993 Circle
3332 1995 Circle
3339 1996 Circle
3346 1998 Circle
3352 1999 Circle
3359 2001 Circle
3366 2002 Circle
3372 2004 Circle
3379 2005 Circle
3386 2007 Circle
3392 2008 Circle
3399 2010 Circle
3406 2011 Circle
3412 2013 Circle
3419 2015 Circle
3426 2016 Circle
3432 2018 Circle
3439 2019 Circle
3446 2021 Circle
3452 2023 Circle
3459 2024 Circle
3466 2026 Circle
3472 2027 Circle
3479 2029 Circle
3486 2031 Circle
3492 2032 Circle
3499 2034 Circle
3506 2036 Circle
3512 2037 Circle
3519 2039 Circle
3526 2041 Circle
3532 2042 Circle
3539 2044 Circle
3546 2046 Circle
3552 2047 Circle
3559 2049 Circle
3566 2051 Circle
3572 2052 Circle
3579 2054 Circle
3586 2056 Circle
3592 2058 Circle
3599 2059 Circle
3605 2061 Circle
3612 2063 Circle
3619 2065 Circle
3625 2066 Circle
3632 2068 Circle
3639 2070 Circle
3645 2072 Circle
3652 2073 Circle
3659 2075 Circle
3665 2077 Circle
3672 2079 Circle
3679 2081 Circle
3685 2083 Circle
3692 2084 Circle
3699 2086 Circle
3705 2088 Circle
3712 2090 Circle
3719 2092 Circle
3725 2094 Circle
3732 2096 Circle
3739 2098 Circle
3745 2099 Circle
3752 2101 Circle
3759 2103 Circle
3765 2105 Circle
3772 2107 Circle
3779 2109 Circle
3785 2111 Circle
3792 2113 Circle
3799 2115 Circle
3805 2117 Circle
3812 2119 Circle
3819 2121 Circle
3825 2123 Circle
3832 2125 Circle
3839 2127 Circle
3845 2129 Circle
3852 2131 Circle
3859 2133 Circle
3865 2135 Circle
3872 2137 Circle
3879 2139 Circle
3885 2141 Circle
3892 2143 Circle
3898 2145 Circle
3905 2147 Circle
3912 2150 Circle
3918 2152 Circle
3925 2154 Circle
3932 2156 Circle
3938 2158 Circle
3945 2160 Circle
3952 2162 Circle
3958 2164 Circle
3965 2167 Circle
3972 2169 Circle
3978 2171 Circle
3985 2173 Circle
3992 2175 Circle
3998 2178 Circle
4005 2180 Circle
4012 2182 Circle
4018 2184 Circle
4025 2186 Circle
4032 2189 Circle
4038 2191 Circle
4045 2193 Circle
4052 2195 Circle
4058 2198 Circle
4065 2200 Circle
4072 2202 Circle
4078 2205 Circle
4085 2207 Circle
4092 2209 Circle
4098 2212 Circle
4105 2214 Circle
4112 2216 Circle
4118 2219 Circle
4125 2221 Circle
4132 2223 Circle
4138 2226 Circle
4145 2228 Circle
4152 2231 Circle
4158 2233 Circle
4165 2235 Circle
4171 2238 Circle
4178 2240 Circle
4185 2243 Circle
4191 2245 Circle
4198 2248 Circle
4205 2250 Circle
4211 2253 Circle
4218 2255 Circle
4225 2258 Circle
4231 2260 Circle
4238 2263 Circle
4245 2265 Circle
4251 2268 Circle
4258 2270 Circle
4265 2273 Circle
4271 2275 Circle
4278 2278 Circle
4285 2280 Circle
4291 2283 Circle
4298 2286 Circle
4305 2288 Circle
4311 2291 Circle
4318 2293 Circle
4325 2296 Circle
4331 2299 Circle
4338 2301 Circle
4345 2304 Circle
4351 2307 Circle
4358 2309 Circle
4365 2312 Circle
4371 2315 Circle
4378 2317 Circle
4385 2320 Circle
4391 2323 Circle
4398 2326 Circle
4405 2328 Circle
4411 2331 Circle
4418 2334 Circle
4425 2337 Circle
4431 2339 Circle
4438 2342 Circle
4445 2345 Circle
4451 2348 Circle
4458 2351 Circle
4464 2353 Circle
4471 2356 Circle
4478 2359 Circle
4484 2362 Circle
4491 2365 Circle
4498 2368 Circle
4504 2371 Circle
4511 2373 Circle
4518 2376 Circle
4524 2379 Circle
4531 2382 Circle
4538 2385 Circle
4544 2388 Circle
4551 2391 Circle
4558 2394 Circle
4564 2397 Circle
4571 2400 Circle
4578 2403 Circle
4584 2406 Circle
4591 2409 Circle
4598 2412 Circle
4604 2415 Circle
4611 2418 Circle
4618 2421 Circle
4624 2424 Circle
4631 2427 Circle
4638 2430 Circle
4644 2433 Circle
4651 2436 Circle
4658 2439 Circle
4664 2442 Circle
4671 2445 Circle
4678 2448 Circle
4684 2451 Circle
4691 2454 Circle
4698 2457 Circle
4704 2461 Circle
4711 2464 Circle
4718 2467 Circle
4724 2470 Circle
4731 2473 Circle
4737 2476 Circle
4744 2479 Circle
4751 2483 Circle
4757 2486 Circle
4764 2489 Circle
4771 2492 Circle
4777 2495 Circle
4784 2499 Circle
4791 2502 Circle
4797 2505 Circle
4804 2508 Circle
4811 2512 Circle
4817 2515 Circle
4824 2518 Circle
4831 2521 Circle
4837 2525 Circle
4844 2528 Circle
4851 2531 Circle
4857 2535 Circle
4864 2538 Circle
4871 2541 Circle
4877 2545 Circle
4884 2548 Circle
4891 2551 Circle
4897 2555 Circle
4904 2558 Circle
4911 2561 Circle
4917 2565 Circle
4924 2568 Circle
4931 2572 Circle
4937 2575 Circle
4944 2578 Circle
4951 2582 Circle
4957 2585 Circle
4964 2589 Circle
4971 2592 Circle
4977 2595 Circle
4984 2599 Circle
4991 2602 Circle
4997 2606 Circle
5004 2609 Circle
5011 2613 Circle
5017 2616 Circle
5024 2620 Circle
5030 2623 Circle
5037 2627 Circle
5044 2630 Circle
5050 2634 Circle
5057 2637 Circle
5064 2641 Circle
5070 2644 Circle
5077 2648 Circle
5084 2651 Circle
5090 2655 Circle
5097 2659 Circle
5104 2662 Circle
5110 2666 Circle
5117 2669 Circle
5124 2673 Circle
5130 2676 Circle
5137 2680 Circle
5144 2684 Circle
5150 2687 Circle
5157 2691 Circle
5164 2694 Circle
5170 2698 Circle
5177 2702 Circle
5184 2705 Circle
5190 2709 Circle
5197 2713 Circle
5204 2716 Circle
5210 2720 Circle
5217 2724 Circle
5224 2727 Circle
5230 2731 Circle
5237 2735 Circle
5244 2738 Circle
5250 2742 Circle
5257 2746 Circle
5264 2749 Circle
5270 2753 Circle
5277 2757 Circle
5284 2761 Circle
5290 2764 Circle
5297 2768 Circle
5304 2772 Circle
5310 2775 Circle
5317 2779 Circle
5323 2783 Circle
5330 2787 Circle
5337 2790 Circle
5343 2794 Circle
5350 2798 Circle
5357 2802 Circle
5363 2805 Circle
5370 2809 Circle
5377 2813 Circle
5383 2817 Circle
5390 2821 Circle
5397 2824 Circle
5403 2828 Circle
5410 2832 Circle
5417 2836 Circle
5423 2840 Circle
5430 2843 Circle
5437 2847 Circle
5443 2851 Circle
5450 2855 Circle
5457 2859 Circle
5463 2862 Circle
5470 2866 Circle
5477 2870 Circle
5483 2874 Circle
5490 2878 Circle
5497 2882 Circle
5503 2885 Circle
5510 2889 Circle
5517 2893 Circle
5523 2897 Circle
5530 2901 Circle
5537 2905 Circle
5543 2909 Circle
5550 2912 Circle
5557 2916 Circle
5563 2920 Circle
5570 2924 Circle
5577 2928 Circle
5583 2932 Circle
5590 2936 Circle
5596 2939 Circle
5603 2943 Circle
5610 2947 Circle
5616 2951 Circle
5623 2955 Circle
5630 2959 Circle
5636 2963 Circle
5643 2967 Circle
5650 2971 Circle
5656 2974 Circle
5663 2978 Circle
5670 2982 Circle
5676 2986 Circle
5683 2990 Circle
5690 2994 Circle
5696 2998 Circle
5703 3002 Circle
5710 3006 Circle
5716 3010 Circle
5723 3013 Circle
5730 3017 Circle
5736 3021 Circle
5743 3025 Circle
5750 3029 Circle
5756 3033 Circle
5763 3037 Circle
5770 3041 Circle
5776 3045 Circle
5783 3049 Circle
5790 3053 Circle
5796 3056 Circle
5803 3060 Circle
5810 3064 Circle
5816 3068 Circle
5823 3072 Circle
5830 3076 Circle
5836 3080 Circle
5843 3084 Circle
5850 3088 Circle
5856 3092 Circle
5863 3096 Circle
5870 3100 Circle
5876 3103 Circle
5883 3107 Circle
5889 3111 Circle
5896 3115 Circle
5903 3119 Circle
5909 3123 Circle
5916 3127 Circle
5923 3131 Circle
5929 3135 Circle
5936 3139 Circle
5943 3143 Circle
5949 3147 Circle
5956 3150 Circle
5963 3154 Circle
5969 3158 Circle
5976 3162 Circle
5983 3166 Circle
5989 3170 Circle
5996 3174 Circle
6003 3178 Circle
6009 3182 Circle
6016 3186 Circle
6023 3189 Circle
6029 3193 Circle
6036 3197 Circle
6043 3201 Circle
6049 3205 Circle
6056 3209 Circle
6063 3213 Circle
6069 3217 Circle
6076 3221 Circle
6083 3225 Circle
6089 3228 Circle
6096 3232 Circle
6103 3236 Circle
6109 3240 Circle
6116 3244 Circle
6123 3248 Circle
6129 3252 Circle
6136 3255 Circle
6143 3259 Circle
6149 3263 Circle
6156 3267 Circle
6162 3271 Circle
6169 3275 Circle
6176 3279 Circle
6182 3283 Circle
6189 3286 Circle
6196 3290 Circle
6202 3294 Circle
6209 3298 Circle
6216 3302 Circle
6222 3306 Circle
6229 3310 Circle
6236 3313 Circle
6242 3317 Circle
6249 3321 Circle
6256 3325 Circle
6262 3329 Circle
6269 3332 Circle
6276 3336 Circle
6282 3340 Circle
6289 3344 Circle
6296 3348 Circle
6302 3352 Circle
6309 3355 Circle
6316 3359 Circle
6322 3363 Circle
6329 3367 Circle
6336 3371 Circle
6342 3374 Circle
6349 3378 Circle
6356 3382 Circle
6362 3386 Circle
6369 3389 Circle
6376 3393 Circle
6382 3397 Circle
6389 3401 Circle
6396 3405 Circle
6402 3408 Circle
6409 3412 Circle
6416 3416 Circle
6422 3420 Circle
6429 3423 Circle
6436 3427 Circle
6442 3431 Circle
6449 3435 Circle
6455 3438 Circle
6462 3442 Circle
6469 3446 Circle
6475 3449 Circle
6482 3453 Circle
6489 3457 Circle
6495 3461 Circle
6502 3464 Circle
6509 3468 Circle
6515 3472 Circle
6522 3475 Circle
6529 3479 Circle
6535 3483 Circle
6542 3487 Circle
6549 3490 Circle
6555 3494 Circle
6562 3498 Circle
6569 3501 Circle
6575 3505 Circle
6582 3509 Circle
6589 3512 Circle
6595 3516 Circle
6602 3520 Circle
6609 3523 Circle
6615 3527 Circle
6622 3531 Circle
6629 3534 Circle
6635 3538 Circle
6642 3541 Circle
6649 3545 Circle
6655 3549 Circle
6662 3552 Circle
6669 3556 Circle
6675 3559 Circle
6682 3563 Circle
6689 3567 Circle
6695 3570 Circle
6702 3574 Circle
6709 3577 Circle
6715 3581 Circle
6722 3585 Circle
6729 3588 Circle
6735 3592 Circle
6742 3595 Circle
6748 3599 Circle
6755 3602 Circle
6762 3606 Circle
6768 3609 Circle
6775 3613 Circle
6782 3617 Circle
6788 3620 Circle
6795 3624 Circle
6802 3627 Circle
6808 3631 Circle
6815 3634 Circle
6822 3638 Circle
6828 3641 Circle
6835 3645 Circle
6842 3648 Circle
6848 3652 Circle
6855 3655 Circle
6862 3659 Circle
6868 3662 Circle
6875 3666 Circle
1448 4329 Circle
% End plot #6
% Begin plot #7
2.000 UP
1.000 UL
LTb
0.00 0.00 0.55 C LCb setrgbcolor
6272 1288 M
[ [(Helvetica) 150.0 0.0 true true 0 (Canal S=1 M=0 I=1)]
] -50.0 MRshow
2.000 UP
1.000 UL
LTb
0.00 0.00 0.55 C 6573 1288 CircleF
% End plot #7
% Begin plot #8
0.250 UP
1.000 UL
LTb
0.00 0.00 0.55 C % End plot #8
% Begin plot #9
2.000 UP
1.000 UL
LTb
1.00 0.55 0.00 C LCb setrgbcolor
6272 1138 M
[ [(Helvetica) 150.0 0.0 true true 0 (Canal S=1 M=1 I=0)]
] -50.0 MRshow
2.000 UP
1.000 UL
LTb
1.00 0.55 0.00 C 6573 1138 CircleF
% End plot #9
% Begin plot #10
0.250 UP
1.000 UL
LTb
1.00 0.55 0.00 C 1055 4602 Circle
1062 4313 Circle
1068 4153 Circle
1075 4031 Circle
1082 3929 Circle
1088 3840 Circle
1095 3760 Circle
1102 3687 Circle
1108 3620 Circle
1115 3557 Circle
1122 3498 Circle
1128 3443 Circle
1135 3390 Circle
1142 3340 Circle
1148 3292 Circle
1155 3246 Circle
1162 3202 Circle
1168 3160 Circle
1175 3119 Circle
1182 3079 Circle
1188 3041 Circle
1195 3004 Circle
1202 2969 Circle
1208 2934 Circle
1215 2900 Circle
1222 2868 Circle
1228 2836 Circle
1235 2805 Circle
1242 2775 Circle
1248 2746 Circle
1255 2717 Circle
1262 2689 Circle
1268 2662 Circle
1275 2636 Circle
1282 2610 Circle
1288 2585 Circle
1295 2561 Circle
1302 2537 Circle
1308 2513 Circle
1315 2490 Circle
1321 2468 Circle
1328 2446 Circle
1335 2425 Circle
1341 2404 Circle
1348 2383 Circle
1355 2363 Circle
1361 2344 Circle
1368 2325 Circle
1375 2306 Circle
1381 2288 Circle
1388 2270 Circle
1395 2252 Circle
1401 2235 Circle
1408 2218 Circle
1415 2202 Circle
1421 2185 Circle
1428 2170 Circle
1435 2154 Circle
1441 2139 Circle
1448 2124 Circle
1455 2110 Circle
1461 2095 Circle
1468 2081 Circle
1475 2068 Circle
1481 2054 Circle
1488 2041 Circle
1495 2028 Circle
1501 2016 Circle
1508 2003 Circle
1515 1991 Circle
1521 1979 Circle
1528 1968 Circle
1535 1956 Circle
1541 1945 Circle
1548 1934 Circle
1555 1923 Circle
1561 1913 Circle
1568 1902 Circle
1575 1892 Circle
1581 1882 Circle
1588 1873 Circle
1595 1863 Circle
1601 1854 Circle
1608 1845 Circle
1614 1836 Circle
1621 1827 Circle
1628 1818 Circle
1634 1810 Circle
1641 1802 Circle
1648 1794 Circle
1654 1786 Circle
1661 1778 Circle
1668 1770 Circle
1674 1763 Circle
1681 1756 Circle
1688 1748 Circle
1694 1741 Circle
1701 1735 Circle
1708 1728 Circle
1714 1721 Circle
1721 1715 Circle
1728 1708 Circle
1734 1702 Circle
1741 1696 Circle
1748 1690 Circle
1754 1685 Circle
1761 1679 Circle
1768 1674 Circle
1774 1668 Circle
1781 1663 Circle
1788 1658 Circle
1794 1653 Circle
1801 1648 Circle
1808 1643 Circle
1814 1638 Circle
1821 1633 Circle
1828 1629 Circle
1834 1625 Circle
1841 1620 Circle
1848 1616 Circle
1854 1612 Circle
1861 1608 Circle
1868 1604 Circle
1874 1600 Circle
1881 1597 Circle
1887 1593 Circle
1894 1590 Circle
1901 1586 Circle
1907 1583 Circle
1914 1580 Circle
1921 1577 Circle
1927 1574 Circle
1934 1571 Circle
1941 1568 Circle
1947 1565 Circle
1954 1562 Circle
1961 1560 Circle
1967 1557 Circle
1974 1555 Circle
1981 1552 Circle
1987 1550 Circle
1994 1548 Circle
2001 1546 Circle
2007 1544 Circle
2014 1542 Circle
2021 1540 Circle
2027 1538 Circle
2034 1536 Circle
2041 1535 Circle
2047 1533 Circle
2054 1531 Circle
2061 1530 Circle
2067 1529 Circle
2074 1527 Circle
2081 1526 Circle
2087 1525 Circle
2094 1524 Circle
2101 1523 Circle
2107 1522 Circle
2114 1521 Circle
2121 1520 Circle
2127 1519 Circle
2134 1519 Circle
2141 1518 Circle
2147 1517 Circle
2154 1517 Circle
2161 1516 Circle
2167 1516 Circle
2174 1516 Circle
2180 1516 Circle
2187 1516 Circle
2194 1516 Circle
2200 1516 Circle
2207 1516 Circle
2214 1516 Circle
2220 1516 Circle
2227 1516 Circle
2234 1517 Circle
2240 1517 Circle
2247 1518 Circle
2254 1519 Circle
2260 1519 Circle
2267 1520 Circle
2274 1521 Circle
2280 1522 Circle
2287 1523 Circle
2294 1524 Circle
2300 1526 Circle
2307 1527 Circle
2314 1529 Circle
2320 1530 Circle
2327 1532 Circle
2334 1534 Circle
2340 1536 Circle
2347 1538 Circle
2354 1541 Circle
2360 1543 Circle
2367 1546 Circle
2374 1549 Circle
2380 1553 Circle
2387 1556 Circle
2394 1561 Circle
2400 1566 Circle
2407 1570 Circle
2414 1574 Circle
2420 1578 Circle
2427 1581 Circle
2434 1585 Circle
2440 1588 Circle
2447 1591 Circle
2453 1594 Circle
2460 1597 Circle
2467 1600 Circle
2473 1602 Circle
2480 1605 Circle
2487 1608 Circle
2493 1610 Circle
2500 1613 Circle
2507 1615 Circle
2513 1618 Circle
2520 1620 Circle
2527 1623 Circle
2533 1625 Circle
2540 1627 Circle
2547 1630 Circle
2553 1632 Circle
2560 1634 Circle
2567 1636 Circle
2573 1639 Circle
2580 1641 Circle
2587 1643 Circle
2593 1645 Circle
2600 1647 Circle
2607 1649 Circle
2613 1651 Circle
2620 1653 Circle
2627 1655 Circle
2633 1657 Circle
2640 1659 Circle
2647 1661 Circle
2653 1663 Circle
2660 1665 Circle
2667 1667 Circle
2673 1669 Circle
2680 1671 Circle
2687 1673 Circle
2693 1675 Circle
2700 1677 Circle
2707 1678 Circle
2713 1680 Circle
2720 1682 Circle
2727 1684 Circle
2733 1686 Circle
2740 1688 Circle
2746 1689 Circle
2753 1691 Circle
2760 1693 Circle
2766 1695 Circle
2773 1697 Circle
2780 1698 Circle
2786 1700 Circle
2793 1702 Circle
2800 1704 Circle
2806 1705 Circle
2813 1707 Circle
2820 1709 Circle
2826 1710 Circle
2833 1712 Circle
2840 1714 Circle
2846 1716 Circle
2853 1717 Circle
2860 1719 Circle
2866 1721 Circle
2873 1722 Circle
2880 1724 Circle
2886 1726 Circle
2893 1727 Circle
2900 1729 Circle
2906 1731 Circle
2913 1732 Circle
2920 1734 Circle
2926 1736 Circle
2933 1737 Circle
2940 1739 Circle
2946 1741 Circle
2953 1742 Circle
2960 1744 Circle
2966 1745 Circle
2973 1747 Circle
2980 1749 Circle
2986 1750 Circle
2993 1752 Circle
3000 1754 Circle
3006 1755 Circle
3013 1757 Circle
3020 1758 Circle
3026 1760 Circle
3033 1762 Circle
3039 1763 Circle
3046 1765 Circle
3053 1767 Circle
3059 1768 Circle
3066 1770 Circle
3073 1771 Circle
3079 1773 Circle
3086 1775 Circle
3093 1776 Circle
3099 1778 Circle
3106 1779 Circle
3113 1781 Circle
3119 1783 Circle
3126 1784 Circle
3133 1786 Circle
3139 1788 Circle
3146 1789 Circle
3153 1791 Circle
3159 1792 Circle
3166 1794 Circle
3173 1796 Circle
3179 1797 Circle
3186 1799 Circle
3193 1800 Circle
3199 1802 Circle
3206 1804 Circle
3213 1805 Circle
3219 1807 Circle
3226 1809 Circle
3233 1810 Circle
3239 1812 Circle
3246 1814 Circle
3253 1815 Circle
3259 1817 Circle
3266 1818 Circle
3273 1820 Circle
3279 1822 Circle
3286 1823 Circle
3293 1825 Circle
3299 1827 Circle
3306 1828 Circle
3312 1830 Circle
3319 1832 Circle
3326 1833 Circle
3332 1835 Circle
3339 1837 Circle
3346 1838 Circle
3352 1840 Circle
3359 1842 Circle
3366 1843 Circle
3372 1845 Circle
3379 1847 Circle
3386 1848 Circle
3392 1850 Circle
3399 1852 Circle
3406 1853 Circle
3412 1855 Circle
3419 1857 Circle
3426 1858 Circle
3432 1860 Circle
3439 1862 Circle
3446 1864 Circle
3452 1865 Circle
3459 1867 Circle
3466 1869 Circle
3472 1871 Circle
3479 1872 Circle
3486 1874 Circle
3492 1876 Circle
3499 1877 Circle
3506 1879 Circle
3512 1881 Circle
3519 1883 Circle
3526 1884 Circle
3532 1886 Circle
3539 1888 Circle
3546 1890 Circle
3552 1892 Circle
3559 1893 Circle
3566 1895 Circle
3572 1897 Circle
3579 1899 Circle
3586 1900 Circle
3592 1902 Circle
3599 1904 Circle
3605 1906 Circle
3612 1908 Circle
3619 1909 Circle
3625 1911 Circle
3632 1913 Circle
3639 1915 Circle
3645 1917 Circle
3652 1919 Circle
3659 1920 Circle
3665 1922 Circle
3672 1924 Circle
3679 1926 Circle
3685 1928 Circle
3692 1930 Circle
3699 1932 Circle
3705 1933 Circle
3712 1935 Circle
3719 1937 Circle
3725 1939 Circle
3732 1941 Circle
3739 1943 Circle
3745 1945 Circle
3752 1947 Circle
3759 1949 Circle
3765 1950 Circle
3772 1952 Circle
3779 1954 Circle
3785 1956 Circle
3792 1958 Circle
3799 1960 Circle
3805 1962 Circle
3812 1964 Circle
3819 1966 Circle
3825 1968 Circle
3832 1970 Circle
3839 1972 Circle
3845 1974 Circle
3852 1976 Circle
3859 1978 Circle
3865 1980 Circle
3872 1982 Circle
3879 1984 Circle
3885 1986 Circle
3892 1988 Circle
3898 1990 Circle
3905 1992 Circle
3912 1994 Circle
3918 1996 Circle
3925 1998 Circle
3932 2000 Circle
3938 2002 Circle
3945 2004 Circle
3952 2006 Circle
3958 2009 Circle
3965 2011 Circle
3972 2013 Circle
3978 2015 Circle
3985 2017 Circle
3992 2019 Circle
3998 2021 Circle
4005 2023 Circle
4012 2025 Circle
4018 2028 Circle
4025 2030 Circle
4032 2032 Circle
4038 2034 Circle
4045 2036 Circle
4052 2038 Circle
4058 2041 Circle
4065 2043 Circle
4072 2045 Circle
4078 2047 Circle
4085 2049 Circle
4092 2052 Circle
4098 2054 Circle
4105 2056 Circle
4112 2058 Circle
4118 2060 Circle
4125 2063 Circle
4132 2065 Circle
4138 2067 Circle
4145 2069 Circle
4152 2072 Circle
4158 2074 Circle
4165 2076 Circle
4171 2079 Circle
4178 2081 Circle
4185 2083 Circle
4191 2086 Circle
4198 2088 Circle
4205 2090 Circle
4211 2092 Circle
4218 2095 Circle
4225 2097 Circle
4231 2099 Circle
4238 2102 Circle
4245 2104 Circle
4251 2107 Circle
4258 2109 Circle
4265 2111 Circle
4271 2114 Circle
4278 2116 Circle
4285 2119 Circle
4291 2121 Circle
4298 2123 Circle
4305 2126 Circle
4311 2128 Circle
4318 2131 Circle
4325 2133 Circle
4331 2136 Circle
4338 2138 Circle
4345 2141 Circle
4351 2143 Circle
4358 2146 Circle
4365 2148 Circle
4371 2151 Circle
4378 2153 Circle
4385 2156 Circle
4391 2158 Circle
4398 2161 Circle
4405 2163 Circle
4411 2166 Circle
4418 2168 Circle
4425 2171 Circle
4431 2173 Circle
4438 2176 Circle
4445 2179 Circle
4451 2181 Circle
4458 2184 Circle
4464 2186 Circle
4471 2189 Circle
4478 2192 Circle
4484 2194 Circle
4491 2197 Circle
4498 2200 Circle
4504 2202 Circle
4511 2205 Circle
4518 2208 Circle
4524 2210 Circle
4531 2213 Circle
4538 2216 Circle
4544 2218 Circle
4551 2221 Circle
4558 2224 Circle
4564 2226 Circle
4571 2229 Circle
4578 2232 Circle
4584 2235 Circle
4591 2237 Circle
4598 2240 Circle
4604 2243 Circle
4611 2246 Circle
4618 2249 Circle
4624 2251 Circle
4631 2254 Circle
4638 2257 Circle
4644 2260 Circle
4651 2263 Circle
4658 2265 Circle
4664 2268 Circle
4671 2271 Circle
4678 2274 Circle
4684 2277 Circle
4691 2280 Circle
4698 2283 Circle
4704 2285 Circle
4711 2288 Circle
4718 2291 Circle
4724 2294 Circle
4731 2297 Circle
4737 2300 Circle
4744 2303 Circle
4751 2306 Circle
4757 2309 Circle
4764 2312 Circle
4771 2315 Circle
4777 2318 Circle
4784 2321 Circle
4791 2324 Circle
4797 2327 Circle
4804 2330 Circle
4811 2333 Circle
4817 2336 Circle
4824 2339 Circle
4831 2342 Circle
4837 2345 Circle
4844 2348 Circle
4851 2351 Circle
4857 2354 Circle
4864 2357 Circle
4871 2360 Circle
4877 2363 Circle
4884 2366 Circle
4891 2369 Circle
4897 2372 Circle
4904 2375 Circle
4911 2378 Circle
4917 2382 Circle
4924 2385 Circle
4931 2388 Circle
4937 2391 Circle
4944 2394 Circle
4951 2397 Circle
4957 2401 Circle
4964 2404 Circle
4971 2407 Circle
4977 2410 Circle
4984 2413 Circle
4991 2416 Circle
4997 2420 Circle
5004 2423 Circle
5011 2426 Circle
5017 2429 Circle
5024 2433 Circle
5030 2436 Circle
5037 2439 Circle
5044 2442 Circle
5050 2446 Circle
5057 2449 Circle
5064 2452 Circle
5070 2455 Circle
5077 2459 Circle
5084 2462 Circle
5090 2465 Circle
5097 2469 Circle
5104 2472 Circle
5110 2475 Circle
5117 2479 Circle
5124 2482 Circle
5130 2485 Circle
5137 2489 Circle
5144 2492 Circle
5150 2495 Circle
5157 2499 Circle
5164 2502 Circle
5170 2505 Circle
5177 2509 Circle
5184 2512 Circle
5190 2516 Circle
5197 2519 Circle
5204 2522 Circle
5210 2526 Circle
5217 2529 Circle
5224 2533 Circle
5230 2536 Circle
5237 2540 Circle
5244 2543 Circle
5250 2547 Circle
5257 2550 Circle
5264 2554 Circle
5270 2557 Circle
5277 2560 Circle
5284 2564 Circle
5290 2567 Circle
5297 2571 Circle
5304 2574 Circle
5310 2578 Circle
5317 2581 Circle
5323 2585 Circle
5330 2589 Circle
5337 2592 Circle
5343 2596 Circle
5350 2599 Circle
5357 2603 Circle
5363 2606 Circle
5370 2610 Circle
5377 2613 Circle
5383 2617 Circle
5390 2620 Circle
5397 2624 Circle
5403 2628 Circle
5410 2631 Circle
5417 2635 Circle
5423 2638 Circle
5430 2642 Circle
5437 2646 Circle
5443 2649 Circle
5450 2653 Circle
5457 2657 Circle
5463 2660 Circle
5470 2664 Circle
5477 2667 Circle
5483 2671 Circle
5490 2675 Circle
5497 2678 Circle
5503 2682 Circle
5510 2686 Circle
5517 2689 Circle
5523 2693 Circle
5530 2697 Circle
5537 2700 Circle
5543 2704 Circle
5550 2708 Circle
5557 2711 Circle
5563 2715 Circle
5570 2719 Circle
5577 2723 Circle
5583 2726 Circle
5590 2730 Circle
5596 2734 Circle
5603 2737 Circle
5610 2741 Circle
5616 2745 Circle
5623 2749 Circle
5630 2752 Circle
5636 2756 Circle
5643 2760 Circle
5650 2764 Circle
5656 2767 Circle
5663 2771 Circle
5670 2775 Circle
5676 2779 Circle
5683 2782 Circle
5690 2786 Circle
5696 2790 Circle
5703 2794 Circle
5710 2797 Circle
5716 2801 Circle
5723 2805 Circle
5730 2809 Circle
5736 2813 Circle
5743 2816 Circle
5750 2820 Circle
5756 2824 Circle
5763 2828 Circle
5770 2832 Circle
5776 2835 Circle
5783 2839 Circle
5790 2843 Circle
5796 2847 Circle
5803 2851 Circle
5810 2854 Circle
5816 2858 Circle
5823 2862 Circle
5830 2866 Circle
5836 2870 Circle
5843 2874 Circle
5850 2877 Circle
5856 2881 Circle
5863 2885 Circle
5870 2889 Circle
5876 2893 Circle
5883 2897 Circle
5889 2900 Circle
5896 2904 Circle
5903 2908 Circle
5909 2912 Circle
5916 2916 Circle
5923 2920 Circle
5929 2923 Circle
5936 2927 Circle
5943 2931 Circle
5949 2935 Circle
5956 2939 Circle
5963 2943 Circle
5969 2947 Circle
5976 2950 Circle
5983 2954 Circle
5989 2958 Circle
5996 2962 Circle
6003 2966 Circle
6009 2970 Circle
6016 2974 Circle
6023 2977 Circle
6029 2981 Circle
6036 2985 Circle
6043 2989 Circle
6049 2993 Circle
6056 2997 Circle
6063 3001 Circle
6069 3004 Circle
6076 3008 Circle
6083 3012 Circle
6089 3016 Circle
6096 3020 Circle
6103 3024 Circle
6109 3028 Circle
6116 3032 Circle
6123 3035 Circle
6129 3039 Circle
6136 3043 Circle
6143 3047 Circle
6149 3051 Circle
6156 3055 Circle
6162 3059 Circle
6169 3063 Circle
6176 3066 Circle
6182 3070 Circle
6189 3074 Circle
6196 3078 Circle
6202 3082 Circle
6209 3086 Circle
6216 3090 Circle
6222 3094 Circle
6229 3097 Circle
6236 3101 Circle
6242 3105 Circle
6249 3109 Circle
6256 3113 Circle
6262 3117 Circle
6269 3121 Circle
6276 3124 Circle
6282 3128 Circle
6289 3132 Circle
6296 3136 Circle
6302 3140 Circle
6309 3144 Circle
6316 3148 Circle
6322 3151 Circle
6329 3155 Circle
6336 3159 Circle
6342 3163 Circle
6349 3167 Circle
6356 3171 Circle
6362 3175 Circle
6369 3178 Circle
6376 3182 Circle
6382 3186 Circle
6389 3190 Circle
6396 3194 Circle
6402 3198 Circle
6409 3201 Circle
6416 3205 Circle
6422 3209 Circle
6429 3213 Circle
6436 3217 Circle
6442 3221 Circle
6449 3225 Circle
6455 3228 Circle
6462 3232 Circle
6469 3236 Circle
6475 3240 Circle
6482 3244 Circle
6489 3247 Circle
6495 3251 Circle
6502 3255 Circle
6509 3259 Circle
6515 3263 Circle
6522 3266 Circle
6529 3270 Circle
6535 3274 Circle
6542 3278 Circle
6549 3282 Circle
6555 3286 Circle
6562 3289 Circle
6569 3293 Circle
6575 3297 Circle
6582 3301 Circle
6589 3304 Circle
6595 3308 Circle
6602 3312 Circle
6609 3316 Circle
6615 3320 Circle
6622 3323 Circle
6629 3327 Circle
6635 3331 Circle
6642 3335 Circle
6649 3338 Circle
6655 3342 Circle
6662 3346 Circle
6669 3350 Circle
6675 3353 Circle
6682 3357 Circle
6689 3361 Circle
6695 3365 Circle
6702 3368 Circle
6709 3372 Circle
6715 3376 Circle
6722 3380 Circle
6729 3383 Circle
6735 3387 Circle
6742 3391 Circle
6748 3394 Circle
6755 3398 Circle
6762 3402 Circle
6768 3406 Circle
6775 3409 Circle
6782 3413 Circle
6788 3417 Circle
6795 3420 Circle
6802 3424 Circle
6808 3428 Circle
6815 3431 Circle
6822 3435 Circle
6828 3439 Circle
6835 3442 Circle
6842 3446 Circle
6848 3450 Circle
6855 3453 Circle
6862 3457 Circle
6868 3461 Circle
6875 3464 Circle
% End plot #10
% Begin plot #11
2.000 UP
1.000 UL
LTb
0.00 0.55 0.55 C LCb setrgbcolor
6272 988 M
[ [(Helvetica) 150.0 0.0 true true 0 (Canal S=1 M=1 I=1)]
] -50.0 MRshow
2.000 UP
1.000 UL
LTb
0.00 0.55 0.55 C 6573 988 CircleF
% End plot #11
% Begin plot #12
0.250 UP
1.000 UL
LTb
0.00 0.55 0.55 C % End plot #12
% Begin plot #13
3.000 UL
LTb
LT2
0.34 0.71 0.91 C 882 2057 M
61 0 V
60 0 V
61 0 V
60 0 V
61 0 V
60 0 V
61 0 V
60 0 V
61 0 V
60 0 V
61 0 V
60 0 V
61 0 V
60 0 V
61 0 V
61 0 V
60 0 V
61 0 V
60 0 V
61 0 V
60 0 V
61 0 V
60 0 V
61 0 V
60 0 V
61 0 V
60 0 V
61 0 V
61 0 V
60 0 V
61 0 V
60 0 V
61 0 V
60 0 V
61 0 V
60 0 V
61 0 V
60 0 V
61 0 V
60 0 V
61 0 V
60 0 V
61 0 V
61 0 V
60 0 V
61 0 V
60 0 V
61 0 V
60 0 V
61 0 V
60 0 V
61 0 V
60 0 V
61 0 V
60 0 V
61 0 V
61 0 V
60 0 V
61 0 V
60 0 V
61 0 V
60 0 V
61 0 V
60 0 V
61 0 V
60 0 V
61 0 V
60 0 V
61 0 V
60 0 V
61 0 V
61 0 V
60 0 V
61 0 V
60 0 V
61 0 V
60 0 V
61 0 V
60 0 V
61 0 V
60 0 V
61 0 V
60 0 V
61 0 V
61 0 V
60 0 V
61 0 V
60 0 V
61 0 V
60 0 V
61 0 V
60 0 V
61 0 V
60 0 V
61 0 V
60 0 V
61 0 V
60 0 V
61 0 V
% End plot #13
% Begin plot #14
stroke
2.000 UL
LTb
LT1
0.00 0.45 0.70 C 882 2545 M
61 0 V
60 0 V
61 0 V
60 0 V
61 0 V
60 0 V
61 0 V
60 0 V
61 0 V
60 0 V
61 0 V
60 0 V
61 0 V
60 0 V
61 0 V
61 0 V
60 0 V
61 0 V
60 0 V
61 0 V
60 0 V
61 0 V
60 0 V
61 0 V
60 0 V
61 0 V
60 0 V
61 0 V
61 0 V
60 0 V
61 0 V
60 0 V
61 0 V
60 0 V
61 0 V
60 0 V
61 0 V
60 0 V
61 0 V
60 0 V
61 0 V
60 0 V
61 0 V
61 0 V
60 0 V
61 0 V
60 0 V
61 0 V
60 0 V
61 0 V
60 0 V
61 0 V
60 0 V
61 0 V
60 0 V
61 0 V
61 0 V
60 0 V
61 0 V
60 0 V
61 0 V
60 0 V
61 0 V
60 0 V
61 0 V
60 0 V
61 0 V
60 0 V
61 0 V
60 0 V
61 0 V
61 0 V
60 0 V
61 0 V
60 0 V
61 0 V
60 0 V
61 0 V
60 0 V
61 0 V
60 0 V
61 0 V
60 0 V
61 0 V
61 0 V
60 0 V
61 0 V
60 0 V
61 0 V
60 0 V
61 0 V
60 0 V
61 0 V
60 0 V
61 0 V
60 0 V
61 0 V
60 0 V
61 0 V
% End plot #14
stroke
LTb
LCb setrgbcolor
1.000 UP
LCb setrgbcolor
6209 4416 M
[ [(Helvetica) 180.0 0.0 true true 0 (VLyB62)]
] -60.0 MCshow
1.000 UL
LTb
0.50 0.50 0.50 C stroke
grestore
end
showpage
%%Trailer
%%DocumentFonts: Symbol Helvetica
