%!PS-Adobe-2.0 EPSF-2.0
%%Title: lr_SNM.eps
%%Creator: gnuplot 5.0 patchlevel 3
%%CreationDate: Fri Jun 23 22:47:21 2017
%%DocumentFonts: (atend)
%%BoundingBox: 50 50 410 302
%%EndComments
%%BeginProlog
/gnudict 256 dict def
gnudict begin
%
% The following true/false flags may be edited by hand if desired.
% The unit line width and grayscale image gamma correction may also be changed.
%
/Color true def
/Blacktext false def
/Solid false def
/Dashlength 1 def
/Landscape false def
/Level1 false def
/Level3 false def
/Rounded false def
/ClipToBoundingBox false def
/SuppressPDFMark false def
/TransparentPatterns false def
/gnulinewidth 5.000 def
/userlinewidth gnulinewidth def
/Gamma 1.0 def
/BackgroundColor {-1.000 -1.000 -1.000} def
%
/vshift -60 def
/dl1 {
  10.0 Dashlength userlinewidth gnulinewidth div mul mul mul
  Rounded { currentlinewidth 0.75 mul sub dup 0 le { pop 0.01 } if } if
} def
/dl2 {
  10.0 Dashlength userlinewidth gnulinewidth div mul mul mul
  Rounded { currentlinewidth 0.75 mul add } if
} def
/hpt_ 31.5 def
/vpt_ 31.5 def
/hpt hpt_ def
/vpt vpt_ def
/doclip {
  ClipToBoundingBox {
    newpath 50 50 moveto 410 50 lineto 410 302 lineto 50 302 lineto closepath
    clip
  } if
} def
%
% Gnuplot Prolog Version 5.1 (Oct 2015)
%
%/SuppressPDFMark true def
%
/M {moveto} bind def
/L {lineto} bind def
/R {rmoveto} bind def
/V {rlineto} bind def
/N {newpath moveto} bind def
/Z {closepath} bind def
/C {setrgbcolor} bind def
/f {rlineto fill} bind def
/g {setgray} bind def
/Gshow {show} def   % May be redefined later in the file to support UTF-8
/vpt2 vpt 2 mul def
/hpt2 hpt 2 mul def
/Lshow {currentpoint stroke M 0 vshift R 
	Blacktext {gsave 0 setgray textshow grestore} {textshow} ifelse} def
/Rshow {currentpoint stroke M dup stringwidth pop neg vshift R
	Blacktext {gsave 0 setgray textshow grestore} {textshow} ifelse} def
/Cshow {currentpoint stroke M dup stringwidth pop -2 div vshift R 
	Blacktext {gsave 0 setgray textshow grestore} {textshow} ifelse} def
/UP {dup vpt_ mul /vpt exch def hpt_ mul /hpt exch def
  /hpt2 hpt 2 mul def /vpt2 vpt 2 mul def} def
/DL {Color {setrgbcolor Solid {pop []} if 0 setdash}
 {pop pop pop 0 setgray Solid {pop []} if 0 setdash} ifelse} def
/BL {stroke userlinewidth 2 mul setlinewidth
	Rounded {1 setlinejoin 1 setlinecap} if} def
/AL {stroke userlinewidth 2 div setlinewidth
	Rounded {1 setlinejoin 1 setlinecap} if} def
/UL {dup gnulinewidth mul /userlinewidth exch def
	dup 1 lt {pop 1} if 10 mul /udl exch def} def
/PL {stroke userlinewidth setlinewidth
	Rounded {1 setlinejoin 1 setlinecap} if} def
3.8 setmiterlimit
% Classic Line colors (version 5.0)
/LCw {1 1 1} def
/LCb {0 0 0} def
/LCa {0 0 0} def
/LC0 {1 0 0} def
/LC1 {0 1 0} def
/LC2 {0 0 1} def
/LC3 {1 0 1} def
/LC4 {0 1 1} def
/LC5 {1 1 0} def
/LC6 {0 0 0} def
/LC7 {1 0.3 0} def
/LC8 {0.5 0.5 0.5} def
% Default dash patterns (version 5.0)
/LTB {BL [] LCb DL} def
/LTw {PL [] 1 setgray} def
/LTb {PL [] LCb DL} def
/LTa {AL [1 udl mul 2 udl mul] 0 setdash LCa setrgbcolor} def
/LT0 {PL [] LC0 DL} def
/LT1 {PL [2 dl1 3 dl2] LC1 DL} def
/LT2 {PL [1 dl1 1.5 dl2] LC2 DL} def
/LT3 {PL [6 dl1 2 dl2 1 dl1 2 dl2] LC3 DL} def
/LT4 {PL [1 dl1 2 dl2 6 dl1 2 dl2 1 dl1 2 dl2] LC4 DL} def
/LT5 {PL [4 dl1 2 dl2] LC5 DL} def
/LT6 {PL [1.5 dl1 1.5 dl2 1.5 dl1 1.5 dl2 1.5 dl1 6 dl2] LC6 DL} def
/LT7 {PL [3 dl1 3 dl2 1 dl1 3 dl2] LC7 DL} def
/LT8 {PL [2 dl1 2 dl2 2 dl1 6 dl2] LC8 DL} def
/SL {[] 0 setdash} def
/Pnt {stroke [] 0 setdash gsave 1 setlinecap M 0 0 V stroke grestore} def
/Dia {stroke [] 0 setdash 2 copy vpt add M
  hpt neg vpt neg V hpt vpt neg V
  hpt vpt V hpt neg vpt V closepath stroke
  Pnt} def
/Pls {stroke [] 0 setdash vpt sub M 0 vpt2 V
  currentpoint stroke M
  hpt neg vpt neg R hpt2 0 V stroke
 } def
/Box {stroke [] 0 setdash 2 copy exch hpt sub exch vpt add M
  0 vpt2 neg V hpt2 0 V 0 vpt2 V
  hpt2 neg 0 V closepath stroke
  Pnt} def
/Crs {stroke [] 0 setdash exch hpt sub exch vpt add M
  hpt2 vpt2 neg V currentpoint stroke M
  hpt2 neg 0 R hpt2 vpt2 V stroke} def
/TriU {stroke [] 0 setdash 2 copy vpt 1.12 mul add M
  hpt neg vpt -1.62 mul V
  hpt 2 mul 0 V
  hpt neg vpt 1.62 mul V closepath stroke
  Pnt} def
/Star {2 copy Pls Crs} def
/BoxF {stroke [] 0 setdash exch hpt sub exch vpt add M
  0 vpt2 neg V hpt2 0 V 0 vpt2 V
  hpt2 neg 0 V closepath fill} def
/TriUF {stroke [] 0 setdash vpt 1.12 mul add M
  hpt neg vpt -1.62 mul V
  hpt 2 mul 0 V
  hpt neg vpt 1.62 mul V closepath fill} def
/TriD {stroke [] 0 setdash 2 copy vpt 1.12 mul sub M
  hpt neg vpt 1.62 mul V
  hpt 2 mul 0 V
  hpt neg vpt -1.62 mul V closepath stroke
  Pnt} def
/TriDF {stroke [] 0 setdash vpt 1.12 mul sub M
  hpt neg vpt 1.62 mul V
  hpt 2 mul 0 V
  hpt neg vpt -1.62 mul V closepath fill} def
/DiaF {stroke [] 0 setdash vpt add M
  hpt neg vpt neg V hpt vpt neg V
  hpt vpt V hpt neg vpt V closepath fill} def
/Pent {stroke [] 0 setdash 2 copy gsave
  translate 0 hpt M 4 {72 rotate 0 hpt L} repeat
  closepath stroke grestore Pnt} def
/PentF {stroke [] 0 setdash gsave
  translate 0 hpt M 4 {72 rotate 0 hpt L} repeat
  closepath fill grestore} def
/Circle {stroke [] 0 setdash 2 copy
  hpt 0 360 arc stroke Pnt} def
/CircleF {stroke [] 0 setdash hpt 0 360 arc fill} def
/C0 {BL [] 0 setdash 2 copy moveto vpt 90 450 arc} bind def
/C1 {BL [] 0 setdash 2 copy moveto
	2 copy vpt 0 90 arc closepath fill
	vpt 0 360 arc closepath} bind def
/C2 {BL [] 0 setdash 2 copy moveto
	2 copy vpt 90 180 arc closepath fill
	vpt 0 360 arc closepath} bind def
/C3 {BL [] 0 setdash 2 copy moveto
	2 copy vpt 0 180 arc closepath fill
	vpt 0 360 arc closepath} bind def
/C4 {BL [] 0 setdash 2 copy moveto
	2 copy vpt 180 270 arc closepath fill
	vpt 0 360 arc closepath} bind def
/C5 {BL [] 0 setdash 2 copy moveto
	2 copy vpt 0 90 arc
	2 copy moveto
	2 copy vpt 180 270 arc closepath fill
	vpt 0 360 arc} bind def
/C6 {BL [] 0 setdash 2 copy moveto
	2 copy vpt 90 270 arc closepath fill
	vpt 0 360 arc closepath} bind def
/C7 {BL [] 0 setdash 2 copy moveto
	2 copy vpt 0 270 arc closepath fill
	vpt 0 360 arc closepath} bind def
/C8 {BL [] 0 setdash 2 copy moveto
	2 copy vpt 270 360 arc closepath fill
	vpt 0 360 arc closepath} bind def
/C9 {BL [] 0 setdash 2 copy moveto
	2 copy vpt 270 450 arc closepath fill
	vpt 0 360 arc closepath} bind def
/C10 {BL [] 0 setdash 2 copy 2 copy moveto vpt 270 360 arc closepath fill
	2 copy moveto
	2 copy vpt 90 180 arc closepath fill
	vpt 0 360 arc closepath} bind def
/C11 {BL [] 0 setdash 2 copy moveto
	2 copy vpt 0 180 arc closepath fill
	2 copy moveto
	2 copy vpt 270 360 arc closepath fill
	vpt 0 360 arc closepath} bind def
/C12 {BL [] 0 setdash 2 copy moveto
	2 copy vpt 180 360 arc closepath fill
	vpt 0 360 arc closepath} bind def
/C13 {BL [] 0 setdash 2 copy moveto
	2 copy vpt 0 90 arc closepath fill
	2 copy moveto
	2 copy vpt 180 360 arc closepath fill
	vpt 0 360 arc closepath} bind def
/C14 {BL [] 0 setdash 2 copy moveto
	2 copy vpt 90 360 arc closepath fill
	vpt 0 360 arc} bind def
/C15 {BL [] 0 setdash 2 copy vpt 0 360 arc closepath fill
	vpt 0 360 arc closepath} bind def
/Rec {newpath 4 2 roll moveto 1 index 0 rlineto 0 exch rlineto
	neg 0 rlineto closepath} bind def
/Square {dup Rec} bind def
/Bsquare {vpt sub exch vpt sub exch vpt2 Square} bind def
/S0 {BL [] 0 setdash 2 copy moveto 0 vpt rlineto BL Bsquare} bind def
/S1 {BL [] 0 setdash 2 copy vpt Square fill Bsquare} bind def
/S2 {BL [] 0 setdash 2 copy exch vpt sub exch vpt Square fill Bsquare} bind def
/S3 {BL [] 0 setdash 2 copy exch vpt sub exch vpt2 vpt Rec fill Bsquare} bind def
/S4 {BL [] 0 setdash 2 copy exch vpt sub exch vpt sub vpt Square fill Bsquare} bind def
/S5 {BL [] 0 setdash 2 copy 2 copy vpt Square fill
	exch vpt sub exch vpt sub vpt Square fill Bsquare} bind def
/S6 {BL [] 0 setdash 2 copy exch vpt sub exch vpt sub vpt vpt2 Rec fill Bsquare} bind def
/S7 {BL [] 0 setdash 2 copy exch vpt sub exch vpt sub vpt vpt2 Rec fill
	2 copy vpt Square fill Bsquare} bind def
/S8 {BL [] 0 setdash 2 copy vpt sub vpt Square fill Bsquare} bind def
/S9 {BL [] 0 setdash 2 copy vpt sub vpt vpt2 Rec fill Bsquare} bind def
/S10 {BL [] 0 setdash 2 copy vpt sub vpt Square fill 2 copy exch vpt sub exch vpt Square fill
	Bsquare} bind def
/S11 {BL [] 0 setdash 2 copy vpt sub vpt Square fill 2 copy exch vpt sub exch vpt2 vpt Rec fill
	Bsquare} bind def
/S12 {BL [] 0 setdash 2 copy exch vpt sub exch vpt sub vpt2 vpt Rec fill Bsquare} bind def
/S13 {BL [] 0 setdash 2 copy exch vpt sub exch vpt sub vpt2 vpt Rec fill
	2 copy vpt Square fill Bsquare} bind def
/S14 {BL [] 0 setdash 2 copy exch vpt sub exch vpt sub vpt2 vpt Rec fill
	2 copy exch vpt sub exch vpt Square fill Bsquare} bind def
/S15 {BL [] 0 setdash 2 copy Bsquare fill Bsquare} bind def
/D0 {gsave translate 45 rotate 0 0 S0 stroke grestore} bind def
/D1 {gsave translate 45 rotate 0 0 S1 stroke grestore} bind def
/D2 {gsave translate 45 rotate 0 0 S2 stroke grestore} bind def
/D3 {gsave translate 45 rotate 0 0 S3 stroke grestore} bind def
/D4 {gsave translate 45 rotate 0 0 S4 stroke grestore} bind def
/D5 {gsave translate 45 rotate 0 0 S5 stroke grestore} bind def
/D6 {gsave translate 45 rotate 0 0 S6 stroke grestore} bind def
/D7 {gsave translate 45 rotate 0 0 S7 stroke grestore} bind def
/D8 {gsave translate 45 rotate 0 0 S8 stroke grestore} bind def
/D9 {gsave translate 45 rotate 0 0 S9 stroke grestore} bind def
/D10 {gsave translate 45 rotate 0 0 S10 stroke grestore} bind def
/D11 {gsave translate 45 rotate 0 0 S11 stroke grestore} bind def
/D12 {gsave translate 45 rotate 0 0 S12 stroke grestore} bind def
/D13 {gsave translate 45 rotate 0 0 S13 stroke grestore} bind def
/D14 {gsave translate 45 rotate 0 0 S14 stroke grestore} bind def
/D15 {gsave translate 45 rotate 0 0 S15 stroke grestore} bind def
/DiaE {stroke [] 0 setdash vpt add M
  hpt neg vpt neg V hpt vpt neg V
  hpt vpt V hpt neg vpt V closepath stroke} def
/BoxE {stroke [] 0 setdash exch hpt sub exch vpt add M
  0 vpt2 neg V hpt2 0 V 0 vpt2 V
  hpt2 neg 0 V closepath stroke} def
/TriUE {stroke [] 0 setdash vpt 1.12 mul add M
  hpt neg vpt -1.62 mul V
  hpt 2 mul 0 V
  hpt neg vpt 1.62 mul V closepath stroke} def
/TriDE {stroke [] 0 setdash vpt 1.12 mul sub M
  hpt neg vpt 1.62 mul V
  hpt 2 mul 0 V
  hpt neg vpt -1.62 mul V closepath stroke} def
/PentE {stroke [] 0 setdash gsave
  translate 0 hpt M 4 {72 rotate 0 hpt L} repeat
  closepath stroke grestore} def
/CircE {stroke [] 0 setdash 
  hpt 0 360 arc stroke} def
/Opaque {gsave closepath 1 setgray fill grestore 0 setgray closepath} def
/DiaW {stroke [] 0 setdash vpt add M
  hpt neg vpt neg V hpt vpt neg V
  hpt vpt V hpt neg vpt V Opaque stroke} def
/BoxW {stroke [] 0 setdash exch hpt sub exch vpt add M
  0 vpt2 neg V hpt2 0 V 0 vpt2 V
  hpt2 neg 0 V Opaque stroke} def
/TriUW {stroke [] 0 setdash vpt 1.12 mul add M
  hpt neg vpt -1.62 mul V
  hpt 2 mul 0 V
  hpt neg vpt 1.62 mul V Opaque stroke} def
/TriDW {stroke [] 0 setdash vpt 1.12 mul sub M
  hpt neg vpt 1.62 mul V
  hpt 2 mul 0 V
  hpt neg vpt -1.62 mul V Opaque stroke} def
/PentW {stroke [] 0 setdash gsave
  translate 0 hpt M 4 {72 rotate 0 hpt L} repeat
  Opaque stroke grestore} def
/CircW {stroke [] 0 setdash 
  hpt 0 360 arc Opaque stroke} def
/BoxFill {gsave Rec 1 setgray fill grestore} def
/Density {
  /Fillden exch def
  currentrgbcolor
  /ColB exch def /ColG exch def /ColR exch def
  /ColR ColR Fillden mul Fillden sub 1 add def
  /ColG ColG Fillden mul Fillden sub 1 add def
  /ColB ColB Fillden mul Fillden sub 1 add def
  ColR ColG ColB setrgbcolor} def
/BoxColFill {gsave Rec PolyFill} def
/PolyFill {gsave Density fill grestore grestore} def
/h {rlineto rlineto rlineto gsave closepath fill grestore} bind def
%
% PostScript Level 1 Pattern Fill routine for rectangles
% Usage: x y w h s a XX PatternFill
%	x,y = lower left corner of box to be filled
%	w,h = width and height of box
%	  a = angle in degrees between lines and x-axis
%	 XX = 0/1 for no/yes cross-hatch
%
/PatternFill {gsave /PFa [ 9 2 roll ] def
  PFa 0 get PFa 2 get 2 div add PFa 1 get PFa 3 get 2 div add translate
  PFa 2 get -2 div PFa 3 get -2 div PFa 2 get PFa 3 get Rec
  TransparentPatterns {} {gsave 1 setgray fill grestore} ifelse
  clip
  currentlinewidth 0.5 mul setlinewidth
  /PFs PFa 2 get dup mul PFa 3 get dup mul add sqrt def
  0 0 M PFa 5 get rotate PFs -2 div dup translate
  0 1 PFs PFa 4 get div 1 add floor cvi
	{PFa 4 get mul 0 M 0 PFs V} for
  0 PFa 6 get ne {
	0 1 PFs PFa 4 get div 1 add floor cvi
	{PFa 4 get mul 0 2 1 roll M PFs 0 V} for
 } if
  stroke grestore} def
%
/languagelevel where
 {pop languagelevel} {1} ifelse
dup 2 lt
	{/InterpretLevel1 true def
	 /InterpretLevel3 false def}
	{/InterpretLevel1 Level1 def
	 2 gt
	    {/InterpretLevel3 Level3 def}
	    {/InterpretLevel3 false def}
	 ifelse }
 ifelse
%
% PostScript level 2 pattern fill definitions
%
/Level2PatternFill {
/Tile8x8 {/PaintType 2 /PatternType 1 /TilingType 1 /BBox [0 0 8 8] /XStep 8 /YStep 8}
	bind def
/KeepColor {currentrgbcolor [/Pattern /DeviceRGB] setcolorspace} bind def
<< Tile8x8
 /PaintProc {0.5 setlinewidth pop 0 0 M 8 8 L 0 8 M 8 0 L stroke} 
>> matrix makepattern
/Pat1 exch def
<< Tile8x8
 /PaintProc {0.5 setlinewidth pop 0 0 M 8 8 L 0 8 M 8 0 L stroke
	0 4 M 4 8 L 8 4 L 4 0 L 0 4 L stroke}
>> matrix makepattern
/Pat2 exch def
<< Tile8x8
 /PaintProc {0.5 setlinewidth pop 0 0 M 0 8 L
	8 8 L 8 0 L 0 0 L fill}
>> matrix makepattern
/Pat3 exch def
<< Tile8x8
 /PaintProc {0.5 setlinewidth pop -4 8 M 8 -4 L
	0 12 M 12 0 L stroke}
>> matrix makepattern
/Pat4 exch def
<< Tile8x8
 /PaintProc {0.5 setlinewidth pop -4 0 M 8 12 L
	0 -4 M 12 8 L stroke}
>> matrix makepattern
/Pat5 exch def
<< Tile8x8
 /PaintProc {0.5 setlinewidth pop -2 8 M 4 -4 L
	0 12 M 8 -4 L 4 12 M 10 0 L stroke}
>> matrix makepattern
/Pat6 exch def
<< Tile8x8
 /PaintProc {0.5 setlinewidth pop -2 0 M 4 12 L
	0 -4 M 8 12 L 4 -4 M 10 8 L stroke}
>> matrix makepattern
/Pat7 exch def
<< Tile8x8
 /PaintProc {0.5 setlinewidth pop 8 -2 M -4 4 L
	12 0 M -4 8 L 12 4 M 0 10 L stroke}
>> matrix makepattern
/Pat8 exch def
<< Tile8x8
 /PaintProc {0.5 setlinewidth pop 0 -2 M 12 4 L
	-4 0 M 12 8 L -4 4 M 8 10 L stroke}
>> matrix makepattern
/Pat9 exch def
/Pattern1 {PatternBgnd KeepColor Pat1 setpattern} bind def
/Pattern2 {PatternBgnd KeepColor Pat2 setpattern} bind def
/Pattern3 {PatternBgnd KeepColor Pat3 setpattern} bind def
/Pattern4 {PatternBgnd KeepColor Landscape {Pat5} {Pat4} ifelse setpattern} bind def
/Pattern5 {PatternBgnd KeepColor Landscape {Pat4} {Pat5} ifelse setpattern} bind def
/Pattern6 {PatternBgnd KeepColor Landscape {Pat9} {Pat6} ifelse setpattern} bind def
/Pattern7 {PatternBgnd KeepColor Landscape {Pat8} {Pat7} ifelse setpattern} bind def
} def
%
%
%End of PostScript Level 2 code
%
/PatternBgnd {
  TransparentPatterns {} {gsave 1 setgray fill grestore} ifelse
} def
%
% Substitute for Level 2 pattern fill codes with
% grayscale if Level 2 support is not selected.
%
/Level1PatternFill {
/Pattern1 {0.250 Density} bind def
/Pattern2 {0.500 Density} bind def
/Pattern3 {0.750 Density} bind def
/Pattern4 {0.125 Density} bind def
/Pattern5 {0.375 Density} bind def
/Pattern6 {0.625 Density} bind def
/Pattern7 {0.875 Density} bind def
} def
%
% Now test for support of Level 2 code
%
Level1 {Level1PatternFill} {Level2PatternFill} ifelse
%
/Symbol-Oblique /Symbol findfont [1 0 .167 1 0 0] makefont
dup length dict begin {1 index /FID eq {pop pop} {def} ifelse} forall
currentdict end definefont pop
%
/MFshow {
   { dup 5 get 3 ge
     { 5 get 3 eq {gsave} {grestore} ifelse }
     {dup dup 0 get findfont exch 1 get scalefont setfont
     [ currentpoint ] exch dup 2 get 0 exch R dup 5 get 2 ne {dup dup 6
     get exch 4 get {textshow} {stringwidth pop 0 R} ifelse }if dup 5 get 0 eq
     {dup 3 get {2 get neg 0 exch R pop} {pop aload pop M} ifelse} {dup 5
     get 1 eq {dup 2 get exch dup 3 get exch 6 get stringwidth pop -2 div
     dup 0 R} {dup 6 get stringwidth pop -2 div 0 R 6 get
     textshow 2 index {aload pop M neg 3 -1 roll neg R pop pop} {pop pop pop
     pop aload pop M} ifelse }ifelse }ifelse }
     ifelse }
   forall} def
/Gswidth {dup type /stringtype eq {stringwidth} {pop (n) stringwidth} ifelse} def
/MFwidth {0 exch { dup 5 get 3 ge { 5 get 3 eq { 0 } { pop } ifelse }
 {dup 3 get{dup dup 0 get findfont exch 1 get scalefont setfont
     6 get Gswidth pop add} {pop} ifelse} ifelse} forall} def
/MLshow { currentpoint stroke M
  0 exch R
  Blacktext {gsave 0 setgray MFshow grestore} {MFshow} ifelse } bind def
/MRshow { currentpoint stroke M
  exch dup MFwidth neg 3 -1 roll R
  Blacktext {gsave 0 setgray MFshow grestore} {MFshow} ifelse } bind def
/MCshow { currentpoint stroke M
  exch dup MFwidth -2 div 3 -1 roll R
  Blacktext {gsave 0 setgray MFshow grestore} {MFshow} ifelse } bind def
/XYsave    { [( ) 1 2 true false 3 ()] } bind def
/XYrestore { [( ) 1 2 true false 4 ()] } bind def
Level1 SuppressPDFMark or 
{} {
/SDict 10 dict def
systemdict /pdfmark known not {
  userdict /pdfmark systemdict /cleartomark get put
} if
SDict begin [
  /Title (lr_SNM.eps)
  /Subject (gnuplot plot)
  /Creator (gnuplot 5.0 patchlevel 3)
  /Author (kb2)
%  /Producer (gnuplot)
%  /Keywords ()
  /CreationDate (Fri Jun 23 22:47:21 2017)
  /DOCINFO pdfmark
end
} ifelse
%
% Support for boxed text - Ethan A Merritt May 2005
%
/InitTextBox { userdict /TBy2 3 -1 roll put userdict /TBx2 3 -1 roll put
           userdict /TBy1 3 -1 roll put userdict /TBx1 3 -1 roll put
	   /Boxing true def } def
/ExtendTextBox { Boxing
    { gsave dup false charpath pathbbox
      dup TBy2 gt {userdict /TBy2 3 -1 roll put} {pop} ifelse
      dup TBx2 gt {userdict /TBx2 3 -1 roll put} {pop} ifelse
      dup TBy1 lt {userdict /TBy1 3 -1 roll put} {pop} ifelse
      dup TBx1 lt {userdict /TBx1 3 -1 roll put} {pop} ifelse
      grestore } if } def
/PopTextBox { newpath TBx1 TBxmargin sub TBy1 TBymargin sub M
               TBx1 TBxmargin sub TBy2 TBymargin add L
	       TBx2 TBxmargin add TBy2 TBymargin add L
	       TBx2 TBxmargin add TBy1 TBymargin sub L closepath } def
/DrawTextBox { PopTextBox stroke /Boxing false def} def
/FillTextBox { gsave PopTextBox 1 1 1 setrgbcolor fill grestore /Boxing false def} def
0 0 0 0 InitTextBox
/TBxmargin 20 def
/TBymargin 20 def
/Boxing false def
/textshow { ExtendTextBox Gshow } def
%
% redundant definitions for compatibility with prologue.ps older than 5.0.2
/LTB {BL [] LCb DL} def
/LTb {PL [] LCb DL} def
end
%%EndProlog
%%Page: 1 1
gnudict begin
gsave
doclip
50 50 translate
0.050 0.050 scale
0 setgray
newpath
(Helvetica) findfont 180 scalefont setfont
BackgroundColor 0 lt 3 1 roll 0 lt exch 0 lt or or not {BackgroundColor C 1.000 0 0 7200.00 5040.00 BoxColFill} if
1.000 UL
LTb
0.50 0.50 0.50 C 1.000 UL
LTa
0.50 0.50 0.50 C 882 756 M
5993 0 V
stroke
LTb
0.50 0.50 0.50 C 882 756 M
63 0 V
5930 0 R
-63 0 V
stroke
774 756 M
[ [(Helvetica) 180.0 0.0 true true 0 ( 0)]
] -60.0 MRshow
1.000 UL
LTb
0.50 0.50 0.50 C 1.000 UL
LTa
0.50 0.50 0.50 C 882 1569 M
4535 0 V
stroke
LTb
0.50 0.50 0.50 C 882 1569 M
63 0 V
5930 0 R
-63 0 V
stroke
774 1569 M
[ [(Helvetica) 180.0 0.0 true true 0 ( 0.1)]
] -60.0 MRshow
1.000 UL
LTb
0.50 0.50 0.50 C 1.000 UL
LTa
0.50 0.50 0.50 C 882 2383 M
5993 0 V
stroke
LTb
0.50 0.50 0.50 C 882 2383 M
63 0 V
5930 0 R
-63 0 V
stroke
774 2383 M
[ [(Helvetica) 180.0 0.0 true true 0 ( 0.2)]
] -60.0 MRshow
1.000 UL
LTb
0.50 0.50 0.50 C 1.000 UL
LTa
0.50 0.50 0.50 C 882 3196 M
5993 0 V
stroke
LTb
0.50 0.50 0.50 C 882 3196 M
63 0 V
5930 0 R
-63 0 V
stroke
774 3196 M
[ [(Helvetica) 180.0 0.0 true true 0 ( 0.3)]
] -60.0 MRshow
1.000 UL
LTb
0.50 0.50 0.50 C 1.000 UL
LTa
0.50 0.50 0.50 C 882 4010 M
5993 0 V
stroke
LTb
0.50 0.50 0.50 C 882 4010 M
63 0 V
5930 0 R
-63 0 V
stroke
774 4010 M
[ [(Helvetica) 180.0 0.0 true true 0 ( 0.4)]
] -60.0 MRshow
1.000 UL
LTb
0.50 0.50 0.50 C 1.000 UL
LTa
0.50 0.50 0.50 C 882 4823 M
5993 0 V
stroke
LTb
0.50 0.50 0.50 C 882 4823 M
63 0 V
5930 0 R
-63 0 V
stroke
774 4823 M
[ [(Helvetica) 180.0 0.0 true true 0 ( 0.5)]
] -60.0 MRshow
1.000 UL
LTb
0.50 0.50 0.50 C 1.000 UL
LTa
0.50 0.50 0.50 C 882 756 M
0 4067 V
stroke
LTb
0.50 0.50 0.50 C 882 756 M
0 63 V
0 4004 R
0 -63 V
stroke
882 576 M
[ [(Helvetica) 180.0 0.0 true true 0 ( 0)]
] -60.0 MCshow
1.000 UL
LTb
0.50 0.50 0.50 C 1.000 UL
LTa
0.50 0.50 0.50 C 1548 756 M
0 4067 V
stroke
LTb
0.50 0.50 0.50 C 1548 756 M
0 63 V
0 4004 R
0 -63 V
stroke
1548 576 M
[ [(Helvetica) 180.0 0.0 true true 0 ( 1)]
] -60.0 MCshow
1.000 UL
LTb
0.50 0.50 0.50 C 1.000 UL
LTa
0.50 0.50 0.50 C 2214 756 M
0 4067 V
stroke
LTb
0.50 0.50 0.50 C 2214 756 M
0 63 V
0 4004 R
0 -63 V
stroke
2214 576 M
[ [(Helvetica) 180.0 0.0 true true 0 ( 2)]
] -60.0 MCshow
1.000 UL
LTb
0.50 0.50 0.50 C 1.000 UL
LTa
0.50 0.50 0.50 C 2880 756 M
0 4067 V
stroke
LTb
0.50 0.50 0.50 C 2880 756 M
0 63 V
0 4004 R
0 -63 V
stroke
2880 576 M
[ [(Helvetica) 180.0 0.0 true true 0 ( 3)]
] -60.0 MCshow
1.000 UL
LTb
0.50 0.50 0.50 C 1.000 UL
LTa
0.50 0.50 0.50 C 3546 756 M
0 4067 V
stroke
LTb
0.50 0.50 0.50 C 3546 756 M
0 63 V
0 4004 R
0 -63 V
stroke
3546 576 M
[ [(Helvetica) 180.0 0.0 true true 0 ( 4)]
] -60.0 MCshow
1.000 UL
LTb
0.50 0.50 0.50 C 1.000 UL
LTa
0.50 0.50 0.50 C 4211 756 M
0 4067 V
stroke
LTb
0.50 0.50 0.50 C 4211 756 M
0 63 V
0 4004 R
0 -63 V
stroke
4211 576 M
[ [(Helvetica) 180.0 0.0 true true 0 ( 5)]
] -60.0 MCshow
1.000 UL
LTb
0.50 0.50 0.50 C 1.000 UL
LTa
0.50 0.50 0.50 C 4877 756 M
0 4067 V
stroke
LTb
0.50 0.50 0.50 C 4877 756 M
0 63 V
0 4004 R
0 -63 V
stroke
4877 576 M
[ [(Helvetica) 180.0 0.0 true true 0 ( 6)]
] -60.0 MCshow
1.000 UL
LTb
0.50 0.50 0.50 C 1.000 UL
LTa
0.50 0.50 0.50 C 5543 756 M
0 157 V
0 900 R
0 3010 V
stroke
LTb
0.50 0.50 0.50 C 5543 756 M
0 63 V
0 4004 R
0 -63 V
stroke
5543 576 M
[ [(Helvetica) 180.0 0.0 true true 0 ( 7)]
] -60.0 MCshow
1.000 UL
LTb
0.50 0.50 0.50 C 1.000 UL
LTa
0.50 0.50 0.50 C 6209 756 M
0 157 V
0 900 R
0 3010 V
stroke
LTb
0.50 0.50 0.50 C 6209 756 M
0 63 V
0 4004 R
0 -63 V
stroke
6209 576 M
[ [(Helvetica) 180.0 0.0 true true 0 ( 8)]
] -60.0 MCshow
1.000 UL
LTb
0.50 0.50 0.50 C 1.000 UL
LTa
0.50 0.50 0.50 C 6875 756 M
0 4067 V
stroke
LTb
0.50 0.50 0.50 C 6875 756 M
0 63 V
0 4004 R
0 -63 V
stroke
6875 576 M
[ [(Helvetica) 180.0 0.0 true true 0 ( 9)]
] -60.0 MCshow
1.000 UL
LTb
0.50 0.50 0.50 C 1.000 UL
LTB
0.50 0.50 0.50 C 882 4823 M
882 756 L
5993 0 V
0 4067 R
-5993 0 R
stroke
LTb
1.00 1.00 1.00 C 1.000 5885 4236 648 360 BoxColFill
LCb setrgbcolor
5885 4236 N
0 360 V
648 0 V
0 -360 V
-648 0 V
Z stroke
1.000 UP
LCb setrgbcolor
416 2057 M
[ [(Symbol) 180.0 0.0 true true 0 (r)]
[(Helvetica) 144.0 -54.0 true true 0 (sat)]
] -42.0 MLshow
LCb setrgbcolor
416 2627 M
[ [(Symbol) 180.0 0.0 true true 0 (r)]
[(Helvetica) 144.0 -54.0 true true 0 (crit)]
] -42.0 MLshow
1.000 UL
LTb
0.50 0.50 0.50 C LCb setrgbcolor
144 2789 M
currentpoint gsave translate -270 rotate 0 0 moveto
[ [(Symbol) 180.0 0.0 true true 0 (r)]
[(Helvetica) 180.0 0.0 true true 0 ( [fm)]
[(Helvetica) 144.0 90.0 true true 0 (-3)]
[(Helvetica) 180.0 0.0 true true 0 (])]
] -78.0 MCshow
grestore
LTb
LCb setrgbcolor
3878 306 M
[ [(Helvetica) 180.0 0.0 true true 0 (q [fm)]
[(Helvetica) 144.0 90.0 true true 0 (-1)]
[(Helvetica) 180.0 0.0 true true 0 (])]
] -78.0 MCshow
LTb
% Begin plot #1
2.000 UP
1.000 UL
LTb
0.91 0.59 0.48 C LCb setrgbcolor
6272 1738 M
[ [(Helvetica) 150.0 0.0 true true 0 (Canal S=0 M=0 I=0)]
] -50.0 MRshow
2.000 UP
1.000 UL
LTb
0.91 0.59 0.48 C 6573 1738 CircleF
% End plot #1
% Begin plot #2
0.250 UP
1.000 UL
LTb
0.91 0.59 0.48 C 889 1590 Circle
895 1590 Circle
902 1590 Circle
909 1589 Circle
915 1589 Circle
922 1589 Circle
929 1589 Circle
935 1588 Circle
942 1588 Circle
949 1587 Circle
955 1587 Circle
962 1586 Circle
969 1586 Circle
975 1585 Circle
982 1584 Circle
989 1583 Circle
995 1583 Circle
1002 1582 Circle
1009 1581 Circle
1015 1580 Circle
1022 1579 Circle
1028 1578 Circle
1035 1577 Circle
1042 1575 Circle
1048 1574 Circle
1055 1573 Circle
1062 1572 Circle
1068 1570 Circle
1075 1569 Circle
1082 1567 Circle
1088 1566 Circle
1095 1564 Circle
1102 1562 Circle
1108 1561 Circle
1115 1559 Circle
1122 1557 Circle
1128 1555 Circle
1135 1553 Circle
1142 1551 Circle
1148 1549 Circle
1155 1547 Circle
1162 1545 Circle
1168 1543 Circle
1175 1541 Circle
1182 1538 Circle
1188 1536 Circle
1195 1534 Circle
1202 1531 Circle
1208 1529 Circle
1215 1526 Circle
1222 1523 Circle
1228 1521 Circle
1235 1518 Circle
1242 1515 Circle
1248 1512 Circle
1255 1509 Circle
1262 1506 Circle
1268 1503 Circle
1275 1500 Circle
1282 1497 Circle
1288 1493 Circle
1295 1490 Circle
1302 1487 Circle
1308 1483 Circle
1315 1480 Circle
1321 1476 Circle
1328 1472 Circle
1335 1469 Circle
1341 1465 Circle
1348 1461 Circle
1355 1457 Circle
1361 1453 Circle
1368 1449 Circle
1375 1445 Circle
1381 1441 Circle
1388 1436 Circle
1395 1432 Circle
1401 1428 Circle
1408 1423 Circle
1415 1419 Circle
1421 1414 Circle
1428 1409 Circle
1435 1404 Circle
1441 1399 Circle
1448 1395 Circle
1455 1389 Circle
1461 1384 Circle
1468 1379 Circle
1475 1374 Circle
1481 1368 Circle
1488 1363 Circle
1495 1357 Circle
1501 1352 Circle
1508 1346 Circle
1515 1340 Circle
1521 1334 Circle
1528 1328 Circle
1535 1322 Circle
1541 1315 Circle
1548 1309 Circle
1555 1302 Circle
1561 1296 Circle
1568 1289 Circle
1575 1282 Circle
1581 1275 Circle
1588 1268 Circle
1595 1261 Circle
1601 1253 Circle
1608 1246 Circle
1614 1238 Circle
1621 1230 Circle
1628 1222 Circle
1634 1213 Circle
1641 1205 Circle
1648 1196 Circle
1654 1187 Circle
1661 1177 Circle
1668 1167 Circle
1674 1157 Circle
1681 1147 Circle
1688 1135 Circle
1694 1123 Circle
1701 1110 Circle
1708 1096 Circle
1714 1080 Circle
1721 1061 Circle
1728 1031 Circle
1428 798 Circle
1435 799 Circle
1441 801 Circle
1448 803 Circle
1455 804 Circle
1461 806 Circle
1468 807 Circle
1475 809 Circle
1481 811 Circle
1488 813 Circle
1495 815 Circle
1501 817 Circle
1508 819 Circle
1515 821 Circle
1521 823 Circle
1528 825 Circle
1535 827 Circle
1541 829 Circle
1548 832 Circle
1555 834 Circle
1561 837 Circle
1568 839 Circle
1575 842 Circle
1581 845 Circle
1588 848 Circle
1595 851 Circle
1601 854 Circle
1608 857 Circle
1614 861 Circle
1621 864 Circle
1628 868 Circle
1634 872 Circle
1641 876 Circle
1648 880 Circle
1654 884 Circle
1661 889 Circle
1668 894 Circle
1674 900 Circle
1681 906 Circle
1688 912 Circle
1694 919 Circle
1701 927 Circle
1708 937 Circle
1714 948 Circle
1721 962 Circle
1728 987 Circle
% End plot #2
% Begin plot #3
2.000 UP
1.000 UL
LTb
0.55 0.00 0.00 C LCb setrgbcolor
6272 1588 M
[ [(Helvetica) 150.0 0.0 true true 0 (Canal S=0 M=0 I=1)]
] -50.0 MRshow
2.000 UP
1.000 UL
LTb
0.55 0.00 0.00 C 6573 1588 CircleF
% End plot #3
% Begin plot #4
0.250 UP
1.000 UL
LTb
0.55 0.00 0.00 C 2287 4785 Circle
2294 4735 Circle
2300 4686 Circle
2307 4638 Circle
2314 4592 Circle
2320 4546 Circle
2327 4502 Circle
2334 4459 Circle
2340 4416 Circle
2347 4375 Circle
2354 4335 Circle
2360 4295 Circle
2367 4257 Circle
2374 4219 Circle
2380 4182 Circle
2387 4146 Circle
2394 4111 Circle
2400 4077 Circle
2407 4043 Circle
2414 4010 Circle
2420 3978 Circle
2427 3946 Circle
2434 3916 Circle
2440 3885 Circle
2447 3856 Circle
2453 3827 Circle
2460 3799 Circle
2467 3772 Circle
2473 3745 Circle
2480 3718 Circle
2487 3693 Circle
2493 3667 Circle
2500 3643 Circle
2507 3619 Circle
2513 3595 Circle
2520 3573 Circle
2527 3550 Circle
2533 3528 Circle
2540 3507 Circle
2547 3486 Circle
2553 3466 Circle
2560 3446 Circle
2567 3427 Circle
2573 3408 Circle
2580 3389 Circle
2587 3371 Circle
2593 3354 Circle
2600 3337 Circle
2607 3320 Circle
2613 3304 Circle
2620 3289 Circle
2627 3273 Circle
2633 3259 Circle
2640 3244 Circle
2647 3230 Circle
2653 3217 Circle
2660 3204 Circle
2667 3191 Circle
2673 3179 Circle
2680 3167 Circle
2687 3156 Circle
2693 3145 Circle
2700 3134 Circle
2707 3124 Circle
2713 3115 Circle
2720 3105 Circle
2727 3096 Circle
2733 3088 Circle
2740 3080 Circle
2746 3072 Circle
2753 3065 Circle
2760 3058 Circle
2766 3051 Circle
2773 3045 Circle
2780 3040 Circle
2786 3034 Circle
2793 3029 Circle
2800 3025 Circle
2806 3021 Circle
2813 3017 Circle
2820 3014 Circle
2826 3011 Circle
2833 3008 Circle
2840 3006 Circle
2846 3004 Circle
2853 3003 Circle
2860 3002 Circle
2866 3002 Circle
2873 3002 Circle
2880 3002 Circle
2886 3003 Circle
2893 3004 Circle
2900 3005 Circle
2906 3007 Circle
2913 3009 Circle
2920 3012 Circle
2926 3015 Circle
2933 3019 Circle
2940 3023 Circle
2946 3027 Circle
2953 3032 Circle
2960 3037 Circle
2966 3043 Circle
2973 3049 Circle
2980 3055 Circle
2986 3062 Circle
2993 3070 Circle
3000 3078 Circle
3006 3086 Circle
3013 3095 Circle
3020 3104 Circle
3026 3114 Circle
3033 3125 Circle
3039 3136 Circle
3046 3147 Circle
3053 3160 Circle
3059 3173 Circle
3066 3186 Circle
3073 3202 Circle
3079 3218 Circle
3086 3232 Circle
3093 3246 Circle
3099 3259 Circle
3106 3272 Circle
3113 3285 Circle
3119 3297 Circle
3126 3310 Circle
3133 3322 Circle
3139 3334 Circle
3146 3345 Circle
3153 3357 Circle
3159 3368 Circle
3166 3380 Circle
3173 3391 Circle
3179 3402 Circle
3186 3413 Circle
3193 3424 Circle
3199 3435 Circle
3206 3446 Circle
3213 3456 Circle
3219 3467 Circle
3226 3477 Circle
3233 3488 Circle
3239 3498 Circle
3246 3509 Circle
3253 3519 Circle
3259 3529 Circle
3266 3539 Circle
3273 3549 Circle
3279 3560 Circle
3286 3570 Circle
3293 3580 Circle
3299 3589 Circle
3306 3599 Circle
3312 3609 Circle
3319 3619 Circle
3326 3629 Circle
3332 3639 Circle
3339 3648 Circle
3346 3658 Circle
3352 3667 Circle
3359 3677 Circle
3366 3687 Circle
3372 3696 Circle
3379 3706 Circle
3386 3715 Circle
3392 3725 Circle
3399 3734 Circle
3406 3743 Circle
3412 3753 Circle
3419 3762 Circle
3426 3771 Circle
3432 3781 Circle
3439 3790 Circle
3446 3799 Circle
3452 3808 Circle
3459 3817 Circle
3466 3827 Circle
3472 3836 Circle
3479 3845 Circle
3486 3854 Circle
3492 3863 Circle
3499 3872 Circle
3506 3881 Circle
3512 3890 Circle
3519 3899 Circle
3526 3908 Circle
3532 3917 Circle
3539 3926 Circle
3546 3935 Circle
3552 3944 Circle
3559 3953 Circle
3566 3962 Circle
3572 3971 Circle
3579 3980 Circle
3586 3988 Circle
3592 3997 Circle
3599 4006 Circle
3605 4015 Circle
3612 4024 Circle
3619 4033 Circle
3625 4041 Circle
3632 4050 Circle
3639 4059 Circle
3645 4068 Circle
3652 4076 Circle
3659 4085 Circle
3665 4094 Circle
3672 4102 Circle
3679 4111 Circle
3685 4120 Circle
3692 4128 Circle
3699 4137 Circle
3705 4146 Circle
3712 4154 Circle
3719 4163 Circle
3725 4171 Circle
3732 4180 Circle
3739 4189 Circle
3745 4197 Circle
3752 4206 Circle
3759 4214 Circle
3765 4223 Circle
3772 4231 Circle
3779 4240 Circle
3785 4248 Circle
3792 4257 Circle
3799 4265 Circle
3805 4274 Circle
3812 4282 Circle
3819 4291 Circle
3825 4299 Circle
3832 4308 Circle
3839 4316 Circle
3845 4325 Circle
3852 4333 Circle
3859 4342 Circle
3865 4350 Circle
3872 4359 Circle
3879 4367 Circle
3885 4375 Circle
3892 4384 Circle
3898 4392 Circle
3905 4401 Circle
3912 4409 Circle
3918 4417 Circle
3925 4426 Circle
3932 4434 Circle
3938 4442 Circle
3945 4451 Circle
3952 4459 Circle
3958 4467 Circle
3965 4476 Circle
3972 4484 Circle
3978 4492 Circle
3985 4501 Circle
3992 4509 Circle
3998 4517 Circle
4005 4525 Circle
4012 4534 Circle
4018 4542 Circle
4025 4550 Circle
4032 4559 Circle
4038 4567 Circle
4045 4575 Circle
4052 4583 Circle
4058 4592 Circle
4065 4600 Circle
4072 4608 Circle
4078 4616 Circle
4085 4624 Circle
4092 4633 Circle
4098 4641 Circle
4105 4649 Circle
4112 4657 Circle
4118 4665 Circle
4125 4674 Circle
4132 4682 Circle
4138 4690 Circle
4145 4698 Circle
4152 4706 Circle
4158 4715 Circle
4165 4723 Circle
4171 4731 Circle
4178 4739 Circle
4185 4747 Circle
4191 4755 Circle
4198 4763 Circle
4205 4772 Circle
4211 4780 Circle
4218 4788 Circle
4225 4796 Circle
4231 4804 Circle
4238 4812 Circle
4245 4820 Circle
% End plot #4
% Begin plot #5
2.000 UP
1.000 UL
LTb
0.33 0.42 0.18 C LCb setrgbcolor
6272 1438 M
[ [(Helvetica) 150.0 0.0 true true 0 (Canal S=1 M=0 I=0)]
] -50.0 MRshow
2.000 UP
1.000 UL
LTb
0.33 0.42 0.18 C 6573 1438 CircleF
% End plot #5
% Begin plot #6
0.250 UP
1.000 UL
LTb
0.33 0.42 0.18 C 2673 3454 Circle
2680 3752 Circle
2687 4003 Circle
2693 4237 Circle
2700 4463 Circle
2707 4685 Circle
2713 2442 Circle
2720 2424 Circle
2727 2410 Circle
2733 2399 Circle
2740 2390 Circle
2746 2384 Circle
2753 2380 Circle
2760 2378 Circle
2766 2378 Circle
2773 2379 Circle
2780 2381 Circle
2786 2386 Circle
2793 2392 Circle
2800 2399 Circle
2806 2409 Circle
2813 2417 Circle
2820 2424 Circle
2826 2429 Circle
2833 2434 Circle
2840 2438 Circle
2846 2442 Circle
2853 2445 Circle
2860 2447 Circle
2866 2450 Circle
2873 2452 Circle
2880 2453 Circle
2886 2455 Circle
2893 2456 Circle
2900 2456 Circle
2906 2457 Circle
2913 2457 Circle
2920 2458 Circle
2926 2458 Circle
2933 2458 Circle
2940 2457 Circle
2946 2457 Circle
2953 2456 Circle
2960 2456 Circle
2966 2455 Circle
2973 2454 Circle
2980 2453 Circle
2986 2452 Circle
2993 2451 Circle
3000 2450 Circle
3006 2449 Circle
3013 2447 Circle
3020 2446 Circle
3026 2445 Circle
3033 2443 Circle
3039 2442 Circle
3046 2440 Circle
3053 2439 Circle
3059 2437 Circle
3066 2435 Circle
3073 2434 Circle
3079 2432 Circle
3086 2430 Circle
3093 2429 Circle
3099 2427 Circle
3106 2425 Circle
3113 2423 Circle
3119 2422 Circle
3126 2420 Circle
3133 2418 Circle
3139 2416 Circle
3146 2414 Circle
3153 2412 Circle
3159 2411 Circle
3166 2409 Circle
3173 2407 Circle
3179 2405 Circle
3186 2403 Circle
3193 2401 Circle
3199 2400 Circle
3206 2398 Circle
3213 2396 Circle
3219 2394 Circle
3226 2392 Circle
3233 2391 Circle
3239 2389 Circle
3246 2387 Circle
3253 2385 Circle
3259 2383 Circle
3266 2381 Circle
3273 2380 Circle
3279 2378 Circle
3286 2376 Circle
3293 2374 Circle
3299 2373 Circle
3306 2371 Circle
3312 2369 Circle
3319 2368 Circle
3326 2366 Circle
3332 2364 Circle
3339 2362 Circle
3346 2361 Circle
3352 2359 Circle
3359 2357 Circle
3366 2356 Circle
3372 2354 Circle
3379 2353 Circle
3386 2351 Circle
3392 2349 Circle
3399 2348 Circle
3406 2346 Circle
3412 2345 Circle
3419 2343 Circle
3426 2341 Circle
3432 2340 Circle
3439 2338 Circle
3446 2337 Circle
3452 2335 Circle
3459 2334 Circle
3466 2332 Circle
3472 2331 Circle
3479 2329 Circle
3486 2328 Circle
3492 2327 Circle
3499 2325 Circle
3506 2324 Circle
3512 2322 Circle
3519 2321 Circle
3526 2320 Circle
3532 2318 Circle
3539 2317 Circle
3546 2315 Circle
3552 2314 Circle
3559 2313 Circle
3566 2311 Circle
3572 2310 Circle
3579 2309 Circle
3586 2307 Circle
3592 2306 Circle
3599 2305 Circle
3605 2304 Circle
3612 2302 Circle
3619 2301 Circle
3625 2300 Circle
3632 2299 Circle
3639 2297 Circle
3645 2296 Circle
3652 2295 Circle
3659 2294 Circle
3665 2293 Circle
3672 2291 Circle
3679 2290 Circle
3685 2289 Circle
3692 2288 Circle
3699 2287 Circle
3705 2286 Circle
3712 2285 Circle
3719 2283 Circle
3725 2282 Circle
3732 2281 Circle
3739 2280 Circle
3745 2279 Circle
3752 2278 Circle
3759 2277 Circle
3765 2276 Circle
3772 2275 Circle
3779 2274 Circle
3785 2273 Circle
3792 2272 Circle
3799 2271 Circle
3805 2270 Circle
3812 2269 Circle
3819 2268 Circle
3825 2267 Circle
3832 2266 Circle
3839 2265 Circle
3845 2264 Circle
3852 2263 Circle
3859 2262 Circle
3865 2261 Circle
3872 2260 Circle
3879 2259 Circle
3885 2258 Circle
3892 2257 Circle
3898 2256 Circle
3905 2255 Circle
3912 2254 Circle
3918 2254 Circle
3925 2253 Circle
3932 2252 Circle
3938 2251 Circle
3945 2250 Circle
3952 2249 Circle
3958 2248 Circle
3965 2248 Circle
3972 2247 Circle
3978 2246 Circle
3985 2245 Circle
3992 2244 Circle
3998 2243 Circle
4005 2243 Circle
4012 2242 Circle
4018 2241 Circle
4025 2240 Circle
4032 2239 Circle
4038 2239 Circle
4045 2238 Circle
4052 2237 Circle
4058 2236 Circle
4065 2235 Circle
4072 2235 Circle
4078 2234 Circle
4085 2233 Circle
4092 2232 Circle
4098 2232 Circle
4105 2231 Circle
4112 2230 Circle
4118 2230 Circle
4125 2229 Circle
4132 2228 Circle
4138 2227 Circle
4145 2227 Circle
4152 2226 Circle
4158 2225 Circle
4165 2225 Circle
4171 2224 Circle
4178 2223 Circle
4185 2223 Circle
4191 2222 Circle
4198 2221 Circle
4205 2221 Circle
4211 2220 Circle
4218 2219 Circle
4225 2219 Circle
4231 2218 Circle
4238 2217 Circle
4245 2217 Circle
4251 2216 Circle
4258 2216 Circle
4265 2215 Circle
4271 2214 Circle
4278 2214 Circle
4285 2213 Circle
4291 2212 Circle
4298 2212 Circle
4305 2211 Circle
4311 2211 Circle
4318 2210 Circle
4325 2209 Circle
4331 2209 Circle
4338 2208 Circle
4345 2208 Circle
4351 2207 Circle
4358 2207 Circle
4365 2206 Circle
4371 2205 Circle
4378 2205 Circle
4385 2204 Circle
4391 2204 Circle
4398 2203 Circle
4405 2203 Circle
4411 2202 Circle
4418 2202 Circle
4425 2201 Circle
4431 2201 Circle
4438 2200 Circle
4445 2200 Circle
4451 2199 Circle
4458 2199 Circle
4464 2198 Circle
4471 2198 Circle
4478 2197 Circle
4484 2197 Circle
4491 2196 Circle
4498 2196 Circle
4504 2195 Circle
4511 2194 Circle
4518 2194 Circle
4524 2194 Circle
4531 2193 Circle
4538 2193 Circle
4544 2192 Circle
4551 2192 Circle
4558 2191 Circle
4564 2191 Circle
4571 2190 Circle
4578 2190 Circle
4584 2189 Circle
4591 2189 Circle
4598 2188 Circle
4604 2188 Circle
4611 2188 Circle
4618 2187 Circle
4624 2187 Circle
4631 2186 Circle
4638 2186 Circle
4644 2185 Circle
4651 2185 Circle
4658 2184 Circle
4664 2184 Circle
4671 2184 Circle
4678 2183 Circle
4684 2183 Circle
4691 2182 Circle
4698 2182 Circle
4704 2181 Circle
4711 2181 Circle
4718 2181 Circle
4724 2180 Circle
4731 2180 Circle
4737 2179 Circle
4744 2179 Circle
4751 2179 Circle
4757 2178 Circle
4764 2178 Circle
4771 2177 Circle
4777 2177 Circle
4784 2177 Circle
4791 2176 Circle
4797 2176 Circle
4804 2176 Circle
4811 2175 Circle
4817 2175 Circle
4824 2174 Circle
4831 2174 Circle
4837 2174 Circle
4844 2173 Circle
4851 2173 Circle
4857 2173 Circle
4864 2172 Circle
4871 2172 Circle
4877 2172 Circle
4884 2171 Circle
4891 2171 Circle
4897 2171 Circle
4904 2170 Circle
4911 2170 Circle
4917 2169 Circle
4924 2169 Circle
4931 2169 Circle
4937 2168 Circle
4944 2168 Circle
4951 2168 Circle
4957 2167 Circle
4964 2167 Circle
4971 2167 Circle
4977 2166 Circle
4984 2166 Circle
4991 2166 Circle
4997 2165 Circle
5004 2165 Circle
5011 2165 Circle
5017 2164 Circle
5024 2164 Circle
5030 2164 Circle
5037 2164 Circle
5044 2163 Circle
5050 2163 Circle
5057 2163 Circle
5064 2162 Circle
5070 2162 Circle
5077 2162 Circle
5084 2161 Circle
5090 2161 Circle
5097 2161 Circle
5104 2160 Circle
5110 2160 Circle
5117 2160 Circle
5124 2160 Circle
5130 2159 Circle
5137 2159 Circle
5144 2159 Circle
5150 2158 Circle
5157 2158 Circle
5164 2158 Circle
5170 2158 Circle
5177 2157 Circle
5184 2157 Circle
5190 2157 Circle
5197 2157 Circle
5204 2156 Circle
5210 2156 Circle
5217 2156 Circle
5224 2155 Circle
5230 2155 Circle
5237 2155 Circle
5244 2155 Circle
5250 2154 Circle
5257 2154 Circle
5264 2154 Circle
5270 2154 Circle
5277 2153 Circle
5284 2153 Circle
5290 2153 Circle
5297 2153 Circle
5304 2152 Circle
5310 2152 Circle
5317 2152 Circle
5323 2151 Circle
5330 2151 Circle
5337 2151 Circle
5343 2151 Circle
5350 2150 Circle
5357 2150 Circle
5363 2150 Circle
5370 2150 Circle
5377 2150 Circle
5383 2149 Circle
5390 2149 Circle
5397 2149 Circle
5403 2149 Circle
5410 2148 Circle
5417 2148 Circle
5423 2148 Circle
5430 2148 Circle
5437 2147 Circle
5443 2147 Circle
5450 2147 Circle
5457 2147 Circle
5463 2146 Circle
5470 2146 Circle
5477 2146 Circle
5483 2146 Circle
5490 2146 Circle
5497 2145 Circle
5503 2145 Circle
5510 2145 Circle
5517 2145 Circle
5523 2144 Circle
5530 2144 Circle
5537 2144 Circle
5543 2144 Circle
5550 2144 Circle
5557 2143 Circle
5563 2143 Circle
5570 2143 Circle
5577 2143 Circle
5583 2143 Circle
5590 2142 Circle
5596 2142 Circle
5603 2142 Circle
5610 2142 Circle
5616 2141 Circle
5623 2141 Circle
5630 2141 Circle
5636 2141 Circle
5643 2141 Circle
5650 2140 Circle
5656 2140 Circle
5663 2140 Circle
5670 2140 Circle
5676 2140 Circle
5683 2140 Circle
5690 2139 Circle
5696 2139 Circle
5703 2139 Circle
5710 2139 Circle
5716 2139 Circle
5723 2138 Circle
5730 2138 Circle
5736 2138 Circle
5743 2138 Circle
5750 2138 Circle
5756 2137 Circle
5763 2137 Circle
5770 2137 Circle
5776 2137 Circle
5783 2137 Circle
5790 2136 Circle
5796 2136 Circle
5803 2136 Circle
5810 2136 Circle
5816 2136 Circle
5823 2136 Circle
5830 2135 Circle
5836 2135 Circle
5843 2135 Circle
5850 2135 Circle
5856 2135 Circle
5863 2134 Circle
5870 2134 Circle
5876 2134 Circle
5883 2134 Circle
5889 2134 Circle
5896 2134 Circle
5903 2133 Circle
5909 2133 Circle
5916 2133 Circle
5923 2133 Circle
5929 2133 Circle
5936 2133 Circle
5943 2132 Circle
5949 2132 Circle
5956 2132 Circle
5963 2132 Circle
5969 2132 Circle
5976 2132 Circle
5983 2131 Circle
5989 2131 Circle
5996 2131 Circle
6003 2131 Circle
6009 2131 Circle
6016 2131 Circle
6023 2131 Circle
6029 2130 Circle
6036 2130 Circle
6043 2130 Circle
6049 2130 Circle
6056 2130 Circle
6063 2130 Circle
6069 2129 Circle
6076 2129 Circle
6083 2129 Circle
6089 2129 Circle
6096 2129 Circle
6103 2129 Circle
6109 2129 Circle
6116 2128 Circle
6123 2128 Circle
6129 2128 Circle
6136 2128 Circle
6143 2128 Circle
6149 2128 Circle
6156 2127 Circle
6162 2127 Circle
6169 2127 Circle
6176 2127 Circle
6182 2127 Circle
6189 2127 Circle
6196 2127 Circle
6202 2126 Circle
6209 2126 Circle
6216 2126 Circle
6222 2126 Circle
6229 2126 Circle
6236 2126 Circle
6242 2126 Circle
6249 2126 Circle
6256 2125 Circle
6262 2125 Circle
6269 2125 Circle
6276 2125 Circle
6282 2125 Circle
6289 2125 Circle
6296 2125 Circle
6302 2124 Circle
6309 2124 Circle
6316 2124 Circle
6322 2124 Circle
6329 2124 Circle
6336 2124 Circle
6342 2124 Circle
6349 2124 Circle
6356 2123 Circle
6362 2123 Circle
6369 2123 Circle
6376 2123 Circle
6382 2123 Circle
6389 2123 Circle
6396 2123 Circle
6402 2123 Circle
6409 2122 Circle
6416 2122 Circle
6422 2122 Circle
6429 2122 Circle
6436 2122 Circle
6442 2122 Circle
6449 2122 Circle
6455 2122 Circle
6462 2121 Circle
6469 2121 Circle
6475 2121 Circle
6482 2121 Circle
6489 2121 Circle
6495 2121 Circle
6502 2121 Circle
6509 2121 Circle
6515 2120 Circle
6522 2120 Circle
6529 2120 Circle
6535 2120 Circle
6542 2120 Circle
6549 2120 Circle
6555 2120 Circle
6562 2120 Circle
6569 2120 Circle
6575 2119 Circle
6582 2119 Circle
6589 2119 Circle
6595 2119 Circle
6602 2119 Circle
6609 2119 Circle
6615 2119 Circle
6622 2119 Circle
6629 2119 Circle
6635 2118 Circle
6642 2118 Circle
6649 2118 Circle
6655 2118 Circle
6662 2118 Circle
6669 2118 Circle
6675 2118 Circle
6682 2118 Circle
6689 2118 Circle
6695 2117 Circle
6702 2117 Circle
6709 2117 Circle
6715 2117 Circle
6722 2117 Circle
6729 2117 Circle
6735 2117 Circle
6742 2117 Circle
6748 2117 Circle
6755 2116 Circle
6762 2116 Circle
6768 2116 Circle
6775 2116 Circle
6782 2116 Circle
6788 2116 Circle
6795 2116 Circle
6802 2116 Circle
6808 2116 Circle
6815 2116 Circle
6822 2116 Circle
6828 2115 Circle
6835 2115 Circle
6842 2115 Circle
6848 2115 Circle
6855 2115 Circle
6862 2115 Circle
6868 2115 Circle
6875 2115 Circle
2673 2782 Circle
2680 2657 Circle
2687 2584 Circle
2693 2533 Circle
2700 2495 Circle
2707 2465 Circle
% End plot #6
% Begin plot #7
2.000 UP
1.000 UL
LTb
0.00 0.00 0.55 C LCb setrgbcolor
6272 1288 M
[ [(Helvetica) 150.0 0.0 true true 0 (Canal S=1 M=0 I=1)]
] -50.0 MRshow
2.000 UP
1.000 UL
LTb
0.00 0.00 0.55 C 6573 1288 CircleF
% End plot #7
% Begin plot #8
0.250 UP
1.000 UL
LTb
0.00 0.00 0.55 C 889 3454 Circle
895 3454 Circle
902 3454 Circle
909 3454 Circle
915 3454 Circle
922 3454 Circle
929 3454 Circle
935 3455 Circle
942 3455 Circle
949 3455 Circle
955 3455 Circle
962 3456 Circle
969 3456 Circle
975 3456 Circle
982 3457 Circle
989 3457 Circle
995 3458 Circle
1002 3458 Circle
1009 3459 Circle
1015 3459 Circle
1022 3460 Circle
1028 3461 Circle
1035 3461 Circle
1042 3462 Circle
1048 3463 Circle
1055 3463 Circle
1062 3464 Circle
1068 3465 Circle
1075 3466 Circle
1082 3466 Circle
1088 3467 Circle
1095 3468 Circle
1102 3469 Circle
1108 3470 Circle
1115 3471 Circle
1122 3472 Circle
1128 3473 Circle
1135 3474 Circle
1142 3475 Circle
1148 3476 Circle
1155 3478 Circle
1162 3479 Circle
1168 3480 Circle
1175 3481 Circle
1182 3483 Circle
1188 3484 Circle
1195 3485 Circle
1202 3487 Circle
1208 3488 Circle
1215 3489 Circle
1222 3491 Circle
1228 3492 Circle
1235 3494 Circle
1242 3495 Circle
1248 3497 Circle
1255 3498 Circle
1262 3500 Circle
1268 3502 Circle
1275 3503 Circle
1282 3505 Circle
1288 3507 Circle
1295 3508 Circle
1302 3510 Circle
1308 3512 Circle
1315 3514 Circle
1321 3516 Circle
1328 3517 Circle
1335 3519 Circle
1341 3521 Circle
1348 3523 Circle
1355 3525 Circle
1361 3527 Circle
1368 3529 Circle
1375 3531 Circle
1381 3534 Circle
1388 3536 Circle
1395 3538 Circle
1401 3540 Circle
1408 3542 Circle
1415 3544 Circle
1421 3547 Circle
1428 3549 Circle
1435 3551 Circle
1441 3554 Circle
1448 3556 Circle
1455 3558 Circle
1461 3561 Circle
1468 3563 Circle
1475 3566 Circle
1481 3568 Circle
1488 3571 Circle
1495 3574 Circle
1501 3576 Circle
1508 3579 Circle
1515 3581 Circle
1521 3584 Circle
1528 3587 Circle
1535 3590 Circle
1541 3592 Circle
1548 3595 Circle
1555 3598 Circle
1561 3601 Circle
1568 3604 Circle
1575 3606 Circle
1581 3609 Circle
1588 3612 Circle
1595 3615 Circle
1601 3618 Circle
1608 3621 Circle
1614 3624 Circle
1621 3628 Circle
1628 3631 Circle
1634 3634 Circle
1641 3637 Circle
1648 3640 Circle
1654 3643 Circle
1661 3647 Circle
1668 3650 Circle
1674 3653 Circle
1681 3657 Circle
1688 3660 Circle
1694 3663 Circle
1701 3667 Circle
1708 3670 Circle
1714 3674 Circle
1721 3677 Circle
1728 3680 Circle
1734 3684 Circle
1741 3688 Circle
1748 3691 Circle
1754 3695 Circle
1761 3698 Circle
1768 3702 Circle
1774 3706 Circle
1781 3710 Circle
1788 3713 Circle
1794 3717 Circle
1801 3721 Circle
1808 3725 Circle
1814 3728 Circle
1821 3732 Circle
1828 3736 Circle
1834 3740 Circle
1841 3744 Circle
1848 3748 Circle
1854 3752 Circle
1861 3756 Circle
1868 3760 Circle
1874 3764 Circle
1881 3768 Circle
1887 3772 Circle
1894 3777 Circle
1901 3781 Circle
1907 3785 Circle
1914 3789 Circle
1921 3794 Circle
1927 3798 Circle
1934 3802 Circle
1941 3806 Circle
1947 3811 Circle
1954 3815 Circle
1961 3820 Circle
1967 3824 Circle
1974 3829 Circle
1981 3833 Circle
1987 3837 Circle
1994 3842 Circle
2001 3847 Circle
2007 3851 Circle
2014 3856 Circle
2021 3860 Circle
2027 3865 Circle
2034 3870 Circle
2041 3874 Circle
2047 3879 Circle
2054 3884 Circle
2061 3889 Circle
2067 3894 Circle
2074 3898 Circle
2081 3903 Circle
2087 3908 Circle
2094 3913 Circle
2101 3918 Circle
2107 3923 Circle
2114 3928 Circle
2121 3933 Circle
2127 3938 Circle
2134 3943 Circle
2141 3948 Circle
2147 3953 Circle
2154 3958 Circle
2161 3963 Circle
2167 3968 Circle
2174 3974 Circle
2180 3979 Circle
2187 3984 Circle
2194 3989 Circle
2200 3995 Circle
2207 4000 Circle
2214 4005 Circle
2220 4011 Circle
2227 4016 Circle
2234 4021 Circle
2240 4027 Circle
2247 4032 Circle
2254 4038 Circle
2260 4043 Circle
2267 4049 Circle
2274 4054 Circle
2280 4060 Circle
2287 4065 Circle
2294 4071 Circle
2300 4077 Circle
2307 4082 Circle
2314 4088 Circle
2320 4094 Circle
2327 4099 Circle
2334 4105 Circle
2340 4111 Circle
2347 4117 Circle
2354 4123 Circle
2360 4129 Circle
2367 4134 Circle
2374 4140 Circle
2380 4146 Circle
2387 4152 Circle
2394 4158 Circle
2400 4164 Circle
2407 4170 Circle
2414 4176 Circle
2420 4182 Circle
2427 4188 Circle
2434 4194 Circle
2440 4200 Circle
2447 4207 Circle
2453 4213 Circle
2460 4219 Circle
2467 4225 Circle
2473 4231 Circle
2480 4238 Circle
2487 4244 Circle
2493 4250 Circle
2500 4257 Circle
2507 4263 Circle
2513 4269 Circle
2520 4276 Circle
2527 4282 Circle
2533 4289 Circle
2540 4295 Circle
2547 4301 Circle
2553 4308 Circle
2560 4315 Circle
2567 4321 Circle
2573 4328 Circle
2580 4334 Circle
2587 4341 Circle
2593 4347 Circle
2600 4354 Circle
2607 4361 Circle
2613 4368 Circle
2620 4374 Circle
2627 4381 Circle
2633 4388 Circle
2640 4395 Circle
2647 4401 Circle
2653 4408 Circle
2660 4415 Circle
2667 4422 Circle
2673 4429 Circle
2680 4436 Circle
2687 4443 Circle
2693 4450 Circle
2700 4457 Circle
2707 4464 Circle
2713 4471 Circle
2720 4478 Circle
2727 4485 Circle
2733 4492 Circle
2740 4499 Circle
2746 4507 Circle
2753 4514 Circle
2760 4521 Circle
2766 4528 Circle
2773 4535 Circle
2780 4543 Circle
2786 4550 Circle
2793 4557 Circle
2800 4565 Circle
2806 4572 Circle
2813 4580 Circle
2820 4587 Circle
2826 4594 Circle
2833 4602 Circle
2840 4609 Circle
2846 4617 Circle
2853 4624 Circle
2860 4632 Circle
2866 4640 Circle
2873 4647 Circle
2880 4655 Circle
2886 4663 Circle
2893 4670 Circle
2900 4678 Circle
2906 4686 Circle
2913 4693 Circle
2920 4701 Circle
2926 4709 Circle
2933 4717 Circle
2940 4725 Circle
2946 4733 Circle
2953 4740 Circle
2960 4748 Circle
2966 4756 Circle
2973 4764 Circle
2980 4772 Circle
2986 4780 Circle
2993 4788 Circle
3000 4796 Circle
3006 4805 Circle
3013 4813 Circle
3020 4821 Circle
% End plot #8
% Begin plot #9
2.000 UP
1.000 UL
LTb
1.00 0.55 0.00 C LCb setrgbcolor
6272 1138 M
[ [(Helvetica) 150.0 0.0 true true 0 (Canal S=1 M=1 I=0)]
] -50.0 MRshow
2.000 UP
1.000 UL
LTb
1.00 0.55 0.00 C 6573 1138 CircleF
% End plot #9
% Begin plot #10
0.250 UP
1.000 UL
LTb
1.00 0.55 0.00 C 2254 4735 Circle
2260 4645 Circle
2267 4557 Circle
2274 4469 Circle
2280 4384 Circle
2287 4300 Circle
2294 4217 Circle
2300 4136 Circle
2307 4056 Circle
2314 3978 Circle
2320 3901 Circle
2327 3826 Circle
2334 3752 Circle
2340 3679 Circle
2347 3609 Circle
2354 3539 Circle
2360 3471 Circle
2367 3405 Circle
2374 3341 Circle
2380 3278 Circle
2387 3216 Circle
2394 3157 Circle
2400 3099 Circle
2407 3042 Circle
2414 2988 Circle
2420 2935 Circle
2427 2884 Circle
2434 2835 Circle
2440 2788 Circle
2447 2743 Circle
2453 2700 Circle
2460 2658 Circle
2467 2619 Circle
2473 2581 Circle
2480 2546 Circle
2487 2512 Circle
2493 2480 Circle
2500 2450 Circle
2507 2422 Circle
2513 2395 Circle
2520 2370 Circle
2527 2347 Circle
2533 2325 Circle
2540 2305 Circle
2547 2287 Circle
2553 2270 Circle
2560 2254 Circle
2567 2240 Circle
2573 2227 Circle
2580 2215 Circle
2587 2204 Circle
2593 2195 Circle
2600 2186 Circle
2607 2179 Circle
2613 2173 Circle
2620 2167 Circle
2627 2163 Circle
2633 2160 Circle
2640 2157 Circle
2647 2155 Circle
2653 2154 Circle
2660 2154 Circle
2667 2155 Circle
2673 2157 Circle
2680 2159 Circle
2687 2162 Circle
2693 2166 Circle
2700 2172 Circle
2707 2178 Circle
2713 2186 Circle
2720 2195 Circle
2727 2202 Circle
2733 2208 Circle
2740 2214 Circle
2746 2219 Circle
2753 2224 Circle
2760 2228 Circle
2766 2232 Circle
2773 2236 Circle
2780 2239 Circle
2786 2242 Circle
2793 2245 Circle
2800 2248 Circle
2806 2250 Circle
2813 2253 Circle
2820 2255 Circle
2826 2257 Circle
2833 2259 Circle
2840 2261 Circle
2846 2262 Circle
2853 2264 Circle
2860 2265 Circle
2866 2267 Circle
2873 2268 Circle
2880 2269 Circle
2886 2270 Circle
2893 2271 Circle
2900 2272 Circle
2906 2273 Circle
2913 2273 Circle
2920 2274 Circle
2926 2274 Circle
2933 2275 Circle
2940 2275 Circle
2946 2276 Circle
2953 2276 Circle
2960 2276 Circle
2966 2276 Circle
2973 2277 Circle
2980 2277 Circle
2986 2277 Circle
2993 2277 Circle
3000 2277 Circle
3006 2277 Circle
3013 2277 Circle
3020 2277 Circle
3026 2276 Circle
3033 2276 Circle
3039 2276 Circle
3046 2276 Circle
3053 2276 Circle
3059 2275 Circle
3066 2275 Circle
3073 2275 Circle
3079 2274 Circle
3086 2274 Circle
3093 2273 Circle
3099 2273 Circle
3106 2273 Circle
3113 2272 Circle
3119 2272 Circle
3126 2271 Circle
3133 2271 Circle
3139 2270 Circle
3146 2270 Circle
3153 2269 Circle
3159 2269 Circle
3166 2268 Circle
3173 2267 Circle
3179 2267 Circle
3186 2266 Circle
3193 2266 Circle
3199 2265 Circle
3206 2264 Circle
3213 2264 Circle
3219 2263 Circle
3226 2263 Circle
3233 2262 Circle
3239 2261 Circle
3246 2261 Circle
3253 2260 Circle
3259 2259 Circle
3266 2259 Circle
3273 2258 Circle
3279 2257 Circle
3286 2257 Circle
3293 2256 Circle
3299 2255 Circle
3306 2255 Circle
3312 2254 Circle
3319 2253 Circle
3326 2252 Circle
3332 2252 Circle
3339 2251 Circle
3346 2250 Circle
3352 2250 Circle
3359 2249 Circle
3366 2248 Circle
3372 2248 Circle
3379 2247 Circle
3386 2246 Circle
3392 2246 Circle
3399 2245 Circle
3406 2244 Circle
3412 2243 Circle
3419 2243 Circle
3426 2242 Circle
3432 2241 Circle
3439 2241 Circle
3446 2240 Circle
3452 2239 Circle
3459 2239 Circle
3466 2238 Circle
3472 2237 Circle
3479 2237 Circle
3486 2236 Circle
3492 2235 Circle
3499 2235 Circle
3506 2234 Circle
3512 2233 Circle
3519 2232 Circle
3526 2232 Circle
3532 2231 Circle
3539 2230 Circle
3546 2230 Circle
3552 2229 Circle
3559 2228 Circle
3566 2228 Circle
3572 2227 Circle
3579 2227 Circle
3586 2226 Circle
3592 2225 Circle
3599 2225 Circle
3605 2224 Circle
3612 2223 Circle
3619 2223 Circle
3625 2222 Circle
3632 2221 Circle
3639 2221 Circle
3645 2220 Circle
3652 2219 Circle
3659 2219 Circle
3665 2218 Circle
3672 2218 Circle
3679 2217 Circle
3685 2216 Circle
3692 2216 Circle
3699 2215 Circle
3705 2215 Circle
3712 2214 Circle
3719 2213 Circle
3725 2213 Circle
3732 2212 Circle
3739 2212 Circle
3745 2211 Circle
3752 2210 Circle
3759 2210 Circle
3765 2209 Circle
3772 2209 Circle
3779 2208 Circle
3785 2208 Circle
3792 2207 Circle
3799 2206 Circle
3805 2206 Circle
3812 2205 Circle
3819 2205 Circle
3825 2204 Circle
3832 2204 Circle
3839 2203 Circle
3845 2203 Circle
3852 2202 Circle
3859 2201 Circle
3865 2201 Circle
3872 2200 Circle
3879 2200 Circle
3885 2199 Circle
3892 2199 Circle
3898 2198 Circle
3905 2198 Circle
3912 2197 Circle
3918 2197 Circle
3925 2196 Circle
3932 2196 Circle
3938 2195 Circle
3945 2195 Circle
3952 2194 Circle
3958 2194 Circle
3965 2193 Circle
3972 2193 Circle
3978 2192 Circle
3985 2192 Circle
3992 2191 Circle
3998 2191 Circle
4005 2190 Circle
4012 2190 Circle
4018 2189 Circle
4025 2189 Circle
4032 2188 Circle
4038 2188 Circle
4045 2187 Circle
4052 2187 Circle
4058 2187 Circle
4065 2186 Circle
4072 2186 Circle
4078 2185 Circle
4085 2185 Circle
4092 2184 Circle
4098 2184 Circle
4105 2183 Circle
4112 2183 Circle
4118 2182 Circle
4125 2182 Circle
4132 2182 Circle
4138 2181 Circle
4145 2181 Circle
4152 2180 Circle
4158 2180 Circle
4165 2179 Circle
4171 2179 Circle
4178 2179 Circle
4185 2178 Circle
4191 2178 Circle
4198 2177 Circle
4205 2177 Circle
4211 2177 Circle
4218 2176 Circle
4225 2176 Circle
4231 2175 Circle
4238 2175 Circle
4245 2175 Circle
4251 2174 Circle
4258 2174 Circle
4265 2173 Circle
4271 2173 Circle
4278 2173 Circle
4285 2172 Circle
4291 2172 Circle
4298 2171 Circle
4305 2171 Circle
4311 2171 Circle
4318 2170 Circle
4325 2170 Circle
4331 2170 Circle
4338 2169 Circle
4345 2169 Circle
4351 2169 Circle
4358 2168 Circle
4365 2168 Circle
4371 2167 Circle
4378 2167 Circle
4385 2167 Circle
4391 2166 Circle
4398 2166 Circle
4405 2166 Circle
4411 2165 Circle
4418 2165 Circle
4425 2165 Circle
4431 2164 Circle
4438 2164 Circle
4445 2164 Circle
4451 2163 Circle
4458 2163 Circle
4464 2163 Circle
4471 2162 Circle
4478 2162 Circle
4484 2162 Circle
4491 2161 Circle
4498 2161 Circle
4504 2161 Circle
4511 2160 Circle
4518 2160 Circle
4524 2160 Circle
4531 2159 Circle
4538 2159 Circle
4544 2159 Circle
4551 2158 Circle
4558 2158 Circle
4564 2158 Circle
4571 2158 Circle
4578 2157 Circle
4584 2157 Circle
4591 2157 Circle
4598 2156 Circle
4604 2156 Circle
4611 2156 Circle
4618 2155 Circle
4624 2155 Circle
4631 2155 Circle
4638 2155 Circle
4644 2154 Circle
4651 2154 Circle
4658 2154 Circle
4664 2153 Circle
4671 2153 Circle
4678 2153 Circle
4684 2153 Circle
4691 2152 Circle
4698 2152 Circle
4704 2152 Circle
4711 2152 Circle
4718 2151 Circle
4724 2151 Circle
4731 2151 Circle
4737 2150 Circle
4744 2150 Circle
4751 2150 Circle
4757 2150 Circle
4764 2149 Circle
4771 2149 Circle
4777 2149 Circle
4784 2149 Circle
4791 2148 Circle
4797 2148 Circle
4804 2148 Circle
4811 2148 Circle
4817 2147 Circle
4824 2147 Circle
4831 2147 Circle
4837 2147 Circle
4844 2146 Circle
4851 2146 Circle
4857 2146 Circle
4864 2146 Circle
4871 2145 Circle
4877 2145 Circle
4884 2145 Circle
4891 2145 Circle
4897 2144 Circle
4904 2144 Circle
4911 2144 Circle
4917 2144 Circle
4924 2143 Circle
4931 2143 Circle
4937 2143 Circle
4944 2143 Circle
4951 2143 Circle
4957 2142 Circle
4964 2142 Circle
4971 2142 Circle
4977 2142 Circle
4984 2141 Circle
4991 2141 Circle
4997 2141 Circle
5004 2141 Circle
5011 2140 Circle
5017 2140 Circle
5024 2140 Circle
5030 2140 Circle
5037 2140 Circle
5044 2139 Circle
5050 2139 Circle
5057 2139 Circle
5064 2139 Circle
5070 2139 Circle
5077 2138 Circle
5084 2138 Circle
5090 2138 Circle
5097 2138 Circle
5104 2137 Circle
5110 2137 Circle
5117 2137 Circle
5124 2137 Circle
5130 2137 Circle
5137 2137 Circle
5144 2136 Circle
5150 2136 Circle
5157 2136 Circle
5164 2136 Circle
5170 2136 Circle
5177 2135 Circle
5184 2135 Circle
5190 2135 Circle
5197 2135 Circle
5204 2135 Circle
5210 2134 Circle
5217 2134 Circle
5224 2134 Circle
5230 2134 Circle
5237 2134 Circle
5244 2133 Circle
5250 2133 Circle
5257 2133 Circle
5264 2133 Circle
5270 2133 Circle
5277 2133 Circle
5284 2132 Circle
5290 2132 Circle
5297 2132 Circle
5304 2132 Circle
5310 2132 Circle
5317 2131 Circle
5323 2131 Circle
5330 2131 Circle
5337 2131 Circle
5343 2131 Circle
5350 2131 Circle
5357 2130 Circle
5363 2130 Circle
5370 2130 Circle
5377 2130 Circle
5383 2130 Circle
5390 2130 Circle
5397 2129 Circle
5403 2129 Circle
5410 2129 Circle
5417 2129 Circle
5423 2129 Circle
5430 2129 Circle
5437 2128 Circle
5443 2128 Circle
5450 2128 Circle
5457 2128 Circle
5463 2128 Circle
5470 2128 Circle
5477 2127 Circle
5483 2127 Circle
5490 2127 Circle
5497 2127 Circle
5503 2127 Circle
5510 2127 Circle
5517 2126 Circle
5523 2126 Circle
5530 2126 Circle
5537 2126 Circle
5543 2126 Circle
5550 2126 Circle
5557 2126 Circle
5563 2125 Circle
5570 2125 Circle
5577 2125 Circle
5583 2125 Circle
5590 2125 Circle
5596 2125 Circle
5603 2124 Circle
5610 2124 Circle
5616 2124 Circle
5623 2124 Circle
5630 2124 Circle
5636 2124 Circle
5643 2124 Circle
5650 2123 Circle
5656 2123 Circle
5663 2123 Circle
5670 2123 Circle
5676 2123 Circle
5683 2123 Circle
5690 2123 Circle
5696 2122 Circle
5703 2122 Circle
5710 2122 Circle
5716 2122 Circle
5723 2122 Circle
5730 2122 Circle
5736 2122 Circle
5743 2122 Circle
5750 2121 Circle
5756 2121 Circle
5763 2121 Circle
5770 2121 Circle
5776 2121 Circle
5783 2121 Circle
5790 2121 Circle
5796 2120 Circle
5803 2120 Circle
5810 2120 Circle
5816 2120 Circle
5823 2120 Circle
5830 2120 Circle
5836 2120 Circle
5843 2120 Circle
5850 2119 Circle
5856 2119 Circle
5863 2119 Circle
5870 2119 Circle
5876 2119 Circle
5883 2119 Circle
5889 2119 Circle
5896 2119 Circle
5903 2118 Circle
5909 2118 Circle
5916 2118 Circle
5923 2118 Circle
5929 2118 Circle
5936 2118 Circle
5943 2118 Circle
5949 2118 Circle
5956 2117 Circle
5963 2117 Circle
5969 2117 Circle
5976 2117 Circle
5983 2117 Circle
5989 2117 Circle
5996 2117 Circle
6003 2117 Circle
6009 2116 Circle
6016 2116 Circle
6023 2116 Circle
6029 2116 Circle
6036 2116 Circle
6043 2116 Circle
6049 2116 Circle
6056 2116 Circle
6063 2116 Circle
6069 2116 Circle
6076 2115 Circle
6083 2115 Circle
6089 2115 Circle
6096 2115 Circle
6103 2115 Circle
6109 2115 Circle
6116 2115 Circle
6123 2115 Circle
6129 2115 Circle
6136 2114 Circle
6143 2114 Circle
6149 2114 Circle
6156 2114 Circle
6162 2114 Circle
6169 2114 Circle
6176 2114 Circle
6182 2114 Circle
6189 2114 Circle
6196 2113 Circle
6202 2113 Circle
6209 2113 Circle
6216 2113 Circle
6222 2113 Circle
6229 2113 Circle
6236 2113 Circle
6242 2113 Circle
6249 2113 Circle
6256 2113 Circle
6262 2112 Circle
6269 2112 Circle
6276 2112 Circle
6282 2112 Circle
6289 2112 Circle
6296 2112 Circle
6302 2112 Circle
6309 2112 Circle
6316 2112 Circle
6322 2112 Circle
6329 2112 Circle
6336 2111 Circle
6342 2111 Circle
6349 2111 Circle
6356 2111 Circle
6362 2111 Circle
6369 2111 Circle
6376 2111 Circle
6382 2111 Circle
6389 2111 Circle
6396 2111 Circle
6402 2110 Circle
6409 2110 Circle
6416 2110 Circle
6422 2110 Circle
6429 2110 Circle
6436 2110 Circle
6442 2110 Circle
6449 2110 Circle
6455 2110 Circle
6462 2110 Circle
6469 2110 Circle
6475 2109 Circle
6482 2109 Circle
6489 2109 Circle
6495 2109 Circle
6502 2109 Circle
6509 2109 Circle
6515 2109 Circle
6522 2109 Circle
6529 2109 Circle
6535 2109 Circle
6542 2109 Circle
6549 2109 Circle
6555 2108 Circle
6562 2108 Circle
6569 2108 Circle
6575 2108 Circle
6582 2108 Circle
6589 2108 Circle
6595 2108 Circle
6602 2108 Circle
6609 2108 Circle
6615 2108 Circle
6622 2108 Circle
6629 2108 Circle
6635 2107 Circle
6642 2107 Circle
6649 2107 Circle
6655 2107 Circle
6662 2107 Circle
6669 2107 Circle
6675 2107 Circle
6682 2107 Circle
6689 2107 Circle
6695 2107 Circle
6702 2107 Circle
6709 2107 Circle
6715 2106 Circle
6722 2106 Circle
6729 2106 Circle
6735 2106 Circle
6742 2106 Circle
6748 2106 Circle
6755 2106 Circle
6762 2106 Circle
6768 2106 Circle
6775 2106 Circle
6782 2106 Circle
6788 2106 Circle
6795 2106 Circle
6802 2106 Circle
6808 2105 Circle
6815 2105 Circle
6822 2105 Circle
6828 2105 Circle
6835 2105 Circle
6842 2105 Circle
6848 2105 Circle
6855 2105 Circle
6862 2105 Circle
6868 2105 Circle
6875 2105 Circle
% End plot #10
% Begin plot #11
2.000 UP
1.000 UL
LTb
0.00 0.55 0.55 C LCb setrgbcolor
6272 988 M
[ [(Helvetica) 150.0 0.0 true true 0 (Canal S=1 M=1 I=1)]
] -50.0 MRshow
2.000 UP
1.000 UL
LTb
0.00 0.55 0.55 C 6573 988 CircleF
% End plot #11
% Begin plot #12
0.250 UP
1.000 UL
LTb
0.00 0.55 0.55 C 889 3454 Circle
895 3454 Circle
902 3454 Circle
909 3454 Circle
915 3454 Circle
922 3454 Circle
929 3454 Circle
935 3454 Circle
942 3454 Circle
949 3455 Circle
955 3455 Circle
962 3455 Circle
969 3455 Circle
975 3456 Circle
982 3456 Circle
989 3456 Circle
995 3456 Circle
1002 3457 Circle
1009 3457 Circle
1015 3457 Circle
1022 3458 Circle
1028 3458 Circle
1035 3459 Circle
1042 3459 Circle
1048 3460 Circle
1055 3460 Circle
1062 3461 Circle
1068 3461 Circle
1075 3462 Circle
1082 3462 Circle
1088 3463 Circle
1095 3463 Circle
1102 3464 Circle
1108 3465 Circle
1115 3465 Circle
1122 3466 Circle
1128 3467 Circle
1135 3467 Circle
1142 3468 Circle
1148 3469 Circle
1155 3470 Circle
1162 3471 Circle
1168 3471 Circle
1175 3472 Circle
1182 3473 Circle
1188 3474 Circle
1195 3475 Circle
1202 3476 Circle
1208 3477 Circle
1215 3478 Circle
1222 3479 Circle
1228 3480 Circle
1235 3481 Circle
1242 3482 Circle
1248 3483 Circle
1255 3484 Circle
1262 3485 Circle
1268 3486 Circle
1275 3487 Circle
1282 3488 Circle
1288 3489 Circle
1295 3491 Circle
1302 3492 Circle
1308 3493 Circle
1315 3494 Circle
1321 3496 Circle
1328 3497 Circle
1335 3498 Circle
1341 3500 Circle
1348 3501 Circle
1355 3502 Circle
1361 3504 Circle
1368 3505 Circle
1375 3506 Circle
1381 3508 Circle
1388 3509 Circle
1395 3511 Circle
1401 3512 Circle
1408 3514 Circle
1415 3515 Circle
1421 3517 Circle
1428 3519 Circle
1435 3520 Circle
1441 3522 Circle
1448 3524 Circle
1455 3525 Circle
1461 3527 Circle
1468 3529 Circle
1475 3530 Circle
1481 3532 Circle
1488 3534 Circle
1495 3536 Circle
1501 3538 Circle
1508 3540 Circle
1515 3541 Circle
1521 3543 Circle
1528 3545 Circle
1535 3547 Circle
1541 3549 Circle
1548 3551 Circle
1555 3553 Circle
1561 3555 Circle
1568 3557 Circle
1575 3559 Circle
1581 3561 Circle
1588 3563 Circle
1595 3566 Circle
1601 3568 Circle
1608 3570 Circle
1614 3572 Circle
1621 3574 Circle
1628 3577 Circle
1634 3579 Circle
1641 3581 Circle
1648 3583 Circle
1654 3586 Circle
1661 3588 Circle
1668 3591 Circle
1674 3593 Circle
1681 3595 Circle
1688 3598 Circle
1694 3600 Circle
1701 3603 Circle
1708 3605 Circle
1714 3608 Circle
1721 3610 Circle
1728 3613 Circle
1734 3616 Circle
1741 3618 Circle
1748 3621 Circle
1754 3623 Circle
1761 3626 Circle
1768 3629 Circle
1774 3632 Circle
1781 3634 Circle
1788 3637 Circle
1794 3640 Circle
1801 3643 Circle
1808 3646 Circle
1814 3649 Circle
1821 3652 Circle
1828 3654 Circle
1834 3657 Circle
1841 3660 Circle
1848 3663 Circle
1854 3666 Circle
1861 3670 Circle
1868 3673 Circle
1874 3676 Circle
1881 3679 Circle
1887 3682 Circle
1894 3685 Circle
1901 3688 Circle
1907 3692 Circle
1914 3695 Circle
1921 3698 Circle
1927 3701 Circle
1934 3705 Circle
1941 3708 Circle
1947 3711 Circle
1954 3715 Circle
1961 3718 Circle
1967 3722 Circle
1974 3725 Circle
1981 3729 Circle
1987 3732 Circle
1994 3736 Circle
2001 3739 Circle
2007 3743 Circle
2014 3746 Circle
2021 3750 Circle
2027 3754 Circle
2034 3757 Circle
2041 3761 Circle
2047 3765 Circle
2054 3769 Circle
2061 3772 Circle
2067 3776 Circle
2074 3780 Circle
2081 3784 Circle
2087 3788 Circle
2094 3792 Circle
2101 3796 Circle
2107 3800 Circle
2114 3804 Circle
2121 3808 Circle
2127 3812 Circle
2134 3816 Circle
2141 3820 Circle
2147 3824 Circle
2154 3828 Circle
2161 3832 Circle
2167 3837 Circle
2174 3841 Circle
2180 3845 Circle
2187 3849 Circle
2194 3854 Circle
2200 3858 Circle
2207 3862 Circle
2214 3867 Circle
2220 3871 Circle
2227 3875 Circle
2234 3880 Circle
2240 3884 Circle
2247 3889 Circle
2254 3894 Circle
2260 3898 Circle
2267 3903 Circle
2274 3907 Circle
2280 3912 Circle
2287 3917 Circle
2294 3921 Circle
2300 3926 Circle
2307 3931 Circle
2314 3936 Circle
2320 3940 Circle
2327 3945 Circle
2334 3950 Circle
2340 3955 Circle
2347 3960 Circle
2354 3965 Circle
2360 3970 Circle
2367 3975 Circle
2374 3980 Circle
2380 3985 Circle
2387 3990 Circle
2394 3995 Circle
2400 4000 Circle
2407 4005 Circle
2414 4011 Circle
2420 4016 Circle
2427 4021 Circle
2434 4026 Circle
2440 4032 Circle
2447 4037 Circle
2453 4042 Circle
2460 4048 Circle
2467 4053 Circle
2473 4059 Circle
2480 4064 Circle
2487 4070 Circle
2493 4075 Circle
2500 4081 Circle
2507 4086 Circle
2513 4092 Circle
2520 4098 Circle
2527 4103 Circle
2533 4109 Circle
2540 4115 Circle
2547 4120 Circle
2553 4126 Circle
2560 4132 Circle
2567 4138 Circle
2573 4144 Circle
2580 4150 Circle
2587 4156 Circle
2593 4162 Circle
2600 4168 Circle
2607 4174 Circle
2613 4180 Circle
2620 4186 Circle
2627 4192 Circle
2633 4198 Circle
2640 4204 Circle
2647 4210 Circle
2653 4217 Circle
2660 4223 Circle
2667 4229 Circle
2673 4235 Circle
2680 4242 Circle
2687 4248 Circle
2693 4255 Circle
2700 4261 Circle
2707 4267 Circle
2713 4274 Circle
2720 4280 Circle
2727 4287 Circle
2733 4294 Circle
2740 4300 Circle
2746 4307 Circle
2753 4313 Circle
2760 4320 Circle
2766 4327 Circle
2773 4334 Circle
2780 4340 Circle
2786 4347 Circle
2793 4354 Circle
2800 4361 Circle
2806 4368 Circle
2813 4375 Circle
2820 4382 Circle
2826 4389 Circle
2833 4396 Circle
2840 4403 Circle
2846 4410 Circle
2853 4417 Circle
2860 4424 Circle
2866 4432 Circle
2873 4439 Circle
2880 4446 Circle
2886 4453 Circle
2893 4461 Circle
2900 4468 Circle
2906 4475 Circle
2913 4483 Circle
2920 4490 Circle
2926 4498 Circle
2933 4505 Circle
2940 4513 Circle
2946 4520 Circle
2953 4528 Circle
2960 4536 Circle
2966 4543 Circle
2973 4551 Circle
2980 4559 Circle
2986 4567 Circle
2993 4574 Circle
3000 4582 Circle
3006 4590 Circle
3013 4598 Circle
3020 4606 Circle
3026 4614 Circle
3033 4622 Circle
3039 4630 Circle
3046 4638 Circle
3053 4646 Circle
3059 4655 Circle
3066 4663 Circle
3073 4671 Circle
3079 4679 Circle
3086 4688 Circle
3093 4696 Circle
3099 4704 Circle
3106 4713 Circle
3113 4721 Circle
3119 4730 Circle
3126 4738 Circle
3133 4747 Circle
3139 4755 Circle
3146 4764 Circle
3153 4773 Circle
3159 4782 Circle
3166 4790 Circle
3173 4799 Circle
3179 4808 Circle
3186 4817 Circle
% End plot #12
% Begin plot #13
3.000 UL
LTb
LT2
0.34 0.71 0.91 C 882 2057 M
61 0 V
60 0 V
61 0 V
60 0 V
61 0 V
60 0 V
61 0 V
60 0 V
61 0 V
60 0 V
61 0 V
60 0 V
61 0 V
60 0 V
61 0 V
61 0 V
60 0 V
61 0 V
60 0 V
61 0 V
60 0 V
61 0 V
60 0 V
61 0 V
60 0 V
61 0 V
60 0 V
61 0 V
61 0 V
60 0 V
61 0 V
60 0 V
61 0 V
60 0 V
61 0 V
60 0 V
61 0 V
60 0 V
61 0 V
60 0 V
61 0 V
60 0 V
61 0 V
61 0 V
60 0 V
61 0 V
60 0 V
61 0 V
60 0 V
61 0 V
60 0 V
61 0 V
60 0 V
61 0 V
60 0 V
61 0 V
61 0 V
60 0 V
61 0 V
60 0 V
61 0 V
60 0 V
61 0 V
60 0 V
61 0 V
60 0 V
61 0 V
60 0 V
61 0 V
60 0 V
61 0 V
61 0 V
60 0 V
61 0 V
60 0 V
61 0 V
60 0 V
61 0 V
60 0 V
61 0 V
60 0 V
61 0 V
60 0 V
61 0 V
61 0 V
60 0 V
61 0 V
60 0 V
61 0 V
60 0 V
61 0 V
60 0 V
61 0 V
60 0 V
61 0 V
60 0 V
61 0 V
60 0 V
61 0 V
% End plot #13
% Begin plot #14
stroke
2.000 UL
LTb
LT1
0.00 0.45 0.70 C 882 2545 M
61 0 V
60 0 V
61 0 V
60 0 V
61 0 V
60 0 V
61 0 V
60 0 V
61 0 V
60 0 V
61 0 V
60 0 V
61 0 V
60 0 V
61 0 V
61 0 V
60 0 V
61 0 V
60 0 V
61 0 V
60 0 V
61 0 V
60 0 V
61 0 V
60 0 V
61 0 V
60 0 V
61 0 V
61 0 V
60 0 V
61 0 V
60 0 V
61 0 V
60 0 V
61 0 V
60 0 V
61 0 V
60 0 V
61 0 V
60 0 V
61 0 V
60 0 V
61 0 V
61 0 V
60 0 V
61 0 V
60 0 V
61 0 V
60 0 V
61 0 V
60 0 V
61 0 V
60 0 V
61 0 V
60 0 V
61 0 V
61 0 V
60 0 V
61 0 V
60 0 V
61 0 V
60 0 V
61 0 V
60 0 V
61 0 V
60 0 V
61 0 V
60 0 V
61 0 V
60 0 V
61 0 V
61 0 V
60 0 V
61 0 V
60 0 V
61 0 V
60 0 V
61 0 V
60 0 V
61 0 V
60 0 V
61 0 V
60 0 V
61 0 V
61 0 V
60 0 V
61 0 V
60 0 V
61 0 V
60 0 V
61 0 V
60 0 V
61 0 V
60 0 V
61 0 V
60 0 V
61 0 V
60 0 V
61 0 V
% End plot #14
stroke
LTb
LCb setrgbcolor
1.000 UP
LCb setrgbcolor
6209 4416 M
[ [(Helvetica) 180.0 0.0 true true 0 (SLY5)]
] -60.0 MCshow
1.000 UL
LTb
0.50 0.50 0.50 C stroke
grestore
end
showpage
%%Trailer
%%DocumentFonts: Symbol Helvetica
