\relax 
\citation{ben03}
\citation{sky59}
\citation{dec80}
\citation{ber77}
\citation{gor09,gor09b}
\citation{ber07,ter08}
\citation{bal97}
\citation{heb11,gez13}
\citation{bog05,rot08}
\citation{dut12}
\citation{bal12}
\citation{bal97}
\citation{dec80}
\citation{ber77}
\citation{nak03}
\citation{ots06}
\citation{les07,Ang11,fia02}
\citation{car08,rai11}
\citation{sky59,kor13}
\citation{car10}
\newlabel{FirstPage}{{}{1}{}{}{}}
\@writefile{toc}{\contentsline {section}{\numberline {I}Introduction}{1}{}}
\citation{nak03}
\citation{nak03}
\citation{hof98}
\citation{nak03}
\citation{vau72}
\citation{nak08}
\citation{dec80}
\@writefile{toc}{\contentsline {section}{\numberline {II}Effective NN interactions}{2}{}}
\@writefile{toc}{\contentsline {subsection}{\numberline {A}M3Y}{2}{}}
\newlabel{eq:m3y}{{1}{2}{}{}{}}
\newlabel{nak:cen}{{2}{2}{}{}{}}
\newlabel{nak:ten}{{3}{2}{}{}{}}
\citation{sky59}
\citation{cha15}
\citation{Ang11,Ang12,Gra13}
\citation{Gra13}
\citation{Gra13}
\citation{car08,rai11,dav14c}
\citation{ben03}
\@writefile{toc}{\contentsline {subsection}{\numberline {B}Gogny}{3}{}}
\newlabel{eq:gog}{{7}{3}{}{}{}}
\newlabel{gog:cen}{{8}{3}{}{}{}}
\newlabel{gog:so}{{9}{3}{}{}{}}
\newlabel{gog:ten}{{10}{3}{}{}{}}
\newlabel{gog:dd}{{11}{3}{}{}{}}
\@writefile{toc}{\contentsline {subsection}{\numberline {C}N3LO}{3}{}}
\newlabel{eq:N3LO:c}{{13}{3}{}{}{}}
\citation{dav14c,Dav15,Dav15AA}
\citation{bal97}
\citation{bal97}
\citation{dec80,cha08,gor09b}
\citation{nak03,nak08,Nak13}
\citation{bal97}
\citation{cha97}
\citation{sel14}
\newlabel{eq:N3LO:t}{{13}{4}{}{}{}}
\@writefile{toc}{\contentsline {section}{\numberline {III}Equation of state in spin-isospin channels}{4}{}}
\newlabel{eq:hf}{{16}{4}{}{}{}}
\@writefile{lof}{\contentsline {figure}{\numberline {1}{\ignorespaces (Colors online) Equations of state of SNM for the M3Y (panel a) and Gogny (panel b). The lines represent the result obtained with the two effective interactions discussed in this article while the empty squares represent the EoS obtained in \cite  {bal97}.}}{4}{}}
\newlabel{fig:EoS}{{1}{4}{}{}{}}
\citation{les06}
\citation{Dav15AA}
\@writefile{lof}{\contentsline {figure}{\numberline {2}{\ignorespaces (Colors online) Same as Fig.\nobreakspace  {}1{}{}{}\hbox {} but for PNM.}}{5}{}}
\newlabel{fig:PNM}{{2}{5}{}{}{}}
\citation{bal97}
\citation{bal97}
\citation{dav14k}
\citation{car08,rai11,dav14c}
\@writefile{lof}{\contentsline {figure}{\numberline {3}{\ignorespaces (Colors online) Same as in Fig.\nobreakspace  {}1{}{}{}\hbox {} but for the $(S,T)$ channels.}}{6}{}}
\newlabel{fig:STchannel}{{3}{6}{}{}{}}
\@writefile{lof}{\contentsline {figure}{\numberline {4}{\ignorespaces (Colors online) $(S,T)$ channels of the EoS obtained with the Gogny interaction when a third gaussian is added. The symbols are from \cite  {bal97}. See text for details.}}{6}{}}
\newlabel{fig:fitG}{{4}{6}{}{}{}}
\@writefile{toc}{\contentsline {section}{\numberline {IV}Partial wave decomposition}{6}{}}
\newlabel{eq:jls:truncated}{{18}{6}{}{}{}}
\citation{bal97}
\@writefile{toc}{\contentsline {subsection}{\numberline {A}Gogny interaction}{7}{}}
\newlabel{spin1:gog}{{19}{7}{}{}{}}
\citation{bal97}
\citation{bal97}
\citation{Dav15PRL}
\citation{Gra13}
\citation{Pas14L,prep}
\@writefile{lof}{\contentsline {figure}{\numberline {5}{\ignorespaces (Colors online) EoS in SNM for the D1S interaction (dots) and sum of different partial waves (left). Comparison between the EoS obtained using full HF calculations Eq.\nobreakspace  {}16{}{}{}\hbox {} (symbols) and the Eq.\nobreakspace  {}18{}{}{}\hbox {} truncated (dashed-lines) at $L=3$ (right). See text for details.}}{8}{}}
\newlabel{Eos:convergence}{{5}{8}{}{}{}}
\newlabel{deltas:gog}{{19}{8}{}{}{}}
\@writefile{toc}{\contentsline {subsection}{\numberline {B}M3Y interaction}{8}{}}
\@writefile{lof}{\contentsline {figure}{\numberline {6}{\ignorespaces (Colors online) Partial wave decomposition of EoS in SNM for the different Gogny interactions (lines) and the BHF calculations (symbols)\nobreakspace  {}\cite  {bal97}. See text for details.}}{9}{}}
\newlabel{JLST:gog}{{6}{9}{}{}{}}
\citation{bal97}
\citation{bal97}
\citation{bal97}
\citation{Pas14L}
\citation{sky59}
\citation{Dav15}
\@writefile{lof}{\contentsline {figure}{\numberline {7}{\ignorespaces (Colors online) Difference of partial waves for BHF results (dots) and Gogny interactions (lines). The legend is the same as in Fig.6{}{}{}\hbox {}. See text for details.}}{10}{}}
\newlabel{deltas:gog}{{7}{10}{}{}{}}
\@writefile{lof}{\contentsline {figure}{\numberline {8}{\ignorespaces (Colors online) Partial wave decomposition of EoS in SNM for the different M3Y interactions (solid lines) and the BHF calculations (symbols)\nobreakspace  {}\cite  {bal97}.}}{11}{}}
\newlabel{JLST}{{8}{11}{}{}{}}
\@writefile{toc}{\contentsline {section}{\numberline {V}From finite-range to zero-range}{11}{}}
\@writefile{lof}{\contentsline {figure}{\numberline {9}{\ignorespaces (Colors online) Difference of partial waves for BHF results (dots) and M3Y interactions (lines). The legend is the same as in Fig.8{}{}{}\hbox {}. See text for details.}}{12}{}}
\newlabel{deltas:M3Y}{{9}{12}{}{}{}}
\@writefile{toc}{\contentsline {subsection}{\numberline {A}M3Y}{12}{}}
\newlabel{central:kk}{{22}{12}{}{}{}}
\newlabel{eq:vcen|:exp}{{23}{12}{}{}{}}
\citation{bel59}
\citation{car08}
\newlabel{eq:vtenkk}{{25}{13}{}{}{}}
\newlabel{eq:soN}{{27}{13}{}{}{}}
\newlabel{central:kk:so}{{28}{13}{}{}{}}
\newlabel{eq:cont}{{28}{13}{}{}{}}
\citation{rai11b}
\citation{car08,rai11}
\newlabel{eq:Etilde}{{32}{14}{}{}{}}
\newlabel{eq:Ttilde}{{33}{14}{}{}{}}
\@writefile{toc}{\contentsline {subsection}{\numberline {B}Gogny interaction}{14}{}}
\newlabel{eq:cenG}{{34}{14}{}{}{}}
\newlabel{eq:reconstruction}{{37}{15}{}{}{}}
\@writefile{toc}{\contentsline {section}{\numberline {VI}Conclusion}{15}{}}
\@writefile{toc}{\contentsline {section}{\numberline {}Acknowledgments}{15}{}}
\@writefile{toc}{\appendix }
\@writefile{toc}{\contentsline {section}{\numberline {A}Symmetric nuclear matter and pure neutron matter EoS}{15}{}}
\newlabel{app:EOS}{{A}{15}{}{}{}}
\citation{abr64}
\@writefile{toc}{\contentsline {section}{\numberline {B}Contributions to the $(S,T)$ channels}{16}{}}
\newlabel{app:ST}{{B}{16}{}{}{}}
\@writefile{toc}{\contentsline {subsection}{\numberline {1}Gogny's interaction}{16}{}}
\citation{car08,rai11}
\@writefile{toc}{\contentsline {subsection}{\numberline {2}M3Y interaction}{17}{}}
\@writefile{toc}{\contentsline {subsection}{\numberline {3}N3LO}{17}{}}
\citation{Dav15}
\@writefile{toc}{\contentsline {section}{\numberline {C}Special functions: M3Y interaction}{18}{}}
\newlabel{app:aux}{{C}{18}{}{}{}}
\citation{abr64}
\citation{abr64}
\citation{nak08}
\@writefile{toc}{\contentsline {section}{\numberline {D}Special functions: Gogny interaction}{19}{}}
\newlabel{app:aux2}{{D}{19}{}{}{}}
\@writefile{toc}{\contentsline {section}{\numberline {E}Density Dependent term for M3Y interaction}{19}{}}
\newlabel{app:dd}{{E}{19}{}{}{}}
\bibdata{biblio}
\bibcite{ben03}{{1}{2003}{{Bender et~al.}}{{Bender, Heenen, and Reinhard}}}
\bibcite{sky59}{{2}{1959}{{Skyrme}}{{}}}
\bibcite{dec80}{{3}{1980}{{Decharg{\'e} and Gogny}}{{}}}
\bibcite{ber77}{{4}{1977}{{Bertsch et~al.}}{{Bertsch, Borysowicz, McManus, and Love}}}
\bibcite{gor09}{{5}{2009{}}{{Goriely et~al.}}{{Goriely, Chamel, and Pearson}}}
\bibcite{gor09b}{{6}{2009{}}{{Goriely et~al.}}{{Goriely, Hilaire, Girod, and P\'eru}}}
\bibcite{ber07}{{7}{2007}{{Bertsch et~al.}}{{Bertsch, Girod, Hilaire, Delaroche, Goutte, and P\'eru}}}
\bibcite{ter08}{{8}{2008}{{Terasaki et~al.}}{{Terasaki, Engel, and Bertsch}}}
\bibcite{dut12}{{9}{2012}{{Dutra et~al.}}{{Dutra, Louren\c {c}{}o, S\'a~Martins, Delfino, Stone, and Stevenson}}}
\bibcite{bal97}{{10}{1997}{{Baldo et~al.}}{{Baldo, Bombaci, and Burgio}}}
\bibcite{heb11}{{11}{2011}{{Hebeler et~al.}}{{Hebeler, Bogner, Furnstahl, Nogga, and Schwenk}}}
\bibcite{gez13}{{12}{2013}{{Gezerlis et~al.}}{{Gezerlis, Tews, Epelbaum, Gandolfi, Hebeler, Nogga, and Schwenk}}}
\bibcite{bog05}{{13}{2005}{{Bogner et~al.}}{{Bogner, Schwenk, Furnstahl, and Nogga}}}
\bibcite{rot08}{{14}{2008}{{Rotival}}{{}}}
\bibcite{bal12}{{15}{2012}{{Baldo et~al.}}{{Baldo, Polls, Rios, Schulze, and Vida\~na}}}
\bibcite{nak03}{{16}{2003}{{Nakada}}{{}}}
\bibcite{ots06}{{17}{2006}{{Otsuka et~al.}}{{Otsuka, Matsuo, and Abe}}}
\bibcite{les07}{{18}{2007}{{Lesinski et~al.}}{{Lesinski, Bender, Bennaceur, Duguet, and Meyer}}}
\bibcite{Ang11}{{19}{2011}{{Anguiano et~al.}}{{Anguiano, Co', De~Donno, and Lallena}}}
\bibcite{fia02}{{20}{2002}{{Fiase et~al.}}{{Fiase, Devan, and Hosaka}}}
\bibcite{car08}{{21}{2008}{{Carlsson et~al.}}{{Carlsson, Dobaczewski, and Kortelainen}}}
\bibcite{rai11}{{22}{2011{}}{{Raimondi et~al.}}{{Raimondi, Carlsson, and Dobaczewski}}}
\bibcite{kor13}{{23}{2014}{{Kortelainen et~al.}}{{Kortelainen, McDonnell, Nazarewicz, Olsen, Reinhard, Sarich, Schunck, Wild, Davesne, Erler et~al.}}}
\bibcite{car10}{{24}{2010}{{Carlsson and Dobaczewski}}{{}}}
\bibcite{dav13}{{25}{2013}{{Davesne et~al.}}{{Davesne, Pastore, and Navarro}}}
\bibcite{hof98}{{26}{1998}{{Hofmann and Lenske}}{{}}}
\bibcite{vau72}{{27}{1972}{{Vautherin and Brink}}{{}}}
\bibcite{nak08}{{28}{2008}{{Nakada}}{{}}}
\bibcite{cha15}{{29}{2015}{{Chappert et~al.}}{{Chappert, Pillet, Girod, and Berger}}}
\bibcite{Ang12}{{30}{2012}{{Anguiano et~al.}}{{Anguiano, Grasso, Co', De~Donno, and Lallena}}}
\bibcite{Gra13}{{31}{2013}{{Grasso and Anguiano}}{{}}}
\bibcite{dav14c}{{32}{2014}{{Davesne et~al.}}{{Davesne, Pastore, and Navarro}}}
\bibcite{Dav15}{{33}{2015{}}{{Davesne et~al.}}{{Davesne, Navarro, Becker, Jodon, Meyer, and Pastore}}}
\bibcite{Dav15AA}{{34}{2015{}}{{Davesne et~al.}}{{Davesne, Pastore, and Navarro}}}
\bibcite{cha08}{{35}{2008}{{Chappert et~al.}}{{Chappert, Girod, and Hilaire}}}
\bibcite{Nak13}{{36}{2013}{{Nakada}}{{}}}
\@writefile{toc}{\contentsline {section}{\numberline {}References}{20}{}}
\bibcite{cha97}{{37}{1997}{{Chabanat et~al.}}{{Chabanat, Bonche, Haensel, Meyer, and Schaeffer}}}
\bibcite{sel14}{{38}{2014}{{Sellahewa and Rios}}{{}}}
\bibcite{les06}{{39}{2006}{{Lesinski et~al.}}{{Lesinski, Bennaceur, Duguet, and Meyer}}}
\bibcite{dav14k}{{40}{2015{}}{{Davesne et~al.}}{{Davesne, Meyer, Pastore, and Navarro}}}
\bibcite{Dav15PRL}{{41}{2015{}}{{Davesne et~al.}}{{Davesne, Becker, Pastore, and Navarro}}}
\bibcite{Pas14L}{{42}{2014{}}{{Pastore et~al.}}{{Pastore, Davesne, and Navarro}}}
\bibcite{prep}{{43}{2014{}}{{Pastore et~al.}}{{Pastore, Davesne, and Navarro}}}
\bibcite{bel59}{{44}{1956}{{Bell and Skyrme}}{{}}}
\bibcite{rai11b}{{45}{2011{}}{{Raimondi et~al.}}{{Raimondi, Carlsson, Dobaczewski, and Toivanen}}}
\bibcite{abr64}{{46}{1964}{{Abramowitz and Stegun}}{{}}}
\global \chardef \firstnote@num46\relax 
\bibstyle{apsrev}
\newlabel{LastBibItem}{{46}{21}{}{}{}}
\newlabel{LastPage}{{}{21}}
