This is BibTeX, Version 0.99d (TeX Live 2015)
Capacity: max_strings=35307, hash_size=35307, hash_prime=30011
The top-level auxiliary file: paper.aux
The style file: apsrev.bst
Reallocated singl_function (elt_size=4) to 100 items from 50.
Database file #1: biblio.bib
Reallocated wiz_functions (elt_size=4) to 6000 items from 3000.
Reallocated singl_function (elt_size=4) to 100 items from 50.
You've used 46 entries,
            3411 wiz_defined-function locations,
            1427 strings with 16956 characters,
and the built_in function-call counts, 35062 in all, are:
= -- 1930
> -- 1315
< -- 173
+ -- 1104
- -- 320
* -- 4881
:= -- 3687
add.period$ -- 46
call.type$ -- 46
change.case$ -- 184
chr.to.int$ -- 40
cite$ -- 46
duplicate$ -- 3102
empty$ -- 2879
format.name$ -- 784
if$ -- 6613
int.to.chr$ -- 7
int.to.str$ -- 47
missing$ -- 474
newline$ -- 153
num.names$ -- 138
pop$ -- 817
preamble$ -- 1
purify$ -- 184
quote$ -- 0
skip$ -- 1330
stack$ -- 0
substring$ -- 1188
swap$ -- 2532
text.length$ -- 160
text.prefix$ -- 0
top$ -- 0
type$ -- 274
warning$ -- 0
while$ -- 133
width$ -- 0
write$ -- 474
