\relax 
\catcode `:\active 
\catcode `;\active 
\catcode `!\active 
\catcode `?\active 
\select@language{french}
\@writefile{toc}{\select@language{french}}
\@writefile{lof}{\select@language{french}}
\@writefile{lot}{\select@language{french}}
\@writefile{toc}{\contentsline {section}{\numberline {1}Two-body interaction}{1}}
\@writefile{toc}{\contentsline {section}{\numberline {2}Comparaison Skyrme-Gogny}{1}}
\newlabel{V-zero}{{2}{1}}
\newlabel{V-four}{{2}{1}}
\@writefile{toc}{\contentsline {section}{\numberline {3}Valeur moyenne sur les \'etats de spin et isospin}{2}}
\@writefile{toc}{\contentsline {section}{\numberline {4}Valeur moyenne sur les \'etats de moment angulaire $L$}{2}}
\@writefile{toc}{\contentsline {section}{\numberline {5}Somme sur les moments}{3}}
