\relax 
\@writefile{toc}{\contentsline {section}{\numberline {1}Central two-body interaction}{1}}
\@writefile{toc}{\contentsline {subsection}{\numberline {1.1}SNM expectation value}{1}}
\@writefile{toc}{\contentsline {subsection}{\numberline {1.2}Energy per particle}{2}}
\@writefile{toc}{\contentsline {subsection}{\numberline {1.3}Other quantities}{2}}
\@writefile{toc}{\contentsline {subsection}{\numberline {1.4}ST channels}{3}}
\@writefile{toc}{\contentsline {subsection}{\numberline {1.5}LST channels}{4}}
\@writefile{toc}{\contentsline {section}{\numberline {2}Gaussian functions}{5}}
\@writefile{toc}{\contentsline {subsection}{\numberline {2.1}Energy per particle}{5}}
\@writefile{toc}{\contentsline {subsection}{\numberline {2.2}Pressure and saturation density}{5}}
\@writefile{toc}{\contentsline {subsection}{\numberline {2.3}Isothermal compressibility}{6}}
\@writefile{toc}{\contentsline {subsection}{\numberline {2.4}Effective mass}{6}}
\@writefile{toc}{\contentsline {subsection}{\numberline {2.5}ST channels}{6}}
\@writefile{toc}{\contentsline {subsection}{\numberline {2.6}LST channels}{7}}
\@writefile{toc}{\contentsline {subsection}{\numberline {2.7}Fitting (S,T) channels}{8}}
\@writefile{toc}{\contentsline {subsection}{\numberline {2.8}N3LO approach}{9}}
\@writefile{toc}{\contentsline {section}{\numberline {3}Yukawa functions}{10}}
\@writefile{toc}{\contentsline {subsection}{\numberline {3.1}Energy per particle}{10}}
\@writefile{toc}{\contentsline {subsection}{\numberline {3.2}Pressure and saturation density}{10}}
\@writefile{toc}{\contentsline {subsection}{\numberline {3.3}Isothermal compressibility}{11}}
\@writefile{toc}{\contentsline {subsection}{\numberline {3.4}Effective mass}{11}}
\@writefile{toc}{\contentsline {subsection}{\numberline {3.5}ST channels}{12}}
\@writefile{toc}{\contentsline {subsection}{\numberline {3.6}LST channels}{13}}
\@writefile{toc}{\contentsline {subsection}{\numberline {3.7}N3LO approach}{15}}
