%!PS-Adobe-3.0
%%BoundingBox: 0 0 612 792
%%LanguageLevel: 2
%%Creator: Grace-5.1.21
%%CreationDate: Fri Jul  3 14:48:19 2015
%%DocumentData: Clean8Bit
%%Orientation: Landscape
%%Pages: 1
%%PageOrder: Ascend
%%Title: EsurA.agr
%%For: pastorea
%%DocumentNeededResources: (atend)
%%EndComments
%%BeginProlog
/PAGE_OFFSET_X 0 def
/PAGE_OFFSET_Y 0 def
/m {moveto} def
/l {lineto} def
/s {stroke} def
/n {newpath} def
/c {closepath} def
/RL {rlineto} def
/SLW {setlinewidth} def
/GS {gsave} def
/GR {grestore} def
/SC {setcolor} def
/SGRY {setgray} def
/SRGB {setrgbcolor} def
/SD {setdash} def
/SLC {setlinecap} def
/SLJ {setlinejoin} def
/SCS {setcolorspace} def
/FFSF {findfont setfont} def
/CC {concat} def
/PXL {n m 0 0 RL s} def
/Color0 {1.0000 1.0000 1.0000} def
/Color1 {0.0000 0.0000 0.0000} def
/Color2 {1.0000 0.0000 0.0000} def
/Color3 {0.0000 1.0000 0.0000} def
/Color4 {0.0000 0.0000 1.0000} def
/Color5 {1.0000 1.0000 0.0000} def
/Color6 {0.7373 0.5608 0.5608} def
/Color7 {0.8627 0.8627 0.8627} def
/Color8 {0.5804 0.0000 0.8275} def
/Color9 {0.0000 1.0000 1.0000} def
/Color10 {1.0000 0.0000 1.0000} def
/Color11 {1.0000 0.6471 0.0000} def
/Color12 {0.4471 0.1294 0.7373} def
/Color13 {0.4039 0.0275 0.2824} def
/Color14 {0.2510 0.8784 0.8157} def
/Color15 {0.0000 0.5451 0.0000} def
/Color16 {0.7529 0.7529 0.7529} def
/Color17 {0.5059 0.5059 0.5059} def
/Color18 {0.2588 0.2588 0.2588} def
/PTRN {
 /pat_bits exch def 
 <<
  /PaintType 2
  /PatternType 1 /TilingType 1
  /BBox[0 0 16 16]
  /XStep 16 /YStep 16
  /PaintProc {
   pop
   16 16 true [-1 0 0 -1 16 16] pat_bits imagemask
  }
 >>
 [0.0016 0 0 0.0016 0 0]
 makepattern
} def
/Pattern0 {<0000000000000000000000000000000000000000000000000000000000000000> PTRN} bind def
/Pattern1 {<ffffffffffffffffffffffffffffffffffffffffffffffffffffffffffffffff> PTRN} bind def
/Pattern2 {<eeeeffffbbbbffffeeeeffffbbbbffffeeeeffffbbbbffffeeeeffffbbbbffff> PTRN} bind def
/Pattern3 {<eeeebbbbeeeebbbbeeeebbbbeeeebbbbeeeebbbbeeeebbbbeeeebbbbeeeebbbb> PTRN} bind def
/Pattern4 {<5555aaaa5555aaaa5555aaaa5555aaaa5555aaaa5555aaaa5555aaaa5555aaaa> PTRN} bind def
/Pattern5 {<1111444411114444111144441111444411114444111144441111444411114444> PTRN} bind def
/Pattern6 {<1111000044440000111100004444000011110000444400001111000044440000> PTRN} bind def
/Pattern7 {<1010000000000000010100000000000010100000000000000101000000000000> PTRN} bind def
/Pattern8 {<0000000000000000000000000000000000000000000000000000000000000000> PTRN} bind def
/Pattern9 {<1e1e0f0f8787c3c3e1e1f0f078783c3c1e1e0f0f8787c3c3e1e1f0f078783c3c> PTRN} bind def
/Pattern10 {<7878f0f0e1e1c3c387870f0f1e1e3c3c7878f0f0e1e1c3c387870f0f1e1e3c3c> PTRN} bind def
/Pattern11 {<3333333333333333333333333333333333333333333333333333333333333333> PTRN} bind def
/Pattern12 {<ffffffff00000000ffffffff00000000ffffffff00000000ffffffff00000000> PTRN} bind def
/Pattern13 {<8181424224241818181824244242818181814242242418181818242442428181> PTRN} bind def
/Pattern14 {<8080404020201010080804040202010180804040202010100808040402020101> PTRN} bind def
/Pattern15 {<0101020204040808101020204040808001010202040408081010202040408080> PTRN} bind def
/Pattern16 {<2222222222222222222222222222222222222222222222222222222222222222> PTRN} bind def
/Pattern17 {<0000ffff000000000000ffff000000000000ffff000000000000ffff00000000> PTRN} bind def
/Pattern18 {<2222ffff222222222222ffff222222222222ffff222222222222ffff22222222> PTRN} bind def
/Pattern19 {<ffffffff33333333ffffffff33333333ffffffff33333333ffffffff33333333> PTRN} bind def
/Pattern20 {<0f0f0f0f0f0f0f0ff0f0f0f0f0f0f0f00f0f0f0f0f0f0f0ff0f0f0f0f0f0f0f0> PTRN} bind def
/Pattern21 {<ff00ff00ff00ff00ff00ff00ff00ff0000ff00ff00ff00ff00ff00ff00ff00ff> PTRN} bind def
/Pattern22 {<8001800180018001800180018001ffffffff8001800180018001800180018001> PTRN} bind def
/Pattern23 {<c003c003c003c003c003c003ffffffffffffffffc003c003c003c003c003c003> PTRN} bind def
/Pattern24 {<040404040404ffff404040404040ffff040404040404ffff404040404040ffff> PTRN} bind def
/Pattern25 {<180018001800180018001800ffffffff001800180018001800180018ffffffff> PTRN} bind def
/Pattern26 {<1111b8b87c7c3a3a1111a3a3c7c78b8b1111b8b87c7c3a3a1111a3a3c7c78b8b> PTRN} bind def
/Pattern27 {<101010102828c7c70101010182827c7c101010102828c7c70101010182827c7c> PTRN} bind def
/Pattern28 {<1c1c121211112121c1c12121111112121c1c121211112121c1c1212111111212> PTRN} bind def
/Pattern29 {<3e3e414180808080e3e31414080808083e3e414180808080e3e3141408080808> PTRN} bind def
/Pattern30 {<4848888884848383848488884848383848488888848483838484888848483838> PTRN} bind def
/Pattern31 {<03030404080808080c0c12122121c0c003030404080808080c0c12122121c0c0> PTRN} bind def
/ellipsedict 8 dict def
ellipsedict /mtrx matrix put
/EARC {
 ellipsedict begin
  /endangle exch def
  /startangle exch def
  /yrad exch def
  /xrad exch def
  /y exch def
  /x exch def
  /savematrix mtrx currentmatrix def
  x y translate
  xrad yrad scale
  0 0 1 startangle endangle arc
  savematrix setmatrix
 end
} def
/TL {
  /kcomp exch def
  /linewidth exch def
  /offset exch def
  GS
  0 offset rmoveto
  linewidth SLW
  dup stringwidth exch kcomp add exch RL s
  GR
} def
/KINIT
{
 /kvector exch def
 /kid 0 def
} def
/KPROC
{
 pop pop
 kvector kid get
 0 rmoveto
 /kid 1 kid add def
} def
/DefEncoding [
 /.notdef
 /.notdef
 /.notdef
 /.notdef
 /.notdef
 /.notdef
 /.notdef
 /.notdef
 /.notdef
 /.notdef
 /.notdef
 /.notdef
 /.notdef
 /.notdef
 /.notdef
 /.notdef
 /.notdef
 /.notdef
 /.notdef
 /.notdef
 /.notdef
 /.notdef
 /.notdef
 /.notdef
 /.notdef
 /.notdef
 /.notdef
 /.notdef
 /.notdef
 /.notdef
 /.notdef
 /.notdef
 /space
 /exclam
 /quotedbl
 /numbersign
 /dollar
 /percent
 /ampersand
 /quoteright
 /parenleft
 /parenright
 /asterisk
 /plus
 /comma
 /hyphen
 /period
 /slash
 /zero
 /one
 /two
 /three
 /four
 /five
 /six
 /seven
 /eight
 /nine
 /colon
 /semicolon
 /less
 /equal
 /greater
 /question
 /at
 /A
 /B
 /C
 /D
 /E
 /F
 /G
 /H
 /I
 /J
 /K
 /L
 /M
 /N
 /O
 /P
 /Q
 /R
 /S
 /T
 /U
 /V
 /W
 /X
 /Y
 /Z
 /bracketleft
 /backslash
 /bracketright
 /asciicircum
 /underscore
 /grave
 /a
 /b
 /c
 /d
 /e
 /f
 /g
 /h
 /i
 /j
 /k
 /l
 /m
 /n
 /o
 /p
 /q
 /r
 /s
 /t
 /u
 /v
 /w
 /x
 /y
 /z
 /braceleft
 /bar
 /braceright
 /asciitilde
 /.notdef
 /.notdef
 /.notdef
 /.notdef
 /.notdef
 /.notdef
 /.notdef
 /.notdef
 /.notdef
 /.notdef
 /.notdef
 /.notdef
 /.notdef
 /.notdef
 /.notdef
 /.notdef
 /.notdef
 /.notdef
 /.notdef
 /.notdef
 /.notdef
 /.notdef
 /.notdef
 /.notdef
 /.notdef
 /.notdef
 /.notdef
 /.notdef
 /.notdef
 /.notdef
 /.notdef
 /.notdef
 /.notdef
 /space
 /exclamdown
 /cent
 /sterling
 /currency
 /yen
 /brokenbar
 /section
 /dieresis
 /copyright
 /ordfeminine
 /guillemotleft
 /logicalnot
 /hyphen
 /registered
 /macron
 /degree
 /plusminus
 /twosuperior
 /threesuperior
 /acute
 /mu
 /paragraph
 /periodcentered
 /cedilla
 /onesuperior
 /ordmasculine
 /guillemotright
 /onequarter
 /onehalf
 /threequarters
 /questiondown
 /Agrave
 /Aacute
 /Acircumflex
 /Atilde
 /Adieresis
 /Aring
 /AE
 /Ccedilla
 /Egrave
 /Eacute
 /Ecircumflex
 /Edieresis
 /Igrave
 /Iacute
 /Icircumflex
 /Idieresis
 /Eth
 /Ntilde
 /Ograve
 /Oacute
 /Ocircumflex
 /Otilde
 /Odieresis
 /multiply
 /Oslash
 /Ugrave
 /Uacute
 /Ucircumflex
 /Udieresis
 /Yacute
 /Thorn
 /germandbls
 /agrave
 /aacute
 /acircumflex
 /atilde
 /adieresis
 /aring
 /ae
 /ccedilla
 /egrave
 /eacute
 /ecircumflex
 /edieresis
 /igrave
 /iacute
 /icircumflex
 /idieresis
 /eth
 /ntilde
 /ograve
 /oacute
 /ocircumflex
 /otilde
 /odieresis
 /divide
 /oslash
 /ugrave
 /uacute
 /ucircumflex
 /udieresis
 /yacute
 /thorn
 /ydieresis
] def
%%EndProlog
%%BeginSetup
%%EndSetup
%%Page: 1 1
PAGE_OFFSET_X PAGE_OFFSET_Y translate
612.00 612.00 scale
90 rotate
0.0 -1.0 translate
[/DeviceRGB] SCS
Color1 SC
[] 0 SD
0.0037 SLW
0 SLC
0 SLJ
n
0.1510 0.1939 m
0.1520 0.1936 l
0.1530 0.1931 l
0.1540 0.1927 l
0.1550 0.1922 l
0.1560 0.1917 l
0.1570 0.1912 l
0.1580 0.1907 l
0.1590 0.1902 l
0.1600 0.1897 l
0.1610 0.1892 l
0.1620 0.1887 l
0.1630 0.1882 l
0.1640 0.1877 l
0.1650 0.1873 l
0.1660 0.1868 l
0.1670 0.1863 l
0.1680 0.1858 l
0.1690 0.1854 l
0.1700 0.1849 l
0.1710 0.1845 l
0.1720 0.1840 l
0.1730 0.1836 l
0.1740 0.1832 l
0.1750 0.1827 l
0.1760 0.1823 l
0.1770 0.1819 l
0.1780 0.1815 l
0.1790 0.1810 l
0.1800 0.1806 l
0.1810 0.1802 l
0.1820 0.1798 l
0.1830 0.1794 l
0.1840 0.1790 l
0.1850 0.1787 l
0.1860 0.1783 l
0.1870 0.1779 l
0.1880 0.1775 l
0.1890 0.1772 l
0.1900 0.1768 l
0.1910 0.1764 l
0.1920 0.1761 l
0.1930 0.1757 l
0.1940 0.1754 l
0.1950 0.1751 l
0.1960 0.1747 l
0.1970 0.1744 l
0.1980 0.1741 l
0.1990 0.1737 l
0.2000 0.1734 l
0.2010 0.1731 l
0.2020 0.1728 l
0.2030 0.1725 l
0.2040 0.1722 l
0.2050 0.1719 l
0.2060 0.1716 l
0.2070 0.1713 l
0.2080 0.1710 l
0.2090 0.1707 l
0.2100 0.1704 l
0.2110 0.1701 l
0.2120 0.1698 l
0.2130 0.1696 l
0.2140 0.1693 l
0.2150 0.1690 l
0.2160 0.1688 l
0.2170 0.1685 l
0.2180 0.1682 l
0.2190 0.1680 l
0.2200 0.1677 l
0.2210 0.1675 l
0.2220 0.1673 l
0.2230 0.1670 l
0.2240 0.1668 l
0.2250 0.1665 l
0.2260 0.1663 l
0.2270 0.1661 l
0.2280 0.1659 l
0.2290 0.1656 l
0.2300 0.1654 l
0.2310 0.1652 l
0.2320 0.1650 l
0.2330 0.1648 l
0.2340 0.1646 l
0.2350 0.1644 l
0.2360 0.1642 l
0.2370 0.1640 l
0.2380 0.1638 l
0.2390 0.1636 l
0.2400 0.1634 l
0.2410 0.1632 l
0.2420 0.1630 l
0.2430 0.1629 l
0.2440 0.1627 l
0.2450 0.1625 l
0.2460 0.1623 l
0.2470 0.1622 l
0.2480 0.1620 l
0.2490 0.1618 l
0.2500 0.1617 l
0.2510 0.1615 l
0.2520 0.1614 l
0.2530 0.1612 l
0.2540 0.1611 l
0.2550 0.1609 l
0.2560 0.1608 l
0.2570 0.1606 l
0.2580 0.1605 l
0.2590 0.1604 l
0.2600 0.1602 l
0.2610 0.1601 l
0.2620 0.1600 l
0.2630 0.1598 l
0.2640 0.1597 l
0.2650 0.1596 l
0.2660 0.1595 l
0.2670 0.1594 l
0.2680 0.1593 l
0.2690 0.1591 l
0.2700 0.1590 l
0.2710 0.1589 l
0.2720 0.1588 l
0.2730 0.1587 l
0.2740 0.1586 l
0.2750 0.1585 l
0.2760 0.1584 l
0.2770 0.1584 l
0.2780 0.1583 l
0.2790 0.1582 l
0.2800 0.1581 l
0.2810 0.1580 l
0.2820 0.1579 l
0.2830 0.1579 l
0.2840 0.1578 l
0.2850 0.1577 l
0.2860 0.1576 l
0.2870 0.1576 l
0.2880 0.1575 l
0.2890 0.1574 l
0.2900 0.1574 l
0.2910 0.1573 l
0.2920 0.1573 l
0.2930 0.1572 l
0.2940 0.1572 l
0.2950 0.1571 l
0.2960 0.1571 l
0.2970 0.1570 l
0.2980 0.1570 l
0.2990 0.1569 l
0.3000 0.1569 l
0.3010 0.1568 l
0.3020 0.1568 l
0.3030 0.1568 l
0.3040 0.1567 l
0.3050 0.1567 l
0.3060 0.1567 l
0.3070 0.1567 l
0.3080 0.1566 l
0.3090 0.1566 l
0.3100 0.1566 l
0.3110 0.1566 l
0.3120 0.1566 l
0.3130 0.1566 l
0.3140 0.1565 l
0.3150 0.1565 l
0.3160 0.1565 l
0.3170 0.1565 l
0.3180 0.1565 l
0.3190 0.1565 l
0.3200 0.1565 l
0.3210 0.1565 l
0.3220 0.1565 l
0.3230 0.1565 l
0.3240 0.1566 l
0.3250 0.1566 l
0.3260 0.1566 l
0.3270 0.1566 l
0.3280 0.1566 l
0.3290 0.1566 l
0.3300 0.1566 l
0.3310 0.1567 l
0.3320 0.1567 l
0.3330 0.1567 l
0.3340 0.1567 l
0.3350 0.1568 l
0.3360 0.1568 l
0.3370 0.1568 l
0.3380 0.1569 l
0.3390 0.1569 l
0.3400 0.1570 l
0.3410 0.1570 l
0.3420 0.1570 l
0.3430 0.1571 l
0.3440 0.1571 l
0.3450 0.1572 l
0.3460 0.1572 l
0.3470 0.1573 l
0.3480 0.1573 l
0.3490 0.1574 l
0.3500 0.1574 l
0.3510 0.1575 l
0.3520 0.1576 l
0.3530 0.1576 l
0.3540 0.1577 l
0.3550 0.1578 l
0.3560 0.1578 l
0.3570 0.1579 l
0.3580 0.1580 l
0.3590 0.1580 l
0.3600 0.1581 l
0.3610 0.1582 l
0.3620 0.1583 l
0.3630 0.1583 l
0.3640 0.1584 l
0.3650 0.1585 l
0.3660 0.1586 l
0.3670 0.1587 l
0.3680 0.1588 l
0.3690 0.1589 l
0.3700 0.1589 l
0.3710 0.1590 l
0.3720 0.1591 l
0.3730 0.1592 l
0.3740 0.1593 l
0.3750 0.1594 l
0.3760 0.1595 l
0.3770 0.1596 l
0.3780 0.1597 l
0.3790 0.1598 l
0.3800 0.1599 l
0.3810 0.1600 l
0.3820 0.1602 l
0.3830 0.1603 l
0.3840 0.1604 l
0.3850 0.1605 l
0.3860 0.1606 l
0.3870 0.1607 l
0.3880 0.1609 l
0.3890 0.1610 l
0.3900 0.1611 l
0.3910 0.1612 l
0.3920 0.1613 l
0.3930 0.1615 l
0.3940 0.1616 l
0.3950 0.1617 l
0.3960 0.1619 l
0.3970 0.1620 l
0.3980 0.1621 l
0.3990 0.1623 l
0.4000 0.1624 l
0.4010 0.1625 l
0.4020 0.1627 l
0.4030 0.1628 l
0.4040 0.1630 l
0.4050 0.1631 l
0.4060 0.1633 l
0.4070 0.1634 l
0.4080 0.1636 l
0.4090 0.1637 l
0.4100 0.1639 l
0.4110 0.1640 l
0.4120 0.1642 l
0.4130 0.1643 l
0.4140 0.1645 l
0.4150 0.1646 l
0.4160 0.1648 l
0.4170 0.1650 l
0.4180 0.1651 l
0.4190 0.1653 l
0.4200 0.1655 l
0.4210 0.1656 l
0.4220 0.1658 l
0.4230 0.1660 l
0.4240 0.1661 l
0.4250 0.1663 l
0.4260 0.1665 l
0.4270 0.1667 l
0.4280 0.1668 l
0.4290 0.1670 l
0.4300 0.1672 l
0.4310 0.1674 l
0.4320 0.1676 l
0.4330 0.1678 l
0.4340 0.1679 l
0.4350 0.1681 l
0.4360 0.1683 l
0.4370 0.1685 l
0.4380 0.1687 l
0.4390 0.1689 l
0.4400 0.1691 l
0.4410 0.1693 l
0.4420 0.1695 l
0.4430 0.1697 l
0.4440 0.1699 l
0.4450 0.1701 l
0.4460 0.1703 l
0.4470 0.1705 l
0.4480 0.1707 l
0.4490 0.1709 l
0.4500 0.1711 l
0.4510 0.1713 l
0.4520 0.1715 l
0.4530 0.1717 l
0.4540 0.1719 l
0.4550 0.1721 l
0.4560 0.1724 l
0.4570 0.1726 l
0.4580 0.1728 l
0.4590 0.1730 l
0.4600 0.1732 l
0.4610 0.1735 l
0.4620 0.1737 l
0.4630 0.1739 l
0.4640 0.1741 l
0.4650 0.1744 l
0.4660 0.1746 l
0.4670 0.1748 l
0.4680 0.1750 l
0.4690 0.1753 l
0.4700 0.1755 l
0.4710 0.1757 l
0.4720 0.1760 l
0.4730 0.1762 l
0.4740 0.1764 l
0.4750 0.1767 l
0.4760 0.1769 l
0.4770 0.1772 l
0.4780 0.1774 l
0.4790 0.1776 l
0.4800 0.1779 l
0.4810 0.1781 l
0.4820 0.1784 l
0.4830 0.1786 l
0.4840 0.1789 l
0.4850 0.1791 l
0.4860 0.1794 l
0.4870 0.1796 l
0.4880 0.1799 l
0.4890 0.1801 l
0.4900 0.1804 l
0.4910 0.1807 l
0.4920 0.1809 l
0.4930 0.1812 l
0.4940 0.1814 l
0.4950 0.1817 l
0.4960 0.1820 l
0.4970 0.1822 l
0.4980 0.1825 l
0.4990 0.1828 l
0.5000 0.1830 l
0.5010 0.1833 l
0.5020 0.1836 l
0.5030 0.1838 l
0.5040 0.1841 l
0.5050 0.1844 l
0.5060 0.1846 l
0.5070 0.1849 l
0.5080 0.1852 l
0.5090 0.1855 l
0.5100 0.1858 l
0.5110 0.1860 l
0.5120 0.1863 l
0.5130 0.1866 l
0.5140 0.1869 l
0.5150 0.1872 l
0.5160 0.1875 l
0.5170 0.1877 l
0.5180 0.1880 l
0.5190 0.1883 l
0.5200 0.1886 l
0.5210 0.1889 l
0.5220 0.1892 l
0.5230 0.1895 l
0.5240 0.1898 l
0.5250 0.1901 l
0.5260 0.1904 l
0.5270 0.1907 l
0.5280 0.1910 l
0.5290 0.1913 l
0.5300 0.1916 l
0.5310 0.1919 l
0.5320 0.1922 l
0.5330 0.1925 l
0.5340 0.1928 l
0.5350 0.1931 l
0.5360 0.1934 l
0.5370 0.1937 l
0.5380 0.1940 l
0.5390 0.1943 l
0.5400 0.1946 l
0.5410 0.1949 l
0.5420 0.1952 l
0.5430 0.1956 l
0.5440 0.1959 l
0.5450 0.1962 l
0.5460 0.1965 l
0.5470 0.1968 l
0.5480 0.1971 l
0.5490 0.1975 l
0.5500 0.1978 l
0.5510 0.1981 l
0.5520 0.1984 l
0.5530 0.1988 l
0.5540 0.1991 l
0.5550 0.1994 l
0.5560 0.1997 l
0.5570 0.2001 l
0.5580 0.2004 l
0.5590 0.2007 l
0.5600 0.2010 l
0.5610 0.2014 l
0.5620 0.2017 l
0.5630 0.2020 l
0.5640 0.2024 l
0.5650 0.2027 l
0.5660 0.2031 l
0.5670 0.2034 l
0.5680 0.2037 l
0.5690 0.2041 l
0.5700 0.2044 l
0.5710 0.2048 l
0.5720 0.2051 l
0.5730 0.2054 l
0.5740 0.2058 l
0.5750 0.2061 l
0.5760 0.2065 l
0.5770 0.2068 l
0.5780 0.2072 l
0.5790 0.2075 l
0.5800 0.2079 l
0.5810 0.2082 l
0.5820 0.2086 l
0.5830 0.2089 l
0.5840 0.2093 l
0.5850 0.2096 l
0.5860 0.2100 l
0.5870 0.2103 l
0.5880 0.2107 l
0.5890 0.2111 l
0.5900 0.2114 l
0.5910 0.2118 l
0.5920 0.2121 l
0.5930 0.2125 l
0.5940 0.2129 l
0.5950 0.2132 l
0.5960 0.2136 l
0.5970 0.2140 l
0.5980 0.2143 l
0.5990 0.2147 l
0.6000 0.2151 l
0.6010 0.2154 l
0.6020 0.2158 l
0.6030 0.2162 l
0.6040 0.2166 l
0.6050 0.2169 l
0.6060 0.2173 l
0.6070 0.2177 l
0.6080 0.2180 l
0.6090 0.2184 l
0.6100 0.2188 l
0.6110 0.2192 l
0.6120 0.2196 l
0.6130 0.2199 l
0.6140 0.2203 l
0.6150 0.2207 l
0.6160 0.2211 l
0.6170 0.2215 l
0.6180 0.2219 l
0.6190 0.2222 l
0.6200 0.2226 l
0.6210 0.2230 l
0.6220 0.2234 l
0.6230 0.2238 l
0.6240 0.2242 l
0.6250 0.2246 l
0.6260 0.2250 l
0.6270 0.2254 l
0.6280 0.2257 l
0.6290 0.2261 l
0.6300 0.2265 l
0.6310 0.2269 l
0.6320 0.2273 l
0.6330 0.2277 l
0.6340 0.2281 l
0.6350 0.2285 l
0.6360 0.2289 l
0.6370 0.2293 l
0.6380 0.2297 l
0.6390 0.2301 l
0.6400 0.2305 l
0.6410 0.2309 l
0.6420 0.2313 l
0.6430 0.2317 l
0.6440 0.2321 l
0.6450 0.2326 l
0.6460 0.2330 l
0.6470 0.2334 l
0.6480 0.2338 l
0.6490 0.2342 l
0.6500 0.2346 l
0.6510 0.2350 l
0.6520 0.2354 l
0.6530 0.2358 l
0.6540 0.2363 l
0.6550 0.2367 l
0.6560 0.2371 l
0.6570 0.2375 l
0.6580 0.2379 l
0.6590 0.2383 l
0.6600 0.2388 l
0.6610 0.2392 l
0.6620 0.2396 l
0.6630 0.2400 l
0.6640 0.2404 l
0.6650 0.2409 l
0.6660 0.2413 l
0.6670 0.2417 l
0.6680 0.2421 l
0.6690 0.2426 l
0.6700 0.2430 l
0.6710 0.2434 l
0.6720 0.2438 l
0.6730 0.2443 l
0.6740 0.2447 l
0.6750 0.2451 l
0.6760 0.2456 l
0.6770 0.2460 l
0.6780 0.2464 l
0.6790 0.2469 l
0.6800 0.2473 l
0.6810 0.2477 l
0.6820 0.2482 l
0.6830 0.2486 l
0.6840 0.2490 l
0.6850 0.2495 l
0.6860 0.2499 l
0.6870 0.2504 l
0.6880 0.2508 l
0.6890 0.2512 l
0.6900 0.2517 l
0.6910 0.2521 l
0.6920 0.2526 l
0.6930 0.2530 l
0.6940 0.2535 l
0.6950 0.2539 l
0.6960 0.2544 l
0.6970 0.2548 l
0.6980 0.2553 l
0.6990 0.2557 l
0.7000 0.2561 l
0.7010 0.2566 l
0.7020 0.2571 l
0.7030 0.2575 l
0.7040 0.2580 l
0.7050 0.2584 l
0.7060 0.2589 l
0.7070 0.2593 l
0.7080 0.2598 l
0.7090 0.2602 l
0.7100 0.2607 l
0.7110 0.2611 l
0.7120 0.2616 l
0.7130 0.2621 l
0.7140 0.2625 l
0.7150 0.2630 l
0.7160 0.2634 l
0.7170 0.2639 l
0.7180 0.2644 l
0.7190 0.2648 l
0.7200 0.2653 l
0.7210 0.2658 l
0.7220 0.2662 l
0.7230 0.2667 l
0.7240 0.2672 l
0.7250 0.2676 l
0.7260 0.2681 l
0.7270 0.2686 l
0.7280 0.2690 l
0.7290 0.2695 l
0.7300 0.2700 l
0.7310 0.2704 l
0.7320 0.2709 l
0.7330 0.2714 l
0.7340 0.2719 l
0.7350 0.2723 l
0.7360 0.2728 l
0.7370 0.2733 l
0.7380 0.2738 l
0.7390 0.2742 l
0.7400 0.2747 l
0.7410 0.2752 l
0.7420 0.2757 l
0.7430 0.2761 l
0.7440 0.2766 l
0.7450 0.2771 l
0.7460 0.2776 l
0.7470 0.2781 l
0.7480 0.2785 l
0.7490 0.2790 l
0.7500 0.2795 l
0.7510 0.2800 l
0.7520 0.2805 l
0.7530 0.2810 l
0.7540 0.2815 l
0.7550 0.2819 l
0.7560 0.2824 l
0.7570 0.2829 l
0.7580 0.2834 l
0.7590 0.2839 l
0.7600 0.2844 l
0.7610 0.2849 l
0.7620 0.2854 l
0.7630 0.2859 l
0.7640 0.2864 l
0.7650 0.2869 l
0.7660 0.2873 l
0.7670 0.2878 l
0.7680 0.2883 l
0.7690 0.2888 l
0.7700 0.2893 l
0.7710 0.2898 l
0.7720 0.2903 l
0.7730 0.2908 l
0.7740 0.2913 l
0.7750 0.2918 l
0.7760 0.2923 l
0.7770 0.2928 l
0.7780 0.2933 l
0.7790 0.2938 l
0.7800 0.2943 l
0.7810 0.2948 l
0.7820 0.2953 l
0.7830 0.2958 l
0.7840 0.2964 l
0.7850 0.2969 l
0.7860 0.2974 l
0.7870 0.2979 l
0.7880 0.2984 l
0.7890 0.2989 l
0.7900 0.2994 l
0.7910 0.2999 l
0.7920 0.3004 l
0.7930 0.3009 l
0.7940 0.3014 l
0.7950 0.3020 l
0.7960 0.3025 l
0.7970 0.3030 l
0.7980 0.3035 l
0.7990 0.3040 l
0.8000 0.3045 l
0.8010 0.3050 l
0.8020 0.3056 l
0.8030 0.3061 l
0.8040 0.3066 l
0.8050 0.3071 l
0.8060 0.3076 l
0.8070 0.3081 l
0.8080 0.3087 l
0.8090 0.3092 l
0.8100 0.3097 l
0.8110 0.3102 l
0.8120 0.3107 l
0.8130 0.3113 l
0.8140 0.3118 l
0.8150 0.3123 l
0.8160 0.3128 l
0.8170 0.3134 l
0.8180 0.3139 l
0.8190 0.3144 l
0.8200 0.3149 l
0.8210 0.3155 l
0.8220 0.3160 l
0.8230 0.3165 l
0.8240 0.3171 l
0.8250 0.3176 l
0.8260 0.3181 l
0.8270 0.3186 l
0.8280 0.3192 l
0.8290 0.3197 l
0.8300 0.3202 l
0.8310 0.3208 l
0.8320 0.3213 l
0.8330 0.3218 l
0.8340 0.3224 l
0.8350 0.3229 l
0.8360 0.3235 l
0.8370 0.3240 l
0.8380 0.3245 l
0.8390 0.3251 l
0.8400 0.3256 l
0.8410 0.3261 l
0.8420 0.3267 l
0.8430 0.3272 l
0.8440 0.3278 l
0.8450 0.3283 l
0.8460 0.3288 l
0.8470 0.3294 l
0.8480 0.3299 l
0.8490 0.3305 l
0.8500 0.3310 l
0.8510 0.3316 l
0.8520 0.3321 l
0.8530 0.3326 l
0.8540 0.3332 l
0.8550 0.3337 l
0.8560 0.3343 l
0.8570 0.3348 l
0.8580 0.3354 l
0.8590 0.3359 l
0.8600 0.3365 l
0.8610 0.3370 l
0.8620 0.3376 l
0.8630 0.3381 l
0.8640 0.3387 l
0.8650 0.3392 l
0.8660 0.3398 l
0.8670 0.3403 l
0.8680 0.3409 l
0.8690 0.3414 l
0.8700 0.3420 l
0.8710 0.3425 l
0.8720 0.3431 l
0.8730 0.3436 l
0.8740 0.3442 l
0.8750 0.3448 l
0.8760 0.3453 l
0.8770 0.3459 l
0.8780 0.3464 l
0.8790 0.3470 l
0.8800 0.3476 l
0.8810 0.3481 l
0.8820 0.3487 l
0.8830 0.3492 l
0.8840 0.3498 l
0.8850 0.3504 l
0.8860 0.3509 l
0.8870 0.3515 l
0.8880 0.3520 l
0.8890 0.3526 l
0.8900 0.3532 l
0.8910 0.3537 l
0.8920 0.3543 l
0.8930 0.3549 l
0.8940 0.3554 l
0.8950 0.3560 l
0.8960 0.3566 l
0.8970 0.3571 l
0.8980 0.3577 l
0.8990 0.3583 l
0.9000 0.3588 l
0.9010 0.3594 l
0.9020 0.3600 l
0.9030 0.3605 l
0.9040 0.3611 l
0.9050 0.3617 l
0.9060 0.3623 l
0.9070 0.3628 l
0.9080 0.3634 l
0.9090 0.3640 l
0.9100 0.3645 l
0.9110 0.3651 l
0.9120 0.3657 l
0.9130 0.3663 l
0.9140 0.3668 l
0.9150 0.3674 l
0.9160 0.3680 l
0.9170 0.3686 l
0.9180 0.3691 l
0.9190 0.3697 l
0.9200 0.3703 l
0.9210 0.3709 l
0.9220 0.3715 l
0.9230 0.3720 l
0.9240 0.3726 l
0.9250 0.3732 l
0.9260 0.3738 l
0.9270 0.3744 l
0.9280 0.3749 l
0.9290 0.3755 l
0.9300 0.3761 l
0.9310 0.3767 l
0.9320 0.3773 l
0.9330 0.3779 l
0.9340 0.3784 l
0.9350 0.3790 l
0.9360 0.3796 l
0.9370 0.3802 l
0.9380 0.3808 l
0.9390 0.3814 l
0.9400 0.3820 l
0.9410 0.3826 l
0.9420 0.3831 l
0.9430 0.3837 l
0.9440 0.3843 l
0.9450 0.3849 l
0.9460 0.3855 l
0.9470 0.3861 l
0.9480 0.3867 l
0.9490 0.3873 l
0.9500 0.3879 l
0.9510 0.3885 l
0.9520 0.3890 l
0.9530 0.3896 l
0.9540 0.3902 l
0.9550 0.3908 l
0.9560 0.3914 l
0.9570 0.3920 l
0.9580 0.3926 l
0.9590 0.3932 l
0.9600 0.3938 l
0.9610 0.3944 l
0.9620 0.3950 l
0.9630 0.3956 l
0.9640 0.3962 l
0.9650 0.3968 l
0.9660 0.3974 l
0.9670 0.3980 l
0.9680 0.3986 l
0.9690 0.3992 l
0.9700 0.3998 l
0.9710 0.4004 l
0.9720 0.4010 l
0.9730 0.4016 l
0.9740 0.4022 l
0.9750 0.4028 l
0.9760 0.4034 l
0.9770 0.4040 l
0.9780 0.4046 l
0.9790 0.4052 l
0.9800 0.4058 l
0.9810 0.4064 l
0.9820 0.4070 l
0.9830 0.4076 l
0.9840 0.4082 l
0.9850 0.4088 l
0.9860 0.4094 l
0.9870 0.4101 l
0.9880 0.4107 l
0.9890 0.4113 l
0.9900 0.4119 l
0.9910 0.4125 l
0.9920 0.4131 l
0.9930 0.4137 l
0.9940 0.4143 l
0.9950 0.4149 l
0.9960 0.4155 l
0.9970 0.4161 l
0.9980 0.4168 l
0.9990 0.4174 l
1.0000 0.4180 l
1.0010 0.4186 l
1.0020 0.4192 l
1.0030 0.4198 l
1.0040 0.4204 l
1.0050 0.4210 l
1.0060 0.4217 l
1.0070 0.4223 l
1.0080 0.4229 l
1.0090 0.4235 l
1.0100 0.4241 l
1.0110 0.4247 l
1.0120 0.4254 l
1.0130 0.4260 l
1.0140 0.4266 l
1.0150 0.4272 l
1.0160 0.4278 l
1.0170 0.4284 l
1.0180 0.4291 l
1.0190 0.4297 l
1.0200 0.4303 l
1.0210 0.4309 l
1.0220 0.4316 l
1.0230 0.4322 l
1.0240 0.4328 l
1.0250 0.4334 l
1.0260 0.4340 l
1.0270 0.4347 l
1.0280 0.4353 l
1.0290 0.4359 l
1.0300 0.4365 l
1.0310 0.4372 l
1.0320 0.4378 l
1.0330 0.4384 l
1.0340 0.4390 l
1.0350 0.4397 l
1.0360 0.4403 l
1.0370 0.4409 l
1.0380 0.4415 l
1.0390 0.4422 l
1.0400 0.4428 l
1.0410 0.4434 l
1.0420 0.4440 l
1.0430 0.4447 l
1.0440 0.4453 l
1.0450 0.4459 l
1.0460 0.4466 l
1.0470 0.4472 l
1.0480 0.4478 l
1.0490 0.4484 l
1.0500 0.4491 l
1.0510 0.4497 l
1.0520 0.4503 l
1.0530 0.4510 l
1.0540 0.4516 l
1.0550 0.4522 l
1.0560 0.4529 l
1.0570 0.4535 l
1.0580 0.4541 l
1.0590 0.4548 l
1.0600 0.4554 l
1.0610 0.4560 l
1.0620 0.4567 l
1.0630 0.4573 l
1.0640 0.4579 l
1.0650 0.4586 l
1.0660 0.4592 l
1.0670 0.4599 l
1.0680 0.4605 l
1.0690 0.4611 l
1.0700 0.4618 l
1.0710 0.4624 l
1.0720 0.4630 l
1.0730 0.4637 l
1.0740 0.4643 l
1.0750 0.4650 l
1.0760 0.4656 l
1.0770 0.4662 l
1.0780 0.4669 l
1.0790 0.4675 l
1.0800 0.4682 l
1.0810 0.4688 l
1.0820 0.4694 l
1.0830 0.4701 l
1.0840 0.4707 l
1.0850 0.4714 l
1.0860 0.4720 l
1.0870 0.4727 l
1.0880 0.4733 l
1.0890 0.4739 l
1.0900 0.4746 l
1.0910 0.4752 l
1.0920 0.4759 l
1.0930 0.4765 l
1.0940 0.4772 l
1.0950 0.4778 l
1.0960 0.4785 l
1.0970 0.4791 l
1.0980 0.4798 l
1.0990 0.4804 l
1.1000 0.4811 l
1.1010 0.4817 l
1.1020 0.4823 l
1.1030 0.4830 l
1.1040 0.4836 l
1.1050 0.4843 l
1.1060 0.4849 l
1.1070 0.4856 l
1.1080 0.4862 l
1.1090 0.4869 l
1.1100 0.4875 l
1.1110 0.4882 l
1.1120 0.4888 l
1.1130 0.4895 l
1.1140 0.4901 l
1.1150 0.4908 l
1.1160 0.4915 l
1.1170 0.4921 l
1.1180 0.4928 l
1.1190 0.4934 l
1.1200 0.4941 l
1.1210 0.4947 l
1.1220 0.4954 l
1.1230 0.4960 l
1.1240 0.4967 l
1.1250 0.4973 l
1.1260 0.4980 l
1.1270 0.4987 l
1.1280 0.4993 l
1.1290 0.5000 l
1.1300 0.5006 l
1.1310 0.5013 l
1.1320 0.5019 l
1.1330 0.5026 l
1.1340 0.5032 l
1.1350 0.5039 l
1.1360 0.5046 l
1.1370 0.5052 l
1.1380 0.5059 l
1.1390 0.5065 l
1.1400 0.5072 l
1.1410 0.5079 l
1.1420 0.5085 l
1.1430 0.5092 l
1.1440 0.5098 l
1.1450 0.5105 l
1.1460 0.5112 l
1.1470 0.5118 l
1.1480 0.5125 l
1.1490 0.5131 l
1.1500 0.5138 l
1.1501 0.5139 l
s
[/DeviceRGB] SCS
Color2 SC
[] 0 SD
0.0045 SLW
n
0.1510 0.1956 m
0.1520 0.1965 l
0.1530 0.1971 l
0.1540 0.1976 l
0.1550 0.1981 l
0.1560 0.1985 l
0.1570 0.1989 l
0.1580 0.1992 l
0.1590 0.1995 l
0.1600 0.1998 l
0.1610 0.2001 l
0.1620 0.2003 l
0.1630 0.2006 l
0.1640 0.2008 l
0.1650 0.2011 l
0.1660 0.2013 l
0.1670 0.2015 l
0.1680 0.2017 l
0.1690 0.2019 l
0.1700 0.2021 l
0.1710 0.2023 l
0.1720 0.2025 l
0.1730 0.2027 l
0.1740 0.2028 l
0.1750 0.2030 l
0.1760 0.2032 l
0.1770 0.2034 l
0.1780 0.2035 l
0.1790 0.2037 l
0.1800 0.2039 l
0.1810 0.2040 l
0.1820 0.2042 l
0.1830 0.2044 l
0.1840 0.2045 l
0.1850 0.2047 l
0.1860 0.2048 l
0.1870 0.2050 l
0.1880 0.2052 l
0.1890 0.2053 l
0.1900 0.2055 l
0.1910 0.2056 l
0.1920 0.2058 l
0.1930 0.2060 l
0.1940 0.2061 l
0.1950 0.2063 l
0.1960 0.2064 l
0.1970 0.2066 l
0.1980 0.2067 l
0.1990 0.2069 l
0.2000 0.2071 l
0.2010 0.2072 l
0.2020 0.2074 l
0.2030 0.2075 l
0.2040 0.2077 l
0.2050 0.2079 l
0.2060 0.2080 l
0.2070 0.2082 l
0.2080 0.2084 l
0.2090 0.2085 l
0.2100 0.2087 l
0.2110 0.2088 l
0.2120 0.2090 l
0.2130 0.2092 l
0.2140 0.2093 l
0.2150 0.2095 l
0.2160 0.2097 l
0.2170 0.2099 l
0.2180 0.2100 l
0.2190 0.2102 l
0.2200 0.2104 l
0.2210 0.2105 l
0.2220 0.2107 l
0.2230 0.2109 l
0.2240 0.2111 l
0.2250 0.2112 l
0.2260 0.2114 l
0.2270 0.2116 l
0.2280 0.2118 l
0.2290 0.2120 l
0.2300 0.2121 l
0.2310 0.2123 l
0.2320 0.2125 l
0.2330 0.2127 l
0.2340 0.2129 l
0.2350 0.2131 l
0.2360 0.2133 l
0.2370 0.2134 l
0.2380 0.2136 l
0.2390 0.2138 l
0.2400 0.2140 l
0.2410 0.2142 l
0.2420 0.2144 l
0.2430 0.2146 l
0.2440 0.2148 l
0.2450 0.2150 l
0.2460 0.2152 l
0.2470 0.2154 l
0.2480 0.2156 l
0.2490 0.2158 l
0.2500 0.2160 l
0.2510 0.2162 l
0.2520 0.2164 l
0.2530 0.2166 l
0.2540 0.2168 l
0.2550 0.2171 l
0.2560 0.2173 l
0.2570 0.2175 l
0.2580 0.2177 l
0.2590 0.2179 l
0.2600 0.2181 l
0.2610 0.2183 l
0.2620 0.2186 l
0.2630 0.2188 l
0.2640 0.2190 l
0.2650 0.2192 l
0.2660 0.2194 l
0.2670 0.2197 l
0.2680 0.2199 l
0.2690 0.2201 l
0.2700 0.2203 l
0.2710 0.2206 l
0.2720 0.2208 l
0.2730 0.2210 l
0.2740 0.2213 l
0.2750 0.2215 l
0.2760 0.2217 l
0.2770 0.2220 l
0.2780 0.2222 l
0.2790 0.2225 l
0.2800 0.2227 l
0.2810 0.2229 l
0.2820 0.2232 l
0.2830 0.2234 l
0.2840 0.2237 l
0.2850 0.2239 l
0.2860 0.2242 l
0.2870 0.2244 l
0.2880 0.2247 l
0.2890 0.2249 l
0.2900 0.2252 l
0.2910 0.2254 l
0.2920 0.2257 l
0.2930 0.2259 l
0.2940 0.2262 l
0.2950 0.2265 l
0.2960 0.2267 l
0.2970 0.2270 l
0.2980 0.2272 l
0.2990 0.2275 l
0.3000 0.2278 l
0.3010 0.2280 l
0.3020 0.2283 l
0.3030 0.2286 l
0.3040 0.2288 l
0.3050 0.2291 l
0.3060 0.2294 l
0.3070 0.2297 l
0.3080 0.2299 l
0.3090 0.2302 l
0.3100 0.2305 l
0.3110 0.2308 l
0.3120 0.2311 l
0.3130 0.2313 l
0.3140 0.2316 l
0.3150 0.2319 l
0.3160 0.2322 l
0.3170 0.2325 l
0.3180 0.2328 l
0.3190 0.2331 l
0.3200 0.2334 l
0.3210 0.2336 l
0.3220 0.2339 l
0.3230 0.2342 l
0.3240 0.2345 l
0.3250 0.2348 l
0.3260 0.2351 l
0.3270 0.2354 l
0.3280 0.2357 l
0.3290 0.2360 l
0.3300 0.2363 l
0.3310 0.2366 l
0.3320 0.2369 l
0.3330 0.2372 l
0.3340 0.2376 l
0.3350 0.2379 l
0.3360 0.2382 l
0.3370 0.2385 l
0.3380 0.2388 l
0.3390 0.2391 l
0.3400 0.2394 l
0.3410 0.2397 l
0.3420 0.2401 l
0.3430 0.2404 l
0.3440 0.2407 l
0.3450 0.2410 l
0.3460 0.2413 l
0.3470 0.2417 l
0.3480 0.2420 l
0.3490 0.2423 l
0.3500 0.2427 l
0.3510 0.2430 l
0.3520 0.2433 l
0.3530 0.2436 l
0.3540 0.2440 l
0.3550 0.2443 l
0.3560 0.2446 l
0.3570 0.2450 l
0.3580 0.2453 l
0.3590 0.2457 l
0.3600 0.2460 l
0.3610 0.2463 l
0.3620 0.2467 l
0.3630 0.2470 l
0.3640 0.2474 l
0.3650 0.2477 l
0.3660 0.2481 l
0.3670 0.2484 l
0.3680 0.2488 l
0.3690 0.2491 l
0.3700 0.2495 l
0.3710 0.2498 l
0.3720 0.2502 l
0.3730 0.2505 l
0.3740 0.2509 l
0.3750 0.2512 l
0.3760 0.2516 l
0.3770 0.2520 l
0.3780 0.2523 l
0.3790 0.2527 l
0.3800 0.2531 l
0.3810 0.2534 l
0.3820 0.2538 l
0.3830 0.2542 l
0.3840 0.2545 l
0.3850 0.2549 l
0.3860 0.2553 l
0.3870 0.2556 l
0.3880 0.2560 l
0.3890 0.2564 l
0.3900 0.2568 l
0.3910 0.2571 l
0.3920 0.2575 l
0.3930 0.2579 l
0.3940 0.2583 l
0.3950 0.2587 l
0.3960 0.2591 l
0.3970 0.2594 l
0.3980 0.2598 l
0.3990 0.2602 l
0.4000 0.2606 l
0.4010 0.2610 l
0.4020 0.2614 l
0.4030 0.2618 l
0.4040 0.2622 l
0.4050 0.2626 l
0.4060 0.2630 l
0.4070 0.2634 l
0.4080 0.2637 l
0.4090 0.2641 l
0.4100 0.2645 l
0.4110 0.2649 l
0.4120 0.2654 l
0.4130 0.2658 l
0.4140 0.2662 l
0.4150 0.2666 l
0.4160 0.2670 l
0.4170 0.2674 l
0.4180 0.2678 l
0.4190 0.2682 l
0.4200 0.2686 l
0.4210 0.2690 l
0.4220 0.2694 l
0.4230 0.2699 l
0.4240 0.2703 l
0.4250 0.2707 l
0.4260 0.2711 l
0.4270 0.2715 l
0.4280 0.2719 l
0.4290 0.2724 l
0.4300 0.2728 l
0.4310 0.2732 l
0.4320 0.2736 l
0.4330 0.2741 l
0.4340 0.2745 l
0.4350 0.2749 l
0.4360 0.2754 l
0.4370 0.2758 l
0.4380 0.2762 l
0.4390 0.2766 l
0.4400 0.2771 l
0.4410 0.2775 l
0.4420 0.2780 l
0.4430 0.2784 l
0.4440 0.2788 l
0.4450 0.2793 l
0.4460 0.2797 l
0.4470 0.2802 l
0.4480 0.2806 l
0.4490 0.2810 l
0.4500 0.2815 l
0.4510 0.2819 l
0.4520 0.2824 l
0.4530 0.2828 l
0.4540 0.2833 l
0.4550 0.2837 l
0.4560 0.2842 l
0.4570 0.2846 l
0.4580 0.2851 l
0.4590 0.2855 l
0.4600 0.2860 l
0.4610 0.2865 l
0.4620 0.2869 l
0.4630 0.2874 l
0.4640 0.2878 l
0.4650 0.2883 l
0.4660 0.2888 l
0.4670 0.2892 l
0.4680 0.2897 l
0.4690 0.2902 l
0.4700 0.2906 l
0.4710 0.2911 l
0.4720 0.2916 l
0.4730 0.2920 l
0.4740 0.2925 l
0.4750 0.2930 l
0.4760 0.2935 l
0.4770 0.2939 l
0.4780 0.2944 l
0.4790 0.2949 l
0.4800 0.2954 l
0.4810 0.2958 l
0.4820 0.2963 l
0.4830 0.2968 l
0.4840 0.2973 l
0.4850 0.2978 l
0.4860 0.2983 l
0.4870 0.2987 l
0.4880 0.2992 l
0.4890 0.2997 l
0.4900 0.3002 l
0.4910 0.3007 l
0.4920 0.3012 l
0.4930 0.3017 l
0.4940 0.3022 l
0.4950 0.3027 l
0.4960 0.3032 l
0.4970 0.3037 l
0.4980 0.3042 l
0.4990 0.3047 l
0.5000 0.3052 l
0.5010 0.3057 l
0.5020 0.3062 l
0.5030 0.3067 l
0.5040 0.3072 l
0.5050 0.3077 l
0.5060 0.3082 l
0.5070 0.3087 l
0.5080 0.3092 l
0.5090 0.3097 l
0.5100 0.3102 l
0.5110 0.3107 l
0.5120 0.3112 l
0.5130 0.3117 l
0.5140 0.3123 l
0.5150 0.3128 l
0.5160 0.3133 l
0.5170 0.3138 l
0.5180 0.3143 l
0.5190 0.3148 l
0.5200 0.3154 l
0.5210 0.3159 l
0.5220 0.3164 l
0.5230 0.3169 l
0.5240 0.3175 l
0.5250 0.3180 l
0.5260 0.3185 l
0.5270 0.3190 l
0.5280 0.3196 l
0.5290 0.3201 l
0.5300 0.3206 l
0.5310 0.3212 l
0.5320 0.3217 l
0.5330 0.3222 l
0.5340 0.3228 l
0.5350 0.3233 l
0.5360 0.3238 l
0.5370 0.3244 l
0.5380 0.3249 l
0.5390 0.3254 l
0.5400 0.3260 l
0.5410 0.3265 l
0.5420 0.3271 l
0.5430 0.3276 l
0.5440 0.3282 l
0.5450 0.3287 l
0.5460 0.3293 l
0.5470 0.3298 l
0.5480 0.3303 l
0.5490 0.3309 l
0.5500 0.3314 l
0.5510 0.3320 l
0.5520 0.3325 l
0.5530 0.3331 l
0.5540 0.3337 l
0.5550 0.3342 l
0.5560 0.3348 l
0.5570 0.3353 l
0.5580 0.3359 l
0.5590 0.3364 l
0.5600 0.3370 l
0.5610 0.3376 l
0.5620 0.3381 l
0.5630 0.3387 l
0.5640 0.3393 l
0.5650 0.3398 l
0.5660 0.3404 l
0.5670 0.3409 l
0.5680 0.3415 l
0.5690 0.3421 l
0.5700 0.3427 l
0.5710 0.3432 l
0.5720 0.3438 l
0.5730 0.3444 l
0.5740 0.3449 l
0.5750 0.3455 l
0.5760 0.3461 l
0.5770 0.3467 l
0.5780 0.3472 l
0.5790 0.3478 l
0.5800 0.3484 l
0.5810 0.3490 l
0.5820 0.3496 l
0.5830 0.3501 l
0.5840 0.3507 l
0.5850 0.3513 l
0.5860 0.3519 l
0.5870 0.3525 l
0.5880 0.3531 l
0.5890 0.3537 l
0.5900 0.3542 l
0.5910 0.3548 l
0.5920 0.3554 l
0.5930 0.3560 l
0.5940 0.3566 l
0.5950 0.3572 l
0.5960 0.3578 l
0.5970 0.3584 l
0.5980 0.3590 l
0.5990 0.3596 l
0.6000 0.3602 l
0.6010 0.3608 l
0.6020 0.3614 l
0.6030 0.3620 l
0.6040 0.3626 l
0.6050 0.3632 l
0.6060 0.3638 l
0.6070 0.3644 l
0.6080 0.3650 l
0.6090 0.3656 l
0.6100 0.3662 l
0.6110 0.3668 l
0.6120 0.3674 l
0.6130 0.3680 l
0.6140 0.3686 l
0.6150 0.3692 l
0.6160 0.3699 l
0.6170 0.3705 l
0.6180 0.3711 l
0.6190 0.3717 l
0.6200 0.3723 l
0.6210 0.3729 l
0.6220 0.3736 l
0.6230 0.3742 l
0.6240 0.3748 l
0.6250 0.3754 l
0.6260 0.3760 l
0.6270 0.3767 l
0.6280 0.3773 l
0.6290 0.3779 l
0.6300 0.3785 l
0.6310 0.3791 l
0.6320 0.3798 l
0.6330 0.3804 l
0.6340 0.3810 l
0.6350 0.3817 l
0.6360 0.3823 l
0.6370 0.3829 l
0.6380 0.3835 l
0.6390 0.3842 l
0.6400 0.3848 l
0.6410 0.3854 l
0.6420 0.3861 l
0.6430 0.3867 l
0.6440 0.3873 l
0.6450 0.3880 l
0.6460 0.3886 l
0.6470 0.3893 l
0.6480 0.3899 l
0.6490 0.3905 l
0.6500 0.3912 l
0.6510 0.3918 l
0.6520 0.3925 l
0.6530 0.3931 l
0.6540 0.3938 l
0.6550 0.3944 l
0.6560 0.3951 l
0.6570 0.3957 l
0.6580 0.3963 l
0.6590 0.3970 l
0.6600 0.3976 l
0.6610 0.3983 l
0.6620 0.3989 l
0.6630 0.3996 l
0.6640 0.4003 l
0.6650 0.4009 l
0.6660 0.4016 l
0.6670 0.4022 l
0.6680 0.4029 l
0.6690 0.4035 l
0.6700 0.4042 l
0.6710 0.4048 l
0.6720 0.4055 l
0.6730 0.4062 l
0.6740 0.4068 l
0.6750 0.4075 l
0.6760 0.4081 l
0.6770 0.4088 l
0.6780 0.4095 l
0.6790 0.4101 l
0.6800 0.4108 l
0.6810 0.4115 l
0.6820 0.4121 l
0.6830 0.4128 l
0.6840 0.4135 l
0.6850 0.4142 l
0.6860 0.4148 l
0.6870 0.4155 l
0.6880 0.4162 l
0.6890 0.4168 l
0.6900 0.4175 l
0.6910 0.4182 l
0.6920 0.4189 l
0.6930 0.4195 l
0.6940 0.4202 l
0.6950 0.4209 l
0.6960 0.4216 l
0.6970 0.4223 l
0.6980 0.4229 l
0.6990 0.4236 l
0.7000 0.4243 l
0.7010 0.4250 l
0.7020 0.4257 l
0.7030 0.4263 l
0.7040 0.4270 l
0.7050 0.4277 l
0.7060 0.4284 l
0.7070 0.4291 l
0.7080 0.4298 l
0.7090 0.4305 l
0.7100 0.4312 l
0.7110 0.4318 l
0.7120 0.4325 l
0.7130 0.4332 l
0.7140 0.4339 l
0.7150 0.4346 l
0.7160 0.4353 l
0.7170 0.4360 l
0.7180 0.4367 l
0.7190 0.4374 l
0.7200 0.4381 l
0.7210 0.4388 l
0.7220 0.4395 l
0.7230 0.4402 l
0.7240 0.4409 l
0.7250 0.4416 l
0.7260 0.4423 l
0.7270 0.4430 l
0.7280 0.4437 l
0.7290 0.4444 l
0.7300 0.4451 l
0.7310 0.4458 l
0.7320 0.4465 l
0.7330 0.4472 l
0.7340 0.4479 l
0.7350 0.4486 l
0.7360 0.4493 l
0.7370 0.4500 l
0.7380 0.4508 l
0.7390 0.4515 l
0.7400 0.4522 l
0.7410 0.4529 l
0.7420 0.4536 l
0.7430 0.4543 l
0.7440 0.4550 l
0.7450 0.4557 l
0.7460 0.4565 l
0.7470 0.4572 l
0.7480 0.4579 l
0.7490 0.4586 l
0.7500 0.4593 l
0.7510 0.4601 l
0.7520 0.4608 l
0.7530 0.4615 l
0.7540 0.4622 l
0.7550 0.4629 l
0.7560 0.4637 l
0.7570 0.4644 l
0.7580 0.4651 l
0.7590 0.4658 l
0.7600 0.4666 l
0.7610 0.4673 l
0.7620 0.4680 l
0.7630 0.4687 l
0.7640 0.4695 l
0.7650 0.4702 l
0.7660 0.4709 l
0.7670 0.4717 l
0.7680 0.4724 l
0.7690 0.4731 l
0.7700 0.4739 l
0.7710 0.4746 l
0.7720 0.4753 l
0.7730 0.4761 l
0.7740 0.4768 l
0.7750 0.4775 l
0.7760 0.4783 l
0.7770 0.4790 l
0.7780 0.4797 l
0.7790 0.4805 l
0.7800 0.4812 l
0.7810 0.4820 l
0.7820 0.4827 l
0.7830 0.4834 l
0.7840 0.4842 l
0.7850 0.4849 l
0.7860 0.4857 l
0.7870 0.4864 l
0.7880 0.4872 l
0.7890 0.4879 l
0.7900 0.4886 l
0.7910 0.4894 l
0.7920 0.4901 l
0.7930 0.4909 l
0.7940 0.4916 l
0.7950 0.4924 l
0.7960 0.4931 l
0.7970 0.4939 l
0.7980 0.4946 l
0.7990 0.4954 l
0.8000 0.4961 l
0.8010 0.4969 l
0.8020 0.4976 l
0.8030 0.4984 l
0.8040 0.4992 l
0.8050 0.4999 l
0.8060 0.5007 l
0.8070 0.5014 l
0.8080 0.5022 l
0.8090 0.5029 l
0.8100 0.5037 l
0.8110 0.5045 l
0.8120 0.5052 l
0.8130 0.5060 l
0.8140 0.5067 l
0.8150 0.5075 l
0.8160 0.5083 l
0.8170 0.5090 l
0.8180 0.5098 l
0.8190 0.5105 l
0.8200 0.5113 l
0.8210 0.5121 l
0.8220 0.5128 l
0.8230 0.5136 l
0.8240 0.5144 l
0.8250 0.5151 l
0.8260 0.5159 l
0.8270 0.5167 l
0.8280 0.5174 l
0.8290 0.5182 l
0.8300 0.5190 l
0.8310 0.5198 l
0.8320 0.5205 l
0.8330 0.5213 l
0.8340 0.5221 l
0.8350 0.5229 l
0.8360 0.5236 l
0.8370 0.5244 l
0.8380 0.5252 l
0.8390 0.5260 l
0.8400 0.5267 l
0.8410 0.5275 l
0.8420 0.5283 l
0.8430 0.5291 l
0.8440 0.5298 l
0.8450 0.5306 l
0.8460 0.5314 l
0.8470 0.5322 l
0.8480 0.5330 l
0.8490 0.5337 l
0.8500 0.5345 l
0.8510 0.5353 l
0.8520 0.5361 l
0.8530 0.5369 l
0.8540 0.5377 l
0.8550 0.5384 l
0.8560 0.5392 l
0.8570 0.5400 l
0.8580 0.5408 l
0.8590 0.5416 l
0.8600 0.5424 l
0.8610 0.5432 l
0.8620 0.5440 l
0.8630 0.5447 l
0.8640 0.5455 l
0.8650 0.5463 l
0.8660 0.5471 l
0.8670 0.5479 l
0.8680 0.5487 l
0.8690 0.5495 l
0.8700 0.5503 l
0.8710 0.5511 l
0.8720 0.5519 l
0.8730 0.5527 l
0.8740 0.5535 l
0.8750 0.5543 l
0.8760 0.5551 l
0.8770 0.5559 l
0.8780 0.5567 l
0.8790 0.5575 l
0.8800 0.5583 l
0.8810 0.5591 l
0.8820 0.5599 l
0.8830 0.5607 l
0.8840 0.5615 l
0.8850 0.5623 l
0.8860 0.5631 l
0.8870 0.5639 l
0.8880 0.5647 l
0.8890 0.5655 l
0.8900 0.5663 l
0.8910 0.5671 l
0.8920 0.5679 l
0.8930 0.5687 l
0.8940 0.5695 l
0.8950 0.5703 l
0.8960 0.5711 l
0.8970 0.5719 l
0.8980 0.5727 l
0.8990 0.5735 l
0.9000 0.5743 l
0.9010 0.5751 l
0.9020 0.5760 l
0.9030 0.5768 l
0.9040 0.5776 l
0.9050 0.5784 l
0.9060 0.5792 l
0.9070 0.5800 l
0.9080 0.5808 l
0.9090 0.5816 l
0.9100 0.5825 l
0.9110 0.5833 l
0.9120 0.5841 l
0.9130 0.5849 l
0.9140 0.5857 l
0.9150 0.5865 l
0.9160 0.5873 l
0.9170 0.5882 l
0.9180 0.5890 l
0.9190 0.5898 l
0.9200 0.5906 l
0.9210 0.5914 l
0.9220 0.5923 l
0.9230 0.5931 l
0.9240 0.5939 l
0.9250 0.5947 l
0.9260 0.5955 l
0.9270 0.5964 l
0.9280 0.5972 l
0.9290 0.5980 l
0.9300 0.5988 l
0.9310 0.5997 l
0.9320 0.6005 l
0.9330 0.6013 l
0.9340 0.6021 l
0.9350 0.6030 l
0.9360 0.6038 l
0.9370 0.6046 l
0.9380 0.6054 l
0.9390 0.6063 l
0.9400 0.6071 l
0.9410 0.6079 l
0.9420 0.6088 l
0.9430 0.6096 l
0.9440 0.6104 l
0.9450 0.6112 l
0.9460 0.6121 l
0.9470 0.6129 l
0.9480 0.6137 l
0.9490 0.6146 l
0.9500 0.6154 l
0.9510 0.6162 l
0.9520 0.6171 l
0.9530 0.6179 l
0.9540 0.6187 l
0.9550 0.6196 l
0.9560 0.6204 l
0.9570 0.6212 l
0.9580 0.6221 l
0.9590 0.6229 l
0.9600 0.6237 l
0.9610 0.6246 l
0.9620 0.6254 l
0.9630 0.6263 l
0.9640 0.6271 l
0.9650 0.6279 l
0.9660 0.6288 l
0.9670 0.6296 l
0.9680 0.6305 l
0.9690 0.6313 l
0.9700 0.6321 l
0.9710 0.6330 l
0.9720 0.6338 l
0.9730 0.6347 l
0.9740 0.6355 l
0.9750 0.6363 l
0.9760 0.6372 l
0.9770 0.6380 l
0.9780 0.6389 l
0.9790 0.6397 l
0.9800 0.6406 l
0.9810 0.6414 l
0.9820 0.6423 l
0.9830 0.6431 l
0.9840 0.6439 l
0.9850 0.6448 l
0.9860 0.6456 l
0.9870 0.6465 l
0.9880 0.6473 l
0.9890 0.6482 l
0.9900 0.6490 l
0.9910 0.6499 l
0.9920 0.6507 l
0.9930 0.6516 l
0.9940 0.6524 l
0.9950 0.6533 l
0.9960 0.6541 l
0.9970 0.6550 l
0.9980 0.6558 l
0.9990 0.6567 l
1.0000 0.6575 l
1.0010 0.6584 l
1.0020 0.6592 l
1.0030 0.6601 l
1.0040 0.6609 l
1.0050 0.6618 l
1.0060 0.6627 l
1.0070 0.6635 l
1.0080 0.6644 l
1.0090 0.6652 l
1.0100 0.6661 l
1.0110 0.6669 l
1.0120 0.6678 l
1.0130 0.6686 l
1.0140 0.6695 l
1.0150 0.6704 l
1.0160 0.6712 l
1.0170 0.6721 l
1.0180 0.6729 l
1.0190 0.6738 l
1.0200 0.6747 l
1.0210 0.6755 l
1.0220 0.6764 l
1.0230 0.6772 l
1.0240 0.6781 l
1.0250 0.6790 l
1.0260 0.6798 l
1.0270 0.6807 l
1.0280 0.6815 l
1.0290 0.6824 l
1.0300 0.6833 l
1.0310 0.6841 l
1.0320 0.6850 l
1.0330 0.6859 l
1.0340 0.6867 l
1.0350 0.6876 l
1.0360 0.6884 l
1.0370 0.6893 l
1.0380 0.6902 l
1.0390 0.6910 l
1.0400 0.6919 l
1.0410 0.6928 l
1.0420 0.6936 l
1.0430 0.6945 l
1.0440 0.6954 l
1.0450 0.6962 l
1.0460 0.6971 l
1.0470 0.6980 l
1.0480 0.6988 l
1.0490 0.6997 l
1.0500 0.7006 l
1.0510 0.7014 l
1.0520 0.7023 l
1.0530 0.7032 l
1.0540 0.7041 l
1.0550 0.7049 l
1.0560 0.7058 l
1.0570 0.7067 l
1.0580 0.7075 l
1.0590 0.7084 l
1.0600 0.7093 l
1.0610 0.7102 l
1.0620 0.7110 l
1.0630 0.7119 l
1.0640 0.7128 l
1.0650 0.7136 l
1.0660 0.7145 l
1.0670 0.7154 l
1.0680 0.7163 l
1.0690 0.7171 l
1.0700 0.7180 l
1.0710 0.7189 l
1.0720 0.7198 l
1.0730 0.7206 l
1.0740 0.7215 l
1.0750 0.7224 l
1.0760 0.7233 l
1.0770 0.7241 l
1.0780 0.7250 l
1.0790 0.7259 l
1.0800 0.7268 l
1.0810 0.7276 l
1.0820 0.7285 l
1.0830 0.7294 l
1.0840 0.7303 l
1.0850 0.7312 l
1.0860 0.7320 l
1.0870 0.7329 l
1.0880 0.7338 l
1.0890 0.7347 l
1.0900 0.7356 l
1.0910 0.7364 l
1.0920 0.7373 l
1.0930 0.7382 l
1.0940 0.7391 l
1.0950 0.7400 l
1.0960 0.7408 l
1.0970 0.7417 l
1.0980 0.7426 l
1.0990 0.7435 l
1.1000 0.7444 l
1.1010 0.7452 l
1.1020 0.7461 l
1.1030 0.7470 l
1.1040 0.7479 l
1.1050 0.7488 l
1.1060 0.7497 l
1.1070 0.7505 l
1.1080 0.7514 l
1.1090 0.7523 l
1.1100 0.7532 l
1.1110 0.7541 l
1.1120 0.7550 l
1.1130 0.7558 l
1.1140 0.7567 l
1.1150 0.7576 l
1.1160 0.7585 l
1.1170 0.7594 l
1.1180 0.7603 l
1.1190 0.7612 l
1.1200 0.7620 l
1.1210 0.7629 l
1.1220 0.7638 l
1.1230 0.7647 l
1.1240 0.7656 l
1.1250 0.7665 l
1.1260 0.7674 l
1.1270 0.7683 l
1.1280 0.7691 l
1.1290 0.7700 l
1.1300 0.7709 l
1.1310 0.7718 l
1.1320 0.7727 l
1.1330 0.7736 l
1.1340 0.7745 l
1.1350 0.7754 l
1.1360 0.7762 l
1.1370 0.7771 l
1.1380 0.7780 l
1.1390 0.7789 l
1.1400 0.7798 l
1.1410 0.7807 l
1.1420 0.7816 l
1.1430 0.7825 l
1.1440 0.7834 l
1.1450 0.7843 l
1.1460 0.7851 l
1.1470 0.7860 l
1.1480 0.7869 l
1.1490 0.7878 l
1.1500 0.7887 l
1.1501 0.7888 l
s
n
0.2215 0.1602 m
0.2215 0.1772 l
0.2385 0.1772 l
0.2385 0.1602 l
c
GS
Color0 SRGB
fill
GR
[/Pattern /DeviceRGB] SCS
Color1 Pattern8 SC
fill
[/DeviceRGB] SCS
Color1 SC
[] 0 SD
0.0030 SLW
n
0.2215 0.1602 m
0.2215 0.1772 l
0.2385 0.1772 l
0.2385 0.1602 l
0.2215 0.1602 l
c
s
n
0.3015 0.1496 m
0.3015 0.1666 l
0.3185 0.1666 l
0.3185 0.1496 l
c
GS
Color0 SRGB
fill
GR
[/Pattern /DeviceRGB] SCS
Color1 Pattern8 SC
fill
[/DeviceRGB] SCS
Color1 SC
n
0.3015 0.1496 m
0.3015 0.1666 l
0.3185 0.1666 l
0.3185 0.1496 l
0.3015 0.1496 l
c
s
n
0.3415 0.1497 m
0.3415 0.1667 l
0.3585 0.1667 l
0.3585 0.1497 l
c
GS
Color0 SRGB
fill
GR
[/Pattern /DeviceRGB] SCS
Color1 Pattern8 SC
fill
[/DeviceRGB] SCS
Color1 SC
n
0.3415 0.1497 m
0.3415 0.1667 l
0.3585 0.1667 l
0.3585 0.1497 l
0.3415 0.1497 l
c
s
n
0.4415 0.1617 m
0.4415 0.1787 l
0.4585 0.1787 l
0.4585 0.1617 l
c
GS
Color0 SRGB
fill
GR
[/Pattern /DeviceRGB] SCS
Color1 Pattern8 SC
fill
[/DeviceRGB] SCS
Color1 SC
n
0.4415 0.1617 m
0.4415 0.1787 l
0.4585 0.1787 l
0.4585 0.1617 l
0.4415 0.1617 l
c
s
n
0.5415 0.1870 m
0.5415 0.2040 l
0.5585 0.2040 l
0.5585 0.1870 l
c
GS
Color0 SRGB
fill
GR
[/Pattern /DeviceRGB] SCS
Color1 Pattern8 SC
fill
[/DeviceRGB] SCS
Color1 SC
n
0.5415 0.1870 m
0.5415 0.2040 l
0.5585 0.2040 l
0.5585 0.1870 l
0.5415 0.1870 l
c
s
n
0.6415 0.2236 m
0.6415 0.2406 l
0.6585 0.2406 l
0.6585 0.2236 l
c
GS
Color0 SRGB
fill
GR
[/Pattern /DeviceRGB] SCS
Color1 Pattern8 SC
fill
[/DeviceRGB] SCS
Color1 SC
n
0.6415 0.2236 m
0.6415 0.2406 l
0.6585 0.2406 l
0.6585 0.2236 l
0.6415 0.2236 l
c
s
n
0.7415 0.2695 m
0.7415 0.2865 l
0.7585 0.2865 l
0.7585 0.2695 l
c
GS
Color0 SRGB
fill
GR
[/Pattern /DeviceRGB] SCS
Color1 Pattern8 SC
fill
[/DeviceRGB] SCS
Color1 SC
n
0.7415 0.2695 m
0.7415 0.2865 l
0.7585 0.2865 l
0.7585 0.2695 l
0.7415 0.2695 l
c
s
n
0.8415 0.3224 m
0.8415 0.3394 l
0.8585 0.3394 l
0.8585 0.3224 l
c
GS
Color0 SRGB
fill
GR
[/Pattern /DeviceRGB] SCS
Color1 Pattern8 SC
fill
[/DeviceRGB] SCS
Color1 SC
n
0.8415 0.3224 m
0.8415 0.3394 l
0.8585 0.3394 l
0.8585 0.3224 l
0.8415 0.3224 l
c
s
n
0.9415 0.3806 m
0.9415 0.3976 l
0.9585 0.3976 l
0.9585 0.3806 l
c
GS
Color0 SRGB
fill
GR
[/Pattern /DeviceRGB] SCS
Color1 Pattern8 SC
fill
[/DeviceRGB] SCS
Color1 SC
n
0.9415 0.3806 m
0.9415 0.3976 l
0.9585 0.3976 l
0.9585 0.3806 l
0.9415 0.3806 l
c
s
n
1.0415 0.4427 m
1.0415 0.4597 l
1.0585 0.4597 l
1.0585 0.4427 l
c
GS
Color0 SRGB
fill
GR
[/Pattern /DeviceRGB] SCS
Color1 Pattern8 SC
fill
[/DeviceRGB] SCS
Color1 SC
n
1.0415 0.4427 m
1.0415 0.4597 l
1.0585 0.4597 l
1.0585 0.4427 l
1.0415 0.4427 l
c
s
n
1.1415 0.5076 m
1.1415 0.5246 l
1.1585 0.5246 l
1.1585 0.5076 l
c
GS
Color0 SRGB
fill
GR
[/Pattern /DeviceRGB] SCS
Color1 Pattern8 SC
fill
[/DeviceRGB] SCS
Color1 SC
n
1.1415 0.5076 m
1.1415 0.5246 l
1.1585 0.5246 l
1.1585 0.5076 l
1.1415 0.5076 l
c
s
n
0.2300 0.2124 0.0100 0.0100 0 360 EARC c
GS
Color0 SRGB
fill
GR
[/Pattern /DeviceRGB] SCS
Color2 Pattern8 SC
fill
[/DeviceRGB] SCS
Color2 SC
n 0.2300 0.2124 0.0100 0.0100 0 360 EARC s
n
0.3100 0.2292 0.0100 0.0100 0 360 EARC c
GS
Color0 SRGB
fill
GR
[/Pattern /DeviceRGB] SCS
Color2 Pattern8 SC
fill
[/DeviceRGB] SCS
Color2 SC
n 0.3100 0.2292 0.0100 0.0100 0 360 EARC s
n
0.3500 0.2397 0.0100 0.0100 0 360 EARC c
GS
Color0 SRGB
fill
GR
[/Pattern /DeviceRGB] SCS
Color2 Pattern8 SC
fill
[/DeviceRGB] SCS
Color2 SC
n 0.3500 0.2397 0.0100 0.0100 0 360 EARC s
n
0.4500 0.2716 0.0100 0.0100 0 360 EARC c
GS
Color0 SRGB
fill
GR
[/Pattern /DeviceRGB] SCS
Color2 Pattern8 SC
fill
[/DeviceRGB] SCS
Color2 SC
n 0.4500 0.2716 0.0100 0.0100 0 360 EARC s
n
0.5500 0.3146 0.0100 0.0100 0 360 EARC c
GS
Color0 SRGB
fill
GR
[/Pattern /DeviceRGB] SCS
Color2 Pattern8 SC
fill
[/DeviceRGB] SCS
Color2 SC
n 0.5500 0.3146 0.0100 0.0100 0 360 EARC s
n
0.6500 0.3712 0.0100 0.0100 0 360 EARC c
GS
Color0 SRGB
fill
GR
[/Pattern /DeviceRGB] SCS
Color2 Pattern8 SC
fill
[/DeviceRGB] SCS
Color2 SC
n 0.6500 0.3712 0.0100 0.0100 0 360 EARC s
n
0.7500 0.4398 0.0100 0.0100 0 360 EARC c
GS
Color0 SRGB
fill
GR
[/Pattern /DeviceRGB] SCS
Color2 Pattern8 SC
fill
[/DeviceRGB] SCS
Color2 SC
n 0.7500 0.4398 0.0100 0.0100 0 360 EARC s
n
0.8500 0.5173 0.0100 0.0100 0 360 EARC c
GS
Color0 SRGB
fill
GR
[/Pattern /DeviceRGB] SCS
Color2 Pattern8 SC
fill
[/DeviceRGB] SCS
Color2 SC
n 0.8500 0.5173 0.0100 0.0100 0 360 EARC s
n
0.9500 0.6004 0.0100 0.0100 0 360 EARC c
GS
Color0 SRGB
fill
GR
[/Pattern /DeviceRGB] SCS
Color2 Pattern8 SC
fill
[/DeviceRGB] SCS
Color2 SC
n 0.9500 0.6004 0.0100 0.0100 0 360 EARC s
n
1.0500 0.6875 0.0100 0.0100 0 360 EARC c
GS
Color0 SRGB
fill
GR
[/Pattern /DeviceRGB] SCS
Color2 Pattern8 SC
fill
[/DeviceRGB] SCS
Color2 SC
n 1.0500 0.6875 0.0100 0.0100 0 360 EARC s
n
1.1500 0.7772 0.0100 0.0100 0 360 EARC c
GS
Color0 SRGB
fill
GR
[/Pattern /DeviceRGB] SCS
Color2 Pattern8 SC
fill
[/DeviceRGB] SCS
Color2 SC
n 1.1500 0.7772 0.0100 0.0100 0 360 EARC s
[/DeviceRGB] SCS
Color1 SC
[0.0187 0.0112 ] 0 SD
0.0037 SLW
n
0.1510 0.1940 m
0.1520 0.1937 l
0.1530 0.1933 l
0.1540 0.1929 l
0.1550 0.1925 l
0.1560 0.1921 l
0.1570 0.1916 l
0.1580 0.1912 l
0.1590 0.1908 l
0.1600 0.1903 l
0.1610 0.1899 l
0.1620 0.1895 l
0.1630 0.1890 l
0.1640 0.1886 l
0.1650 0.1882 l
0.1660 0.1878 l
0.1670 0.1874 l
0.1680 0.1870 l
0.1690 0.1865 l
0.1700 0.1861 l
0.1710 0.1857 l
0.1720 0.1854 l
0.1730 0.1850 l
0.1740 0.1846 l
0.1750 0.1842 l
0.1760 0.1838 l
0.1770 0.1835 l
0.1780 0.1831 l
0.1790 0.1827 l
0.1800 0.1824 l
0.1810 0.1820 l
0.1820 0.1817 l
0.1830 0.1813 l
0.1840 0.1810 l
0.1850 0.1806 l
0.1860 0.1803 l
0.1870 0.1800 l
0.1880 0.1796 l
0.1890 0.1793 l
0.1900 0.1790 l
0.1910 0.1787 l
0.1920 0.1784 l
0.1930 0.1780 l
0.1940 0.1777 l
0.1950 0.1774 l
0.1960 0.1771 l
0.1970 0.1768 l
0.1980 0.1765 l
0.1990 0.1763 l
0.2000 0.1760 l
0.2010 0.1757 l
0.2020 0.1754 l
0.2030 0.1751 l
0.2040 0.1749 l
0.2050 0.1746 l
0.2060 0.1743 l
0.2070 0.1741 l
0.2080 0.1738 l
0.2090 0.1735 l
0.2100 0.1733 l
0.2110 0.1730 l
0.2120 0.1728 l
0.2130 0.1725 l
0.2140 0.1723 l
0.2150 0.1721 l
0.2160 0.1718 l
0.2170 0.1716 l
0.2180 0.1714 l
0.2190 0.1711 l
0.2200 0.1709 l
0.2210 0.1707 l
0.2220 0.1705 l
0.2230 0.1703 l
0.2240 0.1700 l
0.2250 0.1698 l
0.2260 0.1696 l
0.2270 0.1694 l
0.2280 0.1692 l
0.2290 0.1690 l
0.2300 0.1688 l
0.2310 0.1686 l
0.2320 0.1684 l
0.2330 0.1682 l
0.2340 0.1681 l
0.2350 0.1679 l
0.2360 0.1677 l
0.2370 0.1675 l
0.2380 0.1673 l
0.2390 0.1672 l
0.2400 0.1670 l
0.2410 0.1668 l
0.2420 0.1667 l
0.2430 0.1665 l
0.2440 0.1663 l
0.2450 0.1662 l
0.2460 0.1660 l
0.2470 0.1659 l
0.2480 0.1657 l
0.2490 0.1656 l
0.2500 0.1654 l
0.2510 0.1653 l
0.2520 0.1651 l
0.2530 0.1650 l
0.2540 0.1648 l
0.2550 0.1647 l
0.2560 0.1646 l
0.2570 0.1644 l
0.2580 0.1643 l
0.2590 0.1642 l
0.2600 0.1641 l
0.2610 0.1639 l
0.2620 0.1638 l
0.2630 0.1637 l
0.2640 0.1636 l
0.2650 0.1635 l
0.2660 0.1634 l
0.2670 0.1632 l
0.2680 0.1631 l
0.2690 0.1630 l
0.2700 0.1629 l
0.2710 0.1628 l
0.2720 0.1627 l
0.2730 0.1626 l
0.2740 0.1625 l
0.2750 0.1624 l
0.2760 0.1624 l
0.2770 0.1623 l
0.2780 0.1622 l
0.2790 0.1621 l
0.2800 0.1620 l
0.2810 0.1619 l
0.2820 0.1619 l
0.2830 0.1618 l
0.2840 0.1617 l
0.2850 0.1616 l
0.2860 0.1616 l
0.2870 0.1615 l
0.2880 0.1614 l
0.2890 0.1614 l
0.2900 0.1613 l
0.2910 0.1612 l
0.2920 0.1612 l
0.2930 0.1611 l
0.2940 0.1611 l
0.2950 0.1610 l
0.2960 0.1610 l
0.2970 0.1609 l
0.2980 0.1609 l
0.2990 0.1608 l
0.3000 0.1608 l
0.3010 0.1607 l
0.3020 0.1607 l
0.3030 0.1607 l
0.3040 0.1606 l
0.3050 0.1606 l
0.3060 0.1605 l
0.3070 0.1605 l
0.3080 0.1605 l
0.3090 0.1605 l
0.3100 0.1604 l
0.3110 0.1604 l
0.3120 0.1604 l
0.3130 0.1604 l
0.3140 0.1603 l
0.3150 0.1603 l
0.3160 0.1603 l
0.3170 0.1603 l
0.3180 0.1603 l
0.3190 0.1603 l
0.3200 0.1603 l
0.3210 0.1603 l
0.3220 0.1603 l
0.3230 0.1603 l
0.3240 0.1603 l
0.3250 0.1603 l
0.3260 0.1603 l
0.3270 0.1603 l
0.3280 0.1603 l
0.3290 0.1603 l
0.3300 0.1603 l
0.3310 0.1603 l
0.3320 0.1603 l
0.3330 0.1603 l
0.3340 0.1603 l
0.3350 0.1603 l
0.3360 0.1604 l
0.3370 0.1604 l
0.3380 0.1604 l
0.3390 0.1604 l
0.3400 0.1604 l
0.3410 0.1605 l
0.3420 0.1605 l
0.3430 0.1605 l
0.3440 0.1606 l
0.3450 0.1606 l
0.3460 0.1606 l
0.3470 0.1607 l
0.3480 0.1607 l
0.3490 0.1607 l
0.3500 0.1608 l
0.3510 0.1608 l
0.3520 0.1609 l
0.3530 0.1609 l
0.3540 0.1610 l
0.3550 0.1610 l
0.3560 0.1611 l
0.3570 0.1611 l
0.3580 0.1612 l
0.3590 0.1612 l
0.3600 0.1613 l
0.3610 0.1613 l
0.3620 0.1614 l
0.3630 0.1614 l
0.3640 0.1615 l
0.3650 0.1616 l
0.3660 0.1616 l
0.3670 0.1617 l
0.3680 0.1618 l
0.3690 0.1618 l
0.3700 0.1619 l
0.3710 0.1620 l
0.3720 0.1620 l
0.3730 0.1621 l
0.3740 0.1622 l
0.3750 0.1623 l
0.3760 0.1624 l
0.3770 0.1624 l
0.3780 0.1625 l
0.3790 0.1626 l
0.3800 0.1627 l
0.3810 0.1628 l
0.3820 0.1629 l
0.3830 0.1630 l
0.3840 0.1630 l
0.3850 0.1631 l
0.3860 0.1632 l
0.3870 0.1633 l
0.3880 0.1634 l
0.3890 0.1635 l
0.3900 0.1636 l
0.3910 0.1637 l
0.3920 0.1638 l
0.3930 0.1639 l
0.3940 0.1640 l
0.3950 0.1641 l
0.3960 0.1642 l
0.3970 0.1643 l
0.3980 0.1645 l
0.3990 0.1646 l
0.4000 0.1647 l
0.4010 0.1648 l
0.4020 0.1649 l
0.4030 0.1650 l
0.4040 0.1651 l
0.4050 0.1653 l
0.4060 0.1654 l
0.4070 0.1655 l
0.4080 0.1656 l
0.4090 0.1657 l
0.4100 0.1659 l
0.4110 0.1660 l
0.4120 0.1661 l
0.4130 0.1663 l
0.4140 0.1664 l
0.4150 0.1665 l
0.4160 0.1667 l
0.4170 0.1668 l
0.4180 0.1669 l
0.4190 0.1671 l
0.4200 0.1672 l
0.4210 0.1673 l
0.4220 0.1675 l
0.4230 0.1676 l
0.4240 0.1678 l
0.4250 0.1679 l
0.4260 0.1681 l
0.4270 0.1682 l
0.4280 0.1684 l
0.4290 0.1685 l
0.4300 0.1687 l
0.4310 0.1688 l
0.4320 0.1690 l
0.4330 0.1691 l
0.4340 0.1693 l
0.4350 0.1694 l
0.4360 0.1696 l
0.4370 0.1698 l
0.4380 0.1699 l
0.4390 0.1701 l
0.4400 0.1702 l
0.4410 0.1704 l
0.4420 0.1706 l
0.4430 0.1707 l
0.4440 0.1709 l
0.4450 0.1711 l
0.4460 0.1713 l
0.4470 0.1714 l
0.4480 0.1716 l
0.4490 0.1718 l
0.4500 0.1720 l
0.4510 0.1721 l
0.4520 0.1723 l
0.4530 0.1725 l
0.4540 0.1727 l
0.4550 0.1729 l
0.4560 0.1730 l
0.4570 0.1732 l
0.4580 0.1734 l
0.4590 0.1736 l
0.4600 0.1738 l
0.4610 0.1740 l
0.4620 0.1742 l
0.4630 0.1744 l
0.4640 0.1745 l
0.4650 0.1747 l
0.4660 0.1749 l
0.4670 0.1751 l
0.4680 0.1753 l
0.4690 0.1755 l
0.4700 0.1757 l
0.4710 0.1759 l
0.4720 0.1761 l
0.4730 0.1763 l
0.4740 0.1765 l
0.4750 0.1767 l
0.4760 0.1770 l
0.4770 0.1772 l
0.4780 0.1774 l
0.4790 0.1776 l
0.4800 0.1778 l
0.4810 0.1780 l
0.4820 0.1782 l
0.4830 0.1784 l
0.4840 0.1787 l
0.4850 0.1789 l
0.4860 0.1791 l
0.4870 0.1793 l
0.4880 0.1795 l
0.4890 0.1797 l
0.4900 0.1800 l
0.4910 0.1802 l
0.4920 0.1804 l
0.4930 0.1806 l
0.4940 0.1809 l
0.4950 0.1811 l
0.4960 0.1813 l
0.4970 0.1816 l
0.4980 0.1818 l
0.4990 0.1820 l
0.5000 0.1823 l
0.5010 0.1825 l
0.5020 0.1827 l
0.5030 0.1830 l
0.5040 0.1832 l
0.5050 0.1834 l
0.5060 0.1837 l
0.5070 0.1839 l
0.5080 0.1842 l
0.5090 0.1844 l
0.5100 0.1847 l
0.5110 0.1849 l
0.5120 0.1851 l
0.5130 0.1854 l
0.5140 0.1856 l
0.5150 0.1859 l
0.5160 0.1861 l
0.5170 0.1864 l
0.5180 0.1866 l
0.5190 0.1869 l
0.5200 0.1872 l
0.5210 0.1874 l
0.5220 0.1877 l
0.5230 0.1879 l
0.5240 0.1882 l
0.5250 0.1885 l
0.5260 0.1887 l
0.5270 0.1890 l
0.5280 0.1892 l
0.5290 0.1895 l
0.5300 0.1898 l
0.5310 0.1900 l
0.5320 0.1903 l
0.5330 0.1906 l
0.5340 0.1908 l
0.5350 0.1911 l
0.5360 0.1914 l
0.5370 0.1917 l
0.5380 0.1919 l
0.5390 0.1922 l
0.5400 0.1925 l
0.5410 0.1928 l
0.5420 0.1930 l
0.5430 0.1933 l
0.5440 0.1936 l
0.5450 0.1939 l
0.5460 0.1942 l
0.5470 0.1944 l
0.5480 0.1947 l
0.5490 0.1950 l
0.5500 0.1953 l
0.5510 0.1956 l
0.5520 0.1959 l
0.5530 0.1962 l
0.5540 0.1965 l
0.5550 0.1967 l
0.5560 0.1970 l
0.5570 0.1973 l
0.5580 0.1976 l
0.5590 0.1979 l
0.5600 0.1982 l
0.5610 0.1985 l
0.5620 0.1988 l
0.5630 0.1991 l
0.5640 0.1994 l
0.5650 0.1997 l
0.5660 0.2000 l
0.5670 0.2003 l
0.5680 0.2006 l
0.5690 0.2009 l
0.5700 0.2012 l
0.5710 0.2015 l
0.5720 0.2018 l
0.5730 0.2022 l
0.5740 0.2025 l
0.5750 0.2028 l
0.5760 0.2031 l
0.5770 0.2034 l
0.5780 0.2037 l
0.5790 0.2040 l
0.5800 0.2043 l
0.5810 0.2047 l
0.5820 0.2050 l
0.5830 0.2053 l
0.5840 0.2056 l
0.5850 0.2059 l
0.5860 0.2063 l
0.5870 0.2066 l
0.5880 0.2069 l
0.5890 0.2072 l
0.5900 0.2076 l
0.5910 0.2079 l
0.5920 0.2082 l
0.5930 0.2085 l
0.5940 0.2089 l
0.5950 0.2092 l
0.5960 0.2095 l
0.5970 0.2099 l
0.5980 0.2102 l
0.5990 0.2105 l
0.6000 0.2109 l
0.6010 0.2112 l
0.6020 0.2115 l
0.6030 0.2119 l
0.6040 0.2122 l
0.6050 0.2126 l
0.6060 0.2129 l
0.6070 0.2132 l
0.6080 0.2136 l
0.6090 0.2139 l
0.6100 0.2143 l
0.6110 0.2146 l
0.6120 0.2150 l
0.6130 0.2153 l
0.6140 0.2156 l
0.6150 0.2160 l
0.6160 0.2163 l
0.6170 0.2167 l
0.6180 0.2170 l
0.6190 0.2174 l
0.6200 0.2178 l
0.6210 0.2181 l
0.6220 0.2185 l
0.6230 0.2188 l
0.6240 0.2192 l
0.6250 0.2195 l
0.6260 0.2199 l
0.6270 0.2203 l
0.6280 0.2206 l
0.6290 0.2210 l
0.6300 0.2213 l
0.6310 0.2217 l
0.6320 0.2221 l
0.6330 0.2224 l
0.6340 0.2228 l
0.6350 0.2232 l
0.6360 0.2235 l
0.6370 0.2239 l
0.6380 0.2243 l
0.6390 0.2246 l
0.6400 0.2250 l
0.6410 0.2254 l
0.6420 0.2258 l
0.6430 0.2261 l
0.6440 0.2265 l
0.6450 0.2269 l
0.6460 0.2273 l
0.6470 0.2276 l
0.6480 0.2280 l
0.6490 0.2284 l
0.6500 0.2288 l
0.6510 0.2292 l
0.6520 0.2295 l
0.6530 0.2299 l
0.6540 0.2303 l
0.6550 0.2307 l
0.6560 0.2311 l
0.6570 0.2315 l
0.6580 0.2318 l
0.6590 0.2322 l
0.6600 0.2326 l
0.6610 0.2330 l
0.6620 0.2334 l
0.6630 0.2338 l
0.6640 0.2342 l
0.6650 0.2346 l
0.6660 0.2350 l
0.6670 0.2354 l
0.6680 0.2358 l
0.6690 0.2362 l
0.6700 0.2366 l
0.6710 0.2370 l
0.6720 0.2374 l
0.6730 0.2378 l
0.6740 0.2382 l
0.6750 0.2386 l
0.6760 0.2390 l
0.6770 0.2394 l
0.6780 0.2398 l
0.6790 0.2402 l
0.6800 0.2406 l
0.6810 0.2410 l
0.6820 0.2414 l
0.6830 0.2418 l
0.6840 0.2422 l
0.6850 0.2426 l
0.6860 0.2430 l
0.6870 0.2434 l
0.6880 0.2439 l
0.6890 0.2443 l
0.6900 0.2447 l
0.6910 0.2451 l
0.6920 0.2455 l
0.6930 0.2459 l
0.6940 0.2463 l
0.6950 0.2468 l
0.6960 0.2472 l
0.6970 0.2476 l
0.6980 0.2480 l
0.6990 0.2484 l
0.7000 0.2489 l
0.7010 0.2493 l
0.7020 0.2497 l
0.7030 0.2501 l
0.7040 0.2506 l
0.7050 0.2510 l
0.7060 0.2514 l
0.7070 0.2519 l
0.7080 0.2523 l
0.7090 0.2527 l
0.7100 0.2531 l
0.7110 0.2536 l
0.7120 0.2540 l
0.7130 0.2544 l
0.7140 0.2549 l
0.7150 0.2553 l
0.7160 0.2557 l
0.7170 0.2562 l
0.7180 0.2566 l
0.7190 0.2571 l
0.7200 0.2575 l
0.7210 0.2579 l
0.7220 0.2584 l
0.7230 0.2588 l
0.7240 0.2593 l
0.7250 0.2597 l
0.7260 0.2601 l
0.7270 0.2606 l
0.7280 0.2610 l
0.7290 0.2615 l
0.7300 0.2619 l
0.7310 0.2624 l
0.7320 0.2628 l
0.7330 0.2633 l
0.7340 0.2637 l
0.7350 0.2642 l
0.7360 0.2646 l
0.7370 0.2651 l
0.7380 0.2655 l
0.7390 0.2660 l
0.7400 0.2664 l
0.7410 0.2669 l
0.7420 0.2674 l
0.7430 0.2678 l
0.7440 0.2683 l
0.7450 0.2687 l
0.7460 0.2692 l
0.7470 0.2697 l
0.7480 0.2701 l
0.7490 0.2706 l
0.7500 0.2710 l
0.7510 0.2715 l
0.7520 0.2720 l
0.7530 0.2724 l
0.7540 0.2729 l
0.7550 0.2734 l
0.7560 0.2738 l
0.7570 0.2743 l
0.7580 0.2748 l
0.7590 0.2752 l
0.7600 0.2757 l
0.7610 0.2762 l
0.7620 0.2767 l
0.7630 0.2771 l
0.7640 0.2776 l
0.7650 0.2781 l
0.7660 0.2785 l
0.7670 0.2790 l
0.7680 0.2795 l
0.7690 0.2800 l
0.7700 0.2805 l
0.7710 0.2809 l
0.7720 0.2814 l
0.7730 0.2819 l
0.7740 0.2824 l
0.7750 0.2829 l
0.7760 0.2833 l
0.7770 0.2838 l
0.7780 0.2843 l
0.7790 0.2848 l
0.7800 0.2853 l
0.7810 0.2858 l
0.7820 0.2863 l
0.7830 0.2867 l
0.7840 0.2872 l
0.7850 0.2877 l
0.7860 0.2882 l
0.7870 0.2887 l
0.7880 0.2892 l
0.7890 0.2897 l
0.7900 0.2902 l
0.7910 0.2907 l
0.7920 0.2912 l
0.7930 0.2917 l
0.7940 0.2922 l
0.7950 0.2927 l
0.7960 0.2932 l
0.7970 0.2937 l
0.7980 0.2942 l
0.7990 0.2947 l
0.8000 0.2952 l
0.8010 0.2957 l
0.8020 0.2962 l
0.8030 0.2967 l
0.8040 0.2972 l
0.8050 0.2977 l
0.8060 0.2982 l
0.8070 0.2987 l
0.8080 0.2992 l
0.8090 0.2997 l
0.8100 0.3002 l
0.8110 0.3007 l
0.8120 0.3012 l
0.8130 0.3017 l
0.8140 0.3023 l
0.8150 0.3028 l
0.8160 0.3033 l
0.8170 0.3038 l
0.8180 0.3043 l
0.8190 0.3048 l
0.8200 0.3053 l
0.8210 0.3059 l
0.8220 0.3064 l
0.8230 0.3069 l
0.8240 0.3074 l
0.8250 0.3079 l
0.8260 0.3084 l
0.8270 0.3090 l
0.8280 0.3095 l
0.8290 0.3100 l
0.8300 0.3105 l
0.8310 0.3111 l
0.8320 0.3116 l
0.8330 0.3121 l
0.8340 0.3126 l
0.8350 0.3132 l
0.8360 0.3137 l
0.8370 0.3142 l
0.8380 0.3147 l
0.8390 0.3153 l
0.8400 0.3158 l
0.8410 0.3163 l
0.8420 0.3169 l
0.8430 0.3174 l
0.8440 0.3179 l
0.8450 0.3185 l
0.8460 0.3190 l
0.8470 0.3195 l
0.8480 0.3201 l
0.8490 0.3206 l
0.8500 0.3211 l
0.8510 0.3217 l
0.8520 0.3222 l
0.8530 0.3228 l
0.8540 0.3233 l
0.8550 0.3238 l
0.8560 0.3244 l
0.8570 0.3249 l
0.8580 0.3255 l
0.8590 0.3260 l
0.8600 0.3266 l
0.8610 0.3271 l
0.8620 0.3277 l
0.8630 0.3282 l
0.8640 0.3287 l
0.8650 0.3293 l
0.8660 0.3298 l
0.8670 0.3304 l
0.8680 0.3309 l
0.8690 0.3315 l
0.8700 0.3320 l
0.8710 0.3326 l
0.8720 0.3332 l
0.8730 0.3337 l
0.8740 0.3343 l
0.8750 0.3348 l
0.8760 0.3354 l
0.8770 0.3359 l
0.8780 0.3365 l
0.8790 0.3370 l
0.8800 0.3376 l
0.8810 0.3382 l
0.8820 0.3387 l
0.8830 0.3393 l
0.8840 0.3398 l
0.8850 0.3404 l
0.8860 0.3410 l
0.8870 0.3415 l
0.8880 0.3421 l
0.8890 0.3427 l
0.8900 0.3432 l
0.8910 0.3438 l
0.8920 0.3444 l
0.8930 0.3449 l
0.8940 0.3455 l
0.8950 0.3461 l
0.8960 0.3466 l
0.8970 0.3472 l
0.8980 0.3478 l
0.8990 0.3483 l
0.9000 0.3489 l
0.9010 0.3495 l
0.9020 0.3501 l
0.9030 0.3506 l
0.9040 0.3512 l
0.9050 0.3518 l
0.9060 0.3524 l
0.9070 0.3529 l
0.9080 0.3535 l
0.9090 0.3541 l
0.9100 0.3547 l
0.9110 0.3553 l
0.9120 0.3558 l
0.9130 0.3564 l
0.9140 0.3570 l
0.9150 0.3576 l
0.9160 0.3582 l
0.9170 0.3587 l
0.9180 0.3593 l
0.9190 0.3599 l
0.9200 0.3605 l
0.9210 0.3611 l
0.9220 0.3617 l
0.9230 0.3623 l
0.9240 0.3629 l
0.9250 0.3634 l
0.9260 0.3640 l
0.9270 0.3646 l
0.9280 0.3652 l
0.9290 0.3658 l
0.9300 0.3664 l
0.9310 0.3670 l
0.9320 0.3676 l
0.9330 0.3682 l
0.9340 0.3688 l
0.9350 0.3694 l
0.9360 0.3700 l
0.9370 0.3706 l
0.9380 0.3712 l
0.9390 0.3718 l
0.9400 0.3724 l
0.9410 0.3730 l
0.9420 0.3736 l
0.9430 0.3742 l
0.9440 0.3748 l
0.9450 0.3754 l
0.9460 0.3760 l
0.9470 0.3766 l
0.9480 0.3772 l
0.9490 0.3778 l
0.9500 0.3784 l
0.9510 0.3790 l
0.9520 0.3796 l
0.9530 0.3802 l
0.9540 0.3808 l
0.9550 0.3814 l
0.9560 0.3820 l
0.9570 0.3826 l
0.9580 0.3833 l
0.9590 0.3839 l
0.9600 0.3845 l
0.9610 0.3851 l
0.9620 0.3857 l
0.9630 0.3863 l
0.9640 0.3869 l
0.9650 0.3876 l
0.9660 0.3882 l
0.9670 0.3888 l
0.9680 0.3894 l
0.9690 0.3900 l
0.9700 0.3906 l
0.9710 0.3913 l
0.9720 0.3919 l
0.9730 0.3925 l
0.9740 0.3931 l
0.9750 0.3937 l
0.9760 0.3944 l
0.9770 0.3950 l
0.9780 0.3956 l
0.9790 0.3962 l
0.9800 0.3969 l
0.9810 0.3975 l
0.9820 0.3981 l
0.9830 0.3987 l
0.9840 0.3994 l
0.9850 0.4000 l
0.9860 0.4006 l
0.9870 0.4013 l
0.9880 0.4019 l
0.9890 0.4025 l
0.9900 0.4031 l
0.9910 0.4038 l
0.9920 0.4044 l
0.9930 0.4050 l
0.9940 0.4057 l
0.9950 0.4063 l
0.9960 0.4070 l
0.9970 0.4076 l
0.9980 0.4082 l
0.9990 0.4089 l
1.0000 0.4095 l
1.0010 0.4101 l
1.0020 0.4108 l
1.0030 0.4114 l
1.0040 0.4121 l
1.0050 0.4127 l
1.0060 0.4133 l
1.0070 0.4140 l
1.0080 0.4146 l
1.0090 0.4153 l
1.0100 0.4159 l
1.0110 0.4166 l
1.0120 0.4172 l
1.0130 0.4179 l
1.0140 0.4185 l
1.0150 0.4191 l
1.0160 0.4198 l
1.0170 0.4204 l
1.0180 0.4211 l
1.0190 0.4217 l
1.0200 0.4224 l
1.0210 0.4230 l
1.0220 0.4237 l
1.0230 0.4243 l
1.0240 0.4250 l
1.0250 0.4257 l
1.0260 0.4263 l
1.0270 0.4270 l
1.0280 0.4276 l
1.0290 0.4283 l
1.0300 0.4289 l
1.0310 0.4296 l
1.0320 0.4302 l
1.0330 0.4309 l
1.0340 0.4316 l
1.0350 0.4322 l
1.0360 0.4329 l
1.0370 0.4335 l
1.0380 0.4342 l
1.0390 0.4349 l
1.0400 0.4355 l
1.0410 0.4362 l
1.0420 0.4369 l
1.0430 0.4375 l
1.0440 0.4382 l
1.0450 0.4389 l
1.0460 0.4395 l
1.0470 0.4402 l
1.0480 0.4409 l
1.0490 0.4415 l
1.0500 0.4422 l
1.0510 0.4429 l
1.0520 0.4435 l
1.0530 0.4442 l
1.0540 0.4449 l
1.0550 0.4455 l
1.0560 0.4462 l
1.0570 0.4469 l
1.0580 0.4476 l
1.0590 0.4482 l
1.0600 0.4489 l
1.0610 0.4496 l
1.0620 0.4503 l
1.0630 0.4509 l
1.0640 0.4516 l
1.0650 0.4523 l
1.0660 0.4530 l
1.0670 0.4537 l
1.0680 0.4543 l
1.0690 0.4550 l
1.0700 0.4557 l
1.0710 0.4564 l
1.0720 0.4571 l
1.0730 0.4577 l
1.0740 0.4584 l
1.0750 0.4591 l
1.0760 0.4598 l
1.0770 0.4605 l
1.0780 0.4612 l
1.0790 0.4619 l
1.0800 0.4625 l
1.0810 0.4632 l
1.0820 0.4639 l
1.0830 0.4646 l
1.0840 0.4653 l
1.0850 0.4660 l
1.0860 0.4667 l
1.0870 0.4674 l
1.0880 0.4681 l
1.0890 0.4687 l
1.0900 0.4694 l
1.0910 0.4701 l
1.0920 0.4708 l
1.0930 0.4715 l
1.0940 0.4722 l
1.0950 0.4729 l
1.0960 0.4736 l
1.0970 0.4743 l
1.0980 0.4750 l
1.0990 0.4757 l
1.1000 0.4764 l
1.1010 0.4771 l
1.1020 0.4778 l
1.1030 0.4785 l
1.1040 0.4792 l
1.1050 0.4799 l
1.1060 0.4806 l
1.1070 0.4813 l
1.1080 0.4820 l
1.1090 0.4827 l
1.1100 0.4834 l
1.1110 0.4841 l
1.1120 0.4848 l
1.1130 0.4855 l
1.1140 0.4862 l
1.1150 0.4870 l
1.1160 0.4877 l
1.1170 0.4884 l
1.1180 0.4891 l
1.1190 0.4898 l
1.1200 0.4905 l
1.1210 0.4912 l
1.1220 0.4919 l
1.1230 0.4926 l
1.1240 0.4934 l
1.1250 0.4941 l
1.1260 0.4948 l
1.1270 0.4955 l
1.1280 0.4962 l
1.1290 0.4969 l
1.1300 0.4976 l
1.1310 0.4984 l
1.1320 0.4991 l
1.1330 0.4998 l
1.1340 0.5005 l
1.1350 0.5012 l
1.1360 0.5020 l
1.1370 0.5027 l
1.1380 0.5034 l
1.1390 0.5041 l
1.1400 0.5048 l
1.1410 0.5056 l
1.1420 0.5063 l
1.1430 0.5070 l
1.1440 0.5077 l
1.1450 0.5085 l
1.1460 0.5092 l
1.1470 0.5099 l
1.1480 0.5106 l
1.1490 0.5114 l
1.1500 0.5121 l
1.1501 0.5122 l
s
[/DeviceRGB] SCS
Color2 SC
n
0.1510 0.1955 m
0.1520 0.1963 l
0.1530 0.1969 l
0.1540 0.1974 l
0.1550 0.1979 l
0.1560 0.1982 l
0.1570 0.1986 l
0.1580 0.1989 l
0.1590 0.1992 l
0.1600 0.1995 l
0.1610 0.1998 l
0.1620 0.2001 l
0.1630 0.2003 l
0.1640 0.2006 l
0.1650 0.2008 l
0.1660 0.2010 l
0.1670 0.2013 l
0.1680 0.2015 l
0.1690 0.2017 l
0.1700 0.2019 l
0.1710 0.2021 l
0.1720 0.2023 l
0.1730 0.2025 l
0.1740 0.2027 l
0.1750 0.2029 l
0.1760 0.2031 l
0.1770 0.2033 l
0.1780 0.2035 l
0.1790 0.2037 l
0.1800 0.2039 l
0.1810 0.2041 l
0.1820 0.2043 l
0.1830 0.2045 l
0.1840 0.2046 l
0.1850 0.2048 l
0.1860 0.2050 l
0.1870 0.2052 l
0.1880 0.2054 l
0.1890 0.2056 l
0.1900 0.2058 l
0.1910 0.2059 l
0.1920 0.2061 l
0.1930 0.2063 l
0.1940 0.2065 l
0.1950 0.2067 l
0.1960 0.2069 l
0.1970 0.2071 l
0.1980 0.2072 l
0.1990 0.2074 l
0.2000 0.2076 l
0.2010 0.2078 l
0.2020 0.2080 l
0.2030 0.2082 l
0.2040 0.2084 l
0.2050 0.2086 l
0.2060 0.2088 l
0.2070 0.2089 l
0.2080 0.2091 l
0.2090 0.2093 l
0.2100 0.2095 l
0.2110 0.2097 l
0.2120 0.2099 l
0.2130 0.2101 l
0.2140 0.2103 l
0.2150 0.2105 l
0.2160 0.2107 l
0.2170 0.2109 l
0.2180 0.2111 l
0.2190 0.2113 l
0.2200 0.2115 l
0.2210 0.2117 l
0.2220 0.2119 l
0.2230 0.2120 l
0.2240 0.2122 l
0.2250 0.2124 l
0.2260 0.2127 l
0.2270 0.2129 l
0.2280 0.2131 l
0.2290 0.2133 l
0.2300 0.2135 l
0.2310 0.2137 l
0.2320 0.2139 l
0.2330 0.2141 l
0.2340 0.2143 l
0.2350 0.2145 l
0.2360 0.2147 l
0.2370 0.2149 l
0.2380 0.2151 l
0.2390 0.2153 l
0.2400 0.2155 l
0.2410 0.2157 l
0.2420 0.2160 l
0.2430 0.2162 l
0.2440 0.2164 l
0.2450 0.2166 l
0.2460 0.2168 l
0.2470 0.2170 l
0.2480 0.2172 l
0.2490 0.2175 l
0.2500 0.2177 l
0.2510 0.2179 l
0.2520 0.2181 l
0.2530 0.2183 l
0.2540 0.2186 l
0.2550 0.2188 l
0.2560 0.2190 l
0.2570 0.2192 l
0.2580 0.2195 l
0.2590 0.2197 l
0.2600 0.2199 l
0.2610 0.2201 l
0.2620 0.2204 l
0.2630 0.2206 l
0.2640 0.2208 l
0.2650 0.2210 l
0.2660 0.2213 l
0.2670 0.2215 l
0.2680 0.2217 l
0.2690 0.2220 l
0.2700 0.2222 l
0.2710 0.2224 l
0.2720 0.2227 l
0.2730 0.2229 l
0.2740 0.2231 l
0.2750 0.2234 l
0.2760 0.2236 l
0.2770 0.2239 l
0.2780 0.2241 l
0.2790 0.2243 l
0.2800 0.2246 l
0.2810 0.2248 l
0.2820 0.2251 l
0.2830 0.2253 l
0.2840 0.2255 l
0.2850 0.2258 l
0.2860 0.2260 l
0.2870 0.2263 l
0.2880 0.2265 l
0.2890 0.2268 l
0.2900 0.2270 l
0.2910 0.2273 l
0.2920 0.2275 l
0.2930 0.2278 l
0.2940 0.2280 l
0.2950 0.2283 l
0.2960 0.2285 l
0.2970 0.2288 l
0.2980 0.2290 l
0.2990 0.2293 l
0.3000 0.2295 l
0.3010 0.2298 l
0.3020 0.2300 l
0.3030 0.2303 l
0.3040 0.2306 l
0.3050 0.2308 l
0.3060 0.2311 l
0.3070 0.2313 l
0.3080 0.2316 l
0.3090 0.2319 l
0.3100 0.2321 l
0.3110 0.2324 l
0.3120 0.2326 l
0.3130 0.2329 l
0.3140 0.2332 l
0.3150 0.2334 l
0.3160 0.2337 l
0.3170 0.2340 l
0.3180 0.2342 l
0.3190 0.2345 l
0.3200 0.2348 l
0.3210 0.2350 l
0.3220 0.2353 l
0.3230 0.2356 l
0.3240 0.2359 l
0.3250 0.2361 l
0.3260 0.2364 l
0.3270 0.2367 l
0.3280 0.2370 l
0.3290 0.2372 l
0.3300 0.2375 l
0.3310 0.2378 l
0.3320 0.2381 l
0.3330 0.2383 l
0.3340 0.2386 l
0.3350 0.2389 l
0.3360 0.2392 l
0.3370 0.2395 l
0.3380 0.2397 l
0.3390 0.2400 l
0.3400 0.2403 l
0.3410 0.2406 l
0.3420 0.2409 l
0.3430 0.2412 l
0.3440 0.2414 l
0.3450 0.2417 l
0.3460 0.2420 l
0.3470 0.2423 l
0.3480 0.2426 l
0.3490 0.2429 l
0.3500 0.2432 l
0.3510 0.2435 l
0.3520 0.2438 l
0.3530 0.2440 l
0.3540 0.2443 l
0.3550 0.2446 l
0.3560 0.2449 l
0.3570 0.2452 l
0.3580 0.2455 l
0.3590 0.2458 l
0.3600 0.2461 l
0.3610 0.2464 l
0.3620 0.2467 l
0.3630 0.2470 l
0.3640 0.2473 l
0.3650 0.2476 l
0.3660 0.2479 l
0.3670 0.2482 l
0.3680 0.2485 l
0.3690 0.2488 l
0.3700 0.2491 l
0.3710 0.2494 l
0.3720 0.2497 l
0.3730 0.2500 l
0.3740 0.2503 l
0.3750 0.2506 l
0.3760 0.2509 l
0.3770 0.2512 l
0.3780 0.2515 l
0.3790 0.2518 l
0.3800 0.2522 l
0.3810 0.2525 l
0.3820 0.2528 l
0.3830 0.2531 l
0.3840 0.2534 l
0.3850 0.2537 l
0.3860 0.2540 l
0.3870 0.2543 l
0.3880 0.2546 l
0.3890 0.2550 l
0.3900 0.2553 l
0.3910 0.2556 l
0.3920 0.2559 l
0.3930 0.2562 l
0.3940 0.2565 l
0.3950 0.2569 l
0.3960 0.2572 l
0.3970 0.2575 l
0.3980 0.2578 l
0.3990 0.2581 l
0.4000 0.2585 l
0.4010 0.2588 l
0.4020 0.2591 l
0.4030 0.2594 l
0.4040 0.2597 l
0.4050 0.2601 l
0.4060 0.2604 l
0.4070 0.2607 l
0.4080 0.2610 l
0.4090 0.2614 l
0.4100 0.2617 l
0.4110 0.2620 l
0.4120 0.2624 l
0.4130 0.2627 l
0.4140 0.2630 l
0.4150 0.2633 l
0.4160 0.2637 l
0.4170 0.2640 l
0.4180 0.2643 l
0.4190 0.2647 l
0.4200 0.2650 l
0.4210 0.2653 l
0.4220 0.2657 l
0.4230 0.2660 l
0.4240 0.2663 l
0.4250 0.2667 l
0.4260 0.2670 l
0.4270 0.2674 l
0.4280 0.2677 l
0.4290 0.2680 l
0.4300 0.2684 l
0.4310 0.2687 l
0.4320 0.2690 l
0.4330 0.2694 l
0.4340 0.2697 l
0.4350 0.2701 l
0.4360 0.2704 l
0.4370 0.2708 l
0.4380 0.2711 l
0.4390 0.2714 l
0.4400 0.2718 l
0.4410 0.2721 l
0.4420 0.2725 l
0.4430 0.2728 l
0.4440 0.2732 l
0.4450 0.2735 l
0.4460 0.2739 l
0.4470 0.2742 l
0.4480 0.2746 l
0.4490 0.2749 l
0.4500 0.2753 l
0.4510 0.2756 l
0.4520 0.2760 l
0.4530 0.2763 l
0.4540 0.2767 l
0.4550 0.2770 l
0.4560 0.2774 l
0.4570 0.2777 l
0.4580 0.2781 l
0.4590 0.2784 l
0.4600 0.2788 l
0.4610 0.2791 l
0.4620 0.2795 l
0.4630 0.2799 l
0.4640 0.2802 l
0.4650 0.2806 l
0.4660 0.2809 l
0.4670 0.2813 l
0.4680 0.2817 l
0.4690 0.2820 l
0.4700 0.2824 l
0.4710 0.2827 l
0.4720 0.2831 l
0.4730 0.2835 l
0.4740 0.2838 l
0.4750 0.2842 l
0.4760 0.2846 l
0.4770 0.2849 l
0.4780 0.2853 l
0.4790 0.2857 l
0.4800 0.2860 l
0.4810 0.2864 l
0.4820 0.2868 l
0.4830 0.2871 l
0.4840 0.2875 l
0.4850 0.2879 l
0.4860 0.2882 l
0.4870 0.2886 l
0.4880 0.2890 l
0.4890 0.2893 l
0.4900 0.2897 l
0.4910 0.2901 l
0.4920 0.2905 l
0.4930 0.2908 l
0.4940 0.2912 l
0.4950 0.2916 l
0.4960 0.2920 l
0.4970 0.2923 l
0.4980 0.2927 l
0.4990 0.2931 l
0.5000 0.2935 l
0.5010 0.2938 l
0.5020 0.2942 l
0.5030 0.2946 l
0.5040 0.2950 l
0.5050 0.2953 l
0.5060 0.2957 l
0.5070 0.2961 l
0.5080 0.2965 l
0.5090 0.2969 l
0.5100 0.2973 l
0.5110 0.2976 l
0.5120 0.2980 l
0.5130 0.2984 l
0.5140 0.2988 l
0.5150 0.2992 l
0.5160 0.2996 l
0.5170 0.2999 l
0.5180 0.3003 l
0.5190 0.3007 l
0.5200 0.3011 l
0.5210 0.3015 l
0.5220 0.3019 l
0.5230 0.3023 l
0.5240 0.3027 l
0.5250 0.3030 l
0.5260 0.3034 l
0.5270 0.3038 l
0.5280 0.3042 l
0.5290 0.3046 l
0.5300 0.3050 l
0.5310 0.3054 l
0.5320 0.3058 l
0.5330 0.3062 l
0.5340 0.3066 l
0.5350 0.3070 l
0.5360 0.3074 l
0.5370 0.3078 l
0.5380 0.3082 l
0.5390 0.3086 l
0.5400 0.3089 l
0.5410 0.3093 l
0.5420 0.3097 l
0.5430 0.3101 l
0.5440 0.3105 l
0.5450 0.3109 l
0.5460 0.3113 l
0.5470 0.3117 l
0.5480 0.3121 l
0.5490 0.3125 l
0.5500 0.3129 l
0.5510 0.3133 l
0.5520 0.3138 l
0.5530 0.3142 l
0.5540 0.3146 l
0.5550 0.3150 l
0.5560 0.3154 l
0.5570 0.3158 l
0.5580 0.3162 l
0.5590 0.3166 l
0.5600 0.3170 l
0.5610 0.3174 l
0.5620 0.3178 l
0.5630 0.3182 l
0.5640 0.3186 l
0.5650 0.3190 l
0.5660 0.3194 l
0.5670 0.3199 l
0.5680 0.3203 l
0.5690 0.3207 l
0.5700 0.3211 l
0.5710 0.3215 l
0.5720 0.3219 l
0.5730 0.3223 l
0.5740 0.3227 l
0.5750 0.3231 l
0.5760 0.3236 l
0.5770 0.3240 l
0.5780 0.3244 l
0.5790 0.3248 l
0.5800 0.3252 l
0.5810 0.3256 l
0.5820 0.3261 l
0.5830 0.3265 l
0.5840 0.3269 l
0.5850 0.3273 l
0.5860 0.3277 l
0.5870 0.3281 l
0.5880 0.3286 l
0.5890 0.3290 l
0.5900 0.3294 l
0.5910 0.3298 l
0.5920 0.3303 l
0.5930 0.3307 l
0.5940 0.3311 l
0.5950 0.3315 l
0.5960 0.3319 l
0.5970 0.3324 l
0.5980 0.3328 l
0.5990 0.3332 l
0.6000 0.3336 l
0.6010 0.3341 l
0.6020 0.3345 l
0.6030 0.3349 l
0.6040 0.3353 l
0.6050 0.3358 l
0.6060 0.3362 l
0.6070 0.3366 l
0.6080 0.3371 l
0.6090 0.3375 l
0.6100 0.3379 l
0.6110 0.3383 l
0.6120 0.3388 l
0.6130 0.3392 l
0.6140 0.3396 l
0.6150 0.3401 l
0.6160 0.3405 l
0.6170 0.3409 l
0.6180 0.3414 l
0.6190 0.3418 l
0.6200 0.3422 l
0.6210 0.3427 l
0.6220 0.3431 l
0.6230 0.3435 l
0.6240 0.3440 l
0.6250 0.3444 l
0.6260 0.3449 l
0.6270 0.3453 l
0.6280 0.3457 l
0.6290 0.3462 l
0.6300 0.3466 l
0.6310 0.3470 l
0.6320 0.3475 l
0.6330 0.3479 l
0.6340 0.3484 l
0.6350 0.3488 l
0.6360 0.3492 l
0.6370 0.3497 l
0.6380 0.3501 l
0.6390 0.3506 l
0.6400 0.3510 l
0.6410 0.3515 l
0.6420 0.3519 l
0.6430 0.3523 l
0.6440 0.3528 l
0.6450 0.3532 l
0.6460 0.3537 l
0.6470 0.3541 l
0.6480 0.3546 l
0.6490 0.3550 l
0.6500 0.3555 l
0.6510 0.3559 l
0.6520 0.3564 l
0.6530 0.3568 l
0.6540 0.3573 l
0.6550 0.3577 l
0.6560 0.3582 l
0.6570 0.3586 l
0.6580 0.3591 l
0.6590 0.3595 l
0.6600 0.3600 l
0.6610 0.3604 l
0.6620 0.3609 l
0.6630 0.3613 l
0.6640 0.3618 l
0.6650 0.3622 l
0.6660 0.3627 l
0.6670 0.3631 l
0.6680 0.3636 l
0.6690 0.3640 l
0.6700 0.3645 l
0.6710 0.3650 l
0.6720 0.3654 l
0.6730 0.3659 l
0.6740 0.3663 l
0.6750 0.3668 l
0.6760 0.3672 l
0.6770 0.3677 l
0.6780 0.3682 l
0.6790 0.3686 l
0.6800 0.3691 l
0.6810 0.3695 l
0.6820 0.3700 l
0.6830 0.3705 l
0.6840 0.3709 l
0.6850 0.3714 l
0.6860 0.3719 l
0.6870 0.3723 l
0.6880 0.3728 l
0.6890 0.3732 l
0.6900 0.3737 l
0.6910 0.3742 l
0.6920 0.3746 l
0.6930 0.3751 l
0.6940 0.3756 l
0.6950 0.3760 l
0.6960 0.3765 l
0.6970 0.3770 l
0.6980 0.3774 l
0.6990 0.3779 l
0.7000 0.3784 l
0.7010 0.3788 l
0.7020 0.3793 l
0.7030 0.3798 l
0.7040 0.3802 l
0.7050 0.3807 l
0.7060 0.3812 l
0.7070 0.3817 l
0.7080 0.3821 l
0.7090 0.3826 l
0.7100 0.3831 l
0.7110 0.3835 l
0.7120 0.3840 l
0.7130 0.3845 l
0.7140 0.3850 l
0.7150 0.3854 l
0.7160 0.3859 l
0.7170 0.3864 l
0.7180 0.3869 l
0.7190 0.3873 l
0.7200 0.3878 l
0.7210 0.3883 l
0.7220 0.3888 l
0.7230 0.3892 l
0.7240 0.3897 l
0.7250 0.3902 l
0.7260 0.3907 l
0.7270 0.3912 l
0.7280 0.3916 l
0.7290 0.3921 l
0.7300 0.3926 l
0.7310 0.3931 l
0.7320 0.3936 l
0.7330 0.3940 l
0.7340 0.3945 l
0.7350 0.3950 l
0.7360 0.3955 l
0.7370 0.3960 l
0.7380 0.3965 l
0.7390 0.3969 l
0.7400 0.3974 l
0.7410 0.3979 l
0.7420 0.3984 l
0.7430 0.3989 l
0.7440 0.3994 l
0.7450 0.3999 l
0.7460 0.4003 l
0.7470 0.4008 l
0.7480 0.4013 l
0.7490 0.4018 l
0.7500 0.4023 l
0.7510 0.4028 l
0.7520 0.4033 l
0.7530 0.4038 l
0.7540 0.4042 l
0.7550 0.4047 l
0.7560 0.4052 l
0.7570 0.4057 l
0.7580 0.4062 l
0.7590 0.4067 l
0.7600 0.4072 l
0.7610 0.4077 l
0.7620 0.4082 l
0.7630 0.4087 l
0.7640 0.4092 l
0.7650 0.4097 l
0.7660 0.4101 l
0.7670 0.4106 l
0.7680 0.4111 l
0.7690 0.4116 l
0.7700 0.4121 l
0.7710 0.4126 l
0.7720 0.4131 l
0.7730 0.4136 l
0.7740 0.4141 l
0.7750 0.4146 l
0.7760 0.4151 l
0.7770 0.4156 l
0.7780 0.4161 l
0.7790 0.4166 l
0.7800 0.4171 l
0.7810 0.4176 l
0.7820 0.4181 l
0.7830 0.4186 l
0.7840 0.4191 l
0.7850 0.4196 l
0.7860 0.4201 l
0.7870 0.4206 l
0.7880 0.4211 l
0.7890 0.4216 l
0.7900 0.4221 l
0.7910 0.4226 l
0.7920 0.4231 l
0.7930 0.4236 l
0.7940 0.4241 l
0.7950 0.4246 l
0.7960 0.4251 l
0.7970 0.4257 l
0.7980 0.4262 l
0.7990 0.4267 l
0.8000 0.4272 l
0.8010 0.4277 l
0.8020 0.4282 l
0.8030 0.4287 l
0.8040 0.4292 l
0.8050 0.4297 l
0.8060 0.4302 l
0.8070 0.4307 l
0.8080 0.4312 l
0.8090 0.4318 l
0.8100 0.4323 l
0.8110 0.4328 l
0.8120 0.4333 l
0.8130 0.4338 l
0.8140 0.4343 l
0.8150 0.4348 l
0.8160 0.4353 l
0.8170 0.4358 l
0.8180 0.4364 l
0.8190 0.4369 l
0.8200 0.4374 l
0.8210 0.4379 l
0.8220 0.4384 l
0.8230 0.4389 l
0.8240 0.4394 l
0.8250 0.4400 l
0.8260 0.4405 l
0.8270 0.4410 l
0.8280 0.4415 l
0.8290 0.4420 l
0.8300 0.4425 l
0.8310 0.4431 l
0.8320 0.4436 l
0.8330 0.4441 l
0.8340 0.4446 l
0.8350 0.4451 l
0.8360 0.4457 l
0.8370 0.4462 l
0.8380 0.4467 l
0.8390 0.4472 l
0.8400 0.4477 l
0.8410 0.4483 l
0.8420 0.4488 l
0.8430 0.4493 l
0.8440 0.4498 l
0.8450 0.4504 l
0.8460 0.4509 l
0.8470 0.4514 l
0.8480 0.4519 l
0.8490 0.4525 l
0.8500 0.4530 l
0.8510 0.4535 l
0.8520 0.4540 l
0.8530 0.4546 l
0.8540 0.4551 l
0.8550 0.4556 l
0.8560 0.4561 l
0.8570 0.4567 l
0.8580 0.4572 l
0.8590 0.4577 l
0.8600 0.4582 l
0.8610 0.4588 l
0.8620 0.4593 l
0.8630 0.4598 l
0.8640 0.4604 l
0.8650 0.4609 l
0.8660 0.4614 l
0.8670 0.4620 l
0.8680 0.4625 l
0.8690 0.4630 l
0.8700 0.4636 l
0.8710 0.4641 l
0.8720 0.4646 l
0.8730 0.4651 l
0.8740 0.4657 l
0.8750 0.4662 l
0.8760 0.4667 l
0.8770 0.4673 l
0.8780 0.4678 l
0.8790 0.4684 l
0.8800 0.4689 l
0.8810 0.4694 l
0.8820 0.4700 l
0.8830 0.4705 l
0.8840 0.4710 l
0.8850 0.4716 l
0.8860 0.4721 l
0.8870 0.4726 l
0.8880 0.4732 l
0.8890 0.4737 l
0.8900 0.4743 l
0.8910 0.4748 l
0.8920 0.4753 l
0.8930 0.4759 l
0.8940 0.4764 l
0.8950 0.4770 l
0.8960 0.4775 l
0.8970 0.4780 l
0.8980 0.4786 l
0.8990 0.4791 l
0.9000 0.4797 l
0.9010 0.4802 l
0.9020 0.4808 l
0.9030 0.4813 l
0.9040 0.4818 l
0.9050 0.4824 l
0.9060 0.4829 l
0.9070 0.4835 l
0.9080 0.4840 l
0.9090 0.4846 l
0.9100 0.4851 l
0.9110 0.4857 l
0.9120 0.4862 l
0.9130 0.4868 l
0.9140 0.4873 l
0.9150 0.4878 l
0.9160 0.4884 l
0.9170 0.4889 l
0.9180 0.4895 l
0.9190 0.4900 l
0.9200 0.4906 l
0.9210 0.4911 l
0.9220 0.4917 l
0.9230 0.4922 l
0.9240 0.4928 l
0.9250 0.4933 l
0.9260 0.4939 l
0.9270 0.4944 l
0.9280 0.4950 l
0.9290 0.4955 l
0.9300 0.4961 l
0.9310 0.4967 l
0.9320 0.4972 l
0.9330 0.4978 l
0.9340 0.4983 l
0.9350 0.4989 l
0.9360 0.4994 l
0.9370 0.5000 l
0.9380 0.5005 l
0.9390 0.5011 l
0.9400 0.5016 l
0.9410 0.5022 l
0.9420 0.5028 l
0.9430 0.5033 l
0.9440 0.5039 l
0.9450 0.5044 l
0.9460 0.5050 l
0.9470 0.5055 l
0.9480 0.5061 l
0.9490 0.5067 l
0.9500 0.5072 l
0.9510 0.5078 l
0.9520 0.5083 l
0.9530 0.5089 l
0.9540 0.5095 l
0.9550 0.5100 l
0.9560 0.5106 l
0.9570 0.5111 l
0.9580 0.5117 l
0.9590 0.5123 l
0.9600 0.5128 l
0.9610 0.5134 l
0.9620 0.5139 l
0.9630 0.5145 l
0.9640 0.5151 l
0.9650 0.5156 l
0.9660 0.5162 l
0.9670 0.5168 l
0.9680 0.5173 l
0.9690 0.5179 l
0.9700 0.5185 l
0.9710 0.5190 l
0.9720 0.5196 l
0.9730 0.5202 l
0.9740 0.5207 l
0.9750 0.5213 l
0.9760 0.5219 l
0.9770 0.5224 l
0.9780 0.5230 l
0.9790 0.5236 l
0.9800 0.5241 l
0.9810 0.5247 l
0.9820 0.5253 l
0.9830 0.5258 l
0.9840 0.5264 l
0.9850 0.5270 l
0.9860 0.5276 l
0.9870 0.5281 l
0.9880 0.5287 l
0.9890 0.5293 l
0.9900 0.5298 l
0.9910 0.5304 l
0.9920 0.5310 l
0.9930 0.5316 l
0.9940 0.5321 l
0.9950 0.5327 l
0.9960 0.5333 l
0.9970 0.5339 l
0.9980 0.5344 l
0.9990 0.5350 l
1.0000 0.5356 l
1.0010 0.5362 l
1.0020 0.5367 l
1.0030 0.5373 l
1.0040 0.5379 l
1.0050 0.5385 l
1.0060 0.5390 l
1.0070 0.5396 l
1.0080 0.5402 l
1.0090 0.5408 l
1.0100 0.5413 l
1.0110 0.5419 l
1.0120 0.5425 l
1.0130 0.5431 l
1.0140 0.5437 l
1.0150 0.5442 l
1.0160 0.5448 l
1.0170 0.5454 l
1.0180 0.5460 l
1.0190 0.5466 l
1.0200 0.5471 l
1.0210 0.5477 l
1.0220 0.5483 l
1.0230 0.5489 l
1.0240 0.5495 l
1.0250 0.5501 l
1.0260 0.5506 l
1.0270 0.5512 l
1.0280 0.5518 l
1.0290 0.5524 l
1.0300 0.5530 l
1.0310 0.5536 l
1.0320 0.5541 l
1.0330 0.5547 l
1.0340 0.5553 l
1.0350 0.5559 l
1.0360 0.5565 l
1.0370 0.5571 l
1.0380 0.5577 l
1.0390 0.5583 l
1.0400 0.5588 l
1.0410 0.5594 l
1.0420 0.5600 l
1.0430 0.5606 l
1.0440 0.5612 l
1.0450 0.5618 l
1.0460 0.5624 l
1.0470 0.5630 l
1.0480 0.5635 l
1.0490 0.5641 l
1.0500 0.5647 l
1.0510 0.5653 l
1.0520 0.5659 l
1.0530 0.5665 l
1.0540 0.5671 l
1.0550 0.5677 l
1.0560 0.5683 l
1.0570 0.5689 l
1.0580 0.5695 l
1.0590 0.5701 l
1.0600 0.5707 l
1.0610 0.5712 l
1.0620 0.5718 l
1.0630 0.5724 l
1.0640 0.5730 l
1.0650 0.5736 l
1.0660 0.5742 l
1.0670 0.5748 l
1.0680 0.5754 l
1.0690 0.5760 l
1.0700 0.5766 l
1.0710 0.5772 l
1.0720 0.5778 l
1.0730 0.5784 l
1.0740 0.5790 l
1.0750 0.5796 l
1.0760 0.5802 l
1.0770 0.5808 l
1.0780 0.5814 l
1.0790 0.5820 l
1.0800 0.5826 l
1.0810 0.5832 l
1.0820 0.5838 l
1.0830 0.5844 l
1.0840 0.5850 l
1.0850 0.5856 l
1.0860 0.5862 l
1.0870 0.5868 l
1.0880 0.5874 l
1.0890 0.5880 l
1.0900 0.5886 l
1.0910 0.5892 l
1.0920 0.5898 l
1.0930 0.5904 l
1.0940 0.5910 l
1.0950 0.5916 l
1.0960 0.5922 l
1.0970 0.5928 l
1.0980 0.5934 l
1.0990 0.5940 l
1.1000 0.5946 l
1.1010 0.5953 l
1.1020 0.5959 l
1.1030 0.5965 l
1.1040 0.5971 l
1.1050 0.5977 l
1.1060 0.5983 l
1.1070 0.5989 l
1.1080 0.5995 l
1.1090 0.6001 l
1.1100 0.6007 l
1.1110 0.6013 l
1.1120 0.6019 l
1.1130 0.6025 l
1.1140 0.6032 l
1.1150 0.6038 l
1.1160 0.6044 l
1.1170 0.6050 l
1.1180 0.6056 l
1.1190 0.6062 l
1.1200 0.6068 l
1.1210 0.6074 l
1.1220 0.6080 l
1.1230 0.6087 l
1.1240 0.6093 l
1.1250 0.6099 l
1.1260 0.6105 l
1.1270 0.6111 l
1.1280 0.6117 l
1.1290 0.6123 l
1.1300 0.6130 l
1.1310 0.6136 l
1.1320 0.6142 l
1.1330 0.6148 l
1.1340 0.6154 l
1.1350 0.6160 l
1.1360 0.6166 l
1.1370 0.6173 l
1.1380 0.6179 l
1.1390 0.6185 l
1.1400 0.6191 l
1.1410 0.6197 l
1.1420 0.6203 l
1.1430 0.6210 l
1.1440 0.6216 l
1.1450 0.6222 l
1.1460 0.6228 l
1.1470 0.6234 l
1.1480 0.6241 l
1.1490 0.6247 l
1.1500 0.6253 l
1.1501 0.6254 l
s
[/DeviceRGB] SCS
Color1 SC
[] 0 SD
0.0045 SLW
n
0.1500 0.1500 m
1.1500 0.1500 l
s
n
0.1500 0.8500 m
1.1500 0.8500 l
s
n
0.2500 0.1500 m
0.2500 0.1600 l
s
n
0.2500 0.8500 m
0.2500 0.8400 l
s
n
0.4500 0.1500 m
0.4500 0.1600 l
s
n
0.4500 0.8500 m
0.4500 0.8400 l
s
n
0.6500 0.1500 m
0.6500 0.1600 l
s
n
0.6500 0.8500 m
0.6500 0.8400 l
s
n
0.8500 0.1500 m
0.8500 0.1600 l
s
n
0.8500 0.8500 m
0.8500 0.8400 l
s
n
1.0500 0.1500 m
1.0500 0.1600 l
s
n
1.0500 0.8500 m
1.0500 0.8400 l
s
n
0.1500 0.1500 m
0.1500 0.1700 l
s
n
0.1500 0.8500 m
0.1500 0.8300 l
s
n
0.3500 0.1500 m
0.3500 0.1700 l
s
n
0.3500 0.8500 m
0.3500 0.8300 l
s
n
0.5500 0.1500 m
0.5500 0.1700 l
s
n
0.5500 0.8500 m
0.5500 0.8300 l
s
n
0.7500 0.1500 m
0.7500 0.1700 l
s
n
0.7500 0.8500 m
0.7500 0.8300 l
s
n
0.9500 0.1500 m
0.9500 0.1700 l
s
n
0.9500 0.8500 m
0.9500 0.8300 l
s
n
1.1500 0.1500 m
1.1500 0.1700 l
s
n
1.1500 0.8500 m
1.1500 0.8300 l
s
/Times-Roman findfont
dup length dict begin
 {1 index /FID ne {def} {pop pop} ifelse} forall
 /Encoding DefEncoding def
 currentdict
end
/Font0 exch definefont pop
/Font0 FFSF
0.1394 0.1094 m
GS
[0.0448 0.0000 0.0000 0.0448 0 0] CC
(0) show
GR
/Font0 FFSF
0.3225 0.1094 m
GS
[0.0448 0.0000 0.0000 0.0448 0 0] CC
(0.2) show
GR
/Font0 FFSF
0.5225 0.1094 m
GS
[0.0448 0.0000 0.0000 0.0448 0 0] CC
(0.4) show
GR
/Font0 FFSF
0.7227 0.1094 m
GS
[0.0448 0.0000 0.0000 0.0448 0 0] CC
(0.6) show
GR
/Font0 FFSF
0.9231 0.1094 m
GS
[0.0448 0.0000 0.0000 0.0448 0 0] CC
(0.8) show
GR
/Font0 FFSF
1.1412 0.1094 m
GS
[0.0448 0.0000 0.0000 0.0448 0 0] CC
(1) show
GR
/Times-Italic findfont
dup length dict begin
 {1 index /FID ne {def} {pop pop} ifelse} forall
 /Encoding DefEncoding def
 currentdict
end
/Font1 exch definefont pop
/Font1 FFSF
0.5735 0.0445 m
GS
[0.0504 0.0000 0.0000 0.0504 0 0] CC
(n) show
GR
/Font0 FFSF
0.5986 0.0445 m
GS
[0.0504 0.0000 0.0000 0.0504 0 0] CC
( [fm) show
GR
/Font0 FFSF
0.6841 0.0747 m
GS
[0.0356 0.0000 0.0000 0.0356 0 0] CC
(-3) show
GR
/Font0 FFSF
0.7139 0.0445 m
GS
[0.0504 0.0000 0.0000 0.0504 0 0] CC
(]) show
GR
n
0.1500 0.1500 m
0.1500 0.8500 l
s
n
1.1500 0.1500 m
1.1500 0.8500 l
s
n
0.1500 0.2484 m
0.1600 0.2484 l
s
n
1.1500 0.2484 m
1.1400 0.2484 l
s
n
0.1500 0.3578 m
0.1600 0.3578 l
s
n
1.1500 0.3578 m
1.1400 0.3578 l
s
n
0.1500 0.4672 m
0.1600 0.4672 l
s
n
1.1500 0.4672 m
1.1400 0.4672 l
s
n
0.1500 0.5766 m
0.1600 0.5766 l
s
n
1.1500 0.5766 m
1.1400 0.5766 l
s
n
0.1500 0.6859 m
0.1600 0.6859 l
s
n
1.1500 0.6859 m
1.1400 0.6859 l
s
n
0.1500 0.7953 m
0.1600 0.7953 l
s
n
1.1500 0.7953 m
1.1400 0.7953 l
s
n
0.1500 0.1938 m
0.1700 0.1938 l
s
n
1.1500 0.1938 m
1.1300 0.1938 l
s
n
0.1500 0.3031 m
0.1700 0.3031 l
s
n
1.1500 0.3031 m
1.1300 0.3031 l
s
n
0.1500 0.4125 m
0.1700 0.4125 l
s
n
1.1500 0.4125 m
1.1300 0.4125 l
s
n
0.1500 0.5219 m
0.1700 0.5219 l
s
n
1.1500 0.5219 m
1.1300 0.5219 l
s
n
0.1500 0.6312 m
0.1700 0.6312 l
s
n
1.1500 0.6312 m
1.1300 0.6312 l
s
n
0.1500 0.7406 m
0.1700 0.7406 l
s
n
1.1500 0.7406 m
1.1300 0.7406 l
s
n
0.1500 0.8500 m
0.1700 0.8500 l
s
n
1.1500 0.8500 m
1.1300 0.8500 l
s
/Font0 FFSF
0.1188 0.1788 m
GS
[0.0448 0.0000 0.0000 0.0448 0 0] CC
(0) show
GR
/Font0 FFSF
0.0965 0.2880 m
GS
[0.0448 0.0000 0.0000 0.0448 0 0] CC
(50) show
GR
/Font0 FFSF
0.0741 0.3976 m
GS
[0.0448 0.0000 0.0000 0.0448 0 0] CC
(100) show
GR
/Font0 FFSF
0.0741 0.5068 m
GS
[0.0448 0.0000 0.0000 0.0448 0 0] CC
(150) show
GR
/Font0 FFSF
0.0741 0.6163 m
GS
[0.0448 0.0000 0.0000 0.0448 0 0] CC
(200) show
GR
/Font0 FFSF
0.0741 0.7255 m
GS
[0.0448 0.0000 0.0000 0.0448 0 0] CC
(250) show
GR
/Font0 FFSF
0.0741 0.8351 m
GS
[0.0448 0.0000 0.0000 0.0448 0 0] CC
(300) show
GR
/Font0 FFSF
0.0563 0.3867 m
GS
[0.0000 0.0504 -0.0504 0.0000 0 0] CC
(E/A [MeV]) show
GR
[] 0 SD
0.0015 SLW
n
0.1500 0.1500 m
0.1500 0.8500 l
1.1500 0.8500 l
1.1500 0.1500 l
0.1500 0.1500 l
c
s
n
0.1500 0.8500 m
0.1500 0.5733 l
0.5232 0.5733 l
0.5232 0.8500 l
c
[/DeviceRGB] SCS
Color0 SC
fill
[/DeviceRGB] SCS
Color1 SC
[] 0 SD
0.0045 SLW
n
0.1500 0.8500 m
0.1500 0.5733 l
0.5232 0.5733 l
0.5232 0.8500 l
0.1500 0.8500 l
c
s
/Font0 FFSF
0.2223 0.8063 m
GS
[0.0498 0.0000 0.0000 0.0498 0 0] CC
(SNM  LYVA1) show
GR
[] 0 SD
0.0037 SLW
n
0.1623 0.8227 m
0.2023 0.8227 l
s
/Font0 FFSF
0.2223 0.7618 m
GS
[0.0498 0.0000 0.0000 0.0498 0 0] CC
(PNM  LYVA1) show
GR
[/DeviceRGB] SCS
Color2 SC
[] 0 SD
0.0045 SLW
n
0.1623 0.7784 m
0.2023 0.7784 l
s
/Font0 FFSF
[/DeviceRGB] SCS
Color1 SC
0.2223 0.7176 m
GS
[0.0498 0.0000 0.0000 0.0498 0 0] CC
(SNM  BBG) show
GR
n
0.1738 0.7256 m
0.1738 0.7426 l
0.1908 0.7426 l
0.1908 0.7256 l
c
GS
Color0 SRGB
fill
GR
[/Pattern /DeviceRGB] SCS
Color1 Pattern8 SC
fill
[/DeviceRGB] SCS
Color1 SC
[] 0 SD
0.0030 SLW
n
0.1738 0.7256 m
0.1738 0.7426 l
0.1908 0.7426 l
0.1908 0.7256 l
0.1738 0.7256 l
c
s
/Font0 FFSF
0.2223 0.6731 m
GS
[0.0498 0.0000 0.0000 0.0498 0 0] CC
(PNM  BBG) show
GR
n
0.1823 0.6896 0.0100 0.0100 0 360 EARC c
GS
Color0 SRGB
fill
GR
[/Pattern /DeviceRGB] SCS
Color2 Pattern8 SC
fill
[/DeviceRGB] SCS
Color2 SC
n 0.1823 0.6896 0.0100 0.0100 0 360 EARC s
/Font0 FFSF
[/DeviceRGB] SCS
Color1 SC
0.2223 0.6286 m
GS
[0.0498 0.0000 0.0000 0.0498 0 0] CC
(SNM  LNS) show
GR
[0.0187 0.0112 ] 0 SD
0.0037 SLW
n
0.1623 0.6451 m
0.2023 0.6451 l
s
/Font0 FFSF
0.2223 0.5841 m
GS
[0.0498 0.0000 0.0000 0.0498 0 0] CC
(PNM  LNS) show
GR
[/DeviceRGB] SCS
Color2 SC
n
0.1623 0.6006 m
0.2023 0.6006 l
s
[/DeviceRGB] SCS
Color1 SC
[] 0 SD
0.0015 SLW
n
0.3752 0.8497 m
0.3725 0.8458 l
s
/Font0 FFSF
1.0500 0.7700 m
GS
[0.0848 0.0000 0.0000 0.0848 0 0] CC
(a\)) show
GR
showpage
%%PageTrailer
%%Trailer
%%DocumentNeededResources: font Times-Roman
%%+ font Times-Italic
%%EOF
