%!PS-Adobe-3.0 EPSF-3.0
%%BoundingBox: (atend)
%%LanguageLevel: 2
%%Creator: Grace-5.1.21
%%CreationDate: Tue Jul  7 10:18:41 2015
%%DocumentData: Clean8Bit
%%Orientation: Portrait
%%Title: EsurAsnmCOMPARE.agr
%%For: pastorea
%%DocumentNeededResources: (atend)
%%EndComments
%%BeginProlog
/m {moveto} def
/l {lineto} def
/s {stroke} def
/n {newpath} def
/c {closepath} def
/RL {rlineto} def
/SLW {setlinewidth} def
/GS {gsave} def
/GR {grestore} def
/SC {setcolor} def
/SGRY {setgray} def
/SRGB {setrgbcolor} def
/SD {setdash} def
/SLC {setlinecap} def
/SLJ {setlinejoin} def
/SCS {setcolorspace} def
/FFSF {findfont setfont} def
/CC {concat} def
/PXL {n m 0 0 RL s} def
/Color0 {1.0000 1.0000 1.0000} def
/Color1 {0.0000 0.0000 0.0000} def
/Color2 {1.0000 0.0000 0.0000} def
/Color3 {0.0000 1.0000 0.0000} def
/Color4 {0.0000 0.0000 1.0000} def
/Color5 {1.0000 1.0000 0.0000} def
/Color6 {0.7373 0.5608 0.5608} def
/Color7 {0.8627 0.8627 0.8627} def
/Color8 {0.5804 0.0000 0.8275} def
/Color9 {0.0000 1.0000 1.0000} def
/Color10 {1.0000 0.0000 1.0000} def
/Color11 {1.0000 0.6471 0.0000} def
/Color12 {0.4471 0.1294 0.7373} def
/Color13 {0.4039 0.0275 0.2824} def
/Color14 {0.2510 0.8784 0.8157} def
/Color15 {0.0000 0.5451 0.0000} def
/Color16 {0.7529 0.7529 0.7529} def
/Color17 {0.5059 0.5059 0.5059} def
/Color18 {0.2588 0.2588 0.2588} def
/PTRN {
 /pat_bits exch def 
 <<
  /PaintType 2
  /PatternType 1 /TilingType 1
  /BBox[0 0 16 16]
  /XStep 16 /YStep 16
  /PaintProc {
   pop
   16 16 true [-1 0 0 -1 16 16] pat_bits imagemask
  }
 >>
 [0.0016 0 0 0.0016 0 0]
 makepattern
} def
/Pattern0 {<0000000000000000000000000000000000000000000000000000000000000000> PTRN} bind def
/Pattern1 {<ffffffffffffffffffffffffffffffffffffffffffffffffffffffffffffffff> PTRN} bind def
/Pattern2 {<eeeeffffbbbbffffeeeeffffbbbbffffeeeeffffbbbbffffeeeeffffbbbbffff> PTRN} bind def
/Pattern3 {<eeeebbbbeeeebbbbeeeebbbbeeeebbbbeeeebbbbeeeebbbbeeeebbbbeeeebbbb> PTRN} bind def
/Pattern4 {<5555aaaa5555aaaa5555aaaa5555aaaa5555aaaa5555aaaa5555aaaa5555aaaa> PTRN} bind def
/Pattern5 {<1111444411114444111144441111444411114444111144441111444411114444> PTRN} bind def
/Pattern6 {<1111000044440000111100004444000011110000444400001111000044440000> PTRN} bind def
/Pattern7 {<1010000000000000010100000000000010100000000000000101000000000000> PTRN} bind def
/Pattern8 {<0000000000000000000000000000000000000000000000000000000000000000> PTRN} bind def
/Pattern9 {<1e1e0f0f8787c3c3e1e1f0f078783c3c1e1e0f0f8787c3c3e1e1f0f078783c3c> PTRN} bind def
/Pattern10 {<7878f0f0e1e1c3c387870f0f1e1e3c3c7878f0f0e1e1c3c387870f0f1e1e3c3c> PTRN} bind def
/Pattern11 {<3333333333333333333333333333333333333333333333333333333333333333> PTRN} bind def
/Pattern12 {<ffffffff00000000ffffffff00000000ffffffff00000000ffffffff00000000> PTRN} bind def
/Pattern13 {<8181424224241818181824244242818181814242242418181818242442428181> PTRN} bind def
/Pattern14 {<8080404020201010080804040202010180804040202010100808040402020101> PTRN} bind def
/Pattern15 {<0101020204040808101020204040808001010202040408081010202040408080> PTRN} bind def
/Pattern16 {<2222222222222222222222222222222222222222222222222222222222222222> PTRN} bind def
/Pattern17 {<0000ffff000000000000ffff000000000000ffff000000000000ffff00000000> PTRN} bind def
/Pattern18 {<2222ffff222222222222ffff222222222222ffff222222222222ffff22222222> PTRN} bind def
/Pattern19 {<ffffffff33333333ffffffff33333333ffffffff33333333ffffffff33333333> PTRN} bind def
/Pattern20 {<0f0f0f0f0f0f0f0ff0f0f0f0f0f0f0f00f0f0f0f0f0f0f0ff0f0f0f0f0f0f0f0> PTRN} bind def
/Pattern21 {<ff00ff00ff00ff00ff00ff00ff00ff0000ff00ff00ff00ff00ff00ff00ff00ff> PTRN} bind def
/Pattern22 {<8001800180018001800180018001ffffffff8001800180018001800180018001> PTRN} bind def
/Pattern23 {<c003c003c003c003c003c003ffffffffffffffffc003c003c003c003c003c003> PTRN} bind def
/Pattern24 {<040404040404ffff404040404040ffff040404040404ffff404040404040ffff> PTRN} bind def
/Pattern25 {<180018001800180018001800ffffffff001800180018001800180018ffffffff> PTRN} bind def
/Pattern26 {<1111b8b87c7c3a3a1111a3a3c7c78b8b1111b8b87c7c3a3a1111a3a3c7c78b8b> PTRN} bind def
/Pattern27 {<101010102828c7c70101010182827c7c101010102828c7c70101010182827c7c> PTRN} bind def
/Pattern28 {<1c1c121211112121c1c12121111112121c1c121211112121c1c1212111111212> PTRN} bind def
/Pattern29 {<3e3e414180808080e3e31414080808083e3e414180808080e3e3141408080808> PTRN} bind def
/Pattern30 {<4848888884848383848488884848383848488888848483838484888848483838> PTRN} bind def
/Pattern31 {<03030404080808080c0c12122121c0c003030404080808080c0c12122121c0c0> PTRN} bind def
/ellipsedict 8 dict def
ellipsedict /mtrx matrix put
/EARC {
 ellipsedict begin
  /endangle exch def
  /startangle exch def
  /yrad exch def
  /xrad exch def
  /y exch def
  /x exch def
  /savematrix mtrx currentmatrix def
  x y translate
  xrad yrad scale
  0 0 1 startangle endangle arc
  savematrix setmatrix
 end
} def
/TL {
  /kcomp exch def
  /linewidth exch def
  /offset exch def
  GS
  0 offset rmoveto
  linewidth SLW
  dup stringwidth exch kcomp add exch RL s
  GR
} def
/KINIT
{
 /kvector exch def
 /kid 0 def
} def
/KPROC
{
 pop pop
 kvector kid get
 0 rmoveto
 /kid 1 kid add def
} def
/DefEncoding [
 /.notdef
 /.notdef
 /.notdef
 /.notdef
 /.notdef
 /.notdef
 /.notdef
 /.notdef
 /.notdef
 /.notdef
 /.notdef
 /.notdef
 /.notdef
 /.notdef
 /.notdef
 /.notdef
 /.notdef
 /.notdef
 /.notdef
 /.notdef
 /.notdef
 /.notdef
 /.notdef
 /.notdef
 /.notdef
 /.notdef
 /.notdef
 /.notdef
 /.notdef
 /.notdef
 /.notdef
 /.notdef
 /space
 /exclam
 /quotedbl
 /numbersign
 /dollar
 /percent
 /ampersand
 /quoteright
 /parenleft
 /parenright
 /asterisk
 /plus
 /comma
 /hyphen
 /period
 /slash
 /zero
 /one
 /two
 /three
 /four
 /five
 /six
 /seven
 /eight
 /nine
 /colon
 /semicolon
 /less
 /equal
 /greater
 /question
 /at
 /A
 /B
 /C
 /D
 /E
 /F
 /G
 /H
 /I
 /J
 /K
 /L
 /M
 /N
 /O
 /P
 /Q
 /R
 /S
 /T
 /U
 /V
 /W
 /X
 /Y
 /Z
 /bracketleft
 /backslash
 /bracketright
 /asciicircum
 /underscore
 /grave
 /a
 /b
 /c
 /d
 /e
 /f
 /g
 /h
 /i
 /j
 /k
 /l
 /m
 /n
 /o
 /p
 /q
 /r
 /s
 /t
 /u
 /v
 /w
 /x
 /y
 /z
 /braceleft
 /bar
 /braceright
 /asciitilde
 /.notdef
 /.notdef
 /.notdef
 /.notdef
 /.notdef
 /.notdef
 /.notdef
 /.notdef
 /.notdef
 /.notdef
 /.notdef
 /.notdef
 /.notdef
 /.notdef
 /.notdef
 /.notdef
 /.notdef
 /.notdef
 /.notdef
 /.notdef
 /.notdef
 /.notdef
 /.notdef
 /.notdef
 /.notdef
 /.notdef
 /.notdef
 /.notdef
 /.notdef
 /.notdef
 /.notdef
 /.notdef
 /.notdef
 /space
 /exclamdown
 /cent
 /sterling
 /currency
 /yen
 /brokenbar
 /section
 /dieresis
 /copyright
 /ordfeminine
 /guillemotleft
 /logicalnot
 /hyphen
 /registered
 /macron
 /degree
 /plusminus
 /twosuperior
 /threesuperior
 /acute
 /mu
 /paragraph
 /periodcentered
 /cedilla
 /onesuperior
 /ordmasculine
 /guillemotright
 /onequarter
 /onehalf
 /threequarters
 /questiondown
 /Agrave
 /Aacute
 /Acircumflex
 /Atilde
 /Adieresis
 /Aring
 /AE
 /Ccedilla
 /Egrave
 /Eacute
 /Ecircumflex
 /Edieresis
 /Igrave
 /Iacute
 /Icircumflex
 /Idieresis
 /Eth
 /Ntilde
 /Ograve
 /Oacute
 /Ocircumflex
 /Otilde
 /Odieresis
 /multiply
 /Oslash
 /Ugrave
 /Uacute
 /Ucircumflex
 /Udieresis
 /Yacute
 /Thorn
 /germandbls
 /agrave
 /aacute
 /acircumflex
 /atilde
 /adieresis
 /aring
 /ae
 /ccedilla
 /egrave
 /eacute
 /ecircumflex
 /edieresis
 /igrave
 /iacute
 /icircumflex
 /idieresis
 /eth
 /ntilde
 /ograve
 /oacute
 /ocircumflex
 /otilde
 /odieresis
 /divide
 /oslash
 /ugrave
 /uacute
 /ucircumflex
 /udieresis
 /yacute
 /thorn
 /ydieresis
] def
%%EndProlog
%%BeginSetup
%%EndSetup
612.00 612.00 scale
[/DeviceRGB] SCS
Color1 SC
[] 0 SD
0.0037 SLW
0 SLC
0 SLJ
n
0.1510 0.2327 m
0.1520 0.2320 l
0.1530 0.2312 l
0.1540 0.2303 l
0.1550 0.2294 l
0.1560 0.2285 l
0.1570 0.2275 l
0.1580 0.2266 l
0.1590 0.2257 l
0.1600 0.2247 l
0.1610 0.2238 l
0.1620 0.2229 l
0.1630 0.2219 l
0.1640 0.2210 l
0.1650 0.2201 l
0.1660 0.2192 l
0.1670 0.2183 l
0.1680 0.2175 l
0.1690 0.2166 l
0.1700 0.2157 l
0.1710 0.2149 l
0.1720 0.2141 l
0.1730 0.2132 l
0.1740 0.2124 l
0.1750 0.2116 l
0.1760 0.2108 l
0.1770 0.2100 l
0.1780 0.2092 l
0.1790 0.2084 l
0.1800 0.2077 l
0.1810 0.2069 l
0.1820 0.2062 l
0.1830 0.2054 l
0.1840 0.2047 l
0.1850 0.2040 l
0.1860 0.2032 l
0.1870 0.2025 l
0.1880 0.2018 l
0.1890 0.2011 l
0.1900 0.2005 l
0.1910 0.1998 l
0.1920 0.1991 l
0.1930 0.1985 l
0.1940 0.1978 l
0.1950 0.1972 l
0.1960 0.1965 l
0.1970 0.1959 l
0.1980 0.1953 l
0.1990 0.1947 l
0.2000 0.1941 l
0.2010 0.1935 l
0.2020 0.1929 l
0.2030 0.1923 l
0.2040 0.1917 l
0.2050 0.1911 l
0.2060 0.1906 l
0.2070 0.1900 l
0.2080 0.1895 l
0.2090 0.1889 l
0.2100 0.1884 l
0.2110 0.1879 l
0.2120 0.1873 l
0.2130 0.1868 l
0.2140 0.1863 l
0.2150 0.1858 l
0.2160 0.1853 l
0.2170 0.1848 l
0.2180 0.1843 l
0.2190 0.1839 l
0.2200 0.1834 l
0.2210 0.1829 l
0.2220 0.1825 l
0.2230 0.1820 l
0.2240 0.1816 l
0.2250 0.1811 l
0.2260 0.1807 l
0.2270 0.1803 l
0.2280 0.1799 l
0.2290 0.1794 l
0.2300 0.1790 l
0.2310 0.1786 l
0.2320 0.1782 l
0.2330 0.1778 l
0.2340 0.1774 l
0.2350 0.1771 l
0.2360 0.1767 l
0.2370 0.1763 l
0.2380 0.1759 l
0.2390 0.1756 l
0.2400 0.1752 l
0.2410 0.1749 l
0.2420 0.1745 l
0.2430 0.1742 l
0.2440 0.1739 l
0.2450 0.1735 l
0.2460 0.1732 l
0.2470 0.1729 l
0.2480 0.1726 l
0.2490 0.1723 l
0.2500 0.1720 l
0.2510 0.1717 l
0.2520 0.1714 l
0.2530 0.1711 l
0.2540 0.1708 l
0.2550 0.1706 l
0.2560 0.1703 l
0.2570 0.1700 l
0.2580 0.1698 l
0.2590 0.1695 l
0.2600 0.1693 l
0.2610 0.1690 l
0.2620 0.1688 l
0.2630 0.1685 l
0.2640 0.1683 l
0.2650 0.1681 l
0.2660 0.1679 l
0.2670 0.1676 l
0.2680 0.1674 l
0.2690 0.1672 l
0.2700 0.1670 l
0.2710 0.1668 l
0.2720 0.1666 l
0.2730 0.1664 l
0.2740 0.1662 l
0.2750 0.1661 l
0.2760 0.1659 l
0.2770 0.1657 l
0.2780 0.1656 l
0.2790 0.1654 l
0.2800 0.1652 l
0.2810 0.1651 l
0.2820 0.1649 l
0.2830 0.1648 l
0.2840 0.1646 l
0.2850 0.1645 l
0.2860 0.1644 l
0.2870 0.1642 l
0.2880 0.1641 l
0.2890 0.1640 l
0.2900 0.1639 l
0.2910 0.1638 l
0.2920 0.1637 l
0.2930 0.1636 l
0.2940 0.1635 l
0.2950 0.1634 l
0.2960 0.1633 l
0.2970 0.1632 l
0.2980 0.1631 l
0.2990 0.1630 l
0.3000 0.1630 l
0.3010 0.1629 l
0.3020 0.1628 l
0.3030 0.1628 l
0.3040 0.1627 l
0.3050 0.1626 l
0.3060 0.1626 l
0.3070 0.1625 l
0.3080 0.1625 l
0.3090 0.1625 l
0.3100 0.1624 l
0.3110 0.1624 l
0.3120 0.1624 l
0.3130 0.1623 l
0.3140 0.1623 l
0.3150 0.1623 l
0.3160 0.1623 l
0.3170 0.1623 l
0.3180 0.1623 l
0.3190 0.1623 l
0.3200 0.1623 l
0.3210 0.1623 l
0.3220 0.1623 l
0.3230 0.1623 l
0.3240 0.1623 l
0.3250 0.1624 l
0.3260 0.1624 l
0.3270 0.1624 l
0.3280 0.1624 l
0.3290 0.1625 l
0.3300 0.1625 l
0.3310 0.1626 l
0.3320 0.1626 l
0.3330 0.1626 l
0.3340 0.1627 l
0.3350 0.1628 l
0.3360 0.1628 l
0.3370 0.1629 l
0.3380 0.1629 l
0.3390 0.1630 l
0.3400 0.1631 l
0.3410 0.1632 l
0.3420 0.1632 l
0.3430 0.1633 l
0.3440 0.1634 l
0.3450 0.1635 l
0.3460 0.1636 l
0.3470 0.1637 l
0.3480 0.1638 l
0.3490 0.1639 l
0.3500 0.1640 l
0.3510 0.1641 l
0.3520 0.1642 l
0.3530 0.1644 l
0.3540 0.1645 l
0.3550 0.1646 l
0.3560 0.1647 l
0.3570 0.1649 l
0.3580 0.1650 l
0.3590 0.1651 l
0.3600 0.1653 l
0.3610 0.1654 l
0.3620 0.1656 l
0.3630 0.1657 l
0.3640 0.1659 l
0.3650 0.1660 l
0.3660 0.1662 l
0.3670 0.1663 l
0.3680 0.1665 l
0.3690 0.1667 l
0.3700 0.1668 l
0.3710 0.1670 l
0.3720 0.1672 l
0.3730 0.1674 l
0.3740 0.1675 l
0.3750 0.1677 l
0.3760 0.1679 l
0.3770 0.1681 l
0.3780 0.1683 l
0.3790 0.1685 l
0.3800 0.1687 l
0.3810 0.1689 l
0.3820 0.1691 l
0.3830 0.1693 l
0.3840 0.1695 l
0.3850 0.1698 l
0.3860 0.1700 l
0.3870 0.1702 l
0.3880 0.1704 l
0.3890 0.1707 l
0.3900 0.1709 l
0.3910 0.1711 l
0.3920 0.1714 l
0.3930 0.1716 l
0.3940 0.1718 l
0.3950 0.1721 l
0.3960 0.1723 l
0.3970 0.1726 l
0.3980 0.1728 l
0.3990 0.1731 l
0.4000 0.1733 l
0.4010 0.1736 l
0.4020 0.1739 l
0.4030 0.1741 l
0.4040 0.1744 l
0.4050 0.1747 l
0.4060 0.1750 l
0.4070 0.1752 l
0.4080 0.1755 l
0.4090 0.1758 l
0.4100 0.1761 l
0.4110 0.1764 l
0.4120 0.1767 l
0.4130 0.1770 l
0.4140 0.1773 l
0.4150 0.1776 l
0.4160 0.1779 l
0.4170 0.1782 l
0.4180 0.1785 l
0.4190 0.1788 l
0.4200 0.1791 l
0.4210 0.1794 l
0.4220 0.1797 l
0.4230 0.1801 l
0.4240 0.1804 l
0.4250 0.1807 l
0.4260 0.1810 l
0.4270 0.1814 l
0.4280 0.1817 l
0.4290 0.1820 l
0.4300 0.1824 l
0.4310 0.1827 l
0.4320 0.1831 l
0.4330 0.1834 l
0.4340 0.1838 l
0.4350 0.1841 l
0.4360 0.1845 l
0.4370 0.1848 l
0.4380 0.1852 l
0.4390 0.1856 l
0.4400 0.1859 l
0.4410 0.1863 l
0.4420 0.1867 l
0.4430 0.1870 l
0.4440 0.1874 l
0.4450 0.1878 l
0.4460 0.1882 l
0.4470 0.1885 l
0.4480 0.1889 l
0.4490 0.1893 l
0.4500 0.1897 l
0.4510 0.1901 l
0.4520 0.1905 l
0.4530 0.1909 l
0.4540 0.1913 l
0.4550 0.1917 l
0.4560 0.1921 l
0.4570 0.1925 l
0.4580 0.1929 l
0.4590 0.1933 l
0.4600 0.1937 l
0.4610 0.1942 l
0.4620 0.1946 l
0.4630 0.1950 l
0.4640 0.1954 l
0.4650 0.1958 l
0.4660 0.1963 l
0.4670 0.1967 l
0.4680 0.1971 l
0.4690 0.1976 l
0.4700 0.1980 l
0.4710 0.1984 l
0.4720 0.1989 l
0.4730 0.1993 l
0.4740 0.1998 l
0.4750 0.2002 l
0.4760 0.2007 l
0.4770 0.2011 l
0.4780 0.2016 l
0.4790 0.2020 l
0.4800 0.2025 l
0.4810 0.2030 l
0.4820 0.2034 l
0.4830 0.2039 l
0.4840 0.2044 l
0.4850 0.2048 l
0.4860 0.2053 l
0.4870 0.2058 l
0.4880 0.2063 l
0.4890 0.2067 l
0.4900 0.2072 l
0.4910 0.2077 l
0.4920 0.2082 l
0.4930 0.2087 l
0.4940 0.2092 l
0.4950 0.2097 l
0.4960 0.2102 l
0.4970 0.2107 l
0.4980 0.2112 l
0.4990 0.2117 l
0.5000 0.2122 l
0.5010 0.2127 l
0.5020 0.2132 l
0.5030 0.2137 l
0.5040 0.2142 l
0.5050 0.2147 l
0.5060 0.2152 l
0.5070 0.2157 l
0.5080 0.2163 l
0.5090 0.2168 l
0.5100 0.2173 l
0.5110 0.2178 l
0.5120 0.2184 l
0.5130 0.2189 l
0.5140 0.2194 l
0.5150 0.2200 l
0.5160 0.2205 l
0.5170 0.2210 l
0.5180 0.2216 l
0.5190 0.2221 l
0.5200 0.2227 l
0.5210 0.2232 l
0.5220 0.2238 l
0.5230 0.2243 l
0.5240 0.2249 l
0.5250 0.2254 l
0.5260 0.2260 l
0.5270 0.2265 l
0.5280 0.2271 l
0.5290 0.2277 l
0.5300 0.2282 l
0.5310 0.2288 l
0.5320 0.2294 l
0.5330 0.2299 l
0.5340 0.2305 l
0.5350 0.2311 l
0.5360 0.2317 l
0.5370 0.2322 l
0.5380 0.2328 l
0.5390 0.2334 l
0.5400 0.2340 l
0.5410 0.2346 l
0.5420 0.2352 l
0.5430 0.2358 l
0.5440 0.2364 l
0.5450 0.2369 l
0.5460 0.2375 l
0.5470 0.2381 l
0.5480 0.2387 l
0.5490 0.2393 l
0.5500 0.2399 l
0.5510 0.2406 l
0.5520 0.2412 l
0.5530 0.2418 l
0.5540 0.2424 l
0.5550 0.2430 l
0.5560 0.2436 l
0.5570 0.2442 l
0.5580 0.2448 l
0.5590 0.2455 l
0.5600 0.2461 l
0.5610 0.2467 l
0.5620 0.2473 l
0.5630 0.2480 l
0.5640 0.2486 l
0.5650 0.2492 l
0.5660 0.2499 l
0.5670 0.2505 l
0.5680 0.2511 l
0.5690 0.2518 l
0.5700 0.2524 l
0.5710 0.2531 l
0.5720 0.2537 l
0.5730 0.2544 l
0.5740 0.2550 l
0.5750 0.2557 l
0.5760 0.2563 l
0.5770 0.2570 l
0.5780 0.2576 l
0.5790 0.2583 l
0.5800 0.2589 l
0.5810 0.2596 l
0.5820 0.2603 l
0.5830 0.2609 l
0.5840 0.2616 l
0.5850 0.2623 l
0.5860 0.2629 l
0.5870 0.2636 l
0.5880 0.2643 l
0.5890 0.2649 l
0.5900 0.2656 l
0.5910 0.2663 l
0.5920 0.2670 l
0.5930 0.2677 l
0.5940 0.2683 l
0.5950 0.2690 l
0.5960 0.2697 l
0.5970 0.2704 l
0.5980 0.2711 l
0.5990 0.2718 l
0.6000 0.2725 l
0.6010 0.2732 l
0.6020 0.2739 l
0.6030 0.2746 l
0.6040 0.2753 l
0.6050 0.2760 l
0.6060 0.2767 l
0.6070 0.2774 l
0.6080 0.2781 l
0.6090 0.2788 l
0.6100 0.2795 l
0.6110 0.2802 l
0.6120 0.2809 l
0.6130 0.2817 l
0.6140 0.2824 l
0.6150 0.2831 l
0.6160 0.2838 l
0.6170 0.2845 l
0.6180 0.2853 l
0.6190 0.2860 l
0.6200 0.2867 l
0.6210 0.2874 l
0.6220 0.2882 l
0.6230 0.2889 l
0.6240 0.2896 l
0.6250 0.2904 l
0.6260 0.2911 l
0.6270 0.2918 l
0.6280 0.2926 l
0.6290 0.2933 l
0.6300 0.2941 l
0.6310 0.2948 l
0.6320 0.2956 l
0.6330 0.2963 l
0.6340 0.2970 l
0.6350 0.2978 l
0.6360 0.2986 l
0.6370 0.2993 l
0.6380 0.3001 l
0.6390 0.3008 l
0.6400 0.3016 l
0.6410 0.3023 l
0.6420 0.3031 l
0.6430 0.3039 l
0.6440 0.3046 l
0.6450 0.3054 l
0.6460 0.3062 l
0.6470 0.3069 l
0.6480 0.3077 l
0.6490 0.3085 l
0.6500 0.3092 l
0.6510 0.3100 l
0.6520 0.3108 l
0.6530 0.3116 l
0.6540 0.3124 l
0.6550 0.3131 l
0.6560 0.3139 l
0.6570 0.3147 l
0.6580 0.3155 l
0.6590 0.3163 l
0.6600 0.3171 l
0.6610 0.3179 l
0.6620 0.3187 l
0.6630 0.3194 l
0.6640 0.3202 l
0.6650 0.3210 l
0.6660 0.3218 l
0.6670 0.3226 l
0.6680 0.3234 l
0.6690 0.3242 l
0.6700 0.3250 l
0.6710 0.3258 l
0.6720 0.3267 l
0.6730 0.3275 l
0.6740 0.3283 l
0.6750 0.3291 l
0.6760 0.3299 l
0.6770 0.3307 l
0.6780 0.3315 l
0.6790 0.3323 l
0.6800 0.3332 l
0.6810 0.3340 l
0.6820 0.3348 l
0.6830 0.3356 l
0.6840 0.3364 l
0.6850 0.3373 l
0.6860 0.3381 l
0.6870 0.3389 l
0.6880 0.3398 l
0.6890 0.3406 l
0.6900 0.3414 l
0.6910 0.3422 l
0.6920 0.3431 l
0.6930 0.3439 l
0.6940 0.3448 l
0.6950 0.3456 l
0.6960 0.3464 l
0.6970 0.3473 l
0.6980 0.3481 l
0.6990 0.3490 l
0.7000 0.3498 l
0.7010 0.3507 l
0.7020 0.3515 l
0.7030 0.3524 l
0.7040 0.3532 l
0.7050 0.3541 l
0.7060 0.3549 l
0.7070 0.3558 l
0.7080 0.3566 l
0.7090 0.3575 l
0.7100 0.3583 l
0.7110 0.3592 l
0.7120 0.3601 l
0.7130 0.3609 l
0.7140 0.3618 l
0.7150 0.3627 l
0.7160 0.3635 l
0.7170 0.3644 l
0.7180 0.3653 l
0.7190 0.3661 l
0.7200 0.3670 l
0.7210 0.3679 l
0.7220 0.3688 l
0.7230 0.3696 l
0.7240 0.3705 l
0.7250 0.3714 l
0.7260 0.3723 l
0.7270 0.3732 l
0.7280 0.3740 l
0.7290 0.3749 l
0.7300 0.3758 l
0.7310 0.3767 l
0.7320 0.3776 l
0.7330 0.3785 l
0.7340 0.3794 l
0.7350 0.3803 l
0.7360 0.3812 l
0.7370 0.3820 l
0.7380 0.3829 l
0.7390 0.3838 l
0.7400 0.3847 l
0.7410 0.3856 l
0.7420 0.3865 l
0.7430 0.3874 l
0.7440 0.3883 l
0.7450 0.3893 l
0.7460 0.3902 l
0.7470 0.3911 l
0.7480 0.3920 l
0.7490 0.3929 l
0.7500 0.3938 l
0.7510 0.3947 l
0.7520 0.3956 l
0.7530 0.3965 l
0.7540 0.3975 l
0.7550 0.3984 l
0.7560 0.3993 l
0.7570 0.4002 l
0.7580 0.4011 l
0.7590 0.4020 l
0.7600 0.4030 l
0.7610 0.4039 l
0.7620 0.4048 l
0.7630 0.4057 l
0.7640 0.4067 l
0.7650 0.4076 l
0.7660 0.4085 l
0.7670 0.4095 l
0.7680 0.4104 l
0.7690 0.4113 l
0.7700 0.4123 l
0.7710 0.4132 l
0.7720 0.4141 l
0.7730 0.4151 l
0.7740 0.4160 l
0.7750 0.4170 l
0.7760 0.4179 l
0.7770 0.4188 l
0.7780 0.4198 l
0.7790 0.4207 l
0.7800 0.4217 l
0.7810 0.4226 l
0.7820 0.4236 l
0.7830 0.4245 l
0.7840 0.4255 l
0.7850 0.4264 l
0.7860 0.4274 l
0.7870 0.4283 l
0.7880 0.4293 l
0.7890 0.4303 l
0.7900 0.4312 l
0.7910 0.4322 l
0.7920 0.4331 l
0.7930 0.4341 l
0.7940 0.4351 l
0.7950 0.4360 l
0.7960 0.4370 l
0.7970 0.4380 l
0.7980 0.4389 l
0.7990 0.4399 l
0.8000 0.4409 l
0.8010 0.4418 l
0.8020 0.4428 l
0.8030 0.4438 l
0.8040 0.4448 l
0.8050 0.4457 l
0.8060 0.4467 l
0.8070 0.4477 l
0.8080 0.4487 l
0.8090 0.4496 l
0.8100 0.4506 l
0.8110 0.4516 l
0.8120 0.4526 l
0.8130 0.4536 l
0.8140 0.4546 l
0.8150 0.4555 l
0.8160 0.4565 l
0.8170 0.4575 l
0.8180 0.4585 l
0.8190 0.4595 l
0.8200 0.4605 l
0.8210 0.4615 l
0.8220 0.4625 l
0.8230 0.4635 l
0.8240 0.4645 l
0.8250 0.4655 l
0.8260 0.4665 l
0.8270 0.4675 l
0.8280 0.4685 l
0.8290 0.4695 l
0.8300 0.4705 l
0.8310 0.4715 l
0.8320 0.4725 l
0.8330 0.4735 l
0.8340 0.4745 l
0.8350 0.4755 l
0.8360 0.4765 l
0.8370 0.4775 l
0.8380 0.4785 l
0.8390 0.4795 l
0.8400 0.4805 l
0.8410 0.4816 l
0.8420 0.4826 l
0.8430 0.4836 l
0.8440 0.4846 l
0.8450 0.4856 l
0.8460 0.4866 l
0.8470 0.4877 l
0.8480 0.4887 l
0.8490 0.4897 l
0.8500 0.4907 l
0.8510 0.4917 l
0.8520 0.4928 l
0.8530 0.4938 l
0.8540 0.4948 l
0.8550 0.4958 l
0.8560 0.4969 l
0.8570 0.4979 l
0.8580 0.4989 l
0.8590 0.5000 l
0.8600 0.5010 l
0.8610 0.5020 l
0.8620 0.5031 l
0.8630 0.5041 l
0.8640 0.5051 l
0.8650 0.5062 l
0.8660 0.5072 l
0.8670 0.5083 l
0.8680 0.5093 l
0.8690 0.5103 l
0.8700 0.5114 l
0.8710 0.5124 l
0.8720 0.5135 l
0.8730 0.5145 l
0.8740 0.5156 l
0.8750 0.5166 l
0.8760 0.5177 l
0.8770 0.5187 l
0.8780 0.5198 l
0.8790 0.5208 l
0.8800 0.5219 l
0.8810 0.5229 l
0.8820 0.5240 l
0.8830 0.5250 l
0.8840 0.5261 l
0.8850 0.5271 l
0.8860 0.5282 l
0.8870 0.5292 l
0.8880 0.5303 l
0.8890 0.5314 l
0.8900 0.5324 l
0.8910 0.5335 l
0.8920 0.5346 l
0.8930 0.5356 l
0.8940 0.5367 l
0.8950 0.5378 l
0.8960 0.5388 l
0.8970 0.5399 l
0.8980 0.5410 l
0.8990 0.5420 l
0.9000 0.5431 l
0.9010 0.5442 l
0.9020 0.5452 l
0.9030 0.5463 l
0.9040 0.5474 l
0.9050 0.5485 l
0.9060 0.5495 l
0.9070 0.5506 l
0.9080 0.5517 l
0.9090 0.5528 l
0.9100 0.5538 l
0.9110 0.5549 l
0.9120 0.5560 l
0.9130 0.5571 l
0.9140 0.5582 l
0.9150 0.5593 l
0.9160 0.5603 l
0.9170 0.5614 l
0.9180 0.5625 l
0.9190 0.5636 l
0.9200 0.5647 l
0.9210 0.5658 l
0.9220 0.5669 l
0.9230 0.5680 l
0.9240 0.5691 l
0.9250 0.5701 l
0.9260 0.5712 l
0.9270 0.5723 l
0.9280 0.5734 l
0.9290 0.5745 l
0.9300 0.5756 l
0.9310 0.5767 l
0.9320 0.5778 l
0.9330 0.5789 l
0.9340 0.5800 l
0.9350 0.5811 l
0.9360 0.5822 l
0.9370 0.5833 l
0.9380 0.5844 l
0.9390 0.5855 l
0.9400 0.5866 l
0.9410 0.5877 l
0.9420 0.5889 l
0.9430 0.5900 l
0.9440 0.5911 l
0.9450 0.5922 l
0.9460 0.5933 l
0.9470 0.5944 l
0.9480 0.5955 l
0.9490 0.5966 l
0.9500 0.5977 l
0.9510 0.5989 l
0.9520 0.6000 l
0.9530 0.6011 l
0.9540 0.6022 l
0.9550 0.6033 l
0.9560 0.6044 l
0.9570 0.6056 l
0.9580 0.6067 l
0.9590 0.6078 l
0.9600 0.6089 l
0.9610 0.6100 l
0.9620 0.6112 l
0.9630 0.6123 l
0.9640 0.6134 l
0.9650 0.6145 l
0.9660 0.6157 l
0.9670 0.6168 l
0.9680 0.6179 l
0.9690 0.6191 l
0.9700 0.6202 l
0.9710 0.6213 l
0.9720 0.6224 l
0.9730 0.6236 l
0.9740 0.6247 l
0.9750 0.6258 l
0.9760 0.6270 l
0.9770 0.6281 l
0.9780 0.6293 l
0.9790 0.6304 l
0.9800 0.6315 l
0.9810 0.6327 l
0.9820 0.6338 l
0.9830 0.6349 l
0.9840 0.6361 l
0.9850 0.6372 l
0.9860 0.6384 l
0.9870 0.6395 l
0.9880 0.6407 l
0.9890 0.6418 l
0.9900 0.6429 l
0.9910 0.6441 l
0.9920 0.6452 l
0.9930 0.6464 l
0.9940 0.6475 l
0.9950 0.6487 l
0.9960 0.6498 l
0.9970 0.6510 l
0.9980 0.6521 l
0.9990 0.6533 l
1.0000 0.6544 l
1.0010 0.6556 l
1.0020 0.6567 l
1.0030 0.6579 l
1.0040 0.6591 l
1.0050 0.6602 l
1.0060 0.6614 l
1.0070 0.6625 l
1.0080 0.6637 l
1.0090 0.6648 l
1.0100 0.6660 l
1.0110 0.6672 l
1.0120 0.6683 l
1.0130 0.6695 l
1.0140 0.6706 l
1.0150 0.6718 l
1.0160 0.6730 l
1.0170 0.6741 l
1.0180 0.6753 l
1.0190 0.6765 l
1.0200 0.6776 l
1.0210 0.6788 l
1.0220 0.6800 l
1.0230 0.6811 l
1.0240 0.6823 l
1.0250 0.6835 l
1.0260 0.6847 l
1.0270 0.6858 l
1.0280 0.6870 l
1.0290 0.6882 l
1.0300 0.6893 l
1.0310 0.6905 l
1.0320 0.6917 l
1.0330 0.6929 l
1.0340 0.6941 l
1.0350 0.6952 l
1.0360 0.6964 l
1.0370 0.6976 l
1.0380 0.6988 l
1.0390 0.6999 l
1.0400 0.7011 l
1.0410 0.7023 l
1.0420 0.7035 l
1.0430 0.7047 l
1.0440 0.7059 l
1.0450 0.7070 l
1.0460 0.7082 l
1.0470 0.7094 l
1.0480 0.7106 l
1.0490 0.7118 l
1.0500 0.7130 l
1.0510 0.7142 l
1.0520 0.7153 l
1.0530 0.7165 l
1.0540 0.7177 l
1.0550 0.7189 l
1.0560 0.7201 l
1.0570 0.7213 l
1.0580 0.7225 l
1.0590 0.7237 l
1.0600 0.7249 l
1.0610 0.7261 l
1.0620 0.7273 l
1.0630 0.7285 l
1.0640 0.7297 l
1.0650 0.7309 l
1.0660 0.7321 l
1.0670 0.7333 l
1.0680 0.7345 l
1.0690 0.7357 l
1.0700 0.7369 l
1.0710 0.7381 l
1.0720 0.7393 l
1.0730 0.7405 l
1.0740 0.7417 l
1.0750 0.7429 l
1.0760 0.7441 l
1.0770 0.7453 l
1.0780 0.7465 l
1.0790 0.7477 l
1.0800 0.7489 l
1.0810 0.7501 l
1.0820 0.7513 l
1.0830 0.7525 l
1.0840 0.7537 l
1.0850 0.7549 l
1.0860 0.7562 l
1.0870 0.7574 l
1.0880 0.7586 l
1.0890 0.7598 l
1.0900 0.7610 l
1.0910 0.7622 l
1.0920 0.7634 l
1.0930 0.7646 l
1.0940 0.7659 l
1.0950 0.7671 l
1.0960 0.7683 l
1.0970 0.7695 l
1.0980 0.7707 l
1.0990 0.7719 l
1.1000 0.7732 l
1.1010 0.7744 l
1.1020 0.7756 l
1.1030 0.7768 l
1.1040 0.7780 l
1.1050 0.7793 l
1.1060 0.7805 l
1.1070 0.7817 l
1.1080 0.7829 l
1.1090 0.7842 l
1.1100 0.7854 l
1.1110 0.7866 l
1.1120 0.7878 l
1.1130 0.7891 l
1.1140 0.7903 l
1.1150 0.7915 l
1.1160 0.7927 l
1.1170 0.7940 l
1.1180 0.7952 l
1.1190 0.7964 l
1.1200 0.7977 l
1.1210 0.7989 l
1.1220 0.8001 l
1.1230 0.8014 l
1.1240 0.8026 l
1.1250 0.8038 l
1.1260 0.8050 l
1.1270 0.8063 l
1.1280 0.8075 l
1.1290 0.8088 l
1.1300 0.8100 l
1.1310 0.8112 l
1.1320 0.8125 l
1.1330 0.8137 l
1.1340 0.8149 l
1.1350 0.8162 l
1.1360 0.8174 l
1.1370 0.8187 l
1.1380 0.8199 l
1.1390 0.8211 l
1.1400 0.8224 l
1.1410 0.8236 l
1.1420 0.8249 l
1.1430 0.8261 l
1.1440 0.8273 l
1.1450 0.8286 l
1.1460 0.8298 l
1.1470 0.8311 l
1.1480 0.8323 l
1.1490 0.8336 l
1.1500 0.8348 l
1.1501 0.8349 l
s
[/DeviceRGB] SCS
Color4 SC
[0.0045 0.0135 ] 0 SD
0.0045 SLW
n
0.1600 0.2286 m
0.1700 0.2205 l
0.1800 0.2124 l
0.1900 0.2048 l
0.2000 0.1980 l
0.2100 0.1918 l
0.2200 0.1865 l
0.2300 0.1819 l
0.2400 0.1779 l
0.2500 0.1747 l
0.2600 0.1720 l
0.2700 0.1699 l
0.2800 0.1683 l
0.2900 0.1673 l
0.3000 0.1667 l
0.3100 0.1665 l
0.3200 0.1667 l
0.3300 0.1672 l
0.3400 0.1681 l
0.3500 0.1692 l
0.3600 0.1706 l
0.3700 0.1723 l
0.3800 0.1742 l
0.3900 0.1763 l
0.4000 0.1787 l
0.4100 0.1812 l
0.4200 0.1838 l
0.4300 0.1867 l
0.4400 0.1897 l
0.4500 0.1929 l
0.4600 0.1962 l
0.4700 0.1997 l
0.4800 0.2034 l
0.4900 0.2072 l
0.5000 0.2112 l
0.5100 0.2153 l
0.5200 0.2197 l
0.5300 0.2242 l
0.5400 0.2289 l
0.5500 0.2338 l
0.5600 0.2390 l
0.5700 0.2443 l
0.5800 0.2499 l
0.5900 0.2557 l
0.6000 0.2618 l
0.6100 0.2682 l
0.6200 0.2749 l
0.6300 0.2818 l
0.6400 0.2890 l
0.6500 0.2966 l
0.6600 0.3045 l
0.6700 0.3128 l
0.6800 0.3214 l
0.6900 0.3303 l
0.7000 0.3396 l
0.7100 0.3493 l
0.7200 0.3594 l
0.7300 0.3699 l
0.7400 0.3808 l
0.7500 0.3920 l
s
[/DeviceRGB] SCS
Color3 SC
[0.0187 0.0112 ] 0 SD
0.0037 SLW
n
0.1633 0.2216 m
0.1766 0.2108 l
0.1899 0.2014 l
0.2032 0.1934 l
0.2165 0.1866 l
0.2298 0.1809 l
0.2431 0.1762 l
0.2564 0.1725 l
0.2697 0.1697 l
0.2830 0.1677 l
0.2963 0.1665 l
0.3096 0.1661 l
0.3229 0.1665 l
0.3362 0.1676 l
0.3495 0.1694 l
0.3628 0.1719 l
0.3761 0.1751 l
0.3894 0.1789 l
0.4028 0.1834 l
0.4161 0.1885 l
0.4294 0.1942 l
0.4427 0.2005 l
0.4560 0.2074 l
0.4693 0.2148 l
0.4826 0.2229 l
0.4959 0.2315 l
0.5092 0.2407 l
0.5225 0.2504 l
0.5358 0.2606 l
0.5491 0.2714 l
0.5624 0.2827 l
0.5757 0.2946 l
0.5890 0.3069 l
0.6023 0.3198 l
0.6156 0.3331 l
0.6289 0.3470 l
0.6422 0.3613 l
0.6555 0.3762 l
0.6688 0.3915 l
0.6821 0.4073 l
0.6954 0.4236 l
0.7087 0.4404 l
0.7220 0.4576 l
0.7353 0.4753 l
0.7486 0.4934 l
0.7619 0.5120 l
0.7752 0.5311 l
0.7885 0.5506 l
0.8018 0.5706 l
0.8151 0.5910 l
0.8284 0.6119 l
0.8417 0.6331 l
0.8550 0.6549 l
0.8683 0.6770 l
0.8816 0.6996 l
0.8950 0.7227 l
0.9083 0.7461 l
0.9216 0.7700 l
0.9349 0.7943 l
0.9482 0.8190 l
0.9615 0.8441 l
0.9646 0.8501 l
s
[/DeviceRGB] SCS
Color2 SC
n
0.1633 0.2218 m
0.1766 0.2110 l
0.1899 0.2017 l
0.2032 0.1936 l
0.2165 0.1868 l
0.2298 0.1811 l
0.2431 0.1764 l
0.2564 0.1726 l
0.2697 0.1697 l
0.2830 0.1677 l
0.2963 0.1665 l
0.3096 0.1661 l
0.3229 0.1665 l
0.3362 0.1676 l
0.3495 0.1695 l
0.3628 0.1720 l
0.3762 0.1753 l
0.3895 0.1792 l
0.4028 0.1838 l
0.4161 0.1890 l
0.4294 0.1948 l
0.4427 0.2013 l
0.4560 0.2084 l
0.4693 0.2160 l
0.4826 0.2243 l
0.4959 0.2332 l
0.5092 0.2426 l
0.5225 0.2526 l
0.5358 0.2632 l
0.5491 0.2744 l
0.5624 0.2860 l
0.5757 0.2983 l
0.5890 0.3110 l
0.6023 0.3244 l
0.6156 0.3382 l
0.6289 0.3526 l
0.6422 0.3674 l
0.6555 0.3828 l
0.6688 0.3987 l
0.6821 0.4152 l
0.6954 0.4321 l
0.7087 0.4495 l
0.7220 0.4674 l
0.7353 0.4858 l
0.7486 0.5047 l
0.7619 0.5241 l
0.7752 0.5439 l
0.7885 0.5643 l
0.8018 0.5851 l
0.8152 0.6064 l
0.8285 0.6282 l
0.8418 0.6504 l
0.8551 0.6731 l
0.8684 0.6963 l
0.8817 0.7199 l
0.8950 0.7440 l
0.9083 0.7685 l
0.9216 0.7935 l
0.9349 0.8189 l
0.9482 0.8448 l
0.9509 0.8501 l
s
[/DeviceRGB] SCS
Color15 SC
n
0.1632 0.2222 m
0.1764 0.2114 l
0.1895 0.2021 l
0.2027 0.1940 l
0.2159 0.1872 l
0.2291 0.1814 l
0.2423 0.1766 l
0.2555 0.1728 l
0.2686 0.1699 l
0.2818 0.1678 l
0.2950 0.1666 l
0.3082 0.1663 l
0.3214 0.1666 l
0.3346 0.1678 l
0.3477 0.1697 l
0.3609 0.1723 l
0.3741 0.1756 l
0.3873 0.1796 l
0.4005 0.1842 l
0.4137 0.1896 l
0.4268 0.1955 l
0.4400 0.2021 l
0.4532 0.2094 l
0.4664 0.2172 l
0.4796 0.2257 l
0.4928 0.2348 l
0.5059 0.2444 l
0.5191 0.2547 l
0.5323 0.2655 l
0.5455 0.2769 l
0.5587 0.2888 l
0.5719 0.3013 l
0.5850 0.3144 l
0.5982 0.3280 l
0.6114 0.3421 l
0.6246 0.3568 l
0.6378 0.3720 l
0.6510 0.3877 l
0.6641 0.4039 l
0.6773 0.4207 l
0.6905 0.4380 l
0.7037 0.4557 l
0.7169 0.4740 l
0.7301 0.4928 l
0.7432 0.5121 l
0.7564 0.5318 l
0.7696 0.5521 l
0.7828 0.5728 l
0.7960 0.5940 l
0.8091 0.6157 l
0.8223 0.6379 l
0.8355 0.6605 l
0.8487 0.6836 l
0.8619 0.7072 l
0.8751 0.7312 l
0.8882 0.7557 l
0.9014 0.7806 l
0.9146 0.8060 l
0.9278 0.8318 l
0.9369 0.8501 l
s
[/DeviceRGB] SCS
Color1 SC
[] 0 SD
0.0045 SLW
n
0.1500 0.1500 m
1.1500 0.1500 l
s
n
0.1500 0.8500 m
1.1500 0.8500 l
s
n
0.2500 0.1500 m
0.2500 0.1600 l
s
n
0.2500 0.8500 m
0.2500 0.8400 l
s
n
0.4500 0.1500 m
0.4500 0.1600 l
s
n
0.4500 0.8500 m
0.4500 0.8400 l
s
n
0.6500 0.1500 m
0.6500 0.1600 l
s
n
0.6500 0.8500 m
0.6500 0.8400 l
s
n
0.8500 0.1500 m
0.8500 0.1600 l
s
n
0.8500 0.8500 m
0.8500 0.8400 l
s
n
1.0500 0.1500 m
1.0500 0.1600 l
s
n
1.0500 0.8500 m
1.0500 0.8400 l
s
n
0.1500 0.1500 m
0.1500 0.1700 l
s
n
0.1500 0.8500 m
0.1500 0.8300 l
s
n
0.3500 0.1500 m
0.3500 0.1700 l
s
n
0.3500 0.8500 m
0.3500 0.8300 l
s
n
0.5500 0.1500 m
0.5500 0.1700 l
s
n
0.5500 0.8500 m
0.5500 0.8300 l
s
n
0.7500 0.1500 m
0.7500 0.1700 l
s
n
0.7500 0.8500 m
0.7500 0.8300 l
s
n
0.9500 0.1500 m
0.9500 0.1700 l
s
n
0.9500 0.8500 m
0.9500 0.8300 l
s
n
1.1500 0.1500 m
1.1500 0.1700 l
s
n
1.1500 0.8500 m
1.1500 0.8300 l
s
/Times-Roman findfont
dup length dict begin
 {1 index /FID ne {def} {pop pop} ifelse} forall
 /Encoding DefEncoding def
 currentdict
end
/Font0 exch definefont pop
/Font0 FFSF
0.1394 0.1094 m
GS
[0.0448 0.0000 0.0000 0.0448 0 0] CC
(0) show
GR
/Font0 FFSF
0.3225 0.1094 m
GS
[0.0448 0.0000 0.0000 0.0448 0 0] CC
(0.2) show
GR
/Font0 FFSF
0.5225 0.1094 m
GS
[0.0448 0.0000 0.0000 0.0448 0 0] CC
(0.4) show
GR
/Font0 FFSF
0.7227 0.1094 m
GS
[0.0448 0.0000 0.0000 0.0448 0 0] CC
(0.6) show
GR
/Font0 FFSF
0.9231 0.1094 m
GS
[0.0448 0.0000 0.0000 0.0448 0 0] CC
(0.8) show
GR
/Font0 FFSF
1.1412 0.1094 m
GS
[0.0448 0.0000 0.0000 0.0448 0 0] CC
(1) show
GR
/Times-Italic findfont
dup length dict begin
 {1 index /FID ne {def} {pop pop} ifelse} forall
 /Encoding DefEncoding def
 currentdict
end
/Font1 exch definefont pop
/Font1 FFSF
0.5735 0.0445 m
GS
[0.0504 0.0000 0.0000 0.0504 0 0] CC
(n) show
GR
/Font0 FFSF
0.5986 0.0445 m
GS
[0.0504 0.0000 0.0000 0.0504 0 0] CC
( [fm) show
GR
/Font0 FFSF
0.6841 0.0747 m
GS
[0.0356 0.0000 0.0000 0.0356 0 0] CC
(-3) show
GR
/Font0 FFSF
0.7139 0.0445 m
GS
[0.0504 0.0000 0.0000 0.0504 0 0] CC
(]) show
GR
n
0.1500 0.1500 m
0.1500 0.8500 l
s
n
1.1500 0.1500 m
1.1500 0.8500 l
s
n
0.1500 0.3353 m
0.1600 0.3353 l
s
n
1.1500 0.3353 m
1.1400 0.3353 l
s
n
0.1500 0.5412 m
0.1600 0.5412 l
s
n
1.1500 0.5412 m
1.1400 0.5412 l
s
n
0.1500 0.7471 m
0.1600 0.7471 l
s
n
1.1500 0.7471 m
1.1400 0.7471 l
s
n
0.1500 0.2324 m
0.1700 0.2324 l
s
n
1.1500 0.2324 m
1.1300 0.2324 l
s
n
0.1500 0.4382 m
0.1700 0.4382 l
s
n
1.1500 0.4382 m
1.1300 0.4382 l
s
n
0.1500 0.6441 m
0.1700 0.6441 l
s
n
1.1500 0.6441 m
1.1300 0.6441 l
s
n
0.1500 0.8500 m
0.1700 0.8500 l
s
n
1.1500 0.8500 m
1.1300 0.8500 l
s
/Font0 FFSF
0.1188 0.2175 m
GS
[0.0448 0.0000 0.0000 0.0448 0 0] CC
(0) show
GR
/Font0 FFSF
0.0965 0.4231 m
GS
[0.0448 0.0000 0.0000 0.0448 0 0] CC
(50) show
GR
/Font0 FFSF
0.0741 0.6292 m
GS
[0.0448 0.0000 0.0000 0.0448 0 0] CC
(100) show
GR
/Font0 FFSF
0.0741 0.8349 m
GS
[0.0448 0.0000 0.0000 0.0448 0 0] CC
(150) show
GR
/Font0 FFSF
0.0563 0.3867 m
GS
[0.0000 0.0504 -0.0504 0.0000 0 0] CC
(E/A [MeV]) show
GR
[] 0 SD
0.0015 SLW
n
0.1500 0.1500 m
0.1500 0.8500 l
1.1500 0.8500 l
1.1500 0.1500 l
0.1500 0.1500 l
c
s
n
0.1500 0.8500 m
0.1500 0.6124 l
0.4138 0.6124 l
0.4138 0.8500 l
c
[/DeviceRGB] SCS
Color0 SC
fill
[/DeviceRGB] SCS
Color1 SC
[] 0 SD
0.0045 SLW
n
0.1500 0.8500 m
0.1500 0.6124 l
0.4138 0.6124 l
0.4138 0.8500 l
0.1500 0.8500 l
c
s
/Font0 FFSF
0.2422 0.8055 m
GS
[0.0510 0.0000 0.0000 0.0510 0 0] CC
(LYVA1) show
GR
[] 0 SD
0.0037 SLW
n
0.1623 0.8225 m
0.2223 0.8225 l
s
/Font0 FFSF
0.2422 0.7606 m
GS
[0.0510 0.0000 0.0000 0.0510 0 0] CC
(BCPM) show
GR
[/DeviceRGB] SCS
Color4 SC
[0.0045 0.0135 ] 0 SD
0.0045 SLW
n
0.1623 0.7775 m
0.2223 0.7775 l
s
/Font0 FFSF
[/DeviceRGB] SCS
Color1 SC
0.2422 0.7149 m
GS
[0.0510 0.0000 0.0000 0.0510 0 0] CC
(BSk19) show
GR
[/DeviceRGB] SCS
Color3 SC
[0.0187 0.0112 ] 0 SD
0.0037 SLW
n
0.1623 0.7318 m
0.2223 0.7318 l
s
/Font0 FFSF
[/DeviceRGB] SCS
Color1 SC
0.2422 0.6688 m
GS
[0.0510 0.0000 0.0000 0.0510 0 0] CC
(BSk20) show
GR
[/DeviceRGB] SCS
Color2 SC
n
0.1623 0.6859 m
0.2223 0.6859 l
s
/Font0 FFSF
[/DeviceRGB] SCS
Color1 SC
0.2422 0.6231 m
GS
[0.0510 0.0000 0.0000 0.0510 0 0] CC
(BSk21) show
GR
[/DeviceRGB] SCS
Color15 SC
n
0.1623 0.6402 m
0.2223 0.6402 l
s
[/DeviceRGB] SCS
Color1 SC
[] 0 SD
0.0015 SLW
n
0.3752 0.8497 m
0.3725 0.8458 l
s
/Font0 FFSF
1.0000 0.7700 m
GS
[0.0848 0.0000 0.0000 0.0848 0 0] CC
(a\)) show
GR
%%Trailer
%%BoundingBox: 12 21 711 531
%%DocumentNeededResources: font Times-Roman
%%+ font Times-Italic
%%EOF
