%!PS-Adobe-3.0 EPSF-3.0
%%BoundingBox: (atend)
%%LanguageLevel: 2
%%Creator: Grace-5.1.22
%%CreationDate: Fri Jul 10 11:28:48 2015
%%DocumentData: Clean8Bit
%%Orientation: Portrait
%%Title: /Users/alessandropastore/Fisica/ST_channel_EoS/N3LO/Vers7/plots/masseffPNM.agr
%%For: alessandropastore
%%DocumentNeededResources: (atend)
%%EndComments
%%BeginProlog
/m {moveto} def
/l {lineto} def
/s {stroke} def
/n {newpath} def
/c {closepath} def
/RL {rlineto} def
/SLW {setlinewidth} def
/GS {gsave} def
/GR {grestore} def
/SC {setcolor} def
/SGRY {setgray} def
/SRGB {setrgbcolor} def
/SD {setdash} def
/SLC {setlinecap} def
/SLJ {setlinejoin} def
/SCS {setcolorspace} def
/FFSF {findfont setfont} def
/CC {concat} def
/PXL {n m 0 0 RL s} def
/Color0 {1.0000 1.0000 1.0000} def
/Color1 {0.0000 0.0000 0.0000} def
/Color2 {1.0000 0.0000 0.0000} def
/Color3 {0.0000 1.0000 0.0000} def
/Color4 {0.0000 0.0000 1.0000} def
/Color5 {1.0000 1.0000 0.0000} def
/Color6 {0.7373 0.5608 0.5608} def
/Color7 {0.8627 0.8627 0.8627} def
/Color8 {0.5804 0.0000 0.8275} def
/Color9 {0.0000 1.0000 1.0000} def
/Color10 {1.0000 0.0000 1.0000} def
/Color11 {1.0000 0.6471 0.0000} def
/Color12 {0.4471 0.1294 0.7373} def
/Color13 {0.4039 0.0275 0.2824} def
/Color14 {0.2510 0.8784 0.8157} def
/Color15 {0.0000 0.5451 0.0000} def
/Color16 {0.7529 0.7529 0.7529} def
/Color17 {0.5059 0.5059 0.5059} def
/Color18 {0.2588 0.2588 0.2588} def
/PTRN {
 /pat_bits exch def 
 <<
  /PaintType 2
  /PatternType 1 /TilingType 1
  /BBox[0 0 16 16]
  /XStep 16 /YStep 16
  /PaintProc {
   pop
   16 16 true [-1 0 0 -1 16 16] pat_bits imagemask
  }
 >>
 [0.0016 0 0 0.0016 0 0]
 makepattern
} def
/Pattern0 {<0000000000000000000000000000000000000000000000000000000000000000> PTRN} bind def
/Pattern1 {<ffffffffffffffffffffffffffffffffffffffffffffffffffffffffffffffff> PTRN} bind def
/Pattern2 {<eeeeffffbbbbffffeeeeffffbbbbffffeeeeffffbbbbffffeeeeffffbbbbffff> PTRN} bind def
/Pattern3 {<eeeebbbbeeeebbbbeeeebbbbeeeebbbbeeeebbbbeeeebbbbeeeebbbbeeeebbbb> PTRN} bind def
/Pattern4 {<5555aaaa5555aaaa5555aaaa5555aaaa5555aaaa5555aaaa5555aaaa5555aaaa> PTRN} bind def
/Pattern5 {<1111444411114444111144441111444411114444111144441111444411114444> PTRN} bind def
/Pattern6 {<1111000044440000111100004444000011110000444400001111000044440000> PTRN} bind def
/Pattern7 {<1010000000000000010100000000000010100000000000000101000000000000> PTRN} bind def
/Pattern8 {<0000000000000000000000000000000000000000000000000000000000000000> PTRN} bind def
/Pattern9 {<1e1e0f0f8787c3c3e1e1f0f078783c3c1e1e0f0f8787c3c3e1e1f0f078783c3c> PTRN} bind def
/Pattern10 {<7878f0f0e1e1c3c387870f0f1e1e3c3c7878f0f0e1e1c3c387870f0f1e1e3c3c> PTRN} bind def
/Pattern11 {<3333333333333333333333333333333333333333333333333333333333333333> PTRN} bind def
/Pattern12 {<ffffffff00000000ffffffff00000000ffffffff00000000ffffffff00000000> PTRN} bind def
/Pattern13 {<8181424224241818181824244242818181814242242418181818242442428181> PTRN} bind def
/Pattern14 {<8080404020201010080804040202010180804040202010100808040402020101> PTRN} bind def
/Pattern15 {<0101020204040808101020204040808001010202040408081010202040408080> PTRN} bind def
/Pattern16 {<2222222222222222222222222222222222222222222222222222222222222222> PTRN} bind def
/Pattern17 {<0000ffff000000000000ffff000000000000ffff000000000000ffff00000000> PTRN} bind def
/Pattern18 {<2222ffff222222222222ffff222222222222ffff222222222222ffff22222222> PTRN} bind def
/Pattern19 {<ffffffff33333333ffffffff33333333ffffffff33333333ffffffff33333333> PTRN} bind def
/Pattern20 {<0f0f0f0f0f0f0f0ff0f0f0f0f0f0f0f00f0f0f0f0f0f0f0ff0f0f0f0f0f0f0f0> PTRN} bind def
/Pattern21 {<ff00ff00ff00ff00ff00ff00ff00ff0000ff00ff00ff00ff00ff00ff00ff00ff> PTRN} bind def
/Pattern22 {<8001800180018001800180018001ffffffff8001800180018001800180018001> PTRN} bind def
/Pattern23 {<c003c003c003c003c003c003ffffffffffffffffc003c003c003c003c003c003> PTRN} bind def
/Pattern24 {<040404040404ffff404040404040ffff040404040404ffff404040404040ffff> PTRN} bind def
/Pattern25 {<180018001800180018001800ffffffff001800180018001800180018ffffffff> PTRN} bind def
/Pattern26 {<1111b8b87c7c3a3a1111a3a3c7c78b8b1111b8b87c7c3a3a1111a3a3c7c78b8b> PTRN} bind def
/Pattern27 {<101010102828c7c70101010182827c7c101010102828c7c70101010182827c7c> PTRN} bind def
/Pattern28 {<1c1c121211112121c1c12121111112121c1c121211112121c1c1212111111212> PTRN} bind def
/Pattern29 {<3e3e414180808080e3e31414080808083e3e414180808080e3e3141408080808> PTRN} bind def
/Pattern30 {<4848888884848383848488884848383848488888848483838484888848483838> PTRN} bind def
/Pattern31 {<03030404080808080c0c12122121c0c003030404080808080c0c12122121c0c0> PTRN} bind def
/ellipsedict 8 dict def
ellipsedict /mtrx matrix put
/EARC {
 ellipsedict begin
  /endangle exch def
  /startangle exch def
  /yrad exch def
  /xrad exch def
  /y exch def
  /x exch def
  /savematrix mtrx currentmatrix def
  x y translate
  xrad yrad scale
  0 0 1 startangle endangle arc
  savematrix setmatrix
 end
} def
/TL {
  /kcomp exch def
  /linewidth exch def
  /offset exch def
  GS
  0 offset rmoveto
  linewidth SLW
  dup stringwidth exch kcomp add exch RL s
  GR
} def
/KINIT
{
 /kvector exch def
 /kid 0 def
} def
/KPROC
{
 pop pop
 kvector kid get
 0 rmoveto
 /kid 1 kid add def
} def
/DefEncoding [
 /.notdef
 /.notdef
 /.notdef
 /.notdef
 /.notdef
 /.notdef
 /.notdef
 /.notdef
 /.notdef
 /.notdef
 /.notdef
 /.notdef
 /.notdef
 /.notdef
 /.notdef
 /.notdef
 /.notdef
 /.notdef
 /.notdef
 /.notdef
 /.notdef
 /.notdef
 /.notdef
 /.notdef
 /.notdef
 /.notdef
 /.notdef
 /.notdef
 /.notdef
 /.notdef
 /.notdef
 /.notdef
 /space
 /exclam
 /quotedbl
 /numbersign
 /dollar
 /percent
 /ampersand
 /quoteright
 /parenleft
 /parenright
 /asterisk
 /plus
 /comma
 /hyphen
 /period
 /slash
 /zero
 /one
 /two
 /three
 /four
 /five
 /six
 /seven
 /eight
 /nine
 /colon
 /semicolon
 /less
 /equal
 /greater
 /question
 /at
 /A
 /B
 /C
 /D
 /E
 /F
 /G
 /H
 /I
 /J
 /K
 /L
 /M
 /N
 /O
 /P
 /Q
 /R
 /S
 /T
 /U
 /V
 /W
 /X
 /Y
 /Z
 /bracketleft
 /backslash
 /bracketright
 /asciicircum
 /underscore
 /grave
 /a
 /b
 /c
 /d
 /e
 /f
 /g
 /h
 /i
 /j
 /k
 /l
 /m
 /n
 /o
 /p
 /q
 /r
 /s
 /t
 /u
 /v
 /w
 /x
 /y
 /z
 /braceleft
 /bar
 /braceright
 /asciitilde
 /.notdef
 /.notdef
 /.notdef
 /.notdef
 /.notdef
 /.notdef
 /.notdef
 /.notdef
 /.notdef
 /.notdef
 /.notdef
 /.notdef
 /.notdef
 /.notdef
 /.notdef
 /.notdef
 /.notdef
 /.notdef
 /.notdef
 /.notdef
 /.notdef
 /.notdef
 /.notdef
 /.notdef
 /.notdef
 /.notdef
 /.notdef
 /.notdef
 /.notdef
 /.notdef
 /.notdef
 /.notdef
 /.notdef
 /space
 /exclamdown
 /cent
 /sterling
 /currency
 /yen
 /brokenbar
 /section
 /dieresis
 /copyright
 /ordfeminine
 /guillemotleft
 /logicalnot
 /hyphen
 /registered
 /macron
 /degree
 /plusminus
 /twosuperior
 /threesuperior
 /acute
 /mu
 /paragraph
 /periodcentered
 /cedilla
 /onesuperior
 /ordmasculine
 /guillemotright
 /onequarter
 /onehalf
 /threequarters
 /questiondown
 /Agrave
 /Aacute
 /Acircumflex
 /Atilde
 /Adieresis
 /Aring
 /AE
 /Ccedilla
 /Egrave
 /Eacute
 /Ecircumflex
 /Edieresis
 /Igrave
 /Iacute
 /Icircumflex
 /Idieresis
 /Eth
 /Ntilde
 /Ograve
 /Oacute
 /Ocircumflex
 /Otilde
 /Odieresis
 /multiply
 /Oslash
 /Ugrave
 /Uacute
 /Ucircumflex
 /Udieresis
 /Yacute
 /Thorn
 /germandbls
 /agrave
 /aacute
 /acircumflex
 /atilde
 /adieresis
 /aring
 /ae
 /ccedilla
 /egrave
 /eacute
 /ecircumflex
 /edieresis
 /igrave
 /iacute
 /icircumflex
 /idieresis
 /eth
 /ntilde
 /ograve
 /oacute
 /ocircumflex
 /otilde
 /odieresis
 /divide
 /oslash
 /ugrave
 /uacute
 /ucircumflex
 /udieresis
 /yacute
 /thorn
 /ydieresis
] def
%%EndProlog
%%BeginSetup
%%EndSetup
612.00 612.00 scale
n
0.0000 0.0000 m
0.0000 1.0000 l
1.2941 1.0000 l
1.2941 0.0000 l
c
[/DeviceRGB] SCS
Color0 SC
fill
[/DeviceRGB] SCS
Color1 SC
[] 0 SD
0.0030 SLW
n 0.1625 0.7040 0.0100 0.0100 0 360 EARC s
n 0.2125 0.6820 0.0100 0.0100 0 360 EARC s
n 0.2625 0.6635 0.0100 0.0100 0 360 EARC s
n 0.3125 0.6481 0.0100 0.0100 0 360 EARC s
n 0.3625 0.6358 0.0100 0.0100 0 360 EARC s
n 0.4125 0.6262 0.0100 0.0100 0 360 EARC s
n 0.4625 0.6192 0.0100 0.0100 0 360 EARC s
n 0.5125 0.6146 0.0100 0.0100 0 360 EARC s
n 0.5625 0.6121 0.0100 0.0100 0 360 EARC s
n 0.6125 0.6116 0.0100 0.0100 0 360 EARC s
n 0.6625 0.6128 0.0100 0.0100 0 360 EARC s
n 0.7125 0.6155 0.0100 0.0100 0 360 EARC s
n 0.7625 0.6196 0.0100 0.0100 0 360 EARC s
n 0.8125 0.6247 0.0100 0.0100 0 360 EARC s
n 0.8625 0.6307 0.0100 0.0100 0 360 EARC s
n 0.9125 0.6375 0.0100 0.0100 0 360 EARC s
n 0.9625 0.6447 0.0100 0.0100 0 360 EARC s
n 1.0125 0.6522 0.0100 0.0100 0 360 EARC s
n 1.0625 0.6597 0.0100 0.0100 0 360 EARC s
n 1.1125 0.6671 0.0100 0.0100 0 360 EARC s
[] 0 SD
0.0037 SLW
0 SLC
0 SLJ
n
0.1512 0.7090 m
0.1525 0.7081 l
0.1537 0.7071 l
0.1550 0.7060 l
0.1562 0.7050 l
0.1575 0.7040 l
0.1588 0.7029 l
0.1600 0.7018 l
0.1613 0.7008 l
0.1625 0.6997 l
0.1638 0.6986 l
0.1650 0.6975 l
0.1663 0.6964 l
0.1675 0.6953 l
0.1688 0.6942 l
0.1700 0.6931 l
0.1713 0.6920 l
0.1725 0.6908 l
0.1738 0.6897 l
0.1750 0.6886 l
0.1763 0.6874 l
0.1775 0.6863 l
0.1788 0.6852 l
0.1800 0.6840 l
0.1813 0.6829 l
0.1825 0.6817 l
0.1837 0.6806 l
0.1850 0.6794 l
0.1862 0.6783 l
0.1875 0.6771 l
0.1887 0.6759 l
0.1900 0.6748 l
0.1912 0.6736 l
0.1925 0.6724 l
0.1937 0.6713 l
0.1950 0.6701 l
0.1962 0.6689 l
0.1975 0.6678 l
0.1987 0.6666 l
0.2000 0.6654 l
0.2012 0.6643 l
0.2025 0.6631 l
0.2037 0.6619 l
0.2050 0.6608 l
0.2062 0.6596 l
0.2075 0.6584 l
0.2087 0.6573 l
0.2100 0.6561 l
0.2112 0.6549 l
0.2125 0.6538 l
0.2137 0.6526 l
0.2150 0.6514 l
0.2162 0.6503 l
0.2175 0.6491 l
0.2187 0.6479 l
0.2200 0.6468 l
0.2212 0.6456 l
0.2225 0.6444 l
0.2237 0.6433 l
0.2250 0.6421 l
0.2262 0.6410 l
0.2275 0.6398 l
0.2287 0.6387 l
0.2300 0.6375 l
0.2312 0.6364 l
0.2325 0.6352 l
0.2337 0.6341 l
0.2350 0.6329 l
0.2362 0.6318 l
0.2375 0.6306 l
0.2387 0.6295 l
0.2400 0.6283 l
0.2412 0.6272 l
0.2425 0.6261 l
0.2437 0.6249 l
0.2450 0.6238 l
0.2462 0.6227 l
0.2475 0.6216 l
0.2487 0.6204 l
0.2500 0.6193 l
0.2512 0.6182 l
0.2525 0.6171 l
0.2537 0.6159 l
0.2550 0.6148 l
0.2562 0.6137 l
0.2575 0.6126 l
0.2587 0.6115 l
0.2600 0.6104 l
0.2612 0.6093 l
0.2625 0.6082 l
0.2637 0.6071 l
0.2650 0.6060 l
0.2662 0.6049 l
0.2675 0.6038 l
0.2687 0.6027 l
0.2700 0.6016 l
0.2712 0.6006 l
0.2725 0.5995 l
0.2737 0.5984 l
0.2750 0.5973 l
0.2762 0.5963 l
0.2775 0.5952 l
0.2787 0.5941 l
0.2800 0.5931 l
0.2812 0.5920 l
0.2825 0.5909 l
0.2837 0.5899 l
0.2850 0.5888 l
0.2862 0.5878 l
0.2875 0.5867 l
0.2887 0.5857 l
0.2900 0.5846 l
0.2912 0.5836 l
0.2925 0.5826 l
0.2937 0.5815 l
0.2950 0.5805 l
0.2962 0.5795 l
0.2975 0.5784 l
0.2987 0.5774 l
0.3000 0.5764 l
0.3012 0.5754 l
0.3025 0.5744 l
0.3037 0.5733 l
0.3050 0.5723 l
0.3062 0.5713 l
0.3075 0.5703 l
0.3087 0.5693 l
0.3100 0.5683 l
0.3112 0.5673 l
0.3125 0.5663 l
0.3137 0.5654 l
0.3150 0.5644 l
0.3162 0.5634 l
0.3175 0.5624 l
0.3187 0.5614 l
0.3200 0.5605 l
0.3212 0.5595 l
0.3225 0.5585 l
0.3237 0.5576 l
0.3250 0.5566 l
0.3262 0.5556 l
0.3275 0.5547 l
0.3287 0.5537 l
0.3300 0.5528 l
0.3312 0.5518 l
0.3325 0.5509 l
0.3337 0.5499 l
0.3350 0.5490 l
0.3362 0.5481 l
0.3375 0.5471 l
0.3387 0.5462 l
0.3400 0.5453 l
0.3412 0.5444 l
0.3425 0.5434 l
0.3437 0.5425 l
0.3450 0.5416 l
0.3462 0.5407 l
0.3475 0.5398 l
0.3487 0.5389 l
0.3500 0.5380 l
0.3512 0.5371 l
0.3525 0.5362 l
0.3537 0.5353 l
0.3550 0.5344 l
0.3562 0.5335 l
0.3575 0.5326 l
0.3587 0.5317 l
0.3600 0.5308 l
0.3612 0.5300 l
0.3625 0.5291 l
0.3637 0.5282 l
0.3650 0.5273 l
0.3662 0.5265 l
0.3675 0.5256 l
0.3687 0.5248 l
0.3700 0.5239 l
0.3712 0.5230 l
0.3725 0.5222 l
0.3737 0.5213 l
0.3750 0.5205 l
0.3762 0.5197 l
0.3775 0.5188 l
0.3787 0.5180 l
0.3800 0.5171 l
0.3812 0.5163 l
0.3825 0.5155 l
0.3837 0.5147 l
0.3850 0.5138 l
0.3862 0.5130 l
0.3875 0.5122 l
0.3887 0.5114 l
0.3900 0.5106 l
0.3912 0.5098 l
0.3925 0.5090 l
0.3937 0.5082 l
0.3950 0.5074 l
0.3962 0.5066 l
0.3975 0.5058 l
0.3987 0.5050 l
0.4000 0.5042 l
0.4012 0.5034 l
0.4025 0.5026 l
0.4037 0.5018 l
0.4050 0.5011 l
0.4062 0.5003 l
0.4075 0.4995 l
0.4087 0.4987 l
0.4100 0.4980 l
0.4112 0.4972 l
0.4125 0.4964 l
0.4137 0.4957 l
0.4150 0.4949 l
0.4162 0.4942 l
0.4175 0.4934 l
0.4187 0.4927 l
0.4200 0.4919 l
0.4212 0.4912 l
0.4225 0.4904 l
0.4237 0.4897 l
0.4250 0.4890 l
0.4262 0.4882 l
0.4275 0.4875 l
0.4287 0.4868 l
0.4300 0.4860 l
0.4312 0.4853 l
0.4325 0.4846 l
0.4337 0.4839 l
0.4350 0.4832 l
0.4362 0.4825 l
0.4375 0.4817 l
0.4387 0.4810 l
0.4400 0.4803 l
0.4412 0.4796 l
0.4425 0.4789 l
0.4437 0.4782 l
0.4450 0.4775 l
0.4462 0.4768 l
0.4475 0.4762 l
0.4487 0.4755 l
0.4500 0.4748 l
0.4512 0.4741 l
0.4525 0.4734 l
0.4537 0.4727 l
0.4550 0.4721 l
0.4562 0.4714 l
0.4575 0.4707 l
0.4587 0.4701 l
0.4600 0.4694 l
0.4612 0.4687 l
0.4625 0.4681 l
0.4637 0.4674 l
0.4650 0.4668 l
0.4662 0.4661 l
0.4675 0.4655 l
0.4687 0.4648 l
0.4700 0.4642 l
0.4712 0.4635 l
0.4725 0.4629 l
0.4737 0.4622 l
0.4750 0.4616 l
0.4762 0.4610 l
0.4775 0.4603 l
0.4787 0.4597 l
0.4800 0.4591 l
0.4812 0.4585 l
0.4825 0.4578 l
0.4837 0.4572 l
0.4850 0.4566 l
0.4862 0.4560 l
0.4875 0.4554 l
0.4887 0.4548 l
0.4900 0.4541 l
0.4912 0.4535 l
0.4925 0.4529 l
0.4937 0.4523 l
0.4950 0.4517 l
0.4962 0.4511 l
0.4975 0.4505 l
0.4987 0.4500 l
0.5000 0.4494 l
0.5012 0.4488 l
0.5025 0.4482 l
0.5037 0.4476 l
0.5050 0.4470 l
0.5062 0.4464 l
0.5075 0.4459 l
0.5087 0.4453 l
0.5100 0.4447 l
0.5112 0.4441 l
0.5125 0.4436 l
0.5137 0.4430 l
0.5150 0.4424 l
0.5162 0.4419 l
0.5175 0.4413 l
0.5187 0.4408 l
0.5200 0.4402 l
0.5212 0.4397 l
0.5225 0.4391 l
0.5237 0.4386 l
0.5250 0.4380 l
0.5262 0.4375 l
0.5275 0.4369 l
0.5287 0.4364 l
0.5300 0.4358 l
0.5312 0.4353 l
0.5325 0.4348 l
0.5337 0.4342 l
0.5350 0.4337 l
0.5362 0.4332 l
0.5375 0.4326 l
0.5387 0.4321 l
0.5400 0.4316 l
0.5412 0.4311 l
0.5425 0.4306 l
0.5437 0.4300 l
0.5450 0.4295 l
0.5462 0.4290 l
0.5475 0.4285 l
0.5487 0.4280 l
0.5500 0.4275 l
0.5512 0.4270 l
0.5525 0.4265 l
0.5537 0.4260 l
0.5550 0.4255 l
0.5562 0.4250 l
0.5575 0.4245 l
0.5587 0.4240 l
0.5600 0.4235 l
0.5612 0.4230 l
0.5625 0.4225 l
0.5637 0.4220 l
0.5650 0.4215 l
0.5662 0.4211 l
0.5675 0.4206 l
0.5687 0.4201 l
0.5700 0.4196 l
0.5712 0.4191 l
0.5725 0.4187 l
0.5737 0.4182 l
0.5750 0.4177 l
0.5762 0.4173 l
0.5775 0.4168 l
0.5787 0.4163 l
0.5800 0.4159 l
0.5812 0.4154 l
0.5825 0.4150 l
0.5837 0.4145 l
0.5850 0.4140 l
0.5862 0.4136 l
0.5875 0.4131 l
0.5887 0.4127 l
0.5900 0.4122 l
0.5912 0.4118 l
0.5925 0.4114 l
0.5937 0.4109 l
0.5950 0.4105 l
0.5962 0.4100 l
0.5975 0.4096 l
0.5987 0.4092 l
0.6000 0.4087 l
0.6012 0.4083 l
0.6025 0.4079 l
0.6037 0.4074 l
0.6050 0.4070 l
0.6062 0.4066 l
0.6075 0.4062 l
0.6087 0.4057 l
0.6100 0.4053 l
0.6112 0.4049 l
0.6125 0.4045 l
0.6137 0.4041 l
0.6150 0.4037 l
0.6162 0.4032 l
0.6175 0.4028 l
0.6187 0.4024 l
0.6200 0.4020 l
0.6212 0.4016 l
0.6225 0.4012 l
0.6237 0.4008 l
0.6250 0.4004 l
0.6262 0.4000 l
0.6275 0.3996 l
0.6287 0.3992 l
0.6300 0.3988 l
0.6312 0.3984 l
0.6325 0.3981 l
0.6337 0.3977 l
0.6350 0.3973 l
0.6362 0.3969 l
0.6375 0.3965 l
0.6387 0.3961 l
0.6400 0.3957 l
0.6412 0.3954 l
0.6425 0.3950 l
0.6437 0.3946 l
0.6450 0.3942 l
0.6462 0.3939 l
0.6475 0.3935 l
0.6487 0.3931 l
0.6500 0.3928 l
0.6512 0.3924 l
0.6525 0.3920 l
0.6537 0.3917 l
0.6550 0.3913 l
0.6562 0.3909 l
0.6575 0.3906 l
0.6587 0.3902 l
0.6600 0.3899 l
0.6612 0.3895 l
0.6625 0.3892 l
0.6637 0.3888 l
0.6650 0.3885 l
0.6662 0.3881 l
0.6675 0.3878 l
0.6687 0.3874 l
0.6700 0.3871 l
0.6712 0.3867 l
0.6725 0.3864 l
0.6737 0.3861 l
0.6750 0.3857 l
0.6762 0.3854 l
0.6775 0.3850 l
0.6787 0.3847 l
0.6800 0.3844 l
0.6812 0.3840 l
0.6825 0.3837 l
0.6837 0.3834 l
0.6850 0.3831 l
0.6862 0.3827 l
0.6875 0.3824 l
0.6887 0.3821 l
0.6900 0.3818 l
0.6912 0.3815 l
0.6925 0.3811 l
0.6937 0.3808 l
0.6950 0.3805 l
0.6962 0.3802 l
0.6975 0.3799 l
0.6987 0.3796 l
0.7000 0.3793 l
0.7012 0.3790 l
0.7025 0.3786 l
0.7037 0.3783 l
0.7050 0.3780 l
0.7062 0.3777 l
0.7075 0.3774 l
0.7087 0.3771 l
0.7100 0.3768 l
0.7112 0.3765 l
0.7125 0.3762 l
0.7137 0.3760 l
0.7150 0.3757 l
0.7162 0.3754 l
0.7175 0.3751 l
0.7187 0.3748 l
0.7200 0.3745 l
0.7212 0.3742 l
0.7225 0.3739 l
0.7237 0.3736 l
0.7250 0.3734 l
0.7262 0.3731 l
0.7275 0.3728 l
0.7287 0.3725 l
0.7300 0.3723 l
0.7312 0.3720 l
0.7325 0.3717 l
0.7337 0.3714 l
0.7350 0.3712 l
0.7362 0.3709 l
0.7375 0.3706 l
0.7387 0.3703 l
0.7400 0.3701 l
0.7412 0.3698 l
0.7425 0.3696 l
0.7437 0.3693 l
0.7450 0.3690 l
0.7462 0.3688 l
0.7475 0.3685 l
0.7487 0.3683 l
0.7500 0.3680 l
0.7512 0.3677 l
0.7525 0.3675 l
0.7537 0.3672 l
0.7550 0.3670 l
0.7562 0.3667 l
0.7575 0.3665 l
0.7587 0.3662 l
0.7600 0.3660 l
0.7612 0.3657 l
0.7625 0.3655 l
0.7637 0.3653 l
0.7650 0.3650 l
0.7662 0.3648 l
0.7675 0.3645 l
0.7687 0.3643 l
0.7700 0.3641 l
0.7712 0.3638 l
0.7725 0.3636 l
0.7737 0.3634 l
0.7750 0.3631 l
0.7762 0.3629 l
0.7775 0.3627 l
0.7787 0.3625 l
0.7800 0.3622 l
0.7812 0.3620 l
0.7825 0.3618 l
0.7837 0.3616 l
0.7850 0.3613 l
0.7862 0.3611 l
0.7875 0.3609 l
0.7887 0.3607 l
0.7900 0.3605 l
0.7912 0.3602 l
0.7925 0.3600 l
0.7937 0.3598 l
0.7950 0.3596 l
0.7962 0.3594 l
0.7975 0.3592 l
0.7987 0.3590 l
0.8000 0.3588 l
0.8012 0.3586 l
0.8025 0.3584 l
0.8037 0.3581 l
0.8050 0.3579 l
0.8062 0.3577 l
0.8075 0.3575 l
0.8087 0.3573 l
0.8100 0.3571 l
0.8112 0.3570 l
0.8125 0.3568 l
0.8137 0.3566 l
0.8150 0.3564 l
0.8162 0.3562 l
0.8175 0.3560 l
0.8187 0.3558 l
0.8200 0.3556 l
0.8212 0.3554 l
0.8225 0.3552 l
0.8237 0.3550 l
0.8250 0.3549 l
0.8262 0.3547 l
0.8275 0.3545 l
0.8287 0.3543 l
0.8300 0.3541 l
0.8312 0.3540 l
0.8325 0.3538 l
0.8337 0.3536 l
0.8350 0.3534 l
0.8362 0.3533 l
0.8375 0.3531 l
0.8387 0.3529 l
0.8400 0.3527 l
0.8412 0.3526 l
0.8425 0.3524 l
0.8437 0.3522 l
0.8450 0.3521 l
0.8462 0.3519 l
0.8475 0.3517 l
0.8487 0.3516 l
0.8500 0.3514 l
0.8512 0.3512 l
0.8525 0.3511 l
0.8537 0.3509 l
0.8550 0.3508 l
0.8562 0.3506 l
0.8575 0.3505 l
0.8587 0.3503 l
0.8600 0.3502 l
0.8612 0.3500 l
0.8625 0.3499 l
0.8637 0.3497 l
0.8650 0.3496 l
0.8662 0.3494 l
0.8675 0.3493 l
0.8687 0.3491 l
0.8700 0.3490 l
0.8712 0.3488 l
0.8725 0.3487 l
0.8737 0.3485 l
0.8750 0.3484 l
0.8762 0.3483 l
0.8775 0.3481 l
0.8787 0.3480 l
0.8800 0.3479 l
0.8812 0.3477 l
0.8825 0.3476 l
0.8837 0.3475 l
0.8850 0.3473 l
0.8862 0.3472 l
0.8875 0.3471 l
0.8887 0.3469 l
0.8900 0.3468 l
0.8912 0.3467 l
0.8925 0.3466 l
0.8937 0.3464 l
0.8950 0.3463 l
0.8962 0.3462 l
0.8975 0.3461 l
0.8987 0.3459 l
0.9000 0.3458 l
0.9012 0.3457 l
0.9025 0.3456 l
0.9037 0.3455 l
0.9050 0.3454 l
0.9062 0.3452 l
0.9075 0.3451 l
0.9087 0.3450 l
0.9100 0.3449 l
0.9112 0.3448 l
0.9125 0.3447 l
0.9137 0.3446 l
0.9150 0.3445 l
0.9163 0.3444 l
0.9175 0.3443 l
0.9187 0.3442 l
0.9200 0.3441 l
0.9212 0.3440 l
0.9225 0.3439 l
0.9237 0.3438 l
0.9250 0.3437 l
0.9262 0.3436 l
0.9275 0.3435 l
0.9287 0.3434 l
0.9300 0.3433 l
0.9312 0.3432 l
0.9325 0.3431 l
0.9337 0.3430 l
0.9350 0.3429 l
0.9362 0.3428 l
0.9375 0.3428 l
0.9387 0.3427 l
0.9400 0.3426 l
0.9412 0.3425 l
0.9425 0.3424 l
0.9437 0.3423 l
0.9450 0.3423 l
0.9462 0.3422 l
0.9475 0.3421 l
0.9487 0.3420 l
0.9500 0.3419 l
0.9512 0.3419 l
0.9525 0.3418 l
0.9537 0.3417 l
0.9550 0.3416 l
0.9562 0.3416 l
0.9575 0.3415 l
0.9587 0.3414 l
0.9600 0.3414 l
0.9612 0.3413 l
0.9625 0.3412 l
0.9637 0.3412 l
0.9650 0.3411 l
0.9662 0.3410 l
0.9675 0.3410 l
0.9687 0.3409 l
0.9700 0.3409 l
0.9712 0.3408 l
0.9725 0.3407 l
0.9737 0.3407 l
0.9750 0.3406 l
0.9762 0.3406 l
0.9775 0.3405 l
0.9787 0.3405 l
0.9800 0.3404 l
0.9812 0.3404 l
0.9825 0.3403 l
0.9837 0.3403 l
0.9850 0.3402 l
0.9862 0.3402 l
0.9875 0.3401 l
0.9887 0.3401 l
0.9900 0.3400 l
0.9912 0.3400 l
0.9925 0.3400 l
0.9937 0.3399 l
0.9950 0.3399 l
0.9962 0.3398 l
0.9975 0.3398 l
0.9987 0.3398 l
1.0000 0.3397 l
1.0012 0.3397 l
1.0025 0.3397 l
1.0037 0.3396 l
1.0050 0.3396 l
1.0062 0.3396 l
1.0075 0.3395 l
1.0087 0.3395 l
1.0100 0.3395 l
1.0112 0.3395 l
1.0125 0.3394 l
1.0137 0.3394 l
1.0150 0.3394 l
1.0162 0.3394 l
1.0175 0.3394 l
1.0187 0.3393 l
1.0200 0.3393 l
1.0212 0.3393 l
1.0225 0.3393 l
1.0237 0.3393 l
1.0250 0.3393 l
1.0262 0.3392 l
1.0275 0.3392 l
1.0287 0.3392 l
1.0300 0.3392 l
1.0312 0.3392 l
1.0325 0.3392 l
1.0337 0.3392 l
1.0350 0.3392 l
1.0362 0.3392 l
1.0375 0.3392 l
1.0387 0.3392 l
1.0400 0.3392 l
1.0412 0.3392 l
1.0425 0.3392 l
1.0437 0.3392 l
1.0450 0.3392 l
1.0462 0.3392 l
1.0475 0.3392 l
1.0487 0.3392 l
1.0500 0.3392 l
1.0513 0.3392 l
1.0525 0.3392 l
1.0537 0.3392 l
1.0550 0.3392 l
1.0562 0.3393 l
1.0575 0.3393 l
1.0587 0.3393 l
1.0600 0.3393 l
1.0612 0.3393 l
1.0625 0.3393 l
1.0637 0.3394 l
1.0650 0.3394 l
1.0662 0.3394 l
1.0675 0.3394 l
1.0687 0.3395 l
1.0700 0.3395 l
1.0713 0.3395 l
1.0725 0.3395 l
1.0737 0.3396 l
1.0750 0.3396 l
1.0762 0.3396 l
1.0775 0.3397 l
1.0787 0.3397 l
1.0800 0.3397 l
1.0812 0.3398 l
1.0825 0.3398 l
1.0837 0.3398 l
1.0850 0.3399 l
1.0862 0.3399 l
1.0875 0.3399 l
1.0887 0.3400 l
1.0900 0.3400 l
1.0913 0.3401 l
1.0925 0.3401 l
1.0937 0.3402 l
1.0950 0.3402 l
1.0962 0.3403 l
1.0975 0.3403 l
1.0987 0.3404 l
1.1000 0.3404 l
1.1012 0.3405 l
1.1025 0.3405 l
1.1037 0.3406 l
1.1050 0.3406 l
1.1062 0.3407 l
1.1075 0.3408 l
1.1087 0.3408 l
1.1100 0.3409 l
1.1112 0.3409 l
1.1125 0.3410 l
1.1137 0.3411 l
1.1150 0.3411 l
1.1162 0.3412 l
1.1175 0.3413 l
1.1187 0.3413 l
1.1200 0.3414 l
1.1212 0.3415 l
1.1225 0.3416 l
1.1237 0.3416 l
1.1250 0.3417 l
1.1262 0.3418 l
1.1275 0.3419 l
1.1287 0.3420 l
1.1300 0.3420 l
1.1312 0.3421 l
1.1325 0.3422 l
1.1337 0.3423 l
1.1350 0.3424 l
1.1362 0.3425 l
1.1375 0.3425 l
1.1387 0.3426 l
1.1400 0.3427 l
1.1412 0.3428 l
1.1425 0.3429 l
1.1437 0.3430 l
1.1450 0.3431 l
1.1462 0.3432 l
1.1475 0.3433 l
1.1487 0.3434 l
1.1500 0.3435 l
1.1501 0.3435 l
s
[/DeviceRGB] SCS
Color3 SC
[0.0187 0.0112 ] 0 SD
0.0037 SLW
n
0.1512 0.7139 m
0.1525 0.7171 l
0.1537 0.7199 l
0.1550 0.7225 l
0.1562 0.7250 l
0.1575 0.7274 l
0.1588 0.7296 l
0.1600 0.7318 l
0.1613 0.7338 l
0.1625 0.7359 l
0.1638 0.7378 l
0.1650 0.7397 l
0.1663 0.7416 l
0.1675 0.7434 l
0.1688 0.7451 l
0.1700 0.7468 l
0.1713 0.7485 l
0.1725 0.7501 l
0.1738 0.7517 l
0.1750 0.7533 l
0.1763 0.7549 l
0.1775 0.7564 l
0.1788 0.7578 l
0.1800 0.7593 l
0.1813 0.7607 l
0.1825 0.7621 l
0.1837 0.7635 l
0.1850 0.7648 l
0.1862 0.7662 l
0.1875 0.7675 l
0.1887 0.7687 l
0.1900 0.7700 l
0.1912 0.7712 l
0.1925 0.7725 l
0.1937 0.7737 l
0.1950 0.7748 l
0.1962 0.7760 l
0.1975 0.7771 l
0.1987 0.7783 l
0.2000 0.7794 l
0.2012 0.7805 l
0.2025 0.7815 l
0.2037 0.7826 l
0.2050 0.7836 l
0.2062 0.7846 l
0.2075 0.7857 l
0.2087 0.7866 l
0.2100 0.7876 l
0.2112 0.7886 l
0.2125 0.7895 l
0.2137 0.7905 l
0.2150 0.7914 l
0.2162 0.7923 l
0.2175 0.7932 l
0.2187 0.7941 l
0.2200 0.7949 l
0.2212 0.7958 l
0.2225 0.7966 l
0.2237 0.7974 l
0.2250 0.7983 l
0.2262 0.7991 l
0.2275 0.7998 l
0.2287 0.8006 l
0.2300 0.8014 l
0.2312 0.8021 l
0.2325 0.8029 l
0.2337 0.8036 l
0.2350 0.8043 l
0.2362 0.8050 l
0.2375 0.8057 l
0.2387 0.8064 l
0.2400 0.8071 l
0.2412 0.8077 l
0.2425 0.8084 l
0.2437 0.8090 l
0.2450 0.8097 l
0.2462 0.8103 l
0.2475 0.8109 l
0.2487 0.8115 l
0.2500 0.8121 l
0.2512 0.8127 l
0.2525 0.8132 l
0.2537 0.8138 l
0.2550 0.8143 l
0.2562 0.8149 l
0.2575 0.8154 l
0.2587 0.8159 l
0.2600 0.8164 l
0.2612 0.8169 l
0.2625 0.8174 l
0.2637 0.8179 l
0.2650 0.8184 l
0.2662 0.8189 l
0.2675 0.8193 l
0.2687 0.8198 l
0.2700 0.8202 l
0.2712 0.8206 l
0.2725 0.8211 l
0.2737 0.8215 l
0.2750 0.8219 l
0.2762 0.8223 l
0.2775 0.8227 l
0.2787 0.8231 l
0.2800 0.8234 l
0.2812 0.8238 l
0.2825 0.8241 l
0.2837 0.8245 l
0.2850 0.8248 l
0.2862 0.8252 l
0.2875 0.8255 l
0.2887 0.8258 l
0.2900 0.8261 l
0.2912 0.8264 l
0.2925 0.8267 l
0.2937 0.8270 l
0.2950 0.8273 l
0.2962 0.8276 l
0.2975 0.8278 l
0.2987 0.8281 l
0.3000 0.8283 l
0.3012 0.8286 l
0.3025 0.8288 l
0.3037 0.8290 l
0.3050 0.8293 l
0.3062 0.8295 l
0.3075 0.8297 l
0.3087 0.8299 l
0.3100 0.8301 l
0.3112 0.8303 l
0.3125 0.8304 l
0.3137 0.8306 l
0.3150 0.8308 l
0.3162 0.8309 l
0.3175 0.8311 l
0.3187 0.8312 l
0.3200 0.8314 l
0.3212 0.8315 l
0.3225 0.8316 l
0.3237 0.8318 l
0.3250 0.8319 l
0.3262 0.8320 l
0.3275 0.8321 l
0.3287 0.8322 l
0.3300 0.8323 l
0.3312 0.8324 l
0.3325 0.8324 l
0.3337 0.8325 l
0.3350 0.8326 l
0.3362 0.8326 l
0.3375 0.8327 l
0.3387 0.8327 l
0.3400 0.8328 l
0.3412 0.8328 l
0.3425 0.8328 l
0.3437 0.8329 l
0.3450 0.8329 l
0.3462 0.8329 l
0.3475 0.8329 l
0.3487 0.8329 l
0.3500 0.8329 l
0.3512 0.8329 l
0.3525 0.8329 l
0.3537 0.8329 l
0.3550 0.8328 l
0.3562 0.8328 l
0.3575 0.8328 l
0.3587 0.8327 l
0.3600 0.8327 l
0.3612 0.8326 l
0.3625 0.8326 l
0.3637 0.8325 l
0.3650 0.8325 l
0.3662 0.8324 l
0.3675 0.8323 l
0.3687 0.8322 l
0.3700 0.8321 l
0.3712 0.8321 l
0.3725 0.8320 l
0.3737 0.8319 l
0.3750 0.8318 l
0.3762 0.8316 l
0.3775 0.8315 l
0.3787 0.8314 l
0.3800 0.8313 l
0.3812 0.8312 l
0.3825 0.8310 l
0.3837 0.8309 l
0.3850 0.8307 l
0.3862 0.8306 l
0.3875 0.8305 l
0.3887 0.8303 l
0.3900 0.8301 l
0.3912 0.8300 l
0.3925 0.8298 l
0.3937 0.8296 l
0.3950 0.8295 l
0.3962 0.8293 l
0.3975 0.8291 l
0.3987 0.8289 l
0.4000 0.8287 l
0.4012 0.8285 l
0.4025 0.8283 l
0.4037 0.8281 l
0.4050 0.8279 l
0.4062 0.8277 l
0.4075 0.8275 l
0.4087 0.8272 l
0.4100 0.8270 l
0.4112 0.8268 l
0.4125 0.8265 l
0.4137 0.8263 l
0.4150 0.8261 l
0.4162 0.8258 l
0.4175 0.8256 l
0.4187 0.8253 l
0.4200 0.8251 l
0.4212 0.8248 l
0.4225 0.8245 l
0.4237 0.8243 l
0.4250 0.8240 l
0.4262 0.8237 l
0.4275 0.8234 l
0.4287 0.8232 l
0.4300 0.8229 l
0.4312 0.8226 l
0.4325 0.8223 l
0.4337 0.8220 l
0.4350 0.8217 l
0.4362 0.8214 l
0.4375 0.8211 l
0.4387 0.8208 l
0.4400 0.8205 l
0.4412 0.8201 l
0.4425 0.8198 l
0.4437 0.8195 l
0.4450 0.8192 l
0.4462 0.8188 l
0.4475 0.8185 l
0.4487 0.8182 l
0.4500 0.8178 l
0.4512 0.8175 l
0.4525 0.8172 l
0.4537 0.8168 l
0.4550 0.8165 l
0.4562 0.8161 l
0.4575 0.8157 l
0.4587 0.8154 l
0.4600 0.8150 l
0.4612 0.8147 l
0.4625 0.8143 l
0.4637 0.8139 l
0.4650 0.8135 l
0.4662 0.8132 l
0.4675 0.8128 l
0.4687 0.8124 l
0.4700 0.8120 l
0.4712 0.8116 l
0.4725 0.8113 l
0.4737 0.8109 l
0.4750 0.8105 l
0.4762 0.8101 l
0.4775 0.8097 l
0.4787 0.8093 l
0.4800 0.8089 l
0.4812 0.8084 l
0.4825 0.8080 l
0.4837 0.8076 l
0.4850 0.8072 l
0.4862 0.8068 l
0.4875 0.8064 l
0.4887 0.8059 l
0.4900 0.8055 l
0.4912 0.8051 l
0.4925 0.8047 l
0.4937 0.8042 l
0.4950 0.8038 l
0.4962 0.8034 l
0.4975 0.8029 l
0.4987 0.8025 l
0.5000 0.8020 l
0.5012 0.8016 l
0.5025 0.8011 l
0.5037 0.8007 l
0.5050 0.8002 l
0.5062 0.7998 l
0.5075 0.7993 l
0.5087 0.7989 l
0.5100 0.7984 l
0.5112 0.7979 l
0.5125 0.7975 l
0.5137 0.7970 l
0.5150 0.7965 l
0.5162 0.7961 l
0.5175 0.7956 l
0.5187 0.7951 l
0.5200 0.7946 l
0.5212 0.7942 l
0.5225 0.7937 l
0.5237 0.7932 l
0.5250 0.7927 l
0.5262 0.7922 l
0.5275 0.7917 l
0.5287 0.7912 l
0.5300 0.7908 l
0.5312 0.7903 l
0.5325 0.7898 l
0.5337 0.7893 l
0.5350 0.7888 l
0.5362 0.7883 l
0.5375 0.7878 l
0.5387 0.7873 l
0.5400 0.7868 l
0.5412 0.7862 l
0.5425 0.7857 l
0.5437 0.7852 l
0.5450 0.7847 l
0.5462 0.7842 l
0.5475 0.7837 l
0.5487 0.7832 l
0.5500 0.7826 l
0.5512 0.7821 l
0.5525 0.7816 l
0.5537 0.7811 l
0.5550 0.7806 l
0.5562 0.7800 l
0.5575 0.7795 l
0.5587 0.7790 l
0.5600 0.7784 l
0.5612 0.7779 l
0.5625 0.7774 l
0.5637 0.7768 l
0.5650 0.7763 l
0.5662 0.7758 l
0.5675 0.7752 l
0.5687 0.7747 l
0.5700 0.7741 l
0.5712 0.7736 l
0.5725 0.7731 l
0.5737 0.7725 l
0.5750 0.7720 l
0.5762 0.7714 l
0.5775 0.7709 l
0.5787 0.7703 l
0.5800 0.7698 l
0.5812 0.7692 l
0.5825 0.7687 l
0.5837 0.7681 l
0.5850 0.7676 l
0.5862 0.7670 l
0.5875 0.7664 l
0.5887 0.7659 l
0.5900 0.7653 l
0.5912 0.7648 l
0.5925 0.7642 l
0.5937 0.7636 l
0.5950 0.7631 l
0.5962 0.7625 l
0.5975 0.7619 l
0.5987 0.7614 l
0.6000 0.7608 l
0.6012 0.7602 l
0.6025 0.7597 l
0.6037 0.7591 l
0.6050 0.7585 l
0.6062 0.7579 l
0.6075 0.7574 l
0.6087 0.7568 l
0.6100 0.7562 l
0.6112 0.7556 l
0.6125 0.7551 l
0.6137 0.7545 l
0.6150 0.7539 l
0.6162 0.7533 l
0.6175 0.7527 l
0.6187 0.7522 l
0.6200 0.7516 l
0.6212 0.7510 l
0.6225 0.7504 l
0.6237 0.7498 l
0.6250 0.7492 l
0.6262 0.7487 l
0.6275 0.7481 l
0.6287 0.7475 l
0.6300 0.7469 l
0.6312 0.7463 l
0.6325 0.7457 l
0.6337 0.7451 l
0.6350 0.7445 l
0.6362 0.7439 l
0.6375 0.7434 l
0.6387 0.7428 l
0.6400 0.7422 l
0.6412 0.7416 l
0.6425 0.7410 l
0.6437 0.7404 l
0.6450 0.7398 l
0.6462 0.7392 l
0.6475 0.7386 l
0.6487 0.7380 l
0.6500 0.7374 l
0.6512 0.7368 l
0.6525 0.7362 l
0.6537 0.7356 l
0.6550 0.7350 l
0.6562 0.7344 l
0.6575 0.7338 l
0.6587 0.7332 l
0.6600 0.7326 l
0.6612 0.7320 l
0.6625 0.7314 l
0.6637 0.7308 l
0.6650 0.7302 l
0.6662 0.7296 l
0.6675 0.7290 l
0.6687 0.7284 l
0.6700 0.7278 l
0.6712 0.7271 l
0.6725 0.7265 l
0.6737 0.7259 l
0.6750 0.7253 l
0.6762 0.7247 l
0.6775 0.7241 l
0.6787 0.7235 l
0.6800 0.7229 l
0.6812 0.7223 l
0.6825 0.7217 l
0.6837 0.7211 l
0.6850 0.7205 l
0.6862 0.7198 l
0.6875 0.7192 l
0.6887 0.7186 l
0.6900 0.7180 l
0.6912 0.7174 l
0.6925 0.7168 l
0.6937 0.7162 l
0.6950 0.7156 l
0.6962 0.7150 l
0.6975 0.7143 l
0.6987 0.7137 l
0.7000 0.7131 l
0.7012 0.7125 l
0.7025 0.7119 l
0.7037 0.7113 l
0.7050 0.7107 l
0.7062 0.7100 l
0.7075 0.7094 l
0.7087 0.7088 l
0.7100 0.7082 l
0.7112 0.7076 l
0.7125 0.7070 l
0.7137 0.7064 l
0.7150 0.7057 l
0.7162 0.7051 l
0.7175 0.7045 l
0.7187 0.7039 l
0.7200 0.7033 l
0.7212 0.7027 l
0.7225 0.7021 l
0.7237 0.7014 l
0.7250 0.7008 l
0.7262 0.7002 l
0.7275 0.6996 l
0.7287 0.6990 l
0.7300 0.6984 l
0.7312 0.6977 l
0.7325 0.6971 l
0.7337 0.6965 l
0.7350 0.6959 l
0.7362 0.6953 l
0.7375 0.6947 l
0.7387 0.6940 l
0.7400 0.6934 l
0.7412 0.6928 l
0.7425 0.6922 l
0.7437 0.6916 l
0.7450 0.6910 l
0.7462 0.6904 l
0.7475 0.6897 l
0.7487 0.6891 l
0.7500 0.6885 l
0.7512 0.6879 l
0.7525 0.6873 l
0.7537 0.6867 l
0.7550 0.6860 l
0.7562 0.6854 l
0.7575 0.6848 l
0.7587 0.6842 l
0.7600 0.6836 l
0.7612 0.6830 l
0.7625 0.6824 l
0.7637 0.6817 l
0.7650 0.6811 l
0.7662 0.6805 l
0.7675 0.6799 l
0.7687 0.6793 l
0.7700 0.6787 l
0.7712 0.6780 l
0.7725 0.6774 l
0.7737 0.6768 l
0.7750 0.6762 l
0.7762 0.6756 l
0.7775 0.6750 l
0.7787 0.6744 l
0.7800 0.6738 l
0.7812 0.6731 l
0.7825 0.6725 l
0.7837 0.6719 l
0.7850 0.6713 l
0.7862 0.6707 l
0.7875 0.6701 l
0.7887 0.6695 l
0.7900 0.6689 l
0.7912 0.6682 l
0.7925 0.6676 l
0.7937 0.6670 l
0.7950 0.6664 l
0.7962 0.6658 l
0.7975 0.6652 l
0.7987 0.6646 l
0.8000 0.6640 l
0.8012 0.6634 l
0.8025 0.6628 l
0.8037 0.6621 l
0.8050 0.6615 l
0.8062 0.6609 l
0.8075 0.6603 l
0.8087 0.6597 l
0.8100 0.6591 l
0.8112 0.6585 l
0.8125 0.6579 l
0.8137 0.6573 l
0.8150 0.6567 l
0.8162 0.6561 l
0.8175 0.6555 l
0.8187 0.6549 l
0.8200 0.6542 l
0.8212 0.6536 l
0.8225 0.6530 l
0.8237 0.6524 l
0.8250 0.6518 l
0.8262 0.6512 l
0.8275 0.6506 l
0.8287 0.6500 l
0.8300 0.6494 l
0.8312 0.6488 l
0.8325 0.6482 l
0.8337 0.6476 l
0.8350 0.6470 l
0.8362 0.6464 l
0.8375 0.6458 l
0.8387 0.6452 l
0.8400 0.6446 l
0.8412 0.6440 l
0.8425 0.6434 l
0.8437 0.6428 l
0.8450 0.6422 l
0.8462 0.6416 l
0.8475 0.6410 l
0.8487 0.6404 l
0.8500 0.6398 l
0.8512 0.6392 l
0.8525 0.6386 l
0.8537 0.6380 l
0.8550 0.6374 l
0.8562 0.6368 l
0.8575 0.6362 l
0.8587 0.6356 l
0.8600 0.6350 l
0.8612 0.6344 l
0.8625 0.6339 l
0.8637 0.6333 l
0.8650 0.6327 l
0.8662 0.6321 l
0.8675 0.6315 l
0.8687 0.6309 l
0.8700 0.6303 l
0.8712 0.6297 l
0.8725 0.6291 l
0.8737 0.6285 l
0.8750 0.6279 l
0.8762 0.6274 l
0.8775 0.6268 l
0.8787 0.6262 l
0.8800 0.6256 l
0.8812 0.6250 l
0.8825 0.6244 l
0.8837 0.6238 l
0.8850 0.6232 l
0.8862 0.6227 l
0.8875 0.6221 l
0.8887 0.6215 l
0.8900 0.6209 l
0.8912 0.6203 l
0.8925 0.6197 l
0.8937 0.6191 l
0.8950 0.6186 l
0.8962 0.6180 l
0.8975 0.6174 l
0.8987 0.6168 l
0.9000 0.6162 l
0.9012 0.6157 l
0.9025 0.6151 l
0.9037 0.6145 l
0.9050 0.6139 l
0.9062 0.6133 l
0.9075 0.6128 l
0.9087 0.6122 l
0.9100 0.6116 l
0.9112 0.6110 l
0.9125 0.6105 l
0.9137 0.6099 l
0.9150 0.6093 l
0.9163 0.6087 l
0.9175 0.6082 l
0.9187 0.6076 l
0.9200 0.6070 l
0.9212 0.6064 l
0.9225 0.6059 l
0.9237 0.6053 l
0.9250 0.6047 l
0.9262 0.6042 l
0.9275 0.6036 l
0.9287 0.6030 l
0.9300 0.6024 l
0.9312 0.6019 l
0.9325 0.6013 l
0.9337 0.6007 l
0.9350 0.6002 l
0.9362 0.5996 l
0.9375 0.5990 l
0.9387 0.5985 l
0.9400 0.5979 l
0.9412 0.5973 l
0.9425 0.5968 l
0.9437 0.5962 l
0.9450 0.5957 l
0.9462 0.5951 l
0.9475 0.5945 l
0.9487 0.5940 l
0.9500 0.5934 l
0.9512 0.5928 l
0.9525 0.5923 l
0.9537 0.5917 l
0.9550 0.5912 l
0.9562 0.5906 l
0.9575 0.5901 l
0.9587 0.5895 l
0.9600 0.5889 l
0.9612 0.5884 l
0.9625 0.5878 l
0.9637 0.5873 l
0.9650 0.5867 l
0.9662 0.5862 l
0.9675 0.5856 l
0.9687 0.5851 l
0.9700 0.5845 l
0.9712 0.5839 l
0.9725 0.5834 l
0.9737 0.5828 l
0.9750 0.5823 l
0.9762 0.5817 l
0.9775 0.5812 l
0.9787 0.5806 l
0.9800 0.5801 l
0.9812 0.5796 l
0.9825 0.5790 l
0.9837 0.5785 l
0.9850 0.5779 l
0.9862 0.5774 l
0.9875 0.5768 l
0.9887 0.5763 l
0.9900 0.5757 l
0.9912 0.5752 l
0.9925 0.5747 l
0.9937 0.5741 l
0.9950 0.5736 l
0.9962 0.5730 l
0.9975 0.5725 l
0.9987 0.5719 l
1.0000 0.5714 l
1.0012 0.5709 l
1.0025 0.5703 l
1.0037 0.5698 l
1.0050 0.5693 l
1.0062 0.5687 l
1.0075 0.5682 l
1.0087 0.5676 l
1.0100 0.5671 l
1.0112 0.5666 l
1.0125 0.5660 l
1.0137 0.5655 l
1.0150 0.5650 l
1.0162 0.5644 l
1.0175 0.5639 l
1.0187 0.5634 l
1.0200 0.5629 l
1.0212 0.5623 l
1.0225 0.5618 l
1.0237 0.5613 l
1.0250 0.5607 l
1.0262 0.5602 l
1.0275 0.5597 l
1.0287 0.5592 l
1.0300 0.5586 l
1.0312 0.5581 l
1.0325 0.5576 l
1.0337 0.5571 l
1.0350 0.5565 l
1.0362 0.5560 l
1.0375 0.5555 l
1.0387 0.5550 l
1.0400 0.5544 l
1.0412 0.5539 l
1.0425 0.5534 l
1.0437 0.5529 l
1.0450 0.5524 l
1.0462 0.5519 l
1.0475 0.5513 l
1.0487 0.5508 l
1.0500 0.5503 l
1.0513 0.5498 l
1.0525 0.5493 l
1.0537 0.5488 l
1.0550 0.5482 l
1.0562 0.5477 l
1.0575 0.5472 l
1.0587 0.5467 l
1.0600 0.5462 l
1.0612 0.5457 l
1.0625 0.5452 l
1.0637 0.5447 l
1.0650 0.5441 l
1.0662 0.5436 l
1.0675 0.5431 l
1.0687 0.5426 l
1.0700 0.5421 l
1.0713 0.5416 l
1.0725 0.5411 l
1.0737 0.5406 l
1.0750 0.5401 l
1.0762 0.5396 l
1.0775 0.5391 l
1.0787 0.5386 l
1.0800 0.5381 l
1.0812 0.5376 l
1.0825 0.5371 l
1.0837 0.5366 l
1.0850 0.5361 l
1.0862 0.5356 l
1.0875 0.5351 l
1.0887 0.5346 l
1.0900 0.5341 l
1.0913 0.5336 l
1.0925 0.5331 l
1.0937 0.5326 l
1.0950 0.5321 l
1.0962 0.5316 l
1.0975 0.5311 l
1.0987 0.5306 l
1.1000 0.5301 l
1.1012 0.5296 l
1.1025 0.5291 l
1.1037 0.5286 l
1.1050 0.5281 l
1.1062 0.5277 l
1.1075 0.5272 l
1.1087 0.5267 l
1.1100 0.5262 l
1.1112 0.5257 l
1.1125 0.5252 l
1.1137 0.5247 l
1.1150 0.5242 l
1.1162 0.5238 l
1.1175 0.5233 l
1.1187 0.5228 l
1.1200 0.5223 l
1.1212 0.5218 l
1.1225 0.5213 l
1.1237 0.5209 l
1.1250 0.5204 l
1.1262 0.5199 l
1.1275 0.5194 l
1.1287 0.5189 l
1.1300 0.5185 l
1.1312 0.5180 l
1.1325 0.5175 l
1.1337 0.5170 l
1.1350 0.5165 l
1.1362 0.5161 l
1.1375 0.5156 l
1.1387 0.5151 l
1.1400 0.5146 l
1.1412 0.5142 l
1.1425 0.5137 l
1.1437 0.5132 l
1.1450 0.5127 l
1.1462 0.5123 l
1.1475 0.5118 l
1.1487 0.5113 l
1.1500 0.5109 l
1.1501 0.5108 l
s
[/DeviceRGB] SCS
Color2 SC
n
0.1512 0.7140 m
0.1525 0.7171 l
0.1537 0.7198 l
0.1550 0.7224 l
0.1562 0.7247 l
0.1575 0.7269 l
0.1588 0.7290 l
0.1600 0.7310 l
0.1613 0.7329 l
0.1625 0.7347 l
0.1638 0.7365 l
0.1650 0.7381 l
0.1663 0.7397 l
0.1675 0.7413 l
0.1688 0.7428 l
0.1700 0.7442 l
0.1713 0.7456 l
0.1725 0.7469 l
0.1738 0.7482 l
0.1750 0.7495 l
0.1763 0.7507 l
0.1775 0.7519 l
0.1788 0.7530 l
0.1800 0.7541 l
0.1813 0.7551 l
0.1825 0.7562 l
0.1837 0.7571 l
0.1850 0.7581 l
0.1862 0.7590 l
0.1875 0.7599 l
0.1887 0.7608 l
0.1900 0.7616 l
0.1912 0.7624 l
0.1925 0.7632 l
0.1937 0.7639 l
0.1950 0.7647 l
0.1962 0.7654 l
0.1975 0.7660 l
0.1987 0.7667 l
0.2000 0.7673 l
0.2012 0.7679 l
0.2025 0.7685 l
0.2037 0.7690 l
0.2050 0.7696 l
0.2062 0.7701 l
0.2075 0.7705 l
0.2087 0.7710 l
0.2100 0.7714 l
0.2112 0.7719 l
0.2125 0.7723 l
0.2137 0.7726 l
0.2150 0.7730 l
0.2162 0.7733 l
0.2175 0.7737 l
0.2187 0.7740 l
0.2200 0.7742 l
0.2212 0.7745 l
0.2225 0.7748 l
0.2237 0.7750 l
0.2250 0.7752 l
0.2262 0.7754 l
0.2275 0.7756 l
0.2287 0.7757 l
0.2300 0.7759 l
0.2312 0.7760 l
0.2325 0.7761 l
0.2337 0.7762 l
0.2350 0.7763 l
0.2362 0.7763 l
0.2375 0.7764 l
0.2387 0.7764 l
0.2400 0.7764 l
0.2412 0.7764 l
0.2425 0.7764 l
0.2437 0.7764 l
0.2450 0.7763 l
0.2462 0.7763 l
0.2475 0.7762 l
0.2487 0.7761 l
0.2500 0.7760 l
0.2512 0.7759 l
0.2525 0.7758 l
0.2537 0.7757 l
0.2550 0.7755 l
0.2562 0.7754 l
0.2575 0.7752 l
0.2587 0.7750 l
0.2600 0.7748 l
0.2612 0.7746 l
0.2625 0.7744 l
0.2637 0.7741 l
0.2650 0.7739 l
0.2662 0.7736 l
0.2675 0.7733 l
0.2687 0.7731 l
0.2700 0.7728 l
0.2712 0.7725 l
0.2725 0.7722 l
0.2737 0.7718 l
0.2750 0.7715 l
0.2762 0.7711 l
0.2775 0.7708 l
0.2787 0.7704 l
0.2800 0.7700 l
0.2812 0.7697 l
0.2825 0.7693 l
0.2837 0.7689 l
0.2850 0.7684 l
0.2862 0.7680 l
0.2875 0.7676 l
0.2887 0.7671 l
0.2900 0.7667 l
0.2912 0.7662 l
0.2925 0.7658 l
0.2937 0.7653 l
0.2950 0.7648 l
0.2962 0.7643 l
0.2975 0.7638 l
0.2987 0.7633 l
0.3000 0.7628 l
0.3012 0.7622 l
0.3025 0.7617 l
0.3037 0.7611 l
0.3050 0.7606 l
0.3062 0.7600 l
0.3075 0.7595 l
0.3087 0.7589 l
0.3100 0.7583 l
0.3112 0.7577 l
0.3125 0.7571 l
0.3137 0.7565 l
0.3150 0.7559 l
0.3162 0.7553 l
0.3175 0.7546 l
0.3187 0.7540 l
0.3200 0.7534 l
0.3212 0.7527 l
0.3225 0.7521 l
0.3237 0.7514 l
0.3250 0.7507 l
0.3262 0.7501 l
0.3275 0.7494 l
0.3287 0.7487 l
0.3300 0.7480 l
0.3312 0.7473 l
0.3325 0.7466 l
0.3337 0.7459 l
0.3350 0.7452 l
0.3362 0.7445 l
0.3375 0.7438 l
0.3387 0.7430 l
0.3400 0.7423 l
0.3412 0.7416 l
0.3425 0.7408 l
0.3437 0.7401 l
0.3450 0.7393 l
0.3462 0.7386 l
0.3475 0.7378 l
0.3487 0.7370 l
0.3500 0.7363 l
0.3512 0.7355 l
0.3525 0.7347 l
0.3537 0.7339 l
0.3550 0.7331 l
0.3562 0.7323 l
0.3575 0.7315 l
0.3587 0.7307 l
0.3600 0.7299 l
0.3612 0.7291 l
0.3625 0.7283 l
0.3637 0.7274 l
0.3650 0.7266 l
0.3662 0.7258 l
0.3675 0.7250 l
0.3687 0.7241 l
0.3700 0.7233 l
0.3712 0.7224 l
0.3725 0.7216 l
0.3737 0.7207 l
0.3750 0.7199 l
0.3762 0.7190 l
0.3775 0.7182 l
0.3787 0.7173 l
0.3800 0.7164 l
0.3812 0.7156 l
0.3825 0.7147 l
0.3837 0.7138 l
0.3850 0.7129 l
0.3862 0.7121 l
0.3875 0.7112 l
0.3887 0.7103 l
0.3900 0.7094 l
0.3912 0.7085 l
0.3925 0.7076 l
0.3937 0.7067 l
0.3950 0.7058 l
0.3962 0.7049 l
0.3975 0.7040 l
0.3987 0.7031 l
0.4000 0.7022 l
0.4012 0.7013 l
0.4025 0.7004 l
0.4037 0.6994 l
0.4050 0.6985 l
0.4062 0.6976 l
0.4075 0.6967 l
0.4087 0.6958 l
0.4100 0.6948 l
0.4112 0.6939 l
0.4125 0.6930 l
0.4137 0.6920 l
0.4150 0.6911 l
0.4162 0.6902 l
0.4175 0.6892 l
0.4187 0.6883 l
0.4200 0.6874 l
0.4212 0.6864 l
0.4225 0.6855 l
0.4237 0.6845 l
0.4250 0.6836 l
0.4262 0.6826 l
0.4275 0.6817 l
0.4287 0.6807 l
0.4300 0.6798 l
0.4312 0.6788 l
0.4325 0.6779 l
0.4337 0.6769 l
0.4350 0.6760 l
0.4362 0.6750 l
0.4375 0.6741 l
0.4387 0.6731 l
0.4400 0.6721 l
0.4412 0.6712 l
0.4425 0.6702 l
0.4437 0.6693 l
0.4450 0.6683 l
0.4462 0.6673 l
0.4475 0.6664 l
0.4487 0.6654 l
0.4500 0.6644 l
0.4512 0.6635 l
0.4525 0.6625 l
0.4537 0.6615 l
0.4550 0.6606 l
0.4562 0.6596 l
0.4575 0.6586 l
0.4587 0.6577 l
0.4600 0.6567 l
0.4612 0.6557 l
0.4625 0.6548 l
0.4637 0.6538 l
0.4650 0.6528 l
0.4662 0.6518 l
0.4675 0.6509 l
0.4687 0.6499 l
0.4700 0.6489 l
0.4712 0.6479 l
0.4725 0.6470 l
0.4737 0.6460 l
0.4750 0.6450 l
0.4762 0.6441 l
0.4775 0.6431 l
0.4787 0.6421 l
0.4800 0.6411 l
0.4812 0.6402 l
0.4825 0.6392 l
0.4837 0.6382 l
0.4850 0.6372 l
0.4862 0.6363 l
0.4875 0.6353 l
0.4887 0.6343 l
0.4900 0.6334 l
0.4912 0.6324 l
0.4925 0.6314 l
0.4937 0.6304 l
0.4950 0.6295 l
0.4962 0.6285 l
0.4975 0.6275 l
0.4987 0.6266 l
0.5000 0.6256 l
0.5012 0.6246 l
0.5025 0.6237 l
0.5037 0.6227 l
0.5050 0.6217 l
0.5062 0.6207 l
0.5075 0.6198 l
0.5087 0.6188 l
0.5100 0.6178 l
0.5112 0.6169 l
0.5125 0.6159 l
0.5137 0.6150 l
0.5150 0.6140 l
0.5162 0.6130 l
0.5175 0.6121 l
0.5187 0.6111 l
0.5200 0.6101 l
0.5212 0.6092 l
0.5225 0.6082 l
0.5237 0.6073 l
0.5250 0.6063 l
0.5262 0.6053 l
0.5275 0.6044 l
0.5287 0.6034 l
0.5300 0.6025 l
0.5312 0.6015 l
0.5325 0.6006 l
0.5337 0.5996 l
0.5350 0.5987 l
0.5362 0.5977 l
0.5375 0.5968 l
0.5387 0.5958 l
0.5400 0.5949 l
0.5412 0.5939 l
0.5425 0.5930 l
0.5437 0.5920 l
0.5450 0.5911 l
0.5462 0.5901 l
0.5475 0.5892 l
0.5487 0.5882 l
0.5500 0.5873 l
0.5512 0.5864 l
0.5525 0.5854 l
0.5537 0.5845 l
0.5550 0.5835 l
0.5562 0.5826 l
0.5575 0.5817 l
0.5587 0.5807 l
0.5600 0.5798 l
0.5612 0.5789 l
0.5625 0.5779 l
0.5637 0.5770 l
0.5650 0.5761 l
0.5662 0.5752 l
0.5675 0.5742 l
0.5687 0.5733 l
0.5700 0.5724 l
0.5712 0.5715 l
0.5725 0.5705 l
0.5737 0.5696 l
0.5750 0.5687 l
0.5762 0.5678 l
0.5775 0.5669 l
0.5787 0.5659 l
0.5800 0.5650 l
0.5812 0.5641 l
0.5825 0.5632 l
0.5837 0.5623 l
0.5850 0.5614 l
0.5862 0.5605 l
0.5875 0.5596 l
0.5887 0.5587 l
0.5900 0.5577 l
0.5912 0.5568 l
0.5925 0.5559 l
0.5937 0.5550 l
0.5950 0.5541 l
0.5962 0.5532 l
0.5975 0.5523 l
0.5987 0.5514 l
0.6000 0.5506 l
0.6012 0.5497 l
0.6025 0.5488 l
0.6037 0.5479 l
0.6050 0.5470 l
0.6062 0.5461 l
0.6075 0.5452 l
0.6087 0.5443 l
0.6100 0.5434 l
0.6112 0.5426 l
0.6125 0.5417 l
0.6137 0.5408 l
0.6150 0.5399 l
0.6162 0.5390 l
0.6175 0.5382 l
0.6187 0.5373 l
0.6200 0.5364 l
0.6212 0.5356 l
0.6225 0.5347 l
0.6237 0.5338 l
0.6250 0.5330 l
0.6262 0.5321 l
0.6275 0.5312 l
0.6287 0.5304 l
0.6300 0.5295 l
0.6312 0.5286 l
0.6325 0.5278 l
0.6337 0.5269 l
0.6350 0.5261 l
0.6362 0.5252 l
0.6375 0.5244 l
0.6387 0.5235 l
0.6400 0.5227 l
0.6412 0.5218 l
0.6425 0.5210 l
0.6437 0.5201 l
0.6450 0.5193 l
0.6462 0.5184 l
0.6475 0.5176 l
0.6487 0.5168 l
0.6500 0.5159 l
0.6512 0.5151 l
0.6525 0.5142 l
0.6537 0.5134 l
0.6550 0.5126 l
0.6562 0.5117 l
0.6575 0.5109 l
0.6587 0.5101 l
0.6600 0.5093 l
0.6612 0.5084 l
0.6625 0.5076 l
0.6637 0.5068 l
0.6650 0.5060 l
0.6662 0.5052 l
0.6675 0.5043 l
0.6687 0.5035 l
0.6700 0.5027 l
0.6712 0.5019 l
0.6725 0.5011 l
0.6737 0.5003 l
0.6750 0.4995 l
0.6762 0.4987 l
0.6775 0.4979 l
0.6787 0.4971 l
0.6800 0.4963 l
0.6812 0.4955 l
0.6825 0.4947 l
0.6837 0.4939 l
0.6850 0.4931 l
0.6862 0.4923 l
0.6875 0.4915 l
0.6887 0.4907 l
0.6900 0.4899 l
0.6912 0.4891 l
0.6925 0.4883 l
0.6937 0.4875 l
0.6950 0.4867 l
0.6962 0.4860 l
0.6975 0.4852 l
0.6987 0.4844 l
0.7000 0.4836 l
0.7012 0.4828 l
0.7025 0.4821 l
0.7037 0.4813 l
0.7050 0.4805 l
0.7062 0.4798 l
0.7075 0.4790 l
0.7087 0.4782 l
0.7100 0.4775 l
0.7112 0.4767 l
0.7125 0.4759 l
0.7137 0.4752 l
0.7150 0.4744 l
0.7162 0.4737 l
0.7175 0.4729 l
0.7187 0.4721 l
0.7200 0.4714 l
0.7212 0.4706 l
0.7225 0.4699 l
0.7237 0.4691 l
0.7250 0.4684 l
0.7262 0.4676 l
0.7275 0.4669 l
0.7287 0.4662 l
0.7300 0.4654 l
0.7312 0.4647 l
0.7325 0.4639 l
0.7337 0.4632 l
0.7350 0.4625 l
0.7362 0.4617 l
0.7375 0.4610 l
0.7387 0.4603 l
0.7400 0.4595 l
0.7412 0.4588 l
0.7425 0.4581 l
0.7437 0.4574 l
0.7450 0.4566 l
0.7462 0.4559 l
0.7475 0.4552 l
0.7487 0.4545 l
0.7500 0.4538 l
0.7512 0.4530 l
0.7525 0.4523 l
0.7537 0.4516 l
0.7550 0.4509 l
0.7562 0.4502 l
0.7575 0.4495 l
0.7587 0.4488 l
0.7600 0.4481 l
0.7612 0.4474 l
0.7625 0.4467 l
0.7637 0.4460 l
0.7650 0.4453 l
0.7662 0.4446 l
0.7675 0.4439 l
0.7687 0.4432 l
0.7700 0.4425 l
0.7712 0.4418 l
0.7725 0.4411 l
0.7737 0.4404 l
0.7750 0.4397 l
0.7762 0.4390 l
0.7775 0.4383 l
0.7787 0.4376 l
0.7800 0.4370 l
0.7812 0.4363 l
0.7825 0.4356 l
0.7837 0.4349 l
0.7850 0.4343 l
0.7862 0.4336 l
0.7875 0.4329 l
0.7887 0.4322 l
0.7900 0.4316 l
0.7912 0.4309 l
0.7925 0.4302 l
0.7937 0.4296 l
0.7950 0.4289 l
0.7962 0.4282 l
0.7975 0.4276 l
0.7987 0.4269 l
0.8000 0.4262 l
0.8012 0.4256 l
0.8025 0.4249 l
0.8037 0.4243 l
0.8050 0.4236 l
0.8062 0.4230 l
0.8075 0.4223 l
0.8087 0.4217 l
0.8100 0.4210 l
0.8112 0.4204 l
0.8125 0.4197 l
0.8137 0.4191 l
0.8150 0.4184 l
0.8162 0.4178 l
0.8175 0.4171 l
0.8187 0.4165 l
0.8200 0.4159 l
0.8212 0.4152 l
0.8225 0.4146 l
0.8237 0.4140 l
0.8250 0.4133 l
0.8262 0.4127 l
0.8275 0.4121 l
0.8287 0.4114 l
0.8300 0.4108 l
0.8312 0.4102 l
0.8325 0.4096 l
0.8337 0.4089 l
0.8350 0.4083 l
0.8362 0.4077 l
0.8375 0.4071 l
0.8387 0.4065 l
0.8400 0.4059 l
0.8412 0.4052 l
0.8425 0.4046 l
0.8437 0.4040 l
0.8450 0.4034 l
0.8462 0.4028 l
0.8475 0.4022 l
0.8487 0.4016 l
0.8500 0.4010 l
0.8512 0.4004 l
0.8525 0.3998 l
0.8537 0.3992 l
0.8550 0.3986 l
0.8562 0.3980 l
0.8575 0.3974 l
0.8587 0.3968 l
0.8600 0.3962 l
0.8612 0.3956 l
0.8625 0.3950 l
0.8637 0.3944 l
0.8650 0.3938 l
0.8662 0.3932 l
0.8675 0.3926 l
0.8687 0.3920 l
0.8700 0.3915 l
0.8712 0.3909 l
0.8725 0.3903 l
0.8737 0.3897 l
0.8750 0.3891 l
0.8762 0.3886 l
0.8775 0.3880 l
0.8787 0.3874 l
0.8800 0.3868 l
0.8812 0.3863 l
0.8825 0.3857 l
0.8837 0.3851 l
0.8850 0.3845 l
0.8862 0.3840 l
0.8875 0.3834 l
0.8887 0.3828 l
0.8900 0.3823 l
0.8912 0.3817 l
0.8925 0.3811 l
0.8937 0.3806 l
0.8950 0.3800 l
0.8962 0.3795 l
0.8975 0.3789 l
0.8987 0.3784 l
0.9000 0.3778 l
0.9012 0.3772 l
0.9025 0.3767 l
0.9037 0.3761 l
0.9050 0.3756 l
0.9062 0.3750 l
0.9075 0.3745 l
0.9087 0.3739 l
0.9100 0.3734 l
0.9112 0.3729 l
0.9125 0.3723 l
0.9137 0.3718 l
0.9150 0.3712 l
0.9163 0.3707 l
0.9175 0.3702 l
0.9187 0.3696 l
0.9200 0.3691 l
0.9212 0.3685 l
0.9225 0.3680 l
0.9237 0.3675 l
0.9250 0.3669 l
0.9262 0.3664 l
0.9275 0.3659 l
0.9287 0.3654 l
0.9300 0.3648 l
0.9312 0.3643 l
0.9325 0.3638 l
0.9337 0.3633 l
0.9350 0.3627 l
0.9362 0.3622 l
0.9375 0.3617 l
0.9387 0.3612 l
0.9400 0.3607 l
0.9412 0.3601 l
0.9425 0.3596 l
0.9437 0.3591 l
0.9450 0.3586 l
0.9462 0.3581 l
0.9475 0.3576 l
0.9487 0.3571 l
0.9500 0.3566 l
0.9512 0.3560 l
0.9525 0.3555 l
0.9537 0.3550 l
0.9550 0.3545 l
0.9562 0.3540 l
0.9575 0.3535 l
0.9587 0.3530 l
0.9600 0.3525 l
0.9612 0.3520 l
0.9625 0.3515 l
0.9637 0.3510 l
0.9650 0.3505 l
0.9662 0.3500 l
0.9675 0.3495 l
0.9687 0.3491 l
0.9700 0.3486 l
0.9712 0.3481 l
0.9725 0.3476 l
0.9737 0.3471 l
0.9750 0.3466 l
0.9762 0.3461 l
0.9775 0.3456 l
0.9787 0.3451 l
0.9800 0.3447 l
0.9812 0.3442 l
0.9825 0.3437 l
0.9837 0.3432 l
0.9850 0.3427 l
0.9862 0.3423 l
0.9875 0.3418 l
0.9887 0.3413 l
0.9900 0.3408 l
0.9912 0.3404 l
0.9925 0.3399 l
0.9937 0.3394 l
0.9950 0.3389 l
0.9962 0.3385 l
0.9975 0.3380 l
0.9987 0.3375 l
1.0000 0.3371 l
1.0012 0.3366 l
1.0025 0.3361 l
1.0037 0.3357 l
1.0050 0.3352 l
1.0062 0.3348 l
1.0075 0.3343 l
1.0087 0.3338 l
1.0100 0.3334 l
1.0112 0.3329 l
1.0125 0.3325 l
1.0137 0.3320 l
1.0150 0.3316 l
1.0162 0.3311 l
1.0175 0.3306 l
1.0187 0.3302 l
1.0200 0.3297 l
1.0212 0.3293 l
1.0225 0.3288 l
1.0237 0.3284 l
1.0250 0.3279 l
1.0262 0.3275 l
1.0275 0.3271 l
1.0287 0.3266 l
1.0300 0.3262 l
1.0312 0.3257 l
1.0325 0.3253 l
1.0337 0.3248 l
1.0350 0.3244 l
1.0362 0.3240 l
1.0375 0.3235 l
1.0387 0.3231 l
1.0400 0.3227 l
1.0412 0.3222 l
1.0425 0.3218 l
1.0437 0.3214 l
1.0450 0.3209 l
1.0462 0.3205 l
1.0475 0.3201 l
1.0487 0.3196 l
1.0500 0.3192 l
1.0513 0.3188 l
1.0525 0.3183 l
1.0537 0.3179 l
1.0550 0.3175 l
1.0562 0.3171 l
1.0575 0.3166 l
1.0587 0.3162 l
1.0600 0.3158 l
1.0612 0.3154 l
1.0625 0.3150 l
1.0637 0.3145 l
1.0650 0.3141 l
1.0662 0.3137 l
1.0675 0.3133 l
1.0687 0.3129 l
1.0700 0.3125 l
1.0713 0.3121 l
1.0725 0.3116 l
1.0737 0.3112 l
1.0750 0.3108 l
1.0762 0.3104 l
1.0775 0.3100 l
1.0787 0.3096 l
1.0800 0.3092 l
1.0812 0.3088 l
1.0825 0.3084 l
1.0837 0.3080 l
1.0850 0.3076 l
1.0862 0.3072 l
1.0875 0.3068 l
1.0887 0.3064 l
1.0900 0.3060 l
1.0913 0.3056 l
1.0925 0.3052 l
1.0937 0.3048 l
1.0950 0.3044 l
1.0962 0.3040 l
1.0975 0.3036 l
1.0987 0.3032 l
1.1000 0.3028 l
1.1012 0.3024 l
1.1025 0.3020 l
1.1037 0.3016 l
1.1050 0.3012 l
1.1062 0.3008 l
1.1075 0.3004 l
1.1087 0.3000 l
1.1100 0.2997 l
1.1112 0.2993 l
1.1125 0.2989 l
1.1137 0.2985 l
1.1150 0.2981 l
1.1162 0.2977 l
1.1175 0.2973 l
1.1187 0.2970 l
1.1200 0.2966 l
1.1212 0.2962 l
1.1225 0.2958 l
1.1237 0.2954 l
1.1250 0.2951 l
1.1262 0.2947 l
1.1275 0.2943 l
1.1287 0.2939 l
1.1300 0.2936 l
1.1312 0.2932 l
1.1325 0.2928 l
1.1337 0.2924 l
1.1350 0.2921 l
1.1362 0.2917 l
1.1375 0.2913 l
1.1387 0.2910 l
1.1400 0.2906 l
1.1412 0.2902 l
1.1425 0.2899 l
1.1437 0.2895 l
1.1450 0.2891 l
1.1462 0.2888 l
1.1475 0.2884 l
1.1487 0.2880 l
1.1500 0.2877 l
1.1501 0.2876 l
s
[/DeviceRGB] SCS
Color15 SC
n
0.1512 0.7154 m
0.1525 0.7195 l
0.1537 0.7232 l
0.1550 0.7265 l
0.1562 0.7295 l
0.1575 0.7323 l
0.1588 0.7350 l
0.1600 0.7374 l
0.1613 0.7398 l
0.1625 0.7420 l
0.1638 0.7441 l
0.1650 0.7460 l
0.1663 0.7479 l
0.1675 0.7497 l
0.1688 0.7514 l
0.1700 0.7530 l
0.1713 0.7545 l
0.1725 0.7559 l
0.1738 0.7573 l
0.1750 0.7586 l
0.1763 0.7598 l
0.1775 0.7610 l
0.1788 0.7621 l
0.1800 0.7631 l
0.1813 0.7641 l
0.1825 0.7650 l
0.1837 0.7658 l
0.1850 0.7666 l
0.1862 0.7674 l
0.1875 0.7681 l
0.1887 0.7687 l
0.1900 0.7693 l
0.1912 0.7699 l
0.1925 0.7704 l
0.1937 0.7708 l
0.1950 0.7712 l
0.1962 0.7716 l
0.1975 0.7719 l
0.1987 0.7722 l
0.2000 0.7724 l
0.2012 0.7726 l
0.2025 0.7727 l
0.2037 0.7729 l
0.2050 0.7729 l
0.2062 0.7730 l
0.2075 0.7730 l
0.2087 0.7729 l
0.2100 0.7729 l
0.2112 0.7728 l
0.2125 0.7726 l
0.2137 0.7725 l
0.2150 0.7723 l
0.2162 0.7720 l
0.2175 0.7718 l
0.2187 0.7715 l
0.2200 0.7711 l
0.2212 0.7708 l
0.2225 0.7704 l
0.2237 0.7700 l
0.2250 0.7695 l
0.2262 0.7691 l
0.2275 0.7686 l
0.2287 0.7680 l
0.2300 0.7675 l
0.2312 0.7669 l
0.2325 0.7663 l
0.2337 0.7657 l
0.2350 0.7650 l
0.2362 0.7643 l
0.2375 0.7636 l
0.2387 0.7629 l
0.2400 0.7622 l
0.2412 0.7614 l
0.2425 0.7606 l
0.2437 0.7598 l
0.2450 0.7590 l
0.2462 0.7582 l
0.2475 0.7573 l
0.2487 0.7564 l
0.2500 0.7555 l
0.2512 0.7546 l
0.2525 0.7536 l
0.2537 0.7527 l
0.2550 0.7517 l
0.2562 0.7507 l
0.2575 0.7497 l
0.2587 0.7486 l
0.2600 0.7476 l
0.2612 0.7465 l
0.2625 0.7455 l
0.2637 0.7444 l
0.2650 0.7433 l
0.2662 0.7421 l
0.2675 0.7410 l
0.2687 0.7398 l
0.2700 0.7387 l
0.2712 0.7375 l
0.2725 0.7363 l
0.2737 0.7351 l
0.2750 0.7339 l
0.2762 0.7327 l
0.2775 0.7314 l
0.2787 0.7302 l
0.2800 0.7289 l
0.2812 0.7276 l
0.2825 0.7264 l
0.2837 0.7251 l
0.2850 0.7238 l
0.2862 0.7224 l
0.2875 0.7211 l
0.2887 0.7198 l
0.2900 0.7185 l
0.2912 0.7171 l
0.2925 0.7157 l
0.2937 0.7144 l
0.2950 0.7130 l
0.2962 0.7116 l
0.2975 0.7102 l
0.2987 0.7088 l
0.3000 0.7074 l
0.3012 0.7060 l
0.3025 0.7046 l
0.3037 0.7032 l
0.3050 0.7017 l
0.3062 0.7003 l
0.3075 0.6988 l
0.3087 0.6974 l
0.3100 0.6959 l
0.3112 0.6945 l
0.3125 0.6930 l
0.3137 0.6915 l
0.3150 0.6900 l
0.3162 0.6886 l
0.3175 0.6871 l
0.3187 0.6856 l
0.3200 0.6841 l
0.3212 0.6826 l
0.3225 0.6811 l
0.3237 0.6796 l
0.3250 0.6781 l
0.3262 0.6765 l
0.3275 0.6750 l
0.3287 0.6735 l
0.3300 0.6720 l
0.3312 0.6704 l
0.3325 0.6689 l
0.3337 0.6674 l
0.3350 0.6659 l
0.3362 0.6643 l
0.3375 0.6628 l
0.3387 0.6612 l
0.3400 0.6597 l
0.3412 0.6582 l
0.3425 0.6566 l
0.3437 0.6551 l
0.3450 0.6535 l
0.3462 0.6520 l
0.3475 0.6504 l
0.3487 0.6489 l
0.3500 0.6473 l
0.3512 0.6458 l
0.3525 0.6442 l
0.3537 0.6426 l
0.3550 0.6411 l
0.3562 0.6395 l
0.3575 0.6380 l
0.3587 0.6364 l
0.3600 0.6349 l
0.3612 0.6333 l
0.3625 0.6318 l
0.3637 0.6302 l
0.3650 0.6287 l
0.3662 0.6271 l
0.3675 0.6255 l
0.3687 0.6240 l
0.3700 0.6224 l
0.3712 0.6209 l
0.3725 0.6193 l
0.3737 0.6178 l
0.3750 0.6162 l
0.3762 0.6147 l
0.3775 0.6132 l
0.3787 0.6116 l
0.3800 0.6101 l
0.3812 0.6085 l
0.3825 0.6070 l
0.3837 0.6055 l
0.3850 0.6039 l
0.3862 0.6024 l
0.3875 0.6008 l
0.3887 0.5993 l
0.3900 0.5978 l
0.3912 0.5963 l
0.3925 0.5947 l
0.3937 0.5932 l
0.3950 0.5917 l
0.3962 0.5902 l
0.3975 0.5887 l
0.3987 0.5871 l
0.4000 0.5856 l
0.4012 0.5841 l
0.4025 0.5826 l
0.4037 0.5811 l
0.4050 0.5796 l
0.4062 0.5781 l
0.4075 0.5766 l
0.4087 0.5751 l
0.4100 0.5736 l
0.4112 0.5721 l
0.4125 0.5706 l
0.4137 0.5692 l
0.4150 0.5677 l
0.4162 0.5662 l
0.4175 0.5647 l
0.4187 0.5633 l
0.4200 0.5618 l
0.4212 0.5603 l
0.4225 0.5589 l
0.4237 0.5574 l
0.4250 0.5559 l
0.4262 0.5545 l
0.4275 0.5530 l
0.4287 0.5516 l
0.4300 0.5502 l
0.4312 0.5487 l
0.4325 0.5473 l
0.4337 0.5458 l
0.4350 0.5444 l
0.4362 0.5430 l
0.4375 0.5416 l
0.4387 0.5401 l
0.4400 0.5387 l
0.4412 0.5373 l
0.4425 0.5359 l
0.4437 0.5345 l
0.4450 0.5331 l
0.4462 0.5317 l
0.4475 0.5303 l
0.4487 0.5289 l
0.4500 0.5275 l
0.4512 0.5261 l
0.4525 0.5247 l
0.4537 0.5234 l
0.4550 0.5220 l
0.4562 0.5206 l
0.4575 0.5193 l
0.4587 0.5179 l
0.4600 0.5165 l
0.4612 0.5152 l
0.4625 0.5138 l
0.4637 0.5125 l
0.4650 0.5111 l
0.4662 0.5098 l
0.4675 0.5085 l
0.4687 0.5071 l
0.4700 0.5058 l
0.4712 0.5045 l
0.4725 0.5032 l
0.4737 0.5018 l
0.4750 0.5005 l
0.4762 0.4992 l
0.4775 0.4979 l
0.4787 0.4966 l
0.4800 0.4953 l
0.4812 0.4940 l
0.4825 0.4927 l
0.4837 0.4914 l
0.4850 0.4902 l
0.4862 0.4889 l
0.4875 0.4876 l
0.4887 0.4863 l
0.4900 0.4851 l
0.4912 0.4838 l
0.4925 0.4825 l
0.4937 0.4813 l
0.4950 0.4800 l
0.4962 0.4788 l
0.4975 0.4775 l
0.4987 0.4763 l
0.5000 0.4751 l
0.5012 0.4738 l
0.5025 0.4726 l
0.5037 0.4714 l
0.5050 0.4701 l
0.5062 0.4689 l
0.5075 0.4677 l
0.5087 0.4665 l
0.5100 0.4653 l
0.5112 0.4641 l
0.5125 0.4629 l
0.5137 0.4617 l
0.5150 0.4605 l
0.5162 0.4593 l
0.5175 0.4581 l
0.5187 0.4570 l
0.5200 0.4558 l
0.5212 0.4546 l
0.5225 0.4534 l
0.5237 0.4523 l
0.5250 0.4511 l
0.5262 0.4500 l
0.5275 0.4488 l
0.5287 0.4477 l
0.5300 0.4465 l
0.5312 0.4454 l
0.5325 0.4442 l
0.5337 0.4431 l
0.5350 0.4420 l
0.5362 0.4409 l
0.5375 0.4397 l
0.5387 0.4386 l
0.5400 0.4375 l
0.5412 0.4364 l
0.5425 0.4353 l
0.5437 0.4342 l
0.5450 0.4331 l
0.5462 0.4320 l
0.5475 0.4309 l
0.5487 0.4298 l
0.5500 0.4287 l
0.5512 0.4276 l
0.5525 0.4266 l
0.5537 0.4255 l
0.5550 0.4244 l
0.5562 0.4233 l
0.5575 0.4223 l
0.5587 0.4212 l
0.5600 0.4202 l
0.5612 0.4191 l
0.5625 0.4181 l
0.5637 0.4170 l
0.5650 0.4160 l
0.5662 0.4149 l
0.5675 0.4139 l
0.5687 0.4129 l
0.5700 0.4118 l
0.5712 0.4108 l
0.5725 0.4098 l
0.5737 0.4088 l
0.5750 0.4078 l
0.5762 0.4068 l
0.5775 0.4058 l
0.5787 0.4047 l
0.5800 0.4037 l
0.5812 0.4028 l
0.5825 0.4018 l
0.5837 0.4008 l
0.5850 0.3998 l
0.5862 0.3988 l
0.5875 0.3978 l
0.5887 0.3968 l
0.5900 0.3959 l
0.5912 0.3949 l
0.5925 0.3939 l
0.5937 0.3930 l
0.5950 0.3920 l
0.5962 0.3911 l
0.5975 0.3901 l
0.5987 0.3892 l
0.6000 0.3882 l
0.6012 0.3873 l
0.6025 0.3863 l
0.6037 0.3854 l
0.6050 0.3845 l
0.6062 0.3835 l
0.6075 0.3826 l
0.6087 0.3817 l
0.6100 0.3808 l
0.6112 0.3798 l
0.6125 0.3789 l
0.6137 0.3780 l
0.6150 0.3771 l
0.6162 0.3762 l
0.6175 0.3753 l
0.6187 0.3744 l
0.6200 0.3735 l
0.6212 0.3726 l
0.6225 0.3717 l
0.6237 0.3709 l
0.6250 0.3700 l
0.6262 0.3691 l
0.6275 0.3682 l
0.6287 0.3673 l
0.6300 0.3665 l
0.6312 0.3656 l
0.6325 0.3647 l
0.6337 0.3639 l
0.6350 0.3630 l
0.6362 0.3622 l
0.6375 0.3613 l
0.6387 0.3605 l
0.6400 0.3596 l
0.6412 0.3588 l
0.6425 0.3579 l
0.6437 0.3571 l
0.6450 0.3563 l
0.6462 0.3554 l
0.6475 0.3546 l
0.6487 0.3538 l
0.6500 0.3530 l
0.6512 0.3521 l
0.6525 0.3513 l
0.6537 0.3505 l
0.6550 0.3497 l
0.6562 0.3489 l
0.6575 0.3481 l
0.6587 0.3473 l
0.6600 0.3465 l
0.6612 0.3457 l
0.6625 0.3449 l
0.6637 0.3441 l
0.6650 0.3433 l
0.6662 0.3425 l
0.6675 0.3417 l
0.6687 0.3410 l
0.6700 0.3402 l
0.6712 0.3394 l
0.6725 0.3386 l
0.6737 0.3379 l
0.6750 0.3371 l
0.6762 0.3363 l
0.6775 0.3356 l
0.6787 0.3348 l
0.6800 0.3341 l
0.6812 0.3333 l
0.6825 0.3325 l
0.6837 0.3318 l
0.6850 0.3310 l
0.6862 0.3303 l
0.6875 0.3296 l
0.6887 0.3288 l
0.6900 0.3281 l
0.6912 0.3274 l
0.6925 0.3266 l
0.6937 0.3259 l
0.6950 0.3252 l
0.6962 0.3244 l
0.6975 0.3237 l
0.6987 0.3230 l
0.7000 0.3223 l
0.7012 0.3216 l
0.7025 0.3209 l
0.7037 0.3202 l
0.7050 0.3194 l
0.7062 0.3187 l
0.7075 0.3180 l
0.7087 0.3173 l
0.7100 0.3166 l
0.7112 0.3160 l
0.7125 0.3153 l
0.7137 0.3146 l
0.7150 0.3139 l
0.7162 0.3132 l
0.7175 0.3125 l
0.7187 0.3118 l
0.7200 0.3112 l
0.7212 0.3105 l
0.7225 0.3098 l
0.7237 0.3091 l
0.7250 0.3085 l
0.7262 0.3078 l
0.7275 0.3071 l
0.7287 0.3065 l
0.7300 0.3058 l
0.7312 0.3052 l
0.7325 0.3045 l
0.7337 0.3038 l
0.7350 0.3032 l
0.7362 0.3025 l
0.7375 0.3019 l
0.7387 0.3013 l
0.7400 0.3006 l
0.7412 0.3000 l
0.7425 0.2993 l
0.7437 0.2987 l
0.7450 0.2981 l
0.7462 0.2974 l
0.7475 0.2968 l
0.7487 0.2962 l
0.7500 0.2955 l
0.7512 0.2949 l
0.7525 0.2943 l
0.7537 0.2937 l
0.7550 0.2931 l
0.7562 0.2925 l
0.7575 0.2918 l
0.7587 0.2912 l
0.7600 0.2906 l
0.7612 0.2900 l
0.7625 0.2894 l
0.7637 0.2888 l
0.7650 0.2882 l
0.7662 0.2876 l
0.7675 0.2870 l
0.7687 0.2864 l
0.7700 0.2858 l
0.7712 0.2852 l
0.7725 0.2846 l
0.7737 0.2841 l
0.7750 0.2835 l
0.7762 0.2829 l
0.7775 0.2823 l
0.7787 0.2817 l
0.7800 0.2812 l
0.7812 0.2806 l
0.7825 0.2800 l
0.7837 0.2794 l
0.7850 0.2789 l
0.7862 0.2783 l
0.7875 0.2777 l
0.7887 0.2772 l
0.7900 0.2766 l
0.7912 0.2760 l
0.7925 0.2755 l
0.7937 0.2749 l
0.7950 0.2744 l
0.7962 0.2738 l
0.7975 0.2733 l
0.7987 0.2727 l
0.8000 0.2722 l
0.8012 0.2716 l
0.8025 0.2711 l
0.8037 0.2705 l
0.8050 0.2700 l
0.8062 0.2695 l
0.8075 0.2689 l
0.8087 0.2684 l
0.8100 0.2679 l
0.8112 0.2673 l
0.8125 0.2668 l
0.8137 0.2663 l
0.8150 0.2657 l
0.8162 0.2652 l
0.8175 0.2647 l
0.8187 0.2642 l
0.8200 0.2636 l
0.8212 0.2631 l
0.8225 0.2626 l
0.8237 0.2621 l
0.8250 0.2616 l
0.8262 0.2611 l
0.8275 0.2606 l
0.8287 0.2600 l
0.8300 0.2595 l
0.8312 0.2590 l
0.8325 0.2585 l
0.8337 0.2580 l
0.8350 0.2575 l
0.8362 0.2570 l
0.8375 0.2565 l
0.8387 0.2560 l
0.8400 0.2555 l
0.8412 0.2551 l
0.8425 0.2546 l
0.8437 0.2541 l
0.8450 0.2536 l
0.8462 0.2531 l
0.8475 0.2526 l
0.8487 0.2521 l
0.8500 0.2516 l
0.8512 0.2512 l
0.8525 0.2507 l
0.8537 0.2502 l
0.8550 0.2497 l
0.8562 0.2493 l
0.8575 0.2488 l
0.8587 0.2483 l
0.8600 0.2478 l
0.8612 0.2474 l
0.8625 0.2469 l
0.8637 0.2464 l
0.8650 0.2460 l
0.8662 0.2455 l
0.8675 0.2451 l
0.8687 0.2446 l
0.8700 0.2441 l
0.8712 0.2437 l
0.8725 0.2432 l
0.8737 0.2428 l
0.8750 0.2423 l
0.8762 0.2419 l
0.8775 0.2414 l
0.8787 0.2410 l
0.8800 0.2405 l
0.8812 0.2401 l
0.8825 0.2396 l
0.8837 0.2392 l
0.8850 0.2387 l
0.8862 0.2383 l
0.8875 0.2379 l
0.8887 0.2374 l
0.8900 0.2370 l
0.8912 0.2366 l
0.8925 0.2361 l
0.8937 0.2357 l
0.8950 0.2353 l
0.8962 0.2348 l
0.8975 0.2344 l
0.8987 0.2340 l
0.9000 0.2336 l
0.9012 0.2331 l
0.9025 0.2327 l
0.9037 0.2323 l
0.9050 0.2319 l
0.9062 0.2314 l
0.9075 0.2310 l
0.9087 0.2306 l
0.9100 0.2302 l
0.9112 0.2298 l
0.9125 0.2294 l
0.9137 0.2290 l
0.9150 0.2285 l
0.9163 0.2281 l
0.9175 0.2277 l
0.9187 0.2273 l
0.9200 0.2269 l
0.9212 0.2265 l
0.9225 0.2261 l
0.9237 0.2257 l
0.9250 0.2253 l
0.9262 0.2249 l
0.9275 0.2245 l
0.9287 0.2241 l
0.9300 0.2237 l
0.9312 0.2233 l
0.9325 0.2229 l
0.9337 0.2225 l
0.9350 0.2221 l
0.9362 0.2218 l
0.9375 0.2214 l
0.9387 0.2210 l
0.9400 0.2206 l
0.9412 0.2202 l
0.9425 0.2198 l
0.9437 0.2194 l
0.9450 0.2191 l
0.9462 0.2187 l
0.9475 0.2183 l
0.9487 0.2179 l
0.9500 0.2175 l
0.9512 0.2172 l
0.9525 0.2168 l
0.9537 0.2164 l
0.9550 0.2160 l
0.9562 0.2157 l
0.9575 0.2153 l
0.9587 0.2149 l
0.9600 0.2146 l
0.9612 0.2142 l
0.9625 0.2138 l
0.9637 0.2135 l
0.9650 0.2131 l
0.9662 0.2127 l
0.9675 0.2124 l
0.9687 0.2120 l
0.9700 0.2116 l
0.9712 0.2113 l
0.9725 0.2109 l
0.9737 0.2106 l
0.9750 0.2102 l
0.9762 0.2099 l
0.9775 0.2095 l
0.9787 0.2092 l
0.9800 0.2088 l
0.9812 0.2085 l
0.9825 0.2081 l
0.9837 0.2078 l
0.9850 0.2074 l
0.9862 0.2071 l
0.9875 0.2067 l
0.9887 0.2064 l
0.9900 0.2060 l
0.9912 0.2057 l
0.9925 0.2053 l
0.9937 0.2050 l
0.9950 0.2047 l
0.9962 0.2043 l
0.9975 0.2040 l
0.9987 0.2036 l
1.0000 0.2033 l
1.0012 0.2030 l
1.0025 0.2026 l
1.0037 0.2023 l
1.0050 0.2020 l
1.0062 0.2016 l
1.0075 0.2013 l
1.0087 0.2010 l
1.0100 0.2006 l
1.0112 0.2003 l
1.0125 0.2000 l
1.0137 0.1997 l
1.0150 0.1993 l
1.0162 0.1990 l
1.0175 0.1987 l
1.0187 0.1984 l
1.0200 0.1980 l
1.0212 0.1977 l
1.0225 0.1974 l
1.0237 0.1971 l
1.0250 0.1968 l
1.0262 0.1965 l
1.0275 0.1961 l
1.0287 0.1958 l
1.0300 0.1955 l
1.0312 0.1952 l
1.0325 0.1949 l
1.0337 0.1946 l
1.0350 0.1943 l
1.0362 0.1939 l
1.0375 0.1936 l
1.0387 0.1933 l
1.0400 0.1930 l
1.0412 0.1927 l
1.0425 0.1924 l
1.0437 0.1921 l
1.0450 0.1918 l
1.0462 0.1915 l
1.0475 0.1912 l
1.0487 0.1909 l
1.0500 0.1906 l
1.0513 0.1903 l
1.0525 0.1900 l
1.0537 0.1897 l
1.0550 0.1894 l
1.0562 0.1891 l
1.0575 0.1888 l
1.0587 0.1885 l
1.0600 0.1882 l
1.0612 0.1879 l
1.0625 0.1876 l
1.0637 0.1873 l
1.0650 0.1870 l
1.0662 0.1868 l
1.0675 0.1865 l
1.0687 0.1862 l
1.0700 0.1859 l
1.0713 0.1856 l
1.0725 0.1853 l
1.0737 0.1850 l
1.0750 0.1847 l
1.0762 0.1845 l
1.0775 0.1842 l
1.0787 0.1839 l
1.0800 0.1836 l
1.0812 0.1833 l
1.0825 0.1830 l
1.0837 0.1828 l
1.0850 0.1825 l
1.0862 0.1822 l
1.0875 0.1819 l
1.0887 0.1817 l
1.0900 0.1814 l
1.0913 0.1811 l
1.0925 0.1808 l
1.0937 0.1806 l
1.0950 0.1803 l
1.0962 0.1800 l
1.0975 0.1797 l
1.0987 0.1795 l
1.1000 0.1792 l
1.1012 0.1789 l
1.1025 0.1787 l
1.1037 0.1784 l
1.1050 0.1781 l
1.1062 0.1779 l
1.1075 0.1776 l
1.1087 0.1773 l
1.1100 0.1771 l
1.1112 0.1768 l
1.1125 0.1765 l
1.1137 0.1763 l
1.1150 0.1760 l
1.1162 0.1757 l
1.1175 0.1755 l
1.1187 0.1752 l
1.1200 0.1750 l
1.1212 0.1747 l
1.1225 0.1745 l
1.1237 0.1742 l
1.1250 0.1739 l
1.1262 0.1737 l
1.1275 0.1734 l
1.1287 0.1732 l
1.1300 0.1729 l
1.1312 0.1727 l
1.1325 0.1724 l
1.1337 0.1722 l
1.1350 0.1719 l
1.1362 0.1717 l
1.1375 0.1714 l
1.1387 0.1712 l
1.1400 0.1709 l
1.1412 0.1707 l
1.1425 0.1704 l
1.1437 0.1702 l
1.1450 0.1699 l
1.1462 0.1697 l
1.1475 0.1694 l
1.1487 0.1692 l
1.1500 0.1689 l
1.1501 0.1689 l
s
[/DeviceRGB] SCS
Color1 SC
[] 0 SD
0.0045 SLW
n
0.1500 0.1500 m
1.1500 0.1500 l
s
n
0.1500 0.8500 m
1.1500 0.8500 l
s
n
0.2750 0.1500 m
0.2750 0.1600 l
s
n
0.2750 0.8500 m
0.2750 0.8400 l
s
n
0.5250 0.1500 m
0.5250 0.1600 l
s
n
0.5250 0.8500 m
0.5250 0.8400 l
s
n
0.7750 0.1500 m
0.7750 0.1600 l
s
n
0.7750 0.8500 m
0.7750 0.8400 l
s
n
1.0250 0.1500 m
1.0250 0.1600 l
s
n
1.0250 0.8500 m
1.0250 0.8400 l
s
n
0.1500 0.1500 m
0.1500 0.1700 l
s
n
0.1500 0.8500 m
0.1500 0.8300 l
s
n
0.4000 0.1500 m
0.4000 0.1700 l
s
n
0.4000 0.8500 m
0.4000 0.8300 l
s
n
0.6500 0.1500 m
0.6500 0.1700 l
s
n
0.6500 0.8500 m
0.6500 0.8300 l
s
n
0.9000 0.1500 m
0.9000 0.1700 l
s
n
0.9000 0.8500 m
0.9000 0.8300 l
s
n
1.1500 0.1500 m
1.1500 0.1700 l
s
n
1.1500 0.8500 m
1.1500 0.8300 l
s
/Times-Roman findfont
dup length dict begin
 {1 index /FID ne {def} {pop pop} ifelse} forall
 /Encoding DefEncoding def
 currentdict
end
/Font0 exch definefont pop
/Font0 FFSF
0.1394 0.1094 m
GS
[0.0448 0.0000 0.0000 0.0448 0 0] CC
(0) show
GR
/Font0 FFSF
0.3725 0.1094 m
GS
[0.0448 0.0000 0.0000 0.0448 0 0] CC
(0.2) show
GR
/Font0 FFSF
0.6225 0.1094 m
GS
[0.0448 0.0000 0.0000 0.0448 0 0] CC
(0.4) show
GR
/Font0 FFSF
0.8727 0.1094 m
GS
[0.0448 0.0000 0.0000 0.0448 0 0] CC
(0.6) show
GR
/Font0 FFSF
1.1231 0.1094 m
GS
[0.0448 0.0000 0.0000 0.0448 0 0] CC
(0.8) show
GR
/Times-Italic findfont
dup length dict begin
 {1 index /FID ne {def} {pop pop} ifelse} forall
 /Encoding DefEncoding def
 currentdict
end
/Font1 exch definefont pop
/Font1 FFSF
0.5735 0.0445 m
GS
[0.0504 0.0000 0.0000 0.0504 0 0] CC
(n) show
GR
/Font0 FFSF
0.5986 0.0445 m
GS
[0.0504 0.0000 0.0000 0.0504 0 0] CC
( [fm) show
GR
/Font0 FFSF
0.6841 0.0747 m
GS
[0.0356 0.0000 0.0000 0.0356 0 0] CC
(-3) show
GR
/Font0 FFSF
0.7139 0.0445 m
GS
[0.0504 0.0000 0.0000 0.0504 0 0] CC
(]) show
GR
n
0.1500 0.1500 m
0.1500 0.8500 l
s
n
1.1500 0.1500 m
1.1500 0.8500 l
s
n
0.1500 0.2200 m
0.1600 0.2200 l
s
n
1.1500 0.2200 m
1.1400 0.2200 l
s
n
0.1500 0.3600 m
0.1600 0.3600 l
s
n
1.1500 0.3600 m
1.1400 0.3600 l
s
n
0.1500 0.5000 m
0.1600 0.5000 l
s
n
1.1500 0.5000 m
1.1400 0.5000 l
s
n
0.1500 0.6400 m
0.1600 0.6400 l
s
n
1.1500 0.6400 m
1.1400 0.6400 l
s
n
0.1500 0.7800 m
0.1600 0.7800 l
s
n
1.1500 0.7800 m
1.1400 0.7800 l
s
n
0.1500 0.1500 m
0.1700 0.1500 l
s
n
1.1500 0.1500 m
1.1300 0.1500 l
s
n
0.1500 0.2900 m
0.1700 0.2900 l
s
n
1.1500 0.2900 m
1.1300 0.2900 l
s
n
0.1500 0.4300 m
0.1700 0.4300 l
s
n
1.1500 0.4300 m
1.1300 0.4300 l
s
n
0.1500 0.5700 m
0.1700 0.5700 l
s
n
1.1500 0.5700 m
1.1300 0.5700 l
s
n
0.1500 0.7100 m
0.1700 0.7100 l
s
n
1.1500 0.7100 m
1.1300 0.7100 l
s
n
0.1500 0.8500 m
0.1700 0.8500 l
s
n
1.1500 0.8500 m
1.1300 0.8500 l
s
/Font0 FFSF
0.0851 0.1351 m
GS
[0.0448 0.0000 0.0000 0.0448 0 0] CC
(0.2) show
GR
/Font0 FFSF
0.0851 0.2751 m
GS
[0.0448 0.0000 0.0000 0.0448 0 0] CC
(0.4) show
GR
/Font0 FFSF
0.0855 0.4151 m
GS
[0.0448 0.0000 0.0000 0.0448 0 0] CC
(0.6) show
GR
/Font0 FFSF
0.0863 0.5551 m
GS
[0.0448 0.0000 0.0000 0.0448 0 0] CC
(0.8) show
GR
/Font0 FFSF
0.1224 0.6947 m
GS
[0.0448 0.0000 0.0000 0.0448 0 0] CC
(1) show
GR
/Font0 FFSF
0.0851 0.8349 m
GS
[0.0448 0.0000 0.0000 0.0448 0 0] CC
(1.2) show
GR
/Font0 FFSF
0.0743 0.4451 m
GS
[0.0000 0.0504 -0.0504 0.0000 0 0] CC
(m) show
GR
/Font0 FFSF
0.0441 0.4843 m
GS
[0.0000 0.0356 -0.0356 0.0000 0 0] CC
(*) show
GR
/Font0 FFSF
0.0743 0.5020 m
GS
[0.0000 0.0504 -0.0504 0.0000 0 0] CC
(/m) show
GR
[] 0 SD
0.0015 SLW
n
0.1500 0.1500 m
0.1500 0.8500 l
1.1500 0.8500 l
1.1500 0.1500 l
0.1500 0.1500 l
c
s
n
0.1500 0.3920 m
0.1500 0.1544 l
0.3934 0.1544 l
0.3934 0.3920 l
c
[/DeviceRGB] SCS
Color0 SC
fill
[/DeviceRGB] SCS
Color1 SC
[] 0 SD
0.0045 SLW
n
0.1500 0.3920 m
0.1500 0.1544 l
0.3934 0.1544 l
0.3934 0.3920 l
0.1500 0.3920 l
c
s
/Font0 FFSF
0.2219 0.3475 m
GS
[0.0510 0.0000 0.0000 0.0510 0 0] CC
(BBG) show
GR
[] 0 SD
0.0030 SLW
n 0.1819 0.3644 0.0100 0.0100 0 360 EARC s
/Font0 FFSF
0.2219 0.3022 m
GS
[0.0510 0.0000 0.0000 0.0510 0 0] CC
(LYVA1) show
GR
[] 0 SD
0.0037 SLW
n
0.1619 0.3193 m
0.2019 0.3193 l
s
/Font0 FFSF
0.2219 0.2569 m
GS
[0.0510 0.0000 0.0000 0.0510 0 0] CC
(BSk19) show
GR
[/DeviceRGB] SCS
Color3 SC
[0.0187 0.0112 ] 0 SD
0.0037 SLW
n
0.1619 0.2738 m
0.2019 0.2738 l
s
/Font0 FFSF
[/DeviceRGB] SCS
Color1 SC
0.2219 0.2108 m
GS
[0.0510 0.0000 0.0000 0.0510 0 0] CC
(BSk20) show
GR
[/DeviceRGB] SCS
Color2 SC
n
0.1619 0.2279 m
0.2019 0.2279 l
s
/Font0 FFSF
[/DeviceRGB] SCS
Color1 SC
0.2219 0.1651 m
GS
[0.0510 0.0000 0.0000 0.0510 0 0] CC
(BSk21) show
GR
[/DeviceRGB] SCS
Color15 SC
n
0.1619 0.1822 m
0.2019 0.1822 l
s
/Font0 FFSF
[/DeviceRGB] SCS
Color1 SC
1.0000 0.7500 m
GS
[0.0834 0.0000 0.0000 0.0834 0 0] CC
(b\)) show
GR
%%Trailer
%%BoundingBox: 11 21 722 531
%%DocumentNeededResources: font Times-Roman
%%+ font Times-Italic
%%EOF
