%!PS-Adobe-3.0 EPSF-3.0
%%BoundingBox: (atend)
%%LanguageLevel: 2
%%Creator: Grace-5.1.25
%%CreationDate: Thu Dec 17 12:02:31 2015
%%DocumentData: Clean8Bit
%%Orientation: Portrait
%%Title: /Users/ap1450/Dropbox/Physics_Reports_LR/AA_paper_EoS/Vers10/plots/NS_mass.agr
%%For: ap1450
%%DocumentNeededResources: (atend)
%%EndComments
%%BeginProlog
/m {moveto} def
/l {lineto} def
/s {stroke} def
/n {newpath} def
/c {closepath} def
/RL {rlineto} def
/SLW {setlinewidth} def
/GS {gsave} def
/GR {grestore} def
/SC {setcolor} def
/SGRY {setgray} def
/SRGB {setrgbcolor} def
/SD {setdash} def
/SLC {setlinecap} def
/SLJ {setlinejoin} def
/SCS {setcolorspace} def
/FFSF {findfont setfont} def
/CC {concat} def
/PXL {n m 0 0 RL s} def
/Color0 {1.0000 1.0000 1.0000} def
/Color1 {0.0000 0.0000 0.0000} def
/Color2 {1.0000 0.0000 0.0000} def
/Color3 {0.0000 1.0000 0.0000} def
/Color4 {0.0000 0.0000 1.0000} def
/Color5 {1.0000 1.0000 0.0000} def
/Color6 {0.7373 0.5608 0.5608} def
/Color7 {0.8627 0.8627 0.8627} def
/Color8 {0.5804 0.0000 0.8275} def
/Color9 {0.0000 1.0000 1.0000} def
/Color10 {1.0000 0.0000 1.0000} def
/Color11 {1.0000 0.6471 0.0000} def
/Color12 {0.4471 0.1294 0.7373} def
/Color13 {0.4039 0.0275 0.2824} def
/Color14 {0.2510 0.8784 0.8157} def
/Color15 {0.0000 0.5451 0.0000} def
/Color16 {0.7529 0.7529 0.7529} def
/Color17 {0.5059 0.5059 0.5059} def
/Color18 {0.2588 0.2588 0.2588} def
/Color19 {0.7529 1.0000 0.7529} def
/Color20 {0.5059 1.0000 0.5059} def
/Color21 {0.2588 1.0000 0.2588} def
/Color22 {0.8980 0.7529 0.9569} def
/Color23 {0.7961 0.5059 0.9137} def
/Color24 {0.6941 0.2588 0.8706} def
/PTRN {
 /pat_bits exch def 
 <<
  /PaintType 2
  /PatternType 1 /TilingType 1
  /BBox[0 0 16 16]
  /XStep 16 /YStep 16
  /PaintProc {
   pop
   16 16 true [-1 0 0 -1 16 16] pat_bits imagemask
  }
 >>
 [0.0016 0 0 0.0016 0 0]
 makepattern
} def
/Pattern0 {<0000000000000000000000000000000000000000000000000000000000000000> PTRN} bind def
/Pattern1 {<ffffffffffffffffffffffffffffffffffffffffffffffffffffffffffffffff> PTRN} bind def
/Pattern2 {<eeeeffffbbbbffffeeeeffffbbbbffffeeeeffffbbbbffffeeeeffffbbbbffff> PTRN} bind def
/Pattern3 {<eeeebbbbeeeebbbbeeeebbbbeeeebbbbeeeebbbbeeeebbbbeeeebbbbeeeebbbb> PTRN} bind def
/Pattern4 {<5555aaaa5555aaaa5555aaaa5555aaaa5555aaaa5555aaaa5555aaaa5555aaaa> PTRN} bind def
/Pattern5 {<1111444411114444111144441111444411114444111144441111444411114444> PTRN} bind def
/Pattern6 {<1111000044440000111100004444000011110000444400001111000044440000> PTRN} bind def
/Pattern7 {<1010000000000000010100000000000010100000000000000101000000000000> PTRN} bind def
/Pattern8 {<0000000000000000000000000000000000000000000000000000000000000000> PTRN} bind def
/Pattern9 {<1e1e0f0f8787c3c3e1e1f0f078783c3c1e1e0f0f8787c3c3e1e1f0f078783c3c> PTRN} bind def
/Pattern10 {<7878f0f0e1e1c3c387870f0f1e1e3c3c7878f0f0e1e1c3c387870f0f1e1e3c3c> PTRN} bind def
/Pattern11 {<3333333333333333333333333333333333333333333333333333333333333333> PTRN} bind def
/Pattern12 {<ffffffff00000000ffffffff00000000ffffffff00000000ffffffff00000000> PTRN} bind def
/Pattern13 {<8181424224241818181824244242818181814242242418181818242442428181> PTRN} bind def
/Pattern14 {<8080404020201010080804040202010180804040202010100808040402020101> PTRN} bind def
/Pattern15 {<0101020204040808101020204040808001010202040408081010202040408080> PTRN} bind def
/Pattern16 {<2222222222222222222222222222222222222222222222222222222222222222> PTRN} bind def
/Pattern17 {<0000ffff000000000000ffff000000000000ffff000000000000ffff00000000> PTRN} bind def
/Pattern18 {<2222ffff222222222222ffff222222222222ffff222222222222ffff22222222> PTRN} bind def
/Pattern19 {<ffffffff33333333ffffffff33333333ffffffff33333333ffffffff33333333> PTRN} bind def
/Pattern20 {<0f0f0f0f0f0f0f0ff0f0f0f0f0f0f0f00f0f0f0f0f0f0f0ff0f0f0f0f0f0f0f0> PTRN} bind def
/Pattern21 {<ff00ff00ff00ff00ff00ff00ff00ff0000ff00ff00ff00ff00ff00ff00ff00ff> PTRN} bind def
/Pattern22 {<8001800180018001800180018001ffffffff8001800180018001800180018001> PTRN} bind def
/Pattern23 {<c003c003c003c003c003c003ffffffffffffffffc003c003c003c003c003c003> PTRN} bind def
/Pattern24 {<040404040404ffff404040404040ffff040404040404ffff404040404040ffff> PTRN} bind def
/Pattern25 {<180018001800180018001800ffffffff001800180018001800180018ffffffff> PTRN} bind def
/Pattern26 {<1111b8b87c7c3a3a1111a3a3c7c78b8b1111b8b87c7c3a3a1111a3a3c7c78b8b> PTRN} bind def
/Pattern27 {<101010102828c7c70101010182827c7c101010102828c7c70101010182827c7c> PTRN} bind def
/Pattern28 {<1c1c121211112121c1c12121111112121c1c121211112121c1c1212111111212> PTRN} bind def
/Pattern29 {<3e3e414180808080e3e31414080808083e3e414180808080e3e3141408080808> PTRN} bind def
/Pattern30 {<4848888884848383848488884848383848488888848483838484888848483838> PTRN} bind def
/Pattern31 {<03030404080808080c0c12122121c0c003030404080808080c0c12122121c0c0> PTRN} bind def
/ellipsedict 8 dict def
ellipsedict /mtrx matrix put
/EARC {
 ellipsedict begin
  /endangle exch def
  /startangle exch def
  /yrad exch def
  /xrad exch def
  /y exch def
  /x exch def
  /savematrix mtrx currentmatrix def
  x y translate
  xrad yrad scale
  0 0 1 startangle endangle arc
  savematrix setmatrix
 end
} def
/TL {
  /kcomp exch def
  /linewidth exch def
  /offset exch def
  GS
  0 offset rmoveto
  linewidth SLW
  dup stringwidth exch kcomp add exch RL s
  GR
} def
/KINIT
{
 /kvector exch def
 /kid 0 def
} def
/KPROC
{
 pop pop
 kvector kid get
 0 rmoveto
 /kid 1 kid add def
} def
/DefEncoding [
 /.notdef
 /.notdef
 /.notdef
 /.notdef
 /.notdef
 /.notdef
 /.notdef
 /.notdef
 /.notdef
 /.notdef
 /.notdef
 /.notdef
 /.notdef
 /.notdef
 /.notdef
 /.notdef
 /.notdef
 /.notdef
 /.notdef
 /.notdef
 /.notdef
 /.notdef
 /.notdef
 /.notdef
 /.notdef
 /.notdef
 /.notdef
 /.notdef
 /.notdef
 /.notdef
 /.notdef
 /.notdef
 /space
 /exclam
 /quotedbl
 /numbersign
 /dollar
 /percent
 /ampersand
 /quoteright
 /parenleft
 /parenright
 /asterisk
 /plus
 /comma
 /hyphen
 /period
 /slash
 /zero
 /one
 /two
 /three
 /four
 /five
 /six
 /seven
 /eight
 /nine
 /colon
 /semicolon
 /less
 /equal
 /greater
 /question
 /at
 /A
 /B
 /C
 /D
 /E
 /F
 /G
 /H
 /I
 /J
 /K
 /L
 /M
 /N
 /O
 /P
 /Q
 /R
 /S
 /T
 /U
 /V
 /W
 /X
 /Y
 /Z
 /bracketleft
 /backslash
 /bracketright
 /asciicircum
 /underscore
 /grave
 /a
 /b
 /c
 /d
 /e
 /f
 /g
 /h
 /i
 /j
 /k
 /l
 /m
 /n
 /o
 /p
 /q
 /r
 /s
 /t
 /u
 /v
 /w
 /x
 /y
 /z
 /braceleft
 /bar
 /braceright
 /asciitilde
 /.notdef
 /.notdef
 /.notdef
 /.notdef
 /.notdef
 /.notdef
 /.notdef
 /.notdef
 /.notdef
 /.notdef
 /.notdef
 /.notdef
 /.notdef
 /.notdef
 /.notdef
 /.notdef
 /.notdef
 /.notdef
 /.notdef
 /.notdef
 /.notdef
 /.notdef
 /.notdef
 /.notdef
 /.notdef
 /.notdef
 /.notdef
 /.notdef
 /.notdef
 /.notdef
 /.notdef
 /.notdef
 /.notdef
 /space
 /exclamdown
 /cent
 /sterling
 /currency
 /yen
 /brokenbar
 /section
 /dieresis
 /copyright
 /ordfeminine
 /guillemotleft
 /logicalnot
 /hyphen
 /registered
 /macron
 /degree
 /plusminus
 /twosuperior
 /threesuperior
 /acute
 /mu
 /paragraph
 /periodcentered
 /cedilla
 /onesuperior
 /ordmasculine
 /guillemotright
 /onequarter
 /onehalf
 /threequarters
 /questiondown
 /Agrave
 /Aacute
 /Acircumflex
 /Atilde
 /Adieresis
 /Aring
 /AE
 /Ccedilla
 /Egrave
 /Eacute
 /Ecircumflex
 /Edieresis
 /Igrave
 /Iacute
 /Icircumflex
 /Idieresis
 /Eth
 /Ntilde
 /Ograve
 /Oacute
 /Ocircumflex
 /Otilde
 /Odieresis
 /multiply
 /Oslash
 /Ugrave
 /Uacute
 /Ucircumflex
 /Udieresis
 /Yacute
 /Thorn
 /germandbls
 /agrave
 /aacute
 /acircumflex
 /atilde
 /adieresis
 /aring
 /ae
 /ccedilla
 /egrave
 /eacute
 /ecircumflex
 /edieresis
 /igrave
 /iacute
 /icircumflex
 /idieresis
 /eth
 /ntilde
 /ograve
 /oacute
 /ocircumflex
 /otilde
 /odieresis
 /divide
 /oslash
 /ugrave
 /uacute
 /ucircumflex
 /udieresis
 /yacute
 /thorn
 /ydieresis
] def
%%EndProlog
%%BeginSetup
%%EndSetup
612.00 612.00 scale
[/DeviceRGB] SCS
Color1 SC
[] 0 SD
0.0037 SLW
0 SLC
0 SLJ
n
1.1501 0.1634 m
0.9289 0.1653 l
0.7160 0.1703 l
0.6032 0.1779 l
0.5582 0.1878 l
0.5454 0.2002 l
0.5556 0.2146 l
0.5706 0.2309 l
0.5947 0.2488 l
0.6175 0.2681 l
0.6388 0.2883 l
0.6610 0.3093 l
0.6787 0.3306 l
0.6971 0.3522 l
0.7112 0.3738 l
0.7236 0.3951 l
0.7343 0.4160 l
0.7413 0.4363 l
0.7488 0.4560 l
0.7527 0.4750 l
0.7552 0.4932 l
0.7582 0.5105 l
0.7579 0.5270 l
0.7564 0.5426 l
0.7553 0.5573 l
0.7530 0.5711 l
0.7477 0.5841 l
0.7447 0.5962 l
0.7387 0.6075 l
0.7333 0.6180 l
0.7283 0.6278 l
0.7206 0.6369 l
0.7150 0.6453 l
0.7082 0.6530 l
0.7003 0.6602 l
0.6928 0.6668 l
0.6857 0.6728 l
0.6775 0.6783 l
0.6712 0.6834 l
0.6623 0.6880 l
0.6552 0.6922 l
0.6471 0.6961 l
0.6393 0.6995 l
0.6318 0.7027 l
0.6246 0.7055 l
0.6164 0.7080 l
0.6097 0.7103 l
0.6021 0.7123 l
0.5947 0.7141 l
0.5876 0.7156 l
0.5806 0.7170 l
0.5728 0.7182 l
0.5663 0.7192 l
0.5589 0.7200 l
0.5529 0.7207 l
0.5459 0.7213 l
0.5391 0.7217 l
0.5336 0.7221 l
0.5272 0.7223 l
0.5210 0.7224 l
0.5149 0.7224 l
s
[] 0 SD
0.0045 SLW
n
0.1500 0.1500 m
1.1500 0.1500 l
s
n
0.1500 0.8500 m
1.1500 0.8500 l
s
n
0.2333 0.1500 m
0.2333 0.1600 l
s
n
0.2333 0.8500 m
0.2333 0.8400 l
s
n
0.4000 0.1500 m
0.4000 0.1600 l
s
n
0.4000 0.8500 m
0.4000 0.8400 l
s
n
0.5667 0.1500 m
0.5667 0.1600 l
s
n
0.5667 0.8500 m
0.5667 0.8400 l
s
n
0.7333 0.1500 m
0.7333 0.1600 l
s
n
0.7333 0.8500 m
0.7333 0.8400 l
s
n
0.9000 0.1500 m
0.9000 0.1600 l
s
n
0.9000 0.8500 m
0.9000 0.8400 l
s
n
1.0667 0.1500 m
1.0667 0.1600 l
s
n
1.0667 0.8500 m
1.0667 0.8400 l
s
n
0.1500 0.1500 m
0.1500 0.1700 l
s
n
0.1500 0.8500 m
0.1500 0.8300 l
s
n
0.3167 0.1500 m
0.3167 0.1700 l
s
n
0.3167 0.8500 m
0.3167 0.8300 l
s
n
0.4833 0.1500 m
0.4833 0.1700 l
s
n
0.4833 0.8500 m
0.4833 0.8300 l
s
n
0.6500 0.1500 m
0.6500 0.1700 l
s
n
0.6500 0.8500 m
0.6500 0.8300 l
s
n
0.8167 0.1500 m
0.8167 0.1700 l
s
n
0.8167 0.8500 m
0.8167 0.8300 l
s
n
0.9833 0.1500 m
0.9833 0.1700 l
s
n
0.9833 0.8500 m
0.9833 0.8300 l
s
/Times-Roman findfont
dup length dict begin
 {1 index /FID ne {def} {pop pop} ifelse} forall
 /Encoding DefEncoding def
 currentdict
end
/Font0 exch definefont pop
/Font0 FFSF
0.1231 0.1094 m
GS
[0.0448 0.0000 0.0000 0.0448 0 0] CC
(0.8) show
GR
/Font0 FFSF
0.2896 0.1094 m
GS
[0.0448 0.0000 0.0000 0.0448 0 0] CC
(0.9) show
GR
/Font0 FFSF
0.4745 0.1094 m
GS
[0.0448 0.0000 0.0000 0.0448 0 0] CC
(1) show
GR
/Font0 FFSF
0.6243 0.1094 m
GS
[0.0448 0.0000 0.0000 0.0448 0 0] CC
(1.1) show
GR
/Font0 FFSF
0.7892 0.1094 m
GS
[0.0448 0.0000 0.0000 0.0448 0 0] CC
(1.2) show
GR
/Font0 FFSF
0.9567 0.1094 m
GS
[0.0448 0.0000 0.0000 0.0448 0 0] CC
(1.3) show
GR
/Font0 FFSF
0.5484 0.0637 m
GS
[0.0504 0.0000 0.0000 0.0504 0 0] CC
(R [10 km]) show
GR
n
0.1500 0.1500 m
0.1500 0.8500 l
s
n
1.1500 0.1500 m
1.1500 0.8500 l
s
n
0.1500 0.2227 m
0.1600 0.2227 l
s
n
1.1500 0.2227 m
1.1400 0.2227 l
s
n
0.1500 0.3685 m
0.1600 0.3685 l
s
n
1.1500 0.3685 m
1.1400 0.3685 l
s
n
0.1500 0.5144 m
0.1600 0.5144 l
s
n
1.1500 0.5144 m
1.1400 0.5144 l
s
n
0.1500 0.6603 m
0.1600 0.6603 l
s
n
1.1500 0.6603 m
1.1400 0.6603 l
s
n
0.1500 0.8062 m
0.1600 0.8062 l
s
n
1.1500 0.8062 m
1.1400 0.8062 l
s
n
0.1500 0.2956 m
0.1700 0.2956 l
s
n
1.1500 0.2956 m
1.1300 0.2956 l
s
n
0.1500 0.4415 m
0.1700 0.4415 l
s
n
1.1500 0.4415 m
1.1300 0.4415 l
s
n
0.1500 0.5874 m
0.1700 0.5874 l
s
n
1.1500 0.5874 m
1.1300 0.5874 l
s
n
0.1500 0.7333 m
0.1700 0.7333 l
s
n
1.1500 0.7333 m
1.1300 0.7333 l
s
/Font0 FFSF
0.0867 0.2805 m
GS
[0.0448 0.0000 0.0000 0.0448 0 0] CC
(0.5) show
GR
/Font0 FFSF
0.1224 0.4262 m
GS
[0.0448 0.0000 0.0000 0.0448 0 0] CC
(1) show
GR
/Font0 FFSF
0.0867 0.5723 m
GS
[0.0448 0.0000 0.0000 0.0448 0 0] CC
(1.5) show
GR
/Font0 FFSF
0.1188 0.7180 m
GS
[0.0448 0.0000 0.0000 0.0448 0 0] CC
(2) show
GR
/Font0 FFSF
0.0561 0.4208 m
GS
[0.0000 0.0504 -0.0504 0.0000 0 0] CC
(M/M) show
GR
/Font0 FFSF
0.0763 0.5243 m
GS
[0.0000 0.0356 -0.0356 0.0000 0 0] CC
(Sun) show
GR
[] 0 SD
0.0015 SLW
n
0.1500 0.1500 m
0.1500 0.8500 l
1.1500 0.8500 l
1.1500 0.1500 l
0.1500 0.1500 l
c
s
[/DeviceRGB] SCS
Color3 SC
[] 0 SD
0.0053 SLW
n
0.1517 0.7129 m
0.1517 0.7362 l
1.1500 0.7362 l
1.1500 0.7129 l
0.1517 0.7129 l
c
s
[/DeviceRGB] SCS
Color8 SC
n
0.1517 0.7245 m
0.1517 0.7479 l
1.1500 0.7479 l
1.1500 0.7245 l
0.1517 0.7245 l
c
s
/Font0 FFSF
[/DeviceRGB] SCS
Color3 SC
0.4000 0.6603 m
GS
[0.0538 0.0000 0.0000 0.0538 0 0] CC
(Demorest) show
GR
/Font0 FFSF
[/DeviceRGB] SCS
Color8 SC
0.4000 0.7771 m
GS
[0.0538 0.0000 0.0000 0.0538 0 0] CC
(Antoniadis) show
GR
/Font0 FFSF
[/DeviceRGB] SCS
Color1 SC
0.2000 0.2000 m
GS
[0.0848 0.0000 0.0000 0.0848 0 0] CC
(a\)) show
GR
%%Trailer
%%BoundingBox: 12 33 707 523
%%DocumentNeededResources: font Times-Roman
%%EOF
