\relax 
\@writefile{toc}{\contentsline {section}{\numberline {1}Gogny-like}{1}}
\@writefile{toc}{\contentsline {subsection}{\numberline {1.1}$\mathbf  {(S,T)}$ channels}{1}}
\@writefile{toc}{\contentsline {subsection}{\numberline {1.2}$\mathbf  {(SLJ)}$ partial waves}{2}}
\@writefile{toc}{\contentsline {subsection}{\numberline {1.3}The functions G}{3}}
\@writefile{toc}{\contentsline {subsection}{\numberline {1.4}The relevant combinations for fitting spin-orbit and tensor parameters}{3}}
\@writefile{toc}{\contentsline {section}{\numberline {2}Nakada interaction}{4}}
\@writefile{toc}{\contentsline {subsection}{\numberline {2.1}$\mathbf  {(S,T)}$ channels}{4}}
\@writefile{toc}{\contentsline {subsection}{\numberline {2.2}$\mathbf  {(LSJ)}$ partial waves}{5}}
\@writefile{toc}{\contentsline {subsubsection}{\numberline {2.2.1}The functions Y (for Yukawian)}{6}}
\citation{rai11}
\@writefile{toc}{\contentsline {subsection}{\numberline {2.3}The relevant combinations for fitting spin-orbit and tensor parameters}{7}}
\@writefile{toc}{\contentsline {section}{\numberline {3}N3LO}{7}}
\newlabel{V-zero}{{69}{7}}
\newlabel{V-two}{{70}{7}}
\newlabel{V-four}{{73}{8}}
\newlabel{V-six}{{74}{8}}
