%!PS-Adobe-3.0
%%BoundingBox: 0 0 612 792
%%LanguageLevel: 2
%%Creator: Grace-5.1.25
%%CreationDate: Tue Dec  1 11:55:09 2015
%%DocumentData: Clean8Bit
%%Orientation: Landscape
%%Pages: 1
%%PageOrder: Ascend
%%Title: /Users/ap1450/Dropbox/Physics_Reports_LR/ST_channel_finite_range/Vers2/plots/JLS_gogny6.agr
%%For: ap1450
%%DocumentNeededResources: (atend)
%%EndComments
%%BeginProlog
/PAGE_OFFSET_X 0 def
/PAGE_OFFSET_Y 0 def
/m {moveto} def
/l {lineto} def
/s {stroke} def
/n {newpath} def
/c {closepath} def
/RL {rlineto} def
/SLW {setlinewidth} def
/GS {gsave} def
/GR {grestore} def
/SC {setcolor} def
/SGRY {setgray} def
/SRGB {setrgbcolor} def
/SD {setdash} def
/SLC {setlinecap} def
/SLJ {setlinejoin} def
/SCS {setcolorspace} def
/FFSF {findfont setfont} def
/CC {concat} def
/PXL {n m 0 0 RL s} def
/Color0 {1.0000 1.0000 1.0000} def
/Color1 {0.0000 0.0000 0.0000} def
/Color2 {1.0000 0.0000 0.0000} def
/Color3 {0.0000 1.0000 0.0000} def
/Color4 {0.0000 0.0000 1.0000} def
/Color5 {1.0000 1.0000 0.0000} def
/Color6 {0.7373 0.5608 0.5608} def
/Color7 {0.8627 0.8627 0.8627} def
/Color8 {0.5804 0.0000 0.8275} def
/Color9 {0.0000 1.0000 1.0000} def
/Color10 {1.0000 0.0000 1.0000} def
/Color11 {1.0000 0.6471 0.0000} def
/Color12 {0.4471 0.1294 0.7373} def
/Color13 {0.4039 0.0275 0.2824} def
/Color14 {0.2510 0.8784 0.8157} def
/Color15 {0.0000 0.5451 0.0000} def
/Color16 {0.7529 0.7529 0.7529} def
/Color17 {0.5059 0.5059 0.5059} def
/Color18 {0.2588 0.2588 0.2588} def
/PTRN {
 /pat_bits exch def 
 <<
  /PaintType 2
  /PatternType 1 /TilingType 1
  /BBox[0 0 16 16]
  /XStep 16 /YStep 16
  /PaintProc {
   pop
   16 16 true [-1 0 0 -1 16 16] pat_bits imagemask
  }
 >>
 [0.0016 0 0 0.0016 0 0]
 makepattern
} def
/Pattern0 {<0000000000000000000000000000000000000000000000000000000000000000> PTRN} bind def
/Pattern1 {<ffffffffffffffffffffffffffffffffffffffffffffffffffffffffffffffff> PTRN} bind def
/Pattern2 {<eeeeffffbbbbffffeeeeffffbbbbffffeeeeffffbbbbffffeeeeffffbbbbffff> PTRN} bind def
/Pattern3 {<eeeebbbbeeeebbbbeeeebbbbeeeebbbbeeeebbbbeeeebbbbeeeebbbbeeeebbbb> PTRN} bind def
/Pattern4 {<5555aaaa5555aaaa5555aaaa5555aaaa5555aaaa5555aaaa5555aaaa5555aaaa> PTRN} bind def
/Pattern5 {<1111444411114444111144441111444411114444111144441111444411114444> PTRN} bind def
/Pattern6 {<1111000044440000111100004444000011110000444400001111000044440000> PTRN} bind def
/Pattern7 {<1010000000000000010100000000000010100000000000000101000000000000> PTRN} bind def
/Pattern8 {<0000000000000000000000000000000000000000000000000000000000000000> PTRN} bind def
/Pattern9 {<1e1e0f0f8787c3c3e1e1f0f078783c3c1e1e0f0f8787c3c3e1e1f0f078783c3c> PTRN} bind def
/Pattern10 {<7878f0f0e1e1c3c387870f0f1e1e3c3c7878f0f0e1e1c3c387870f0f1e1e3c3c> PTRN} bind def
/Pattern11 {<3333333333333333333333333333333333333333333333333333333333333333> PTRN} bind def
/Pattern12 {<ffffffff00000000ffffffff00000000ffffffff00000000ffffffff00000000> PTRN} bind def
/Pattern13 {<8181424224241818181824244242818181814242242418181818242442428181> PTRN} bind def
/Pattern14 {<8080404020201010080804040202010180804040202010100808040402020101> PTRN} bind def
/Pattern15 {<0101020204040808101020204040808001010202040408081010202040408080> PTRN} bind def
/Pattern16 {<2222222222222222222222222222222222222222222222222222222222222222> PTRN} bind def
/Pattern17 {<0000ffff000000000000ffff000000000000ffff000000000000ffff00000000> PTRN} bind def
/Pattern18 {<2222ffff222222222222ffff222222222222ffff222222222222ffff22222222> PTRN} bind def
/Pattern19 {<ffffffff33333333ffffffff33333333ffffffff33333333ffffffff33333333> PTRN} bind def
/Pattern20 {<0f0f0f0f0f0f0f0ff0f0f0f0f0f0f0f00f0f0f0f0f0f0f0ff0f0f0f0f0f0f0f0> PTRN} bind def
/Pattern21 {<ff00ff00ff00ff00ff00ff00ff00ff0000ff00ff00ff00ff00ff00ff00ff00ff> PTRN} bind def
/Pattern22 {<8001800180018001800180018001ffffffff8001800180018001800180018001> PTRN} bind def
/Pattern23 {<c003c003c003c003c003c003ffffffffffffffffc003c003c003c003c003c003> PTRN} bind def
/Pattern24 {<040404040404ffff404040404040ffff040404040404ffff404040404040ffff> PTRN} bind def
/Pattern25 {<180018001800180018001800ffffffff001800180018001800180018ffffffff> PTRN} bind def
/Pattern26 {<1111b8b87c7c3a3a1111a3a3c7c78b8b1111b8b87c7c3a3a1111a3a3c7c78b8b> PTRN} bind def
/Pattern27 {<101010102828c7c70101010182827c7c101010102828c7c70101010182827c7c> PTRN} bind def
/Pattern28 {<1c1c121211112121c1c12121111112121c1c121211112121c1c1212111111212> PTRN} bind def
/Pattern29 {<3e3e414180808080e3e31414080808083e3e414180808080e3e3141408080808> PTRN} bind def
/Pattern30 {<4848888884848383848488884848383848488888848483838484888848483838> PTRN} bind def
/Pattern31 {<03030404080808080c0c12122121c0c003030404080808080c0c12122121c0c0> PTRN} bind def
/ellipsedict 8 dict def
ellipsedict /mtrx matrix put
/EARC {
 ellipsedict begin
  /endangle exch def
  /startangle exch def
  /yrad exch def
  /xrad exch def
  /y exch def
  /x exch def
  /savematrix mtrx currentmatrix def
  x y translate
  xrad yrad scale
  0 0 1 startangle endangle arc
  savematrix setmatrix
 end
} def
/TL {
  /kcomp exch def
  /linewidth exch def
  /offset exch def
  GS
  0 offset rmoveto
  linewidth SLW
  dup stringwidth exch kcomp add exch RL s
  GR
} def
/KINIT
{
 /kvector exch def
 /kid 0 def
} def
/KPROC
{
 pop pop
 kvector kid get
 0 rmoveto
 /kid 1 kid add def
} def
/DefEncoding [
 /.notdef
 /.notdef
 /.notdef
 /.notdef
 /.notdef
 /.notdef
 /.notdef
 /.notdef
 /.notdef
 /.notdef
 /.notdef
 /.notdef
 /.notdef
 /.notdef
 /.notdef
 /.notdef
 /.notdef
 /.notdef
 /.notdef
 /.notdef
 /.notdef
 /.notdef
 /.notdef
 /.notdef
 /.notdef
 /.notdef
 /.notdef
 /.notdef
 /.notdef
 /.notdef
 /.notdef
 /.notdef
 /space
 /exclam
 /quotedbl
 /numbersign
 /dollar
 /percent
 /ampersand
 /quoteright
 /parenleft
 /parenright
 /asterisk
 /plus
 /comma
 /hyphen
 /period
 /slash
 /zero
 /one
 /two
 /three
 /four
 /five
 /six
 /seven
 /eight
 /nine
 /colon
 /semicolon
 /less
 /equal
 /greater
 /question
 /at
 /A
 /B
 /C
 /D
 /E
 /F
 /G
 /H
 /I
 /J
 /K
 /L
 /M
 /N
 /O
 /P
 /Q
 /R
 /S
 /T
 /U
 /V
 /W
 /X
 /Y
 /Z
 /bracketleft
 /backslash
 /bracketright
 /asciicircum
 /underscore
 /grave
 /a
 /b
 /c
 /d
 /e
 /f
 /g
 /h
 /i
 /j
 /k
 /l
 /m
 /n
 /o
 /p
 /q
 /r
 /s
 /t
 /u
 /v
 /w
 /x
 /y
 /z
 /braceleft
 /bar
 /braceright
 /asciitilde
 /.notdef
 /.notdef
 /.notdef
 /.notdef
 /.notdef
 /.notdef
 /.notdef
 /.notdef
 /.notdef
 /.notdef
 /.notdef
 /.notdef
 /.notdef
 /.notdef
 /.notdef
 /.notdef
 /.notdef
 /.notdef
 /.notdef
 /.notdef
 /.notdef
 /.notdef
 /.notdef
 /.notdef
 /.notdef
 /.notdef
 /.notdef
 /.notdef
 /.notdef
 /.notdef
 /.notdef
 /.notdef
 /.notdef
 /space
 /exclamdown
 /cent
 /sterling
 /currency
 /yen
 /brokenbar
 /section
 /dieresis
 /copyright
 /ordfeminine
 /guillemotleft
 /logicalnot
 /hyphen
 /registered
 /macron
 /degree
 /plusminus
 /twosuperior
 /threesuperior
 /acute
 /mu
 /paragraph
 /periodcentered
 /cedilla
 /onesuperior
 /ordmasculine
 /guillemotright
 /onequarter
 /onehalf
 /threequarters
 /questiondown
 /Agrave
 /Aacute
 /Acircumflex
 /Atilde
 /Adieresis
 /Aring
 /AE
 /Ccedilla
 /Egrave
 /Eacute
 /Ecircumflex
 /Edieresis
 /Igrave
 /Iacute
 /Icircumflex
 /Idieresis
 /Eth
 /Ntilde
 /Ograve
 /Oacute
 /Ocircumflex
 /Otilde
 /Odieresis
 /multiply
 /Oslash
 /Ugrave
 /Uacute
 /Ucircumflex
 /Udieresis
 /Yacute
 /Thorn
 /germandbls
 /agrave
 /aacute
 /acircumflex
 /atilde
 /adieresis
 /aring
 /ae
 /ccedilla
 /egrave
 /eacute
 /ecircumflex
 /edieresis
 /igrave
 /iacute
 /icircumflex
 /idieresis
 /eth
 /ntilde
 /ograve
 /oacute
 /ocircumflex
 /otilde
 /odieresis
 /divide
 /oslash
 /ugrave
 /uacute
 /ucircumflex
 /udieresis
 /yacute
 /thorn
 /ydieresis
] def
%%EndProlog
%%BeginSetup
%%EndSetup
%%Page: 1 1
PAGE_OFFSET_X PAGE_OFFSET_Y translate
612.00 612.00 scale
90 rotate
0.0 -1.0 translate
n
0.4265 0.5887 m
0.4265 0.6067 l
0.4445 0.6067 l
0.4445 0.5887 l
c
GS
[/DeviceRGB] SCS
Color0 SRGB
fill
GR
[/Pattern /DeviceRGB] SCS
Color1 Pattern8 SC
fill
[/DeviceRGB] SCS
Color1 SC
[] 0 SD
0.0045 SLW
0 SLC
0 SLJ
n
0.4265 0.5887 m
0.4265 0.6067 l
0.4445 0.6067 l
0.4445 0.5887 l
0.4265 0.5887 l
c
s
n
0.4979 0.5759 m
0.4979 0.5939 l
0.5159 0.5939 l
0.5159 0.5759 l
c
GS
Color0 SRGB
fill
GR
[/Pattern /DeviceRGB] SCS
Color1 Pattern8 SC
fill
[/DeviceRGB] SCS
Color1 SC
n
0.4979 0.5759 m
0.4979 0.5939 l
0.5159 0.5939 l
0.5159 0.5759 l
0.4979 0.5759 l
c
s
n
0.5693 0.5579 m
0.5693 0.5759 l
0.5873 0.5759 l
0.5873 0.5579 l
c
GS
Color0 SRGB
fill
GR
[/Pattern /DeviceRGB] SCS
Color1 Pattern8 SC
fill
[/DeviceRGB] SCS
Color1 SC
n
0.5693 0.5579 m
0.5693 0.5759 l
0.5873 0.5759 l
0.5873 0.5579 l
0.5693 0.5579 l
c
s
n
0.6406 0.5336 m
0.6406 0.5516 l
0.6587 0.5516 l
0.6587 0.5336 l
c
GS
Color0 SRGB
fill
GR
[/Pattern /DeviceRGB] SCS
Color1 Pattern8 SC
fill
[/DeviceRGB] SCS
Color1 SC
n
0.6406 0.5336 m
0.6406 0.5516 l
0.6587 0.5516 l
0.6587 0.5336 l
0.6406 0.5336 l
c
s
n
0.7120 0.5025 m
0.7120 0.5205 l
0.7300 0.5205 l
0.7300 0.5025 l
c
GS
Color0 SRGB
fill
GR
[/Pattern /DeviceRGB] SCS
Color1 Pattern8 SC
fill
[/DeviceRGB] SCS
Color1 SC
n
0.7120 0.5025 m
0.7120 0.5205 l
0.7300 0.5205 l
0.7300 0.5025 l
0.7120 0.5025 l
c
s
n
0.7834 0.4637 m
0.7834 0.4817 l
0.8014 0.4817 l
0.8014 0.4637 l
c
GS
Color0 SRGB
fill
GR
[/Pattern /DeviceRGB] SCS
Color1 Pattern8 SC
fill
[/DeviceRGB] SCS
Color1 SC
n
0.7834 0.4637 m
0.7834 0.4817 l
0.8014 0.4817 l
0.8014 0.4637 l
0.7834 0.4637 l
c
s
n
0.8548 0.4165 m
0.8548 0.4345 l
0.8728 0.4345 l
0.8728 0.4165 l
c
GS
Color0 SRGB
fill
GR
[/Pattern /DeviceRGB] SCS
Color1 Pattern8 SC
fill
[/DeviceRGB] SCS
Color1 SC
n
0.8548 0.4165 m
0.8548 0.4345 l
0.8728 0.4345 l
0.8728 0.4165 l
0.8548 0.4165 l
c
s
n
0.9261 0.3601 m
0.9261 0.3781 l
0.9442 0.3781 l
0.9442 0.3601 l
c
GS
Color0 SRGB
fill
GR
[/Pattern /DeviceRGB] SCS
Color1 Pattern8 SC
fill
[/DeviceRGB] SCS
Color1 SC
n
0.9261 0.3601 m
0.9261 0.3781 l
0.9442 0.3781 l
0.9442 0.3601 l
0.9261 0.3601 l
c
s
n
0.9975 0.2935 m
0.9975 0.3115 l
1.0155 0.3115 l
1.0155 0.2935 l
c
GS
Color0 SRGB
fill
GR
[/Pattern /DeviceRGB] SCS
Color1 Pattern8 SC
fill
[/DeviceRGB] SCS
Color1 SC
n
0.9975 0.2935 m
0.9975 0.3115 l
1.0155 0.3115 l
1.0155 0.2935 l
0.9975 0.2935 l
c
s
n
1.0689 0.2159 m
1.0689 0.2339 l
1.0869 0.2339 l
1.0869 0.2159 l
c
GS
Color0 SRGB
fill
GR
[/Pattern /DeviceRGB] SCS
Color1 Pattern8 SC
fill
[/DeviceRGB] SCS
Color1 SC
n
1.0689 0.2159 m
1.0689 0.2339 l
1.0869 0.2339 l
1.0869 0.2159 l
1.0689 0.2159 l
c
s
[] 0 SD
0.0037 SLW
n
0.1499 0.6165 m
0.1500 0.6165 l
0.1571 0.6165 l
0.1643 0.6165 l
0.1714 0.6165 l
0.1786 0.6165 l
0.1857 0.6164 l
0.1928 0.6164 l
0.2000 0.6164 l
0.2071 0.6164 l
0.2142 0.6163 l
0.2214 0.6163 l
0.2285 0.6162 l
0.2357 0.6162 l
0.2428 0.6162 l
0.2499 0.6161 l
0.2571 0.6161 l
0.2642 0.6160 l
0.2713 0.6159 l
0.2785 0.6159 l
0.2856 0.6158 l
0.2928 0.6157 l
0.2999 0.6157 l
0.3070 0.6156 l
0.3142 0.6155 l
0.3213 0.6154 l
0.3284 0.6153 l
0.3356 0.6152 l
0.3427 0.6150 l
0.3499 0.6149 l
0.3570 0.6148 l
0.3641 0.6146 l
0.3713 0.6145 l
0.3784 0.6143 l
0.3855 0.6142 l
0.3927 0.6140 l
0.3998 0.6138 l
0.4070 0.6136 l
0.4141 0.6134 l
0.4212 0.6132 l
0.4284 0.6130 l
0.4355 0.6127 l
0.4426 0.6125 l
0.4498 0.6122 l
0.4569 0.6119 l
0.4641 0.6116 l
0.4712 0.6113 l
0.4783 0.6110 l
0.4855 0.6107 l
0.4926 0.6103 l
0.4998 0.6099 l
0.5069 0.6095 l
0.5140 0.6091 l
0.5212 0.6087 l
0.5283 0.6083 l
0.5354 0.6078 l
0.5426 0.6073 l
0.5497 0.6068 l
0.5569 0.6063 l
0.5640 0.6057 l
0.5711 0.6052 l
0.5783 0.6046 l
0.5854 0.6039 l
0.5925 0.6033 l
0.5997 0.6026 l
0.6068 0.6019 l
0.6140 0.6012 l
0.6211 0.6004 l
0.6282 0.5997 l
0.6354 0.5988 l
0.6425 0.5980 l
0.6496 0.5971 l
0.6568 0.5962 l
0.6639 0.5953 l
0.6711 0.5943 l
0.6782 0.5933 l
0.6853 0.5922 l
0.6925 0.5911 l
0.6996 0.5900 l
0.7067 0.5888 l
0.7139 0.5876 l
0.7210 0.5863 l
0.7282 0.5851 l
0.7353 0.5837 l
0.7424 0.5823 l
0.7496 0.5809 l
0.7567 0.5794 l
0.7638 0.5779 l
0.7710 0.5763 l
0.7781 0.5747 l
0.7853 0.5730 l
0.7924 0.5713 l
0.7995 0.5695 l
0.8067 0.5676 l
0.8138 0.5657 l
0.8209 0.5638 l
0.8281 0.5617 l
0.8352 0.5597 l
0.8424 0.5575 l
0.8495 0.5553 l
0.8566 0.5530 l
0.8638 0.5507 l
0.8709 0.5483 l
0.8781 0.5458 l
0.8852 0.5432 l
0.8923 0.5406 l
0.8995 0.5379 l
0.9066 0.5351 l
0.9137 0.5322 l
0.9209 0.5293 l
0.9280 0.5263 l
0.9352 0.5232 l
0.9423 0.5200 l
0.9494 0.5167 l
0.9566 0.5133 l
0.9637 0.5099 l
0.9708 0.5063 l
0.9780 0.5027 l
0.9851 0.4989 l
0.9923 0.4951 l
0.9994 0.4912 l
1.0065 0.4871 l
1.0137 0.4830 l
1.0208 0.4787 l
1.0279 0.4744 l
1.0351 0.4699 l
1.0422 0.4654 l
1.0494 0.4607 l
1.0565 0.4559 l
1.0636 0.4509 l
1.0708 0.4459 l
1.0779 0.4407 l
1.0850 0.4354 l
1.0922 0.4300 l
1.0993 0.4245 l
1.1065 0.4188 l
1.1136 0.4130 l
1.1207 0.4071 l
1.1279 0.4010 l
1.1350 0.3947 l
1.1421 0.3884 l
1.1493 0.3819 l
1.1501 0.3811 l
s
[/DeviceRGB] SCS
Color2 SC
[0.0187 0.0112 ] 0 SD
0.0037 SLW
n
0.1499 0.6162 m
0.1500 0.6162 l
0.1571 0.6162 l
0.1643 0.6161 l
0.1714 0.6161 l
0.1786 0.6160 l
0.1857 0.6159 l
0.1928 0.6158 l
0.2000 0.6157 l
0.2071 0.6156 l
0.2142 0.6155 l
0.2214 0.6154 l
0.2285 0.6153 l
0.2357 0.6152 l
0.2428 0.6150 l
0.2499 0.6149 l
0.2571 0.6147 l
0.2642 0.6145 l
0.2713 0.6143 l
0.2785 0.6141 l
0.2856 0.6139 l
0.2928 0.6137 l
0.2999 0.6135 l
0.3070 0.6132 l
0.3142 0.6130 l
0.3213 0.6127 l
0.3284 0.6124 l
0.3356 0.6121 l
0.3427 0.6118 l
0.3499 0.6114 l
0.3570 0.6111 l
0.3641 0.6107 l
0.3713 0.6103 l
0.3784 0.6099 l
0.3855 0.6094 l
0.3927 0.6090 l
0.3998 0.6085 l
0.4070 0.6080 l
0.4141 0.6075 l
0.4212 0.6070 l
0.4284 0.6064 l
0.4355 0.6058 l
0.4426 0.6052 l
0.4498 0.6046 l
0.4569 0.6039 l
0.4641 0.6033 l
0.4712 0.6026 l
0.4783 0.6018 l
0.4855 0.6011 l
0.4926 0.6003 l
0.4998 0.5995 l
0.5069 0.5987 l
0.5140 0.5978 l
0.5212 0.5969 l
0.5283 0.5960 l
0.5354 0.5951 l
0.5426 0.5941 l
0.5497 0.5931 l
0.5569 0.5921 l
0.5640 0.5910 l
0.5711 0.5900 l
0.5783 0.5888 l
0.5854 0.5877 l
0.5925 0.5865 l
0.5997 0.5853 l
0.6068 0.5841 l
0.6140 0.5828 l
0.6211 0.5815 l
0.6282 0.5802 l
0.6354 0.5789 l
0.6425 0.5775 l
0.6496 0.5761 l
0.6568 0.5746 l
0.6639 0.5732 l
0.6711 0.5716 l
0.6782 0.5701 l
0.6853 0.5685 l
0.6925 0.5669 l
0.6996 0.5653 l
0.7067 0.5637 l
0.7139 0.5620 l
0.7210 0.5603 l
0.7282 0.5585 l
0.7353 0.5567 l
0.7424 0.5549 l
0.7496 0.5531 l
0.7567 0.5512 l
0.7638 0.5493 l
0.7710 0.5474 l
0.7781 0.5455 l
0.7853 0.5435 l
0.7924 0.5415 l
0.7995 0.5395 l
0.8067 0.5374 l
0.8138 0.5353 l
0.8209 0.5332 l
0.8281 0.5311 l
0.8352 0.5289 l
0.8424 0.5267 l
0.8495 0.5245 l
0.8566 0.5223 l
0.8638 0.5200 l
0.8709 0.5178 l
0.8781 0.5155 l
0.8852 0.5131 l
0.8923 0.5108 l
0.8995 0.5084 l
0.9066 0.5060 l
0.9137 0.5036 l
0.9209 0.5012 l
0.9280 0.4987 l
0.9352 0.4963 l
0.9423 0.4938 l
0.9494 0.4913 l
0.9566 0.4888 l
0.9637 0.4862 l
0.9708 0.4837 l
0.9780 0.4811 l
0.9851 0.4785 l
0.9923 0.4759 l
0.9994 0.4733 l
1.0065 0.4707 l
1.0137 0.4680 l
1.0208 0.4654 l
1.0279 0.4627 l
1.0351 0.4600 l
1.0422 0.4573 l
1.0494 0.4546 l
1.0565 0.4519 l
1.0636 0.4492 l
1.0708 0.4464 l
1.0779 0.4437 l
1.0850 0.4409 l
1.0922 0.4382 l
1.0993 0.4354 l
1.1065 0.4326 l
1.1136 0.4298 l
1.1207 0.4270 l
1.1279 0.4242 l
1.1350 0.4214 l
1.1421 0.4186 l
1.1493 0.4158 l
1.1501 0.4154 l
s
[/DeviceRGB] SCS
Color4 SC
[0.0037 0.0112 0.0187 0.0112 ] 0 SD
0.0037 SLW
n
0.1499 0.6161 m
0.1500 0.6161 l
0.1571 0.6161 l
0.1643 0.6160 l
0.1714 0.6159 l
0.1786 0.6158 l
0.1857 0.6157 l
0.1928 0.6156 l
0.2000 0.6155 l
0.2071 0.6154 l
0.2142 0.6152 l
0.2214 0.6151 l
0.2285 0.6149 l
0.2357 0.6148 l
0.2428 0.6146 l
0.2499 0.6144 l
0.2571 0.6142 l
0.2642 0.6140 l
0.2713 0.6137 l
0.2785 0.6135 l
0.2856 0.6132 l
0.2928 0.6129 l
0.2999 0.6126 l
0.3070 0.6123 l
0.3142 0.6119 l
0.3213 0.6116 l
0.3284 0.6112 l
0.3356 0.6108 l
0.3427 0.6104 l
0.3499 0.6099 l
0.3570 0.6094 l
0.3641 0.6089 l
0.3713 0.6084 l
0.3784 0.6078 l
0.3855 0.6073 l
0.3927 0.6066 l
0.3998 0.6060 l
0.4070 0.6053 l
0.4141 0.6046 l
0.4212 0.6039 l
0.4284 0.6031 l
0.4355 0.6023 l
0.4426 0.6015 l
0.4498 0.6006 l
0.4569 0.5997 l
0.4641 0.5987 l
0.4712 0.5978 l
0.4783 0.5967 l
0.4855 0.5957 l
0.4926 0.5946 l
0.4998 0.5934 l
0.5069 0.5922 l
0.5140 0.5910 l
0.5212 0.5897 l
0.5283 0.5884 l
0.5354 0.5870 l
0.5426 0.5856 l
0.5497 0.5841 l
0.5569 0.5826 l
0.5640 0.5811 l
0.5711 0.5795 l
0.5783 0.5778 l
0.5854 0.5761 l
0.5925 0.5743 l
0.5997 0.5725 l
0.6068 0.5706 l
0.6140 0.5687 l
0.6211 0.5667 l
0.6282 0.5647 l
0.6354 0.5626 l
0.6425 0.5605 l
0.6496 0.5583 l
0.6568 0.5560 l
0.6639 0.5537 l
0.6711 0.5513 l
0.6782 0.5489 l
0.6853 0.5464 l
0.6925 0.5438 l
0.6996 0.5412 l
0.7067 0.5385 l
0.7139 0.5358 l
0.7210 0.5330 l
0.7282 0.5302 l
0.7353 0.5272 l
0.7424 0.5243 l
0.7496 0.5212 l
0.7567 0.5181 l
0.7638 0.5150 l
0.7710 0.5117 l
0.7781 0.5084 l
0.7853 0.5051 l
0.7924 0.5017 l
0.7995 0.4982 l
0.8067 0.4947 l
0.8138 0.4911 l
0.8209 0.4874 l
0.8281 0.4837 l
0.8352 0.4799 l
0.8424 0.4761 l
0.8495 0.4722 l
0.8566 0.4682 l
0.8638 0.4642 l
0.8709 0.4601 l
0.8781 0.4560 l
0.8852 0.4518 l
0.8923 0.4476 l
0.8995 0.4432 l
0.9066 0.4389 l
0.9137 0.4345 l
0.9209 0.4300 l
0.9280 0.4255 l
0.9352 0.4209 l
0.9423 0.4163 l
0.9494 0.4116 l
0.9566 0.4069 l
0.9637 0.4021 l
0.9708 0.3973 l
0.9780 0.3924 l
0.9851 0.3875 l
0.9923 0.3825 l
0.9994 0.3775 l
1.0065 0.3724 l
1.0137 0.3673 l
1.0208 0.3622 l
1.0279 0.3570 l
1.0351 0.3518 l
1.0422 0.3466 l
1.0494 0.3413 l
1.0565 0.3360 l
1.0636 0.3307 l
1.0708 0.3253 l
1.0779 0.3199 l
1.0850 0.3145 l
1.0922 0.3090 l
1.0993 0.3035 l
1.1065 0.2980 l
1.1136 0.2925 l
1.1207 0.2870 l
1.1279 0.2814 l
1.1350 0.2759 l
1.1421 0.2703 l
1.1493 0.2647 l
1.1501 0.2641 l
s
[/DeviceRGB] SCS
Color11 SC
[0.0037 0.0112 0.0187 0.0112 0.0037 0.0112 ] 0 SD
0.0037 SLW
n
0.1499 0.6168 m
0.1500 0.6168 l
0.1571 0.6168 l
0.1643 0.6168 l
0.1714 0.6168 l
0.1786 0.6168 l
0.1857 0.6169 l
0.1928 0.6169 l
0.2000 0.6169 l
0.2071 0.6169 l
0.2142 0.6170 l
0.2214 0.6170 l
0.2285 0.6170 l
0.2357 0.6171 l
0.2428 0.6171 l
0.2499 0.6171 l
0.2571 0.6172 l
0.2642 0.6172 l
0.2713 0.6173 l
0.2785 0.6173 l
0.2856 0.6174 l
0.2928 0.6174 l
0.2999 0.6175 l
0.3070 0.6175 l
0.3142 0.6176 l
0.3213 0.6177 l
0.3284 0.6177 l
0.3356 0.6178 l
0.3427 0.6179 l
0.3499 0.6180 l
0.3570 0.6181 l
0.3641 0.6181 l
0.3713 0.6182 l
0.3784 0.6183 l
0.3855 0.6184 l
0.3927 0.6185 l
0.3998 0.6186 l
0.4070 0.6187 l
0.4141 0.6189 l
0.4212 0.6190 l
0.4284 0.6191 l
0.4355 0.6192 l
0.4426 0.6193 l
0.4498 0.6195 l
0.4569 0.6196 l
0.4641 0.6197 l
0.4712 0.6199 l
0.4783 0.6200 l
0.4855 0.6202 l
0.4926 0.6203 l
0.4998 0.6205 l
0.5069 0.6206 l
0.5140 0.6208 l
0.5212 0.6210 l
0.5283 0.6211 l
0.5354 0.6213 l
0.5426 0.6215 l
0.5497 0.6216 l
0.5569 0.6218 l
0.5640 0.6220 l
0.5711 0.6222 l
0.5783 0.6223 l
0.5854 0.6225 l
0.5925 0.6227 l
0.5997 0.6229 l
0.6068 0.6231 l
0.6140 0.6232 l
0.6211 0.6234 l
0.6282 0.6236 l
0.6354 0.6238 l
0.6425 0.6239 l
0.6496 0.6241 l
0.6568 0.6243 l
0.6639 0.6245 l
0.6711 0.6246 l
0.6782 0.6248 l
0.6853 0.6250 l
0.6925 0.6251 l
0.6996 0.6253 l
0.7067 0.6254 l
0.7139 0.6255 l
0.7210 0.6257 l
0.7282 0.6258 l
0.7353 0.6259 l
0.7424 0.6260 l
0.7496 0.6261 l
0.7567 0.6262 l
0.7638 0.6263 l
0.7710 0.6264 l
0.7781 0.6264 l
0.7853 0.6265 l
0.7924 0.6265 l
0.7995 0.6265 l
0.8067 0.6266 l
0.8138 0.6266 l
0.8209 0.6265 l
0.8281 0.6265 l
0.8352 0.6264 l
0.8424 0.6264 l
0.8495 0.6263 l
0.8566 0.6262 l
0.8638 0.6260 l
0.8709 0.6259 l
0.8781 0.6257 l
0.8852 0.6255 l
0.8923 0.6253 l
0.8995 0.6251 l
0.9066 0.6248 l
0.9137 0.6245 l
0.9209 0.6242 l
0.9280 0.6238 l
0.9352 0.6234 l
0.9423 0.6230 l
0.9494 0.6226 l
0.9566 0.6221 l
0.9637 0.6216 l
0.9708 0.6210 l
0.9780 0.6204 l
0.9851 0.6198 l
0.9923 0.6191 l
0.9994 0.6184 l
1.0065 0.6177 l
1.0137 0.6169 l
1.0208 0.6161 l
1.0279 0.6152 l
1.0351 0.6143 l
1.0422 0.6133 l
1.0494 0.6123 l
1.0565 0.6112 l
1.0636 0.6101 l
1.0708 0.6089 l
1.0779 0.6077 l
1.0850 0.6064 l
1.0922 0.6050 l
1.0993 0.6036 l
1.1065 0.6021 l
1.1136 0.6006 l
1.1207 0.5990 l
1.1279 0.5973 l
1.1350 0.5956 l
1.1421 0.5938 l
1.1493 0.5919 l
1.1501 0.5917 l
s
[/DeviceRGB] SCS
Color1 SC
[] 0 SD
0.0045 SLW
n
0.1500 0.1500 m
1.1500 0.1500 l
s
n
0.1500 0.8500 m
1.1500 0.8500 l
s
n
0.2214 0.1500 m
0.2214 0.1600 l
s
n
0.2214 0.8500 m
0.2214 0.8400 l
s
n
0.3641 0.1500 m
0.3641 0.1600 l
s
n
0.3641 0.8500 m
0.3641 0.8400 l
s
n
0.5069 0.1500 m
0.5069 0.1600 l
s
n
0.5069 0.8500 m
0.5069 0.8400 l
s
n
0.6496 0.1500 m
0.6496 0.1600 l
s
n
0.6496 0.8500 m
0.6496 0.8400 l
s
n
0.7924 0.1500 m
0.7924 0.1600 l
s
n
0.7924 0.8500 m
0.7924 0.8400 l
s
n
0.9352 0.1500 m
0.9352 0.1600 l
s
n
0.9352 0.8500 m
0.9352 0.8400 l
s
n
1.0779 0.1500 m
1.0779 0.1600 l
s
n
1.0779 0.8500 m
1.0779 0.8400 l
s
n
0.1500 0.1500 m
0.1500 0.1700 l
s
n
0.1500 0.8500 m
0.1500 0.8300 l
s
n
0.2928 0.1500 m
0.2928 0.1700 l
s
n
0.2928 0.8500 m
0.2928 0.8300 l
s
n
0.4355 0.1500 m
0.4355 0.1700 l
s
n
0.4355 0.8500 m
0.4355 0.8300 l
s
n
0.5783 0.1500 m
0.5783 0.1700 l
s
n
0.5783 0.8500 m
0.5783 0.8300 l
s
n
0.7210 0.1500 m
0.7210 0.1700 l
s
n
0.7210 0.8500 m
0.7210 0.8300 l
s
n
0.8638 0.1500 m
0.8638 0.1700 l
s
n
0.8638 0.8500 m
0.8638 0.8300 l
s
n
1.0065 0.1500 m
1.0065 0.1700 l
s
n
1.0065 0.8500 m
1.0065 0.8300 l
s
n
1.1493 0.1500 m
1.1493 0.1700 l
s
n
1.1493 0.8500 m
1.1493 0.8300 l
s
/Times-Roman findfont
dup length dict begin
 {1 index /FID ne {def} {pop pop} ifelse} forall
 /Encoding DefEncoding def
 currentdict
end
/Font0 exch definefont pop
/Font0 FFSF
0.1225 0.1094 m
GS
[0.0448 0.0000 0.0000 0.0448 0 0] CC
(0.4) show
GR
/Font0 FFSF
0.2655 0.1094 m
GS
[0.0448 0.0000 0.0000 0.0448 0 0] CC
(0.6) show
GR
/Font0 FFSF
0.4086 0.1094 m
GS
[0.0448 0.0000 0.0000 0.0448 0 0] CC
(0.8) show
GR
/Font0 FFSF
0.5694 0.1094 m
GS
[0.0448 0.0000 0.0000 0.0448 0 0] CC
(1) show
GR
/Font0 FFSF
0.6936 0.1094 m
GS
[0.0448 0.0000 0.0000 0.0448 0 0] CC
(1.2) show
GR
/Font0 FFSF
0.8363 0.1094 m
GS
[0.0448 0.0000 0.0000 0.0448 0 0] CC
(1.4) show
GR
/Font0 FFSF
0.9793 0.1094 m
GS
[0.0448 0.0000 0.0000 0.0448 0 0] CC
(1.6) show
GR
/Font0 FFSF
1.1224 0.1094 m
GS
[0.0448 0.0000 0.0000 0.0448 0 0] CC
(1.8) show
GR
/Font0 FFSF
0.5698 0.0445 m
GS
[0.0504 0.0000 0.0000 0.0504 0 0] CC
(k) show
GR
/Font0 FFSF
0.5949 0.0243 m
GS
[0.0356 0.0000 0.0000 0.0356 0 0] CC
(F) show
GR
/Font0 FFSF
0.6149 0.0445 m
GS
[0.0504 0.0000 0.0000 0.0504 0 0] CC
([fm) show
GR
/Font0 FFSF
0.6878 0.0747 m
GS
[0.0356 0.0000 0.0000 0.0356 0 0] CC
(-1) show
GR
/Font0 FFSF
0.7176 0.0445 m
GS
[0.0504 0.0000 0.0000 0.0504 0 0] CC
(]) show
GR
n
0.1500 0.1500 m
0.1500 0.8500 l
s
n
1.1500 0.1500 m
1.1500 0.8500 l
s
n
0.1500 0.1966 m
0.1600 0.1966 l
s
n
1.1500 0.1966 m
1.1400 0.1966 l
s
n
0.1500 0.2900 m
0.1600 0.2900 l
s
n
1.1500 0.2900 m
1.1400 0.2900 l
s
n
0.1500 0.3833 m
0.1600 0.3833 l
s
n
1.1500 0.3833 m
1.1400 0.3833 l
s
n
0.1500 0.4767 m
0.1600 0.4767 l
s
n
1.1500 0.4767 m
1.1400 0.4767 l
s
n
0.1500 0.5700 m
0.1600 0.5700 l
s
n
1.1500 0.5700 m
1.1400 0.5700 l
s
n
0.1500 0.6633 m
0.1600 0.6633 l
s
n
1.1500 0.6633 m
1.1400 0.6633 l
s
n
0.1500 0.7567 m
0.1600 0.7567 l
s
n
1.1500 0.7567 m
1.1400 0.7567 l
s
n
0.1500 0.8500 m
0.1600 0.8500 l
s
n
1.1500 0.8500 m
1.1400 0.8500 l
s
n
0.1500 0.2433 m
0.1700 0.2433 l
s
n
1.1500 0.2433 m
1.1300 0.2433 l
s
n
0.1500 0.3366 m
0.1700 0.3366 l
s
n
1.1500 0.3366 m
1.1300 0.3366 l
s
n
0.1500 0.4300 m
0.1700 0.4300 l
s
n
1.1500 0.4300 m
1.1300 0.4300 l
s
n
0.1500 0.5233 m
0.1700 0.5233 l
s
n
1.1500 0.5233 m
1.1300 0.5233 l
s
n
0.1500 0.6167 m
0.1700 0.6167 l
s
n
1.1500 0.6167 m
1.1300 0.6167 l
s
n
0.1500 0.7100 m
0.1700 0.7100 l
s
n
1.1500 0.7100 m
1.1300 0.7100 l
s
n
0.1500 0.8033 m
0.1700 0.8033 l
s
n
1.1500 0.8033 m
1.1300 0.8033 l
s
/Font0 FFSF
1.1600 0.2284 m
GS
[0.0448 0.0000 0.0000 0.0448 0 0] CC
(-16) show
GR
/Font0 FFSF
1.1600 0.3214 m
GS
[0.0448 0.0000 0.0000 0.0448 0 0] CC
(-12) show
GR
/Font0 FFSF
1.1600 0.4151 m
GS
[0.0448 0.0000 0.0000 0.0448 0 0] CC
(-8) show
GR
/Font0 FFSF
1.1600 0.5080 m
GS
[0.0448 0.0000 0.0000 0.0448 0 0] CC
(-4) show
GR
/Font0 FFSF
1.1600 0.6018 m
GS
[0.0448 0.0000 0.0000 0.0448 0 0] CC
(0) show
GR
/Font0 FFSF
1.1600 0.6947 m
GS
[0.0448 0.0000 0.0000 0.0448 0 0] CC
(4) show
GR
/Font0 FFSF
1.1600 0.7884 m
GS
[0.0448 0.0000 0.0000 0.0448 0 0] CC
(8) show
GR
/Font0 FFSF
1.2577 0.4335 m
GS
[0.0000 0.0504 -0.0504 0.0000 0 0] CC
([MeV]) show
GR
[] 0 SD
0.0015 SLW
n
0.1500 0.1500 m
0.1500 0.8500 l
1.1500 0.8500 l
1.1500 0.1500 l
0.1500 0.1500 l
c
s
/Font0 FFSF
0.2000 0.3009 m
GS
[0.0600 0.0000 0.0000 0.0600 0 0] CC
(3) show
GR
/Font0 FFSF
0.2298 0.2500 m
GS
[0.0848 0.0000 0.0000 0.0848 0 0] CC
(P) show
GR
/Font0 FFSF
0.2769 0.2161 m
GS
[0.0600 0.0000 0.0000 0.0600 0 0] CC
(2) show
GR
/Font0 FFSF
0.3067 0.2500 m
GS
[0.0848 0.0000 0.0000 0.0848 0 0] CC
(-) show
GR
/Font0 FFSF
0.3349 0.3009 m
GS
[0.0600 0.0000 0.0000 0.0600 0 0] CC
(3) show
GR
/Font0 FFSF
0.3647 0.2500 m
GS
[0.0848 0.0000 0.0000 0.0848 0 0] CC
(F) show
GR
/Font0 FFSF
0.4118 0.2161 m
GS
[0.0600 0.0000 0.0000 0.0600 0 0] CC
(2) show
GR
showpage
%%PageTrailer
%%Trailer
%%DocumentNeededResources: font Times-Roman
%%EOF
