  0.016000   -0.304481E+01    0.475304E+01    0.388061E+00    0.120018E+02   -0.112665E+01    0.764668E+01    0.467635E+01    0.779786E+01   -0.534376E-01    0.957779E+00
  0.032000   -0.611430E+01    0.654735E+01    0.588396E+00    0.190517E+02   -0.299850E+01    0.124225E+02    0.187139E+02    0.126617E+02   -0.179282E+00    0.918980E+00
  0.048000   -0.866670E+01    0.786612E+01    0.150602E+01    0.249648E+02   -0.459840E+01    0.162204E+02    0.368908E+02    0.165328E+02   -0.333262E+00    0.883201E+00
  0.064000   -0.107625E+02    0.902497E+01    0.306093E+01    0.302427E+02   -0.589412E+01    0.194103E+02    0.581522E+02    0.197875E+02   -0.482776E+00    0.850104E+00
  0.080000   -0.124534E+02    0.101488E+02    0.518034E+01    0.350935E+02   -0.689383E+01    0.221660E+02    0.819729E+02    0.226022E+02   -0.601046E+00    0.819398E+00
  0.096000   -0.137793E+02    0.113011E+02    0.780748E+01    0.396291E+02   -0.761178E+01    0.245894E+02    0.108029E+03    0.250804E+02   -0.664899E+00    0.790832E+00
  0.112000   -0.147713E+02    0.125186E+02    0.108978E+02    0.439183E+02   -0.806229E+01    0.267476E+02    0.136096E+03    0.272899E+02   -0.653660E+00    0.764192E+00
  0.128000   -0.154543E+02    0.138245E+02    0.144153E+02    0.480073E+02   -0.825843E+01    0.286880E+02    0.166009E+03    0.292788E+02   -0.548512E+00    0.739287E+00
  0.144000   -0.158488E+02    0.152340E+02    0.183307E+02    0.519289E+02   -0.821186E+01    0.304459E+02    0.197638E+03    0.310828E+02   -0.332081E+00    0.715955E+00
  0.160000   -0.159720E+02    0.167575E+02    0.226193E+02    0.557075E+02   -0.793289E+01    0.320485E+02    0.230881E+03    0.327295E+02    0.118415E-01    0.694050E+00
  0.176000   -0.158385E+02    0.184023E+02    0.272599E+02    0.593620E+02   -0.743072E+01    0.335176E+02    0.265651E+03    0.342408E+02    0.498504E+00    0.673446E+00
  0.192000   -0.154610E+02    0.201737E+02    0.322345E+02    0.629073E+02   -0.671354E+01    0.348709E+02    0.301877E+03    0.356346E+02    0.114234E+01    0.654030E+00
  0.208000   -0.148504E+02    0.220753E+02    0.375273E+02    0.663554E+02   -0.578873E+01    0.361228E+02    0.339496E+03    0.369257E+02    0.195710E+01    0.635702E+00
  0.224000   -0.140165E+02    0.241100E+02    0.431241E+02    0.697160E+02   -0.466295E+01    0.372858E+02    0.378455E+03    0.381265E+02    0.295591E+01    0.618374E+00
  0.240000   -0.129680E+02    0.262797E+02    0.490127E+02    0.729975E+02   -0.334224E+01    0.383704E+02    0.418706E+03    0.392476E+02    0.415138E+01    0.601965E+00
  0.256000   -0.117126E+02    0.285856E+02    0.551818E+02    0.762068E+02   -0.183213E+01    0.393855E+02    0.460206E+03    0.402982E+02    0.555565E+01    0.586404E+00
  0.272000   -0.102575E+02    0.310287E+02    0.616213E+02    0.793499E+02   -0.137676E+00    0.403391E+02    0.502919E+03    0.412861E+02    0.718042E+01    0.571628E+00
  0.288000   -0.860893E+01    0.336096E+02    0.683222E+02    0.824319E+02    0.173646E+01    0.412381E+02    0.546810E+03    0.422185E+02    0.903704E+01    0.557578E+00
  0.304000   -0.677283E+01    0.363286E+02    0.752761E+02    0.854574E+02    0.378596E+01    0.420886E+02    0.591847E+03    0.431014E+02    0.111365E+02    0.544202E+00
  0.320000   -0.475452E+01    0.391858E+02    0.824753E+02    0.884302E+02    0.600683E+01    0.428960E+02    0.638003E+03    0.439403E+02    0.134894E+02    0.531453E+00
  0.336000   -0.255897E+01    0.421813E+02    0.899127E+02    0.913538E+02    0.839534E+01    0.436651E+02    0.685252E+03    0.447403E+02    0.161062E+02    0.519287E+00
  0.352000   -0.190735E+00    0.453148E+02    0.975819E+02    0.942314E+02    0.109480E+02    0.444004E+02    0.733569E+03    0.455055E+02    0.189970E+02    0.507666E+00
  0.368000    0.234593E+01    0.485861E+02    0.105477E+03    0.970657E+02    0.136616E+02    0.451058E+02    0.782932E+03    0.462402E+02    0.221717E+02    0.496554E+00
  0.384000    0.504706E+01    0.519948E+02    0.113592E+03    0.998592E+02    0.165330E+02    0.457850E+02    0.833320E+03    0.469478E+02    0.256399E+02    0.485917E+00
  0.400000    0.790895E+01    0.555407E+02    0.121922E+03    0.102614E+03    0.195594E+02    0.464410E+02    0.884714E+03    0.476317E+02    0.294111E+02    0.475727E+00
  0.416000    0.109282E+02    0.592231E+02    0.130461E+03    0.105333E+03    0.227380E+02    0.470771E+02    0.937096E+03    0.482949E+02    0.334944E+02    0.465956E+00
  0.432000    0.141014E+02    0.630417E+02    0.139206E+03    0.108016E+03    0.260663E+02    0.476959E+02    0.990449E+03    0.489403E+02    0.378989E+02    0.456578E+00
  0.448000    0.174256E+02    0.669958E+02    0.148152E+03    0.110667E+03    0.295418E+02    0.482999E+02    0.104476E+04    0.495702E+02    0.426336E+02    0.447570E+00
  0.464000    0.208979E+02    0.710851E+02    0.157295E+03    0.113287E+03    0.331623E+02    0.488914E+02    0.110000E+04    0.501872E+02    0.477070E+02    0.438910E+00
  0.480000    0.245155E+02    0.753089E+02    0.166630E+03    0.115876E+03    0.369254E+02    0.494727E+02    0.115618E+04    0.507933E+02    0.531278E+02    0.430579E+00
