%!PS-Adobe-2.0 EPSF-2.0
%%Title: lr_PNM.eps
%%Creator: gnuplot 5.0 patchlevel 3
%%CreationDate: Thu Jun 29 21:10:26 2017
%%DocumentFonts: (atend)
%%BoundingBox: 50 50 410 302
%%EndComments
%%BeginProlog
/gnudict 256 dict def
gnudict begin
%
% The following true/false flags may be edited by hand if desired.
% The unit line width and grayscale image gamma correction may also be changed.
%
/Color true def
/Blacktext false def
/Solid false def
/Dashlength 1 def
/Landscape false def
/Level1 false def
/Level3 false def
/Rounded false def
/ClipToBoundingBox false def
/SuppressPDFMark false def
/TransparentPatterns false def
/gnulinewidth 5.000 def
/userlinewidth gnulinewidth def
/Gamma 1.0 def
/BackgroundColor {-1.000 -1.000 -1.000} def
%
/vshift -60 def
/dl1 {
  10.0 Dashlength userlinewidth gnulinewidth div mul mul mul
  Rounded { currentlinewidth 0.75 mul sub dup 0 le { pop 0.01 } if } if
} def
/dl2 {
  10.0 Dashlength userlinewidth gnulinewidth div mul mul mul
  Rounded { currentlinewidth 0.75 mul add } if
} def
/hpt_ 31.5 def
/vpt_ 31.5 def
/hpt hpt_ def
/vpt vpt_ def
/doclip {
  ClipToBoundingBox {
    newpath 50 50 moveto 410 50 lineto 410 302 lineto 50 302 lineto closepath
    clip
  } if
} def
%
% Gnuplot Prolog Version 5.1 (Oct 2015)
%
%/SuppressPDFMark true def
%
/M {moveto} bind def
/L {lineto} bind def
/R {rmoveto} bind def
/V {rlineto} bind def
/N {newpath moveto} bind def
/Z {closepath} bind def
/C {setrgbcolor} bind def
/f {rlineto fill} bind def
/g {setgray} bind def
/Gshow {show} def   % May be redefined later in the file to support UTF-8
/vpt2 vpt 2 mul def
/hpt2 hpt 2 mul def
/Lshow {currentpoint stroke M 0 vshift R 
	Blacktext {gsave 0 setgray textshow grestore} {textshow} ifelse} def
/Rshow {currentpoint stroke M dup stringwidth pop neg vshift R
	Blacktext {gsave 0 setgray textshow grestore} {textshow} ifelse} def
/Cshow {currentpoint stroke M dup stringwidth pop -2 div vshift R 
	Blacktext {gsave 0 setgray textshow grestore} {textshow} ifelse} def
/UP {dup vpt_ mul /vpt exch def hpt_ mul /hpt exch def
  /hpt2 hpt 2 mul def /vpt2 vpt 2 mul def} def
/DL {Color {setrgbcolor Solid {pop []} if 0 setdash}
 {pop pop pop 0 setgray Solid {pop []} if 0 setdash} ifelse} def
/BL {stroke userlinewidth 2 mul setlinewidth
	Rounded {1 setlinejoin 1 setlinecap} if} def
/AL {stroke userlinewidth 2 div setlinewidth
	Rounded {1 setlinejoin 1 setlinecap} if} def
/UL {dup gnulinewidth mul /userlinewidth exch def
	dup 1 lt {pop 1} if 10 mul /udl exch def} def
/PL {stroke userlinewidth setlinewidth
	Rounded {1 setlinejoin 1 setlinecap} if} def
3.8 setmiterlimit
% Classic Line colors (version 5.0)
/LCw {1 1 1} def
/LCb {0 0 0} def
/LCa {0 0 0} def
/LC0 {1 0 0} def
/LC1 {0 1 0} def
/LC2 {0 0 1} def
/LC3 {1 0 1} def
/LC4 {0 1 1} def
/LC5 {1 1 0} def
/LC6 {0 0 0} def
/LC7 {1 0.3 0} def
/LC8 {0.5 0.5 0.5} def
% Default dash patterns (version 5.0)
/LTB {BL [] LCb DL} def
/LTw {PL [] 1 setgray} def
/LTb {PL [] LCb DL} def
/LTa {AL [1 udl mul 2 udl mul] 0 setdash LCa setrgbcolor} def
/LT0 {PL [] LC0 DL} def
/LT1 {PL [2 dl1 3 dl2] LC1 DL} def
/LT2 {PL [1 dl1 1.5 dl2] LC2 DL} def
/LT3 {PL [6 dl1 2 dl2 1 dl1 2 dl2] LC3 DL} def
/LT4 {PL [1 dl1 2 dl2 6 dl1 2 dl2 1 dl1 2 dl2] LC4 DL} def
/LT5 {PL [4 dl1 2 dl2] LC5 DL} def
/LT6 {PL [1.5 dl1 1.5 dl2 1.5 dl1 1.5 dl2 1.5 dl1 6 dl2] LC6 DL} def
/LT7 {PL [3 dl1 3 dl2 1 dl1 3 dl2] LC7 DL} def
/LT8 {PL [2 dl1 2 dl2 2 dl1 6 dl2] LC8 DL} def
/SL {[] 0 setdash} def
/Pnt {stroke [] 0 setdash gsave 1 setlinecap M 0 0 V stroke grestore} def
/Dia {stroke [] 0 setdash 2 copy vpt add M
  hpt neg vpt neg V hpt vpt neg V
  hpt vpt V hpt neg vpt V closepath stroke
  Pnt} def
/Pls {stroke [] 0 setdash vpt sub M 0 vpt2 V
  currentpoint stroke M
  hpt neg vpt neg R hpt2 0 V stroke
 } def
/Box {stroke [] 0 setdash 2 copy exch hpt sub exch vpt add M
  0 vpt2 neg V hpt2 0 V 0 vpt2 V
  hpt2 neg 0 V closepath stroke
  Pnt} def
/Crs {stroke [] 0 setdash exch hpt sub exch vpt add M
  hpt2 vpt2 neg V currentpoint stroke M
  hpt2 neg 0 R hpt2 vpt2 V stroke} def
/TriU {stroke [] 0 setdash 2 copy vpt 1.12 mul add M
  hpt neg vpt -1.62 mul V
  hpt 2 mul 0 V
  hpt neg vpt 1.62 mul V closepath stroke
  Pnt} def
/Star {2 copy Pls Crs} def
/BoxF {stroke [] 0 setdash exch hpt sub exch vpt add M
  0 vpt2 neg V hpt2 0 V 0 vpt2 V
  hpt2 neg 0 V closepath fill} def
/TriUF {stroke [] 0 setdash vpt 1.12 mul add M
  hpt neg vpt -1.62 mul V
  hpt 2 mul 0 V
  hpt neg vpt 1.62 mul V closepath fill} def
/TriD {stroke [] 0 setdash 2 copy vpt 1.12 mul sub M
  hpt neg vpt 1.62 mul V
  hpt 2 mul 0 V
  hpt neg vpt -1.62 mul V closepath stroke
  Pnt} def
/TriDF {stroke [] 0 setdash vpt 1.12 mul sub M
  hpt neg vpt 1.62 mul V
  hpt 2 mul 0 V
  hpt neg vpt -1.62 mul V closepath fill} def
/DiaF {stroke [] 0 setdash vpt add M
  hpt neg vpt neg V hpt vpt neg V
  hpt vpt V hpt neg vpt V closepath fill} def
/Pent {stroke [] 0 setdash 2 copy gsave
  translate 0 hpt M 4 {72 rotate 0 hpt L} repeat
  closepath stroke grestore Pnt} def
/PentF {stroke [] 0 setdash gsave
  translate 0 hpt M 4 {72 rotate 0 hpt L} repeat
  closepath fill grestore} def
/Circle {stroke [] 0 setdash 2 copy
  hpt 0 360 arc stroke Pnt} def
/CircleF {stroke [] 0 setdash hpt 0 360 arc fill} def
/C0 {BL [] 0 setdash 2 copy moveto vpt 90 450 arc} bind def
/C1 {BL [] 0 setdash 2 copy moveto
	2 copy vpt 0 90 arc closepath fill
	vpt 0 360 arc closepath} bind def
/C2 {BL [] 0 setdash 2 copy moveto
	2 copy vpt 90 180 arc closepath fill
	vpt 0 360 arc closepath} bind def
/C3 {BL [] 0 setdash 2 copy moveto
	2 copy vpt 0 180 arc closepath fill
	vpt 0 360 arc closepath} bind def
/C4 {BL [] 0 setdash 2 copy moveto
	2 copy vpt 180 270 arc closepath fill
	vpt 0 360 arc closepath} bind def
/C5 {BL [] 0 setdash 2 copy moveto
	2 copy vpt 0 90 arc
	2 copy moveto
	2 copy vpt 180 270 arc closepath fill
	vpt 0 360 arc} bind def
/C6 {BL [] 0 setdash 2 copy moveto
	2 copy vpt 90 270 arc closepath fill
	vpt 0 360 arc closepath} bind def
/C7 {BL [] 0 setdash 2 copy moveto
	2 copy vpt 0 270 arc closepath fill
	vpt 0 360 arc closepath} bind def
/C8 {BL [] 0 setdash 2 copy moveto
	2 copy vpt 270 360 arc closepath fill
	vpt 0 360 arc closepath} bind def
/C9 {BL [] 0 setdash 2 copy moveto
	2 copy vpt 270 450 arc closepath fill
	vpt 0 360 arc closepath} bind def
/C10 {BL [] 0 setdash 2 copy 2 copy moveto vpt 270 360 arc closepath fill
	2 copy moveto
	2 copy vpt 90 180 arc closepath fill
	vpt 0 360 arc closepath} bind def
/C11 {BL [] 0 setdash 2 copy moveto
	2 copy vpt 0 180 arc closepath fill
	2 copy moveto
	2 copy vpt 270 360 arc closepath fill
	vpt 0 360 arc closepath} bind def
/C12 {BL [] 0 setdash 2 copy moveto
	2 copy vpt 180 360 arc closepath fill
	vpt 0 360 arc closepath} bind def
/C13 {BL [] 0 setdash 2 copy moveto
	2 copy vpt 0 90 arc closepath fill
	2 copy moveto
	2 copy vpt 180 360 arc closepath fill
	vpt 0 360 arc closepath} bind def
/C14 {BL [] 0 setdash 2 copy moveto
	2 copy vpt 90 360 arc closepath fill
	vpt 0 360 arc} bind def
/C15 {BL [] 0 setdash 2 copy vpt 0 360 arc closepath fill
	vpt 0 360 arc closepath} bind def
/Rec {newpath 4 2 roll moveto 1 index 0 rlineto 0 exch rlineto
	neg 0 rlineto closepath} bind def
/Square {dup Rec} bind def
/Bsquare {vpt sub exch vpt sub exch vpt2 Square} bind def
/S0 {BL [] 0 setdash 2 copy moveto 0 vpt rlineto BL Bsquare} bind def
/S1 {BL [] 0 setdash 2 copy vpt Square fill Bsquare} bind def
/S2 {BL [] 0 setdash 2 copy exch vpt sub exch vpt Square fill Bsquare} bind def
/S3 {BL [] 0 setdash 2 copy exch vpt sub exch vpt2 vpt Rec fill Bsquare} bind def
/S4 {BL [] 0 setdash 2 copy exch vpt sub exch vpt sub vpt Square fill Bsquare} bind def
/S5 {BL [] 0 setdash 2 copy 2 copy vpt Square fill
	exch vpt sub exch vpt sub vpt Square fill Bsquare} bind def
/S6 {BL [] 0 setdash 2 copy exch vpt sub exch vpt sub vpt vpt2 Rec fill Bsquare} bind def
/S7 {BL [] 0 setdash 2 copy exch vpt sub exch vpt sub vpt vpt2 Rec fill
	2 copy vpt Square fill Bsquare} bind def
/S8 {BL [] 0 setdash 2 copy vpt sub vpt Square fill Bsquare} bind def
/S9 {BL [] 0 setdash 2 copy vpt sub vpt vpt2 Rec fill Bsquare} bind def
/S10 {BL [] 0 setdash 2 copy vpt sub vpt Square fill 2 copy exch vpt sub exch vpt Square fill
	Bsquare} bind def
/S11 {BL [] 0 setdash 2 copy vpt sub vpt Square fill 2 copy exch vpt sub exch vpt2 vpt Rec fill
	Bsquare} bind def
/S12 {BL [] 0 setdash 2 copy exch vpt sub exch vpt sub vpt2 vpt Rec fill Bsquare} bind def
/S13 {BL [] 0 setdash 2 copy exch vpt sub exch vpt sub vpt2 vpt Rec fill
	2 copy vpt Square fill Bsquare} bind def
/S14 {BL [] 0 setdash 2 copy exch vpt sub exch vpt sub vpt2 vpt Rec fill
	2 copy exch vpt sub exch vpt Square fill Bsquare} bind def
/S15 {BL [] 0 setdash 2 copy Bsquare fill Bsquare} bind def
/D0 {gsave translate 45 rotate 0 0 S0 stroke grestore} bind def
/D1 {gsave translate 45 rotate 0 0 S1 stroke grestore} bind def
/D2 {gsave translate 45 rotate 0 0 S2 stroke grestore} bind def
/D3 {gsave translate 45 rotate 0 0 S3 stroke grestore} bind def
/D4 {gsave translate 45 rotate 0 0 S4 stroke grestore} bind def
/D5 {gsave translate 45 rotate 0 0 S5 stroke grestore} bind def
/D6 {gsave translate 45 rotate 0 0 S6 stroke grestore} bind def
/D7 {gsave translate 45 rotate 0 0 S7 stroke grestore} bind def
/D8 {gsave translate 45 rotate 0 0 S8 stroke grestore} bind def
/D9 {gsave translate 45 rotate 0 0 S9 stroke grestore} bind def
/D10 {gsave translate 45 rotate 0 0 S10 stroke grestore} bind def
/D11 {gsave translate 45 rotate 0 0 S11 stroke grestore} bind def
/D12 {gsave translate 45 rotate 0 0 S12 stroke grestore} bind def
/D13 {gsave translate 45 rotate 0 0 S13 stroke grestore} bind def
/D14 {gsave translate 45 rotate 0 0 S14 stroke grestore} bind def
/D15 {gsave translate 45 rotate 0 0 S15 stroke grestore} bind def
/DiaE {stroke [] 0 setdash vpt add M
  hpt neg vpt neg V hpt vpt neg V
  hpt vpt V hpt neg vpt V closepath stroke} def
/BoxE {stroke [] 0 setdash exch hpt sub exch vpt add M
  0 vpt2 neg V hpt2 0 V 0 vpt2 V
  hpt2 neg 0 V closepath stroke} def
/TriUE {stroke [] 0 setdash vpt 1.12 mul add M
  hpt neg vpt -1.62 mul V
  hpt 2 mul 0 V
  hpt neg vpt 1.62 mul V closepath stroke} def
/TriDE {stroke [] 0 setdash vpt 1.12 mul sub M
  hpt neg vpt 1.62 mul V
  hpt 2 mul 0 V
  hpt neg vpt -1.62 mul V closepath stroke} def
/PentE {stroke [] 0 setdash gsave
  translate 0 hpt M 4 {72 rotate 0 hpt L} repeat
  closepath stroke grestore} def
/CircE {stroke [] 0 setdash 
  hpt 0 360 arc stroke} def
/Opaque {gsave closepath 1 setgray fill grestore 0 setgray closepath} def
/DiaW {stroke [] 0 setdash vpt add M
  hpt neg vpt neg V hpt vpt neg V
  hpt vpt V hpt neg vpt V Opaque stroke} def
/BoxW {stroke [] 0 setdash exch hpt sub exch vpt add M
  0 vpt2 neg V hpt2 0 V 0 vpt2 V
  hpt2 neg 0 V Opaque stroke} def
/TriUW {stroke [] 0 setdash vpt 1.12 mul add M
  hpt neg vpt -1.62 mul V
  hpt 2 mul 0 V
  hpt neg vpt 1.62 mul V Opaque stroke} def
/TriDW {stroke [] 0 setdash vpt 1.12 mul sub M
  hpt neg vpt 1.62 mul V
  hpt 2 mul 0 V
  hpt neg vpt -1.62 mul V Opaque stroke} def
/PentW {stroke [] 0 setdash gsave
  translate 0 hpt M 4 {72 rotate 0 hpt L} repeat
  Opaque stroke grestore} def
/CircW {stroke [] 0 setdash 
  hpt 0 360 arc Opaque stroke} def
/BoxFill {gsave Rec 1 setgray fill grestore} def
/Density {
  /Fillden exch def
  currentrgbcolor
  /ColB exch def /ColG exch def /ColR exch def
  /ColR ColR Fillden mul Fillden sub 1 add def
  /ColG ColG Fillden mul Fillden sub 1 add def
  /ColB ColB Fillden mul Fillden sub 1 add def
  ColR ColG ColB setrgbcolor} def
/BoxColFill {gsave Rec PolyFill} def
/PolyFill {gsave Density fill grestore grestore} def
/h {rlineto rlineto rlineto gsave closepath fill grestore} bind def
%
% PostScript Level 1 Pattern Fill routine for rectangles
% Usage: x y w h s a XX PatternFill
%	x,y = lower left corner of box to be filled
%	w,h = width and height of box
%	  a = angle in degrees between lines and x-axis
%	 XX = 0/1 for no/yes cross-hatch
%
/PatternFill {gsave /PFa [ 9 2 roll ] def
  PFa 0 get PFa 2 get 2 div add PFa 1 get PFa 3 get 2 div add translate
  PFa 2 get -2 div PFa 3 get -2 div PFa 2 get PFa 3 get Rec
  TransparentPatterns {} {gsave 1 setgray fill grestore} ifelse
  clip
  currentlinewidth 0.5 mul setlinewidth
  /PFs PFa 2 get dup mul PFa 3 get dup mul add sqrt def
  0 0 M PFa 5 get rotate PFs -2 div dup translate
  0 1 PFs PFa 4 get div 1 add floor cvi
	{PFa 4 get mul 0 M 0 PFs V} for
  0 PFa 6 get ne {
	0 1 PFs PFa 4 get div 1 add floor cvi
	{PFa 4 get mul 0 2 1 roll M PFs 0 V} for
 } if
  stroke grestore} def
%
/languagelevel where
 {pop languagelevel} {1} ifelse
dup 2 lt
	{/InterpretLevel1 true def
	 /InterpretLevel3 false def}
	{/InterpretLevel1 Level1 def
	 2 gt
	    {/InterpretLevel3 Level3 def}
	    {/InterpretLevel3 false def}
	 ifelse }
 ifelse
%
% PostScript level 2 pattern fill definitions
%
/Level2PatternFill {
/Tile8x8 {/PaintType 2 /PatternType 1 /TilingType 1 /BBox [0 0 8 8] /XStep 8 /YStep 8}
	bind def
/KeepColor {currentrgbcolor [/Pattern /DeviceRGB] setcolorspace} bind def
<< Tile8x8
 /PaintProc {0.5 setlinewidth pop 0 0 M 8 8 L 0 8 M 8 0 L stroke} 
>> matrix makepattern
/Pat1 exch def
<< Tile8x8
 /PaintProc {0.5 setlinewidth pop 0 0 M 8 8 L 0 8 M 8 0 L stroke
	0 4 M 4 8 L 8 4 L 4 0 L 0 4 L stroke}
>> matrix makepattern
/Pat2 exch def
<< Tile8x8
 /PaintProc {0.5 setlinewidth pop 0 0 M 0 8 L
	8 8 L 8 0 L 0 0 L fill}
>> matrix makepattern
/Pat3 exch def
<< Tile8x8
 /PaintProc {0.5 setlinewidth pop -4 8 M 8 -4 L
	0 12 M 12 0 L stroke}
>> matrix makepattern
/Pat4 exch def
<< Tile8x8
 /PaintProc {0.5 setlinewidth pop -4 0 M 8 12 L
	0 -4 M 12 8 L stroke}
>> matrix makepattern
/Pat5 exch def
<< Tile8x8
 /PaintProc {0.5 setlinewidth pop -2 8 M 4 -4 L
	0 12 M 8 -4 L 4 12 M 10 0 L stroke}
>> matrix makepattern
/Pat6 exch def
<< Tile8x8
 /PaintProc {0.5 setlinewidth pop -2 0 M 4 12 L
	0 -4 M 8 12 L 4 -4 M 10 8 L stroke}
>> matrix makepattern
/Pat7 exch def
<< Tile8x8
 /PaintProc {0.5 setlinewidth pop 8 -2 M -4 4 L
	12 0 M -4 8 L 12 4 M 0 10 L stroke}
>> matrix makepattern
/Pat8 exch def
<< Tile8x8
 /PaintProc {0.5 setlinewidth pop 0 -2 M 12 4 L
	-4 0 M 12 8 L -4 4 M 8 10 L stroke}
>> matrix makepattern
/Pat9 exch def
/Pattern1 {PatternBgnd KeepColor Pat1 setpattern} bind def
/Pattern2 {PatternBgnd KeepColor Pat2 setpattern} bind def
/Pattern3 {PatternBgnd KeepColor Pat3 setpattern} bind def
/Pattern4 {PatternBgnd KeepColor Landscape {Pat5} {Pat4} ifelse setpattern} bind def
/Pattern5 {PatternBgnd KeepColor Landscape {Pat4} {Pat5} ifelse setpattern} bind def
/Pattern6 {PatternBgnd KeepColor Landscape {Pat9} {Pat6} ifelse setpattern} bind def
/Pattern7 {PatternBgnd KeepColor Landscape {Pat8} {Pat7} ifelse setpattern} bind def
} def
%
%
%End of PostScript Level 2 code
%
/PatternBgnd {
  TransparentPatterns {} {gsave 1 setgray fill grestore} ifelse
} def
%
% Substitute for Level 2 pattern fill codes with
% grayscale if Level 2 support is not selected.
%
/Level1PatternFill {
/Pattern1 {0.250 Density} bind def
/Pattern2 {0.500 Density} bind def
/Pattern3 {0.750 Density} bind def
/Pattern4 {0.125 Density} bind def
/Pattern5 {0.375 Density} bind def
/Pattern6 {0.625 Density} bind def
/Pattern7 {0.875 Density} bind def
} def
%
% Now test for support of Level 2 code
%
Level1 {Level1PatternFill} {Level2PatternFill} ifelse
%
/Symbol-Oblique /Symbol findfont [1 0 .167 1 0 0] makefont
dup length dict begin {1 index /FID eq {pop pop} {def} ifelse} forall
currentdict end definefont pop
%
/MFshow {
   { dup 5 get 3 ge
     { 5 get 3 eq {gsave} {grestore} ifelse }
     {dup dup 0 get findfont exch 1 get scalefont setfont
     [ currentpoint ] exch dup 2 get 0 exch R dup 5 get 2 ne {dup dup 6
     get exch 4 get {textshow} {stringwidth pop 0 R} ifelse }if dup 5 get 0 eq
     {dup 3 get {2 get neg 0 exch R pop} {pop aload pop M} ifelse} {dup 5
     get 1 eq {dup 2 get exch dup 3 get exch 6 get stringwidth pop -2 div
     dup 0 R} {dup 6 get stringwidth pop -2 div 0 R 6 get
     textshow 2 index {aload pop M neg 3 -1 roll neg R pop pop} {pop pop pop
     pop aload pop M} ifelse }ifelse }ifelse }
     ifelse }
   forall} def
/Gswidth {dup type /stringtype eq {stringwidth} {pop (n) stringwidth} ifelse} def
/MFwidth {0 exch { dup 5 get 3 ge { 5 get 3 eq { 0 } { pop } ifelse }
 {dup 3 get{dup dup 0 get findfont exch 1 get scalefont setfont
     6 get Gswidth pop add} {pop} ifelse} ifelse} forall} def
/MLshow { currentpoint stroke M
  0 exch R
  Blacktext {gsave 0 setgray MFshow grestore} {MFshow} ifelse } bind def
/MRshow { currentpoint stroke M
  exch dup MFwidth neg 3 -1 roll R
  Blacktext {gsave 0 setgray MFshow grestore} {MFshow} ifelse } bind def
/MCshow { currentpoint stroke M
  exch dup MFwidth -2 div 3 -1 roll R
  Blacktext {gsave 0 setgray MFshow grestore} {MFshow} ifelse } bind def
/XYsave    { [( ) 1 2 true false 3 ()] } bind def
/XYrestore { [( ) 1 2 true false 4 ()] } bind def
Level1 SuppressPDFMark or 
{} {
/SDict 10 dict def
systemdict /pdfmark known not {
  userdict /pdfmark systemdict /cleartomark get put
} if
SDict begin [
  /Title (lr_PNM.eps)
  /Subject (gnuplot plot)
  /Creator (gnuplot 5.0 patchlevel 3)
  /Author (kb2)
%  /Producer (gnuplot)
%  /Keywords ()
  /CreationDate (Thu Jun 29 21:10:26 2017)
  /DOCINFO pdfmark
end
} ifelse
%
% Support for boxed text - Ethan A Merritt May 2005
%
/InitTextBox { userdict /TBy2 3 -1 roll put userdict /TBx2 3 -1 roll put
           userdict /TBy1 3 -1 roll put userdict /TBx1 3 -1 roll put
	   /Boxing true def } def
/ExtendTextBox { Boxing
    { gsave dup false charpath pathbbox
      dup TBy2 gt {userdict /TBy2 3 -1 roll put} {pop} ifelse
      dup TBx2 gt {userdict /TBx2 3 -1 roll put} {pop} ifelse
      dup TBy1 lt {userdict /TBy1 3 -1 roll put} {pop} ifelse
      dup TBx1 lt {userdict /TBx1 3 -1 roll put} {pop} ifelse
      grestore } if } def
/PopTextBox { newpath TBx1 TBxmargin sub TBy1 TBymargin sub M
               TBx1 TBxmargin sub TBy2 TBymargin add L
	       TBx2 TBxmargin add TBy2 TBymargin add L
	       TBx2 TBxmargin add TBy1 TBymargin sub L closepath } def
/DrawTextBox { PopTextBox stroke /Boxing false def} def
/FillTextBox { gsave PopTextBox 1 1 1 setrgbcolor fill grestore /Boxing false def} def
0 0 0 0 InitTextBox
/TBxmargin 20 def
/TBymargin 20 def
/Boxing false def
/textshow { ExtendTextBox Gshow } def
%
% redundant definitions for compatibility with prologue.ps older than 5.0.2
/LTB {BL [] LCb DL} def
/LTb {PL [] LCb DL} def
end
%%EndProlog
%%Page: 1 1
gnudict begin
gsave
doclip
50 50 translate
0.050 0.050 scale
0 setgray
newpath
(Helvetica) findfont 180 scalefont setfont
BackgroundColor 0 lt 3 1 roll 0 lt exch 0 lt or or not {BackgroundColor C 1.000 0 0 7200.00 5040.00 BoxColFill} if
1.000 UL
LTb
0.50 0.50 0.50 C 1.000 UL
LTa
0.50 0.50 0.50 C 882 756 M
5993 0 V
stroke
LTb
0.50 0.50 0.50 C 882 756 M
63 0 V
5930 0 R
-63 0 V
stroke
774 756 M
[ [(Helvetica) 180.0 0.0 true true 0 ( 0)]
] -60.0 MRshow
1.000 UL
LTb
0.50 0.50 0.50 C 1.000 UL
LTa
0.50 0.50 0.50 C 882 1569 M
5993 0 V
stroke
LTb
0.50 0.50 0.50 C 882 1569 M
63 0 V
5930 0 R
-63 0 V
stroke
774 1569 M
[ [(Helvetica) 180.0 0.0 true true 0 ( 0.1)]
] -60.0 MRshow
1.000 UL
LTb
0.50 0.50 0.50 C 1.000 UL
LTa
0.50 0.50 0.50 C 882 2383 M
5993 0 V
stroke
LTb
0.50 0.50 0.50 C 882 2383 M
63 0 V
5930 0 R
-63 0 V
stroke
774 2383 M
[ [(Helvetica) 180.0 0.0 true true 0 ( 0.2)]
] -60.0 MRshow
1.000 UL
LTb
0.50 0.50 0.50 C 1.000 UL
LTa
0.50 0.50 0.50 C 882 3196 M
5993 0 V
stroke
LTb
0.50 0.50 0.50 C 882 3196 M
63 0 V
5930 0 R
-63 0 V
stroke
774 3196 M
[ [(Helvetica) 180.0 0.0 true true 0 ( 0.3)]
] -60.0 MRshow
1.000 UL
LTb
0.50 0.50 0.50 C 1.000 UL
LTa
0.50 0.50 0.50 C 882 4010 M
5993 0 V
stroke
LTb
0.50 0.50 0.50 C 882 4010 M
63 0 V
5930 0 R
-63 0 V
stroke
774 4010 M
[ [(Helvetica) 180.0 0.0 true true 0 ( 0.4)]
] -60.0 MRshow
1.000 UL
LTb
0.50 0.50 0.50 C 1.000 UL
LTa
0.50 0.50 0.50 C 882 4823 M
5993 0 V
stroke
LTb
0.50 0.50 0.50 C 882 4823 M
63 0 V
5930 0 R
-63 0 V
stroke
774 4823 M
[ [(Helvetica) 180.0 0.0 true true 0 ( 0.5)]
] -60.0 MRshow
1.000 UL
LTb
0.50 0.50 0.50 C 1.000 UL
LTa
0.50 0.50 0.50 C 882 756 M
0 4067 V
stroke
LTb
0.50 0.50 0.50 C 882 756 M
0 63 V
0 4004 R
0 -63 V
stroke
882 576 M
[ [(Helvetica) 180.0 0.0 true true 0 ( 0)]
] -60.0 MCshow
1.000 UL
LTb
0.50 0.50 0.50 C 1.000 UL
LTa
0.50 0.50 0.50 C 1548 756 M
0 4067 V
stroke
LTb
0.50 0.50 0.50 C 1548 756 M
0 63 V
0 4004 R
0 -63 V
stroke
1548 576 M
[ [(Helvetica) 180.0 0.0 true true 0 ( 1)]
] -60.0 MCshow
1.000 UL
LTb
0.50 0.50 0.50 C 1.000 UL
LTa
0.50 0.50 0.50 C 2214 756 M
0 4067 V
stroke
LTb
0.50 0.50 0.50 C 2214 756 M
0 63 V
0 4004 R
0 -63 V
stroke
2214 576 M
[ [(Helvetica) 180.0 0.0 true true 0 ( 2)]
] -60.0 MCshow
1.000 UL
LTb
0.50 0.50 0.50 C 1.000 UL
LTa
0.50 0.50 0.50 C 2880 756 M
0 4067 V
stroke
LTb
0.50 0.50 0.50 C 2880 756 M
0 63 V
0 4004 R
0 -63 V
stroke
2880 576 M
[ [(Helvetica) 180.0 0.0 true true 0 ( 3)]
] -60.0 MCshow
1.000 UL
LTb
0.50 0.50 0.50 C 1.000 UL
LTa
0.50 0.50 0.50 C 3546 756 M
0 4067 V
stroke
LTb
0.50 0.50 0.50 C 3546 756 M
0 63 V
0 4004 R
0 -63 V
stroke
3546 576 M
[ [(Helvetica) 180.0 0.0 true true 0 ( 4)]
] -60.0 MCshow
1.000 UL
LTb
0.50 0.50 0.50 C 1.000 UL
LTa
0.50 0.50 0.50 C 4211 756 M
0 4067 V
stroke
LTb
0.50 0.50 0.50 C 4211 756 M
0 63 V
0 4004 R
0 -63 V
stroke
4211 576 M
[ [(Helvetica) 180.0 0.0 true true 0 ( 5)]
] -60.0 MCshow
1.000 UL
LTb
0.50 0.50 0.50 C 1.000 UL
LTa
0.50 0.50 0.50 C 4877 756 M
0 4067 V
stroke
LTb
0.50 0.50 0.50 C 4877 756 M
0 63 V
0 4004 R
0 -63 V
stroke
4877 576 M
[ [(Helvetica) 180.0 0.0 true true 0 ( 6)]
] -60.0 MCshow
1.000 UL
LTb
0.50 0.50 0.50 C 1.000 UL
LTa
0.50 0.50 0.50 C 5543 756 M
0 4067 V
stroke
LTb
0.50 0.50 0.50 C 5543 756 M
0 63 V
0 4004 R
0 -63 V
stroke
5543 576 M
[ [(Helvetica) 180.0 0.0 true true 0 ( 7)]
] -60.0 MCshow
1.000 UL
LTb
0.50 0.50 0.50 C 1.000 UL
LTa
0.50 0.50 0.50 C 6209 756 M
0 1014 V
0 450 R
0 2603 V
stroke
LTb
0.50 0.50 0.50 C 6209 756 M
0 63 V
0 4004 R
0 -63 V
stroke
6209 576 M
[ [(Helvetica) 180.0 0.0 true true 0 ( 8)]
] -60.0 MCshow
1.000 UL
LTb
0.50 0.50 0.50 C 1.000 UL
LTa
0.50 0.50 0.50 C 6875 756 M
0 4067 V
stroke
LTb
0.50 0.50 0.50 C 6875 756 M
0 63 V
0 4004 R
0 -63 V
stroke
6875 576 M
[ [(Helvetica) 180.0 0.0 true true 0 ( 9)]
] -60.0 MCshow
1.000 UL
LTb
0.50 0.50 0.50 C 1.000 UL
LTB
0.50 0.50 0.50 C 882 4823 M
882 756 L
5993 0 V
0 4067 R
-5993 0 R
stroke
LTb
1.00 1.00 1.00 C 1.000 5977 4236 864 360 BoxColFill
LCb setrgbcolor
5977 4236 N
0 360 V
864 0 V
0 -360 V
-864 0 V
Z stroke
1.000 UP
LCb setrgbcolor
416 1407 M
[ [(Helvetica) 180.0 0.0 true true 0 (0.08)]
] -60.0 MLshow
LCb setrgbcolor
416 2627 M
[ [(Symbol) 180.0 0.0 true true 0 (r)]
[(Helvetica) 144.0 -54.0 true true 0 (crit)]
] -42.0 MLshow
1.000 UL
LTb
0.50 0.50 0.50 C LCb setrgbcolor
144 2789 M
currentpoint gsave translate -270 rotate 0 0 moveto
[ [(Symbol) 180.0 0.0 true true 0 (r)]
[(Helvetica) 180.0 0.0 true true 0 ( [fm)]
[(Helvetica) 144.0 90.0 true true 0 (-3)]
[(Helvetica) 180.0 0.0 true true 0 (])]
] -78.0 MCshow
grestore
LTb
LCb setrgbcolor
3878 306 M
[ [(Helvetica) 180.0 0.0 true true 0 (q [fm)]
[(Helvetica) 144.0 90.0 true true 0 (-1)]
[(Helvetica) 180.0 0.0 true true 0 (])]
] -78.0 MCshow
LTb
% Begin plot #1
2.000 UP
1.000 UL
LTb
0.91 0.59 0.48 C LCb setrgbcolor
6272 2145 M
[ [(Helvetica) 150.0 0.0 true true 0 (Canal S=0 M=0)]
] -50.0 MRshow
2.000 UP
1.000 UL
LTb
0.91 0.59 0.48 C 6573 2145 CircleF
% End plot #1
% Begin plot #2
0.250 UP
1.000 UL
LTb
0.91 0.59 0.48 C % End plot #2
% Begin plot #3
2.000 UP
1.000 UL
LTb
1.00 0.55 0.00 C LCb setrgbcolor
6272 1995 M
[ [(Helvetica) 150.0 0.0 true true 0 (Canal S=1 M=0)]
] -50.0 MRshow
2.000 UP
1.000 UL
LTb
1.00 0.55 0.00 C 6573 1995 CircleF
% End plot #3
% Begin plot #4
0.250 UP
1.000 UL
LTb
1.00 0.55 0.00 C 1721 4823 Circle
1728 4808 Circle
1734 4794 Circle
1741 4780 Circle
1748 4766 Circle
1754 4751 Circle
1761 4737 Circle
1768 4723 Circle
1774 4708 Circle
1781 4694 Circle
1788 4679 Circle
1794 4664 Circle
1801 4650 Circle
1808 4635 Circle
1814 4620 Circle
1821 4605 Circle
1828 4590 Circle
1834 4575 Circle
1841 4560 Circle
1848 4545 Circle
1854 4530 Circle
1861 4515 Circle
1868 4500 Circle
1874 4485 Circle
1881 4470 Circle
1887 4454 Circle
1894 4439 Circle
1901 4424 Circle
1907 4408 Circle
1914 4393 Circle
1921 4378 Circle
1927 4362 Circle
1934 4347 Circle
1941 4331 Circle
1947 4316 Circle
1954 4300 Circle
1961 4285 Circle
1967 4269 Circle
1974 4254 Circle
1981 4238 Circle
1987 4222 Circle
1994 4207 Circle
2001 4191 Circle
2007 4175 Circle
2014 4160 Circle
2021 4144 Circle
2027 4128 Circle
2034 4112 Circle
2041 4097 Circle
2047 4081 Circle
2054 4065 Circle
2061 4049 Circle
2067 4034 Circle
2074 4018 Circle
2081 4002 Circle
2087 3986 Circle
2094 3971 Circle
2101 3955 Circle
2107 3939 Circle
2114 3923 Circle
2121 3908 Circle
2127 3892 Circle
2134 3876 Circle
2141 3860 Circle
2147 3845 Circle
2154 3829 Circle
2161 3813 Circle
2167 3798 Circle
2174 3782 Circle
2180 3766 Circle
2187 3751 Circle
2194 3735 Circle
2200 3720 Circle
2207 3704 Circle
2214 3689 Circle
2220 3673 Circle
2227 3658 Circle
2234 3642 Circle
2240 3627 Circle
2247 3611 Circle
2254 3596 Circle
2260 3581 Circle
2267 3565 Circle
2274 3550 Circle
2280 3535 Circle
2287 3520 Circle
2294 3505 Circle
2300 3489 Circle
2307 3474 Circle
2314 3459 Circle
2320 3444 Circle
2327 3429 Circle
2334 3415 Circle
2340 3400 Circle
2347 3385 Circle
2354 3370 Circle
2360 3355 Circle
2367 3341 Circle
2374 3326 Circle
2380 3312 Circle
2387 3297 Circle
2394 3283 Circle
2400 3268 Circle
2407 3254 Circle
2414 3240 Circle
2420 3226 Circle
2427 3211 Circle
2434 3197 Circle
2440 3183 Circle
2447 3169 Circle
2453 3155 Circle
2460 3142 Circle
2467 3128 Circle
2473 3114 Circle
2480 3101 Circle
2487 3087 Circle
2493 3074 Circle
2500 3060 Circle
2507 3047 Circle
2513 3034 Circle
2520 3021 Circle
2527 3007 Circle
2533 2994 Circle
2540 2982 Circle
2547 2969 Circle
2553 2956 Circle
2560 2943 Circle
2567 2931 Circle
2573 2918 Circle
2580 2906 Circle
2587 2893 Circle
2593 2881 Circle
2600 2869 Circle
2607 2857 Circle
2613 2845 Circle
2620 2833 Circle
2627 2821 Circle
2633 2810 Circle
2640 2798 Circle
2647 2787 Circle
2653 2775 Circle
2660 2764 Circle
2667 2753 Circle
2673 2742 Circle
2680 2731 Circle
2687 2720 Circle
2693 2709 Circle
2700 2698 Circle
2707 2688 Circle
2713 2677 Circle
2720 2667 Circle
2727 2657 Circle
2733 2647 Circle
2740 2637 Circle
2746 2627 Circle
2753 2617 Circle
2760 2608 Circle
2766 2598 Circle
2773 2589 Circle
2780 2579 Circle
2786 2570 Circle
2793 2561 Circle
2800 2552 Circle
2806 2544 Circle
2813 2535 Circle
2820 2526 Circle
2826 2518 Circle
2833 2510 Circle
2840 2502 Circle
2846 2494 Circle
2853 2486 Circle
2860 2478 Circle
2866 2470 Circle
2873 2463 Circle
2880 2456 Circle
2886 2448 Circle
2893 2441 Circle
2900 2434 Circle
2906 2428 Circle
2913 2421 Circle
2920 2415 Circle
2926 2408 Circle
2933 2402 Circle
2940 2396 Circle
2946 2390 Circle
2953 2385 Circle
2960 2379 Circle
2966 2374 Circle
2973 2368 Circle
2980 2363 Circle
2986 2358 Circle
2993 2353 Circle
3000 2349 Circle
3006 2344 Circle
3013 2340 Circle
3020 2336 Circle
3026 2332 Circle
3033 2328 Circle
3039 2325 Circle
3046 2321 Circle
3053 2318 Circle
3059 2315 Circle
3066 2312 Circle
3073 2309 Circle
3079 2307 Circle
3086 2305 Circle
3093 2302 Circle
3099 2300 Circle
3106 2299 Circle
3113 2297 Circle
3119 2296 Circle
3126 2295 Circle
3133 2294 Circle
3139 2293 Circle
3146 2293 Circle
3153 2292 Circle
3159 2292 Circle
3166 2292 Circle
3173 2293 Circle
3179 2294 Circle
3186 2294 Circle
3193 2296 Circle
3199 2297 Circle
3206 2299 Circle
3213 2301 Circle
3219 2303 Circle
3226 2306 Circle
3233 2309 Circle
3239 2312 Circle
3246 2316 Circle
3253 2320 Circle
3259 2326 Circle
3266 2332 Circle
3273 2338 Circle
3279 2344 Circle
3286 2348 Circle
3293 2353 Circle
3299 2357 Circle
3306 2361 Circle
3312 2365 Circle
3319 2369 Circle
3326 2373 Circle
3332 2376 Circle
3339 2380 Circle
3346 2383 Circle
3352 2387 Circle
3359 2390 Circle
3366 2393 Circle
3372 2396 Circle
3379 2399 Circle
3386 2402 Circle
3392 2405 Circle
3399 2408 Circle
3406 2411 Circle
3412 2414 Circle
3419 2417 Circle
3426 2420 Circle
3432 2423 Circle
3439 2425 Circle
3446 2428 Circle
3452 2431 Circle
3459 2434 Circle
3466 2436 Circle
3472 2439 Circle
3479 2442 Circle
3486 2444 Circle
3492 2447 Circle
3499 2450 Circle
3506 2452 Circle
3512 2455 Circle
3519 2458 Circle
3526 2460 Circle
3532 2463 Circle
3539 2465 Circle
3546 2468 Circle
3552 2471 Circle
3559 2473 Circle
3566 2476 Circle
3572 2478 Circle
3579 2481 Circle
3586 2484 Circle
3592 2486 Circle
3599 2489 Circle
3605 2491 Circle
3612 2494 Circle
3619 2497 Circle
3625 2499 Circle
3632 2502 Circle
3639 2504 Circle
3645 2507 Circle
3652 2510 Circle
3659 2512 Circle
3665 2515 Circle
3672 2517 Circle
3679 2520 Circle
3685 2523 Circle
3692 2525 Circle
3699 2528 Circle
3705 2531 Circle
3712 2534 Circle
3719 2536 Circle
3725 2539 Circle
3732 2542 Circle
3739 2544 Circle
3745 2547 Circle
3752 2550 Circle
3759 2553 Circle
3765 2555 Circle
3772 2558 Circle
3779 2561 Circle
3785 2564 Circle
3792 2567 Circle
3799 2569 Circle
3805 2572 Circle
3812 2575 Circle
3819 2578 Circle
3825 2581 Circle
3832 2584 Circle
3839 2586 Circle
3845 2589 Circle
3852 2592 Circle
3859 2595 Circle
3865 2598 Circle
3872 2601 Circle
3879 2604 Circle
3885 2607 Circle
3892 2610 Circle
3898 2613 Circle
3905 2616 Circle
3912 2619 Circle
3918 2622 Circle
3925 2625 Circle
3932 2629 Circle
3938 2632 Circle
3945 2635 Circle
3952 2638 Circle
3958 2641 Circle
3965 2644 Circle
3972 2648 Circle
3978 2651 Circle
3985 2654 Circle
3992 2657 Circle
3998 2661 Circle
4005 2664 Circle
4012 2667 Circle
4018 2670 Circle
4025 2674 Circle
4032 2677 Circle
4038 2681 Circle
4045 2684 Circle
4052 2687 Circle
4058 2691 Circle
4065 2694 Circle
4072 2698 Circle
4078 2701 Circle
4085 2705 Circle
4092 2708 Circle
4098 2712 Circle
4105 2716 Circle
4112 2719 Circle
4118 2723 Circle
4125 2726 Circle
4132 2730 Circle
4138 2734 Circle
4145 2738 Circle
4152 2741 Circle
4158 2745 Circle
4165 2749 Circle
4171 2753 Circle
4178 2756 Circle
4185 2760 Circle
4191 2764 Circle
4198 2768 Circle
4205 2772 Circle
4211 2776 Circle
4218 2780 Circle
4225 2784 Circle
4231 2788 Circle
4238 2792 Circle
4245 2796 Circle
4251 2800 Circle
4258 2804 Circle
4265 2808 Circle
4271 2813 Circle
4278 2817 Circle
4285 2821 Circle
4291 2825 Circle
4298 2830 Circle
4305 2834 Circle
4311 2838 Circle
4318 2843 Circle
4325 2847 Circle
4331 2851 Circle
4338 2856 Circle
4345 2860 Circle
4351 2865 Circle
4358 2869 Circle
4365 2874 Circle
4371 2879 Circle
4378 2883 Circle
4385 2888 Circle
4391 2892 Circle
4398 2897 Circle
4405 2902 Circle
4411 2907 Circle
4418 2912 Circle
4425 2916 Circle
4431 2921 Circle
4438 2926 Circle
4445 2931 Circle
4451 2936 Circle
4458 2941 Circle
4464 2946 Circle
4471 2951 Circle
4478 2956 Circle
4484 2961 Circle
4491 2966 Circle
4498 2972 Circle
4504 2977 Circle
4511 2982 Circle
4518 2987 Circle
4524 2993 Circle
4531 2998 Circle
4538 3004 Circle
4544 3009 Circle
4551 3014 Circle
4558 3020 Circle
4564 3026 Circle
4571 3031 Circle
4578 3037 Circle
4584 3042 Circle
4591 3048 Circle
4598 3054 Circle
4604 3060 Circle
4611 3066 Circle
4618 3071 Circle
4624 3077 Circle
4631 3083 Circle
4638 3089 Circle
4644 3095 Circle
4651 3101 Circle
4658 3107 Circle
4664 3114 Circle
4671 3120 Circle
4678 3126 Circle
4684 3132 Circle
4691 3139 Circle
4698 3145 Circle
4704 3151 Circle
4711 3158 Circle
4718 3164 Circle
4724 3171 Circle
4731 3178 Circle
4737 3184 Circle
4744 3191 Circle
4751 3198 Circle
4757 3204 Circle
4764 3211 Circle
4771 3218 Circle
4777 3225 Circle
4784 3232 Circle
4791 3239 Circle
4797 3246 Circle
4804 3253 Circle
4811 3261 Circle
4817 3268 Circle
4824 3275 Circle
4831 3282 Circle
4837 3290 Circle
4844 3297 Circle
4851 3305 Circle
4857 3312 Circle
4864 3320 Circle
4871 3328 Circle
4877 3335 Circle
4884 3343 Circle
4891 3351 Circle
4897 3359 Circle
4904 3367 Circle
4911 3375 Circle
4917 3383 Circle
4924 3391 Circle
4931 3399 Circle
4937 3408 Circle
4944 3416 Circle
4951 3424 Circle
4957 3433 Circle
4964 3441 Circle
4971 3450 Circle
4977 3459 Circle
4984 3467 Circle
4991 3476 Circle
4997 3485 Circle
5004 3494 Circle
5011 3503 Circle
5017 3512 Circle
5024 3521 Circle
5030 3530 Circle
5037 3539 Circle
5044 3549 Circle
5050 3558 Circle
5057 3568 Circle
5064 3577 Circle
5070 3587 Circle
5077 3597 Circle
5084 3606 Circle
5090 3616 Circle
5097 3626 Circle
5104 3636 Circle
5110 3646 Circle
5117 3657 Circle
5124 3667 Circle
5130 3677 Circle
5137 3687 Circle
5144 3698 Circle
5150 3709 Circle
5157 3719 Circle
5164 3730 Circle
5170 3741 Circle
5177 3752 Circle
5184 3763 Circle
5190 3774 Circle
5197 3785 Circle
5204 3796 Circle
5210 3808 Circle
5217 3819 Circle
5224 3831 Circle
5230 3843 Circle
5237 3854 Circle
5244 3866 Circle
5250 3878 Circle
5257 3890 Circle
5264 3902 Circle
5270 3915 Circle
5277 3927 Circle
5284 3940 Circle
5290 3952 Circle
5297 3965 Circle
5304 3978 Circle
5310 3991 Circle
5317 4004 Circle
5323 4017 Circle
5330 4030 Circle
5337 4043 Circle
5343 4057 Circle
5350 4070 Circle
5357 4084 Circle
5363 4098 Circle
5370 4112 Circle
5377 4126 Circle
5383 4140 Circle
5390 4154 Circle
5397 4169 Circle
5403 4183 Circle
5410 4198 Circle
5417 4213 Circle
5423 4228 Circle
5430 4243 Circle
5437 4258 Circle
5443 4273 Circle
5450 4289 Circle
5457 4304 Circle
5463 4320 Circle
5470 4336 Circle
5477 4352 Circle
5483 4368 Circle
5490 4385 Circle
5497 4401 Circle
5503 4418 Circle
5510 4434 Circle
5517 4451 Circle
5523 4468 Circle
5530 4486 Circle
5537 4503 Circle
5543 4521 Circle
5550 4538 Circle
5557 4556 Circle
5563 4574 Circle
5570 4592 Circle
5577 4611 Circle
5583 4629 Circle
5590 4648 Circle
5596 4667 Circle
5603 4686 Circle
5610 4705 Circle
5616 4724 Circle
5623 4744 Circle
5630 4764 Circle
5636 4784 Circle
5643 4804 Circle
% End plot #4
% Begin plot #5
2.000 UP
1.000 UL
LTb
0.00 0.55 0.55 C LCb setrgbcolor
6272 1845 M
[ [(Helvetica) 150.0 0.0 true true 0 (Canal S=1 M=1)]
] -50.0 MRshow
2.000 UP
1.000 UL
LTb
0.00 0.55 0.55 C 6573 1845 CircleF
% End plot #5
% Begin plot #6
0.250 UP
1.000 UL
LTb
0.00 0.55 0.55 C 1308 4805 Circle
1315 4780 Circle
1321 4756 Circle
1328 4732 Circle
1335 4707 Circle
1341 4683 Circle
1348 4659 Circle
1355 4634 Circle
1361 4610 Circle
1368 4585 Circle
1375 4561 Circle
1381 4537 Circle
1388 4513 Circle
1395 4488 Circle
1401 4464 Circle
1408 4440 Circle
1415 4416 Circle
1421 4392 Circle
1428 4368 Circle
1435 4344 Circle
1441 4321 Circle
1448 4297 Circle
1455 4274 Circle
1461 4250 Circle
1468 4227 Circle
1475 4203 Circle
1481 4180 Circle
1488 4157 Circle
1495 4134 Circle
1501 4111 Circle
1508 4089 Circle
1515 4066 Circle
1521 4044 Circle
1528 4021 Circle
1535 3999 Circle
1541 3977 Circle
1548 3955 Circle
1555 3933 Circle
1561 3912 Circle
1568 3890 Circle
1575 3868 Circle
1581 3847 Circle
1588 3826 Circle
1595 3805 Circle
1601 3784 Circle
1608 3764 Circle
1614 3743 Circle
1621 3723 Circle
1628 3702 Circle
1634 3682 Circle
1641 3662 Circle
1648 3642 Circle
1654 3623 Circle
1661 3603 Circle
1668 3584 Circle
1674 3565 Circle
1681 3546 Circle
1688 3527 Circle
1694 3508 Circle
1701 3489 Circle
1708 3471 Circle
1714 3453 Circle
1721 3435 Circle
1728 3417 Circle
1734 3399 Circle
1741 3381 Circle
1748 3363 Circle
1754 3346 Circle
1761 3329 Circle
1768 3312 Circle
1774 3295 Circle
1781 3278 Circle
1788 3261 Circle
1794 3245 Circle
1801 3229 Circle
1808 3212 Circle
1814 3196 Circle
1821 3181 Circle
1828 3165 Circle
1834 3149 Circle
1841 3134 Circle
1848 3118 Circle
1854 3103 Circle
1861 3088 Circle
1868 3073 Circle
1874 3059 Circle
1881 3044 Circle
1887 3030 Circle
1894 3015 Circle
1901 3001 Circle
1907 2987 Circle
1914 2973 Circle
1921 2959 Circle
1927 2946 Circle
1934 2932 Circle
1941 2919 Circle
1947 2906 Circle
1954 2892 Circle
1961 2880 Circle
1967 2867 Circle
1974 2854 Circle
1981 2841 Circle
1987 2829 Circle
1994 2817 Circle
2001 2804 Circle
2007 2792 Circle
2014 2780 Circle
2021 2769 Circle
2027 2757 Circle
2034 2745 Circle
2041 2734 Circle
2047 2722 Circle
2054 2711 Circle
2061 2700 Circle
2067 2689 Circle
2074 2678 Circle
2081 2667 Circle
2087 2657 Circle
2094 2646 Circle
2101 2636 Circle
2107 2626 Circle
2114 2615 Circle
2121 2605 Circle
2127 2595 Circle
2134 2585 Circle
2141 2576 Circle
2147 2566 Circle
2154 2556 Circle
2161 2547 Circle
2167 2538 Circle
2174 2528 Circle
2180 2519 Circle
2187 2510 Circle
2194 2501 Circle
2200 2493 Circle
2207 2484 Circle
2214 2475 Circle
2220 2467 Circle
2227 2458 Circle
2234 2450 Circle
2240 2442 Circle
2247 2434 Circle
2254 2426 Circle
2260 2418 Circle
2267 2410 Circle
2274 2402 Circle
2280 2394 Circle
2287 2387 Circle
2294 2379 Circle
2300 2372 Circle
2307 2365 Circle
2314 2357 Circle
2320 2350 Circle
2327 2343 Circle
2334 2336 Circle
2340 2329 Circle
2347 2323 Circle
2354 2316 Circle
2360 2309 Circle
2367 2303 Circle
2374 2296 Circle
2380 2290 Circle
2387 2284 Circle
2394 2278 Circle
2400 2272 Circle
2407 2266 Circle
2414 2260 Circle
2420 2254 Circle
2427 2248 Circle
2434 2242 Circle
2440 2237 Circle
2447 2231 Circle
2453 2226 Circle
2460 2220 Circle
2467 2215 Circle
2473 2210 Circle
2480 2205 Circle
2487 2200 Circle
2493 2195 Circle
2500 2190 Circle
2507 2185 Circle
2513 2180 Circle
2520 2175 Circle
2527 2171 Circle
2533 2166 Circle
2540 2162 Circle
2547 2157 Circle
2553 2153 Circle
2560 2149 Circle
2567 2144 Circle
2573 2140 Circle
2580 2136 Circle
2587 2132 Circle
2593 2128 Circle
2600 2125 Circle
2607 2121 Circle
2613 2117 Circle
2620 2114 Circle
2627 2110 Circle
2633 2107 Circle
2640 2103 Circle
2647 2100 Circle
2653 2097 Circle
2660 2093 Circle
2667 2090 Circle
2673 2087 Circle
2680 2084 Circle
2687 2081 Circle
2693 2078 Circle
2700 2076 Circle
2707 2073 Circle
2713 2070 Circle
2720 2068 Circle
2727 2065 Circle
2733 2063 Circle
2740 2061 Circle
2746 2058 Circle
2753 2056 Circle
2760 2054 Circle
2766 2052 Circle
2773 2050 Circle
2780 2048 Circle
2786 2046 Circle
2793 2044 Circle
2800 2043 Circle
2806 2041 Circle
2813 2039 Circle
2820 2038 Circle
2826 2037 Circle
2833 2035 Circle
2840 2034 Circle
2846 2033 Circle
2853 2032 Circle
2860 2031 Circle
2866 2030 Circle
2873 2029 Circle
2880 2028 Circle
2886 2027 Circle
2893 2027 Circle
2900 2026 Circle
2906 2026 Circle
2913 2025 Circle
2920 2025 Circle
2926 2025 Circle
2933 2025 Circle
2940 2025 Circle
2946 2025 Circle
2953 2025 Circle
2960 2026 Circle
2966 2026 Circle
2973 2026 Circle
2980 2027 Circle
2986 2028 Circle
2993 2028 Circle
3000 2029 Circle
3006 2030 Circle
3013 2032 Circle
3020 2033 Circle
3026 2034 Circle
3033 2036 Circle
3039 2038 Circle
3046 2039 Circle
3053 2041 Circle
3059 2043 Circle
3066 2046 Circle
3073 2048 Circle
3079 2051 Circle
3086 2054 Circle
3093 2057 Circle
3099 2060 Circle
3106 2063 Circle
3113 2067 Circle
3119 2071 Circle
3126 2076 Circle
3133 2082 Circle
3139 2087 Circle
3146 2092 Circle
3153 2097 Circle
3159 2101 Circle
3166 2105 Circle
3173 2109 Circle
3179 2113 Circle
3186 2116 Circle
3193 2120 Circle
3199 2124 Circle
3206 2127 Circle
3213 2130 Circle
3219 2134 Circle
3226 2137 Circle
3233 2140 Circle
3239 2143 Circle
3246 2146 Circle
3253 2149 Circle
3259 2152 Circle
3266 2155 Circle
3273 2158 Circle
3279 2161 Circle
3286 2164 Circle
3293 2167 Circle
3299 2170 Circle
3306 2173 Circle
3312 2175 Circle
3319 2178 Circle
3326 2181 Circle
3332 2184 Circle
3339 2186 Circle
3346 2189 Circle
3352 2192 Circle
3359 2194 Circle
3366 2197 Circle
3372 2200 Circle
3379 2202 Circle
3386 2205 Circle
3392 2208 Circle
3399 2210 Circle
3406 2213 Circle
3412 2215 Circle
3419 2218 Circle
3426 2221 Circle
3432 2223 Circle
3439 2226 Circle
3446 2228 Circle
3452 2231 Circle
3459 2233 Circle
3466 2236 Circle
3472 2239 Circle
3479 2241 Circle
3486 2244 Circle
3492 2246 Circle
3499 2249 Circle
3506 2251 Circle
3512 2254 Circle
3519 2256 Circle
3526 2259 Circle
3532 2261 Circle
3539 2264 Circle
3546 2266 Circle
3552 2269 Circle
3559 2271 Circle
3566 2274 Circle
3572 2276 Circle
3579 2279 Circle
3586 2281 Circle
3592 2284 Circle
3599 2286 Circle
3605 2289 Circle
3612 2292 Circle
3619 2294 Circle
3625 2297 Circle
3632 2299 Circle
3639 2302 Circle
3645 2304 Circle
3652 2307 Circle
3659 2310 Circle
3665 2312 Circle
3672 2315 Circle
3679 2317 Circle
3685 2320 Circle
3692 2322 Circle
3699 2325 Circle
3705 2328 Circle
3712 2330 Circle
3719 2333 Circle
3725 2335 Circle
3732 2338 Circle
3739 2341 Circle
3745 2343 Circle
3752 2346 Circle
3759 2349 Circle
3765 2351 Circle
3772 2354 Circle
3779 2357 Circle
3785 2359 Circle
3792 2362 Circle
3799 2365 Circle
3805 2368 Circle
3812 2370 Circle
3819 2373 Circle
3825 2376 Circle
3832 2378 Circle
3839 2381 Circle
3845 2384 Circle
3852 2387 Circle
3859 2390 Circle
3865 2392 Circle
3872 2395 Circle
3879 2398 Circle
3885 2401 Circle
3892 2404 Circle
3898 2407 Circle
3905 2409 Circle
3912 2412 Circle
3918 2415 Circle
3925 2418 Circle
3932 2421 Circle
3938 2424 Circle
3945 2427 Circle
3952 2430 Circle
3958 2433 Circle
3965 2436 Circle
3972 2439 Circle
3978 2442 Circle
3985 2445 Circle
3992 2448 Circle
3998 2451 Circle
4005 2454 Circle
4012 2457 Circle
4018 2460 Circle
4025 2463 Circle
4032 2466 Circle
4038 2469 Circle
4045 2472 Circle
4052 2475 Circle
4058 2478 Circle
4065 2482 Circle
4072 2485 Circle
4078 2488 Circle
4085 2491 Circle
4092 2494 Circle
4098 2498 Circle
4105 2501 Circle
4112 2504 Circle
4118 2507 Circle
4125 2511 Circle
4132 2514 Circle
4138 2517 Circle
4145 2521 Circle
4152 2524 Circle
4158 2527 Circle
4165 2531 Circle
4171 2534 Circle
4178 2538 Circle
4185 2541 Circle
4191 2544 Circle
4198 2548 Circle
4205 2551 Circle
4211 2555 Circle
4218 2558 Circle
4225 2562 Circle
4231 2565 Circle
4238 2569 Circle
4245 2573 Circle
4251 2576 Circle
4258 2580 Circle
4265 2583 Circle
4271 2587 Circle
4278 2591 Circle
4285 2594 Circle
4291 2598 Circle
4298 2602 Circle
4305 2606 Circle
4311 2609 Circle
4318 2613 Circle
4325 2617 Circle
4331 2621 Circle
4338 2625 Circle
4345 2629 Circle
4351 2632 Circle
4358 2636 Circle
4365 2640 Circle
4371 2644 Circle
4378 2648 Circle
4385 2652 Circle
4391 2656 Circle
4398 2660 Circle
4405 2664 Circle
4411 2668 Circle
4418 2672 Circle
4425 2677 Circle
4431 2681 Circle
4438 2685 Circle
4445 2689 Circle
4451 2693 Circle
4458 2697 Circle
4464 2702 Circle
4471 2706 Circle
4478 2710 Circle
4484 2715 Circle
4491 2719 Circle
4498 2723 Circle
4504 2728 Circle
4511 2732 Circle
4518 2737 Circle
4524 2741 Circle
4531 2746 Circle
4538 2750 Circle
4544 2755 Circle
4551 2759 Circle
4558 2764 Circle
4564 2768 Circle
4571 2773 Circle
4578 2778 Circle
4584 2782 Circle
4591 2787 Circle
4598 2792 Circle
4604 2797 Circle
4611 2801 Circle
4618 2806 Circle
4624 2811 Circle
4631 2816 Circle
4638 2821 Circle
4644 2826 Circle
4651 2831 Circle
4658 2836 Circle
4664 2841 Circle
4671 2846 Circle
4678 2851 Circle
4684 2856 Circle
4691 2861 Circle
4698 2866 Circle
4704 2872 Circle
4711 2877 Circle
4718 2882 Circle
4724 2888 Circle
4731 2893 Circle
4737 2898 Circle
4744 2904 Circle
4751 2909 Circle
4757 2914 Circle
4764 2920 Circle
4771 2926 Circle
4777 2931 Circle
4784 2937 Circle
4791 2942 Circle
4797 2948 Circle
4804 2954 Circle
4811 2959 Circle
4817 2965 Circle
4824 2971 Circle
4831 2977 Circle
4837 2983 Circle
4844 2988 Circle
4851 2994 Circle
4857 3000 Circle
4864 3006 Circle
4871 3012 Circle
4877 3018 Circle
4884 3025 Circle
4891 3031 Circle
4897 3037 Circle
4904 3043 Circle
4911 3049 Circle
4917 3056 Circle
4924 3062 Circle
4931 3068 Circle
4937 3075 Circle
4944 3081 Circle
4951 3088 Circle
4957 3094 Circle
4964 3101 Circle
4971 3108 Circle
4977 3114 Circle
4984 3121 Circle
4991 3128 Circle
4997 3135 Circle
5004 3141 Circle
5011 3148 Circle
5017 3155 Circle
5024 3162 Circle
5030 3169 Circle
5037 3176 Circle
5044 3183 Circle
5050 3191 Circle
5057 3198 Circle
5064 3205 Circle
5070 3212 Circle
5077 3220 Circle
5084 3227 Circle
5090 3235 Circle
5097 3242 Circle
5104 3249 Circle
5110 3257 Circle
5117 3265 Circle
5124 3272 Circle
5130 3280 Circle
5137 3288 Circle
5144 3296 Circle
5150 3304 Circle
5157 3312 Circle
5164 3320 Circle
5170 3328 Circle
5177 3336 Circle
5184 3344 Circle
5190 3352 Circle
5197 3360 Circle
5204 3368 Circle
5210 3377 Circle
5217 3385 Circle
5224 3394 Circle
5230 3402 Circle
5237 3411 Circle
5244 3419 Circle
5250 3428 Circle
5257 3437 Circle
5264 3446 Circle
5270 3455 Circle
5277 3464 Circle
5284 3473 Circle
5290 3482 Circle
5297 3491 Circle
5304 3500 Circle
5310 3509 Circle
5317 3518 Circle
5323 3528 Circle
5330 3537 Circle
5337 3547 Circle
5343 3556 Circle
5350 3566 Circle
5357 3576 Circle
5363 3585 Circle
5370 3595 Circle
5377 3605 Circle
5383 3615 Circle
5390 3625 Circle
5397 3635 Circle
5403 3645 Circle
5410 3656 Circle
5417 3666 Circle
5423 3676 Circle
5430 3687 Circle
5437 3697 Circle
5443 3708 Circle
5450 3718 Circle
5457 3729 Circle
5463 3740 Circle
5470 3751 Circle
5477 3762 Circle
5483 3773 Circle
5490 3784 Circle
5497 3795 Circle
5503 3807 Circle
5510 3818 Circle
5517 3829 Circle
5523 3841 Circle
5530 3852 Circle
5537 3864 Circle
5543 3876 Circle
5550 3888 Circle
5557 3900 Circle
5563 3912 Circle
5570 3924 Circle
5577 3936 Circle
5583 3948 Circle
5590 3961 Circle
5596 3973 Circle
5603 3986 Circle
5610 3998 Circle
5616 4011 Circle
5623 4024 Circle
5630 4037 Circle
5636 4049 Circle
5643 4063 Circle
5650 4076 Circle
5656 4089 Circle
5663 4102 Circle
5670 4116 Circle
5676 4129 Circle
5683 4143 Circle
5690 4157 Circle
5696 4171 Circle
5703 4184 Circle
5710 4198 Circle
5716 4213 Circle
5723 4227 Circle
5730 4241 Circle
5736 4256 Circle
5743 4270 Circle
5750 4285 Circle
5756 4300 Circle
5763 4314 Circle
5770 4329 Circle
5776 4344 Circle
5783 4360 Circle
5790 4375 Circle
5796 4390 Circle
5803 4406 Circle
5810 4422 Circle
5816 4437 Circle
5823 4453 Circle
5830 4469 Circle
5836 4485 Circle
5843 4501 Circle
5850 4518 Circle
5856 4534 Circle
5863 4551 Circle
5870 4567 Circle
5876 4584 Circle
5883 4601 Circle
5889 4618 Circle
5896 4635 Circle
5903 4652 Circle
5909 4670 Circle
5916 4687 Circle
5923 4705 Circle
5929 4723 Circle
5936 4740 Circle
5943 4758 Circle
5949 4777 Circle
5956 4795 Circle
5963 4813 Circle
% End plot #6
% Begin plot #7
3.000 UL
LTb
LT2
0.34 0.71 0.91 C 882 1407 M
61 0 V
60 0 V
61 0 V
60 0 V
61 0 V
60 0 V
61 0 V
60 0 V
61 0 V
60 0 V
61 0 V
60 0 V
61 0 V
60 0 V
61 0 V
61 0 V
60 0 V
61 0 V
60 0 V
61 0 V
60 0 V
61 0 V
60 0 V
61 0 V
60 0 V
61 0 V
60 0 V
61 0 V
61 0 V
60 0 V
61 0 V
60 0 V
61 0 V
60 0 V
61 0 V
60 0 V
61 0 V
60 0 V
61 0 V
60 0 V
61 0 V
60 0 V
61 0 V
61 0 V
60 0 V
61 0 V
60 0 V
61 0 V
60 0 V
61 0 V
60 0 V
61 0 V
60 0 V
61 0 V
60 0 V
61 0 V
61 0 V
60 0 V
61 0 V
60 0 V
61 0 V
60 0 V
61 0 V
60 0 V
61 0 V
60 0 V
61 0 V
60 0 V
61 0 V
60 0 V
61 0 V
61 0 V
60 0 V
61 0 V
60 0 V
61 0 V
60 0 V
61 0 V
60 0 V
61 0 V
60 0 V
61 0 V
60 0 V
61 0 V
61 0 V
60 0 V
61 0 V
60 0 V
61 0 V
60 0 V
61 0 V
60 0 V
61 0 V
60 0 V
61 0 V
60 0 V
61 0 V
60 0 V
61 0 V
% End plot #7
% Begin plot #8
stroke
2.000 UL
LTb
LT1
0.00 0.00 0.00 C 882 2545 M
61 0 V
60 0 V
61 0 V
60 0 V
61 0 V
60 0 V
61 0 V
60 0 V
61 0 V
60 0 V
61 0 V
60 0 V
61 0 V
60 0 V
61 0 V
61 0 V
60 0 V
61 0 V
60 0 V
61 0 V
60 0 V
61 0 V
60 0 V
61 0 V
60 0 V
61 0 V
60 0 V
61 0 V
61 0 V
60 0 V
61 0 V
60 0 V
61 0 V
60 0 V
61 0 V
60 0 V
61 0 V
60 0 V
61 0 V
60 0 V
61 0 V
60 0 V
61 0 V
61 0 V
60 0 V
61 0 V
60 0 V
61 0 V
60 0 V
61 0 V
60 0 V
61 0 V
60 0 V
61 0 V
60 0 V
61 0 V
61 0 V
60 0 V
61 0 V
60 0 V
61 0 V
60 0 V
61 0 V
60 0 V
61 0 V
60 0 V
61 0 V
60 0 V
61 0 V
60 0 V
61 0 V
61 0 V
60 0 V
61 0 V
60 0 V
61 0 V
60 0 V
61 0 V
60 0 V
61 0 V
60 0 V
61 0 V
60 0 V
61 0 V
61 0 V
60 0 V
61 0 V
60 0 V
61 0 V
60 0 V
61 0 V
60 0 V
61 0 V
60 0 V
61 0 V
60 0 V
61 0 V
60 0 V
61 0 V
% End plot #8
stroke
LTb
LCb setrgbcolor
1.000 UP
LCb setrgbcolor
6409 4416 M
[ [(Helvetica) 180.0 0.0 true true 0 (SN2LO1)]
] -60.0 MCshow
1.000 UL
LTb
0.50 0.50 0.50 C stroke
grestore
end
showpage
%%Trailer
%%DocumentFonts: Symbol Helvetica
