%!PS-Adobe-2.0 EPSF-2.0
%%Title: lr_SNM.eps
%%Creator: gnuplot 5.0 patchlevel 3
%%CreationDate: Fri Jun 23 13:37:46 2017
%%DocumentFonts: (atend)
%%BoundingBox: 50 50 410 302
%%EndComments
%%BeginProlog
/gnudict 256 dict def
gnudict begin
%
% The following true/false flags may be edited by hand if desired.
% The unit line width and grayscale image gamma correction may also be changed.
%
/Color true def
/Blacktext false def
/Solid false def
/Dashlength 1 def
/Landscape false def
/Level1 false def
/Level3 false def
/Rounded false def
/ClipToBoundingBox false def
/SuppressPDFMark false def
/TransparentPatterns false def
/gnulinewidth 5.000 def
/userlinewidth gnulinewidth def
/Gamma 1.0 def
/BackgroundColor {-1.000 -1.000 -1.000} def
%
/vshift -60 def
/dl1 {
  10.0 Dashlength userlinewidth gnulinewidth div mul mul mul
  Rounded { currentlinewidth 0.75 mul sub dup 0 le { pop 0.01 } if } if
} def
/dl2 {
  10.0 Dashlength userlinewidth gnulinewidth div mul mul mul
  Rounded { currentlinewidth 0.75 mul add } if
} def
/hpt_ 31.5 def
/vpt_ 31.5 def
/hpt hpt_ def
/vpt vpt_ def
/doclip {
  ClipToBoundingBox {
    newpath 50 50 moveto 410 50 lineto 410 302 lineto 50 302 lineto closepath
    clip
  } if
} def
%
% Gnuplot Prolog Version 5.1 (Oct 2015)
%
%/SuppressPDFMark true def
%
/M {moveto} bind def
/L {lineto} bind def
/R {rmoveto} bind def
/V {rlineto} bind def
/N {newpath moveto} bind def
/Z {closepath} bind def
/C {setrgbcolor} bind def
/f {rlineto fill} bind def
/g {setgray} bind def
/Gshow {show} def   % May be redefined later in the file to support UTF-8
/vpt2 vpt 2 mul def
/hpt2 hpt 2 mul def
/Lshow {currentpoint stroke M 0 vshift R 
	Blacktext {gsave 0 setgray textshow grestore} {textshow} ifelse} def
/Rshow {currentpoint stroke M dup stringwidth pop neg vshift R
	Blacktext {gsave 0 setgray textshow grestore} {textshow} ifelse} def
/Cshow {currentpoint stroke M dup stringwidth pop -2 div vshift R 
	Blacktext {gsave 0 setgray textshow grestore} {textshow} ifelse} def
/UP {dup vpt_ mul /vpt exch def hpt_ mul /hpt exch def
  /hpt2 hpt 2 mul def /vpt2 vpt 2 mul def} def
/DL {Color {setrgbcolor Solid {pop []} if 0 setdash}
 {pop pop pop 0 setgray Solid {pop []} if 0 setdash} ifelse} def
/BL {stroke userlinewidth 2 mul setlinewidth
	Rounded {1 setlinejoin 1 setlinecap} if} def
/AL {stroke userlinewidth 2 div setlinewidth
	Rounded {1 setlinejoin 1 setlinecap} if} def
/UL {dup gnulinewidth mul /userlinewidth exch def
	dup 1 lt {pop 1} if 10 mul /udl exch def} def
/PL {stroke userlinewidth setlinewidth
	Rounded {1 setlinejoin 1 setlinecap} if} def
3.8 setmiterlimit
% Classic Line colors (version 5.0)
/LCw {1 1 1} def
/LCb {0 0 0} def
/LCa {0 0 0} def
/LC0 {1 0 0} def
/LC1 {0 1 0} def
/LC2 {0 0 1} def
/LC3 {1 0 1} def
/LC4 {0 1 1} def
/LC5 {1 1 0} def
/LC6 {0 0 0} def
/LC7 {1 0.3 0} def
/LC8 {0.5 0.5 0.5} def
% Default dash patterns (version 5.0)
/LTB {BL [] LCb DL} def
/LTw {PL [] 1 setgray} def
/LTb {PL [] LCb DL} def
/LTa {AL [1 udl mul 2 udl mul] 0 setdash LCa setrgbcolor} def
/LT0 {PL [] LC0 DL} def
/LT1 {PL [2 dl1 3 dl2] LC1 DL} def
/LT2 {PL [1 dl1 1.5 dl2] LC2 DL} def
/LT3 {PL [6 dl1 2 dl2 1 dl1 2 dl2] LC3 DL} def
/LT4 {PL [1 dl1 2 dl2 6 dl1 2 dl2 1 dl1 2 dl2] LC4 DL} def
/LT5 {PL [4 dl1 2 dl2] LC5 DL} def
/LT6 {PL [1.5 dl1 1.5 dl2 1.5 dl1 1.5 dl2 1.5 dl1 6 dl2] LC6 DL} def
/LT7 {PL [3 dl1 3 dl2 1 dl1 3 dl2] LC7 DL} def
/LT8 {PL [2 dl1 2 dl2 2 dl1 6 dl2] LC8 DL} def
/SL {[] 0 setdash} def
/Pnt {stroke [] 0 setdash gsave 1 setlinecap M 0 0 V stroke grestore} def
/Dia {stroke [] 0 setdash 2 copy vpt add M
  hpt neg vpt neg V hpt vpt neg V
  hpt vpt V hpt neg vpt V closepath stroke
  Pnt} def
/Pls {stroke [] 0 setdash vpt sub M 0 vpt2 V
  currentpoint stroke M
  hpt neg vpt neg R hpt2 0 V stroke
 } def
/Box {stroke [] 0 setdash 2 copy exch hpt sub exch vpt add M
  0 vpt2 neg V hpt2 0 V 0 vpt2 V
  hpt2 neg 0 V closepath stroke
  Pnt} def
/Crs {stroke [] 0 setdash exch hpt sub exch vpt add M
  hpt2 vpt2 neg V currentpoint stroke M
  hpt2 neg 0 R hpt2 vpt2 V stroke} def
/TriU {stroke [] 0 setdash 2 copy vpt 1.12 mul add M
  hpt neg vpt -1.62 mul V
  hpt 2 mul 0 V
  hpt neg vpt 1.62 mul V closepath stroke
  Pnt} def
/Star {2 copy Pls Crs} def
/BoxF {stroke [] 0 setdash exch hpt sub exch vpt add M
  0 vpt2 neg V hpt2 0 V 0 vpt2 V
  hpt2 neg 0 V closepath fill} def
/TriUF {stroke [] 0 setdash vpt 1.12 mul add M
  hpt neg vpt -1.62 mul V
  hpt 2 mul 0 V
  hpt neg vpt 1.62 mul V closepath fill} def
/TriD {stroke [] 0 setdash 2 copy vpt 1.12 mul sub M
  hpt neg vpt 1.62 mul V
  hpt 2 mul 0 V
  hpt neg vpt -1.62 mul V closepath stroke
  Pnt} def
/TriDF {stroke [] 0 setdash vpt 1.12 mul sub M
  hpt neg vpt 1.62 mul V
  hpt 2 mul 0 V
  hpt neg vpt -1.62 mul V closepath fill} def
/DiaF {stroke [] 0 setdash vpt add M
  hpt neg vpt neg V hpt vpt neg V
  hpt vpt V hpt neg vpt V closepath fill} def
/Pent {stroke [] 0 setdash 2 copy gsave
  translate 0 hpt M 4 {72 rotate 0 hpt L} repeat
  closepath stroke grestore Pnt} def
/PentF {stroke [] 0 setdash gsave
  translate 0 hpt M 4 {72 rotate 0 hpt L} repeat
  closepath fill grestore} def
/Circle {stroke [] 0 setdash 2 copy
  hpt 0 360 arc stroke Pnt} def
/CircleF {stroke [] 0 setdash hpt 0 360 arc fill} def
/C0 {BL [] 0 setdash 2 copy moveto vpt 90 450 arc} bind def
/C1 {BL [] 0 setdash 2 copy moveto
	2 copy vpt 0 90 arc closepath fill
	vpt 0 360 arc closepath} bind def
/C2 {BL [] 0 setdash 2 copy moveto
	2 copy vpt 90 180 arc closepath fill
	vpt 0 360 arc closepath} bind def
/C3 {BL [] 0 setdash 2 copy moveto
	2 copy vpt 0 180 arc closepath fill
	vpt 0 360 arc closepath} bind def
/C4 {BL [] 0 setdash 2 copy moveto
	2 copy vpt 180 270 arc closepath fill
	vpt 0 360 arc closepath} bind def
/C5 {BL [] 0 setdash 2 copy moveto
	2 copy vpt 0 90 arc
	2 copy moveto
	2 copy vpt 180 270 arc closepath fill
	vpt 0 360 arc} bind def
/C6 {BL [] 0 setdash 2 copy moveto
	2 copy vpt 90 270 arc closepath fill
	vpt 0 360 arc closepath} bind def
/C7 {BL [] 0 setdash 2 copy moveto
	2 copy vpt 0 270 arc closepath fill
	vpt 0 360 arc closepath} bind def
/C8 {BL [] 0 setdash 2 copy moveto
	2 copy vpt 270 360 arc closepath fill
	vpt 0 360 arc closepath} bind def
/C9 {BL [] 0 setdash 2 copy moveto
	2 copy vpt 270 450 arc closepath fill
	vpt 0 360 arc closepath} bind def
/C10 {BL [] 0 setdash 2 copy 2 copy moveto vpt 270 360 arc closepath fill
	2 copy moveto
	2 copy vpt 90 180 arc closepath fill
	vpt 0 360 arc closepath} bind def
/C11 {BL [] 0 setdash 2 copy moveto
	2 copy vpt 0 180 arc closepath fill
	2 copy moveto
	2 copy vpt 270 360 arc closepath fill
	vpt 0 360 arc closepath} bind def
/C12 {BL [] 0 setdash 2 copy moveto
	2 copy vpt 180 360 arc closepath fill
	vpt 0 360 arc closepath} bind def
/C13 {BL [] 0 setdash 2 copy moveto
	2 copy vpt 0 90 arc closepath fill
	2 copy moveto
	2 copy vpt 180 360 arc closepath fill
	vpt 0 360 arc closepath} bind def
/C14 {BL [] 0 setdash 2 copy moveto
	2 copy vpt 90 360 arc closepath fill
	vpt 0 360 arc} bind def
/C15 {BL [] 0 setdash 2 copy vpt 0 360 arc closepath fill
	vpt 0 360 arc closepath} bind def
/Rec {newpath 4 2 roll moveto 1 index 0 rlineto 0 exch rlineto
	neg 0 rlineto closepath} bind def
/Square {dup Rec} bind def
/Bsquare {vpt sub exch vpt sub exch vpt2 Square} bind def
/S0 {BL [] 0 setdash 2 copy moveto 0 vpt rlineto BL Bsquare} bind def
/S1 {BL [] 0 setdash 2 copy vpt Square fill Bsquare} bind def
/S2 {BL [] 0 setdash 2 copy exch vpt sub exch vpt Square fill Bsquare} bind def
/S3 {BL [] 0 setdash 2 copy exch vpt sub exch vpt2 vpt Rec fill Bsquare} bind def
/S4 {BL [] 0 setdash 2 copy exch vpt sub exch vpt sub vpt Square fill Bsquare} bind def
/S5 {BL [] 0 setdash 2 copy 2 copy vpt Square fill
	exch vpt sub exch vpt sub vpt Square fill Bsquare} bind def
/S6 {BL [] 0 setdash 2 copy exch vpt sub exch vpt sub vpt vpt2 Rec fill Bsquare} bind def
/S7 {BL [] 0 setdash 2 copy exch vpt sub exch vpt sub vpt vpt2 Rec fill
	2 copy vpt Square fill Bsquare} bind def
/S8 {BL [] 0 setdash 2 copy vpt sub vpt Square fill Bsquare} bind def
/S9 {BL [] 0 setdash 2 copy vpt sub vpt vpt2 Rec fill Bsquare} bind def
/S10 {BL [] 0 setdash 2 copy vpt sub vpt Square fill 2 copy exch vpt sub exch vpt Square fill
	Bsquare} bind def
/S11 {BL [] 0 setdash 2 copy vpt sub vpt Square fill 2 copy exch vpt sub exch vpt2 vpt Rec fill
	Bsquare} bind def
/S12 {BL [] 0 setdash 2 copy exch vpt sub exch vpt sub vpt2 vpt Rec fill Bsquare} bind def
/S13 {BL [] 0 setdash 2 copy exch vpt sub exch vpt sub vpt2 vpt Rec fill
	2 copy vpt Square fill Bsquare} bind def
/S14 {BL [] 0 setdash 2 copy exch vpt sub exch vpt sub vpt2 vpt Rec fill
	2 copy exch vpt sub exch vpt Square fill Bsquare} bind def
/S15 {BL [] 0 setdash 2 copy Bsquare fill Bsquare} bind def
/D0 {gsave translate 45 rotate 0 0 S0 stroke grestore} bind def
/D1 {gsave translate 45 rotate 0 0 S1 stroke grestore} bind def
/D2 {gsave translate 45 rotate 0 0 S2 stroke grestore} bind def
/D3 {gsave translate 45 rotate 0 0 S3 stroke grestore} bind def
/D4 {gsave translate 45 rotate 0 0 S4 stroke grestore} bind def
/D5 {gsave translate 45 rotate 0 0 S5 stroke grestore} bind def
/D6 {gsave translate 45 rotate 0 0 S6 stroke grestore} bind def
/D7 {gsave translate 45 rotate 0 0 S7 stroke grestore} bind def
/D8 {gsave translate 45 rotate 0 0 S8 stroke grestore} bind def
/D9 {gsave translate 45 rotate 0 0 S9 stroke grestore} bind def
/D10 {gsave translate 45 rotate 0 0 S10 stroke grestore} bind def
/D11 {gsave translate 45 rotate 0 0 S11 stroke grestore} bind def
/D12 {gsave translate 45 rotate 0 0 S12 stroke grestore} bind def
/D13 {gsave translate 45 rotate 0 0 S13 stroke grestore} bind def
/D14 {gsave translate 45 rotate 0 0 S14 stroke grestore} bind def
/D15 {gsave translate 45 rotate 0 0 S15 stroke grestore} bind def
/DiaE {stroke [] 0 setdash vpt add M
  hpt neg vpt neg V hpt vpt neg V
  hpt vpt V hpt neg vpt V closepath stroke} def
/BoxE {stroke [] 0 setdash exch hpt sub exch vpt add M
  0 vpt2 neg V hpt2 0 V 0 vpt2 V
  hpt2 neg 0 V closepath stroke} def
/TriUE {stroke [] 0 setdash vpt 1.12 mul add M
  hpt neg vpt -1.62 mul V
  hpt 2 mul 0 V
  hpt neg vpt 1.62 mul V closepath stroke} def
/TriDE {stroke [] 0 setdash vpt 1.12 mul sub M
  hpt neg vpt 1.62 mul V
  hpt 2 mul 0 V
  hpt neg vpt -1.62 mul V closepath stroke} def
/PentE {stroke [] 0 setdash gsave
  translate 0 hpt M 4 {72 rotate 0 hpt L} repeat
  closepath stroke grestore} def
/CircE {stroke [] 0 setdash 
  hpt 0 360 arc stroke} def
/Opaque {gsave closepath 1 setgray fill grestore 0 setgray closepath} def
/DiaW {stroke [] 0 setdash vpt add M
  hpt neg vpt neg V hpt vpt neg V
  hpt vpt V hpt neg vpt V Opaque stroke} def
/BoxW {stroke [] 0 setdash exch hpt sub exch vpt add M
  0 vpt2 neg V hpt2 0 V 0 vpt2 V
  hpt2 neg 0 V Opaque stroke} def
/TriUW {stroke [] 0 setdash vpt 1.12 mul add M
  hpt neg vpt -1.62 mul V
  hpt 2 mul 0 V
  hpt neg vpt 1.62 mul V Opaque stroke} def
/TriDW {stroke [] 0 setdash vpt 1.12 mul sub M
  hpt neg vpt 1.62 mul V
  hpt 2 mul 0 V
  hpt neg vpt -1.62 mul V Opaque stroke} def
/PentW {stroke [] 0 setdash gsave
  translate 0 hpt M 4 {72 rotate 0 hpt L} repeat
  Opaque stroke grestore} def
/CircW {stroke [] 0 setdash 
  hpt 0 360 arc Opaque stroke} def
/BoxFill {gsave Rec 1 setgray fill grestore} def
/Density {
  /Fillden exch def
  currentrgbcolor
  /ColB exch def /ColG exch def /ColR exch def
  /ColR ColR Fillden mul Fillden sub 1 add def
  /ColG ColG Fillden mul Fillden sub 1 add def
  /ColB ColB Fillden mul Fillden sub 1 add def
  ColR ColG ColB setrgbcolor} def
/BoxColFill {gsave Rec PolyFill} def
/PolyFill {gsave Density fill grestore grestore} def
/h {rlineto rlineto rlineto gsave closepath fill grestore} bind def
%
% PostScript Level 1 Pattern Fill routine for rectangles
% Usage: x y w h s a XX PatternFill
%	x,y = lower left corner of box to be filled
%	w,h = width and height of box
%	  a = angle in degrees between lines and x-axis
%	 XX = 0/1 for no/yes cross-hatch
%
/PatternFill {gsave /PFa [ 9 2 roll ] def
  PFa 0 get PFa 2 get 2 div add PFa 1 get PFa 3 get 2 div add translate
  PFa 2 get -2 div PFa 3 get -2 div PFa 2 get PFa 3 get Rec
  TransparentPatterns {} {gsave 1 setgray fill grestore} ifelse
  clip
  currentlinewidth 0.5 mul setlinewidth
  /PFs PFa 2 get dup mul PFa 3 get dup mul add sqrt def
  0 0 M PFa 5 get rotate PFs -2 div dup translate
  0 1 PFs PFa 4 get div 1 add floor cvi
	{PFa 4 get mul 0 M 0 PFs V} for
  0 PFa 6 get ne {
	0 1 PFs PFa 4 get div 1 add floor cvi
	{PFa 4 get mul 0 2 1 roll M PFs 0 V} for
 } if
  stroke grestore} def
%
/languagelevel where
 {pop languagelevel} {1} ifelse
dup 2 lt
	{/InterpretLevel1 true def
	 /InterpretLevel3 false def}
	{/InterpretLevel1 Level1 def
	 2 gt
	    {/InterpretLevel3 Level3 def}
	    {/InterpretLevel3 false def}
	 ifelse }
 ifelse
%
% PostScript level 2 pattern fill definitions
%
/Level2PatternFill {
/Tile8x8 {/PaintType 2 /PatternType 1 /TilingType 1 /BBox [0 0 8 8] /XStep 8 /YStep 8}
	bind def
/KeepColor {currentrgbcolor [/Pattern /DeviceRGB] setcolorspace} bind def
<< Tile8x8
 /PaintProc {0.5 setlinewidth pop 0 0 M 8 8 L 0 8 M 8 0 L stroke} 
>> matrix makepattern
/Pat1 exch def
<< Tile8x8
 /PaintProc {0.5 setlinewidth pop 0 0 M 8 8 L 0 8 M 8 0 L stroke
	0 4 M 4 8 L 8 4 L 4 0 L 0 4 L stroke}
>> matrix makepattern
/Pat2 exch def
<< Tile8x8
 /PaintProc {0.5 setlinewidth pop 0 0 M 0 8 L
	8 8 L 8 0 L 0 0 L fill}
>> matrix makepattern
/Pat3 exch def
<< Tile8x8
 /PaintProc {0.5 setlinewidth pop -4 8 M 8 -4 L
	0 12 M 12 0 L stroke}
>> matrix makepattern
/Pat4 exch def
<< Tile8x8
 /PaintProc {0.5 setlinewidth pop -4 0 M 8 12 L
	0 -4 M 12 8 L stroke}
>> matrix makepattern
/Pat5 exch def
<< Tile8x8
 /PaintProc {0.5 setlinewidth pop -2 8 M 4 -4 L
	0 12 M 8 -4 L 4 12 M 10 0 L stroke}
>> matrix makepattern
/Pat6 exch def
<< Tile8x8
 /PaintProc {0.5 setlinewidth pop -2 0 M 4 12 L
	0 -4 M 8 12 L 4 -4 M 10 8 L stroke}
>> matrix makepattern
/Pat7 exch def
<< Tile8x8
 /PaintProc {0.5 setlinewidth pop 8 -2 M -4 4 L
	12 0 M -4 8 L 12 4 M 0 10 L stroke}
>> matrix makepattern
/Pat8 exch def
<< Tile8x8
 /PaintProc {0.5 setlinewidth pop 0 -2 M 12 4 L
	-4 0 M 12 8 L -4 4 M 8 10 L stroke}
>> matrix makepattern
/Pat9 exch def
/Pattern1 {PatternBgnd KeepColor Pat1 setpattern} bind def
/Pattern2 {PatternBgnd KeepColor Pat2 setpattern} bind def
/Pattern3 {PatternBgnd KeepColor Pat3 setpattern} bind def
/Pattern4 {PatternBgnd KeepColor Landscape {Pat5} {Pat4} ifelse setpattern} bind def
/Pattern5 {PatternBgnd KeepColor Landscape {Pat4} {Pat5} ifelse setpattern} bind def
/Pattern6 {PatternBgnd KeepColor Landscape {Pat9} {Pat6} ifelse setpattern} bind def
/Pattern7 {PatternBgnd KeepColor Landscape {Pat8} {Pat7} ifelse setpattern} bind def
} def
%
%
%End of PostScript Level 2 code
%
/PatternBgnd {
  TransparentPatterns {} {gsave 1 setgray fill grestore} ifelse
} def
%
% Substitute for Level 2 pattern fill codes with
% grayscale if Level 2 support is not selected.
%
/Level1PatternFill {
/Pattern1 {0.250 Density} bind def
/Pattern2 {0.500 Density} bind def
/Pattern3 {0.750 Density} bind def
/Pattern4 {0.125 Density} bind def
/Pattern5 {0.375 Density} bind def
/Pattern6 {0.625 Density} bind def
/Pattern7 {0.875 Density} bind def
} def
%
% Now test for support of Level 2 code
%
Level1 {Level1PatternFill} {Level2PatternFill} ifelse
%
/Symbol-Oblique /Symbol findfont [1 0 .167 1 0 0] makefont
dup length dict begin {1 index /FID eq {pop pop} {def} ifelse} forall
currentdict end definefont pop
%
/MFshow {
   { dup 5 get 3 ge
     { 5 get 3 eq {gsave} {grestore} ifelse }
     {dup dup 0 get findfont exch 1 get scalefont setfont
     [ currentpoint ] exch dup 2 get 0 exch R dup 5 get 2 ne {dup dup 6
     get exch 4 get {textshow} {stringwidth pop 0 R} ifelse }if dup 5 get 0 eq
     {dup 3 get {2 get neg 0 exch R pop} {pop aload pop M} ifelse} {dup 5
     get 1 eq {dup 2 get exch dup 3 get exch 6 get stringwidth pop -2 div
     dup 0 R} {dup 6 get stringwidth pop -2 div 0 R 6 get
     textshow 2 index {aload pop M neg 3 -1 roll neg R pop pop} {pop pop pop
     pop aload pop M} ifelse }ifelse }ifelse }
     ifelse }
   forall} def
/Gswidth {dup type /stringtype eq {stringwidth} {pop (n) stringwidth} ifelse} def
/MFwidth {0 exch { dup 5 get 3 ge { 5 get 3 eq { 0 } { pop } ifelse }
 {dup 3 get{dup dup 0 get findfont exch 1 get scalefont setfont
     6 get Gswidth pop add} {pop} ifelse} ifelse} forall} def
/MLshow { currentpoint stroke M
  0 exch R
  Blacktext {gsave 0 setgray MFshow grestore} {MFshow} ifelse } bind def
/MRshow { currentpoint stroke M
  exch dup MFwidth neg 3 -1 roll R
  Blacktext {gsave 0 setgray MFshow grestore} {MFshow} ifelse } bind def
/MCshow { currentpoint stroke M
  exch dup MFwidth -2 div 3 -1 roll R
  Blacktext {gsave 0 setgray MFshow grestore} {MFshow} ifelse } bind def
/XYsave    { [( ) 1 2 true false 3 ()] } bind def
/XYrestore { [( ) 1 2 true false 4 ()] } bind def
Level1 SuppressPDFMark or 
{} {
/SDict 10 dict def
systemdict /pdfmark known not {
  userdict /pdfmark systemdict /cleartomark get put
} if
SDict begin [
  /Title (lr_SNM.eps)
  /Subject (gnuplot plot)
  /Creator (gnuplot 5.0 patchlevel 3)
  /Author (kb2)
%  /Producer (gnuplot)
%  /Keywords ()
  /CreationDate (Fri Jun 23 13:37:46 2017)
  /DOCINFO pdfmark
end
} ifelse
%
% Support for boxed text - Ethan A Merritt May 2005
%
/InitTextBox { userdict /TBy2 3 -1 roll put userdict /TBx2 3 -1 roll put
           userdict /TBy1 3 -1 roll put userdict /TBx1 3 -1 roll put
	   /Boxing true def } def
/ExtendTextBox { Boxing
    { gsave dup false charpath pathbbox
      dup TBy2 gt {userdict /TBy2 3 -1 roll put} {pop} ifelse
      dup TBx2 gt {userdict /TBx2 3 -1 roll put} {pop} ifelse
      dup TBy1 lt {userdict /TBy1 3 -1 roll put} {pop} ifelse
      dup TBx1 lt {userdict /TBx1 3 -1 roll put} {pop} ifelse
      grestore } if } def
/PopTextBox { newpath TBx1 TBxmargin sub TBy1 TBymargin sub M
               TBx1 TBxmargin sub TBy2 TBymargin add L
	       TBx2 TBxmargin add TBy2 TBymargin add L
	       TBx2 TBxmargin add TBy1 TBymargin sub L closepath } def
/DrawTextBox { PopTextBox stroke /Boxing false def} def
/FillTextBox { gsave PopTextBox 1 1 1 setrgbcolor fill grestore /Boxing false def} def
0 0 0 0 InitTextBox
/TBxmargin 20 def
/TBymargin 20 def
/Boxing false def
/textshow { ExtendTextBox Gshow } def
%
% redundant definitions for compatibility with prologue.ps older than 5.0.2
/LTB {BL [] LCb DL} def
/LTb {PL [] LCb DL} def
end
%%EndProlog
%%Page: 1 1
gnudict begin
gsave
doclip
50 50 translate
0.050 0.050 scale
0 setgray
newpath
(Helvetica) findfont 180 scalefont setfont
BackgroundColor 0 lt 3 1 roll 0 lt exch 0 lt or or not {BackgroundColor C 1.000 0 0 7200.00 5040.00 BoxColFill} if
1.000 UL
LTb
0.50 0.50 0.50 C 1.000 UL
LTa
0.50 0.50 0.50 C 882 756 M
5993 0 V
stroke
LTb
0.50 0.50 0.50 C 882 756 M
63 0 V
5930 0 R
-63 0 V
stroke
774 756 M
[ [(Helvetica) 180.0 0.0 true true 0 ( 0)]
] -60.0 MRshow
1.000 UL
LTb
0.50 0.50 0.50 C 1.000 UL
LTa
0.50 0.50 0.50 C 882 1569 M
4535 0 V
stroke
LTb
0.50 0.50 0.50 C 882 1569 M
63 0 V
5930 0 R
-63 0 V
stroke
774 1569 M
[ [(Helvetica) 180.0 0.0 true true 0 ( 0.1)]
] -60.0 MRshow
1.000 UL
LTb
0.50 0.50 0.50 C 1.000 UL
LTa
0.50 0.50 0.50 C 882 2383 M
5993 0 V
stroke
LTb
0.50 0.50 0.50 C 882 2383 M
63 0 V
5930 0 R
-63 0 V
stroke
774 2383 M
[ [(Helvetica) 180.0 0.0 true true 0 ( 0.2)]
] -60.0 MRshow
1.000 UL
LTb
0.50 0.50 0.50 C 1.000 UL
LTa
0.50 0.50 0.50 C 882 3196 M
5993 0 V
stroke
LTb
0.50 0.50 0.50 C 882 3196 M
63 0 V
5930 0 R
-63 0 V
stroke
774 3196 M
[ [(Helvetica) 180.0 0.0 true true 0 ( 0.3)]
] -60.0 MRshow
1.000 UL
LTb
0.50 0.50 0.50 C 1.000 UL
LTa
0.50 0.50 0.50 C 882 4010 M
5993 0 V
stroke
LTb
0.50 0.50 0.50 C 882 4010 M
63 0 V
5930 0 R
-63 0 V
stroke
774 4010 M
[ [(Helvetica) 180.0 0.0 true true 0 ( 0.4)]
] -60.0 MRshow
1.000 UL
LTb
0.50 0.50 0.50 C 1.000 UL
LTa
0.50 0.50 0.50 C 882 4823 M
5993 0 V
stroke
LTb
0.50 0.50 0.50 C 882 4823 M
63 0 V
5930 0 R
-63 0 V
stroke
774 4823 M
[ [(Helvetica) 180.0 0.0 true true 0 ( 0.5)]
] -60.0 MRshow
1.000 UL
LTb
0.50 0.50 0.50 C 1.000 UL
LTa
0.50 0.50 0.50 C 882 756 M
0 4067 V
stroke
LTb
0.50 0.50 0.50 C 882 756 M
0 63 V
0 4004 R
0 -63 V
stroke
882 576 M
[ [(Helvetica) 180.0 0.0 true true 0 ( 0)]
] -60.0 MCshow
1.000 UL
LTb
0.50 0.50 0.50 C 1.000 UL
LTa
0.50 0.50 0.50 C 1548 756 M
0 4067 V
stroke
LTb
0.50 0.50 0.50 C 1548 756 M
0 63 V
0 4004 R
0 -63 V
stroke
1548 576 M
[ [(Helvetica) 180.0 0.0 true true 0 ( 1)]
] -60.0 MCshow
1.000 UL
LTb
0.50 0.50 0.50 C 1.000 UL
LTa
0.50 0.50 0.50 C 2214 756 M
0 4067 V
stroke
LTb
0.50 0.50 0.50 C 2214 756 M
0 63 V
0 4004 R
0 -63 V
stroke
2214 576 M
[ [(Helvetica) 180.0 0.0 true true 0 ( 2)]
] -60.0 MCshow
1.000 UL
LTb
0.50 0.50 0.50 C 1.000 UL
LTa
0.50 0.50 0.50 C 2880 756 M
0 4067 V
stroke
LTb
0.50 0.50 0.50 C 2880 756 M
0 63 V
0 4004 R
0 -63 V
stroke
2880 576 M
[ [(Helvetica) 180.0 0.0 true true 0 ( 3)]
] -60.0 MCshow
1.000 UL
LTb
0.50 0.50 0.50 C 1.000 UL
LTa
0.50 0.50 0.50 C 3546 756 M
0 4067 V
stroke
LTb
0.50 0.50 0.50 C 3546 756 M
0 63 V
0 4004 R
0 -63 V
stroke
3546 576 M
[ [(Helvetica) 180.0 0.0 true true 0 ( 4)]
] -60.0 MCshow
1.000 UL
LTb
0.50 0.50 0.50 C 1.000 UL
LTa
0.50 0.50 0.50 C 4211 756 M
0 4067 V
stroke
LTb
0.50 0.50 0.50 C 4211 756 M
0 63 V
0 4004 R
0 -63 V
stroke
4211 576 M
[ [(Helvetica) 180.0 0.0 true true 0 ( 5)]
] -60.0 MCshow
1.000 UL
LTb
0.50 0.50 0.50 C 1.000 UL
LTa
0.50 0.50 0.50 C 4877 756 M
0 4067 V
stroke
LTb
0.50 0.50 0.50 C 4877 756 M
0 63 V
0 4004 R
0 -63 V
stroke
4877 576 M
[ [(Helvetica) 180.0 0.0 true true 0 ( 6)]
] -60.0 MCshow
1.000 UL
LTb
0.50 0.50 0.50 C 1.000 UL
LTa
0.50 0.50 0.50 C 5543 756 M
0 157 V
0 900 R
0 3010 V
stroke
LTb
0.50 0.50 0.50 C 5543 756 M
0 63 V
0 4004 R
0 -63 V
stroke
5543 576 M
[ [(Helvetica) 180.0 0.0 true true 0 ( 7)]
] -60.0 MCshow
1.000 UL
LTb
0.50 0.50 0.50 C 1.000 UL
LTa
0.50 0.50 0.50 C 6209 756 M
0 157 V
0 900 R
0 3010 V
stroke
LTb
0.50 0.50 0.50 C 6209 756 M
0 63 V
0 4004 R
0 -63 V
stroke
6209 576 M
[ [(Helvetica) 180.0 0.0 true true 0 ( 8)]
] -60.0 MCshow
1.000 UL
LTb
0.50 0.50 0.50 C 1.000 UL
LTa
0.50 0.50 0.50 C 6875 756 M
0 4067 V
stroke
LTb
0.50 0.50 0.50 C 6875 756 M
0 63 V
0 4004 R
0 -63 V
stroke
6875 576 M
[ [(Helvetica) 180.0 0.0 true true 0 ( 9)]
] -60.0 MCshow
1.000 UL
LTb
0.50 0.50 0.50 C 1.000 UL
LTB
0.50 0.50 0.50 C 882 4823 M
882 756 L
5993 0 V
0 4067 R
-5993 0 R
stroke
LTb
1.00 1.00 1.00 C 1.000 5777 4236 864 360 BoxColFill
LCb setrgbcolor
5777 4236 N
0 360 V
864 0 V
0 -360 V
-864 0 V
Z stroke
1.000 UP
LCb setrgbcolor
416 2057 M
[ [(Symbol) 180.0 0.0 true true 0 (r)]
[(Helvetica) 144.0 -54.0 true true 0 (sat)]
] -42.0 MLshow
LCb setrgbcolor
416 2627 M
[ [(Symbol) 180.0 0.0 true true 0 (r)]
[(Helvetica) 144.0 -54.0 true true 0 (crit)]
] -42.0 MLshow
1.000 UL
LTb
0.50 0.50 0.50 C LCb setrgbcolor
144 2789 M
currentpoint gsave translate -270 rotate 0 0 moveto
[ [(Symbol) 180.0 0.0 true true 0 (r)]
[(Helvetica) 180.0 0.0 true true 0 ( [fm)]
[(Helvetica) 144.0 90.0 true true 0 (-3)]
[(Helvetica) 180.0 0.0 true true 0 (])]
] -78.0 MCshow
grestore
LTb
LCb setrgbcolor
3878 306 M
[ [(Helvetica) 180.0 0.0 true true 0 (q [fm)]
[(Helvetica) 144.0 90.0 true true 0 (-1)]
[(Helvetica) 180.0 0.0 true true 0 (])]
] -78.0 MCshow
LTb
% Begin plot #1
2.000 UP
1.000 UL
LTb
0.91 0.59 0.48 C LCb setrgbcolor
6272 1738 M
[ [(Helvetica) 150.0 0.0 true true 0 (Canal S=0 M=0 I=0)]
] -50.0 MRshow
2.000 UP
1.000 UL
LTb
0.91 0.59 0.48 C 6573 1738 CircleF
% End plot #1
% Begin plot #2
0.250 UP
1.000 UL
LTb
0.91 0.59 0.48 C 889 1593 Circle
895 1593 Circle
902 1593 Circle
909 1593 Circle
915 1593 Circle
922 1592 Circle
929 1592 Circle
935 1592 Circle
942 1591 Circle
949 1591 Circle
955 1590 Circle
962 1590 Circle
969 1589 Circle
975 1588 Circle
982 1588 Circle
989 1587 Circle
995 1586 Circle
1002 1585 Circle
1009 1584 Circle
1015 1583 Circle
1022 1582 Circle
1028 1581 Circle
1035 1580 Circle
1042 1578 Circle
1048 1577 Circle
1055 1576 Circle
1062 1574 Circle
1068 1573 Circle
1075 1572 Circle
1082 1570 Circle
1088 1568 Circle
1095 1567 Circle
1102 1565 Circle
1108 1563 Circle
1115 1561 Circle
1122 1560 Circle
1128 1558 Circle
1135 1556 Circle
1142 1554 Circle
1148 1552 Circle
1155 1549 Circle
1162 1547 Circle
1168 1545 Circle
1175 1543 Circle
1182 1540 Circle
1188 1538 Circle
1195 1535 Circle
1202 1533 Circle
1208 1530 Circle
1215 1527 Circle
1222 1525 Circle
1228 1522 Circle
1235 1519 Circle
1242 1516 Circle
1248 1513 Circle
1255 1510 Circle
1262 1507 Circle
1268 1504 Circle
1275 1501 Circle
1282 1497 Circle
1288 1494 Circle
1295 1491 Circle
1302 1487 Circle
1308 1484 Circle
1315 1480 Circle
1321 1477 Circle
1328 1473 Circle
1335 1469 Circle
1341 1465 Circle
1348 1461 Circle
1355 1457 Circle
1361 1453 Circle
1368 1449 Circle
1375 1445 Circle
1381 1441 Circle
1388 1436 Circle
1395 1432 Circle
1401 1427 Circle
1408 1423 Circle
1415 1418 Circle
1421 1414 Circle
1428 1409 Circle
1435 1404 Circle
1441 1399 Circle
1448 1394 Circle
1455 1389 Circle
1461 1384 Circle
1468 1379 Circle
1475 1373 Circle
1481 1368 Circle
1488 1363 Circle
1495 1357 Circle
1501 1351 Circle
1508 1346 Circle
1515 1340 Circle
1521 1334 Circle
1528 1328 Circle
1535 1322 Circle
1541 1315 Circle
1548 1309 Circle
1555 1303 Circle
1561 1296 Circle
1568 1290 Circle
1575 1283 Circle
1581 1276 Circle
1588 1269 Circle
1595 1262 Circle
1601 1255 Circle
1608 1247 Circle
1614 1240 Circle
1621 1232 Circle
1628 1224 Circle
1634 1216 Circle
1641 1207 Circle
1648 1199 Circle
1654 1190 Circle
1661 1181 Circle
1668 1172 Circle
1674 1162 Circle
1681 1152 Circle
1688 1141 Circle
1694 1130 Circle
1701 1118 Circle
1708 1105 Circle
1714 1091 Circle
1721 1074 Circle
1728 1053 Circle
1428 798 Circle
1435 799 Circle
1441 801 Circle
1448 802 Circle
1455 804 Circle
1461 806 Circle
1468 807 Circle
1475 809 Circle
1481 811 Circle
1488 813 Circle
1495 814 Circle
1501 816 Circle
1508 818 Circle
1515 820 Circle
1521 822 Circle
1528 825 Circle
1535 827 Circle
1541 829 Circle
1548 831 Circle
1555 834 Circle
1561 836 Circle
1568 839 Circle
1575 842 Circle
1581 844 Circle
1588 847 Circle
1595 850 Circle
1601 853 Circle
1608 857 Circle
1614 860 Circle
1621 863 Circle
1628 867 Circle
1634 871 Circle
1641 875 Circle
1648 879 Circle
1654 883 Circle
1661 888 Circle
1668 893 Circle
1674 898 Circle
1681 903 Circle
1688 910 Circle
1694 916 Circle
1701 924 Circle
1708 932 Circle
1714 942 Circle
1721 954 Circle
1728 970 Circle
% End plot #2
% Begin plot #3
2.000 UP
1.000 UL
LTb
0.55 0.00 0.00 C LCb setrgbcolor
6272 1588 M
[ [(Helvetica) 150.0 0.0 true true 0 (Canal S=0 M=0 I=1)]
] -50.0 MRshow
2.000 UP
1.000 UL
LTb
0.55 0.00 0.00 C 6573 1588 CircleF
% End plot #3
% Begin plot #4
0.250 UP
1.000 UL
LTb
0.55 0.00 0.00 C 2094 4814 Circle
2101 4771 Circle
2107 4728 Circle
2114 4686 Circle
2121 4645 Circle
2127 4604 Circle
2134 4564 Circle
2141 4524 Circle
2147 4485 Circle
2154 4446 Circle
2161 4408 Circle
2167 4370 Circle
2174 4333 Circle
2180 4296 Circle
2187 4260 Circle
2194 4224 Circle
2200 4189 Circle
2207 4154 Circle
2214 4120 Circle
2220 4086 Circle
2227 4053 Circle
2234 4020 Circle
2240 3987 Circle
2247 3955 Circle
2254 3923 Circle
2260 3892 Circle
2267 3862 Circle
2274 3831 Circle
2280 3802 Circle
2287 3772 Circle
2294 3743 Circle
2300 3715 Circle
2307 3686 Circle
2314 3659 Circle
2320 3631 Circle
2327 3605 Circle
2334 3578 Circle
2340 3552 Circle
2347 3526 Circle
2354 3501 Circle
2360 3476 Circle
2367 3452 Circle
2374 3428 Circle
2380 3404 Circle
2387 3381 Circle
2394 3358 Circle
2400 3335 Circle
2407 3313 Circle
2414 3291 Circle
2420 3270 Circle
2427 3249 Circle
2434 3228 Circle
2440 3208 Circle
2447 3188 Circle
2453 3169 Circle
2460 3149 Circle
2467 3131 Circle
2473 3112 Circle
2480 3094 Circle
2487 3076 Circle
2493 3059 Circle
2500 3042 Circle
2507 3025 Circle
2513 3009 Circle
2520 2993 Circle
2527 2978 Circle
2533 2963 Circle
2540 2948 Circle
2547 2933 Circle
2553 2919 Circle
2560 2905 Circle
2567 2892 Circle
2573 2879 Circle
2580 2866 Circle
2587 2854 Circle
2593 2842 Circle
2600 2830 Circle
2607 2819 Circle
2613 2808 Circle
2620 2797 Circle
2627 2787 Circle
2633 2777 Circle
2640 2768 Circle
2647 2759 Circle
2653 2750 Circle
2660 2741 Circle
2667 2733 Circle
2673 2726 Circle
2680 2718 Circle
2687 2711 Circle
2693 2705 Circle
2700 2699 Circle
2707 2693 Circle
2713 2687 Circle
2720 2682 Circle
2727 2678 Circle
2733 2673 Circle
2740 2669 Circle
2746 2666 Circle
2753 2663 Circle
2760 2660 Circle
2766 2658 Circle
2773 2656 Circle
2780 2654 Circle
2786 2653 Circle
2793 2652 Circle
2800 2652 Circle
2806 2652 Circle
2813 2653 Circle
2820 2654 Circle
2826 2655 Circle
2833 2657 Circle
2840 2660 Circle
2846 2663 Circle
2853 2666 Circle
2860 2670 Circle
2866 2674 Circle
2873 2679 Circle
2880 2684 Circle
2886 2690 Circle
2893 2697 Circle
2900 2704 Circle
2906 2712 Circle
2913 2721 Circle
2920 2731 Circle
2926 2743 Circle
2933 2754 Circle
2940 2764 Circle
2946 2774 Circle
2953 2783 Circle
2960 2791 Circle
2966 2799 Circle
2973 2807 Circle
2980 2815 Circle
2986 2823 Circle
2993 2830 Circle
3000 2838 Circle
3006 2845 Circle
3013 2852 Circle
3020 2858 Circle
3026 2865 Circle
3033 2872 Circle
3039 2878 Circle
3046 2885 Circle
3053 2891 Circle
3059 2897 Circle
3066 2903 Circle
3073 2909 Circle
3079 2915 Circle
3086 2921 Circle
3093 2927 Circle
3099 2933 Circle
3106 2939 Circle
3113 2944 Circle
3119 2950 Circle
3126 2955 Circle
3133 2961 Circle
3139 2966 Circle
3146 2972 Circle
3153 2977 Circle
3159 2982 Circle
3166 2988 Circle
3173 2993 Circle
3179 2998 Circle
3186 3003 Circle
3193 3008 Circle
3199 3014 Circle
3206 3019 Circle
3213 3024 Circle
3219 3029 Circle
3226 3034 Circle
3233 3039 Circle
3239 3043 Circle
3246 3048 Circle
3253 3053 Circle
3259 3058 Circle
3266 3063 Circle
3273 3068 Circle
3279 3072 Circle
3286 3077 Circle
3293 3082 Circle
3299 3087 Circle
3306 3091 Circle
3312 3096 Circle
3319 3101 Circle
3326 3105 Circle
3332 3110 Circle
3339 3115 Circle
3346 3119 Circle
3352 3124 Circle
3359 3128 Circle
3366 3133 Circle
3372 3138 Circle
3379 3142 Circle
3386 3147 Circle
3392 3151 Circle
3399 3156 Circle
3406 3160 Circle
3412 3165 Circle
3419 3169 Circle
3426 3174 Circle
3432 3178 Circle
3439 3182 Circle
3446 3187 Circle
3452 3191 Circle
3459 3196 Circle
3466 3200 Circle
3472 3204 Circle
3479 3209 Circle
3486 3213 Circle
3492 3218 Circle
3499 3222 Circle
3506 3226 Circle
3512 3231 Circle
3519 3235 Circle
3526 3239 Circle
3532 3244 Circle
3539 3248 Circle
3546 3252 Circle
3552 3257 Circle
3559 3261 Circle
3566 3266 Circle
3572 3270 Circle
3579 3274 Circle
3586 3278 Circle
3592 3283 Circle
3599 3287 Circle
3605 3291 Circle
3612 3296 Circle
3619 3300 Circle
3625 3304 Circle
3632 3309 Circle
3639 3313 Circle
3645 3317 Circle
3652 3322 Circle
3659 3326 Circle
3665 3330 Circle
3672 3334 Circle
3679 3339 Circle
3685 3343 Circle
3692 3347 Circle
3699 3352 Circle
3705 3356 Circle
3712 3360 Circle
3719 3365 Circle
3725 3369 Circle
3732 3373 Circle
3739 3378 Circle
3745 3382 Circle
3752 3386 Circle
3759 3391 Circle
3765 3395 Circle
3772 3399 Circle
3779 3403 Circle
3785 3408 Circle
3792 3412 Circle
3799 3416 Circle
3805 3421 Circle
3812 3425 Circle
3819 3429 Circle
3825 3434 Circle
3832 3438 Circle
3839 3443 Circle
3845 3447 Circle
3852 3451 Circle
3859 3456 Circle
3865 3460 Circle
3872 3464 Circle
3879 3469 Circle
3885 3473 Circle
3892 3478 Circle
3898 3482 Circle
3905 3486 Circle
3912 3491 Circle
3918 3495 Circle
3925 3500 Circle
3932 3504 Circle
3938 3508 Circle
3945 3513 Circle
3952 3517 Circle
3958 3522 Circle
3965 3526 Circle
3972 3531 Circle
3978 3535 Circle
3985 3540 Circle
3992 3544 Circle
3998 3549 Circle
4005 3553 Circle
4012 3558 Circle
4018 3562 Circle
4025 3567 Circle
4032 3571 Circle
4038 3576 Circle
4045 3580 Circle
4052 3585 Circle
4058 3589 Circle
4065 3594 Circle
4072 3598 Circle
4078 3603 Circle
4085 3608 Circle
4092 3612 Circle
4098 3617 Circle
4105 3621 Circle
4112 3626 Circle
4118 3631 Circle
4125 3635 Circle
4132 3640 Circle
4138 3645 Circle
4145 3649 Circle
4152 3654 Circle
4158 3659 Circle
4165 3663 Circle
4171 3668 Circle
4178 3673 Circle
4185 3677 Circle
4191 3682 Circle
4198 3687 Circle
4205 3692 Circle
4211 3696 Circle
4218 3701 Circle
4225 3706 Circle
4231 3711 Circle
4238 3715 Circle
4245 3720 Circle
4251 3725 Circle
4258 3730 Circle
4265 3735 Circle
4271 3740 Circle
4278 3744 Circle
4285 3749 Circle
4291 3754 Circle
4298 3759 Circle
4305 3764 Circle
4311 3769 Circle
4318 3774 Circle
4325 3779 Circle
4331 3784 Circle
4338 3789 Circle
4345 3794 Circle
4351 3799 Circle
4358 3803 Circle
4365 3809 Circle
4371 3813 Circle
4378 3819 Circle
4385 3824 Circle
4391 3829 Circle
4398 3834 Circle
4405 3839 Circle
4411 3844 Circle
4418 3849 Circle
4425 3854 Circle
4431 3859 Circle
4438 3864 Circle
4445 3869 Circle
4451 3875 Circle
4458 3880 Circle
4464 3885 Circle
4471 3890 Circle
4478 3895 Circle
4484 3901 Circle
4491 3906 Circle
4498 3911 Circle
4504 3916 Circle
4511 3922 Circle
4518 3927 Circle
4524 3932 Circle
4531 3938 Circle
4538 3943 Circle
4544 3948 Circle
4551 3954 Circle
4558 3959 Circle
4564 3964 Circle
4571 3970 Circle
4578 3975 Circle
4584 3981 Circle
4591 3986 Circle
4598 3992 Circle
4604 3997 Circle
4611 4003 Circle
4618 4008 Circle
4624 4014 Circle
4631 4019 Circle
4638 4025 Circle
4644 4030 Circle
4651 4036 Circle
4658 4042 Circle
4664 4047 Circle
4671 4053 Circle
4678 4058 Circle
4684 4064 Circle
4691 4070 Circle
4698 4075 Circle
4704 4081 Circle
4711 4087 Circle
4718 4093 Circle
4724 4098 Circle
4731 4104 Circle
4737 4110 Circle
4744 4116 Circle
4751 4122 Circle
4757 4127 Circle
4764 4133 Circle
4771 4139 Circle
4777 4145 Circle
4784 4151 Circle
4791 4157 Circle
4797 4163 Circle
4804 4169 Circle
4811 4175 Circle
4817 4181 Circle
4824 4187 Circle
4831 4193 Circle
4837 4199 Circle
4844 4205 Circle
4851 4211 Circle
4857 4217 Circle
4864 4223 Circle
4871 4229 Circle
4877 4235 Circle
4884 4242 Circle
4891 4248 Circle
4897 4254 Circle
4904 4260 Circle
4911 4267 Circle
4917 4273 Circle
4924 4279 Circle
4931 4285 Circle
4937 4292 Circle
4944 4298 Circle
4951 4304 Circle
4957 4311 Circle
4964 4317 Circle
4971 4323 Circle
4977 4330 Circle
4984 4336 Circle
4991 4343 Circle
4997 4349 Circle
5004 4356 Circle
5011 4362 Circle
5017 4369 Circle
5024 4375 Circle
5030 4382 Circle
5037 4389 Circle
5044 4395 Circle
5050 4402 Circle
5057 4409 Circle
5064 4415 Circle
5070 4422 Circle
5077 4429 Circle
5084 4435 Circle
5090 4442 Circle
5097 4449 Circle
5104 4456 Circle
5110 4463 Circle
5117 4469 Circle
5124 4476 Circle
5130 4483 Circle
5137 4490 Circle
5144 4497 Circle
5150 4504 Circle
5157 4511 Circle
5164 4518 Circle
5170 4525 Circle
5177 4532 Circle
5184 4539 Circle
5190 4546 Circle
5197 4553 Circle
5204 4560 Circle
5210 4567 Circle
5217 4575 Circle
5224 4582 Circle
5230 4589 Circle
5237 4596 Circle
5244 4603 Circle
5250 4611 Circle
5257 4618 Circle
5264 4625 Circle
5270 4633 Circle
5277 4640 Circle
5284 4647 Circle
5290 4655 Circle
5297 4662 Circle
5304 4670 Circle
5310 4677 Circle
5317 4684 Circle
5323 4692 Circle
5330 4700 Circle
5337 4707 Circle
5343 4715 Circle
5350 4722 Circle
5357 4730 Circle
5363 4738 Circle
5370 4745 Circle
5377 4753 Circle
5383 4761 Circle
5390 4768 Circle
5397 4776 Circle
5403 4784 Circle
5410 4792 Circle
5417 4800 Circle
5423 4807 Circle
5430 4815 Circle
% End plot #4
% Begin plot #5
2.000 UP
1.000 UL
LTb
0.33 0.42 0.18 C LCb setrgbcolor
6272 1438 M
[ [(Helvetica) 150.0 0.0 true true 0 (Canal S=1 M=0 I=0)]
] -50.0 MRshow
2.000 UP
1.000 UL
LTb
0.33 0.42 0.18 C 6573 1438 CircleF
% End plot #5
% Begin plot #6
0.250 UP
1.000 UL
LTb
0.33 0.42 0.18 C 2886 3952 Circle
2893 3748 Circle
2900 3618 Circle
2906 3524 Circle
2913 3452 Circle
2920 3394 Circle
2926 3347 Circle
2933 3308 Circle
2940 3276 Circle
2946 3249 Circle
2953 3226 Circle
2960 3207 Circle
2966 3191 Circle
2973 3178 Circle
2980 3168 Circle
2986 3160 Circle
2993 3154 Circle
3000 3150 Circle
3006 3147 Circle
3013 3147 Circle
3020 3147 Circle
3026 3150 Circle
3033 3153 Circle
3039 3158 Circle
3046 3164 Circle
3053 3172 Circle
3059 3181 Circle
3066 3191 Circle
3073 3204 Circle
3079 3218 Circle
3086 3230 Circle
3093 3241 Circle
3099 3250 Circle
3106 3259 Circle
3113 3268 Circle
3119 3276 Circle
3126 3283 Circle
3133 3290 Circle
3139 3296 Circle
3146 3302 Circle
3153 3308 Circle
3159 3314 Circle
3166 3319 Circle
3173 3324 Circle
3179 3328 Circle
3186 3333 Circle
3193 3337 Circle
3199 3341 Circle
3206 3344 Circle
3213 3348 Circle
3219 3351 Circle
3226 3354 Circle
3233 3357 Circle
3239 3360 Circle
3246 3363 Circle
3253 3365 Circle
3259 3368 Circle
3266 3370 Circle
3273 3372 Circle
3279 3374 Circle
3286 3376 Circle
3293 3378 Circle
3299 3380 Circle
3306 3382 Circle
3312 3383 Circle
3319 3385 Circle
3326 3386 Circle
3332 3387 Circle
3339 3389 Circle
3346 3390 Circle
3352 3391 Circle
3359 3392 Circle
3366 3393 Circle
3372 3394 Circle
3379 3395 Circle
3386 3396 Circle
3392 3396 Circle
3399 3397 Circle
3406 3398 Circle
3412 3398 Circle
3419 3399 Circle
3426 3400 Circle
3432 3400 Circle
3439 3401 Circle
3446 3401 Circle
3452 3402 Circle
3459 3402 Circle
3466 3402 Circle
3472 3403 Circle
3479 3403 Circle
3486 3403 Circle
3492 3404 Circle
3499 3404 Circle
3506 3404 Circle
3512 3404 Circle
3519 3404 Circle
3526 3405 Circle
3532 3405 Circle
3539 3405 Circle
3546 3405 Circle
3552 3405 Circle
3559 3405 Circle
3566 3405 Circle
3572 3405 Circle
3579 3405 Circle
3586 3405 Circle
3592 3406 Circle
3599 3406 Circle
3605 3406 Circle
3612 3406 Circle
3619 3406 Circle
3625 3406 Circle
3632 3406 Circle
3639 3406 Circle
3645 3406 Circle
3652 3406 Circle
3659 3406 Circle
3665 3406 Circle
3672 3406 Circle
3679 3406 Circle
3685 3406 Circle
3692 3406 Circle
3699 3406 Circle
3705 3406 Circle
3712 3405 Circle
3719 3405 Circle
3725 3405 Circle
3732 3405 Circle
3739 3405 Circle
3745 3405 Circle
3752 3405 Circle
3759 3405 Circle
3765 3405 Circle
3772 3405 Circle
3779 3405 Circle
3785 3405 Circle
3792 3405 Circle
3799 3405 Circle
3805 3405 Circle
3812 3405 Circle
3819 3405 Circle
3825 3405 Circle
3832 3405 Circle
3839 3405 Circle
3845 3405 Circle
3852 3405 Circle
3859 3406 Circle
3865 3406 Circle
3872 3406 Circle
3879 3406 Circle
3885 3406 Circle
3892 3406 Circle
3898 3406 Circle
3905 3406 Circle
3912 3406 Circle
3918 3406 Circle
3925 3406 Circle
3932 3406 Circle
3938 3406 Circle
3945 3407 Circle
3952 3407 Circle
3958 3407 Circle
3965 3407 Circle
3972 3407 Circle
3978 3407 Circle
3985 3407 Circle
3992 3408 Circle
3998 3408 Circle
4005 3408 Circle
4012 3408 Circle
4018 3408 Circle
4025 3408 Circle
4032 3409 Circle
4038 3409 Circle
4045 3409 Circle
4052 3409 Circle
4058 3409 Circle
4065 3410 Circle
4072 3410 Circle
4078 3410 Circle
4085 3410 Circle
4092 3411 Circle
4098 3411 Circle
4105 3411 Circle
4112 3412 Circle
4118 3412 Circle
4125 3412 Circle
4132 3412 Circle
4138 3413 Circle
4145 3413 Circle
4152 3413 Circle
4158 3414 Circle
4165 3414 Circle
4171 3414 Circle
4178 3415 Circle
4185 3415 Circle
4191 3416 Circle
4198 3416 Circle
4205 3416 Circle
4211 3417 Circle
4218 3417 Circle
4225 3418 Circle
4231 3418 Circle
4238 3418 Circle
4245 3419 Circle
4251 3419 Circle
4258 3420 Circle
4265 3420 Circle
4271 3421 Circle
4278 3421 Circle
4285 3422 Circle
4291 3422 Circle
4298 3423 Circle
4305 3423 Circle
4311 3424 Circle
4318 3424 Circle
4325 3425 Circle
4331 3425 Circle
4338 3426 Circle
4345 3426 Circle
4351 3427 Circle
4358 3427 Circle
4365 3428 Circle
4371 3429 Circle
4378 3429 Circle
4385 3430 Circle
4391 3430 Circle
4398 3431 Circle
4405 3432 Circle
4411 3432 Circle
4418 3433 Circle
4425 3434 Circle
4431 3434 Circle
4438 3435 Circle
4445 3436 Circle
4451 3436 Circle
4458 3437 Circle
4464 3438 Circle
4471 3438 Circle
4478 3439 Circle
4484 3440 Circle
4491 3440 Circle
4498 3441 Circle
4504 3442 Circle
4511 3443 Circle
4518 3443 Circle
4524 3444 Circle
4531 3445 Circle
4538 3446 Circle
4544 3446 Circle
4551 3447 Circle
4558 3448 Circle
4564 3449 Circle
4571 3450 Circle
4578 3450 Circle
4584 3451 Circle
4591 3452 Circle
4598 3453 Circle
4604 3454 Circle
4611 3455 Circle
4618 3456 Circle
4624 3456 Circle
4631 3457 Circle
4638 3458 Circle
4644 3459 Circle
4651 3460 Circle
4658 3461 Circle
4664 3462 Circle
4671 3463 Circle
4678 3464 Circle
4684 3465 Circle
4691 3466 Circle
4698 3466 Circle
4704 3467 Circle
4711 3468 Circle
4718 3469 Circle
4724 3470 Circle
4731 3471 Circle
4737 3472 Circle
4744 3473 Circle
4751 3474 Circle
4757 3475 Circle
4764 3476 Circle
4771 3477 Circle
4777 3479 Circle
4784 3480 Circle
4791 3481 Circle
4797 3482 Circle
4804 3483 Circle
4811 3484 Circle
4817 3485 Circle
4824 3486 Circle
4831 3487 Circle
4837 3488 Circle
4844 3489 Circle
4851 3490 Circle
4857 3492 Circle
4864 3493 Circle
4871 3494 Circle
4877 3495 Circle
4884 3496 Circle
4891 3497 Circle
4897 3499 Circle
4904 3500 Circle
4911 3501 Circle
4917 3502 Circle
4924 3503 Circle
4931 3504 Circle
4937 3506 Circle
4944 3507 Circle
4951 3508 Circle
4957 3509 Circle
4964 3511 Circle
4971 3512 Circle
4977 3513 Circle
4984 3514 Circle
4991 3516 Circle
4997 3517 Circle
5004 3518 Circle
5011 3520 Circle
5017 3521 Circle
5024 3522 Circle
5030 3524 Circle
5037 3525 Circle
5044 3526 Circle
5050 3527 Circle
5057 3529 Circle
5064 3530 Circle
5070 3532 Circle
5077 3533 Circle
5084 3534 Circle
5090 3536 Circle
5097 3537 Circle
5104 3538 Circle
5110 3540 Circle
5117 3541 Circle
5124 3543 Circle
5130 3544 Circle
5137 3546 Circle
5144 3547 Circle
5150 3548 Circle
5157 3550 Circle
5164 3551 Circle
5170 3553 Circle
5177 3554 Circle
5184 3556 Circle
5190 3557 Circle
5197 3559 Circle
5204 3560 Circle
5210 3562 Circle
5217 3563 Circle
5224 3565 Circle
5230 3566 Circle
5237 3568 Circle
5244 3569 Circle
5250 3571 Circle
5257 3572 Circle
5264 3574 Circle
5270 3576 Circle
5277 3577 Circle
5284 3579 Circle
5290 3580 Circle
5297 3582 Circle
5304 3584 Circle
5310 3585 Circle
5317 3587 Circle
5323 3589 Circle
5330 3590 Circle
5337 3592 Circle
5343 3593 Circle
5350 3595 Circle
5357 3597 Circle
5363 3598 Circle
5370 3600 Circle
5377 3602 Circle
5383 3603 Circle
5390 3605 Circle
5397 3607 Circle
5403 3609 Circle
5410 3610 Circle
5417 3612 Circle
5423 3614 Circle
5430 3616 Circle
5437 3617 Circle
5443 3619 Circle
5450 3621 Circle
5457 3623 Circle
5463 3624 Circle
5470 3626 Circle
5477 3628 Circle
5483 3630 Circle
5490 3632 Circle
5497 3633 Circle
5503 3635 Circle
5510 3637 Circle
5517 3639 Circle
5523 3641 Circle
5530 3643 Circle
5537 3644 Circle
5543 3646 Circle
5550 3648 Circle
5557 3650 Circle
5563 3652 Circle
5570 3654 Circle
5577 3656 Circle
5583 3658 Circle
5590 3660 Circle
5596 3662 Circle
5603 3663 Circle
5610 3665 Circle
5616 3667 Circle
5623 3669 Circle
5630 3671 Circle
5636 3673 Circle
5643 3675 Circle
5650 3677 Circle
5656 3679 Circle
5663 3681 Circle
5670 3683 Circle
5676 3685 Circle
5683 3687 Circle
5690 3689 Circle
5696 3691 Circle
5703 3693 Circle
5710 3695 Circle
5716 3697 Circle
5723 3700 Circle
5730 3702 Circle
5736 3704 Circle
5743 3706 Circle
5750 3708 Circle
5756 3710 Circle
5763 3712 Circle
5770 3714 Circle
5776 3716 Circle
5783 3718 Circle
5790 3721 Circle
5796 3723 Circle
5803 3725 Circle
5810 3727 Circle
5816 3729 Circle
5823 3731 Circle
5830 3734 Circle
5836 3736 Circle
5843 3738 Circle
5850 3740 Circle
5856 3742 Circle
5863 3745 Circle
5870 3747 Circle
5876 3749 Circle
5883 3751 Circle
5889 3754 Circle
5896 3756 Circle
5903 3758 Circle
5909 3760 Circle
5916 3763 Circle
5923 3765 Circle
5929 3767 Circle
5936 3769 Circle
5943 3772 Circle
5949 3774 Circle
5956 3776 Circle
5963 3779 Circle
5969 3781 Circle
5976 3784 Circle
5983 3786 Circle
5989 3788 Circle
5996 3791 Circle
6003 3793 Circle
6009 3795 Circle
6016 3798 Circle
6023 3800 Circle
6029 3803 Circle
6036 3805 Circle
6043 3807 Circle
6049 3810 Circle
6056 3812 Circle
6063 3815 Circle
6069 3817 Circle
6076 3820 Circle
6083 3822 Circle
6089 3825 Circle
6096 3827 Circle
6103 3830 Circle
6109 3832 Circle
6116 3835 Circle
6123 3837 Circle
6129 3840 Circle
6136 3842 Circle
6143 3845 Circle
6149 3847 Circle
6156 3850 Circle
6162 3853 Circle
6169 3855 Circle
6176 3858 Circle
6182 3860 Circle
6189 3863 Circle
6196 3866 Circle
6202 3868 Circle
6209 3871 Circle
6216 3873 Circle
6222 3876 Circle
6229 3879 Circle
6236 3881 Circle
6242 3884 Circle
6249 3887 Circle
6256 3889 Circle
6262 3892 Circle
6269 3895 Circle
6276 3897 Circle
6282 3900 Circle
6289 3903 Circle
6296 3906 Circle
6302 3908 Circle
6309 3911 Circle
6316 3914 Circle
6322 3917 Circle
6329 3919 Circle
6336 3922 Circle
6342 3925 Circle
6349 3928 Circle
6356 3931 Circle
6362 3933 Circle
6369 3936 Circle
6376 3939 Circle
6382 3942 Circle
6389 3945 Circle
6396 3948 Circle
6402 3950 Circle
6409 3953 Circle
6416 3956 Circle
6422 3959 Circle
6429 3962 Circle
6436 3965 Circle
6442 3968 Circle
6449 3971 Circle
6455 3974 Circle
6462 3977 Circle
6469 3980 Circle
6475 3983 Circle
6482 3986 Circle
6489 3989 Circle
6495 3991 Circle
6502 3994 Circle
6509 3997 Circle
6515 4000 Circle
6522 4003 Circle
6529 4007 Circle
6535 4010 Circle
6542 4013 Circle
6549 4016 Circle
6555 4019 Circle
6562 4022 Circle
6569 4025 Circle
6575 4028 Circle
6582 4031 Circle
6589 4034 Circle
6595 4037 Circle
6602 4040 Circle
6609 4044 Circle
6615 4047 Circle
6622 4050 Circle
6629 4053 Circle
6635 4056 Circle
6642 4059 Circle
6649 4063 Circle
6655 4066 Circle
6662 4069 Circle
6669 4072 Circle
6675 4075 Circle
6682 4079 Circle
6689 4082 Circle
6695 4085 Circle
6702 4088 Circle
6709 4092 Circle
6715 4095 Circle
6722 4098 Circle
6729 4101 Circle
6735 4105 Circle
6742 4108 Circle
6748 4111 Circle
6755 4115 Circle
6762 4118 Circle
6768 4121 Circle
6775 4125 Circle
6782 4128 Circle
6788 4131 Circle
6795 4135 Circle
6802 4138 Circle
6808 4142 Circle
6815 4145 Circle
6822 4148 Circle
6828 4152 Circle
6835 4155 Circle
6842 4159 Circle
6848 4162 Circle
6855 4166 Circle
6862 4169 Circle
6868 4173 Circle
6875 4176 Circle
% End plot #6
% Begin plot #7
2.000 UP
1.000 UL
LTb
0.00 0.00 0.55 C LCb setrgbcolor
6272 1288 M
[ [(Helvetica) 150.0 0.0 true true 0 (Canal S=1 M=0 I=1)]
] -50.0 MRshow
2.000 UP
1.000 UL
LTb
0.00 0.00 0.55 C 6573 1288 CircleF
% End plot #7
% Begin plot #8
0.250 UP
1.000 UL
LTb
0.00 0.00 0.55 C 889 3508 Circle
895 3508 Circle
902 3508 Circle
909 3508 Circle
915 3509 Circle
922 3509 Circle
929 3509 Circle
935 3509 Circle
942 3509 Circle
949 3509 Circle
955 3509 Circle
962 3509 Circle
969 3509 Circle
975 3510 Circle
982 3510 Circle
989 3510 Circle
995 3510 Circle
1002 3510 Circle
1009 3511 Circle
1015 3511 Circle
1022 3511 Circle
1028 3511 Circle
1035 3512 Circle
1042 3512 Circle
1048 3512 Circle
1055 3513 Circle
1062 3513 Circle
1068 3513 Circle
1075 3514 Circle
1082 3514 Circle
1088 3514 Circle
1095 3515 Circle
1102 3515 Circle
1108 3516 Circle
1115 3516 Circle
1122 3516 Circle
1128 3517 Circle
1135 3517 Circle
1142 3518 Circle
1148 3518 Circle
1155 3519 Circle
1162 3519 Circle
1168 3520 Circle
1175 3521 Circle
1182 3521 Circle
1188 3522 Circle
1195 3522 Circle
1202 3523 Circle
1208 3523 Circle
1215 3524 Circle
1222 3525 Circle
1228 3525 Circle
1235 3526 Circle
1242 3527 Circle
1248 3527 Circle
1255 3528 Circle
1262 3529 Circle
1268 3530 Circle
1275 3530 Circle
1282 3531 Circle
1288 3532 Circle
1295 3533 Circle
1302 3534 Circle
1308 3534 Circle
1315 3535 Circle
1321 3536 Circle
1328 3537 Circle
1335 3538 Circle
1341 3539 Circle
1348 3540 Circle
1355 3541 Circle
1361 3542 Circle
1368 3543 Circle
1375 3544 Circle
1381 3545 Circle
1388 3546 Circle
1395 3547 Circle
1401 3548 Circle
1408 3549 Circle
1415 3550 Circle
1421 3551 Circle
1428 3552 Circle
1435 3553 Circle
1441 3554 Circle
1448 3556 Circle
1455 3557 Circle
1461 3558 Circle
1468 3559 Circle
1475 3560 Circle
1481 3562 Circle
1488 3563 Circle
1495 3564 Circle
1501 3565 Circle
1508 3567 Circle
1515 3568 Circle
1521 3570 Circle
1528 3571 Circle
1535 3572 Circle
1541 3574 Circle
1548 3575 Circle
1555 3577 Circle
1561 3578 Circle
1568 3580 Circle
1575 3581 Circle
1581 3583 Circle
1588 3584 Circle
1595 3586 Circle
1601 3587 Circle
1608 3589 Circle
1614 3590 Circle
1621 3592 Circle
1628 3594 Circle
1634 3595 Circle
1641 3597 Circle
1648 3599 Circle
1654 3601 Circle
1661 3602 Circle
1668 3604 Circle
1674 3606 Circle
1681 3608 Circle
1688 3610 Circle
1694 3611 Circle
1701 3613 Circle
1708 3615 Circle
1714 3617 Circle
1721 3619 Circle
1728 3621 Circle
1734 3623 Circle
1741 3625 Circle
1748 3627 Circle
1754 3629 Circle
1761 3631 Circle
1768 3633 Circle
1774 3636 Circle
1781 3638 Circle
1788 3640 Circle
1794 3642 Circle
1801 3644 Circle
1808 3646 Circle
1814 3649 Circle
1821 3651 Circle
1828 3653 Circle
1834 3656 Circle
1841 3658 Circle
1848 3660 Circle
1854 3663 Circle
1861 3665 Circle
1868 3668 Circle
1874 3670 Circle
1881 3673 Circle
1887 3675 Circle
1894 3678 Circle
1901 3680 Circle
1907 3683 Circle
1914 3686 Circle
1921 3688 Circle
1927 3691 Circle
1934 3694 Circle
1941 3697 Circle
1947 3699 Circle
1954 3702 Circle
1961 3705 Circle
1967 3708 Circle
1974 3711 Circle
1981 3714 Circle
1987 3717 Circle
1994 3720 Circle
2001 3723 Circle
2007 3726 Circle
2014 3729 Circle
2021 3732 Circle
2027 3735 Circle
2034 3738 Circle
2041 3741 Circle
2047 3744 Circle
2054 3748 Circle
2061 3751 Circle
2067 3754 Circle
2074 3758 Circle
2081 3761 Circle
2087 3764 Circle
2094 3768 Circle
2101 3771 Circle
2107 3775 Circle
2114 3778 Circle
2121 3782 Circle
2127 3785 Circle
2134 3789 Circle
2141 3793 Circle
2147 3796 Circle
2154 3800 Circle
2161 3804 Circle
2167 3807 Circle
2174 3811 Circle
2180 3815 Circle
2187 3819 Circle
2194 3823 Circle
2200 3827 Circle
2207 3831 Circle
2214 3835 Circle
2220 3839 Circle
2227 3843 Circle
2234 3847 Circle
2240 3851 Circle
2247 3855 Circle
2254 3860 Circle
2260 3864 Circle
2267 3868 Circle
2274 3873 Circle
2280 3877 Circle
2287 3881 Circle
2294 3886 Circle
2300 3890 Circle
2307 3895 Circle
2314 3899 Circle
2320 3904 Circle
2327 3909 Circle
2334 3913 Circle
2340 3918 Circle
2347 3923 Circle
2354 3928 Circle
2360 3932 Circle
2367 3937 Circle
2374 3942 Circle
2380 3947 Circle
2387 3952 Circle
2394 3957 Circle
2400 3962 Circle
2407 3967 Circle
2414 3973 Circle
2420 3978 Circle
2427 3983 Circle
2434 3988 Circle
2440 3994 Circle
2447 3999 Circle
2453 4004 Circle
2460 4010 Circle
2467 4015 Circle
2473 4021 Circle
2480 4026 Circle
2487 4032 Circle
2493 4038 Circle
2500 4043 Circle
2507 4049 Circle
2513 4055 Circle
2520 4061 Circle
2527 4067 Circle
2533 4073 Circle
2540 4079 Circle
2547 4085 Circle
2553 4091 Circle
2560 4097 Circle
2567 4103 Circle
2573 4109 Circle
2580 4115 Circle
2587 4122 Circle
2593 4128 Circle
2600 4134 Circle
2607 4141 Circle
2613 4147 Circle
2620 4154 Circle
2627 4160 Circle
2633 4167 Circle
2640 4174 Circle
2647 4180 Circle
2653 4187 Circle
2660 4194 Circle
2667 4201 Circle
2673 4208 Circle
2680 4215 Circle
2687 4222 Circle
2693 4229 Circle
2700 4236 Circle
2707 4243 Circle
2713 4251 Circle
2720 4258 Circle
2727 4265 Circle
2733 4273 Circle
2740 4280 Circle
2746 4287 Circle
2753 4295 Circle
2760 4303 Circle
2766 4310 Circle
2773 4318 Circle
2780 4326 Circle
2786 4333 Circle
2793 4341 Circle
2800 4349 Circle
2806 4357 Circle
2813 4365 Circle
2820 4373 Circle
2826 4381 Circle
2833 4390 Circle
2840 4398 Circle
2846 4406 Circle
2853 4415 Circle
2860 4423 Circle
2866 4431 Circle
2873 4440 Circle
2880 4449 Circle
2886 4457 Circle
2893 4466 Circle
2900 4475 Circle
2906 4483 Circle
2913 4492 Circle
2920 4501 Circle
2926 4510 Circle
2933 4519 Circle
2940 4528 Circle
2946 4537 Circle
2953 4547 Circle
2960 4556 Circle
2966 4565 Circle
2973 4575 Circle
2980 4584 Circle
2986 4593 Circle
2993 4603 Circle
3000 4613 Circle
3006 4622 Circle
3013 4632 Circle
3020 4642 Circle
3026 4652 Circle
3033 4662 Circle
3039 4672 Circle
3046 4682 Circle
3053 4692 Circle
3059 4702 Circle
3066 4712 Circle
3073 4722 Circle
3079 4733 Circle
3086 4743 Circle
3093 4754 Circle
3099 4764 Circle
3106 4775 Circle
3113 4786 Circle
3119 4796 Circle
3126 4807 Circle
3133 4818 Circle
% End plot #8
% Begin plot #9
2.000 UP
1.000 UL
LTb
1.00 0.55 0.00 C LCb setrgbcolor
6272 1138 M
[ [(Helvetica) 150.0 0.0 true true 0 (Canal S=1 M=1 I=0)]
] -50.0 MRshow
2.000 UP
1.000 UL
LTb
1.00 0.55 0.00 C 6573 1138 CircleF
% End plot #9
% Begin plot #10
0.250 UP
1.000 UL
LTb
1.00 0.55 0.00 C 2300 4785 Circle
2307 4732 Circle
2314 4679 Circle
2320 4628 Circle
2327 4577 Circle
2334 4527 Circle
2340 4477 Circle
2347 4429 Circle
2354 4381 Circle
2360 4334 Circle
2367 4287 Circle
2374 4241 Circle
2380 4196 Circle
2387 4152 Circle
2394 4108 Circle
2400 4065 Circle
2407 4022 Circle
2414 3981 Circle
2420 3939 Circle
2427 3899 Circle
2434 3859 Circle
2440 3820 Circle
2447 3782 Circle
2453 3744 Circle
2460 3706 Circle
2467 3670 Circle
2473 3634 Circle
2480 3599 Circle
2487 3564 Circle
2493 3530 Circle
2500 3497 Circle
2507 3464 Circle
2513 3432 Circle
2520 3400 Circle
2527 3370 Circle
2533 3340 Circle
2540 3310 Circle
2547 3281 Circle
2553 3253 Circle
2560 3226 Circle
2567 3199 Circle
2573 3173 Circle
2580 3147 Circle
2587 3122 Circle
2593 3098 Circle
2600 3075 Circle
2607 3052 Circle
2613 3030 Circle
2620 3009 Circle
2627 2988 Circle
2633 2968 Circle
2640 2949 Circle
2647 2930 Circle
2653 2912 Circle
2660 2895 Circle
2667 2878 Circle
2673 2862 Circle
2680 2847 Circle
2687 2833 Circle
2693 2819 Circle
2700 2806 Circle
2707 2793 Circle
2713 2782 Circle
2720 2771 Circle
2727 2760 Circle
2733 2751 Circle
2740 2742 Circle
2746 2733 Circle
2753 2725 Circle
2760 2718 Circle
2766 2712 Circle
2773 2706 Circle
2780 2701 Circle
2786 2696 Circle
2793 2693 Circle
2800 2689 Circle
2806 2687 Circle
2813 2685 Circle
2820 2683 Circle
2826 2683 Circle
2833 2682 Circle
2840 2683 Circle
2846 2684 Circle
2853 2686 Circle
2860 2688 Circle
2866 2691 Circle
2873 2695 Circle
2880 2699 Circle
2886 2704 Circle
2893 2709 Circle
2900 2716 Circle
2906 2723 Circle
2913 2730 Circle
2920 2739 Circle
2926 2749 Circle
2933 2761 Circle
2940 2773 Circle
2946 2783 Circle
2953 2792 Circle
2960 2801 Circle
2966 2809 Circle
2973 2817 Circle
2980 2824 Circle
2986 2831 Circle
2993 2838 Circle
3000 2845 Circle
3006 2851 Circle
3013 2857 Circle
3020 2863 Circle
3026 2869 Circle
3033 2875 Circle
3039 2880 Circle
3046 2885 Circle
3053 2891 Circle
3059 2896 Circle
3066 2900 Circle
3073 2905 Circle
3079 2910 Circle
3086 2914 Circle
3093 2919 Circle
3099 2923 Circle
3106 2927 Circle
3113 2931 Circle
3119 2935 Circle
3126 2939 Circle
3133 2943 Circle
3139 2946 Circle
3146 2950 Circle
3153 2954 Circle
3159 2957 Circle
3166 2960 Circle
3173 2964 Circle
3179 2967 Circle
3186 2970 Circle
3193 2973 Circle
3199 2976 Circle
3206 2979 Circle
3213 2982 Circle
3219 2985 Circle
3226 2988 Circle
3233 2991 Circle
3239 2994 Circle
3246 2996 Circle
3253 2999 Circle
3259 3001 Circle
3266 3004 Circle
3273 3007 Circle
3279 3009 Circle
3286 3011 Circle
3293 3014 Circle
3299 3016 Circle
3306 3018 Circle
3312 3021 Circle
3319 3023 Circle
3326 3025 Circle
3332 3027 Circle
3339 3029 Circle
3346 3031 Circle
3352 3033 Circle
3359 3035 Circle
3366 3037 Circle
3372 3039 Circle
3379 3041 Circle
3386 3043 Circle
3392 3045 Circle
3399 3047 Circle
3406 3049 Circle
3412 3051 Circle
3419 3052 Circle
3426 3054 Circle
3432 3056 Circle
3439 3058 Circle
3446 3059 Circle
3452 3061 Circle
3459 3063 Circle
3466 3064 Circle
3472 3066 Circle
3479 3068 Circle
3486 3069 Circle
3492 3071 Circle
3499 3072 Circle
3506 3074 Circle
3512 3075 Circle
3519 3077 Circle
3526 3078 Circle
3532 3080 Circle
3539 3081 Circle
3546 3083 Circle
3552 3084 Circle
3559 3086 Circle
3566 3087 Circle
3572 3089 Circle
3579 3090 Circle
3586 3091 Circle
3592 3093 Circle
3599 3094 Circle
3605 3095 Circle
3612 3097 Circle
3619 3098 Circle
3625 3099 Circle
3632 3101 Circle
3639 3102 Circle
3645 3103 Circle
3652 3104 Circle
3659 3106 Circle
3665 3107 Circle
3672 3108 Circle
3679 3110 Circle
3685 3111 Circle
3692 3112 Circle
3699 3113 Circle
3705 3114 Circle
3712 3116 Circle
3719 3117 Circle
3725 3118 Circle
3732 3119 Circle
3739 3121 Circle
3745 3122 Circle
3752 3123 Circle
3759 3124 Circle
3765 3125 Circle
3772 3126 Circle
3779 3128 Circle
3785 3129 Circle
3792 3130 Circle
3799 3131 Circle
3805 3132 Circle
3812 3133 Circle
3819 3135 Circle
3825 3136 Circle
3832 3137 Circle
3839 3138 Circle
3845 3139 Circle
3852 3140 Circle
3859 3141 Circle
3865 3143 Circle
3872 3144 Circle
3879 3145 Circle
3885 3146 Circle
3892 3147 Circle
3898 3148 Circle
3905 3149 Circle
3912 3150 Circle
3918 3152 Circle
3925 3153 Circle
3932 3154 Circle
3938 3155 Circle
3945 3156 Circle
3952 3157 Circle
3958 3158 Circle
3965 3159 Circle
3972 3160 Circle
3978 3162 Circle
3985 3163 Circle
3992 3164 Circle
3998 3165 Circle
4005 3166 Circle
4012 3167 Circle
4018 3168 Circle
4025 3169 Circle
4032 3170 Circle
4038 3172 Circle
4045 3173 Circle
4052 3174 Circle
4058 3175 Circle
4065 3176 Circle
4072 3177 Circle
4078 3178 Circle
4085 3179 Circle
4092 3180 Circle
4098 3182 Circle
4105 3183 Circle
4112 3184 Circle
4118 3185 Circle
4125 3186 Circle
4132 3187 Circle
4138 3188 Circle
4145 3189 Circle
4152 3191 Circle
4158 3192 Circle
4165 3193 Circle
4171 3194 Circle
4178 3195 Circle
4185 3196 Circle
4191 3197 Circle
4198 3199 Circle
4205 3200 Circle
4211 3201 Circle
4218 3202 Circle
4225 3203 Circle
4231 3204 Circle
4238 3205 Circle
4245 3207 Circle
4251 3208 Circle
4258 3209 Circle
4265 3210 Circle
4271 3211 Circle
4278 3212 Circle
4285 3214 Circle
4291 3215 Circle
4298 3216 Circle
4305 3217 Circle
4311 3218 Circle
4318 3219 Circle
4325 3221 Circle
4331 3222 Circle
4338 3223 Circle
4345 3224 Circle
4351 3225 Circle
4358 3227 Circle
4365 3228 Circle
4371 3229 Circle
4378 3230 Circle
4385 3232 Circle
4391 3233 Circle
4398 3234 Circle
4405 3235 Circle
4411 3236 Circle
4418 3238 Circle
4425 3239 Circle
4431 3240 Circle
4438 3241 Circle
4445 3242 Circle
4451 3244 Circle
4458 3245 Circle
4464 3246 Circle
4471 3248 Circle
4478 3249 Circle
4484 3250 Circle
4491 3251 Circle
4498 3253 Circle
4504 3254 Circle
4511 3255 Circle
4518 3256 Circle
4524 3258 Circle
4531 3259 Circle
4538 3260 Circle
4544 3262 Circle
4551 3263 Circle
4558 3264 Circle
4564 3265 Circle
4571 3267 Circle
4578 3268 Circle
4584 3269 Circle
4591 3271 Circle
4598 3272 Circle
4604 3273 Circle
4611 3275 Circle
4618 3276 Circle
4624 3277 Circle
4631 3279 Circle
4638 3280 Circle
4644 3281 Circle
4651 3283 Circle
4658 3284 Circle
4664 3286 Circle
4671 3287 Circle
4678 3288 Circle
4684 3290 Circle
4691 3291 Circle
4698 3292 Circle
4704 3294 Circle
4711 3295 Circle
4718 3297 Circle
4724 3298 Circle
4731 3299 Circle
4737 3301 Circle
4744 3302 Circle
4751 3304 Circle
4757 3305 Circle
4764 3306 Circle
4771 3308 Circle
4777 3309 Circle
4784 3311 Circle
4791 3312 Circle
4797 3314 Circle
4804 3315 Circle
4811 3317 Circle
4817 3318 Circle
4824 3319 Circle
4831 3321 Circle
4837 3322 Circle
4844 3324 Circle
4851 3325 Circle
4857 3327 Circle
4864 3328 Circle
4871 3330 Circle
4877 3331 Circle
4884 3333 Circle
4891 3334 Circle
4897 3336 Circle
4904 3337 Circle
4911 3339 Circle
4917 3340 Circle
4924 3342 Circle
4931 3344 Circle
4937 3345 Circle
4944 3347 Circle
4951 3348 Circle
4957 3350 Circle
4964 3351 Circle
4971 3353 Circle
4977 3354 Circle
4984 3356 Circle
4991 3357 Circle
4997 3359 Circle
5004 3361 Circle
5011 3362 Circle
5017 3364 Circle
5024 3365 Circle
5030 3367 Circle
5037 3369 Circle
5044 3370 Circle
5050 3372 Circle
5057 3374 Circle
5064 3375 Circle
5070 3377 Circle
5077 3378 Circle
5084 3380 Circle
5090 3382 Circle
5097 3383 Circle
5104 3385 Circle
5110 3387 Circle
5117 3388 Circle
5124 3390 Circle
5130 3392 Circle
5137 3394 Circle
5144 3395 Circle
5150 3397 Circle
5157 3399 Circle
5164 3400 Circle
5170 3402 Circle
5177 3404 Circle
5184 3405 Circle
5190 3407 Circle
5197 3409 Circle
5204 3411 Circle
5210 3412 Circle
5217 3414 Circle
5224 3416 Circle
5230 3418 Circle
5237 3419 Circle
5244 3421 Circle
5250 3423 Circle
5257 3425 Circle
5264 3427 Circle
5270 3428 Circle
5277 3430 Circle
5284 3432 Circle
5290 3434 Circle
5297 3436 Circle
5304 3437 Circle
5310 3439 Circle
5317 3441 Circle
5323 3443 Circle
5330 3445 Circle
5337 3447 Circle
5343 3448 Circle
5350 3450 Circle
5357 3452 Circle
5363 3454 Circle
5370 3456 Circle
5377 3458 Circle
5383 3460 Circle
5390 3461 Circle
5397 3463 Circle
5403 3465 Circle
5410 3467 Circle
5417 3469 Circle
5423 3471 Circle
5430 3473 Circle
5437 3475 Circle
5443 3477 Circle
5450 3479 Circle
5457 3481 Circle
5463 3483 Circle
5470 3485 Circle
5477 3487 Circle
5483 3488 Circle
5490 3490 Circle
5497 3492 Circle
5503 3494 Circle
5510 3496 Circle
5517 3498 Circle
5523 3500 Circle
5530 3502 Circle
5537 3504 Circle
5543 3506 Circle
5550 3508 Circle
5557 3510 Circle
5563 3513 Circle
5570 3515 Circle
5577 3517 Circle
5583 3519 Circle
5590 3521 Circle
5596 3523 Circle
5603 3525 Circle
5610 3527 Circle
5616 3529 Circle
5623 3531 Circle
5630 3533 Circle
5636 3535 Circle
5643 3537 Circle
5650 3540 Circle
5656 3542 Circle
5663 3544 Circle
5670 3546 Circle
5676 3548 Circle
5683 3550 Circle
5690 3552 Circle
5696 3554 Circle
5703 3557 Circle
5710 3559 Circle
5716 3561 Circle
5723 3563 Circle
5730 3565 Circle
5736 3568 Circle
5743 3570 Circle
5750 3572 Circle
5756 3574 Circle
5763 3576 Circle
5770 3578 Circle
5776 3581 Circle
5783 3583 Circle
5790 3585 Circle
5796 3587 Circle
5803 3590 Circle
5810 3592 Circle
5816 3594 Circle
5823 3597 Circle
5830 3599 Circle
5836 3601 Circle
5843 3603 Circle
5850 3606 Circle
5856 3608 Circle
5863 3610 Circle
5870 3613 Circle
5876 3615 Circle
5883 3617 Circle
5889 3620 Circle
5896 3622 Circle
5903 3624 Circle
5909 3627 Circle
5916 3629 Circle
5923 3631 Circle
5929 3634 Circle
5936 3636 Circle
5943 3638 Circle
5949 3641 Circle
5956 3643 Circle
5963 3646 Circle
5969 3648 Circle
5976 3650 Circle
5983 3653 Circle
5989 3655 Circle
5996 3658 Circle
6003 3660 Circle
6009 3663 Circle
6016 3665 Circle
6023 3668 Circle
6029 3670 Circle
6036 3673 Circle
6043 3675 Circle
6049 3678 Circle
6056 3680 Circle
6063 3683 Circle
6069 3685 Circle
6076 3688 Circle
6083 3690 Circle
6089 3693 Circle
6096 3695 Circle
6103 3698 Circle
6109 3700 Circle
6116 3703 Circle
6123 3705 Circle
6129 3708 Circle
6136 3711 Circle
6143 3713 Circle
6149 3716 Circle
6156 3718 Circle
6162 3721 Circle
6169 3724 Circle
6176 3726 Circle
6182 3729 Circle
6189 3731 Circle
6196 3734 Circle
6202 3737 Circle
6209 3739 Circle
6216 3742 Circle
6222 3745 Circle
6229 3747 Circle
6236 3750 Circle
6242 3753 Circle
6249 3755 Circle
6256 3758 Circle
6262 3761 Circle
6269 3764 Circle
6276 3766 Circle
6282 3769 Circle
6289 3772 Circle
6296 3775 Circle
6302 3777 Circle
6309 3780 Circle
6316 3783 Circle
6322 3786 Circle
6329 3788 Circle
6336 3791 Circle
6342 3794 Circle
6349 3797 Circle
6356 3800 Circle
6362 3803 Circle
6369 3805 Circle
6376 3808 Circle
6382 3811 Circle
6389 3814 Circle
6396 3817 Circle
6402 3820 Circle
6409 3823 Circle
6416 3825 Circle
6422 3828 Circle
6429 3831 Circle
6436 3834 Circle
6442 3837 Circle
6449 3840 Circle
6455 3843 Circle
6462 3846 Circle
6469 3849 Circle
6475 3852 Circle
6482 3855 Circle
6489 3858 Circle
6495 3861 Circle
6502 3864 Circle
6509 3867 Circle
6515 3870 Circle
6522 3873 Circle
6529 3876 Circle
6535 3879 Circle
6542 3882 Circle
6549 3885 Circle
6555 3888 Circle
6562 3891 Circle
6569 3894 Circle
6575 3897 Circle
6582 3900 Circle
6589 3903 Circle
6595 3906 Circle
6602 3909 Circle
6609 3912 Circle
6615 3915 Circle
6622 3919 Circle
6629 3922 Circle
6635 3925 Circle
6642 3928 Circle
6649 3931 Circle
6655 3934 Circle
6662 3938 Circle
6669 3941 Circle
6675 3944 Circle
6682 3947 Circle
6689 3950 Circle
6695 3953 Circle
6702 3957 Circle
6709 3960 Circle
6715 3963 Circle
6722 3966 Circle
6729 3970 Circle
6735 3973 Circle
6742 3976 Circle
6748 3980 Circle
6755 3983 Circle
6762 3986 Circle
6768 3989 Circle
6775 3993 Circle
6782 3996 Circle
6788 3999 Circle
6795 4003 Circle
6802 4006 Circle
6808 4009 Circle
6815 4013 Circle
6822 4016 Circle
6828 4019 Circle
6835 4023 Circle
6842 4026 Circle
6848 4030 Circle
6855 4033 Circle
6862 4037 Circle
6868 4040 Circle
6875 4043 Circle
% End plot #10
% Begin plot #11
2.000 UP
1.000 UL
LTb
0.00 0.55 0.55 C LCb setrgbcolor
6272 988 M
[ [(Helvetica) 150.0 0.0 true true 0 (Canal S=1 M=1 I=1)]
] -50.0 MRshow
2.000 UP
1.000 UL
LTb
0.00 0.55 0.55 C 6573 988 CircleF
% End plot #11
% Begin plot #12
0.250 UP
1.000 UL
LTb
0.00 0.55 0.55 C 889 3508 Circle
895 3508 Circle
902 3508 Circle
909 3508 Circle
915 3508 Circle
922 3508 Circle
929 3508 Circle
935 3509 Circle
942 3509 Circle
949 3509 Circle
955 3509 Circle
962 3509 Circle
969 3509 Circle
975 3509 Circle
982 3509 Circle
989 3509 Circle
995 3509 Circle
1002 3509 Circle
1009 3509 Circle
1015 3509 Circle
1022 3509 Circle
1028 3510 Circle
1035 3510 Circle
1042 3510 Circle
1048 3510 Circle
1055 3510 Circle
1062 3510 Circle
1068 3510 Circle
1075 3510 Circle
1082 3510 Circle
1088 3511 Circle
1095 3511 Circle
1102 3511 Circle
1108 3511 Circle
1115 3511 Circle
1122 3511 Circle
1128 3512 Circle
1135 3512 Circle
1142 3512 Circle
1148 3512 Circle
1155 3513 Circle
1162 3513 Circle
1168 3513 Circle
1175 3513 Circle
1182 3513 Circle
1188 3514 Circle
1195 3514 Circle
1202 3514 Circle
1208 3514 Circle
1215 3515 Circle
1222 3515 Circle
1228 3515 Circle
1235 3516 Circle
1242 3516 Circle
1248 3516 Circle
1255 3517 Circle
1262 3517 Circle
1268 3517 Circle
1275 3517 Circle
1282 3518 Circle
1288 3518 Circle
1295 3519 Circle
1302 3519 Circle
1308 3519 Circle
1315 3520 Circle
1321 3520 Circle
1328 3521 Circle
1335 3521 Circle
1341 3521 Circle
1348 3522 Circle
1355 3522 Circle
1361 3523 Circle
1368 3523 Circle
1375 3524 Circle
1381 3524 Circle
1388 3525 Circle
1395 3525 Circle
1401 3526 Circle
1408 3526 Circle
1415 3527 Circle
1421 3527 Circle
1428 3528 Circle
1435 3529 Circle
1441 3529 Circle
1448 3530 Circle
1455 3530 Circle
1461 3531 Circle
1468 3532 Circle
1475 3532 Circle
1481 3533 Circle
1488 3534 Circle
1495 3534 Circle
1501 3535 Circle
1508 3536 Circle
1515 3537 Circle
1521 3537 Circle
1528 3538 Circle
1535 3539 Circle
1541 3540 Circle
1548 3541 Circle
1555 3541 Circle
1561 3542 Circle
1568 3543 Circle
1575 3544 Circle
1581 3545 Circle
1588 3546 Circle
1595 3547 Circle
1601 3548 Circle
1608 3548 Circle
1614 3549 Circle
1621 3550 Circle
1628 3551 Circle
1634 3552 Circle
1641 3553 Circle
1648 3555 Circle
1654 3556 Circle
1661 3557 Circle
1668 3558 Circle
1674 3559 Circle
1681 3560 Circle
1688 3561 Circle
1694 3562 Circle
1701 3564 Circle
1708 3565 Circle
1714 3566 Circle
1721 3567 Circle
1728 3569 Circle
1734 3570 Circle
1741 3571 Circle
1748 3573 Circle
1754 3574 Circle
1761 3575 Circle
1768 3577 Circle
1774 3578 Circle
1781 3580 Circle
1788 3581 Circle
1794 3582 Circle
1801 3584 Circle
1808 3586 Circle
1814 3587 Circle
1821 3589 Circle
1828 3590 Circle
1834 3592 Circle
1841 3594 Circle
1848 3595 Circle
1854 3597 Circle
1861 3599 Circle
1868 3600 Circle
1874 3602 Circle
1881 3604 Circle
1887 3606 Circle
1894 3608 Circle
1901 3610 Circle
1907 3612 Circle
1914 3613 Circle
1921 3615 Circle
1927 3617 Circle
1934 3619 Circle
1941 3621 Circle
1947 3623 Circle
1954 3626 Circle
1961 3628 Circle
1967 3630 Circle
1974 3632 Circle
1981 3634 Circle
1987 3636 Circle
1994 3639 Circle
2001 3641 Circle
2007 3643 Circle
2014 3646 Circle
2021 3648 Circle
2027 3650 Circle
2034 3653 Circle
2041 3655 Circle
2047 3658 Circle
2054 3660 Circle
2061 3663 Circle
2067 3666 Circle
2074 3668 Circle
2081 3671 Circle
2087 3674 Circle
2094 3676 Circle
2101 3679 Circle
2107 3682 Circle
2114 3685 Circle
2121 3687 Circle
2127 3690 Circle
2134 3693 Circle
2141 3696 Circle
2147 3699 Circle
2154 3702 Circle
2161 3705 Circle
2167 3708 Circle
2174 3712 Circle
2180 3715 Circle
2187 3718 Circle
2194 3721 Circle
2200 3725 Circle
2207 3728 Circle
2214 3731 Circle
2220 3735 Circle
2227 3738 Circle
2234 3742 Circle
2240 3745 Circle
2247 3748 Circle
2254 3752 Circle
2260 3756 Circle
2267 3759 Circle
2274 3763 Circle
2280 3767 Circle
2287 3771 Circle
2294 3774 Circle
2300 3778 Circle
2307 3782 Circle
2314 3786 Circle
2320 3790 Circle
2327 3794 Circle
2334 3798 Circle
2340 3802 Circle
2347 3806 Circle
2354 3811 Circle
2360 3815 Circle
2367 3819 Circle
2374 3823 Circle
2380 3828 Circle
2387 3832 Circle
2394 3837 Circle
2400 3841 Circle
2407 3846 Circle
2414 3850 Circle
2420 3855 Circle
2427 3859 Circle
2434 3864 Circle
2440 3869 Circle
2447 3874 Circle
2453 3878 Circle
2460 3883 Circle
2467 3888 Circle
2473 3893 Circle
2480 3898 Circle
2487 3903 Circle
2493 3908 Circle
2500 3914 Circle
2507 3919 Circle
2513 3924 Circle
2520 3929 Circle
2527 3935 Circle
2533 3940 Circle
2540 3946 Circle
2547 3951 Circle
2553 3957 Circle
2560 3962 Circle
2567 3968 Circle
2573 3973 Circle
2580 3979 Circle
2587 3985 Circle
2593 3991 Circle
2600 3997 Circle
2607 4003 Circle
2613 4009 Circle
2620 4015 Circle
2627 4021 Circle
2633 4027 Circle
2640 4033 Circle
2647 4039 Circle
2653 4046 Circle
2660 4052 Circle
2667 4058 Circle
2673 4065 Circle
2680 4071 Circle
2687 4078 Circle
2693 4085 Circle
2700 4091 Circle
2707 4098 Circle
2713 4105 Circle
2720 4112 Circle
2727 4118 Circle
2733 4125 Circle
2740 4132 Circle
2746 4139 Circle
2753 4146 Circle
2760 4154 Circle
2766 4161 Circle
2773 4168 Circle
2780 4175 Circle
2786 4183 Circle
2793 4190 Circle
2800 4198 Circle
2806 4205 Circle
2813 4213 Circle
2820 4221 Circle
2826 4228 Circle
2833 4236 Circle
2840 4244 Circle
2846 4252 Circle
2853 4260 Circle
2860 4268 Circle
2866 4276 Circle
2873 4284 Circle
2880 4292 Circle
2886 4300 Circle
2893 4309 Circle
2900 4317 Circle
2906 4325 Circle
2913 4334 Circle
2920 4342 Circle
2926 4351 Circle
2933 4360 Circle
2940 4368 Circle
2946 4377 Circle
2953 4386 Circle
2960 4395 Circle
2966 4404 Circle
2973 4413 Circle
2980 4422 Circle
2986 4431 Circle
2993 4440 Circle
3000 4450 Circle
3006 4459 Circle
3013 4468 Circle
3020 4478 Circle
3026 4487 Circle
3033 4497 Circle
3039 4507 Circle
3046 4516 Circle
3053 4526 Circle
3059 4536 Circle
3066 4546 Circle
3073 4556 Circle
3079 4566 Circle
3086 4576 Circle
3093 4586 Circle
3099 4596 Circle
3106 4607 Circle
3113 4617 Circle
3119 4627 Circle
3126 4638 Circle
3133 4648 Circle
3139 4659 Circle
3146 4670 Circle
3153 4680 Circle
3159 4691 Circle
3166 4702 Circle
3173 4713 Circle
3179 4724 Circle
3186 4735 Circle
3193 4746 Circle
3199 4758 Circle
3206 4769 Circle
3213 4780 Circle
3219 4792 Circle
3226 4803 Circle
3233 4815 Circle
% End plot #12
% Begin plot #13
3.000 UL
LTb
LT2
0.34 0.71 0.91 C 882 2057 M
61 0 V
60 0 V
61 0 V
60 0 V
61 0 V
60 0 V
61 0 V
60 0 V
61 0 V
60 0 V
61 0 V
60 0 V
61 0 V
60 0 V
61 0 V
61 0 V
60 0 V
61 0 V
60 0 V
61 0 V
60 0 V
61 0 V
60 0 V
61 0 V
60 0 V
61 0 V
60 0 V
61 0 V
61 0 V
60 0 V
61 0 V
60 0 V
61 0 V
60 0 V
61 0 V
60 0 V
61 0 V
60 0 V
61 0 V
60 0 V
61 0 V
60 0 V
61 0 V
61 0 V
60 0 V
61 0 V
60 0 V
61 0 V
60 0 V
61 0 V
60 0 V
61 0 V
60 0 V
61 0 V
60 0 V
61 0 V
61 0 V
60 0 V
61 0 V
60 0 V
61 0 V
60 0 V
61 0 V
60 0 V
61 0 V
60 0 V
61 0 V
60 0 V
61 0 V
60 0 V
61 0 V
61 0 V
60 0 V
61 0 V
60 0 V
61 0 V
60 0 V
61 0 V
60 0 V
61 0 V
60 0 V
61 0 V
60 0 V
61 0 V
61 0 V
60 0 V
61 0 V
60 0 V
61 0 V
60 0 V
61 0 V
60 0 V
61 0 V
60 0 V
61 0 V
60 0 V
61 0 V
60 0 V
61 0 V
% End plot #13
% Begin plot #14
stroke
2.000 UL
LTb
LT1
0.00 0.45 0.70 C 882 2545 M
61 0 V
60 0 V
61 0 V
60 0 V
61 0 V
60 0 V
61 0 V
60 0 V
61 0 V
60 0 V
61 0 V
60 0 V
61 0 V
60 0 V
61 0 V
61 0 V
60 0 V
61 0 V
60 0 V
61 0 V
60 0 V
61 0 V
60 0 V
61 0 V
60 0 V
61 0 V
60 0 V
61 0 V
61 0 V
60 0 V
61 0 V
60 0 V
61 0 V
60 0 V
61 0 V
60 0 V
61 0 V
60 0 V
61 0 V
60 0 V
61 0 V
60 0 V
61 0 V
61 0 V
60 0 V
61 0 V
60 0 V
61 0 V
60 0 V
61 0 V
60 0 V
61 0 V
60 0 V
61 0 V
60 0 V
61 0 V
61 0 V
60 0 V
61 0 V
60 0 V
61 0 V
60 0 V
61 0 V
60 0 V
61 0 V
60 0 V
61 0 V
60 0 V
61 0 V
60 0 V
61 0 V
61 0 V
60 0 V
61 0 V
60 0 V
61 0 V
60 0 V
61 0 V
60 0 V
61 0 V
60 0 V
61 0 V
60 0 V
61 0 V
61 0 V
60 0 V
61 0 V
60 0 V
61 0 V
60 0 V
61 0 V
60 0 V
61 0 V
60 0 V
61 0 V
60 0 V
61 0 V
60 0 V
61 0 V
% End plot #14
stroke
LTb
LCb setrgbcolor
1.000 UP
LCb setrgbcolor
6209 4416 M
[ [(Helvetica) 180.0 0.0 true true 0 (SN2LO1)]
] -60.0 MCshow
1.000 UL
LTb
0.50 0.50 0.50 C stroke
grestore
end
showpage
%%Trailer
%%DocumentFonts: Symbol Helvetica
