\relax 
\catcode `:\active 
\catcode `;\active 
\catcode `!\active 
\catcode `?\active 
\select@language{french}
\@writefile{toc}{\select@language{french}}
\@writefile{lof}{\select@language{french}}
\@writefile{lot}{\select@language{french}}
\@writefile{toc}{\contentsline {section}{\numberline {1}The N4LO interaction}{1}}
\newlabel{V-four}{{1}{1}}
\newlabel{eq:teto}{{1}{1}}
\@writefile{toc}{\contentsline {section}{\numberline {2}Contribution aux diff\' erentes ondes}{2}}
\@writefile{toc}{\contentsline {subsection}{\numberline {2.1}Partie centrale}{2}}
\@writefile{toc}{\contentsline {subsection}{\numberline {2.2}Partie tensorielle}{3}}
\@writefile{toc}{\contentsline {subsection}{\numberline {2.3}Partie spin-orbite}{3}}
\@writefile{toc}{\contentsline {section}{\numberline {3}Densities, Fermi momenta, symmetry parameters}{3}}
\@writefile{toc}{\contentsline {section}{\numberline {4}The mother of all formulae}{4}}
\@writefile{toc}{\contentsline {section}{\numberline {5}Symmetric nuclear matter}{6}}
\@writefile{toc}{\contentsline {subsection}{\numberline {5.1}Equation d'\'etat}{6}}
\@writefile{toc}{\contentsline {subsection}{\numberline {5.2}Pression}{7}}
\@writefile{toc}{\contentsline {subsection}{\numberline {5.3}Incompressibilit\'e}{7}}
\@writefile{toc}{\contentsline {subsection}{\numberline {5.4}Coefficient de "skewness"}{7}}
\@writefile{toc}{\contentsline {subsection}{\numberline {5.5}Energie de sym\'etrie}{7}}
\@writefile{toc}{\contentsline {subsection}{\numberline {5.6}Autres coefficients}{8}}
\@writefile{toc}{\contentsline {section}{\numberline {6}Asymmetric nuclear matter}{8}}
\@writefile{toc}{\contentsline {subsection}{\numberline {6.1}Equation d'\'etat}{8}}
\@writefile{toc}{\contentsline {subsection}{\numberline {6.2}Pression}{10}}
\@writefile{toc}{\contentsline {subsection}{\numberline {6.3}Incompressibilit\' e}{11}}
\@writefile{toc}{\contentsline {subsection}{\numberline {6.4}Energie d'asym\'etrie}{11}}
\@writefile{toc}{\contentsline {section}{\numberline {7}Polarized asymmetric nuclear matter}{12}}
\@writefile{toc}{\contentsline {subsection}{\numberline {7.1}Energie d'asym\'etrie}{12}}
\@writefile{toc}{\contentsline {section}{\numberline {8}Spin polarized symmetric nuclear matter}{12}}
\@writefile{toc}{\contentsline {subsection}{\numberline {8.1}Equation d'\'etat}{12}}
\@writefile{toc}{\contentsline {subsection}{\numberline {8.2}Pression}{13}}
\@writefile{toc}{\contentsline {subsection}{\numberline {8.3}Incompressibilit\' e}{14}}
\@writefile{toc}{\contentsline {subsection}{\numberline {8.4}Energie d'asym\'etrie}{15}}
\@writefile{toc}{\contentsline {section}{\numberline {9}Fully spin-polarized symmetric nuclear matter}{15}}
\@writefile{toc}{\contentsline {subsection}{\numberline {9.1}Equation d'\'etat}{15}}
\@writefile{toc}{\contentsline {subsection}{\numberline {9.2}Pression}{16}}
\@writefile{toc}{\contentsline {subsection}{\numberline {9.3}Incompressibilit\' e}{16}}
\@writefile{toc}{\contentsline {section}{\numberline {10}Neutron matter}{16}}
\@writefile{toc}{\contentsline {subsection}{\numberline {10.1}Equation d'\'etat}{16}}
\@writefile{toc}{\contentsline {subsection}{\numberline {10.2}Pression}{16}}
\@writefile{toc}{\contentsline {subsection}{\numberline {10.3}Incompressibilit\' e}{16}}
\@writefile{toc}{\contentsline {section}{\numberline {11}Polarized neutron matter}{17}}
\@writefile{toc}{\contentsline {subsection}{\numberline {11.1}Equation d'\'etat}{17}}
\@writefile{toc}{\contentsline {subsection}{\numberline {11.2}Pression}{18}}
\@writefile{toc}{\contentsline {subsection}{\numberline {11.3}Incompressibilit\' e}{18}}
\@writefile{toc}{\contentsline {section}{\numberline {12}Fully spin polarized neutron matter}{18}}
\@writefile{toc}{\contentsline {subsection}{\numberline {12.1}Equation d'\'etat}{18}}
\@writefile{toc}{\contentsline {subsection}{\numberline {12.2}Pression}{18}}
\@writefile{toc}{\contentsline {subsection}{\numberline {12.3}Incompressibilit\' e}{18}}
\@writefile{toc}{\contentsline {subsection}{\numberline {12.4}In terms of Landau parameters}{18}}
\newlabel{f0-3}{{33}{18}}
\newlabel{Leq0}{{34}{18}}
\newlabel{Lgt0}{{35}{19}}
\newlabel{h0-2}{{36}{19}}
