%!PS-Adobe-3.0
%%BoundingBox: 0 0 612 792
%%LanguageLevel: 2
%%Creator: Grace-5.1.25
%%CreationDate: Tue Dec  1 15:18:29 2015
%%DocumentData: Clean8Bit
%%Orientation: Landscape
%%Pages: 1
%%PageOrder: Ascend
%%Title: deltas_nakada.agr
%%For: ap1450
%%DocumentNeededResources: (atend)
%%EndComments
%%BeginProlog
/PAGE_OFFSET_X 0 def
/PAGE_OFFSET_Y 0 def
/m {moveto} def
/l {lineto} def
/s {stroke} def
/n {newpath} def
/c {closepath} def
/RL {rlineto} def
/SLW {setlinewidth} def
/GS {gsave} def
/GR {grestore} def
/SC {setcolor} def
/SGRY {setgray} def
/SRGB {setrgbcolor} def
/SD {setdash} def
/SLC {setlinecap} def
/SLJ {setlinejoin} def
/SCS {setcolorspace} def
/FFSF {findfont setfont} def
/CC {concat} def
/PXL {n m 0 0 RL s} def
/Color0 {1.0000 1.0000 1.0000} def
/Color1 {0.0000 0.0000 0.0000} def
/Color2 {1.0000 0.0000 0.0000} def
/Color3 {0.0000 1.0000 0.0000} def
/Color4 {0.0000 0.0000 1.0000} def
/Color5 {1.0000 1.0000 0.0000} def
/Color6 {0.7373 0.5608 0.5608} def
/Color7 {0.8627 0.8627 0.8627} def
/Color8 {0.5804 0.0000 0.8275} def
/Color9 {0.0000 1.0000 1.0000} def
/Color10 {1.0000 0.0000 1.0000} def
/Color11 {1.0000 0.6471 0.0000} def
/Color12 {0.4471 0.1294 0.7373} def
/Color13 {0.4039 0.0275 0.2824} def
/Color14 {0.2510 0.8784 0.8157} def
/Color15 {0.0000 0.5451 0.0000} def
/Color16 {0.7529 0.7529 0.7529} def
/Color17 {0.5059 0.5059 0.5059} def
/Color18 {0.2588 0.2588 0.2588} def
/PTRN {
 /pat_bits exch def 
 <<
  /PaintType 2
  /PatternType 1 /TilingType 1
  /BBox[0 0 16 16]
  /XStep 16 /YStep 16
  /PaintProc {
   pop
   16 16 true [-1 0 0 -1 16 16] pat_bits imagemask
  }
 >>
 [0.0016 0 0 0.0016 0 0]
 makepattern
} def
/Pattern0 {<0000000000000000000000000000000000000000000000000000000000000000> PTRN} bind def
/Pattern1 {<ffffffffffffffffffffffffffffffffffffffffffffffffffffffffffffffff> PTRN} bind def
/Pattern2 {<eeeeffffbbbbffffeeeeffffbbbbffffeeeeffffbbbbffffeeeeffffbbbbffff> PTRN} bind def
/Pattern3 {<eeeebbbbeeeebbbbeeeebbbbeeeebbbbeeeebbbbeeeebbbbeeeebbbbeeeebbbb> PTRN} bind def
/Pattern4 {<5555aaaa5555aaaa5555aaaa5555aaaa5555aaaa5555aaaa5555aaaa5555aaaa> PTRN} bind def
/Pattern5 {<1111444411114444111144441111444411114444111144441111444411114444> PTRN} bind def
/Pattern6 {<1111000044440000111100004444000011110000444400001111000044440000> PTRN} bind def
/Pattern7 {<1010000000000000010100000000000010100000000000000101000000000000> PTRN} bind def
/Pattern8 {<0000000000000000000000000000000000000000000000000000000000000000> PTRN} bind def
/Pattern9 {<1e1e0f0f8787c3c3e1e1f0f078783c3c1e1e0f0f8787c3c3e1e1f0f078783c3c> PTRN} bind def
/Pattern10 {<7878f0f0e1e1c3c387870f0f1e1e3c3c7878f0f0e1e1c3c387870f0f1e1e3c3c> PTRN} bind def
/Pattern11 {<3333333333333333333333333333333333333333333333333333333333333333> PTRN} bind def
/Pattern12 {<ffffffff00000000ffffffff00000000ffffffff00000000ffffffff00000000> PTRN} bind def
/Pattern13 {<8181424224241818181824244242818181814242242418181818242442428181> PTRN} bind def
/Pattern14 {<8080404020201010080804040202010180804040202010100808040402020101> PTRN} bind def
/Pattern15 {<0101020204040808101020204040808001010202040408081010202040408080> PTRN} bind def
/Pattern16 {<2222222222222222222222222222222222222222222222222222222222222222> PTRN} bind def
/Pattern17 {<0000ffff000000000000ffff000000000000ffff000000000000ffff00000000> PTRN} bind def
/Pattern18 {<2222ffff222222222222ffff222222222222ffff222222222222ffff22222222> PTRN} bind def
/Pattern19 {<ffffffff33333333ffffffff33333333ffffffff33333333ffffffff33333333> PTRN} bind def
/Pattern20 {<0f0f0f0f0f0f0f0ff0f0f0f0f0f0f0f00f0f0f0f0f0f0f0ff0f0f0f0f0f0f0f0> PTRN} bind def
/Pattern21 {<ff00ff00ff00ff00ff00ff00ff00ff0000ff00ff00ff00ff00ff00ff00ff00ff> PTRN} bind def
/Pattern22 {<8001800180018001800180018001ffffffff8001800180018001800180018001> PTRN} bind def
/Pattern23 {<c003c003c003c003c003c003ffffffffffffffffc003c003c003c003c003c003> PTRN} bind def
/Pattern24 {<040404040404ffff404040404040ffff040404040404ffff404040404040ffff> PTRN} bind def
/Pattern25 {<180018001800180018001800ffffffff001800180018001800180018ffffffff> PTRN} bind def
/Pattern26 {<1111b8b87c7c3a3a1111a3a3c7c78b8b1111b8b87c7c3a3a1111a3a3c7c78b8b> PTRN} bind def
/Pattern27 {<101010102828c7c70101010182827c7c101010102828c7c70101010182827c7c> PTRN} bind def
/Pattern28 {<1c1c121211112121c1c12121111112121c1c121211112121c1c1212111111212> PTRN} bind def
/Pattern29 {<3e3e414180808080e3e31414080808083e3e414180808080e3e3141408080808> PTRN} bind def
/Pattern30 {<4848888884848383848488884848383848488888848483838484888848483838> PTRN} bind def
/Pattern31 {<03030404080808080c0c12122121c0c003030404080808080c0c12122121c0c0> PTRN} bind def
/ellipsedict 8 dict def
ellipsedict /mtrx matrix put
/EARC {
 ellipsedict begin
  /endangle exch def
  /startangle exch def
  /yrad exch def
  /xrad exch def
  /y exch def
  /x exch def
  /savematrix mtrx currentmatrix def
  x y translate
  xrad yrad scale
  0 0 1 startangle endangle arc
  savematrix setmatrix
 end
} def
/TL {
  /kcomp exch def
  /linewidth exch def
  /offset exch def
  GS
  0 offset rmoveto
  linewidth SLW
  dup stringwidth exch kcomp add exch RL s
  GR
} def
/KINIT
{
 /kvector exch def
 /kid 0 def
} def
/KPROC
{
 pop pop
 kvector kid get
 0 rmoveto
 /kid 1 kid add def
} def
/DefEncoding [
 /.notdef
 /.notdef
 /.notdef
 /.notdef
 /.notdef
 /.notdef
 /.notdef
 /.notdef
 /.notdef
 /.notdef
 /.notdef
 /.notdef
 /.notdef
 /.notdef
 /.notdef
 /.notdef
 /.notdef
 /.notdef
 /.notdef
 /.notdef
 /.notdef
 /.notdef
 /.notdef
 /.notdef
 /.notdef
 /.notdef
 /.notdef
 /.notdef
 /.notdef
 /.notdef
 /.notdef
 /.notdef
 /space
 /exclam
 /quotedbl
 /numbersign
 /dollar
 /percent
 /ampersand
 /quoteright
 /parenleft
 /parenright
 /asterisk
 /plus
 /comma
 /hyphen
 /period
 /slash
 /zero
 /one
 /two
 /three
 /four
 /five
 /six
 /seven
 /eight
 /nine
 /colon
 /semicolon
 /less
 /equal
 /greater
 /question
 /at
 /A
 /B
 /C
 /D
 /E
 /F
 /G
 /H
 /I
 /J
 /K
 /L
 /M
 /N
 /O
 /P
 /Q
 /R
 /S
 /T
 /U
 /V
 /W
 /X
 /Y
 /Z
 /bracketleft
 /backslash
 /bracketright
 /asciicircum
 /underscore
 /grave
 /a
 /b
 /c
 /d
 /e
 /f
 /g
 /h
 /i
 /j
 /k
 /l
 /m
 /n
 /o
 /p
 /q
 /r
 /s
 /t
 /u
 /v
 /w
 /x
 /y
 /z
 /braceleft
 /bar
 /braceright
 /asciitilde
 /.notdef
 /.notdef
 /.notdef
 /.notdef
 /.notdef
 /.notdef
 /.notdef
 /.notdef
 /.notdef
 /.notdef
 /.notdef
 /.notdef
 /.notdef
 /.notdef
 /.notdef
 /.notdef
 /.notdef
 /.notdef
 /.notdef
 /.notdef
 /.notdef
 /.notdef
 /.notdef
 /.notdef
 /.notdef
 /.notdef
 /.notdef
 /.notdef
 /.notdef
 /.notdef
 /.notdef
 /.notdef
 /.notdef
 /space
 /exclamdown
 /cent
 /sterling
 /currency
 /yen
 /brokenbar
 /section
 /dieresis
 /copyright
 /ordfeminine
 /guillemotleft
 /logicalnot
 /hyphen
 /registered
 /macron
 /degree
 /plusminus
 /twosuperior
 /threesuperior
 /acute
 /mu
 /paragraph
 /periodcentered
 /cedilla
 /onesuperior
 /ordmasculine
 /guillemotright
 /onequarter
 /onehalf
 /threequarters
 /questiondown
 /Agrave
 /Aacute
 /Acircumflex
 /Atilde
 /Adieresis
 /Aring
 /AE
 /Ccedilla
 /Egrave
 /Eacute
 /Ecircumflex
 /Edieresis
 /Igrave
 /Iacute
 /Icircumflex
 /Idieresis
 /Eth
 /Ntilde
 /Ograve
 /Oacute
 /Ocircumflex
 /Otilde
 /Odieresis
 /multiply
 /Oslash
 /Ugrave
 /Uacute
 /Ucircumflex
 /Udieresis
 /Yacute
 /Thorn
 /germandbls
 /agrave
 /aacute
 /acircumflex
 /atilde
 /adieresis
 /aring
 /ae
 /ccedilla
 /egrave
 /eacute
 /ecircumflex
 /edieresis
 /igrave
 /iacute
 /icircumflex
 /idieresis
 /eth
 /ntilde
 /ograve
 /oacute
 /ocircumflex
 /otilde
 /odieresis
 /divide
 /oslash
 /ugrave
 /uacute
 /ucircumflex
 /udieresis
 /yacute
 /thorn
 /ydieresis
] def
%%EndProlog
%%BeginSetup
%%EndSetup
%%Page: 1 1
PAGE_OFFSET_X PAGE_OFFSET_Y translate
612.00 612.00 scale
90 rotate
0.0 -1.0 translate
n
0.0000 0.0000 m
0.0000 1.0000 l
1.2941 1.0000 l
1.2941 0.0000 l
c
[/DeviceRGB] SCS
Color0 SC
fill
n
0.1572 0.5141 m
0.1572 0.5268 l
0.1700 0.5268 l
0.1700 0.5141 l
c
GS
Color0 SRGB
fill
GR
[/Pattern /DeviceRGB] SCS
Color1 Pattern8 SC
fill
[/DeviceRGB] SCS
Color1 SC
[] 0 SD
0.0030 SLW
0 SLC
0 SLJ
n
0.1572 0.5141 m
0.1572 0.5268 l
0.1700 0.5268 l
0.1700 0.5141 l
0.1572 0.5141 l
c
s
n
0.1845 0.5251 m
0.1845 0.5379 l
0.1972 0.5379 l
0.1972 0.5251 l
c
GS
Color0 SRGB
fill
GR
[/Pattern /DeviceRGB] SCS
Color1 Pattern8 SC
fill
[/DeviceRGB] SCS
Color1 SC
n
0.1845 0.5251 m
0.1845 0.5379 l
0.1972 0.5379 l
0.1972 0.5251 l
0.1845 0.5251 l
c
s
n
0.2117 0.5397 m
0.2117 0.5524 l
0.2245 0.5524 l
0.2245 0.5397 l
c
GS
Color0 SRGB
fill
GR
[/Pattern /DeviceRGB] SCS
Color1 Pattern8 SC
fill
[/DeviceRGB] SCS
Color1 SC
n
0.2117 0.5397 m
0.2117 0.5524 l
0.2245 0.5524 l
0.2245 0.5397 l
0.2117 0.5397 l
c
s
n
0.2390 0.5581 m
0.2390 0.5708 l
0.2517 0.5708 l
0.2517 0.5581 l
c
GS
Color0 SRGB
fill
GR
[/Pattern /DeviceRGB] SCS
Color1 Pattern8 SC
fill
[/DeviceRGB] SCS
Color1 SC
n
0.2390 0.5581 m
0.2390 0.5708 l
0.2517 0.5708 l
0.2517 0.5581 l
0.2390 0.5581 l
c
s
n
0.2662 0.5810 m
0.2662 0.5938 l
0.2789 0.5938 l
0.2789 0.5810 l
c
GS
Color0 SRGB
fill
GR
[/Pattern /DeviceRGB] SCS
Color1 Pattern8 SC
fill
[/DeviceRGB] SCS
Color1 SC
n
0.2662 0.5810 m
0.2662 0.5938 l
0.2789 0.5938 l
0.2789 0.5810 l
0.2662 0.5810 l
c
s
n
0.2934 0.6094 m
0.2934 0.6221 l
0.3062 0.6221 l
0.3062 0.6094 l
c
GS
Color0 SRGB
fill
GR
[/Pattern /DeviceRGB] SCS
Color1 Pattern8 SC
fill
[/DeviceRGB] SCS
Color1 SC
n
0.2934 0.6094 m
0.2934 0.6221 l
0.3062 0.6221 l
0.3062 0.6094 l
0.2934 0.6094 l
c
s
n
0.3207 0.6441 m
0.3207 0.6569 l
0.3334 0.6569 l
0.3334 0.6441 l
c
GS
Color0 SRGB
fill
GR
[/Pattern /DeviceRGB] SCS
Color1 Pattern8 SC
fill
[/DeviceRGB] SCS
Color1 SC
n
0.3207 0.6441 m
0.3207 0.6569 l
0.3334 0.6569 l
0.3334 0.6441 l
0.3207 0.6441 l
c
s
n
0.3479 0.6866 m
0.3479 0.6993 l
0.3607 0.6993 l
0.3607 0.6866 l
c
GS
Color0 SRGB
fill
GR
[/Pattern /DeviceRGB] SCS
Color1 Pattern8 SC
fill
[/DeviceRGB] SCS
Color1 SC
n
0.3479 0.6866 m
0.3479 0.6993 l
0.3607 0.6993 l
0.3607 0.6866 l
0.3479 0.6866 l
c
s
n
0.3752 0.7384 m
0.3752 0.7512 l
0.3879 0.7512 l
0.3879 0.7384 l
c
GS
Color0 SRGB
fill
GR
[/Pattern /DeviceRGB] SCS
Color1 Pattern8 SC
fill
[/DeviceRGB] SCS
Color1 SC
n
0.3752 0.7384 m
0.3752 0.7512 l
0.3879 0.7512 l
0.3879 0.7384 l
0.3752 0.7384 l
c
s
n
0.4024 0.8015 m
0.4024 0.8142 l
0.4151 0.8142 l
0.4151 0.8015 l
c
GS
Color0 SRGB
fill
GR
[/Pattern /DeviceRGB] SCS
Color1 Pattern8 SC
fill
[/DeviceRGB] SCS
Color1 SC
n
0.4024 0.8015 m
0.4024 0.8142 l
0.4151 0.8142 l
0.4151 0.8015 l
0.4024 0.8015 l
c
s
[] 0 SD
0.0037 SLW
n
0.1499 0.5011 m
0.1500 0.5011 l
0.1527 0.5012 l
0.1554 0.5012 l
0.1582 0.5013 l
0.1609 0.5014 l
0.1636 0.5015 l
0.1663 0.5015 l
0.1691 0.5016 l
0.1718 0.5017 l
0.1745 0.5018 l
0.1772 0.5019 l
0.1800 0.5020 l
0.1827 0.5021 l
0.1854 0.5022 l
0.1881 0.5023 l
0.1909 0.5025 l
0.1936 0.5026 l
0.1963 0.5027 l
0.1990 0.5028 l
0.2018 0.5030 l
0.2045 0.5031 l
0.2072 0.5033 l
0.2099 0.5034 l
0.2126 0.5036 l
0.2154 0.5037 l
0.2181 0.5039 l
0.2208 0.5041 l
0.2235 0.5043 l
0.2263 0.5044 l
0.2290 0.5046 l
0.2317 0.5048 l
0.2344 0.5050 l
0.2372 0.5052 l
0.2399 0.5055 l
0.2426 0.5057 l
0.2453 0.5059 l
0.2481 0.5061 l
0.2508 0.5064 l
0.2535 0.5066 l
0.2562 0.5069 l
0.2590 0.5071 l
0.2617 0.5074 l
0.2644 0.5077 l
0.2671 0.5080 l
0.2699 0.5082 l
0.2726 0.5085 l
0.2753 0.5088 l
0.2780 0.5092 l
0.2807 0.5095 l
0.2835 0.5098 l
0.2862 0.5101 l
0.2889 0.5105 l
0.2916 0.5108 l
0.2944 0.5112 l
0.2971 0.5116 l
0.2998 0.5120 l
0.3025 0.5123 l
0.3053 0.5127 l
0.3080 0.5132 l
0.3107 0.5136 l
0.3134 0.5140 l
0.3162 0.5144 l
0.3189 0.5149 l
0.3216 0.5153 l
0.3243 0.5158 l
0.3271 0.5163 l
0.3298 0.5168 l
0.3325 0.5172 l
0.3352 0.5178 l
0.3379 0.5183 l
0.3407 0.5188 l
0.3434 0.5193 l
0.3461 0.5199 l
0.3488 0.5204 l
0.3516 0.5210 l
0.3543 0.5216 l
0.3570 0.5222 l
0.3597 0.5228 l
0.3625 0.5234 l
0.3652 0.5240 l
0.3679 0.5247 l
0.3706 0.5253 l
0.3734 0.5260 l
0.3761 0.5267 l
0.3788 0.5274 l
0.3815 0.5281 l
0.3843 0.5288 l
0.3870 0.5295 l
0.3897 0.5302 l
0.3924 0.5310 l
0.3951 0.5318 l
0.3979 0.5325 l
0.4006 0.5333 l
0.4033 0.5341 l
0.4060 0.5350 l
0.4088 0.5358 l
0.4115 0.5366 l
0.4142 0.5375 l
0.4169 0.5384 l
0.4197 0.5393 l
0.4224 0.5402 l
0.4225 0.5402 l
s
[/DeviceRGB] SCS
Color2 SC
[0.0187 0.0112 ] 0 SD
0.0037 SLW
n
0.1499 0.5042 m
0.1500 0.5042 l
0.1527 0.5044 l
0.1554 0.5047 l
0.1582 0.5049 l
0.1609 0.5052 l
0.1636 0.5055 l
0.1663 0.5058 l
0.1691 0.5061 l
0.1718 0.5064 l
0.1745 0.5067 l
0.1772 0.5070 l
0.1800 0.5074 l
0.1827 0.5077 l
0.1854 0.5081 l
0.1881 0.5085 l
0.1909 0.5089 l
0.1936 0.5093 l
0.1963 0.5097 l
0.1990 0.5101 l
0.2018 0.5106 l
0.2045 0.5110 l
0.2072 0.5115 l
0.2099 0.5120 l
0.2126 0.5125 l
0.2154 0.5130 l
0.2181 0.5135 l
0.2208 0.5140 l
0.2235 0.5146 l
0.2263 0.5151 l
0.2290 0.5157 l
0.2317 0.5163 l
0.2344 0.5169 l
0.2372 0.5176 l
0.2399 0.5182 l
0.2426 0.5189 l
0.2453 0.5195 l
0.2481 0.5202 l
0.2508 0.5209 l
0.2535 0.5217 l
0.2562 0.5224 l
0.2590 0.5231 l
0.2617 0.5239 l
0.2644 0.5247 l
0.2671 0.5255 l
0.2699 0.5263 l
0.2726 0.5272 l
0.2753 0.5280 l
0.2780 0.5289 l
0.2807 0.5298 l
0.2835 0.5307 l
0.2862 0.5317 l
0.2889 0.5326 l
0.2916 0.5336 l
0.2944 0.5346 l
0.2971 0.5356 l
0.2998 0.5366 l
0.3025 0.5377 l
0.3053 0.5387 l
0.3080 0.5398 l
0.3107 0.5409 l
0.3134 0.5420 l
0.3162 0.5432 l
0.3189 0.5444 l
0.3216 0.5455 l
0.3243 0.5468 l
0.3271 0.5480 l
0.3298 0.5492 l
0.3325 0.5505 l
0.3352 0.5518 l
0.3379 0.5531 l
0.3407 0.5545 l
0.3434 0.5558 l
0.3461 0.5572 l
0.3488 0.5586 l
0.3516 0.5600 l
0.3543 0.5615 l
0.3570 0.5629 l
0.3597 0.5644 l
0.3625 0.5659 l
0.3652 0.5675 l
0.3679 0.5690 l
0.3706 0.5706 l
0.3734 0.5722 l
0.3761 0.5739 l
0.3788 0.5755 l
0.3815 0.5772 l
0.3843 0.5789 l
0.3870 0.5806 l
0.3897 0.5824 l
0.3924 0.5842 l
0.3951 0.5860 l
0.3979 0.5878 l
0.4006 0.5896 l
0.4033 0.5915 l
0.4060 0.5934 l
0.4088 0.5953 l
0.4115 0.5973 l
0.4142 0.5993 l
0.4169 0.6013 l
0.4197 0.6033 l
0.4224 0.6054 l
0.4225 0.6054 l
s
[/DeviceRGB] SCS
Color4 SC
[0.0037 0.0112 ] 0 SD
0.0037 SLW
n
0.1499 0.5006 m
0.1500 0.5006 l
0.1527 0.5007 l
0.1554 0.5007 l
0.1582 0.5008 l
0.1609 0.5008 l
0.1636 0.5009 l
0.1663 0.5009 l
0.1691 0.5010 l
0.1718 0.5011 l
0.1745 0.5011 l
0.1772 0.5012 l
0.1800 0.5012 l
0.1827 0.5013 l
0.1854 0.5014 l
0.1881 0.5015 l
0.1909 0.5015 l
0.1936 0.5016 l
0.1963 0.5017 l
0.1990 0.5018 l
0.2018 0.5019 l
0.2045 0.5020 l
0.2072 0.5021 l
0.2099 0.5022 l
0.2126 0.5023 l
0.2154 0.5024 l
0.2181 0.5025 l
0.2208 0.5026 l
0.2235 0.5028 l
0.2263 0.5029 l
0.2290 0.5030 l
0.2317 0.5032 l
0.2344 0.5033 l
0.2372 0.5034 l
0.2399 0.5036 l
0.2426 0.5037 l
0.2453 0.5039 l
0.2481 0.5041 l
0.2508 0.5042 l
0.2535 0.5044 l
0.2562 0.5046 l
0.2590 0.5048 l
0.2617 0.5050 l
0.2644 0.5052 l
0.2671 0.5054 l
0.2699 0.5056 l
0.2726 0.5058 l
0.2753 0.5060 l
0.2780 0.5062 l
0.2807 0.5065 l
0.2835 0.5067 l
0.2862 0.5070 l
0.2889 0.5072 l
0.2916 0.5075 l
0.2944 0.5078 l
0.2971 0.5080 l
0.2998 0.5083 l
0.3025 0.5086 l
0.3053 0.5089 l
0.3080 0.5092 l
0.3107 0.5095 l
0.3134 0.5098 l
0.3162 0.5102 l
0.3189 0.5105 l
0.3216 0.5108 l
0.3243 0.5112 l
0.3271 0.5115 l
0.3298 0.5119 l
0.3325 0.5123 l
0.3352 0.5127 l
0.3379 0.5131 l
0.3407 0.5135 l
0.3434 0.5139 l
0.3461 0.5143 l
0.3488 0.5147 l
0.3516 0.5152 l
0.3543 0.5156 l
0.3570 0.5161 l
0.3597 0.5165 l
0.3625 0.5170 l
0.3652 0.5175 l
0.3679 0.5180 l
0.3706 0.5185 l
0.3734 0.5190 l
0.3761 0.5196 l
0.3788 0.5201 l
0.3815 0.5206 l
0.3843 0.5212 l
0.3870 0.5218 l
0.3897 0.5224 l
0.3924 0.5229 l
0.3951 0.5236 l
0.3979 0.5242 l
0.4006 0.5248 l
0.4033 0.5254 l
0.4060 0.5261 l
0.4088 0.5267 l
0.4115 0.5274 l
0.4142 0.5281 l
0.4169 0.5288 l
0.4197 0.5295 l
0.4224 0.5302 l
0.4225 0.5303 l
s
[/DeviceRGB] SCS
Color11 SC
[0.0037 0.0112 0.0187 0.0112 ] 0 SD
0.0037 SLW
n
0.1499 0.5042 m
0.1500 0.5042 l
0.1527 0.5045 l
0.1554 0.5047 l
0.1582 0.5050 l
0.1609 0.5053 l
0.1636 0.5055 l
0.1663 0.5058 l
0.1691 0.5061 l
0.1718 0.5065 l
0.1745 0.5068 l
0.1772 0.5071 l
0.1800 0.5075 l
0.1827 0.5078 l
0.1854 0.5082 l
0.1881 0.5086 l
0.1909 0.5090 l
0.1936 0.5094 l
0.1963 0.5098 l
0.1990 0.5102 l
0.2018 0.5107 l
0.2045 0.5111 l
0.2072 0.5116 l
0.2099 0.5121 l
0.2126 0.5126 l
0.2154 0.5131 l
0.2181 0.5136 l
0.2208 0.5142 l
0.2235 0.5147 l
0.2263 0.5153 l
0.2290 0.5159 l
0.2317 0.5165 l
0.2344 0.5171 l
0.2372 0.5178 l
0.2399 0.5184 l
0.2426 0.5191 l
0.2453 0.5198 l
0.2481 0.5205 l
0.2508 0.5212 l
0.2535 0.5219 l
0.2562 0.5227 l
0.2590 0.5234 l
0.2617 0.5242 l
0.2644 0.5250 l
0.2671 0.5258 l
0.2699 0.5267 l
0.2726 0.5275 l
0.2753 0.5284 l
0.2780 0.5293 l
0.2807 0.5302 l
0.2835 0.5311 l
0.2862 0.5321 l
0.2889 0.5330 l
0.2916 0.5340 l
0.2944 0.5350 l
0.2971 0.5361 l
0.2998 0.5371 l
0.3025 0.5382 l
0.3053 0.5392 l
0.3080 0.5403 l
0.3107 0.5415 l
0.3134 0.5426 l
0.3162 0.5438 l
0.3189 0.5450 l
0.3216 0.5462 l
0.3243 0.5474 l
0.3271 0.5487 l
0.3298 0.5499 l
0.3325 0.5512 l
0.3352 0.5525 l
0.3379 0.5539 l
0.3407 0.5552 l
0.3434 0.5566 l
0.3461 0.5580 l
0.3488 0.5595 l
0.3516 0.5609 l
0.3543 0.5624 l
0.3570 0.5639 l
0.3597 0.5654 l
0.3625 0.5669 l
0.3652 0.5685 l
0.3679 0.5701 l
0.3706 0.5717 l
0.3734 0.5734 l
0.3761 0.5750 l
0.3788 0.5767 l
0.3815 0.5784 l
0.3843 0.5802 l
0.3870 0.5819 l
0.3897 0.5837 l
0.3924 0.5855 l
0.3951 0.5874 l
0.3979 0.5892 l
0.4006 0.5911 l
0.4033 0.5930 l
0.4060 0.5950 l
0.4088 0.5969 l
0.4115 0.5989 l
0.4142 0.6009 l
0.4169 0.6030 l
0.4197 0.6050 l
0.4224 0.6071 l
0.4225 0.6072 l
s
[/DeviceRGB] SCS
Color3 SC
[0.0037 0.0112 0.0187 0.0112 0.0037 0.0112 ] 0 SD
0.0037 SLW
n
0.1499 0.5042 m
0.1500 0.5042 l
0.1527 0.5045 l
0.1554 0.5047 l
0.1582 0.5050 l
0.1609 0.5053 l
0.1636 0.5055 l
0.1663 0.5058 l
0.1691 0.5061 l
0.1718 0.5065 l
0.1745 0.5068 l
0.1772 0.5071 l
0.1800 0.5075 l
0.1827 0.5078 l
0.1854 0.5082 l
0.1881 0.5086 l
0.1909 0.5090 l
0.1936 0.5094 l
0.1963 0.5098 l
0.1990 0.5102 l
0.2018 0.5107 l
0.2045 0.5111 l
0.2072 0.5116 l
0.2099 0.5121 l
0.2126 0.5126 l
0.2154 0.5131 l
0.2181 0.5136 l
0.2208 0.5142 l
0.2235 0.5147 l
0.2263 0.5153 l
0.2290 0.5159 l
0.2317 0.5165 l
0.2344 0.5171 l
0.2372 0.5178 l
0.2399 0.5184 l
0.2426 0.5191 l
0.2453 0.5198 l
0.2481 0.5205 l
0.2508 0.5212 l
0.2535 0.5219 l
0.2562 0.5227 l
0.2590 0.5234 l
0.2617 0.5242 l
0.2644 0.5250 l
0.2671 0.5258 l
0.2699 0.5267 l
0.2726 0.5275 l
0.2753 0.5284 l
0.2780 0.5293 l
0.2807 0.5302 l
0.2835 0.5311 l
0.2862 0.5321 l
0.2889 0.5330 l
0.2916 0.5340 l
0.2944 0.5350 l
0.2971 0.5361 l
0.2998 0.5371 l
0.3025 0.5382 l
0.3053 0.5392 l
0.3080 0.5403 l
0.3107 0.5415 l
0.3134 0.5426 l
0.3162 0.5438 l
0.3189 0.5450 l
0.3216 0.5462 l
0.3243 0.5474 l
0.3271 0.5487 l
0.3298 0.5499 l
0.3325 0.5512 l
0.3352 0.5525 l
0.3379 0.5539 l
0.3407 0.5552 l
0.3434 0.5566 l
0.3461 0.5580 l
0.3488 0.5595 l
0.3516 0.5609 l
0.3543 0.5624 l
0.3570 0.5639 l
0.3597 0.5654 l
0.3625 0.5669 l
0.3652 0.5685 l
0.3679 0.5701 l
0.3706 0.5717 l
0.3734 0.5734 l
0.3761 0.5750 l
0.3788 0.5767 l
0.3815 0.5784 l
0.3843 0.5802 l
0.3870 0.5819 l
0.3897 0.5837 l
0.3924 0.5855 l
0.3951 0.5874 l
0.3979 0.5892 l
0.4006 0.5911 l
0.4033 0.5930 l
0.4060 0.5950 l
0.4088 0.5969 l
0.4115 0.5989 l
0.4142 0.6009 l
0.4169 0.6030 l
0.4197 0.6050 l
0.4224 0.6071 l
0.4225 0.6072 l
s
[/DeviceRGB] SCS
Color8 SC
[0.0187 0.0112 0.0037 0.0112 0.0187 0.0112 ] 0 SD
0.0037 SLW
n
0.1499 0.5043 m
0.1500 0.5043 l
0.1527 0.5045 l
0.1554 0.5048 l
0.1582 0.5050 l
0.1609 0.5053 l
0.1636 0.5056 l
0.1663 0.5059 l
0.1691 0.5062 l
0.1718 0.5065 l
0.1745 0.5068 l
0.1772 0.5072 l
0.1800 0.5075 l
0.1827 0.5079 l
0.1854 0.5083 l
0.1881 0.5087 l
0.1909 0.5091 l
0.1936 0.5095 l
0.1963 0.5099 l
0.1990 0.5103 l
0.2018 0.5108 l
0.2045 0.5113 l
0.2072 0.5117 l
0.2099 0.5122 l
0.2126 0.5127 l
0.2154 0.5133 l
0.2181 0.5138 l
0.2208 0.5143 l
0.2235 0.5149 l
0.2263 0.5155 l
0.2290 0.5161 l
0.2317 0.5167 l
0.2344 0.5173 l
0.2372 0.5180 l
0.2399 0.5186 l
0.2426 0.5193 l
0.2453 0.5200 l
0.2481 0.5207 l
0.2508 0.5214 l
0.2535 0.5222 l
0.2562 0.5229 l
0.2590 0.5237 l
0.2617 0.5245 l
0.2644 0.5253 l
0.2671 0.5261 l
0.2699 0.5270 l
0.2726 0.5279 l
0.2753 0.5287 l
0.2780 0.5297 l
0.2807 0.5306 l
0.2835 0.5315 l
0.2862 0.5325 l
0.2889 0.5335 l
0.2916 0.5345 l
0.2944 0.5355 l
0.2971 0.5365 l
0.2998 0.5376 l
0.3025 0.5387 l
0.3053 0.5398 l
0.3080 0.5409 l
0.3107 0.5420 l
0.3134 0.5432 l
0.3162 0.5444 l
0.3189 0.5456 l
0.3216 0.5468 l
0.3243 0.5481 l
0.3271 0.5493 l
0.3298 0.5506 l
0.3325 0.5520 l
0.3352 0.5533 l
0.3379 0.5547 l
0.3407 0.5560 l
0.3434 0.5574 l
0.3461 0.5589 l
0.3488 0.5603 l
0.3516 0.5618 l
0.3543 0.5633 l
0.3570 0.5648 l
0.3597 0.5664 l
0.3625 0.5679 l
0.3652 0.5695 l
0.3679 0.5712 l
0.3706 0.5728 l
0.3734 0.5745 l
0.3761 0.5762 l
0.3788 0.5779 l
0.3815 0.5796 l
0.3843 0.5814 l
0.3870 0.5832 l
0.3897 0.5850 l
0.3924 0.5869 l
0.3951 0.5887 l
0.3979 0.5906 l
0.4006 0.5926 l
0.4033 0.5945 l
0.4060 0.5965 l
0.4088 0.5985 l
0.4115 0.6005 l
0.4142 0.6026 l
0.4169 0.6047 l
0.4197 0.6068 l
0.4224 0.6089 l
0.4225 0.6090 l
s
[/DeviceRGB] SCS
Color1 SC
[] 0 SD
0.0045 SLW
n
0.1500 0.1500 m
0.4224 0.1500 l
s
n
0.1500 0.8500 m
0.4224 0.8500 l
s
n
0.1500 0.1500 m
0.1500 0.1600 l
s
n
0.1500 0.8500 m
0.1500 0.8400 l
s
n
0.2317 0.1500 m
0.2317 0.1600 l
s
n
0.2317 0.8500 m
0.2317 0.8400 l
s
n
0.3134 0.1500 m
0.3134 0.1600 l
s
n
0.3134 0.8500 m
0.3134 0.8400 l
s
n
0.3951 0.1500 m
0.3951 0.1600 l
s
n
0.3951 0.8500 m
0.3951 0.8400 l
s
n
0.1909 0.1500 m
0.1909 0.1700 l
s
n
0.1909 0.8500 m
0.1909 0.8300 l
s
n
0.2726 0.1500 m
0.2726 0.1700 l
s
n
0.2726 0.8500 m
0.2726 0.8300 l
s
n
0.3543 0.1500 m
0.3543 0.1700 l
s
n
0.3543 0.8500 m
0.3543 0.8300 l
s
/Times-Roman findfont
dup length dict begin
 {1 index /FID ne {def} {pop pop} ifelse} forall
 /Encoding DefEncoding def
 currentdict
end
/Font0 exch definefont pop
/Font0 FFSF
0.1638 0.1094 m
GS
[0.0448 0.0000 0.0000 0.0448 0 0] CC
(0.9) show
GR
/Font0 FFSF
0.2451 0.1094 m
GS
[0.0448 0.0000 0.0000 0.0448 0 0] CC
(1.2) show
GR
/Font0 FFSF
0.3276 0.1090 m
GS
[0.0448 0.0000 0.0000 0.0448 0 0] CC
(1.5) show
GR
n
0.1500 0.1500 m
0.1500 0.8500 l
s
n
0.4224 0.1500 m
0.4224 0.8500 l
s
n
0.1500 0.2426 m
0.1600 0.2426 l
s
n
0.4224 0.2426 m
0.4124 0.2426 l
s
n
0.1500 0.3456 m
0.1600 0.3456 l
s
n
0.4224 0.3456 m
0.4124 0.3456 l
s
n
0.1500 0.4485 m
0.1600 0.4485 l
s
n
0.4224 0.4485 m
0.4124 0.4485 l
s
n
0.1500 0.5515 m
0.1600 0.5515 l
s
n
0.4224 0.5515 m
0.4124 0.5515 l
s
n
0.1500 0.6544 m
0.1600 0.6544 l
s
n
0.4224 0.6544 m
0.4124 0.6544 l
s
n
0.1500 0.7574 m
0.1600 0.7574 l
s
n
0.4224 0.7574 m
0.4124 0.7574 l
s
n
0.1500 0.1912 m
0.1700 0.1912 l
s
n
0.4224 0.1912 m
0.4024 0.1912 l
s
n
0.1500 0.2941 m
0.1700 0.2941 l
s
n
0.4224 0.2941 m
0.4024 0.2941 l
s
n
0.1500 0.3971 m
0.1700 0.3971 l
s
n
0.4224 0.3971 m
0.4024 0.3971 l
s
n
0.1500 0.5000 m
0.1700 0.5000 l
s
n
0.4224 0.5000 m
0.4024 0.5000 l
s
n
0.1500 0.6029 m
0.1700 0.6029 l
s
n
0.4224 0.6029 m
0.4024 0.6029 l
s
n
0.1500 0.7059 m
0.1700 0.7059 l
s
n
0.4224 0.7059 m
0.4024 0.7059 l
s
n
0.1500 0.8088 m
0.1700 0.8088 l
s
n
0.4224 0.8088 m
0.4024 0.8088 l
s
/Font0 FFSF
0.0831 0.1761 m
GS
[0.0448 0.0000 0.0000 0.0448 0 0] CC
(-15) show
GR
/Font0 FFSF
0.0816 0.2792 m
GS
[0.0448 0.0000 0.0000 0.0448 0 0] CC
(-10) show
GR
/Font0 FFSF
0.1055 0.3820 m
GS
[0.0448 0.0000 0.0000 0.0448 0 0] CC
(-5) show
GR
/Font0 FFSF
0.1188 0.4851 m
GS
[0.0448 0.0000 0.0000 0.0448 0 0] CC
(0) show
GR
/Font0 FFSF
0.1204 0.5878 m
GS
[0.0448 0.0000 0.0000 0.0448 0 0] CC
(5) show
GR
/Font0 FFSF
0.0965 0.6910 m
GS
[0.0448 0.0000 0.0000 0.0448 0 0] CC
(10) show
GR
/Font0 FFSF
0.0980 0.7937 m
GS
[0.0448 0.0000 0.0000 0.0448 0 0] CC
(15) show
GR
[] 0 SD
0.0015 SLW
n
0.1500 0.1500 m
0.1500 0.8500 l
0.4224 0.8500 l
0.4224 0.1500 l
0.1500 0.1500 l
c
s
/Symbol findfont
/Font12 exch definefont pop
/Font12 FFSF
0.2070 0.8868 m
GS
[0.0420 0.0000 0.0000 0.0420 0 0] CC
(d) show
GR
/Font0 FFSF
0.2278 0.8700 m
GS
[0.0297 0.0000 0.0000 0.0297 0 0] CC
(P) show
GR
/Font0 FFSF
0.2442 0.8868 m
GS
[0.0420 0.0000 0.0000 0.0420 0 0] CC
( [MeV]) show
GR
[] 0 SD
0.0037 SLW
n
0.5108 0.7877 m
0.5109 0.7877 l
0.5136 0.7876 l
0.5163 0.7876 l
0.5190 0.7875 l
0.5218 0.7875 l
0.5245 0.7874 l
0.5272 0.7873 l
0.5299 0.7873 l
0.5327 0.7872 l
0.5354 0.7871 l
0.5381 0.7870 l
0.5408 0.7869 l
0.5436 0.7869 l
0.5463 0.7868 l
0.5490 0.7867 l
0.5517 0.7865 l
0.5544 0.7864 l
0.5572 0.7863 l
0.5599 0.7862 l
0.5626 0.7861 l
0.5653 0.7859 l
0.5681 0.7858 l
0.5708 0.7856 l
0.5735 0.7855 l
0.5762 0.7853 l
0.5790 0.7851 l
0.5817 0.7849 l
0.5844 0.7847 l
0.5871 0.7845 l
0.5899 0.7843 l
0.5926 0.7841 l
0.5953 0.7839 l
0.5980 0.7836 l
0.6008 0.7834 l
0.6035 0.7831 l
0.6062 0.7828 l
0.6089 0.7825 l
0.6116 0.7822 l
0.6144 0.7819 l
0.6171 0.7816 l
0.6198 0.7813 l
0.6225 0.7809 l
0.6253 0.7805 l
0.6280 0.7802 l
0.6307 0.7798 l
0.6334 0.7793 l
0.6362 0.7789 l
0.6389 0.7785 l
0.6416 0.7780 l
0.6443 0.7775 l
0.6471 0.7770 l
0.6498 0.7765 l
0.6525 0.7760 l
0.6552 0.7754 l
0.6580 0.7749 l
0.6607 0.7743 l
0.6634 0.7737 l
0.6661 0.7730 l
0.6689 0.7724 l
0.6716 0.7717 l
0.6743 0.7710 l
0.6770 0.7703 l
0.6797 0.7695 l
0.6825 0.7688 l
0.6852 0.7680 l
0.6879 0.7672 l
0.6906 0.7663 l
0.6934 0.7654 l
0.6961 0.7645 l
0.6988 0.7636 l
0.7015 0.7627 l
0.7043 0.7617 l
0.7070 0.7607 l
0.7097 0.7596 l
0.7124 0.7585 l
0.7152 0.7574 l
0.7179 0.7563 l
0.7206 0.7551 l
0.7233 0.7539 l
0.7261 0.7527 l
0.7288 0.7514 l
0.7315 0.7501 l
0.7342 0.7487 l
0.7369 0.7473 l
0.7397 0.7459 l
0.7424 0.7444 l
0.7451 0.7429 l
0.7478 0.7414 l
0.7506 0.7398 l
0.7533 0.7382 l
0.7560 0.7365 l
0.7587 0.7348 l
0.7615 0.7330 l
0.7642 0.7312 l
0.7669 0.7294 l
0.7696 0.7275 l
0.7724 0.7255 l
0.7751 0.7236 l
0.7778 0.7215 l
0.7805 0.7194 l
0.7833 0.7173 l
0.7834 0.7172 l
s
n
0.5181 0.7541 m
0.5181 0.7669 l
0.5309 0.7669 l
0.5309 0.7541 l
c
GS
Color0 SRGB
fill
GR
[/Pattern /DeviceRGB] SCS
Color1 Pattern8 SC
fill
[/DeviceRGB] SCS
Color1 SC
n
0.5181 0.7541 m
0.5181 0.7669 l
0.5309 0.7669 l
0.5309 0.7541 l
0.5181 0.7541 l
c
s
n
0.5453 0.7345 m
0.5453 0.7473 l
0.5581 0.7473 l
0.5581 0.7345 l
c
GS
Color0 SRGB
fill
GR
[/Pattern /DeviceRGB] SCS
Color1 Pattern8 SC
fill
[/DeviceRGB] SCS
Color1 SC
n
0.5453 0.7345 m
0.5453 0.7473 l
0.5581 0.7473 l
0.5581 0.7345 l
0.5453 0.7345 l
c
s
n
0.5726 0.7072 m
0.5726 0.7200 l
0.5853 0.7200 l
0.5853 0.7072 l
c
GS
Color0 SRGB
fill
GR
[/Pattern /DeviceRGB] SCS
Color1 Pattern8 SC
fill
[/DeviceRGB] SCS
Color1 SC
n
0.5726 0.7072 m
0.5726 0.7200 l
0.5853 0.7200 l
0.5853 0.7072 l
0.5726 0.7072 l
c
s
n
0.5998 0.6706 m
0.5998 0.6834 l
0.6126 0.6834 l
0.6126 0.6706 l
c
GS
Color0 SRGB
fill
GR
[/Pattern /DeviceRGB] SCS
Color1 Pattern8 SC
fill
[/DeviceRGB] SCS
Color1 SC
n
0.5998 0.6706 m
0.5998 0.6834 l
0.6126 0.6834 l
0.6126 0.6706 l
0.5998 0.6706 l
c
s
n
0.6271 0.6241 m
0.6271 0.6368 l
0.6398 0.6368 l
0.6398 0.6241 l
c
GS
Color0 SRGB
fill
GR
[/Pattern /DeviceRGB] SCS
Color1 Pattern8 SC
fill
[/DeviceRGB] SCS
Color1 SC
n
0.6271 0.6241 m
0.6271 0.6368 l
0.6398 0.6368 l
0.6398 0.6241 l
0.6271 0.6241 l
c
s
n
0.6543 0.5661 m
0.6543 0.5788 l
0.6671 0.5788 l
0.6671 0.5661 l
c
GS
Color0 SRGB
fill
GR
[/Pattern /DeviceRGB] SCS
Color1 Pattern8 SC
fill
[/DeviceRGB] SCS
Color1 SC
n
0.6543 0.5661 m
0.6543 0.5788 l
0.6671 0.5788 l
0.6671 0.5661 l
0.6543 0.5661 l
c
s
n
0.6815 0.4950 m
0.6815 0.5078 l
0.6943 0.5078 l
0.6943 0.4950 l
c
GS
Color0 SRGB
fill
GR
[/Pattern /DeviceRGB] SCS
Color1 Pattern8 SC
fill
[/DeviceRGB] SCS
Color1 SC
n
0.6815 0.4950 m
0.6815 0.5078 l
0.6943 0.5078 l
0.6943 0.4950 l
0.6815 0.4950 l
c
s
n
0.7088 0.4096 m
0.7088 0.4223 l
0.7215 0.4223 l
0.7215 0.4096 l
c
GS
Color0 SRGB
fill
GR
[/Pattern /DeviceRGB] SCS
Color1 Pattern8 SC
fill
[/DeviceRGB] SCS
Color1 SC
n
0.7088 0.4096 m
0.7088 0.4223 l
0.7215 0.4223 l
0.7215 0.4096 l
0.7088 0.4096 l
c
s
n
0.7360 0.3063 m
0.7360 0.3191 l
0.7488 0.3191 l
0.7488 0.3063 l
c
GS
Color0 SRGB
fill
GR
[/Pattern /DeviceRGB] SCS
Color1 Pattern8 SC
fill
[/DeviceRGB] SCS
Color1 SC
n
0.7360 0.3063 m
0.7360 0.3191 l
0.7488 0.3191 l
0.7488 0.3063 l
0.7360 0.3063 l
c
s
n
0.7633 0.1814 m
0.7633 0.1941 l
0.7760 0.1941 l
0.7760 0.1814 l
c
GS
Color0 SRGB
fill
GR
[/Pattern /DeviceRGB] SCS
Color1 Pattern8 SC
fill
[/DeviceRGB] SCS
Color1 SC
n
0.7633 0.1814 m
0.7633 0.1941 l
0.7760 0.1941 l
0.7760 0.1814 l
0.7633 0.1814 l
c
s
[/DeviceRGB] SCS
Color2 SC
[0.0187 0.0112 ] 0 SD
0.0037 SLW
n
0.5108 0.7853 m
0.5109 0.7853 l
0.5136 0.7851 l
0.5163 0.7849 l
0.5190 0.7846 l
0.5218 0.7843 l
0.5245 0.7841 l
0.5272 0.7838 l
0.5299 0.7834 l
0.5327 0.7831 l
0.5354 0.7828 l
0.5381 0.7824 l
0.5408 0.7820 l
0.5436 0.7816 l
0.5463 0.7812 l
0.5490 0.7807 l
0.5517 0.7802 l
0.5544 0.7797 l
0.5572 0.7792 l
0.5599 0.7787 l
0.5626 0.7781 l
0.5653 0.7775 l
0.5681 0.7769 l
0.5708 0.7763 l
0.5735 0.7756 l
0.5762 0.7749 l
0.5790 0.7742 l
0.5817 0.7734 l
0.5844 0.7726 l
0.5871 0.7718 l
0.5899 0.7709 l
0.5926 0.7700 l
0.5953 0.7691 l
0.5980 0.7682 l
0.6008 0.7672 l
0.6035 0.7661 l
0.6062 0.7651 l
0.6089 0.7640 l
0.6116 0.7628 l
0.6144 0.7616 l
0.6171 0.7604 l
0.6198 0.7592 l
0.6225 0.7578 l
0.6253 0.7565 l
0.6280 0.7551 l
0.6307 0.7536 l
0.6334 0.7522 l
0.6362 0.7506 l
0.6389 0.7490 l
0.6416 0.7474 l
0.6443 0.7457 l
0.6471 0.7440 l
0.6498 0.7422 l
0.6525 0.7403 l
0.6552 0.7384 l
0.6580 0.7365 l
0.6607 0.7345 l
0.6634 0.7324 l
0.6661 0.7303 l
0.6689 0.7281 l
0.6716 0.7258 l
0.6743 0.7235 l
0.6770 0.7211 l
0.6797 0.7187 l
0.6825 0.7162 l
0.6852 0.7136 l
0.6879 0.7110 l
0.6906 0.7083 l
0.6934 0.7055 l
0.6961 0.7027 l
0.6988 0.6997 l
0.7015 0.6968 l
0.7043 0.6937 l
0.7070 0.6906 l
0.7097 0.6873 l
0.7124 0.6840 l
0.7152 0.6807 l
0.7179 0.6772 l
0.7206 0.6737 l
0.7233 0.6701 l
0.7261 0.6664 l
0.7288 0.6626 l
0.7315 0.6587 l
0.7342 0.6548 l
0.7369 0.6507 l
0.7397 0.6466 l
0.7424 0.6424 l
0.7451 0.6380 l
0.7478 0.6336 l
0.7506 0.6291 l
0.7533 0.6245 l
0.7560 0.6198 l
0.7587 0.6151 l
0.7615 0.6102 l
0.7642 0.6052 l
0.7669 0.6001 l
0.7696 0.5949 l
0.7724 0.5896 l
0.7751 0.5842 l
0.7778 0.5787 l
0.7805 0.5730 l
0.7833 0.5673 l
0.7834 0.5671 l
s
[/DeviceRGB] SCS
Color4 SC
[0.0037 0.0112 ] 0 SD
0.0037 SLW
n
0.5108 0.7880 m
0.5109 0.7880 l
0.5136 0.7880 l
0.5163 0.7879 l
0.5190 0.7879 l
0.5218 0.7879 l
0.5245 0.7879 l
0.5272 0.7878 l
0.5299 0.7878 l
0.5327 0.7878 l
0.5354 0.7877 l
0.5381 0.7877 l
0.5408 0.7876 l
0.5436 0.7876 l
0.5463 0.7875 l
0.5490 0.7875 l
0.5517 0.7874 l
0.5544 0.7874 l
0.5572 0.7873 l
0.5599 0.7872 l
0.5626 0.7872 l
0.5653 0.7871 l
0.5681 0.7870 l
0.5708 0.7869 l
0.5735 0.7869 l
0.5762 0.7868 l
0.5790 0.7867 l
0.5817 0.7866 l
0.5844 0.7864 l
0.5871 0.7863 l
0.5899 0.7862 l
0.5926 0.7861 l
0.5953 0.7859 l
0.5980 0.7858 l
0.6008 0.7857 l
0.6035 0.7855 l
0.6062 0.7853 l
0.6089 0.7852 l
0.6116 0.7850 l
0.6144 0.7848 l
0.6171 0.7846 l
0.6198 0.7844 l
0.6225 0.7842 l
0.6253 0.7840 l
0.6280 0.7837 l
0.6307 0.7835 l
0.6334 0.7832 l
0.6362 0.7830 l
0.6389 0.7827 l
0.6416 0.7824 l
0.6443 0.7821 l
0.6471 0.7818 l
0.6498 0.7814 l
0.6525 0.7811 l
0.6552 0.7808 l
0.6580 0.7804 l
0.6607 0.7800 l
0.6634 0.7796 l
0.6661 0.7792 l
0.6689 0.7788 l
0.6716 0.7783 l
0.6743 0.7779 l
0.6770 0.7774 l
0.6797 0.7769 l
0.6825 0.7764 l
0.6852 0.7758 l
0.6879 0.7753 l
0.6906 0.7747 l
0.6934 0.7741 l
0.6961 0.7735 l
0.6988 0.7729 l
0.7015 0.7722 l
0.7043 0.7715 l
0.7070 0.7708 l
0.7097 0.7701 l
0.7124 0.7693 l
0.7152 0.7686 l
0.7179 0.7678 l
0.7206 0.7669 l
0.7233 0.7661 l
0.7261 0.7652 l
0.7288 0.7643 l
0.7315 0.7634 l
0.7342 0.7624 l
0.7369 0.7614 l
0.7397 0.7604 l
0.7424 0.7594 l
0.7451 0.7583 l
0.7478 0.7572 l
0.7506 0.7560 l
0.7533 0.7548 l
0.7560 0.7536 l
0.7587 0.7524 l
0.7615 0.7511 l
0.7642 0.7498 l
0.7669 0.7484 l
0.7696 0.7470 l
0.7724 0.7456 l
0.7751 0.7441 l
0.7778 0.7426 l
0.7805 0.7410 l
0.7833 0.7394 l
0.7834 0.7394 l
s
[/DeviceRGB] SCS
Color11 SC
[0.0037 0.0112 0.0187 0.0112 ] 0 SD
0.0037 SLW
n
0.5108 0.7853 m
0.5109 0.7853 l
0.5136 0.7851 l
0.5163 0.7849 l
0.5190 0.7846 l
0.5218 0.7843 l
0.5245 0.7840 l
0.5272 0.7837 l
0.5299 0.7834 l
0.5327 0.7831 l
0.5354 0.7827 l
0.5381 0.7824 l
0.5408 0.7820 l
0.5436 0.7815 l
0.5463 0.7811 l
0.5490 0.7807 l
0.5517 0.7802 l
0.5544 0.7797 l
0.5572 0.7792 l
0.5599 0.7786 l
0.5626 0.7781 l
0.5653 0.7775 l
0.5681 0.7768 l
0.5708 0.7762 l
0.5735 0.7755 l
0.5762 0.7748 l
0.5790 0.7741 l
0.5817 0.7733 l
0.5844 0.7725 l
0.5871 0.7717 l
0.5899 0.7708 l
0.5926 0.7699 l
0.5953 0.7690 l
0.5980 0.7680 l
0.6008 0.7670 l
0.6035 0.7660 l
0.6062 0.7649 l
0.6089 0.7638 l
0.6116 0.7626 l
0.6144 0.7614 l
0.6171 0.7602 l
0.6198 0.7589 l
0.6225 0.7576 l
0.6253 0.7562 l
0.6280 0.7548 l
0.6307 0.7534 l
0.6334 0.7519 l
0.6362 0.7503 l
0.6389 0.7487 l
0.6416 0.7471 l
0.6443 0.7453 l
0.6471 0.7436 l
0.6498 0.7418 l
0.6525 0.7399 l
0.6552 0.7380 l
0.6580 0.7360 l
0.6607 0.7340 l
0.6634 0.7319 l
0.6661 0.7297 l
0.6689 0.7275 l
0.6716 0.7252 l
0.6743 0.7229 l
0.6770 0.7205 l
0.6797 0.7180 l
0.6825 0.7155 l
0.6852 0.7129 l
0.6879 0.7102 l
0.6906 0.7075 l
0.6934 0.7047 l
0.6961 0.7018 l
0.6988 0.6988 l
0.7015 0.6958 l
0.7043 0.6927 l
0.7070 0.6895 l
0.7097 0.6863 l
0.7124 0.6829 l
0.7152 0.6795 l
0.7179 0.6760 l
0.7206 0.6724 l
0.7233 0.6688 l
0.7261 0.6650 l
0.7288 0.6612 l
0.7315 0.6573 l
0.7342 0.6533 l
0.7369 0.6492 l
0.7397 0.6450 l
0.7424 0.6407 l
0.7451 0.6363 l
0.7478 0.6318 l
0.7506 0.6273 l
0.7533 0.6226 l
0.7560 0.6178 l
0.7587 0.6130 l
0.7615 0.6080 l
0.7642 0.6029 l
0.7669 0.5978 l
0.7696 0.5925 l
0.7724 0.5871 l
0.7751 0.5816 l
0.7778 0.5760 l
0.7805 0.5703 l
0.7833 0.5645 l
0.7834 0.5643 l
s
[/DeviceRGB] SCS
Color3 SC
[0.0037 0.0112 0.0187 0.0112 0.0037 0.0112 ] 0 SD
0.0037 SLW
n
0.5108 0.7853 m
0.5109 0.7853 l
0.5136 0.7851 l
0.5163 0.7849 l
0.5190 0.7846 l
0.5218 0.7843 l
0.5245 0.7840 l
0.5272 0.7837 l
0.5299 0.7834 l
0.5327 0.7831 l
0.5354 0.7827 l
0.5381 0.7824 l
0.5408 0.7820 l
0.5436 0.7815 l
0.5463 0.7811 l
0.5490 0.7807 l
0.5517 0.7802 l
0.5544 0.7797 l
0.5572 0.7792 l
0.5599 0.7786 l
0.5626 0.7781 l
0.5653 0.7775 l
0.5681 0.7768 l
0.5708 0.7762 l
0.5735 0.7755 l
0.5762 0.7748 l
0.5790 0.7741 l
0.5817 0.7733 l
0.5844 0.7725 l
0.5871 0.7717 l
0.5899 0.7708 l
0.5926 0.7699 l
0.5953 0.7690 l
0.5980 0.7680 l
0.6008 0.7670 l
0.6035 0.7660 l
0.6062 0.7649 l
0.6089 0.7638 l
0.6116 0.7626 l
0.6144 0.7614 l
0.6171 0.7602 l
0.6198 0.7589 l
0.6225 0.7576 l
0.6253 0.7562 l
0.6280 0.7548 l
0.6307 0.7534 l
0.6334 0.7519 l
0.6362 0.7503 l
0.6389 0.7487 l
0.6416 0.7471 l
0.6443 0.7453 l
0.6471 0.7436 l
0.6498 0.7418 l
0.6525 0.7399 l
0.6552 0.7380 l
0.6580 0.7360 l
0.6607 0.7340 l
0.6634 0.7319 l
0.6661 0.7297 l
0.6689 0.7275 l
0.6716 0.7252 l
0.6743 0.7229 l
0.6770 0.7205 l
0.6797 0.7180 l
0.6825 0.7155 l
0.6852 0.7129 l
0.6879 0.7102 l
0.6906 0.7075 l
0.6934 0.7047 l
0.6961 0.7018 l
0.6988 0.6988 l
0.7015 0.6958 l
0.7043 0.6927 l
0.7070 0.6895 l
0.7097 0.6863 l
0.7124 0.6829 l
0.7152 0.6795 l
0.7179 0.6760 l
0.7206 0.6724 l
0.7233 0.6688 l
0.7261 0.6650 l
0.7288 0.6612 l
0.7315 0.6573 l
0.7342 0.6533 l
0.7369 0.6492 l
0.7397 0.6450 l
0.7424 0.6407 l
0.7451 0.6363 l
0.7478 0.6318 l
0.7506 0.6273 l
0.7533 0.6226 l
0.7560 0.6178 l
0.7587 0.6130 l
0.7615 0.6080 l
0.7642 0.6029 l
0.7669 0.5978 l
0.7696 0.5925 l
0.7724 0.5871 l
0.7751 0.5816 l
0.7778 0.5760 l
0.7805 0.5703 l
0.7833 0.5645 l
0.7834 0.5643 l
s
[/DeviceRGB] SCS
Color8 SC
[0.0187 0.0112 0.0037 0.0112 0.0187 0.0112 ] 0 SD
0.0037 SLW
n
0.5108 0.7853 m
0.5109 0.7853 l
0.5136 0.7851 l
0.5163 0.7848 l
0.5190 0.7846 l
0.5218 0.7843 l
0.5245 0.7840 l
0.5272 0.7837 l
0.5299 0.7834 l
0.5327 0.7831 l
0.5354 0.7827 l
0.5381 0.7823 l
0.5408 0.7819 l
0.5436 0.7815 l
0.5463 0.7811 l
0.5490 0.7806 l
0.5517 0.7801 l
0.5544 0.7796 l
0.5572 0.7791 l
0.5599 0.7786 l
0.5626 0.7780 l
0.5653 0.7774 l
0.5681 0.7768 l
0.5708 0.7761 l
0.5735 0.7754 l
0.5762 0.7747 l
0.5790 0.7740 l
0.5817 0.7732 l
0.5844 0.7724 l
0.5871 0.7716 l
0.5899 0.7707 l
0.5926 0.7698 l
0.5953 0.7689 l
0.5980 0.7679 l
0.6008 0.7669 l
0.6035 0.7658 l
0.6062 0.7647 l
0.6089 0.7636 l
0.6116 0.7625 l
0.6144 0.7612 l
0.6171 0.7600 l
0.6198 0.7587 l
0.6225 0.7574 l
0.6253 0.7560 l
0.6280 0.7546 l
0.6307 0.7531 l
0.6334 0.7516 l
0.6362 0.7500 l
0.6389 0.7484 l
0.6416 0.7467 l
0.6443 0.7450 l
0.6471 0.7432 l
0.6498 0.7414 l
0.6525 0.7395 l
0.6552 0.7376 l
0.6580 0.7356 l
0.6607 0.7335 l
0.6634 0.7314 l
0.6661 0.7292 l
0.6689 0.7270 l
0.6716 0.7247 l
0.6743 0.7223 l
0.6770 0.7199 l
0.6797 0.7174 l
0.6825 0.7148 l
0.6852 0.7122 l
0.6879 0.7095 l
0.6906 0.7067 l
0.6934 0.7039 l
0.6961 0.7009 l
0.6988 0.6979 l
0.7015 0.6949 l
0.7043 0.6917 l
0.7070 0.6885 l
0.7097 0.6852 l
0.7124 0.6818 l
0.7152 0.6784 l
0.7179 0.6748 l
0.7206 0.6712 l
0.7233 0.6675 l
0.7261 0.6637 l
0.7288 0.6598 l
0.7315 0.6558 l
0.7342 0.6517 l
0.7369 0.6476 l
0.7397 0.6433 l
0.7424 0.6390 l
0.7451 0.6345 l
0.7478 0.6300 l
0.7506 0.6254 l
0.7533 0.6206 l
0.7560 0.6158 l
0.7587 0.6109 l
0.7615 0.6058 l
0.7642 0.6007 l
0.7669 0.5954 l
0.7696 0.5901 l
0.7724 0.5846 l
0.7751 0.5790 l
0.7778 0.5733 l
0.7805 0.5675 l
0.7833 0.5616 l
0.7834 0.5614 l
s
[/DeviceRGB] SCS
Color1 SC
[] 0 SD
0.0045 SLW
n
0.5109 0.1500 m
0.7833 0.1500 l
s
n
0.5109 0.8500 m
0.7833 0.8500 l
s
n
0.5109 0.1500 m
0.5109 0.1600 l
s
n
0.5109 0.8500 m
0.5109 0.8400 l
s
n
0.5926 0.1500 m
0.5926 0.1600 l
s
n
0.5926 0.8500 m
0.5926 0.8400 l
s
n
0.6743 0.1500 m
0.6743 0.1600 l
s
n
0.6743 0.8500 m
0.6743 0.8400 l
s
n
0.7560 0.1500 m
0.7560 0.1600 l
s
n
0.7560 0.8500 m
0.7560 0.8400 l
s
n
0.5517 0.1500 m
0.5517 0.1700 l
s
n
0.5517 0.8500 m
0.5517 0.8300 l
s
n
0.6334 0.1500 m
0.6334 0.1700 l
s
n
0.6334 0.8500 m
0.6334 0.8300 l
s
n
0.7152 0.1500 m
0.7152 0.1700 l
s
n
0.7152 0.8500 m
0.7152 0.8300 l
s
/Font0 FFSF
0.5247 0.1094 m
GS
[0.0448 0.0000 0.0000 0.0448 0 0] CC
(0.9) show
GR
/Font0 FFSF
0.6060 0.1094 m
GS
[0.0448 0.0000 0.0000 0.0448 0 0] CC
(1.2) show
GR
/Font0 FFSF
0.6885 0.1090 m
GS
[0.0448 0.0000 0.0000 0.0448 0 0] CC
(1.5) show
GR
/Font0 FFSF
0.5606 0.0441 m
GS
[0.0504 0.0000 0.0000 0.0504 0 0] CC
(k) show
GR
/Font0 FFSF
0.5857 0.0239 m
GS
[0.0356 0.0000 0.0000 0.0356 0 0] CC
(F) show
GR
/Font0 FFSF
0.6057 0.0441 m
GS
[0.0504 0.0000 0.0000 0.0504 0 0] CC
( [fm) show
GR
/Font0 FFSF
0.6912 0.0743 m
GS
[0.0356 0.0000 0.0000 0.0356 0 0] CC
(-1) show
GR
/Font0 FFSF
0.7210 0.0441 m
GS
[0.0504 0.0000 0.0000 0.0504 0 0] CC
(]) show
GR
n
0.5109 0.1500 m
0.5109 0.8500 l
s
n
0.7833 0.1500 m
0.7833 0.8500 l
s
n
0.5109 0.2324 m
0.5209 0.2324 l
s
n
0.7833 0.2324 m
0.7733 0.2324 l
s
n
0.5109 0.3559 m
0.5209 0.3559 l
s
n
0.7833 0.3559 m
0.7733 0.3559 l
s
n
0.5109 0.4794 m
0.5209 0.4794 l
s
n
0.7833 0.4794 m
0.7733 0.4794 l
s
n
0.5109 0.6029 m
0.5209 0.6029 l
s
n
0.7833 0.6029 m
0.7733 0.6029 l
s
n
0.5109 0.7265 m
0.5209 0.7265 l
s
n
0.7833 0.7265 m
0.7733 0.7265 l
s
n
0.5109 0.8500 m
0.5209 0.8500 l
s
n
0.7833 0.8500 m
0.7733 0.8500 l
s
n
0.5109 0.1706 m
0.5309 0.1706 l
s
n
0.7833 0.1706 m
0.7633 0.1706 l
s
n
0.5109 0.2941 m
0.5309 0.2941 l
s
n
0.7833 0.2941 m
0.7633 0.2941 l
s
n
0.5109 0.4176 m
0.5309 0.4176 l
s
n
0.7833 0.4176 m
0.7633 0.4176 l
s
n
0.5109 0.5412 m
0.5309 0.5412 l
s
n
0.7833 0.5412 m
0.7633 0.5412 l
s
n
0.5109 0.6647 m
0.5309 0.6647 l
s
n
0.7833 0.6647 m
0.7633 0.6647 l
s
n
0.5109 0.7882 m
0.5309 0.7882 l
s
n
0.7833 0.7882 m
0.7633 0.7882 l
s
/Font0 FFSF
0.4326 0.1555 m
GS
[0.0448 0.0000 0.0000 0.0448 0 0] CC
(-1.5) show
GR
/Font0 FFSF
0.4311 0.2790 m
GS
[0.0448 0.0000 0.0000 0.0448 0 0] CC
(-1.2) show
GR
/Font0 FFSF
0.4318 0.4029 m
GS
[0.0448 0.0000 0.0000 0.0448 0 0] CC
(-0.9) show
GR
/Font0 FFSF
0.4315 0.5263 m
GS
[0.0448 0.0000 0.0000 0.0448 0 0] CC
(-0.6) show
GR
/Font0 FFSF
0.4326 0.6498 m
GS
[0.0448 0.0000 0.0000 0.0448 0 0] CC
(-0.3) show
GR
/Font0 FFSF
0.4797 0.7733 m
GS
[0.0448 0.0000 0.0000 0.0448 0 0] CC
(0) show
GR
[] 0 SD
0.0015 SLW
n
0.5109 0.1500 m
0.5109 0.8500 l
0.7833 0.8500 l
0.7833 0.1500 l
0.5109 0.1500 l
c
s
/Font12 FFSF
0.5653 0.8868 m
GS
[0.0420 0.0000 0.0000 0.0420 0 0] CC
(d) show
GR
/Font0 FFSF
0.5861 0.8700 m
GS
[0.0297 0.0000 0.0000 0.0297 0 0] CC
(D) show
GR
/Font0 FFSF
0.6076 0.8868 m
GS
[0.0420 0.0000 0.0000 0.0420 0 0] CC
( [MeV]) show
GR
[] 0 SD
0.0037 SLW
n
0.8716 0.5000 m
0.8717 0.5000 l
0.8745 0.5000 l
0.8772 0.5000 l
0.8799 0.5000 l
0.8826 0.5000 l
0.8853 0.5000 l
0.8881 0.5000 l
0.8908 0.5000 l
0.8935 0.5000 l
0.8962 0.5000 l
0.8990 0.5000 l
0.9017 0.5000 l
0.9044 0.5000 l
0.9071 0.5000 l
0.9099 0.5000 l
0.9126 0.4999 l
0.9153 0.4999 l
0.9180 0.4999 l
0.9208 0.4999 l
0.9235 0.4999 l
0.9262 0.4998 l
0.9289 0.4998 l
0.9317 0.4998 l
0.9344 0.4997 l
0.9371 0.4997 l
0.9398 0.4996 l
0.9426 0.4996 l
0.9453 0.4995 l
0.9480 0.4995 l
0.9507 0.4994 l
0.9534 0.4993 l
0.9562 0.4992 l
0.9589 0.4991 l
0.9616 0.4990 l
0.9643 0.4989 l
0.9671 0.4988 l
0.9698 0.4987 l
0.9725 0.4986 l
0.9752 0.4984 l
0.9780 0.4983 l
0.9807 0.4981 l
0.9834 0.4979 l
0.9861 0.4977 l
0.9889 0.4975 l
0.9916 0.4973 l
0.9943 0.4971 l
0.9970 0.4968 l
0.9998 0.4966 l
1.0025 0.4963 l
1.0052 0.4960 l
1.0079 0.4954 l
1.0106 0.4953 l
1.0134 0.4949 l
1.0161 0.4945 l
1.0188 0.4941 l
1.0215 0.4937 l
1.0243 0.4933 l
1.0270 0.4928 l
1.0297 0.4923 l
1.0324 0.4917 l
1.0352 0.4911 l
1.0379 0.4906 l
1.0406 0.4899 l
1.0433 0.4893 l
1.0461 0.4886 l
1.0488 0.4878 l
1.0515 0.4871 l
1.0542 0.4862 l
1.0570 0.4854 l
1.0597 0.4845 l
1.0624 0.4836 l
1.0651 0.4826 l
1.0678 0.4816 l
1.0706 0.4805 l
1.0733 0.4794 l
1.0760 0.4782 l
1.0787 0.4770 l
1.0815 0.4757 l
1.0842 0.4744 l
1.0869 0.4730 l
1.0896 0.4715 l
1.0924 0.4700 l
1.0951 0.4684 l
1.0978 0.4668 l
1.1005 0.4650 l
1.1033 0.4633 l
1.1060 0.4614 l
1.1087 0.4595 l
1.1114 0.4575 l
1.1142 0.4554 l
1.1169 0.4532 l
1.1196 0.4510 l
1.1223 0.4487 l
1.1251 0.4462 l
1.1278 0.4437 l
1.1305 0.4411 l
1.1332 0.4384 l
1.1359 0.4357 l
1.1387 0.4328 l
1.1414 0.4298 l
1.1441 0.4267 l
1.1442 0.4266 l
s
[/DeviceRGB] SCS
Color2 SC
[0.0187 0.0112 ] 0 SD
0.0037 SLW
n
0.8716 0.5013 m
0.8717 0.5013 l
0.8745 0.5015 l
0.8772 0.5016 l
0.8799 0.5017 l
0.8826 0.5019 l
0.8853 0.5020 l
0.8881 0.5022 l
0.8908 0.5024 l
0.8935 0.5026 l
0.8962 0.5028 l
0.8990 0.5030 l
0.9017 0.5032 l
0.9044 0.5034 l
0.9071 0.5037 l
0.9099 0.5040 l
0.9126 0.5042 l
0.9153 0.5045 l
0.9180 0.5048 l
0.9208 0.5052 l
0.9235 0.5055 l
0.9262 0.5058 l
0.9289 0.5062 l
0.9317 0.5066 l
0.9344 0.5070 l
0.9371 0.5074 l
0.9398 0.5078 l
0.9426 0.5083 l
0.9453 0.5088 l
0.9480 0.5093 l
0.9507 0.5098 l
0.9534 0.5103 l
0.9562 0.5108 l
0.9589 0.5114 l
0.9616 0.5120 l
0.9643 0.5126 l
0.9671 0.5132 l
0.9698 0.5138 l
0.9725 0.5145 l
0.9752 0.5152 l
0.9780 0.5159 l
0.9807 0.5166 l
0.9834 0.5173 l
0.9861 0.5181 l
0.9889 0.5189 l
0.9916 0.5197 l
0.9943 0.5205 l
0.9970 0.5214 l
0.9998 0.5222 l
1.0025 0.5231 l
1.0052 0.5240 l
1.0079 0.5246 l
1.0106 0.5259 l
1.0134 0.5268 l
1.0161 0.5278 l
1.0188 0.5288 l
1.0215 0.5298 l
1.0243 0.5308 l
1.0270 0.5319 l
1.0297 0.5329 l
1.0324 0.5340 l
1.0352 0.5351 l
1.0379 0.5362 l
1.0406 0.5373 l
1.0433 0.5385 l
1.0461 0.5396 l
1.0488 0.5408 l
1.0515 0.5419 l
1.0542 0.5431 l
1.0570 0.5443 l
1.0597 0.5455 l
1.0624 0.5467 l
1.0651 0.5479 l
1.0678 0.5491 l
1.0706 0.5503 l
1.0733 0.5516 l
1.0760 0.5528 l
1.0787 0.5540 l
1.0815 0.5552 l
1.0842 0.5565 l
1.0869 0.5577 l
1.0896 0.5589 l
1.0924 0.5601 l
1.0951 0.5613 l
1.0978 0.5625 l
1.1005 0.5637 l
1.1033 0.5648 l
1.1060 0.5660 l
1.1087 0.5671 l
1.1114 0.5683 l
1.1142 0.5694 l
1.1169 0.5705 l
1.1196 0.5715 l
1.1223 0.5726 l
1.1251 0.5736 l
1.1278 0.5745 l
1.1305 0.5755 l
1.1332 0.5764 l
1.1359 0.5773 l
1.1387 0.5781 l
1.1414 0.5789 l
1.1441 0.5797 l
1.1442 0.5797 l
s
n
0.8790 0.5076 m
0.8790 0.5204 l
0.8917 0.5204 l
0.8917 0.5076 l
c
GS
Color0 SRGB
fill
GR
[/Pattern /DeviceRGB] SCS
Color1 Pattern8 SC
fill
[/DeviceRGB] SCS
Color1 SC
[] 0 SD
0.0037 SLW
n
0.8790 0.5076 m
0.8790 0.5204 l
0.8917 0.5204 l
0.8917 0.5076 l
0.8790 0.5076 l
c
s
n
0.9062 0.5194 m
0.9062 0.5321 l
0.9190 0.5321 l
0.9190 0.5194 l
c
GS
Color0 SRGB
fill
GR
[/Pattern /DeviceRGB] SCS
Color1 Pattern8 SC
fill
[/DeviceRGB] SCS
Color1 SC
n
0.9062 0.5194 m
0.9062 0.5321 l
0.9190 0.5321 l
0.9190 0.5194 l
0.9062 0.5194 l
c
s
n
0.9335 0.5361 m
0.9335 0.5489 l
0.9462 0.5489 l
0.9462 0.5361 l
c
GS
Color0 SRGB
fill
GR
[/Pattern /DeviceRGB] SCS
Color1 Pattern8 SC
fill
[/DeviceRGB] SCS
Color1 SC
n
0.9335 0.5361 m
0.9335 0.5489 l
0.9462 0.5489 l
0.9462 0.5361 l
0.9335 0.5361 l
c
s
n
0.9607 0.5581 m
0.9607 0.5708 l
0.9734 0.5708 l
0.9734 0.5581 l
c
GS
Color0 SRGB
fill
GR
[/Pattern /DeviceRGB] SCS
Color1 Pattern8 SC
fill
[/DeviceRGB] SCS
Color1 SC
n
0.9607 0.5581 m
0.9607 0.5708 l
0.9734 0.5708 l
0.9734 0.5581 l
0.9607 0.5581 l
c
s
n
0.9879 0.5847 m
0.9879 0.5974 l
1.0007 0.5974 l
1.0007 0.5847 l
c
GS
Color0 SRGB
fill
GR
[/Pattern /DeviceRGB] SCS
Color1 Pattern8 SC
fill
[/DeviceRGB] SCS
Color1 SC
n
0.9879 0.5847 m
0.9879 0.5974 l
1.0007 0.5974 l
1.0007 0.5847 l
0.9879 0.5847 l
c
s
n
1.0152 0.6148 m
1.0152 0.6275 l
1.0279 0.6275 l
1.0279 0.6148 l
c
GS
Color0 SRGB
fill
GR
[/Pattern /DeviceRGB] SCS
Color1 Pattern8 SC
fill
[/DeviceRGB] SCS
Color1 SC
n
1.0152 0.6148 m
1.0152 0.6275 l
1.0279 0.6275 l
1.0279 0.6148 l
1.0152 0.6148 l
c
s
n
1.0424 0.6468 m
1.0424 0.6595 l
1.0552 0.6595 l
1.0552 0.6468 l
c
GS
Color0 SRGB
fill
GR
[/Pattern /DeviceRGB] SCS
Color1 Pattern8 SC
fill
[/DeviceRGB] SCS
Color1 SC
n
1.0424 0.6468 m
1.0424 0.6595 l
1.0552 0.6595 l
1.0552 0.6468 l
1.0424 0.6468 l
c
s
n
1.0696 0.6791 m
1.0696 0.6918 l
1.0824 0.6918 l
1.0824 0.6791 l
c
GS
Color0 SRGB
fill
GR
[/Pattern /DeviceRGB] SCS
Color1 Pattern8 SC
fill
[/DeviceRGB] SCS
Color1 SC
n
1.0696 0.6791 m
1.0696 0.6918 l
1.0824 0.6918 l
1.0824 0.6791 l
1.0696 0.6791 l
c
s
n
1.0969 0.7101 m
1.0969 0.7229 l
1.1096 0.7229 l
1.1096 0.7101 l
c
GS
Color0 SRGB
fill
GR
[/Pattern /DeviceRGB] SCS
Color1 Pattern8 SC
fill
[/DeviceRGB] SCS
Color1 SC
n
1.0969 0.7101 m
1.0969 0.7229 l
1.1096 0.7229 l
1.1096 0.7101 l
1.0969 0.7101 l
c
s
n
1.1241 0.7393 m
1.1241 0.7520 l
1.1369 0.7520 l
1.1369 0.7393 l
c
GS
Color0 SRGB
fill
GR
[/Pattern /DeviceRGB] SCS
Color1 Pattern8 SC
fill
[/DeviceRGB] SCS
Color1 SC
n
1.1241 0.7393 m
1.1241 0.7520 l
1.1369 0.7520 l
1.1369 0.7393 l
1.1241 0.7393 l
c
s
[/DeviceRGB] SCS
Color4 SC
[0.0037 0.0112 ] 0 SD
0.0037 SLW
n
0.8716 0.4999 m
0.8717 0.4999 l
0.8745 0.4998 l
0.8772 0.4998 l
0.8799 0.4998 l
0.8826 0.4998 l
0.8853 0.4998 l
0.8881 0.4997 l
0.8908 0.4997 l
0.8935 0.4997 l
0.8962 0.4996 l
0.8990 0.4996 l
0.9017 0.4996 l
0.9044 0.4995 l
0.9071 0.4995 l
0.9099 0.4994 l
0.9126 0.4994 l
0.9153 0.4993 l
0.9180 0.4993 l
0.9208 0.4992 l
0.9235 0.4991 l
0.9262 0.4990 l
0.9289 0.4990 l
0.9317 0.4989 l
0.9344 0.4988 l
0.9371 0.4987 l
0.9398 0.4986 l
0.9426 0.4984 l
0.9453 0.4983 l
0.9480 0.4982 l
0.9507 0.4980 l
0.9534 0.4979 l
0.9562 0.4977 l
0.9589 0.4976 l
0.9616 0.4974 l
0.9643 0.4972 l
0.9671 0.4970 l
0.9698 0.4967 l
0.9725 0.4965 l
0.9752 0.4963 l
0.9780 0.4960 l
0.9807 0.4957 l
0.9834 0.4954 l
0.9861 0.4951 l
0.9889 0.4948 l
0.9916 0.4944 l
0.9943 0.4941 l
0.9970 0.4937 l
0.9998 0.4933 l
1.0025 0.4929 l
1.0052 0.4924 l
1.0079 0.4917 l
1.0106 0.4914 l
1.0134 0.4909 l
1.0161 0.4904 l
1.0188 0.4898 l
1.0215 0.4892 l
1.0243 0.4885 l
1.0270 0.4879 l
1.0297 0.4872 l
1.0324 0.4864 l
1.0352 0.4857 l
1.0379 0.4849 l
1.0406 0.4840 l
1.0433 0.4831 l
1.0461 0.4822 l
1.0488 0.4813 l
1.0515 0.4803 l
1.0542 0.4792 l
1.0570 0.4781 l
1.0597 0.4770 l
1.0624 0.4758 l
1.0651 0.4746 l
1.0678 0.4733 l
1.0706 0.4719 l
1.0733 0.4705 l
1.0760 0.4691 l
1.0787 0.4676 l
1.0815 0.4660 l
1.0842 0.4644 l
1.0869 0.4627 l
1.0896 0.4609 l
1.0924 0.4591 l
1.0951 0.4572 l
1.0978 0.4553 l
1.1005 0.4532 l
1.1033 0.4511 l
1.1060 0.4489 l
1.1087 0.4467 l
1.1114 0.4443 l
1.1142 0.4419 l
1.1169 0.4394 l
1.1196 0.4368 l
1.1223 0.4341 l
1.1251 0.4313 l
1.1278 0.4284 l
1.1305 0.4254 l
1.1332 0.4223 l
1.1359 0.4192 l
1.1387 0.4159 l
1.1414 0.4125 l
1.1441 0.4090 l
1.1442 0.4088 l
s
[/DeviceRGB] SCS
Color11 SC
[0.0037 0.0112 0.0262 0.0112 ] 0 SD
0.0037 SLW
n
0.8716 0.5013 m
0.8717 0.5013 l
0.8745 0.5014 l
0.8772 0.5016 l
0.8799 0.5017 l
0.8826 0.5019 l
0.8853 0.5020 l
0.8881 0.5022 l
0.8908 0.5024 l
0.8935 0.5026 l
0.8962 0.5028 l
0.8990 0.5030 l
0.9017 0.5032 l
0.9044 0.5034 l
0.9071 0.5037 l
0.9099 0.5039 l
0.9126 0.5042 l
0.9153 0.5045 l
0.9180 0.5048 l
0.9208 0.5051 l
0.9235 0.5054 l
0.9262 0.5058 l
0.9289 0.5062 l
0.9317 0.5065 l
0.9344 0.5069 l
0.9371 0.5073 l
0.9398 0.5078 l
0.9426 0.5082 l
0.9453 0.5087 l
0.9480 0.5092 l
0.9507 0.5096 l
0.9534 0.5102 l
0.9562 0.5107 l
0.9589 0.5113 l
0.9616 0.5118 l
0.9643 0.5124 l
0.9671 0.5130 l
0.9698 0.5137 l
0.9725 0.5143 l
0.9752 0.5150 l
0.9780 0.5156 l
0.9807 0.5164 l
0.9834 0.5171 l
0.9861 0.5178 l
0.9889 0.5186 l
0.9916 0.5194 l
0.9943 0.5202 l
0.9970 0.5210 l
0.9998 0.5218 l
1.0025 0.5227 l
1.0052 0.5236 l
1.0079 0.5241 l
1.0106 0.5254 l
1.0134 0.5263 l
1.0161 0.5272 l
1.0188 0.5282 l
1.0215 0.5292 l
1.0243 0.5301 l
1.0270 0.5312 l
1.0297 0.5322 l
1.0324 0.5332 l
1.0352 0.5342 l
1.0379 0.5353 l
1.0406 0.5364 l
1.0433 0.5375 l
1.0461 0.5386 l
1.0488 0.5397 l
1.0515 0.5408 l
1.0542 0.5419 l
1.0570 0.5430 l
1.0597 0.5441 l
1.0624 0.5453 l
1.0651 0.5464 l
1.0678 0.5475 l
1.0706 0.5487 l
1.0733 0.5498 l
1.0760 0.5510 l
1.0787 0.5521 l
1.0815 0.5532 l
1.0842 0.5544 l
1.0869 0.5555 l
1.0896 0.5566 l
1.0924 0.5577 l
1.0951 0.5588 l
1.0978 0.5599 l
1.1005 0.5609 l
1.1033 0.5620 l
1.1060 0.5630 l
1.1087 0.5640 l
1.1114 0.5650 l
1.1142 0.5660 l
1.1169 0.5669 l
1.1196 0.5678 l
1.1223 0.5687 l
1.1251 0.5695 l
1.1278 0.5703 l
1.1305 0.5711 l
1.1332 0.5718 l
1.1359 0.5725 l
1.1387 0.5732 l
1.1414 0.5738 l
1.1441 0.5744 l
1.1442 0.5744 l
s
[/DeviceRGB] SCS
Color3 SC
[0.0037 0.0112 0.0187 0.0112 0.0037 0.0112 ] 0 SD
0.0037 SLW
n
0.8716 0.5013 m
0.8717 0.5013 l
0.8745 0.5014 l
0.8772 0.5016 l
0.8799 0.5017 l
0.8826 0.5019 l
0.8853 0.5020 l
0.8881 0.5022 l
0.8908 0.5024 l
0.8935 0.5026 l
0.8962 0.5028 l
0.8990 0.5030 l
0.9017 0.5032 l
0.9044 0.5034 l
0.9071 0.5037 l
0.9099 0.5039 l
0.9126 0.5042 l
0.9153 0.5045 l
0.9180 0.5048 l
0.9208 0.5051 l
0.9235 0.5054 l
0.9262 0.5058 l
0.9289 0.5062 l
0.9317 0.5065 l
0.9344 0.5069 l
0.9371 0.5073 l
0.9398 0.5078 l
0.9426 0.5082 l
0.9453 0.5087 l
0.9480 0.5092 l
0.9507 0.5096 l
0.9534 0.5102 l
0.9562 0.5107 l
0.9589 0.5113 l
0.9616 0.5118 l
0.9643 0.5124 l
0.9671 0.5130 l
0.9698 0.5137 l
0.9725 0.5143 l
0.9752 0.5150 l
0.9780 0.5156 l
0.9807 0.5164 l
0.9834 0.5171 l
0.9861 0.5178 l
0.9889 0.5186 l
0.9916 0.5194 l
0.9943 0.5202 l
0.9970 0.5210 l
0.9998 0.5218 l
1.0025 0.5227 l
1.0052 0.5236 l
1.0079 0.5241 l
1.0106 0.5254 l
1.0134 0.5263 l
1.0161 0.5272 l
1.0188 0.5282 l
1.0215 0.5292 l
1.0243 0.5301 l
1.0270 0.5312 l
1.0297 0.5322 l
1.0324 0.5332 l
1.0352 0.5342 l
1.0379 0.5353 l
1.0406 0.5364 l
1.0433 0.5375 l
1.0461 0.5386 l
1.0488 0.5397 l
1.0515 0.5408 l
1.0542 0.5419 l
1.0570 0.5430 l
1.0597 0.5441 l
1.0624 0.5453 l
1.0651 0.5464 l
1.0678 0.5475 l
1.0706 0.5487 l
1.0733 0.5498 l
1.0760 0.5510 l
1.0787 0.5521 l
1.0815 0.5532 l
1.0842 0.5544 l
1.0869 0.5555 l
1.0896 0.5566 l
1.0924 0.5577 l
1.0951 0.5588 l
1.0978 0.5599 l
1.1005 0.5609 l
1.1033 0.5620 l
1.1060 0.5630 l
1.1087 0.5640 l
1.1114 0.5650 l
1.1142 0.5660 l
1.1169 0.5669 l
1.1196 0.5678 l
1.1223 0.5687 l
1.1251 0.5695 l
1.1278 0.5703 l
1.1305 0.5711 l
1.1332 0.5718 l
1.1359 0.5725 l
1.1387 0.5732 l
1.1414 0.5738 l
1.1441 0.5744 l
1.1442 0.5744 l
s
[/DeviceRGB] SCS
Color8 SC
[0.0187 0.0112 0.0037 0.0112 0.0187 0.0112 ] 0 SD
0.0037 SLW
n
0.8716 0.5013 m
0.8717 0.5013 l
0.8745 0.5014 l
0.8772 0.5016 l
0.8799 0.5017 l
0.8826 0.5018 l
0.8853 0.5020 l
0.8881 0.5022 l
0.8908 0.5023 l
0.8935 0.5025 l
0.8962 0.5027 l
0.8990 0.5029 l
0.9017 0.5032 l
0.9044 0.5034 l
0.9071 0.5036 l
0.9099 0.5039 l
0.9126 0.5042 l
0.9153 0.5045 l
0.9180 0.5047 l
0.9208 0.5051 l
0.9235 0.5054 l
0.9262 0.5057 l
0.9289 0.5061 l
0.9317 0.5065 l
0.9344 0.5069 l
0.9371 0.5073 l
0.9398 0.5077 l
0.9426 0.5081 l
0.9453 0.5086 l
0.9480 0.5090 l
0.9507 0.5095 l
0.9534 0.5100 l
0.9562 0.5106 l
0.9589 0.5111 l
0.9616 0.5117 l
0.9643 0.5122 l
0.9671 0.5128 l
0.9698 0.5135 l
0.9725 0.5141 l
0.9752 0.5147 l
0.9780 0.5154 l
0.9807 0.5161 l
0.9834 0.5168 l
0.9861 0.5175 l
0.9889 0.5183 l
0.9916 0.5190 l
0.9943 0.5198 l
0.9970 0.5206 l
0.9998 0.5214 l
1.0025 0.5223 l
1.0052 0.5231 l
1.0079 0.5236 l
1.0106 0.5248 l
1.0134 0.5257 l
1.0161 0.5267 l
1.0188 0.5276 l
1.0215 0.5285 l
1.0243 0.5295 l
1.0270 0.5304 l
1.0297 0.5314 l
1.0324 0.5324 l
1.0352 0.5334 l
1.0379 0.5344 l
1.0406 0.5354 l
1.0433 0.5365 l
1.0461 0.5375 l
1.0488 0.5386 l
1.0515 0.5396 l
1.0542 0.5407 l
1.0570 0.5417 l
1.0597 0.5428 l
1.0624 0.5438 l
1.0651 0.5449 l
1.0678 0.5460 l
1.0706 0.5470 l
1.0733 0.5481 l
1.0760 0.5491 l
1.0787 0.5502 l
1.0815 0.5512 l
1.0842 0.5523 l
1.0869 0.5533 l
1.0896 0.5543 l
1.0924 0.5553 l
1.0951 0.5563 l
1.0978 0.5572 l
1.1005 0.5582 l
1.1033 0.5591 l
1.1060 0.5600 l
1.1087 0.5609 l
1.1114 0.5617 l
1.1142 0.5625 l
1.1169 0.5633 l
1.1196 0.5641 l
1.1223 0.5648 l
1.1251 0.5655 l
1.1278 0.5661 l
1.1305 0.5667 l
1.1332 0.5673 l
1.1359 0.5678 l
1.1387 0.5682 l
1.1414 0.5686 l
1.1441 0.5690 l
1.1442 0.5690 l
s
[/DeviceRGB] SCS
Color1 SC
[] 0 SD
0.0045 SLW
n
0.8717 0.1500 m
1.1441 0.1500 l
s
n
0.8717 0.8500 m
1.1441 0.8500 l
s
n
0.8717 0.1500 m
0.8717 0.1600 l
s
n
0.8717 0.8500 m
0.8717 0.8400 l
s
n
0.9534 0.1500 m
0.9534 0.1600 l
s
n
0.9534 0.8500 m
0.9534 0.8400 l
s
n
1.0352 0.1500 m
1.0352 0.1600 l
s
n
1.0352 0.8500 m
1.0352 0.8400 l
s
n
1.1169 0.1500 m
1.1169 0.1600 l
s
n
1.1169 0.8500 m
1.1169 0.8400 l
s
n
0.9126 0.1500 m
0.9126 0.1700 l
s
n
0.9126 0.8500 m
0.9126 0.8300 l
s
n
0.9943 0.1500 m
0.9943 0.1700 l
s
n
0.9943 0.8500 m
0.9943 0.8300 l
s
n
1.0760 0.1500 m
1.0760 0.1700 l
s
n
1.0760 0.8500 m
1.0760 0.8300 l
s
/Font0 FFSF
0.8855 0.1094 m
GS
[0.0448 0.0000 0.0000 0.0448 0 0] CC
(0.9) show
GR
/Font0 FFSF
0.9669 0.1094 m
GS
[0.0448 0.0000 0.0000 0.0448 0 0] CC
(1.2) show
GR
/Font0 FFSF
1.0494 0.1090 m
GS
[0.0448 0.0000 0.0000 0.0448 0 0] CC
(1.5) show
GR
n
0.8717 0.1500 m
0.8717 0.8500 l
s
n
1.1441 0.1500 m
1.1441 0.8500 l
s
n
0.8717 0.2900 m
0.8817 0.2900 l
s
n
1.1441 0.2900 m
1.1341 0.2900 l
s
n
0.8717 0.4300 m
0.8817 0.4300 l
s
n
1.1441 0.4300 m
1.1341 0.4300 l
s
n
0.8717 0.5700 m
0.8817 0.5700 l
s
n
1.1441 0.5700 m
1.1341 0.5700 l
s
n
0.8717 0.7100 m
0.8817 0.7100 l
s
n
1.1441 0.7100 m
1.1341 0.7100 l
s
n
0.8717 0.8500 m
0.8817 0.8500 l
s
n
1.1441 0.8500 m
1.1341 0.8500 l
s
n
0.8717 0.2200 m
0.8917 0.2200 l
s
n
1.1441 0.2200 m
1.1241 0.2200 l
s
n
0.8717 0.3600 m
0.8917 0.3600 l
s
n
1.1441 0.3600 m
1.1241 0.3600 l
s
n
0.8717 0.5000 m
0.8917 0.5000 l
s
n
1.1441 0.5000 m
1.1241 0.5000 l
s
n
0.8717 0.6400 m
0.8917 0.6400 l
s
n
1.1441 0.6400 m
1.1241 0.6400 l
s
n
0.8717 0.7800 m
0.8917 0.7800 l
s
n
1.1441 0.7800 m
1.1241 0.7800 l
s
/Font0 FFSF
0.7919 0.2051 m
GS
[0.0448 0.0000 0.0000 0.0448 0 0] CC
(-0.2) show
GR
/Font0 FFSF
0.7955 0.3451 m
GS
[0.0448 0.0000 0.0000 0.0448 0 0] CC
(-0.1) show
GR
/Font0 FFSF
0.8406 0.4851 m
GS
[0.0448 0.0000 0.0000 0.0448 0 0] CC
(0) show
GR
/Font0 FFSF
0.8104 0.6251 m
GS
[0.0448 0.0000 0.0000 0.0448 0 0] CC
(0.1) show
GR
/Font0 FFSF
0.8068 0.7651 m
GS
[0.0448 0.0000 0.0000 0.0448 0 0] CC
(0.2) show
GR
[] 0 SD
0.0015 SLW
n
0.8717 0.1500 m
0.8717 0.8500 l
1.1441 0.8500 l
1.1441 0.1500 l
0.8717 0.1500 l
c
s
/Font12 FFSF
0.9287 0.8868 m
GS
[0.0420 0.0000 0.0000 0.0420 0 0] CC
(d) show
GR
/Font0 FFSF
0.9495 0.8700 m
GS
[0.0297 0.0000 0.0000 0.0297 0 0] CC
(F) show
GR
/Font0 FFSF
0.9660 0.8868 m
GS
[0.0420 0.0000 0.0000 0.0420 0 0] CC
( [MeV]) show
GR
/Font0 FFSF
0.1800 0.2000 m
GS
[0.0566 0.0000 0.0000 0.0566 0 0] CC
(\(a\)) show
GR
/Font0 FFSF
0.5350 0.2000 m
GS
[0.0580 0.0000 0.0000 0.0580 0 0] CC
(\(b\)) show
GR
/Font0 FFSF
0.9000 0.2000 m
GS
[0.0566 0.0000 0.0000 0.0566 0 0] CC
(\(c\)) show
GR
showpage
%%PageTrailer
%%Trailer
%%DocumentNeededResources: font Times-Roman
%%+ font Symbol
%%EOF
