%!PS-Adobe-3.0
%%BoundingBox: 0 0 612 792
%%LanguageLevel: 2
%%Creator: Grace-5.1.25
%%CreationDate: Tue Dec  1 09:14:43 2015
%%DocumentData: Clean8Bit
%%Orientation: Landscape
%%Pages: 1
%%PageOrder: Ascend
%%Title: /Users/ap1450/Dropbox/Physics_Reports_LR/ST_channel_finite_range/Vers2/plots/EoS_SNM_ST_gogny.agr
%%For: ap1450
%%DocumentNeededResources: (atend)
%%EndComments
%%BeginProlog
/PAGE_OFFSET_X 0 def
/PAGE_OFFSET_Y 0 def
/m {moveto} def
/l {lineto} def
/s {stroke} def
/n {newpath} def
/c {closepath} def
/RL {rlineto} def
/SLW {setlinewidth} def
/GS {gsave} def
/GR {grestore} def
/SC {setcolor} def
/SGRY {setgray} def
/SRGB {setrgbcolor} def
/SD {setdash} def
/SLC {setlinecap} def
/SLJ {setlinejoin} def
/SCS {setcolorspace} def
/FFSF {findfont setfont} def
/CC {concat} def
/PXL {n m 0 0 RL s} def
/Color0 {1.0000 1.0000 1.0000} def
/Color1 {0.0000 0.0000 0.0000} def
/Color2 {1.0000 0.0000 0.0000} def
/Color3 {0.0000 1.0000 0.0000} def
/Color4 {0.0000 0.0000 1.0000} def
/Color5 {1.0000 1.0000 0.0000} def
/Color6 {0.7373 0.5608 0.5608} def
/Color7 {0.8627 0.8627 0.8627} def
/Color8 {0.5804 0.0000 0.8275} def
/Color9 {0.0000 1.0000 1.0000} def
/Color10 {1.0000 0.0000 1.0000} def
/Color11 {1.0000 0.6471 0.0000} def
/Color12 {0.4471 0.1294 0.7373} def
/Color13 {0.4039 0.0275 0.2824} def
/Color14 {0.2510 0.8784 0.8157} def
/Color15 {0.0000 0.5451 0.0000} def
/Color16 {0.7529 0.7529 0.7529} def
/Color17 {0.5059 0.5059 0.5059} def
/Color18 {0.2588 0.2588 0.2588} def
/PTRN {
 /pat_bits exch def 
 <<
  /PaintType 2
  /PatternType 1 /TilingType 1
  /BBox[0 0 16 16]
  /XStep 16 /YStep 16
  /PaintProc {
   pop
   16 16 true [-1 0 0 -1 16 16] pat_bits imagemask
  }
 >>
 [0.0016 0 0 0.0016 0 0]
 makepattern
} def
/Pattern0 {<0000000000000000000000000000000000000000000000000000000000000000> PTRN} bind def
/Pattern1 {<ffffffffffffffffffffffffffffffffffffffffffffffffffffffffffffffff> PTRN} bind def
/Pattern2 {<eeeeffffbbbbffffeeeeffffbbbbffffeeeeffffbbbbffffeeeeffffbbbbffff> PTRN} bind def
/Pattern3 {<eeeebbbbeeeebbbbeeeebbbbeeeebbbbeeeebbbbeeeebbbbeeeebbbbeeeebbbb> PTRN} bind def
/Pattern4 {<5555aaaa5555aaaa5555aaaa5555aaaa5555aaaa5555aaaa5555aaaa5555aaaa> PTRN} bind def
/Pattern5 {<1111444411114444111144441111444411114444111144441111444411114444> PTRN} bind def
/Pattern6 {<1111000044440000111100004444000011110000444400001111000044440000> PTRN} bind def
/Pattern7 {<1010000000000000010100000000000010100000000000000101000000000000> PTRN} bind def
/Pattern8 {<0000000000000000000000000000000000000000000000000000000000000000> PTRN} bind def
/Pattern9 {<1e1e0f0f8787c3c3e1e1f0f078783c3c1e1e0f0f8787c3c3e1e1f0f078783c3c> PTRN} bind def
/Pattern10 {<7878f0f0e1e1c3c387870f0f1e1e3c3c7878f0f0e1e1c3c387870f0f1e1e3c3c> PTRN} bind def
/Pattern11 {<3333333333333333333333333333333333333333333333333333333333333333> PTRN} bind def
/Pattern12 {<ffffffff00000000ffffffff00000000ffffffff00000000ffffffff00000000> PTRN} bind def
/Pattern13 {<8181424224241818181824244242818181814242242418181818242442428181> PTRN} bind def
/Pattern14 {<8080404020201010080804040202010180804040202010100808040402020101> PTRN} bind def
/Pattern15 {<0101020204040808101020204040808001010202040408081010202040408080> PTRN} bind def
/Pattern16 {<2222222222222222222222222222222222222222222222222222222222222222> PTRN} bind def
/Pattern17 {<0000ffff000000000000ffff000000000000ffff000000000000ffff00000000> PTRN} bind def
/Pattern18 {<2222ffff222222222222ffff222222222222ffff222222222222ffff22222222> PTRN} bind def
/Pattern19 {<ffffffff33333333ffffffff33333333ffffffff33333333ffffffff33333333> PTRN} bind def
/Pattern20 {<0f0f0f0f0f0f0f0ff0f0f0f0f0f0f0f00f0f0f0f0f0f0f0ff0f0f0f0f0f0f0f0> PTRN} bind def
/Pattern21 {<ff00ff00ff00ff00ff00ff00ff00ff0000ff00ff00ff00ff00ff00ff00ff00ff> PTRN} bind def
/Pattern22 {<8001800180018001800180018001ffffffff8001800180018001800180018001> PTRN} bind def
/Pattern23 {<c003c003c003c003c003c003ffffffffffffffffc003c003c003c003c003c003> PTRN} bind def
/Pattern24 {<040404040404ffff404040404040ffff040404040404ffff404040404040ffff> PTRN} bind def
/Pattern25 {<180018001800180018001800ffffffff001800180018001800180018ffffffff> PTRN} bind def
/Pattern26 {<1111b8b87c7c3a3a1111a3a3c7c78b8b1111b8b87c7c3a3a1111a3a3c7c78b8b> PTRN} bind def
/Pattern27 {<101010102828c7c70101010182827c7c101010102828c7c70101010182827c7c> PTRN} bind def
/Pattern28 {<1c1c121211112121c1c12121111112121c1c121211112121c1c1212111111212> PTRN} bind def
/Pattern29 {<3e3e414180808080e3e31414080808083e3e414180808080e3e3141408080808> PTRN} bind def
/Pattern30 {<4848888884848383848488884848383848488888848483838484888848483838> PTRN} bind def
/Pattern31 {<03030404080808080c0c12122121c0c003030404080808080c0c12122121c0c0> PTRN} bind def
/ellipsedict 8 dict def
ellipsedict /mtrx matrix put
/EARC {
 ellipsedict begin
  /endangle exch def
  /startangle exch def
  /yrad exch def
  /xrad exch def
  /y exch def
  /x exch def
  /savematrix mtrx currentmatrix def
  x y translate
  xrad yrad scale
  0 0 1 startangle endangle arc
  savematrix setmatrix
 end
} def
/TL {
  /kcomp exch def
  /linewidth exch def
  /offset exch def
  GS
  0 offset rmoveto
  linewidth SLW
  dup stringwidth exch kcomp add exch RL s
  GR
} def
/KINIT
{
 /kvector exch def
 /kid 0 def
} def
/KPROC
{
 pop pop
 kvector kid get
 0 rmoveto
 /kid 1 kid add def
} def
/DefEncoding [
 /.notdef
 /.notdef
 /.notdef
 /.notdef
 /.notdef
 /.notdef
 /.notdef
 /.notdef
 /.notdef
 /.notdef
 /.notdef
 /.notdef
 /.notdef
 /.notdef
 /.notdef
 /.notdef
 /.notdef
 /.notdef
 /.notdef
 /.notdef
 /.notdef
 /.notdef
 /.notdef
 /.notdef
 /.notdef
 /.notdef
 /.notdef
 /.notdef
 /.notdef
 /.notdef
 /.notdef
 /.notdef
 /space
 /exclam
 /quotedbl
 /numbersign
 /dollar
 /percent
 /ampersand
 /quoteright
 /parenleft
 /parenright
 /asterisk
 /plus
 /comma
 /hyphen
 /period
 /slash
 /zero
 /one
 /two
 /three
 /four
 /five
 /six
 /seven
 /eight
 /nine
 /colon
 /semicolon
 /less
 /equal
 /greater
 /question
 /at
 /A
 /B
 /C
 /D
 /E
 /F
 /G
 /H
 /I
 /J
 /K
 /L
 /M
 /N
 /O
 /P
 /Q
 /R
 /S
 /T
 /U
 /V
 /W
 /X
 /Y
 /Z
 /bracketleft
 /backslash
 /bracketright
 /asciicircum
 /underscore
 /grave
 /a
 /b
 /c
 /d
 /e
 /f
 /g
 /h
 /i
 /j
 /k
 /l
 /m
 /n
 /o
 /p
 /q
 /r
 /s
 /t
 /u
 /v
 /w
 /x
 /y
 /z
 /braceleft
 /bar
 /braceright
 /asciitilde
 /.notdef
 /.notdef
 /.notdef
 /.notdef
 /.notdef
 /.notdef
 /.notdef
 /.notdef
 /.notdef
 /.notdef
 /.notdef
 /.notdef
 /.notdef
 /.notdef
 /.notdef
 /.notdef
 /.notdef
 /.notdef
 /.notdef
 /.notdef
 /.notdef
 /.notdef
 /.notdef
 /.notdef
 /.notdef
 /.notdef
 /.notdef
 /.notdef
 /.notdef
 /.notdef
 /.notdef
 /.notdef
 /.notdef
 /space
 /exclamdown
 /cent
 /sterling
 /currency
 /yen
 /brokenbar
 /section
 /dieresis
 /copyright
 /ordfeminine
 /guillemotleft
 /logicalnot
 /hyphen
 /registered
 /macron
 /degree
 /plusminus
 /twosuperior
 /threesuperior
 /acute
 /mu
 /paragraph
 /periodcentered
 /cedilla
 /onesuperior
 /ordmasculine
 /guillemotright
 /onequarter
 /onehalf
 /threequarters
 /questiondown
 /Agrave
 /Aacute
 /Acircumflex
 /Atilde
 /Adieresis
 /Aring
 /AE
 /Ccedilla
 /Egrave
 /Eacute
 /Ecircumflex
 /Edieresis
 /Igrave
 /Iacute
 /Icircumflex
 /Idieresis
 /Eth
 /Ntilde
 /Ograve
 /Oacute
 /Ocircumflex
 /Otilde
 /Odieresis
 /multiply
 /Oslash
 /Ugrave
 /Uacute
 /Ucircumflex
 /Udieresis
 /Yacute
 /Thorn
 /germandbls
 /agrave
 /aacute
 /acircumflex
 /atilde
 /adieresis
 /aring
 /ae
 /ccedilla
 /egrave
 /eacute
 /ecircumflex
 /edieresis
 /igrave
 /iacute
 /icircumflex
 /idieresis
 /eth
 /ntilde
 /ograve
 /oacute
 /ocircumflex
 /otilde
 /odieresis
 /divide
 /oslash
 /ugrave
 /uacute
 /ucircumflex
 /udieresis
 /yacute
 /thorn
 /ydieresis
] def
%%EndProlog
%%BeginSetup
%%EndSetup
%%Page: 1 1
PAGE_OFFSET_X PAGE_OFFSET_Y translate
612.00 612.00 scale
90 rotate
0.0 -1.0 translate
n
0.1632 0.5356 m
0.1632 0.5523 l
0.1798 0.5523 l
0.1798 0.5356 l
c
GS
[/DeviceRGB] SCS
Color0 SRGB
fill
GR
[/Pattern /DeviceRGB] SCS
Color1 Pattern8 SC
fill
[/DeviceRGB] SCS
Color1 SC
[] 0 SD
0.0030 SLW
0 SLC
0 SLJ
n
0.1632 0.5356 m
0.1632 0.5523 l
0.1798 0.5523 l
0.1798 0.5356 l
0.1632 0.5356 l
c
s
n
0.1723 0.5386 m
0.1723 0.5553 l
0.1889 0.5553 l
0.1889 0.5386 l
c
GS
Color0 SRGB
fill
GR
[/Pattern /DeviceRGB] SCS
Color1 Pattern8 SC
fill
[/DeviceRGB] SCS
Color1 SC
n
0.1723 0.5386 m
0.1723 0.5553 l
0.1889 0.5553 l
0.1889 0.5386 l
0.1723 0.5386 l
c
s
n
0.1836 0.5427 m
0.1836 0.5594 l
0.2003 0.5594 l
0.2003 0.5427 l
c
GS
Color0 SRGB
fill
GR
[/Pattern /DeviceRGB] SCS
Color1 Pattern8 SC
fill
[/DeviceRGB] SCS
Color1 SC
n
0.1836 0.5427 m
0.1836 0.5594 l
0.2003 0.5594 l
0.2003 0.5427 l
0.1836 0.5427 l
c
s
n
0.1975 0.5482 m
0.1975 0.5649 l
0.2142 0.5649 l
0.2142 0.5482 l
c
GS
Color0 SRGB
fill
GR
[/Pattern /DeviceRGB] SCS
Color1 Pattern8 SC
fill
[/DeviceRGB] SCS
Color1 SC
n
0.1975 0.5482 m
0.1975 0.5649 l
0.2142 0.5649 l
0.2142 0.5482 l
0.1975 0.5482 l
c
s
n
0.2142 0.5553 m
0.2142 0.5720 l
0.2309 0.5720 l
0.2309 0.5553 l
c
GS
Color0 SRGB
fill
GR
[/Pattern /DeviceRGB] SCS
Color1 Pattern8 SC
fill
[/DeviceRGB] SCS
Color1 SC
n
0.2142 0.5553 m
0.2142 0.5720 l
0.2309 0.5720 l
0.2309 0.5553 l
0.2142 0.5553 l
c
s
n
0.2339 0.5644 m
0.2339 0.5810 l
0.2505 0.5810 l
0.2505 0.5644 l
c
GS
Color0 SRGB
fill
GR
[/Pattern /DeviceRGB] SCS
Color1 Pattern8 SC
fill
[/DeviceRGB] SCS
Color1 SC
n
0.2339 0.5644 m
0.2339 0.5810 l
0.2505 0.5810 l
0.2505 0.5644 l
0.2339 0.5644 l
c
s
n
0.2568 0.5757 m
0.2568 0.5923 l
0.2735 0.5923 l
0.2735 0.5757 l
c
GS
Color0 SRGB
fill
GR
[/Pattern /DeviceRGB] SCS
Color1 Pattern8 SC
fill
[/DeviceRGB] SCS
Color1 SC
n
0.2568 0.5757 m
0.2568 0.5923 l
0.2735 0.5923 l
0.2735 0.5757 l
0.2568 0.5757 l
c
s
n
0.2833 0.5895 m
0.2833 0.6061 l
0.3000 0.6061 l
0.3000 0.5895 l
c
GS
Color0 SRGB
fill
GR
[/Pattern /DeviceRGB] SCS
Color1 Pattern8 SC
fill
[/DeviceRGB] SCS
Color1 SC
n
0.2833 0.5895 m
0.2833 0.6061 l
0.3000 0.6061 l
0.3000 0.5895 l
0.2833 0.5895 l
c
s
n
0.3136 0.6060 m
0.3136 0.6226 l
0.3302 0.6226 l
0.3302 0.6060 l
c
GS
Color0 SRGB
fill
GR
[/Pattern /DeviceRGB] SCS
Color1 Pattern8 SC
fill
[/DeviceRGB] SCS
Color1 SC
n
0.3136 0.6060 m
0.3136 0.6226 l
0.3302 0.6226 l
0.3302 0.6060 l
0.3136 0.6060 l
c
s
n
0.3479 0.6253 m
0.3479 0.6419 l
0.3645 0.6419 l
0.3645 0.6253 l
c
GS
Color0 SRGB
fill
GR
[/Pattern /DeviceRGB] SCS
Color1 Pattern8 SC
fill
[/DeviceRGB] SCS
Color1 SC
n
0.3479 0.6253 m
0.3479 0.6419 l
0.3645 0.6419 l
0.3645 0.6253 l
0.3479 0.6253 l
c
s
n
0.3864 0.6474 m
0.3864 0.6640 l
0.4031 0.6640 l
0.4031 0.6474 l
c
GS
Color0 SRGB
fill
GR
[/Pattern /DeviceRGB] SCS
Color1 Pattern8 SC
fill
[/DeviceRGB] SCS
Color1 SC
n
0.3864 0.6474 m
0.3864 0.6640 l
0.4031 0.6640 l
0.4031 0.6474 l
0.3864 0.6474 l
c
s
n
0.4295 0.6719 m
0.4295 0.6886 l
0.4462 0.6886 l
0.4462 0.6719 l
c
GS
Color0 SRGB
fill
GR
[/Pattern /DeviceRGB] SCS
Color1 Pattern8 SC
fill
[/DeviceRGB] SCS
Color1 SC
n
0.4295 0.6719 m
0.4295 0.6886 l
0.4462 0.6886 l
0.4462 0.6719 l
0.4295 0.6719 l
c
s
n
0.4774 0.6982 m
0.4774 0.7149 l
0.4941 0.7149 l
0.4941 0.6982 l
c
GS
Color0 SRGB
fill
GR
[/Pattern /DeviceRGB] SCS
Color1 Pattern8 SC
fill
[/DeviceRGB] SCS
Color1 SC
n
0.4774 0.6982 m
0.4774 0.7149 l
0.4941 0.7149 l
0.4941 0.6982 l
0.4774 0.6982 l
c
s
n
0.5303 0.7251 m
0.5303 0.7418 l
0.5470 0.7418 l
0.5470 0.7251 l
c
GS
Color0 SRGB
fill
GR
[/Pattern /DeviceRGB] SCS
Color1 Pattern8 SC
fill
[/DeviceRGB] SCS
Color1 SC
n
0.5303 0.7251 m
0.5303 0.7418 l
0.5470 0.7418 l
0.5470 0.7251 l
0.5303 0.7251 l
c
s
n
0.5886 0.7508 m
0.5886 0.7674 l
0.6052 0.7674 l
0.6052 0.7508 l
c
GS
Color0 SRGB
fill
GR
[/Pattern /DeviceRGB] SCS
Color1 Pattern8 SC
fill
[/DeviceRGB] SCS
Color1 SC
n
0.5886 0.7508 m
0.5886 0.7674 l
0.6052 0.7674 l
0.6052 0.7508 l
0.5886 0.7508 l
c
s
[] 0 SD
0.0037 SLW
n
0.1500 0.5389 m
0.1500 0.5389 l
0.1500 0.5389 l
0.1500 0.5389 l
0.1500 0.5389 l
0.1500 0.5389 l
0.1500 0.5389 l
0.1500 0.5389 l
0.1500 0.5389 l
0.1500 0.5389 l
0.1501 0.5389 l
0.1501 0.5389 l
0.1501 0.5389 l
0.1501 0.5389 l
0.1501 0.5389 l
0.1502 0.5389 l
0.1502 0.5389 l
0.1502 0.5389 l
0.1503 0.5389 l
0.1503 0.5389 l
0.1504 0.5389 l
0.1504 0.5389 l
0.1505 0.5389 l
0.1506 0.5389 l
0.1507 0.5389 l
0.1507 0.5389 l
0.1508 0.5389 l
0.1509 0.5389 l
0.1510 0.5389 l
0.1511 0.5389 l
0.1513 0.5389 l
0.1514 0.5389 l
0.1515 0.5389 l
0.1516 0.5390 l
0.1518 0.5390 l
0.1520 0.5390 l
0.1521 0.5390 l
0.1523 0.5390 l
0.1525 0.5390 l
0.1527 0.5390 l
0.1529 0.5391 l
0.1531 0.5391 l
0.1533 0.5391 l
0.1536 0.5391 l
0.1538 0.5391 l
0.1541 0.5392 l
0.1544 0.5392 l
0.1546 0.5392 l
0.1549 0.5393 l
0.1552 0.5393 l
0.1556 0.5393 l
0.1559 0.5394 l
0.1562 0.5394 l
0.1566 0.5395 l
0.1570 0.5395 l
0.1574 0.5396 l
0.1578 0.5397 l
0.1582 0.5397 l
0.1586 0.5398 l
0.1591 0.5399 l
0.1595 0.5399 l
0.1600 0.5400 l
0.1605 0.5401 l
0.1610 0.5402 l
0.1615 0.5403 l
0.1621 0.5404 l
0.1626 0.5405 l
0.1632 0.5406 l
0.1638 0.5407 l
0.1644 0.5408 l
0.1650 0.5409 l
0.1657 0.5410 l
0.1663 0.5412 l
0.1670 0.5413 l
0.1677 0.5414 l
0.1684 0.5416 l
0.1692 0.5417 l
0.1699 0.5419 l
0.1707 0.5420 l
0.1715 0.5422 l
0.1723 0.5424 l
0.1731 0.5426 l
0.1740 0.5427 l
0.1749 0.5429 l
0.1758 0.5431 l
0.1767 0.5433 l
0.1776 0.5435 l
0.1786 0.5437 l
0.1796 0.5440 l
0.1806 0.5442 l
0.1816 0.5444 l
0.1827 0.5446 l
0.1838 0.5449 l
0.1849 0.5451 l
0.1860 0.5453 l
0.1871 0.5456 l
0.1883 0.5458 l
0.1895 0.5461 l
0.1907 0.5464 l
0.1920 0.5466 l
0.1932 0.5469 l
0.1945 0.5472 l
0.1959 0.5474 l
0.1972 0.5477 l
0.1986 0.5480 l
0.2000 0.5483 l
0.2014 0.5485 l
0.2029 0.5488 l
0.2044 0.5491 l
0.2059 0.5494 l
0.2074 0.5497 l
0.2090 0.5500 l
0.2106 0.5502 l
0.2122 0.5505 l
0.2138 0.5508 l
0.2155 0.5511 l
0.2172 0.5514 l
0.2190 0.5516 l
0.2207 0.5519 l
0.2225 0.5522 l
0.2244 0.5525 l
0.2262 0.5527 l
0.2281 0.5530 l
0.2300 0.5532 l
0.2320 0.5535 l
0.2340 0.5537 l
0.2360 0.5539 l
0.2380 0.5542 l
0.2401 0.5544 l
0.2422 0.5546 l
0.2443 0.5548 l
0.2465 0.5549 l
0.2487 0.5551 l
0.2510 0.5553 l
0.2533 0.5554 l
0.2556 0.5556 l
0.2579 0.5557 l
0.2603 0.5558 l
0.2627 0.5559 l
0.2652 0.5559 l
0.2676 0.5560 l
0.2702 0.5560 l
0.2727 0.5560 l
0.2753 0.5560 l
0.2779 0.5560 l
0.2806 0.5559 l
0.2833 0.5559 l
0.2861 0.5558 l
0.2888 0.5556 l
0.2916 0.5555 l
0.2945 0.5553 l
0.2974 0.5551 l
0.3003 0.5549 l
0.3033 0.5546 l
0.3063 0.5543 l
0.3093 0.5540 l
0.3124 0.5537 l
0.3155 0.5533 l
0.3187 0.5528 l
0.3219 0.5524 l
0.3251 0.5519 l
0.3284 0.5514 l
0.3318 0.5508 l
0.3351 0.5502 l
0.3385 0.5495 l
0.3420 0.5488 l
0.3455 0.5481 l
0.3490 0.5473 l
0.3526 0.5465 l
0.3562 0.5456 l
0.3599 0.5447 l
0.3636 0.5437 l
0.3673 0.5427 l
0.3711 0.5416 l
0.3749 0.5405 l
0.3788 0.5393 l
0.3827 0.5381 l
0.3867 0.5368 l
0.3907 0.5355 l
0.3948 0.5341 l
0.3989 0.5326 l
0.4030 0.5311 l
0.4072 0.5295 l
0.4114 0.5279 l
0.4157 0.5261 l
0.4201 0.5244 l
0.4244 0.5225 l
0.4289 0.5206 l
0.4333 0.5186 l
0.4379 0.5166 l
0.4424 0.5145 l
0.4471 0.5123 l
0.4517 0.5100 l
0.4564 0.5077 l
0.4612 0.5053 l
0.4660 0.5028 l
0.4709 0.5002 l
0.4715 0.4999 l
s
[/DeviceRGB] SCS
Color2 SC
[0.0187 0.0112 ] 0 SD
0.0037 SLW
n
0.1500 0.5389 m
0.1500 0.5389 l
0.1500 0.5389 l
0.1500 0.5389 l
0.1500 0.5389 l
0.1500 0.5389 l
0.1500 0.5389 l
0.1500 0.5389 l
0.1500 0.5389 l
0.1500 0.5389 l
0.1501 0.5389 l
0.1501 0.5389 l
0.1501 0.5389 l
0.1501 0.5389 l
0.1501 0.5389 l
0.1502 0.5389 l
0.1502 0.5389 l
0.1502 0.5389 l
0.1503 0.5389 l
0.1503 0.5389 l
0.1504 0.5389 l
0.1504 0.5389 l
0.1505 0.5389 l
0.1506 0.5389 l
0.1507 0.5389 l
0.1507 0.5389 l
0.1508 0.5389 l
0.1509 0.5389 l
0.1510 0.5389 l
0.1511 0.5389 l
0.1513 0.5389 l
0.1514 0.5390 l
0.1515 0.5390 l
0.1516 0.5390 l
0.1518 0.5390 l
0.1520 0.5390 l
0.1521 0.5390 l
0.1523 0.5390 l
0.1525 0.5391 l
0.1527 0.5391 l
0.1529 0.5391 l
0.1531 0.5391 l
0.1533 0.5392 l
0.1536 0.5392 l
0.1538 0.5392 l
0.1541 0.5393 l
0.1544 0.5393 l
0.1546 0.5393 l
0.1549 0.5394 l
0.1552 0.5394 l
0.1556 0.5395 l
0.1559 0.5395 l
0.1562 0.5396 l
0.1566 0.5396 l
0.1570 0.5397 l
0.1574 0.5398 l
0.1578 0.5399 l
0.1582 0.5399 l
0.1586 0.5400 l
0.1591 0.5401 l
0.1595 0.5402 l
0.1600 0.5403 l
0.1605 0.5404 l
0.1610 0.5405 l
0.1615 0.5406 l
0.1621 0.5407 l
0.1626 0.5408 l
0.1632 0.5409 l
0.1638 0.5411 l
0.1644 0.5412 l
0.1650 0.5413 l
0.1657 0.5415 l
0.1663 0.5416 l
0.1670 0.5417 l
0.1677 0.5419 l
0.1684 0.5421 l
0.1692 0.5422 l
0.1699 0.5424 l
0.1707 0.5425 l
0.1715 0.5427 l
0.1723 0.5429 l
0.1731 0.5431 l
0.1740 0.5433 l
0.1749 0.5435 l
0.1758 0.5436 l
0.1767 0.5438 l
0.1776 0.5440 l
0.1786 0.5442 l
0.1796 0.5444 l
0.1806 0.5446 l
0.1816 0.5448 l
0.1827 0.5450 l
0.1838 0.5452 l
0.1849 0.5454 l
0.1860 0.5456 l
0.1871 0.5458 l
0.1883 0.5460 l
0.1895 0.5462 l
0.1907 0.5464 l
0.1920 0.5466 l
0.1932 0.5468 l
0.1945 0.5470 l
0.1959 0.5472 l
0.1972 0.5473 l
0.1986 0.5475 l
0.2000 0.5476 l
0.2014 0.5478 l
0.2029 0.5479 l
0.2044 0.5481 l
0.2059 0.5482 l
0.2074 0.5483 l
0.2090 0.5484 l
0.2106 0.5485 l
0.2122 0.5485 l
0.2138 0.5486 l
0.2155 0.5486 l
0.2172 0.5487 l
0.2190 0.5487 l
0.2207 0.5486 l
0.2225 0.5486 l
0.2244 0.5486 l
0.2262 0.5485 l
0.2281 0.5484 l
0.2300 0.5482 l
0.2320 0.5481 l
0.2340 0.5479 l
0.2360 0.5477 l
0.2380 0.5475 l
0.2401 0.5472 l
0.2422 0.5469 l
0.2443 0.5465 l
0.2465 0.5462 l
0.2487 0.5458 l
0.2510 0.5453 l
0.2533 0.5448 l
0.2556 0.5443 l
0.2579 0.5437 l
0.2603 0.5431 l
0.2627 0.5424 l
0.2652 0.5417 l
0.2676 0.5410 l
0.2702 0.5402 l
0.2727 0.5393 l
0.2753 0.5384 l
0.2779 0.5374 l
0.2806 0.5364 l
0.2833 0.5353 l
0.2861 0.5341 l
0.2888 0.5329 l
0.2916 0.5317 l
0.2945 0.5303 l
0.2974 0.5289 l
0.3003 0.5275 l
0.3033 0.5259 l
0.3063 0.5243 l
0.3093 0.5226 l
0.3124 0.5208 l
0.3155 0.5190 l
0.3187 0.5171 l
0.3219 0.5150 l
0.3251 0.5130 l
0.3284 0.5108 l
0.3318 0.5085 l
0.3351 0.5062 l
0.3385 0.5037 l
0.3420 0.5012 l
0.3437 0.4999 l
s
[/DeviceRGB] SCS
Color4 SC
[0.0037 0.0112 0.0187 0.0112 ] 0 SD
0.0037 SLW
n
0.1500 0.5389 m
0.1500 0.5389 l
0.1500 0.5389 l
0.1500 0.5389 l
0.1500 0.5389 l
0.1500 0.5389 l
0.1500 0.5389 l
0.1500 0.5389 l
0.1500 0.5389 l
0.1500 0.5389 l
0.1501 0.5389 l
0.1501 0.5389 l
0.1501 0.5389 l
0.1501 0.5389 l
0.1501 0.5389 l
0.1502 0.5389 l
0.1502 0.5389 l
0.1502 0.5389 l
0.1503 0.5389 l
0.1503 0.5389 l
0.1504 0.5389 l
0.1504 0.5389 l
0.1505 0.5389 l
0.1506 0.5389 l
0.1507 0.5389 l
0.1507 0.5389 l
0.1508 0.5389 l
0.1509 0.5389 l
0.1510 0.5389 l
0.1511 0.5389 l
0.1513 0.5390 l
0.1514 0.5390 l
0.1515 0.5390 l
0.1516 0.5390 l
0.1518 0.5390 l
0.1520 0.5390 l
0.1521 0.5391 l
0.1523 0.5391 l
0.1525 0.5391 l
0.1527 0.5391 l
0.1529 0.5392 l
0.1531 0.5392 l
0.1533 0.5392 l
0.1536 0.5393 l
0.1538 0.5393 l
0.1541 0.5394 l
0.1544 0.5394 l
0.1546 0.5395 l
0.1549 0.5395 l
0.1552 0.5396 l
0.1556 0.5397 l
0.1559 0.5397 l
0.1562 0.5398 l
0.1566 0.5399 l
0.1570 0.5400 l
0.1574 0.5401 l
0.1578 0.5402 l
0.1582 0.5403 l
0.1586 0.5404 l
0.1591 0.5405 l
0.1595 0.5407 l
0.1600 0.5408 l
0.1605 0.5409 l
0.1610 0.5411 l
0.1615 0.5413 l
0.1621 0.5414 l
0.1626 0.5416 l
0.1632 0.5418 l
0.1638 0.5420 l
0.1644 0.5422 l
0.1650 0.5424 l
0.1657 0.5426 l
0.1663 0.5429 l
0.1670 0.5431 l
0.1677 0.5434 l
0.1684 0.5436 l
0.1692 0.5439 l
0.1699 0.5442 l
0.1707 0.5445 l
0.1715 0.5448 l
0.1723 0.5451 l
0.1731 0.5455 l
0.1740 0.5458 l
0.1749 0.5462 l
0.1758 0.5466 l
0.1767 0.5469 l
0.1776 0.5473 l
0.1786 0.5477 l
0.1796 0.5482 l
0.1806 0.5486 l
0.1816 0.5490 l
0.1827 0.5495 l
0.1838 0.5500 l
0.1849 0.5505 l
0.1860 0.5510 l
0.1871 0.5515 l
0.1883 0.5520 l
0.1895 0.5525 l
0.1907 0.5531 l
0.1920 0.5536 l
0.1932 0.5542 l
0.1945 0.5548 l
0.1959 0.5553 l
0.1972 0.5559 l
0.1986 0.5566 l
0.2000 0.5572 l
0.2014 0.5578 l
0.2029 0.5585 l
0.2044 0.5591 l
0.2059 0.5598 l
0.2074 0.5604 l
0.2090 0.5611 l
0.2106 0.5618 l
0.2122 0.5625 l
0.2138 0.5632 l
0.2155 0.5639 l
0.2172 0.5646 l
0.2190 0.5653 l
0.2207 0.5660 l
0.2225 0.5667 l
0.2244 0.5674 l
0.2262 0.5681 l
0.2281 0.5688 l
0.2300 0.5695 l
0.2320 0.5703 l
0.2340 0.5710 l
0.2360 0.5717 l
0.2380 0.5724 l
0.2401 0.5731 l
0.2422 0.5738 l
0.2443 0.5744 l
0.2465 0.5751 l
0.2487 0.5758 l
0.2510 0.5764 l
0.2533 0.5771 l
0.2556 0.5777 l
0.2579 0.5783 l
0.2603 0.5789 l
0.2627 0.5795 l
0.2652 0.5800 l
0.2676 0.5805 l
0.2702 0.5810 l
0.2727 0.5815 l
0.2753 0.5820 l
0.2779 0.5824 l
0.2806 0.5828 l
0.2833 0.5832 l
0.2861 0.5835 l
0.2888 0.5838 l
0.2916 0.5840 l
0.2945 0.5843 l
0.2974 0.5844 l
0.3003 0.5846 l
0.3033 0.5847 l
0.3063 0.5847 l
0.3093 0.5847 l
0.3124 0.5846 l
0.3155 0.5845 l
0.3187 0.5844 l
0.3219 0.5841 l
0.3251 0.5838 l
0.3284 0.5835 l
0.3318 0.5831 l
0.3351 0.5826 l
0.3385 0.5820 l
0.3420 0.5814 l
0.3455 0.5807 l
0.3490 0.5799 l
0.3526 0.5790 l
0.3562 0.5781 l
0.3599 0.5770 l
0.3636 0.5759 l
0.3673 0.5747 l
0.3711 0.5734 l
0.3749 0.5719 l
0.3788 0.5704 l
0.3827 0.5688 l
0.3867 0.5671 l
0.3907 0.5653 l
0.3948 0.5633 l
0.3989 0.5612 l
0.4030 0.5591 l
0.4072 0.5567 l
0.4114 0.5543 l
0.4157 0.5518 l
0.4201 0.5491 l
0.4244 0.5462 l
0.4289 0.5433 l
0.4333 0.5402 l
0.4379 0.5369 l
0.4424 0.5335 l
0.4471 0.5300 l
0.4517 0.5262 l
0.4564 0.5224 l
0.4612 0.5183 l
0.4660 0.5141 l
0.4709 0.5098 l
0.4758 0.5052 l
0.4807 0.5005 l
0.4814 0.4999 l
s
[/DeviceRGB] SCS
Color1 SC
[] 0 SD
0.0045 SLW
n
0.1500 0.5000 m
0.6471 0.5000 l
s
n
0.1500 0.8500 m
0.6471 0.8500 l
s
n
0.2121 0.5000 m
0.2121 0.5100 l
s
n
0.2121 0.8500 m
0.2121 0.8400 l
s
n
0.3364 0.5000 m
0.3364 0.5100 l
s
n
0.3364 0.8500 m
0.3364 0.8400 l
s
n
0.4607 0.5000 m
0.4607 0.5100 l
s
n
0.4607 0.8500 m
0.4607 0.8400 l
s
n
0.5849 0.5000 m
0.5849 0.5100 l
s
n
0.5849 0.8500 m
0.5849 0.8400 l
s
n
0.1500 0.5000 m
0.1500 0.5200 l
s
n
0.1500 0.8500 m
0.1500 0.8300 l
s
n
0.2743 0.5000 m
0.2743 0.5200 l
s
n
0.2743 0.8500 m
0.2743 0.8300 l
s
n
0.3985 0.5000 m
0.3985 0.5200 l
s
n
0.3985 0.8500 m
0.3985 0.8300 l
s
n
0.5228 0.5000 m
0.5228 0.5200 l
s
n
0.5228 0.8500 m
0.5228 0.8300 l
s
n
0.6471 0.5000 m
0.6471 0.5200 l
s
n
0.6471 0.8500 m
0.6471 0.8300 l
s
n
0.1500 0.5000 m
0.1500 0.8500 l
s
n
0.1500 0.5000 m
0.1600 0.5000 l
s
n
0.1500 0.5778 m
0.1600 0.5778 l
s
n
0.1500 0.6556 m
0.1600 0.6556 l
s
n
0.1500 0.7333 m
0.1600 0.7333 l
s
n
0.1500 0.8111 m
0.1600 0.8111 l
s
n
0.1500 0.5389 m
0.1700 0.5389 l
s
n
0.1500 0.6167 m
0.1700 0.6167 l
s
n
0.1500 0.6944 m
0.1700 0.6944 l
s
n
0.1500 0.7722 m
0.1700 0.7722 l
s
n
0.1500 0.8500 m
0.1700 0.8500 l
s
/Times-Roman findfont
dup length dict begin
 {1 index /FID ne {def} {pop pop} ifelse} forall
 /Encoding DefEncoding def
 currentdict
end
/Font0 exch definefont pop
/Font0 FFSF
0.1188 0.5240 m
GS
[0.0448 0.0000 0.0000 0.0448 0 0] CC
(0) show
GR
/Font0 FFSF
0.0965 0.6018 m
GS
[0.0448 0.0000 0.0000 0.0448 0 0] CC
(10) show
GR
/Font0 FFSF
0.0965 0.6795 m
GS
[0.0448 0.0000 0.0000 0.0448 0 0] CC
(20) show
GR
/Font0 FFSF
0.0965 0.7573 m
GS
[0.0448 0.0000 0.0000 0.0448 0 0] CC
(30) show
GR
/Font0 FFSF
0.0965 0.8351 m
GS
[0.0448 0.0000 0.0000 0.0448 0 0] CC
(40) show
GR
/Font0 FFSF
0.0782 0.5795 m
GS
[0.0000 0.0459 -0.0459 0.0000 0 0] CC
(\(S=0,T=0\)) show
GR
[] 0 SD
0.0015 SLW
n
0.1500 0.5000 m
0.1500 0.8500 l
0.6471 0.8500 l
0.6471 0.5000 l
0.1500 0.5000 l
c
s
n
0.6602 0.5296 m
0.6602 0.5463 l
0.6769 0.5463 l
0.6769 0.5296 l
c
GS
Color0 SRGB
fill
GR
[/Pattern /DeviceRGB] SCS
Color1 Pattern8 SC
fill
[/DeviceRGB] SCS
Color1 SC
[] 0 SD
0.0030 SLW
n
0.6602 0.5296 m
0.6602 0.5463 l
0.6769 0.5463 l
0.6769 0.5296 l
0.6602 0.5296 l
c
s
n
0.6693 0.5291 m
0.6693 0.5457 l
0.6860 0.5457 l
0.6860 0.5291 l
c
GS
Color0 SRGB
fill
GR
[/Pattern /DeviceRGB] SCS
Color1 Pattern8 SC
fill
[/DeviceRGB] SCS
Color1 SC
n
0.6693 0.5291 m
0.6693 0.5457 l
0.6860 0.5457 l
0.6860 0.5291 l
0.6693 0.5291 l
c
s
n
0.6807 0.5285 m
0.6807 0.5452 l
0.6974 0.5452 l
0.6974 0.5285 l
c
GS
Color0 SRGB
fill
GR
[/Pattern /DeviceRGB] SCS
Color1 Pattern8 SC
fill
[/DeviceRGB] SCS
Color1 SC
n
0.6807 0.5285 m
0.6807 0.5452 l
0.6974 0.5452 l
0.6974 0.5285 l
0.6807 0.5285 l
c
s
n
0.6946 0.5280 m
0.6946 0.5446 l
0.7112 0.5446 l
0.7112 0.5280 l
c
GS
Color0 SRGB
fill
GR
[/Pattern /DeviceRGB] SCS
Color1 Pattern8 SC
fill
[/DeviceRGB] SCS
Color1 SC
n
0.6946 0.5280 m
0.6946 0.5446 l
0.7112 0.5446 l
0.7112 0.5280 l
0.6946 0.5280 l
c
s
n
0.7112 0.5281 m
0.7112 0.5448 l
0.7279 0.5448 l
0.7279 0.5281 l
c
GS
Color0 SRGB
fill
GR
[/Pattern /DeviceRGB] SCS
Color1 Pattern8 SC
fill
[/DeviceRGB] SCS
Color1 SC
n
0.7112 0.5281 m
0.7112 0.5448 l
0.7279 0.5448 l
0.7279 0.5281 l
0.7112 0.5281 l
c
s
n
0.7309 0.5293 m
0.7309 0.5460 l
0.7476 0.5460 l
0.7476 0.5293 l
c
GS
Color0 SRGB
fill
GR
[/Pattern /DeviceRGB] SCS
Color1 Pattern8 SC
fill
[/DeviceRGB] SCS
Color1 SC
n
0.7309 0.5293 m
0.7309 0.5460 l
0.7476 0.5460 l
0.7476 0.5293 l
0.7309 0.5293 l
c
s
n
0.7539 0.5323 m
0.7539 0.5489 l
0.7706 0.5489 l
0.7706 0.5323 l
c
GS
Color0 SRGB
fill
GR
[/Pattern /DeviceRGB] SCS
Color1 Pattern8 SC
fill
[/DeviceRGB] SCS
Color1 SC
n
0.7539 0.5323 m
0.7539 0.5489 l
0.7706 0.5489 l
0.7706 0.5323 l
0.7539 0.5323 l
c
s
n
0.7804 0.5379 m
0.7804 0.5545 l
0.7970 0.5545 l
0.7970 0.5379 l
c
GS
Color0 SRGB
fill
GR
[/Pattern /DeviceRGB] SCS
Color1 Pattern8 SC
fill
[/DeviceRGB] SCS
Color1 SC
n
0.7804 0.5379 m
0.7804 0.5545 l
0.7970 0.5545 l
0.7970 0.5379 l
0.7804 0.5379 l
c
s
n
0.8106 0.5470 m
0.8106 0.5637 l
0.8273 0.5637 l
0.8273 0.5470 l
c
GS
Color0 SRGB
fill
GR
[/Pattern /DeviceRGB] SCS
Color1 Pattern8 SC
fill
[/DeviceRGB] SCS
Color1 SC
n
0.8106 0.5470 m
0.8106 0.5637 l
0.8273 0.5637 l
0.8273 0.5470 l
0.8106 0.5470 l
c
s
n
0.8449 0.5609 m
0.8449 0.5776 l
0.8616 0.5776 l
0.8616 0.5609 l
c
GS
Color0 SRGB
fill
GR
[/Pattern /DeviceRGB] SCS
Color1 Pattern8 SC
fill
[/DeviceRGB] SCS
Color1 SC
n
0.8449 0.5609 m
0.8449 0.5776 l
0.8616 0.5776 l
0.8616 0.5609 l
0.8449 0.5609 l
c
s
n
0.8835 0.5809 m
0.8835 0.5976 l
0.9002 0.5976 l
0.9002 0.5809 l
c
GS
Color0 SRGB
fill
GR
[/Pattern /DeviceRGB] SCS
Color1 Pattern8 SC
fill
[/DeviceRGB] SCS
Color1 SC
n
0.8835 0.5809 m
0.8835 0.5976 l
0.9002 0.5976 l
0.9002 0.5809 l
0.8835 0.5809 l
c
s
n
0.9266 0.6091 m
0.9266 0.6258 l
0.9433 0.6258 l
0.9433 0.6091 l
c
GS
Color0 SRGB
fill
GR
[/Pattern /DeviceRGB] SCS
Color1 Pattern8 SC
fill
[/DeviceRGB] SCS
Color1 SC
n
0.9266 0.6091 m
0.9266 0.6258 l
0.9433 0.6258 l
0.9433 0.6091 l
0.9266 0.6091 l
c
s
n
0.9745 0.6476 m
0.9745 0.6643 l
0.9911 0.6643 l
0.9911 0.6476 l
c
GS
Color0 SRGB
fill
GR
[/Pattern /DeviceRGB] SCS
Color1 Pattern8 SC
fill
[/DeviceRGB] SCS
Color1 SC
n
0.9745 0.6476 m
0.9745 0.6643 l
0.9911 0.6643 l
0.9911 0.6476 l
0.9745 0.6476 l
c
s
n
1.0274 0.6967 m
1.0274 0.7134 l
1.0441 0.7134 l
1.0441 0.6967 l
c
GS
Color0 SRGB
fill
GR
[/Pattern /DeviceRGB] SCS
Color1 Pattern8 SC
fill
[/DeviceRGB] SCS
Color1 SC
n
1.0274 0.6967 m
1.0274 0.7134 l
1.0441 0.7134 l
1.0441 0.6967 l
1.0274 0.6967 l
c
s
n
1.0856 0.7602 m
1.0856 0.7769 l
1.1023 0.7769 l
1.1023 0.7602 l
c
GS
Color0 SRGB
fill
GR
[/Pattern /DeviceRGB] SCS
Color1 Pattern8 SC
fill
[/DeviceRGB] SCS
Color1 SC
n
1.0856 0.7602 m
1.0856 0.7769 l
1.1023 0.7769 l
1.1023 0.7602 l
1.0856 0.7602 l
c
s
[] 0 SD
0.0037 SLW
n
0.6471 0.5389 m
0.6471 0.5389 l
0.6471 0.5389 l
0.6471 0.5389 l
0.6471 0.5389 l
0.6471 0.5389 l
0.6471 0.5389 l
0.6471 0.5389 l
0.6471 0.5389 l
0.6471 0.5389 l
0.6471 0.5389 l
0.6471 0.5389 l
0.6472 0.5389 l
0.6472 0.5389 l
0.6472 0.5389 l
0.6472 0.5389 l
0.6473 0.5389 l
0.6473 0.5389 l
0.6473 0.5389 l
0.6474 0.5389 l
0.6474 0.5389 l
0.6475 0.5389 l
0.6476 0.5389 l
0.6476 0.5389 l
0.6477 0.5389 l
0.6478 0.5389 l
0.6479 0.5389 l
0.6480 0.5389 l
0.6481 0.5389 l
0.6482 0.5389 l
0.6483 0.5389 l
0.6484 0.5389 l
0.6486 0.5389 l
0.6487 0.5389 l
0.6489 0.5389 l
0.6490 0.5389 l
0.6492 0.5389 l
0.6494 0.5389 l
0.6495 0.5389 l
0.6497 0.5389 l
0.6500 0.5389 l
0.6502 0.5389 l
0.6504 0.5389 l
0.6506 0.5389 l
0.6509 0.5389 l
0.6511 0.5389 l
0.6514 0.5389 l
0.6517 0.5389 l
0.6520 0.5389 l
0.6523 0.5389 l
0.6526 0.5389 l
0.6530 0.5389 l
0.6533 0.5389 l
0.6537 0.5389 l
0.6540 0.5389 l
0.6544 0.5389 l
0.6548 0.5389 l
0.6552 0.5389 l
0.6557 0.5389 l
0.6561 0.5389 l
0.6566 0.5389 l
0.6571 0.5389 l
0.6576 0.5389 l
0.6581 0.5389 l
0.6586 0.5389 l
0.6591 0.5390 l
0.6597 0.5390 l
0.6603 0.5390 l
0.6608 0.5390 l
0.6615 0.5390 l
0.6621 0.5390 l
0.6627 0.5390 l
0.6634 0.5390 l
0.6641 0.5390 l
0.6648 0.5390 l
0.6655 0.5390 l
0.6662 0.5390 l
0.6670 0.5390 l
0.6678 0.5390 l
0.6685 0.5390 l
0.6694 0.5391 l
0.6702 0.5391 l
0.6711 0.5391 l
0.6719 0.5391 l
0.6728 0.5391 l
0.6738 0.5391 l
0.6747 0.5391 l
0.6757 0.5391 l
0.6766 0.5391 l
0.6777 0.5392 l
0.6787 0.5392 l
0.6797 0.5392 l
0.6808 0.5392 l
0.6819 0.5392 l
0.6830 0.5392 l
0.6842 0.5393 l
0.6854 0.5393 l
0.6866 0.5393 l
0.6878 0.5393 l
0.6890 0.5393 l
0.6903 0.5393 l
0.6916 0.5394 l
0.6929 0.5394 l
0.6943 0.5394 l
0.6956 0.5394 l
0.6970 0.5394 l
0.6985 0.5395 l
0.6999 0.5395 l
0.7014 0.5395 l
0.7029 0.5395 l
0.7045 0.5396 l
0.7060 0.5396 l
0.7076 0.5396 l
0.7092 0.5396 l
0.7109 0.5397 l
0.7126 0.5397 l
0.7143 0.5397 l
0.7160 0.5398 l
0.7178 0.5398 l
0.7196 0.5398 l
0.7214 0.5399 l
0.7233 0.5399 l
0.7252 0.5399 l
0.7271 0.5400 l
0.7290 0.5400 l
0.7310 0.5400 l
0.7330 0.5401 l
0.7351 0.5401 l
0.7372 0.5402 l
0.7393 0.5402 l
0.7414 0.5402 l
0.7436 0.5403 l
0.7458 0.5403 l
0.7480 0.5404 l
0.7503 0.5404 l
0.7526 0.5405 l
0.7550 0.5405 l
0.7574 0.5406 l
0.7598 0.5406 l
0.7622 0.5407 l
0.7647 0.5407 l
0.7672 0.5408 l
0.7698 0.5408 l
0.7724 0.5409 l
0.7750 0.5409 l
0.7777 0.5410 l
0.7804 0.5410 l
0.7831 0.5411 l
0.7859 0.5411 l
0.7887 0.5412 l
0.7916 0.5413 l
0.7944 0.5413 l
0.7974 0.5414 l
0.8003 0.5414 l
0.8033 0.5415 l
0.8064 0.5416 l
0.8095 0.5416 l
0.8126 0.5417 l
0.8158 0.5418 l
0.8190 0.5418 l
0.8222 0.5419 l
0.8255 0.5420 l
0.8288 0.5420 l
0.8322 0.5421 l
0.8356 0.5422 l
0.8390 0.5423 l
0.8425 0.5423 l
0.8461 0.5424 l
0.8496 0.5425 l
0.8533 0.5426 l
0.8569 0.5426 l
0.8606 0.5427 l
0.8644 0.5428 l
0.8682 0.5429 l
0.8720 0.5430 l
0.8759 0.5431 l
0.8798 0.5431 l
0.8838 0.5432 l
0.8878 0.5433 l
0.8918 0.5434 l
0.8959 0.5435 l
0.9001 0.5436 l
0.9043 0.5437 l
0.9085 0.5438 l
0.9128 0.5439 l
0.9171 0.5440 l
0.9215 0.5440 l
0.9259 0.5441 l
0.9304 0.5442 l
0.9349 0.5443 l
0.9395 0.5444 l
0.9441 0.5445 l
0.9488 0.5446 l
0.9535 0.5447 l
0.9583 0.5448 l
0.9631 0.5450 l
0.9679 0.5451 l
0.9728 0.5452 l
0.9778 0.5453 l
0.9828 0.5454 l
0.9879 0.5455 l
0.9930 0.5456 l
0.9981 0.5457 l
1.0034 0.5458 l
1.0086 0.5459 l
1.0139 0.5461 l
1.0193 0.5462 l
1.0247 0.5463 l
1.0302 0.5464 l
1.0357 0.5465 l
1.0413 0.5466 l
1.0469 0.5468 l
1.0526 0.5469 l
1.0584 0.5470 l
1.0642 0.5471 l
1.0700 0.5473 l
1.0759 0.5474 l
1.0819 0.5475 l
1.0879 0.5476 l
1.0939 0.5478 l
1.1001 0.5479 l
1.1062 0.5480 l
1.1125 0.5482 l
1.1188 0.5483 l
1.1251 0.5484 l
1.1315 0.5486 l
1.1380 0.5487 l
1.1442 0.5488 l
s
[/DeviceRGB] SCS
Color2 SC
[0.0187 0.0112 ] 0 SD
0.0037 SLW
n
0.6471 0.5389 m
0.6471 0.5389 l
0.6471 0.5389 l
0.6471 0.5389 l
0.6471 0.5389 l
0.6471 0.5389 l
0.6471 0.5389 l
0.6471 0.5389 l
0.6471 0.5389 l
0.6471 0.5389 l
0.6471 0.5389 l
0.6471 0.5389 l
0.6472 0.5389 l
0.6472 0.5389 l
0.6472 0.5389 l
0.6472 0.5389 l
0.6473 0.5389 l
0.6473 0.5389 l
0.6473 0.5389 l
0.6474 0.5389 l
0.6474 0.5389 l
0.6475 0.5389 l
0.6476 0.5389 l
0.6476 0.5389 l
0.6477 0.5389 l
0.6478 0.5389 l
0.6479 0.5389 l
0.6480 0.5389 l
0.6481 0.5388 l
0.6482 0.5388 l
0.6483 0.5388 l
0.6484 0.5388 l
0.6486 0.5388 l
0.6487 0.5388 l
0.6489 0.5388 l
0.6490 0.5388 l
0.6492 0.5388 l
0.6494 0.5387 l
0.6495 0.5387 l
0.6497 0.5387 l
0.6500 0.5387 l
0.6502 0.5387 l
0.6504 0.5386 l
0.6506 0.5386 l
0.6509 0.5386 l
0.6511 0.5385 l
0.6514 0.5385 l
0.6517 0.5384 l
0.6520 0.5384 l
0.6523 0.5383 l
0.6526 0.5383 l
0.6530 0.5382 l
0.6533 0.5382 l
0.6537 0.5381 l
0.6540 0.5381 l
0.6544 0.5380 l
0.6548 0.5379 l
0.6552 0.5378 l
0.6557 0.5377 l
0.6561 0.5376 l
0.6566 0.5375 l
0.6571 0.5374 l
0.6576 0.5373 l
0.6581 0.5372 l
0.6586 0.5371 l
0.6591 0.5370 l
0.6597 0.5369 l
0.6603 0.5367 l
0.6608 0.5366 l
0.6615 0.5364 l
0.6621 0.5363 l
0.6627 0.5361 l
0.6634 0.5360 l
0.6641 0.5358 l
0.6648 0.5356 l
0.6655 0.5354 l
0.6662 0.5352 l
0.6670 0.5350 l
0.6678 0.5348 l
0.6685 0.5346 l
0.6694 0.5344 l
0.6702 0.5341 l
0.6711 0.5339 l
0.6719 0.5337 l
0.6728 0.5334 l
0.6738 0.5331 l
0.6747 0.5329 l
0.6757 0.5326 l
0.6766 0.5323 l
0.6777 0.5320 l
0.6787 0.5318 l
0.6797 0.5315 l
0.6808 0.5311 l
0.6819 0.5308 l
0.6830 0.5305 l
0.6842 0.5302 l
0.6854 0.5299 l
0.6866 0.5295 l
0.6878 0.5292 l
0.6890 0.5288 l
0.6903 0.5285 l
0.6916 0.5281 l
0.6929 0.5278 l
0.6943 0.5274 l
0.6956 0.5270 l
0.6970 0.5267 l
0.6985 0.5263 l
0.6999 0.5259 l
0.7014 0.5255 l
0.7029 0.5251 l
0.7045 0.5248 l
0.7060 0.5244 l
0.7076 0.5240 l
0.7092 0.5236 l
0.7109 0.5232 l
0.7126 0.5228 l
0.7143 0.5224 l
0.7160 0.5220 l
0.7178 0.5217 l
0.7196 0.5213 l
0.7214 0.5209 l
0.7233 0.5205 l
0.7252 0.5202 l
0.7271 0.5198 l
0.7290 0.5194 l
0.7310 0.5191 l
0.7330 0.5187 l
0.7351 0.5184 l
0.7372 0.5181 l
0.7393 0.5178 l
0.7414 0.5174 l
0.7436 0.5171 l
0.7458 0.5169 l
0.7480 0.5166 l
0.7503 0.5163 l
0.7526 0.5161 l
0.7550 0.5158 l
0.7574 0.5156 l
0.7598 0.5154 l
0.7622 0.5152 l
0.7647 0.5151 l
0.7672 0.5149 l
0.7698 0.5148 l
0.7724 0.5147 l
0.7750 0.5146 l
0.7777 0.5145 l
0.7804 0.5145 l
0.7831 0.5145 l
0.7859 0.5145 l
0.7887 0.5145 l
0.7916 0.5146 l
0.7944 0.5147 l
0.7974 0.5148 l
0.8003 0.5150 l
0.8033 0.5152 l
0.8064 0.5154 l
0.8095 0.5156 l
0.8126 0.5159 l
0.8158 0.5162 l
0.8190 0.5166 l
0.8222 0.5170 l
0.8255 0.5174 l
0.8288 0.5179 l
0.8322 0.5184 l
0.8356 0.5190 l
0.8390 0.5196 l
0.8425 0.5202 l
0.8461 0.5209 l
0.8496 0.5217 l
0.8533 0.5225 l
0.8569 0.5233 l
0.8606 0.5242 l
0.8644 0.5251 l
0.8682 0.5261 l
0.8720 0.5272 l
0.8759 0.5283 l
0.8798 0.5294 l
0.8838 0.5306 l
0.8878 0.5319 l
0.8918 0.5332 l
0.8959 0.5346 l
0.9001 0.5361 l
0.9043 0.5376 l
0.9085 0.5392 l
0.9128 0.5408 l
0.9171 0.5425 l
0.9215 0.5443 l
0.9259 0.5462 l
0.9304 0.5481 l
0.9349 0.5501 l
0.9395 0.5521 l
0.9441 0.5542 l
0.9488 0.5564 l
0.9535 0.5587 l
0.9583 0.5611 l
0.9631 0.5635 l
0.9679 0.5660 l
0.9728 0.5686 l
0.9778 0.5713 l
0.9828 0.5740 l
0.9879 0.5769 l
0.9930 0.5798 l
0.9981 0.5828 l
1.0034 0.5859 l
1.0086 0.5891 l
1.0139 0.5924 l
1.0193 0.5957 l
1.0247 0.5992 l
1.0302 0.6027 l
1.0357 0.6063 l
1.0413 0.6101 l
1.0469 0.6139 l
1.0526 0.6178 l
1.0584 0.6218 l
1.0642 0.6259 l
1.0700 0.6302 l
1.0759 0.6345 l
1.0819 0.6389 l
1.0879 0.6434 l
1.0939 0.6480 l
1.1001 0.6527 l
1.1062 0.6576 l
1.1125 0.6625 l
1.1188 0.6675 l
1.1251 0.6727 l
1.1315 0.6779 l
1.1380 0.6833 l
1.1442 0.6886 l
s
[/DeviceRGB] SCS
Color4 SC
[0.0037 0.0112 0.0187 0.0112 ] 0 SD
0.0037 SLW
n
0.6471 0.5389 m
0.6471 0.5389 l
0.6471 0.5389 l
0.6471 0.5389 l
0.6471 0.5389 l
0.6471 0.5389 l
0.6471 0.5389 l
0.6471 0.5389 l
0.6471 0.5389 l
0.6471 0.5389 l
0.6471 0.5389 l
0.6471 0.5389 l
0.6472 0.5389 l
0.6472 0.5389 l
0.6472 0.5389 l
0.6472 0.5389 l
0.6473 0.5389 l
0.6473 0.5389 l
0.6473 0.5389 l
0.6474 0.5389 l
0.6474 0.5389 l
0.6475 0.5389 l
0.6476 0.5389 l
0.6476 0.5389 l
0.6477 0.5389 l
0.6478 0.5389 l
0.6479 0.5389 l
0.6480 0.5388 l
0.6481 0.5388 l
0.6482 0.5388 l
0.6483 0.5388 l
0.6484 0.5388 l
0.6486 0.5388 l
0.6487 0.5388 l
0.6489 0.5388 l
0.6490 0.5387 l
0.6492 0.5387 l
0.6494 0.5387 l
0.6495 0.5387 l
0.6497 0.5386 l
0.6500 0.5386 l
0.6502 0.5386 l
0.6504 0.5385 l
0.6506 0.5385 l
0.6509 0.5385 l
0.6511 0.5384 l
0.6514 0.5384 l
0.6517 0.5383 l
0.6520 0.5382 l
0.6523 0.5382 l
0.6526 0.5381 l
0.6530 0.5380 l
0.6533 0.5379 l
0.6537 0.5378 l
0.6540 0.5378 l
0.6544 0.5377 l
0.6548 0.5375 l
0.6552 0.5374 l
0.6557 0.5373 l
0.6561 0.5372 l
0.6566 0.5370 l
0.6571 0.5369 l
0.6576 0.5367 l
0.6581 0.5366 l
0.6586 0.5364 l
0.6591 0.5362 l
0.6597 0.5360 l
0.6603 0.5358 l
0.6608 0.5356 l
0.6615 0.5354 l
0.6621 0.5352 l
0.6627 0.5349 l
0.6634 0.5347 l
0.6641 0.5344 l
0.6648 0.5341 l
0.6655 0.5338 l
0.6662 0.5335 l
0.6670 0.5332 l
0.6678 0.5328 l
0.6685 0.5325 l
0.6694 0.5321 l
0.6702 0.5318 l
0.6711 0.5314 l
0.6719 0.5310 l
0.6728 0.5305 l
0.6738 0.5301 l
0.6747 0.5297 l
0.6757 0.5292 l
0.6766 0.5287 l
0.6777 0.5282 l
0.6787 0.5277 l
0.6797 0.5272 l
0.6808 0.5266 l
0.6819 0.5261 l
0.6830 0.5255 l
0.6842 0.5249 l
0.6854 0.5243 l
0.6866 0.5236 l
0.6878 0.5230 l
0.6890 0.5223 l
0.6903 0.5216 l
0.6916 0.5209 l
0.6929 0.5202 l
0.6943 0.5194 l
0.6956 0.5187 l
0.6970 0.5179 l
0.6985 0.5171 l
0.6999 0.5163 l
0.7014 0.5155 l
0.7029 0.5146 l
0.7045 0.5138 l
0.7060 0.5129 l
0.7076 0.5120 l
0.7092 0.5111 l
0.7109 0.5101 l
0.7126 0.5092 l
0.7143 0.5082 l
0.7160 0.5073 l
0.7178 0.5063 l
0.7196 0.5052 l
0.7214 0.5042 l
0.7233 0.5032 l
0.7252 0.5021 l
0.7271 0.5011 l
0.7290 0.5000 l
0.7292 0.4999 l
s
n
1.0760 0.4999 m
1.0819 0.5036 l
1.0879 0.5075 l
1.0939 0.5116 l
1.1001 0.5158 l
1.1062 0.5202 l
1.1125 0.5247 l
1.1188 0.5295 l
1.1251 0.5344 l
1.1315 0.5395 l
1.1380 0.5447 l
1.1442 0.5499 l
s
[/DeviceRGB] SCS
Color1 SC
[] 0 SD
0.0045 SLW
n
0.6471 0.5000 m
1.1441 0.5000 l
s
n
0.6471 0.8500 m
1.1441 0.8500 l
s
n
0.7092 0.5000 m
0.7092 0.5100 l
s
n
0.7092 0.8500 m
0.7092 0.8400 l
s
n
0.8335 0.5000 m
0.8335 0.5100 l
s
n
0.8335 0.8500 m
0.8335 0.8400 l
s
n
0.9577 0.5000 m
0.9577 0.5100 l
s
n
0.9577 0.8500 m
0.9577 0.8400 l
s
n
1.0820 0.5000 m
1.0820 0.5100 l
s
n
1.0820 0.8500 m
1.0820 0.8400 l
s
n
0.6471 0.5000 m
0.6471 0.5200 l
s
n
0.6471 0.8500 m
0.6471 0.8300 l
s
n
0.7713 0.5000 m
0.7713 0.5200 l
s
n
0.7713 0.8500 m
0.7713 0.8300 l
s
n
0.8956 0.5000 m
0.8956 0.5200 l
s
n
0.8956 0.8500 m
0.8956 0.8300 l
s
n
1.0199 0.5000 m
1.0199 0.5200 l
s
n
1.0199 0.8500 m
1.0199 0.8300 l
s
n
1.1441 0.5000 m
1.1441 0.5200 l
s
n
1.1441 0.8500 m
1.1441 0.8300 l
s
n
0.6471 0.5000 m
0.6471 0.8500 l
s
n
1.1441 0.5000 m
1.1441 0.8500 l
s
n
0.6471 0.5000 m
0.6571 0.5000 l
s
n
1.1441 0.5000 m
1.1341 0.5000 l
s
n
0.6471 0.5778 m
0.6571 0.5778 l
s
n
1.1441 0.5778 m
1.1341 0.5778 l
s
n
0.6471 0.6556 m
0.6571 0.6556 l
s
n
1.1441 0.6556 m
1.1341 0.6556 l
s
n
0.6471 0.7333 m
0.6571 0.7333 l
s
n
1.1441 0.7333 m
1.1341 0.7333 l
s
n
0.6471 0.8111 m
0.6571 0.8111 l
s
n
1.1441 0.8111 m
1.1341 0.8111 l
s
n
0.6471 0.5389 m
0.6671 0.5389 l
s
n
1.1441 0.5389 m
1.1241 0.5389 l
s
n
0.6471 0.6167 m
0.6671 0.6167 l
s
n
1.1441 0.6167 m
1.1241 0.6167 l
s
n
0.6471 0.6944 m
0.6671 0.6944 l
s
n
1.1441 0.6944 m
1.1241 0.6944 l
s
n
0.6471 0.7722 m
0.6671 0.7722 l
s
n
1.1441 0.7722 m
1.1241 0.7722 l
s
n
0.6471 0.8500 m
0.6671 0.8500 l
s
n
1.1441 0.8500 m
1.1241 0.8500 l
s
/Font0 FFSF
1.1541 0.5240 m
GS
[0.0448 0.0000 0.0000 0.0448 0 0] CC
(0) show
GR
/Font0 FFSF
1.1541 0.6018 m
GS
[0.0448 0.0000 0.0000 0.0448 0 0] CC
(10) show
GR
/Font0 FFSF
1.1541 0.6795 m
GS
[0.0448 0.0000 0.0000 0.0448 0 0] CC
(20) show
GR
/Font0 FFSF
1.1541 0.7573 m
GS
[0.0448 0.0000 0.0000 0.0448 0 0] CC
(30) show
GR
/Font0 FFSF
1.1541 0.8351 m
GS
[0.0448 0.0000 0.0000 0.0448 0 0] CC
(40) show
GR
/Font0 FFSF
1.2390 0.5795 m
GS
[0.0000 0.0459 -0.0459 0.0000 0 0] CC
(\(S=1,T=1\)) show
GR
[] 0 SD
0.0015 SLW
n
0.6471 0.5000 m
0.6471 0.8500 l
1.1441 0.8500 l
1.1441 0.5000 l
0.6471 0.5000 l
c
s
n
0.1632 0.3853 m
0.1632 0.4019 l
0.1798 0.4019 l
0.1798 0.3853 l
c
GS
Color0 SRGB
fill
GR
[/Pattern /DeviceRGB] SCS
Color1 Pattern8 SC
fill
[/DeviceRGB] SCS
Color1 SC
[] 0 SD
0.0030 SLW
n
0.1632 0.3853 m
0.1632 0.4019 l
0.1798 0.4019 l
0.1798 0.3853 l
0.1632 0.3853 l
c
s
n
0.1723 0.3672 m
0.1723 0.3838 l
0.1889 0.3838 l
0.1889 0.3672 l
c
GS
Color0 SRGB
fill
GR
[/Pattern /DeviceRGB] SCS
Color1 Pattern8 SC
fill
[/DeviceRGB] SCS
Color1 SC
n
0.1723 0.3672 m
0.1723 0.3838 l
0.1889 0.3838 l
0.1889 0.3672 l
0.1723 0.3672 l
c
s
n
0.1836 0.3483 m
0.1836 0.3649 l
0.2003 0.3649 l
0.2003 0.3483 l
c
GS
Color0 SRGB
fill
GR
[/Pattern /DeviceRGB] SCS
Color1 Pattern8 SC
fill
[/DeviceRGB] SCS
Color1 SC
n
0.1836 0.3483 m
0.1836 0.3649 l
0.2003 0.3649 l
0.2003 0.3483 l
0.1836 0.3483 l
c
s
n
0.1975 0.3282 m
0.1975 0.3448 l
0.2142 0.3448 l
0.2142 0.3282 l
c
GS
Color0 SRGB
fill
GR
[/Pattern /DeviceRGB] SCS
Color1 Pattern8 SC
fill
[/DeviceRGB] SCS
Color1 SC
n
0.1975 0.3282 m
0.1975 0.3448 l
0.2142 0.3448 l
0.2142 0.3282 l
0.1975 0.3282 l
c
s
n
0.2142 0.3076 m
0.2142 0.3242 l
0.2309 0.3242 l
0.2309 0.3076 l
c
GS
Color0 SRGB
fill
GR
[/Pattern /DeviceRGB] SCS
Color1 Pattern8 SC
fill
[/DeviceRGB] SCS
Color1 SC
n
0.2142 0.3076 m
0.2142 0.3242 l
0.2309 0.3242 l
0.2309 0.3076 l
0.2142 0.3076 l
c
s
n
0.2339 0.2850 m
0.2339 0.3017 l
0.2505 0.3017 l
0.2505 0.2850 l
c
GS
Color0 SRGB
fill
GR
[/Pattern /DeviceRGB] SCS
Color1 Pattern8 SC
fill
[/DeviceRGB] SCS
Color1 SC
n
0.2339 0.2850 m
0.2339 0.3017 l
0.2505 0.3017 l
0.2505 0.2850 l
0.2339 0.2850 l
c
s
n
0.2568 0.2619 m
0.2568 0.2786 l
0.2735 0.2786 l
0.2735 0.2619 l
c
GS
Color0 SRGB
fill
GR
[/Pattern /DeviceRGB] SCS
Color1 Pattern8 SC
fill
[/DeviceRGB] SCS
Color1 SC
n
0.2568 0.2619 m
0.2568 0.2786 l
0.2735 0.2786 l
0.2735 0.2619 l
0.2568 0.2619 l
c
s
n
0.2833 0.2383 m
0.2833 0.2550 l
0.3000 0.2550 l
0.3000 0.2383 l
c
GS
Color0 SRGB
fill
GR
[/Pattern /DeviceRGB] SCS
Color1 Pattern8 SC
fill
[/DeviceRGB] SCS
Color1 SC
n
0.2833 0.2383 m
0.2833 0.2550 l
0.3000 0.2550 l
0.3000 0.2383 l
0.2833 0.2383 l
c
s
n
0.3136 0.2159 m
0.3136 0.2325 l
0.3302 0.2325 l
0.3302 0.2159 l
c
GS
Color0 SRGB
fill
GR
[/Pattern /DeviceRGB] SCS
Color1 Pattern8 SC
fill
[/DeviceRGB] SCS
Color1 SC
n
0.3136 0.2159 m
0.3136 0.2325 l
0.3302 0.2325 l
0.3302 0.2159 l
0.3136 0.2159 l
c
s
n
0.3479 0.1951 m
0.3479 0.2118 l
0.3645 0.2118 l
0.3645 0.1951 l
c
GS
Color0 SRGB
fill
GR
[/Pattern /DeviceRGB] SCS
Color1 Pattern8 SC
fill
[/DeviceRGB] SCS
Color1 SC
n
0.3479 0.1951 m
0.3479 0.2118 l
0.3645 0.2118 l
0.3645 0.1951 l
0.3479 0.1951 l
c
s
n
0.3864 0.1766 m
0.3864 0.1933 l
0.4031 0.1933 l
0.4031 0.1766 l
c
GS
Color0 SRGB
fill
GR
[/Pattern /DeviceRGB] SCS
Color1 Pattern8 SC
fill
[/DeviceRGB] SCS
Color1 SC
n
0.3864 0.1766 m
0.3864 0.1933 l
0.4031 0.1933 l
0.4031 0.1766 l
0.3864 0.1766 l
c
s
n
0.4295 0.1623 m
0.4295 0.1790 l
0.4462 0.1790 l
0.4462 0.1623 l
c
GS
Color0 SRGB
fill
GR
[/Pattern /DeviceRGB] SCS
Color1 Pattern8 SC
fill
[/DeviceRGB] SCS
Color1 SC
n
0.4295 0.1623 m
0.4295 0.1790 l
0.4462 0.1790 l
0.4462 0.1623 l
0.4295 0.1623 l
c
s
n
0.4774 0.1543 m
0.4774 0.1709 l
0.4941 0.1709 l
0.4941 0.1543 l
c
GS
Color0 SRGB
fill
GR
[/Pattern /DeviceRGB] SCS
Color1 Pattern8 SC
fill
[/DeviceRGB] SCS
Color1 SC
n
0.4774 0.1543 m
0.4774 0.1709 l
0.4941 0.1709 l
0.4941 0.1543 l
0.4774 0.1543 l
c
s
n
0.5303 0.1522 m
0.5303 0.1688 l
0.5470 0.1688 l
0.5470 0.1522 l
c
GS
Color0 SRGB
fill
GR
[/Pattern /DeviceRGB] SCS
Color1 Pattern8 SC
fill
[/DeviceRGB] SCS
Color1 SC
n
0.5303 0.1522 m
0.5303 0.1688 l
0.5470 0.1688 l
0.5470 0.1522 l
0.5303 0.1522 l
c
s
n
0.5886 0.1604 m
0.5886 0.1770 l
0.6052 0.1770 l
0.6052 0.1604 l
c
GS
Color0 SRGB
fill
GR
[/Pattern /DeviceRGB] SCS
Color1 Pattern8 SC
fill
[/DeviceRGB] SCS
Color1 SC
n
0.5886 0.1604 m
0.5886 0.1770 l
0.6052 0.1770 l
0.6052 0.1604 l
0.5886 0.1604 l
c
s
[] 0 SD
0.0037 SLW
n
0.1500 0.4650 m
0.1500 0.4650 l
0.1500 0.4650 l
0.1500 0.4650 l
0.1500 0.4650 l
0.1500 0.4649 l
0.1500 0.4649 l
0.1500 0.4649 l
0.1500 0.4648 l
0.1500 0.4648 l
0.1501 0.4647 l
0.1501 0.4646 l
0.1501 0.4645 l
0.1501 0.4644 l
0.1501 0.4642 l
0.1502 0.4641 l
0.1502 0.4639 l
0.1502 0.4637 l
0.1503 0.4635 l
0.1503 0.4632 l
0.1504 0.4629 l
0.1504 0.4626 l
0.1505 0.4623 l
0.1506 0.4620 l
0.1507 0.4616 l
0.1507 0.4612 l
0.1508 0.4608 l
0.1509 0.4603 l
0.1510 0.4598 l
0.1511 0.4593 l
0.1513 0.4587 l
0.1514 0.4581 l
0.1515 0.4575 l
0.1516 0.4569 l
0.1518 0.4562 l
0.1520 0.4555 l
0.1521 0.4547 l
0.1523 0.4539 l
0.1525 0.4531 l
0.1527 0.4522 l
0.1529 0.4513 l
0.1531 0.4504 l
0.1533 0.4494 l
0.1536 0.4484 l
0.1538 0.4474 l
0.1541 0.4463 l
0.1544 0.4452 l
0.1546 0.4441 l
0.1549 0.4429 l
0.1552 0.4416 l
0.1556 0.4404 l
0.1559 0.4391 l
0.1562 0.4378 l
0.1566 0.4364 l
0.1570 0.4350 l
0.1574 0.4336 l
0.1578 0.4321 l
0.1582 0.4306 l
0.1586 0.4291 l
0.1591 0.4275 l
0.1595 0.4259 l
0.1600 0.4242 l
0.1605 0.4226 l
0.1610 0.4209 l
0.1615 0.4191 l
0.1621 0.4174 l
0.1626 0.4156 l
0.1632 0.4138 l
0.1638 0.4119 l
0.1644 0.4101 l
0.1650 0.4082 l
0.1657 0.4062 l
0.1663 0.4043 l
0.1670 0.4023 l
0.1677 0.4003 l
0.1684 0.3983 l
0.1692 0.3963 l
0.1699 0.3942 l
0.1707 0.3922 l
0.1715 0.3901 l
0.1723 0.3880 l
0.1731 0.3859 l
0.1740 0.3837 l
0.1749 0.3816 l
0.1758 0.3794 l
0.1767 0.3773 l
0.1776 0.3751 l
0.1786 0.3729 l
0.1796 0.3707 l
0.1806 0.3686 l
0.1816 0.3664 l
0.1827 0.3642 l
0.1838 0.3620 l
0.1849 0.3598 l
0.1860 0.3576 l
0.1871 0.3555 l
0.1883 0.3533 l
0.1895 0.3512 l
0.1907 0.3490 l
0.1920 0.3469 l
0.1932 0.3448 l
0.1945 0.3427 l
0.1959 0.3406 l
0.1972 0.3386 l
0.1986 0.3365 l
0.2000 0.3345 l
0.2014 0.3325 l
0.2029 0.3306 l
0.2044 0.3287 l
0.2059 0.3268 l
0.2074 0.3249 l
0.2090 0.3231 l
0.2106 0.3213 l
0.2122 0.3196 l
0.2138 0.3179 l
0.2155 0.3163 l
0.2172 0.3147 l
0.2190 0.3132 l
0.2207 0.3117 l
0.2225 0.3103 l
0.2244 0.3089 l
0.2262 0.3076 l
0.2281 0.3063 l
0.2300 0.3051 l
0.2320 0.3040 l
0.2340 0.3030 l
0.2360 0.3020 l
0.2380 0.3011 l
0.2401 0.3003 l
0.2422 0.2996 l
0.2443 0.2990 l
0.2465 0.2984 l
0.2487 0.2979 l
0.2510 0.2975 l
0.2533 0.2973 l
0.2556 0.2971 l
0.2579 0.2970 l
0.2603 0.2970 l
0.2627 0.2971 l
0.2652 0.2974 l
0.2676 0.2977 l
0.2702 0.2982 l
0.2727 0.2988 l
0.2753 0.2995 l
0.2779 0.3003 l
0.2806 0.3013 l
0.2833 0.3024 l
0.2861 0.3036 l
0.2888 0.3050 l
0.2916 0.3065 l
0.2945 0.3081 l
0.2974 0.3099 l
0.3003 0.3118 l
0.3033 0.3139 l
0.3063 0.3162 l
0.3093 0.3186 l
0.3124 0.3211 l
0.3155 0.3239 l
0.3187 0.3268 l
0.3219 0.3299 l
0.3251 0.3331 l
0.3284 0.3366 l
0.3318 0.3402 l
0.3351 0.3440 l
0.3385 0.3480 l
0.3420 0.3522 l
0.3455 0.3566 l
0.3490 0.3611 l
0.3526 0.3659 l
0.3562 0.3709 l
0.3599 0.3761 l
0.3636 0.3816 l
0.3673 0.3872 l
0.3711 0.3931 l
0.3749 0.3992 l
0.3788 0.4055 l
0.3827 0.4121 l
0.3867 0.4189 l
0.3907 0.4259 l
0.3948 0.4332 l
0.3989 0.4407 l
0.4030 0.4485 l
0.4072 0.4566 l
0.4114 0.4649 l
0.4157 0.4735 l
0.4201 0.4823 l
0.4244 0.4914 l
0.4285 0.5001 l
s
[/DeviceRGB] SCS
Color2 SC
[0.0187 0.0112 ] 0 SD
0.0037 SLW
n
0.1500 0.4650 m
0.1500 0.4650 l
0.1500 0.4650 l
0.1500 0.4650 l
0.1500 0.4650 l
0.1500 0.4650 l
0.1500 0.4649 l
0.1500 0.4649 l
0.1500 0.4648 l
0.1500 0.4648 l
0.1501 0.4647 l
0.1501 0.4646 l
0.1501 0.4645 l
0.1501 0.4644 l
0.1501 0.4643 l
0.1502 0.4641 l
0.1502 0.4639 l
0.1502 0.4637 l
0.1503 0.4635 l
0.1503 0.4633 l
0.1504 0.4630 l
0.1504 0.4628 l
0.1505 0.4624 l
0.1506 0.4621 l
0.1507 0.4618 l
0.1507 0.4614 l
0.1508 0.4610 l
0.1509 0.4605 l
0.1510 0.4601 l
0.1511 0.4596 l
0.1513 0.4590 l
0.1514 0.4585 l
0.1515 0.4579 l
0.1516 0.4573 l
0.1518 0.4566 l
0.1520 0.4560 l
0.1521 0.4552 l
0.1523 0.4545 l
0.1525 0.4537 l
0.1527 0.4529 l
0.1529 0.4521 l
0.1531 0.4512 l
0.1533 0.4503 l
0.1536 0.4494 l
0.1538 0.4484 l
0.1541 0.4474 l
0.1544 0.4463 l
0.1546 0.4453 l
0.1549 0.4442 l
0.1552 0.4430 l
0.1556 0.4418 l
0.1559 0.4406 l
0.1562 0.4394 l
0.1566 0.4381 l
0.1570 0.4368 l
0.1574 0.4355 l
0.1578 0.4341 l
0.1582 0.4327 l
0.1586 0.4313 l
0.1591 0.4299 l
0.1595 0.4284 l
0.1600 0.4269 l
0.1605 0.4253 l
0.1610 0.4237 l
0.1615 0.4221 l
0.1621 0.4205 l
0.1626 0.4189 l
0.1632 0.4172 l
0.1638 0.4155 l
0.1644 0.4138 l
0.1650 0.4121 l
0.1657 0.4103 l
0.1663 0.4085 l
0.1670 0.4067 l
0.1677 0.4049 l
0.1684 0.4031 l
0.1692 0.4012 l
0.1699 0.3994 l
0.1707 0.3975 l
0.1715 0.3956 l
0.1723 0.3937 l
0.1731 0.3918 l
0.1740 0.3899 l
0.1749 0.3880 l
0.1758 0.3860 l
0.1767 0.3841 l
0.1776 0.3822 l
0.1786 0.3803 l
0.1796 0.3783 l
0.1806 0.3764 l
0.1816 0.3745 l
0.1827 0.3726 l
0.1838 0.3707 l
0.1849 0.3688 l
0.1860 0.3669 l
0.1871 0.3650 l
0.1883 0.3632 l
0.1895 0.3613 l
0.1907 0.3595 l
0.1920 0.3577 l
0.1932 0.3560 l
0.1945 0.3542 l
0.1959 0.3525 l
0.1972 0.3508 l
0.1986 0.3492 l
0.2000 0.3476 l
0.2014 0.3460 l
0.2029 0.3444 l
0.2044 0.3430 l
0.2059 0.3415 l
0.2074 0.3401 l
0.2090 0.3388 l
0.2106 0.3375 l
0.2122 0.3362 l
0.2138 0.3350 l
0.2155 0.3339 l
0.2172 0.3329 l
0.2190 0.3319 l
0.2207 0.3309 l
0.2225 0.3301 l
0.2244 0.3293 l
0.2262 0.3286 l
0.2281 0.3280 l
0.2300 0.3275 l
0.2320 0.3270 l
0.2340 0.3267 l
0.2360 0.3264 l
0.2380 0.3262 l
0.2401 0.3262 l
0.2422 0.3262 l
0.2443 0.3263 l
0.2465 0.3266 l
0.2487 0.3269 l
0.2510 0.3274 l
0.2533 0.3280 l
0.2556 0.3287 l
0.2579 0.3296 l
0.2603 0.3306 l
0.2627 0.3317 l
0.2652 0.3329 l
0.2676 0.3343 l
0.2702 0.3358 l
0.2727 0.3375 l
0.2753 0.3393 l
0.2779 0.3413 l
0.2806 0.3435 l
0.2833 0.3458 l
0.2861 0.3482 l
0.2888 0.3509 l
0.2916 0.3537 l
0.2945 0.3567 l
0.2974 0.3598 l
0.3003 0.3632 l
0.3033 0.3668 l
0.3063 0.3705 l
0.3093 0.3744 l
0.3124 0.3786 l
0.3155 0.3829 l
0.3187 0.3875 l
0.3219 0.3923 l
0.3251 0.3973 l
0.3284 0.4025 l
0.3318 0.4080 l
0.3351 0.4136 l
0.3385 0.4195 l
0.3420 0.4257 l
0.3455 0.4321 l
0.3490 0.4388 l
0.3526 0.4457 l
0.3562 0.4528 l
0.3599 0.4603 l
0.3636 0.4680 l
0.3673 0.4759 l
0.3711 0.4842 l
0.3749 0.4927 l
0.3782 0.5001 l
s
[/DeviceRGB] SCS
Color4 SC
[0.0037 0.0112 0.0187 0.0112 ] 0 SD
0.0037 SLW
n
0.1500 0.4650 m
0.1500 0.4650 l
0.1500 0.4650 l
0.1500 0.4650 l
0.1500 0.4650 l
0.1500 0.4649 l
0.1500 0.4649 l
0.1500 0.4649 l
0.1500 0.4648 l
0.1500 0.4648 l
0.1501 0.4647 l
0.1501 0.4646 l
0.1501 0.4645 l
0.1501 0.4643 l
0.1501 0.4642 l
0.1502 0.4640 l
0.1502 0.4638 l
0.1502 0.4636 l
0.1503 0.4634 l
0.1503 0.4631 l
0.1504 0.4628 l
0.1504 0.4625 l
0.1505 0.4622 l
0.1506 0.4618 l
0.1507 0.4614 l
0.1507 0.4610 l
0.1508 0.4606 l
0.1509 0.4601 l
0.1510 0.4596 l
0.1511 0.4590 l
0.1513 0.4585 l
0.1514 0.4578 l
0.1515 0.4572 l
0.1516 0.4565 l
0.1518 0.4558 l
0.1520 0.4551 l
0.1521 0.4543 l
0.1523 0.4534 l
0.1525 0.4526 l
0.1527 0.4517 l
0.1529 0.4508 l
0.1531 0.4498 l
0.1533 0.4488 l
0.1536 0.4477 l
0.1538 0.4467 l
0.1541 0.4455 l
0.1544 0.4444 l
0.1546 0.4432 l
0.1549 0.4419 l
0.1552 0.4407 l
0.1556 0.4394 l
0.1559 0.4380 l
0.1562 0.4366 l
0.1566 0.4352 l
0.1570 0.4338 l
0.1574 0.4323 l
0.1578 0.4307 l
0.1582 0.4292 l
0.1586 0.4276 l
0.1591 0.4259 l
0.1595 0.4243 l
0.1600 0.4226 l
0.1605 0.4208 l
0.1610 0.4191 l
0.1615 0.4173 l
0.1621 0.4154 l
0.1626 0.4136 l
0.1632 0.4117 l
0.1638 0.4097 l
0.1644 0.4078 l
0.1650 0.4058 l
0.1657 0.4038 l
0.1663 0.4018 l
0.1670 0.3997 l
0.1677 0.3977 l
0.1684 0.3956 l
0.1692 0.3934 l
0.1699 0.3913 l
0.1707 0.3891 l
0.1715 0.3870 l
0.1723 0.3848 l
0.1731 0.3826 l
0.1740 0.3803 l
0.1749 0.3781 l
0.1758 0.3759 l
0.1767 0.3736 l
0.1776 0.3714 l
0.1786 0.3691 l
0.1796 0.3668 l
0.1806 0.3645 l
0.1816 0.3623 l
0.1827 0.3600 l
0.1838 0.3577 l
0.1849 0.3554 l
0.1860 0.3532 l
0.1871 0.3509 l
0.1883 0.3486 l
0.1895 0.3464 l
0.1907 0.3442 l
0.1920 0.3419 l
0.1932 0.3397 l
0.1945 0.3376 l
0.1959 0.3354 l
0.1972 0.3333 l
0.1986 0.3312 l
0.2000 0.3291 l
0.2014 0.3270 l
0.2029 0.3250 l
0.2044 0.3230 l
0.2059 0.3210 l
0.2074 0.3191 l
0.2090 0.3172 l
0.2106 0.3154 l
0.2122 0.3136 l
0.2138 0.3119 l
0.2155 0.3102 l
0.2172 0.3085 l
0.2190 0.3069 l
0.2207 0.3054 l
0.2225 0.3040 l
0.2244 0.3025 l
0.2262 0.3012 l
0.2281 0.2999 l
0.2300 0.2987 l
0.2320 0.2976 l
0.2340 0.2966 l
0.2360 0.2956 l
0.2380 0.2947 l
0.2401 0.2939 l
0.2422 0.2932 l
0.2443 0.2926 l
0.2465 0.2920 l
0.2487 0.2916 l
0.2510 0.2913 l
0.2533 0.2911 l
0.2556 0.2909 l
0.2579 0.2909 l
0.2603 0.2910 l
0.2627 0.2912 l
0.2652 0.2916 l
0.2676 0.2920 l
0.2702 0.2926 l
0.2727 0.2933 l
0.2753 0.2942 l
0.2779 0.2952 l
0.2806 0.2963 l
0.2833 0.2975 l
0.2861 0.2989 l
0.2888 0.3005 l
0.2916 0.3022 l
0.2945 0.3041 l
0.2974 0.3061 l
0.3003 0.3083 l
0.3033 0.3106 l
0.3063 0.3132 l
0.3093 0.3159 l
0.3124 0.3188 l
0.3155 0.3218 l
0.3187 0.3251 l
0.3219 0.3285 l
0.3251 0.3321 l
0.3284 0.3360 l
0.3318 0.3400 l
0.3351 0.3442 l
0.3385 0.3486 l
0.3420 0.3533 l
0.3455 0.3582 l
0.3490 0.3633 l
0.3526 0.3686 l
0.3562 0.3741 l
0.3599 0.3799 l
0.3636 0.3859 l
0.3673 0.3922 l
0.3711 0.3987 l
0.3749 0.4054 l
0.3788 0.4124 l
0.3827 0.4197 l
0.3867 0.4272 l
0.3907 0.4350 l
0.3948 0.4430 l
0.3989 0.4514 l
0.4030 0.4600 l
0.4072 0.4689 l
0.4114 0.4781 l
0.4157 0.4875 l
0.4201 0.4973 l
0.4213 0.5001 l
s
[/DeviceRGB] SCS
Color1 SC
[] 0 SD
0.0045 SLW
n
0.1500 0.1500 m
0.6471 0.1500 l
s
n
0.2121 0.1500 m
0.2121 0.1600 l
s
n
0.3364 0.1500 m
0.3364 0.1600 l
s
n
0.4607 0.1500 m
0.4607 0.1600 l
s
n
0.5849 0.1500 m
0.5849 0.1600 l
s
n
0.1500 0.1500 m
0.1500 0.1700 l
s
n
0.2743 0.1500 m
0.2743 0.1700 l
s
n
0.3985 0.1500 m
0.3985 0.1700 l
s
n
0.5228 0.1500 m
0.5228 0.1700 l
s
/Font0 FFSF
0.1394 0.1094 m
GS
[0.0448 0.0000 0.0000 0.0448 0 0] CC
(0) show
GR
/Font0 FFSF
0.2468 0.1094 m
GS
[0.0448 0.0000 0.0000 0.0448 0 0] CC
(0.2) show
GR
/Font0 FFSF
0.3711 0.1094 m
GS
[0.0448 0.0000 0.0000 0.0448 0 0] CC
(0.4) show
GR
/Font0 FFSF
0.4955 0.1094 m
GS
[0.0448 0.0000 0.0000 0.0448 0 0] CC
(0.6) show
GR
/Symbol findfont
/Font12 exch definefont pop
/Font12 FFSF
0.5779 0.0503 m
GS
[0.0459 0.0000 0.0000 0.0459 0 0] CC
(r) show
GR
/Font0 FFSF
0.6030 0.0503 m
GS
[0.0459 0.0000 0.0000 0.0459 0 0] CC
( [fm) show
GR
/Font0 FFSF
0.6807 0.0779 m
GS
[0.0325 0.0000 0.0000 0.0325 0 0] CC
(-3) show
GR
/Font0 FFSF
0.7077 0.0503 m
GS
[0.0459 0.0000 0.0000 0.0459 0 0] CC
(]) show
GR
n
0.1500 0.1500 m
0.1500 0.5000 l
s
n
0.1500 0.1500 m
0.1600 0.1500 l
s
n
0.1500 0.2200 m
0.1600 0.2200 l
s
n
0.1500 0.2900 m
0.1600 0.2900 l
s
n
0.1500 0.3600 m
0.1600 0.3600 l
s
n
0.1500 0.4300 m
0.1600 0.4300 l
s
n
0.1500 0.5000 m
0.1600 0.5000 l
s
n
0.1500 0.1850 m
0.1700 0.1850 l
s
n
0.1500 0.2550 m
0.1700 0.2550 l
s
n
0.1500 0.3250 m
0.1700 0.3250 l
s
n
0.1500 0.3950 m
0.1700 0.3950 l
s
n
0.1500 0.4650 m
0.1700 0.4650 l
s
/Font0 FFSF
0.0816 0.1701 m
GS
[0.0448 0.0000 0.0000 0.0448 0 0] CC
(-40) show
GR
/Font0 FFSF
0.0816 0.2401 m
GS
[0.0448 0.0000 0.0000 0.0448 0 0] CC
(-30) show
GR
/Font0 FFSF
0.0816 0.3101 m
GS
[0.0448 0.0000 0.0000 0.0448 0 0] CC
(-20) show
GR
/Font0 FFSF
0.0816 0.3801 m
GS
[0.0448 0.0000 0.0000 0.0448 0 0] CC
(-10) show
GR
/Font0 FFSF
0.1188 0.4501 m
GS
[0.0448 0.0000 0.0000 0.0448 0 0] CC
(0) show
GR
/Font0 FFSF
0.0633 0.2295 m
GS
[0.0000 0.0459 -0.0459 0.0000 0 0] CC
(\(S=1,T=0\)) show
GR
[] 0 SD
0.0015 SLW
n
0.1500 0.1500 m
0.1500 0.5000 l
0.6471 0.5000 l
0.6471 0.1500 l
0.1500 0.1500 l
c
s
n
0.6602 0.4164 m
0.6602 0.4331 l
0.6769 0.4331 l
0.6769 0.4164 l
c
GS
Color0 SRGB
fill
GR
[/Pattern /DeviceRGB] SCS
Color1 Pattern8 SC
fill
[/DeviceRGB] SCS
Color1 SC
[] 0 SD
0.0030 SLW
n
0.6602 0.4164 m
0.6602 0.4331 l
0.6769 0.4331 l
0.6769 0.4164 l
0.6602 0.4164 l
c
s
n
0.6693 0.4045 m
0.6693 0.4211 l
0.6860 0.4211 l
0.6860 0.4045 l
c
GS
Color0 SRGB
fill
GR
[/Pattern /DeviceRGB] SCS
Color1 Pattern8 SC
fill
[/DeviceRGB] SCS
Color1 SC
n
0.6693 0.4045 m
0.6693 0.4211 l
0.6860 0.4211 l
0.6860 0.4045 l
0.6693 0.4045 l
c
s
n
0.6807 0.3915 m
0.6807 0.4081 l
0.6974 0.4081 l
0.6974 0.3915 l
c
GS
Color0 SRGB
fill
GR
[/Pattern /DeviceRGB] SCS
Color1 Pattern8 SC
fill
[/DeviceRGB] SCS
Color1 SC
n
0.6807 0.3915 m
0.6807 0.4081 l
0.6974 0.4081 l
0.6974 0.3915 l
0.6807 0.3915 l
c
s
n
0.6946 0.3777 m
0.6946 0.3943 l
0.7112 0.3943 l
0.7112 0.3777 l
c
GS
Color0 SRGB
fill
GR
[/Pattern /DeviceRGB] SCS
Color1 Pattern8 SC
fill
[/DeviceRGB] SCS
Color1 SC
n
0.6946 0.3777 m
0.6946 0.3943 l
0.7112 0.3943 l
0.7112 0.3777 l
0.6946 0.3777 l
c
s
n
0.7112 0.3632 m
0.7112 0.3799 l
0.7279 0.3799 l
0.7279 0.3632 l
c
GS
Color0 SRGB
fill
GR
[/Pattern /DeviceRGB] SCS
Color1 Pattern8 SC
fill
[/DeviceRGB] SCS
Color1 SC
n
0.7112 0.3632 m
0.7112 0.3799 l
0.7279 0.3799 l
0.7279 0.3632 l
0.7112 0.3632 l
c
s
n
0.7309 0.3481 m
0.7309 0.3648 l
0.7476 0.3648 l
0.7476 0.3481 l
c
GS
Color0 SRGB
fill
GR
[/Pattern /DeviceRGB] SCS
Color1 Pattern8 SC
fill
[/DeviceRGB] SCS
Color1 SC
n
0.7309 0.3481 m
0.7309 0.3648 l
0.7476 0.3648 l
0.7476 0.3481 l
0.7309 0.3481 l
c
s
n
0.7539 0.3334 m
0.7539 0.3500 l
0.7706 0.3500 l
0.7706 0.3334 l
c
GS
Color0 SRGB
fill
GR
[/Pattern /DeviceRGB] SCS
Color1 Pattern8 SC
fill
[/DeviceRGB] SCS
Color1 SC
n
0.7539 0.3334 m
0.7539 0.3500 l
0.7706 0.3500 l
0.7706 0.3334 l
0.7539 0.3334 l
c
s
n
0.7804 0.3199 m
0.7804 0.3366 l
0.7970 0.3366 l
0.7970 0.3199 l
c
GS
Color0 SRGB
fill
GR
[/Pattern /DeviceRGB] SCS
Color1 Pattern8 SC
fill
[/DeviceRGB] SCS
Color1 SC
n
0.7804 0.3199 m
0.7804 0.3366 l
0.7970 0.3366 l
0.7970 0.3199 l
0.7804 0.3199 l
c
s
n
0.8106 0.3090 m
0.8106 0.3257 l
0.8273 0.3257 l
0.8273 0.3090 l
c
GS
Color0 SRGB
fill
GR
[/Pattern /DeviceRGB] SCS
Color1 Pattern8 SC
fill
[/DeviceRGB] SCS
Color1 SC
n
0.8106 0.3090 m
0.8106 0.3257 l
0.8273 0.3257 l
0.8273 0.3090 l
0.8106 0.3090 l
c
s
n
0.8449 0.3018 m
0.8449 0.3184 l
0.8616 0.3184 l
0.8616 0.3018 l
c
GS
Color0 SRGB
fill
GR
[/Pattern /DeviceRGB] SCS
Color1 Pattern8 SC
fill
[/DeviceRGB] SCS
Color1 SC
n
0.8449 0.3018 m
0.8449 0.3184 l
0.8616 0.3184 l
0.8616 0.3018 l
0.8449 0.3018 l
c
s
n
0.8835 0.2998 m
0.8835 0.3164 l
0.9002 0.3164 l
0.9002 0.2998 l
c
GS
Color0 SRGB
fill
GR
[/Pattern /DeviceRGB] SCS
Color1 Pattern8 SC
fill
[/DeviceRGB] SCS
Color1 SC
n
0.8835 0.2998 m
0.8835 0.3164 l
0.9002 0.3164 l
0.9002 0.2998 l
0.8835 0.2998 l
c
s
n
0.9266 0.3049 m
0.9266 0.3215 l
0.9433 0.3215 l
0.9433 0.3049 l
c
GS
Color0 SRGB
fill
GR
[/Pattern /DeviceRGB] SCS
Color1 Pattern8 SC
fill
[/DeviceRGB] SCS
Color1 SC
n
0.9266 0.3049 m
0.9266 0.3215 l
0.9433 0.3215 l
0.9433 0.3049 l
0.9266 0.3049 l
c
s
n
0.9745 0.3197 m
0.9745 0.3363 l
0.9911 0.3363 l
0.9911 0.3197 l
c
GS
Color0 SRGB
fill
GR
[/Pattern /DeviceRGB] SCS
Color1 Pattern8 SC
fill
[/DeviceRGB] SCS
Color1 SC
n
0.9745 0.3197 m
0.9745 0.3363 l
0.9911 0.3363 l
0.9911 0.3197 l
0.9745 0.3197 l
c
s
n
1.0274 0.3460 m
1.0274 0.3627 l
1.0441 0.3627 l
1.0441 0.3460 l
c
GS
Color0 SRGB
fill
GR
[/Pattern /DeviceRGB] SCS
Color1 Pattern8 SC
fill
[/DeviceRGB] SCS
Color1 SC
n
1.0274 0.3460 m
1.0274 0.3627 l
1.0441 0.3627 l
1.0441 0.3460 l
1.0274 0.3460 l
c
s
n
1.0856 0.3870 m
1.0856 0.4037 l
1.1023 0.4037 l
1.1023 0.3870 l
c
GS
Color0 SRGB
fill
GR
[/Pattern /DeviceRGB] SCS
Color1 Pattern8 SC
fill
[/DeviceRGB] SCS
Color1 SC
n
1.0856 0.3870 m
1.0856 0.4037 l
1.1023 0.4037 l
1.1023 0.3870 l
1.0856 0.3870 l
c
s
[] 0 SD
0.0037 SLW
n
0.6471 0.4650 m
0.6471 0.4650 l
0.6471 0.4650 l
0.6471 0.4650 l
0.6471 0.4650 l
0.6471 0.4650 l
0.6471 0.4650 l
0.6471 0.4650 l
0.6471 0.4649 l
0.6471 0.4649 l
0.6471 0.4649 l
0.6471 0.4649 l
0.6472 0.4648 l
0.6472 0.4648 l
0.6472 0.4648 l
0.6472 0.4647 l
0.6473 0.4647 l
0.6473 0.4646 l
0.6473 0.4645 l
0.6474 0.4644 l
0.6474 0.4644 l
0.6475 0.4643 l
0.6476 0.4642 l
0.6476 0.4641 l
0.6477 0.4639 l
0.6478 0.4638 l
0.6479 0.4637 l
0.6480 0.4635 l
0.6481 0.4633 l
0.6482 0.4632 l
0.6483 0.4630 l
0.6484 0.4628 l
0.6486 0.4626 l
0.6487 0.4623 l
0.6489 0.4621 l
0.6490 0.4619 l
0.6492 0.4616 l
0.6494 0.4613 l
0.6495 0.4610 l
0.6497 0.4607 l
0.6500 0.4604 l
0.6502 0.4601 l
0.6504 0.4597 l
0.6506 0.4594 l
0.6509 0.4590 l
0.6511 0.4586 l
0.6514 0.4582 l
0.6517 0.4578 l
0.6520 0.4573 l
0.6523 0.4569 l
0.6526 0.4564 l
0.6530 0.4559 l
0.6533 0.4554 l
0.6537 0.4549 l
0.6540 0.4543 l
0.6544 0.4537 l
0.6548 0.4532 l
0.6552 0.4526 l
0.6557 0.4519 l
0.6561 0.4513 l
0.6566 0.4507 l
0.6571 0.4500 l
0.6576 0.4493 l
0.6581 0.4486 l
0.6586 0.4479 l
0.6591 0.4471 l
0.6597 0.4463 l
0.6603 0.4456 l
0.6608 0.4448 l
0.6615 0.4439 l
0.6621 0.4431 l
0.6627 0.4422 l
0.6634 0.4413 l
0.6641 0.4404 l
0.6648 0.4395 l
0.6655 0.4386 l
0.6662 0.4376 l
0.6670 0.4366 l
0.6678 0.4356 l
0.6685 0.4346 l
0.6694 0.4336 l
0.6702 0.4325 l
0.6711 0.4314 l
0.6719 0.4303 l
0.6728 0.4292 l
0.6738 0.4280 l
0.6747 0.4269 l
0.6757 0.4257 l
0.6766 0.4245 l
0.6777 0.4232 l
0.6787 0.4220 l
0.6797 0.4207 l
0.6808 0.4194 l
0.6819 0.4181 l
0.6830 0.4168 l
0.6842 0.4154 l
0.6854 0.4141 l
0.6866 0.4127 l
0.6878 0.4112 l
0.6890 0.4098 l
0.6903 0.4084 l
0.6916 0.4069 l
0.6929 0.4054 l
0.6943 0.4039 l
0.6956 0.4023 l
0.6970 0.4007 l
0.6985 0.3992 l
0.6999 0.3976 l
0.7014 0.3959 l
0.7029 0.3943 l
0.7045 0.3926 l
0.7060 0.3909 l
0.7076 0.3892 l
0.7092 0.3875 l
0.7109 0.3857 l
0.7126 0.3839 l
0.7143 0.3821 l
0.7160 0.3803 l
0.7178 0.3785 l
0.7196 0.3766 l
0.7214 0.3747 l
0.7233 0.3728 l
0.7252 0.3709 l
0.7271 0.3689 l
0.7290 0.3670 l
0.7310 0.3650 l
0.7330 0.3629 l
0.7351 0.3609 l
0.7372 0.3588 l
0.7393 0.3567 l
0.7414 0.3546 l
0.7436 0.3525 l
0.7458 0.3503 l
0.7480 0.3481 l
0.7503 0.3459 l
0.7526 0.3437 l
0.7550 0.3415 l
0.7574 0.3392 l
0.7598 0.3369 l
0.7622 0.3346 l
0.7647 0.3322 l
0.7672 0.3299 l
0.7698 0.3275 l
0.7724 0.3250 l
0.7750 0.3226 l
0.7777 0.3201 l
0.7804 0.3176 l
0.7831 0.3151 l
0.7859 0.3126 l
0.7887 0.3100 l
0.7916 0.3074 l
0.7944 0.3048 l
0.7974 0.3022 l
0.8003 0.2995 l
0.8033 0.2968 l
0.8064 0.2941 l
0.8095 0.2913 l
0.8126 0.2885 l
0.8158 0.2857 l
0.8190 0.2829 l
0.8222 0.2800 l
0.8255 0.2772 l
0.8288 0.2743 l
0.8322 0.2713 l
0.8356 0.2683 l
0.8390 0.2654 l
0.8425 0.2623 l
0.8461 0.2593 l
0.8496 0.2562 l
0.8533 0.2531 l
0.8569 0.2499 l
0.8606 0.2468 l
0.8644 0.2436 l
0.8682 0.2403 l
0.8720 0.2371 l
0.8759 0.2338 l
0.8798 0.2305 l
0.8838 0.2271 l
0.8878 0.2237 l
0.8918 0.2203 l
0.8959 0.2169 l
0.9001 0.2134 l
0.9043 0.2099 l
0.9085 0.2064 l
0.9128 0.2028 l
0.9171 0.1992 l
0.9215 0.1956 l
0.9259 0.1919 l
0.9304 0.1882 l
0.9349 0.1844 l
0.9395 0.1807 l
0.9441 0.1769 l
0.9488 0.1730 l
0.9535 0.1691 l
0.9583 0.1652 l
0.9631 0.1613 l
0.9679 0.1573 l
0.9728 0.1533 l
0.9770 0.1499 l
s
[/DeviceRGB] SCS
Color2 SC
[0.0187 0.0112 ] 0 SD
0.0037 SLW
n
0.6471 0.4650 m
0.6471 0.4650 l
0.6471 0.4650 l
0.6471 0.4650 l
0.6471 0.4650 l
0.6471 0.4650 l
0.6471 0.4650 l
0.6471 0.4650 l
0.6471 0.4649 l
0.6471 0.4649 l
0.6471 0.4649 l
0.6471 0.4649 l
0.6472 0.4648 l
0.6472 0.4648 l
0.6472 0.4648 l
0.6472 0.4647 l
0.6473 0.4647 l
0.6473 0.4646 l
0.6473 0.4645 l
0.6474 0.4644 l
0.6474 0.4644 l
0.6475 0.4643 l
0.6476 0.4642 l
0.6476 0.4640 l
0.6477 0.4639 l
0.6478 0.4638 l
0.6479 0.4636 l
0.6480 0.4635 l
0.6481 0.4633 l
0.6482 0.4632 l
0.6483 0.4630 l
0.6484 0.4628 l
0.6486 0.4626 l
0.6487 0.4623 l
0.6489 0.4621 l
0.6490 0.4618 l
0.6492 0.4616 l
0.6494 0.4613 l
0.6495 0.4610 l
0.6497 0.4607 l
0.6500 0.4604 l
0.6502 0.4601 l
0.6504 0.4597 l
0.6506 0.4593 l
0.6509 0.4590 l
0.6511 0.4586 l
0.6514 0.4582 l
0.6517 0.4577 l
0.6520 0.4573 l
0.6523 0.4568 l
0.6526 0.4563 l
0.6530 0.4558 l
0.6533 0.4553 l
0.6537 0.4548 l
0.6540 0.4543 l
0.6544 0.4537 l
0.6548 0.4531 l
0.6552 0.4525 l
0.6557 0.4519 l
0.6561 0.4513 l
0.6566 0.4506 l
0.6571 0.4499 l
0.6576 0.4493 l
0.6581 0.4485 l
0.6586 0.4478 l
0.6591 0.4471 l
0.6597 0.4463 l
0.6603 0.4455 l
0.6608 0.4447 l
0.6615 0.4439 l
0.6621 0.4430 l
0.6627 0.4422 l
0.6634 0.4413 l
0.6641 0.4404 l
0.6648 0.4395 l
0.6655 0.4385 l
0.6662 0.4376 l
0.6670 0.4366 l
0.6678 0.4356 l
0.6685 0.4346 l
0.6694 0.4335 l
0.6702 0.4325 l
0.6711 0.4314 l
0.6719 0.4303 l
0.6728 0.4292 l
0.6738 0.4280 l
0.6747 0.4269 l
0.6757 0.4257 l
0.6766 0.4245 l
0.6777 0.4233 l
0.6787 0.4220 l
0.6797 0.4208 l
0.6808 0.4195 l
0.6819 0.4182 l
0.6830 0.4169 l
0.6842 0.4155 l
0.6854 0.4142 l
0.6866 0.4128 l
0.6878 0.4114 l
0.6890 0.4099 l
0.6903 0.4085 l
0.6916 0.4070 l
0.6929 0.4055 l
0.6943 0.4040 l
0.6956 0.4025 l
0.6970 0.4010 l
0.6985 0.3994 l
0.6999 0.3978 l
0.7014 0.3962 l
0.7029 0.3945 l
0.7045 0.3929 l
0.7060 0.3912 l
0.7076 0.3895 l
0.7092 0.3878 l
0.7109 0.3861 l
0.7126 0.3843 l
0.7143 0.3825 l
0.7160 0.3807 l
0.7178 0.3789 l
0.7196 0.3770 l
0.7214 0.3752 l
0.7233 0.3733 l
0.7252 0.3713 l
0.7271 0.3694 l
0.7290 0.3675 l
0.7310 0.3655 l
0.7330 0.3635 l
0.7351 0.3614 l
0.7372 0.3594 l
0.7393 0.3573 l
0.7414 0.3552 l
0.7436 0.3531 l
0.7458 0.3510 l
0.7480 0.3488 l
0.7503 0.3466 l
0.7526 0.3444 l
0.7550 0.3422 l
0.7574 0.3399 l
0.7598 0.3377 l
0.7622 0.3353 l
0.7647 0.3330 l
0.7672 0.3307 l
0.7698 0.3283 l
0.7724 0.3259 l
0.7750 0.3235 l
0.7777 0.3210 l
0.7804 0.3185 l
0.7831 0.3160 l
0.7859 0.3135 l
0.7887 0.3110 l
0.7916 0.3084 l
0.7944 0.3058 l
0.7974 0.3032 l
0.8003 0.3005 l
0.8033 0.2978 l
0.8064 0.2951 l
0.8095 0.2924 l
0.8126 0.2896 l
0.8158 0.2868 l
0.8190 0.2840 l
0.8222 0.2812 l
0.8255 0.2783 l
0.8288 0.2754 l
0.8322 0.2725 l
0.8356 0.2695 l
0.8390 0.2665 l
0.8425 0.2635 l
0.8461 0.2605 l
0.8496 0.2574 l
0.8533 0.2543 l
0.8569 0.2512 l
0.8606 0.2480 l
0.8644 0.2448 l
0.8682 0.2416 l
0.8720 0.2383 l
0.8759 0.2350 l
0.8798 0.2317 l
0.8838 0.2284 l
0.8878 0.2250 l
0.8918 0.2216 l
0.8959 0.2181 l
0.9001 0.2147 l
0.9043 0.2112 l
0.9085 0.2076 l
0.9128 0.2040 l
0.9171 0.2004 l
0.9215 0.1968 l
0.9259 0.1931 l
0.9304 0.1894 l
0.9349 0.1856 l
0.9395 0.1819 l
0.9441 0.1780 l
0.9488 0.1742 l
0.9535 0.1703 l
0.9583 0.1664 l
0.9631 0.1624 l
0.9679 0.1584 l
0.9728 0.1544 l
0.9778 0.1503 l
0.9783 0.1499 l
s
[/DeviceRGB] SCS
Color4 SC
[0.0037 0.0112 0.0262 0.0112 ] 0 SD
0.0037 SLW
n
0.6471 0.4650 m
0.6471 0.4650 l
0.6471 0.4650 l
0.6471 0.4650 l
0.6471 0.4650 l
0.6471 0.4650 l
0.6471 0.4650 l
0.6471 0.4650 l
0.6471 0.4650 l
0.6471 0.4650 l
0.6471 0.4649 l
0.6471 0.4649 l
0.6472 0.4649 l
0.6472 0.4649 l
0.6472 0.4648 l
0.6472 0.4648 l
0.6473 0.4648 l
0.6473 0.4647 l
0.6473 0.4647 l
0.6474 0.4646 l
0.6474 0.4646 l
0.6475 0.4645 l
0.6476 0.4645 l
0.6476 0.4644 l
0.6477 0.4643 l
0.6478 0.4642 l
0.6479 0.4641 l
0.6480 0.4640 l
0.6481 0.4639 l
0.6482 0.4638 l
0.6483 0.4637 l
0.6484 0.4635 l
0.6486 0.4634 l
0.6487 0.4632 l
0.6489 0.4631 l
0.6490 0.4629 l
0.6492 0.4627 l
0.6494 0.4626 l
0.6495 0.4624 l
0.6497 0.4622 l
0.6500 0.4620 l
0.6502 0.4617 l
0.6504 0.4615 l
0.6506 0.4612 l
0.6509 0.4610 l
0.6511 0.4607 l
0.6514 0.4604 l
0.6517 0.4602 l
0.6520 0.4599 l
0.6523 0.4595 l
0.6526 0.4592 l
0.6530 0.4589 l
0.6533 0.4585 l
0.6537 0.4582 l
0.6540 0.4578 l
0.6544 0.4574 l
0.6548 0.4570 l
0.6552 0.4566 l
0.6557 0.4562 l
0.6561 0.4558 l
0.6566 0.4553 l
0.6571 0.4548 l
0.6576 0.4544 l
0.6581 0.4539 l
0.6586 0.4534 l
0.6591 0.4529 l
0.6597 0.4523 l
0.6603 0.4518 l
0.6608 0.4512 l
0.6615 0.4507 l
0.6621 0.4501 l
0.6627 0.4495 l
0.6634 0.4488 l
0.6641 0.4482 l
0.6648 0.4476 l
0.6655 0.4469 l
0.6662 0.4462 l
0.6670 0.4455 l
0.6678 0.4448 l
0.6685 0.4441 l
0.6694 0.4434 l
0.6702 0.4426 l
0.6711 0.4418 l
0.6719 0.4411 l
0.6728 0.4403 l
0.6738 0.4394 l
0.6747 0.4386 l
0.6757 0.4378 l
0.6766 0.4369 l
0.6777 0.4360 l
0.6787 0.4351 l
0.6797 0.4342 l
0.6808 0.4333 l
0.6819 0.4324 l
0.6830 0.4314 l
0.6842 0.4304 l
0.6854 0.4294 l
0.6866 0.4284 l
0.6878 0.4274 l
0.6890 0.4264 l
0.6903 0.4253 l
0.6916 0.4242 l
0.6929 0.4232 l
0.6943 0.4220 l
0.6956 0.4209 l
0.6970 0.4198 l
0.6985 0.4186 l
0.6999 0.4175 l
0.7014 0.4163 l
0.7029 0.4151 l
0.7045 0.4139 l
0.7060 0.4126 l
0.7076 0.4114 l
0.7092 0.4101 l
0.7109 0.4088 l
0.7126 0.4075 l
0.7143 0.4062 l
0.7160 0.4049 l
0.7178 0.4035 l
0.7196 0.4021 l
0.7214 0.4008 l
0.7233 0.3994 l
0.7252 0.3979 l
0.7271 0.3965 l
0.7290 0.3950 l
0.7310 0.3936 l
0.7330 0.3921 l
0.7351 0.3906 l
0.7372 0.3891 l
0.7393 0.3875 l
0.7414 0.3860 l
0.7436 0.3844 l
0.7458 0.3828 l
0.7480 0.3812 l
0.7503 0.3796 l
0.7526 0.3780 l
0.7550 0.3763 l
0.7574 0.3746 l
0.7598 0.3729 l
0.7622 0.3712 l
0.7647 0.3695 l
0.7672 0.3678 l
0.7698 0.3660 l
0.7724 0.3642 l
0.7750 0.3624 l
0.7777 0.3606 l
0.7804 0.3588 l
0.7831 0.3569 l
0.7859 0.3551 l
0.7887 0.3532 l
0.7916 0.3513 l
0.7944 0.3494 l
0.7974 0.3474 l
0.8003 0.3455 l
0.8033 0.3435 l
0.8064 0.3415 l
0.8095 0.3395 l
0.8126 0.3375 l
0.8158 0.3354 l
0.8190 0.3334 l
0.8222 0.3313 l
0.8255 0.3292 l
0.8288 0.3271 l
0.8322 0.3250 l
0.8356 0.3228 l
0.8390 0.3206 l
0.8425 0.3184 l
0.8461 0.3162 l
0.8496 0.3140 l
0.8533 0.3118 l
0.8569 0.3095 l
0.8606 0.3072 l
0.8644 0.3049 l
0.8682 0.3026 l
0.8720 0.3002 l
0.8759 0.2979 l
0.8798 0.2955 l
0.8838 0.2931 l
0.8878 0.2907 l
0.8918 0.2882 l
0.8959 0.2858 l
0.9001 0.2833 l
0.9043 0.2808 l
0.9085 0.2783 l
0.9128 0.2757 l
0.9171 0.2732 l
0.9215 0.2706 l
0.9259 0.2680 l
0.9304 0.2654 l
0.9349 0.2627 l
0.9395 0.2601 l
0.9441 0.2574 l
0.9488 0.2547 l
0.9535 0.2519 l
0.9583 0.2492 l
0.9631 0.2464 l
0.9679 0.2436 l
0.9728 0.2408 l
0.9778 0.2380 l
0.9828 0.2351 l
0.9879 0.2323 l
0.9930 0.2294 l
0.9981 0.2264 l
1.0034 0.2235 l
1.0086 0.2205 l
1.0139 0.2175 l
1.0193 0.2145 l
1.0247 0.2115 l
1.0302 0.2084 l
1.0357 0.2053 l
1.0413 0.2022 l
1.0469 0.1991 l
1.0526 0.1960 l
1.0584 0.1928 l
1.0642 0.1896 l
1.0700 0.1864 l
1.0759 0.1831 l
1.0819 0.1798 l
1.0879 0.1765 l
1.0939 0.1732 l
1.1001 0.1699 l
1.1062 0.1665 l
1.1125 0.1631 l
1.1188 0.1597 l
1.1251 0.1562 l
1.1315 0.1528 l
1.1368 0.1499 l
s
[/DeviceRGB] SCS
Color1 SC
[] 0 SD
0.0045 SLW
n
0.6471 0.1500 m
1.1441 0.1500 l
s
n
0.7092 0.1500 m
0.7092 0.1600 l
s
n
0.8335 0.1500 m
0.8335 0.1600 l
s
n
0.9577 0.1500 m
0.9577 0.1600 l
s
n
1.0820 0.1500 m
1.0820 0.1600 l
s
n
0.6471 0.1500 m
0.6471 0.1700 l
s
n
0.7713 0.1500 m
0.7713 0.1700 l
s
n
0.8956 0.1500 m
0.8956 0.1700 l
s
n
1.0199 0.1500 m
1.0199 0.1700 l
s
n
1.1441 0.1500 m
1.1441 0.1700 l
s
/Font0 FFSF
0.6365 0.1094 m
GS
[0.0448 0.0000 0.0000 0.0448 0 0] CC
(0) show
GR
/Font0 FFSF
0.7439 0.1094 m
GS
[0.0448 0.0000 0.0000 0.0448 0 0] CC
(0.2) show
GR
/Font0 FFSF
0.8681 0.1094 m
GS
[0.0448 0.0000 0.0000 0.0448 0 0] CC
(0.4) show
GR
/Font0 FFSF
0.9926 0.1094 m
GS
[0.0448 0.0000 0.0000 0.0448 0 0] CC
(0.6) show
GR
/Font0 FFSF
1.1173 0.1094 m
GS
[0.0448 0.0000 0.0000 0.0448 0 0] CC
(0.8) show
GR
n
0.6471 0.1500 m
0.6471 0.5000 l
s
n
1.1441 0.1500 m
1.1441 0.5000 l
s
n
0.6471 0.1500 m
0.6571 0.1500 l
s
n
1.1441 0.1500 m
1.1341 0.1500 l
s
n
0.6471 0.2200 m
0.6571 0.2200 l
s
n
1.1441 0.2200 m
1.1341 0.2200 l
s
n
0.6471 0.2900 m
0.6571 0.2900 l
s
n
1.1441 0.2900 m
1.1341 0.2900 l
s
n
0.6471 0.3600 m
0.6571 0.3600 l
s
n
1.1441 0.3600 m
1.1341 0.3600 l
s
n
0.6471 0.4300 m
0.6571 0.4300 l
s
n
1.1441 0.4300 m
1.1341 0.4300 l
s
n
0.6471 0.5000 m
0.6571 0.5000 l
s
n
1.1441 0.5000 m
1.1341 0.5000 l
s
n
0.6471 0.1850 m
0.6671 0.1850 l
s
n
1.1441 0.1850 m
1.1241 0.1850 l
s
n
0.6471 0.2550 m
0.6671 0.2550 l
s
n
1.1441 0.2550 m
1.1241 0.2550 l
s
n
0.6471 0.3250 m
0.6671 0.3250 l
s
n
1.1441 0.3250 m
1.1241 0.3250 l
s
n
0.6471 0.3950 m
0.6671 0.3950 l
s
n
1.1441 0.3950 m
1.1241 0.3950 l
s
n
0.6471 0.4650 m
0.6671 0.4650 l
s
n
1.1441 0.4650 m
1.1241 0.4650 l
s
/Font0 FFSF
1.1541 0.1701 m
GS
[0.0448 0.0000 0.0000 0.0448 0 0] CC
(-40) show
GR
/Font0 FFSF
1.1541 0.2401 m
GS
[0.0448 0.0000 0.0000 0.0448 0 0] CC
(-30) show
GR
/Font0 FFSF
1.1541 0.3101 m
GS
[0.0448 0.0000 0.0000 0.0448 0 0] CC
(-20) show
GR
/Font0 FFSF
1.1541 0.3801 m
GS
[0.0448 0.0000 0.0000 0.0448 0 0] CC
(-10) show
GR
/Font0 FFSF
1.1541 0.4501 m
GS
[0.0448 0.0000 0.0000 0.0448 0 0] CC
(0) show
GR
/Font0 FFSF
1.2539 0.2295 m
GS
[0.0000 0.0459 -0.0459 0.0000 0 0] CC
(\(S=0,T=1\)) show
GR
[] 0 SD
0.0015 SLW
n
0.6471 0.1500 m
0.6471 0.5000 l
1.1441 0.5000 l
1.1441 0.1500 l
0.6471 0.1500 l
c
s
showpage
%%PageTrailer
%%Trailer
%%DocumentNeededResources: font Times-Roman
%%+ font Symbol
%%EOF
