%!PS-Adobe-3.0
%%BoundingBox: 0 0 612 792
%%LanguageLevel: 2
%%Creator: Grace-5.1.25
%%CreationDate: Mon Nov 30 12:31:29 2015
%%DocumentData: Clean8Bit
%%Orientation: Landscape
%%Pages: 1
%%PageOrder: Ascend
%%Title: EsurA.agr
%%For: ap1450
%%DocumentNeededResources: (atend)
%%EndComments
%%BeginProlog
/PAGE_OFFSET_X 0 def
/PAGE_OFFSET_Y 0 def
/m {moveto} def
/l {lineto} def
/s {stroke} def
/n {newpath} def
/c {closepath} def
/RL {rlineto} def
/SLW {setlinewidth} def
/GS {gsave} def
/GR {grestore} def
/SC {setcolor} def
/SGRY {setgray} def
/SRGB {setrgbcolor} def
/SD {setdash} def
/SLC {setlinecap} def
/SLJ {setlinejoin} def
/SCS {setcolorspace} def
/FFSF {findfont setfont} def
/CC {concat} def
/PXL {n m 0 0 RL s} def
/Color0 {1.0000 1.0000 1.0000} def
/Color1 {0.0000 0.0000 0.0000} def
/Color2 {1.0000 0.0000 0.0000} def
/Color3 {0.0000 1.0000 0.0000} def
/Color4 {0.0000 0.0000 1.0000} def
/Color5 {1.0000 1.0000 0.0000} def
/Color6 {0.7373 0.5608 0.5608} def
/Color7 {0.8627 0.8627 0.8627} def
/Color8 {0.5804 0.0000 0.8275} def
/Color9 {0.0000 1.0000 1.0000} def
/Color10 {1.0000 0.0000 1.0000} def
/Color11 {1.0000 0.6471 0.0000} def
/Color12 {0.4471 0.1294 0.7373} def
/Color13 {0.4039 0.0275 0.2824} def
/Color14 {0.2510 0.8784 0.8157} def
/Color15 {0.0000 0.5451 0.0000} def
/Color16 {0.7529 0.7529 0.7529} def
/Color17 {0.5059 0.5059 0.5059} def
/Color18 {0.2588 0.2588 0.2588} def
/PTRN {
 /pat_bits exch def 
 <<
  /PaintType 2
  /PatternType 1 /TilingType 1
  /BBox[0 0 16 16]
  /XStep 16 /YStep 16
  /PaintProc {
   pop
   16 16 true [-1 0 0 -1 16 16] pat_bits imagemask
  }
 >>
 [0.0016 0 0 0.0016 0 0]
 makepattern
} def
/Pattern0 {<0000000000000000000000000000000000000000000000000000000000000000> PTRN} bind def
/Pattern1 {<ffffffffffffffffffffffffffffffffffffffffffffffffffffffffffffffff> PTRN} bind def
/Pattern2 {<eeeeffffbbbbffffeeeeffffbbbbffffeeeeffffbbbbffffeeeeffffbbbbffff> PTRN} bind def
/Pattern3 {<eeeebbbbeeeebbbbeeeebbbbeeeebbbbeeeebbbbeeeebbbbeeeebbbbeeeebbbb> PTRN} bind def
/Pattern4 {<5555aaaa5555aaaa5555aaaa5555aaaa5555aaaa5555aaaa5555aaaa5555aaaa> PTRN} bind def
/Pattern5 {<1111444411114444111144441111444411114444111144441111444411114444> PTRN} bind def
/Pattern6 {<1111000044440000111100004444000011110000444400001111000044440000> PTRN} bind def
/Pattern7 {<1010000000000000010100000000000010100000000000000101000000000000> PTRN} bind def
/Pattern8 {<0000000000000000000000000000000000000000000000000000000000000000> PTRN} bind def
/Pattern9 {<1e1e0f0f8787c3c3e1e1f0f078783c3c1e1e0f0f8787c3c3e1e1f0f078783c3c> PTRN} bind def
/Pattern10 {<7878f0f0e1e1c3c387870f0f1e1e3c3c7878f0f0e1e1c3c387870f0f1e1e3c3c> PTRN} bind def
/Pattern11 {<3333333333333333333333333333333333333333333333333333333333333333> PTRN} bind def
/Pattern12 {<ffffffff00000000ffffffff00000000ffffffff00000000ffffffff00000000> PTRN} bind def
/Pattern13 {<8181424224241818181824244242818181814242242418181818242442428181> PTRN} bind def
/Pattern14 {<8080404020201010080804040202010180804040202010100808040402020101> PTRN} bind def
/Pattern15 {<0101020204040808101020204040808001010202040408081010202040408080> PTRN} bind def
/Pattern16 {<2222222222222222222222222222222222222222222222222222222222222222> PTRN} bind def
/Pattern17 {<0000ffff000000000000ffff000000000000ffff000000000000ffff00000000> PTRN} bind def
/Pattern18 {<2222ffff222222222222ffff222222222222ffff222222222222ffff22222222> PTRN} bind def
/Pattern19 {<ffffffff33333333ffffffff33333333ffffffff33333333ffffffff33333333> PTRN} bind def
/Pattern20 {<0f0f0f0f0f0f0f0ff0f0f0f0f0f0f0f00f0f0f0f0f0f0f0ff0f0f0f0f0f0f0f0> PTRN} bind def
/Pattern21 {<ff00ff00ff00ff00ff00ff00ff00ff0000ff00ff00ff00ff00ff00ff00ff00ff> PTRN} bind def
/Pattern22 {<8001800180018001800180018001ffffffff8001800180018001800180018001> PTRN} bind def
/Pattern23 {<c003c003c003c003c003c003ffffffffffffffffc003c003c003c003c003c003> PTRN} bind def
/Pattern24 {<040404040404ffff404040404040ffff040404040404ffff404040404040ffff> PTRN} bind def
/Pattern25 {<180018001800180018001800ffffffff001800180018001800180018ffffffff> PTRN} bind def
/Pattern26 {<1111b8b87c7c3a3a1111a3a3c7c78b8b1111b8b87c7c3a3a1111a3a3c7c78b8b> PTRN} bind def
/Pattern27 {<101010102828c7c70101010182827c7c101010102828c7c70101010182827c7c> PTRN} bind def
/Pattern28 {<1c1c121211112121c1c12121111112121c1c121211112121c1c1212111111212> PTRN} bind def
/Pattern29 {<3e3e414180808080e3e31414080808083e3e414180808080e3e3141408080808> PTRN} bind def
/Pattern30 {<4848888884848383848488884848383848488888848483838484888848483838> PTRN} bind def
/Pattern31 {<03030404080808080c0c12122121c0c003030404080808080c0c12122121c0c0> PTRN} bind def
/ellipsedict 8 dict def
ellipsedict /mtrx matrix put
/EARC {
 ellipsedict begin
  /endangle exch def
  /startangle exch def
  /yrad exch def
  /xrad exch def
  /y exch def
  /x exch def
  /savematrix mtrx currentmatrix def
  x y translate
  xrad yrad scale
  0 0 1 startangle endangle arc
  savematrix setmatrix
 end
} def
/TL {
  /kcomp exch def
  /linewidth exch def
  /offset exch def
  GS
  0 offset rmoveto
  linewidth SLW
  dup stringwidth exch kcomp add exch RL s
  GR
} def
/KINIT
{
 /kvector exch def
 /kid 0 def
} def
/KPROC
{
 pop pop
 kvector kid get
 0 rmoveto
 /kid 1 kid add def
} def
/DefEncoding [
 /.notdef
 /.notdef
 /.notdef
 /.notdef
 /.notdef
 /.notdef
 /.notdef
 /.notdef
 /.notdef
 /.notdef
 /.notdef
 /.notdef
 /.notdef
 /.notdef
 /.notdef
 /.notdef
 /.notdef
 /.notdef
 /.notdef
 /.notdef
 /.notdef
 /.notdef
 /.notdef
 /.notdef
 /.notdef
 /.notdef
 /.notdef
 /.notdef
 /.notdef
 /.notdef
 /.notdef
 /.notdef
 /space
 /exclam
 /quotedbl
 /numbersign
 /dollar
 /percent
 /ampersand
 /quoteright
 /parenleft
 /parenright
 /asterisk
 /plus
 /comma
 /hyphen
 /period
 /slash
 /zero
 /one
 /two
 /three
 /four
 /five
 /six
 /seven
 /eight
 /nine
 /colon
 /semicolon
 /less
 /equal
 /greater
 /question
 /at
 /A
 /B
 /C
 /D
 /E
 /F
 /G
 /H
 /I
 /J
 /K
 /L
 /M
 /N
 /O
 /P
 /Q
 /R
 /S
 /T
 /U
 /V
 /W
 /X
 /Y
 /Z
 /bracketleft
 /backslash
 /bracketright
 /asciicircum
 /underscore
 /grave
 /a
 /b
 /c
 /d
 /e
 /f
 /g
 /h
 /i
 /j
 /k
 /l
 /m
 /n
 /o
 /p
 /q
 /r
 /s
 /t
 /u
 /v
 /w
 /x
 /y
 /z
 /braceleft
 /bar
 /braceright
 /asciitilde
 /.notdef
 /.notdef
 /.notdef
 /.notdef
 /.notdef
 /.notdef
 /.notdef
 /.notdef
 /.notdef
 /.notdef
 /.notdef
 /.notdef
 /.notdef
 /.notdef
 /.notdef
 /.notdef
 /.notdef
 /.notdef
 /.notdef
 /.notdef
 /.notdef
 /.notdef
 /.notdef
 /.notdef
 /.notdef
 /.notdef
 /.notdef
 /.notdef
 /.notdef
 /.notdef
 /.notdef
 /.notdef
 /.notdef
 /space
 /exclamdown
 /cent
 /sterling
 /currency
 /yen
 /brokenbar
 /section
 /dieresis
 /copyright
 /ordfeminine
 /guillemotleft
 /logicalnot
 /hyphen
 /registered
 /macron
 /degree
 /plusminus
 /twosuperior
 /threesuperior
 /acute
 /mu
 /paragraph
 /periodcentered
 /cedilla
 /onesuperior
 /ordmasculine
 /guillemotright
 /onequarter
 /onehalf
 /threequarters
 /questiondown
 /Agrave
 /Aacute
 /Acircumflex
 /Atilde
 /Adieresis
 /Aring
 /AE
 /Ccedilla
 /Egrave
 /Eacute
 /Ecircumflex
 /Edieresis
 /Igrave
 /Iacute
 /Icircumflex
 /Idieresis
 /Eth
 /Ntilde
 /Ograve
 /Oacute
 /Ocircumflex
 /Otilde
 /Odieresis
 /multiply
 /Oslash
 /Ugrave
 /Uacute
 /Ucircumflex
 /Udieresis
 /Yacute
 /Thorn
 /germandbls
 /agrave
 /aacute
 /acircumflex
 /atilde
 /adieresis
 /aring
 /ae
 /ccedilla
 /egrave
 /eacute
 /ecircumflex
 /edieresis
 /igrave
 /iacute
 /icircumflex
 /idieresis
 /eth
 /ntilde
 /ograve
 /oacute
 /ocircumflex
 /otilde
 /odieresis
 /divide
 /oslash
 /ugrave
 /uacute
 /ucircumflex
 /udieresis
 /yacute
 /thorn
 /ydieresis
] def
%%EndProlog
%%BeginSetup
%%EndSetup
%%Page: 1 1
PAGE_OFFSET_X PAGE_OFFSET_Y translate
612.00 612.00 scale
90 rotate
0.0 -1.0 translate
n
0.2748 0.2012 m
0.2748 0.2182 l
0.2918 0.2182 l
0.2918 0.2012 l
c
GS
[/DeviceRGB] SCS
Color0 SRGB
fill
GR
[/Pattern /DeviceRGB] SCS
Color1 Pattern8 SC
fill
[/DeviceRGB] SCS
Color1 SC
[] 0 SD
0.0030 SLW
0 SLC
0 SLJ
n
0.2748 0.2012 m
0.2748 0.2182 l
0.2918 0.2182 l
0.2918 0.2012 l
0.2748 0.2012 l
c
s
n
0.4082 0.1673 m
0.4082 0.1843 l
0.4252 0.1843 l
0.4252 0.1673 l
c
GS
Color0 SRGB
fill
GR
[/Pattern /DeviceRGB] SCS
Color1 Pattern8 SC
fill
[/DeviceRGB] SCS
Color1 SC
n
0.4082 0.1673 m
0.4082 0.1843 l
0.4252 0.1843 l
0.4252 0.1673 l
0.4082 0.1673 l
c
s
n
0.4748 0.1678 m
0.4748 0.1848 l
0.4918 0.1848 l
0.4918 0.1678 l
c
GS
Color0 SRGB
fill
GR
[/Pattern /DeviceRGB] SCS
Color1 Pattern8 SC
fill
[/DeviceRGB] SCS
Color1 SC
n
0.4748 0.1678 m
0.4748 0.1848 l
0.4918 0.1848 l
0.4918 0.1678 l
0.4748 0.1678 l
c
s
n
0.6415 0.2060 m
0.6415 0.2230 l
0.6585 0.2230 l
0.6585 0.2060 l
c
GS
Color0 SRGB
fill
GR
[/Pattern /DeviceRGB] SCS
Color1 Pattern8 SC
fill
[/DeviceRGB] SCS
Color1 SC
n
0.6415 0.2060 m
0.6415 0.2230 l
0.6585 0.2230 l
0.6585 0.2060 l
0.6415 0.2060 l
c
s
n
0.8082 0.2870 m
0.8082 0.3040 l
0.8252 0.3040 l
0.8252 0.2870 l
c
GS
Color0 SRGB
fill
GR
[/Pattern /DeviceRGB] SCS
Color1 Pattern8 SC
fill
[/DeviceRGB] SCS
Color1 SC
n
0.8082 0.2870 m
0.8082 0.3040 l
0.8252 0.3040 l
0.8252 0.2870 l
0.8082 0.2870 l
c
s
n
0.9748 0.4042 m
0.9748 0.4212 l
0.9918 0.4212 l
0.9918 0.4042 l
c
GS
Color0 SRGB
fill
GR
[/Pattern /DeviceRGB] SCS
Color1 Pattern8 SC
fill
[/DeviceRGB] SCS
Color1 SC
n
0.9748 0.4042 m
0.9748 0.4212 l
0.9918 0.4212 l
0.9918 0.4042 l
0.9748 0.4042 l
c
s
[] 0 SD
0.0037 SLW
n
0.1500 0.2900 m
0.1500 0.2900 l
0.1500 0.2901 l
0.1500 0.2901 l
0.1500 0.2902 l
0.1500 0.2902 l
0.1500 0.2903 l
0.1501 0.2904 l
0.1501 0.2905 l
0.1501 0.2906 l
0.1501 0.2906 l
0.1502 0.2907 l
0.1502 0.2908 l
0.1503 0.2908 l
0.1504 0.2909 l
0.1505 0.2910 l
0.1506 0.2910 l
0.1507 0.2910 l
0.1508 0.2911 l
0.1509 0.2911 l
0.1510 0.2910 l
0.1512 0.2910 l
0.1514 0.2910 l
0.1516 0.2909 l
0.1518 0.2908 l
0.1520 0.2907 l
0.1522 0.2906 l
0.1525 0.2905 l
0.1527 0.2903 l
0.1530 0.2901 l
0.1534 0.2899 l
0.1537 0.2896 l
0.1540 0.2894 l
0.1544 0.2891 l
0.1548 0.2887 l
0.1553 0.2884 l
0.1557 0.2880 l
0.1562 0.2876 l
0.1567 0.2872 l
0.1572 0.2867 l
0.1578 0.2862 l
0.1583 0.2857 l
0.1590 0.2851 l
0.1596 0.2845 l
0.1603 0.2839 l
0.1610 0.2832 l
0.1617 0.2826 l
0.1625 0.2818 l
0.1632 0.2811 l
0.1641 0.2803 l
0.1649 0.2795 l
0.1658 0.2787 l
0.1668 0.2778 l
0.1677 0.2769 l
0.1687 0.2760 l
0.1698 0.2750 l
0.1708 0.2740 l
0.1720 0.2730 l
0.1731 0.2719 l
0.1743 0.2708 l
0.1756 0.2697 l
0.1768 0.2686 l
0.1782 0.2674 l
0.1795 0.2662 l
0.1809 0.2650 l
0.1824 0.2637 l
0.1839 0.2624 l
0.1854 0.2611 l
0.1870 0.2598 l
0.1886 0.2584 l
0.1903 0.2570 l
0.1920 0.2556 l
0.1938 0.2542 l
0.1956 0.2528 l
0.1975 0.2513 l
0.1994 0.2498 l
0.2014 0.2483 l
0.2034 0.2468 l
0.2055 0.2453 l
0.2076 0.2437 l
0.2098 0.2421 l
0.2121 0.2406 l
0.2144 0.2390 l
0.2167 0.2374 l
0.2191 0.2357 l
0.2216 0.2341 l
0.2241 0.2325 l
0.2267 0.2309 l
0.2294 0.2292 l
0.2321 0.2276 l
0.2348 0.2259 l
0.2377 0.2243 l
0.2406 0.2226 l
0.2435 0.2210 l
0.2465 0.2193 l
0.2496 0.2177 l
0.2527 0.2161 l
0.2560 0.2144 l
0.2592 0.2128 l
0.2626 0.2112 l
0.2660 0.2096 l
0.2695 0.2081 l
0.2730 0.2065 l
0.2766 0.2050 l
0.2803 0.2035 l
0.2841 0.2020 l
0.2879 0.2005 l
0.2918 0.1990 l
0.2958 0.1976 l
0.2998 0.1962 l
0.3040 0.1949 l
0.3082 0.1935 l
0.3124 0.1922 l
0.3168 0.1910 l
0.3212 0.1898 l
0.3257 0.1886 l
0.3303 0.1875 l
0.3350 0.1864 l
0.3397 0.1854 l
0.3445 0.1844 l
0.3494 0.1834 l
0.3544 0.1826 l
0.3595 0.1817 l
0.3646 0.1810 l
0.3699 0.1803 l
0.3752 0.1796 l
0.3806 0.1791 l
0.3861 0.1786 l
0.3917 0.1781 l
0.3973 0.1778 l
0.4031 0.1775 l
0.4089 0.1773 l
0.4149 0.1771 l
0.4209 0.1771 l
0.4270 0.1771 l
0.4332 0.1773 l
0.4395 0.1775 l
0.4459 0.1778 l
0.4523 0.1782 l
0.4589 0.1787 l
0.4656 0.1794 l
0.4723 0.1801 l
0.4792 0.1809 l
0.4862 0.1818 l
0.4932 0.1829 l
0.5004 0.1841 l
0.5076 0.1853 l
0.5150 0.1867 l
0.5224 0.1883 l
0.5300 0.1899 l
0.5376 0.1917 l
0.5454 0.1936 l
0.5532 0.1957 l
0.5612 0.1979 l
0.5692 0.2002 l
0.5774 0.2027 l
0.5857 0.2053 l
0.5940 0.2081 l
0.6025 0.2111 l
0.6111 0.2142 l
0.6198 0.2174 l
0.6286 0.2209 l
0.6376 0.2244 l
0.6466 0.2282 l
0.6557 0.2321 l
0.6650 0.2362 l
0.6743 0.2405 l
0.6838 0.2450 l
0.6934 0.2497 l
0.7031 0.2545 l
0.7129 0.2596 l
0.7229 0.2648 l
0.7329 0.2703 l
0.7431 0.2759 l
0.7534 0.2818 l
0.7638 0.2879 l
0.7743 0.2942 l
0.7849 0.3007 l
0.7957 0.3074 l
0.8066 0.3144 l
0.8176 0.3215 l
0.8287 0.3290 l
0.8399 0.3366 l
0.8513 0.3445 l
0.8628 0.3526 l
0.8744 0.3610 l
0.8862 0.3697 l
0.8981 0.3786 l
0.9101 0.3877 l
0.9222 0.3971 l
0.9344 0.4068 l
0.9468 0.4168 l
0.9593 0.4270 l
0.9720 0.4375 l
0.9848 0.4483 l
0.9977 0.4594 l
1.0107 0.4708 l
1.0239 0.4824 l
1.0372 0.4944 l
1.0506 0.5067 l
1.0642 0.5192 l
1.0779 0.5321 l
1.0918 0.5453 l
1.1058 0.5588 l
1.1199 0.5727 l
1.1341 0.5868 l
1.1485 0.6013 l
1.1501 0.6029 l
s
[/DeviceRGB] SCS
Color2 SC
[0.0187 0.0112 ] 0 SD
0.0037 SLW
n
0.1500 0.2900 m
0.1500 0.2900 l
0.1500 0.2901 l
0.1500 0.2901 l
0.1500 0.2902 l
0.1500 0.2902 l
0.1500 0.2903 l
0.1501 0.2904 l
0.1501 0.2905 l
0.1501 0.2906 l
0.1501 0.2906 l
0.1502 0.2907 l
0.1502 0.2908 l
0.1503 0.2909 l
0.1504 0.2909 l
0.1505 0.2910 l
0.1506 0.2911 l
0.1507 0.2911 l
0.1508 0.2911 l
0.1509 0.2911 l
0.1510 0.2911 l
0.1512 0.2911 l
0.1514 0.2911 l
0.1516 0.2910 l
0.1518 0.2910 l
0.1520 0.2909 l
0.1522 0.2908 l
0.1525 0.2907 l
0.1527 0.2905 l
0.1530 0.2903 l
0.1534 0.2901 l
0.1537 0.2899 l
0.1540 0.2897 l
0.1544 0.2894 l
0.1548 0.2891 l
0.1553 0.2888 l
0.1557 0.2884 l
0.1562 0.2880 l
0.1567 0.2876 l
0.1572 0.2872 l
0.1578 0.2867 l
0.1583 0.2862 l
0.1590 0.2857 l
0.1596 0.2851 l
0.1603 0.2845 l
0.1610 0.2839 l
0.1617 0.2832 l
0.1625 0.2825 l
0.1632 0.2818 l
0.1641 0.2811 l
0.1649 0.2803 l
0.1658 0.2795 l
0.1668 0.2786 l
0.1677 0.2777 l
0.1687 0.2768 l
0.1698 0.2759 l
0.1708 0.2749 l
0.1720 0.2739 l
0.1731 0.2729 l
0.1743 0.2718 l
0.1756 0.2707 l
0.1768 0.2696 l
0.1782 0.2684 l
0.1795 0.2672 l
0.1809 0.2660 l
0.1824 0.2648 l
0.1839 0.2635 l
0.1854 0.2622 l
0.1870 0.2608 l
0.1886 0.2595 l
0.1903 0.2581 l
0.1920 0.2567 l
0.1938 0.2553 l
0.1956 0.2538 l
0.1975 0.2523 l
0.1994 0.2509 l
0.2014 0.2493 l
0.2034 0.2478 l
0.2055 0.2462 l
0.2076 0.2447 l
0.2098 0.2431 l
0.2121 0.2415 l
0.2144 0.2398 l
0.2167 0.2382 l
0.2191 0.2365 l
0.2216 0.2349 l
0.2241 0.2332 l
0.2267 0.2315 l
0.2294 0.2298 l
0.2321 0.2281 l
0.2348 0.2264 l
0.2377 0.2247 l
0.2406 0.2230 l
0.2435 0.2213 l
0.2465 0.2196 l
0.2496 0.2179 l
0.2527 0.2162 l
0.2560 0.2145 l
0.2592 0.2128 l
0.2626 0.2111 l
0.2660 0.2094 l
0.2695 0.2078 l
0.2730 0.2061 l
0.2766 0.2045 l
0.2803 0.2029 l
0.2841 0.2013 l
0.2879 0.1998 l
0.2918 0.1982 l
0.2958 0.1967 l
0.2998 0.1952 l
0.3040 0.1938 l
0.3082 0.1924 l
0.3124 0.1910 l
0.3168 0.1896 l
0.3212 0.1883 l
0.3257 0.1871 l
0.3303 0.1858 l
0.3350 0.1847 l
0.3397 0.1835 l
0.3445 0.1825 l
0.3494 0.1815 l
0.3544 0.1805 l
0.3595 0.1796 l
0.3646 0.1788 l
0.3699 0.1780 l
0.3752 0.1773 l
0.3806 0.1767 l
0.3861 0.1761 l
0.3917 0.1757 l
0.3973 0.1753 l
0.4031 0.1750 l
0.4089 0.1747 l
0.4149 0.1746 l
0.4209 0.1746 l
0.4270 0.1746 l
0.4332 0.1748 l
0.4395 0.1750 l
0.4459 0.1754 l
0.4523 0.1759 l
0.4589 0.1764 l
0.4656 0.1771 l
0.4723 0.1780 l
0.4792 0.1789 l
0.4862 0.1800 l
0.4932 0.1812 l
0.5004 0.1825 l
0.5076 0.1840 l
0.5150 0.1856 l
0.5224 0.1874 l
0.5300 0.1893 l
0.5376 0.1913 l
0.5454 0.1936 l
0.5532 0.1959 l
0.5612 0.1985 l
0.5692 0.2012 l
0.5774 0.2041 l
0.5857 0.2072 l
0.5940 0.2104 l
0.6025 0.2139 l
0.6111 0.2175 l
0.6198 0.2213 l
0.6286 0.2254 l
0.6376 0.2296 l
0.6466 0.2340 l
0.6557 0.2387 l
0.6650 0.2436 l
0.6743 0.2487 l
0.6838 0.2540 l
0.6934 0.2596 l
0.7031 0.2654 l
0.7129 0.2714 l
0.7229 0.2777 l
0.7329 0.2842 l
0.7431 0.2910 l
0.7534 0.2981 l
0.7638 0.3054 l
0.7743 0.3131 l
0.7849 0.3209 l
0.7957 0.3291 l
0.8066 0.3376 l
0.8176 0.3463 l
0.8287 0.3554 l
0.8399 0.3647 l
0.8513 0.3744 l
0.8628 0.3844 l
0.8744 0.3947 l
0.8862 0.4054 l
0.8981 0.4163 l
0.9101 0.4277 l
0.9222 0.4393 l
0.9344 0.4514 l
0.9468 0.4637 l
0.9593 0.4765 l
0.9720 0.4896 l
0.9848 0.5031 l
0.9977 0.5170 l
1.0107 0.5313 l
1.0239 0.5459 l
1.0372 0.5610 l
1.0506 0.5765 l
1.0642 0.5924 l
1.0779 0.6087 l
1.0918 0.6255 l
1.1058 0.6427 l
1.1199 0.6603 l
1.1341 0.6784 l
1.1485 0.6969 l
1.1501 0.6990 l
s
[/DeviceRGB] SCS
Color4 SC
[0.0037 0.0112 ] 0 SD
0.0037 SLW
n
0.1500 0.2900 m
0.1500 0.2900 l
0.1500 0.2901 l
0.1500 0.2901 l
0.1500 0.2902 l
0.1500 0.2902 l
0.1500 0.2903 l
0.1501 0.2904 l
0.1501 0.2905 l
0.1501 0.2906 l
0.1501 0.2906 l
0.1502 0.2907 l
0.1502 0.2908 l
0.1503 0.2909 l
0.1504 0.2909 l
0.1505 0.2910 l
0.1506 0.2911 l
0.1507 0.2911 l
0.1508 0.2911 l
0.1509 0.2911 l
0.1510 0.2911 l
0.1512 0.2911 l
0.1514 0.2911 l
0.1516 0.2910 l
0.1518 0.2910 l
0.1520 0.2909 l
0.1522 0.2908 l
0.1525 0.2907 l
0.1527 0.2905 l
0.1530 0.2903 l
0.1534 0.2901 l
0.1537 0.2899 l
0.1540 0.2897 l
0.1544 0.2894 l
0.1548 0.2891 l
0.1553 0.2888 l
0.1557 0.2884 l
0.1562 0.2880 l
0.1567 0.2876 l
0.1572 0.2872 l
0.1578 0.2867 l
0.1583 0.2862 l
0.1590 0.2857 l
0.1596 0.2851 l
0.1603 0.2845 l
0.1610 0.2839 l
0.1617 0.2833 l
0.1625 0.2826 l
0.1632 0.2819 l
0.1641 0.2811 l
0.1649 0.2804 l
0.1658 0.2795 l
0.1668 0.2787 l
0.1677 0.2778 l
0.1687 0.2769 l
0.1698 0.2760 l
0.1708 0.2750 l
0.1720 0.2740 l
0.1731 0.2730 l
0.1743 0.2720 l
0.1756 0.2709 l
0.1768 0.2698 l
0.1782 0.2686 l
0.1795 0.2674 l
0.1809 0.2662 l
0.1824 0.2650 l
0.1839 0.2638 l
0.1854 0.2625 l
0.1870 0.2612 l
0.1886 0.2598 l
0.1903 0.2585 l
0.1920 0.2571 l
0.1938 0.2557 l
0.1956 0.2543 l
0.1975 0.2528 l
0.1994 0.2513 l
0.2014 0.2499 l
0.2034 0.2483 l
0.2055 0.2468 l
0.2076 0.2453 l
0.2098 0.2437 l
0.2121 0.2421 l
0.2144 0.2405 l
0.2167 0.2389 l
0.2191 0.2373 l
0.2216 0.2357 l
0.2241 0.2341 l
0.2267 0.2324 l
0.2294 0.2308 l
0.2321 0.2291 l
0.2348 0.2274 l
0.2377 0.2258 l
0.2406 0.2241 l
0.2435 0.2224 l
0.2465 0.2208 l
0.2496 0.2191 l
0.2527 0.2175 l
0.2560 0.2158 l
0.2592 0.2142 l
0.2626 0.2125 l
0.2660 0.2109 l
0.2695 0.2093 l
0.2730 0.2077 l
0.2766 0.2061 l
0.2803 0.2046 l
0.2841 0.2031 l
0.2879 0.2015 l
0.2918 0.2000 l
0.2958 0.1986 l
0.2998 0.1971 l
0.3040 0.1957 l
0.3082 0.1944 l
0.3124 0.1930 l
0.3168 0.1917 l
0.3212 0.1905 l
0.3257 0.1892 l
0.3303 0.1881 l
0.3350 0.1869 l
0.3397 0.1859 l
0.3445 0.1848 l
0.3494 0.1838 l
0.3544 0.1829 l
0.3595 0.1821 l
0.3646 0.1813 l
0.3699 0.1805 l
0.3752 0.1798 l
0.3806 0.1792 l
0.3861 0.1787 l
0.3917 0.1782 l
0.3973 0.1779 l
0.4031 0.1776 l
0.4089 0.1773 l
0.4149 0.1772 l
0.4209 0.1772 l
0.4270 0.1772 l
0.4332 0.1774 l
0.4395 0.1776 l
0.4459 0.1779 l
0.4523 0.1784 l
0.4589 0.1789 l
0.4656 0.1796 l
0.4723 0.1804 l
0.4792 0.1813 l
0.4862 0.1823 l
0.4932 0.1834 l
0.5004 0.1847 l
0.5076 0.1861 l
0.5150 0.1876 l
0.5224 0.1893 l
0.5300 0.1911 l
0.5376 0.1931 l
0.5454 0.1952 l
0.5532 0.1974 l
0.5612 0.1998 l
0.5692 0.2024 l
0.5774 0.2051 l
0.5857 0.2081 l
0.5940 0.2111 l
0.6025 0.2144 l
0.6111 0.2178 l
0.6198 0.2215 l
0.6286 0.2253 l
0.6376 0.2293 l
0.6466 0.2335 l
0.6557 0.2379 l
0.6650 0.2425 l
0.6743 0.2473 l
0.6838 0.2523 l
0.6934 0.2576 l
0.7031 0.2631 l
0.7129 0.2688 l
0.7229 0.2747 l
0.7329 0.2809 l
0.7431 0.2873 l
0.7534 0.2940 l
0.7638 0.3009 l
0.7743 0.3081 l
0.7849 0.3155 l
0.7957 0.3232 l
0.8066 0.3312 l
0.8176 0.3395 l
0.8287 0.3480 l
0.8399 0.3569 l
0.8513 0.3660 l
0.8628 0.3754 l
0.8744 0.3851 l
0.8862 0.3952 l
0.8981 0.4055 l
0.9101 0.4162 l
0.9222 0.4272 l
0.9344 0.4385 l
0.9468 0.4502 l
0.9593 0.4622 l
0.9720 0.4745 l
0.9848 0.4873 l
0.9977 0.5003 l
1.0107 0.5138 l
1.0239 0.5276 l
1.0372 0.5418 l
1.0506 0.5564 l
1.0642 0.5714 l
1.0779 0.5867 l
1.0918 0.6025 l
1.1058 0.6187 l
1.1199 0.6353 l
1.1341 0.6523 l
1.1485 0.6698 l
1.1501 0.6717 l
s
[/DeviceRGB] SCS
Color11 SC
[0.0037 0.0112 0.0187 0.0112 ] 0 SD
0.0037 SLW
n
0.1500 0.2900 m
0.1500 0.2900 l
0.1500 0.2901 l
0.1500 0.2901 l
0.1500 0.2902 l
0.1500 0.2902 l
0.1500 0.2903 l
0.1501 0.2904 l
0.1501 0.2905 l
0.1501 0.2906 l
0.1501 0.2906 l
0.1502 0.2907 l
0.1502 0.2908 l
0.1503 0.2909 l
0.1504 0.2910 l
0.1505 0.2910 l
0.1506 0.2911 l
0.1507 0.2911 l
0.1508 0.2911 l
0.1509 0.2911 l
0.1510 0.2912 l
0.1512 0.2911 l
0.1514 0.2911 l
0.1516 0.2911 l
0.1518 0.2910 l
0.1520 0.2909 l
0.1522 0.2908 l
0.1525 0.2907 l
0.1527 0.2905 l
0.1530 0.2904 l
0.1534 0.2902 l
0.1537 0.2899 l
0.1540 0.2897 l
0.1544 0.2894 l
0.1548 0.2891 l
0.1553 0.2888 l
0.1557 0.2885 l
0.1562 0.2881 l
0.1567 0.2877 l
0.1572 0.2872 l
0.1578 0.2868 l
0.1583 0.2863 l
0.1590 0.2857 l
0.1596 0.2852 l
0.1603 0.2846 l
0.1610 0.2840 l
0.1617 0.2833 l
0.1625 0.2826 l
0.1632 0.2819 l
0.1641 0.2812 l
0.1649 0.2804 l
0.1658 0.2796 l
0.1668 0.2787 l
0.1677 0.2778 l
0.1687 0.2769 l
0.1698 0.2760 l
0.1708 0.2750 l
0.1720 0.2740 l
0.1731 0.2730 l
0.1743 0.2719 l
0.1756 0.2708 l
0.1768 0.2697 l
0.1782 0.2685 l
0.1795 0.2673 l
0.1809 0.2661 l
0.1824 0.2649 l
0.1839 0.2636 l
0.1854 0.2623 l
0.1870 0.2609 l
0.1886 0.2596 l
0.1903 0.2582 l
0.1920 0.2568 l
0.1938 0.2553 l
0.1956 0.2539 l
0.1975 0.2524 l
0.1994 0.2509 l
0.2014 0.2493 l
0.2034 0.2478 l
0.2055 0.2462 l
0.2076 0.2446 l
0.2098 0.2430 l
0.2121 0.2414 l
0.2144 0.2397 l
0.2167 0.2380 l
0.2191 0.2364 l
0.2216 0.2347 l
0.2241 0.2330 l
0.2267 0.2312 l
0.2294 0.2295 l
0.2321 0.2278 l
0.2348 0.2260 l
0.2377 0.2243 l
0.2406 0.2225 l
0.2435 0.2207 l
0.2465 0.2190 l
0.2496 0.2172 l
0.2527 0.2154 l
0.2560 0.2137 l
0.2592 0.2119 l
0.2626 0.2102 l
0.2660 0.2084 l
0.2695 0.2067 l
0.2730 0.2050 l
0.2766 0.2032 l
0.2803 0.2015 l
0.2841 0.1998 l
0.2879 0.1982 l
0.2918 0.1965 l
0.2958 0.1949 l
0.2998 0.1933 l
0.3040 0.1917 l
0.3082 0.1901 l
0.3124 0.1886 l
0.3168 0.1871 l
0.3212 0.1857 l
0.3257 0.1842 l
0.3303 0.1828 l
0.3350 0.1815 l
0.3397 0.1802 l
0.3445 0.1789 l
0.3494 0.1777 l
0.3544 0.1765 l
0.3595 0.1754 l
0.3646 0.1743 l
0.3699 0.1733 l
0.3752 0.1724 l
0.3806 0.1715 l
0.3861 0.1707 l
0.3917 0.1699 l
0.3973 0.1692 l
0.4031 0.1686 l
0.4089 0.1680 l
0.4149 0.1676 l
0.4209 0.1672 l
0.4270 0.1669 l
0.4332 0.1666 l
0.4395 0.1665 l
0.4459 0.1665 l
0.4523 0.1665 l
0.4589 0.1667 l
0.4656 0.1669 l
0.4723 0.1673 l
0.4792 0.1677 l
0.4862 0.1683 l
0.4932 0.1690 l
0.5004 0.1698 l
0.5076 0.1707 l
0.5150 0.1717 l
0.5224 0.1729 l
0.5300 0.1742 l
0.5376 0.1756 l
0.5454 0.1772 l
0.5532 0.1789 l
0.5612 0.1807 l
0.5692 0.1827 l
0.5774 0.1848 l
0.5857 0.1871 l
0.5940 0.1896 l
0.6025 0.1922 l
0.6111 0.1950 l
0.6198 0.1979 l
0.6286 0.2010 l
0.6376 0.2043 l
0.6466 0.2078 l
0.6557 0.2115 l
0.6650 0.2153 l
0.6743 0.2194 l
0.6838 0.2236 l
0.6934 0.2280 l
0.7031 0.2327 l
0.7129 0.2375 l
0.7229 0.2426 l
0.7329 0.2479 l
0.7431 0.2534 l
0.7534 0.2591 l
0.7638 0.2650 l
0.7743 0.2712 l
0.7849 0.2777 l
0.7957 0.2843 l
0.8066 0.2913 l
0.8176 0.2984 l
0.8287 0.3059 l
0.8399 0.3136 l
0.8513 0.3215 l
0.8628 0.3297 l
0.8744 0.3382 l
0.8862 0.3470 l
0.8981 0.3561 l
0.9101 0.3655 l
0.9222 0.3751 l
0.9344 0.3851 l
0.9468 0.3953 l
0.9593 0.4059 l
0.9720 0.4168 l
0.9848 0.4280 l
0.9977 0.4395 l
1.0107 0.4514 l
1.0239 0.4636 l
1.0372 0.4762 l
1.0506 0.4890 l
1.0642 0.5023 l
1.0779 0.5159 l
1.0918 0.5299 l
1.1058 0.5442 l
1.1199 0.5589 l
1.1341 0.5740 l
1.1485 0.5895 l
1.1501 0.5911 l
s
[/DeviceRGB] SCS
Color3 SC
[0.0037 0.0112 0.0187 0.0112 0.0037 0.0112 ] 0 SD
0.0037 SLW
n
0.1500 0.2900 m
0.1500 0.2900 l
0.1500 0.2901 l
0.1500 0.2901 l
0.1500 0.2902 l
0.1500 0.2902 l
0.1500 0.2903 l
0.1501 0.2904 l
0.1501 0.2905 l
0.1501 0.2906 l
0.1501 0.2907 l
0.1502 0.2907 l
0.1502 0.2908 l
0.1503 0.2909 l
0.1504 0.2910 l
0.1505 0.2910 l
0.1506 0.2911 l
0.1507 0.2911 l
0.1508 0.2912 l
0.1509 0.2912 l
0.1510 0.2912 l
0.1512 0.2912 l
0.1514 0.2912 l
0.1516 0.2911 l
0.1518 0.2910 l
0.1520 0.2910 l
0.1522 0.2909 l
0.1525 0.2907 l
0.1527 0.2906 l
0.1530 0.2904 l
0.1534 0.2903 l
0.1537 0.2900 l
0.1540 0.2898 l
0.1544 0.2895 l
0.1548 0.2892 l
0.1553 0.2889 l
0.1557 0.2886 l
0.1562 0.2882 l
0.1567 0.2878 l
0.1572 0.2874 l
0.1578 0.2869 l
0.1583 0.2864 l
0.1590 0.2859 l
0.1596 0.2854 l
0.1603 0.2848 l
0.1610 0.2842 l
0.1617 0.2835 l
0.1625 0.2828 l
0.1632 0.2821 l
0.1641 0.2814 l
0.1649 0.2806 l
0.1658 0.2798 l
0.1668 0.2790 l
0.1677 0.2781 l
0.1687 0.2772 l
0.1698 0.2763 l
0.1708 0.2753 l
0.1720 0.2743 l
0.1731 0.2733 l
0.1743 0.2723 l
0.1756 0.2712 l
0.1768 0.2701 l
0.1782 0.2689 l
0.1795 0.2678 l
0.1809 0.2666 l
0.1824 0.2653 l
0.1839 0.2641 l
0.1854 0.2628 l
0.1870 0.2615 l
0.1886 0.2601 l
0.1903 0.2588 l
0.1920 0.2574 l
0.1938 0.2560 l
0.1956 0.2545 l
0.1975 0.2531 l
0.1994 0.2516 l
0.2014 0.2501 l
0.2034 0.2486 l
0.2055 0.2470 l
0.2076 0.2455 l
0.2098 0.2439 l
0.2121 0.2423 l
0.2144 0.2407 l
0.2167 0.2391 l
0.2191 0.2375 l
0.2216 0.2358 l
0.2241 0.2342 l
0.2267 0.2325 l
0.2294 0.2308 l
0.2321 0.2292 l
0.2348 0.2275 l
0.2377 0.2258 l
0.2406 0.2241 l
0.2435 0.2224 l
0.2465 0.2208 l
0.2496 0.2191 l
0.2527 0.2174 l
0.2560 0.2157 l
0.2592 0.2141 l
0.2626 0.2124 l
0.2660 0.2108 l
0.2695 0.2091 l
0.2730 0.2075 l
0.2766 0.2059 l
0.2803 0.2043 l
0.2841 0.2028 l
0.2879 0.2012 l
0.2918 0.1997 l
0.2958 0.1982 l
0.2998 0.1968 l
0.3040 0.1953 l
0.3082 0.1940 l
0.3124 0.1926 l
0.3168 0.1913 l
0.3212 0.1900 l
0.3257 0.1887 l
0.3303 0.1876 l
0.3350 0.1864 l
0.3397 0.1853 l
0.3445 0.1843 l
0.3494 0.1833 l
0.3544 0.1823 l
0.3595 0.1814 l
0.3646 0.1806 l
0.3699 0.1799 l
0.3752 0.1792 l
0.3806 0.1786 l
0.3861 0.1780 l
0.3917 0.1776 l
0.3973 0.1772 l
0.4031 0.1769 l
0.4089 0.1766 l
0.4149 0.1765 l
0.4209 0.1765 l
0.4270 0.1765 l
0.4332 0.1767 l
0.4395 0.1769 l
0.4459 0.1773 l
0.4523 0.1777 l
0.4589 0.1783 l
0.4656 0.1789 l
0.4723 0.1797 l
0.4792 0.1807 l
0.4862 0.1817 l
0.4932 0.1828 l
0.5004 0.1841 l
0.5076 0.1856 l
0.5150 0.1871 l
0.5224 0.1888 l
0.5300 0.1907 l
0.5376 0.1927 l
0.5454 0.1948 l
0.5532 0.1971 l
0.5612 0.1996 l
0.5692 0.2022 l
0.5774 0.2050 l
0.5857 0.2080 l
0.5940 0.2111 l
0.6025 0.2144 l
0.6111 0.2179 l
0.6198 0.2216 l
0.6286 0.2255 l
0.6376 0.2296 l
0.6466 0.2338 l
0.6557 0.2383 l
0.6650 0.2430 l
0.6743 0.2479 l
0.6838 0.2530 l
0.6934 0.2584 l
0.7031 0.2639 l
0.7129 0.2697 l
0.7229 0.2758 l
0.7329 0.2821 l
0.7431 0.2886 l
0.7534 0.2953 l
0.7638 0.3024 l
0.7743 0.3097 l
0.7849 0.3172 l
0.7957 0.3250 l
0.8066 0.3331 l
0.8176 0.3415 l
0.8287 0.3502 l
0.8399 0.3591 l
0.8513 0.3684 l
0.8628 0.3779 l
0.8744 0.3878 l
0.8862 0.3979 l
0.8981 0.4084 l
0.9101 0.4192 l
0.9222 0.4303 l
0.9344 0.4418 l
0.9468 0.4536 l
0.9593 0.4658 l
0.9720 0.4782 l
0.9848 0.4911 l
0.9977 0.5043 l
1.0107 0.5179 l
1.0239 0.5318 l
1.0372 0.5462 l
1.0506 0.5609 l
1.0642 0.5760 l
1.0779 0.5915 l
1.0918 0.6074 l
1.1058 0.6237 l
1.1199 0.6404 l
1.1341 0.6576 l
1.1485 0.6752 l
1.1501 0.6771 l
s
[/DeviceRGB] SCS
Color8 SC
[0.0187 0.0112 0.0037 0.0112 0.0187 0.0112 ] 0 SD
0.0037 SLW
n
0.1500 0.2900 m
0.1500 0.2900 l
0.1500 0.2901 l
0.1500 0.2901 l
0.1500 0.2902 l
0.1500 0.2903 l
0.1500 0.2903 l
0.1501 0.2904 l
0.1501 0.2905 l
0.1501 0.2906 l
0.1501 0.2907 l
0.1502 0.2908 l
0.1502 0.2908 l
0.1503 0.2909 l
0.1504 0.2910 l
0.1505 0.2911 l
0.1506 0.2911 l
0.1507 0.2912 l
0.1508 0.2912 l
0.1509 0.2913 l
0.1510 0.2913 l
0.1512 0.2913 l
0.1514 0.2913 l
0.1516 0.2913 l
0.1518 0.2912 l
0.1520 0.2912 l
0.1522 0.2911 l
0.1525 0.2910 l
0.1527 0.2909 l
0.1530 0.2907 l
0.1534 0.2905 l
0.1537 0.2904 l
0.1540 0.2901 l
0.1544 0.2899 l
0.1548 0.2896 l
0.1553 0.2894 l
0.1557 0.2890 l
0.1562 0.2887 l
0.1567 0.2883 l
0.1572 0.2879 l
0.1578 0.2875 l
0.1583 0.2870 l
0.1590 0.2865 l
0.1596 0.2860 l
0.1603 0.2855 l
0.1610 0.2849 l
0.1617 0.2843 l
0.1625 0.2837 l
0.1632 0.2830 l
0.1641 0.2823 l
0.1649 0.2815 l
0.1658 0.2808 l
0.1668 0.2800 l
0.1677 0.2791 l
0.1687 0.2783 l
0.1698 0.2774 l
0.1708 0.2765 l
0.1720 0.2755 l
0.1731 0.2745 l
0.1743 0.2735 l
0.1756 0.2724 l
0.1768 0.2714 l
0.1782 0.2702 l
0.1795 0.2691 l
0.1809 0.2679 l
0.1824 0.2667 l
0.1839 0.2655 l
0.1854 0.2642 l
0.1870 0.2630 l
0.1886 0.2616 l
0.1903 0.2603 l
0.1920 0.2589 l
0.1938 0.2575 l
0.1956 0.2561 l
0.1975 0.2547 l
0.1994 0.2532 l
0.2014 0.2517 l
0.2034 0.2502 l
0.2055 0.2487 l
0.2076 0.2471 l
0.2098 0.2456 l
0.2121 0.2440 l
0.2144 0.2424 l
0.2167 0.2408 l
0.2191 0.2391 l
0.2216 0.2375 l
0.2241 0.2358 l
0.2267 0.2341 l
0.2294 0.2325 l
0.2321 0.2308 l
0.2348 0.2291 l
0.2377 0.2274 l
0.2406 0.2257 l
0.2435 0.2240 l
0.2465 0.2223 l
0.2496 0.2206 l
0.2527 0.2189 l
0.2560 0.2171 l
0.2592 0.2155 l
0.2626 0.2138 l
0.2660 0.2121 l
0.2695 0.2104 l
0.2730 0.2088 l
0.2766 0.2071 l
0.2803 0.2055 l
0.2841 0.2039 l
0.2879 0.2023 l
0.2918 0.2008 l
0.2958 0.1992 l
0.2998 0.1977 l
0.3040 0.1963 l
0.3082 0.1948 l
0.3124 0.1934 l
0.3168 0.1920 l
0.3212 0.1907 l
0.3257 0.1894 l
0.3303 0.1882 l
0.3350 0.1870 l
0.3397 0.1858 l
0.3445 0.1847 l
0.3494 0.1837 l
0.3544 0.1827 l
0.3595 0.1818 l
0.3646 0.1809 l
0.3699 0.1801 l
0.3752 0.1794 l
0.3806 0.1788 l
0.3861 0.1782 l
0.3917 0.1777 l
0.3973 0.1773 l
0.4031 0.1770 l
0.4089 0.1767 l
0.4149 0.1766 l
0.4209 0.1765 l
0.4270 0.1766 l
0.4332 0.1768 l
0.4395 0.1770 l
0.4459 0.1774 l
0.4523 0.1779 l
0.4589 0.1785 l
0.4656 0.1792 l
0.4723 0.1800 l
0.4792 0.1810 l
0.4862 0.1821 l
0.4932 0.1834 l
0.5004 0.1848 l
0.5076 0.1863 l
0.5150 0.1880 l
0.5224 0.1898 l
0.5300 0.1918 l
0.5376 0.1940 l
0.5454 0.1963 l
0.5532 0.1988 l
0.5612 0.2015 l
0.5692 0.2044 l
0.5774 0.2074 l
0.5857 0.2107 l
0.5940 0.2141 l
0.6025 0.2177 l
0.6111 0.2215 l
0.6198 0.2256 l
0.6286 0.2299 l
0.6376 0.2343 l
0.6466 0.2390 l
0.6557 0.2440 l
0.6650 0.2492 l
0.6743 0.2546 l
0.6838 0.2602 l
0.6934 0.2662 l
0.7031 0.2723 l
0.7129 0.2788 l
0.7229 0.2855 l
0.7329 0.2925 l
0.7431 0.2997 l
0.7534 0.3073 l
0.7638 0.3152 l
0.7743 0.3233 l
0.7849 0.3318 l
0.7957 0.3405 l
0.8066 0.3496 l
0.8176 0.3590 l
0.8287 0.3688 l
0.8399 0.3789 l
0.8513 0.3893 l
0.8628 0.4001 l
0.8744 0.4112 l
0.8862 0.4227 l
0.8981 0.4346 l
0.9101 0.4469 l
0.9222 0.4595 l
0.9344 0.4726 l
0.9468 0.4860 l
0.9593 0.4999 l
0.9720 0.5141 l
0.9848 0.5288 l
0.9977 0.5439 l
1.0107 0.5595 l
1.0239 0.5755 l
1.0372 0.5920 l
1.0506 0.6089 l
1.0642 0.6263 l
1.0779 0.6442 l
1.0918 0.6625 l
1.1058 0.6814 l
1.1199 0.7008 l
1.1341 0.7206 l
1.1485 0.7410 l
1.1501 0.7433 l
s
[/DeviceRGB] SCS
Color1 SC
[] 0 SD
0.0045 SLW
n
0.1500 0.1500 m
1.1500 0.1500 l
s
n
0.1500 0.8500 m
1.1500 0.8500 l
s
n
0.2333 0.1500 m
0.2333 0.1600 l
s
n
0.2333 0.8500 m
0.2333 0.8400 l
s
n
0.4000 0.1500 m
0.4000 0.1600 l
s
n
0.4000 0.8500 m
0.4000 0.8400 l
s
n
0.5667 0.1500 m
0.5667 0.1600 l
s
n
0.5667 0.8500 m
0.5667 0.8400 l
s
n
0.7333 0.1500 m
0.7333 0.1600 l
s
n
0.7333 0.8500 m
0.7333 0.8400 l
s
n
0.9000 0.1500 m
0.9000 0.1600 l
s
n
0.9000 0.8500 m
0.9000 0.8400 l
s
n
1.0667 0.1500 m
1.0667 0.1600 l
s
n
1.0667 0.8500 m
1.0667 0.8400 l
s
n
0.1500 0.1500 m
0.1500 0.1700 l
s
n
0.1500 0.8500 m
0.1500 0.8300 l
s
n
0.3167 0.1500 m
0.3167 0.1700 l
s
n
0.3167 0.8500 m
0.3167 0.8300 l
s
n
0.4833 0.1500 m
0.4833 0.1700 l
s
n
0.4833 0.8500 m
0.4833 0.8300 l
s
n
0.6500 0.1500 m
0.6500 0.1700 l
s
n
0.6500 0.8500 m
0.6500 0.8300 l
s
n
0.8167 0.1500 m
0.8167 0.1700 l
s
n
0.8167 0.8500 m
0.8167 0.8300 l
s
n
0.9833 0.1500 m
0.9833 0.1700 l
s
n
0.9833 0.8500 m
0.9833 0.8300 l
s
/Times-Roman findfont
dup length dict begin
 {1 index /FID ne {def} {pop pop} ifelse} forall
 /Encoding DefEncoding def
 currentdict
end
/Font0 exch definefont pop
/Font0 FFSF
0.1394 0.1094 m
GS
[0.0448 0.0000 0.0000 0.0448 0 0] CC
(0) show
GR
/Font0 FFSF
0.2910 0.1094 m
GS
[0.0448 0.0000 0.0000 0.0448 0 0] CC
(0.1) show
GR
/Font0 FFSF
0.4559 0.1094 m
GS
[0.0448 0.0000 0.0000 0.0448 0 0] CC
(0.2) show
GR
/Font0 FFSF
0.6233 0.1094 m
GS
[0.0448 0.0000 0.0000 0.0448 0 0] CC
(0.3) show
GR
/Font0 FFSF
0.7892 0.1094 m
GS
[0.0448 0.0000 0.0000 0.0448 0 0] CC
(0.4) show
GR
/Font0 FFSF
0.9567 0.1090 m
GS
[0.0448 0.0000 0.0000 0.0448 0 0] CC
(0.5) show
GR
/Symbol findfont
/Font12 exch definefont pop
/Font12 FFSF
0.5722 0.0441 m
GS
[0.0504 0.0000 0.0000 0.0504 0 0] CC
(r) show
GR
/Font0 FFSF
0.6000 0.0441 m
GS
[0.0504 0.0000 0.0000 0.0504 0 0] CC
( [fm) show
GR
/Font0 FFSF
0.6855 0.0743 m
GS
[0.0356 0.0000 0.0000 0.0356 0 0] CC
(-3) show
GR
/Font0 FFSF
0.7153 0.0441 m
GS
[0.0504 0.0000 0.0000 0.0504 0 0] CC
(]) show
GR
n
0.1500 0.1500 m
0.1500 0.8500 l
s
n
1.1500 0.1500 m
1.1500 0.8500 l
s
n
0.1500 0.2200 m
0.1600 0.2200 l
s
n
1.1500 0.2200 m
1.1400 0.2200 l
s
n
0.1500 0.3600 m
0.1600 0.3600 l
s
n
1.1500 0.3600 m
1.1400 0.3600 l
s
n
0.1500 0.5000 m
0.1600 0.5000 l
s
n
1.1500 0.5000 m
1.1400 0.5000 l
s
n
0.1500 0.6400 m
0.1600 0.6400 l
s
n
1.1500 0.6400 m
1.1400 0.6400 l
s
n
0.1500 0.7800 m
0.1600 0.7800 l
s
n
1.1500 0.7800 m
1.1400 0.7800 l
s
n
0.1500 0.1500 m
0.1700 0.1500 l
s
n
1.1500 0.1500 m
1.1300 0.1500 l
s
n
0.1500 0.2900 m
0.1700 0.2900 l
s
n
1.1500 0.2900 m
1.1300 0.2900 l
s
n
0.1500 0.4300 m
0.1700 0.4300 l
s
n
1.1500 0.4300 m
1.1300 0.4300 l
s
n
0.1500 0.5700 m
0.1700 0.5700 l
s
n
1.1500 0.5700 m
1.1300 0.5700 l
s
n
0.1500 0.7100 m
0.1700 0.7100 l
s
n
1.1500 0.7100 m
1.1300 0.7100 l
s
n
0.1500 0.8500 m
0.1700 0.8500 l
s
n
1.1500 0.8500 m
1.1300 0.8500 l
s
/Font0 FFSF
0.0816 0.1351 m
GS
[0.0448 0.0000 0.0000 0.0448 0 0] CC
(-20) show
GR
/Font0 FFSF
0.1188 0.2751 m
GS
[0.0448 0.0000 0.0000 0.0448 0 0] CC
(0) show
GR
/Font0 FFSF
0.0965 0.4151 m
GS
[0.0448 0.0000 0.0000 0.0448 0 0] CC
(20) show
GR
/Font0 FFSF
0.0965 0.5551 m
GS
[0.0448 0.0000 0.0000 0.0448 0 0] CC
(40) show
GR
/Font0 FFSF
0.0965 0.6951 m
GS
[0.0448 0.0000 0.0000 0.0448 0 0] CC
(60) show
GR
/Font0 FFSF
0.0965 0.8351 m
GS
[0.0448 0.0000 0.0000 0.0448 0 0] CC
(80) show
GR
/Font0 FFSF
0.0637 0.3867 m
GS
[0.0000 0.0504 -0.0504 0.0000 0 0] CC
(E/A [MeV]) show
GR
[] 0 SD
0.0015 SLW
n
0.1500 0.1500 m
0.1500 0.8500 l
1.1500 0.8500 l
1.1500 0.1500 l
0.1500 0.1500 l
c
s
n
0.1500 0.8500 m
0.1500 0.5292 l
0.4448 0.5292 l
0.4448 0.8500 l
c
[/DeviceRGB] SCS
Color0 SC
fill
[/DeviceRGB] SCS
Color1 SC
[] 0 SD
0.0045 SLW
n
0.1500 0.8500 m
0.1500 0.5292 l
0.4448 0.5292 l
0.4448 0.8500 l
0.1500 0.8500 l
c
s
/Font0 FFSF
0.2619 0.8071 m
GS
[0.0498 0.0000 0.0000 0.0498 0 0] CC
(BHF) show
GR
n
0.1934 0.8150 m
0.1934 0.8320 l
0.2104 0.8320 l
0.2104 0.8150 l
c
GS
Color0 SRGB
fill
GR
[/Pattern /DeviceRGB] SCS
Color1 Pattern8 SC
fill
[/DeviceRGB] SCS
Color1 SC
[] 0 SD
0.0030 SLW
n
0.1934 0.8150 m
0.1934 0.8320 l
0.2104 0.8320 l
0.2104 0.8150 l
0.1934 0.8150 l
c
s
/Font0 FFSF
0.2619 0.7633 m
GS
[0.0498 0.0000 0.0000 0.0498 0 0] CC
(M3Y-P2) show
GR
[] 0 SD
0.0037 SLW
n
0.1619 0.7798 m
0.2419 0.7798 l
s
/Font0 FFSF
0.2619 0.7188 m
GS
[0.0498 0.0000 0.0000 0.0498 0 0] CC
(M3Y-P3) show
GR
[/DeviceRGB] SCS
Color2 SC
[0.0187 0.0112 ] 0 SD
0.0037 SLW
n
0.1619 0.7353 m
0.2419 0.7353 l
s
/Font0 FFSF
[/DeviceRGB] SCS
Color1 SC
0.2619 0.6743 m
GS
[0.0498 0.0000 0.0000 0.0498 0 0] CC
(M3Y-P4) show
GR
[/DeviceRGB] SCS
Color4 SC
[0.0037 0.0112 ] 0 SD
0.0037 SLW
n
0.1619 0.6908 m
0.2419 0.6908 l
s
/Font0 FFSF
[/DeviceRGB] SCS
Color1 SC
0.2619 0.6294 m
GS
[0.0498 0.0000 0.0000 0.0498 0 0] CC
(M3Y-P5) show
GR
[/DeviceRGB] SCS
Color11 SC
[0.0037 0.0112 0.0187 0.0112 ] 0 SD
0.0037 SLW
n
0.1619 0.6461 m
0.2419 0.6461 l
s
/Font0 FFSF
[/DeviceRGB] SCS
Color1 SC
0.2619 0.5845 m
GS
[0.0498 0.0000 0.0000 0.0498 0 0] CC
(M3Y-P6) show
GR
[/DeviceRGB] SCS
Color3 SC
[0.0037 0.0112 0.0187 0.0112 0.0037 0.0112 ] 0 SD
0.0037 SLW
n
0.1619 0.6012 m
0.2419 0.6012 l
s
/Font0 FFSF
[/DeviceRGB] SCS
Color1 SC
0.2619 0.5400 m
GS
[0.0498 0.0000 0.0000 0.0498 0 0] CC
(M3Y-P7) show
GR
[/DeviceRGB] SCS
Color8 SC
[0.0187 0.0112 0.0037 0.0112 0.0187 0.0112 ] 0 SD
0.0037 SLW
n
0.1619 0.5565 m
0.2419 0.5565 l
s
[/DeviceRGB] SCS
Color1 SC
[] 0 SD
0.0015 SLW
n
0.3752 0.8497 m
0.3725 0.8458 l
s
/Font0 FFSF
0.6000 0.7500 m
GS
[0.0862 0.0000 0.0000 0.0862 0 0] CC
(a\)) show
GR
showpage
%%PageTrailer
%%Trailer
%%DocumentNeededResources: font Times-Roman
%%+ font Symbol
%%EOF
