%!PS-Adobe-3.0
%%BoundingBox: 0 0 612 792
%%LanguageLevel: 2
%%Creator: Grace-5.1.25
%%CreationDate: Tue Dec  1 10:53:55 2015
%%DocumentData: Clean8Bit
%%Orientation: Landscape
%%Pages: 1
%%PageOrder: Ascend
%%Title: /Users/ap1450/Dropbox/Physics_Reports_LR/ST_channel_finite_range/Vers2/plots/JLS_nakada2.agr
%%For: ap1450
%%DocumentNeededResources: (atend)
%%EndComments
%%BeginProlog
/PAGE_OFFSET_X 0 def
/PAGE_OFFSET_Y 0 def
/m {moveto} def
/l {lineto} def
/s {stroke} def
/n {newpath} def
/c {closepath} def
/RL {rlineto} def
/SLW {setlinewidth} def
/GS {gsave} def
/GR {grestore} def
/SC {setcolor} def
/SGRY {setgray} def
/SRGB {setrgbcolor} def
/SD {setdash} def
/SLC {setlinecap} def
/SLJ {setlinejoin} def
/SCS {setcolorspace} def
/FFSF {findfont setfont} def
/CC {concat} def
/PXL {n m 0 0 RL s} def
/Color0 {1.0000 1.0000 1.0000} def
/Color1 {0.0000 0.0000 0.0000} def
/Color2 {1.0000 0.0000 0.0000} def
/Color3 {0.0000 1.0000 0.0000} def
/Color4 {0.0000 0.0000 1.0000} def
/Color5 {1.0000 1.0000 0.0000} def
/Color6 {0.7373 0.5608 0.5608} def
/Color7 {0.8627 0.8627 0.8627} def
/Color8 {0.5804 0.0000 0.8275} def
/Color9 {0.0000 1.0000 1.0000} def
/Color10 {1.0000 0.0000 1.0000} def
/Color11 {1.0000 0.6471 0.0000} def
/Color12 {0.4471 0.1294 0.7373} def
/Color13 {0.4039 0.0275 0.2824} def
/Color14 {0.2510 0.8784 0.8157} def
/Color15 {0.0000 0.5451 0.0000} def
/Color16 {0.7529 0.7529 0.7529} def
/Color17 {0.5059 0.5059 0.5059} def
/Color18 {0.2588 0.2588 0.2588} def
/PTRN {
 /pat_bits exch def 
 <<
  /PaintType 2
  /PatternType 1 /TilingType 1
  /BBox[0 0 16 16]
  /XStep 16 /YStep 16
  /PaintProc {
   pop
   16 16 true [-1 0 0 -1 16 16] pat_bits imagemask
  }
 >>
 [0.0016 0 0 0.0016 0 0]
 makepattern
} def
/Pattern0 {<0000000000000000000000000000000000000000000000000000000000000000> PTRN} bind def
/Pattern1 {<ffffffffffffffffffffffffffffffffffffffffffffffffffffffffffffffff> PTRN} bind def
/Pattern2 {<eeeeffffbbbbffffeeeeffffbbbbffffeeeeffffbbbbffffeeeeffffbbbbffff> PTRN} bind def
/Pattern3 {<eeeebbbbeeeebbbbeeeebbbbeeeebbbbeeeebbbbeeeebbbbeeeebbbbeeeebbbb> PTRN} bind def
/Pattern4 {<5555aaaa5555aaaa5555aaaa5555aaaa5555aaaa5555aaaa5555aaaa5555aaaa> PTRN} bind def
/Pattern5 {<1111444411114444111144441111444411114444111144441111444411114444> PTRN} bind def
/Pattern6 {<1111000044440000111100004444000011110000444400001111000044440000> PTRN} bind def
/Pattern7 {<1010000000000000010100000000000010100000000000000101000000000000> PTRN} bind def
/Pattern8 {<0000000000000000000000000000000000000000000000000000000000000000> PTRN} bind def
/Pattern9 {<1e1e0f0f8787c3c3e1e1f0f078783c3c1e1e0f0f8787c3c3e1e1f0f078783c3c> PTRN} bind def
/Pattern10 {<7878f0f0e1e1c3c387870f0f1e1e3c3c7878f0f0e1e1c3c387870f0f1e1e3c3c> PTRN} bind def
/Pattern11 {<3333333333333333333333333333333333333333333333333333333333333333> PTRN} bind def
/Pattern12 {<ffffffff00000000ffffffff00000000ffffffff00000000ffffffff00000000> PTRN} bind def
/Pattern13 {<8181424224241818181824244242818181814242242418181818242442428181> PTRN} bind def
/Pattern14 {<8080404020201010080804040202010180804040202010100808040402020101> PTRN} bind def
/Pattern15 {<0101020204040808101020204040808001010202040408081010202040408080> PTRN} bind def
/Pattern16 {<2222222222222222222222222222222222222222222222222222222222222222> PTRN} bind def
/Pattern17 {<0000ffff000000000000ffff000000000000ffff000000000000ffff00000000> PTRN} bind def
/Pattern18 {<2222ffff222222222222ffff222222222222ffff222222222222ffff22222222> PTRN} bind def
/Pattern19 {<ffffffff33333333ffffffff33333333ffffffff33333333ffffffff33333333> PTRN} bind def
/Pattern20 {<0f0f0f0f0f0f0f0ff0f0f0f0f0f0f0f00f0f0f0f0f0f0f0ff0f0f0f0f0f0f0f0> PTRN} bind def
/Pattern21 {<ff00ff00ff00ff00ff00ff00ff00ff0000ff00ff00ff00ff00ff00ff00ff00ff> PTRN} bind def
/Pattern22 {<8001800180018001800180018001ffffffff8001800180018001800180018001> PTRN} bind def
/Pattern23 {<c003c003c003c003c003c003ffffffffffffffffc003c003c003c003c003c003> PTRN} bind def
/Pattern24 {<040404040404ffff404040404040ffff040404040404ffff404040404040ffff> PTRN} bind def
/Pattern25 {<180018001800180018001800ffffffff001800180018001800180018ffffffff> PTRN} bind def
/Pattern26 {<1111b8b87c7c3a3a1111a3a3c7c78b8b1111b8b87c7c3a3a1111a3a3c7c78b8b> PTRN} bind def
/Pattern27 {<101010102828c7c70101010182827c7c101010102828c7c70101010182827c7c> PTRN} bind def
/Pattern28 {<1c1c121211112121c1c12121111112121c1c121211112121c1c1212111111212> PTRN} bind def
/Pattern29 {<3e3e414180808080e3e31414080808083e3e414180808080e3e3141408080808> PTRN} bind def
/Pattern30 {<4848888884848383848488884848383848488888848483838484888848483838> PTRN} bind def
/Pattern31 {<03030404080808080c0c12122121c0c003030404080808080c0c12122121c0c0> PTRN} bind def
/ellipsedict 8 dict def
ellipsedict /mtrx matrix put
/EARC {
 ellipsedict begin
  /endangle exch def
  /startangle exch def
  /yrad exch def
  /xrad exch def
  /y exch def
  /x exch def
  /savematrix mtrx currentmatrix def
  x y translate
  xrad yrad scale
  0 0 1 startangle endangle arc
  savematrix setmatrix
 end
} def
/TL {
  /kcomp exch def
  /linewidth exch def
  /offset exch def
  GS
  0 offset rmoveto
  linewidth SLW
  dup stringwidth exch kcomp add exch RL s
  GR
} def
/KINIT
{
 /kvector exch def
 /kid 0 def
} def
/KPROC
{
 pop pop
 kvector kid get
 0 rmoveto
 /kid 1 kid add def
} def
/DefEncoding [
 /.notdef
 /.notdef
 /.notdef
 /.notdef
 /.notdef
 /.notdef
 /.notdef
 /.notdef
 /.notdef
 /.notdef
 /.notdef
 /.notdef
 /.notdef
 /.notdef
 /.notdef
 /.notdef
 /.notdef
 /.notdef
 /.notdef
 /.notdef
 /.notdef
 /.notdef
 /.notdef
 /.notdef
 /.notdef
 /.notdef
 /.notdef
 /.notdef
 /.notdef
 /.notdef
 /.notdef
 /.notdef
 /space
 /exclam
 /quotedbl
 /numbersign
 /dollar
 /percent
 /ampersand
 /quoteright
 /parenleft
 /parenright
 /asterisk
 /plus
 /comma
 /hyphen
 /period
 /slash
 /zero
 /one
 /two
 /three
 /four
 /five
 /six
 /seven
 /eight
 /nine
 /colon
 /semicolon
 /less
 /equal
 /greater
 /question
 /at
 /A
 /B
 /C
 /D
 /E
 /F
 /G
 /H
 /I
 /J
 /K
 /L
 /M
 /N
 /O
 /P
 /Q
 /R
 /S
 /T
 /U
 /V
 /W
 /X
 /Y
 /Z
 /bracketleft
 /backslash
 /bracketright
 /asciicircum
 /underscore
 /grave
 /a
 /b
 /c
 /d
 /e
 /f
 /g
 /h
 /i
 /j
 /k
 /l
 /m
 /n
 /o
 /p
 /q
 /r
 /s
 /t
 /u
 /v
 /w
 /x
 /y
 /z
 /braceleft
 /bar
 /braceright
 /asciitilde
 /.notdef
 /.notdef
 /.notdef
 /.notdef
 /.notdef
 /.notdef
 /.notdef
 /.notdef
 /.notdef
 /.notdef
 /.notdef
 /.notdef
 /.notdef
 /.notdef
 /.notdef
 /.notdef
 /.notdef
 /.notdef
 /.notdef
 /.notdef
 /.notdef
 /.notdef
 /.notdef
 /.notdef
 /.notdef
 /.notdef
 /.notdef
 /.notdef
 /.notdef
 /.notdef
 /.notdef
 /.notdef
 /.notdef
 /space
 /exclamdown
 /cent
 /sterling
 /currency
 /yen
 /brokenbar
 /section
 /dieresis
 /copyright
 /ordfeminine
 /guillemotleft
 /logicalnot
 /hyphen
 /registered
 /macron
 /degree
 /plusminus
 /twosuperior
 /threesuperior
 /acute
 /mu
 /paragraph
 /periodcentered
 /cedilla
 /onesuperior
 /ordmasculine
 /guillemotright
 /onequarter
 /onehalf
 /threequarters
 /questiondown
 /Agrave
 /Aacute
 /Acircumflex
 /Atilde
 /Adieresis
 /Aring
 /AE
 /Ccedilla
 /Egrave
 /Eacute
 /Ecircumflex
 /Edieresis
 /Igrave
 /Iacute
 /Icircumflex
 /Idieresis
 /Eth
 /Ntilde
 /Ograve
 /Oacute
 /Ocircumflex
 /Otilde
 /Odieresis
 /multiply
 /Oslash
 /Ugrave
 /Uacute
 /Ucircumflex
 /Udieresis
 /Yacute
 /Thorn
 /germandbls
 /agrave
 /aacute
 /acircumflex
 /atilde
 /adieresis
 /aring
 /ae
 /ccedilla
 /egrave
 /eacute
 /ecircumflex
 /edieresis
 /igrave
 /iacute
 /icircumflex
 /idieresis
 /eth
 /ntilde
 /ograve
 /oacute
 /ocircumflex
 /otilde
 /odieresis
 /divide
 /oslash
 /ugrave
 /uacute
 /ucircumflex
 /udieresis
 /yacute
 /thorn
 /ydieresis
] def
%%EndProlog
%%BeginSetup
%%EndSetup
%%Page: 1 1
PAGE_OFFSET_X PAGE_OFFSET_Y translate
612.00 612.00 scale
90 rotate
0.0 -1.0 translate
n
0.4267 0.6117 m
0.4267 0.6297 l
0.4447 0.6297 l
0.4447 0.6117 l
c
GS
[/DeviceRGB] SCS
Color0 SRGB
fill
GR
[/Pattern /DeviceRGB] SCS
Color1 Pattern8 SC
fill
[/DeviceRGB] SCS
Color1 SC
[] 0 SD
0.0045 SLW
0 SLC
0 SLJ
n
0.4267 0.6117 m
0.4267 0.6297 l
0.4447 0.6297 l
0.4447 0.6117 l
0.4267 0.6117 l
c
s
n
0.4981 0.5577 m
0.4981 0.5757 l
0.5162 0.5757 l
0.5162 0.5577 l
c
GS
Color0 SRGB
fill
GR
[/Pattern /DeviceRGB] SCS
Color1 Pattern8 SC
fill
[/DeviceRGB] SCS
Color1 SC
n
0.4981 0.5577 m
0.4981 0.5757 l
0.5162 0.5757 l
0.5162 0.5577 l
0.4981 0.5577 l
c
s
n
0.5696 0.5041 m
0.5696 0.5221 l
0.5876 0.5221 l
0.5876 0.5041 l
c
GS
Color0 SRGB
fill
GR
[/Pattern /DeviceRGB] SCS
Color1 Pattern8 SC
fill
[/DeviceRGB] SCS
Color1 SC
n
0.5696 0.5041 m
0.5696 0.5221 l
0.5876 0.5221 l
0.5876 0.5041 l
0.5696 0.5041 l
c
s
n
0.6410 0.4502 m
0.6410 0.4682 l
0.6590 0.4682 l
0.6590 0.4502 l
c
GS
Color0 SRGB
fill
GR
[/Pattern /DeviceRGB] SCS
Color1 Pattern8 SC
fill
[/DeviceRGB] SCS
Color1 SC
n
0.6410 0.4502 m
0.6410 0.4682 l
0.6590 0.4682 l
0.6590 0.4502 l
0.6410 0.4502 l
c
s
n
0.7124 0.3989 m
0.7124 0.4169 l
0.7304 0.4169 l
0.7304 0.3989 l
c
GS
Color0 SRGB
fill
GR
[/Pattern /DeviceRGB] SCS
Color1 Pattern8 SC
fill
[/DeviceRGB] SCS
Color1 SC
n
0.7124 0.3989 m
0.7124 0.4169 l
0.7304 0.4169 l
0.7304 0.3989 l
0.7124 0.3989 l
c
s
n
0.7838 0.3464 m
0.7838 0.3645 l
0.8019 0.3645 l
0.8019 0.3464 l
c
GS
Color0 SRGB
fill
GR
[/Pattern /DeviceRGB] SCS
Color1 Pattern8 SC
fill
[/DeviceRGB] SCS
Color1 SC
n
0.7838 0.3464 m
0.7838 0.3645 l
0.8019 0.3645 l
0.8019 0.3464 l
0.7838 0.3464 l
c
s
n
0.8553 0.2986 m
0.8553 0.3166 l
0.8733 0.3166 l
0.8733 0.2986 l
c
GS
Color0 SRGB
fill
GR
[/Pattern /DeviceRGB] SCS
Color1 Pattern8 SC
fill
[/DeviceRGB] SCS
Color1 SC
n
0.8553 0.2986 m
0.8553 0.3166 l
0.8733 0.3166 l
0.8733 0.2986 l
0.8553 0.2986 l
c
s
n
0.9267 0.2566 m
0.9267 0.2746 l
0.9447 0.2746 l
0.9447 0.2566 l
c
GS
Color0 SRGB
fill
GR
[/Pattern /DeviceRGB] SCS
Color1 Pattern8 SC
fill
[/DeviceRGB] SCS
Color1 SC
n
0.9267 0.2566 m
0.9267 0.2746 l
0.9447 0.2746 l
0.9447 0.2566 l
0.9267 0.2566 l
c
s
n
0.9981 0.2278 m
0.9981 0.2458 l
1.0162 0.2458 l
1.0162 0.2278 l
c
GS
Color0 SRGB
fill
GR
[/Pattern /DeviceRGB] SCS
Color1 Pattern8 SC
fill
[/DeviceRGB] SCS
Color1 SC
n
0.9981 0.2278 m
0.9981 0.2458 l
1.0162 0.2458 l
1.0162 0.2278 l
0.9981 0.2278 l
c
s
n
1.0696 0.2159 m
1.0696 0.2339 l
1.0876 0.2339 l
1.0876 0.2159 l
c
GS
Color0 SRGB
fill
GR
[/Pattern /DeviceRGB] SCS
Color1 Pattern8 SC
fill
[/DeviceRGB] SCS
Color1 SC
n
1.0696 0.2159 m
1.0696 0.2339 l
1.0876 0.2339 l
1.0876 0.2159 l
1.0696 0.2159 l
c
s
n
1.1410 0.2254 m
1.1410 0.2434 l
1.1590 0.2434 l
1.1590 0.2254 l
c
GS
Color0 SRGB
fill
GR
[/Pattern /DeviceRGB] SCS
Color1 Pattern8 SC
fill
[/DeviceRGB] SCS
Color1 SC
n
1.1410 0.2254 m
1.1410 0.2434 l
1.1590 0.2434 l
1.1590 0.2254 l
1.1410 0.2254 l
c
s
[] 0 SD
0.0037 SLW
n
0.1499 0.8095 m
0.1500 0.8095 l
0.1571 0.8067 l
0.1643 0.8037 l
0.1714 0.8006 l
0.1786 0.7974 l
0.1857 0.7942 l
0.1929 0.7907 l
0.2000 0.7872 l
0.2071 0.7836 l
0.2143 0.7798 l
0.2214 0.7759 l
0.2286 0.7719 l
0.2357 0.7678 l
0.2429 0.7636 l
0.2500 0.7593 l
0.2571 0.7548 l
0.2643 0.7502 l
0.2714 0.7456 l
0.2786 0.7408 l
0.2857 0.7359 l
0.2929 0.7309 l
0.3000 0.7258 l
0.3071 0.7206 l
0.3143 0.7152 l
0.3214 0.7098 l
0.3286 0.7043 l
0.3357 0.6987 l
0.3429 0.6930 l
0.3500 0.6872 l
0.3571 0.6812 l
0.3643 0.6752 l
0.3714 0.6692 l
0.3786 0.6630 l
0.3857 0.6567 l
0.3929 0.6504 l
0.4000 0.6440 l
0.4071 0.6375 l
0.4143 0.6309 l
0.4214 0.6243 l
0.4286 0.6176 l
0.4357 0.6109 l
0.4429 0.6040 l
0.4500 0.5972 l
0.4571 0.5902 l
0.4643 0.5833 l
0.4714 0.5763 l
0.4786 0.5692 l
0.4857 0.5621 l
0.4929 0.5550 l
0.5000 0.5478 l
0.5071 0.5406 l
0.5143 0.5334 l
0.5214 0.5262 l
0.5286 0.5190 l
0.5357 0.5118 l
0.5429 0.5045 l
0.5500 0.4973 l
0.5571 0.4901 l
0.5643 0.4829 l
0.5714 0.4757 l
0.5786 0.4685 l
0.5857 0.4614 l
0.5929 0.4543 l
0.6000 0.4472 l
0.6071 0.4402 l
0.6143 0.4332 l
0.6214 0.4263 l
0.6286 0.4194 l
0.6357 0.4127 l
0.6429 0.4059 l
0.6500 0.3993 l
0.6571 0.3928 l
0.6643 0.3863 l
0.6714 0.3800 l
0.6786 0.3738 l
0.6857 0.3676 l
0.6929 0.3616 l
0.7000 0.3557 l
0.7071 0.3500 l
0.7143 0.3444 l
0.7214 0.3389 l
0.7286 0.3336 l
0.7357 0.3285 l
0.7429 0.3235 l
0.7500 0.3187 l
0.7571 0.3141 l
0.7643 0.3097 l
0.7714 0.3055 l
0.7786 0.3014 l
0.7857 0.2976 l
0.7929 0.2941 l
0.8000 0.2907 l
0.8071 0.2876 l
0.8143 0.2847 l
0.8214 0.2821 l
0.8286 0.2798 l
0.8357 0.2777 l
0.8429 0.2759 l
0.8500 0.2744 l
0.8571 0.2732 l
0.8643 0.2723 l
0.8714 0.2717 l
0.8786 0.2714 l
0.8857 0.2715 l
0.8929 0.2719 l
0.9000 0.2726 l
0.9071 0.2737 l
0.9143 0.2752 l
0.9214 0.2771 l
0.9286 0.2793 l
0.9357 0.2820 l
0.9429 0.2850 l
0.9500 0.2885 l
0.9571 0.2924 l
0.9643 0.2967 l
0.9714 0.3015 l
0.9786 0.3067 l
0.9857 0.3124 l
0.9929 0.3186 l
1.0000 0.3252 l
1.0071 0.3324 l
1.0143 0.3400 l
1.0214 0.3482 l
1.0286 0.3569 l
1.0357 0.3661 l
1.0429 0.3759 l
1.0500 0.3863 l
1.0571 0.3972 l
1.0643 0.4087 l
1.0714 0.4208 l
1.0786 0.4335 l
1.0857 0.4468 l
1.0929 0.4607 l
1.1000 0.4753 l
1.1071 0.4905 l
1.1143 0.5064 l
1.1214 0.5229 l
1.1286 0.5401 l
1.1357 0.5581 l
1.1429 0.5767 l
1.1500 0.5960 l
1.1501 0.5963 l
s
[/DeviceRGB] SCS
Color2 SC
[0.0187 0.0112 ] 0 SD
0.0037 SLW
n
0.1499 0.8089 m
0.1500 0.8088 l
0.1571 0.8060 l
0.1643 0.8030 l
0.1714 0.7998 l
0.1786 0.7966 l
0.1857 0.7933 l
0.1929 0.7898 l
0.2000 0.7863 l
0.2071 0.7826 l
0.2143 0.7788 l
0.2214 0.7749 l
0.2286 0.7708 l
0.2357 0.7667 l
0.2429 0.7624 l
0.2500 0.7581 l
0.2571 0.7536 l
0.2643 0.7490 l
0.2714 0.7443 l
0.2786 0.7395 l
0.2857 0.7345 l
0.2929 0.7295 l
0.3000 0.7244 l
0.3071 0.7191 l
0.3143 0.7138 l
0.3214 0.7084 l
0.3286 0.7028 l
0.3357 0.6972 l
0.3429 0.6915 l
0.3500 0.6857 l
0.3571 0.6798 l
0.3643 0.6738 l
0.3714 0.6677 l
0.3786 0.6616 l
0.3857 0.6553 l
0.3929 0.6490 l
0.4000 0.6427 l
0.4071 0.6362 l
0.4143 0.6297 l
0.4214 0.6232 l
0.4286 0.6165 l
0.4357 0.6098 l
0.4429 0.6031 l
0.4500 0.5963 l
0.4571 0.5895 l
0.4643 0.5826 l
0.4714 0.5757 l
0.4786 0.5688 l
0.4857 0.5619 l
0.4929 0.5549 l
0.5000 0.5479 l
0.5071 0.5409 l
0.5143 0.5339 l
0.5214 0.5269 l
0.5286 0.5198 l
0.5357 0.5128 l
0.5429 0.5058 l
0.5500 0.4988 l
0.5571 0.4919 l
0.5643 0.4850 l
0.5714 0.4781 l
0.5786 0.4712 l
0.5857 0.4644 l
0.5929 0.4576 l
0.6000 0.4509 l
0.6071 0.4443 l
0.6143 0.4377 l
0.6214 0.4312 l
0.6286 0.4248 l
0.6357 0.4185 l
0.6429 0.4122 l
0.6500 0.4061 l
0.6571 0.4001 l
0.6643 0.3942 l
0.6714 0.3884 l
0.6786 0.3827 l
0.6857 0.3772 l
0.6929 0.3718 l
0.7000 0.3666 l
0.7071 0.3615 l
0.7143 0.3566 l
0.7214 0.3518 l
0.7286 0.3473 l
0.7357 0.3429 l
0.7429 0.3387 l
0.7500 0.3348 l
0.7571 0.3310 l
0.7643 0.3275 l
0.7714 0.3242 l
0.7786 0.3211 l
0.7857 0.3183 l
0.7929 0.3157 l
0.8000 0.3134 l
0.8071 0.3113 l
0.8143 0.3096 l
0.8214 0.3081 l
0.8286 0.3069 l
0.8357 0.3060 l
0.8429 0.3055 l
0.8500 0.3052 l
0.8571 0.3053 l
0.8643 0.3058 l
0.8714 0.3066 l
0.8786 0.3077 l
0.8857 0.3092 l
0.8929 0.3111 l
0.9000 0.3134 l
0.9071 0.3161 l
0.9143 0.3192 l
0.9214 0.3227 l
0.9286 0.3267 l
0.9357 0.3310 l
0.9429 0.3359 l
0.9500 0.3412 l
0.9571 0.3469 l
0.9643 0.3532 l
0.9714 0.3599 l
0.9786 0.3672 l
0.9857 0.3749 l
0.9929 0.3832 l
1.0000 0.3920 l
1.0071 0.4014 l
1.0143 0.4113 l
1.0214 0.4218 l
1.0286 0.4328 l
1.0357 0.4445 l
1.0429 0.4567 l
1.0500 0.4696 l
1.0571 0.4831 l
1.0643 0.4972 l
1.0714 0.5119 l
1.0786 0.5274 l
1.0857 0.5435 l
1.0929 0.5602 l
1.1000 0.5777 l
1.1071 0.5959 l
1.1143 0.6148 l
1.1214 0.6344 l
1.1286 0.6548 l
1.1357 0.6759 l
1.1429 0.6978 l
1.1500 0.7204 l
1.1501 0.7208 l
s
[/DeviceRGB] SCS
Color4 SC
[0.0037 0.0112 ] 0 SD
0.0037 SLW
n
0.1499 0.8087 m
0.1500 0.8086 l
0.1571 0.8057 l
0.1643 0.8027 l
0.1714 0.7996 l
0.1786 0.7963 l
0.1857 0.7929 l
0.1929 0.7894 l
0.2000 0.7858 l
0.2071 0.7821 l
0.2143 0.7782 l
0.2214 0.7742 l
0.2286 0.7701 l
0.2357 0.7659 l
0.2429 0.7616 l
0.2500 0.7571 l
0.2571 0.7526 l
0.2643 0.7479 l
0.2714 0.7431 l
0.2786 0.7381 l
0.2857 0.7331 l
0.2929 0.7280 l
0.3000 0.7227 l
0.3071 0.7173 l
0.3143 0.7119 l
0.3214 0.7063 l
0.3286 0.7006 l
0.3357 0.6948 l
0.3429 0.6889 l
0.3500 0.6829 l
0.3571 0.6768 l
0.3643 0.6706 l
0.3714 0.6643 l
0.3786 0.6579 l
0.3857 0.6515 l
0.3929 0.6449 l
0.4000 0.6383 l
0.4071 0.6315 l
0.4143 0.6247 l
0.4214 0.6179 l
0.4286 0.6109 l
0.4357 0.6039 l
0.4429 0.5968 l
0.4500 0.5897 l
0.4571 0.5825 l
0.4643 0.5752 l
0.4714 0.5679 l
0.4786 0.5605 l
0.4857 0.5531 l
0.4929 0.5457 l
0.5000 0.5382 l
0.5071 0.5307 l
0.5143 0.5232 l
0.5214 0.5156 l
0.5286 0.5080 l
0.5357 0.5004 l
0.5429 0.4928 l
0.5500 0.4852 l
0.5571 0.4776 l
0.5643 0.4700 l
0.5714 0.4624 l
0.5786 0.4549 l
0.5857 0.4473 l
0.5929 0.4398 l
0.6000 0.4323 l
0.6071 0.4248 l
0.6143 0.4174 l
0.6214 0.4100 l
0.6286 0.4027 l
0.6357 0.3955 l
0.6429 0.3883 l
0.6500 0.3812 l
0.6571 0.3741 l
0.6643 0.3672 l
0.6714 0.3603 l
0.6786 0.3535 l
0.6857 0.3469 l
0.6929 0.3403 l
0.7000 0.3339 l
0.7071 0.3276 l
0.7143 0.3214 l
0.7214 0.3153 l
0.7286 0.3094 l
0.7357 0.3037 l
0.7429 0.2981 l
0.7500 0.2927 l
0.7571 0.2874 l
0.7643 0.2824 l
0.7714 0.2775 l
0.7786 0.2728 l
0.7857 0.2683 l
0.7929 0.2641 l
0.8000 0.2600 l
0.8071 0.2562 l
0.8143 0.2526 l
0.8214 0.2493 l
0.8286 0.2462 l
0.8357 0.2434 l
0.8429 0.2408 l
0.8500 0.2385 l
0.8571 0.2365 l
0.8643 0.2348 l
0.8714 0.2334 l
0.8786 0.2323 l
0.8857 0.2316 l
0.8929 0.2312 l
0.9000 0.2311 l
0.9071 0.2313 l
0.9143 0.2319 l
0.9214 0.2329 l
0.9286 0.2343 l
0.9357 0.2360 l
0.9429 0.2381 l
0.9500 0.2407 l
0.9571 0.2436 l
0.9643 0.2470 l
0.9714 0.2508 l
0.9786 0.2551 l
0.9857 0.2598 l
0.9929 0.2650 l
1.0000 0.2706 l
1.0071 0.2767 l
1.0143 0.2834 l
1.0214 0.2905 l
1.0286 0.2981 l
1.0357 0.3063 l
1.0429 0.3150 l
1.0500 0.3243 l
1.0571 0.3341 l
1.0643 0.3445 l
1.0714 0.3554 l
1.0786 0.3670 l
1.0857 0.3791 l
1.0929 0.3919 l
1.1000 0.4053 l
1.1071 0.4193 l
1.1143 0.4340 l
1.1214 0.4493 l
1.1286 0.4653 l
1.1357 0.4820 l
1.1429 0.4994 l
1.1500 0.5174 l
1.1501 0.5177 l
s
[/DeviceRGB] SCS
Color11 SC
[0.0037 0.0112 0.0187 0.0112 ] 0 SD
0.0037 SLW
n
0.1499 0.8092 m
0.1500 0.8091 l
0.1571 0.8063 l
0.1643 0.8033 l
0.1714 0.8002 l
0.1786 0.7970 l
0.1857 0.7936 l
0.1929 0.7902 l
0.2000 0.7866 l
0.2071 0.7829 l
0.2143 0.7791 l
0.2214 0.7752 l
0.2286 0.7712 l
0.2357 0.7671 l
0.2429 0.7628 l
0.2500 0.7584 l
0.2571 0.7539 l
0.2643 0.7493 l
0.2714 0.7446 l
0.2786 0.7398 l
0.2857 0.7348 l
0.2929 0.7298 l
0.3000 0.7246 l
0.3071 0.7193 l
0.3143 0.7140 l
0.3214 0.7085 l
0.3286 0.7029 l
0.3357 0.6972 l
0.3429 0.6914 l
0.3500 0.6856 l
0.3571 0.6796 l
0.3643 0.6735 l
0.3714 0.6674 l
0.3786 0.6612 l
0.3857 0.6548 l
0.3929 0.6484 l
0.4000 0.6420 l
0.4071 0.6354 l
0.4143 0.6288 l
0.4214 0.6221 l
0.4286 0.6153 l
0.4357 0.6085 l
0.4429 0.6016 l
0.4500 0.5946 l
0.4571 0.5876 l
0.4643 0.5806 l
0.4714 0.5735 l
0.4786 0.5664 l
0.4857 0.5592 l
0.4929 0.5520 l
0.5000 0.5447 l
0.5071 0.5375 l
0.5143 0.5302 l
0.5214 0.5229 l
0.5286 0.5156 l
0.5357 0.5083 l
0.5429 0.5010 l
0.5500 0.4937 l
0.5571 0.4863 l
0.5643 0.4790 l
0.5714 0.4718 l
0.5786 0.4645 l
0.5857 0.4573 l
0.5929 0.4501 l
0.6000 0.4430 l
0.6071 0.4358 l
0.6143 0.4288 l
0.6214 0.4218 l
0.6286 0.4149 l
0.6357 0.4080 l
0.6429 0.4012 l
0.6500 0.3945 l
0.6571 0.3879 l
0.6643 0.3813 l
0.6714 0.3749 l
0.6786 0.3686 l
0.6857 0.3624 l
0.6929 0.3563 l
0.7000 0.3503 l
0.7071 0.3445 l
0.7143 0.3388 l
0.7214 0.3333 l
0.7286 0.3279 l
0.7357 0.3226 l
0.7429 0.3176 l
0.7500 0.3127 l
0.7571 0.3080 l
0.7643 0.3035 l
0.7714 0.2992 l
0.7786 0.2951 l
0.7857 0.2912 l
0.7929 0.2876 l
0.8000 0.2842 l
0.8071 0.2810 l
0.8143 0.2780 l
0.8214 0.2753 l
0.8286 0.2729 l
0.8357 0.2708 l
0.8429 0.2689 l
0.8500 0.2673 l
0.8571 0.2661 l
0.8643 0.2651 l
0.8714 0.2644 l
0.8786 0.2641 l
0.8857 0.2641 l
0.8929 0.2644 l
0.9000 0.2651 l
0.9071 0.2662 l
0.9143 0.2676 l
0.9214 0.2694 l
0.9286 0.2716 l
0.9357 0.2742 l
0.9429 0.2772 l
0.9500 0.2806 l
0.9571 0.2845 l
0.9643 0.2888 l
0.9714 0.2935 l
0.9786 0.2987 l
0.9857 0.3043 l
0.9929 0.3105 l
1.0000 0.3171 l
1.0071 0.3242 l
1.0143 0.3318 l
1.0214 0.3400 l
1.0286 0.3487 l
1.0357 0.3579 l
1.0429 0.3677 l
1.0500 0.3780 l
1.0571 0.3889 l
1.0643 0.4004 l
1.0714 0.4125 l
1.0786 0.4251 l
1.0857 0.4384 l
1.0929 0.4524 l
1.1000 0.4669 l
1.1071 0.4822 l
1.1143 0.4980 l
1.1214 0.5146 l
1.1286 0.5318 l
1.1357 0.5497 l
1.1429 0.5684 l
1.1500 0.5877 l
1.1501 0.5880 l
s
[/DeviceRGB] SCS
Color3 SC
[0.0037 0.0112 0.0187 0.0112 0.0037 0.0112 ] 0 SD
0.0037 SLW
n
0.1499 0.8124 m
0.1500 0.8124 l
0.1571 0.8097 l
0.1643 0.8070 l
0.1714 0.8041 l
0.1786 0.8011 l
0.1857 0.7980 l
0.1929 0.7949 l
0.2000 0.7916 l
0.2071 0.7882 l
0.2143 0.7846 l
0.2214 0.7810 l
0.2286 0.7773 l
0.2357 0.7734 l
0.2429 0.7695 l
0.2500 0.7654 l
0.2571 0.7613 l
0.2643 0.7570 l
0.2714 0.7526 l
0.2786 0.7481 l
0.2857 0.7436 l
0.2929 0.7389 l
0.3000 0.7341 l
0.3071 0.7292 l
0.3143 0.7242 l
0.3214 0.7191 l
0.3286 0.7139 l
0.3357 0.7086 l
0.3429 0.7033 l
0.3500 0.6978 l
0.3571 0.6922 l
0.3643 0.6866 l
0.3714 0.6809 l
0.3786 0.6751 l
0.3857 0.6692 l
0.3929 0.6632 l
0.4000 0.6572 l
0.4071 0.6510 l
0.4143 0.6449 l
0.4214 0.6386 l
0.4286 0.6323 l
0.4357 0.6259 l
0.4429 0.6194 l
0.4500 0.6129 l
0.4571 0.6064 l
0.4643 0.5998 l
0.4714 0.5931 l
0.4786 0.5864 l
0.4857 0.5797 l
0.4929 0.5729 l
0.5000 0.5661 l
0.5071 0.5593 l
0.5143 0.5525 l
0.5214 0.5456 l
0.5286 0.5387 l
0.5357 0.5318 l
0.5429 0.5249 l
0.5500 0.5180 l
0.5571 0.5111 l
0.5643 0.5041 l
0.5714 0.4973 l
0.5786 0.4904 l
0.5857 0.4835 l
0.5929 0.4767 l
0.6000 0.4699 l
0.6071 0.4631 l
0.6143 0.4563 l
0.6214 0.4497 l
0.6286 0.4430 l
0.6357 0.4364 l
0.6429 0.4299 l
0.6500 0.4234 l
0.6571 0.4170 l
0.6643 0.4107 l
0.6714 0.4045 l
0.6786 0.3984 l
0.6857 0.3923 l
0.6929 0.3864 l
0.7000 0.3805 l
0.7071 0.3748 l
0.7143 0.3692 l
0.7214 0.3637 l
0.7286 0.3583 l
0.7357 0.3531 l
0.7429 0.3481 l
0.7500 0.3431 l
0.7571 0.3383 l
0.7643 0.3338 l
0.7714 0.3293 l
0.7786 0.3251 l
0.7857 0.3210 l
0.7929 0.3171 l
0.8000 0.3135 l
0.8071 0.3100 l
0.8143 0.3067 l
0.8214 0.3037 l
0.8286 0.3009 l
0.8357 0.2983 l
0.8429 0.2959 l
0.8500 0.2939 l
0.8571 0.2920 l
0.8643 0.2905 l
0.8714 0.2892 l
0.8786 0.2882 l
0.8857 0.2874 l
0.8929 0.2870 l
0.9000 0.2869 l
0.9071 0.2871 l
0.9143 0.2876 l
0.9214 0.2884 l
0.9286 0.2896 l
0.9357 0.2911 l
0.9429 0.2930 l
0.9500 0.2952 l
0.9571 0.2978 l
0.9643 0.3008 l
0.9714 0.3042 l
0.9786 0.3080 l
0.9857 0.3121 l
0.9929 0.3167 l
1.0000 0.3217 l
1.0071 0.3272 l
1.0143 0.3331 l
1.0214 0.3394 l
1.0286 0.3462 l
1.0357 0.3535 l
1.0429 0.3612 l
1.0500 0.3695 l
1.0571 0.3782 l
1.0643 0.3874 l
1.0714 0.3972 l
1.0786 0.4075 l
1.0857 0.4183 l
1.0929 0.4296 l
1.1000 0.4415 l
1.1071 0.4540 l
1.1143 0.4671 l
1.1214 0.4807 l
1.1286 0.4949 l
1.1357 0.5098 l
1.1429 0.5252 l
1.1500 0.5413 l
1.1501 0.5415 l
s
[/DeviceRGB] SCS
Color8 SC
[0.0187 0.0112 0.0037 0.0112 0.0187 0.0112 ] 0 SD
0.0037 SLW
n
0.1499 0.8151 m
0.1500 0.8151 l
0.1571 0.8126 l
0.1643 0.8100 l
0.1714 0.8074 l
0.1786 0.8046 l
0.1857 0.8017 l
0.1929 0.7987 l
0.2000 0.7956 l
0.2071 0.7924 l
0.2143 0.7891 l
0.2214 0.7856 l
0.2286 0.7821 l
0.2357 0.7785 l
0.2429 0.7748 l
0.2500 0.7709 l
0.2571 0.7670 l
0.2643 0.7629 l
0.2714 0.7587 l
0.2786 0.7545 l
0.2857 0.7501 l
0.2929 0.7456 l
0.3000 0.7411 l
0.3071 0.7364 l
0.3143 0.7316 l
0.3214 0.7267 l
0.3286 0.7217 l
0.3357 0.7167 l
0.3429 0.7115 l
0.3500 0.7062 l
0.3571 0.7009 l
0.3643 0.6954 l
0.3714 0.6898 l
0.3786 0.6842 l
0.3857 0.6785 l
0.3929 0.6727 l
0.4000 0.6668 l
0.4071 0.6608 l
0.4143 0.6547 l
0.4214 0.6486 l
0.4286 0.6423 l
0.4357 0.6361 l
0.4429 0.6297 l
0.4500 0.6233 l
0.4571 0.6167 l
0.4643 0.6102 l
0.4714 0.6035 l
0.4786 0.5969 l
0.4857 0.5901 l
0.4929 0.5833 l
0.5000 0.5765 l
0.5071 0.5695 l
0.5143 0.5626 l
0.5214 0.5556 l
0.5286 0.5486 l
0.5357 0.5415 l
0.5429 0.5344 l
0.5500 0.5273 l
0.5571 0.5201 l
0.5643 0.5130 l
0.5714 0.5058 l
0.5786 0.4986 l
0.5857 0.4913 l
0.5929 0.4841 l
0.6000 0.4769 l
0.6071 0.4697 l
0.6143 0.4624 l
0.6214 0.4552 l
0.6286 0.4480 l
0.6357 0.4408 l
0.6429 0.4337 l
0.6500 0.4265 l
0.6571 0.4194 l
0.6643 0.4123 l
0.6714 0.4053 l
0.6786 0.3983 l
0.6857 0.3913 l
0.6929 0.3844 l
0.7000 0.3776 l
0.7071 0.3708 l
0.7143 0.3641 l
0.7214 0.3575 l
0.7286 0.3509 l
0.7357 0.3444 l
0.7429 0.3381 l
0.7500 0.3318 l
0.7571 0.3255 l
0.7643 0.3195 l
0.7714 0.3135 l
0.7786 0.3076 l
0.7857 0.3018 l
0.7929 0.2962 l
0.8000 0.2907 l
0.8071 0.2853 l
0.8143 0.2801 l
0.8214 0.2750 l
0.8286 0.2701 l
0.8357 0.2653 l
0.8429 0.2607 l
0.8500 0.2563 l
0.8571 0.2520 l
0.8643 0.2480 l
0.8714 0.2441 l
0.8786 0.2404 l
0.8857 0.2369 l
0.8929 0.2336 l
0.9000 0.2305 l
0.9071 0.2277 l
0.9143 0.2251 l
0.9214 0.2227 l
0.9286 0.2205 l
0.9357 0.2186 l
0.9429 0.2170 l
0.9500 0.2156 l
0.9571 0.2145 l
0.9643 0.2136 l
0.9714 0.2131 l
0.9786 0.2128 l
0.9857 0.2128 l
0.9929 0.2131 l
1.0000 0.2137 l
1.0071 0.2147 l
1.0143 0.2159 l
1.0214 0.2175 l
1.0286 0.2194 l
1.0357 0.2217 l
1.0429 0.2243 l
1.0500 0.2273 l
1.0571 0.2306 l
1.0643 0.2343 l
1.0714 0.2384 l
1.0786 0.2429 l
1.0857 0.2478 l
1.0929 0.2531 l
1.1000 0.2588 l
1.1071 0.2649 l
1.1143 0.2714 l
1.1214 0.2784 l
1.1286 0.2858 l
1.1357 0.2937 l
1.1429 0.3020 l
1.1500 0.3108 l
1.1501 0.3109 l
s
[/DeviceRGB] SCS
Color1 SC
[] 0 SD
0.0045 SLW
n
0.1500 0.1500 m
1.1500 0.1500 l
s
n
0.1500 0.8500 m
1.1500 0.8500 l
s
n
0.2214 0.1500 m
0.2214 0.1600 l
s
n
0.2214 0.8500 m
0.2214 0.8400 l
s
n
0.3643 0.1500 m
0.3643 0.1600 l
s
n
0.3643 0.8500 m
0.3643 0.8400 l
s
n
0.5071 0.1500 m
0.5071 0.1600 l
s
n
0.5071 0.8500 m
0.5071 0.8400 l
s
n
0.6500 0.1500 m
0.6500 0.1600 l
s
n
0.6500 0.8500 m
0.6500 0.8400 l
s
n
0.7929 0.1500 m
0.7929 0.1600 l
s
n
0.7929 0.8500 m
0.7929 0.8400 l
s
n
0.9357 0.1500 m
0.9357 0.1600 l
s
n
0.9357 0.8500 m
0.9357 0.8400 l
s
n
1.0786 0.1500 m
1.0786 0.1600 l
s
n
1.0786 0.8500 m
1.0786 0.8400 l
s
n
0.1500 0.1500 m
0.1500 0.1700 l
s
n
0.1500 0.8500 m
0.1500 0.8300 l
s
n
0.2929 0.1500 m
0.2929 0.1700 l
s
n
0.2929 0.8500 m
0.2929 0.8300 l
s
n
0.4357 0.1500 m
0.4357 0.1700 l
s
n
0.4357 0.8500 m
0.4357 0.8300 l
s
n
0.5786 0.1500 m
0.5786 0.1700 l
s
n
0.5786 0.8500 m
0.5786 0.8300 l
s
n
0.7214 0.1500 m
0.7214 0.1700 l
s
n
0.7214 0.8500 m
0.7214 0.8300 l
s
n
0.8643 0.1500 m
0.8643 0.1700 l
s
n
0.8643 0.8500 m
0.8643 0.8300 l
s
n
1.0071 0.1500 m
1.0071 0.1700 l
s
n
1.0071 0.8500 m
1.0071 0.8300 l
s
n
0.1500 0.1500 m
0.1500 0.8500 l
s
n
1.1500 0.1500 m
1.1500 0.8500 l
s
n
0.1500 0.2083 m
0.1600 0.2083 l
s
n
1.1500 0.2083 m
1.1400 0.2083 l
s
n
0.1500 0.3250 m
0.1600 0.3250 l
s
n
1.1500 0.3250 m
1.1400 0.3250 l
s
n
0.1500 0.4417 m
0.1600 0.4417 l
s
n
1.1500 0.4417 m
1.1400 0.4417 l
s
n
0.1500 0.5583 m
0.1600 0.5583 l
s
n
1.1500 0.5583 m
1.1400 0.5583 l
s
n
0.1500 0.6750 m
0.1600 0.6750 l
s
n
1.1500 0.6750 m
1.1400 0.6750 l
s
n
0.1500 0.7917 m
0.1600 0.7917 l
s
n
1.1500 0.7917 m
1.1400 0.7917 l
s
n
0.1500 0.1500 m
0.1700 0.1500 l
s
n
1.1500 0.1500 m
1.1300 0.1500 l
s
n
0.1500 0.2667 m
0.1700 0.2667 l
s
n
1.1500 0.2667 m
1.1300 0.2667 l
s
n
0.1500 0.3833 m
0.1700 0.3833 l
s
n
1.1500 0.3833 m
1.1300 0.3833 l
s
n
0.1500 0.5000 m
0.1700 0.5000 l
s
n
1.1500 0.5000 m
1.1300 0.5000 l
s
n
0.1500 0.6167 m
0.1700 0.6167 l
s
n
1.1500 0.6167 m
1.1300 0.6167 l
s
n
0.1500 0.7333 m
0.1700 0.7333 l
s
n
1.1500 0.7333 m
1.1300 0.7333 l
s
n
0.1500 0.8500 m
0.1700 0.8500 l
s
n
1.1500 0.8500 m
1.1300 0.8500 l
s
/Times-Roman findfont
dup length dict begin
 {1 index /FID ne {def} {pop pop} ifelse} forall
 /Encoding DefEncoding def
 currentdict
end
/Font0 exch definefont pop
/Font0 FFSF
1.1600 0.1351 m
GS
[0.0448 0.0000 0.0000 0.0448 0 0] CC
(-30) show
GR
/Font0 FFSF
1.1600 0.2516 m
GS
[0.0448 0.0000 0.0000 0.0448 0 0] CC
(-25) show
GR
/Font0 FFSF
1.1600 0.3684 m
GS
[0.0448 0.0000 0.0000 0.0448 0 0] CC
(-20) show
GR
/Font0 FFSF
1.1600 0.4849 m
GS
[0.0448 0.0000 0.0000 0.0448 0 0] CC
(-15) show
GR
/Font0 FFSF
1.1600 0.6018 m
GS
[0.0448 0.0000 0.0000 0.0448 0 0] CC
(-10) show
GR
/Font0 FFSF
1.1600 0.7182 m
GS
[0.0448 0.0000 0.0000 0.0448 0 0] CC
(-5) show
GR
/Font0 FFSF
1.1600 0.8351 m
GS
[0.0448 0.0000 0.0000 0.0448 0 0] CC
(0) show
GR
/Font0 FFSF
1.2577 0.4335 m
GS
[0.0000 0.0504 -0.0504 0.0000 0 0] CC
([MeV]) show
GR
[] 0 SD
0.0015 SLW
n
0.1500 0.1500 m
0.1500 0.8500 l
1.1500 0.8500 l
1.1500 0.1500 l
0.1500 0.1500 l
c
s
/Font0 FFSF
0.2000 0.3009 m
GS
[0.0600 0.0000 0.0000 0.0600 0 0] CC
(3) show
GR
/Font0 FFSF
0.2298 0.2500 m
GS
[0.0848 0.0000 0.0000 0.0848 0 0] CC
(S) show
GR
/Font0 FFSF
0.2769 0.2161 m
GS
[0.0600 0.0000 0.0000 0.0600 0 0] CC
(1) show
GR
/Font0 FFSF
0.3067 0.2500 m
GS
[0.0848 0.0000 0.0000 0.0848 0 0] CC
(-) show
GR
/Font0 FFSF
0.3349 0.3009 m
GS
[0.0600 0.0000 0.0000 0.0600 0 0] CC
(3) show
GR
/Font0 FFSF
0.3647 0.2500 m
GS
[0.0848 0.0000 0.0000 0.0848 0 0] CC
(D) show
GR
/Font0 FFSF
0.4259 0.2161 m
GS
[0.0600 0.0000 0.0000 0.0600 0 0] CC
(1) show
GR
showpage
%%PageTrailer
%%Trailer
%%DocumentNeededResources: font Times-Roman
%%EOF
