   1.0000000000000000E-003  0.99688395396558882       0.99692244277458519     
   2.0000000000000000E-003  0.99380631411193565       0.99389223118512515     
   3.0000000000000001E-003  0.99076197048195813       0.99090183236819396     
   4.0000000000000001E-003  0.98774861254215196       0.98794789415994810     
   5.0000000000000001E-003  0.98476469812259326       0.98502821092183346     
   6.0000000000000001E-003  0.98180905531556895       0.98214112885984539     
   7.0000000000000001E-003  0.97888072958985395       0.97928531765950599     
   8.0000000000000002E-003  0.97597890919316499       0.97645965906937859     
   9.0000000000000011E-003  0.97310288334627737       0.97366318446879241     
   1.0000000000000000E-002  0.97025201654563620       0.97089503649820330     
   1.0999999999999999E-002  0.96742573167794021       0.96815444385264438     
   1.2000000000000000E-002  0.96462349834814121       0.96544070386276082     
   1.3000000000000001E-002  0.96184482448241115       0.96275316996780436     
   1.4000000000000000E-002  0.95908925008848178       0.96009124241113653     
   1.4999999999999999E-002  0.95635634249315515       0.95745436114215776     
   1.6000000000000000E-002  0.95364569262426346       0.95484200027826316     
   1.7000000000000001E-002  0.95095691205143063       0.95225366370012499     
   1.8000000000000002E-002  0.94828963059108806       0.94968888148967989     
   1.9000000000000000E-002  0.94564349433961992       0.94714720700747546     
   2.0000000000000000E-002  0.94301816403714567       0.94462821446373635     
   2.1000000000000001E-002  0.94041331369066783       0.94213149687667996     
   2.1999999999999999E-002  0.93782862940351863       0.93965666433880690     
   2.3000000000000000E-002  0.93526380837096046       0.93720334253119997     
   2.4000000000000000E-002  0.93271855801111991       0.93477117143977828     
   2.5000000000000001E-002  0.93019259520727704       0.93235980423770082     
   2.6000000000000002E-002  0.92768564564264211       0.92996890630572127     
   2.7000000000000000E-002  0.92519744321260156       0.92759815436806303     
   2.8000000000000001E-002  0.92272772950236237       0.92524723572578715     
   2.9000000000000001E-002  0.92027625332020724       0.92291584757302614     
   2.9999999999999999E-002  0.91784277027835370       0.92060369638412565     
   3.1000000000000000E-002  0.91542704241481432       0.91831049736183323     
   3.2000000000000001E-002  0.91302883785077871       0.91603597393834879     
   3.3000000000000002E-002  0.91064793047893433       0.91377985732239120     
   3.4000000000000002E-002  0.90828409967887147       0.91154188608652542     
   3.5000000000000003E-002  0.90593713005630916       0.90932180578987909     
   3.6000000000000004E-002  0.90360681120336794       0.90711936863210185     
   3.6999999999999998E-002  0.90129293747751338       0.90493433313502414     
   3.7999999999999999E-002  0.89899530779712766       0.90276646384896697     
   3.9000000000000000E-002  0.89671372545195205       0.90061553108107273     
   4.0000000000000001E-002  0.89444799792686258       0.89848131064337411     
   4.1000000000000002E-002  0.89219793673765668       0.89636358361861646     
   4.2000000000000003E-002  0.88996335727767828       0.89426213614209304     
   4.3000000000000003E-002  0.88774407867426530       0.89217675919797323     
   4.3999999999999997E-002  0.88553992365411471       0.89010724842877731     
   4.4999999999999998E-002  0.88335071841677382       0.88805340395681631     
   4.5999999999999999E-002  0.88117629251554963       0.88601503021654227     
   4.7000000000000000E-002  0.87901647874520861       0.88399193579687529     
   4.8000000000000001E-002  0.87687111303591103       0.88198393329267688     
   4.9000000000000002E-002  0.87474003435287451       0.87999083916462006     
   5.0000000000000003E-002  0.87262308460132121       0.87801247360679147     
   5.1000000000000004E-002  0.87052010853630390       0.87604866042142382     
   5.2000000000000005E-002  0.86843095367704704       0.87409922690021835     
   5.2999999999999999E-002  0.86635547022547388       0.87216400371176783     
   5.3999999999999999E-002  0.86429351098862217       0.87024282479463788     
   5.5000000000000000E-002  0.86224493130467783       0.86833552725570662     
   5.6000000000000001E-002  0.86020958897238120       0.86644195127339541     
   5.7000000000000002E-002  0.85818734418358089       0.86456194000546094     
   5.8000000000000003E-002  0.85617805945873127       0.86269533950104405     
   5.9000000000000004E-002  0.85418159958514694       0.86084199861669775     
   5.9999999999999998E-002  0.85219783155783957       0.85900176893614089     
   6.0999999999999999E-002  0.85022662452278497       0.85717450469350431     
   6.2000000000000000E-002  0.84826784972246827       0.85536006269985565     
   6.3000000000000000E-002  0.84632138044358063       0.85355830227280405     
   6.4000000000000001E-002  0.84438709196673944       0.85176908516900396     
   6.5000000000000002E-002  0.84246486151811917       0.84999227551939094     
   6.6000000000000003E-002  0.84055456822288899       0.84822773976699128     
   6.7000000000000004E-002  0.83865609306035749       0.84647534660716550     
   6.8000000000000005E-002  0.83676931882073424       0.84473496693014671     
   6.9000000000000006E-002  0.83489413006342506       0.84300647376575699     
   7.0000000000000007E-002  0.83303041307677961       0.84128974223017938     
   7.1000000000000008E-002  0.83117805583922200       0.83958464947468403     
   7.2000000000000008E-002  0.82933694798169322       0.83789107463620449     
   7.2999999999999995E-002  0.82750698075134110       0.83620889878967186     
   7.3999999999999996E-002  0.82568804697640164       0.83453800490202157     
   7.4999999999999997E-002  0.82388004103221224       0.83287827778778822     
   7.5999999999999998E-002  0.82208285880830667       0.83122960406621393     
   7.6999999999999999E-002  0.82029639767654106       0.82959187211979812     
   7.8000000000000000E-002  0.81852055646020594       0.82796497205422048     
   7.9000000000000001E-002  0.81675523540408013       0.82634879565957753     
   8.0000000000000002E-002  0.81500033614538681       0.82474323637286728     
   8.1000000000000003E-002  0.81325576168561087       0.82314818924167377     
   8.2000000000000003E-002  0.81152141636314490       0.82156355088899125     
   8.3000000000000004E-002  0.80979720582672499       0.81998921947914527     
   8.4000000000000005E-002  0.80808303700962780       0.81842509468475844     
   8.5000000000000006E-002  0.80637881810459766       0.81687107765472000     
   8.6000000000000007E-002  0.80468445853947168       0.81532707098311730     
   8.7000000000000008E-002  0.80299986895347952       0.81379297867908684     
   8.7999999999999995E-002  0.80132496117418950       0.81226870613755142     
   8.8999999999999996E-002  0.79965964819507696       0.81075416011080559     
   8.9999999999999997E-002  0.79800384415369108       0.80924924868091619     
   9.0999999999999998E-002  0.79635746431039800       0.80775388123290637     
   9.1999999999999998E-002  0.79472042502768092       0.80626796842869330     
   9.2999999999999999E-002  0.79309264374997346       0.80479142218175037     
   9.4000000000000000E-002  0.79147403898401014       0.80332415563246629     
   9.5000000000000001E-002  0.78986453027967529       0.80186608312417673     
   9.6000000000000002E-002  0.78826403821133129       0.80041712017984079     
   9.7000000000000003E-002  0.78667248435961157       0.79897718347934277     
   9.8000000000000004E-002  0.78508979129366174       0.79754619083739264     
   9.9000000000000005E-002  0.78351588255381377       0.79612406118200840     
  0.10000000000000001       0.78195068263467826       0.79471071453355513     
  0.10100000000000001       0.78039411696864247       0.79330607198432501     
  0.10200000000000001       0.77884611190975894       0.79191005567863770     
  0.10300000000000001       0.77730659471801400       0.79052258879344472     
  0.10400000000000001       0.77577549354396291       0.78914359551941982     
  0.10500000000000000       0.77425273741372036       0.78777300104251935     
  0.10600000000000000       0.77273825621429459       0.78641073152599683     
  0.10700000000000000       0.77123198067925669       0.78505671409285815     
  0.10800000000000000       0.76973384237473164       0.78371087680874152     
  0.10900000000000000       0.76824377368570407       0.78237314866520924     
  0.11000000000000000       0.76676170780262720       0.78104345956343890     
  0.11100000000000000       0.76528757870832820       0.77972174029829933     
  0.11200000000000000       0.76382132116519896       0.77840792254280233     
  0.11300000000000000       0.76236287070266540       0.77710193883291567     
  0.11400000000000000       0.76091216360492664       0.77580372255272845     
  0.11500000000000000       0.75946913689895690       0.77451320791995626     
  0.11600000000000001       0.75803372834276184       0.77323032997177810     
  0.11700000000000001       0.75660587641388277       0.77195502455099207     
  0.11800000000000001       0.75518552029814190       0.77068722829248515     
  0.11900000000000001       0.75377259987862144       0.76942687861000170     
  0.12000000000000000       0.75236705572487050       0.76817391368320764     
  0.12100000000000000       0.75096882908233376       0.76692827244503869     
  0.12200000000000000       0.74957786186199515       0.76568989456932468     
  0.12300000000000000       0.74819409663023184       0.76445872045868335     
  0.12400000000000000       0.74681747659887299       0.76323469123267540     
  0.12500000000000000       0.74544794561545535       0.76201774871621286     
  0.12600000000000000       0.74408544815367494       0.76080783542821473     
  0.12700000000000000       0.74272992930402615       0.75960489457050329     
  0.12800000000000000       0.74138133476462431       0.75840887001693247     
  0.12900000000000000       0.74003961083220859       0.75721970630274460     
  0.13000000000000000       0.73870470439331770       0.75603734861414840     
  0.13100000000000001       0.73737656291563813       0.75486174277811102     
  0.13200000000000001       0.73605513443951553       0.75369283525236042     
  0.13300000000000001       0.73474036756963068       0.75253057311559157     
  0.13400000000000001       0.73343221146683080       0.75137490405787122     
  0.13500000000000001       0.73213061584011674       0.75022577637123578     
  0.13600000000000001       0.73083553093877962       0.74908313894047873     
  0.13700000000000001       0.72954690754468365       0.74794694123411998     
  0.13800000000000001       0.72826469696469265       0.74681713329555599     
  0.13900000000000001       0.72698885102323674       0.74569366573438300     
  0.14000000000000001       0.72571932205501388       0.74457648971789125     
  0.14100000000000001       0.72445606289782627       0.74346555696272421     
  0.14200000000000002       0.72319902688554527       0.74236081972670043     
  0.14300000000000002       0.72194816784120530       0.74126223080079201     
  0.14400000000000002       0.72070344007021947       0.74016974350125853     
  0.14499999999999999       0.71946479835371924       0.73908331166192909     
  0.14599999999999999       0.71823219794200988       0.73800288962663274     
  0.14699999999999999       0.71700559454814361       0.73692843224177051     
  0.14799999999999999       0.71578494434160556       0.73585989484902814     
  0.14899999999999999       0.71457020394211035       0.73479723327822399     
  0.14999999999999999       0.71336133041350669       0.73374040384029093     
  0.15100000000000000       0.71215828125778791       0.73268936332038737     
  0.15200000000000000       0.71096101440920700       0.73164406897113587     
  0.15300000000000000       0.70976948822849073       0.73060447850598509     
  0.15400000000000000       0.70858366149715535       0.72957055009269345     
  0.15500000000000000       0.70740349341191811       0.72854224234693010     
  0.15600000000000000       0.70622894357920241       0.72751951432599304     
  0.15700000000000000       0.70505997200973825       0.72650232552263883     
  0.15800000000000000       0.70389653911325201       0.72549063585902340     
  0.15900000000000000       0.70273860569324453       0.72448440568075057     
  0.16000000000000000       0.70158613294185812       0.72348359575102683     
  0.16100000000000000       0.70043908243482733       0.72248816724491793     
  0.16200000000000001       0.69929741612651408       0.72149808174370811     
  0.16300000000000001       0.69816109634502332       0.72051330122935642     
  0.16400000000000001       0.69703008578740022       0.71953378807905111     
  0.16500000000000001       0.69590434751490493       0.71855950505985755     
  0.16600000000000001       0.69478384494836420       0.71759041532345835     
  0.16700000000000001       0.69366854186359861       0.71662648240098503     
  0.16800000000000001       0.69255840238692279       0.71566767019793731     
  0.16900000000000001       0.69145339099071901       0.71471394298918911     
  0.17000000000000001       0.69035347248908052       0.71376526541407981     
  0.17100000000000001       0.68925861203352479       0.71282160247158732     
  0.17200000000000001       0.68816877510877505       0.71188291951558458     
  0.17300000000000001       0.68708392752860759       0.71094918225017312     
  0.17400000000000002       0.68600403543176558       0.71002035672509645     
  0.17500000000000002       0.68492906527793607       0.70909640933122819     
  0.17599999999999999       0.68385898384379040       0.70817730679613666     
  0.17699999999999999       0.68279375821908561       0.70726301617972098     
  0.17799999999999999       0.68173335580282746       0.70635350486991977     
  0.17899999999999999       0.68067774429949113       0.70544874057849005     
  0.17999999999999999       0.67962689171530177       0.70454869133685472     
  0.18099999999999999       0.67858076635457021       0.70365332549201742     
  0.18200000000000000       0.67753933681608702       0.70276261170254373     
  0.18300000000000000       0.67650257198956865       0.70187651893460723     
  0.18400000000000000       0.67547044105216003       0.70099501645809814     
  0.18500000000000000       0.67444291346498875       0.70011807384279601     
  0.18600000000000000       0.67341995896977058       0.69924566095460094     
  0.18700000000000000       0.67240154758546755       0.69837774795182650     
  0.18800000000000000       0.67138764960499464       0.69751430528155134     
  0.18900000000000000       0.67037823559197596       0.69665530367602635     
  0.19000000000000000       0.66937327637754929       0.69580071414914046     
  0.19100000000000000       0.66837274305721750       0.69495050799294067     
  0.19200000000000000       0.66737660698774726       0.69410465677420541     
  0.19300000000000000       0.66638483978411167       0.69326313233107362     
  0.19400000000000001       0.66539741331647961       0.69242590676972371     
  0.19500000000000001       0.66441429970724741       0.69159295246110386     
  0.19600000000000001       0.66343547132811498       0.69076424203771436     
  0.19700000000000001       0.66246090079720377       0.68993974839043704     
  0.19800000000000001       0.66149056097621539       0.68911944466541475     
  0.19900000000000001       0.66052442496763364       0.68830330426097719     
  0.20000000000000001       0.65956246611196390       0.68749130082461363     
  0.20100000000000001       0.65860465798501400       0.68668340824999163     
  0.20200000000000001       0.65765097439521314       0.68587960067402043     
  0.20300000000000001       0.65670138938096856       0.68507985247395820     
  0.20400000000000001       0.65575587720806072       0.68428413826456269     
  0.20500000000000002       0.65481441236707438       0.68349243289528439     
  0.20600000000000002       0.65387696957086583       0.68270471144750111     
  0.20700000000000002       0.65294352375206655       0.68192094923179425     
  0.20800000000000002       0.65201405006062074       0.68114112178526365     
  0.20899999999999999       0.65108852386135807       0.68036520486888374     
  0.20999999999999999       0.65016692073159965       0.67959317446489698     
  0.21099999999999999       0.64924921645879707       0.67882500677424695     
  0.21199999999999999       0.64833538703820515       0.67806067821404659     
  0.21299999999999999       0.64742540867058529       0.67730016541508531     
  0.21400000000000000       0.64651925775994123       0.67654344521937126     
  0.21500000000000000       0.64561691091128570       0.67579049467770858     
  0.21600000000000000       0.64471834492843783       0.67504129104731037     
  0.21700000000000000       0.64382353681184956       0.67429581178944542     
  0.21800000000000000       0.64293246375646318       0.67355403456711860     
  0.21900000000000000       0.64204510314959606       0.67281593724278421     
  0.22000000000000000       0.64116143256885549       0.67208149787609162     
  0.22100000000000000       0.64028142978008007       0.67135069472166364     
  0.22200000000000000       0.63940507273531122       0.67062350622690559     
  0.22300000000000000       0.63853233957078770       0.66989991102984459     
  0.22400000000000000       0.63766320860497172       0.66917988795700067     
  0.22500000000000001       0.63679765833659752       0.66846341602128623     
  0.22600000000000001       0.63593566744274799       0.66775047441993574     
  0.22700000000000001       0.63507721477695522       0.66704104253246366     
  0.22800000000000001       0.63422227936732767       0.66633509991865081     
  0.22900000000000001       0.63337084041470093       0.66563262631655873     
  0.23000000000000001       0.63252287729081291       0.66493360164057103     
  0.23100000000000001       0.63167836953650269       0.66423800597946236     
  0.23200000000000001       0.63083729685993395       0.66354581959449277     
  0.23300000000000001       0.62999963913483981       0.66285702291752924     
  0.23400000000000001       0.62916537639879233       0.66217159654919167     
  0.23500000000000001       0.62833448885149223       0.66148952125702487     
  0.23600000000000002       0.62750695685308266       0.66081077797369525     
  0.23700000000000002       0.62668276092248421       0.66013534779521132     
  0.23800000000000002       0.62586188173574964       0.65946321197916868     
  0.23900000000000002       0.62504430012444212       0.65879435194301816     
  0.23999999999999999       0.62422999707403237       0.65812874926235787     
  0.24099999999999999       0.62341895372231770       0.65746638566924676     
  0.24199999999999999       0.62261115135785894       0.65680724305054194     
  0.24299999999999999       0.62180657141843965       0.65615130344625772     
  0.24399999999999999       0.62100519548954281       0.65549854904794558     
  0.24500000000000000       0.62020700530284811       0.65484896219709676     
  0.24600000000000000       0.61941198273474729       0.65420252538356527     
  0.24700000000000000       0.61862010980487836       0.65355922124401122     
  0.24800000000000000       0.61783136867467781       0.65291903256036521     
  0.24900000000000000       0.61704574164595194       0.65228194225831249     
  0.25000000000000000       0.61626321115946348       0.65164793340579719     
  0.25100000000000000       0.61548375979353986       0.65101698921154527     
  0.25200000000000000       0.61470737026269440       0.65038909302360715     
  0.25300000000000000       0.61393402541626663       0.64976422832791958     
  0.25400000000000000       0.61316370823707977       0.64914237874688485     
  0.25500000000000000       0.61239640184011379       0.64852352803796898     
  0.25600000000000001       0.61163208947119430       0.64790766009231882     
  0.25700000000000001       0.61087075450569894       0.64729475893339450     
  0.25800000000000001       0.61011238044727845       0.64668480871562206     
  0.25900000000000001       0.60935695092659292       0.64607779372306073     
  0.26000000000000001       0.60860444970006500       0.64547369836808932     
  0.26100000000000001       0.60785486064864636       0.64487250719010725     
  0.26200000000000001       0.60710816777660026       0.64427420485425357     
  0.26300000000000001       0.60636435521029830       0.64367877615014124     
  0.26400000000000001       0.60562340719703156       0.64308620599060751     
  0.26500000000000001       0.60488530810383567       0.64249647941048038     
  0.26600000000000001       0.60415004241633141       0.64190958156535916     
  0.26700000000000002       0.60341759473757728       0.64132549773041270     
  0.26800000000000002       0.60268794978693641       0.64074421329918951     
  0.26900000000000002       0.60196109239895779       0.64016571378244502     
  0.27000000000000002       0.60123700752226894       0.63958998480698270     
  0.27100000000000002       0.60051568021848312       0.63901701211450834     
  0.27200000000000002       0.59979709566111961       0.63844678156050061     
  0.27300000000000002       0.59908123913453482       0.63787927911309350     
  0.27400000000000002       0.59836809603286822       0.63731449085197378     
  0.27500000000000002       0.59765765185899855       0.63675240296729030     
  0.27600000000000002       0.59694989222351413       0.63619300175858007     
  0.27700000000000002       0.59624480284369363       0.63563627363370201     
  0.27800000000000002       0.59554236954249962       0.63508220510778945     
  0.27900000000000003       0.59484257824758247       0.63453078280221065     
  0.28000000000000003       0.59414541499029871       0.63398199344354500     
  0.28100000000000003       0.59345086590473661       0.63343582386256991     
  0.28200000000000003       0.59275891722675611       0.63289226099325979     
  0.28300000000000003       0.59206955529303917       0.63235129187179895     
  0.28400000000000003       0.59138276654014954       0.63181290363560350     
  0.28500000000000003       0.59069853750360501       0.63127708352235734     
  0.28600000000000003       0.59001685481695942       0.63074381886905828     
  0.28700000000000003       0.58933770521089557       0.63021309711107631     
  0.28800000000000003       0.58866107551232738       0.62968490578122183     
  0.28899999999999998       0.58798695264351397       0.62915923250882677     
  0.28999999999999998       0.58731532362118155       0.62863606501883451     
  0.29099999999999998       0.58664617555565746       0.62811539113090231     
  0.29199999999999998       0.58597949565001284       0.62759719875851339     
  0.29299999999999998       0.58531527119921378       0.62708147590809848     
  0.29399999999999998       0.58465348958928520       0.62656821067817059     
  0.29499999999999998       0.58399413829648006       0.62605739125846604     
  0.29599999999999999       0.58333720488646146       0.62554900592909934     
  0.29699999999999999       0.58268267701349097       0.62504304305972402     
  0.29799999999999999       0.58203054241962882       0.62453949110870677     
  0.29899999999999999       0.58138078893393941       0.62403833862230929     
  0.29999999999999999       0.58073340447170907       0.62353957423387862     
  0.30099999999999999       0.58008837703367078       0.62304318666304992     
  0.30199999999999999       0.57944569470523688       0.62254916471495481     
  0.30299999999999999       0.57880534565574193       0.62205749727944182     
  0.30399999999999999       0.57816731813769173       0.62156817333030345     
  0.30499999999999999       0.57753160048602326       0.62108118192451389     
  0.30599999999999999       0.57689818111736924       0.62059651220147372     
  0.30700000000000000       0.57626704852933475       0.62011415338226517     
  0.30800000000000000       0.57563819129977778       0.61963409476891362     
  0.30900000000000000       0.57501159808610047       0.61915632574365953     
  0.31000000000000000       0.57438725762454668       0.61868083576823696     
  0.31100000000000000       0.57376515872950706       0.61820761438316152     
  0.31200000000000000       0.57314529029283245       0.61773665120702492     
  0.31300000000000000       0.57252764128315448       0.61726793593579954     
  0.31400000000000000       0.57191220074521187       0.61680145834214839     
  0.31500000000000000       0.57129895779918705       0.61633720827474403     
  0.31600000000000000       0.57068790164004679       0.61587517565759609     
  0.31700000000000000       0.57007902153689116       0.61541535048938367     
  0.31800000000000000       0.56947230683231065       0.61495772284279737     
  0.31900000000000001       0.56886774694174758       0.61450228286388864     
  0.32000000000000001       0.56826533135286605       0.61404902077142409     
  0.32100000000000001       0.56766504962492847       0.61359792685624970     
  0.32200000000000001       0.56706689138817801       0.61314899148066027     
  0.32300000000000001       0.56647084634322786       0.61270220507777662     
  0.32400000000000001       0.56587690426045667       0.61225755815092864     
  0.32500000000000001       0.56528505497941139       0.61181504127304731     
  0.32600000000000001       0.56469528840821492       0.61137464508605988     
  0.32700000000000001       0.56410759452298076       0.61093636030029552     
  0.32800000000000001       0.56352196336723370       0.61050017769389442     
  0.32900000000000001       0.56293838505133642       0.61006608811222440     
  0.33000000000000002       0.56235684975192224       0.60963408246730555     
  0.33100000000000002       0.56177734771133314       0.60920415173723708     
  0.33200000000000002       0.56119986923706500       0.60877628696563435     
  0.33300000000000002       0.56062440470121644       0.60835047926107033     
  0.33400000000000002       0.56005094453994575       0.60792671979652269     
  0.33500000000000002       0.55947947925293151       0.60750499980882700     
  0.33600000000000002       0.55890999940283970       0.60708531059813731     
  0.33700000000000002       0.55834249561479554       0.60666764352738944     
  0.33800000000000002       0.55777695857586240       0.60625199002177399     
  0.33900000000000002       0.55721337903452339       0.60583834156821115     
  0.34000000000000002       0.55665174780017102       0.60542668971483338     
  0.34100000000000003       0.55609205574260001       0.60501702607047314     
  0.34200000000000003       0.55553429379150587       0.60460934230415564     
  0.34300000000000003       0.55497845293598969       0.60420363014459766     
  0.34400000000000003       0.55442452422406507       0.60379988137971019     
  0.34500000000000003       0.55387249876217448       0.60339808785610904     
  0.34600000000000003       0.55332236771470522       0.60299824147862724     
  0.34700000000000003       0.55277412230351486       0.60260033420983539     
  0.34800000000000003       0.55222775380745881       0.60220435806956574     
  0.34900000000000003       0.55168325356192305       0.60181030513444056     
  0.35000000000000003       0.55114061295836247       0.60141816753740773     
  0.35100000000000003       0.55059982344384262       0.60102793746727845     
  0.35199999999999998       0.55006087652058722       0.60063960716827158     
  0.35299999999999998       0.54952376374552847       0.60025316893956282     
  0.35399999999999998       0.54898847672986406       0.59986861513483702     
  0.35499999999999998       0.54845500713861695       0.59948593816184614     
  0.35599999999999998       0.54792334669019938       0.59910513048197278     
  0.35699999999999998       0.54739348715598268       0.59872618460979565     
  0.35799999999999998       0.54686542035986974       0.59834909311266227     
  0.35899999999999999       0.54633913817787294       0.59797384861026392     
  0.35999999999999999       0.54581463253769502       0.59760044377421662     
  0.36099999999999999       0.54529189541831480       0.59722887132764491     
  0.36199999999999999       0.54477091884957718       0.59685912404477115     
  0.36299999999999999       0.54425169491178660       0.59649119475050860     
  0.36399999999999999       0.54373421573530412       0.59612507632005762     
  0.36499999999999999       0.54321847350014996       0.59576076167850822     
  0.36599999999999999       0.54270446043560816       0.59539824380044426     
  0.36699999999999999       0.54219216881983623       0.59503751570955332     
  0.36799999999999999       0.54168159097947732       0.59467857047824002     
  0.36899999999999999       0.54117271928927835       0.59432140122724220     
  0.37000000000000000       0.54066554617170892       0.59396600112525377     
  0.37100000000000000       0.54016006409658668       0.59361236338854784     
  0.37200000000000000       0.53965626558070445       0.59326048128060604     
  0.37300000000000000       0.53915414318746124       0.59291034811175136     
  0.37400000000000000       0.53865368952649784       0.59256195723878291     
  0.37500000000000000       0.53815489725333387       0.59221530206461737     
  0.37600000000000000       0.53765775906901137       0.59187037603793080     
  0.37700000000000000       0.53716226771973818       0.59152717265280619     
  0.37800000000000000       0.53666841599653714       0.59118568544838368     
  0.37900000000000000       0.53617619673489847       0.59084590800851489     
  0.38000000000000000       0.53568560281443411       0.59050783396141904     
  0.38100000000000001       0.53519662715853666       0.59017145697934537     
  0.38200000000000001       0.53470926273404085       0.58983677077823571     
  0.38300000000000001       0.53422350255088868       0.58950376911739266     
  0.38400000000000001       0.53373933966179654       0.58917244579915018     
  0.38500000000000001       0.53325676716192771       0.58884279466854728     
  0.38600000000000001       0.53277577818856536       0.58851480961300540     
  0.38700000000000001       0.53229636592079033       0.58818848456200867     
  0.38800000000000001       0.53181852357916126       0.58786381348678762     
  0.38900000000000001       0.53134224442539824       0.58754079040000495     
  0.39000000000000001       0.53086752176206786       0.58721940935544625     
  0.39100000000000001       0.53039434893227400       0.58689966444771158     
  0.39200000000000002       0.52992271931934831       0.58658154981191202     
  0.39300000000000002       0.52945262634654622       0.58626505962336817     
  0.39400000000000002       0.52898406347674343       0.58595018809731070     
  0.39500000000000002       0.52851702421213775       0.58563692948858637     
  0.39600000000000002       0.52805150209395102       0.58532527809136436     
  0.39700000000000002       0.52758749070213606       0.58501522823884677     
  0.39800000000000002       0.52712498365508464       0.58470677430298124     
  0.39900000000000002       0.52666397460933945       0.58439991069417752     
  0.40000000000000002       0.52620445725930731       0.58409463186102450     
  0.40100000000000002       0.52574642533697657       0.58379093229001322     
  0.40200000000000002       0.52528987261163551       0.58348880650525936     
  0.40300000000000002       0.52483479288959467       0.58318824906823052     
  0.40400000000000003       0.52438118001391054       0.58288925457747487     
  0.40500000000000003       0.52392902786411355       0.58259181766835344     
  0.40600000000000003       0.52347833035593538       0.58229593301277394     
  0.40700000000000003       0.52302908144104232       0.58200159531892803     
  0.40800000000000003       0.52258127510676855       0.58170879933103048     
  0.40900000000000003       0.52213490537585316       0.58141753982906097     
  0.41000000000000003       0.52168996630617825       0.58112781162850857     
  0.41100000000000003       0.52124645199051112       0.58083960958011838     
  0.41200000000000003       0.52080435655624713       0.58055292856964102     
  0.41300000000000003       0.52036367416515572       0.58026776351758336     
  0.41400000000000003       0.51992439901312903       0.57998410937896316     
  0.41500000000000004       0.51948652532993178       0.57970196114306505     
  0.41600000000000004       0.51905004737895311       0.57942131383319895     
  0.41699999999999998       0.51861495945696368       0.57914216250646056     
  0.41799999999999998       0.51818125589386999       0.57886450225349551     
  0.41899999999999998       0.51774893105247521       0.57858832819826322     
  0.41999999999999998       0.51731797932824009       0.57831363549780546     
  0.42099999999999999       0.51688839514904605       0.57804041934201511     
  0.42199999999999999       0.51646017297496094       0.57776867495340889     
  0.42299999999999999       0.51603330729800656       0.57749839758690069     
  0.42399999999999999       0.51560779264192791       0.57722958252957768     
  0.42499999999999999       0.51518362356196534       0.57696222510047879     
  0.42599999999999999       0.51476079464462787       0.57669632065037491     
  0.42699999999999999       0.51433930050746868       0.57643186456155071     
  0.42799999999999999       0.51391913579886306       0.57616885224758940     
  0.42899999999999999       0.51350029519778750       0.57590727915315876     
  0.42999999999999999       0.51308277341360131       0.57564714075380008     
  0.43099999999999999       0.51266656518583009       0.57538843255571692     
  0.43200000000000000       0.51225166528395061       0.57513115009556948     
  0.43300000000000000       0.51183806850717828       0.57487528894026652     
  0.43400000000000000       0.51142576968425579       0.57462084468676322     
  0.43500000000000000       0.51101476367324383       0.57436781296185779     
  0.43600000000000000       0.51060504536131368       0.57411618942199205     
  0.43700000000000000       0.51019660966454239       0.57386596975305249     
  0.43800000000000000       0.50978945152770705       0.57361714967017396     
  0.43900000000000000       0.50938356592408451       0.57336972491754556     
  0.44000000000000000       0.50897894785525000       0.57312369126821605     
  0.44100000000000000       0.50857559235087890       0.57287904452390470     
  0.44200000000000000       0.50817349446854898       0.57263578051481012     
  0.44300000000000000       0.50777264929354637       0.57239389509942362     
  0.44400000000000001       0.50737305193867099       0.57215338416434314     
  0.44500000000000001       0.50697469754404445       0.57191424362408816     
  0.44600000000000001       0.50657758127692076       0.57167646942091832     
  0.44700000000000001       0.50618169833149629       0.57144005752465132     
  0.44800000000000001       0.50578704392872376       0.57120500393248452     
  0.44900000000000001       0.50539361331612587       0.57097130466881696     
  0.45000000000000001       0.50500140176761177       0.57073895578507305     
  0.45100000000000001       0.50461040458329443       0.57050795335952875     
  0.45200000000000001       0.50422061708931010       0.57027829349713821     
  0.45300000000000001       0.50383203463763848       0.57004997232936283     
  0.45400000000000001       0.50344465260592530       0.56982298601400094     
  0.45500000000000002       0.50305846639730534       0.56959733073502095     
  0.45600000000000002       0.50267347144022823       0.56937300270239288     
  0.45700000000000002       0.50228966318828494       0.56914999815192457     
  0.45800000000000002       0.50190703712003493       0.56892831334509752     
  0.45900000000000002       0.50152558873883690       0.56870794456890483     
  0.46000000000000002       0.50114531357267866       0.56848888813568987     
  0.46100000000000002       0.50076620717401021       0.56827114038298854     
  0.46200000000000002       0.50038826511957635       0.56805469767336958     
  0.46300000000000002       0.50001148301025322       0.56783955639427919     
  0.46400000000000002       0.49963585647088304       0.56762571295788589     
  0.46500000000000002       0.49926138115011331       0.56741316380092710     
  0.46600000000000003       0.49888805272023534       0.56720190538455628     
  0.46700000000000003       0.49851586687702421       0.56699193419419247     
  0.46800000000000003       0.49814481933958155       0.56678324673937086     
  0.46900000000000003       0.49777490585017747       0.56657583955359425     
  0.47000000000000003       0.49740612217409613       0.56636970919418694     
  0.47100000000000003       0.49703846409948022       0.56616485224214774     
  0.47200000000000003       0.49667192743717825       0.56596126530200785     
  0.47300000000000003       0.49630650802059334       0.56575894500168589     
  0.47400000000000003       0.49594220170553122       0.56555788799234741     
  0.47500000000000003       0.49557900437005215       0.56535809094826373     
  0.47600000000000003       0.49521691191432171       0.56515955056667400     
  0.47700000000000004       0.49485592026046477       0.56496226356764601     
  0.47800000000000004       0.49449602535241871       0.56476622669393983     
  0.47900000000000004       0.49413722315578956       0.56457143671087306     
  0.47999999999999998       0.49377950965770839       0.56437789040618558     
  0.48099999999999998       0.49342288086668851       0.56418558458990742     
  0.48199999999999998       0.49306733281248510       0.56399451609422591     
  0.48299999999999998       0.49271286154595462       0.56380468177335596     
  0.48399999999999999       0.49235946313891632       0.56361607850340978     
  0.48499999999999999       0.49200713368401394       0.56342870318226879     
  0.48599999999999999       0.49165586929458011       0.56324255272945678     
  0.48699999999999999       0.49130566610449927       0.56305762408601245     
  0.48799999999999999       0.49095652026807463       0.56287391421436617     
  0.48899999999999999       0.49060842795989396       0.56269142009821482     
  0.48999999999999999       0.49026138537469716       0.56251013874239975     
  0.49099999999999999       0.48991538872724555       0.56233006717278422     
  0.49199999999999999       0.48957043425219138       0.56215120243613392     
  0.49299999999999999       0.48922651820394830       0.56197354159999657     
  0.49399999999999999       0.48888363685656344       0.56179708175258336     
  0.49500000000000000       0.48854178650359037       0.56162182000265204     
  0.49600000000000000       0.48820096345796271       0.56144775347939047     
  0.49700000000000000       0.48786116405186902       0.56127487933230069     
  0.49800000000000000       0.48752238463662873       0.56110319473108528     
  0.49900000000000000       0.48718462158256831       0.56093269686553360     
  0.50000000000000000       0.48684787127890039       0.56076338294540906     
  0.50100000000000000       0.48651213013360106       0.56059525020033873     
  0.50200000000000000       0.48617739457329007       0.56042829587970244     
  0.50300000000000000       0.48584366104311194       0.56026251725252341     
  0.50400000000000000       0.48551092600661666       0.56009791160735944     
  0.50500000000000000       0.48517918594564252       0.55993447625219672     
  0.50600000000000001       0.48484843736019989       0.55977220851434129     
  0.50700000000000001       0.48451867676835497       0.55961110574031603     
  0.50800000000000001       0.48418990070611467       0.55945116529575378     
  0.50900000000000001       0.48386210572731431       0.55929238456529451     
  0.51000000000000001       0.48353528840350252       0.55913476095248305     
  0.51100000000000001       0.48320944532383026       0.55897829187966630     
  0.51200000000000001       0.48288457309493971       0.55882297478789289     
  0.51300000000000001       0.48256066834085293       0.55866880713681255     
  0.51400000000000001       0.48223772770286288       0.55851578640457744     
  0.51500000000000001       0.48191574783942503       0.55836391008774344     
  0.51600000000000001       0.48159472542604853       0.55821317570117346     
  0.51700000000000002       0.48127465715518986       0.55806358077793927     
  0.51800000000000002       0.48095553973614641       0.55791512286922729     
  0.51900000000000002       0.48063736989495082       0.55776779954424338     
  0.52000000000000002       0.48032014437426673       0.55762160839011843     
  0.52100000000000002       0.48000385993328487       0.55747654701181504     
  0.52200000000000002       0.47968851334761942       0.55733261303203552     
  0.52300000000000002       0.47937410140920661       0.55718980409113061     
  0.52400000000000002       0.47906062092620300       0.55704811784700770     
  0.52500000000000002       0.47874806872288456       0.55690755197504205     
  0.52600000000000002       0.47843644163954646       0.55676810416798661     
  0.52700000000000002       0.47812573653240475       0.55662977213588449     
  0.52800000000000002       0.47781595027349744       0.55649255360598093     
  0.52900000000000003       0.47750707975058648       0.55635644632263703     
  0.53000000000000003       0.47719912186706154       0.55622144804724249     
  0.53100000000000003       0.47689207354184315       0.55608755655813191     
  0.53200000000000003       0.47658593170928726       0.55595476965049939     
  0.53300000000000003       0.47628069331909118       0.55582308513631495     
  0.53400000000000003       0.47597635533619886       0.55569250084424182     
  0.53500000000000003       0.47567291474070733       0.55556301461955326     
  0.53600000000000003       0.47537036852777470       0.55543462432405233     
  0.53700000000000003       0.47506871370752790       0.55530732783599013     
  0.53800000000000003       0.47476794730497140       0.55518112304998690     
  0.53900000000000003       0.47446806635989608       0.55505600787695097     
  0.54000000000000004       0.47416906792679059       0.55493198024400081     
  0.54100000000000004       0.47387094907475080       0.55480903809438842     
  0.54200000000000004       0.47357370688739192       0.55468717938742018     
  0.54300000000000004       0.47327733846276043       0.55456640209838115     
  0.54400000000000004       0.47298184091324658       0.55444670421845921     
  0.54500000000000004       0.47268721136549796       0.55432808375467046     
  0.54600000000000004       0.47239344696033359       0.55421053872978299     
  0.54700000000000004       0.47210054485265857       0.55409406718224508     
  0.54800000000000004       0.47180850221137866       0.55397866716611111     
  0.54900000000000004       0.47151731621931731       0.55386433675096836     
  0.55000000000000004       0.47122698407313113       0.55375107402186685     
  0.55100000000000005       0.47093750298322812       0.55363887707924675     
  0.55200000000000005       0.47064887017368406       0.55352774403886873     
  0.55300000000000005       0.47036108288216172       0.55341767303174272     
  0.55400000000000005       0.47007413835982997       0.55330866220406072     
  0.55500000000000005       0.46978803387128265       0.55320070971712632     
  0.55600000000000005       0.46950276669445901       0.55309381374728794     
  0.55700000000000005       0.46921833412056430       0.55298797248587017     
  0.55800000000000005       0.46893473345399156       0.55288318413910853     
  0.55900000000000005       0.46865196201224235       0.55277944692808190     
  0.56000000000000005       0.46837001712585030       0.55267675908864811     
  0.56100000000000005       0.46808889613830379       0.55257511887137789     
  0.56200000000000006       0.46780859640596867       0.55247452454149182     
  0.56300000000000006       0.46752911529801355       0.55237497437879568     
  0.56400000000000006       0.46725045019633371       0.55227646667761676     
  0.56500000000000006       0.46697259849547668       0.55217899974674312     
  0.56600000000000006       0.46669555760256715       0.55208257190935950     
  0.56700000000000006       0.46641932493723426       0.55198718150298731     
  0.56800000000000006       0.46614389793153810       0.55189282687942343     
  0.56900000000000006       0.46586927402989636       0.55179950640467912     
  0.57000000000000006       0.46559545068901276       0.55170721845892190     
  0.57100000000000006       0.46532242537780572       0.55161596143641500     
  0.57200000000000006       0.46505019557733612       0.55152573374545888     
  0.57300000000000006       0.46477875878073782       0.55143653380833413     
  0.57400000000000007       0.46450811249314716       0.55134836006124310     
  0.57500000000000007       0.46423825423163256       0.55126121095425262     
  0.57600000000000007       0.46396918152512684       0.55117508495123924     
  0.57699999999999996       0.46370089191435709       0.55108998052983094     
  0.57799999999999996       0.46343338295177777       0.55100589618135354     
  0.57899999999999996       0.46316665220150227       0.55092283041077583     
  0.57999999999999996       0.46290069723923577       0.55084078173665407     
  0.58099999999999996       0.46263551565220901       0.55075974869107847     
  0.58199999999999996       0.46237110503911155       0.55067972981962199     
  0.58299999999999996       0.46210746301002625       0.55060072368128399     
  0.58399999999999996       0.46184458718636390       0.55052272884844089     
  0.58499999999999996       0.46158247520079826       0.55044574390679357     
  0.58599999999999997       0.46132112469720182       0.55036976745531507     
  0.58699999999999997       0.46106053333058178       0.55029479810620152     
  0.58799999999999997       0.46080069876701696       0.55022083448482084     
  0.58899999999999997       0.46054161868359367       0.55014787522966280     
  0.58999999999999997       0.46028329076834429       0.55007591899229091     
  0.59099999999999997       0.46002571272018439       0.55000496443729230     
  0.59199999999999997       0.45976888224885165       0.54993501024223013     
  0.59299999999999997       0.45951279707484349       0.54986605509759567     
  0.59399999999999997       0.45925745492935710       0.54979809770676047     
  0.59499999999999997       0.45900285355422915       0.54973113678593066     
  0.59599999999999997       0.45874899070187475       0.54966517106409896     
  0.59699999999999998       0.45849586413522830       0.54960019928299986     
  0.59799999999999998       0.45824347162768514       0.54953622019706350     
  0.59899999999999998       0.45799181096304126       0.54947323257337155     
  0.59999999999999998       0.45774087993543627       0.54941123519161161     
  0.60099999999999998       0.45749067634929436       0.54935022684403345     
  0.60199999999999998       0.45724119801926716       0.54929020633540504     
  0.60299999999999998       0.45699244277017703       0.54923117248297026     
  0.60399999999999998       0.45674440843695918       0.54917312411640562     
  0.60499999999999998       0.45649709286460660       0.54911606007777725     
  0.60599999999999998       0.45625049390811279       0.54905997922149963     
  0.60699999999999998       0.45600460943241666       0.54900488041429496     
  0.60799999999999998       0.45575943731234769       0.54895076253515007     
  0.60899999999999999       0.45551497543257058       0.54889762447527757     
  0.60999999999999999       0.45527122168753043       0.54884546513807586     
  0.61099999999999999       0.45502817398139978       0.54879428343908720     
  0.61199999999999999       0.45478583022802338       0.54874407830596095     
  0.61299999999999999       0.45454418835086596       0.54869484867841345     
  0.61399999999999999       0.45430324628295871       0.54864659350818923     
  0.61499999999999999       0.45406300196684651       0.54859931175902377     
  0.61599999999999999       0.45382345335453594       0.54855300240660576     
  0.61699999999999999       0.45358459840744353       0.54850766443853882     
  0.61799999999999999       0.45334643509634315       0.54846329685430595     
  0.61899999999999999       0.45310896140131607       0.54841989866523289     
  0.62000000000000000       0.45287217531169893       0.54837746889445105     
  0.62100000000000000       0.45263607482603424       0.54833600657686321     
  0.62200000000000000       0.45240065795201889       0.54829551075910754     
  0.62300000000000000       0.45216592270645584       0.54825598049952295     
  0.62400000000000000       0.45193186711520295       0.54821741486811493     
  0.62500000000000000       0.45169848921312461       0.54817981294652096     
  0.62600000000000000       0.45146578704404361       0.54814317382797706     
  0.62700000000000000       0.45123375866069088       0.54810749661728553     
  0.62800000000000000       0.45100240212465847       0.54807278043078023     
  0.62900000000000000       0.45077171550635137       0.54803902439629548     
  0.63000000000000000       0.45054169688493984       0.54800622765313289     
  0.63100000000000001       0.45031234434831213       0.54797438935203124     
  0.63200000000000001       0.45008365599302785       0.54794350865513386     
  0.63300000000000001       0.44985562992427075       0.54791358473595719     
  0.63400000000000001       0.44962826425580282       0.54788461677936207     
  0.63500000000000001       0.44940155710991830       0.54785660398152114     
  0.63600000000000001       0.44917550661739764       0.54782954554989138     
  0.63700000000000001       0.44895011091746240       0.54780344070318276     
  0.63800000000000001       0.44872536815773001       0.54777828867132949     
  0.63900000000000001       0.44850127649416893       0.54775408869546205     
  0.64000000000000001       0.44827783409105432       0.54773084002787842     
  0.64100000000000001       0.44805503912092359       0.54770854193201535     
  0.64200000000000002       0.44783288976453239       0.54768719368242103     
  0.64300000000000002       0.44761138421081142       0.54766679456472867     
  0.64400000000000002       0.44739052065682261       0.54764734387562830     
  0.64500000000000002       0.44717029730771635       0.54762884092284014     
  0.64600000000000002       0.44695071237668865       0.54761128502509016     
  0.64700000000000002       0.44673176408493831       0.54759467551208130     
  0.64800000000000002       0.44651345066162551       0.54757901172446988     
  0.64900000000000002       0.44629577034382850       0.54756429301384002     
  0.65000000000000002       0.44607872137650373       0.54755051874267902     
  0.65100000000000002       0.44586230201244276       0.54753768828435068     
  0.65200000000000002       0.44564651051223203       0.54752580102307469     
  0.65300000000000002       0.44543134514421173       0.54751485635390018     
  0.65400000000000003       0.44521680418443577       0.54750485368268209     
  0.65500000000000003       0.44500288591663034       0.54749579242606028     
  0.65600000000000003       0.44478958863215468       0.54748767201143345     
  0.65700000000000003       0.44457691062996124       0.54748049187693926     
  0.65800000000000003       0.44436485021655553       0.54747425147143136     
  0.65900000000000003       0.44415340570595763       0.54746895025445663     
  0.66000000000000003       0.44394257541966275       0.54746458769623474     
  0.66100000000000003       0.44373235768660207       0.54746116327763650     
  0.66200000000000003       0.44352275084310472       0.54745867649016322     
  0.66300000000000003       0.44331375323285976       0.54745712683592562     
  0.66400000000000003       0.44310536320687705       0.54745651382762395     
  0.66500000000000004       0.44289757912345057       0.54745683698852876     
  0.66600000000000004       0.44269039934812054       0.54745809585245953     
  0.66700000000000004       0.44248382225363547       0.54746028996376705     
  0.66800000000000004       0.44227784621991595       0.54746341887731431     
  0.66900000000000004       0.44207246963401742       0.54746748215845675     
  0.67000000000000004       0.44186769089009376       0.54747247938302501     
  0.67100000000000004       0.44166350838936036       0.54747841013730680     
  0.67200000000000004       0.44145992054005895       0.54748527401802816     
  0.67300000000000004       0.44125692575742048       0.54749307063233765     
  0.67400000000000004       0.44105452246363075       0.54750179959778855     
  0.67500000000000004       0.44085270908779423       0.54751146054232147     
  0.67600000000000005       0.44065148406589860       0.54752205310424895     
  0.67700000000000005       0.44045084584078048       0.54753357693223947     
  0.67800000000000005       0.44025079286208973       0.54754603168529947     
  0.67900000000000005       0.44005132358625620       0.54755941703276045     
  0.68000000000000005       0.43985243647645411       0.54757373265426301     
  0.68100000000000005       0.43965413000256853       0.54758897823974084     
  0.68200000000000005       0.43945640264116148       0.54760515348940719     
  0.68300000000000005       0.43925925287543810       0.54762225811374010     
  0.68400000000000005       0.43906267919521330       0.54764029183346863     
  0.68500000000000005       0.43886668009687829       0.54765925437955876     
  0.68600000000000005       0.43867125408336805       0.54767914549320063     
  0.68700000000000006       0.43847639966412771       0.54769996492579509     
  0.68800000000000006       0.43828211535508044       0.54772171243893986     
  0.68900000000000006       0.43808839967859498       0.54774438780441959     
  0.69000000000000006       0.43789525116345324       0.54776799080419047     
  0.69100000000000006       0.43770266834481825       0.54779252123037059     
  0.69200000000000006       0.43751064976420256       0.54781797888522710     
  0.69300000000000006       0.43731919396943664       0.54784436358116628     
  0.69400000000000006       0.43712829951463683       0.54787167514072033     
  0.69500000000000006       0.43693796496017512       0.54789991339653810     
  0.69600000000000006       0.43674818887264688       0.54792907819137482     
  0.69700000000000006       0.43655896982484155       0.54795916937808065     
  0.69800000000000006       0.43637030639571028       0.54799018681959166     
  0.69900000000000007       0.43618219717033707       0.54802213038892078     
  0.70000000000000007       0.43599464073990712       0.54805499996914697     
  0.70100000000000007       0.43580763570167769       0.54808879545340705     
  0.70200000000000007       0.43562118065894778       0.54812351674488746     
  0.70300000000000007       0.43543527422102857       0.54815916375681439     
  0.70399999999999996       0.43524991500321397       0.54819573641244712     
  0.70499999999999996       0.43506510162675066       0.54823323464506934     
  0.70599999999999996       0.43488083271881012       0.54827165839798120     
  0.70699999999999996       0.43469710691245805       0.54831100762449259     
  0.70799999999999996       0.43451392284662738       0.54835128228791652     
  0.70899999999999996       0.43433127916608777       0.54839248236156057     
  0.70999999999999996       0.43414917452141899       0.54843460782872311     
  0.71099999999999997       0.43396760756898101       0.54847765868268428     
  0.71199999999999997       0.43378657697088702       0.54852163492670158     
  0.71299999999999997       0.43360608139497520       0.54856653657400500     
  0.71399999999999997       0.43342611951478027       0.54861236364778942     
  0.71499999999999997       0.43324669000950705       0.54865911618121166     
  0.71599999999999997       0.43306779156400238       0.54870679421738422     
  0.71699999999999997       0.43288942286872784       0.54875539780937188     
  0.71799999999999997       0.43271158261973280       0.54880492702018657     
  0.71899999999999997       0.43253426951862778       0.54885538192278338     
  0.71999999999999997       0.43235748227255688       0.54890676260005833     
  0.72099999999999997       0.43218121959417216       0.54895906914484294     
  0.72199999999999998       0.43200548020160645       0.54901230165990178     
  0.72299999999999998       0.43183026281844789       0.54906646025793049     
  0.72399999999999998       0.43165556617371231       0.54912154506155242     
  0.72499999999999998       0.43148138900181943       0.54917755620331599     
  0.72599999999999998       0.43130773004256551       0.54923449382569345     
  0.72699999999999998       0.43113458804109739       0.54929235808107857     
  0.72799999999999998       0.43096196174788870       0.54935114913178495     
  0.72899999999999998       0.43078984991871327       0.54941086715004583     
  0.72999999999999998       0.43061825131461989       0.54947151231801206     
  0.73099999999999998       0.43044716470190819       0.54953308482775187     
  0.73199999999999998       0.43027658885210290       0.54959558488125060     
  0.73299999999999998       0.43010652254192910       0.54965901269041006     
  0.73399999999999999       0.42993696455328895       0.54972336847704939     
  0.73499999999999999       0.42976791367323536       0.54978865247290487     
  0.73599999999999999       0.42959936869394871       0.54985486491963087     
  0.73699999999999999       0.42943132841271320       0.54992200606880048     
  0.73799999999999999       0.42926379163189210       0.54999007618190809     
  0.73899999999999999       0.42909675715890394       0.55005907553036948     
  0.73999999999999999       0.42893022380619911       0.55012900439552292     
  0.74099999999999999       0.42876419039123587       0.55019986306863289     
  0.74199999999999999       0.42859865573645783       0.55027165185089300     
  0.74299999999999999       0.42843361866926960       0.55034437105342593     
  0.74399999999999999       0.42826907802201436       0.55041802099728798     
  0.74500000000000000       0.42810503263195016       0.55049260201347272     
  0.74600000000000000       0.42794148134122811       0.55056811444291265     
  0.74700000000000000       0.42777842299686869       0.55064455863648454     
  0.74800000000000000       0.42761585645073963       0.55072193495501331     
  0.74900000000000000       0.42745378055953309       0.55080024376927417     
  0.75000000000000000       0.42729219418474412       0.55087948545999965     
  0.75100000000000000       0.42713109619264744       0.55095966041788380     
  0.75200000000000000       0.42697048545427579       0.55104076904358557     
  0.75300000000000000       0.42681036084539853       0.55112281174773603     
  0.75400000000000000       0.42665072124649894       0.55120578895094341     
  0.75500000000000000       0.42649156554275297       0.55128970108379860     
  0.75600000000000001       0.42633289262400825       0.55137454858688129     
  0.75700000000000001       0.42617470138476160       0.55146033191076693     
  0.75800000000000001       0.42601699072413812       0.55154705151603289     
  0.75900000000000001       0.42585975954587063       0.55163470787326552     
  0.76000000000000001       0.42570300675827794       0.55172330146306736     
  0.76100000000000001       0.42554673127424408       0.55181283277606508     
  0.76200000000000001       0.42539093201119788       0.55190330231291662     
  0.76300000000000001       0.42523560789109160       0.55199471058431937     
  0.76400000000000001       0.42508075784038085       0.55208705811101833     
  0.76500000000000001       0.42492638079000439       0.55218034542381578     
  0.76600000000000001       0.42477247567536330       0.55227457306357852     
  0.76700000000000002       0.42461904143630069       0.55236974158124830     
  0.76800000000000002       0.42446607701708255       0.55246585153785011     
  0.76900000000000002       0.42431358136637670       0.55256290350450343     
  0.77000000000000002       0.42416155343723355       0.55266089806243057     
  0.77100000000000002       0.42400999218706653       0.55275983580296806     
  0.77200000000000002       0.42385889657763165       0.55285971732757577     
  0.77300000000000002       0.42370826557500896       0.55296054324784971     
  0.77400000000000002       0.42355809814958262       0.55306231418553164     
  0.77500000000000002       0.42340839327602192       0.55316503077252077     
  0.77600000000000002       0.42325914993326164       0.55326869365088494     
  0.77700000000000002       0.42311036710448374       0.55337330347287383     
  0.77800000000000002       0.42296204377709778       0.55347886090092957     
  0.77900000000000003       0.42281417894272239       0.55358536660770075     
  0.78000000000000003       0.42266677159716681       0.55369282127605379     
  0.78100000000000003       0.42251982074041128       0.55380122559908618     
  0.78200000000000003       0.42237332537658984       0.55391058028014106     
  0.78300000000000003       0.42222728451397107       0.55402088603281874     
  0.78400000000000003       0.42208169716494026       0.55413214358099283     
  0.78500000000000003       0.42193656234598087       0.55424435365882208     
  0.78600000000000003       0.42179187907765647       0.55435751701076696     
  0.78700000000000003       0.42164764638459323       0.55447163439160263     
  0.78800000000000003       0.42150386329546174       0.55458670656643527     
  0.78900000000000003       0.42136052884295899       0.55470273431071615     
  0.79000000000000004       0.42121764206379086       0.55481971841025801     
  0.79100000000000004       0.42107520199865528       0.55493765966125108     
  0.79200000000000004       0.42093320769222342       0.55505655887027872     
  0.79300000000000004       0.42079165819312353       0.55517641685433372     
  0.79400000000000004       0.42065055255392297       0.55529723444083479     
  0.79500000000000004       0.42050988983111132       0.55541901246764502     
  0.79600000000000004       0.42036966908508328       0.55554175178308751     
  0.79700000000000004       0.42022988938012196       0.55566545324596439     
  0.79800000000000004       0.42009054978438110       0.55579011772557263     
  0.79900000000000004       0.41995164936986962       0.55591574610172434     
  0.80000000000000004       0.41981318721243394       0.55604233926476399     
  0.80100000000000005       0.41967516239174163       0.55616989811558792     
  0.80200000000000005       0.41953757399126551       0.55629842356566273     
  0.80300000000000005       0.41940042109826620       0.55642791653704504     
  0.80400000000000005       0.41926370280377639       0.55655837796239993     
  0.80500000000000005       0.41912741820258526       0.55668980878502361     
  0.80600000000000005       0.41899156639322105       0.55682220995886078     
  0.80700000000000005       0.41885614647793579       0.55695558244852594     
  0.80800000000000005       0.41872115756268974       0.55708992722932527     
  0.80900000000000005       0.41858659875713472       0.55722524528727679     
  0.81000000000000005       0.41845246917459888       0.55736153761913210     
  0.81100000000000005       0.41831876793207096       0.55749880523239792     
  0.81200000000000006       0.41818549415018424       0.55763704914535761     
  0.81300000000000006       0.41805264695320199       0.55777627038709487     
  0.81400000000000006       0.41792022546900109       0.55791646999751499     
  0.81500000000000006       0.41778822882905764       0.55805764902736865     
  0.81600000000000006       0.41765665616843073       0.55819980853827478     
  0.81700000000000006       0.41752550662574850       0.55834294960274444     
  0.81800000000000006       0.41739477934319164       0.55848707330420344     
  0.81900000000000006       0.41726447346647971       0.55863218073701904     
  0.82000000000000006       0.41713458814485566       0.55877827300652128     
  0.82100000000000006       0.41700512253107097       0.55892535122903020     
  0.82200000000000006       0.41687607578137148       0.55907341653188058     
  0.82300000000000006       0.41674744705548145       0.55922247005344539     
  0.82400000000000007       0.41661923551659102       0.55937251294316415     
  0.82500000000000007       0.41649144033133989       0.55952354636156754     
  0.82600000000000007       0.41636406066980369       0.55967557148030389     
  0.82700000000000007       0.41623709570548018       0.55982858948216618     
  0.82800000000000007       0.41611054461527380       0.55998260156111868     
  0.82900000000000007       0.41598440657948293       0.56013760892232489     
  0.83000000000000007       0.41585868078178423       0.56029361278217371     
  0.83100000000000007       0.41573336640922021       0.56045061436830945     
  0.83200000000000007       0.41560846265218415       0.56060861491965908     
  0.83299999999999996       0.41548396870440735       0.56076761568646005     
  0.83399999999999996       0.41535988376294380       0.56092761793029056     
  0.83499999999999996       0.41523620702815844       0.56108862292409911     
  0.83599999999999997       0.41511293770371199       0.56125063195223168     
  0.83699999999999997       0.41499007499654805       0.56141364631046453     
  0.83799999999999997       0.41486761811687983       0.56157766730603353     
  0.83899999999999997       0.41474556627817621       0.56174269625766293     
  0.83999999999999997       0.41462391869714887       0.56190873449559919     
  0.84099999999999997       0.41450267459373891       0.56207578336164032     
  0.84199999999999997       0.41438183319110411       0.56224384420916884     
  0.84299999999999997       0.41426139371560494       0.56241291840318186     
  0.84399999999999997       0.41414135539679203       0.56258300732032529     
  0.84499999999999997       0.41402171746739391       0.56275411234892536     
  0.84599999999999997       0.41390247916330297       0.56292623488902238     
  0.84699999999999998       0.41378363972356302       0.56309937635240270     
  0.84799999999999998       0.41366519839035731       0.56327353816263415     
  0.84899999999999998       0.41354715440899492       0.56344872175509886     
  0.84999999999999998       0.41342950702789855       0.56362492857702862     
  0.85099999999999998       0.41331225549859252       0.56380216008753792     
  0.85199999999999998       0.41319539907568881       0.56398041775766050     
  0.85299999999999998       0.41307893701687659       0.56415970307038488     
  0.85399999999999998       0.41296286858290876       0.56434001752068930     
  0.85499999999999998       0.41284719303758960       0.56452136261557828     
  0.85599999999999998       0.41273190964776335       0.56470373987411915     
  0.85699999999999998       0.41261701768330156       0.56488715082747853     
  0.85799999999999998       0.41250251641709140       0.56507159701896059     
  0.85899999999999999       0.41238840512502289       0.56525708000404395     
  0.85999999999999999       0.41227468308597803       0.56544360135041916     
  0.86099999999999999       0.41216134958181871       0.56563116263802826     
  0.86199999999999999       0.41204840389737418       0.56581976545910206     
  0.86299999999999999       0.41193584532043009       0.56600941141820105     
  0.86399999999999999       0.41182367314171703       0.56620010213225325     
  0.86499999999999999       0.41171188665489777       0.56639183923059466     
  0.86599999999999999       0.41160048515655717       0.56658462435500978     
  0.86699999999999999       0.41148946794618985       0.56677845915977176     
  0.86799999999999999       0.41137883432618899       0.56697334531168397     
  0.86899999999999999       0.41126858360183499       0.56716928449012083     
  0.87000000000000000       0.41115871508128421       0.56736627838706899     
  0.87100000000000000       0.41104922807555799       0.56756432870717133     
  0.87200000000000000       0.41094012189853096       0.56776343716776834     
  0.87300000000000000       0.41083139586692075       0.56796360549894065     
  0.87400000000000000       0.41072304930027587       0.56816483544355290     
  0.87500000000000000       0.41061508152096593       0.56836712875729833     
  0.87600000000000000       0.41050749185416985       0.56857048720874104     
  0.87700000000000000       0.41040027962786563       0.56877491257936208     
  0.87800000000000000       0.41029344417281910       0.56898040666360450     
  0.87900000000000000       0.41018698482257299       0.56918697126891638     
  0.88000000000000000       0.41008090091343719       0.56939460821579979     
  0.88100000000000001       0.40997519178447744       0.56960331933785546     
  0.88200000000000001       0.40986985677750498       0.56981310648182903     
  0.88300000000000001       0.40976489523706572       0.57002397150765793     
  0.88400000000000001       0.40966030651043023       0.57023591628852044     
  0.88500000000000001       0.40955608994758308       0.57044894271088109     
  0.88600000000000001       0.40945224490121296       0.57066305267454187     
  0.88700000000000001       0.40934877072670167       0.57087824809268806     
  0.88800000000000001       0.40924566678211477       0.57109453089193940     
  0.88900000000000001       0.40914293242819033       0.57131190301239776     
  0.89000000000000001       0.40904056702833014       0.57153036640770005     
  0.89100000000000001       0.40893856994858868       0.57174992304506522     
  0.89200000000000002       0.40883694055766329       0.57197057490534753     
  0.89300000000000002       0.40873567822688445       0.57219232398308706     
  0.89400000000000002       0.40863478233020595       0.57241517228656102     
  0.89500000000000002       0.40853425224419515       0.57263912183783761     
  0.89600000000000002       0.40843408734802228       0.57286417467282602     
  0.89700000000000002       0.40833428702345204       0.57309033284133215     
  0.89800000000000002       0.40823485065483284       0.57331759840711027     
  0.89900000000000002       0.40813577762908793       0.57354597344791813     
  0.90000000000000002       0.40803706733570549       0.57377546005557145     
  0.90100000000000002       0.40793871916672908       0.57400606033599766     
  0.90200000000000002       0.40784073251674829       0.57423777640929285     
  0.90300000000000002       0.40774310678288928       0.57447061040977743     
  0.90400000000000003       0.40764584136480531       0.57470456448605034     
  0.90500000000000003       0.40754893566466804       0.57493964080104965     
  0.90600000000000003       0.40745238908715664       0.57517584153210577     
  0.90700000000000003       0.40735620103945103       0.57541316887100269     
  0.90800000000000003       0.40726037093122064       0.57565162502403400     
  0.90900000000000003       0.40716489817461599       0.57589121221206296     
  0.91000000000000003       0.40706978218425993       0.57613193267058027     
  0.91100000000000003       0.40697502237723865       0.57637378864976618     
  0.91200000000000003       0.40688061817309162       0.57661678241454806     
  0.91300000000000003       0.40678656899380439       0.57686091624466318     
  0.91400000000000003       0.40669287426379791       0.57710619243471795     
  0.91500000000000004       0.40659953340992161       0.57735261329425280     
  0.91600000000000004       0.40650654586144275       0.57760018114780043     
  0.91700000000000004       0.40641391105003927       0.57784889833495223     
  0.91800000000000004       0.40632162840978969       0.57809876721041864     
  0.91900000000000004       0.40622969737716585       0.57834979014409582     
  0.92000000000000004       0.40613811739102357       0.57860196952112675     
  0.92100000000000004       0.40604688789259358       0.57885530774196936     
  0.92200000000000004       0.40595600832547457       0.57910980722245908     
  0.92300000000000004       0.40586547813562290       0.57936547039387642     
  0.92400000000000004       0.40577529677134594       0.57962229970301338     
  0.92500000000000004       0.40568546368329250       0.57988029761223947     
  0.92600000000000005       0.40559597832444483       0.58013946659957072     
  0.92700000000000005       0.40550684015011051       0.58039980915873612     
  0.92800000000000005       0.40541804861791436       0.58066132779924706     
  0.92900000000000005       0.40532960318778943       0.58092402504646701     
  0.93000000000000005       0.40524150332197029       0.58118790344168048     
  0.93100000000000005       0.40515374848498359       0.58145296554216364     
  0.93200000000000005       0.40506633814364063       0.58171921392125547     
  0.93300000000000005       0.40497927176702925       0.58198665116842851     
  0.93400000000000005       0.40489254882650583       0.58225527988936177     
  0.93500000000000005       0.40480616879568787       0.58252510270601299     
  0.93600000000000005       0.40472013115044497       0.58279612225669108     
  0.93700000000000006       0.40463443536889204       0.58306834119613160     
  0.93800000000000006       0.40454908093138120       0.58334176219556877     
  0.93900000000000006       0.40446406732049389       0.58361638794281312     
  0.94000000000000006       0.40437939402103334       0.58389222114232564     
  0.94100000000000006       0.40429506052001657       0.58416926451529283     
  0.94200000000000006       0.40421106630666731       0.58444752079970586     
  0.94300000000000006       0.40412741087240794       0.58472699275043660     
  0.94400000000000006       0.40404409371085204       0.58500768313931573     
  0.94500000000000006       0.40396111431779724       0.58528959475521103     
  0.94600000000000006       0.40387847219121709       0.58557273040410840     
  0.94700000000000006       0.40379616683125441       0.58585709290918875     
  0.94800000000000006       0.40371419774021317       0.58614268511091150     
  0.94900000000000007       0.40363256442255158       0.58642950986709441     
  0.95000000000000007       0.40355126638487476       0.58671757005299419     
  0.95100000000000007       0.40347030313592736       0.58700686856139161     
  0.95200000000000007       0.40338967418658650       0.58729740830267319     
  0.95300000000000007       0.40330937904985414       0.58758919220491368     
  0.95400000000000007       0.40322941724085076       0.58788222321396344     
  0.95500000000000007       0.40314978827680698       0.58817650429353041     
  0.95600000000000007       0.40307049167705811       0.58847203842526896     
  0.95700000000000007       0.40299152696303536       0.58876882860886293     
  0.95800000000000007       0.40291289365826061       0.58906687786211653     
  0.95900000000000007       0.40283459128833771       0.58936618922103878     
  0.95999999999999996       0.40275661938094709       0.58966676573993404     
  0.96099999999999997       0.40267897746583786       0.58996861049149096     
  0.96199999999999997       0.40260166507482115       0.59027172656687088     
  0.96299999999999997       0.40252468174176415       0.59057611707580171     
  0.96399999999999997       0.40244802700258148       0.59088178514666556     
  0.96499999999999997       0.40237170039523062       0.59118873392659232     
  0.96599999999999997       0.40229570145970367       0.59149696658155404     
  0.96699999999999997       0.40222002973802140       0.59180648629645616     
  0.96799999999999997       0.40214468477422649       0.59211729627523191     
  0.96899999999999997       0.40206966611437633       0.59242939974093911     
  0.96999999999999997       0.40199497330653772       0.59274279993585477     
  0.97099999999999997       0.40192060590077899       0.59305750012157066     
  0.97199999999999998       0.40184656344916470       0.59337350357909191     
  0.97299999999999998       0.40177284550574804       0.59369081360893483     
  0.97399999999999998       0.40169945162656534       0.59400943353122504     
  0.97499999999999998       0.40162638136962947       0.59432936668579817     
  0.97599999999999998       0.40155363429492291       0.59465061643229866     
  0.97699999999999998       0.40148120996439218       0.59497318615028194     
  0.97799999999999998       0.40140910794194118       0.59529707923931641     
  0.97899999999999998       0.40133732779342524       0.59562229911908582     
  0.97999999999999998       0.40126586908664419       0.59594884922949254     
  0.98099999999999998       0.40119473139133693       0.59627673303076190     
  0.98199999999999998       0.40112391427917515       0.59660595400354866     
  0.98299999999999998       0.40105341732375704       0.59693651564904104     
  0.98399999999999999       0.40098324010060077       0.59726842148906889     
  0.98499999999999999       0.40091338218713984       0.59760167506621154     
  0.98599999999999999       0.40084384316271521       0.59793627994390464     
  0.98699999999999999       0.40077462260857077       0.59827223970655030     
  0.98799999999999999       0.40070572010784661       0.59860955795962922     
  0.98899999999999999       0.40063713524557348       0.59894823832980870     
  0.98999999999999999       0.40056886760866722       0.59928828446505711     
  0.99099999999999999       0.40050091678592142       0.59962970003475424     
  0.99199999999999999       0.40043328236800368       0.59997248872980757     
  0.99299999999999999       0.40036596394744800       0.60031665426276504     
  0.99399999999999999       0.40029896111865015       0.60066220036793139     
  0.99500000000000000       0.40023227347786178       0.60100913080148510     
  0.99600000000000000       0.40016590062318397       0.60135744934159330     
  0.99700000000000000       0.40009984215456251       0.60170715978853351     
  0.99800000000000000       0.40003409767378195       0.60205826596481082     
  0.99900000000000000       0.39996866678445947       0.60241077171527635     
   1.0000000000000000       0.39990354909204001       0.60276468090725299     
