  0.10000000E-02  0.94852506E+00
  0.20000000E-02  0.14151327E+01
  0.30000000E-02  0.17745685E+01
  0.40000000E-02  0.20754609E+01
  0.50000000E-02  0.23378339E+01
  0.60000000E-02  0.25723703E+01
  0.70000000E-02  0.27856030E+01
  0.80000000E-02  0.29818859E+01
  0.90000000E-02  0.31642994E+01
  0.10000000E-01  0.33351205E+01
  0.11000000E-01  0.34960903E+01
  0.12000000E-01  0.36485761E+01
  0.13000000E-01  0.37936756E+01
  0.14000000E-01  0.39322859E+01
  0.15000000E-01  0.40651515E+01
  0.16000000E-01  0.41928983E+01
  0.17000000E-01  0.43160586E+01
  0.18000000E-01  0.44350893E+01
  0.19000000E-01  0.45503864E+01
  0.20000000E-01  0.46622954E+01
  0.21000000E-01  0.44187295E+01
  0.22000000E-01  0.44942218E+01
  0.23000000E-01  0.45662578E+01
  0.24000000E-01  0.46350814E+01
  0.25000000E-01  0.47009134E+01
  0.26000000E-01  0.47640340E+01
  0.27000000E-01  0.48245107E+01
  0.28000000E-01  0.48825918E+01
  0.29000000E-01  0.49385200E+01
  0.30000000E-01  0.49922721E+01
  0.31000000E-01  0.50440661E+01
  0.32000000E-01  0.50940727E+01
  0.33000000E-01  0.51423645E+01
  0.34000000E-01  0.51890976E+01
  0.35000000E-01  0.52343282E+01
  0.36000000E-01  0.52781514E+01
  0.37000000E-01  0.53206568E+01
  0.38000000E-01  0.53619285E+01
  0.39000000E-01  0.54021496E+01
  0.40000000E-01  0.54411895E+01
  0.41000000E-01  0.54793281E+01
  0.42000000E-01  0.55165832E+01
  0.43000000E-01  0.55529659E+01
  0.44000000E-01  0.55884806E+01
  0.45000000E-01  0.56233528E+01
  0.46000000E-01  0.56575270E+01
  0.47000000E-01  0.56910555E+01
  0.48000000E-01  0.57239880E+01
  0.49000000E-01  0.57563723E+01
  0.50000000E-01  0.57882540E+01
  0.51000000E-01  0.58197995E+01
  0.52000000E-01  0.58508067E+01
  0.53000000E-01  0.58815625E+01
  0.54000000E-01  0.59119829E+01
  0.55000000E-01  0.59419764E+01
  0.56000000E-01  0.59718341E+01
  0.57000000E-01  0.60013319E+01
  0.58000000E-01  0.60307641E+01
  0.59000000E-01  0.60600327E+01
  0.60000000E-01  0.60890329E+01
  0.61000000E-01  0.61180637E+01
  0.62000000E-01  0.61468818E+01
  0.63000000E-01  0.61756501E+01
  0.64000000E-01  0.62043956E+01
  0.65000000E-01  0.62331440E+01
  0.66000000E-01  0.62619206E+01
  0.67000000E-01  0.62907495E+01
  0.68000000E-01  0.63195086E+01
  0.69000000E-01  0.63483640E+01
  0.70000000E-01  0.63773378E+01
  0.71000000E-01  0.64064517E+01
  0.72000000E-01  0.64355757E+01
  0.73000000E-01  0.64648785E+01
  0.74000000E-01  0.64943800E+01
  0.75000000E-01  0.65239449E+01
  0.76000000E-01  0.65537440E+01
  0.77000000E-01  0.65837954E+01
  0.78000000E-01  0.66139591E+01
  0.79000000E-01  0.66444078E+01
  0.80000000E-01  0.66751584E+01
  0.81000000E-01  0.67060661E+01
  0.82000000E-01  0.67373059E+01
  0.83000000E-01  0.67687299E+01
  0.84000000E-01  0.68003501E+01
  0.85000000E-01  0.68323438E+01
  0.86000000E-01  0.68647253E+01
  0.87000000E-01  0.68973413E+01
  0.88000000E-01  0.69303712E+01
  0.89000000E-01  0.69636587E+01
  0.90000000E-01  0.69972138E+01
  0.91000000E-01  0.70312186E+01
  0.92000000E-01  0.70655125E+01
  0.93000000E-01  0.71002791E+01
  0.94000000E-01  0.71353554E+01
  0.95000000E-01  0.71707504E+01
  0.96000000E-01  0.72064727E+01
  0.97000000E-01  0.72427088E+01
  0.98000000E-01  0.72794699E+01
  0.99000000E-01  0.73164070E+01
  0.10000000E+00  0.73538871E+01
  0.10100000E+00  0.73917386E+01
  0.10200000E+00  0.74299691E+01
  0.10300000E+00  0.74687698E+01
  0.10400000E+00  0.75077811E+01
  0.10500000E+00  0.75473786E+01
  0.10600000E+00  0.75873852E+01
  0.10700000E+00  0.76279953E+01
  0.10800000E+00  0.76688410E+01
  0.10900000E+00  0.77103050E+01
  0.11000000E+00  0.77522057E+01
  0.11100000E+00  0.77945493E+01
  0.11200000E+00  0.78373418E+01
  0.11300000E+00  0.78805891E+01
  0.11400000E+00  0.79242967E+01
  0.11500000E+00  0.79685679E+01
  0.11600000E+00  0.80133114E+01
  0.11700000E+00  0.80584344E+01
  0.11800000E+00  0.81042370E+01
  0.11900000E+00  0.81505287E+01
  0.12000000E+00  0.81971153E+01
  0.12100000E+00  0.82443993E+01
  0.12200000E+00  0.82921871E+01
  0.12300000E+00  0.83402820E+01
  0.12400000E+00  0.83890910E+01
  0.12500000E+00  0.84384178E+01
  0.12600000E+00  0.84880629E+01
  0.12700000E+00  0.85384381E+01
  0.12800000E+00  0.85891386E+01
  0.12900000E+00  0.86405793E+01
  0.13000000E+00  0.86923521E+01
  0.13100000E+00  0.87448750E+01
  0.13200000E+00  0.87977365E+01
  0.13300000E+00  0.88511479E+01
  0.13400000E+00  0.89051131E+01
  0.13500000E+00  0.89596357E+01
  0.13600000E+00  0.90147197E+01
  0.13700000E+00  0.90703685E+01
  0.13800000E+00  0.91263723E+01
  0.13900000E+00  0.91831609E+01
  0.14000000E+00  0.92403100E+01
  0.14100000E+00  0.92980364E+01
  0.14200000E+00  0.93563437E+01
  0.14300000E+00  0.94152349E+01
  0.14400000E+00  0.94747134E+01
  0.14500000E+00  0.95345637E+01
  0.14600000E+00  0.95951157E+01
  0.14700000E+00  0.96562638E+01
  0.14800000E+00  0.97176794E+01
  0.14900000E+00  0.97799164E+01
  0.15000000E+00  0.98425352E+01
  0.15100000E+00  0.99059826E+01
  0.15200000E+00  0.99697043E+01
  0.15300000E+00  0.10034036E+02
  0.15400000E+00  0.10099094E+02
  0.15500000E+00  0.10164543E+02
  0.15600000E+00  0.10230610E+02
  0.15700000E+00  0.10297070E+02
  0.15800000E+00  0.10364380E+02
  0.15900000E+00  0.10432087E+02
  0.16000000E+00  0.10500306E+02
  0.16100000E+00  0.10569153E+02
  0.16200000E+00  0.10638517E+02
  0.16300000E+00  0.10708513E+02
  0.16400000E+00  0.10779028E+02
  0.16500000E+00  0.10850180E+02
  0.16600000E+00  0.10921854E+02
  0.16700000E+00  0.10993935E+02
  0.16800000E+00  0.11066658E+02
  0.16900000E+00  0.11140024E+02
  0.17000000E+00  0.11214036E+02
  0.17100000E+00  0.11288460E+02
  0.17200000E+00  0.11363533E+02
  0.17300000E+00  0.11439018E+02
  0.17400000E+00  0.11515156E+02
  0.17500000E+00  0.11591947E+02
  0.17600000E+00  0.11669154E+02
  0.17700000E+00  0.11747017E+02
  0.17800000E+00  0.11825298E+02
  0.17900000E+00  0.11904358E+02
  0.18000000E+00  0.11983838E+02
  0.18100000E+00  0.12063980E+02
  0.18200000E+00  0.12144542E+02
  0.18300000E+00  0.12225891E+02
  0.18400000E+00  0.12307662E+02
  0.18500000E+00  0.12389855E+02
  0.18600000E+00  0.12472839E+02
  0.18700000E+00  0.12556247E+02
  0.18800000E+00  0.12640326E+02
  0.18900000E+00  0.12724830E+02
  0.19000000E+00  0.12810130E+02
  0.19100000E+00  0.12895857E+02
  0.19200000E+00  0.12982010E+02
  0.19300000E+00  0.13068839E+02
  0.19400000E+00  0.13156345E+02
  0.19500000E+00  0.13244279E+02
  0.19600000E+00  0.13332642E+02
  0.19700000E+00  0.13421684E+02
  0.19800000E+00  0.13511406E+02
  0.19900000E+00  0.13601559E+02
  0.20000000E+00  0.13692395E+02
  0.20100000E+00  0.13783660E+02
  0.20200000E+00  0.13875356E+02
  0.20300000E+00  0.13967864E+02
  0.20400000E+00  0.14060803E+02
  0.20500000E+00  0.14154301E+02
  0.20600000E+00  0.14248487E+02
  0.20700000E+00  0.14343105E+02
  0.20800000E+00  0.14438154E+02
  0.20900000E+00  0.14533893E+02
  0.21000000E+00  0.14630323E+02
  0.21100000E+00  0.14727185E+02
  0.21200000E+00  0.14824480E+02
  0.21300000E+00  0.14922468E+02
  0.21400000E+00  0.15020888E+02
  0.21500000E+00  0.15120002E+02
  0.21600000E+00  0.15219549E+02
  0.21700000E+00  0.15319791E+02
  0.21800000E+00  0.15420466E+02
  0.21900000E+00  0.15521838E+02
  0.22000000E+00  0.15623512E+02
  0.22100000E+00  0.15725882E+02
  0.22200000E+00  0.15828819E+02
  0.22300000E+00  0.15932189E+02
  0.22400000E+00  0.16036257E+02
  0.22500000E+00  0.16140760E+02
  0.22600000E+00  0.16245695E+02
  0.22700000E+00  0.16351330E+02
  0.22800000E+00  0.16457533E+02
  0.22900000E+00  0.16564169E+02
  0.23000000E+00  0.16671507E+02
  0.23100000E+00  0.16779278E+02
  0.23200000E+00  0.16887616E+02
  0.23300000E+00  0.16996388E+02
  0.23400000E+00  0.17105863E+02
  0.23500000E+00  0.17215771E+02
  0.23600000E+00  0.17326383E+02
  0.23700000E+00  0.17437292E+02
  0.23800000E+00  0.17548905E+02
  0.23900000E+00  0.17660951E+02
  0.24000000E+00  0.17773566E+02
  0.24100000E+00  0.17886749E+02
  0.24200000E+00  0.18000501E+02
  0.24300000E+00  0.18114686E+02
  0.24400000E+00  0.18229302E+02
  0.24500000E+00  0.18344624E+02
  0.24600000E+00  0.18460516E+02
  0.24700000E+00  0.18576839E+02
  0.24800000E+00  0.18693731E+02
  0.24900000E+00  0.18811053E+02
  0.25000000E+00  0.18929084E+02
  0.25100000E+00  0.19047545E+02
  0.25200000E+00  0.19166436E+02
  0.25300000E+00  0.19286036E+02
  0.25400000E+00  0.19406065E+02
  0.25500000E+00  0.19526524E+02
  0.25600000E+00  0.19647691E+02
  0.25700000E+00  0.19769288E+02
  0.25800000E+00  0.19891454E+02
  0.25900000E+00  0.20014048E+02
  0.26000000E+00  0.20137211E+02
  0.26100000E+00  0.20261084E+02
  0.26200000E+00  0.20385103E+02
  0.26300000E+00  0.20509831E+02
  0.26400000E+00  0.20635269E+02
  0.26500000E+00  0.20760851E+02
  0.26600000E+00  0.20887143E+02
  0.26700000E+00  0.21014146E+02
  0.26800000E+00  0.21141290E+02
  0.26900000E+00  0.21269145E+02
  0.27000000E+00  0.21397424E+02
  0.27100000E+00  0.21526415E+02
  0.27200000E+00  0.21655831E+02
  0.27300000E+00  0.21785670E+02
  0.27400000E+00  0.21915934E+02
  0.27500000E+00  0.22046909E+02
  0.27600000E+00  0.22178307E+02
  0.27700000E+00  0.22310128E+02
  0.27800000E+00  0.22442660E+02
  0.27900000E+00  0.22575615E+02
  0.28000000E+00  0.22708991E+02
  0.28100000E+00  0.22842934E+02
  0.28200000E+00  0.22977298E+02
  0.28300000E+00  0.23112228E+02
  0.28400000E+00  0.23247869E+02
  0.28500000E+00  0.23383640E+02
  0.28600000E+00  0.23520121E+02
  0.28700000E+00  0.23657022E+02
  0.28800000E+00  0.23794634E+02
  0.28900000E+00  0.23932519E+02
  0.29000000E+00  0.24070968E+02
  0.29100000E+00  0.24209982E+02
  0.29200000E+00  0.24349266E+02
  0.29300000E+00  0.24489261E+02
  0.29400000E+00  0.24629673E+02
  0.29500000E+00  0.24770649E+02
  0.29600000E+00  0.24912040E+02
  0.29700000E+00  0.25053995E+02
  0.29800000E+00  0.25196365E+02
  0.29900000E+00  0.25339149E+02
  0.30000000E+00  0.25482644E+02
  0.30100000E+00  0.25626553E+02
  0.30200000E+00  0.25770875E+02
  0.30300000E+00  0.25915610E+02
  0.30400000E+00  0.26061056E+02
  0.30500000E+00  0.26206913E+02
  0.30600000E+00  0.26353183E+02
  0.30700000E+00  0.26499863E+02
  0.30800000E+00  0.26647254E+02
  0.30900000E+00  0.26795055E+02
  0.31000000E+00  0.26943266E+02
  0.31100000E+00  0.27091887E+02
  0.31200000E+00  0.27241217E+02
  0.31300000E+00  0.27390805E+02
  0.31400000E+00  0.27541103E+02
  0.31500000E+00  0.27691658E+02
  0.31600000E+00  0.27842771E+02
  0.31700000E+00  0.27994291E+02
  0.31800000E+00  0.28146369E+02
  0.31900000E+00  0.28298852E+02
  0.32000000E+00  0.28452044E+02
  0.32100000E+00  0.28605490E+02
  0.32200000E+00  0.28759340E+02
  0.32300000E+00  0.28913898E+02
  0.32400000E+00  0.29068860E+02
  0.32500000E+00  0.29224073E+02
  0.32600000E+00  0.29379994E+02
  0.32700000E+00  0.29536316E+02
  0.32800000E+00  0.29693041E+02
  0.32900000E+00  0.29850473E+02
  0.33000000E+00  0.30008153E+02
  0.33100000E+00  0.30166234E+02
  0.33200000E+00  0.30324867E+02
  0.33300000E+00  0.30484207E+02
  0.33400000E+00  0.30643640E+02
  0.33500000E+00  0.30803778E+02
  0.33600000E+00  0.30964314E+02
  0.33700000E+00  0.31125249E+02
  0.33800000E+00  0.31286580E+02
  0.33900000E+00  0.31448617E+02
  0.34000000E+00  0.31610895E+02
  0.34100000E+00  0.31773724E+02
  0.34200000E+00  0.31936948E+02
  0.34300000E+00  0.32100722E+02
  0.34400000E+00  0.32264890E+02
  0.34500000E+00  0.32429452E+02
  0.34600000E+00  0.32594562E+02
  0.34700000E+00  0.32760066E+02
  0.34800000E+00  0.32926272E+02
  0.34900000E+00  0.33092560E+02
  0.35000000E+00  0.33259551E+02
  0.35100000E+00  0.33426932E+02
  0.35200000E+00  0.33594704E+02
  0.35300000E+00  0.33762867E+02
  0.35400000E+00  0.33931731E+02
  0.35500000E+00  0.34100828E+02
  0.35600000E+00  0.34270313E+02
  0.35700000E+00  0.34440343E+02
  0.35800000E+00  0.34610917E+02
  0.35900000E+00  0.34781879E+02
  0.36000000E+00  0.34953227E+02
  0.36100000E+00  0.35124961E+02
  0.36200000E+00  0.35297237E+02
  0.36300000E+00  0.35470057E+02
  0.36400000E+00  0.35643261E+02
  0.36500000E+00  0.35816692E+02
  0.36600000E+00  0.35990822E+02
  0.36700000E+00  0.36165335E+02
  0.36800000E+00  0.36340230E+02
  0.36900000E+00  0.36515508E+02
  0.37000000E+00  0.36691325E+02
  0.37100000E+00  0.36867524E+02
  0.37200000E+00  0.37044262E+02
  0.37300000E+00  0.37221380E+02
  0.37400000E+00  0.37398878E+02
  0.37500000E+00  0.37576755E+02
  0.37600000E+00  0.37755170E+02
  0.37700000E+00  0.37933962E+02
  0.37800000E+00  0.38113292E+02
  0.37900000E+00  0.38292839E+02
  0.38000000E+00  0.38473082E+02
  0.38100000E+00  0.38653542E+02
  0.38200000E+00  0.38834536E+02
  0.38300000E+00  0.39015906E+02
  0.38400000E+00  0.39197811E+02
  0.38500000E+00  0.39379930E+02
  0.38600000E+00  0.39562742E+02
  0.38700000E+00  0.39745768E+02
  0.38800000E+00  0.39929166E+02
  0.38900000E+00  0.40113257E+02
  0.39000000E+00  0.40297559E+02
  0.39100000E+00  0.40482393E+02
  0.39200000E+00  0.40667598E+02
  0.39300000E+00  0.40853173E+02
  0.39400000E+00  0.41039278E+02
  0.39500000E+00  0.41225753E+02
  0.39600000E+00  0.41412596E+02
  0.39700000E+00  0.41599968E+02
  0.39800000E+00  0.41787709E+02
  0.39900000E+00  0.41975816E+02
  0.40000000E+00  0.42164290E+02
  0.40100000E+00  0.42353292E+02
  0.40200000E+00  0.42542659E+02
  0.40300000E+00  0.42732391E+02
  0.40400000E+00  0.42922650E+02
  0.40500000E+00  0.43113273E+02
  0.40600000E+00  0.43304260E+02
  0.40700000E+00  0.43495772E+02
  0.40800000E+00  0.43687484E+02
  0.40900000E+00  0.43879884E+02
  0.41000000E+00  0.44072482E+02
  0.41100000E+00  0.44265604E+02
  0.41200000E+00  0.44459087E+02
  0.41300000E+00  0.44652929E+02
  0.41400000E+00  0.44847295E+02
  0.41500000E+00  0.45041856E+02
  0.41600000E+00  0.45237102E+02
  0.41700000E+00  0.45432543E+02
  0.41800000E+00  0.45628341E+02
  0.41900000E+00  0.45824660E+02
  0.42000000E+00  0.46021335E+02
  0.42100000E+00  0.46218530E+02
  0.42200000E+00  0.46416081E+02
  0.42300000E+00  0.46613987E+02
  0.42400000E+00  0.46812247E+02
  0.42500000E+00  0.47011025E+02
  0.42600000E+00  0.47210157E+02
  0.42700000E+00  0.47409642E+02
  0.42800000E+00  0.47609479E+02
  0.42900000E+00  0.47809668E+02
  0.43000000E+00  0.48010538E+02
  0.43100000E+00  0.48211429E+02
  0.43200000E+00  0.48413000E+02
  0.43300000E+00  0.48614922E+02
  0.43400000E+00  0.48817192E+02
  0.43500000E+00  0.49019812E+02
  0.43600000E+00  0.49222780E+02
  0.43700000E+00  0.49426262E+02
  0.43800000E+00  0.49630090E+02
  0.43900000E+00  0.49834266E+02
  0.44000000E+00  0.50038788E+02
  0.44100000E+00  0.50243822E+02
  0.44200000E+00  0.50449201E+02
  0.44300000E+00  0.50654925E+02
  0.44400000E+00  0.50860993E+02
  0.44500000E+00  0.51067571E+02
  0.44600000E+00  0.51274493E+02
  0.44700000E+00  0.51481758E+02
  0.44800000E+00  0.51689365E+02
  0.44900000E+00  0.51897480E+02
  0.45000000E+00  0.52105936E+02
  0.45100000E+00  0.52314734E+02
  0.45200000E+00  0.52523872E+02
  0.45300000E+00  0.52733516E+02
  0.45400000E+00  0.52943500E+02
  0.45500000E+00  0.53153823E+02
  0.45600000E+00  0.53364484E+02
  0.45700000E+00  0.53575650E+02
  0.45800000E+00  0.53786986E+02
  0.45900000E+00  0.53998827E+02
  0.46000000E+00  0.54211004E+02
  0.46100000E+00  0.54423684E+02
  0.46200000E+00  0.54636532E+02
  0.46300000E+00  0.54849882E+02
  0.46400000E+00  0.55063567E+02
  0.46500000E+00  0.55277753E+02
  0.46600000E+00  0.55492106E+02
  0.46700000E+00  0.55706958E+02
  0.46800000E+00  0.55922144E+02
  0.46900000E+00  0.56137661E+02
  0.47000000E+00  0.56353678E+02
  0.47100000E+00  0.56569857E+02
  0.47200000E+00  0.56786536E+02
  0.47300000E+00  0.57003544E+02
  0.47400000E+00  0.57220881E+02
  0.47500000E+00  0.57438716E+02
  0.47600000E+00  0.57656711E+02
  0.47700000E+00  0.57875203E+02
  0.47800000E+00  0.58094022E+02
  0.47900000E+00  0.58313336E+02
  0.48000000E+00  0.58532977E+02
  0.48100000E+00  0.58752776E+02
  0.48200000E+00  0.58973068E+02
  0.48300000E+00  0.59193686E+02
  0.48400000E+00  0.59414797E+02
  0.48500000E+00  0.59636064E+02
  0.48600000E+00  0.59857823E+02
  0.48700000E+00  0.60079905E+02
  0.48800000E+00  0.60302309E+02
  0.48900000E+00  0.60525205E+02
  0.49000000E+00  0.60748254E+02
  0.49100000E+00  0.60971793E+02
  0.49200000E+00  0.61195652E+02
  0.49300000E+00  0.61419832E+02
  0.49400000E+00  0.61644331E+02
  0.49500000E+00  0.61869319E+02
  0.49600000E+00  0.62094626E+02
  0.49700000E+00  0.62320251E+02
  0.49800000E+00  0.62546194E+02
  0.49900000E+00  0.62772454E+02
  0.50000000E+00  0.62999200E+02
  0.50100000E+00  0.63226263E+02
  0.50200000E+00  0.63453472E+02
  0.50300000E+00  0.63681336E+02
  0.50400000E+00  0.63909345E+02
  0.50500000E+00  0.64137669E+02
  0.50600000E+00  0.64366476E+02
  0.50700000E+00  0.64595596E+02
  0.50800000E+00  0.64825030E+02
  0.50900000E+00  0.65054776E+02
  0.51000000E+00  0.65284834E+02
  0.51100000E+00  0.65515374E+02
  0.51200000E+00  0.65746224E+02
  0.51300000E+00  0.65977386E+02
  0.51400000E+00  0.66208857E+02
  0.51500000E+00  0.66440638E+02
  0.51600000E+00  0.66672898E+02
  0.51700000E+00  0.66905297E+02
  0.51800000E+00  0.67138174E+02
  0.51900000E+00  0.67371359E+02
  0.52000000E+00  0.67604852E+02
  0.52100000E+00  0.67838821E+02
  0.52200000E+00  0.68073097E+02
  0.52300000E+00  0.68307508E+02
  0.52400000E+00  0.68542394E+02
  0.52500000E+00  0.68777586E+02
  0.52600000E+00  0.69013253E+02
  0.52700000E+00  0.69249053E+02
  0.52800000E+00  0.69485156E+02
  0.52900000E+00  0.69721733E+02
  0.53000000E+00  0.69958613E+02
  0.53100000E+00  0.70195794E+02
  0.53200000E+00  0.70433277E+02
  0.53300000E+00  0.70671233E+02
  0.53400000E+00  0.70909317E+02
  0.53500000E+00  0.71147873E+02
  0.53600000E+00  0.71386728E+02
  0.53700000E+00  0.71625883E+02
  0.53800000E+00  0.71865336E+02
  0.53900000E+00  0.72105259E+02
  0.54000000E+00  0.72345308E+02
  0.54100000E+00  0.72585826E+02
  0.54200000E+00  0.72826641E+02
  0.54300000E+00  0.73067752E+02
  0.54400000E+00  0.73309159E+02
  0.54500000E+00  0.73550861E+02
  0.54600000E+00  0.73793029E+02
  0.54700000E+00  0.74035492E+02
  0.54800000E+00  0.74278078E+02
  0.54900000E+00  0.74521129E+02
  0.55000000E+00  0.74764472E+02
  0.55100000E+00  0.75008280E+02
  0.55200000E+00  0.75252209E+02
  0.55300000E+00  0.75496600E+02
  0.55400000E+00  0.75741112E+02
  0.55500000E+00  0.75986085E+02
  0.55600000E+00  0.76231349E+02
  0.55700000E+00  0.76477075E+02
  0.55800000E+00  0.76722918E+02
  0.55900000E+00  0.76969222E+02
  0.56000000E+00  0.77215642E+02
  0.56100000E+00  0.77462522E+02
  0.56200000E+00  0.77709690E+02
  0.56300000E+00  0.77957145E+02
  0.56400000E+00  0.78204886E+02
  0.56500000E+00  0.78452914E+02
  0.56600000E+00  0.78701399E+02
  0.56700000E+00  0.78949997E+02
  0.56800000E+00  0.79199052E+02
  0.56900000E+00  0.79448392E+02
  0.57000000E+00  0.79698015E+02
  0.57100000E+00  0.79947921E+02
  0.57200000E+00  0.80198283E+02
  0.57300000E+00  0.80448755E+02
  0.57400000E+00  0.80699681E+02
  0.57500000E+00  0.80950888E+02
  0.57600000E+00  0.81202377E+02
  0.57700000E+00  0.81453974E+02
  0.57800000E+00  0.81706196E+02
  0.57900000E+00  0.81958525E+02
  0.58000000E+00  0.82211133E+02
  0.58100000E+00  0.82464193E+02
  0.58200000E+00  0.82717530E+02
  0.58300000E+00  0.82971146E+02
  0.58400000E+00  0.83224867E+02
  0.58500000E+00  0.83479209E+02
  0.58600000E+00  0.83733656E+02
  0.58700000E+00  0.83988379E+02
  0.58800000E+00  0.84243377E+02
  0.58900000E+00  0.84498823E+02
  0.59000000E+00  0.84754543E+02
  0.59100000E+00  0.85010538E+02
  0.59200000E+00  0.85266807E+02
  0.59300000E+00  0.85523349E+02
  0.59400000E+00  0.85780164E+02
  0.59500000E+00  0.86037252E+02
  0.59600000E+00  0.86294783E+02
  0.59700000E+00  0.86552415E+02
  0.59800000E+00  0.86810489E+02
  0.59900000E+00  0.87068835E+02
  0.60000000E+00  0.87327450E+02
  0.60100000E+00  0.87586335E+02
  0.60200000E+00  0.87845490E+02
  0.60300000E+00  0.88105086E+02
  0.60400000E+00  0.88364778E+02
  0.60500000E+00  0.88624911E+02
  0.60600000E+00  0.88885139E+02
  0.60700000E+00  0.89145806E+02
  0.60800000E+00  0.89406740E+02
  0.60900000E+00  0.89667940E+02
  0.61000000E+00  0.89929406E+02
  0.61100000E+00  0.90191309E+02
  0.61200000E+00  0.90453305E+02
  0.61300000E+00  0.90715566E+02
  0.61400000E+00  0.90978263E+02
  0.61500000E+00  0.91241224E+02
  0.61600000E+00  0.91504448E+02
  0.61700000E+00  0.91767934E+02
  0.61800000E+00  0.92031683E+02
  0.61900000E+00  0.92295693E+02
  0.62000000E+00  0.92559965E+02
  0.62100000E+00  0.92824498E+02
  0.62200000E+00  0.93089464E+02
  0.62300000E+00  0.93354690E+02
  0.62400000E+00  0.93620003E+02
  0.62500000E+00  0.93885748E+02
  0.62600000E+00  0.94151751E+02
  0.62700000E+00  0.94418013E+02
  0.62800000E+00  0.94684532E+02
  0.62900000E+00  0.94951481E+02
  0.63000000E+00  0.95218515E+02
  0.63100000E+00  0.95485806E+02
  0.63200000E+00  0.95753525E+02
  0.63300000E+00  0.96021500E+02
  0.63400000E+00  0.96289557E+02
  0.63500000E+00  0.96558042E+02
  0.63600000E+00  0.96826781E+02
  0.63700000E+00  0.97095775E+02
  0.63800000E+00  0.97365021E+02
  0.63900000E+00  0.97634693E+02
  0.64000000E+00  0.97904446E+02
  0.64100000E+00  0.98174450E+02
  0.64200000E+00  0.98444879E+02
  0.64300000E+00  0.98715387E+02
  0.64400000E+00  0.98986318E+02
  0.64500000E+00  0.99257499E+02
  0.64600000E+00  0.99528931E+02
  0.64700000E+00  0.99800612E+02
  0.64800000E+00  0.10007254E+03
  0.64900000E+00  0.10034472E+03
  0.65000000E+00  0.10061732E+03
  0.65100000E+00  0.10089000E+03
  0.65200000E+00  0.10116292E+03
  0.65300000E+00  0.10143626E+03
  0.65400000E+00  0.10170985E+03
  0.65500000E+00  0.10198351E+03
  0.65600000E+00  0.10225759E+03
  0.65700000E+00  0.10253192E+03
  0.65800000E+00  0.10280649E+03
  0.65900000E+00  0.10308131E+03
  0.66000000E+00  0.10335637E+03
  0.66100000E+00  0.10363184E+03
  0.66200000E+00  0.10390739E+03
  0.66300000E+00  0.10418335E+03
  0.66400000E+00  0.10445938E+03
  0.66500000E+00  0.10473583E+03
  0.66600000E+00  0.10501234E+03
  0.66700000E+00  0.10528927E+03
  0.66800000E+00  0.10556644E+03
  0.66900000E+00  0.10584385E+03
  0.67000000E+00  0.10612150E+03
  0.67100000E+00  0.10639938E+03
  0.67200000E+00  0.10667751E+03
  0.67300000E+00  0.10695588E+03
  0.67400000E+00  0.10723465E+03
  0.67500000E+00  0.10751350E+03
  0.67600000E+00  0.10779275E+03
  0.67700000E+00  0.10807206E+03
  0.67800000E+00  0.10835179E+03
  0.67900000E+00  0.10863175E+03
  0.68000000E+00  0.10891177E+03
  0.68100000E+00  0.10919220E+03
  0.68200000E+00  0.10947287E+03
  0.68300000E+00  0.10975377E+03
  0.68400000E+00  0.11003490E+03
  0.68500000E+00  0.11031644E+03
  0.68600000E+00  0.11059804E+03
  0.68700000E+00  0.11087988E+03
  0.68800000E+00  0.11116195E+03
  0.68900000E+00  0.11144441E+03
  0.69000000E+00  0.11172694E+03
  0.69100000E+00  0.11200988E+03
  0.69200000E+00  0.11229304E+03
  0.69300000E+00  0.11257626E+03
  0.69400000E+00  0.11285988E+03
  0.69500000E+00  0.11314374E+03
  0.69600000E+00  0.11342782E+03
  0.69700000E+00  0.11371213E+03
  0.69800000E+00  0.11399666E+03
  0.69900000E+00  0.11428143E+03
  0.70000000E+00  0.11456642E+03
  0.70100000E+00  0.11485164E+03
  0.70200000E+00  0.11513726E+03
  0.70300000E+00  0.11542293E+03
  0.70400000E+00  0.11570883E+03
  0.70500000E+00  0.11599513E+03
  0.70600000E+00  0.11628148E+03
  0.70700000E+00  0.11656822E+03
  0.70800000E+00  0.11685519E+03
  0.70900000E+00  0.11714221E+03
  0.71000000E+00  0.11742962E+03
  0.71100000E+00  0.11771726E+03
  0.71200000E+00  0.11800512E+03
  0.71300000E+00  0.11829320E+03
  0.71400000E+00  0.11858151E+03
  0.71500000E+00  0.11887003E+03
  0.71600000E+00  0.11915878E+03
  0.71700000E+00  0.11944775E+03
  0.71800000E+00  0.11973693E+03
  0.71900000E+00  0.12002651E+03
  0.72000000E+00  0.12031614E+03
  0.72100000E+00  0.12060598E+03
  0.72200000E+00  0.12089621E+03
  0.72300000E+00  0.12118649E+03
  0.72400000E+00  0.12147716E+03
  0.72500000E+00  0.12176788E+03
  0.72600000E+00  0.12205898E+03
  0.72700000E+00  0.12235030E+03
  0.72800000E+00  0.12264167E+03
  0.72900000E+00  0.12293342E+03
  0.73000000E+00  0.12322538E+03
  0.73100000E+00  0.12351756E+03
  0.73200000E+00  0.12380996E+03
  0.73300000E+00  0.12410257E+03
  0.73400000E+00  0.12439531E+03
  0.73500000E+00  0.12468843E+03
  0.73600000E+00  0.12498167E+03
  0.73700000E+00  0.12527514E+03
  0.73800000E+00  0.12556881E+03
  0.73900000E+00  0.12586270E+03
  0.74000000E+00  0.12615679E+03
  0.74100000E+00  0.12645127E+03
  0.74200000E+00  0.12674579E+03
  0.74300000E+00  0.12704051E+03
  0.74400000E+00  0.12733562E+03
  0.74500000E+00  0.12763077E+03
  0.74600000E+00  0.12792621E+03
  0.74700000E+00  0.12822186E+03
  0.74800000E+00  0.12851771E+03
  0.74900000E+00  0.12881378E+03
  0.75000000E+00  0.12911013E+03
  0.75100000E+00  0.12940653E+03
  0.75200000E+00  0.12970330E+03
  0.75300000E+00  0.13000027E+03
  0.75400000E+00  0.13029729E+03
  0.75500000E+00  0.13059468E+03
  0.75600000E+00  0.13089227E+03
  0.75700000E+00  0.13119006E+03
  0.75800000E+00  0.13148798E+03
  0.75900000E+00  0.13178610E+03
  0.76000000E+00  0.13208451E+03
  0.76100000E+00  0.13238312E+03
  0.76200000E+00  0.13268193E+03
  0.76300000E+00  0.13298095E+03
  0.76400000E+00  0.13328017E+03
  0.76500000E+00  0.13357959E+03
  0.76600000E+00  0.13387921E+03
  0.76700000E+00  0.13417903E+03
  0.76800000E+00  0.13447905E+03
  0.76900000E+00  0.13477936E+03
  0.77000000E+00  0.13507986E+03
  0.77100000E+00  0.13538048E+03
  0.77200000E+00  0.13568130E+03
  0.77300000E+00  0.13598232E+03
  0.77400000E+00  0.13628362E+03
  0.77500000E+00  0.13658512E+03
  0.77600000E+00  0.13688673E+03
  0.77700000E+00  0.13718854E+03
  0.77800000E+00  0.13749063E+03
  0.77900000E+00  0.13779291E+03
  0.78000000E+00  0.13809531E+03
  0.78100000E+00  0.13839798E+03
  0.78200000E+00  0.13870085E+03
  0.78300000E+00  0.13900383E+03
  0.78400000E+00  0.13930709E+03
  0.78500000E+00  0.13961055E+03
  0.78600000E+00  0.13991411E+03
  0.78700000E+00  0.14021803E+03
  0.78800000E+00  0.14052198E+03
  0.78900000E+00  0.14082629E+03
  0.79000000E+00  0.14113063E+03
  0.79100000E+00  0.14143523E+03
  0.79200000E+00  0.14174003E+03
  0.79300000E+00  0.14204494E+03
  0.79400000E+00  0.14235021E+03
  0.79500000E+00  0.14265550E+03
  0.79600000E+00  0.14296114E+03
  0.79700000E+00  0.14326681E+03
  0.79800000E+00  0.14357283E+03
  0.79900000E+00  0.14387888E+03
  0.80000000E+00  0.14418528E+03
  0.80100000E+00  0.14449170E+03
  0.80200000E+00  0.14479847E+03
  0.80300000E+00  0.14510527E+03
  0.80400000E+00  0.14541242E+03
  0.80500000E+00  0.14571959E+03
  0.80600000E+00  0.14602711E+03
  0.80700000E+00  0.14633466E+03
  0.80800000E+00  0.14664255E+03
  0.80900000E+00  0.14695046E+03
  0.81000000E+00  0.14725872E+03
  0.81100000E+00  0.14756701E+03
  0.81200000E+00  0.14787563E+03
  0.81300000E+00  0.14818428E+03
  0.81400000E+00  0.14849320E+03
  0.81500000E+00  0.14880230E+03
  0.81600000E+00  0.14911150E+03
  0.81700000E+00  0.14942104E+03
  0.81800000E+00  0.14973060E+03
  0.81900000E+00  0.15004051E+03
  0.82000000E+00  0.15035043E+03
  0.82100000E+00  0.15066062E+03
  0.82200000E+00  0.15097099E+03
  0.82300000E+00  0.15128145E+03
  0.82400000E+00  0.15159218E+03
  0.82500000E+00  0.15190308E+03
  0.82600000E+00  0.15221409E+03
  0.82700000E+00  0.15252535E+03
  0.82800000E+00  0.15283679E+03
  0.82900000E+00  0.15314833E+03
  0.83000000E+00  0.15346005E+03
  0.83100000E+00  0.15377202E+03
  0.83200000E+00  0.15408417E+03
  0.83300000E+00  0.15439641E+03
  0.83400000E+00  0.15470884E+03
  0.83500000E+00  0.15502143E+03
  0.83600000E+00  0.15533421E+03
  0.83700000E+00  0.15564723E+03
  0.83800000E+00  0.15596036E+03
  0.83900000E+00  0.15627365E+03
  0.84000000E+00  0.15658712E+03
  0.84100000E+00  0.15690077E+03
  0.84200000E+00  0.15721458E+03
  0.84300000E+00  0.15752857E+03
  0.84400000E+00  0.15784274E+03
  0.84500000E+00  0.15815699E+03
  0.84600000E+00  0.15847150E+03
  0.84700000E+00  0.15878617E+03
  0.84800000E+00  0.15910102E+03
  0.84900000E+00  0.15941604E+03
  0.85000000E+00  0.15973107E+03
  0.85100000E+00  0.16004643E+03
  0.85200000E+00  0.16036196E+03
  0.85300000E+00  0.16067758E+03
  0.85400000E+00  0.16099337E+03
  0.85500000E+00  0.16130933E+03
  0.85600000E+00  0.16162545E+03
  0.85700000E+00  0.16194182E+03
  0.85800000E+00  0.16225821E+03
  0.85900000E+00  0.16257483E+03
  0.86000000E+00  0.16289163E+03
  0.86100000E+00  0.16320851E+03
  0.86200000E+00  0.16352564E+03
  0.86300000E+00  0.16384293E+03
  0.86400000E+00  0.16416031E+03
  0.86500000E+00  0.16447786E+03
  0.86600000E+00  0.16479565E+03
  0.86700000E+00  0.16511352E+03
  0.86800000E+00  0.16543156E+03
  0.86900000E+00  0.16574977E+03
  0.87000000E+00  0.16606813E+03
  0.87100000E+00  0.16638666E+03
  0.87200000E+00  0.16670528E+03
  0.87300000E+00  0.16702414E+03
  0.87400000E+00  0.16734315E+03
  0.87500000E+00  0.16766226E+03
  0.87600000E+00  0.16798152E+03
  0.87700000E+00  0.16830102E+03
  0.87800000E+00  0.16862061E+03
  0.87900000E+00  0.16894035E+03
  0.88000000E+00  0.16926018E+03
  0.88100000E+00  0.16958032E+03
  0.88200000E+00  0.16990047E+03
  0.88300000E+00  0.17022086E+03
  0.88400000E+00  0.17054132E+03
  0.88500000E+00  0.17086203E+03
  0.88600000E+00  0.17118281E+03
  0.88700000E+00  0.17150375E+03
  0.88800000E+00  0.17182485E+03
  0.88900000E+00  0.17214611E+03
  0.89000000E+00  0.17246752E+03
  0.89100000E+00  0.17278901E+03
  0.89200000E+00  0.17311074E+03
  0.89300000E+00  0.17343254E+03
  0.89400000E+00  0.17375458E+03
  0.89500000E+00  0.17407662E+03
  0.89600000E+00  0.17439897E+03
  0.89700000E+00  0.17472132E+03
  0.89800000E+00  0.17504390E+03
  0.89900000E+00  0.17536663E+03
  0.90000000E+00  0.17568944E+03
  0.90100000E+00  0.17601241E+03
  0.90200000E+00  0.17633560E+03
  0.90300000E+00  0.17665887E+03
  0.90400000E+00  0.17698222E+03
  0.90500000E+00  0.17730579E+03
  0.90600000E+00  0.17762952E+03
  0.90700000E+00  0.17795340E+03
  0.90800000E+00  0.17827735E+03
  0.90900000E+00  0.17860146E+03
  0.91000000E+00  0.17892572E+03
  0.91100000E+00  0.17925012E+03
  0.91200000E+00  0.17957460E+03
  0.91300000E+00  0.17989931E+03
  0.91400000E+00  0.18022416E+03
  0.91500000E+00  0.18054909E+03
  0.91600000E+00  0.18087417E+03
  0.91700000E+00  0.18119939E+03
  0.91800000E+00  0.18152477E+03
  0.91900000E+00  0.18185022E+03
  0.92000000E+00  0.18217581E+03
  0.92100000E+00  0.18250163E+03
  0.92200000E+00  0.18282751E+03
  0.92300000E+00  0.18315355E+03
  0.92400000E+00  0.18347966E+03
  0.92500000E+00  0.18380598E+03
  0.92600000E+00  0.18413238E+03
  0.92700000E+00  0.18445900E+03
  0.92800000E+00  0.18478569E+03
  0.92900000E+00  0.18511252E+03
  0.93000000E+00  0.18543943E+03
  0.93100000E+00  0.18576647E+03
  0.93200000E+00  0.18609374E+03
  0.93300000E+00  0.18642108E+03
  0.93400000E+00  0.18674856E+03
  0.93500000E+00  0.18707618E+03
  0.93600000E+00  0.18740387E+03
  0.93700000E+00  0.18773178E+03
  0.93800000E+00  0.18805975E+03
  0.93900000E+00  0.18838787E+03
  0.94000000E+00  0.18871613E+03
  0.94100000E+00  0.18904446E+03
  0.94200000E+00  0.18937292E+03
  0.94300000E+00  0.18970161E+03
  0.94400000E+00  0.19003028E+03
  0.94500000E+00  0.19035917E+03
  0.94600000E+00  0.19068820E+03
  0.94700000E+00  0.19101729E+03
  0.94800000E+00  0.19134653E+03
  0.94900000E+00  0.19167590E+03
  0.95000000E+00  0.19200542E+03
  0.95100000E+00  0.19233507E+03
  0.95200000E+00  0.19266478E+03
  0.95300000E+00  0.19299464E+03
  0.95400000E+00  0.19332463E+03
  0.95500000E+00  0.19365476E+03
  0.95600000E+00  0.19398495E+03
  0.95700000E+00  0.19431528E+03
  0.95800000E+00  0.19464575E+03
  0.95900000E+00  0.19497635E+03
  0.96000000E+00  0.19530702E+03
  0.96100000E+00  0.19563789E+03
  0.96200000E+00  0.19596883E+03
  0.96300000E+00  0.19629983E+03
  0.96400000E+00  0.19663104E+03
  0.96500000E+00  0.19696238E+03
  0.96600000E+00  0.19729379E+03
  0.96700000E+00  0.19762533E+03
  0.96800000E+00  0.19795693E+03
  0.96900000E+00  0.19828874E+03
  0.97000000E+00  0.19862061E+03
  0.97100000E+00  0.19895261E+03
  0.97200000E+00  0.19928467E+03
  0.97300000E+00  0.19961694E+03
  0.97400000E+00  0.19994926E+03
  0.97500000E+00  0.20028172E+03
  0.97600000E+00  0.20061431E+03
  0.97700000E+00  0.20094697E+03
  0.97800000E+00  0.20127975E+03
  0.97900000E+00  0.20161266E+03
  0.98000000E+00  0.20194571E+03
  0.98100000E+00  0.20227881E+03
  0.98200000E+00  0.20261212E+03
  0.98300000E+00  0.20294541E+03
  0.98400000E+00  0.20327890E+03
  0.98500000E+00  0.20361253E+03
  0.98600000E+00  0.20394621E+03
  0.98700000E+00  0.20428002E+03
  0.98800000E+00  0.20461389E+03
  0.98900000E+00  0.20494789E+03
  0.99000000E+00  0.20528201E+03
  0.99100000E+00  0.20561627E+03
  0.99200000E+00  0.20595065E+03
  0.99300000E+00  0.20628509E+03
  0.99400000E+00  0.20661965E+03
  0.99500000E+00  0.20695435E+03
  0.99600000E+00  0.20728910E+03
  0.99700000E+00  0.20762397E+03
  0.99800000E+00  0.20795898E+03
  0.99900000E+00  0.20829404E+03
  0.10000000E+01  0.20862929E+03
  0.10010000E+01  0.20896460E+03
  0.10020000E+01  0.20929997E+03
  0.10030000E+01  0.20963553E+03
  0.10040000E+01  0.20997115E+03
  0.10050000E+01  0.21030689E+03
  0.10060000E+01  0.21064268E+03
  0.10070000E+01  0.21097867E+03
  0.10080000E+01  0.21131465E+03
  0.10090000E+01  0.21165082E+03
  0.10100000E+01  0.21198704E+03
  0.10110000E+01  0.21232342E+03
  0.10120000E+01  0.21265986E+03
  0.10130000E+01  0.21299645E+03
  0.10140000E+01  0.21333310E+03
  0.10150000E+01  0.21366986E+03
  0.10160000E+01  0.21400669E+03
  0.10170000E+01  0.21434363E+03
  0.10180000E+01  0.21468070E+03
  0.10190000E+01  0.21501789E+03
  0.10200000E+01  0.21535513E+03
  0.10210000E+01  0.21569249E+03
  0.10220000E+01  0.21602997E+03
  0.10230000E+01  0.21636751E+03
  0.10240000E+01  0.21670516E+03
  0.10250000E+01  0.21704294E+03
  0.10260000E+01  0.21738077E+03
  0.10270000E+01  0.21771872E+03
  0.10280000E+01  0.21805678E+03
  0.10290000E+01  0.21839497E+03
  0.10300000E+01  0.21873321E+03
  0.10310000E+01  0.21907153E+03
  0.10320000E+01  0.21940997E+03
  0.10330000E+01  0.21974850E+03
  0.10340000E+01  0.22008715E+03
  0.10350000E+01  0.22042585E+03
  0.10360000E+01  0.22076466E+03
  0.10370000E+01  0.22110359E+03
  0.10380000E+01  0.22144264E+03
  0.10390000E+01  0.22178174E+03
  0.10400000E+01  0.22212096E+03
  0.10410000E+01  0.22246023E+03
  0.10420000E+01  0.22279962E+03
  0.10430000E+01  0.22313912E+03
  0.10440000E+01  0.22347867E+03
  0.10450000E+01  0.22381837E+03
  0.10460000E+01  0.22415812E+03
  0.10470000E+01  0.22449802E+03
  0.10480000E+01  0.22483797E+03
  0.10490000E+01  0.22517797E+03
  0.10500000E+01  0.22551815E+03
  0.10510000E+01  0.22585838E+03
  0.10520000E+01  0.22619866E+03
  0.10530000E+01  0.22653911E+03
  0.10540000E+01  0.22687962E+03
  0.10550000E+01  0.22722018E+03
  0.10560000E+01  0.22756088E+03
  0.10570000E+01  0.22790163E+03
  0.10580000E+01  0.22824253E+03
  0.10590000E+01  0.22858348E+03
  0.10600000E+01  0.22892454E+03
  0.10610000E+01  0.22926565E+03
  0.10620000E+01  0.22960687E+03
  0.10630000E+01  0.22994820E+03
  0.10640000E+01  0.23028961E+03
  0.10650000E+01  0.23063111E+03
  0.10660000E+01  0.23097268E+03
  0.10670000E+01  0.23131434E+03
  0.10680000E+01  0.23165610E+03
  0.10690000E+01  0.23199798E+03
  0.10700000E+01  0.23233991E+03
  0.10710000E+01  0.23268194E+03
  0.10720000E+01  0.23302403E+03
  0.10730000E+01  0.23336622E+03
  0.10740000E+01  0.23370853E+03
  0.10750000E+01  0.23405088E+03
  0.10760000E+01  0.23439334E+03
  0.10770000E+01  0.23473589E+03
  0.10780000E+01  0.23507851E+03
  0.10790000E+01  0.23542121E+03
  0.10800000E+01  0.23576405E+03
  0.10810000E+01  0.23610693E+03
  0.10820000E+01  0.23644987E+03
  0.10830000E+01  0.23679294E+03
  0.10840000E+01  0.23713610E+03
  0.10850000E+01  0.23747933E+03
  0.10860000E+01  0.23782263E+03
  0.10870000E+01  0.23816605E+03
  0.10880000E+01  0.23850951E+03
  0.10890000E+01  0.23885309E+03
  0.10900000E+01  0.23919674E+03
  0.10910000E+01  0.23954046E+03
  0.10920000E+01  0.23988429E+03
  0.10930000E+01  0.24022820E+03
  0.10940000E+01  0.24057219E+03
  0.10950000E+01  0.24091623E+03
  0.10960000E+01  0.24126040E+03
  0.10970000E+01  0.24160462E+03
  0.10980000E+01  0.24194894E+03
  0.10990000E+01  0.24229334E+03
  0.11000000E+01  0.24263782E+03
  0.11010000E+01  0.24298240E+03
  0.11020000E+01  0.24332703E+03
  0.11030000E+01  0.24367177E+03
  0.11040000E+01  0.24401658E+03
  0.11050000E+01  0.24436147E+03
  0.11060000E+01  0.24470646E+03
  0.11070000E+01  0.24505150E+03
  0.11080000E+01  0.24539664E+03
  0.11090000E+01  0.24574186E+03
  0.11100000E+01  0.24608715E+03
  0.11110000E+01  0.24643255E+03
  0.11120000E+01  0.24677800E+03
  0.11130000E+01  0.24712355E+03
  0.11140000E+01  0.24746917E+03
  0.11150000E+01  0.24781487E+03
  0.11160000E+01  0.24816065E+03
  0.11170000E+01  0.24850653E+03
  0.11180000E+01  0.24885245E+03
  0.11190000E+01  0.24919848E+03
  0.11200000E+01  0.24954458E+03
  0.11210000E+01  0.24989076E+03
  0.11220000E+01  0.25023704E+03
  0.11230000E+01  0.25058337E+03
  0.11240000E+01  0.25092980E+03
  0.11250000E+01  0.25127630E+03
  0.11260000E+01  0.25162288E+03
  0.11270000E+01  0.25196953E+03
  0.11280000E+01  0.25231625E+03
  0.11290000E+01  0.25266308E+03
  0.11300000E+01  0.25300998E+03
  0.11310000E+01  0.25335696E+03
  0.11320000E+01  0.25370401E+03
  0.11330000E+01  0.25405113E+03
  0.11340000E+01  0.25439833E+03
  0.11350000E+01  0.25474563E+03
  0.11360000E+01  0.25509297E+03
  0.11370000E+01  0.25544042E+03
  0.11380000E+01  0.25578793E+03
  0.11390000E+01  0.25613553E+03
  0.11400000E+01  0.25648322E+03
  0.11410000E+01  0.25683096E+03
  0.11420000E+01  0.25717880E+03
  0.11430000E+01  0.25752671E+03
  0.11440000E+01  0.25787469E+03
  0.11450000E+01  0.25822275E+03
  0.11460000E+01  0.25857088E+03
  0.11470000E+01  0.25891911E+03
  0.11480000E+01  0.25926739E+03
  0.11490000E+01  0.25961577E+03
  0.11500000E+01  0.25996422E+03
  0.11510000E+01  0.26031274E+03
  0.11520000E+01  0.26066134E+03
  0.11530000E+01  0.26101000E+03
  0.11540000E+01  0.26135877E+03
  0.11550000E+01  0.26170761E+03
  0.11560000E+01  0.26205650E+03
  0.11570000E+01  0.26240548E+03
  0.11580000E+01  0.26275454E+03
  0.11590000E+01  0.26310369E+03
  0.11600000E+01  0.26345289E+03
  0.11610000E+01  0.26380218E+03
  0.11620000E+01  0.26415154E+03
  0.11630000E+01  0.26450098E+03
  0.11640000E+01  0.26485050E+03
  0.11650000E+01  0.26520009E+03
  0.11660000E+01  0.26554975E+03
  0.11670000E+01  0.26589951E+03
  0.11680000E+01  0.26624931E+03
  0.11690000E+01  0.26659922E+03
  0.11700000E+01  0.26694919E+03
  0.11710000E+01  0.26729924E+03
  0.11720000E+01  0.26764936E+03
  0.11730000E+01  0.26799955E+03
  0.11740000E+01  0.26834983E+03
  0.11750000E+01  0.26870017E+03
  0.11760000E+01  0.26905060E+03
  0.11770000E+01  0.26940110E+03
  0.11780000E+01  0.26975167E+03
  0.11790000E+01  0.27010232E+03
  0.11800000E+01  0.27045305E+03
  0.11810000E+01  0.27080385E+03
  0.11820000E+01  0.27115473E+03
  0.11830000E+01  0.27150567E+03
  0.11840000E+01  0.27185670E+03
  0.11850000E+01  0.27220780E+03
  0.11860000E+01  0.27255897E+03
  0.11870000E+01  0.27291024E+03
  0.11880000E+01  0.27326156E+03
  0.11890000E+01  0.27361297E+03
  0.11900000E+01  0.27396444E+03
  0.11910000E+01  0.27431599E+03
  0.11920000E+01  0.27466762E+03
  0.11930000E+01  0.27501933E+03
  0.11940000E+01  0.27537110E+03
  0.11950000E+01  0.27572296E+03
  0.11960000E+01  0.27607488E+03
  0.11970000E+01  0.27642688E+03
  0.11980000E+01  0.27677896E+03
  0.11990000E+01  0.27713110E+03
  0.12000000E+01  0.27748334E+03
