\relax 
\ifx\hyper@anchor\@undefined
\global \let \oldcontentsline\contentsline
\gdef \contentsline#1#2#3#4{\oldcontentsline{#1}{#2}{#3}}
\global \let \oldnewlabel\newlabel
\gdef \newlabel#1#2{\newlabelxx{#1}#2}
\gdef \newlabelxx#1#2#3#4#5#6{\oldnewlabel{#1}{{#2}{#3}}}
\AtEndDocument{\let \contentsline\oldcontentsline
\let \newlabel\oldnewlabel}
\else
\global \let \hyper@last\relax 
\fi

\providecommand*\HyPL@Entry[1]{}
\citation{mizuno}
\citation{baker}
\citation{tscharnuter}
\citation{balluch}
\citation{baker}
\citation{baker}
\citation{baker}
\HyPL@Entry{0<</S/D>>}
\select@language{english}
\@writefile{toc}{\select@language{english}}
\@writefile{lof}{\select@language{english}}
\@writefile{lot}{\select@language{english}}
\@writefile{toc}{\contentsline {section}{\numberline {1}Introduction}{1}{section.1}}
\@writefile{toc}{\contentsline {section}{\numberline {2}Baker's standard one-zone model}{1}{section.2}}
\citation{baker}
\citation{cox}
\citation{baker}
\@writefile{lof}{\contentsline {figure}{\numberline {1}{\ignorespaces Adiabatic exponent $\Gamma _1$. $\Gamma _1$ is plotted as a function of $\qopname  \relax o{lg}$ internal energy $\mathrm  {[erg\tmspace  +\thinmuskip {.1667em}g^{-1}]}$ and $\qopname  \relax o{lg}$ density $\mathrm  {[g\tmspace  +\thinmuskip {.1667em}cm^{-3}]}$.}}{2}{figure.1}}
\newlabel{FigGam}{{1}{2}{Adiabatic exponent $\Gamma _1$. $\Gamma _1$ is plotted as a function of $\lg $ internal energy $\mathrm {[erg\,g^{-1}]}$ and $\lg $ density $\mathrm {[g\,cm^{-3}]}$}{figure.1}{}}
\newlabel{ZSDynSta}{{6}{2}{Baker's standard one-zone model\relax }{equation.2.6}{}}
\newlabel{ZSSecSta}{{7}{2}{Baker's standard one-zone model\relax }{equation.2.6}{}}
\newlabel{ZSVibSta}{{8}{2}{Baker's standard one-zone model\relax }{equation.2.6}{}}
\@writefile{lot}{\contentsline {table}{\numberline {1}{\ignorespaces }}{2}{table.1}}
\newlabel{KapSou}{{1}{2}{\relax }{table.1}{}}
\newlabel{DynSta}{{15}{2}{Baker's standard one-zone model\relax }{equation.2.15}{}}
\newlabel{SecSta}{{16}{2}{Baker's standard one-zone model\relax }{equation.2.15}{}}
\newlabel{VibSta}{{17}{2}{Baker's standard one-zone model\relax }{equation.2.15}{}}
\bibcite{baker}{{1966}{}{{}}{{}}}
\bibcite{balluch}{{1988}{}{{}}{{}}}
\bibcite{cox}{{1980}{}{{}}{{}}}
\bibcite{cox69}{{1969}{}{{}}{{}}}
\bibcite{mizuno}{{1980}{}{{}}{{}}}
\bibcite{tscharnuter}{{1987}{}{{}}{{}}}
\bibcite{terlevich}{{1992}{}{{}}{{}}}
\bibcite{yorke80a}{{1980a}{}{{}}{{}}}
\bibcite{zheng}{{1997}{}{{}}{{}}}
\global\NAT@numberstrue
\@writefile{lof}{\contentsline {figure}{\numberline {2}{\ignorespaces Vibrational stability equation of state $S_{\mathrm  {vib}}(\qopname  \relax o{lg}e, \qopname  \relax o{lg}\rho )$. $>0$ means vibrational stability. }}{3}{figure.2}}
\newlabel{FigVibStab}{{2}{3}{Vibrational stability equation of state $S_{\mathrm {vib}}(\lg e, \lg \rho )$. $>0$ means vibrational stability. \relax }{figure.2}{}}
\@writefile{toc}{\contentsline {section}{\numberline {3}Conclusions}{3}{section.3}}
\newlabel{LastPage}{{3}{3}{}{}{}}
