%!PS-Adobe-3.0
%%BoundingBox: 0 0 612 792
%%LanguageLevel: 2
%%Creator: Grace-5.1.25
%%CreationDate: Tue Dec  1 10:56:50 2015
%%DocumentData: Clean8Bit
%%Orientation: Landscape
%%Pages: 1
%%PageOrder: Ascend
%%Title: /Users/ap1450/Dropbox/Physics_Reports_LR/ST_channel_finite_range/Vers2/plots/JLS_nakada5.agr
%%For: ap1450
%%DocumentNeededResources: (atend)
%%EndComments
%%BeginProlog
/PAGE_OFFSET_X 0 def
/PAGE_OFFSET_Y 0 def
/m {moveto} def
/l {lineto} def
/s {stroke} def
/n {newpath} def
/c {closepath} def
/RL {rlineto} def
/SLW {setlinewidth} def
/GS {gsave} def
/GR {grestore} def
/SC {setcolor} def
/SGRY {setgray} def
/SRGB {setrgbcolor} def
/SD {setdash} def
/SLC {setlinecap} def
/SLJ {setlinejoin} def
/SCS {setcolorspace} def
/FFSF {findfont setfont} def
/CC {concat} def
/PXL {n m 0 0 RL s} def
/Color0 {1.0000 1.0000 1.0000} def
/Color1 {0.0000 0.0000 0.0000} def
/Color2 {1.0000 0.0000 0.0000} def
/Color3 {0.0000 1.0000 0.0000} def
/Color4 {0.0000 0.0000 1.0000} def
/Color5 {1.0000 1.0000 0.0000} def
/Color6 {0.7373 0.5608 0.5608} def
/Color7 {0.8627 0.8627 0.8627} def
/Color8 {0.5804 0.0000 0.8275} def
/Color9 {0.0000 1.0000 1.0000} def
/Color10 {1.0000 0.0000 1.0000} def
/Color11 {1.0000 0.6471 0.0000} def
/Color12 {0.4471 0.1294 0.7373} def
/Color13 {0.4039 0.0275 0.2824} def
/Color14 {0.2510 0.8784 0.8157} def
/Color15 {0.0000 0.5451 0.0000} def
/Color16 {0.7529 0.7529 0.7529} def
/Color17 {0.5059 0.5059 0.5059} def
/Color18 {0.2588 0.2588 0.2588} def
/PTRN {
 /pat_bits exch def 
 <<
  /PaintType 2
  /PatternType 1 /TilingType 1
  /BBox[0 0 16 16]
  /XStep 16 /YStep 16
  /PaintProc {
   pop
   16 16 true [-1 0 0 -1 16 16] pat_bits imagemask
  }
 >>
 [0.0016 0 0 0.0016 0 0]
 makepattern
} def
/Pattern0 {<0000000000000000000000000000000000000000000000000000000000000000> PTRN} bind def
/Pattern1 {<ffffffffffffffffffffffffffffffffffffffffffffffffffffffffffffffff> PTRN} bind def
/Pattern2 {<eeeeffffbbbbffffeeeeffffbbbbffffeeeeffffbbbbffffeeeeffffbbbbffff> PTRN} bind def
/Pattern3 {<eeeebbbbeeeebbbbeeeebbbbeeeebbbbeeeebbbbeeeebbbbeeeebbbbeeeebbbb> PTRN} bind def
/Pattern4 {<5555aaaa5555aaaa5555aaaa5555aaaa5555aaaa5555aaaa5555aaaa5555aaaa> PTRN} bind def
/Pattern5 {<1111444411114444111144441111444411114444111144441111444411114444> PTRN} bind def
/Pattern6 {<1111000044440000111100004444000011110000444400001111000044440000> PTRN} bind def
/Pattern7 {<1010000000000000010100000000000010100000000000000101000000000000> PTRN} bind def
/Pattern8 {<0000000000000000000000000000000000000000000000000000000000000000> PTRN} bind def
/Pattern9 {<1e1e0f0f8787c3c3e1e1f0f078783c3c1e1e0f0f8787c3c3e1e1f0f078783c3c> PTRN} bind def
/Pattern10 {<7878f0f0e1e1c3c387870f0f1e1e3c3c7878f0f0e1e1c3c387870f0f1e1e3c3c> PTRN} bind def
/Pattern11 {<3333333333333333333333333333333333333333333333333333333333333333> PTRN} bind def
/Pattern12 {<ffffffff00000000ffffffff00000000ffffffff00000000ffffffff00000000> PTRN} bind def
/Pattern13 {<8181424224241818181824244242818181814242242418181818242442428181> PTRN} bind def
/Pattern14 {<8080404020201010080804040202010180804040202010100808040402020101> PTRN} bind def
/Pattern15 {<0101020204040808101020204040808001010202040408081010202040408080> PTRN} bind def
/Pattern16 {<2222222222222222222222222222222222222222222222222222222222222222> PTRN} bind def
/Pattern17 {<0000ffff000000000000ffff000000000000ffff000000000000ffff00000000> PTRN} bind def
/Pattern18 {<2222ffff222222222222ffff222222222222ffff222222222222ffff22222222> PTRN} bind def
/Pattern19 {<ffffffff33333333ffffffff33333333ffffffff33333333ffffffff33333333> PTRN} bind def
/Pattern20 {<0f0f0f0f0f0f0f0ff0f0f0f0f0f0f0f00f0f0f0f0f0f0f0ff0f0f0f0f0f0f0f0> PTRN} bind def
/Pattern21 {<ff00ff00ff00ff00ff00ff00ff00ff0000ff00ff00ff00ff00ff00ff00ff00ff> PTRN} bind def
/Pattern22 {<8001800180018001800180018001ffffffff8001800180018001800180018001> PTRN} bind def
/Pattern23 {<c003c003c003c003c003c003ffffffffffffffffc003c003c003c003c003c003> PTRN} bind def
/Pattern24 {<040404040404ffff404040404040ffff040404040404ffff404040404040ffff> PTRN} bind def
/Pattern25 {<180018001800180018001800ffffffff001800180018001800180018ffffffff> PTRN} bind def
/Pattern26 {<1111b8b87c7c3a3a1111a3a3c7c78b8b1111b8b87c7c3a3a1111a3a3c7c78b8b> PTRN} bind def
/Pattern27 {<101010102828c7c70101010182827c7c101010102828c7c70101010182827c7c> PTRN} bind def
/Pattern28 {<1c1c121211112121c1c12121111112121c1c121211112121c1c1212111111212> PTRN} bind def
/Pattern29 {<3e3e414180808080e3e31414080808083e3e414180808080e3e3141408080808> PTRN} bind def
/Pattern30 {<4848888884848383848488884848383848488888848483838484888848483838> PTRN} bind def
/Pattern31 {<03030404080808080c0c12122121c0c003030404080808080c0c12122121c0c0> PTRN} bind def
/ellipsedict 8 dict def
ellipsedict /mtrx matrix put
/EARC {
 ellipsedict begin
  /endangle exch def
  /startangle exch def
  /yrad exch def
  /xrad exch def
  /y exch def
  /x exch def
  /savematrix mtrx currentmatrix def
  x y translate
  xrad yrad scale
  0 0 1 startangle endangle arc
  savematrix setmatrix
 end
} def
/TL {
  /kcomp exch def
  /linewidth exch def
  /offset exch def
  GS
  0 offset rmoveto
  linewidth SLW
  dup stringwidth exch kcomp add exch RL s
  GR
} def
/KINIT
{
 /kvector exch def
 /kid 0 def
} def
/KPROC
{
 pop pop
 kvector kid get
 0 rmoveto
 /kid 1 kid add def
} def
/DefEncoding [
 /.notdef
 /.notdef
 /.notdef
 /.notdef
 /.notdef
 /.notdef
 /.notdef
 /.notdef
 /.notdef
 /.notdef
 /.notdef
 /.notdef
 /.notdef
 /.notdef
 /.notdef
 /.notdef
 /.notdef
 /.notdef
 /.notdef
 /.notdef
 /.notdef
 /.notdef
 /.notdef
 /.notdef
 /.notdef
 /.notdef
 /.notdef
 /.notdef
 /.notdef
 /.notdef
 /.notdef
 /.notdef
 /space
 /exclam
 /quotedbl
 /numbersign
 /dollar
 /percent
 /ampersand
 /quoteright
 /parenleft
 /parenright
 /asterisk
 /plus
 /comma
 /hyphen
 /period
 /slash
 /zero
 /one
 /two
 /three
 /four
 /five
 /six
 /seven
 /eight
 /nine
 /colon
 /semicolon
 /less
 /equal
 /greater
 /question
 /at
 /A
 /B
 /C
 /D
 /E
 /F
 /G
 /H
 /I
 /J
 /K
 /L
 /M
 /N
 /O
 /P
 /Q
 /R
 /S
 /T
 /U
 /V
 /W
 /X
 /Y
 /Z
 /bracketleft
 /backslash
 /bracketright
 /asciicircum
 /underscore
 /grave
 /a
 /b
 /c
 /d
 /e
 /f
 /g
 /h
 /i
 /j
 /k
 /l
 /m
 /n
 /o
 /p
 /q
 /r
 /s
 /t
 /u
 /v
 /w
 /x
 /y
 /z
 /braceleft
 /bar
 /braceright
 /asciitilde
 /.notdef
 /.notdef
 /.notdef
 /.notdef
 /.notdef
 /.notdef
 /.notdef
 /.notdef
 /.notdef
 /.notdef
 /.notdef
 /.notdef
 /.notdef
 /.notdef
 /.notdef
 /.notdef
 /.notdef
 /.notdef
 /.notdef
 /.notdef
 /.notdef
 /.notdef
 /.notdef
 /.notdef
 /.notdef
 /.notdef
 /.notdef
 /.notdef
 /.notdef
 /.notdef
 /.notdef
 /.notdef
 /.notdef
 /space
 /exclamdown
 /cent
 /sterling
 /currency
 /yen
 /brokenbar
 /section
 /dieresis
 /copyright
 /ordfeminine
 /guillemotleft
 /logicalnot
 /hyphen
 /registered
 /macron
 /degree
 /plusminus
 /twosuperior
 /threesuperior
 /acute
 /mu
 /paragraph
 /periodcentered
 /cedilla
 /onesuperior
 /ordmasculine
 /guillemotright
 /onequarter
 /onehalf
 /threequarters
 /questiondown
 /Agrave
 /Aacute
 /Acircumflex
 /Atilde
 /Adieresis
 /Aring
 /AE
 /Ccedilla
 /Egrave
 /Eacute
 /Ecircumflex
 /Edieresis
 /Igrave
 /Iacute
 /Icircumflex
 /Idieresis
 /Eth
 /Ntilde
 /Ograve
 /Oacute
 /Ocircumflex
 /Otilde
 /Odieresis
 /multiply
 /Oslash
 /Ugrave
 /Uacute
 /Ucircumflex
 /Udieresis
 /Yacute
 /Thorn
 /germandbls
 /agrave
 /aacute
 /acircumflex
 /atilde
 /adieresis
 /aring
 /ae
 /ccedilla
 /egrave
 /eacute
 /ecircumflex
 /edieresis
 /igrave
 /iacute
 /icircumflex
 /idieresis
 /eth
 /ntilde
 /ograve
 /oacute
 /ocircumflex
 /otilde
 /odieresis
 /divide
 /oslash
 /ugrave
 /uacute
 /ucircumflex
 /udieresis
 /yacute
 /thorn
 /ydieresis
] def
%%EndProlog
%%BeginSetup
%%EndSetup
%%Page: 1 1
PAGE_OFFSET_X PAGE_OFFSET_Y translate
612.00 612.00 scale
90 rotate
0.0 -1.0 translate
n
0.4267 0.4028 m
0.4267 0.4208 l
0.4447 0.4208 l
0.4447 0.4028 l
c
GS
[/DeviceRGB] SCS
Color0 SRGB
fill
GR
[/Pattern /DeviceRGB] SCS
Color1 Pattern8 SC
fill
[/DeviceRGB] SCS
Color1 SC
[] 0 SD
0.0045 SLW
0 SLC
0 SLJ
n
0.4267 0.4028 m
0.4267 0.4208 l
0.4447 0.4208 l
0.4447 0.4028 l
0.4267 0.4028 l
c
s
n
0.4981 0.4197 m
0.4981 0.4377 l
0.5162 0.4377 l
0.5162 0.4197 l
c
GS
Color0 SRGB
fill
GR
[/Pattern /DeviceRGB] SCS
Color1 Pattern8 SC
fill
[/DeviceRGB] SCS
Color1 SC
n
0.4981 0.4197 m
0.4981 0.4377 l
0.5162 0.4377 l
0.5162 0.4197 l
0.4981 0.4197 l
c
s
n
0.5696 0.4431 m
0.5696 0.4611 l
0.5876 0.4611 l
0.5876 0.4431 l
c
GS
Color0 SRGB
fill
GR
[/Pattern /DeviceRGB] SCS
Color1 Pattern8 SC
fill
[/DeviceRGB] SCS
Color1 SC
n
0.5696 0.4431 m
0.5696 0.4611 l
0.5876 0.4611 l
0.5876 0.4431 l
0.5696 0.4431 l
c
s
n
0.6410 0.4743 m
0.6410 0.4923 l
0.6590 0.4923 l
0.6590 0.4743 l
c
GS
Color0 SRGB
fill
GR
[/Pattern /DeviceRGB] SCS
Color1 Pattern8 SC
fill
[/DeviceRGB] SCS
Color1 SC
n
0.6410 0.4743 m
0.6410 0.4923 l
0.6590 0.4923 l
0.6590 0.4743 l
0.6410 0.4743 l
c
s
n
0.7124 0.5160 m
0.7124 0.5340 l
0.7304 0.5340 l
0.7304 0.5160 l
c
GS
Color0 SRGB
fill
GR
[/Pattern /DeviceRGB] SCS
Color1 Pattern8 SC
fill
[/DeviceRGB] SCS
Color1 SC
n
0.7124 0.5160 m
0.7124 0.5340 l
0.7304 0.5340 l
0.7304 0.5160 l
0.7124 0.5160 l
c
s
n
0.7838 0.5704 m
0.7838 0.5884 l
0.8019 0.5884 l
0.8019 0.5704 l
c
GS
Color0 SRGB
fill
GR
[/Pattern /DeviceRGB] SCS
Color1 Pattern8 SC
fill
[/DeviceRGB] SCS
Color1 SC
n
0.7838 0.5704 m
0.7838 0.5884 l
0.8019 0.5884 l
0.8019 0.5704 l
0.7838 0.5704 l
c
s
n
0.8553 0.6409 m
0.8553 0.6589 l
0.8733 0.6589 l
0.8733 0.6409 l
c
GS
Color0 SRGB
fill
GR
[/Pattern /DeviceRGB] SCS
Color1 Pattern8 SC
fill
[/DeviceRGB] SCS
Color1 SC
n
0.8553 0.6409 m
0.8553 0.6589 l
0.8733 0.6589 l
0.8733 0.6409 l
0.8553 0.6409 l
c
s
n
0.9267 0.7313 m
0.9267 0.7494 l
0.9447 0.7494 l
0.9447 0.7313 l
c
GS
Color0 SRGB
fill
GR
[/Pattern /DeviceRGB] SCS
Color1 Pattern8 SC
fill
[/DeviceRGB] SCS
Color1 SC
n
0.9267 0.7313 m
0.9267 0.7494 l
0.9447 0.7494 l
0.9447 0.7313 l
0.9267 0.7313 l
c
s
[] 0 SD
0.0037 SLW
n
0.1499 0.3835 m
0.1500 0.3835 l
0.1571 0.3835 l
0.1643 0.3835 l
0.1714 0.3835 l
0.1786 0.3835 l
0.1857 0.3835 l
0.1929 0.3835 l
0.2000 0.3835 l
0.2071 0.3835 l
0.2143 0.3836 l
0.2214 0.3836 l
0.2286 0.3836 l
0.2357 0.3836 l
0.2429 0.3836 l
0.2500 0.3836 l
0.2571 0.3836 l
0.2643 0.3836 l
0.2714 0.3836 l
0.2786 0.3836 l
0.2857 0.3836 l
0.2929 0.3836 l
0.3000 0.3836 l
0.3071 0.3836 l
0.3143 0.3836 l
0.3214 0.3836 l
0.3286 0.3836 l
0.3357 0.3836 l
0.3429 0.3836 l
0.3500 0.3835 l
0.3571 0.3835 l
0.3643 0.3835 l
0.3714 0.3834 l
0.3786 0.3834 l
0.3857 0.3833 l
0.3929 0.3833 l
0.4000 0.3832 l
0.4071 0.3832 l
0.4143 0.3831 l
0.4214 0.3830 l
0.4286 0.3829 l
0.4357 0.3829 l
0.4429 0.3828 l
0.4500 0.3827 l
0.4571 0.3825 l
0.4643 0.3824 l
0.4714 0.3823 l
0.4786 0.3821 l
0.4857 0.3820 l
0.4929 0.3818 l
0.5000 0.3817 l
0.5071 0.3815 l
0.5143 0.3813 l
0.5214 0.3811 l
0.5286 0.3809 l
0.5357 0.3806 l
0.5429 0.3804 l
0.5500 0.3801 l
0.5571 0.3798 l
0.5643 0.3796 l
0.5714 0.3793 l
0.5786 0.3789 l
0.5857 0.3786 l
0.5929 0.3783 l
0.6000 0.3779 l
0.6071 0.3775 l
0.6143 0.3771 l
0.6214 0.3767 l
0.6286 0.3763 l
0.6357 0.3758 l
0.6429 0.3753 l
0.6500 0.3748 l
0.6571 0.3743 l
0.6643 0.3738 l
0.6714 0.3732 l
0.6786 0.3726 l
0.6857 0.3720 l
0.6929 0.3714 l
0.7000 0.3708 l
0.7071 0.3701 l
0.7143 0.3694 l
0.7214 0.3687 l
0.7286 0.3680 l
0.7357 0.3672 l
0.7429 0.3664 l
0.7500 0.3656 l
0.7571 0.3647 l
0.7643 0.3639 l
0.7714 0.3630 l
0.7786 0.3620 l
0.7857 0.3611 l
0.7929 0.3601 l
0.8000 0.3591 l
0.8071 0.3581 l
0.8143 0.3570 l
0.8214 0.3559 l
0.8286 0.3547 l
0.8357 0.3536 l
0.8429 0.3524 l
0.8500 0.3511 l
0.8571 0.3499 l
0.8643 0.3486 l
0.8714 0.3473 l
0.8786 0.3459 l
0.8857 0.3445 l
0.8929 0.3431 l
0.9000 0.3416 l
0.9071 0.3401 l
0.9143 0.3385 l
0.9214 0.3370 l
0.9286 0.3353 l
0.9357 0.3337 l
0.9429 0.3320 l
0.9500 0.3303 l
0.9571 0.3285 l
0.9643 0.3267 l
0.9714 0.3248 l
0.9786 0.3230 l
0.9857 0.3210 l
0.9929 0.3191 l
1.0000 0.3170 l
1.0071 0.3150 l
1.0143 0.3129 l
1.0214 0.3108 l
1.0286 0.3086 l
1.0357 0.3064 l
1.0429 0.3041 l
1.0500 0.3018 l
1.0571 0.2994 l
1.0643 0.2970 l
1.0714 0.2946 l
1.0786 0.2921 l
1.0857 0.2896 l
1.0929 0.2870 l
1.1000 0.2844 l
1.1071 0.2817 l
1.1143 0.2790 l
1.1214 0.2762 l
1.1286 0.2734 l
1.1357 0.2706 l
1.1429 0.2676 l
1.1500 0.2647 l
1.1501 0.2646 l
s
[/DeviceRGB] SCS
Color2 SC
[0.0187 0.0112 ] 0 SD
0.0037 SLW
n
0.1499 0.3836 m
0.1500 0.3836 l
0.1571 0.3836 l
0.1643 0.3836 l
0.1714 0.3836 l
0.1786 0.3837 l
0.1857 0.3837 l
0.1929 0.3837 l
0.2000 0.3838 l
0.2071 0.3838 l
0.2143 0.3838 l
0.2214 0.3839 l
0.2286 0.3839 l
0.2357 0.3839 l
0.2429 0.3840 l
0.2500 0.3840 l
0.2571 0.3841 l
0.2643 0.3841 l
0.2714 0.3841 l
0.2786 0.3842 l
0.2857 0.3842 l
0.2929 0.3842 l
0.3000 0.3843 l
0.3071 0.3843 l
0.3143 0.3844 l
0.3214 0.3844 l
0.3286 0.3844 l
0.3357 0.3845 l
0.3429 0.3845 l
0.3500 0.3845 l
0.3571 0.3846 l
0.3643 0.3846 l
0.3714 0.3846 l
0.3786 0.3846 l
0.3857 0.3846 l
0.3929 0.3846 l
0.4000 0.3847 l
0.4071 0.3847 l
0.4143 0.3847 l
0.4214 0.3846 l
0.4286 0.3846 l
0.4357 0.3846 l
0.4429 0.3846 l
0.4500 0.3846 l
0.4571 0.3845 l
0.4643 0.3845 l
0.4714 0.3844 l
0.4786 0.3844 l
0.4857 0.3843 l
0.4929 0.3842 l
0.5000 0.3841 l
0.5071 0.3841 l
0.5143 0.3840 l
0.5214 0.3838 l
0.5286 0.3837 l
0.5357 0.3836 l
0.5429 0.3834 l
0.5500 0.3833 l
0.5571 0.3831 l
0.5643 0.3829 l
0.5714 0.3827 l
0.5786 0.3825 l
0.5857 0.3823 l
0.5929 0.3820 l
0.6000 0.3818 l
0.6071 0.3815 l
0.6143 0.3812 l
0.6214 0.3809 l
0.6286 0.3806 l
0.6357 0.3803 l
0.6429 0.3799 l
0.6500 0.3796 l
0.6571 0.3792 l
0.6643 0.3788 l
0.6714 0.3783 l
0.6786 0.3779 l
0.6857 0.3774 l
0.6929 0.3769 l
0.7000 0.3764 l
0.7071 0.3759 l
0.7143 0.3754 l
0.7214 0.3748 l
0.7286 0.3742 l
0.7357 0.3736 l
0.7429 0.3729 l
0.7500 0.3723 l
0.7571 0.3716 l
0.7643 0.3709 l
0.7714 0.3702 l
0.7786 0.3694 l
0.7857 0.3686 l
0.7929 0.3678 l
0.8000 0.3670 l
0.8071 0.3661 l
0.8143 0.3653 l
0.8214 0.3644 l
0.8286 0.3634 l
0.8357 0.3625 l
0.8429 0.3615 l
0.8500 0.3604 l
0.8571 0.3594 l
0.8643 0.3583 l
0.8714 0.3572 l
0.8786 0.3561 l
0.8857 0.3549 l
0.8929 0.3538 l
0.9000 0.3525 l
0.9071 0.3513 l
0.9143 0.3500 l
0.9214 0.3487 l
0.9286 0.3474 l
0.9357 0.3460 l
0.9429 0.3446 l
0.9500 0.3432 l
0.9571 0.3417 l
0.9643 0.3403 l
0.9714 0.3387 l
0.9786 0.3372 l
0.9857 0.3356 l
0.9929 0.3340 l
1.0000 0.3324 l
1.0071 0.3307 l
1.0143 0.3290 l
1.0214 0.3272 l
1.0286 0.3255 l
1.0357 0.3237 l
1.0429 0.3219 l
1.0500 0.3200 l
1.0571 0.3181 l
1.0643 0.3162 l
1.0714 0.3142 l
1.0786 0.3122 l
1.0857 0.3102 l
1.0929 0.3082 l
1.1000 0.3061 l
1.1071 0.3040 l
1.1143 0.3018 l
1.1214 0.2997 l
1.1286 0.2975 l
1.1357 0.2952 l
1.1429 0.2930 l
1.1500 0.2907 l
1.1501 0.2906 l
s
[/DeviceRGB] SCS
Color4 SC
[0.0037 0.0112 ] 0 SD
0.0037 SLW
n
0.1499 0.3834 m
0.1500 0.3834 l
0.1571 0.3834 l
0.1643 0.3834 l
0.1714 0.3834 l
0.1786 0.3834 l
0.1857 0.3834 l
0.1929 0.3834 l
0.2000 0.3834 l
0.2071 0.3834 l
0.2143 0.3834 l
0.2214 0.3833 l
0.2286 0.3833 l
0.2357 0.3833 l
0.2429 0.3833 l
0.2500 0.3833 l
0.2571 0.3833 l
0.2643 0.3832 l
0.2714 0.3832 l
0.2786 0.3832 l
0.2857 0.3832 l
0.2929 0.3831 l
0.3000 0.3831 l
0.3071 0.3830 l
0.3143 0.3830 l
0.3214 0.3829 l
0.3286 0.3829 l
0.3357 0.3828 l
0.3429 0.3827 l
0.3500 0.3826 l
0.3571 0.3825 l
0.3643 0.3824 l
0.3714 0.3823 l
0.3786 0.3822 l
0.3857 0.3821 l
0.3929 0.3820 l
0.4000 0.3818 l
0.4071 0.3817 l
0.4143 0.3815 l
0.4214 0.3813 l
0.4286 0.3812 l
0.4357 0.3810 l
0.4429 0.3808 l
0.4500 0.3805 l
0.4571 0.3803 l
0.4643 0.3801 l
0.4714 0.3798 l
0.4786 0.3795 l
0.4857 0.3792 l
0.4929 0.3789 l
0.5000 0.3786 l
0.5071 0.3783 l
0.5143 0.3779 l
0.5214 0.3776 l
0.5286 0.3772 l
0.5357 0.3768 l
0.5429 0.3763 l
0.5500 0.3759 l
0.5571 0.3754 l
0.5643 0.3749 l
0.5714 0.3744 l
0.5786 0.3739 l
0.5857 0.3733 l
0.5929 0.3727 l
0.6000 0.3721 l
0.6071 0.3715 l
0.6143 0.3709 l
0.6214 0.3702 l
0.6286 0.3695 l
0.6357 0.3687 l
0.6429 0.3680 l
0.6500 0.3672 l
0.6571 0.3664 l
0.6643 0.3655 l
0.6714 0.3647 l
0.6786 0.3638 l
0.6857 0.3628 l
0.6929 0.3619 l
0.7000 0.3609 l
0.7071 0.3598 l
0.7143 0.3588 l
0.7214 0.3577 l
0.7286 0.3565 l
0.7357 0.3554 l
0.7429 0.3542 l
0.7500 0.3529 l
0.7571 0.3516 l
0.7643 0.3503 l
0.7714 0.3490 l
0.7786 0.3476 l
0.7857 0.3462 l
0.7929 0.3447 l
0.8000 0.3432 l
0.8071 0.3416 l
0.8143 0.3400 l
0.8214 0.3384 l
0.8286 0.3367 l
0.8357 0.3350 l
0.8429 0.3332 l
0.8500 0.3314 l
0.8571 0.3295 l
0.8643 0.3276 l
0.8714 0.3257 l
0.8786 0.3237 l
0.8857 0.3216 l
0.8929 0.3196 l
0.9000 0.3174 l
0.9071 0.3152 l
0.9143 0.3130 l
0.9214 0.3107 l
0.9286 0.3083 l
0.9357 0.3059 l
0.9429 0.3035 l
0.9500 0.3010 l
0.9571 0.2985 l
0.9643 0.2958 l
0.9714 0.2932 l
0.9786 0.2905 l
0.9857 0.2877 l
0.9929 0.2849 l
1.0000 0.2820 l
1.0071 0.2791 l
1.0143 0.2761 l
1.0214 0.2730 l
1.0286 0.2699 l
1.0357 0.2667 l
1.0429 0.2635 l
1.0500 0.2602 l
1.0571 0.2568 l
1.0643 0.2534 l
1.0714 0.2499 l
1.0786 0.2464 l
1.0857 0.2428 l
1.0929 0.2391 l
1.1000 0.2354 l
1.1071 0.2316 l
1.1143 0.2278 l
1.1214 0.2239 l
1.1286 0.2199 l
1.1357 0.2158 l
1.1429 0.2117 l
1.1500 0.2075 l
1.1501 0.2075 l
s
[/DeviceRGB] SCS
Color11 SC
[0.0037 0.0112 0.0187 0.0112 ] 0 SD
0.0037 SLW
n
0.1499 0.3836 m
0.1500 0.3836 l
0.1571 0.3836 l
0.1643 0.3836 l
0.1714 0.3837 l
0.1786 0.3837 l
0.1857 0.3837 l
0.1929 0.3838 l
0.2000 0.3838 l
0.2071 0.3838 l
0.2143 0.3839 l
0.2214 0.3839 l
0.2286 0.3840 l
0.2357 0.3840 l
0.2429 0.3841 l
0.2500 0.3841 l
0.2571 0.3841 l
0.2643 0.3842 l
0.2714 0.3842 l
0.2786 0.3843 l
0.2857 0.3843 l
0.2929 0.3844 l
0.3000 0.3844 l
0.3071 0.3845 l
0.3143 0.3845 l
0.3214 0.3846 l
0.3286 0.3847 l
0.3357 0.3847 l
0.3429 0.3847 l
0.3500 0.3848 l
0.3571 0.3848 l
0.3643 0.3849 l
0.3714 0.3849 l
0.3786 0.3850 l
0.3857 0.3850 l
0.3929 0.3851 l
0.4000 0.3851 l
0.4071 0.3851 l
0.4143 0.3851 l
0.4214 0.3852 l
0.4286 0.3852 l
0.4357 0.3852 l
0.4429 0.3852 l
0.4500 0.3852 l
0.4571 0.3852 l
0.4643 0.3852 l
0.4714 0.3852 l
0.4786 0.3852 l
0.4857 0.3852 l
0.4929 0.3852 l
0.5000 0.3851 l
0.5071 0.3851 l
0.5143 0.3850 l
0.5214 0.3850 l
0.5286 0.3849 l
0.5357 0.3848 l
0.5429 0.3847 l
0.5500 0.3846 l
0.5571 0.3845 l
0.5643 0.3844 l
0.5714 0.3843 l
0.5786 0.3842 l
0.5857 0.3840 l
0.5929 0.3838 l
0.6000 0.3837 l
0.6071 0.3835 l
0.6143 0.3833 l
0.6214 0.3831 l
0.6286 0.3829 l
0.6357 0.3826 l
0.6429 0.3824 l
0.6500 0.3821 l
0.6571 0.3818 l
0.6643 0.3815 l
0.6714 0.3812 l
0.6786 0.3809 l
0.6857 0.3805 l
0.6929 0.3802 l
0.7000 0.3798 l
0.7071 0.3794 l
0.7143 0.3790 l
0.7214 0.3785 l
0.7286 0.3781 l
0.7357 0.3776 l
0.7429 0.3771 l
0.7500 0.3766 l
0.7571 0.3761 l
0.7643 0.3756 l
0.7714 0.3750 l
0.7786 0.3744 l
0.7857 0.3738 l
0.7929 0.3732 l
0.8000 0.3725 l
0.8071 0.3718 l
0.8143 0.3711 l
0.8214 0.3704 l
0.8286 0.3697 l
0.8357 0.3689 l
0.8429 0.3682 l
0.8500 0.3674 l
0.8571 0.3665 l
0.8643 0.3657 l
0.8714 0.3648 l
0.8786 0.3639 l
0.8857 0.3630 l
0.8929 0.3620 l
0.9000 0.3611 l
0.9071 0.3601 l
0.9143 0.3591 l
0.9214 0.3580 l
0.9286 0.3570 l
0.9357 0.3559 l
0.9429 0.3548 l
0.9500 0.3536 l
0.9571 0.3525 l
0.9643 0.3513 l
0.9714 0.3500 l
0.9786 0.3488 l
0.9857 0.3475 l
0.9929 0.3463 l
1.0000 0.3449 l
1.0071 0.3436 l
1.0143 0.3422 l
1.0214 0.3408 l
1.0286 0.3394 l
1.0357 0.3380 l
1.0429 0.3365 l
1.0500 0.3350 l
1.0571 0.3335 l
1.0643 0.3320 l
1.0714 0.3304 l
1.0786 0.3288 l
1.0857 0.3272 l
1.0929 0.3256 l
1.1000 0.3239 l
1.1071 0.3222 l
1.1143 0.3205 l
1.1214 0.3188 l
1.1286 0.3170 l
1.1357 0.3152 l
1.1429 0.3134 l
1.1500 0.3116 l
1.1501 0.3115 l
s
[/DeviceRGB] SCS
Color3 SC
[0.0037 0.0112 0.0187 0.0112 0.0037 0.0112 ] 0 SD
0.0037 SLW
n
0.1499 0.3837 m
0.1500 0.3837 l
0.1571 0.3837 l
0.1643 0.3837 l
0.1714 0.3838 l
0.1786 0.3838 l
0.1857 0.3839 l
0.1929 0.3839 l
0.2000 0.3840 l
0.2071 0.3840 l
0.2143 0.3841 l
0.2214 0.3841 l
0.2286 0.3842 l
0.2357 0.3843 l
0.2429 0.3843 l
0.2500 0.3844 l
0.2571 0.3845 l
0.2643 0.3845 l
0.2714 0.3846 l
0.2786 0.3847 l
0.2857 0.3848 l
0.2929 0.3849 l
0.3000 0.3850 l
0.3071 0.3851 l
0.3143 0.3852 l
0.3214 0.3853 l
0.3286 0.3854 l
0.3357 0.3855 l
0.3429 0.3856 l
0.3500 0.3857 l
0.3571 0.3858 l
0.3643 0.3859 l
0.3714 0.3860 l
0.3786 0.3862 l
0.3857 0.3863 l
0.3929 0.3864 l
0.4000 0.3865 l
0.4071 0.3867 l
0.4143 0.3868 l
0.4214 0.3869 l
0.4286 0.3870 l
0.4357 0.3872 l
0.4429 0.3873 l
0.4500 0.3874 l
0.4571 0.3876 l
0.4643 0.3877 l
0.4714 0.3878 l
0.4786 0.3880 l
0.4857 0.3881 l
0.4929 0.3882 l
0.5000 0.3884 l
0.5071 0.3885 l
0.5143 0.3886 l
0.5214 0.3888 l
0.5286 0.3889 l
0.5357 0.3890 l
0.5429 0.3892 l
0.5500 0.3893 l
0.5571 0.3894 l
0.5643 0.3895 l
0.5714 0.3897 l
0.5786 0.3898 l
0.5857 0.3899 l
0.5929 0.3900 l
0.6000 0.3901 l
0.6071 0.3902 l
0.6143 0.3904 l
0.6214 0.3905 l
0.6286 0.3906 l
0.6357 0.3907 l
0.6429 0.3908 l
0.6500 0.3909 l
0.6571 0.3910 l
0.6643 0.3910 l
0.6714 0.3911 l
0.6786 0.3912 l
0.6857 0.3913 l
0.6929 0.3914 l
0.7000 0.3914 l
0.7071 0.3915 l
0.7143 0.3915 l
0.7214 0.3916 l
0.7286 0.3917 l
0.7357 0.3917 l
0.7429 0.3918 l
0.7500 0.3918 l
0.7571 0.3918 l
0.7643 0.3919 l
0.7714 0.3919 l
0.7786 0.3919 l
0.7857 0.3919 l
0.7929 0.3919 l
0.8000 0.3920 l
0.8071 0.3920 l
0.8143 0.3920 l
0.8214 0.3920 l
0.8286 0.3920 l
0.8357 0.3919 l
0.8429 0.3919 l
0.8500 0.3919 l
0.8571 0.3919 l
0.8643 0.3919 l
0.8714 0.3918 l
0.8786 0.3918 l
0.8857 0.3918 l
0.8929 0.3917 l
0.9000 0.3917 l
0.9071 0.3916 l
0.9143 0.3916 l
0.9214 0.3915 l
0.9286 0.3915 l
0.9357 0.3914 l
0.9429 0.3914 l
0.9500 0.3913 l
0.9571 0.3912 l
0.9643 0.3912 l
0.9714 0.3911 l
0.9786 0.3911 l
0.9857 0.3910 l
0.9929 0.3909 l
1.0000 0.3908 l
1.0071 0.3908 l
1.0143 0.3907 l
1.0214 0.3906 l
1.0286 0.3906 l
1.0357 0.3905 l
1.0429 0.3905 l
1.0500 0.3904 l
1.0571 0.3903 l
1.0643 0.3903 l
1.0714 0.3902 l
1.0786 0.3902 l
1.0857 0.3901 l
1.0929 0.3901 l
1.1000 0.3900 l
1.1071 0.3900 l
1.1143 0.3900 l
1.1214 0.3900 l
1.1286 0.3899 l
1.1357 0.3899 l
1.1429 0.3899 l
1.1500 0.3899 l
1.1501 0.3899 l
s
[/DeviceRGB] SCS
Color8 SC
[0.0187 0.0112 0.0037 0.0112 0.0187 0.0112 ] 0 SD
0.0037 SLW
n
0.1499 0.3836 m
0.1500 0.3836 l
0.1571 0.3837 l
0.1643 0.3837 l
0.1714 0.3837 l
0.1786 0.3838 l
0.1857 0.3838 l
0.1929 0.3838 l
0.2000 0.3839 l
0.2071 0.3839 l
0.2143 0.3840 l
0.2214 0.3840 l
0.2286 0.3841 l
0.2357 0.3841 l
0.2429 0.3842 l
0.2500 0.3843 l
0.2571 0.3843 l
0.2643 0.3844 l
0.2714 0.3844 l
0.2786 0.3845 l
0.2857 0.3846 l
0.2929 0.3847 l
0.3000 0.3847 l
0.3071 0.3848 l
0.3143 0.3849 l
0.3214 0.3850 l
0.3286 0.3850 l
0.3357 0.3851 l
0.3429 0.3852 l
0.3500 0.3853 l
0.3571 0.3854 l
0.3643 0.3854 l
0.3714 0.3855 l
0.3786 0.3856 l
0.3857 0.3857 l
0.3929 0.3858 l
0.4000 0.3859 l
0.4071 0.3859 l
0.4143 0.3860 l
0.4214 0.3861 l
0.4286 0.3862 l
0.4357 0.3863 l
0.4429 0.3864 l
0.4500 0.3864 l
0.4571 0.3865 l
0.4643 0.3866 l
0.4714 0.3866 l
0.4786 0.3867 l
0.4857 0.3868 l
0.4929 0.3869 l
0.5000 0.3869 l
0.5071 0.3870 l
0.5143 0.3870 l
0.5214 0.3871 l
0.5286 0.3871 l
0.5357 0.3872 l
0.5429 0.3872 l
0.5500 0.3872 l
0.5571 0.3873 l
0.5643 0.3873 l
0.5714 0.3873 l
0.5786 0.3873 l
0.5857 0.3873 l
0.5929 0.3873 l
0.6000 0.3873 l
0.6071 0.3873 l
0.6143 0.3873 l
0.6214 0.3873 l
0.6286 0.3873 l
0.6357 0.3872 l
0.6429 0.3872 l
0.6500 0.3871 l
0.6571 0.3871 l
0.6643 0.3870 l
0.6714 0.3870 l
0.6786 0.3869 l
0.6857 0.3868 l
0.6929 0.3867 l
0.7000 0.3866 l
0.7071 0.3865 l
0.7143 0.3864 l
0.7214 0.3862 l
0.7286 0.3861 l
0.7357 0.3859 l
0.7429 0.3858 l
0.7500 0.3856 l
0.7571 0.3854 l
0.7643 0.3853 l
0.7714 0.3851 l
0.7786 0.3849 l
0.7857 0.3847 l
0.7929 0.3845 l
0.8000 0.3842 l
0.8071 0.3840 l
0.8143 0.3837 l
0.8214 0.3835 l
0.8286 0.3832 l
0.8357 0.3829 l
0.8429 0.3827 l
0.8500 0.3824 l
0.8571 0.3821 l
0.8643 0.3818 l
0.8714 0.3814 l
0.8786 0.3811 l
0.8857 0.3808 l
0.8929 0.3804 l
0.9000 0.3801 l
0.9071 0.3797 l
0.9143 0.3793 l
0.9214 0.3789 l
0.9286 0.3786 l
0.9357 0.3782 l
0.9429 0.3777 l
0.9500 0.3773 l
0.9571 0.3769 l
0.9643 0.3765 l
0.9714 0.3761 l
0.9786 0.3756 l
0.9857 0.3752 l
0.9929 0.3747 l
1.0000 0.3742 l
1.0071 0.3738 l
1.0143 0.3733 l
1.0214 0.3728 l
1.0286 0.3723 l
1.0357 0.3719 l
1.0429 0.3714 l
1.0500 0.3709 l
1.0571 0.3704 l
1.0643 0.3699 l
1.0714 0.3694 l
1.0786 0.3688 l
1.0857 0.3683 l
1.0929 0.3678 l
1.1000 0.3673 l
1.1071 0.3668 l
1.1143 0.3663 l
1.1214 0.3658 l
1.1286 0.3652 l
1.1357 0.3647 l
1.1429 0.3642 l
1.1500 0.3637 l
1.1501 0.3637 l
s
[/DeviceRGB] SCS
Color1 SC
[] 0 SD
0.0045 SLW
n
0.1500 0.1500 m
1.1500 0.1500 l
s
n
0.1500 0.8500 m
1.1500 0.8500 l
s
n
0.2214 0.1500 m
0.2214 0.1600 l
s
n
0.2214 0.8500 m
0.2214 0.8400 l
s
n
0.3643 0.1500 m
0.3643 0.1600 l
s
n
0.3643 0.8500 m
0.3643 0.8400 l
s
n
0.5071 0.1500 m
0.5071 0.1600 l
s
n
0.5071 0.8500 m
0.5071 0.8400 l
s
n
0.6500 0.1500 m
0.6500 0.1600 l
s
n
0.6500 0.8500 m
0.6500 0.8400 l
s
n
0.7929 0.1500 m
0.7929 0.1600 l
s
n
0.7929 0.8500 m
0.7929 0.8400 l
s
n
0.9357 0.1500 m
0.9357 0.1600 l
s
n
0.9357 0.8500 m
0.9357 0.8400 l
s
n
1.0786 0.1500 m
1.0786 0.1600 l
s
n
1.0786 0.8500 m
1.0786 0.8400 l
s
n
0.1500 0.1500 m
0.1500 0.1700 l
s
n
0.1500 0.8500 m
0.1500 0.8300 l
s
n
0.2929 0.1500 m
0.2929 0.1700 l
s
n
0.2929 0.8500 m
0.2929 0.8300 l
s
n
0.4357 0.1500 m
0.4357 0.1700 l
s
n
0.4357 0.8500 m
0.4357 0.8300 l
s
n
0.5786 0.1500 m
0.5786 0.1700 l
s
n
0.5786 0.8500 m
0.5786 0.8300 l
s
n
0.7214 0.1500 m
0.7214 0.1700 l
s
n
0.7214 0.8500 m
0.7214 0.8300 l
s
n
0.8643 0.1500 m
0.8643 0.1700 l
s
n
0.8643 0.8500 m
0.8643 0.8300 l
s
n
1.0071 0.1500 m
1.0071 0.1700 l
s
n
1.0071 0.8500 m
1.0071 0.8300 l
s
/Times-Roman findfont
dup length dict begin
 {1 index /FID ne {def} {pop pop} ifelse} forall
 /Encoding DefEncoding def
 currentdict
end
/Font0 exch definefont pop
/Font0 FFSF
0.1225 0.1094 m
GS
[0.0448 0.0000 0.0000 0.0448 0 0] CC
(0.4) show
GR
/Font0 FFSF
0.2656 0.1094 m
GS
[0.0448 0.0000 0.0000 0.0448 0 0] CC
(0.6) show
GR
/Font0 FFSF
0.4089 0.1094 m
GS
[0.0448 0.0000 0.0000 0.0448 0 0] CC
(0.8) show
GR
/Font0 FFSF
0.5697 0.1094 m
GS
[0.0448 0.0000 0.0000 0.0448 0 0] CC
(1) show
GR
/Font0 FFSF
0.6940 0.1094 m
GS
[0.0448 0.0000 0.0000 0.0448 0 0] CC
(1.2) show
GR
/Font0 FFSF
0.8368 0.1094 m
GS
[0.0448 0.0000 0.0000 0.0448 0 0] CC
(1.4) show
GR
/Font0 FFSF
0.9799 0.1094 m
GS
[0.0448 0.0000 0.0000 0.0448 0 0] CC
(1.6) show
GR
/Font0 FFSF
0.5635 0.0445 m
GS
[0.0504 0.0000 0.0000 0.0504 0 0] CC
(k) show
GR
/Font0 FFSF
0.5886 0.0243 m
GS
[0.0356 0.0000 0.0000 0.0356 0 0] CC
(F) show
GR
/Font0 FFSF
0.6086 0.0445 m
GS
[0.0504 0.0000 0.0000 0.0504 0 0] CC
( [fm) show
GR
/Font0 FFSF
0.6941 0.0747 m
GS
[0.0356 0.0000 0.0000 0.0356 0 0] CC
(-1) show
GR
/Font0 FFSF
0.7239 0.0445 m
GS
[0.0504 0.0000 0.0000 0.0504 0 0] CC
(]) show
GR
n
0.1500 0.1500 m
0.1500 0.8500 l
s
n
1.1500 0.1500 m
1.1500 0.8500 l
s
n
0.1500 0.2083 m
0.1600 0.2083 l
s
n
1.1500 0.2083 m
1.1400 0.2083 l
s
n
0.1500 0.3250 m
0.1600 0.3250 l
s
n
1.1500 0.3250 m
1.1400 0.3250 l
s
n
0.1500 0.4417 m
0.1600 0.4417 l
s
n
1.1500 0.4417 m
1.1400 0.4417 l
s
n
0.1500 0.5583 m
0.1600 0.5583 l
s
n
1.1500 0.5583 m
1.1400 0.5583 l
s
n
0.1500 0.6750 m
0.1600 0.6750 l
s
n
1.1500 0.6750 m
1.1400 0.6750 l
s
n
0.1500 0.7917 m
0.1600 0.7917 l
s
n
1.1500 0.7917 m
1.1400 0.7917 l
s
n
0.1500 0.1500 m
0.1700 0.1500 l
s
n
1.1500 0.1500 m
1.1300 0.1500 l
s
n
0.1500 0.2667 m
0.1700 0.2667 l
s
n
1.1500 0.2667 m
1.1300 0.2667 l
s
n
0.1500 0.3833 m
0.1700 0.3833 l
s
n
1.1500 0.3833 m
1.1300 0.3833 l
s
n
0.1500 0.5000 m
0.1700 0.5000 l
s
n
1.1500 0.5000 m
1.1300 0.5000 l
s
n
0.1500 0.6167 m
0.1700 0.6167 l
s
n
1.1500 0.6167 m
1.1300 0.6167 l
s
n
0.1500 0.7333 m
0.1700 0.7333 l
s
n
1.1500 0.7333 m
1.1300 0.7333 l
s
n
0.1500 0.8500 m
0.1700 0.8500 l
s
n
1.1500 0.8500 m
1.1300 0.8500 l
s
/Font0 FFSF
0.0816 0.1351 m
GS
[0.0448 0.0000 0.0000 0.0448 0 0] CC
(-10) show
GR
/Font0 FFSF
0.1055 0.2516 m
GS
[0.0448 0.0000 0.0000 0.0448 0 0] CC
(-5) show
GR
/Font0 FFSF
0.1188 0.3684 m
GS
[0.0448 0.0000 0.0000 0.0448 0 0] CC
(0) show
GR
/Font0 FFSF
0.1204 0.4849 m
GS
[0.0448 0.0000 0.0000 0.0448 0 0] CC
(5) show
GR
/Font0 FFSF
0.0965 0.6018 m
GS
[0.0448 0.0000 0.0000 0.0448 0 0] CC
(10) show
GR
/Font0 FFSF
0.0980 0.7182 m
GS
[0.0448 0.0000 0.0000 0.0448 0 0] CC
(15) show
GR
/Font0 FFSF
0.0965 0.8351 m
GS
[0.0448 0.0000 0.0000 0.0448 0 0] CC
(20) show
GR
/Font0 FFSF
0.0677 0.4335 m
GS
[0.0000 0.0504 -0.0504 0.0000 0 0] CC
([MeV]) show
GR
[] 0 SD
0.0015 SLW
n
0.1500 0.1500 m
0.1500 0.8500 l
1.1500 0.8500 l
1.1500 0.1500 l
0.1500 0.1500 l
c
s
/Font0 FFSF
0.2000 0.3009 m
GS
[0.0600 0.0000 0.0000 0.0600 0 0] CC
(3) show
GR
/Font0 FFSF
0.2298 0.2500 m
GS
[0.0848 0.0000 0.0000 0.0848 0 0] CC
(P) show
GR
/Font0 FFSF
0.2769 0.2161 m
GS
[0.0600 0.0000 0.0000 0.0600 0 0] CC
(1) show
GR
showpage
%%PageTrailer
%%Trailer
%%DocumentNeededResources: font Times-Roman
%%EOF
