  9.99999978E-03  0.52900976      5.24607450E-02  -1.3612828      -3.2477303     -3.10326298E-03  -1.0779359      -1.0779359    
  1.99999996E-02  0.66651052      0.16315696      -2.7256699      -5.8228407     -6.80268975E-03  -2.8652701      -2.8652704    
  2.99999993E-02  0.76296407      0.31509626      -4.0452657      -8.0740156     -8.34353268E-03  -4.5702605      -4.5702605    
  3.99999991E-02  0.83975059      0.50087875      -5.3127871      -10.100738     -6.22839527E-03  -6.1454906      -6.1454911    
  4.99999970E-02  0.90459394      0.71576381      -6.5265412      -11.954777      6.28605019E-04  -7.5843143      -7.5843143    
  5.99999949E-02  0.96127445      0.95629352      -7.6866202      -13.668417      1.30949132E-02  -8.8892641      -8.8892651    
  6.99999928E-02   1.0119592       1.2197614      -8.7938099      -15.263874      3.19005251E-02  -10.065347      -10.065346    
  7.99999908E-02   1.0580195       1.5039501      -9.8492050      -16.757418      5.76800331E-02  -11.118114      -11.118114    
  8.99999887E-02   1.1003846       1.8069867      -10.854019      -18.161488      9.09973606E-02  -12.052996      -12.052999    
  9.99999866E-02   1.1397169       2.1272516      -11.809507      -19.485918      0.13236232      -12.875105      -12.875108    
  0.10999998       1.1765071       2.4633205      -12.716918      -20.738678      0.18224119      -13.589146      -13.589147    
  0.11999998       1.2111299       2.8139203      -13.577480      -21.926334      0.24106455      -14.199459      -14.199462    
  0.12999998       1.2438788       3.1779041      -14.392396      -23.054422      0.30923337      -14.710039      -14.710035    
  0.13999999       1.2749887       3.5542269      -15.162818      -24.127617      0.38712379      -15.124523      -15.124531    
  0.14999999       1.3046502       3.9419272      -15.889860      -25.149990      0.47508961      -15.446314      -15.446313    
  0.16000000       1.3330210       4.3401184      -16.574600      -26.125031      0.57346594      -15.678503      -15.678500    
  0.17000000       1.3602329       4.7479749      -17.218077      -27.055817      0.68257105      -15.823997      -15.823999    
  0.18000001       1.3863978       5.1647277      -17.821281      -27.945070      0.80270922      -15.885468      -15.885458    
  0.19000001       1.4116105       5.5896511      -18.385191      -28.795170      0.93416959      -15.865417      -15.865408    
  0.20000002       1.4359535       6.0220642      -18.910719      -29.608280       1.0772321      -15.766169      -15.766171    
  0.21000002       1.4594978       6.4613242      -19.398777      -30.386353       1.2321630      -15.589968      -15.589955    
  0.22000003       1.4823061       6.9068193      -19.850216      -31.131083       1.3992207      -15.338799      -15.338799    
  0.23000003       1.5044334       7.3579683      -20.265888      -31.844067       1.5786546      -15.014648      -15.014638    
  0.24000004       1.5259283       7.8142195      -20.646595      -32.526711       1.7707045      -14.619301      -14.619310    
  0.25000003       1.5468340       8.2750416      -20.993114      -33.180347       1.9756031      -14.154533      -14.154528    
  0.26000002       1.5671892       8.7399263      -21.306236      -33.806137       2.1935744      -13.621973      -13.621962    
  0.27000001       1.5870293       9.2083931      -21.586666      -34.405167       2.4248431      -13.023115      -13.023126    
  0.28000000       1.6063851       9.6799679      -21.835148      -34.978455       2.6696153      -12.359528      -12.359515    
  0.28999999       1.6252855       10.154207      -22.052353      -35.526890       2.9281032      -11.632526      -11.632536    
  0.29999998       1.6437563       10.630675      -22.238976      -36.051361       3.2005079      -10.843521      -10.843529    
  0.30999997       1.6618210       11.108956      -22.395668      -36.552624       3.4870255      -9.9937515      -9.9937706    
  0.31999996       1.6795012       11.588638      -22.523096      -37.031399       3.7878466      -9.0844803      -9.0844736    
  0.32999995       1.6968169       12.069336      -22.621845      -37.488384       4.1031632      -8.1168365      -8.1168451    
  0.33999994       1.7137861       12.550673      -22.692566      -37.924171       4.4331532      -7.0919724      -7.0919905    
  0.34999993       1.7304258       13.032272      -22.735832      -38.339394       4.7780004      -6.0109940      -6.0110016    
  0.35999992       1.7467517       13.513784      -22.752222      -38.734543       5.1378808      -4.8748703      -4.8748560    
  0.36999992       1.7627778       13.994857      -22.742313      -39.110138       5.5129642      -3.6846504      -3.6846523    
  0.37999991       1.7785176       14.475154      -22.706665      -39.466606       5.9034166      -2.4412537      -2.4412870    
  0.38999990       1.7939838       14.954347      -22.645813      -39.804489       6.3094101      -1.1456795      -1.1456823    
  0.39999989       1.8091877       15.432118      -22.560291      -40.124119       6.7311001      0.20123291      0.20123816    
  0.40999988       1.8241403       15.908152      -22.450617      -40.425888       7.1686511       1.5986404       1.5986423    
  0.41999987       1.8388518       16.382145      -22.317299      -40.710182       7.6222191       3.0456619       3.0456567    
  0.42999986       1.8533316       16.853798      -22.160847      -40.977303       8.0919552       4.5415154       4.5415139    
  0.43999985       1.8675884       17.322823      -21.981739      -41.227585       8.5780096       6.0854187       6.0854006    
  0.44999984       1.8816310       17.788933      -21.780445      -41.461365       9.0805359       7.6765900       7.6765766    
  0.45999983       1.8954670       18.251858      -21.557449      -41.678871       9.5996780       9.3143311       9.3143311    
  0.46999982       1.9091039       18.711309      -21.313236      -41.880337       10.135574       10.997913       10.997910    
  0.47999981       1.9225488       19.167036      -21.048223      -42.066078       10.688375       12.726635       12.726653    
  0.48999980       1.9358082       19.618771      -20.762857      -42.236244       11.258217       14.499905       14.499903    
  0.49999979       1.9488883       20.066263      -20.457611      -42.391167       11.845232       16.316908       16.316936    
