   0.025    0.116419E+00    0.526307E-01    0.169050E+00    0.637884E-01
   0.075    0.116310E+00    0.526790E-01    0.168989E+00    0.636308E-01
   0.125    0.116092E+00    0.527750E-01    0.168867E+00    0.633173E-01
   0.175    0.115769E+00    0.529175E-01    0.168687E+00    0.628517E-01
   0.225    0.115344E+00    0.531048E-01    0.168449E+00    0.622394E-01
   0.275    0.114822E+00    0.533346E-01    0.168157E+00    0.614875E-01
   0.325    0.114208E+00    0.536039E-01    0.167812E+00    0.606046E-01
   0.375    0.113511E+00    0.539094E-01    0.167420E+00    0.596011E-01
   0.425    0.112736E+00    0.542472E-01    0.166983E+00    0.584886E-01
   0.475    0.111893E+00    0.546133E-01    0.166506E+00    0.572798E-01
   0.525    0.110991E+00    0.550028E-01    0.165994E+00    0.559886E-01
   0.575    0.110041E+00    0.554109E-01    0.165451E+00    0.546296E-01
   0.625    0.109051E+00    0.558325E-01    0.164883E+00    0.532183E-01
   0.675    0.108033E+00    0.562621E-01    0.164295E+00    0.517706E-01
   0.725    0.106997E+00    0.566943E-01    0.163691E+00    0.503024E-01
   0.775    0.105954E+00    0.571236E-01    0.163077E+00    0.488299E-01
   0.825    0.104914E+00    0.575446E-01    0.162458E+00    0.473691E-01
   0.875    0.103887E+00    0.579519E-01    0.161839E+00    0.459354E-01
   0.925    0.102884E+00    0.583405E-01    0.161225E+00    0.445437E-01
   0.975    0.101914E+00    0.587054E-01    0.160619E+00    0.432081E-01
   1.025    0.100984E+00    0.590423E-01    0.160026E+00    0.419417E-01
   1.075    0.100103E+00    0.593470E-01    0.159450E+00    0.407563E-01
   1.125    0.992784E-01    0.596159E-01    0.158894E+00    0.396625E-01
   1.175    0.985154E-01    0.598461E-01    0.158362E+00    0.386693E-01
   1.225    0.978192E-01    0.600351E-01    0.157854E+00    0.377841E-01
   1.275    0.971938E-01    0.601810E-01    0.157375E+00    0.370128E-01
   1.325    0.966420E-01    0.602825E-01    0.156924E+00    0.363594E-01
   1.375    0.961655E-01    0.603393E-01    0.156505E+00    0.358262E-01
   1.425    0.957650E-01    0.603512E-01    0.156116E+00    0.354138E-01
   1.475    0.954400E-01    0.603191E-01    0.155759E+00    0.351209E-01
   1.525    0.951891E-01    0.602444E-01    0.155433E+00    0.349448E-01
   1.575    0.950098E-01    0.601289E-01    0.155139E+00    0.348809E-01
   1.625    0.948985E-01    0.599751E-01    0.154874E+00    0.349234E-01
   1.675    0.948511E-01    0.597861E-01    0.154637E+00    0.350650E-01
   1.725    0.948625E-01    0.595653E-01    0.154428E+00    0.352972E-01
   1.775    0.949269E-01    0.593165E-01    0.154243E+00    0.356105E-01
   1.825    0.950383E-01    0.590438E-01    0.154082E+00    0.359945E-01
   1.875    0.951898E-01    0.587516E-01    0.153941E+00    0.364383E-01
   1.925    0.953746E-01    0.584444E-01    0.153819E+00    0.369302E-01
   1.975    0.955854E-01    0.581268E-01    0.153712E+00    0.374586E-01
   2.025    0.958151E-01    0.578036E-01    0.153619E+00    0.380114E-01
   2.075    0.960565E-01    0.574794E-01    0.153536E+00    0.385771E-01
   2.125    0.963025E-01    0.571585E-01    0.153461E+00    0.391440E-01
   2.175    0.965465E-01    0.568455E-01    0.153392E+00    0.397011E-01
   2.225    0.967822E-01    0.565442E-01    0.153326E+00    0.402380E-01
   2.275    0.970036E-01    0.562584E-01    0.153262E+00    0.407452E-01
   2.325    0.972054E-01    0.559917E-01    0.153197E+00    0.412138E-01
   2.375    0.973830E-01    0.557469E-01    0.153130E+00    0.416360E-01
   2.425    0.975321E-01    0.555267E-01    0.153059E+00    0.420054E-01
   2.475    0.976494E-01    0.553331E-01    0.152982E+00    0.423163E-01
   2.525    0.977323E-01    0.551677E-01    0.152900E+00    0.425646E-01
   2.575    0.977789E-01    0.550316E-01    0.152810E+00    0.427473E-01
   2.625    0.977879E-01    0.549252E-01    0.152713E+00    0.428626E-01
   2.675    0.977589E-01    0.548487E-01    0.152608E+00    0.429102E-01
   2.725    0.976921E-01    0.548013E-01    0.152493E+00    0.428907E-01
   2.775    0.975883E-01    0.547821E-01    0.152370E+00    0.428062E-01
   2.825    0.974491E-01    0.547894E-01    0.152238E+00    0.426597E-01
   2.875    0.972763E-01    0.548210E-01    0.152097E+00    0.424554E-01
   2.925    0.970726E-01    0.548744E-01    0.151947E+00    0.421982E-01
   2.975    0.968407E-01    0.549466E-01    0.151787E+00    0.418941E-01
   3.025    0.965839E-01    0.550342E-01    0.151618E+00    0.415496E-01
   3.075    0.963055E-01    0.551335E-01    0.151439E+00    0.411720E-01
   3.125    0.960091E-01    0.552403E-01    0.151249E+00    0.407688E-01
   3.175    0.956983E-01    0.553504E-01    0.151049E+00    0.403479E-01
   3.225    0.953766E-01    0.554594E-01    0.150836E+00    0.399173E-01
   3.275    0.950475E-01    0.555626E-01    0.150610E+00    0.394849E-01
   3.325    0.947141E-01    0.556554E-01    0.150370E+00    0.390587E-01
   3.375    0.943794E-01    0.557332E-01    0.150113E+00    0.386462E-01
   3.425    0.940458E-01    0.557914E-01    0.149837E+00    0.382544E-01
   3.475    0.937152E-01    0.558255E-01    0.149541E+00    0.378898E-01
   3.525    0.933894E-01    0.558311E-01    0.149220E+00    0.375583E-01
   3.575    0.930691E-01    0.558042E-01    0.148873E+00    0.372649E-01
   3.625    0.927548E-01    0.557410E-01    0.148496E+00    0.370137E-01
   3.675    0.924461E-01    0.556380E-01    0.148084E+00    0.368081E-01
   3.725    0.921421E-01    0.554919E-01    0.147634E+00    0.366502E-01
   3.775    0.918412E-01    0.552999E-01    0.147141E+00    0.365413E-01
   3.825    0.915413E-01    0.550596E-01    0.146601E+00    0.364817E-01
   3.875    0.912394E-01    0.547690E-01    0.146008E+00    0.364705E-01
   3.925    0.909323E-01    0.544264E-01    0.145359E+00    0.365059E-01
   3.975    0.906161E-01    0.540307E-01    0.144647E+00    0.365854E-01
   4.025    0.902864E-01    0.535810E-01    0.143867E+00    0.367054E-01
   4.075    0.899386E-01    0.530769E-01    0.143016E+00    0.368617E-01
   4.125    0.895677E-01    0.525185E-01    0.142086E+00    0.370492E-01
   4.175    0.891685E-01    0.519060E-01    0.141075E+00    0.372625E-01
   4.225    0.887358E-01    0.512402E-01    0.139976E+00    0.374956E-01
   4.275    0.882642E-01    0.505220E-01    0.138786E+00    0.377422E-01
   4.325    0.877486E-01    0.497528E-01    0.137501E+00    0.379958E-01
   4.375    0.871837E-01    0.489341E-01    0.136118E+00    0.382496E-01
   4.425    0.865647E-01    0.480676E-01    0.134632E+00    0.384971E-01
   4.475    0.858871E-01    0.471554E-01    0.133043E+00    0.387317E-01
   4.525    0.851467E-01    0.461996E-01    0.131346E+00    0.389471E-01
   4.575    0.843398E-01    0.452025E-01    0.129542E+00    0.391373E-01
   4.625    0.834630E-01    0.441664E-01    0.127629E+00    0.392966E-01
   4.675    0.825137E-01    0.430940E-01    0.125608E+00    0.394196E-01
   4.725    0.814896E-01    0.419878E-01    0.123477E+00    0.395018E-01
   4.775    0.803893E-01    0.408505E-01    0.121240E+00    0.395387E-01
   4.825    0.792116E-01    0.396849E-01    0.118896E+00    0.395267E-01
   4.875    0.779562E-01    0.384936E-01    0.116450E+00    0.394627E-01
   4.925    0.766235E-01    0.372795E-01    0.113903E+00    0.393440E-01
   4.975    0.752141E-01    0.360456E-01    0.111260E+00    0.391686E-01
   5.025    0.737297E-01    0.347947E-01    0.108524E+00    0.389350E-01
   5.075    0.721723E-01    0.335299E-01    0.105702E+00    0.386424E-01
   5.125    0.705444E-01    0.322541E-01    0.102799E+00    0.382903E-01
   5.175    0.688494E-01    0.309706E-01    0.998200E-01    0.378789E-01
   5.225    0.670910E-01    0.296824E-01    0.967733E-01    0.374086E-01
   5.275    0.652734E-01    0.283927E-01    0.936661E-01    0.368807E-01
   5.325    0.634014E-01    0.271049E-01    0.905063E-01    0.362965E-01
   5.375    0.614801E-01    0.258223E-01    0.873024E-01    0.356579E-01
   5.425    0.595153E-01    0.245482E-01    0.840634E-01    0.349671E-01
   5.475    0.575128E-01    0.232860E-01    0.807988E-01    0.342269E-01
   5.525    0.554791E-01    0.220391E-01    0.775182E-01    0.334400E-01
   5.575    0.534208E-01    0.208109E-01    0.742317E-01    0.326099E-01
   5.625    0.513446E-01    0.196047E-01    0.709492E-01    0.317399E-01
   5.675    0.492575E-01    0.184237E-01    0.676812E-01    0.308338E-01
   5.725    0.471668E-01    0.172710E-01    0.644378E-01    0.298957E-01
   5.775    0.450794E-01    0.161497E-01    0.612291E-01    0.289297E-01
   5.825    0.430025E-01    0.150624E-01    0.580650E-01    0.279401E-01
   5.875    0.409431E-01    0.140118E-01    0.549550E-01    0.269313E-01
   5.925    0.389080E-01    0.130001E-01    0.519081E-01    0.259079E-01
   5.975    0.369036E-01    0.120294E-01    0.489330E-01    0.248742E-01
   6.025    0.349363E-01    0.111013E-01    0.460376E-01    0.238349E-01
   6.075    0.330117E-01    0.102173E-01    0.432289E-01    0.227944E-01
   6.125    0.311352E-01    0.937824E-02    0.405135E-01    0.217570E-01
   6.175    0.293118E-01    0.858493E-02    0.378967E-01    0.207268E-01
   6.225    0.275456E-01    0.783765E-02    0.353833E-01    0.197080E-01
   6.275    0.258405E-01    0.713637E-02    0.329768E-01    0.187041E-01
   6.325    0.241995E-01    0.648071E-02    0.306802E-01    0.177188E-01
   6.375    0.226252E-01    0.587000E-02    0.284952E-01    0.167552E-01
   6.425    0.211195E-01    0.530327E-02    0.264228E-01    0.158162E-01
   6.475    0.196837E-01    0.477927E-02    0.244630E-01    0.149044E-01
   6.525    0.183186E-01    0.429654E-02    0.226151E-01    0.140220E-01
   6.575    0.170243E-01    0.385342E-02    0.208777E-01    0.131709E-01
   6.625    0.158005E-01    0.344807E-02    0.192486E-01    0.123525E-01
   6.675    0.146465E-01    0.307854E-02    0.177251E-01    0.115680E-01
   6.725    0.135610E-01    0.274279E-02    0.163038E-01    0.108182E-01
   6.775    0.125424E-01    0.243871E-02    0.149811E-01    0.101037E-01
   6.825    0.115888E-01    0.216418E-02    0.137530E-01    0.942461E-02
   6.875    0.106980E-01    0.191706E-02    0.126150E-01    0.878092E-02
   6.925    0.986755E-02    0.169525E-02    0.115628E-01    0.817230E-02
   6.975    0.909491E-02    0.149672E-02    0.105916E-01    0.759819E-02
   7.025    0.837733E-02    0.131947E-02    0.969680E-02    0.705786E-02
   7.075    0.771200E-02    0.116162E-02    0.887362E-02    0.655039E-02
   7.125    0.709608E-02    0.102136E-02    0.811743E-02    0.607472E-02
   7.175    0.652668E-02    0.896998E-03    0.742368E-02    0.562969E-02
   7.225    0.600098E-02    0.786956E-03    0.678794E-02    0.521403E-02
   7.275    0.551617E-02    0.689760E-03    0.620593E-02    0.482641E-02
   7.325    0.506953E-02    0.604054E-03    0.567358E-02    0.446548E-02
   7.375    0.465841E-02    0.528593E-03    0.518700E-02    0.412981E-02
   7.425    0.428027E-02    0.462244E-03    0.474252E-02    0.381803E-02
   7.475    0.393271E-02    0.403976E-03    0.433668E-02    0.352873E-02
   7.525    0.361340E-02    0.352861E-03    0.396627E-02    0.326054E-02
   7.575    0.332020E-02    0.308064E-03    0.362826E-02    0.301213E-02
   7.625    0.305104E-02    0.268835E-03    0.331987E-02    0.278220E-02
   7.675    0.280402E-02    0.234509E-03    0.303852E-02    0.256951E-02
   7.725    0.257735E-02    0.204491E-03    0.278184E-02    0.237286E-02
   7.775    0.236938E-02    0.178256E-03    0.254763E-02    0.219112E-02
   7.825    0.217857E-02    0.155339E-03    0.233391E-02    0.202323E-02
   7.875    0.200350E-02    0.135328E-03    0.213883E-02    0.186817E-02
   7.925    0.184286E-02    0.117864E-03    0.196073E-02    0.172500E-02
   7.975    0.169546E-02    0.102627E-03    0.179809E-02    0.159283E-02
   8.025    0.156018E-02    0.893391E-04    0.164952E-02    0.147084E-02
   8.075    0.143600E-02    0.777553E-04    0.151376E-02    0.135825E-02
   8.125    0.132201E-02    0.676608E-04    0.138967E-02    0.125435E-02
   8.175    0.121735E-02    0.588675E-04    0.127622E-02    0.115848E-02
   8.225    0.112124E-02    0.512106E-04    0.117245E-02    0.107003E-02
   8.275    0.103297E-02    0.445458E-04    0.107752E-02    0.988424E-03
   8.325    0.951885E-03    0.387467E-04    0.990632E-03    0.913138E-03
   8.375    0.877390E-03    0.337026E-04    0.911093E-03    0.843688E-03
   8.425    0.808940E-03    0.293166E-04    0.838257E-03    0.779623E-03
   8.475    0.746033E-03    0.255039E-04    0.771537E-03    0.720530E-03
   8.525    0.688213E-03    0.221905E-04    0.710403E-03    0.666022E-03
   8.575    0.635058E-03    0.193113E-04    0.654369E-03    0.615746E-03
   8.625    0.586183E-03    0.168097E-04    0.602993E-03    0.569373E-03
   8.675    0.541235E-03    0.146362E-04    0.555871E-03    0.526599E-03
   8.725    0.499890E-03    0.127476E-04    0.512638E-03    0.487142E-03
   8.775    0.461850E-03    0.111062E-04    0.472956E-03    0.450744E-03
   8.825    0.426841E-03    0.967932E-05    0.436520E-03    0.417162E-03
   8.875    0.394613E-03    0.843840E-05    0.403051E-03    0.386175E-03
   8.925    0.364935E-03    0.735874E-05    0.372294E-03    0.357577E-03
   8.975    0.337597E-03    0.641889E-05    0.344016E-03    0.331178E-03
   9.025    0.312405E-03    0.560029E-05    0.318005E-03    0.306804E-03
   9.075    0.289180E-03    0.488687E-05    0.294067E-03    0.284293E-03
   9.125    0.267762E-03    0.426476E-05    0.272026E-03    0.263497E-03
   9.175    0.248000E-03    0.372198E-05    0.251722E-03    0.244278E-03
   9.225    0.229760E-03    0.324818E-05    0.233008E-03    0.226512E-03
   9.275    0.212916E-03    0.283443E-05    0.215751E-03    0.210082E-03
   9.325    0.197356E-03    0.247302E-05    0.199829E-03    0.194883E-03
   9.375    0.182975E-03    0.215728E-05    0.185133E-03    0.180818E-03
   9.425    0.169680E-03    0.188145E-05    0.171561E-03    0.167798E-03
   9.475    0.157383E-03    0.164052E-05    0.159023E-03    0.155742E-03
   9.525    0.146006E-03    0.143014E-05    0.147436E-03    0.144576E-03
   9.575    0.135477E-03    0.124652E-05    0.136724E-03    0.134231E-03
   9.625    0.125730E-03    0.108635E-05    0.126817E-03    0.124644E-03
   9.675    0.116706E-03    0.946730E-06    0.117652E-03    0.115759E-03
   9.725    0.108348E-03    0.825108E-06    0.109173E-03    0.107523E-03
   9.775    0.100607E-03    0.719244E-06    0.101326E-03    0.998879E-04
   9.825    0.934363E-04    0.627161E-06    0.940635E-04    0.928092E-04
   9.875    0.867930E-04    0.547115E-06    0.873401E-04    0.862459E-04
   9.925    0.806379E-04    0.477564E-06    0.811155E-04    0.801604E-04
   9.975    0.749348E-04    0.417150E-06    0.753519E-04    0.745176E-04
  10.025    0.696500E-04    0.364676E-06    0.700147E-04    0.692853E-04
  10.075    0.647526E-04    0.319086E-06    0.650717E-04    0.644335E-04
  10.125    0.602136E-04    0.279457E-06    0.604931E-04    0.599342E-04
  10.175    0.560065E-04    0.244980E-06    0.562515E-04    0.557615E-04
  10.225    0.521064E-04    0.214948E-06    0.523213E-04    0.518914E-04
  10.275    0.484902E-04    0.188751E-06    0.486789E-04    0.483014E-04
  10.325    0.451365E-04    0.165857E-06    0.453023E-04    0.449706E-04
  10.375    0.420254E-04    0.145812E-06    0.421712E-04    0.418796E-04
  10.425    0.391386E-04    0.128226E-06    0.392668E-04    0.390104E-04
  10.475    0.364589E-04    0.112764E-06    0.365717E-04    0.363461E-04
  10.525    0.339705E-04    0.991443E-07    0.340697E-04    0.338714E-04
  10.575    0.316589E-04    0.871266E-07    0.317460E-04    0.315717E-04
  10.625    0.295104E-04    0.765084E-07    0.295870E-04    0.294339E-04
  10.675    0.275129E-04    0.671183E-07    0.275800E-04    0.274458E-04
  10.725    0.256547E-04    0.588116E-07    0.257135E-04    0.255959E-04
  10.775    0.239255E-04    0.514653E-07    0.239770E-04    0.238741E-04
  10.825    0.223157E-04    0.449741E-07    0.223606E-04    0.222707E-04
  10.875    0.208164E-04    0.392473E-07    0.208556E-04    0.207771E-04
  10.925    0.194196E-04    0.342052E-07    0.194538E-04    0.193854E-04
  10.975    0.181180E-04    0.297777E-07    0.181477E-04    0.180882E-04
  11.025    0.169047E-04    0.259015E-07    0.169306E-04    0.168788E-04
  11.075    0.157737E-04    0.225190E-07    0.157963E-04    0.157512E-04
  11.125    0.147193E-04    0.195776E-07    0.147389E-04    0.146997E-04
  11.175    0.137362E-04    0.170285E-07    0.137533E-04    0.137192E-04
  11.225    0.128197E-04    0.148265E-07    0.128346E-04    0.128049E-04
  11.275    0.119653E-04    0.129298E-07    0.119783E-04    0.119524E-04
  11.325    0.111690E-04    0.113000E-07    0.111803E-04    0.111577E-04
  11.375    0.104268E-04    0.990157E-08    0.104367E-04    0.104169E-04
  11.425    0.973521E-05    0.870250E-08    0.974392E-05    0.972651E-05
  11.475    0.909090E-05    0.767377E-08    0.909858E-05    0.908323E-05
  11.525    0.849071E-05    0.678953E-08    0.849750E-05    0.848392E-05
  11.575    0.793168E-05    0.602691E-08    0.793771E-05    0.792565E-05
  11.625    0.741102E-05    0.536594E-08    0.741639E-05    0.740566E-05
  11.675    0.692610E-05    0.478937E-08    0.693089E-05    0.692131E-05
  11.725    0.647444E-05    0.428253E-08    0.647872E-05    0.647016E-05
  11.775    0.605369E-05    0.383310E-08    0.605753E-05    0.604986E-05
  11.825    0.566166E-05    0.343097E-08    0.566509E-05    0.565823E-05
  11.875    0.529626E-05    0.306800E-08    0.529933E-05    0.529319E-05
  11.925    0.495556E-05    0.273785E-08    0.495830E-05    0.495283E-05
  11.975    0.463775E-05    0.243576E-08    0.464018E-05    0.463531E-05
  12.025    0.434113E-05    0.215831E-08    0.434329E-05    0.433897E-05
  12.075    0.406414E-05    0.190319E-08    0.406604E-05    0.406224E-05
  12.125    0.380533E-05    0.166894E-08    0.380699E-05    0.380366E-05
  12.175    0.356336E-05    0.145474E-08    0.356481E-05    0.356190E-05
  12.225    0.333701E-05    0.126012E-08    0.333827E-05    0.333575E-05
  12.275    0.312517E-05    0.108479E-08    0.312625E-05    0.312408E-05
  12.325    0.292680E-05    0.928452E-09    0.292773E-05    0.292588E-05
  12.375    0.274100E-05    0.790641E-09    0.274179E-05    0.274021E-05
  12.425    0.256690E-05    0.670676E-09    0.256757E-05    0.256623E-05
  12.475    0.240375E-05    0.567606E-09    0.240432E-05    0.240318E-05
  12.525    0.225085E-05    0.480229E-09    0.225133E-05    0.225037E-05
  12.575    0.210756E-05    0.407139E-09    0.210797E-05    0.210715E-05
  12.625    0.197330E-05    0.346793E-09    0.197365E-05    0.197296E-05
  12.675    0.184754E-05    0.297594E-09    0.184784E-05    0.184725E-05
  12.725    0.172979E-05    0.257958E-09    0.173005E-05    0.172953E-05
  12.775    0.161957E-05    0.226381E-09    0.161980E-05    0.161935E-05
  12.825    0.151647E-05    0.201475E-09    0.151667E-05    0.151626E-05
  12.875    0.142005E-05    0.181991E-09    0.142024E-05    0.141987E-05
  12.925    0.132995E-05    0.166814E-09    0.133012E-05    0.132978E-05
  12.975    0.124578E-05    0.154958E-09    0.124593E-05    0.124562E-05
  13.025    0.116717E-05    0.145549E-09    0.116732E-05    0.116703E-05
  13.075    0.109379E-05    0.137808E-09    0.109393E-05    0.109366E-05
  13.125    0.102530E-05    0.131044E-09    0.102543E-05    0.102517E-05
  13.175    0.961379E-06    0.124660E-09    0.961503E-06    0.961254E-06
  13.225    0.901710E-06    0.118161E-09    0.901828E-06    0.901592E-06
  13.275    0.845998E-06    0.111171E-09    0.846109E-06    0.845887E-06
  13.325    0.793960E-06    0.103447E-09    0.794063E-06    0.793856E-06
  13.375    0.745324E-06    0.948960E-10    0.745419E-06    0.745229E-06
  13.425    0.699837E-06    0.855682E-10    0.699923E-06    0.699751E-06
  13.475    0.657259E-06    0.756461E-10    0.657335E-06    0.657184E-06
  13.525    0.617370E-06    0.654161E-10    0.617435E-06    0.617304E-06
  13.575    0.579962E-06    0.552283E-10    0.580018E-06    0.579907E-06
  13.625    0.544850E-06    0.454507E-10    0.544895E-06    0.544804E-06
  13.675    0.511861E-06    0.364228E-10    0.511898E-06    0.511825E-06
  13.725    0.480842E-06    0.284156E-10    0.480871E-06    0.480814E-06
  13.775    0.451654E-06    0.216038E-10    0.451676E-06    0.451633E-06
  13.825    0.424175E-06    0.160540E-10    0.424191E-06    0.424159E-06
  13.875    0.398294E-06    0.117292E-10    0.398306E-06    0.398282E-06
  13.925    0.373915E-06    0.850800E-11    0.373924E-06    0.373907E-06
  13.975    0.350953E-06    0.621378E-11    0.350959E-06    0.350947E-06
  14.025    0.329330E-06    0.464864E-11    0.329335E-06    0.329326E-06
  14.075    0.308980E-06    0.362509E-11    0.308984E-06    0.308976E-06
  14.125    0.289840E-06    0.299043E-11    0.289843E-06    0.289837E-06
  14.175    0.271852E-06    0.264020E-11    0.271855E-06    0.271850E-06
  14.225    0.254965E-06    0.251916E-11    0.254968E-06    0.254963E-06
  14.275    0.239127E-06    0.261123E-11    0.239130E-06    0.239125E-06
  14.325    0.224289E-06    0.292156E-11    0.224292E-06    0.224286E-06
  14.375    0.210401E-06    0.345552E-11    0.210405E-06    0.210398E-06
  14.425    0.197416E-06    0.419958E-11    0.197421E-06    0.197412E-06
  14.475    0.185286E-06    0.510847E-11    0.185291E-06    0.185281E-06
  14.525    0.173960E-06    0.610146E-11    0.173966E-06    0.173954E-06
  14.575    0.163391E-06    0.706852E-11    0.163398E-06    0.163384E-06
  14.625    0.153530E-06    0.788497E-11    0.153538E-06    0.153522E-06
  14.675    0.144328E-06    0.843146E-11    0.144337E-06    0.144320E-06
  14.725    0.135738E-06    0.861504E-11    0.135747E-06    0.135730E-06
  14.775    0.127714E-06    0.838677E-11    0.127722E-06    0.127705E-06
  14.825    0.120210E-06    0.775214E-11    0.120218E-06    0.120202E-06
  14.875    0.113184E-06    0.677211E-11    0.113191E-06    0.113177E-06
  14.925    0.106597E-06    0.555414E-11    0.106602E-06    0.106591E-06
  14.975    0.100410E-06    0.423514E-11    0.100414E-06    0.100405E-06
  15.025    0.945888E-07    0.295918E-11    0.945918E-07    0.945858E-07
  15.075    0.891031E-07    0.185445E-11    0.891050E-07    0.891013E-07
  15.125    0.839248E-07    0.101345E-11    0.839258E-07    0.839238E-07
  15.175    0.790294E-07    0.480306E-12    0.790299E-07    0.790290E-07
  15.225    0.743958E-07    0.247077E-12    0.743961E-07    0.743956E-07
  15.275    0.700061E-07    0.259680E-12    0.700063E-07    0.700058E-07
  15.325    0.658451E-07    0.431812E-12    0.658455E-07    0.658447E-07
  15.375    0.619005E-07    0.664007E-12    0.619012E-07    0.618999E-07
  15.425    0.581623E-07    0.863941E-12    0.581631E-07    0.581614E-07
  15.475    0.546220E-07    0.964036E-12    0.546230E-07    0.546211E-07
  15.525    0.512731E-07    0.933060E-12    0.512740E-07    0.512722E-07
  15.575    0.481097E-07    0.779695E-12    0.481105E-07    0.481089E-07
  15.625    0.451267E-07    0.547720E-12    0.451273E-07    0.451262E-07
  15.675    0.423194E-07    0.304098E-12    0.423197E-07    0.423191E-07
  15.725    0.396827E-07    0.122639E-12    0.396828E-07    0.396826E-07
  15.775    0.372116E-07    0.667223E-13    0.372116E-07    0.372115E-07
  15.825    0.349002E-07    0.174622E-12    0.349004E-07    0.349000E-07
  15.875    0.327423E-07    0.450405E-12    0.327428E-07    0.327419E-07
  15.925    0.307310E-07    0.862132E-12    0.307318E-07    0.307301E-07
  15.975    0.288586E-07    0.134762E-11    0.288599E-07    0.288572E-07
  16.025    0.271171E-07    0.182648E-11    0.271189E-07    0.271153E-07
  16.075    0.254980E-07    0.221589E-11    0.255002E-07    0.254958E-07
  16.125    0.239924E-07    0.244693E-11    0.239949E-07    0.239900E-07
  16.175    0.225915E-07    0.247808E-11    0.225940E-07    0.225890E-07
  16.225    0.212862E-07    0.230338E-11    0.212885E-07    0.212839E-07
  16.275    0.200679E-07    0.195349E-11    0.200699E-07    0.200660E-07
  16.325    0.189281E-07    0.148971E-11    0.189296E-07    0.189266E-07
  16.375    0.178588E-07    0.992068E-12    0.178598E-07    0.178578E-07
  16.425    0.168525E-07    0.544002E-12    0.168530E-07    0.168519E-07
  16.475    0.159024E-07    0.216640E-12    0.159026E-07    0.159022E-07
  16.525    0.150025E-07    0.557605E-13    0.150026E-07    0.150024E-07
  16.575    0.141475E-07    0.739352E-13    0.141476E-07    0.141474E-07
  16.625    0.133329E-07    0.249284E-12    0.133332E-07    0.133327E-07
  16.675    0.125552E-07    0.530947E-12    0.125557E-07    0.125546E-07
  16.725    0.118114E-07    0.850053E-12    0.118123E-07    0.118106E-07
  16.775    0.110997E-07    0.113390E-11    0.111008E-07    0.110985E-07
  16.825    0.104186E-07    0.132053E-11    0.104199E-07    0.104173E-07
  16.875    0.976752E-08    0.137071E-11    0.976889E-08    0.976615E-08
  16.925    0.914612E-08    0.127516E-11    0.914739E-08    0.914484E-08
  16.975    0.855451E-08    0.105559E-11    0.855557E-08    0.855346E-08
  17.025    0.799297E-08    0.759509E-12    0.799373E-08    0.799221E-08
  17.075    0.746183E-08    0.449977E-12    0.746228E-08    0.746138E-08
  17.125    0.696136E-08    0.192444E-12    0.696155E-08    0.696116E-08
  17.175    0.649162E-08    0.413472E-13    0.649166E-08    0.649158E-08
  17.225    0.605246E-08    0.291470E-13    0.605249E-08    0.605243E-08
  17.275    0.564341E-08    0.159953E-12    0.564357E-08    0.564325E-08
  17.325    0.526369E-08    0.408930E-12    0.526410E-08    0.526328E-08
  17.375    0.491220E-08    0.727506E-12    0.491292E-08    0.491147E-08
  17.425    0.458757E-08    0.105328E-11    0.458863E-08    0.458652E-08
  17.475    0.428822E-08    0.132254E-11    0.428954E-08    0.428690E-08
  17.525    0.401236E-08    0.148292E-11    0.401384E-08    0.401087E-08
  17.575    0.375809E-08    0.150366E-11    0.375959E-08    0.375659E-08
  17.625    0.352345E-08    0.138140E-11    0.352484E-08    0.352207E-08
  17.675    0.330646E-08    0.114056E-11    0.330760E-08    0.330532E-08
  17.725    0.310515E-08    0.828170E-12    0.310597E-08    0.310432E-08
  17.775    0.291760E-08    0.504341E-12    0.291810E-08    0.291710E-08
  17.825    0.274201E-08    0.230272E-12    0.274224E-08    0.274178E-08
  17.875    0.257667E-08    0.562429E-13    0.257672E-08    0.257661E-08
  17.925    0.242004E-08    0.119294E-13    0.242005E-08    0.242003E-08
  17.975    0.227075E-08    0.100944E-12    0.227085E-08    0.227064E-08
  18.025    0.212763E-08    0.300603E-12    0.212793E-08    0.212733E-08
  18.075    0.198976E-08    0.566890E-12    0.199033E-08    0.198920E-08
  18.125    0.185645E-08    0.843554E-12    0.185730E-08    0.185561E-08
  18.175    0.172726E-08    0.107348E-11    0.172834E-08    0.172619E-08
  18.225    0.160201E-08    0.121003E-11    0.160322E-08    0.160080E-08
  18.275    0.148072E-08    0.122617E-11    0.148194E-08    0.147949E-08
  18.325    0.136361E-08    0.111946E-11    0.136473E-08    0.136250E-08
  18.375    0.125106E-08    0.912239E-12    0.125197E-08    0.125015E-08
  18.425    0.114350E-08    0.646713E-12    0.114415E-08    0.114285E-08
  18.475    0.104141E-08    0.376293E-12    0.104178E-08    0.104103E-08
  18.525    0.945211E-09    0.154764E-12    0.945366E-09    0.945056E-09
  18.575    0.855271E-09    0.255479E-13    0.855296E-09    0.855245E-09
  18.625    0.771820E-09    0.131664E-13    0.771833E-09    0.771807E-09
  18.675    0.694953E-09    0.118577E-12    0.695072E-09    0.694835E-09
  18.725    0.624620E-09    0.319253E-12    0.624939E-09    0.624301E-09
  18.775    0.560631E-09    0.573930E-12    0.561205E-09    0.560057E-09
  18.825    0.502684E-09    0.831020E-12    0.503515E-09    0.501853E-09
  18.875    0.450388E-09    0.103898E-11    0.451427E-09    0.449349E-09
  18.925    0.403297E-09    0.115652E-11    0.404454E-09    0.402141E-09
  18.975    0.360937E-09    0.116072E-11    0.362098E-09    0.359777E-09
  19.025    0.322834E-09    0.105134E-11    0.323885E-09    0.321782E-09
  19.075    0.288524E-09    0.850595E-12    0.289375E-09    0.287674E-09
  19.125    0.257572E-09    0.598541E-12    0.258171E-09    0.256974E-09
  19.175    0.229569E-09    0.344884E-12    0.229914E-09    0.229224E-09
  19.225    0.204135E-09    0.139048E-12    0.204274E-09    0.203996E-09
  19.275    0.180915E-09    0.203763E-13    0.180936E-09    0.180895E-09
  19.325    0.159588E-09    0.104626E-13    0.159598E-09    0.159577E-09
  19.375    0.139860E-09    0.109083E-12    0.139969E-09    0.139751E-09
  19.425    0.121481E-09    0.294506E-12    0.121775E-09    0.121186E-09
  19.475    0.104252E-09    0.528057E-12    0.104780E-09    0.103724E-09
  19.525    0.880399E-10    0.761996E-12    0.888019E-10    0.872779E-10
  19.575    0.727846E-10    0.949100E-12    0.737337E-10    0.718355E-10
  19.625    0.585076E-10    0.105203E-11    0.595597E-10    0.574556E-10
  19.675    0.453096E-10    0.105063E-11    0.463602E-10    0.442589E-10
  19.725    0.333604E-10    0.945739E-12    0.343061E-10    0.324147E-10
  19.775    0.228806E-10    0.758794E-12    0.236394E-10    0.221219E-10
  19.825    0.141155E-10    0.527328E-12    0.146428E-10    0.135882E-10
  19.875    0.730455E-11    0.297350E-12    0.760190E-11    0.700720E-11
  19.925    0.265108E-11    0.114096E-12    0.276518E-11    0.253698E-11
  19.975    0.295055E-12    0.130509E-13    0.308106E-12    0.282004E-12
