   0.025    0.930495E-01    0.427035E-01    0.135753E+00    0.503460E-01
   0.075    0.930943E-01    0.427239E-01    0.135818E+00    0.503703E-01
   0.125    0.931831E-01    0.427647E-01    0.135948E+00    0.504184E-01
   0.175    0.933145E-01    0.428256E-01    0.136140E+00    0.504889E-01
   0.225    0.934864E-01    0.429065E-01    0.136393E+00    0.505799E-01
   0.275    0.936961E-01    0.430070E-01    0.136703E+00    0.506891E-01
   0.325    0.939403E-01    0.431269E-01    0.137067E+00    0.508134E-01
   0.375    0.942150E-01    0.432657E-01    0.137481E+00    0.509493E-01
   0.425    0.945159E-01    0.434228E-01    0.137939E+00    0.510931E-01
   0.475    0.948384E-01    0.435979E-01    0.138436E+00    0.512406E-01
   0.525    0.951774E-01    0.437902E-01    0.138968E+00    0.513872E-01
   0.575    0.955276E-01    0.439992E-01    0.139527E+00    0.515284E-01
   0.625    0.958838E-01    0.442243E-01    0.140108E+00    0.516595E-01
   0.675    0.962404E-01    0.444646E-01    0.140705E+00    0.517758E-01
   0.725    0.965922E-01    0.447195E-01    0.141312E+00    0.518728E-01
   0.775    0.969339E-01    0.449880E-01    0.141922E+00    0.519459E-01
   0.825    0.972605E-01    0.452695E-01    0.142530E+00    0.519910E-01
   0.875    0.975674E-01    0.455629E-01    0.143130E+00    0.520044E-01
   0.925    0.978501E-01    0.458673E-01    0.143717E+00    0.519827E-01
   0.975    0.981046E-01    0.461817E-01    0.144286E+00    0.519229E-01
   1.025    0.983277E-01    0.465049E-01    0.144833E+00    0.518228E-01
   1.075    0.985163E-01    0.468358E-01    0.145352E+00    0.516805E-01
   1.125    0.986680E-01    0.471730E-01    0.145841E+00    0.514951E-01
   1.175    0.987812E-01    0.475152E-01    0.146296E+00    0.512660E-01
   1.225    0.988545E-01    0.478610E-01    0.146715E+00    0.509935E-01
   1.275    0.988875E-01    0.482088E-01    0.147096E+00    0.506788E-01
   1.325    0.988803E-01    0.485569E-01    0.147437E+00    0.503234E-01
   1.375    0.988336E-01    0.489037E-01    0.147737E+00    0.499298E-01
   1.425    0.987485E-01    0.492474E-01    0.147996E+00    0.495011E-01
   1.475    0.986271E-01    0.495861E-01    0.148213E+00    0.490410E-01
   1.525    0.984716E-01    0.499178E-01    0.148389E+00    0.485538E-01
   1.575    0.982850E-01    0.502406E-01    0.148526E+00    0.480444E-01
   1.625    0.980706E-01    0.505526E-01    0.148623E+00    0.475180E-01
   1.675    0.978323E-01    0.508518E-01    0.148684E+00    0.469804E-01
   1.725    0.975739E-01    0.511362E-01    0.148710E+00    0.464377E-01
   1.775    0.973001E-01    0.514040E-01    0.148704E+00    0.458960E-01
   1.825    0.970152E-01    0.516534E-01    0.148669E+00    0.453618E-01
   1.875    0.967240E-01    0.518827E-01    0.148607E+00    0.448413E-01
   1.925    0.964312E-01    0.520904E-01    0.148522E+00    0.443408E-01
   1.975    0.961416E-01    0.522752E-01    0.148417E+00    0.438664E-01
   2.025    0.958597E-01    0.524359E-01    0.148296E+00    0.434239E-01
   2.075    0.955901E-01    0.525716E-01    0.148162E+00    0.430185E-01
   2.125    0.953370E-01    0.526818E-01    0.148019E+00    0.426552E-01
   2.175    0.951042E-01    0.527660E-01    0.147870E+00    0.423382E-01
   2.225    0.948952E-01    0.528242E-01    0.147719E+00    0.420710E-01
   2.275    0.947131E-01    0.528568E-01    0.147570E+00    0.418563E-01
   2.325    0.945605E-01    0.528643E-01    0.147425E+00    0.416962E-01
   2.375    0.944393E-01    0.528476E-01    0.147287E+00    0.415917E-01
   2.425    0.943511E-01    0.528081E-01    0.147159E+00    0.415430E-01
   2.475    0.942966E-01    0.527472E-01    0.147044E+00    0.415493E-01
   2.525    0.942761E-01    0.526670E-01    0.146943E+00    0.416091E-01
   2.575    0.942892E-01    0.525696E-01    0.146859E+00    0.417196E-01
   2.625    0.943349E-01    0.524574E-01    0.146792E+00    0.418775E-01
   2.675    0.944117E-01    0.523332E-01    0.146745E+00    0.420785E-01
   2.725    0.945174E-01    0.521999E-01    0.146717E+00    0.423175E-01
   2.775    0.946494E-01    0.520605E-01    0.146710E+00    0.425889E-01
   2.825    0.948046E-01    0.519183E-01    0.146723E+00    0.428863E-01
   2.875    0.949796E-01    0.517765E-01    0.146756E+00    0.432031E-01
   2.925    0.951704E-01    0.516383E-01    0.146809E+00    0.435321E-01
   2.975    0.953730E-01    0.515071E-01    0.146880E+00    0.438659E-01
   3.025    0.955831E-01    0.513861E-01    0.146969E+00    0.441971E-01
   3.075    0.957964E-01    0.512783E-01    0.147075E+00    0.445181E-01
   3.125    0.960083E-01    0.511865E-01    0.147195E+00    0.448218E-01
   3.175    0.962146E-01    0.511136E-01    0.147328E+00    0.451010E-01
   3.225    0.964110E-01    0.510618E-01    0.147473E+00    0.453492E-01
   3.275    0.965935E-01    0.510333E-01    0.147627E+00    0.455602E-01
   3.325    0.967582E-01    0.510297E-01    0.147788E+00    0.457284E-01
   3.375    0.969016E-01    0.510525E-01    0.147954E+00    0.458492E-01
   3.425    0.970208E-01    0.511025E-01    0.148123E+00    0.459183E-01
   3.475    0.971130E-01    0.511802E-01    0.148293E+00    0.459328E-01
   3.525    0.971761E-01    0.512858E-01    0.148462E+00    0.458903E-01
   3.575    0.972081E-01    0.514186E-01    0.148627E+00    0.457895E-01
   3.625    0.972081E-01    0.515780E-01    0.148786E+00    0.456301E-01
   3.675    0.971750E-01    0.517625E-01    0.148937E+00    0.454125E-01
   3.725    0.971088E-01    0.519703E-01    0.149079E+00    0.451385E-01
   3.775    0.970096E-01    0.521991E-01    0.149209E+00    0.448104E-01
   3.825    0.968780E-01    0.524464E-01    0.149324E+00    0.444316E-01
   3.875    0.967152E-01    0.527090E-01    0.149424E+00    0.440062E-01
   3.925    0.965227E-01    0.529836E-01    0.149506E+00    0.435391E-01
   3.975    0.963022E-01    0.532663E-01    0.149569E+00    0.430359E-01
   4.025    0.960558E-01    0.535533E-01    0.149609E+00    0.425025E-01
   4.075    0.957857E-01    0.538402E-01    0.149626E+00    0.419455E-01
   4.125    0.954945E-01    0.541227E-01    0.149617E+00    0.413718E-01
   4.175    0.951846E-01    0.543961E-01    0.149581E+00    0.407885E-01
   4.225    0.948585E-01    0.546558E-01    0.149514E+00    0.402026E-01
   4.275    0.945186E-01    0.548972E-01    0.149416E+00    0.396214E-01
   4.325    0.941675E-01    0.551156E-01    0.149283E+00    0.390519E-01
   4.375    0.938070E-01    0.553064E-01    0.149113E+00    0.385006E-01
   4.425    0.934392E-01    0.554652E-01    0.148904E+00    0.379740E-01
   4.475    0.930655E-01    0.555877E-01    0.148653E+00    0.374778E-01
   4.525    0.926872E-01    0.556699E-01    0.148357E+00    0.370173E-01
   4.575    0.923051E-01    0.557080E-01    0.148013E+00    0.365970E-01
   4.625    0.919193E-01    0.556986E-01    0.147618E+00    0.362207E-01
   4.675    0.915299E-01    0.556386E-01    0.147168E+00    0.358914E-01
   4.725    0.911362E-01    0.555251E-01    0.146661E+00    0.356111E-01
   4.775    0.907369E-01    0.553559E-01    0.146093E+00    0.353810E-01
   4.825    0.903306E-01    0.551290E-01    0.145460E+00    0.352016E-01
   4.875    0.899150E-01    0.548428E-01    0.144758E+00    0.350722E-01
   4.925    0.894877E-01    0.544964E-01    0.143984E+00    0.349913E-01
   4.975    0.890457E-01    0.540890E-01    0.143135E+00    0.349567E-01
   5.025    0.885858E-01    0.536204E-01    0.142206E+00    0.349654E-01
   5.075    0.881042E-01    0.530908E-01    0.141195E+00    0.350135E-01
   5.125    0.875972E-01    0.525007E-01    0.140098E+00    0.350966E-01
   5.175    0.870608E-01    0.518511E-01    0.138912E+00    0.352097E-01
   5.225    0.864908E-01    0.511432E-01    0.137634E+00    0.353475E-01
   5.275    0.858829E-01    0.503788E-01    0.136262E+00    0.355042E-01
   5.325    0.852332E-01    0.495595E-01    0.134793E+00    0.356737E-01
   5.375    0.845376E-01    0.486877E-01    0.133225E+00    0.358499E-01
   5.425    0.837922E-01    0.477657E-01    0.131558E+00    0.360265E-01
   5.475    0.829934E-01    0.467960E-01    0.129789E+00    0.361974E-01
   5.525    0.821379E-01    0.457814E-01    0.127919E+00    0.363565E-01
   5.575    0.812227E-01    0.447247E-01    0.125947E+00    0.364980E-01
   5.625    0.802452E-01    0.436289E-01    0.123874E+00    0.366163E-01
   5.675    0.792034E-01    0.424971E-01    0.121701E+00    0.367064E-01
   5.725    0.780956E-01    0.413323E-01    0.119428E+00    0.367633E-01
   5.775    0.769207E-01    0.401379E-01    0.117059E+00    0.367828E-01
   5.825    0.756779E-01    0.389169E-01    0.114595E+00    0.367610E-01
   5.875    0.743673E-01    0.376726E-01    0.112040E+00    0.366946E-01
   5.925    0.729893E-01    0.364084E-01    0.109398E+00    0.365808E-01
   5.975    0.715448E-01    0.351275E-01    0.106672E+00    0.364173E-01
   6.025    0.700355E-01    0.338333E-01    0.103869E+00    0.362023E-01
   6.075    0.684635E-01    0.325290E-01    0.100993E+00    0.359345E-01
   6.125    0.668314E-01    0.312182E-01    0.980495E-01    0.356132E-01
   6.175    0.651423E-01    0.299040E-01    0.950463E-01    0.352382E-01
   6.225    0.633998E-01    0.285901E-01    0.919899E-01    0.348097E-01
   6.275    0.616082E-01    0.272798E-01    0.888880E-01    0.343284E-01
   6.325    0.597719E-01    0.259765E-01    0.857484E-01    0.337954E-01
   6.375    0.578959E-01    0.246837E-01    0.825796E-01    0.332122E-01
   6.425    0.559856E-01    0.234048E-01    0.793904E-01    0.325808E-01
   6.475    0.540467E-01    0.221432E-01    0.761898E-01    0.319035E-01
   6.525    0.520850E-01    0.209022E-01    0.729872E-01    0.311828E-01
   6.575    0.501068E-01    0.196851E-01    0.697918E-01    0.304217E-01
   6.625    0.481184E-01    0.184950E-01    0.666134E-01    0.296235E-01
   6.675    0.461264E-01    0.173349E-01    0.634612E-01    0.287915E-01
   6.725    0.441372E-01    0.162076E-01    0.603447E-01    0.279296E-01
   6.775    0.421573E-01    0.151158E-01    0.572731E-01    0.270415E-01
   6.825    0.401932E-01    0.140618E-01    0.542550E-01    0.261314E-01
   6.875    0.382511E-01    0.130478E-01    0.512989E-01    0.252032E-01
   6.925    0.363371E-01    0.120757E-01    0.484128E-01    0.242613E-01
   6.975    0.344568E-01    0.111469E-01    0.456037E-01    0.233099E-01
   7.025    0.326158E-01    0.102627E-01    0.428785E-01    0.223531E-01
   7.075    0.308190E-01    0.942389E-02    0.402429E-01    0.213951E-01
   7.125    0.290709E-01    0.863106E-02    0.377020E-01    0.204399E-01
   7.175    0.273757E-01    0.788439E-02    0.352601E-01    0.194913E-01
   7.225    0.257368E-01    0.718373E-02    0.329206E-01    0.185531E-01
   7.275    0.241573E-01    0.652864E-02    0.306860E-01    0.176287E-01
   7.325    0.226397E-01    0.591835E-02    0.285580E-01    0.167213E-01
   7.375    0.211857E-01    0.535184E-02    0.265375E-01    0.158339E-01
   7.425    0.197968E-01    0.482782E-02    0.246246E-01    0.149690E-01
   7.475    0.184738E-01    0.434481E-02    0.228186E-01    0.141289E-01
   7.525    0.172169E-01    0.390113E-02    0.211180E-01    0.133158E-01
   7.575    0.160261E-01    0.349495E-02    0.195210E-01    0.125311E-01
   7.625    0.149007E-01    0.312434E-02    0.180250E-01    0.117764E-01
   7.675    0.138397E-01    0.278726E-02    0.166270E-01    0.110524E-01
   7.725    0.128418E-01    0.248164E-02    0.153234E-01    0.103601E-01
   7.775    0.119052E-01    0.220538E-02    0.141106E-01    0.969985E-02
   7.825    0.110281E-01    0.195639E-02    0.129845E-01    0.907174E-02
   7.875    0.102083E-01    0.173260E-02    0.119409E-01    0.847572E-02
   7.925    0.944347E-02    0.153199E-02    0.109755E-01    0.791147E-02
   7.975    0.873113E-02    0.135264E-02    0.100838E-01    0.737850E-02
   8.025    0.806875E-02    0.119265E-02    0.926141E-02    0.687610E-02
   8.075    0.745373E-02    0.105028E-02    0.850401E-02    0.640345E-02
   8.125    0.688342E-02    0.923842E-03    0.780726E-02    0.595958E-02
   8.175    0.635522E-02    0.811777E-03    0.716699E-02    0.554344E-02
   8.225    0.586653E-02    0.712632E-03    0.657916E-02    0.515390E-02
   8.275    0.541482E-02    0.625062E-03    0.603988E-02    0.478976E-02
   8.325    0.499763E-02    0.547835E-03    0.554547E-02    0.444980E-02
   8.375    0.461259E-02    0.479820E-03    0.509242E-02    0.413277E-02
   8.425    0.425743E-02    0.419994E-03    0.467742E-02    0.383744E-02
   8.475    0.392997E-02    0.367427E-03    0.429740E-02    0.356255E-02
   8.525    0.362817E-02    0.321283E-03    0.394946E-02    0.330689E-02
   8.575    0.335009E-02    0.280812E-03    0.363090E-02    0.306928E-02
   8.625    0.309391E-02    0.245343E-03    0.333925E-02    0.284857E-02
   8.675    0.285793E-02    0.214278E-03    0.307221E-02    0.264365E-02
   8.725    0.264056E-02    0.187085E-03    0.282765E-02    0.245348E-02
   8.775    0.244033E-02    0.163293E-03    0.260363E-02    0.227704E-02
   8.825    0.225588E-02    0.142487E-03    0.239836E-02    0.211339E-02
   8.875    0.208593E-02    0.124299E-03    0.221023E-02    0.196164E-02
   8.925    0.192934E-02    0.108406E-03    0.203774E-02    0.182093E-02
   8.975    0.178501E-02    0.945224E-04    0.187954E-02    0.169049E-02
   9.025    0.165197E-02    0.823992E-04    0.173437E-02    0.156957E-02
   9.075    0.152931E-02    0.718165E-04    0.160113E-02    0.145750E-02
   9.125    0.141620E-02    0.625820E-04    0.147878E-02    0.135362E-02
   9.175    0.131186E-02    0.545267E-04    0.136639E-02    0.125733E-02
   9.225    0.121560E-02    0.475027E-04    0.126311E-02    0.116810E-02
   9.275    0.112678E-02    0.413801E-04    0.116816E-02    0.108540E-02
   9.325    0.104479E-02    0.360451E-04    0.108084E-02    0.100875E-02
   9.375    0.969108E-03    0.313982E-04    0.100051E-02    0.937710E-03
   9.425    0.899220E-03    0.273518E-04    0.926572E-03    0.871868E-03
   9.475    0.834671E-03    0.238294E-04    0.858501E-03    0.810842E-03
   9.525    0.775039E-03    0.207639E-04    0.795803E-03    0.754275E-03
   9.575    0.719935E-03    0.180965E-04    0.738031E-03    0.701838E-03
   9.625    0.669000E-03    0.157758E-04    0.684776E-03    0.653224E-03
   9.675    0.621905E-03    0.137568E-04    0.635662E-03    0.608148E-03
   9.725    0.578347E-03    0.120002E-04    0.590347E-03    0.566347E-03
   9.775    0.538045E-03    0.104716E-04    0.548517E-03    0.527573E-03
   9.825    0.500742E-03    0.914109E-05    0.509883E-03    0.491601E-03
   9.875    0.466201E-03    0.798257E-05    0.474184E-03    0.458218E-03
   9.925    0.434203E-03    0.697336E-05    0.441177E-03    0.427230E-03
   9.975    0.404549E-03    0.609375E-05    0.410642E-03    0.398455E-03
  10.025    0.377052E-03    0.532663E-05    0.382378E-03    0.371725E-03
  10.075    0.351544E-03    0.465718E-05    0.356201E-03    0.346887E-03
  10.125    0.327869E-03    0.407259E-05    0.331942E-03    0.323796E-03
  10.175    0.305885E-03    0.356176E-05    0.309447E-03    0.302323E-03
  10.225    0.285461E-03    0.311512E-05    0.288576E-03    0.282346E-03
  10.275    0.266477E-03    0.272438E-05    0.269201E-03    0.263753E-03
  10.325    0.248824E-03    0.238240E-05    0.251206E-03    0.246441E-03
  10.375    0.232401E-03    0.208300E-05    0.234484E-03    0.230318E-03
  10.425    0.217117E-03    0.182083E-05    0.218937E-03    0.215296E-03
  10.475    0.202887E-03    0.159126E-05    0.204478E-03    0.201296E-03
  10.525    0.189635E-03    0.139028E-05    0.191025E-03    0.188244E-03
  10.575    0.177289E-03    0.121437E-05    0.178503E-03    0.176075E-03
  10.625    0.165785E-03    0.106049E-05    0.166846E-03    0.164725E-03
  10.675    0.155064E-03    0.925961E-06    0.155990E-03    0.154138E-03
  10.725    0.145069E-03    0.808439E-06    0.145878E-03    0.144261E-03
  10.775    0.135751E-03    0.705858E-06    0.136457E-03    0.135045E-03
  10.825    0.127062E-03    0.616393E-06    0.127678E-03    0.126446E-03
  10.875    0.118959E-03    0.538433E-06    0.119497E-03    0.118420E-03
  10.925    0.111400E-03    0.470550E-06    0.111871E-03    0.110930E-03
  10.975    0.104350E-03    0.411479E-06    0.104761E-03    0.103938E-03
  11.025    0.977715E-04    0.360098E-06    0.981316E-04    0.974114E-04
  11.075    0.916329E-04    0.315418E-06    0.919484E-04    0.913175E-04
  11.125    0.859034E-04    0.276560E-06    0.861800E-04    0.856269E-04
  11.175    0.805545E-04    0.242753E-06    0.807972E-04    0.803117E-04
  11.225    0.755593E-04    0.213319E-06    0.757727E-04    0.753460E-04
  11.275    0.708932E-04    0.187662E-06    0.710808E-04    0.707055E-04
  11.325    0.665328E-04    0.165265E-06    0.666980E-04    0.663675E-04
  11.375    0.624565E-04    0.145678E-06    0.626022E-04    0.623108E-04
  11.425    0.586442E-04    0.128511E-06    0.587727E-04    0.585157E-04
  11.475    0.550772E-04    0.113431E-06    0.551906E-04    0.549637E-04
  11.525    0.517381E-04    0.100151E-06    0.518383E-04    0.516380E-04
  11.575    0.486110E-04    0.884272E-07    0.486995E-04    0.485226E-04
  11.625    0.456811E-04    0.780539E-07    0.457591E-04    0.456030E-04
  11.675    0.429346E-04    0.688565E-07    0.430035E-04    0.428658E-04
  11.725    0.403591E-04    0.606886E-07    0.404198E-04    0.402984E-04
  11.775    0.379430E-04    0.534272E-07    0.379964E-04    0.378896E-04
  11.825    0.356757E-04    0.469688E-07    0.357227E-04    0.356287E-04
  11.875    0.335474E-04    0.412259E-07    0.335886E-04    0.335062E-04
  11.925    0.315492E-04    0.361244E-07    0.315853E-04    0.315130E-04
  11.975    0.296728E-04    0.316003E-07    0.297044E-04    0.296412E-04
  12.025    0.279106E-04    0.275978E-07    0.279382E-04    0.278830E-04
  12.075    0.262557E-04    0.240673E-07    0.262798E-04    0.262316E-04
  12.125    0.247015E-04    0.209640E-07    0.247224E-04    0.246805E-04
  12.175    0.232419E-04    0.182467E-07    0.232601E-04    0.232236E-04
  12.225    0.218713E-04    0.158770E-07    0.218872E-04    0.218554E-04
  12.275    0.205844E-04    0.138190E-07    0.205982E-04    0.205706E-04
  12.325    0.193762E-04    0.120390E-07    0.193882E-04    0.193641E-04
  12.375    0.182420E-04    0.105051E-07    0.182525E-04    0.182315E-04
  12.425    0.171773E-04    0.918749E-08    0.171865E-04    0.171681E-04
  12.475    0.161780E-04    0.805861E-08    0.161860E-04    0.161699E-04
  12.525    0.152399E-04    0.709299E-08    0.152470E-04    0.152328E-04
  12.575    0.143592E-04    0.626740E-08    0.143655E-04    0.143530E-04
  12.625    0.135324E-04    0.556092E-08    0.135380E-04    0.135269E-04
  12.675    0.127560E-04    0.495484E-08    0.127609E-04    0.127510E-04
  12.725    0.120266E-04    0.443264E-08    0.120310E-04    0.120222E-04
  12.775    0.113412E-04    0.397988E-08    0.113452E-04    0.113372E-04
  12.825    0.106969E-04    0.358408E-08    0.107005E-04    0.106933E-04
  12.875    0.100909E-04    0.323462E-08    0.100941E-04    0.100877E-04
  12.925    0.952065E-05    0.292256E-08    0.952357E-05    0.951773E-05
  12.975    0.898379E-05    0.264062E-08    0.898643E-05    0.898115E-05
  13.025    0.847807E-05    0.238296E-08    0.848045E-05    0.847569E-05
  13.075    0.800145E-05    0.214511E-08    0.800359E-05    0.799930E-05
  13.125    0.755204E-05    0.192386E-08    0.755396E-05    0.755011E-05
  13.175    0.712810E-05    0.171706E-08    0.712982E-05    0.712639E-05
  13.225    0.672806E-05    0.152348E-08    0.672958E-05    0.672654E-05
  13.275    0.635046E-05    0.134263E-08    0.635180E-05    0.634912E-05
  13.325    0.599398E-05    0.117452E-08    0.599515E-05    0.599280E-05
  13.375    0.565741E-05    0.101949E-08    0.565843E-05    0.565639E-05
  13.425    0.533965E-05    0.878017E-09    0.534053E-05    0.533877E-05
  13.475    0.503968E-05    0.750489E-09    0.504043E-05    0.503893E-05
  13.525    0.475656E-05    0.637124E-09    0.475720E-05    0.475592E-05
  13.575    0.448942E-05    0.537849E-09    0.448995E-05    0.448888E-05
  13.625    0.423743E-05    0.452265E-09    0.423788E-05    0.423698E-05
  13.675    0.399982E-05    0.379651E-09    0.400020E-05    0.399944E-05
  13.725    0.377586E-05    0.319013E-09    0.377618E-05    0.377554E-05
  13.775    0.356484E-05    0.269156E-09    0.356511E-05    0.356457E-05
  13.825    0.336608E-05    0.228777E-09    0.336631E-05    0.336585E-05
  13.875    0.317891E-05    0.196550E-09    0.317911E-05    0.317871E-05
  13.925    0.300270E-05    0.171203E-09    0.300287E-05    0.300253E-05
  13.975    0.283682E-05    0.151572E-09    0.283697E-05    0.283667E-05
  14.025    0.268066E-05    0.136630E-09    0.268080E-05    0.268052E-05
  14.075    0.253364E-05    0.125485E-09    0.253376E-05    0.253351E-05
  14.125    0.239518E-05    0.117367E-09    0.239530E-05    0.239506E-05
  14.175    0.226474E-05    0.111597E-09    0.226486E-05    0.226463E-05
  14.225    0.214180E-05    0.107556E-09    0.214191E-05    0.214169E-05
  14.275    0.202585E-05    0.104661E-09    0.202595E-05    0.202574E-05
  14.325    0.191642E-05    0.102358E-09    0.191652E-05    0.191631E-05
  14.375    0.181307E-05    0.100119E-09    0.181317E-05    0.181297E-05
  14.425    0.171539E-05    0.974695E-10    0.171548E-05    0.171529E-05
  14.475    0.162300E-05    0.940131E-10    0.162309E-05    0.162290E-05
  14.525    0.153555E-05    0.894663E-10    0.153564E-05    0.153546E-05
  14.575    0.145273E-05    0.836858E-10    0.145281E-05    0.145265E-05
  14.625    0.137425E-05    0.766840E-10    0.137433E-05    0.137417E-05
  14.675    0.129986E-05    0.686274E-10    0.129993E-05    0.129979E-05
  14.725    0.122932E-05    0.598160E-10    0.122938E-05    0.122926E-05
  14.775    0.116244E-05    0.506450E-10    0.116249E-05    0.116239E-05
  14.825    0.109903E-05    0.415550E-10    0.109907E-05    0.109898E-05
  14.875    0.103892E-05    0.329757E-10    0.103895E-05    0.103889E-05
  14.925    0.981974E-06    0.252739E-10    0.981999E-06    0.981948E-06
  14.975    0.928050E-06    0.187123E-10    0.928068E-06    0.928031E-06
  15.025    0.877021E-06    0.134256E-10    0.877034E-06    0.877008E-06
  15.075    0.828768E-06    0.941603E-11    0.828777E-06    0.828759E-06
  15.125    0.783174E-06    0.656898E-11    0.783181E-06    0.783168E-06
  15.175    0.740126E-06    0.468483E-11    0.740131E-06    0.740121E-06
  15.225    0.699510E-06    0.352012E-11    0.699514E-06    0.699507E-06
  15.275    0.661214E-06    0.283120E-11    0.661217E-06    0.661211E-06
  15.325    0.625124E-06    0.241246E-11    0.625126E-06    0.625121E-06
  15.375    0.591124E-06    0.212294E-11    0.591127E-06    0.591122E-06
  15.425    0.559101E-06    0.189750E-11    0.559103E-06    0.559099E-06
  15.475    0.528939E-06    0.174184E-11    0.528940E-06    0.528937E-06
  15.525    0.500522E-06    0.171336E-11    0.500524E-06    0.500521E-06
  15.575    0.473739E-06    0.189277E-11    0.473741E-06    0.473737E-06
  15.625    0.448478E-06    0.235247E-11    0.448481E-06    0.448476E-06
  15.675    0.424634E-06    0.312847E-11    0.424637E-06    0.424631E-06
  15.725    0.402103E-06    0.420125E-11    0.402107E-06    0.402098E-06
  15.775    0.380789E-06    0.548946E-11    0.380795E-06    0.380784E-06
  15.825    0.360603E-06    0.685739E-11    0.360610E-06    0.360596E-06
  15.875    0.341461E-06    0.813468E-11    0.341469E-06    0.341453E-06
  15.925    0.323289E-06    0.914436E-11    0.323298E-06    0.323280E-06
  15.975    0.306020E-06    0.973356E-11    0.306029E-06    0.306010E-06
  16.025    0.289593E-06    0.980117E-11    0.289603E-06    0.289584E-06
  16.075    0.273959E-06    0.931685E-11    0.273968E-06    0.273950E-06
  16.125    0.259073E-06    0.832805E-11    0.259082E-06    0.259065E-06
  16.175    0.244898E-06    0.695337E-11    0.244905E-06    0.244891E-06
  16.225    0.231403E-06    0.536371E-11    0.231408E-06    0.231398E-06
  16.275    0.218561E-06    0.375448E-11    0.218565E-06    0.218557E-06
  16.325    0.206351E-06    0.231394E-11    0.206353E-06    0.206348E-06
  16.375    0.194752E-06    0.119341E-11    0.194753E-06    0.194750E-06
  16.425    0.183747E-06    0.484534E-12    0.183747E-06    0.183746E-06
  16.475    0.173320E-06    0.207488E-12    0.173320E-06    0.173319E-06
  16.525    0.163453E-06    0.312000E-12    0.163454E-06    0.163453E-06
  16.575    0.154131E-06    0.690597E-12    0.154132E-06    0.154130E-06
  16.625    0.145335E-06    0.120137E-11    0.145336E-06    0.145334E-06
  16.675    0.137045E-06    0.169583E-11    0.137047E-06    0.137043E-06
  16.725    0.129241E-06    0.204667E-11    0.129243E-06    0.129239E-06
  16.775    0.121900E-06    0.217030E-11    0.121902E-06    0.121898E-06
  16.825    0.114998E-06    0.204034E-11    0.115000E-06    0.114996E-06
  16.875    0.108511E-06    0.168961E-11    0.108513E-06    0.108510E-06
  16.925    0.102413E-06    0.120096E-11    0.102414E-06    0.102411E-06
  16.975    0.966762E-07    0.688618E-12    0.966769E-07    0.966755E-07
  17.025    0.912757E-07    0.274151E-12    0.912759E-07    0.912754E-07
  17.075    0.861849E-07    0.614874E-13    0.861850E-07    0.861849E-07
  17.125    0.813788E-07    0.115888E-12    0.813789E-07    0.813787E-07
  17.175    0.768330E-07    0.450708E-12    0.768335E-07    0.768326E-07
  17.225    0.725252E-07    0.102435E-11    0.725262E-07    0.725242E-07
  17.275    0.684346E-07    0.174780E-11    0.684363E-07    0.684328E-07
  17.325    0.645426E-07    0.250119E-11    0.645451E-07    0.645401E-07
  17.375    0.608331E-07    0.315613E-11    0.608362E-07    0.608299E-07
  17.425    0.572922E-07    0.359954E-11    0.572958E-07    0.572886E-07
  17.475    0.539086E-07    0.375449E-11    0.539123E-07    0.539048E-07
  17.525    0.506733E-07    0.359426E-11    0.506769E-07    0.506697E-07
  17.575    0.475795E-07    0.314693E-11    0.475826E-07    0.475763E-07
  17.625    0.446223E-07    0.248992E-11    0.446248E-07    0.446198E-07
  17.675    0.417983E-07    0.173554E-11    0.418001E-07    0.417966E-07
  17.725    0.391056E-07    0.101031E-11    0.391066E-07    0.391046E-07
  17.775    0.365427E-07    0.432029E-12    0.365431E-07    0.365422E-07
  17.825    0.341087E-07    0.888167E-13    0.341088E-07    0.341086E-07
  17.875    0.318028E-07    0.239033E-13    0.318028E-07    0.318027E-07
  17.925    0.296238E-07    0.228974E-12    0.296240E-07    0.296235E-07
  17.975    0.275700E-07    0.647068E-12    0.275707E-07    0.275694E-07
  18.025    0.256392E-07    0.118436E-11    0.256404E-07    0.256380E-07
  18.075    0.238281E-07    0.172848E-11    0.238298E-07    0.238264E-07
  18.125    0.221328E-07    0.216987E-11    0.221349E-07    0.221306E-07
  18.175    0.205485E-07    0.242211E-11    0.205509E-07    0.205460E-07
  18.225    0.190697E-07    0.243763E-11    0.190722E-07    0.190673E-07
  18.275    0.176905E-07    0.221568E-11    0.176927E-07    0.176883E-07
  18.325    0.164044E-07    0.180159E-11    0.164062E-07    0.164026E-07
  18.375    0.152046E-07    0.127722E-11    0.152059E-07    0.152033E-07
  18.425    0.140843E-07    0.744868E-12    0.140850E-07    0.140835E-07
  18.475    0.130366E-07    0.307506E-12    0.130369E-07    0.130363E-07
  18.525    0.120548E-07    0.492460E-13    0.120549E-07    0.120548E-07
  18.575    0.111327E-07    0.196002E-13    0.111327E-07    0.111327E-07
  18.625    0.102643E-07    0.224460E-12    0.102646E-07    0.102641E-07
  18.675    0.944439E-08    0.625381E-12    0.944501E-08    0.944376E-08
  18.725    0.866818E-08    0.114719E-11    0.866933E-08    0.866703E-08
  18.775    0.793182E-08    0.169240E-11    0.793351E-08    0.793012E-08
  18.825    0.723217E-08    0.215963E-11    0.723433E-08    0.723001E-08
  18.875    0.656694E-08    0.246254E-11    0.656940E-08    0.656448E-08
  18.925    0.593458E-08    0.254582E-11    0.593713E-08    0.593204E-08
  18.975    0.533429E-08    0.239512E-11    0.533668E-08    0.533189E-08
  19.025    0.476585E-08    0.203934E-11    0.476789E-08    0.476381E-08
  19.075    0.422954E-08    0.154480E-11    0.423108E-08    0.422799E-08
  19.125    0.372594E-08    0.100251E-11    0.372694E-08    0.372494E-08
  19.175    0.325578E-08    0.511035E-12    0.325630E-08    0.325527E-08
  19.225    0.281977E-08    0.158144E-12    0.281993E-08    0.281962E-08
  19.275    0.241844E-08    0.467384E-14    0.241845E-08    0.241844E-08
  19.325    0.205203E-08    0.736210E-13    0.205210E-08    0.205196E-08
  19.375    0.172041E-08    0.346387E-12    0.172076E-08    0.172006E-08
  19.425    0.142304E-08    0.766811E-12    0.142381E-08    0.142228E-08
  19.475    0.115900E-08    0.125213E-11    0.116025E-08    0.115775E-08
  19.525    0.926985E-09    0.170877E-11    0.928694E-09    0.925276E-09
  19.575    0.725434E-09    0.204992E-11    0.727484E-09    0.723384E-09
  19.625    0.552589E-09    0.221163E-11    0.554801E-09    0.550377E-09
  19.675    0.406606E-09    0.216449E-11    0.408770E-09    0.404441E-09
  19.725    0.285649E-09    0.191865E-11    0.287568E-09    0.283731E-09
  19.775    0.187982E-09    0.152146E-11    0.189503E-09    0.186460E-09
  19.825    0.112031E-09    0.104813E-11    0.113079E-09    0.110983E-09
  19.875    0.564419E-10    0.587335E-12    0.570292E-10    0.558546E-10
  19.925    0.201138E-10    0.224460E-12    0.203383E-10    0.198894E-10
  19.975    0.221795E-11    0.256241E-13    0.224358E-11    0.219233E-11
