%!PS-Adobe-3.0 EPSF-3.0
%%BoundingBox: (atend)
%%LanguageLevel: 2
%%Creator: Grace-5.1.21
%%CreationDate: Fri Apr 24 10:28:42 2015
%%DocumentData: Clean8Bit
%%Orientation: Portrait
%%Title: EoS_SNM_ST_convergence.agr
%%For: pastorea
%%DocumentNeededResources: (atend)
%%EndComments
%%BeginProlog
/m {moveto} def
/l {lineto} def
/s {stroke} def
/n {newpath} def
/c {closepath} def
/RL {rlineto} def
/SLW {setlinewidth} def
/GS {gsave} def
/GR {grestore} def
/SC {setcolor} def
/SGRY {setgray} def
/SRGB {setrgbcolor} def
/SD {setdash} def
/SLC {setlinecap} def
/SLJ {setlinejoin} def
/SCS {setcolorspace} def
/FFSF {findfont setfont} def
/CC {concat} def
/PXL {n m 0 0 RL s} def
/Color0 {1.0000 1.0000 1.0000} def
/Color1 {0.0000 0.0000 0.0000} def
/Color2 {1.0000 0.0000 0.0000} def
/Color3 {0.0000 1.0000 0.0000} def
/Color4 {0.0000 0.0000 1.0000} def
/Color5 {1.0000 1.0000 0.0000} def
/Color6 {0.7373 0.5608 0.5608} def
/Color7 {0.8627 0.8627 0.8627} def
/Color8 {0.5804 0.0000 0.8275} def
/Color9 {0.0000 1.0000 1.0000} def
/Color10 {1.0000 0.0000 1.0000} def
/Color11 {1.0000 0.6471 0.0000} def
/Color12 {0.4471 0.1294 0.7373} def
/Color13 {0.4039 0.0275 0.2824} def
/Color14 {0.2510 0.8784 0.8157} def
/Color15 {0.0000 0.5451 0.0000} def
/Color16 {0.7529 0.7529 0.7529} def
/Color17 {0.5059 0.5059 0.5059} def
/Color18 {0.2588 0.2588 0.2588} def
/PTRN {
 /pat_bits exch def 
 <<
  /PaintType 2
  /PatternType 1 /TilingType 1
  /BBox[0 0 16 16]
  /XStep 16 /YStep 16
  /PaintProc {
   pop
   16 16 true [-1 0 0 -1 16 16] pat_bits imagemask
  }
 >>
 [0.0016 0 0 0.0016 0 0]
 makepattern
} def
/Pattern0 {<0000000000000000000000000000000000000000000000000000000000000000> PTRN} bind def
/Pattern1 {<ffffffffffffffffffffffffffffffffffffffffffffffffffffffffffffffff> PTRN} bind def
/Pattern2 {<eeeeffffbbbbffffeeeeffffbbbbffffeeeeffffbbbbffffeeeeffffbbbbffff> PTRN} bind def
/Pattern3 {<eeeebbbbeeeebbbbeeeebbbbeeeebbbbeeeebbbbeeeebbbbeeeebbbbeeeebbbb> PTRN} bind def
/Pattern4 {<5555aaaa5555aaaa5555aaaa5555aaaa5555aaaa5555aaaa5555aaaa5555aaaa> PTRN} bind def
/Pattern5 {<1111444411114444111144441111444411114444111144441111444411114444> PTRN} bind def
/Pattern6 {<1111000044440000111100004444000011110000444400001111000044440000> PTRN} bind def
/Pattern7 {<1010000000000000010100000000000010100000000000000101000000000000> PTRN} bind def
/Pattern8 {<0000000000000000000000000000000000000000000000000000000000000000> PTRN} bind def
/Pattern9 {<1e1e0f0f8787c3c3e1e1f0f078783c3c1e1e0f0f8787c3c3e1e1f0f078783c3c> PTRN} bind def
/Pattern10 {<7878f0f0e1e1c3c387870f0f1e1e3c3c7878f0f0e1e1c3c387870f0f1e1e3c3c> PTRN} bind def
/Pattern11 {<3333333333333333333333333333333333333333333333333333333333333333> PTRN} bind def
/Pattern12 {<ffffffff00000000ffffffff00000000ffffffff00000000ffffffff00000000> PTRN} bind def
/Pattern13 {<8181424224241818181824244242818181814242242418181818242442428181> PTRN} bind def
/Pattern14 {<8080404020201010080804040202010180804040202010100808040402020101> PTRN} bind def
/Pattern15 {<0101020204040808101020204040808001010202040408081010202040408080> PTRN} bind def
/Pattern16 {<2222222222222222222222222222222222222222222222222222222222222222> PTRN} bind def
/Pattern17 {<0000ffff000000000000ffff000000000000ffff000000000000ffff00000000> PTRN} bind def
/Pattern18 {<2222ffff222222222222ffff222222222222ffff222222222222ffff22222222> PTRN} bind def
/Pattern19 {<ffffffff33333333ffffffff33333333ffffffff33333333ffffffff33333333> PTRN} bind def
/Pattern20 {<0f0f0f0f0f0f0f0ff0f0f0f0f0f0f0f00f0f0f0f0f0f0f0ff0f0f0f0f0f0f0f0> PTRN} bind def
/Pattern21 {<ff00ff00ff00ff00ff00ff00ff00ff0000ff00ff00ff00ff00ff00ff00ff00ff> PTRN} bind def
/Pattern22 {<8001800180018001800180018001ffffffff8001800180018001800180018001> PTRN} bind def
/Pattern23 {<c003c003c003c003c003c003ffffffffffffffffc003c003c003c003c003c003> PTRN} bind def
/Pattern24 {<040404040404ffff404040404040ffff040404040404ffff404040404040ffff> PTRN} bind def
/Pattern25 {<180018001800180018001800ffffffff001800180018001800180018ffffffff> PTRN} bind def
/Pattern26 {<1111b8b87c7c3a3a1111a3a3c7c78b8b1111b8b87c7c3a3a1111a3a3c7c78b8b> PTRN} bind def
/Pattern27 {<101010102828c7c70101010182827c7c101010102828c7c70101010182827c7c> PTRN} bind def
/Pattern28 {<1c1c121211112121c1c12121111112121c1c121211112121c1c1212111111212> PTRN} bind def
/Pattern29 {<3e3e414180808080e3e31414080808083e3e414180808080e3e3141408080808> PTRN} bind def
/Pattern30 {<4848888884848383848488884848383848488888848483838484888848483838> PTRN} bind def
/Pattern31 {<03030404080808080c0c12122121c0c003030404080808080c0c12122121c0c0> PTRN} bind def
/ellipsedict 8 dict def
ellipsedict /mtrx matrix put
/EARC {
 ellipsedict begin
  /endangle exch def
  /startangle exch def
  /yrad exch def
  /xrad exch def
  /y exch def
  /x exch def
  /savematrix mtrx currentmatrix def
  x y translate
  xrad yrad scale
  0 0 1 startangle endangle arc
  savematrix setmatrix
 end
} def
/TL {
  /kcomp exch def
  /linewidth exch def
  /offset exch def
  GS
  0 offset rmoveto
  linewidth SLW
  dup stringwidth exch kcomp add exch RL s
  GR
} def
/KINIT
{
 /kvector exch def
 /kid 0 def
} def
/KPROC
{
 pop pop
 kvector kid get
 0 rmoveto
 /kid 1 kid add def
} def
/DefEncoding [
 /.notdef
 /.notdef
 /.notdef
 /.notdef
 /.notdef
 /.notdef
 /.notdef
 /.notdef
 /.notdef
 /.notdef
 /.notdef
 /.notdef
 /.notdef
 /.notdef
 /.notdef
 /.notdef
 /.notdef
 /.notdef
 /.notdef
 /.notdef
 /.notdef
 /.notdef
 /.notdef
 /.notdef
 /.notdef
 /.notdef
 /.notdef
 /.notdef
 /.notdef
 /.notdef
 /.notdef
 /.notdef
 /space
 /exclam
 /quotedbl
 /numbersign
 /dollar
 /percent
 /ampersand
 /quoteright
 /parenleft
 /parenright
 /asterisk
 /plus
 /comma
 /hyphen
 /period
 /slash
 /zero
 /one
 /two
 /three
 /four
 /five
 /six
 /seven
 /eight
 /nine
 /colon
 /semicolon
 /less
 /equal
 /greater
 /question
 /at
 /A
 /B
 /C
 /D
 /E
 /F
 /G
 /H
 /I
 /J
 /K
 /L
 /M
 /N
 /O
 /P
 /Q
 /R
 /S
 /T
 /U
 /V
 /W
 /X
 /Y
 /Z
 /bracketleft
 /backslash
 /bracketright
 /asciicircum
 /underscore
 /grave
 /a
 /b
 /c
 /d
 /e
 /f
 /g
 /h
 /i
 /j
 /k
 /l
 /m
 /n
 /o
 /p
 /q
 /r
 /s
 /t
 /u
 /v
 /w
 /x
 /y
 /z
 /braceleft
 /bar
 /braceright
 /asciitilde
 /.notdef
 /.notdef
 /.notdef
 /.notdef
 /.notdef
 /.notdef
 /.notdef
 /.notdef
 /.notdef
 /.notdef
 /.notdef
 /.notdef
 /.notdef
 /.notdef
 /.notdef
 /.notdef
 /.notdef
 /.notdef
 /.notdef
 /.notdef
 /.notdef
 /.notdef
 /.notdef
 /.notdef
 /.notdef
 /.notdef
 /.notdef
 /.notdef
 /.notdef
 /.notdef
 /.notdef
 /.notdef
 /.notdef
 /space
 /exclamdown
 /cent
 /sterling
 /currency
 /yen
 /brokenbar
 /section
 /dieresis
 /copyright
 /ordfeminine
 /guillemotleft
 /logicalnot
 /hyphen
 /registered
 /macron
 /degree
 /plusminus
 /twosuperior
 /threesuperior
 /acute
 /mu
 /paragraph
 /periodcentered
 /cedilla
 /onesuperior
 /ordmasculine
 /guillemotright
 /onequarter
 /onehalf
 /threequarters
 /questiondown
 /Agrave
 /Aacute
 /Acircumflex
 /Atilde
 /Adieresis
 /Aring
 /AE
 /Ccedilla
 /Egrave
 /Eacute
 /Ecircumflex
 /Edieresis
 /Igrave
 /Iacute
 /Icircumflex
 /Idieresis
 /Eth
 /Ntilde
 /Ograve
 /Oacute
 /Ocircumflex
 /Otilde
 /Odieresis
 /multiply
 /Oslash
 /Ugrave
 /Uacute
 /Ucircumflex
 /Udieresis
 /Yacute
 /Thorn
 /germandbls
 /agrave
 /aacute
 /acircumflex
 /atilde
 /adieresis
 /aring
 /ae
 /ccedilla
 /egrave
 /eacute
 /ecircumflex
 /edieresis
 /igrave
 /iacute
 /icircumflex
 /idieresis
 /eth
 /ntilde
 /ograve
 /oacute
 /ocircumflex
 /otilde
 /odieresis
 /divide
 /oslash
 /ugrave
 /uacute
 /ucircumflex
 /udieresis
 /yacute
 /thorn
 /ydieresis
] def
%%EndProlog
%%BeginSetup
%%EndSetup
612.00 612.00 scale
n
0.0000 0.0000 m
0.0000 1.0000 l
1.2941 1.0000 l
1.2941 0.0000 l
c
[/DeviceRGB] SCS
Color0 SC
fill
n
0.1691 0.5440 0.0065 0.0065 0 360 EARC c
[/DeviceRGB] SCS
Color1 SC
fill
[] 0 SD
0.0030 SLW
n 0.1691 0.5440 0.0065 0.0065 0 360 EARC s
n
0.1772 0.5470 0.0065 0.0065 0 360 EARC c
fill
n 0.1772 0.5470 0.0065 0.0065 0 360 EARC s
n
0.1873 0.5511 0.0065 0.0065 0 360 EARC c
fill
n 0.1873 0.5511 0.0065 0.0065 0 360 EARC s
n
0.1997 0.5565 0.0065 0.0065 0 360 EARC c
fill
n 0.1997 0.5565 0.0065 0.0065 0 360 EARC s
n
0.2145 0.5636 0.0065 0.0065 0 360 EARC c
fill
n 0.2145 0.5636 0.0065 0.0065 0 360 EARC s
n
0.2320 0.5727 0.0065 0.0065 0 360 EARC c
fill
n 0.2320 0.5727 0.0065 0.0065 0 360 EARC s
n
0.2524 0.5840 0.0065 0.0065 0 360 EARC c
fill
n 0.2524 0.5840 0.0065 0.0065 0 360 EARC s
n
0.2759 0.5978 0.0065 0.0065 0 360 EARC c
fill
n 0.2759 0.5978 0.0065 0.0065 0 360 EARC s
n
0.3028 0.6143 0.0065 0.0065 0 360 EARC c
fill
n 0.3028 0.6143 0.0065 0.0065 0 360 EARC s
n
0.3333 0.6336 0.0065 0.0065 0 360 EARC c
fill
n 0.3333 0.6336 0.0065 0.0065 0 360 EARC s
n
0.3676 0.6557 0.0065 0.0065 0 360 EARC c
fill
n 0.3676 0.6557 0.0065 0.0065 0 360 EARC s
n
0.4059 0.6803 0.0065 0.0065 0 360 EARC c
fill
n 0.4059 0.6803 0.0065 0.0065 0 360 EARC s
n
0.4484 0.7066 0.0065 0.0065 0 360 EARC c
fill
n 0.4484 0.7066 0.0065 0.0065 0 360 EARC s
n
0.4955 0.7334 0.0065 0.0065 0 360 EARC c
fill
n 0.4955 0.7334 0.0065 0.0065 0 360 EARC s
n
0.5472 0.7591 0.0065 0.0065 0 360 EARC c
fill
n 0.5472 0.7591 0.0065 0.0065 0 360 EARC s
n
0.6039 0.7809 0.0065 0.0065 0 360 EARC c
fill
n 0.6039 0.7809 0.0065 0.0065 0 360 EARC s
[/DeviceRGB] SCS
Color2 SC
[] 0 SD
0.0037 SLW
0 SLC
0 SLJ
n
0.1500 0.5389 m
0.1500 0.5389 l
0.1500 0.5389 l
0.1500 0.5389 l
0.1500 0.5389 l
0.1500 0.5389 l
0.1500 0.5389 l
0.1500 0.5389 l
0.1500 0.5389 l
0.1500 0.5389 l
0.1500 0.5389 l
0.1501 0.5389 l
0.1501 0.5389 l
0.1501 0.5389 l
0.1501 0.5389 l
0.1502 0.5389 l
0.1502 0.5389 l
0.1502 0.5389 l
0.1503 0.5389 l
0.1503 0.5389 l
0.1503 0.5389 l
0.1504 0.5389 l
0.1505 0.5389 l
0.1505 0.5389 l
0.1506 0.5389 l
0.1507 0.5389 l
0.1507 0.5389 l
0.1508 0.5389 l
0.1509 0.5389 l
0.1510 0.5389 l
0.1511 0.5389 l
0.1512 0.5389 l
0.1513 0.5389 l
0.1515 0.5389 l
0.1516 0.5389 l
0.1517 0.5389 l
0.1519 0.5389 l
0.1520 0.5389 l
0.1522 0.5389 l
0.1524 0.5389 l
0.1526 0.5389 l
0.1528 0.5389 l
0.1530 0.5390 l
0.1532 0.5390 l
0.1534 0.5390 l
0.1536 0.5390 l
0.1539 0.5390 l
0.1541 0.5390 l
0.1544 0.5390 l
0.1547 0.5390 l
0.1549 0.5390 l
0.1552 0.5391 l
0.1556 0.5391 l
0.1559 0.5391 l
0.1562 0.5391 l
0.1566 0.5391 l
0.1569 0.5392 l
0.1573 0.5392 l
0.1577 0.5392 l
0.1581 0.5392 l
0.1585 0.5393 l
0.1589 0.5393 l
0.1593 0.5393 l
0.1598 0.5394 l
0.1602 0.5394 l
0.1607 0.5395 l
0.1612 0.5395 l
0.1617 0.5395 l
0.1623 0.5396 l
0.1628 0.5396 l
0.1634 0.5397 l
0.1639 0.5398 l
0.1645 0.5398 l
0.1651 0.5399 l
0.1657 0.5400 l
0.1664 0.5400 l
0.1670 0.5401 l
0.1677 0.5402 l
0.1684 0.5403 l
0.1691 0.5404 l
0.1698 0.5405 l
0.1706 0.5406 l
0.1713 0.5407 l
0.1721 0.5408 l
0.1729 0.5409 l
0.1737 0.5410 l
0.1746 0.5411 l
0.1754 0.5413 l
0.1763 0.5414 l
0.1772 0.5415 l
0.1781 0.5417 l
0.1790 0.5419 l
0.1800 0.5420 l
0.1810 0.5422 l
0.1820 0.5424 l
0.1830 0.5426 l
0.1840 0.5428 l
0.1851 0.5430 l
0.1862 0.5432 l
0.1873 0.5434 l
0.1884 0.5436 l
0.1896 0.5439 l
0.1908 0.5441 l
0.1920 0.5444 l
0.1932 0.5446 l
0.1944 0.5449 l
0.1957 0.5452 l
0.1970 0.5455 l
0.1983 0.5458 l
0.1997 0.5461 l
0.2010 0.5465 l
0.2024 0.5468 l
0.2038 0.5472 l
0.2053 0.5476 l
0.2067 0.5479 l
0.2082 0.5483 l
0.2097 0.5488 l
0.2113 0.5492 l
0.2129 0.5496 l
0.2145 0.5501 l
0.2161 0.5506 l
0.2177 0.5511 l
0.2194 0.5516 l
0.2211 0.5521 l
0.2229 0.5526 l
0.2246 0.5532 l
0.2264 0.5538 l
0.2282 0.5544 l
0.2301 0.5550 l
0.2320 0.5556 l
0.2339 0.5563 l
0.2358 0.5569 l
0.2378 0.5576 l
0.2398 0.5583 l
0.2418 0.5591 l
0.2438 0.5598 l
0.2459 0.5606 l
0.2480 0.5614 l
0.2502 0.5623 l
0.2524 0.5631 l
0.2546 0.5640 l
0.2568 0.5649 l
0.2591 0.5658 l
0.2614 0.5668 l
0.2637 0.5678 l
0.2661 0.5688 l
0.2685 0.5698 l
0.2709 0.5709 l
0.2734 0.5720 l
0.2759 0.5731 l
0.2784 0.5742 l
0.2810 0.5754 l
0.2836 0.5766 l
0.2863 0.5779 l
0.2889 0.5792 l
0.2916 0.5805 l
0.2944 0.5818 l
0.2971 0.5832 l
0.3000 0.5846 l
0.3028 0.5861 l
0.3057 0.5876 l
0.3086 0.5891 l
0.3116 0.5907 l
0.3146 0.5923 l
0.3176 0.5940 l
0.3206 0.5956 l
0.3237 0.5974 l
0.3269 0.5992 l
0.3301 0.6010 l
0.3333 0.6028 l
0.3365 0.6047 l
0.3398 0.6067 l
0.3432 0.6087 l
0.3465 0.6107 l
0.3499 0.6128 l
0.3534 0.6149 l
0.3569 0.6171 l
0.3604 0.6194 l
0.3640 0.6216 l
0.3676 0.6240 l
0.3712 0.6264 l
0.3749 0.6288 l
0.3786 0.6313 l
0.3824 0.6339 l
0.3862 0.6365 l
0.3901 0.6391 l
0.3939 0.6419 l
0.3979 0.6446 l
0.4019 0.6475 l
0.4059 0.6504 l
0.4099 0.6534 l
0.4140 0.6564 l
0.4182 0.6595 l
0.4224 0.6626 l
0.4266 0.6659 l
0.4309 0.6691 l
0.4352 0.6725 l
0.4396 0.6759 l
0.4440 0.6794 l
0.4484 0.6830 l
0.4529 0.6866 l
0.4575 0.6903 l
0.4621 0.6941 l
0.4667 0.6980 l
0.4714 0.7019 l
0.4761 0.7059 l
0.4809 0.7100 l
0.4857 0.7142 l
0.4906 0.7185 l
0.4955 0.7228 l
0.5004 0.7272 l
0.5055 0.7317 l
0.5105 0.7363 l
0.5156 0.7410 l
0.5208 0.7458 l
0.5260 0.7506 l
0.5312 0.7556 l
0.5365 0.7606 l
0.5418 0.7657 l
0.5472 0.7710 l
0.5527 0.7763 l
0.5582 0.7817 l
0.5637 0.7872 l
0.5693 0.7928 l
0.5749 0.7986 l
0.5806 0.8044 l
0.5864 0.8103 l
0.5922 0.8163 l
0.5980 0.8225 l
0.6039 0.8287 l
0.6098 0.8351 l
0.6158 0.8415 l
0.6219 0.8481 l
0.6237 0.8501 l
s
[/DeviceRGB] SCS
Color4 SC
n
0.1500 0.5389 m
0.1500 0.5389 l
0.1500 0.5389 l
0.1500 0.5389 l
0.1500 0.5389 l
0.1500 0.5389 l
0.1500 0.5389 l
0.1500 0.5389 l
0.1500 0.5389 l
0.1500 0.5389 l
0.1500 0.5389 l
0.1501 0.5389 l
0.1501 0.5389 l
0.1501 0.5389 l
0.1501 0.5389 l
0.1502 0.5389 l
0.1502 0.5389 l
0.1502 0.5389 l
0.1503 0.5389 l
0.1503 0.5389 l
0.1503 0.5389 l
0.1504 0.5389 l
0.1505 0.5389 l
0.1505 0.5389 l
0.1506 0.5389 l
0.1507 0.5389 l
0.1507 0.5389 l
0.1508 0.5389 l
0.1509 0.5389 l
0.1510 0.5389 l
0.1511 0.5389 l
0.1512 0.5389 l
0.1513 0.5389 l
0.1515 0.5389 l
0.1516 0.5389 l
0.1517 0.5389 l
0.1519 0.5390 l
0.1520 0.5390 l
0.1522 0.5390 l
0.1524 0.5390 l
0.1526 0.5390 l
0.1528 0.5390 l
0.1530 0.5390 l
0.1532 0.5391 l
0.1534 0.5391 l
0.1536 0.5391 l
0.1539 0.5391 l
0.1541 0.5391 l
0.1544 0.5392 l
0.1547 0.5392 l
0.1549 0.5392 l
0.1552 0.5393 l
0.1556 0.5393 l
0.1559 0.5393 l
0.1562 0.5394 l
0.1566 0.5394 l
0.1569 0.5395 l
0.1573 0.5395 l
0.1577 0.5396 l
0.1581 0.5396 l
0.1585 0.5397 l
0.1589 0.5398 l
0.1593 0.5399 l
0.1598 0.5399 l
0.1602 0.5400 l
0.1607 0.5401 l
0.1612 0.5402 l
0.1617 0.5403 l
0.1623 0.5404 l
0.1628 0.5405 l
0.1634 0.5406 l
0.1639 0.5407 l
0.1645 0.5409 l
0.1651 0.5410 l
0.1657 0.5411 l
0.1664 0.5413 l
0.1670 0.5415 l
0.1677 0.5416 l
0.1684 0.5418 l
0.1691 0.5420 l
0.1698 0.5422 l
0.1706 0.5424 l
0.1713 0.5426 l
0.1721 0.5428 l
0.1729 0.5430 l
0.1737 0.5433 l
0.1746 0.5435 l
0.1754 0.5438 l
0.1763 0.5440 l
0.1772 0.5443 l
0.1781 0.5446 l
0.1790 0.5449 l
0.1800 0.5453 l
0.1810 0.5456 l
0.1820 0.5459 l
0.1830 0.5463 l
0.1840 0.5467 l
0.1851 0.5471 l
0.1862 0.5475 l
0.1873 0.5479 l
0.1884 0.5483 l
0.1896 0.5488 l
0.1908 0.5492 l
0.1920 0.5497 l
0.1932 0.5502 l
0.1944 0.5507 l
0.1957 0.5512 l
0.1970 0.5518 l
0.1983 0.5524 l
0.1997 0.5529 l
0.2010 0.5535 l
0.2024 0.5542 l
0.2038 0.5548 l
0.2053 0.5555 l
0.2067 0.5562 l
0.2082 0.5569 l
0.2097 0.5576 l
0.2113 0.5583 l
0.2129 0.5591 l
0.2145 0.5599 l
0.2161 0.5607 l
0.2177 0.5616 l
0.2194 0.5624 l
0.2211 0.5633 l
0.2229 0.5642 l
0.2246 0.5651 l
0.2264 0.5661 l
0.2282 0.5671 l
0.2301 0.5681 l
0.2320 0.5691 l
0.2339 0.5702 l
0.2358 0.5712 l
0.2378 0.5724 l
0.2398 0.5735 l
0.2418 0.5747 l
0.2438 0.5758 l
0.2459 0.5771 l
0.2480 0.5783 l
0.2502 0.5796 l
0.2524 0.5809 l
0.2546 0.5822 l
0.2568 0.5836 l
0.2591 0.5850 l
0.2614 0.5864 l
0.2637 0.5878 l
0.2661 0.5893 l
0.2685 0.5908 l
0.2709 0.5923 l
0.2734 0.5939 l
0.2759 0.5955 l
0.2784 0.5971 l
0.2810 0.5988 l
0.2836 0.6004 l
0.2863 0.6021 l
0.2889 0.6039 l
0.2916 0.6057 l
0.2944 0.6075 l
0.2971 0.6093 l
0.3000 0.6112 l
0.3028 0.6130 l
0.3057 0.6150 l
0.3086 0.6169 l
0.3116 0.6189 l
0.3146 0.6209 l
0.3176 0.6229 l
0.3206 0.6250 l
0.3237 0.6271 l
0.3269 0.6292 l
0.3301 0.6314 l
0.3333 0.6336 l
0.3365 0.6358 l
0.3398 0.6380 l
0.3432 0.6403 l
0.3465 0.6425 l
0.3499 0.6449 l
0.3534 0.6472 l
0.3569 0.6496 l
0.3604 0.6519 l
0.3640 0.6543 l
0.3676 0.6568 l
0.3712 0.6592 l
0.3749 0.6617 l
0.3786 0.6642 l
0.3824 0.6667 l
0.3862 0.6692 l
0.3901 0.6718 l
0.3939 0.6744 l
0.3979 0.6769 l
0.4019 0.6795 l
0.4059 0.6821 l
0.4099 0.6848 l
0.4140 0.6874 l
0.4182 0.6900 l
0.4224 0.6927 l
0.4266 0.6954 l
0.4309 0.6980 l
0.4352 0.7007 l
0.4396 0.7034 l
0.4440 0.7061 l
0.4484 0.7087 l
0.4529 0.7114 l
0.4575 0.7141 l
0.4621 0.7168 l
0.4667 0.7194 l
0.4714 0.7221 l
0.4761 0.7247 l
0.4809 0.7273 l
0.4857 0.7300 l
0.4906 0.7326 l
0.4955 0.7351 l
0.5004 0.7377 l
0.5055 0.7402 l
0.5105 0.7427 l
0.5156 0.7452 l
0.5208 0.7477 l
0.5260 0.7501 l
0.5312 0.7525 l
0.5365 0.7548 l
0.5418 0.7571 l
0.5472 0.7594 l
0.5527 0.7616 l
0.5582 0.7637 l
0.5637 0.7659 l
0.5693 0.7679 l
0.5749 0.7699 l
0.5806 0.7718 l
0.5864 0.7737 l
0.5922 0.7754 l
0.5980 0.7771 l
0.6039 0.7788 l
0.6098 0.7803 l
0.6158 0.7818 l
0.6219 0.7831 l
0.6280 0.7844 l
0.6341 0.7856 l
0.6404 0.7867 l
0.6466 0.7876 l
0.6472 0.7877 l
s
[/DeviceRGB] SCS
Color3 SC
n
0.1500 0.5389 m
0.1500 0.5389 l
0.1500 0.5389 l
0.1500 0.5389 l
0.1500 0.5389 l
0.1500 0.5389 l
0.1500 0.5389 l
0.1500 0.5389 l
0.1500 0.5389 l
0.1500 0.5389 l
0.1500 0.5389 l
0.1501 0.5389 l
0.1501 0.5389 l
0.1501 0.5389 l
0.1501 0.5389 l
0.1502 0.5389 l
0.1502 0.5389 l
0.1502 0.5389 l
0.1503 0.5389 l
0.1503 0.5389 l
0.1503 0.5389 l
0.1504 0.5389 l
0.1505 0.5389 l
0.1505 0.5389 l
0.1506 0.5389 l
0.1507 0.5389 l
0.1507 0.5389 l
0.1508 0.5389 l
0.1509 0.5389 l
0.1510 0.5389 l
0.1511 0.5389 l
0.1512 0.5389 l
0.1513 0.5389 l
0.1515 0.5389 l
0.1516 0.5390 l
0.1517 0.5390 l
0.1519 0.5390 l
0.1520 0.5390 l
0.1522 0.5390 l
0.1524 0.5390 l
0.1526 0.5390 l
0.1528 0.5390 l
0.1530 0.5391 l
0.1532 0.5391 l
0.1534 0.5391 l
0.1536 0.5391 l
0.1539 0.5392 l
0.1541 0.5392 l
0.1544 0.5392 l
0.1547 0.5392 l
0.1549 0.5393 l
0.1552 0.5393 l
0.1556 0.5394 l
0.1559 0.5394 l
0.1562 0.5395 l
0.1566 0.5395 l
0.1569 0.5396 l
0.1573 0.5396 l
0.1577 0.5397 l
0.1581 0.5398 l
0.1585 0.5398 l
0.1589 0.5399 l
0.1593 0.5400 l
0.1598 0.5401 l
0.1602 0.5402 l
0.1607 0.5403 l
0.1612 0.5404 l
0.1617 0.5405 l
0.1623 0.5406 l
0.1628 0.5407 l
0.1634 0.5409 l
0.1639 0.5410 l
0.1645 0.5412 l
0.1651 0.5413 l
0.1657 0.5415 l
0.1664 0.5416 l
0.1670 0.5418 l
0.1677 0.5420 l
0.1684 0.5422 l
0.1691 0.5424 l
0.1698 0.5426 l
0.1706 0.5428 l
0.1713 0.5431 l
0.1721 0.5433 l
0.1729 0.5436 l
0.1737 0.5438 l
0.1746 0.5441 l
0.1754 0.5444 l
0.1763 0.5447 l
0.1772 0.5450 l
0.1781 0.5453 l
0.1790 0.5457 l
0.1800 0.5460 l
0.1810 0.5464 l
0.1820 0.5468 l
0.1830 0.5472 l
0.1840 0.5476 l
0.1851 0.5480 l
0.1862 0.5484 l
0.1873 0.5489 l
0.1884 0.5494 l
0.1896 0.5499 l
0.1908 0.5504 l
0.1920 0.5509 l
0.1932 0.5514 l
0.1944 0.5520 l
0.1957 0.5525 l
0.1970 0.5531 l
0.1983 0.5537 l
0.1997 0.5544 l
0.2010 0.5550 l
0.2024 0.5557 l
0.2038 0.5564 l
0.2053 0.5571 l
0.2067 0.5578 l
0.2082 0.5585 l
0.2097 0.5593 l
0.2113 0.5601 l
0.2129 0.5609 l
0.2145 0.5617 l
0.2161 0.5626 l
0.2177 0.5635 l
0.2194 0.5644 l
0.2211 0.5653 l
0.2229 0.5662 l
0.2246 0.5672 l
0.2264 0.5682 l
0.2282 0.5692 l
0.2301 0.5703 l
0.2320 0.5713 l
0.2339 0.5724 l
0.2358 0.5735 l
0.2378 0.5747 l
0.2398 0.5758 l
0.2418 0.5770 l
0.2438 0.5782 l
0.2459 0.5795 l
0.2480 0.5807 l
0.2502 0.5820 l
0.2524 0.5834 l
0.2546 0.5847 l
0.2568 0.5861 l
0.2591 0.5875 l
0.2614 0.5889 l
0.2637 0.5903 l
0.2661 0.5918 l
0.2685 0.5933 l
0.2709 0.5948 l
0.2734 0.5964 l
0.2759 0.5980 l
0.2784 0.5996 l
0.2810 0.6012 l
0.2836 0.6029 l
0.2863 0.6046 l
0.2889 0.6063 l
0.2916 0.6080 l
0.2944 0.6098 l
0.2971 0.6116 l
0.3000 0.6134 l
0.3028 0.6152 l
0.3057 0.6171 l
0.3086 0.6190 l
0.3116 0.6209 l
0.3146 0.6229 l
0.3176 0.6248 l
0.3206 0.6268 l
0.3237 0.6288 l
0.3269 0.6309 l
0.3301 0.6330 l
0.3333 0.6350 l
0.3365 0.6372 l
0.3398 0.6393 l
0.3432 0.6414 l
0.3465 0.6436 l
0.3499 0.6458 l
0.3534 0.6480 l
0.3569 0.6503 l
0.3604 0.6525 l
0.3640 0.6548 l
0.3676 0.6571 l
0.3712 0.6594 l
0.3749 0.6618 l
0.3786 0.6641 l
0.3824 0.6665 l
0.3862 0.6689 l
0.3901 0.6713 l
0.3939 0.6737 l
0.3979 0.6762 l
0.4019 0.6786 l
0.4059 0.6811 l
0.4099 0.6836 l
0.4140 0.6860 l
0.4182 0.6885 l
0.4224 0.6911 l
0.4266 0.6936 l
0.4309 0.6961 l
0.4352 0.6987 l
0.4396 0.7012 l
0.4440 0.7038 l
0.4484 0.7063 l
0.4529 0.7089 l
0.4575 0.7115 l
0.4621 0.7140 l
0.4667 0.7166 l
0.4714 0.7192 l
0.4761 0.7218 l
0.4809 0.7244 l
0.4857 0.7269 l
0.4906 0.7295 l
0.4955 0.7321 l
0.5004 0.7347 l
0.5055 0.7373 l
0.5105 0.7398 l
0.5156 0.7424 l
0.5208 0.7450 l
0.5260 0.7475 l
0.5312 0.7501 l
0.5365 0.7526 l
0.5418 0.7551 l
0.5472 0.7577 l
0.5527 0.7602 l
0.5582 0.7627 l
0.5637 0.7652 l
0.5693 0.7676 l
0.5749 0.7701 l
0.5806 0.7725 l
0.5864 0.7750 l
0.5922 0.7774 l
0.5980 0.7798 l
0.6039 0.7821 l
0.6098 0.7845 l
0.6158 0.7868 l
0.6219 0.7892 l
0.6280 0.7915 l
0.6341 0.7937 l
0.6404 0.7960 l
0.6466 0.7982 l
0.6472 0.7984 l
s
[/DeviceRGB] SCS
Color1 SC
[] 0 SD
0.0045 SLW
n
0.1500 0.5000 m
0.6471 0.5000 l
s
n
0.1500 0.8500 m
0.6471 0.8500 l
s
n
0.2052 0.5000 m
0.2052 0.5100 l
s
n
0.2052 0.8500 m
0.2052 0.8400 l
s
n
0.3157 0.5000 m
0.3157 0.5100 l
s
n
0.3157 0.8500 m
0.3157 0.8400 l
s
n
0.4261 0.5000 m
0.4261 0.5100 l
s
n
0.4261 0.8500 m
0.4261 0.8400 l
s
n
0.5366 0.5000 m
0.5366 0.5100 l
s
n
0.5366 0.8500 m
0.5366 0.8400 l
s
n
0.6471 0.5000 m
0.6471 0.5100 l
s
n
0.6471 0.8500 m
0.6471 0.8400 l
s
n
0.1500 0.5000 m
0.1500 0.5200 l
s
n
0.1500 0.8500 m
0.1500 0.8300 l
s
n
0.2605 0.5000 m
0.2605 0.5200 l
s
n
0.2605 0.8500 m
0.2605 0.8300 l
s
n
0.3709 0.5000 m
0.3709 0.5200 l
s
n
0.3709 0.8500 m
0.3709 0.8300 l
s
n
0.4814 0.5000 m
0.4814 0.5200 l
s
n
0.4814 0.8500 m
0.4814 0.8300 l
s
n
0.5918 0.5000 m
0.5918 0.5200 l
s
n
0.5918 0.8500 m
0.5918 0.8300 l
s
n
0.1500 0.5000 m
0.1500 0.8500 l
s
n
0.1500 0.5000 m
0.1600 0.5000 l
s
n
0.1500 0.5778 m
0.1600 0.5778 l
s
n
0.1500 0.6556 m
0.1600 0.6556 l
s
n
0.1500 0.7333 m
0.1600 0.7333 l
s
n
0.1500 0.8111 m
0.1600 0.8111 l
s
n
0.1500 0.5389 m
0.1700 0.5389 l
s
n
0.1500 0.6167 m
0.1700 0.6167 l
s
n
0.1500 0.6944 m
0.1700 0.6944 l
s
n
0.1500 0.7722 m
0.1700 0.7722 l
s
n
0.1500 0.8500 m
0.1700 0.8500 l
s
/Times-Roman findfont
dup length dict begin
 {1 index /FID ne {def} {pop pop} ifelse} forall
 /Encoding DefEncoding def
 currentdict
end
/Font0 exch definefont pop
/Font0 FFSF
0.1188 0.5240 m
GS
[0.0448 0.0000 0.0000 0.0448 0 0] CC
(0) show
GR
/Font0 FFSF
0.0965 0.6018 m
GS
[0.0448 0.0000 0.0000 0.0448 0 0] CC
(10) show
GR
/Font0 FFSF
0.0965 0.6795 m
GS
[0.0448 0.0000 0.0000 0.0448 0 0] CC
(20) show
GR
/Font0 FFSF
0.0965 0.7573 m
GS
[0.0448 0.0000 0.0000 0.0448 0 0] CC
(30) show
GR
/Font0 FFSF
0.0965 0.8351 m
GS
[0.0448 0.0000 0.0000 0.0448 0 0] CC
(40) show
GR
/Font0 FFSF
0.0782 0.5795 m
GS
[0.0000 0.0459 -0.0459 0.0000 0 0] CC
(\(S=0,T=0\)) show
GR
[] 0 SD
0.0015 SLW
n
0.1500 0.5000 m
0.1500 0.8500 l
0.6471 0.8500 l
0.6471 0.5000 l
0.1500 0.5000 l
c
s
n
0.6662 0.5380 0.0065 0.0065 0 360 EARC c
fill
[] 0 SD
0.0030 SLW
n 0.6662 0.5380 0.0065 0.0065 0 360 EARC s
n
0.6743 0.5374 0.0065 0.0065 0 360 EARC c
fill
n 0.6743 0.5374 0.0065 0.0065 0 360 EARC s
n
0.6844 0.5368 0.0065 0.0065 0 360 EARC c
fill
n 0.6844 0.5368 0.0065 0.0065 0 360 EARC s
n
0.6967 0.5363 0.0065 0.0065 0 360 EARC c
fill
n 0.6967 0.5363 0.0065 0.0065 0 360 EARC s
n
0.7115 0.5365 0.0065 0.0065 0 360 EARC c
fill
n 0.7115 0.5365 0.0065 0.0065 0 360 EARC s
n
0.7290 0.5377 0.0065 0.0065 0 360 EARC c
fill
n 0.7290 0.5377 0.0065 0.0065 0 360 EARC s
n
0.7494 0.5406 0.0065 0.0065 0 360 EARC c
fill
n 0.7494 0.5406 0.0065 0.0065 0 360 EARC s
n
0.7730 0.5462 0.0065 0.0065 0 360 EARC c
fill
n 0.7730 0.5462 0.0065 0.0065 0 360 EARC s
n
0.7999 0.5553 0.0065 0.0065 0 360 EARC c
fill
n 0.7999 0.5553 0.0065 0.0065 0 360 EARC s
n
0.8303 0.5693 0.0065 0.0065 0 360 EARC c
fill
n 0.8303 0.5693 0.0065 0.0065 0 360 EARC s
n
0.8646 0.5892 0.0065 0.0065 0 360 EARC c
fill
n 0.8646 0.5892 0.0065 0.0065 0 360 EARC s
n
0.9029 0.6174 0.0065 0.0065 0 360 EARC c
fill
n 0.9029 0.6174 0.0065 0.0065 0 360 EARC s
n
0.9455 0.6559 0.0065 0.0065 0 360 EARC c
fill
n 0.9455 0.6559 0.0065 0.0065 0 360 EARC s
n
0.9925 0.7051 0.0065 0.0065 0 360 EARC c
fill
n 0.9925 0.7051 0.0065 0.0065 0 360 EARC s
n
1.0443 0.7686 0.0065 0.0065 0 360 EARC c
fill
n 1.0443 0.7686 0.0065 0.0065 0 360 EARC s
n
1.1010 0.8496 0.0065 0.0065 0 360 EARC c
fill
n 1.1010 0.8496 0.0065 0.0065 0 360 EARC s
[/DeviceRGB] SCS
Color2 SC
[] 0 SD
0.0037 SLW
n
0.6471 0.5389 m
0.6471 0.5389 l
0.6471 0.5389 l
0.6471 0.5389 l
0.6471 0.5389 l
0.6471 0.5389 l
0.6471 0.5389 l
0.6471 0.5389 l
0.6471 0.5389 l
0.6471 0.5389 l
0.6471 0.5389 l
0.6471 0.5389 l
0.6471 0.5389 l
0.6472 0.5389 l
0.6472 0.5389 l
0.6472 0.5389 l
0.6472 0.5389 l
0.6473 0.5389 l
0.6473 0.5389 l
0.6474 0.5389 l
0.6474 0.5389 l
0.6475 0.5389 l
0.6475 0.5389 l
0.6476 0.5389 l
0.6476 0.5389 l
0.6477 0.5389 l
0.6478 0.5389 l
0.6479 0.5389 l
0.6480 0.5389 l
0.6481 0.5389 l
0.6482 0.5389 l
0.6483 0.5389 l
0.6484 0.5389 l
0.6485 0.5389 l
0.6487 0.5389 l
0.6488 0.5389 l
0.6489 0.5389 l
0.6491 0.5389 l
0.6493 0.5389 l
0.6494 0.5389 l
0.6496 0.5389 l
0.6498 0.5389 l
0.6500 0.5390 l
0.6502 0.5390 l
0.6505 0.5390 l
0.6507 0.5390 l
0.6509 0.5390 l
0.6512 0.5390 l
0.6514 0.5390 l
0.6517 0.5390 l
0.6520 0.5390 l
0.6523 0.5390 l
0.6526 0.5391 l
0.6529 0.5391 l
0.6533 0.5391 l
0.6536 0.5391 l
0.6540 0.5391 l
0.6543 0.5392 l
0.6547 0.5392 l
0.6551 0.5392 l
0.6555 0.5392 l
0.6560 0.5393 l
0.6564 0.5393 l
0.6568 0.5393 l
0.6573 0.5394 l
0.6578 0.5394 l
0.6583 0.5395 l
0.6588 0.5395 l
0.6593 0.5395 l
0.6599 0.5396 l
0.6604 0.5397 l
0.6610 0.5397 l
0.6616 0.5398 l
0.6622 0.5398 l
0.6628 0.5399 l
0.6634 0.5400 l
0.6641 0.5400 l
0.6648 0.5401 l
0.6655 0.5402 l
0.6662 0.5403 l
0.6669 0.5404 l
0.6676 0.5405 l
0.6684 0.5406 l
0.6692 0.5407 l
0.6700 0.5408 l
0.6708 0.5409 l
0.6716 0.5410 l
0.6725 0.5411 l
0.6734 0.5412 l
0.6743 0.5414 l
0.6752 0.5415 l
0.6761 0.5417 l
0.6771 0.5418 l
0.6780 0.5420 l
0.6790 0.5422 l
0.6801 0.5423 l
0.6811 0.5425 l
0.6822 0.5427 l
0.6833 0.5429 l
0.6844 0.5431 l
0.6855 0.5433 l
0.6866 0.5435 l
0.6878 0.5438 l
0.6890 0.5440 l
0.6902 0.5443 l
0.6915 0.5445 l
0.6928 0.5448 l
0.6941 0.5451 l
0.6954 0.5454 l
0.6967 0.5457 l
0.6981 0.5460 l
0.6995 0.5463 l
0.7009 0.5467 l
0.7023 0.5470 l
0.7038 0.5474 l
0.7053 0.5478 l
0.7068 0.5481 l
0.7084 0.5485 l
0.7099 0.5490 l
0.7115 0.5494 l
0.7131 0.5498 l
0.7148 0.5503 l
0.7165 0.5508 l
0.7182 0.5513 l
0.7199 0.5518 l
0.7217 0.5523 l
0.7235 0.5528 l
0.7253 0.5534 l
0.7271 0.5540 l
0.7290 0.5546 l
0.7309 0.5552 l
0.7329 0.5558 l
0.7348 0.5564 l
0.7368 0.5571 l
0.7388 0.5578 l
0.7409 0.5585 l
0.7430 0.5593 l
0.7451 0.5600 l
0.7472 0.5608 l
0.7494 0.5616 l
0.7516 0.5624 l
0.7539 0.5632 l
0.7561 0.5641 l
0.7585 0.5650 l
0.7608 0.5659 l
0.7632 0.5669 l
0.7656 0.5678 l
0.7680 0.5688 l
0.7705 0.5699 l
0.7730 0.5709 l
0.7755 0.5720 l
0.7781 0.5731 l
0.7807 0.5743 l
0.7833 0.5754 l
0.7860 0.5766 l
0.7887 0.5779 l
0.7914 0.5791 l
0.7942 0.5804 l
0.7970 0.5818 l
0.7999 0.5831 l
0.8027 0.5845 l
0.8057 0.5860 l
0.8086 0.5874 l
0.8116 0.5889 l
0.8146 0.5905 l
0.8177 0.5921 l
0.8208 0.5937 l
0.8239 0.5954 l
0.8271 0.5971 l
0.8303 0.5988 l
0.8336 0.6006 l
0.8369 0.6024 l
0.8402 0.6043 l
0.8436 0.6062 l
0.8470 0.6081 l
0.8504 0.6101 l
0.8539 0.6122 l
0.8575 0.6143 l
0.8610 0.6164 l
0.8646 0.6186 l
0.8683 0.6209 l
0.8720 0.6231 l
0.8757 0.6255 l
0.8795 0.6279 l
0.8833 0.6303 l
0.8871 0.6328 l
0.8910 0.6354 l
0.8949 0.6380 l
0.8989 0.6406 l
0.9029 0.6434 l
0.9070 0.6461 l
0.9111 0.6490 l
0.9153 0.6519 l
0.9194 0.6548 l
0.9237 0.6578 l
0.9280 0.6609 l
0.9323 0.6641 l
0.9366 0.6673 l
0.9410 0.6706 l
0.9455 0.6739 l
0.9500 0.6773 l
0.9545 0.6808 l
0.9591 0.6843 l
0.9638 0.6880 l
0.9685 0.6916 l
0.9732 0.6954 l
0.9780 0.6992 l
0.9828 0.7032 l
0.9876 0.7071 l
0.9925 0.7112 l
0.9975 0.7153 l
1.0025 0.7196 l
1.0076 0.7239 l
1.0127 0.7283 l
1.0178 0.7327 l
1.0230 0.7373 l
1.0283 0.7419 l
1.0336 0.7466 l
1.0389 0.7514 l
1.0443 0.7563 l
1.0497 0.7613 l
1.0552 0.7664 l
1.0608 0.7716 l
1.0664 0.7768 l
1.0720 0.7822 l
1.0777 0.7876 l
1.0834 0.7932 l
1.0892 0.7988 l
1.0951 0.8046 l
1.1010 0.8104 l
1.1069 0.8164 l
1.1129 0.8225 l
1.1190 0.8286 l
1.1251 0.8349 l
1.1312 0.8413 l
1.1374 0.8478 l
1.1396 0.8501 l
s
[/DeviceRGB] SCS
Color4 SC
n
0.6471 0.5389 m
0.6471 0.5389 l
0.6471 0.5389 l
0.6471 0.5389 l
0.6471 0.5389 l
0.6471 0.5389 l
0.6471 0.5389 l
0.6471 0.5389 l
0.6471 0.5389 l
0.6471 0.5389 l
0.6471 0.5389 l
0.6471 0.5389 l
0.6471 0.5389 l
0.6472 0.5389 l
0.6472 0.5389 l
0.6472 0.5389 l
0.6472 0.5389 l
0.6473 0.5389 l
0.6473 0.5389 l
0.6474 0.5389 l
0.6474 0.5389 l
0.6475 0.5389 l
0.6475 0.5389 l
0.6476 0.5389 l
0.6476 0.5389 l
0.6477 0.5389 l
0.6478 0.5389 l
0.6479 0.5389 l
0.6480 0.5389 l
0.6481 0.5389 l
0.6482 0.5389 l
0.6483 0.5389 l
0.6484 0.5389 l
0.6485 0.5389 l
0.6487 0.5389 l
0.6488 0.5389 l
0.6489 0.5389 l
0.6491 0.5389 l
0.6493 0.5389 l
0.6494 0.5389 l
0.6496 0.5389 l
0.6498 0.5389 l
0.6500 0.5389 l
0.6502 0.5389 l
0.6505 0.5389 l
0.6507 0.5389 l
0.6509 0.5389 l
0.6512 0.5389 l
0.6514 0.5389 l
0.6517 0.5389 l
0.6520 0.5389 l
0.6523 0.5389 l
0.6526 0.5389 l
0.6529 0.5389 l
0.6533 0.5389 l
0.6536 0.5389 l
0.6540 0.5389 l
0.6543 0.5389 l
0.6547 0.5389 l
0.6551 0.5389 l
0.6555 0.5388 l
0.6560 0.5388 l
0.6564 0.5388 l
0.6568 0.5388 l
0.6573 0.5388 l
0.6578 0.5388 l
0.6583 0.5388 l
0.6588 0.5388 l
0.6593 0.5388 l
0.6599 0.5388 l
0.6604 0.5388 l
0.6610 0.5388 l
0.6616 0.5388 l
0.6622 0.5388 l
0.6628 0.5388 l
0.6634 0.5388 l
0.6641 0.5388 l
0.6648 0.5388 l
0.6655 0.5388 l
0.6662 0.5388 l
0.6669 0.5388 l
0.6676 0.5388 l
0.6684 0.5388 l
0.6692 0.5388 l
0.6700 0.5389 l
0.6708 0.5389 l
0.6716 0.5389 l
0.6725 0.5389 l
0.6734 0.5389 l
0.6743 0.5389 l
0.6752 0.5389 l
0.6761 0.5389 l
0.6771 0.5389 l
0.6780 0.5390 l
0.6790 0.5390 l
0.6801 0.5390 l
0.6811 0.5390 l
0.6822 0.5391 l
0.6833 0.5391 l
0.6844 0.5391 l
0.6855 0.5391 l
0.6866 0.5392 l
0.6878 0.5392 l
0.6890 0.5393 l
0.6902 0.5393 l
0.6915 0.5394 l
0.6928 0.5394 l
0.6941 0.5395 l
0.6954 0.5395 l
0.6967 0.5396 l
0.6981 0.5397 l
0.6995 0.5398 l
0.7009 0.5399 l
0.7023 0.5399 l
0.7038 0.5400 l
0.7053 0.5401 l
0.7068 0.5403 l
0.7084 0.5404 l
0.7099 0.5405 l
0.7115 0.5406 l
0.7131 0.5408 l
0.7148 0.5409 l
0.7165 0.5411 l
0.7182 0.5413 l
0.7199 0.5414 l
0.7217 0.5416 l
0.7235 0.5418 l
0.7253 0.5420 l
0.7271 0.5423 l
0.7290 0.5425 l
0.7309 0.5428 l
0.7329 0.5430 l
0.7348 0.5433 l
0.7368 0.5436 l
0.7388 0.5439 l
0.7409 0.5442 l
0.7430 0.5446 l
0.7451 0.5449 l
0.7472 0.5453 l
0.7494 0.5457 l
0.7516 0.5461 l
0.7539 0.5466 l
0.7561 0.5470 l
0.7585 0.5475 l
0.7608 0.5480 l
0.7632 0.5486 l
0.7656 0.5491 l
0.7680 0.5497 l
0.7705 0.5503 l
0.7730 0.5510 l
0.7755 0.5516 l
0.7781 0.5523 l
0.7807 0.5530 l
0.7833 0.5538 l
0.7860 0.5546 l
0.7887 0.5554 l
0.7914 0.5563 l
0.7942 0.5572 l
0.7970 0.5581 l
0.7999 0.5591 l
0.8027 0.5601 l
0.8057 0.5612 l
0.8086 0.5623 l
0.8116 0.5634 l
0.8146 0.5646 l
0.8177 0.5659 l
0.8208 0.5672 l
0.8239 0.5685 l
0.8271 0.5699 l
0.8303 0.5714 l
0.8336 0.5729 l
0.8369 0.5745 l
0.8402 0.5761 l
0.8436 0.5778 l
0.8470 0.5795 l
0.8504 0.5814 l
0.8539 0.5833 l
0.8575 0.5852 l
0.8610 0.5872 l
0.8646 0.5894 l
0.8683 0.5915 l
0.8720 0.5938 l
0.8757 0.5961 l
0.8795 0.5986 l
0.8833 0.6011 l
0.8871 0.6037 l
0.8910 0.6064 l
0.8949 0.6092 l
0.8989 0.6120 l
0.9029 0.6150 l
0.9070 0.6181 l
0.9111 0.6213 l
0.9153 0.6246 l
0.9194 0.6280 l
0.9237 0.6315 l
0.9280 0.6352 l
0.9323 0.6389 l
0.9366 0.6428 l
0.9410 0.6468 l
0.9455 0.6509 l
0.9500 0.6552 l
0.9545 0.6596 l
0.9591 0.6641 l
0.9638 0.6688 l
0.9685 0.6737 l
0.9732 0.6787 l
0.9780 0.6838 l
0.9828 0.6891 l
0.9876 0.6946 l
0.9925 0.7002 l
0.9975 0.7060 l
1.0025 0.7120 l
1.0076 0.7181 l
1.0127 0.7245 l
1.0178 0.7310 l
1.0230 0.7377 l
1.0283 0.7447 l
1.0336 0.7518 l
1.0389 0.7591 l
1.0443 0.7667 l
1.0497 0.7744 l
1.0552 0.7824 l
1.0608 0.7906 l
1.0664 0.7991 l
1.0720 0.8078 l
1.0777 0.8167 l
1.0834 0.8259 l
1.0892 0.8353 l
1.0951 0.8450 l
1.0981 0.8501 l
s
[/DeviceRGB] SCS
Color3 SC
n
0.6471 0.5389 m
0.6471 0.5389 l
0.6471 0.5389 l
0.6471 0.5389 l
0.6471 0.5389 l
0.6471 0.5389 l
0.6471 0.5389 l
0.6471 0.5389 l
0.6471 0.5389 l
0.6471 0.5389 l
0.6471 0.5389 l
0.6471 0.5389 l
0.6471 0.5389 l
0.6472 0.5389 l
0.6472 0.5389 l
0.6472 0.5389 l
0.6472 0.5389 l
0.6473 0.5389 l
0.6473 0.5389 l
0.6474 0.5389 l
0.6474 0.5389 l
0.6475 0.5389 l
0.6475 0.5389 l
0.6476 0.5389 l
0.6476 0.5389 l
0.6477 0.5389 l
0.6478 0.5389 l
0.6479 0.5389 l
0.6480 0.5389 l
0.6481 0.5389 l
0.6482 0.5389 l
0.6483 0.5389 l
0.6484 0.5389 l
0.6485 0.5389 l
0.6487 0.5389 l
0.6488 0.5389 l
0.6489 0.5389 l
0.6491 0.5389 l
0.6493 0.5389 l
0.6494 0.5389 l
0.6496 0.5388 l
0.6498 0.5388 l
0.6500 0.5388 l
0.6502 0.5388 l
0.6505 0.5388 l
0.6507 0.5388 l
0.6509 0.5388 l
0.6512 0.5388 l
0.6514 0.5388 l
0.6517 0.5388 l
0.6520 0.5388 l
0.6523 0.5388 l
0.6526 0.5387 l
0.6529 0.5387 l
0.6533 0.5387 l
0.6536 0.5387 l
0.6540 0.5387 l
0.6543 0.5387 l
0.6547 0.5387 l
0.6551 0.5386 l
0.6555 0.5386 l
0.6560 0.5386 l
0.6564 0.5386 l
0.6568 0.5386 l
0.6573 0.5385 l
0.6578 0.5385 l
0.6583 0.5385 l
0.6588 0.5385 l
0.6593 0.5384 l
0.6599 0.5384 l
0.6604 0.5384 l
0.6610 0.5383 l
0.6616 0.5383 l
0.6622 0.5383 l
0.6628 0.5382 l
0.6634 0.5382 l
0.6641 0.5382 l
0.6648 0.5381 l
0.6655 0.5381 l
0.6662 0.5381 l
0.6669 0.5380 l
0.6676 0.5380 l
0.6684 0.5379 l
0.6692 0.5379 l
0.6700 0.5379 l
0.6708 0.5378 l
0.6716 0.5378 l
0.6725 0.5377 l
0.6734 0.5377 l
0.6743 0.5376 l
0.6752 0.5376 l
0.6761 0.5376 l
0.6771 0.5375 l
0.6780 0.5375 l
0.6790 0.5374 l
0.6801 0.5374 l
0.6811 0.5373 l
0.6822 0.5373 l
0.6833 0.5373 l
0.6844 0.5372 l
0.6855 0.5372 l
0.6866 0.5372 l
0.6878 0.5371 l
0.6890 0.5371 l
0.6902 0.5371 l
0.6915 0.5371 l
0.6928 0.5370 l
0.6941 0.5370 l
0.6954 0.5370 l
0.6967 0.5370 l
0.6981 0.5370 l
0.6995 0.5370 l
0.7009 0.5370 l
0.7023 0.5370 l
0.7038 0.5370 l
0.7053 0.5371 l
0.7068 0.5371 l
0.7084 0.5371 l
0.7099 0.5372 l
0.7115 0.5373 l
0.7131 0.5373 l
0.7148 0.5374 l
0.7165 0.5375 l
0.7182 0.5376 l
0.7199 0.5377 l
0.7217 0.5378 l
0.7235 0.5379 l
0.7253 0.5381 l
0.7271 0.5383 l
0.7290 0.5384 l
0.7309 0.5386 l
0.7329 0.5388 l
0.7348 0.5391 l
0.7368 0.5393 l
0.7388 0.5396 l
0.7409 0.5398 l
0.7430 0.5401 l
0.7451 0.5405 l
0.7472 0.5408 l
0.7494 0.5412 l
0.7516 0.5416 l
0.7539 0.5420 l
0.7561 0.5424 l
0.7585 0.5429 l
0.7608 0.5434 l
0.7632 0.5439 l
0.7656 0.5445 l
0.7680 0.5451 l
0.7705 0.5457 l
0.7730 0.5464 l
0.7755 0.5471 l
0.7781 0.5478 l
0.7807 0.5486 l
0.7833 0.5494 l
0.7860 0.5502 l
0.7887 0.5511 l
0.7914 0.5520 l
0.7942 0.5530 l
0.7970 0.5540 l
0.7999 0.5551 l
0.8027 0.5562 l
0.8057 0.5574 l
0.8086 0.5586 l
0.8116 0.5598 l
0.8146 0.5612 l
0.8177 0.5625 l
0.8208 0.5640 l
0.8239 0.5655 l
0.8271 0.5670 l
0.8303 0.5687 l
0.8336 0.5704 l
0.8369 0.5721 l
0.8402 0.5739 l
0.8436 0.5758 l
0.8470 0.5778 l
0.8504 0.5798 l
0.8539 0.5819 l
0.8575 0.5841 l
0.8610 0.5864 l
0.8646 0.5887 l
0.8683 0.5911 l
0.8720 0.5936 l
0.8757 0.5962 l
0.8795 0.5989 l
0.8833 0.6017 l
0.8871 0.6046 l
0.8910 0.6075 l
0.8949 0.6106 l
0.8989 0.6137 l
0.9029 0.6170 l
0.9070 0.6203 l
0.9111 0.6238 l
0.9153 0.6273 l
0.9194 0.6310 l
0.9237 0.6348 l
0.9280 0.6387 l
0.9323 0.6427 l
0.9366 0.6468 l
0.9410 0.6510 l
0.9455 0.6554 l
0.9500 0.6598 l
0.9545 0.6644 l
0.9591 0.6691 l
0.9638 0.6740 l
0.9685 0.6789 l
0.9732 0.6840 l
0.9780 0.6893 l
0.9828 0.6946 l
0.9876 0.7001 l
0.9925 0.7057 l
0.9975 0.7115 l
1.0025 0.7174 l
1.0076 0.7235 l
1.0127 0.7296 l
1.0178 0.7360 l
1.0230 0.7424 l
1.0283 0.7491 l
1.0336 0.7558 l
1.0389 0.7627 l
1.0443 0.7698 l
1.0497 0.7770 l
1.0552 0.7844 l
1.0608 0.7919 l
1.0664 0.7996 l
1.0720 0.8074 l
1.0777 0.8154 l
1.0834 0.8235 l
1.0892 0.8318 l
1.0951 0.8403 l
1.1010 0.8489 l
1.1018 0.8501 l
s
[/DeviceRGB] SCS
Color1 SC
[] 0 SD
0.0045 SLW
n
0.6471 0.5000 m
1.1441 0.5000 l
s
n
0.6471 0.8500 m
1.1441 0.8500 l
s
n
0.7023 0.5000 m
0.7023 0.5100 l
s
n
0.7023 0.8500 m
0.7023 0.8400 l
s
n
0.8127 0.5000 m
0.8127 0.5100 l
s
n
0.8127 0.8500 m
0.8127 0.8400 l
s
n
0.9232 0.5000 m
0.9232 0.5100 l
s
n
0.9232 0.8500 m
0.9232 0.8400 l
s
n
1.0337 0.5000 m
1.0337 0.5100 l
s
n
1.0337 0.8500 m
1.0337 0.8400 l
s
n
1.1441 0.5000 m
1.1441 0.5100 l
s
n
1.1441 0.8500 m
1.1441 0.8400 l
s
n
0.6471 0.5000 m
0.6471 0.5200 l
s
n
0.6471 0.8500 m
0.6471 0.8300 l
s
n
0.7575 0.5000 m
0.7575 0.5200 l
s
n
0.7575 0.8500 m
0.7575 0.8300 l
s
n
0.8680 0.5000 m
0.8680 0.5200 l
s
n
0.8680 0.8500 m
0.8680 0.8300 l
s
n
0.9784 0.5000 m
0.9784 0.5200 l
s
n
0.9784 0.8500 m
0.9784 0.8300 l
s
n
1.0889 0.5000 m
1.0889 0.5200 l
s
n
1.0889 0.8500 m
1.0889 0.8300 l
s
n
0.6471 0.5000 m
0.6471 0.8500 l
s
n
1.1441 0.5000 m
1.1441 0.8500 l
s
n
0.6471 0.5000 m
0.6571 0.5000 l
s
n
1.1441 0.5000 m
1.1341 0.5000 l
s
n
0.6471 0.5778 m
0.6571 0.5778 l
s
n
1.1441 0.5778 m
1.1341 0.5778 l
s
n
0.6471 0.6556 m
0.6571 0.6556 l
s
n
1.1441 0.6556 m
1.1341 0.6556 l
s
n
0.6471 0.7333 m
0.6571 0.7333 l
s
n
1.1441 0.7333 m
1.1341 0.7333 l
s
n
0.6471 0.8111 m
0.6571 0.8111 l
s
n
1.1441 0.8111 m
1.1341 0.8111 l
s
n
0.6471 0.5389 m
0.6671 0.5389 l
s
n
1.1441 0.5389 m
1.1241 0.5389 l
s
n
0.6471 0.6167 m
0.6671 0.6167 l
s
n
1.1441 0.6167 m
1.1241 0.6167 l
s
n
0.6471 0.6944 m
0.6671 0.6944 l
s
n
1.1441 0.6944 m
1.1241 0.6944 l
s
n
0.6471 0.7722 m
0.6671 0.7722 l
s
n
1.1441 0.7722 m
1.1241 0.7722 l
s
n
0.6471 0.8500 m
0.6671 0.8500 l
s
n
1.1441 0.8500 m
1.1241 0.8500 l
s
/Font0 FFSF
1.1541 0.5240 m
GS
[0.0448 0.0000 0.0000 0.0448 0 0] CC
(0) show
GR
/Font0 FFSF
1.1541 0.6018 m
GS
[0.0448 0.0000 0.0000 0.0448 0 0] CC
(10) show
GR
/Font0 FFSF
1.1541 0.6795 m
GS
[0.0448 0.0000 0.0000 0.0448 0 0] CC
(20) show
GR
/Font0 FFSF
1.1541 0.7573 m
GS
[0.0448 0.0000 0.0000 0.0448 0 0] CC
(30) show
GR
/Font0 FFSF
1.1541 0.8351 m
GS
[0.0448 0.0000 0.0000 0.0448 0 0] CC
(40) show
GR
/Font0 FFSF
1.2390 0.5795 m
GS
[0.0000 0.0459 -0.0459 0.0000 0 0] CC
(\(S=1,T=1\)) show
GR
[] 0 SD
0.0015 SLW
n
0.6471 0.5000 m
0.6471 0.8500 l
1.1441 0.8500 l
1.1441 0.5000 l
0.6471 0.5000 l
c
s
n
0.6470 0.8500 m
0.6470 0.6604 l
0.8571 0.6604 l
0.8571 0.8500 l
c
[/DeviceRGB] SCS
Color0 SC
fill
[/DeviceRGB] SCS
Color1 SC
[] 0 SD
0.0045 SLW
n
0.6470 0.8500 m
0.6470 0.6604 l
0.8571 0.6604 l
0.8571 0.8500 l
0.6470 0.8500 l
c
s
/Font0 FFSF
0.7189 0.8063 m
GS
[0.0510 0.0000 0.0000 0.0510 0 0] CC
(BHF) show
GR
n
0.6789 0.8231 0.0065 0.0065 0 360 EARC c
fill
[] 0 SD
0.0030 SLW
n 0.6789 0.8231 0.0065 0.0065 0 360 EARC s
/Font0 FFSF
0.7189 0.7618 m
GS
[0.0510 0.0000 0.0000 0.0510 0 0] CC
(N1LO) show
GR
[/DeviceRGB] SCS
Color2 SC
[] 0 SD
0.0037 SLW
n
0.6589 0.7786 m
0.6989 0.7786 l
s
/Font0 FFSF
[/DeviceRGB] SCS
Color1 SC
0.7189 0.7165 m
GS
[0.0510 0.0000 0.0000 0.0510 0 0] CC
(N2LO) show
GR
[/DeviceRGB] SCS
Color4 SC
n
0.6589 0.7333 m
0.6989 0.7333 l
s
/Font0 FFSF
[/DeviceRGB] SCS
Color1 SC
0.7189 0.6712 m
GS
[0.0510 0.0000 0.0000 0.0510 0 0] CC
(N3LO) show
GR
[/DeviceRGB] SCS
Color3 SC
n
0.6589 0.6880 m
0.6989 0.6880 l
s
n
0.1691 0.4207 0.0065 0.0065 0 360 EARC c
[/DeviceRGB] SCS
Color1 SC
fill
[] 0 SD
0.0030 SLW
n 0.1691 0.4207 0.0065 0.0065 0 360 EARC s
n
0.1772 0.4005 0.0065 0.0065 0 360 EARC c
fill
n 0.1772 0.4005 0.0065 0.0065 0 360 EARC s
n
0.1873 0.3796 0.0065 0.0065 0 360 EARC c
fill
n 0.1873 0.3796 0.0065 0.0065 0 360 EARC s
n
0.1997 0.3572 0.0065 0.0065 0 360 EARC c
fill
n 0.1997 0.3572 0.0065 0.0065 0 360 EARC s
n
0.2145 0.3343 0.0065 0.0065 0 360 EARC c
fill
n 0.2145 0.3343 0.0065 0.0065 0 360 EARC s
n
0.2320 0.3093 0.0065 0.0065 0 360 EARC c
fill
n 0.2320 0.3093 0.0065 0.0065 0 360 EARC s
n
0.2524 0.2836 0.0065 0.0065 0 360 EARC c
fill
n 0.2524 0.2836 0.0065 0.0065 0 360 EARC s
n
0.2759 0.2574 0.0065 0.0065 0 360 EARC c
fill
n 0.2759 0.2574 0.0065 0.0065 0 360 EARC s
n
0.3028 0.2324 0.0065 0.0065 0 360 EARC c
fill
n 0.3028 0.2324 0.0065 0.0065 0 360 EARC s
n
0.3333 0.2094 0.0065 0.0065 0 360 EARC c
fill
n 0.3333 0.2094 0.0065 0.0065 0 360 EARC s
n
0.3676 0.1888 0.0065 0.0065 0 360 EARC c
fill
n 0.3676 0.1888 0.0065 0.0065 0 360 EARC s
n
0.4059 0.1729 0.0065 0.0065 0 360 EARC c
fill
n 0.4059 0.1729 0.0065 0.0065 0 360 EARC s
n
0.4484 0.1640 0.0065 0.0065 0 360 EARC c
fill
n 0.4484 0.1640 0.0065 0.0065 0 360 EARC s
n
0.4955 0.1617 0.0065 0.0065 0 360 EARC c
fill
n 0.4955 0.1617 0.0065 0.0065 0 360 EARC s
n
0.5472 0.1708 0.0065 0.0065 0 360 EARC c
fill
n 0.5472 0.1708 0.0065 0.0065 0 360 EARC s
n
0.6039 0.1919 0.0065 0.0065 0 360 EARC c
fill
n 0.6039 0.1919 0.0065 0.0065 0 360 EARC s
[/DeviceRGB] SCS
Color2 SC
[] 0 SD
0.0037 SLW
n
0.1500 0.5000 m
0.1500 0.5000 l
0.1500 0.5000 l
0.1500 0.5000 l
0.1500 0.5000 l
0.1500 0.4999 l
0.1500 0.4999 l
0.1500 0.4998 l
0.1500 0.4998 l
0.1500 0.4997 l
0.1500 0.4996 l
0.1501 0.4995 l
0.1501 0.4993 l
0.1501 0.4992 l
0.1501 0.4990 l
0.1502 0.4988 l
0.1502 0.4986 l
0.1502 0.4984 l
0.1503 0.4981 l
0.1503 0.4978 l
0.1503 0.4975 l
0.1504 0.4972 l
0.1505 0.4968 l
0.1505 0.4964 l
0.1506 0.4960 l
0.1507 0.4955 l
0.1507 0.4951 l
0.1508 0.4945 l
0.1509 0.4940 l
0.1510 0.4934 l
0.1511 0.4928 l
0.1512 0.4922 l
0.1513 0.4915 l
0.1515 0.4908 l
0.1516 0.4901 l
0.1517 0.4893 l
0.1519 0.4885 l
0.1520 0.4877 l
0.1522 0.4868 l
0.1524 0.4859 l
0.1526 0.4850 l
0.1528 0.4840 l
0.1530 0.4830 l
0.1532 0.4820 l
0.1534 0.4809 l
0.1536 0.4798 l
0.1539 0.4787 l
0.1541 0.4775 l
0.1544 0.4763 l
0.1547 0.4751 l
0.1549 0.4738 l
0.1552 0.4725 l
0.1556 0.4712 l
0.1559 0.4698 l
0.1562 0.4684 l
0.1566 0.4670 l
0.1569 0.4655 l
0.1573 0.4640 l
0.1577 0.4625 l
0.1581 0.4609 l
0.1585 0.4593 l
0.1589 0.4576 l
0.1593 0.4560 l
0.1598 0.4543 l
0.1602 0.4526 l
0.1607 0.4508 l
0.1612 0.4490 l
0.1617 0.4472 l
0.1623 0.4454 l
0.1628 0.4435 l
0.1634 0.4416 l
0.1639 0.4396 l
0.1645 0.4377 l
0.1651 0.4357 l
0.1657 0.4337 l
0.1664 0.4316 l
0.1670 0.4296 l
0.1677 0.4275 l
0.1684 0.4254 l
0.1691 0.4232 l
0.1698 0.4211 l
0.1706 0.4189 l
0.1713 0.4167 l
0.1721 0.4144 l
0.1729 0.4122 l
0.1737 0.4099 l
0.1746 0.4076 l
0.1754 0.4053 l
0.1763 0.4030 l
0.1772 0.4006 l
0.1781 0.3982 l
0.1790 0.3959 l
0.1800 0.3934 l
0.1810 0.3910 l
0.1820 0.3886 l
0.1830 0.3861 l
0.1840 0.3837 l
0.1851 0.3812 l
0.1862 0.3787 l
0.1873 0.3762 l
0.1884 0.3737 l
0.1896 0.3711 l
0.1908 0.3686 l
0.1920 0.3660 l
0.1932 0.3635 l
0.1944 0.3609 l
0.1957 0.3583 l
0.1970 0.3557 l
0.1983 0.3532 l
0.1997 0.3506 l
0.2010 0.3480 l
0.2024 0.3453 l
0.2038 0.3427 l
0.2053 0.3401 l
0.2067 0.3375 l
0.2082 0.3349 l
0.2097 0.3323 l
0.2113 0.3297 l
0.2129 0.3270 l
0.2145 0.3244 l
0.2161 0.3218 l
0.2177 0.3192 l
0.2194 0.3166 l
0.2211 0.3140 l
0.2229 0.3114 l
0.2246 0.3088 l
0.2264 0.3062 l
0.2282 0.3036 l
0.2301 0.3011 l
0.2320 0.2985 l
0.2339 0.2959 l
0.2358 0.2934 l
0.2378 0.2908 l
0.2398 0.2883 l
0.2418 0.2858 l
0.2438 0.2833 l
0.2459 0.2808 l
0.2480 0.2783 l
0.2502 0.2759 l
0.2524 0.2734 l
0.2546 0.2710 l
0.2568 0.2686 l
0.2591 0.2662 l
0.2614 0.2638 l
0.2637 0.2615 l
0.2661 0.2591 l
0.2685 0.2568 l
0.2709 0.2545 l
0.2734 0.2522 l
0.2759 0.2499 l
0.2784 0.2477 l
0.2810 0.2455 l
0.2836 0.2433 l
0.2863 0.2411 l
0.2889 0.2390 l
0.2916 0.2369 l
0.2944 0.2348 l
0.2971 0.2327 l
0.3000 0.2307 l
0.3028 0.2287 l
0.3057 0.2267 l
0.3086 0.2247 l
0.3116 0.2228 l
0.3146 0.2209 l
0.3176 0.2190 l
0.3206 0.2172 l
0.3238 0.2154 l
0.3269 0.2136 l
0.3301 0.2118 l
0.3333 0.2101 l
0.3365 0.2084 l
0.3398 0.2068 l
0.3432 0.2052 l
0.3465 0.2036 l
0.3499 0.2021 l
0.3534 0.2005 l
0.3569 0.1991 l
0.3604 0.1976 l
0.3640 0.1962 l
0.3676 0.1949 l
0.3712 0.1935 l
0.3749 0.1922 l
0.3786 0.1910 l
0.3824 0.1898 l
0.3862 0.1886 l
0.3901 0.1874 l
0.3940 0.1863 l
0.3979 0.1852 l
0.4019 0.1842 l
0.4059 0.1832 l
0.4099 0.1823 l
0.4140 0.1814 l
0.4182 0.1805 l
0.4224 0.1797 l
0.4266 0.1789 l
0.4309 0.1781 l
0.4352 0.1774 l
0.4396 0.1767 l
0.4440 0.1761 l
0.4484 0.1755 l
0.4529 0.1749 l
0.4575 0.1744 l
0.4621 0.1740 l
0.4667 0.1735 l
0.4714 0.1732 l
0.4761 0.1728 l
0.4809 0.1725 l
0.4857 0.1722 l
0.4906 0.1720 l
0.4955 0.1718 l
0.5005 0.1717 l
0.5055 0.1716 l
0.5105 0.1715 l
0.5156 0.1715 l
0.5208 0.1715 l
0.5260 0.1715 l
0.5312 0.1716 l
0.5365 0.1718 l
0.5418 0.1719 l
0.5472 0.1721 l
0.5527 0.1724 l
0.5582 0.1727 l
0.5637 0.1730 l
0.5693 0.1734 l
0.5749 0.1738 l
0.5806 0.1742 l
0.5864 0.1747 l
0.5922 0.1752 l
0.5980 0.1757 l
0.6039 0.1763 l
0.6098 0.1769 l
0.6158 0.1775 l
0.6219 0.1782 l
0.6280 0.1789 l
0.6342 0.1797 l
0.6404 0.1804 l
0.6466 0.1812 l
0.6472 0.1813 l
s
[/DeviceRGB] SCS
Color4 SC
n
0.1500 0.5000 m
0.1500 0.5000 l
0.1500 0.5000 l
0.1500 0.5000 l
0.1500 0.5000 l
0.1500 0.4999 l
0.1500 0.4999 l
0.1500 0.4998 l
0.1500 0.4998 l
0.1500 0.4997 l
0.1500 0.4996 l
0.1501 0.4995 l
0.1501 0.4994 l
0.1501 0.4992 l
0.1501 0.4991 l
0.1502 0.4989 l
0.1502 0.4987 l
0.1502 0.4985 l
0.1503 0.4982 l
0.1503 0.4979 l
0.1503 0.4977 l
0.1504 0.4973 l
0.1505 0.4970 l
0.1505 0.4966 l
0.1506 0.4962 l
0.1507 0.4958 l
0.1507 0.4953 l
0.1508 0.4949 l
0.1509 0.4944 l
0.1510 0.4938 l
0.1511 0.4933 l
0.1512 0.4927 l
0.1513 0.4920 l
0.1515 0.4914 l
0.1516 0.4907 l
0.1517 0.4900 l
0.1519 0.4892 l
0.1520 0.4885 l
0.1522 0.4877 l
0.1524 0.4868 l
0.1526 0.4860 l
0.1528 0.4851 l
0.1530 0.4841 l
0.1532 0.4832 l
0.1534 0.4822 l
0.1536 0.4811 l
0.1539 0.4801 l
0.1541 0.4790 l
0.1544 0.4779 l
0.1547 0.4767 l
0.1549 0.4755 l
0.1552 0.4743 l
0.1556 0.4731 l
0.1559 0.4718 l
0.1562 0.4705 l
0.1566 0.4692 l
0.1569 0.4678 l
0.1573 0.4664 l
0.1577 0.4650 l
0.1581 0.4635 l
0.1585 0.4620 l
0.1589 0.4605 l
0.1593 0.4590 l
0.1598 0.4574 l
0.1602 0.4558 l
0.1607 0.4541 l
0.1612 0.4525 l
0.1617 0.4508 l
0.1623 0.4491 l
0.1628 0.4473 l
0.1634 0.4455 l
0.1639 0.4437 l
0.1645 0.4419 l
0.1651 0.4401 l
0.1657 0.4382 l
0.1664 0.4363 l
0.1670 0.4343 l
0.1677 0.4324 l
0.1684 0.4304 l
0.1691 0.4284 l
0.1698 0.4264 l
0.1706 0.4243 l
0.1713 0.4222 l
0.1721 0.4201 l
0.1729 0.4180 l
0.1737 0.4159 l
0.1746 0.4137 l
0.1754 0.4115 l
0.1763 0.4093 l
0.1772 0.4071 l
0.1781 0.4049 l
0.1790 0.4026 l
0.1800 0.4003 l
0.1810 0.3980 l
0.1820 0.3957 l
0.1830 0.3933 l
0.1840 0.3910 l
0.1851 0.3886 l
0.1862 0.3862 l
0.1873 0.3838 l
0.1884 0.3814 l
0.1896 0.3790 l
0.1908 0.3765 l
0.1920 0.3741 l
0.1932 0.3716 l
0.1944 0.3691 l
0.1957 0.3666 l
0.1970 0.3641 l
0.1983 0.3615 l
0.1997 0.3590 l
0.2010 0.3565 l
0.2024 0.3539 l
0.2038 0.3513 l
0.2053 0.3488 l
0.2067 0.3462 l
0.2082 0.3436 l
0.2097 0.3410 l
0.2113 0.3384 l
0.2129 0.3358 l
0.2145 0.3332 l
0.2161 0.3305 l
0.2177 0.3279 l
0.2194 0.3253 l
0.2211 0.3226 l
0.2229 0.3200 l
0.2246 0.3174 l
0.2264 0.3147 l
0.2282 0.3121 l
0.2301 0.3094 l
0.2320 0.3068 l
0.2339 0.3041 l
0.2358 0.3015 l
0.2378 0.2989 l
0.2398 0.2962 l
0.2418 0.2936 l
0.2438 0.2909 l
0.2459 0.2883 l
0.2480 0.2857 l
0.2502 0.2831 l
0.2524 0.2805 l
0.2546 0.2779 l
0.2568 0.2753 l
0.2591 0.2727 l
0.2614 0.2701 l
0.2637 0.2675 l
0.2661 0.2649 l
0.2685 0.2624 l
0.2709 0.2598 l
0.2734 0.2573 l
0.2759 0.2548 l
0.2784 0.2523 l
0.2810 0.2498 l
0.2836 0.2473 l
0.2863 0.2449 l
0.2889 0.2424 l
0.2916 0.2400 l
0.2944 0.2376 l
0.2971 0.2352 l
0.3000 0.2328 l
0.3028 0.2305 l
0.3057 0.2282 l
0.3086 0.2259 l
0.3116 0.2236 l
0.3146 0.2213 l
0.3176 0.2191 l
0.3206 0.2169 l
0.3238 0.2147 l
0.3269 0.2126 l
0.3301 0.2104 l
0.3333 0.2083 l
0.3365 0.2063 l
0.3398 0.2042 l
0.3432 0.2022 l
0.3465 0.2003 l
0.3499 0.1984 l
0.3534 0.1965 l
0.3569 0.1946 l
0.3604 0.1928 l
0.3640 0.1910 l
0.3676 0.1893 l
0.3712 0.1876 l
0.3749 0.1859 l
0.3786 0.1843 l
0.3824 0.1828 l
0.3862 0.1813 l
0.3901 0.1798 l
0.3940 0.1784 l
0.3979 0.1770 l
0.4019 0.1757 l
0.4059 0.1744 l
0.4099 0.1732 l
0.4140 0.1721 l
0.4182 0.1710 l
0.4224 0.1700 l
0.4266 0.1690 l
0.4309 0.1681 l
0.4352 0.1673 l
0.4396 0.1666 l
0.4440 0.1659 l
0.4484 0.1652 l
0.4529 0.1647 l
0.4575 0.1642 l
0.4621 0.1638 l
0.4667 0.1635 l
0.4714 0.1633 l
0.4761 0.1631 l
0.4809 0.1630 l
0.4857 0.1630 l
0.4906 0.1632 l
0.4955 0.1634 l
0.5005 0.1636 l
0.5055 0.1640 l
0.5105 0.1645 l
0.5156 0.1651 l
0.5208 0.1658 l
0.5260 0.1666 l
0.5312 0.1675 l
0.5365 0.1685 l
0.5418 0.1697 l
0.5472 0.1709 l
0.5527 0.1723 l
0.5582 0.1738 l
0.5637 0.1754 l
0.5693 0.1771 l
0.5749 0.1790 l
0.5806 0.1810 l
0.5864 0.1832 l
0.5922 0.1855 l
0.5980 0.1879 l
0.6039 0.1905 l
0.6098 0.1932 l
0.6158 0.1961 l
0.6219 0.1992 l
0.6280 0.2024 l
0.6342 0.2058 l
0.6404 0.2093 l
0.6466 0.2131 l
0.6472 0.2134 l
s
[/DeviceRGB] SCS
Color3 SC
n
0.1500 0.5000 m
0.1500 0.5000 l
0.1500 0.5000 l
0.1500 0.5000 l
0.1500 0.5000 l
0.1500 0.4999 l
0.1500 0.4999 l
0.1500 0.4998 l
0.1500 0.4998 l
0.1500 0.4997 l
0.1500 0.4996 l
0.1501 0.4995 l
0.1501 0.4994 l
0.1501 0.4992 l
0.1501 0.4990 l
0.1502 0.4989 l
0.1502 0.4986 l
0.1502 0.4984 l
0.1503 0.4982 l
0.1503 0.4979 l
0.1503 0.4976 l
0.1504 0.4972 l
0.1505 0.4969 l
0.1505 0.4965 l
0.1506 0.4961 l
0.1507 0.4956 l
0.1507 0.4952 l
0.1508 0.4947 l
0.1509 0.4942 l
0.1510 0.4936 l
0.1511 0.4930 l
0.1512 0.4924 l
0.1513 0.4918 l
0.1515 0.4911 l
0.1516 0.4904 l
0.1517 0.4896 l
0.1519 0.4889 l
0.1520 0.4881 l
0.1522 0.4872 l
0.1524 0.4863 l
0.1526 0.4854 l
0.1528 0.4845 l
0.1530 0.4835 l
0.1532 0.4826 l
0.1534 0.4815 l
0.1536 0.4805 l
0.1539 0.4794 l
0.1541 0.4782 l
0.1544 0.4771 l
0.1547 0.4759 l
0.1549 0.4747 l
0.1552 0.4734 l
0.1556 0.4721 l
0.1559 0.4708 l
0.1562 0.4695 l
0.1566 0.4681 l
0.1569 0.4667 l
0.1573 0.4652 l
0.1577 0.4637 l
0.1581 0.4622 l
0.1585 0.4607 l
0.1589 0.4591 l
0.1593 0.4575 l
0.1598 0.4559 l
0.1602 0.4543 l
0.1607 0.4526 l
0.1612 0.4509 l
0.1617 0.4491 l
0.1623 0.4474 l
0.1628 0.4456 l
0.1634 0.4438 l
0.1639 0.4419 l
0.1645 0.4401 l
0.1651 0.4382 l
0.1657 0.4362 l
0.1664 0.4343 l
0.1670 0.4323 l
0.1677 0.4303 l
0.1684 0.4283 l
0.1691 0.4263 l
0.1698 0.4242 l
0.1706 0.4221 l
0.1713 0.4200 l
0.1721 0.4179 l
0.1729 0.4158 l
0.1737 0.4136 l
0.1746 0.4114 l
0.1754 0.4092 l
0.1763 0.4070 l
0.1772 0.4047 l
0.1781 0.4025 l
0.1790 0.4002 l
0.1800 0.3979 l
0.1810 0.3956 l
0.1820 0.3933 l
0.1830 0.3909 l
0.1840 0.3886 l
0.1851 0.3862 l
0.1862 0.3839 l
0.1873 0.3815 l
0.1884 0.3791 l
0.1896 0.3766 l
0.1908 0.3742 l
0.1920 0.3718 l
0.1932 0.3693 l
0.1944 0.3669 l
0.1957 0.3644 l
0.1970 0.3619 l
0.1983 0.3594 l
0.1997 0.3569 l
0.2010 0.3544 l
0.2024 0.3519 l
0.2038 0.3494 l
0.2053 0.3469 l
0.2067 0.3444 l
0.2082 0.3419 l
0.2097 0.3393 l
0.2113 0.3368 l
0.2129 0.3342 l
0.2145 0.3317 l
0.2161 0.3292 l
0.2177 0.3266 l
0.2194 0.3241 l
0.2211 0.3215 l
0.2229 0.3190 l
0.2246 0.3164 l
0.2264 0.3138 l
0.2282 0.3113 l
0.2301 0.3088 l
0.2320 0.3062 l
0.2339 0.3037 l
0.2358 0.3011 l
0.2378 0.2986 l
0.2398 0.2960 l
0.2418 0.2935 l
0.2438 0.2910 l
0.2459 0.2884 l
0.2480 0.2859 l
0.2502 0.2834 l
0.2524 0.2809 l
0.2546 0.2784 l
0.2568 0.2759 l
0.2591 0.2734 l
0.2614 0.2709 l
0.2637 0.2685 l
0.2661 0.2660 l
0.2685 0.2635 l
0.2709 0.2611 l
0.2734 0.2587 l
0.2759 0.2562 l
0.2784 0.2538 l
0.2810 0.2514 l
0.2836 0.2490 l
0.2863 0.2467 l
0.2889 0.2443 l
0.2916 0.2419 l
0.2944 0.2396 l
0.2971 0.2373 l
0.3000 0.2350 l
0.3028 0.2327 l
0.3057 0.2304 l
0.3086 0.2281 l
0.3116 0.2259 l
0.3146 0.2236 l
0.3176 0.2214 l
0.3206 0.2192 l
0.3238 0.2171 l
0.3269 0.2149 l
0.3301 0.2128 l
0.3333 0.2107 l
0.3365 0.2086 l
0.3398 0.2066 l
0.3432 0.2045 l
0.3465 0.2025 l
0.3499 0.2005 l
0.3534 0.1986 l
0.3569 0.1967 l
0.3604 0.1948 l
0.3640 0.1929 l
0.3676 0.1911 l
0.3712 0.1893 l
0.3749 0.1875 l
0.3786 0.1858 l
0.3824 0.1841 l
0.3862 0.1825 l
0.3901 0.1809 l
0.3940 0.1793 l
0.3979 0.1778 l
0.4019 0.1763 l
0.4059 0.1749 l
0.4099 0.1735 l
0.4140 0.1722 l
0.4182 0.1710 l
0.4224 0.1698 l
0.4266 0.1686 l
0.4309 0.1675 l
0.4352 0.1665 l
0.4396 0.1655 l
0.4440 0.1647 l
0.4484 0.1638 l
0.4529 0.1631 l
0.4575 0.1624 l
0.4621 0.1619 l
0.4667 0.1614 l
0.4714 0.1610 l
0.4761 0.1607 l
0.4809 0.1604 l
0.4857 0.1603 l
0.4906 0.1603 l
0.4955 0.1604 l
0.5005 0.1606 l
0.5055 0.1610 l
0.5105 0.1614 l
0.5156 0.1620 l
0.5208 0.1627 l
0.5260 0.1635 l
0.5312 0.1645 l
0.5365 0.1657 l
0.5418 0.1670 l
0.5472 0.1684 l
0.5527 0.1700 l
0.5582 0.1718 l
0.5637 0.1738 l
0.5693 0.1760 l
0.5749 0.1784 l
0.5806 0.1809 l
0.5864 0.1837 l
0.5922 0.1867 l
0.5980 0.1899 l
0.6039 0.1934 l
0.6098 0.1971 l
0.6158 0.2011 l
0.6219 0.2053 l
0.6280 0.2098 l
0.6342 0.2146 l
0.6404 0.2197 l
0.6466 0.2251 l
0.6472 0.2256 l
s
[/DeviceRGB] SCS
Color1 SC
[] 0 SD
0.0045 SLW
n
0.1500 0.1500 m
0.6471 0.1500 l
s
n
0.2052 0.1500 m
0.2052 0.1600 l
s
n
0.3157 0.1500 m
0.3157 0.1600 l
s
n
0.4261 0.1500 m
0.4261 0.1600 l
s
n
0.5366 0.1500 m
0.5366 0.1600 l
s
n
0.1500 0.1500 m
0.1500 0.1700 l
s
n
0.2605 0.1500 m
0.2605 0.1700 l
s
n
0.3709 0.1500 m
0.3709 0.1700 l
s
n
0.4814 0.1500 m
0.4814 0.1700 l
s
n
0.5918 0.1500 m
0.5918 0.1700 l
s
/Font0 FFSF
0.1394 0.1094 m
GS
[0.0448 0.0000 0.0000 0.0448 0 0] CC
(0) show
GR
/Font0 FFSF
0.2330 0.1094 m
GS
[0.0448 0.0000 0.0000 0.0448 0 0] CC
(0.2) show
GR
/Font0 FFSF
0.3435 0.1094 m
GS
[0.0448 0.0000 0.0000 0.0448 0 0] CC
(0.4) show
GR
/Font0 FFSF
0.4541 0.1094 m
GS
[0.0448 0.0000 0.0000 0.0448 0 0] CC
(0.6) show
GR
/Font0 FFSF
0.5650 0.1094 m
GS
[0.0448 0.0000 0.0000 0.0448 0 0] CC
(0.8) show
GR
/Symbol findfont
/Font12 exch definefont pop
/Font12 FFSF
0.3279 0.0491 m
GS
[0.0459 0.0000 0.0000 0.0459 0 0] CC
(r) show
GR
/Font0 FFSF
0.3530 0.0491 m
GS
[0.0459 0.0000 0.0000 0.0459 0 0] CC
( [fm) show
GR
/Font0 FFSF
0.4307 0.0767 m
GS
[0.0325 0.0000 0.0000 0.0325 0 0] CC
(-3) show
GR
/Font0 FFSF
0.4577 0.0491 m
GS
[0.0459 0.0000 0.0000 0.0459 0 0] CC
(]) show
GR
n
0.1500 0.1500 m
0.1500 0.5000 l
s
n
0.1500 0.1500 m
0.1600 0.1500 l
s
n
0.1500 0.2278 m
0.1600 0.2278 l
s
n
0.1500 0.3056 m
0.1600 0.3056 l
s
n
0.1500 0.3833 m
0.1600 0.3833 l
s
n
0.1500 0.4611 m
0.1600 0.4611 l
s
n
0.1500 0.1889 m
0.1700 0.1889 l
s
n
0.1500 0.2667 m
0.1700 0.2667 l
s
n
0.1500 0.3444 m
0.1700 0.3444 l
s
n
0.1500 0.4222 m
0.1700 0.4222 l
s
n
0.1500 0.5000 m
0.1700 0.5000 l
s
/Font0 FFSF
0.0816 0.1740 m
GS
[0.0448 0.0000 0.0000 0.0448 0 0] CC
(-40) show
GR
/Font0 FFSF
0.0816 0.2518 m
GS
[0.0448 0.0000 0.0000 0.0448 0 0] CC
(-30) show
GR
/Font0 FFSF
0.0816 0.3295 m
GS
[0.0448 0.0000 0.0000 0.0448 0 0] CC
(-20) show
GR
/Font0 FFSF
0.0816 0.4073 m
GS
[0.0448 0.0000 0.0000 0.0448 0 0] CC
(-10) show
GR
/Font0 FFSF
0.1188 0.4851 m
GS
[0.0448 0.0000 0.0000 0.0448 0 0] CC
(0) show
GR
/Font0 FFSF
0.0633 0.2295 m
GS
[0.0000 0.0459 -0.0459 0.0000 0 0] CC
(\(S=1,T=0\)) show
GR
[] 0 SD
0.0015 SLW
n
0.1500 0.1500 m
0.1500 0.5000 l
0.6471 0.5000 l
0.6471 0.1500 l
0.1500 0.1500 l
c
s
n
0.6662 0.4553 0.0065 0.0065 0 360 EARC c
fill
[] 0 SD
0.0030 SLW
n 0.6662 0.4553 0.0065 0.0065 0 360 EARC s
n
0.6743 0.4420 0.0065 0.0065 0 360 EARC c
fill
n 0.6743 0.4420 0.0065 0.0065 0 360 EARC s
n
0.6844 0.4276 0.0065 0.0065 0 360 EARC c
fill
n 0.6844 0.4276 0.0065 0.0065 0 360 EARC s
n
0.6967 0.4122 0.0065 0.0065 0 360 EARC c
fill
n 0.6967 0.4122 0.0065 0.0065 0 360 EARC s
n
0.7115 0.3962 0.0065 0.0065 0 360 EARC c
fill
n 0.7115 0.3962 0.0065 0.0065 0 360 EARC s
n
0.7290 0.3794 0.0065 0.0065 0 360 EARC c
fill
n 0.7290 0.3794 0.0065 0.0065 0 360 EARC s
n
0.7494 0.3630 0.0065 0.0065 0 360 EARC c
fill
n 0.7494 0.3630 0.0065 0.0065 0 360 EARC s
n
0.7730 0.3481 0.0065 0.0065 0 360 EARC c
fill
n 0.7730 0.3481 0.0065 0.0065 0 360 EARC s
n
0.7999 0.3359 0.0065 0.0065 0 360 EARC c
fill
n 0.7999 0.3359 0.0065 0.0065 0 360 EARC s
n
0.8303 0.3279 0.0065 0.0065 0 360 EARC c
fill
n 0.8303 0.3279 0.0065 0.0065 0 360 EARC s
n
0.8646 0.3257 0.0065 0.0065 0 360 EARC c
fill
n 0.8646 0.3257 0.0065 0.0065 0 360 EARC s
n
0.9029 0.3313 0.0065 0.0065 0 360 EARC c
fill
n 0.9029 0.3313 0.0065 0.0065 0 360 EARC s
n
0.9455 0.3478 0.0065 0.0065 0 360 EARC c
fill
n 0.9455 0.3478 0.0065 0.0065 0 360 EARC s
n
0.9925 0.3770 0.0065 0.0065 0 360 EARC c
fill
n 0.9925 0.3770 0.0065 0.0065 0 360 EARC s
n
1.0443 0.4226 0.0065 0.0065 0 360 EARC c
fill
n 1.0443 0.4226 0.0065 0.0065 0 360 EARC s
n
1.1010 0.4875 0.0065 0.0065 0 360 EARC c
fill
n 1.1010 0.4875 0.0065 0.0065 0 360 EARC s
[/DeviceRGB] SCS
Color2 SC
[] 0 SD
0.0037 SLW
n
0.6471 0.5000 m
0.6471 0.5000 l
0.6471 0.5000 l
0.6471 0.5000 l
0.6471 0.5000 l
0.6471 0.5000 l
0.6471 0.5000 l
0.6471 0.5000 l
0.6471 0.4999 l
0.6471 0.4999 l
0.6471 0.4999 l
0.6471 0.4999 l
0.6471 0.4998 l
0.6472 0.4998 l
0.6472 0.4997 l
0.6472 0.4997 l
0.6472 0.4996 l
0.6473 0.4995 l
0.6473 0.4995 l
0.6474 0.4994 l
0.6474 0.4993 l
0.6475 0.4992 l
0.6475 0.4991 l
0.6476 0.4989 l
0.6476 0.4988 l
0.6477 0.4986 l
0.6478 0.4985 l
0.6479 0.4983 l
0.6480 0.4981 l
0.6481 0.4979 l
0.6482 0.4977 l
0.6483 0.4975 l
0.6484 0.4973 l
0.6485 0.4970 l
0.6487 0.4967 l
0.6488 0.4964 l
0.6489 0.4961 l
0.6491 0.4958 l
0.6493 0.4955 l
0.6494 0.4952 l
0.6496 0.4948 l
0.6498 0.4944 l
0.6500 0.4940 l
0.6502 0.4936 l
0.6505 0.4932 l
0.6507 0.4927 l
0.6509 0.4922 l
0.6512 0.4917 l
0.6514 0.4912 l
0.6517 0.4907 l
0.6520 0.4902 l
0.6523 0.4896 l
0.6526 0.4890 l
0.6529 0.4884 l
0.6533 0.4878 l
0.6536 0.4871 l
0.6540 0.4864 l
0.6543 0.4857 l
0.6547 0.4850 l
0.6551 0.4843 l
0.6555 0.4835 l
0.6560 0.4827 l
0.6564 0.4819 l
0.6568 0.4811 l
0.6573 0.4803 l
0.6578 0.4794 l
0.6583 0.4785 l
0.6588 0.4776 l
0.6593 0.4767 l
0.6599 0.4757 l
0.6604 0.4747 l
0.6610 0.4737 l
0.6616 0.4727 l
0.6622 0.4716 l
0.6628 0.4706 l
0.6634 0.4695 l
0.6641 0.4683 l
0.6648 0.4672 l
0.6655 0.4660 l
0.6662 0.4648 l
0.6669 0.4636 l
0.6676 0.4624 l
0.6684 0.4611 l
0.6692 0.4599 l
0.6700 0.4586 l
0.6708 0.4572 l
0.6716 0.4559 l
0.6725 0.4545 l
0.6734 0.4532 l
0.6743 0.4518 l
0.6752 0.4503 l
0.6761 0.4489 l
0.6771 0.4474 l
0.6780 0.4459 l
0.6790 0.4444 l
0.6801 0.4429 l
0.6811 0.4413 l
0.6822 0.4398 l
0.6833 0.4382 l
0.6844 0.4366 l
0.6855 0.4350 l
0.6866 0.4333 l
0.6878 0.4317 l
0.6890 0.4300 l
0.6902 0.4283 l
0.6915 0.4266 l
0.6928 0.4249 l
0.6941 0.4232 l
0.6954 0.4215 l
0.6967 0.4197 l
0.6981 0.4179 l
0.6995 0.4162 l
0.7009 0.4144 l
0.7023 0.4126 l
0.7038 0.4108 l
0.7053 0.4089 l
0.7068 0.4071 l
0.7084 0.4053 l
0.7099 0.4034 l
0.7115 0.4016 l
0.7131 0.3997 l
0.7148 0.3979 l
0.7165 0.3960 l
0.7182 0.3941 l
0.7199 0.3923 l
0.7217 0.3904 l
0.7235 0.3885 l
0.7253 0.3866 l
0.7271 0.3848 l
0.7290 0.3829 l
0.7309 0.3810 l
0.7329 0.3792 l
0.7348 0.3773 l
0.7368 0.3755 l
0.7388 0.3736 l
0.7409 0.3718 l
0.7430 0.3700 l
0.7451 0.3682 l
0.7472 0.3664 l
0.7494 0.3646 l
0.7516 0.3628 l
0.7539 0.3611 l
0.7561 0.3593 l
0.7585 0.3576 l
0.7608 0.3559 l
0.7632 0.3542 l
0.7656 0.3526 l
0.7680 0.3510 l
0.7705 0.3494 l
0.7730 0.3478 l
0.7755 0.3462 l
0.7781 0.3447 l
0.7807 0.3432 l
0.7833 0.3418 l
0.7860 0.3404 l
0.7887 0.3390 l
0.7914 0.3376 l
0.7942 0.3363 l
0.7970 0.3351 l
0.7999 0.3339 l
0.8027 0.3327 l
0.8057 0.3316 l
0.8086 0.3305 l
0.8116 0.3295 l
0.8146 0.3285 l
0.8177 0.3276 l
0.8208 0.3267 l
0.8239 0.3259 l
0.8271 0.3251 l
0.8303 0.3245 l
0.8336 0.3238 l
0.8369 0.3233 l
0.8402 0.3228 l
0.8436 0.3224 l
0.8470 0.3220 l
0.8504 0.3218 l
0.8539 0.3216 l
0.8575 0.3215 l
0.8610 0.3214 l
0.8646 0.3215 l
0.8683 0.3216 l
0.8720 0.3219 l
0.8757 0.3222 l
0.8795 0.3226 l
0.8833 0.3231 l
0.8871 0.3237 l
0.8910 0.3244 l
0.8949 0.3253 l
0.8989 0.3262 l
0.9029 0.3272 l
0.9070 0.3284 l
0.9111 0.3296 l
0.9153 0.3310 l
0.9194 0.3325 l
0.9237 0.3341 l
0.9280 0.3359 l
0.9323 0.3377 l
0.9366 0.3397 l
0.9410 0.3419 l
0.9455 0.3441 l
0.9500 0.3466 l
0.9545 0.3491 l
0.9591 0.3518 l
0.9638 0.3547 l
0.9685 0.3577 l
0.9732 0.3609 l
0.9780 0.3642 l
0.9828 0.3677 l
0.9876 0.3713 l
0.9925 0.3752 l
0.9975 0.3792 l
1.0025 0.3833 l
1.0076 0.3877 l
1.0127 0.3922 l
1.0178 0.3970 l
1.0230 0.4019 l
1.0283 0.4070 l
1.0336 0.4123 l
1.0389 0.4178 l
1.0443 0.4235 l
1.0497 0.4294 l
1.0552 0.4356 l
1.0608 0.4419 l
1.0664 0.4485 l
1.0720 0.4553 l
1.0777 0.4623 l
1.0834 0.4695 l
1.0892 0.4770 l
1.0951 0.4848 l
1.1010 0.4927 l
1.1063 0.5001 l
s
[/DeviceRGB] SCS
Color4 SC
n
0.6471 0.5000 m
0.6471 0.5000 l
0.6471 0.5000 l
0.6471 0.5000 l
0.6471 0.5000 l
0.6471 0.5000 l
0.6471 0.5000 l
0.6471 0.5000 l
0.6471 0.4999 l
0.6471 0.4999 l
0.6471 0.4999 l
0.6471 0.4999 l
0.6471 0.4998 l
0.6472 0.4998 l
0.6472 0.4997 l
0.6472 0.4996 l
0.6472 0.4996 l
0.6473 0.4995 l
0.6473 0.4994 l
0.6474 0.4993 l
0.6474 0.4992 l
0.6475 0.4991 l
0.6475 0.4990 l
0.6476 0.4988 l
0.6476 0.4987 l
0.6477 0.4985 l
0.6478 0.4983 l
0.6479 0.4981 l
0.6480 0.4979 l
0.6481 0.4977 l
0.6482 0.4975 l
0.6483 0.4972 l
0.6484 0.4970 l
0.6485 0.4967 l
0.6487 0.4964 l
0.6488 0.4961 l
0.6489 0.4957 l
0.6491 0.4954 l
0.6493 0.4950 l
0.6494 0.4947 l
0.6496 0.4943 l
0.6498 0.4938 l
0.6500 0.4934 l
0.6502 0.4929 l
0.6505 0.4925 l
0.6507 0.4920 l
0.6509 0.4914 l
0.6512 0.4909 l
0.6514 0.4903 l
0.6517 0.4898 l
0.6520 0.4892 l
0.6523 0.4885 l
0.6526 0.4879 l
0.6529 0.4872 l
0.6533 0.4866 l
0.6536 0.4858 l
0.6540 0.4851 l
0.6543 0.4844 l
0.6547 0.4836 l
0.6551 0.4828 l
0.6555 0.4820 l
0.6560 0.4811 l
0.6564 0.4802 l
0.6568 0.4793 l
0.6573 0.4784 l
0.6578 0.4775 l
0.6583 0.4765 l
0.6588 0.4755 l
0.6593 0.4745 l
0.6599 0.4735 l
0.6604 0.4724 l
0.6610 0.4714 l
0.6616 0.4703 l
0.6622 0.4691 l
0.6628 0.4680 l
0.6634 0.4668 l
0.6641 0.4656 l
0.6648 0.4644 l
0.6655 0.4632 l
0.6662 0.4619 l
0.6669 0.4606 l
0.6676 0.4593 l
0.6684 0.4580 l
0.6692 0.4566 l
0.6700 0.4552 l
0.6708 0.4538 l
0.6716 0.4524 l
0.6725 0.4510 l
0.6734 0.4495 l
0.6743 0.4481 l
0.6752 0.4466 l
0.6761 0.4450 l
0.6771 0.4435 l
0.6780 0.4419 l
0.6790 0.4404 l
0.6801 0.4388 l
0.6811 0.4372 l
0.6822 0.4355 l
0.6833 0.4339 l
0.6844 0.4322 l
0.6855 0.4306 l
0.6866 0.4289 l
0.6878 0.4272 l
0.6890 0.4255 l
0.6902 0.4237 l
0.6915 0.4220 l
0.6928 0.4202 l
0.6941 0.4185 l
0.6954 0.4167 l
0.6967 0.4149 l
0.6981 0.4131 l
0.6995 0.4113 l
0.7009 0.4095 l
0.7023 0.4076 l
0.7038 0.4058 l
0.7053 0.4040 l
0.7068 0.4021 l
0.7084 0.4003 l
0.7099 0.3984 l
0.7115 0.3966 l
0.7131 0.3947 l
0.7148 0.3929 l
0.7165 0.3910 l
0.7182 0.3892 l
0.7199 0.3873 l
0.7217 0.3855 l
0.7235 0.3837 l
0.7253 0.3818 l
0.7271 0.3800 l
0.7290 0.3782 l
0.7309 0.3764 l
0.7329 0.3746 l
0.7348 0.3728 l
0.7368 0.3710 l
0.7388 0.3692 l
0.7409 0.3675 l
0.7430 0.3657 l
0.7451 0.3640 l
0.7472 0.3623 l
0.7494 0.3606 l
0.7516 0.3589 l
0.7539 0.3573 l
0.7561 0.3557 l
0.7585 0.3541 l
0.7608 0.3525 l
0.7632 0.3509 l
0.7656 0.3494 l
0.7680 0.3479 l
0.7705 0.3465 l
0.7730 0.3450 l
0.7755 0.3436 l
0.7781 0.3423 l
0.7807 0.3409 l
0.7833 0.3397 l
0.7860 0.3384 l
0.7887 0.3372 l
0.7914 0.3360 l
0.7942 0.3349 l
0.7970 0.3338 l
0.7999 0.3328 l
0.8027 0.3318 l
0.8057 0.3309 l
0.8086 0.3300 l
0.8116 0.3292 l
0.8146 0.3284 l
0.8177 0.3277 l
0.8208 0.3271 l
0.8239 0.3265 l
0.8271 0.3259 l
0.8303 0.3255 l
0.8336 0.3251 l
0.8369 0.3247 l
0.8402 0.3245 l
0.8436 0.3243 l
0.8470 0.3242 l
0.8504 0.3241 l
0.8539 0.3241 l
0.8575 0.3242 l
0.8610 0.3244 l
0.8646 0.3247 l
0.8683 0.3250 l
0.8720 0.3255 l
0.8757 0.3260 l
0.8795 0.3266 l
0.8833 0.3273 l
0.8871 0.3281 l
0.8910 0.3290 l
0.8949 0.3300 l
0.8989 0.3310 l
0.9029 0.3322 l
0.9070 0.3335 l
0.9111 0.3349 l
0.9153 0.3364 l
0.9194 0.3380 l
0.9237 0.3397 l
0.9280 0.3415 l
0.9323 0.3435 l
0.9366 0.3455 l
0.9410 0.3477 l
0.9455 0.3500 l
0.9500 0.3524 l
0.9545 0.3550 l
0.9591 0.3576 l
0.9638 0.3604 l
0.9685 0.3634 l
0.9732 0.3664 l
0.9780 0.3696 l
0.9828 0.3729 l
0.9876 0.3764 l
0.9925 0.3800 l
0.9975 0.3837 l
1.0025 0.3876 l
1.0076 0.3917 l
1.0127 0.3959 l
1.0178 0.4002 l
1.0230 0.4047 l
1.0283 0.4093 l
1.0336 0.4141 l
1.0389 0.4191 l
1.0443 0.4242 l
1.0497 0.4295 l
1.0552 0.4349 l
1.0608 0.4405 l
1.0664 0.4463 l
1.0720 0.4523 l
1.0777 0.4584 l
1.0834 0.4647 l
1.0892 0.4712 l
1.0951 0.4778 l
1.1010 0.4846 l
1.1069 0.4916 l
1.1129 0.4988 l
1.1139 0.5001 l
s
[/DeviceRGB] SCS
Color3 SC
n
0.6471 0.5000 m
0.6471 0.5000 l
0.6471 0.5000 l
0.6471 0.5000 l
0.6471 0.5000 l
0.6471 0.5000 l
0.6471 0.5000 l
0.6471 0.4999 l
0.6471 0.4999 l
0.6471 0.4999 l
0.6471 0.4999 l
0.6471 0.4998 l
0.6471 0.4998 l
0.6472 0.4997 l
0.6472 0.4997 l
0.6472 0.4996 l
0.6472 0.4995 l
0.6473 0.4994 l
0.6473 0.4993 l
0.6474 0.4992 l
0.6474 0.4991 l
0.6475 0.4990 l
0.6475 0.4988 l
0.6476 0.4987 l
0.6476 0.4985 l
0.6477 0.4983 l
0.6478 0.4981 l
0.6479 0.4979 l
0.6480 0.4977 l
0.6481 0.4974 l
0.6482 0.4971 l
0.6483 0.4969 l
0.6484 0.4966 l
0.6485 0.4963 l
0.6487 0.4959 l
0.6488 0.4956 l
0.6489 0.4952 l
0.6491 0.4948 l
0.6493 0.4944 l
0.6494 0.4940 l
0.6496 0.4935 l
0.6498 0.4931 l
0.6500 0.4926 l
0.6502 0.4921 l
0.6505 0.4916 l
0.6507 0.4910 l
0.6509 0.4904 l
0.6512 0.4899 l
0.6514 0.4892 l
0.6517 0.4886 l
0.6520 0.4879 l
0.6523 0.4873 l
0.6526 0.4866 l
0.6529 0.4858 l
0.6533 0.4851 l
0.6536 0.4843 l
0.6540 0.4835 l
0.6543 0.4827 l
0.6547 0.4819 l
0.6551 0.4810 l
0.6555 0.4801 l
0.6560 0.4792 l
0.6564 0.4783 l
0.6568 0.4773 l
0.6573 0.4763 l
0.6578 0.4753 l
0.6583 0.4743 l
0.6588 0.4733 l
0.6593 0.4722 l
0.6599 0.4711 l
0.6604 0.4700 l
0.6610 0.4688 l
0.6616 0.4677 l
0.6622 0.4665 l
0.6628 0.4653 l
0.6634 0.4641 l
0.6641 0.4628 l
0.6648 0.4616 l
0.6655 0.4603 l
0.6662 0.4590 l
0.6669 0.4576 l
0.6676 0.4563 l
0.6684 0.4549 l
0.6692 0.4535 l
0.6700 0.4521 l
0.6708 0.4507 l
0.6716 0.4492 l
0.6725 0.4478 l
0.6734 0.4463 l
0.6743 0.4448 l
0.6752 0.4433 l
0.6761 0.4417 l
0.6771 0.4402 l
0.6780 0.4386 l
0.6790 0.4371 l
0.6801 0.4355 l
0.6811 0.4339 l
0.6822 0.4322 l
0.6833 0.4306 l
0.6844 0.4290 l
0.6855 0.4273 l
0.6866 0.4257 l
0.6878 0.4240 l
0.6890 0.4223 l
0.6902 0.4206 l
0.6915 0.4189 l
0.6928 0.4172 l
0.6941 0.4155 l
0.6954 0.4138 l
0.6967 0.4120 l
0.6981 0.4103 l
0.6995 0.4086 l
0.7009 0.4068 l
0.7023 0.4051 l
0.7038 0.4033 l
0.7053 0.4016 l
0.7068 0.3998 l
0.7084 0.3981 l
0.7099 0.3963 l
0.7115 0.3946 l
0.7131 0.3928 l
0.7148 0.3911 l
0.7165 0.3894 l
0.7182 0.3876 l
0.7199 0.3859 l
0.7217 0.3842 l
0.7235 0.3825 l
0.7253 0.3808 l
0.7271 0.3791 l
0.7290 0.3774 l
0.7309 0.3757 l
0.7329 0.3740 l
0.7348 0.3724 l
0.7368 0.3707 l
0.7388 0.3691 l
0.7409 0.3675 l
0.7430 0.3659 l
0.7451 0.3643 l
0.7472 0.3628 l
0.7494 0.3612 l
0.7516 0.3597 l
0.7539 0.3582 l
0.7561 0.3567 l
0.7585 0.3552 l
0.7608 0.3538 l
0.7632 0.3524 l
0.7656 0.3510 l
0.7680 0.3497 l
0.7705 0.3483 l
0.7730 0.3470 l
0.7755 0.3458 l
0.7781 0.3445 l
0.7807 0.3433 l
0.7833 0.3421 l
0.7860 0.3410 l
0.7887 0.3399 l
0.7914 0.3388 l
0.7942 0.3378 l
0.7970 0.3368 l
0.7999 0.3358 l
0.8027 0.3349 l
0.8057 0.3340 l
0.8086 0.3332 l
0.8116 0.3324 l
0.8146 0.3317 l
0.8177 0.3310 l
0.8208 0.3304 l
0.8239 0.3298 l
0.8271 0.3292 l
0.8303 0.3288 l
0.8336 0.3283 l
0.8369 0.3280 l
0.8402 0.3276 l
0.8436 0.3274 l
0.8470 0.3272 l
0.8504 0.3271 l
0.8539 0.3270 l
0.8575 0.3270 l
0.8610 0.3271 l
0.8646 0.3272 l
0.8683 0.3274 l
0.8720 0.3277 l
0.8757 0.3281 l
0.8795 0.3285 l
0.8833 0.3290 l
0.8871 0.3296 l
0.8910 0.3303 l
0.8949 0.3311 l
0.8989 0.3319 l
0.9029 0.3329 l
0.9070 0.3339 l
0.9111 0.3351 l
0.9153 0.3363 l
0.9194 0.3377 l
0.9237 0.3391 l
0.9280 0.3407 l
0.9323 0.3424 l
0.9366 0.3442 l
0.9410 0.3461 l
0.9455 0.3481 l
0.9500 0.3502 l
0.9545 0.3525 l
0.9591 0.3550 l
0.9638 0.3575 l
0.9685 0.3602 l
0.9732 0.3630 l
0.9780 0.3660 l
0.9828 0.3692 l
0.9876 0.3725 l
0.9925 0.3759 l
0.9975 0.3796 l
1.0025 0.3834 l
1.0076 0.3874 l
1.0127 0.3916 l
1.0178 0.3959 l
1.0230 0.4005 l
1.0283 0.4052 l
1.0336 0.4102 l
1.0389 0.4154 l
1.0443 0.4208 l
1.0497 0.4264 l
1.0552 0.4323 l
1.0608 0.4384 l
1.0664 0.4448 l
1.0720 0.4514 l
1.0777 0.4583 l
1.0834 0.4655 l
1.0892 0.4729 l
1.0951 0.4807 l
1.1010 0.4887 l
1.1069 0.4971 l
1.1090 0.5001 l
s
[/DeviceRGB] SCS
Color1 SC
[] 0 SD
0.0045 SLW
n
0.6471 0.1500 m
1.1441 0.1500 l
s
n
0.7023 0.1500 m
0.7023 0.1600 l
s
n
0.8127 0.1500 m
0.8127 0.1600 l
s
n
0.9232 0.1500 m
0.9232 0.1600 l
s
n
1.0337 0.1500 m
1.0337 0.1600 l
s
n
1.1441 0.1500 m
1.1441 0.1600 l
s
n
0.6471 0.1500 m
0.6471 0.1700 l
s
n
0.7575 0.1500 m
0.7575 0.1700 l
s
n
0.8680 0.1500 m
0.8680 0.1700 l
s
n
0.9784 0.1500 m
0.9784 0.1700 l
s
n
1.0889 0.1500 m
1.0889 0.1700 l
s
/Font0 FFSF
0.6365 0.1094 m
GS
[0.0448 0.0000 0.0000 0.0448 0 0] CC
(0) show
GR
/Font0 FFSF
0.7301 0.1094 m
GS
[0.0448 0.0000 0.0000 0.0448 0 0] CC
(0.2) show
GR
/Font0 FFSF
0.8405 0.1094 m
GS
[0.0448 0.0000 0.0000 0.0448 0 0] CC
(0.4) show
GR
/Font0 FFSF
0.9512 0.1094 m
GS
[0.0448 0.0000 0.0000 0.0448 0 0] CC
(0.6) show
GR
/Font0 FFSF
1.0620 0.1094 m
GS
[0.0448 0.0000 0.0000 0.0448 0 0] CC
(0.8) show
GR
/Font12 FFSF
0.8250 0.0491 m
GS
[0.0459 0.0000 0.0000 0.0459 0 0] CC
(r) show
GR
/Font0 FFSF
0.8501 0.0491 m
GS
[0.0459 0.0000 0.0000 0.0459 0 0] CC
( [fm) show
GR
/Font0 FFSF
0.9277 0.0767 m
GS
[0.0325 0.0000 0.0000 0.0325 0 0] CC
(-3) show
GR
/Font0 FFSF
0.9548 0.0491 m
GS
[0.0459 0.0000 0.0000 0.0459 0 0] CC
(]) show
GR
n
0.6471 0.1500 m
0.6471 0.5000 l
s
n
1.1441 0.1500 m
1.1441 0.5000 l
s
n
0.6471 0.1500 m
0.6571 0.1500 l
s
n
1.1441 0.1500 m
1.1341 0.1500 l
s
n
0.6471 0.2278 m
0.6571 0.2278 l
s
n
1.1441 0.2278 m
1.1341 0.2278 l
s
n
0.6471 0.3056 m
0.6571 0.3056 l
s
n
1.1441 0.3056 m
1.1341 0.3056 l
s
n
0.6471 0.3833 m
0.6571 0.3833 l
s
n
1.1441 0.3833 m
1.1341 0.3833 l
s
n
0.6471 0.4611 m
0.6571 0.4611 l
s
n
1.1441 0.4611 m
1.1341 0.4611 l
s
n
0.6471 0.1889 m
0.6671 0.1889 l
s
n
1.1441 0.1889 m
1.1241 0.1889 l
s
n
0.6471 0.2667 m
0.6671 0.2667 l
s
n
1.1441 0.2667 m
1.1241 0.2667 l
s
n
0.6471 0.3444 m
0.6671 0.3444 l
s
n
1.1441 0.3444 m
1.1241 0.3444 l
s
n
0.6471 0.4222 m
0.6671 0.4222 l
s
n
1.1441 0.4222 m
1.1241 0.4222 l
s
n
0.6471 0.5000 m
0.6671 0.5000 l
s
n
1.1441 0.5000 m
1.1241 0.5000 l
s
/Font0 FFSF
1.1541 0.1740 m
GS
[0.0448 0.0000 0.0000 0.0448 0 0] CC
(-40) show
GR
/Font0 FFSF
1.1541 0.2518 m
GS
[0.0448 0.0000 0.0000 0.0448 0 0] CC
(-30) show
GR
/Font0 FFSF
1.1541 0.3295 m
GS
[0.0448 0.0000 0.0000 0.0448 0 0] CC
(-20) show
GR
/Font0 FFSF
1.1541 0.4073 m
GS
[0.0448 0.0000 0.0000 0.0448 0 0] CC
(-10) show
GR
/Font0 FFSF
1.1541 0.4851 m
GS
[0.0448 0.0000 0.0000 0.0448 0 0] CC
(0) show
GR
/Font0 FFSF
1.2539 0.2295 m
GS
[0.0000 0.0459 -0.0459 0.0000 0 0] CC
(\(S=0,T=1\)) show
GR
[] 0 SD
0.0015 SLW
n
0.6471 0.1500 m
0.6471 0.5000 l
1.1441 0.5000 l
1.1441 0.1500 l
0.6471 0.1500 l
c
s
%%Trailer
%%BoundingBox: 18 22 774 531
%%DocumentNeededResources: font Times-Roman
%%+ font Symbol
%%EOF
