\relax 
\citation{ben03}
\citation{tod05}
\citation{gor09}
\citation{erl13}
\citation{sky59}
\citation{per04}
\citation{vau72}
\citation{sad13}
\citation{vau72}
\citation{dob14}
\citation{ber07}
\citation{fur11}
\citation{kor10}
\citation{kor13}
\citation{ben03}
\citation{yan07}
\citation{les07}
\citation{sad13}
\citation{car08}
\citation{car10}
\citation{les06}
\citation{hel13}
\citation{pas15}
\citation{rai11}
\citation{bec14}
\citation{dav14k}
\citation{car10b}
\citation{pas13}
\citation{cha97}
\citation{wir95}
\citation{bal97}
\citation{som08}
\citation{Bom05}
\citation{vid09}
\citation{tew13}
\citation{les06}
\citation{les06}
\citation{dav14k}
\citation{les07}
\newlabel{FirstPage}{{}{1}{}{}{}}
\@writefile{toc}{\contentsline {section}{\numberline {I}Introduction}{1}{}}
\citation{car08}
\citation{rai11}
\citation{bec14}
\citation{dav14k}
\citation{dav14c}
\citation{ben03}
\citation{dav13}
\citation{dav14c}
\citation{dav13}
\@writefile{toc}{\contentsline {section}{\numberline {II}Formalism}{2}{}}
\newlabel{sec:for}{{II}{2}{}{}{}}
\newlabel{pseudo:skyrme}{{1}{2}{}{}{}}
\newlabel{eq:vcen}{{2}{2}{}{}{}}
\newlabel{V-four}{{2}{2}{}{}{}}
\newlabel{eq:Skyrme:LS}{{3}{2}{}{}{}}
\newlabel{eq:teto}{{5}{2}{}{}{}}
\newlabel{eos:st1}{{7}{2}{}{}{}}
\newlabel{eos:st2a}{{8}{2}{}{}{}}
\citation{dav14k}
\citation{bal97}
\citation{heb11}
\citation{bog05}
\citation{rot08}
\citation{gor03}
\citation{kou12}
\citation{klu09}
\citation{car08}
\citation{rai11}
\citation{dav13}
\citation{les06}
\citation{bal97}
\citation{hebeler}
\citation{bog05}
\citation{rot08}
\newlabel{eos:st2b}{{10}{3}{}{}{}}
\newlabel{eos:st2c}{{11}{3}{}{}{}}
\newlabel{eos:st2d}{{11}{3}{}{}{}}
\newlabel{ondeS}{{12}{3}{}{}{}}
\newlabel{ondeF}{{17}{3}{}{}{}}
\@writefile{toc}{\contentsline {section}{\numberline {III}Results\nobreakspace  {}: $(S,T)$ channels}{3}{}}
\newlabel{sec:res1}{{III}{3}{}{}{}}
\citation{les07}
\@writefile{lof}{\contentsline {figure}{\numberline {1}{\ignorespaces (Color online) N2LO fits of ${\cal  V}^{(S,T)}(\rho )$, expressend in MeV, to the BHF (full dots), $\chi $-EFT (full diamonds) and MBPT (triangles) results.}}{4}{}}
\newlabel{fig:diff}{{1}{4}{}{}{}}
\@writefile{lot}{\contentsline {table}{\numberline {I}{\ignorespaces The parameters of the VLyB6$\ell $ and VLyB3$\ell $ pseudo-potentials, fitted using a standard density dependent term. Missing entries are zero, and n.d. stands for not determined (see text).}}{4}{}}
\newlabel{tab:nall}{{I}{4}{}{}{}}
\citation{bal14}
\citation{dav14c}
\citation{prep}
\@writefile{lof}{\contentsline {figure}{\numberline {2}{\ignorespaces (Color online) N$\ell $LO fits of ${\cal  V}^{(S,T)}(\rho )$, expressend in MeV, to the BHF (dots) results.}}{5}{}}
\newlabel{fig:diff2}{{2}{5}{}{}{}}
\@writefile{toc}{\contentsline {section}{\numberline {IV}Results\nobreakspace  {}: partial waves}{5}{}}
\newlabel{sec:res2}{{IV}{5}{}{}{}}
\@writefile{lof}{\contentsline {figure}{\numberline {3}{\ignorespaces (Color online) Comparing the partial waves ${\cal  V}(^{2S+1}L_J)$. The dots are the BHF results, and the lines are the results of our fit with VLyB3.}}{5}{}}
\newlabel{fig:jlst}{{3}{5}{}{}{}}
\@writefile{toc}{\contentsline {section}{\numberline {V}Conclusions}{5}{}}
\newlabel{sec:conl}{{V}{5}{}{}{}}
\bibdata{biblio}
\bibcite{ben03}{{1}{2003}{{Bender et~al.}}{{Bender, Heenen, and Reinhard}}}
\bibcite{tod05}{{2}{2005}{{Todd-Rutel and Piekarewicz}}{{}}}
\bibcite{gor09}{{3}{2009}{{Goriely et~al.}}{{Goriely, Chamel, and Pearson}}}
\bibcite{erl13}{{4}{2013}{{Erler et~al.}}{{Erler, Horowitz, Nazarewicz, Rafalski, and Reinhard}}}
\bibcite{sky59}{{5}{1959}{{Skyrme}}{{}}}
\bibcite{per04}{{6}{2004}{{Perli\'{n}{}ska et~al.}}{{Perli\'{n}{}ska, Rohozi\'{n}{}ski, Dobaczewski, and Nazarewicz}}}
\bibcite{vau72}{{7}{1972}{{Vautherin and Brink}}{{}}}
\bibcite{sad13}{{8}{2013}{{Sadoudi et~al.}}{{Sadoudi, Duguet, Meyer, and Bender}}}
\bibcite{dob14}{{9}{2014}{{Dobaczewski et~al.}}{{Dobaczewski, Nazarewicz, and Reinhard}}}
\bibcite{ber07}{{10}{2007}{{Bertsch et~al.}}{{Bertsch, Dean, and Nazarewicz}}}
\bibcite{fur11}{{11}{2011}{{Furnstahl}}{{}}}
\bibcite{kor10}{{12}{2010}{{Kortelainen et~al.}}{{Kortelainen, Lesinski, Mor\'e, Nazarewicz, Sarich, Schunck, Stoitsov, and Wild}}}
\bibcite{kor13}{{13}{2014}{{Kortelainen et~al.}}{{Kortelainen, McDonnell, Nazarewicz, Olsen, Reinhard, Sarich, Schunck, Wild, Davesne, Erler et~al.}}}
\bibcite{yan07}{{14}{2007}{{Yannouleas and Landman}}{{}}}
\bibcite{les07}{{15}{2007}{{Lesinski et~al.}}{{Lesinski, Bender, Bennaceur, Duguet, and Meyer}}}
\bibcite{car08}{{16}{2008}{{Carlsson et~al.}}{{Carlsson, Dobaczewski, and Kortelainen}}}
\bibcite{car10}{{17}{2010}{{Carlsson and Dobaczewski}}{{}}}
\bibcite{les06}{{18}{2006}{{Lesinski et~al.}}{{Lesinski, Bennaceur, Duguet, and Meyer}}}
\bibcite{hel13}{{19}{2013}{{Hellemans et~al.}}{{Hellemans, Pastore, Duguet, Bennaceur, Davesne, Meyer, Bender, and Heenen}}}
\bibcite{pas15}{{20}{2015}{{Pastore et~al.}}{{Pastore, Davesne, and Navarro}}}
\bibcite{rai11}{{21}{2011}{{Raimondi et~al.}}{{Raimondi, Carlsson, and Dobaczewski}}}
\bibcite{bec14}{{22}{2014}{{Becker et~al.}}{{Becker, Davesne, Meyer, Pastore, and Navarro}}}
\bibcite{dav14k}{{23}{2015}{{Davesne et~al.}}{{Davesne, Meyer, Pastore, and Navarro}}}
\bibcite{car10b}{{24}{2010}{{Carlsson et~al.}}{{Carlsson, Dobaczewski, Toivanen, and Vesel\'y}}}
\bibcite{pas13}{{25}{2013}{{Pastore et~al.}}{{Pastore, Davesne, Bennaceur, Meyer, and Hellemans}}}
\bibcite{cha97}{{26}{1997}{{Chabanat et~al.}}{{Chabanat, Bonche, Haensel, Meyer, and Schaeffer}}}
\bibcite{wir95}{{27}{1995}{{Wiringa et~al.}}{{Wiringa, Stoks, and Schiavilla}}}
\bibcite{bal97}{{28}{1997}{{Baldo et~al.}}{{Baldo, Bombaci, and Burgio}}}
\bibcite{som08}{{29}{2008}{{Som\`a and Bozek}}{{}}}
\bibcite{Bom05}{{30}{2005}{{Bombaci et~al.}}{{Bombaci, Fabrocini, Polls, and Vidana}}}
\bibcite{vid09}{{31}{2009}{{Vida\~na et~al.}}{{Vida\~na, Provid\^encia, Polls, and Rios}}}
\bibcite{tew13}{{32}{2013}{{Tews et~al.}}{{Tews, Kr\"uger, Hebeler, and Schwenk}}}
\bibcite{dav14c}{{33}{2014}{{Davesne et~al.}}{{Davesne, Pastore, and Navarro}}}
\bibcite{dav13}{{34}{2013}{{Davesne et~al.}}{{Davesne, Pastore, and Navarro}}}
\@writefile{toc}{\contentsline {section}{\numberline {}Acknowledgments}{6}{}}
\@writefile{toc}{\contentsline {section}{\numberline {}References}{6}{}}
\bibcite{heb11}{{35}{2011}{{Hebeler et~al.}}{{Hebeler, Bogner, Furnstahl, Nogga, and Schwenk}}}
\bibcite{bog05}{{36}{2005}{{Bogner et~al.}}{{Bogner, Schwenk, Furnstahl, and Nogga}}}
\bibcite{rot08}{{37}{2008}{{Rotival}}{{}}}
\bibcite{gor03}{{38}{2003}{{Goriely et~al.}}{{Goriely, Samyn, Bender, and Pearson}}}
\bibcite{kou12}{{39}{2012}{{Washiyama et~al.}}{{Washiyama, Bennaceur, Avez, Bender, Heenen, and Hellemans}}}
\bibcite{klu09}{{40}{2009}{{Kl\"upfel et~al.}}{{Kl\"upfel, Reinhard, B\"urvenich, and Maruhn}}}
\bibcite{hebeler}{{41}{2014}{{Hebeler}}{{}}}
\bibcite{bal14}{{42}{2014}{{Baldo}}{{}}}
\bibcite{prep}{{43}{2014}{{Pastore et~al.}}{{Pastore, Davesne, and Navarro}}}
\global \chardef \firstnote@num43\relax 
\bibstyle{apsrev}
\newlabel{LastPage}{{}{6}}
\newlabel{LastBibItem}{{43}{7}{}{}{}}
