%!PS-Adobe-3.0
%%BoundingBox: 0 0 612 792
%%LanguageLevel: 2
%%Creator: Grace-5.1.25
%%CreationDate: Wed Sep 21 09:14:35 2016
%%DocumentData: Clean8Bit
%%Orientation: Landscape
%%Pages: 1
%%PageOrder: Ascend
%%Title: /Users/ap1450/Dropbox/physics_reports_lr/ANNALS/After_referee/EsurApnm_gogny.agr
%%For: ap1450
%%DocumentNeededResources: (atend)
%%EndComments
%%BeginProlog
/PAGE_OFFSET_X 0 def
/PAGE_OFFSET_Y 0 def
/m {moveto} def
/l {lineto} def
/s {stroke} def
/n {newpath} def
/c {closepath} def
/RL {rlineto} def
/SLW {setlinewidth} def
/GS {gsave} def
/GR {grestore} def
/SC {setcolor} def
/SGRY {setgray} def
/SRGB {setrgbcolor} def
/SD {setdash} def
/SLC {setlinecap} def
/SLJ {setlinejoin} def
/SCS {setcolorspace} def
/FFSF {findfont setfont} def
/CC {concat} def
/PXL {n m 0 0 RL s} def
/Color0 {1.0000 1.0000 1.0000} def
/Color1 {0.0000 0.0000 0.0000} def
/Color2 {1.0000 0.0000 0.0000} def
/Color3 {0.0000 1.0000 0.0000} def
/Color4 {0.0000 0.0000 1.0000} def
/Color5 {1.0000 1.0000 0.0000} def
/Color6 {0.7373 0.5608 0.5608} def
/Color7 {0.8627 0.8627 0.8627} def
/Color8 {0.5804 0.0000 0.8275} def
/Color9 {0.0000 1.0000 1.0000} def
/Color10 {1.0000 0.0000 1.0000} def
/Color11 {1.0000 0.6471 0.0000} def
/Color12 {0.4471 0.1294 0.7373} def
/Color13 {0.4039 0.0275 0.2824} def
/Color14 {0.2510 0.8784 0.8157} def
/Color15 {0.0000 0.5451 0.0000} def
/Color16 {0.7529 0.7529 0.7529} def
/Color17 {0.5059 0.5059 0.5059} def
/Color18 {0.2588 0.2588 0.2588} def
/PTRN {
 /pat_bits exch def 
 <<
  /PaintType 2
  /PatternType 1 /TilingType 1
  /BBox[0 0 16 16]
  /XStep 16 /YStep 16
  /PaintProc {
   pop
   16 16 true [-1 0 0 -1 16 16] pat_bits imagemask
  }
 >>
 [0.0016 0 0 0.0016 0 0]
 makepattern
} def
/Pattern0 {<0000000000000000000000000000000000000000000000000000000000000000> PTRN} bind def
/Pattern1 {<ffffffffffffffffffffffffffffffffffffffffffffffffffffffffffffffff> PTRN} bind def
/Pattern2 {<eeeeffffbbbbffffeeeeffffbbbbffffeeeeffffbbbbffffeeeeffffbbbbffff> PTRN} bind def
/Pattern3 {<eeeebbbbeeeebbbbeeeebbbbeeeebbbbeeeebbbbeeeebbbbeeeebbbbeeeebbbb> PTRN} bind def
/Pattern4 {<5555aaaa5555aaaa5555aaaa5555aaaa5555aaaa5555aaaa5555aaaa5555aaaa> PTRN} bind def
/Pattern5 {<1111444411114444111144441111444411114444111144441111444411114444> PTRN} bind def
/Pattern6 {<1111000044440000111100004444000011110000444400001111000044440000> PTRN} bind def
/Pattern7 {<1010000000000000010100000000000010100000000000000101000000000000> PTRN} bind def
/Pattern8 {<0000000000000000000000000000000000000000000000000000000000000000> PTRN} bind def
/Pattern9 {<1e1e0f0f8787c3c3e1e1f0f078783c3c1e1e0f0f8787c3c3e1e1f0f078783c3c> PTRN} bind def
/Pattern10 {<7878f0f0e1e1c3c387870f0f1e1e3c3c7878f0f0e1e1c3c387870f0f1e1e3c3c> PTRN} bind def
/Pattern11 {<3333333333333333333333333333333333333333333333333333333333333333> PTRN} bind def
/Pattern12 {<ffffffff00000000ffffffff00000000ffffffff00000000ffffffff00000000> PTRN} bind def
/Pattern13 {<8181424224241818181824244242818181814242242418181818242442428181> PTRN} bind def
/Pattern14 {<8080404020201010080804040202010180804040202010100808040402020101> PTRN} bind def
/Pattern15 {<0101020204040808101020204040808001010202040408081010202040408080> PTRN} bind def
/Pattern16 {<2222222222222222222222222222222222222222222222222222222222222222> PTRN} bind def
/Pattern17 {<0000ffff000000000000ffff000000000000ffff000000000000ffff00000000> PTRN} bind def
/Pattern18 {<2222ffff222222222222ffff222222222222ffff222222222222ffff22222222> PTRN} bind def
/Pattern19 {<ffffffff33333333ffffffff33333333ffffffff33333333ffffffff33333333> PTRN} bind def
/Pattern20 {<0f0f0f0f0f0f0f0ff0f0f0f0f0f0f0f00f0f0f0f0f0f0f0ff0f0f0f0f0f0f0f0> PTRN} bind def
/Pattern21 {<ff00ff00ff00ff00ff00ff00ff00ff0000ff00ff00ff00ff00ff00ff00ff00ff> PTRN} bind def
/Pattern22 {<8001800180018001800180018001ffffffff8001800180018001800180018001> PTRN} bind def
/Pattern23 {<c003c003c003c003c003c003ffffffffffffffffc003c003c003c003c003c003> PTRN} bind def
/Pattern24 {<040404040404ffff404040404040ffff040404040404ffff404040404040ffff> PTRN} bind def
/Pattern25 {<180018001800180018001800ffffffff001800180018001800180018ffffffff> PTRN} bind def
/Pattern26 {<1111b8b87c7c3a3a1111a3a3c7c78b8b1111b8b87c7c3a3a1111a3a3c7c78b8b> PTRN} bind def
/Pattern27 {<101010102828c7c70101010182827c7c101010102828c7c70101010182827c7c> PTRN} bind def
/Pattern28 {<1c1c121211112121c1c12121111112121c1c121211112121c1c1212111111212> PTRN} bind def
/Pattern29 {<3e3e414180808080e3e31414080808083e3e414180808080e3e3141408080808> PTRN} bind def
/Pattern30 {<4848888884848383848488884848383848488888848483838484888848483838> PTRN} bind def
/Pattern31 {<03030404080808080c0c12122121c0c003030404080808080c0c12122121c0c0> PTRN} bind def
/ellipsedict 8 dict def
ellipsedict /mtrx matrix put
/EARC {
 ellipsedict begin
  /endangle exch def
  /startangle exch def
  /yrad exch def
  /xrad exch def
  /y exch def
  /x exch def
  /savematrix mtrx currentmatrix def
  x y translate
  xrad yrad scale
  0 0 1 startangle endangle arc
  savematrix setmatrix
 end
} def
/TL {
  /kcomp exch def
  /linewidth exch def
  /offset exch def
  GS
  0 offset rmoveto
  linewidth SLW
  dup stringwidth exch kcomp add exch RL s
  GR
} def
/KINIT
{
 /kvector exch def
 /kid 0 def
} def
/KPROC
{
 pop pop
 kvector kid get
 0 rmoveto
 /kid 1 kid add def
} def
/DefEncoding [
 /.notdef
 /.notdef
 /.notdef
 /.notdef
 /.notdef
 /.notdef
 /.notdef
 /.notdef
 /.notdef
 /.notdef
 /.notdef
 /.notdef
 /.notdef
 /.notdef
 /.notdef
 /.notdef
 /.notdef
 /.notdef
 /.notdef
 /.notdef
 /.notdef
 /.notdef
 /.notdef
 /.notdef
 /.notdef
 /.notdef
 /.notdef
 /.notdef
 /.notdef
 /.notdef
 /.notdef
 /.notdef
 /space
 /exclam
 /quotedbl
 /numbersign
 /dollar
 /percent
 /ampersand
 /quoteright
 /parenleft
 /parenright
 /asterisk
 /plus
 /comma
 /hyphen
 /period
 /slash
 /zero
 /one
 /two
 /three
 /four
 /five
 /six
 /seven
 /eight
 /nine
 /colon
 /semicolon
 /less
 /equal
 /greater
 /question
 /at
 /A
 /B
 /C
 /D
 /E
 /F
 /G
 /H
 /I
 /J
 /K
 /L
 /M
 /N
 /O
 /P
 /Q
 /R
 /S
 /T
 /U
 /V
 /W
 /X
 /Y
 /Z
 /bracketleft
 /backslash
 /bracketright
 /asciicircum
 /underscore
 /grave
 /a
 /b
 /c
 /d
 /e
 /f
 /g
 /h
 /i
 /j
 /k
 /l
 /m
 /n
 /o
 /p
 /q
 /r
 /s
 /t
 /u
 /v
 /w
 /x
 /y
 /z
 /braceleft
 /bar
 /braceright
 /asciitilde
 /.notdef
 /.notdef
 /.notdef
 /.notdef
 /.notdef
 /.notdef
 /.notdef
 /.notdef
 /.notdef
 /.notdef
 /.notdef
 /.notdef
 /.notdef
 /.notdef
 /.notdef
 /.notdef
 /.notdef
 /.notdef
 /.notdef
 /.notdef
 /.notdef
 /.notdef
 /.notdef
 /.notdef
 /.notdef
 /.notdef
 /.notdef
 /.notdef
 /.notdef
 /.notdef
 /.notdef
 /.notdef
 /.notdef
 /space
 /exclamdown
 /cent
 /sterling
 /currency
 /yen
 /brokenbar
 /section
 /dieresis
 /copyright
 /ordfeminine
 /guillemotleft
 /logicalnot
 /hyphen
 /registered
 /macron
 /degree
 /plusminus
 /twosuperior
 /threesuperior
 /acute
 /mu
 /paragraph
 /periodcentered
 /cedilla
 /onesuperior
 /ordmasculine
 /guillemotright
 /onequarter
 /onehalf
 /threequarters
 /questiondown
 /Agrave
 /Aacute
 /Acircumflex
 /Atilde
 /Adieresis
 /Aring
 /AE
 /Ccedilla
 /Egrave
 /Eacute
 /Ecircumflex
 /Edieresis
 /Igrave
 /Iacute
 /Icircumflex
 /Idieresis
 /Eth
 /Ntilde
 /Ograve
 /Oacute
 /Ocircumflex
 /Otilde
 /Odieresis
 /multiply
 /Oslash
 /Ugrave
 /Uacute
 /Ucircumflex
 /Udieresis
 /Yacute
 /Thorn
 /germandbls
 /agrave
 /aacute
 /acircumflex
 /atilde
 /adieresis
 /aring
 /ae
 /ccedilla
 /egrave
 /eacute
 /ecircumflex
 /edieresis
 /igrave
 /iacute
 /icircumflex
 /idieresis
 /eth
 /ntilde
 /ograve
 /oacute
 /ocircumflex
 /otilde
 /odieresis
 /divide
 /oslash
 /ugrave
 /uacute
 /ucircumflex
 /udieresis
 /yacute
 /thorn
 /ydieresis
] def
%%EndProlog
%%BeginSetup
%%EndSetup
%%Page: 1 1
PAGE_OFFSET_X PAGE_OFFSET_Y translate
612.00 612.00 scale
90 rotate
0.0 -1.0 translate
[/DeviceRGB] SCS
Color1 SC
[] 0 SD
0.0045 SLW
0 SLC
0 SLJ
n
0.1667 0.1721 m
0.1833 0.1820 l
0.2000 0.1897 l
0.2167 0.1961 l
0.2333 0.2017 l
0.2500 0.2067 l
0.2667 0.2114 l
0.2833 0.2157 l
0.3000 0.2197 l
0.3167 0.2235 l
0.3333 0.2271 l
0.3500 0.2305 l
0.3667 0.2337 l
0.3833 0.2367 l
0.4000 0.2396 l
0.4167 0.2424 l
0.4333 0.2451 l
0.4500 0.2476 l
0.4667 0.2500 l
0.4833 0.2523 l
0.5000 0.2545 l
0.5167 0.2567 l
0.5333 0.2587 l
0.5500 0.2607 l
0.5667 0.2625 l
0.5833 0.2643 l
0.6000 0.2660 l
0.6167 0.2677 l
0.6333 0.2692 l
0.6500 0.2707 l
0.6667 0.2722 l
0.6833 0.2735 l
0.7000 0.2748 l
0.7167 0.2761 l
0.7333 0.2773 l
0.7500 0.2784 l
0.7667 0.2795 l
0.7833 0.2805 l
0.8000 0.2815 l
0.8167 0.2824 l
0.8333 0.2833 l
0.8500 0.2842 l
0.8667 0.2849 l
0.8833 0.2857 l
0.9000 0.2864 l
0.9167 0.2870 l
0.9333 0.2876 l
0.9500 0.2882 l
0.9667 0.2888 l
0.9833 0.2892 l
1.0000 0.2897 l
1.0167 0.2901 l
1.0333 0.2905 l
1.0500 0.2908 l
1.0667 0.2911 l
1.0833 0.2914 l
1.1000 0.2917 l
1.1167 0.2919 l
1.1333 0.2920 l
1.1500 0.2922 l
1.1501 0.2922 l
s
[/DeviceRGB] SCS
Color2 SC
[0.0187 0.0112 ] 0 SD
0.0037 SLW
n
0.1667 0.1710 m
0.1833 0.1793 l
0.2000 0.1852 l
0.2167 0.1898 l
0.2333 0.1938 l
0.2500 0.1975 l
0.2667 0.2009 l
0.2833 0.2043 l
0.3000 0.2076 l
0.3167 0.2109 l
0.3333 0.2143 l
0.3500 0.2177 l
0.3667 0.2212 l
0.3833 0.2248 l
0.4000 0.2285 l
0.4167 0.2323 l
0.4333 0.2362 l
0.4500 0.2402 l
0.4667 0.2443 l
0.4833 0.2485 l
0.5000 0.2529 l
0.5167 0.2573 l
0.5333 0.2618 l
0.5500 0.2664 l
0.5667 0.2712 l
0.5833 0.2760 l
0.6000 0.2809 l
0.6167 0.2859 l
0.6333 0.2910 l
0.6500 0.2962 l
0.6667 0.3014 l
0.6833 0.3068 l
0.7000 0.3122 l
0.7167 0.3177 l
0.7333 0.3233 l
0.7500 0.3290 l
0.7667 0.3347 l
0.7833 0.3405 l
0.8000 0.3464 l
0.8167 0.3523 l
0.8333 0.3583 l
0.8500 0.3644 l
0.8667 0.3705 l
0.8833 0.3767 l
0.9000 0.3829 l
0.9167 0.3892 l
0.9333 0.3955 l
0.9500 0.4019 l
0.9667 0.4084 l
0.9833 0.4149 l
1.0000 0.4214 l
1.0167 0.4280 l
1.0333 0.4347 l
1.0500 0.4413 l
1.0667 0.4481 l
1.0833 0.4548 l
1.1000 0.4617 l
1.1167 0.4685 l
1.1333 0.4754 l
1.1500 0.4823 l
1.1501 0.4824 l
s
[/DeviceRGB] SCS
Color4 SC
[0.0037 0.0112 0.0187 0.0112 ] 0 SD
0.0037 SLW
n
0.1667 0.1739 m
0.1833 0.1840 l
0.2000 0.1908 l
0.2167 0.1959 l
0.2333 0.2000 l
0.2500 0.2034 l
0.2667 0.2063 l
0.2833 0.2090 l
0.3000 0.2115 l
0.3167 0.2139 l
0.3333 0.2162 l
0.3500 0.2186 l
0.3667 0.2211 l
0.3833 0.2236 l
0.4000 0.2263 l
0.4167 0.2291 l
0.4333 0.2320 l
0.4500 0.2352 l
0.4667 0.2384 l
0.4833 0.2419 l
0.5000 0.2456 l
0.5167 0.2495 l
0.5333 0.2535 l
0.5500 0.2578 l
0.5667 0.2623 l
0.5833 0.2670 l
0.6000 0.2720 l
0.6167 0.2771 l
0.6333 0.2825 l
0.6500 0.2880 l
0.6667 0.2938 l
0.6833 0.2998 l
0.7000 0.3061 l
0.7167 0.3125 l
0.7333 0.3191 l
0.7500 0.3260 l
0.7667 0.3331 l
0.7833 0.3404 l
0.8000 0.3479 l
0.8167 0.3556 l
0.8333 0.3635 l
0.8500 0.3716 l
0.8667 0.3799 l
0.8833 0.3884 l
0.9000 0.3972 l
0.9167 0.4061 l
0.9333 0.4152 l
0.9500 0.4245 l
0.9667 0.4340 l
0.9833 0.4436 l
1.0000 0.4535 l
1.0167 0.4636 l
1.0333 0.4738 l
1.0500 0.4842 l
1.0667 0.4948 l
1.0833 0.5056 l
1.1000 0.5166 l
1.1167 0.5277 l
1.1333 0.5390 l
1.1500 0.5505 l
1.1501 0.5505 l
s
[] 0 SD
0.0037 SLW
n 0.2167 0.1896 0.0100 0.0100 0 360 EARC s
n 0.2333 0.1951 0.0100 0.0100 0 360 EARC s
n 0.2500 0.2005 0.0100 0.0100 0 360 EARC s
n 0.2667 0.2058 0.0100 0.0100 0 360 EARC s
n 0.2833 0.2112 0.0100 0.0100 0 360 EARC s
n 0.3000 0.2165 0.0100 0.0100 0 360 EARC s
n 0.3167 0.2223 0.0100 0.0100 0 360 EARC s
n 0.3333 0.2281 0.0100 0.0100 0 360 EARC s
n 0.3500 0.2341 0.0100 0.0100 0 360 EARC s
n 0.3667 0.2405 0.0100 0.0100 0 360 EARC s
n 0.3833 0.2472 0.0100 0.0100 0 360 EARC s
n 0.4000 0.2542 0.0100 0.0100 0 360 EARC s
n 0.4167 0.2614 0.0100 0.0100 0 360 EARC s
n 0.4833 0.2948 0.0100 0.0100 0 360 EARC s
n 0.5500 0.3358 0.0100 0.0100 0 360 EARC s
n 0.6167 0.3839 0.0100 0.0100 0 360 EARC s
n 0.6833 0.4409 0.0100 0.0100 0 360 EARC s
n 0.8167 0.5828 0.0100 0.0100 0 360 EARC s
n 0.9500 0.7677 0.0100 0.0100 0 360 EARC s
[/DeviceRGB] SCS
Color1 SC
n
0.2748 0.1913 m
0.2748 0.2083 l
0.2918 0.2083 l
0.2918 0.1913 l
0.2748 0.1913 l
c
s
n
0.4082 0.2360 m
0.4082 0.2530 l
0.4252 0.2530 l
0.4252 0.2360 l
0.4082 0.2360 l
c
s
n
0.4748 0.2640 m
0.4748 0.2810 l
0.4918 0.2810 l
0.4918 0.2640 l
0.4748 0.2640 l
c
s
n
0.6415 0.3492 m
0.6415 0.3662 l
0.6585 0.3662 l
0.6585 0.3492 l
0.6415 0.3492 l
c
s
n
0.8082 0.4638 m
0.8082 0.4808 l
0.8252 0.4808 l
0.8252 0.4638 l
0.8082 0.4638 l
c
s
n
0.9748 0.6148 m
0.9748 0.6318 l
0.9918 0.6318 l
0.9918 0.6148 l
0.9748 0.6148 l
c
s
[] 0 SD
0.0045 SLW
n
0.1500 0.1500 m
1.1500 0.1500 l
s
n
0.1500 0.8500 m
1.1500 0.8500 l
s
n
0.2333 0.1500 m
0.2333 0.1600 l
s
n
0.2333 0.8500 m
0.2333 0.8400 l
s
n
0.4000 0.1500 m
0.4000 0.1600 l
s
n
0.4000 0.8500 m
0.4000 0.8400 l
s
n
0.5667 0.1500 m
0.5667 0.1600 l
s
n
0.5667 0.8500 m
0.5667 0.8400 l
s
n
0.7333 0.1500 m
0.7333 0.1600 l
s
n
0.7333 0.8500 m
0.7333 0.8400 l
s
n
0.9000 0.1500 m
0.9000 0.1600 l
s
n
0.9000 0.8500 m
0.9000 0.8400 l
s
n
1.0667 0.1500 m
1.0667 0.1600 l
s
n
1.0667 0.8500 m
1.0667 0.8400 l
s
n
0.1500 0.1500 m
0.1500 0.1700 l
s
n
0.1500 0.8500 m
0.1500 0.8300 l
s
n
0.3167 0.1500 m
0.3167 0.1700 l
s
n
0.3167 0.8500 m
0.3167 0.8300 l
s
n
0.4833 0.1500 m
0.4833 0.1700 l
s
n
0.4833 0.8500 m
0.4833 0.8300 l
s
n
0.6500 0.1500 m
0.6500 0.1700 l
s
n
0.6500 0.8500 m
0.6500 0.8300 l
s
n
0.8167 0.1500 m
0.8167 0.1700 l
s
n
0.8167 0.8500 m
0.8167 0.8300 l
s
n
0.9833 0.1500 m
0.9833 0.1700 l
s
n
0.9833 0.8500 m
0.9833 0.8300 l
s
/Times-Roman findfont
dup length dict begin
 {1 index /FID ne {def} {pop pop} ifelse} forall
 /Encoding DefEncoding def
 currentdict
end
/Font0 exch definefont pop
/Font0 FFSF
0.1394 0.1094 m
GS
[0.0448 0.0000 0.0000 0.0448 0 0] CC
(0) show
GR
/Font0 FFSF
0.2910 0.1094 m
GS
[0.0448 0.0000 0.0000 0.0448 0 0] CC
(0.1) show
GR
/Font0 FFSF
0.4559 0.1094 m
GS
[0.0448 0.0000 0.0000 0.0448 0 0] CC
(0.2) show
GR
/Font0 FFSF
0.6233 0.1094 m
GS
[0.0448 0.0000 0.0000 0.0448 0 0] CC
(0.3) show
GR
/Font0 FFSF
0.7892 0.1094 m
GS
[0.0448 0.0000 0.0000 0.0448 0 0] CC
(0.4) show
GR
/Font0 FFSF
0.9567 0.1090 m
GS
[0.0448 0.0000 0.0000 0.0448 0 0] CC
(0.5) show
GR
/Symbol findfont
/Font12 exch definefont pop
/Font12 FFSF
0.5722 0.0441 m
GS
[0.0504 0.0000 0.0000 0.0504 0 0] CC
(r) show
GR
/Font0 FFSF
0.6000 0.0441 m
GS
[0.0504 0.0000 0.0000 0.0504 0 0] CC
( [fm) show
GR
/Font0 FFSF
0.6855 0.0743 m
GS
[0.0356 0.0000 0.0000 0.0356 0 0] CC
(-3) show
GR
/Font0 FFSF
0.7153 0.0441 m
GS
[0.0504 0.0000 0.0000 0.0504 0 0] CC
(]) show
GR
n
0.1500 0.1500 m
0.1500 0.8500 l
s
n
1.1500 0.1500 m
1.1500 0.8500 l
s
n
0.1500 0.2083 m
0.1600 0.2083 l
s
n
1.1500 0.2083 m
1.1400 0.2083 l
s
n
0.1500 0.3250 m
0.1600 0.3250 l
s
n
1.1500 0.3250 m
1.1400 0.3250 l
s
n
0.1500 0.4417 m
0.1600 0.4417 l
s
n
1.1500 0.4417 m
1.1400 0.4417 l
s
n
0.1500 0.5583 m
0.1600 0.5583 l
s
n
1.1500 0.5583 m
1.1400 0.5583 l
s
n
0.1500 0.6750 m
0.1600 0.6750 l
s
n
1.1500 0.6750 m
1.1400 0.6750 l
s
n
0.1500 0.7917 m
0.1600 0.7917 l
s
n
1.1500 0.7917 m
1.1400 0.7917 l
s
n
0.1500 0.1500 m
0.1700 0.1500 l
s
n
1.1500 0.1500 m
1.1300 0.1500 l
s
n
0.1500 0.2667 m
0.1700 0.2667 l
s
n
1.1500 0.2667 m
1.1300 0.2667 l
s
n
0.1500 0.3833 m
0.1700 0.3833 l
s
n
1.1500 0.3833 m
1.1300 0.3833 l
s
n
0.1500 0.5000 m
0.1700 0.5000 l
s
n
1.1500 0.5000 m
1.1300 0.5000 l
s
n
0.1500 0.6167 m
0.1700 0.6167 l
s
n
1.1500 0.6167 m
1.1300 0.6167 l
s
n
0.1500 0.7333 m
0.1700 0.7333 l
s
n
1.1500 0.7333 m
1.1300 0.7333 l
s
n
0.1500 0.8500 m
0.1700 0.8500 l
s
n
1.1500 0.8500 m
1.1300 0.8500 l
s
/Font0 FFSF
0.1188 0.1351 m
GS
[0.0448 0.0000 0.0000 0.0448 0 0] CC
(0) show
GR
/Font0 FFSF
0.0965 0.2518 m
GS
[0.0448 0.0000 0.0000 0.0448 0 0] CC
(20) show
GR
/Font0 FFSF
0.0965 0.3684 m
GS
[0.0448 0.0000 0.0000 0.0448 0 0] CC
(40) show
GR
/Font0 FFSF
0.0965 0.4851 m
GS
[0.0448 0.0000 0.0000 0.0448 0 0] CC
(60) show
GR
/Font0 FFSF
0.0965 0.6018 m
GS
[0.0448 0.0000 0.0000 0.0448 0 0] CC
(80) show
GR
/Font0 FFSF
0.0741 0.7184 m
GS
[0.0448 0.0000 0.0000 0.0448 0 0] CC
(100) show
GR
/Font0 FFSF
0.0741 0.8351 m
GS
[0.0448 0.0000 0.0000 0.0448 0 0] CC
(120) show
GR
/Font0 FFSF
0.0563 0.3867 m
GS
[0.0000 0.0504 -0.0504 0.0000 0 0] CC
(E/N [MeV]) show
GR
[] 0 SD
0.0015 SLW
n
0.1500 0.1500 m
0.1500 0.8500 l
1.1500 0.8500 l
1.1500 0.1500 l
0.1500 0.1500 l
c
s
n
0.1500 0.8500 m
0.1500 0.6202 l
0.4475 0.6202 l
0.4475 0.8500 l
c
[/DeviceRGB] SCS
Color0 SC
fill
[/DeviceRGB] SCS
Color1 SC
[] 0 SD
0.0045 SLW
n
0.1500 0.8500 m
0.1500 0.6202 l
0.4475 0.6202 l
0.4475 0.8500 l
0.1500 0.8500 l
c
s
/Font0 FFSF
0.2623 0.8063 m
GS
[0.0498 0.0000 0.0000 0.0498 0 0] CC
(D1S) show
GR
n
0.1623 0.8227 m
0.2423 0.8227 l
s
/Font0 FFSF
0.2623 0.7618 m
GS
[0.0498 0.0000 0.0000 0.0498 0 0] CC
(D1N) show
GR
[/DeviceRGB] SCS
Color2 SC
[0.0187 0.0112 ] 0 SD
0.0037 SLW
n
0.1623 0.7784 m
0.2423 0.7784 l
s
/Font0 FFSF
[/DeviceRGB] SCS
Color1 SC
0.2623 0.7176 m
GS
[0.0498 0.0000 0.0000 0.0498 0 0] CC
(D1M) show
GR
[/DeviceRGB] SCS
Color4 SC
[0.0037 0.0112 0.0187 0.0112 ] 0 SD
0.0037 SLW
n
0.1623 0.7345 m
0.2423 0.7345 l
s
/Font0 FFSF
[/DeviceRGB] SCS
Color1 SC
0.2623 0.6739 m
GS
[0.0498 0.0000 0.0000 0.0498 0 0] CC
(AFDMC) show
GR
[/DeviceRGB] SCS
Color4 SC
[] 0 SD
0.0037 SLW
n 0.2023 0.6904 0.0100 0.0100 0 360 EARC s
/Font0 FFSF
[/DeviceRGB] SCS
Color1 SC
0.2623 0.6302 m
GS
[0.0498 0.0000 0.0000 0.0498 0 0] CC
(BHF) show
GR
n
0.1938 0.6382 m
0.1938 0.6552 l
0.2108 0.6552 l
0.2108 0.6382 l
0.1938 0.6382 l
c
s
[] 0 SD
0.0015 SLW
n
0.3752 0.8497 m
0.3725 0.8458 l
s
/Font0 FFSF
0.5069 0.7623 m
GS
[0.0764 0.0000 0.0000 0.0764 0 0] CC
(b\)) show
GR
showpage
%%PageTrailer
%%Trailer
%%DocumentNeededResources: font Times-Roman
%%+ font Symbol
%%EOF
