%!PS-Adobe-3.0
%%BoundingBox: 0 0 612 792
%%LanguageLevel: 2
%%Creator: Grace-5.1.25
%%CreationDate: Thu Jun  2 12:37:37 2016
%%DocumentData: Clean8Bit
%%Orientation: Landscape
%%Pages: 1
%%PageOrder: Ascend
%%Title: EsurA_gogny.agr
%%For: ap1450
%%DocumentNeededResources: (atend)
%%EndComments
%%BeginProlog
/PAGE_OFFSET_X 0 def
/PAGE_OFFSET_Y 0 def
/m {moveto} def
/l {lineto} def
/s {stroke} def
/n {newpath} def
/c {closepath} def
/RL {rlineto} def
/SLW {setlinewidth} def
/GS {gsave} def
/GR {grestore} def
/SC {setcolor} def
/SGRY {setgray} def
/SRGB {setrgbcolor} def
/SD {setdash} def
/SLC {setlinecap} def
/SLJ {setlinejoin} def
/SCS {setcolorspace} def
/FFSF {findfont setfont} def
/CC {concat} def
/PXL {n m 0 0 RL s} def
/Color0 {1.0000 1.0000 1.0000} def
/Color1 {0.0000 0.0000 0.0000} def
/Color2 {1.0000 0.0000 0.0000} def
/Color3 {0.0000 1.0000 0.0000} def
/Color4 {0.0000 0.0000 1.0000} def
/Color5 {1.0000 1.0000 0.0000} def
/Color6 {0.7373 0.5608 0.5608} def
/Color7 {0.8627 0.8627 0.8627} def
/Color8 {0.5804 0.0000 0.8275} def
/Color9 {0.0000 1.0000 1.0000} def
/Color10 {1.0000 0.0000 1.0000} def
/Color11 {1.0000 0.6471 0.0000} def
/Color12 {0.4471 0.1294 0.7373} def
/Color13 {0.4039 0.0275 0.2824} def
/Color14 {0.2510 0.8784 0.8157} def
/Color15 {0.0000 0.5451 0.0000} def
/Color16 {0.7529 0.7529 0.7529} def
/Color17 {0.5059 0.5059 0.5059} def
/Color18 {0.2588 0.2588 0.2588} def
/PTRN {
 /pat_bits exch def 
 <<
  /PaintType 2
  /PatternType 1 /TilingType 1
  /BBox[0 0 16 16]
  /XStep 16 /YStep 16
  /PaintProc {
   pop
   16 16 true [-1 0 0 -1 16 16] pat_bits imagemask
  }
 >>
 [0.0016 0 0 0.0016 0 0]
 makepattern
} def
/Pattern0 {<0000000000000000000000000000000000000000000000000000000000000000> PTRN} bind def
/Pattern1 {<ffffffffffffffffffffffffffffffffffffffffffffffffffffffffffffffff> PTRN} bind def
/Pattern2 {<eeeeffffbbbbffffeeeeffffbbbbffffeeeeffffbbbbffffeeeeffffbbbbffff> PTRN} bind def
/Pattern3 {<eeeebbbbeeeebbbbeeeebbbbeeeebbbbeeeebbbbeeeebbbbeeeebbbbeeeebbbb> PTRN} bind def
/Pattern4 {<5555aaaa5555aaaa5555aaaa5555aaaa5555aaaa5555aaaa5555aaaa5555aaaa> PTRN} bind def
/Pattern5 {<1111444411114444111144441111444411114444111144441111444411114444> PTRN} bind def
/Pattern6 {<1111000044440000111100004444000011110000444400001111000044440000> PTRN} bind def
/Pattern7 {<1010000000000000010100000000000010100000000000000101000000000000> PTRN} bind def
/Pattern8 {<0000000000000000000000000000000000000000000000000000000000000000> PTRN} bind def
/Pattern9 {<1e1e0f0f8787c3c3e1e1f0f078783c3c1e1e0f0f8787c3c3e1e1f0f078783c3c> PTRN} bind def
/Pattern10 {<7878f0f0e1e1c3c387870f0f1e1e3c3c7878f0f0e1e1c3c387870f0f1e1e3c3c> PTRN} bind def
/Pattern11 {<3333333333333333333333333333333333333333333333333333333333333333> PTRN} bind def
/Pattern12 {<ffffffff00000000ffffffff00000000ffffffff00000000ffffffff00000000> PTRN} bind def
/Pattern13 {<8181424224241818181824244242818181814242242418181818242442428181> PTRN} bind def
/Pattern14 {<8080404020201010080804040202010180804040202010100808040402020101> PTRN} bind def
/Pattern15 {<0101020204040808101020204040808001010202040408081010202040408080> PTRN} bind def
/Pattern16 {<2222222222222222222222222222222222222222222222222222222222222222> PTRN} bind def
/Pattern17 {<0000ffff000000000000ffff000000000000ffff000000000000ffff00000000> PTRN} bind def
/Pattern18 {<2222ffff222222222222ffff222222222222ffff222222222222ffff22222222> PTRN} bind def
/Pattern19 {<ffffffff33333333ffffffff33333333ffffffff33333333ffffffff33333333> PTRN} bind def
/Pattern20 {<0f0f0f0f0f0f0f0ff0f0f0f0f0f0f0f00f0f0f0f0f0f0f0ff0f0f0f0f0f0f0f0> PTRN} bind def
/Pattern21 {<ff00ff00ff00ff00ff00ff00ff00ff0000ff00ff00ff00ff00ff00ff00ff00ff> PTRN} bind def
/Pattern22 {<8001800180018001800180018001ffffffff8001800180018001800180018001> PTRN} bind def
/Pattern23 {<c003c003c003c003c003c003ffffffffffffffffc003c003c003c003c003c003> PTRN} bind def
/Pattern24 {<040404040404ffff404040404040ffff040404040404ffff404040404040ffff> PTRN} bind def
/Pattern25 {<180018001800180018001800ffffffff001800180018001800180018ffffffff> PTRN} bind def
/Pattern26 {<1111b8b87c7c3a3a1111a3a3c7c78b8b1111b8b87c7c3a3a1111a3a3c7c78b8b> PTRN} bind def
/Pattern27 {<101010102828c7c70101010182827c7c101010102828c7c70101010182827c7c> PTRN} bind def
/Pattern28 {<1c1c121211112121c1c12121111112121c1c121211112121c1c1212111111212> PTRN} bind def
/Pattern29 {<3e3e414180808080e3e31414080808083e3e414180808080e3e3141408080808> PTRN} bind def
/Pattern30 {<4848888884848383848488884848383848488888848483838484888848483838> PTRN} bind def
/Pattern31 {<03030404080808080c0c12122121c0c003030404080808080c0c12122121c0c0> PTRN} bind def
/ellipsedict 8 dict def
ellipsedict /mtrx matrix put
/EARC {
 ellipsedict begin
  /endangle exch def
  /startangle exch def
  /yrad exch def
  /xrad exch def
  /y exch def
  /x exch def
  /savematrix mtrx currentmatrix def
  x y translate
  xrad yrad scale
  0 0 1 startangle endangle arc
  savematrix setmatrix
 end
} def
/TL {
  /kcomp exch def
  /linewidth exch def
  /offset exch def
  GS
  0 offset rmoveto
  linewidth SLW
  dup stringwidth exch kcomp add exch RL s
  GR
} def
/KINIT
{
 /kvector exch def
 /kid 0 def
} def
/KPROC
{
 pop pop
 kvector kid get
 0 rmoveto
 /kid 1 kid add def
} def
/DefEncoding [
 /.notdef
 /.notdef
 /.notdef
 /.notdef
 /.notdef
 /.notdef
 /.notdef
 /.notdef
 /.notdef
 /.notdef
 /.notdef
 /.notdef
 /.notdef
 /.notdef
 /.notdef
 /.notdef
 /.notdef
 /.notdef
 /.notdef
 /.notdef
 /.notdef
 /.notdef
 /.notdef
 /.notdef
 /.notdef
 /.notdef
 /.notdef
 /.notdef
 /.notdef
 /.notdef
 /.notdef
 /.notdef
 /space
 /exclam
 /quotedbl
 /numbersign
 /dollar
 /percent
 /ampersand
 /quoteright
 /parenleft
 /parenright
 /asterisk
 /plus
 /comma
 /hyphen
 /period
 /slash
 /zero
 /one
 /two
 /three
 /four
 /five
 /six
 /seven
 /eight
 /nine
 /colon
 /semicolon
 /less
 /equal
 /greater
 /question
 /at
 /A
 /B
 /C
 /D
 /E
 /F
 /G
 /H
 /I
 /J
 /K
 /L
 /M
 /N
 /O
 /P
 /Q
 /R
 /S
 /T
 /U
 /V
 /W
 /X
 /Y
 /Z
 /bracketleft
 /backslash
 /bracketright
 /asciicircum
 /underscore
 /grave
 /a
 /b
 /c
 /d
 /e
 /f
 /g
 /h
 /i
 /j
 /k
 /l
 /m
 /n
 /o
 /p
 /q
 /r
 /s
 /t
 /u
 /v
 /w
 /x
 /y
 /z
 /braceleft
 /bar
 /braceright
 /asciitilde
 /.notdef
 /.notdef
 /.notdef
 /.notdef
 /.notdef
 /.notdef
 /.notdef
 /.notdef
 /.notdef
 /.notdef
 /.notdef
 /.notdef
 /.notdef
 /.notdef
 /.notdef
 /.notdef
 /.notdef
 /.notdef
 /.notdef
 /.notdef
 /.notdef
 /.notdef
 /.notdef
 /.notdef
 /.notdef
 /.notdef
 /.notdef
 /.notdef
 /.notdef
 /.notdef
 /.notdef
 /.notdef
 /.notdef
 /space
 /exclamdown
 /cent
 /sterling
 /currency
 /yen
 /brokenbar
 /section
 /dieresis
 /copyright
 /ordfeminine
 /guillemotleft
 /logicalnot
 /hyphen
 /registered
 /macron
 /degree
 /plusminus
 /twosuperior
 /threesuperior
 /acute
 /mu
 /paragraph
 /periodcentered
 /cedilla
 /onesuperior
 /ordmasculine
 /guillemotright
 /onequarter
 /onehalf
 /threequarters
 /questiondown
 /Agrave
 /Aacute
 /Acircumflex
 /Atilde
 /Adieresis
 /Aring
 /AE
 /Ccedilla
 /Egrave
 /Eacute
 /Ecircumflex
 /Edieresis
 /Igrave
 /Iacute
 /Icircumflex
 /Idieresis
 /Eth
 /Ntilde
 /Ograve
 /Oacute
 /Ocircumflex
 /Otilde
 /Odieresis
 /multiply
 /Oslash
 /Ugrave
 /Uacute
 /Ucircumflex
 /Udieresis
 /Yacute
 /Thorn
 /germandbls
 /agrave
 /aacute
 /acircumflex
 /atilde
 /adieresis
 /aring
 /ae
 /ccedilla
 /egrave
 /eacute
 /ecircumflex
 /edieresis
 /igrave
 /iacute
 /icircumflex
 /idieresis
 /eth
 /ntilde
 /ograve
 /oacute
 /ocircumflex
 /otilde
 /odieresis
 /divide
 /oslash
 /ugrave
 /uacute
 /ucircumflex
 /udieresis
 /yacute
 /thorn
 /ydieresis
] def
%%EndProlog
%%BeginSetup
%%EndSetup
%%Page: 1 1
PAGE_OFFSET_X PAGE_OFFSET_Y translate
612.00 612.00 scale
90 rotate
0.0 -1.0 translate
n
0.2748 0.2161 m
0.2748 0.2331 l
0.2918 0.2331 l
0.2918 0.2161 l
c
GS
[/DeviceRGB] SCS
Color0 SRGB
fill
GR
[/Pattern /DeviceRGB] SCS
Color1 Pattern8 SC
fill
[/DeviceRGB] SCS
Color1 SC
[] 0 SD
0.0030 SLW
0 SLC
0 SLJ
n
0.2748 0.2161 m
0.2748 0.2331 l
0.2918 0.2331 l
0.2918 0.2161 l
0.2748 0.2161 l
c
s
n
0.4082 0.1737 m
0.4082 0.1907 l
0.4252 0.1907 l
0.4252 0.1737 l
c
GS
Color0 SRGB
fill
GR
[/Pattern /DeviceRGB] SCS
Color1 Pattern8 SC
fill
[/DeviceRGB] SCS
Color1 SC
n
0.4082 0.1737 m
0.4082 0.1907 l
0.4252 0.1907 l
0.4252 0.1737 l
0.4082 0.1737 l
c
s
n
0.4748 0.1743 m
0.4748 0.1913 l
0.4918 0.1913 l
0.4918 0.1743 l
c
GS
Color0 SRGB
fill
GR
[/Pattern /DeviceRGB] SCS
Color1 Pattern8 SC
fill
[/DeviceRGB] SCS
Color1 SC
n
0.4748 0.1743 m
0.4748 0.1913 l
0.4918 0.1913 l
0.4918 0.1743 l
0.4748 0.1743 l
c
s
n
0.6415 0.2222 m
0.6415 0.2392 l
0.6585 0.2392 l
0.6585 0.2222 l
c
GS
Color0 SRGB
fill
GR
[/Pattern /DeviceRGB] SCS
Color1 Pattern8 SC
fill
[/DeviceRGB] SCS
Color1 SC
n
0.6415 0.2222 m
0.6415 0.2392 l
0.6585 0.2392 l
0.6585 0.2222 l
0.6415 0.2222 l
c
s
n
0.8082 0.3234 m
0.8082 0.3404 l
0.8252 0.3404 l
0.8252 0.3234 l
c
GS
Color0 SRGB
fill
GR
[/Pattern /DeviceRGB] SCS
Color1 Pattern8 SC
fill
[/DeviceRGB] SCS
Color1 SC
n
0.8082 0.3234 m
0.8082 0.3404 l
0.8252 0.3404 l
0.8252 0.3234 l
0.8082 0.3234 l
c
s
n
0.9748 0.4699 m
0.9748 0.4869 l
0.9918 0.4869 l
0.9918 0.4699 l
c
GS
Color0 SRGB
fill
GR
[/Pattern /DeviceRGB] SCS
Color1 Pattern8 SC
fill
[/DeviceRGB] SCS
Color1 SC
n
0.9748 0.4699 m
0.9748 0.4869 l
0.9918 0.4869 l
0.9918 0.4699 l
0.9748 0.4699 l
c
s
[] 0 SD
0.0037 SLW
n
0.1500 0.3250 m
0.1500 0.3250 l
0.1500 0.3251 l
0.1500 0.3251 l
0.1500 0.3252 l
0.1500 0.3253 l
0.1500 0.3254 l
0.1501 0.3255 l
0.1501 0.3256 l
0.1501 0.3257 l
0.1501 0.3258 l
0.1502 0.3259 l
0.1502 0.3260 l
0.1503 0.3261 l
0.1504 0.3262 l
0.1505 0.3263 l
0.1506 0.3263 l
0.1507 0.3264 l
0.1508 0.3264 l
0.1509 0.3264 l
0.1510 0.3264 l
0.1512 0.3264 l
0.1514 0.3264 l
0.1516 0.3263 l
0.1518 0.3262 l
0.1520 0.3261 l
0.1522 0.3260 l
0.1525 0.3258 l
0.1527 0.3256 l
0.1530 0.3254 l
0.1534 0.3252 l
0.1537 0.3249 l
0.1540 0.3245 l
0.1544 0.3242 l
0.1548 0.3238 l
0.1553 0.3234 l
0.1557 0.3229 l
0.1562 0.3224 l
0.1567 0.3219 l
0.1572 0.3213 l
0.1578 0.3207 l
0.1583 0.3200 l
0.1590 0.3193 l
0.1596 0.3186 l
0.1603 0.3178 l
0.1610 0.3170 l
0.1617 0.3162 l
0.1625 0.3153 l
0.1632 0.3143 l
0.1641 0.3134 l
0.1649 0.3123 l
0.1658 0.3113 l
0.1668 0.3102 l
0.1677 0.3090 l
0.1687 0.3078 l
0.1698 0.3066 l
0.1708 0.3054 l
0.1720 0.3041 l
0.1731 0.3027 l
0.1743 0.3013 l
0.1756 0.2999 l
0.1768 0.2985 l
0.1782 0.2970 l
0.1795 0.2955 l
0.1809 0.2939 l
0.1824 0.2923 l
0.1839 0.2907 l
0.1854 0.2890 l
0.1870 0.2873 l
0.1886 0.2856 l
0.1903 0.2839 l
0.1920 0.2821 l
0.1938 0.2803 l
0.1956 0.2784 l
0.1975 0.2766 l
0.1994 0.2747 l
0.2014 0.2728 l
0.2034 0.2709 l
0.2055 0.2689 l
0.2076 0.2670 l
0.2098 0.2650 l
0.2121 0.2630 l
0.2144 0.2610 l
0.2167 0.2590 l
0.2191 0.2570 l
0.2216 0.2549 l
0.2241 0.2529 l
0.2267 0.2508 l
0.2294 0.2488 l
0.2321 0.2467 l
0.2348 0.2447 l
0.2377 0.2426 l
0.2406 0.2406 l
0.2435 0.2385 l
0.2465 0.2365 l
0.2496 0.2345 l
0.2527 0.2324 l
0.2560 0.2304 l
0.2592 0.2285 l
0.2626 0.2265 l
0.2660 0.2245 l
0.2695 0.2226 l
0.2730 0.2207 l
0.2766 0.2188 l
0.2803 0.2170 l
0.2841 0.2151 l
0.2879 0.2134 l
0.2918 0.2116 l
0.2958 0.2099 l
0.2998 0.2082 l
0.3040 0.2065 l
0.3082 0.2049 l
0.3124 0.2034 l
0.3168 0.2019 l
0.3212 0.2004 l
0.3257 0.1990 l
0.3303 0.1977 l
0.3350 0.1964 l
0.3397 0.1951 l
0.3445 0.1940 l
0.3494 0.1929 l
0.3544 0.1918 l
0.3595 0.1908 l
0.3646 0.1899 l
0.3699 0.1891 l
0.3752 0.1883 l
0.3806 0.1877 l
0.3861 0.1871 l
0.3917 0.1866 l
0.3973 0.1861 l
0.4031 0.1858 l
0.4089 0.1855 l
0.4149 0.1854 l
0.4209 0.1853 l
0.4270 0.1854 l
0.4332 0.1855 l
0.4395 0.1857 l
0.4459 0.1861 l
0.4523 0.1865 l
0.4589 0.1871 l
0.4656 0.1878 l
0.4723 0.1886 l
0.4792 0.1895 l
0.4862 0.1905 l
0.4932 0.1917 l
0.5004 0.1930 l
0.5076 0.1944 l
0.5150 0.1960 l
0.5224 0.1976 l
0.5300 0.1995 l
0.5376 0.2014 l
0.5454 0.2035 l
0.5532 0.2058 l
0.5612 0.2082 l
0.5692 0.2107 l
0.5774 0.2134 l
0.5857 0.2163 l
0.5940 0.2193 l
0.6025 0.2225 l
0.6111 0.2258 l
0.6198 0.2294 l
0.6286 0.2330 l
0.6376 0.2369 l
0.6466 0.2409 l
0.6557 0.2452 l
0.6650 0.2496 l
0.6743 0.2541 l
0.6838 0.2589 l
0.6934 0.2639 l
0.7031 0.2690 l
0.7129 0.2744 l
0.7229 0.2800 l
0.7329 0.2857 l
0.7431 0.2917 l
0.7534 0.2979 l
0.7638 0.3043 l
0.7743 0.3109 l
0.7849 0.3177 l
0.7957 0.3248 l
0.8066 0.3320 l
0.8176 0.3395 l
0.8287 0.3473 l
0.8399 0.3552 l
0.8513 0.3635 l
0.8628 0.3719 l
0.8744 0.3806 l
0.8862 0.3896 l
0.8981 0.3988 l
0.9101 0.4082 l
0.9222 0.4179 l
0.9344 0.4279 l
0.9468 0.4382 l
0.9593 0.4487 l
0.9720 0.4595 l
0.9848 0.4705 l
0.9977 0.4819 l
1.0107 0.4935 l
1.0239 0.5054 l
1.0372 0.5176 l
1.0506 0.5301 l
1.0642 0.5429 l
1.0779 0.5560 l
1.0918 0.5694 l
1.1058 0.5832 l
1.1199 0.5972 l
1.1341 0.6116 l
1.1485 0.6262 l
1.1501 0.6278 l
s
[/DeviceRGB] SCS
Color2 SC
[0.0187 0.0112 ] 0 SD
0.0037 SLW
n
0.1500 0.3250 m
0.1500 0.3250 l
0.1500 0.3251 l
0.1500 0.3252 l
0.1500 0.3252 l
0.1500 0.3253 l
0.1500 0.3254 l
0.1501 0.3255 l
0.1501 0.3256 l
0.1501 0.3257 l
0.1501 0.3258 l
0.1502 0.3259 l
0.1502 0.3260 l
0.1503 0.3261 l
0.1504 0.3262 l
0.1505 0.3263 l
0.1506 0.3264 l
0.1507 0.3264 l
0.1508 0.3265 l
0.1509 0.3265 l
0.1510 0.3265 l
0.1512 0.3265 l
0.1514 0.3265 l
0.1516 0.3265 l
0.1518 0.3264 l
0.1520 0.3263 l
0.1522 0.3262 l
0.1525 0.3261 l
0.1527 0.3259 l
0.1530 0.3257 l
0.1534 0.3255 l
0.1537 0.3252 l
0.1540 0.3249 l
0.1544 0.3246 l
0.1548 0.3243 l
0.1553 0.3239 l
0.1557 0.3235 l
0.1562 0.3230 l
0.1567 0.3225 l
0.1572 0.3220 l
0.1578 0.3214 l
0.1583 0.3208 l
0.1590 0.3201 l
0.1596 0.3195 l
0.1603 0.3187 l
0.1610 0.3180 l
0.1617 0.3172 l
0.1625 0.3163 l
0.1632 0.3154 l
0.1641 0.3145 l
0.1649 0.3136 l
0.1658 0.3126 l
0.1668 0.3115 l
0.1677 0.3104 l
0.1687 0.3093 l
0.1698 0.3081 l
0.1708 0.3069 l
0.1720 0.3057 l
0.1731 0.3044 l
0.1743 0.3031 l
0.1756 0.3017 l
0.1768 0.3003 l
0.1782 0.2989 l
0.1795 0.2974 l
0.1809 0.2959 l
0.1824 0.2943 l
0.1839 0.2928 l
0.1854 0.2911 l
0.1870 0.2895 l
0.1886 0.2878 l
0.1903 0.2861 l
0.1920 0.2844 l
0.1938 0.2826 l
0.1956 0.2808 l
0.1975 0.2790 l
0.1994 0.2771 l
0.2014 0.2752 l
0.2034 0.2733 l
0.2055 0.2714 l
0.2076 0.2694 l
0.2098 0.2675 l
0.2121 0.2655 l
0.2144 0.2635 l
0.2167 0.2615 l
0.2191 0.2594 l
0.2216 0.2574 l
0.2241 0.2553 l
0.2267 0.2532 l
0.2294 0.2512 l
0.2321 0.2491 l
0.2348 0.2470 l
0.2377 0.2449 l
0.2406 0.2428 l
0.2435 0.2408 l
0.2465 0.2387 l
0.2496 0.2366 l
0.2527 0.2345 l
0.2560 0.2325 l
0.2592 0.2304 l
0.2626 0.2284 l
0.2660 0.2264 l
0.2695 0.2244 l
0.2730 0.2224 l
0.2766 0.2205 l
0.2803 0.2185 l
0.2841 0.2166 l
0.2879 0.2148 l
0.2918 0.2129 l
0.2958 0.2111 l
0.2998 0.2094 l
0.3040 0.2077 l
0.3082 0.2060 l
0.3124 0.2043 l
0.3168 0.2027 l
0.3212 0.2012 l
0.3257 0.1997 l
0.3303 0.1983 l
0.3350 0.1969 l
0.3397 0.1956 l
0.3445 0.1944 l
0.3494 0.1932 l
0.3544 0.1921 l
0.3595 0.1911 l
0.3646 0.1901 l
0.3699 0.1893 l
0.3752 0.1885 l
0.3806 0.1878 l
0.3861 0.1872 l
0.3917 0.1866 l
0.3973 0.1862 l
0.4031 0.1859 l
0.4089 0.1857 l
0.4149 0.1855 l
0.4209 0.1855 l
0.4270 0.1856 l
0.4332 0.1858 l
0.4395 0.1862 l
0.4459 0.1866 l
0.4523 0.1872 l
0.4589 0.1879 l
0.4656 0.1888 l
0.4723 0.1897 l
0.4792 0.1909 l
0.4862 0.1921 l
0.4932 0.1935 l
0.5004 0.1951 l
0.5076 0.1968 l
0.5150 0.1987 l
0.5224 0.2007 l
0.5300 0.2029 l
0.5376 0.2053 l
0.5454 0.2078 l
0.5532 0.2105 l
0.5612 0.2134 l
0.5692 0.2165 l
0.5774 0.2198 l
0.5857 0.2233 l
0.5940 0.2269 l
0.6025 0.2308 l
0.6111 0.2349 l
0.6198 0.2391 l
0.6286 0.2436 l
0.6376 0.2484 l
0.6466 0.2533 l
0.6557 0.2585 l
0.6650 0.2638 l
0.6743 0.2695 l
0.6838 0.2753 l
0.6934 0.2815 l
0.7031 0.2878 l
0.7129 0.2944 l
0.7229 0.3013 l
0.7329 0.3084 l
0.7431 0.3158 l
0.7534 0.3235 l
0.7638 0.3315 l
0.7743 0.3397 l
0.7849 0.3482 l
0.7957 0.3570 l
0.8066 0.3661 l
0.8176 0.3755 l
0.8287 0.3852 l
0.8399 0.3952 l
0.8513 0.4055 l
0.8628 0.4162 l
0.8744 0.4271 l
0.8862 0.4384 l
0.8981 0.4500 l
0.9101 0.4620 l
0.9222 0.4743 l
0.9344 0.4870 l
0.9468 0.5000 l
0.9593 0.5133 l
0.9720 0.5271 l
0.9848 0.5412 l
0.9977 0.5556 l
1.0107 0.5705 l
1.0239 0.5857 l
1.0372 0.6014 l
1.0506 0.6174 l
1.0642 0.6338 l
1.0779 0.6507 l
1.0918 0.6679 l
1.1058 0.6856 l
1.1199 0.7036 l
1.1341 0.7222 l
1.1485 0.7411 l
1.1501 0.7432 l
s
[/DeviceRGB] SCS
Color4 SC
[0.0037 0.0112 0.0187 0.0112 ] 0 SD
0.0037 SLW
n
0.1500 0.3250 m
0.1500 0.3250 l
0.1500 0.3251 l
0.1500 0.3252 l
0.1500 0.3252 l
0.1500 0.3253 l
0.1500 0.3254 l
0.1501 0.3255 l
0.1501 0.3256 l
0.1501 0.3257 l
0.1501 0.3258 l
0.1502 0.3259 l
0.1502 0.3261 l
0.1503 0.3262 l
0.1504 0.3262 l
0.1505 0.3263 l
0.1506 0.3264 l
0.1507 0.3265 l
0.1508 0.3265 l
0.1509 0.3266 l
0.1510 0.3266 l
0.1512 0.3266 l
0.1514 0.3266 l
0.1516 0.3265 l
0.1518 0.3265 l
0.1520 0.3264 l
0.1522 0.3263 l
0.1525 0.3262 l
0.1527 0.3260 l
0.1530 0.3258 l
0.1534 0.3256 l
0.1537 0.3254 l
0.1540 0.3251 l
0.1544 0.3248 l
0.1548 0.3245 l
0.1553 0.3241 l
0.1557 0.3237 l
0.1562 0.3232 l
0.1567 0.3228 l
0.1572 0.3222 l
0.1578 0.3217 l
0.1583 0.3211 l
0.1590 0.3205 l
0.1596 0.3198 l
0.1603 0.3191 l
0.1610 0.3184 l
0.1617 0.3176 l
0.1625 0.3167 l
0.1632 0.3159 l
0.1641 0.3150 l
0.1649 0.3140 l
0.1658 0.3131 l
0.1668 0.3120 l
0.1677 0.3110 l
0.1687 0.3099 l
0.1698 0.3087 l
0.1708 0.3075 l
0.1720 0.3063 l
0.1731 0.3051 l
0.1743 0.3038 l
0.1756 0.3024 l
0.1768 0.3010 l
0.1782 0.2996 l
0.1795 0.2982 l
0.1809 0.2967 l
0.1824 0.2952 l
0.1839 0.2936 l
0.1854 0.2920 l
0.1870 0.2904 l
0.1886 0.2887 l
0.1903 0.2870 l
0.1920 0.2853 l
0.1938 0.2836 l
0.1956 0.2818 l
0.1975 0.2800 l
0.1994 0.2781 l
0.2014 0.2763 l
0.2034 0.2744 l
0.2055 0.2725 l
0.2076 0.2705 l
0.2098 0.2686 l
0.2121 0.2666 l
0.2144 0.2646 l
0.2167 0.2626 l
0.2191 0.2606 l
0.2216 0.2586 l
0.2241 0.2565 l
0.2267 0.2545 l
0.2294 0.2524 l
0.2321 0.2504 l
0.2348 0.2483 l
0.2377 0.2462 l
0.2406 0.2441 l
0.2435 0.2421 l
0.2465 0.2400 l
0.2496 0.2379 l
0.2527 0.2359 l
0.2560 0.2338 l
0.2592 0.2318 l
0.2626 0.2297 l
0.2660 0.2277 l
0.2695 0.2257 l
0.2730 0.2237 l
0.2766 0.2218 l
0.2803 0.2199 l
0.2841 0.2179 l
0.2879 0.2161 l
0.2918 0.2142 l
0.2958 0.2124 l
0.2998 0.2106 l
0.3040 0.2089 l
0.3082 0.2072 l
0.3124 0.2055 l
0.3168 0.2039 l
0.3212 0.2024 l
0.3257 0.2009 l
0.3303 0.1994 l
0.3350 0.1980 l
0.3397 0.1967 l
0.3445 0.1954 l
0.3494 0.1942 l
0.3544 0.1931 l
0.3595 0.1920 l
0.3646 0.1910 l
0.3699 0.1901 l
0.3752 0.1892 l
0.3806 0.1885 l
0.3861 0.1878 l
0.3917 0.1872 l
0.3973 0.1867 l
0.4031 0.1863 l
0.4089 0.1860 l
0.4149 0.1858 l
0.4209 0.1857 l
0.4270 0.1857 l
0.4332 0.1858 l
0.4395 0.1861 l
0.4459 0.1864 l
0.4523 0.1869 l
0.4589 0.1875 l
0.4656 0.1882 l
0.4723 0.1891 l
0.4792 0.1900 l
0.4862 0.1912 l
0.4932 0.1924 l
0.5004 0.1938 l
0.5076 0.1954 l
0.5150 0.1971 l
0.5224 0.1989 l
0.5300 0.2009 l
0.5376 0.2031 l
0.5454 0.2055 l
0.5532 0.2080 l
0.5612 0.2106 l
0.5692 0.2135 l
0.5774 0.2165 l
0.5857 0.2197 l
0.5940 0.2231 l
0.6025 0.2267 l
0.6111 0.2305 l
0.6198 0.2345 l
0.6286 0.2387 l
0.6376 0.2431 l
0.6466 0.2477 l
0.6557 0.2525 l
0.6650 0.2575 l
0.6743 0.2628 l
0.6838 0.2683 l
0.6934 0.2740 l
0.7031 0.2799 l
0.7129 0.2861 l
0.7229 0.2925 l
0.7329 0.2991 l
0.7431 0.3060 l
0.7534 0.3132 l
0.7638 0.3206 l
0.7743 0.3283 l
0.7849 0.3362 l
0.7957 0.3445 l
0.8066 0.3529 l
0.8176 0.3617 l
0.8287 0.3707 l
0.8399 0.3801 l
0.8513 0.3897 l
0.8628 0.3996 l
0.8744 0.4098 l
0.8862 0.4203 l
0.8981 0.4312 l
0.9101 0.4423 l
0.9222 0.4538 l
0.9344 0.4655 l
0.9468 0.4776 l
0.9593 0.4901 l
0.9720 0.5028 l
0.9848 0.5159 l
0.9977 0.5294 l
1.0107 0.5432 l
1.0239 0.5573 l
1.0372 0.5718 l
1.0506 0.5867 l
1.0642 0.6019 l
1.0779 0.6175 l
1.0918 0.6335 l
1.1058 0.6498 l
1.1199 0.6666 l
1.1341 0.6837 l
1.1485 0.7013 l
1.1501 0.7032 l
s
[/DeviceRGB] SCS
Color1 SC
[] 0 SD
0.0045 SLW
n
0.1500 0.1500 m
1.1500 0.1500 l
s
n
0.1500 0.8500 m
1.1500 0.8500 l
s
n
0.2333 0.1500 m
0.2333 0.1600 l
s
n
0.2333 0.8500 m
0.2333 0.8400 l
s
n
0.4000 0.1500 m
0.4000 0.1600 l
s
n
0.4000 0.8500 m
0.4000 0.8400 l
s
n
0.5667 0.1500 m
0.5667 0.1600 l
s
n
0.5667 0.8500 m
0.5667 0.8400 l
s
n
0.7333 0.1500 m
0.7333 0.1600 l
s
n
0.7333 0.8500 m
0.7333 0.8400 l
s
n
0.9000 0.1500 m
0.9000 0.1600 l
s
n
0.9000 0.8500 m
0.9000 0.8400 l
s
n
1.0667 0.1500 m
1.0667 0.1600 l
s
n
1.0667 0.8500 m
1.0667 0.8400 l
s
n
0.1500 0.1500 m
0.1500 0.1700 l
s
n
0.1500 0.8500 m
0.1500 0.8300 l
s
n
0.3167 0.1500 m
0.3167 0.1700 l
s
n
0.3167 0.8500 m
0.3167 0.8300 l
s
n
0.4833 0.1500 m
0.4833 0.1700 l
s
n
0.4833 0.8500 m
0.4833 0.8300 l
s
n
0.6500 0.1500 m
0.6500 0.1700 l
s
n
0.6500 0.8500 m
0.6500 0.8300 l
s
n
0.8167 0.1500 m
0.8167 0.1700 l
s
n
0.8167 0.8500 m
0.8167 0.8300 l
s
n
0.9833 0.1500 m
0.9833 0.1700 l
s
n
0.9833 0.8500 m
0.9833 0.8300 l
s
/Times-Roman findfont
dup length dict begin
 {1 index /FID ne {def} {pop pop} ifelse} forall
 /Encoding DefEncoding def
 currentdict
end
/Font0 exch definefont pop
/Font0 FFSF
0.1394 0.1094 m
GS
[0.0448 0.0000 0.0000 0.0448 0 0] CC
(0) show
GR
/Font0 FFSF
0.2910 0.1094 m
GS
[0.0448 0.0000 0.0000 0.0448 0 0] CC
(0.1) show
GR
/Font0 FFSF
0.4559 0.1094 m
GS
[0.0448 0.0000 0.0000 0.0448 0 0] CC
(0.2) show
GR
/Font0 FFSF
0.6233 0.1094 m
GS
[0.0448 0.0000 0.0000 0.0448 0 0] CC
(0.3) show
GR
/Font0 FFSF
0.7892 0.1094 m
GS
[0.0448 0.0000 0.0000 0.0448 0 0] CC
(0.4) show
GR
/Font0 FFSF
0.9567 0.1090 m
GS
[0.0448 0.0000 0.0000 0.0448 0 0] CC
(0.5) show
GR
/Symbol findfont
/Font12 exch definefont pop
/Font12 FFSF
0.5722 0.0441 m
GS
[0.0504 0.0000 0.0000 0.0504 0 0] CC
(r) show
GR
/Font0 FFSF
0.6000 0.0441 m
GS
[0.0504 0.0000 0.0000 0.0504 0 0] CC
( [fm) show
GR
/Font0 FFSF
0.6855 0.0743 m
GS
[0.0356 0.0000 0.0000 0.0356 0 0] CC
(-3) show
GR
/Font0 FFSF
0.7153 0.0441 m
GS
[0.0504 0.0000 0.0000 0.0504 0 0] CC
(]) show
GR
n
0.1500 0.1500 m
0.1500 0.8500 l
s
n
1.1500 0.1500 m
1.1500 0.8500 l
s
n
0.1500 0.2375 m
0.1600 0.2375 l
s
n
1.1500 0.2375 m
1.1400 0.2375 l
s
n
0.1500 0.4125 m
0.1600 0.4125 l
s
n
1.1500 0.4125 m
1.1400 0.4125 l
s
n
0.1500 0.5875 m
0.1600 0.5875 l
s
n
1.1500 0.5875 m
1.1400 0.5875 l
s
n
0.1500 0.7625 m
0.1600 0.7625 l
s
n
1.1500 0.7625 m
1.1400 0.7625 l
s
n
0.1500 0.1500 m
0.1700 0.1500 l
s
n
1.1500 0.1500 m
1.1300 0.1500 l
s
n
0.1500 0.3250 m
0.1700 0.3250 l
s
n
1.1500 0.3250 m
1.1300 0.3250 l
s
n
0.1500 0.5000 m
0.1700 0.5000 l
s
n
1.1500 0.5000 m
1.1300 0.5000 l
s
n
0.1500 0.6750 m
0.1700 0.6750 l
s
n
1.1500 0.6750 m
1.1300 0.6750 l
s
n
0.1500 0.8500 m
0.1700 0.8500 l
s
n
1.1500 0.8500 m
1.1300 0.8500 l
s
/Font0 FFSF
0.0816 0.1351 m
GS
[0.0448 0.0000 0.0000 0.0448 0 0] CC
(-20) show
GR
/Font0 FFSF
0.1188 0.3101 m
GS
[0.0448 0.0000 0.0000 0.0448 0 0] CC
(0) show
GR
/Font0 FFSF
0.0965 0.4851 m
GS
[0.0448 0.0000 0.0000 0.0448 0 0] CC
(20) show
GR
/Font0 FFSF
0.0965 0.6601 m
GS
[0.0448 0.0000 0.0000 0.0448 0 0] CC
(40) show
GR
/Font0 FFSF
0.0965 0.8351 m
GS
[0.0448 0.0000 0.0000 0.0448 0 0] CC
(60) show
GR
/Font0 FFSF
0.0637 0.3867 m
GS
[0.0000 0.0504 -0.0504 0.0000 0 0] CC
(E/A [MeV]) show
GR
[] 0 SD
0.0015 SLW
n
0.1500 0.1500 m
0.1500 0.8500 l
1.1500 0.8500 l
1.1500 0.1500 l
0.1500 0.1500 l
c
s
n
0.1500 0.8500 m
0.1500 0.6647 l
0.3758 0.6647 l
0.3758 0.8500 l
c
[/DeviceRGB] SCS
Color0 SC
fill
[/DeviceRGB] SCS
Color1 SC
[] 0 SD
0.0045 SLW
n
0.1500 0.8500 m
0.1500 0.6647 l
0.3758 0.6647 l
0.3758 0.8500 l
0.1500 0.8500 l
c
s
/Font0 FFSF
0.2619 0.8071 m
GS
[0.0498 0.0000 0.0000 0.0498 0 0] CC
(BHF) show
GR
n
0.1934 0.8150 m
0.1934 0.8320 l
0.2104 0.8320 l
0.2104 0.8150 l
c
GS
Color0 SRGB
fill
GR
[/Pattern /DeviceRGB] SCS
Color1 Pattern8 SC
fill
[/DeviceRGB] SCS
Color1 SC
[] 0 SD
0.0030 SLW
n
0.1934 0.8150 m
0.1934 0.8320 l
0.2104 0.8320 l
0.2104 0.8150 l
0.1934 0.8150 l
c
s
/Font0 FFSF
0.2619 0.7633 m
GS
[0.0498 0.0000 0.0000 0.0498 0 0] CC
(D1S) show
GR
[] 0 SD
0.0037 SLW
n
0.1619 0.7798 m
0.2419 0.7798 l
s
/Font0 FFSF
0.2619 0.7188 m
GS
[0.0498 0.0000 0.0000 0.0498 0 0] CC
(D1N) show
GR
[/DeviceRGB] SCS
Color2 SC
[0.0187 0.0112 ] 0 SD
0.0037 SLW
n
0.1619 0.7355 m
0.2419 0.7355 l
s
/Font0 FFSF
[/DeviceRGB] SCS
Color1 SC
0.2619 0.6747 m
GS
[0.0498 0.0000 0.0000 0.0498 0 0] CC
(D1M) show
GR
[/DeviceRGB] SCS
Color4 SC
[0.0037 0.0112 0.0187 0.0112 ] 0 SD
0.0037 SLW
n
0.1619 0.6916 m
0.2419 0.6916 l
s
[/DeviceRGB] SCS
Color1 SC
[] 0 SD
0.0015 SLW
n
0.3752 0.8497 m
0.3725 0.8458 l
s
/Font0 FFSF
0.4000 0.7500 m
GS
[0.0862 0.0000 0.0000 0.0862 0 0] CC
(b\)) show
GR
showpage
%%PageTrailer
%%Trailer
%%DocumentNeededResources: font Times-Roman
%%+ font Symbol
%%EOF
