%!PS-Adobe-3.0
%%BoundingBox: 0 0 612 792
%%LanguageLevel: 2
%%Creator: Grace-5.1.22
%%CreationDate: Tue Jan 21 11:41:37 2014
%%DocumentData: Clean8Bit
%%Orientation: Landscape
%%Pages: 1
%%PageOrder: Ascend
%%Title: /Users/alessandropastore/Dropbox/physics_reports_lr/JPG-FIT/Vers-5/plot/differenceNAKA_dimension.agr
%%For: alessandropastore
%%DocumentNeededResources: (atend)
%%EndComments
%%BeginProlog
/PAGE_OFFSET_X 0 def
/PAGE_OFFSET_Y 0 def
/m {moveto} def
/l {lineto} def
/s {stroke} def
/n {newpath} def
/c {closepath} def
/RL {rlineto} def
/SLW {setlinewidth} def
/GS {gsave} def
/GR {grestore} def
/SC {setcolor} def
/SGRY {setgray} def
/SRGB {setrgbcolor} def
/SD {setdash} def
/SLC {setlinecap} def
/SLJ {setlinejoin} def
/SCS {setcolorspace} def
/FFSF {findfont setfont} def
/CC {concat} def
/PXL {n m 0 0 RL s} def
/Color0 {1.0000 1.0000 1.0000} def
/Color1 {0.0000 0.0000 0.0000} def
/Color2 {1.0000 0.0000 0.0000} def
/Color3 {0.0000 1.0000 0.0000} def
/Color4 {0.0000 0.0000 1.0000} def
/Color5 {1.0000 1.0000 0.0000} def
/Color6 {0.7373 0.5608 0.5608} def
/Color7 {0.8627 0.8627 0.8627} def
/Color8 {0.5804 0.0000 0.8275} def
/Color9 {0.0000 1.0000 1.0000} def
/Color10 {1.0000 0.0000 1.0000} def
/Color11 {1.0000 0.6471 0.0000} def
/Color12 {0.4471 0.1294 0.7373} def
/Color13 {0.4039 0.0275 0.2824} def
/Color14 {0.2510 0.8784 0.8157} def
/Color15 {0.0000 0.5451 0.0000} def
/Color16 {0.7529 0.7529 0.7529} def
/Color17 {0.5059 0.5059 0.5059} def
/Color18 {0.2588 0.2588 0.2588} def
/PTRN {
 /pat_bits exch def 
 <<
  /PaintType 2
  /PatternType 1 /TilingType 1
  /BBox[0 0 16 16]
  /XStep 16 /YStep 16
  /PaintProc {
   pop
   16 16 true [-1 0 0 -1 16 16] pat_bits imagemask
  }
 >>
 [0.0016 0 0 0.0016 0 0]
 makepattern
} def
/Pattern0 {<0000000000000000000000000000000000000000000000000000000000000000> PTRN} bind def
/Pattern1 {<ffffffffffffffffffffffffffffffffffffffffffffffffffffffffffffffff> PTRN} bind def
/Pattern2 {<eeeeffffbbbbffffeeeeffffbbbbffffeeeeffffbbbbffffeeeeffffbbbbffff> PTRN} bind def
/Pattern3 {<eeeebbbbeeeebbbbeeeebbbbeeeebbbbeeeebbbbeeeebbbbeeeebbbbeeeebbbb> PTRN} bind def
/Pattern4 {<5555aaaa5555aaaa5555aaaa5555aaaa5555aaaa5555aaaa5555aaaa5555aaaa> PTRN} bind def
/Pattern5 {<1111444411114444111144441111444411114444111144441111444411114444> PTRN} bind def
/Pattern6 {<1111000044440000111100004444000011110000444400001111000044440000> PTRN} bind def
/Pattern7 {<1010000000000000010100000000000010100000000000000101000000000000> PTRN} bind def
/Pattern8 {<0000000000000000000000000000000000000000000000000000000000000000> PTRN} bind def
/Pattern9 {<1e1e0f0f8787c3c3e1e1f0f078783c3c1e1e0f0f8787c3c3e1e1f0f078783c3c> PTRN} bind def
/Pattern10 {<7878f0f0e1e1c3c387870f0f1e1e3c3c7878f0f0e1e1c3c387870f0f1e1e3c3c> PTRN} bind def
/Pattern11 {<3333333333333333333333333333333333333333333333333333333333333333> PTRN} bind def
/Pattern12 {<ffffffff00000000ffffffff00000000ffffffff00000000ffffffff00000000> PTRN} bind def
/Pattern13 {<8181424224241818181824244242818181814242242418181818242442428181> PTRN} bind def
/Pattern14 {<8080404020201010080804040202010180804040202010100808040402020101> PTRN} bind def
/Pattern15 {<0101020204040808101020204040808001010202040408081010202040408080> PTRN} bind def
/Pattern16 {<2222222222222222222222222222222222222222222222222222222222222222> PTRN} bind def
/Pattern17 {<0000ffff000000000000ffff000000000000ffff000000000000ffff00000000> PTRN} bind def
/Pattern18 {<2222ffff222222222222ffff222222222222ffff222222222222ffff22222222> PTRN} bind def
/Pattern19 {<ffffffff33333333ffffffff33333333ffffffff33333333ffffffff33333333> PTRN} bind def
/Pattern20 {<0f0f0f0f0f0f0f0ff0f0f0f0f0f0f0f00f0f0f0f0f0f0f0ff0f0f0f0f0f0f0f0> PTRN} bind def
/Pattern21 {<ff00ff00ff00ff00ff00ff00ff00ff0000ff00ff00ff00ff00ff00ff00ff00ff> PTRN} bind def
/Pattern22 {<8001800180018001800180018001ffffffff8001800180018001800180018001> PTRN} bind def
/Pattern23 {<c003c003c003c003c003c003ffffffffffffffffc003c003c003c003c003c003> PTRN} bind def
/Pattern24 {<040404040404ffff404040404040ffff040404040404ffff404040404040ffff> PTRN} bind def
/Pattern25 {<180018001800180018001800ffffffff001800180018001800180018ffffffff> PTRN} bind def
/Pattern26 {<1111b8b87c7c3a3a1111a3a3c7c78b8b1111b8b87c7c3a3a1111a3a3c7c78b8b> PTRN} bind def
/Pattern27 {<101010102828c7c70101010182827c7c101010102828c7c70101010182827c7c> PTRN} bind def
/Pattern28 {<1c1c121211112121c1c12121111112121c1c121211112121c1c1212111111212> PTRN} bind def
/Pattern29 {<3e3e414180808080e3e31414080808083e3e414180808080e3e3141408080808> PTRN} bind def
/Pattern30 {<4848888884848383848488884848383848488888848483838484888848483838> PTRN} bind def
/Pattern31 {<03030404080808080c0c12122121c0c003030404080808080c0c12122121c0c0> PTRN} bind def
/ellipsedict 8 dict def
ellipsedict /mtrx matrix put
/EARC {
 ellipsedict begin
  /endangle exch def
  /startangle exch def
  /yrad exch def
  /xrad exch def
  /y exch def
  /x exch def
  /savematrix mtrx currentmatrix def
  x y translate
  xrad yrad scale
  0 0 1 startangle endangle arc
  savematrix setmatrix
 end
} def
/TL {
  /kcomp exch def
  /linewidth exch def
  /offset exch def
  GS
  0 offset rmoveto
  linewidth SLW
  dup stringwidth exch kcomp add exch RL s
  GR
} def
/KINIT
{
 /kvector exch def
 /kid 0 def
} def
/KPROC
{
 pop pop
 kvector kid get
 0 rmoveto
 /kid 1 kid add def
} def
/DefEncoding [
 /.notdef
 /.notdef
 /.notdef
 /.notdef
 /.notdef
 /.notdef
 /.notdef
 /.notdef
 /.notdef
 /.notdef
 /.notdef
 /.notdef
 /.notdef
 /.notdef
 /.notdef
 /.notdef
 /.notdef
 /.notdef
 /.notdef
 /.notdef
 /.notdef
 /.notdef
 /.notdef
 /.notdef
 /.notdef
 /.notdef
 /.notdef
 /.notdef
 /.notdef
 /.notdef
 /.notdef
 /.notdef
 /space
 /exclam
 /quotedbl
 /numbersign
 /dollar
 /percent
 /ampersand
 /quoteright
 /parenleft
 /parenright
 /asterisk
 /plus
 /comma
 /hyphen
 /period
 /slash
 /zero
 /one
 /two
 /three
 /four
 /five
 /six
 /seven
 /eight
 /nine
 /colon
 /semicolon
 /less
 /equal
 /greater
 /question
 /at
 /A
 /B
 /C
 /D
 /E
 /F
 /G
 /H
 /I
 /J
 /K
 /L
 /M
 /N
 /O
 /P
 /Q
 /R
 /S
 /T
 /U
 /V
 /W
 /X
 /Y
 /Z
 /bracketleft
 /backslash
 /bracketright
 /asciicircum
 /underscore
 /grave
 /a
 /b
 /c
 /d
 /e
 /f
 /g
 /h
 /i
 /j
 /k
 /l
 /m
 /n
 /o
 /p
 /q
 /r
 /s
 /t
 /u
 /v
 /w
 /x
 /y
 /z
 /braceleft
 /bar
 /braceright
 /asciitilde
 /.notdef
 /.notdef
 /.notdef
 /.notdef
 /.notdef
 /.notdef
 /.notdef
 /.notdef
 /.notdef
 /.notdef
 /.notdef
 /.notdef
 /.notdef
 /.notdef
 /.notdef
 /.notdef
 /.notdef
 /.notdef
 /.notdef
 /.notdef
 /.notdef
 /.notdef
 /.notdef
 /.notdef
 /.notdef
 /.notdef
 /.notdef
 /.notdef
 /.notdef
 /.notdef
 /.notdef
 /.notdef
 /.notdef
 /space
 /exclamdown
 /cent
 /sterling
 /currency
 /yen
 /brokenbar
 /section
 /dieresis
 /copyright
 /ordfeminine
 /guillemotleft
 /logicalnot
 /hyphen
 /registered
 /macron
 /degree
 /plusminus
 /twosuperior
 /threesuperior
 /acute
 /mu
 /paragraph
 /periodcentered
 /cedilla
 /onesuperior
 /ordmasculine
 /guillemotright
 /onequarter
 /onehalf
 /threequarters
 /questiondown
 /Agrave
 /Aacute
 /Acircumflex
 /Atilde
 /Adieresis
 /Aring
 /AE
 /Ccedilla
 /Egrave
 /Eacute
 /Ecircumflex
 /Edieresis
 /Igrave
 /Iacute
 /Icircumflex
 /Idieresis
 /Eth
 /Ntilde
 /Ograve
 /Oacute
 /Ocircumflex
 /Otilde
 /Odieresis
 /multiply
 /Oslash
 /Ugrave
 /Uacute
 /Ucircumflex
 /Udieresis
 /Yacute
 /Thorn
 /germandbls
 /agrave
 /aacute
 /acircumflex
 /atilde
 /adieresis
 /aring
 /ae
 /ccedilla
 /egrave
 /eacute
 /ecircumflex
 /edieresis
 /igrave
 /iacute
 /icircumflex
 /idieresis
 /eth
 /ntilde
 /ograve
 /oacute
 /ocircumflex
 /otilde
 /odieresis
 /divide
 /oslash
 /ugrave
 /uacute
 /ucircumflex
 /udieresis
 /yacute
 /thorn
 /ydieresis
] def
%%EndProlog
%%BeginSetup
%%EndSetup
%%Page: 1 1
PAGE_OFFSET_X PAGE_OFFSET_Y translate
612.00 612.00 scale
90 rotate
0.0 -1.0 translate
n
0.0000 0.0000 m
0.0000 1.0000 l
1.2941 1.0000 l
1.2941 0.0000 l
c
[/DeviceRGB] SCS
Color0 SC
fill
[/DeviceRGB] SCS
Color1 SC
[] 0 SD
0.0037 SLW
0 SLC
0 SLJ
n
0.1977 0.3756 m
0.2128 0.3593 l
0.2279 0.3385 l
0.2431 0.3196 l
0.2582 0.3030 l
0.2733 0.2882 l
0.2884 0.2751 l
0.3035 0.2634 l
0.3186 0.2527 l
0.3338 0.2431 l
0.3489 0.2342 l
0.3640 0.2261 l
0.3791 0.2186 l
0.3942 0.2117 l
0.4093 0.2052 l
0.4244 0.1991 l
0.4396 0.1935 l
0.4547 0.1882 l
0.4698 0.1832 l
0.4849 0.1785 l
0.5000 0.1740 l
0.5151 0.1698 l
0.5303 0.1658 l
0.5454 0.1620 l
0.5605 0.1584 l
0.5756 0.1550 l
0.5907 0.1517 l
0.5996 0.1499 l
s
[/DeviceRGB] SCS
Color2 SC
[0.0187 0.0112 ] 0 SD
0.0037 SLW
n
0.1977 0.6349 m
0.2128 0.6138 l
0.2279 0.5944 l
0.2431 0.5774 l
0.2582 0.5622 l
0.2733 0.5486 l
0.2884 0.5363 l
0.3035 0.5249 l
0.3186 0.5144 l
0.3338 0.5046 l
0.3489 0.4955 l
0.3640 0.4869 l
0.3791 0.4788 l
0.3942 0.4711 l
0.4093 0.4638 l
0.4244 0.4568 l
0.4396 0.4501 l
0.4547 0.4438 l
0.4698 0.4376 l
0.4849 0.4317 l
0.5000 0.4261 l
0.5151 0.4206 l
0.5303 0.4153 l
0.5454 0.4103 l
0.5605 0.4053 l
0.5756 0.4005 l
0.5907 0.3959 l
0.6058 0.3914 l
0.6210 0.3870 l
0.6361 0.3828 l
0.6512 0.3787 l
0.6663 0.3746 l
0.6814 0.3707 l
0.6965 0.3669 l
0.7116 0.3632 l
0.7268 0.3595 l
0.7419 0.3560 l
0.7570 0.3525 l
0.7721 0.3491 l
0.7872 0.3458 l
0.8023 0.3426 l
0.8175 0.3394 l
0.8326 0.3363 l
0.8477 0.3332 l
0.8628 0.3302 l
0.8779 0.3273 l
0.8930 0.3244 l
0.9081 0.3216 l
0.9233 0.3189 l
0.9384 0.3162 l
0.9535 0.3135 l
0.9686 0.3109 l
0.9837 0.3083 l
0.9988 0.3058 l
1.0140 0.3033 l
1.0291 0.3009 l
1.0442 0.2985 l
1.0593 0.2962 l
1.0744 0.2939 l
1.0895 0.2916 l
1.1047 0.2893 l
1.1198 0.2871 l
1.1349 0.2850 l
s
[/DeviceRGB] SCS
Color3 SC
[0.0037 0.0112 ] 0 SD
0.0037 SLW
n
0.1977 0.7126 m
0.2128 0.6998 l
0.2279 0.6879 l
0.2431 0.6771 l
0.2582 0.6672 l
0.2733 0.6581 l
0.2884 0.6497 l
0.3035 0.6418 l
0.3186 0.6345 l
0.3338 0.6276 l
0.3489 0.6211 l
0.3640 0.6149 l
0.3791 0.6090 l
0.3942 0.6034 l
0.4093 0.5980 l
0.4244 0.5928 l
0.4396 0.5879 l
0.4547 0.5831 l
0.4698 0.5785 l
0.4849 0.5740 l
0.5000 0.5697 l
0.5151 0.5656 l
0.5303 0.5615 l
0.5454 0.5576 l
0.5605 0.5537 l
0.5756 0.5500 l
0.5907 0.5464 l
0.6058 0.5429 l
0.6210 0.5394 l
0.6361 0.5360 l
0.6512 0.5327 l
0.6663 0.5295 l
0.6814 0.5264 l
0.6965 0.5233 l
0.7116 0.5203 l
0.7268 0.5173 l
0.7419 0.5144 l
0.7570 0.5116 l
0.7721 0.5088 l
0.7872 0.5060 l
0.8023 0.5033 l
0.8175 0.5007 l
0.8326 0.4981 l
0.8477 0.4955 l
0.8628 0.4930 l
0.8779 0.4905 l
0.8930 0.4880 l
0.9081 0.4856 l
0.9233 0.4833 l
0.9384 0.4809 l
0.9535 0.4786 l
0.9686 0.4764 l
0.9837 0.4741 l
0.9988 0.4719 l
1.0140 0.4698 l
1.0291 0.4676 l
1.0442 0.4655 l
1.0593 0.4634 l
1.0744 0.4613 l
1.0895 0.4593 l
1.1047 0.4573 l
1.1198 0.4553 l
1.1349 0.4533 l
s
[/DeviceRGB] SCS
Color4 SC
[0.0037 0.0112 0.0187 0.0112 ] 0 SD
0.0037 SLW
n
0.1977 0.7376 m
0.2128 0.7311 l
0.2279 0.7247 l
0.2431 0.7184 l
0.2582 0.7124 l
0.2733 0.7067 l
0.2884 0.7013 l
0.3035 0.6961 l
0.3186 0.6911 l
0.3338 0.6864 l
0.3489 0.6819 l
0.3640 0.6775 l
0.3791 0.6733 l
0.3942 0.6693 l
0.4093 0.6654 l
0.4244 0.6616 l
0.4396 0.6580 l
0.4547 0.6545 l
0.4698 0.6511 l
0.4849 0.6478 l
0.5000 0.6446 l
0.5151 0.6414 l
0.5303 0.6384 l
0.5454 0.6354 l
0.5605 0.6325 l
0.5756 0.6297 l
0.5907 0.6269 l
0.6058 0.6243 l
0.6210 0.6216 l
0.6361 0.6190 l
0.6512 0.6165 l
0.6663 0.6140 l
0.6814 0.6116 l
0.6965 0.6092 l
0.7116 0.6069 l
0.7268 0.6046 l
0.7419 0.6024 l
0.7570 0.6002 l
0.7721 0.5980 l
0.7872 0.5959 l
0.8023 0.5938 l
0.8175 0.5917 l
0.8326 0.5897 l
0.8477 0.5877 l
0.8628 0.5857 l
0.8779 0.5837 l
0.8930 0.5818 l
0.9081 0.5799 l
0.9233 0.5781 l
0.9384 0.5762 l
0.9535 0.5744 l
0.9686 0.5726 l
0.9837 0.5709 l
0.9988 0.5691 l
1.0140 0.5674 l
1.0291 0.5657 l
1.0442 0.5640 l
1.0593 0.5624 l
1.0744 0.5607 l
1.0895 0.5591 l
1.1047 0.5575 l
1.1198 0.5559 l
1.1349 0.5544 l
s
[/DeviceRGB] SCS
Color8 SC
[0.0187 0.0112 0.0037 0.0112 0.0187 0.0112 ] 0 SD
0.0037 SLW
n
0.1977 0.7457 m
0.2128 0.7428 l
0.2279 0.7396 l
0.2431 0.7362 l
0.2582 0.7329 l
0.2733 0.7295 l
0.2884 0.7262 l
0.3035 0.7230 l
0.3186 0.7198 l
0.3338 0.7167 l
0.3489 0.7137 l
0.3640 0.7107 l
0.3791 0.7079 l
0.3942 0.7051 l
0.4093 0.7023 l
0.4244 0.6997 l
0.4396 0.6970 l
0.4547 0.6945 l
0.4698 0.6920 l
0.4849 0.6896 l
0.5000 0.6872 l
0.5151 0.6849 l
0.5303 0.6826 l
0.5454 0.6803 l
0.5605 0.6782 l
0.5756 0.6760 l
0.5907 0.6739 l
0.6058 0.6718 l
0.6210 0.6698 l
0.6361 0.6678 l
0.6512 0.6659 l
0.6663 0.6640 l
0.6814 0.6621 l
0.6965 0.6602 l
0.7116 0.6584 l
0.7268 0.6566 l
0.7419 0.6548 l
0.7570 0.6531 l
0.7721 0.6514 l
0.7872 0.6497 l
0.8023 0.6480 l
0.8175 0.6464 l
0.8326 0.6448 l
0.8477 0.6432 l
0.8628 0.6416 l
0.8779 0.6401 l
0.8930 0.6386 l
0.9081 0.6371 l
0.9233 0.6356 l
0.9384 0.6341 l
0.9535 0.6327 l
0.9686 0.6312 l
0.9837 0.6298 l
0.9988 0.6284 l
1.0140 0.6270 l
1.0291 0.6257 l
1.0442 0.6243 l
1.0593 0.6230 l
1.0744 0.6217 l
1.0895 0.6204 l
1.1047 0.6191 l
1.1198 0.6178 l
1.1349 0.6165 l
s
[/DeviceRGB] SCS
Color15 SC
[] 0 SD
0.0030 SLW
n
0.1977 0.7482 m
0.2128 0.7470 l
0.2279 0.7455 l
0.2431 0.7439 l
0.2582 0.7421 l
0.2733 0.7402 l
0.2884 0.7383 l
0.3035 0.7364 l
0.3186 0.7345 l
0.3338 0.7326 l
0.3489 0.7307 l
0.3640 0.7287 l
0.3791 0.7269 l
0.3942 0.7250 l
0.4093 0.7231 l
0.4244 0.7213 l
0.4396 0.7195 l
0.4547 0.7177 l
0.4698 0.7160 l
0.4849 0.7142 l
0.5000 0.7125 l
0.5151 0.7108 l
0.5303 0.7092 l
0.5454 0.7075 l
0.5605 0.7059 l
0.5756 0.7043 l
0.5907 0.7027 l
0.6058 0.7012 l
0.6210 0.6997 l
0.6361 0.6982 l
0.6512 0.6967 l
0.6663 0.6952 l
0.6814 0.6938 l
0.6965 0.6923 l
0.7116 0.6909 l
0.7268 0.6895 l
0.7419 0.6882 l
0.7570 0.6868 l
0.7721 0.6855 l
0.7872 0.6841 l
0.8023 0.6828 l
0.8175 0.6815 l
0.8326 0.6803 l
0.8477 0.6790 l
0.8628 0.6778 l
0.8779 0.6765 l
0.8930 0.6753 l
0.9081 0.6741 l
0.9233 0.6729 l
0.9384 0.6717 l
0.9535 0.6706 l
0.9686 0.6694 l
0.9837 0.6683 l
0.9988 0.6671 l
1.0140 0.6660 l
1.0291 0.6649 l
1.0442 0.6638 l
1.0593 0.6627 l
1.0744 0.6617 l
1.0895 0.6606 l
1.1047 0.6595 l
1.1198 0.6585 l
1.1349 0.6575 l
s
n
0.1977 0.7482 0.0041 0.0041 0 360 EARC c
fill
[] 0 SD
0.0015 SLW
n 0.1977 0.7482 0.0041 0.0041 0 360 EARC s
n
0.2128 0.7470 0.0041 0.0041 0 360 EARC c
fill
n 0.2128 0.7470 0.0041 0.0041 0 360 EARC s
n
0.2279 0.7455 0.0041 0.0041 0 360 EARC c
fill
n 0.2279 0.7455 0.0041 0.0041 0 360 EARC s
n
0.2431 0.7439 0.0041 0.0041 0 360 EARC c
fill
n 0.2431 0.7439 0.0041 0.0041 0 360 EARC s
n
0.2582 0.7421 0.0041 0.0041 0 360 EARC c
fill
n 0.2582 0.7421 0.0041 0.0041 0 360 EARC s
n
0.2733 0.7402 0.0041 0.0041 0 360 EARC c
fill
n 0.2733 0.7402 0.0041 0.0041 0 360 EARC s
n
0.2884 0.7383 0.0041 0.0041 0 360 EARC c
fill
n 0.2884 0.7383 0.0041 0.0041 0 360 EARC s
n
0.3035 0.7364 0.0041 0.0041 0 360 EARC c
fill
n 0.3035 0.7364 0.0041 0.0041 0 360 EARC s
n
0.3186 0.7345 0.0041 0.0041 0 360 EARC c
fill
n 0.3186 0.7345 0.0041 0.0041 0 360 EARC s
n
0.3338 0.7326 0.0041 0.0041 0 360 EARC c
fill
n 0.3338 0.7326 0.0041 0.0041 0 360 EARC s
n
0.3489 0.7307 0.0041 0.0041 0 360 EARC c
fill
n 0.3489 0.7307 0.0041 0.0041 0 360 EARC s
n
0.3640 0.7287 0.0041 0.0041 0 360 EARC c
fill
n 0.3640 0.7287 0.0041 0.0041 0 360 EARC s
n
0.3791 0.7269 0.0041 0.0041 0 360 EARC c
fill
n 0.3791 0.7269 0.0041 0.0041 0 360 EARC s
n
0.3942 0.7250 0.0041 0.0041 0 360 EARC c
fill
n 0.3942 0.7250 0.0041 0.0041 0 360 EARC s
n
0.4093 0.7231 0.0041 0.0041 0 360 EARC c
fill
n 0.4093 0.7231 0.0041 0.0041 0 360 EARC s
n
0.4244 0.7213 0.0041 0.0041 0 360 EARC c
fill
n 0.4244 0.7213 0.0041 0.0041 0 360 EARC s
n
0.4396 0.7195 0.0041 0.0041 0 360 EARC c
fill
n 0.4396 0.7195 0.0041 0.0041 0 360 EARC s
n
0.4547 0.7177 0.0041 0.0041 0 360 EARC c
fill
n 0.4547 0.7177 0.0041 0.0041 0 360 EARC s
n
0.4698 0.7160 0.0041 0.0041 0 360 EARC c
fill
n 0.4698 0.7160 0.0041 0.0041 0 360 EARC s
n
0.4849 0.7142 0.0041 0.0041 0 360 EARC c
fill
n 0.4849 0.7142 0.0041 0.0041 0 360 EARC s
n
0.5000 0.7125 0.0041 0.0041 0 360 EARC c
fill
n 0.5000 0.7125 0.0041 0.0041 0 360 EARC s
n
0.5151 0.7108 0.0041 0.0041 0 360 EARC c
fill
n 0.5151 0.7108 0.0041 0.0041 0 360 EARC s
n
0.5303 0.7092 0.0041 0.0041 0 360 EARC c
fill
n 0.5303 0.7092 0.0041 0.0041 0 360 EARC s
n
0.5454 0.7075 0.0041 0.0041 0 360 EARC c
fill
n 0.5454 0.7075 0.0041 0.0041 0 360 EARC s
n
0.5605 0.7059 0.0041 0.0041 0 360 EARC c
fill
n 0.5605 0.7059 0.0041 0.0041 0 360 EARC s
n
0.5756 0.7043 0.0041 0.0041 0 360 EARC c
fill
n 0.5756 0.7043 0.0041 0.0041 0 360 EARC s
n
0.5907 0.7027 0.0041 0.0041 0 360 EARC c
fill
n 0.5907 0.7027 0.0041 0.0041 0 360 EARC s
n
0.6058 0.7012 0.0041 0.0041 0 360 EARC c
fill
n 0.6058 0.7012 0.0041 0.0041 0 360 EARC s
n
0.6210 0.6997 0.0041 0.0041 0 360 EARC c
fill
n 0.6210 0.6997 0.0041 0.0041 0 360 EARC s
n
0.6361 0.6982 0.0041 0.0041 0 360 EARC c
fill
n 0.6361 0.6982 0.0041 0.0041 0 360 EARC s
n
0.6512 0.6967 0.0041 0.0041 0 360 EARC c
fill
n 0.6512 0.6967 0.0041 0.0041 0 360 EARC s
n
0.6663 0.6952 0.0041 0.0041 0 360 EARC c
fill
n 0.6663 0.6952 0.0041 0.0041 0 360 EARC s
n
0.6814 0.6938 0.0041 0.0041 0 360 EARC c
fill
n 0.6814 0.6938 0.0041 0.0041 0 360 EARC s
n
0.6965 0.6923 0.0041 0.0041 0 360 EARC c
fill
n 0.6965 0.6923 0.0041 0.0041 0 360 EARC s
n
0.7116 0.6909 0.0041 0.0041 0 360 EARC c
fill
n 0.7116 0.6909 0.0041 0.0041 0 360 EARC s
n
0.7268 0.6895 0.0041 0.0041 0 360 EARC c
fill
n 0.7268 0.6895 0.0041 0.0041 0 360 EARC s
n
0.7419 0.6882 0.0041 0.0041 0 360 EARC c
fill
n 0.7419 0.6882 0.0041 0.0041 0 360 EARC s
n
0.7570 0.6868 0.0041 0.0041 0 360 EARC c
fill
n 0.7570 0.6868 0.0041 0.0041 0 360 EARC s
n
0.7721 0.6855 0.0041 0.0041 0 360 EARC c
fill
n 0.7721 0.6855 0.0041 0.0041 0 360 EARC s
n
0.7872 0.6841 0.0041 0.0041 0 360 EARC c
fill
n 0.7872 0.6841 0.0041 0.0041 0 360 EARC s
n
0.8023 0.6828 0.0041 0.0041 0 360 EARC c
fill
n 0.8023 0.6828 0.0041 0.0041 0 360 EARC s
n
0.8175 0.6815 0.0041 0.0041 0 360 EARC c
fill
n 0.8175 0.6815 0.0041 0.0041 0 360 EARC s
n
0.8326 0.6803 0.0041 0.0041 0 360 EARC c
fill
n 0.8326 0.6803 0.0041 0.0041 0 360 EARC s
n
0.8477 0.6790 0.0041 0.0041 0 360 EARC c
fill
n 0.8477 0.6790 0.0041 0.0041 0 360 EARC s
n
0.8628 0.6778 0.0041 0.0041 0 360 EARC c
fill
n 0.8628 0.6778 0.0041 0.0041 0 360 EARC s
n
0.8779 0.6765 0.0041 0.0041 0 360 EARC c
fill
n 0.8779 0.6765 0.0041 0.0041 0 360 EARC s
n
0.8930 0.6753 0.0041 0.0041 0 360 EARC c
fill
n 0.8930 0.6753 0.0041 0.0041 0 360 EARC s
n
0.9081 0.6741 0.0041 0.0041 0 360 EARC c
fill
n 0.9081 0.6741 0.0041 0.0041 0 360 EARC s
n
0.9233 0.6729 0.0041 0.0041 0 360 EARC c
fill
n 0.9233 0.6729 0.0041 0.0041 0 360 EARC s
n
0.9384 0.6717 0.0041 0.0041 0 360 EARC c
fill
n 0.9384 0.6717 0.0041 0.0041 0 360 EARC s
n
0.9535 0.6706 0.0041 0.0041 0 360 EARC c
fill
n 0.9535 0.6706 0.0041 0.0041 0 360 EARC s
n
0.9686 0.6694 0.0041 0.0041 0 360 EARC c
fill
n 0.9686 0.6694 0.0041 0.0041 0 360 EARC s
n
0.9837 0.6683 0.0041 0.0041 0 360 EARC c
fill
n 0.9837 0.6683 0.0041 0.0041 0 360 EARC s
n
0.9988 0.6671 0.0041 0.0041 0 360 EARC c
fill
n 0.9988 0.6671 0.0041 0.0041 0 360 EARC s
n
1.0140 0.6660 0.0041 0.0041 0 360 EARC c
fill
n 1.0140 0.6660 0.0041 0.0041 0 360 EARC s
n
1.0291 0.6649 0.0041 0.0041 0 360 EARC c
fill
n 1.0291 0.6649 0.0041 0.0041 0 360 EARC s
n
1.0442 0.6638 0.0041 0.0041 0 360 EARC c
fill
n 1.0442 0.6638 0.0041 0.0041 0 360 EARC s
n
1.0593 0.6627 0.0041 0.0041 0 360 EARC c
fill
n 1.0593 0.6627 0.0041 0.0041 0 360 EARC s
n
1.0744 0.6617 0.0041 0.0041 0 360 EARC c
fill
n 1.0744 0.6617 0.0041 0.0041 0 360 EARC s
n
1.0895 0.6606 0.0041 0.0041 0 360 EARC c
fill
n 1.0895 0.6606 0.0041 0.0041 0 360 EARC s
n
1.1047 0.6595 0.0041 0.0041 0 360 EARC c
fill
n 1.1047 0.6595 0.0041 0.0041 0 360 EARC s
n
1.1198 0.6585 0.0041 0.0041 0 360 EARC c
fill
n 1.1198 0.6585 0.0041 0.0041 0 360 EARC s
n
1.1349 0.6575 0.0041 0.0041 0 360 EARC c
fill
n 1.1349 0.6575 0.0041 0.0041 0 360 EARC s
[/DeviceRGB] SCS
Color1 SC
[] 0 SD
0.0045 SLW
n
0.1826 0.1500 m
1.1500 0.1500 l
s
n
0.1826 0.8493 m
1.1500 0.8493 l
s
n
0.3338 0.1500 m
0.3338 0.1600 l
s
n
0.3338 0.8493 m
0.3338 0.8393 l
s
n
0.6361 0.1500 m
0.6361 0.1600 l
s
n
0.6361 0.8493 m
0.6361 0.8393 l
s
n
0.9384 0.1500 m
0.9384 0.1600 l
s
n
0.9384 0.8493 m
0.9384 0.8393 l
s
n
0.1826 0.1500 m
0.1826 0.1700 l
s
n
0.1826 0.8493 m
0.1826 0.8293 l
s
n
0.4849 0.1500 m
0.4849 0.1700 l
s
n
0.4849 0.8493 m
0.4849 0.8293 l
s
n
0.7872 0.1500 m
0.7872 0.1700 l
s
n
0.7872 0.8493 m
0.7872 0.8293 l
s
n
1.0895 0.1500 m
1.0895 0.1700 l
s
n
1.0895 0.8493 m
1.0895 0.8293 l
s
/Times-Roman findfont
dup length dict begin
 {1 index /FID ne {def} {pop pop} ifelse} forall
 /Encoding DefEncoding def
 currentdict
end
/Font0 exch definefont pop
/Font0 FFSF
0.1720 0.1094 m
GS
[0.0448 0.0000 0.0000 0.0448 0 0] CC
(0) show
GR
/Font0 FFSF
0.4592 0.1094 m
GS
[0.0448 0.0000 0.0000 0.0448 0 0] CC
(0.1) show
GR
/Font0 FFSF
0.7598 0.1094 m
GS
[0.0448 0.0000 0.0000 0.0448 0 0] CC
(0.2) show
GR
/Font0 FFSF
1.0629 0.1094 m
GS
[0.0448 0.0000 0.0000 0.0448 0 0] CC
(0.3) show
GR
/Symbol findfont
/Font12 exch definefont pop
/Font12 FFSF
0.5885 0.0445 m
GS
[0.0504 0.0000 0.0000 0.0504 0 0] CC
(r) show
GR
/Font0 FFSF
0.6163 0.0445 m
GS
[0.0504 0.0000 0.0000 0.0504 0 0] CC
( [fm) show
GR
/Font0 FFSF
0.7018 0.0747 m
GS
[0.0356 0.0000 0.0000 0.0356 0 0] CC
(-3) show
GR
/Font0 FFSF
0.7316 0.0445 m
GS
[0.0504 0.0000 0.0000 0.0504 0 0] CC
(]) show
GR
n
0.1826 0.1500 m
0.1826 0.8493 l
s
n
1.1500 0.1500 m
1.1500 0.8493 l
s
n
0.1826 0.1999 m
0.1926 0.1999 l
s
n
1.1500 0.1999 m
1.1400 0.1999 l
s
n
0.1826 0.2998 m
0.1926 0.2998 l
s
n
1.1500 0.2998 m
1.1400 0.2998 l
s
n
0.1826 0.3997 m
0.1926 0.3997 l
s
n
1.1500 0.3997 m
1.1400 0.3997 l
s
n
0.1826 0.4996 m
0.1926 0.4996 l
s
n
1.1500 0.4996 m
1.1400 0.4996 l
s
n
0.1826 0.5995 m
0.1926 0.5995 l
s
n
1.1500 0.5995 m
1.1400 0.5995 l
s
n
0.1826 0.6994 m
0.1926 0.6994 l
s
n
1.1500 0.6994 m
1.1400 0.6994 l
s
n
0.1826 0.7993 m
0.1926 0.7993 l
s
n
1.1500 0.7993 m
1.1400 0.7993 l
s
n
0.1826 0.1500 m
0.2026 0.1500 l
s
n
1.1500 0.1500 m
1.1300 0.1500 l
s
n
0.1826 0.2499 m
0.2026 0.2499 l
s
n
1.1500 0.2499 m
1.1300 0.2499 l
s
n
0.1826 0.3498 m
0.2026 0.3498 l
s
n
1.1500 0.3498 m
1.1300 0.3498 l
s
n
0.1826 0.4497 m
0.2026 0.4497 l
s
n
1.1500 0.4497 m
1.1300 0.4497 l
s
n
0.1826 0.5496 m
0.2026 0.5496 l
s
n
1.1500 0.5496 m
1.1300 0.5496 l
s
n
0.1826 0.6495 m
0.2026 0.6495 l
s
n
1.1500 0.6495 m
1.1300 0.6495 l
s
n
0.1826 0.7494 m
0.2026 0.7494 l
s
n
1.1500 0.7494 m
1.1300 0.7494 l
s
n
0.1826 0.8493 m
0.2026 0.8493 l
s
n
1.1500 0.8493 m
1.1300 0.8493 l
s
/Font0 FFSF
0.0918 0.1351 m
GS
[0.0448 0.0000 0.0000 0.0448 0 0] CC
(-300) show
GR
/Font0 FFSF
0.0918 0.2348 m
GS
[0.0448 0.0000 0.0000 0.0448 0 0] CC
(-250) show
GR
/Font0 FFSF
0.0918 0.3349 m
GS
[0.0448 0.0000 0.0000 0.0448 0 0] CC
(-200) show
GR
/Font0 FFSF
0.0918 0.4346 m
GS
[0.0448 0.0000 0.0000 0.0448 0 0] CC
(-150) show
GR
/Font0 FFSF
0.0918 0.5347 m
GS
[0.0448 0.0000 0.0000 0.0448 0 0] CC
(-100) show
GR
/Font0 FFSF
0.1142 0.6344 m
GS
[0.0448 0.0000 0.0000 0.0448 0 0] CC
(-50) show
GR
/Font0 FFSF
0.1514 0.7345 m
GS
[0.0448 0.0000 0.0000 0.0448 0 0] CC
(0) show
GR
/Font0 FFSF
0.1291 0.8342 m
GS
[0.0448 0.0000 0.0000 0.0448 0 0] CC
(50) show
GR
/Font12 FFSF
0.0613 0.2483 m
GS
[0.0000 0.0504 -0.0504 0.0000 0 0] CC
(S) show
GR
/Times-Italic findfont
dup length dict begin
 {1 index /FID ne {def} {pop pop} ifelse} forall
 /Encoding DefEncoding def
 currentdict
end
/Font1 exch definefont pop
/Font1 FFSF
0.0814 0.2781 m
GS
[0.0000 0.0356 -0.0356 0.0000 0 0] CC
(l) show
GR
/Font0 FFSF
0.0613 0.2879 m
GS
[0.0000 0.0504 -0.0504 0.0000 0 0] CC
(\() show
GR
/Font1 FFSF
0.0613 0.3047 m
GS
[0.0000 0.0504 -0.0504 0.0000 0 0] CC
(g) show
GR
/Font1 FFSF
0.0814 0.3298 m
GS
[0.0000 0.0356 -0.0356 0.0000 0 0] CC
(l) show
GR
/Font0 FFSF
0.0613 0.3396 m
GS
[0.0000 0.0504 -0.0504 0.0000 0 0] CC
(+) show
GR
/Font1 FFSF
0.0613 0.3679 m
GS
[0.0000 0.0504 -0.0504 0.0000 0 0] CC
(f) show
GR
/Font1 FFSF
0.0814 0.3820 m
GS
[0.0000 0.0356 -0.0356 0.0000 0 0] CC
(l) show
GR
/Font1 FFSF
0.0613 0.3918 m
GS
[0.0000 0.0504 -0.0504 0.0000 0 0] CC
(') show
GR
/Font0 FFSF
0.0613 0.4087 m
GS
[0.0000 0.0504 -0.0504 0.0000 0 0] CC
(-2) show
GR
/Font1 FFSF
0.0613 0.4506 m
GS
[0.0000 0.0504 -0.0504 0.0000 0 0] CC
(g) show
GR
/Font1 FFSF
0.0814 0.4757 m
GS
[0.0000 0.0356 -0.0356 0.0000 0 0] CC
(l) show
GR
/Font1 FFSF
0.0613 0.4855 m
GS
[0.0000 0.0504 -0.0504 0.0000 0 0] CC
(') show
GR
/Font0 FFSF
0.0613 0.5024 m
GS
[0.0000 0.0504 -0.0504 0.0000 0 0] CC
(\) [MeV fm) show
GR
/Font0 FFSF
0.0310 0.7208 m
GS
[0.0000 0.0356 -0.0356 0.0000 0 0] CC
(3) show
GR
/Font0 FFSF
0.0613 0.7385 m
GS
[0.0000 0.0504 -0.0504 0.0000 0 0] CC
(]) show
GR
[] 0 SD
0.0015 SLW
n
0.1826 0.1500 m
0.1826 0.8493 l
1.1500 0.8493 l
1.1500 0.1500 l
0.1826 0.1500 l
c
s
n
0.1840 0.8490 m
0.1840 0.4808 l
0.4026 0.4808 l
0.4026 0.8490 l
c
[/DeviceRGB] SCS
Color0 SC
fill
[/DeviceRGB] SCS
Color1 SC
[] 0 SD
0.0045 SLW
n
0.1840 0.8490 m
0.1840 0.4808 l
0.4026 0.4808 l
0.4026 0.8490 l
0.1840 0.8490 l
c
s
/Font1 FFSF
0.2789 0.8080 m
GS
[0.0456 0.0000 0.0000 0.0456 0 0] CC
(l) show
GR
/Font1 FFSF
0.2914 0.7898 m
GS
[0.0323 0.0000 0.0000 0.0323 0 0] CC
(max) show
GR
/Font0 FFSF
0.3451 0.8080 m
GS
[0.0456 0.0000 0.0000 0.0456 0 0] CC
(=0) show
GR
[] 0 SD
0.0037 SLW
n
0.1988 0.8142 m
0.2589 0.8142 l
s
/Font1 FFSF
0.2789 0.7484 m
GS
[0.0456 0.0000 0.0000 0.0456 0 0] CC
(l) show
GR
/Font1 FFSF
0.2914 0.7301 m
GS
[0.0323 0.0000 0.0000 0.0323 0 0] CC
(max) show
GR
/Font0 FFSF
0.3451 0.7484 m
GS
[0.0456 0.0000 0.0000 0.0456 0 0] CC
(=1) show
GR
[/DeviceRGB] SCS
Color2 SC
[0.0187 0.0112 ] 0 SD
0.0037 SLW
n
0.1988 0.7546 m
0.2589 0.7546 l
s
/Font1 FFSF
[/DeviceRGB] SCS
Color1 SC
0.2789 0.6888 m
GS
[0.0456 0.0000 0.0000 0.0456 0 0] CC
(l) show
GR
/Font1 FFSF
0.2914 0.6705 m
GS
[0.0323 0.0000 0.0000 0.0323 0 0] CC
(max) show
GR
/Font0 FFSF
0.3451 0.6888 m
GS
[0.0456 0.0000 0.0000 0.0456 0 0] CC
(=2) show
GR
[/DeviceRGB] SCS
Color3 SC
[0.0037 0.0112 ] 0 SD
0.0037 SLW
n
0.1988 0.6949 m
0.2589 0.6949 l
s
/Font1 FFSF
[/DeviceRGB] SCS
Color1 SC
0.2789 0.6291 m
GS
[0.0456 0.0000 0.0000 0.0456 0 0] CC
(l) show
GR
/Font1 FFSF
0.2914 0.6109 m
GS
[0.0323 0.0000 0.0000 0.0323 0 0] CC
(max) show
GR
/Font0 FFSF
0.3451 0.6291 m
GS
[0.0456 0.0000 0.0000 0.0456 0 0] CC
(=3) show
GR
[/DeviceRGB] SCS
Color4 SC
[0.0037 0.0112 0.0187 0.0112 ] 0 SD
0.0037 SLW
n
0.1988 0.6353 m
0.2589 0.6353 l
s
/Font1 FFSF
[/DeviceRGB] SCS
Color1 SC
0.2789 0.5695 m
GS
[0.0456 0.0000 0.0000 0.0456 0 0] CC
(l) show
GR
/Font1 FFSF
0.2914 0.5512 m
GS
[0.0323 0.0000 0.0000 0.0323 0 0] CC
(max) show
GR
/Font0 FFSF
0.3451 0.5695 m
GS
[0.0456 0.0000 0.0000 0.0456 0 0] CC
(=4) show
GR
[/DeviceRGB] SCS
Color8 SC
[0.0187 0.0112 0.0037 0.0112 0.0187 0.0112 ] 0 SD
0.0037 SLW
n
0.1988 0.5757 m
0.2589 0.5757 l
s
/Font1 FFSF
[/DeviceRGB] SCS
Color1 SC
0.2789 0.5095 m
GS
[0.0456 0.0000 0.0000 0.0456 0 0] CC
(l) show
GR
/Font1 FFSF
0.2914 0.4912 m
GS
[0.0323 0.0000 0.0000 0.0323 0 0] CC
(max) show
GR
/Font0 FFSF
0.3451 0.5095 m
GS
[0.0456 0.0000 0.0000 0.0456 0 0] CC
(=5) show
GR
[/DeviceRGB] SCS
Color15 SC
[] 0 SD
0.0030 SLW
n
0.1988 0.5158 m
0.2589 0.5158 l
s
n
0.1988 0.5158 0.0041 0.0041 0 360 EARC c
fill
[] 0 SD
0.0015 SLW
n 0.1988 0.5158 0.0041 0.0041 0 360 EARC s
n
0.2589 0.5158 0.0041 0.0041 0 360 EARC c
fill
n 0.2589 0.5158 0.0041 0.0041 0 360 EARC s
/Font0 FFSF
[/DeviceRGB] SCS
Color1 SC
0.5061 0.7745 m
GS
[0.0580 0.0000 0.0000 0.0580 0 0] CC
(M3Y-P2) show
GR
showpage
%%PageTrailer
%%Trailer
%%DocumentNeededResources: font Times-Roman
%%+ font Times-Italic
%%+ font Symbol
%%EOF
