%!PS-Adobe-3.0
%%BoundingBox: 0 0 612 792
%%LanguageLevel: 2
%%Creator: Grace-5.1.22
%%CreationDate: Tue Jan 21 11:43:30 2014
%%DocumentData: Clean8Bit
%%Orientation: Landscape
%%Pages: 1
%%PageOrder: Ascend
%%Title: differenceD1M_dimension.agr
%%For: alessandropastore
%%DocumentNeededResources: (atend)
%%EndComments
%%BeginProlog
/PAGE_OFFSET_X 0 def
/PAGE_OFFSET_Y 0 def
/m {moveto} def
/l {lineto} def
/s {stroke} def
/n {newpath} def
/c {closepath} def
/RL {rlineto} def
/SLW {setlinewidth} def
/GS {gsave} def
/GR {grestore} def
/SC {setcolor} def
/SGRY {setgray} def
/SRGB {setrgbcolor} def
/SD {setdash} def
/SLC {setlinecap} def
/SLJ {setlinejoin} def
/SCS {setcolorspace} def
/FFSF {findfont setfont} def
/CC {concat} def
/PXL {n m 0 0 RL s} def
/Color0 {1.0000 1.0000 1.0000} def
/Color1 {0.0000 0.0000 0.0000} def
/Color2 {1.0000 0.0000 0.0000} def
/Color3 {0.0000 1.0000 0.0000} def
/Color4 {0.0000 0.0000 1.0000} def
/Color5 {1.0000 1.0000 0.0000} def
/Color6 {0.7373 0.5608 0.5608} def
/Color7 {0.8627 0.8627 0.8627} def
/Color8 {0.5804 0.0000 0.8275} def
/Color9 {0.0000 1.0000 1.0000} def
/Color10 {1.0000 0.0000 1.0000} def
/Color11 {1.0000 0.6471 0.0000} def
/Color12 {0.4471 0.1294 0.7373} def
/Color13 {0.4039 0.0275 0.2824} def
/Color14 {0.2510 0.8784 0.8157} def
/Color15 {0.0000 0.5451 0.0000} def
/Color16 {0.7529 0.7529 0.7529} def
/Color17 {0.5059 0.5059 0.5059} def
/Color18 {0.2588 0.2588 0.2588} def
/PTRN {
 /pat_bits exch def 
 <<
  /PaintType 2
  /PatternType 1 /TilingType 1
  /BBox[0 0 16 16]
  /XStep 16 /YStep 16
  /PaintProc {
   pop
   16 16 true [-1 0 0 -1 16 16] pat_bits imagemask
  }
 >>
 [0.0016 0 0 0.0016 0 0]
 makepattern
} def
/Pattern0 {<0000000000000000000000000000000000000000000000000000000000000000> PTRN} bind def
/Pattern1 {<ffffffffffffffffffffffffffffffffffffffffffffffffffffffffffffffff> PTRN} bind def
/Pattern2 {<eeeeffffbbbbffffeeeeffffbbbbffffeeeeffffbbbbffffeeeeffffbbbbffff> PTRN} bind def
/Pattern3 {<eeeebbbbeeeebbbbeeeebbbbeeeebbbbeeeebbbbeeeebbbbeeeebbbbeeeebbbb> PTRN} bind def
/Pattern4 {<5555aaaa5555aaaa5555aaaa5555aaaa5555aaaa5555aaaa5555aaaa5555aaaa> PTRN} bind def
/Pattern5 {<1111444411114444111144441111444411114444111144441111444411114444> PTRN} bind def
/Pattern6 {<1111000044440000111100004444000011110000444400001111000044440000> PTRN} bind def
/Pattern7 {<1010000000000000010100000000000010100000000000000101000000000000> PTRN} bind def
/Pattern8 {<0000000000000000000000000000000000000000000000000000000000000000> PTRN} bind def
/Pattern9 {<1e1e0f0f8787c3c3e1e1f0f078783c3c1e1e0f0f8787c3c3e1e1f0f078783c3c> PTRN} bind def
/Pattern10 {<7878f0f0e1e1c3c387870f0f1e1e3c3c7878f0f0e1e1c3c387870f0f1e1e3c3c> PTRN} bind def
/Pattern11 {<3333333333333333333333333333333333333333333333333333333333333333> PTRN} bind def
/Pattern12 {<ffffffff00000000ffffffff00000000ffffffff00000000ffffffff00000000> PTRN} bind def
/Pattern13 {<8181424224241818181824244242818181814242242418181818242442428181> PTRN} bind def
/Pattern14 {<8080404020201010080804040202010180804040202010100808040402020101> PTRN} bind def
/Pattern15 {<0101020204040808101020204040808001010202040408081010202040408080> PTRN} bind def
/Pattern16 {<2222222222222222222222222222222222222222222222222222222222222222> PTRN} bind def
/Pattern17 {<0000ffff000000000000ffff000000000000ffff000000000000ffff00000000> PTRN} bind def
/Pattern18 {<2222ffff222222222222ffff222222222222ffff222222222222ffff22222222> PTRN} bind def
/Pattern19 {<ffffffff33333333ffffffff33333333ffffffff33333333ffffffff33333333> PTRN} bind def
/Pattern20 {<0f0f0f0f0f0f0f0ff0f0f0f0f0f0f0f00f0f0f0f0f0f0f0ff0f0f0f0f0f0f0f0> PTRN} bind def
/Pattern21 {<ff00ff00ff00ff00ff00ff00ff00ff0000ff00ff00ff00ff00ff00ff00ff00ff> PTRN} bind def
/Pattern22 {<8001800180018001800180018001ffffffff8001800180018001800180018001> PTRN} bind def
/Pattern23 {<c003c003c003c003c003c003ffffffffffffffffc003c003c003c003c003c003> PTRN} bind def
/Pattern24 {<040404040404ffff404040404040ffff040404040404ffff404040404040ffff> PTRN} bind def
/Pattern25 {<180018001800180018001800ffffffff001800180018001800180018ffffffff> PTRN} bind def
/Pattern26 {<1111b8b87c7c3a3a1111a3a3c7c78b8b1111b8b87c7c3a3a1111a3a3c7c78b8b> PTRN} bind def
/Pattern27 {<101010102828c7c70101010182827c7c101010102828c7c70101010182827c7c> PTRN} bind def
/Pattern28 {<1c1c121211112121c1c12121111112121c1c121211112121c1c1212111111212> PTRN} bind def
/Pattern29 {<3e3e414180808080e3e31414080808083e3e414180808080e3e3141408080808> PTRN} bind def
/Pattern30 {<4848888884848383848488884848383848488888848483838484888848483838> PTRN} bind def
/Pattern31 {<03030404080808080c0c12122121c0c003030404080808080c0c12122121c0c0> PTRN} bind def
/ellipsedict 8 dict def
ellipsedict /mtrx matrix put
/EARC {
 ellipsedict begin
  /endangle exch def
  /startangle exch def
  /yrad exch def
  /xrad exch def
  /y exch def
  /x exch def
  /savematrix mtrx currentmatrix def
  x y translate
  xrad yrad scale
  0 0 1 startangle endangle arc
  savematrix setmatrix
 end
} def
/TL {
  /kcomp exch def
  /linewidth exch def
  /offset exch def
  GS
  0 offset rmoveto
  linewidth SLW
  dup stringwidth exch kcomp add exch RL s
  GR
} def
/KINIT
{
 /kvector exch def
 /kid 0 def
} def
/KPROC
{
 pop pop
 kvector kid get
 0 rmoveto
 /kid 1 kid add def
} def
/DefEncoding [
 /.notdef
 /.notdef
 /.notdef
 /.notdef
 /.notdef
 /.notdef
 /.notdef
 /.notdef
 /.notdef
 /.notdef
 /.notdef
 /.notdef
 /.notdef
 /.notdef
 /.notdef
 /.notdef
 /.notdef
 /.notdef
 /.notdef
 /.notdef
 /.notdef
 /.notdef
 /.notdef
 /.notdef
 /.notdef
 /.notdef
 /.notdef
 /.notdef
 /.notdef
 /.notdef
 /.notdef
 /.notdef
 /space
 /exclam
 /quotedbl
 /numbersign
 /dollar
 /percent
 /ampersand
 /quoteright
 /parenleft
 /parenright
 /asterisk
 /plus
 /comma
 /hyphen
 /period
 /slash
 /zero
 /one
 /two
 /three
 /four
 /five
 /six
 /seven
 /eight
 /nine
 /colon
 /semicolon
 /less
 /equal
 /greater
 /question
 /at
 /A
 /B
 /C
 /D
 /E
 /F
 /G
 /H
 /I
 /J
 /K
 /L
 /M
 /N
 /O
 /P
 /Q
 /R
 /S
 /T
 /U
 /V
 /W
 /X
 /Y
 /Z
 /bracketleft
 /backslash
 /bracketright
 /asciicircum
 /underscore
 /grave
 /a
 /b
 /c
 /d
 /e
 /f
 /g
 /h
 /i
 /j
 /k
 /l
 /m
 /n
 /o
 /p
 /q
 /r
 /s
 /t
 /u
 /v
 /w
 /x
 /y
 /z
 /braceleft
 /bar
 /braceright
 /asciitilde
 /.notdef
 /.notdef
 /.notdef
 /.notdef
 /.notdef
 /.notdef
 /.notdef
 /.notdef
 /.notdef
 /.notdef
 /.notdef
 /.notdef
 /.notdef
 /.notdef
 /.notdef
 /.notdef
 /.notdef
 /.notdef
 /.notdef
 /.notdef
 /.notdef
 /.notdef
 /.notdef
 /.notdef
 /.notdef
 /.notdef
 /.notdef
 /.notdef
 /.notdef
 /.notdef
 /.notdef
 /.notdef
 /.notdef
 /space
 /exclamdown
 /cent
 /sterling
 /currency
 /yen
 /brokenbar
 /section
 /dieresis
 /copyright
 /ordfeminine
 /guillemotleft
 /logicalnot
 /hyphen
 /registered
 /macron
 /degree
 /plusminus
 /twosuperior
 /threesuperior
 /acute
 /mu
 /paragraph
 /periodcentered
 /cedilla
 /onesuperior
 /ordmasculine
 /guillemotright
 /onequarter
 /onehalf
 /threequarters
 /questiondown
 /Agrave
 /Aacute
 /Acircumflex
 /Atilde
 /Adieresis
 /Aring
 /AE
 /Ccedilla
 /Egrave
 /Eacute
 /Ecircumflex
 /Edieresis
 /Igrave
 /Iacute
 /Icircumflex
 /Idieresis
 /Eth
 /Ntilde
 /Ograve
 /Oacute
 /Ocircumflex
 /Otilde
 /Odieresis
 /multiply
 /Oslash
 /Ugrave
 /Uacute
 /Ucircumflex
 /Udieresis
 /Yacute
 /Thorn
 /germandbls
 /agrave
 /aacute
 /acircumflex
 /atilde
 /adieresis
 /aring
 /ae
 /ccedilla
 /egrave
 /eacute
 /ecircumflex
 /edieresis
 /igrave
 /iacute
 /icircumflex
 /idieresis
 /eth
 /ntilde
 /ograve
 /oacute
 /ocircumflex
 /otilde
 /odieresis
 /divide
 /oslash
 /ugrave
 /uacute
 /ucircumflex
 /udieresis
 /yacute
 /thorn
 /ydieresis
] def
%%EndProlog
%%BeginSetup
%%EndSetup
%%Page: 1 1
PAGE_OFFSET_X PAGE_OFFSET_Y translate
612.00 612.00 scale
90 rotate
0.0 -1.0 translate
n
0.0000 0.0000 m
0.0000 1.0000 l
1.2941 1.0000 l
1.2941 0.0000 l
c
[/DeviceRGB] SCS
Color0 SC
fill
[/DeviceRGB] SCS
Color1 SC
[] 0 SD
0.0037 SLW
0 SLC
0 SLJ
n
0.1989 0.3467 m
0.2140 0.3033 l
0.2291 0.2630 l
0.2442 0.2302 l
0.2593 0.2045 l
0.2744 0.1847 l
0.2895 0.1700 l
0.3046 0.1595 l
0.3197 0.1527 l
0.3317 0.1499 l
s
n
0.3634 0.1499 m
0.3650 0.1501 l
0.3801 0.1540 l
0.3952 0.1598 l
0.4103 0.1674 l
0.4254 0.1765 l
0.4405 0.1871 l
0.4556 0.1989 l
0.4707 0.2119 l
0.4858 0.2259 l
0.5009 0.2410 l
0.5159 0.2569 l
0.5310 0.2736 l
0.5461 0.2910 l
0.5612 0.3091 l
0.5763 0.3278 l
0.5914 0.3471 l
0.6065 0.3669 l
0.6216 0.3872 l
0.6367 0.4079 l
0.6518 0.4291 l
0.6669 0.4506 l
0.6820 0.4724 l
0.6971 0.4946 l
0.7122 0.5170 l
0.7273 0.5397 l
0.7424 0.5627 l
0.7575 0.5859 l
0.7726 0.6092 l
0.7877 0.6328 l
0.8028 0.6565 l
0.8179 0.6804 l
0.8330 0.7044 l
0.8481 0.7286 l
0.8632 0.7529 l
0.8783 0.7772 l
0.8934 0.8017 l
0.9085 0.8262 l
0.9236 0.8508 l
0.9249 0.8530 l
s
[/DeviceRGB] SCS
Color2 SC
[0.0187 0.0112 ] 0 SD
0.0037 SLW
n
0.1989 0.7039 m
0.2140 0.6796 l
0.2291 0.6532 l
0.2442 0.6257 l
0.2593 0.5976 l
0.2744 0.5692 l
0.2895 0.5407 l
0.3046 0.5121 l
0.3197 0.4836 l
0.3348 0.4552 l
0.3499 0.4270 l
0.3650 0.3990 l
0.3801 0.3713 l
0.3952 0.3438 l
0.4103 0.3167 l
0.4254 0.2899 l
0.4405 0.2634 l
0.4556 0.2372 l
0.4707 0.2114 l
0.4858 0.1860 l
0.5009 0.1609 l
0.5075 0.1499 l
s
[/DeviceRGB] SCS
Color3 SC
[0.0037 0.0112 ] 0 SD
0.0037 SLW
n
0.1989 0.7510 m
0.2140 0.7494 l
0.2291 0.7474 l
0.2442 0.7450 l
0.2593 0.7421 l
0.2744 0.7389 l
0.2895 0.7353 l
0.3046 0.7313 l
0.3197 0.7271 l
0.3348 0.7225 l
0.3499 0.7176 l
0.3650 0.7125 l
0.3801 0.7072 l
0.3952 0.7016 l
0.4103 0.6958 l
0.4254 0.6897 l
0.4405 0.6835 l
0.4556 0.6771 l
0.4707 0.6705 l
0.4858 0.6637 l
0.5009 0.6568 l
0.5159 0.6497 l
0.5310 0.6425 l
0.5461 0.6352 l
0.5612 0.6277 l
0.5763 0.6201 l
0.5914 0.6123 l
0.6065 0.6045 l
0.6216 0.5966 l
0.6367 0.5885 l
0.6518 0.5804 l
0.6669 0.5722 l
0.6820 0.5639 l
0.6971 0.5555 l
0.7122 0.5470 l
0.7273 0.5385 l
0.7424 0.5299 l
0.7575 0.5213 l
0.7726 0.5125 l
0.7877 0.5038 l
0.8028 0.4950 l
0.8179 0.4861 l
0.8330 0.4772 l
0.8481 0.4682 l
0.8632 0.4592 l
0.8783 0.4502 l
0.8934 0.4412 l
0.9085 0.4321 l
0.9236 0.4230 l
0.9386 0.4138 l
0.9537 0.4047 l
0.9688 0.3955 l
0.9839 0.3863 l
0.9990 0.3771 l
1.0141 0.3678 l
1.0292 0.3586 l
1.0443 0.3493 l
1.0594 0.3400 l
1.0745 0.3308 l
1.0896 0.3215 l
1.1047 0.3122 l
1.1198 0.3029 l
1.1349 0.2936 l
s
[/DeviceRGB] SCS
Color4 SC
[0.0037 0.0112 0.0187 0.0112 ] 0 SD
0.0037 SLW
n
0.1989 0.7525 m
0.2140 0.7524 l
0.2291 0.7524 l
0.2442 0.7522 l
0.2593 0.7521 l
0.2744 0.7519 l
0.2895 0.7516 l
0.3046 0.7513 l
0.3197 0.7510 l
0.3348 0.7506 l
0.3499 0.7502 l
0.3650 0.7497 l
0.3801 0.7491 l
0.3952 0.7485 l
0.4103 0.7479 l
0.4254 0.7472 l
0.4405 0.7464 l
0.4556 0.7456 l
0.4707 0.7448 l
0.4858 0.7438 l
0.5009 0.7429 l
0.5159 0.7419 l
0.5310 0.7408 l
0.5461 0.7397 l
0.5612 0.7385 l
0.5763 0.7372 l
0.5914 0.7360 l
0.6065 0.7346 l
0.6216 0.7332 l
0.6367 0.7318 l
0.6518 0.7303 l
0.6669 0.7288 l
0.6820 0.7272 l
0.6971 0.7256 l
0.7122 0.7239 l
0.7273 0.7222 l
0.7424 0.7204 l
0.7575 0.7186 l
0.7726 0.7167 l
0.7877 0.7148 l
0.8028 0.7129 l
0.8179 0.7109 l
0.8330 0.7088 l
0.8481 0.7068 l
0.8632 0.7046 l
0.8783 0.7025 l
0.8934 0.7003 l
0.9085 0.6980 l
0.9236 0.6957 l
0.9386 0.6934 l
0.9537 0.6910 l
0.9688 0.6886 l
0.9839 0.6862 l
0.9990 0.6837 l
1.0141 0.6812 l
1.0292 0.6786 l
1.0443 0.6760 l
1.0594 0.6734 l
1.0745 0.6707 l
1.0896 0.6681 l
1.1047 0.6653 l
1.1198 0.6626 l
1.1349 0.6598 l
s
[/DeviceRGB] SCS
Color8 SC
[0.0187 0.0112 0.0037 0.0112 0.0187 0.0112 ] 0 SD
0.0037 SLW
n
0.1989 0.7525 m
0.2140 0.7525 l
0.2291 0.7525 l
0.2442 0.7525 l
0.2593 0.7525 l
0.2744 0.7525 l
0.2895 0.7525 l
0.3046 0.7525 l
0.3197 0.7525 l
0.3348 0.7524 l
0.3499 0.7524 l
0.3650 0.7524 l
0.3801 0.7523 l
0.3952 0.7523 l
0.4103 0.7522 l
0.4254 0.7522 l
0.4405 0.7521 l
0.4556 0.7520 l
0.4707 0.7520 l
0.4858 0.7519 l
0.5009 0.7518 l
0.5159 0.7517 l
0.5310 0.7516 l
0.5461 0.7515 l
0.5612 0.7513 l
0.5763 0.7512 l
0.5914 0.7510 l
0.6065 0.7509 l
0.6216 0.7507 l
0.6367 0.7505 l
0.6518 0.7504 l
0.6669 0.7502 l
0.6820 0.7500 l
0.6971 0.7497 l
0.7122 0.7495 l
0.7273 0.7493 l
0.7424 0.7490 l
0.7575 0.7488 l
0.7726 0.7485 l
0.7877 0.7482 l
0.8028 0.7479 l
0.8179 0.7476 l
0.8330 0.7473 l
0.8481 0.7469 l
0.8632 0.7466 l
0.8783 0.7463 l
0.8934 0.7459 l
0.9085 0.7455 l
0.9236 0.7451 l
0.9386 0.7447 l
0.9537 0.7443 l
0.9688 0.7439 l
0.9839 0.7434 l
0.9990 0.7430 l
1.0141 0.7425 l
1.0292 0.7420 l
1.0443 0.7416 l
1.0594 0.7411 l
1.0745 0.7405 l
1.0896 0.7400 l
1.1047 0.7395 l
1.1198 0.7389 l
1.1349 0.7384 l
s
[/DeviceRGB] SCS
Color15 SC
[] 0 SD
0.0030 SLW
n
0.1989 0.7525 m
0.2140 0.7525 l
0.2291 0.7530 l
0.2442 0.7525 l
0.2593 0.7525 l
0.2744 0.7525 l
0.2895 0.7525 l
0.3046 0.7525 l
0.3197 0.7525 l
0.3348 0.7525 l
0.3499 0.7525 l
0.3650 0.7525 l
0.3801 0.7525 l
0.3952 0.7525 l
0.4103 0.7525 l
0.4254 0.7525 l
0.4405 0.7525 l
0.4556 0.7525 l
0.4707 0.7525 l
0.4858 0.7525 l
0.5009 0.7525 l
0.5159 0.7525 l
0.5310 0.7525 l
0.5461 0.7524 l
0.5612 0.7524 l
0.5763 0.7524 l
0.5914 0.7524 l
0.6065 0.7524 l
0.6216 0.7524 l
0.6367 0.7524 l
0.6518 0.7523 l
0.6669 0.7523 l
0.6820 0.7523 l
0.6971 0.7523 l
0.7122 0.7523 l
0.7273 0.7522 l
0.7424 0.7522 l
0.7575 0.7522 l
0.7726 0.7521 l
0.7877 0.7521 l
0.8028 0.7521 l
0.8179 0.7520 l
0.8330 0.7520 l
0.8481 0.7520 l
0.8632 0.7519 l
0.8783 0.7519 l
0.8934 0.7518 l
0.9085 0.7518 l
0.9236 0.7517 l
0.9386 0.7517 l
0.9537 0.7516 l
0.9688 0.7516 l
0.9839 0.7515 l
0.9990 0.7514 l
1.0141 0.7514 l
1.0292 0.7513 l
1.0443 0.7512 l
1.0594 0.7512 l
1.0745 0.7511 l
1.0896 0.7510 l
1.1047 0.7509 l
1.1198 0.7508 l
1.1349 0.7508 l
s
n
0.1989 0.7525 0.0041 0.0041 0 360 EARC c
fill
[] 0 SD
0.0015 SLW
n 0.1989 0.7525 0.0041 0.0041 0 360 EARC s
n
0.2140 0.7525 0.0041 0.0041 0 360 EARC c
fill
n 0.2140 0.7525 0.0041 0.0041 0 360 EARC s
n
0.2291 0.7530 0.0041 0.0041 0 360 EARC c
fill
n 0.2291 0.7530 0.0041 0.0041 0 360 EARC s
n
0.2442 0.7525 0.0041 0.0041 0 360 EARC c
fill
n 0.2442 0.7525 0.0041 0.0041 0 360 EARC s
n
0.2593 0.7525 0.0041 0.0041 0 360 EARC c
fill
n 0.2593 0.7525 0.0041 0.0041 0 360 EARC s
n
0.2744 0.7525 0.0041 0.0041 0 360 EARC c
fill
n 0.2744 0.7525 0.0041 0.0041 0 360 EARC s
n
0.2895 0.7525 0.0041 0.0041 0 360 EARC c
fill
n 0.2895 0.7525 0.0041 0.0041 0 360 EARC s
n
0.3046 0.7525 0.0041 0.0041 0 360 EARC c
fill
n 0.3046 0.7525 0.0041 0.0041 0 360 EARC s
n
0.3197 0.7525 0.0041 0.0041 0 360 EARC c
fill
n 0.3197 0.7525 0.0041 0.0041 0 360 EARC s
n
0.3348 0.7525 0.0041 0.0041 0 360 EARC c
fill
n 0.3348 0.7525 0.0041 0.0041 0 360 EARC s
n
0.3499 0.7525 0.0041 0.0041 0 360 EARC c
fill
n 0.3499 0.7525 0.0041 0.0041 0 360 EARC s
n
0.3650 0.7525 0.0041 0.0041 0 360 EARC c
fill
n 0.3650 0.7525 0.0041 0.0041 0 360 EARC s
n
0.3801 0.7525 0.0041 0.0041 0 360 EARC c
fill
n 0.3801 0.7525 0.0041 0.0041 0 360 EARC s
n
0.3952 0.7525 0.0041 0.0041 0 360 EARC c
fill
n 0.3952 0.7525 0.0041 0.0041 0 360 EARC s
n
0.4103 0.7525 0.0041 0.0041 0 360 EARC c
fill
n 0.4103 0.7525 0.0041 0.0041 0 360 EARC s
n
0.4254 0.7525 0.0041 0.0041 0 360 EARC c
fill
n 0.4254 0.7525 0.0041 0.0041 0 360 EARC s
n
0.4405 0.7525 0.0041 0.0041 0 360 EARC c
fill
n 0.4405 0.7525 0.0041 0.0041 0 360 EARC s
n
0.4556 0.7525 0.0041 0.0041 0 360 EARC c
fill
n 0.4556 0.7525 0.0041 0.0041 0 360 EARC s
n
0.4707 0.7525 0.0041 0.0041 0 360 EARC c
fill
n 0.4707 0.7525 0.0041 0.0041 0 360 EARC s
n
0.4858 0.7525 0.0041 0.0041 0 360 EARC c
fill
n 0.4858 0.7525 0.0041 0.0041 0 360 EARC s
n
0.5009 0.7525 0.0041 0.0041 0 360 EARC c
fill
n 0.5009 0.7525 0.0041 0.0041 0 360 EARC s
n
0.5159 0.7525 0.0041 0.0041 0 360 EARC c
fill
n 0.5159 0.7525 0.0041 0.0041 0 360 EARC s
n
0.5310 0.7525 0.0041 0.0041 0 360 EARC c
fill
n 0.5310 0.7525 0.0041 0.0041 0 360 EARC s
n
0.5461 0.7524 0.0041 0.0041 0 360 EARC c
fill
n 0.5461 0.7524 0.0041 0.0041 0 360 EARC s
n
0.5612 0.7524 0.0041 0.0041 0 360 EARC c
fill
n 0.5612 0.7524 0.0041 0.0041 0 360 EARC s
n
0.5763 0.7524 0.0041 0.0041 0 360 EARC c
fill
n 0.5763 0.7524 0.0041 0.0041 0 360 EARC s
n
0.5914 0.7524 0.0041 0.0041 0 360 EARC c
fill
n 0.5914 0.7524 0.0041 0.0041 0 360 EARC s
n
0.6065 0.7524 0.0041 0.0041 0 360 EARC c
fill
n 0.6065 0.7524 0.0041 0.0041 0 360 EARC s
n
0.6216 0.7524 0.0041 0.0041 0 360 EARC c
fill
n 0.6216 0.7524 0.0041 0.0041 0 360 EARC s
n
0.6367 0.7524 0.0041 0.0041 0 360 EARC c
fill
n 0.6367 0.7524 0.0041 0.0041 0 360 EARC s
n
0.6518 0.7523 0.0041 0.0041 0 360 EARC c
fill
n 0.6518 0.7523 0.0041 0.0041 0 360 EARC s
n
0.6669 0.7523 0.0041 0.0041 0 360 EARC c
fill
n 0.6669 0.7523 0.0041 0.0041 0 360 EARC s
n
0.6820 0.7523 0.0041 0.0041 0 360 EARC c
fill
n 0.6820 0.7523 0.0041 0.0041 0 360 EARC s
n
0.6971 0.7523 0.0041 0.0041 0 360 EARC c
fill
n 0.6971 0.7523 0.0041 0.0041 0 360 EARC s
n
0.7122 0.7523 0.0041 0.0041 0 360 EARC c
fill
n 0.7122 0.7523 0.0041 0.0041 0 360 EARC s
n
0.7273 0.7522 0.0041 0.0041 0 360 EARC c
fill
n 0.7273 0.7522 0.0041 0.0041 0 360 EARC s
n
0.7424 0.7522 0.0041 0.0041 0 360 EARC c
fill
n 0.7424 0.7522 0.0041 0.0041 0 360 EARC s
n
0.7575 0.7522 0.0041 0.0041 0 360 EARC c
fill
n 0.7575 0.7522 0.0041 0.0041 0 360 EARC s
n
0.7726 0.7521 0.0041 0.0041 0 360 EARC c
fill
n 0.7726 0.7521 0.0041 0.0041 0 360 EARC s
n
0.7877 0.7521 0.0041 0.0041 0 360 EARC c
fill
n 0.7877 0.7521 0.0041 0.0041 0 360 EARC s
n
0.8028 0.7521 0.0041 0.0041 0 360 EARC c
fill
n 0.8028 0.7521 0.0041 0.0041 0 360 EARC s
n
0.8179 0.7520 0.0041 0.0041 0 360 EARC c
fill
n 0.8179 0.7520 0.0041 0.0041 0 360 EARC s
n
0.8330 0.7520 0.0041 0.0041 0 360 EARC c
fill
n 0.8330 0.7520 0.0041 0.0041 0 360 EARC s
n
0.8481 0.7520 0.0041 0.0041 0 360 EARC c
fill
n 0.8481 0.7520 0.0041 0.0041 0 360 EARC s
n
0.8632 0.7519 0.0041 0.0041 0 360 EARC c
fill
n 0.8632 0.7519 0.0041 0.0041 0 360 EARC s
n
0.8783 0.7519 0.0041 0.0041 0 360 EARC c
fill
n 0.8783 0.7519 0.0041 0.0041 0 360 EARC s
n
0.8934 0.7518 0.0041 0.0041 0 360 EARC c
fill
n 0.8934 0.7518 0.0041 0.0041 0 360 EARC s
n
0.9085 0.7518 0.0041 0.0041 0 360 EARC c
fill
n 0.9085 0.7518 0.0041 0.0041 0 360 EARC s
n
0.9236 0.7517 0.0041 0.0041 0 360 EARC c
fill
n 0.9236 0.7517 0.0041 0.0041 0 360 EARC s
n
0.9386 0.7517 0.0041 0.0041 0 360 EARC c
fill
n 0.9386 0.7517 0.0041 0.0041 0 360 EARC s
n
0.9537 0.7516 0.0041 0.0041 0 360 EARC c
fill
n 0.9537 0.7516 0.0041 0.0041 0 360 EARC s
n
0.9688 0.7516 0.0041 0.0041 0 360 EARC c
fill
n 0.9688 0.7516 0.0041 0.0041 0 360 EARC s
n
0.9839 0.7515 0.0041 0.0041 0 360 EARC c
fill
n 0.9839 0.7515 0.0041 0.0041 0 360 EARC s
n
0.9990 0.7514 0.0041 0.0041 0 360 EARC c
fill
n 0.9990 0.7514 0.0041 0.0041 0 360 EARC s
n
1.0141 0.7514 0.0041 0.0041 0 360 EARC c
fill
n 1.0141 0.7514 0.0041 0.0041 0 360 EARC s
n
1.0292 0.7513 0.0041 0.0041 0 360 EARC c
fill
n 1.0292 0.7513 0.0041 0.0041 0 360 EARC s
n
1.0443 0.7512 0.0041 0.0041 0 360 EARC c
fill
n 1.0443 0.7512 0.0041 0.0041 0 360 EARC s
n
1.0594 0.7512 0.0041 0.0041 0 360 EARC c
fill
n 1.0594 0.7512 0.0041 0.0041 0 360 EARC s
n
1.0745 0.7511 0.0041 0.0041 0 360 EARC c
fill
n 1.0745 0.7511 0.0041 0.0041 0 360 EARC s
n
1.0896 0.7510 0.0041 0.0041 0 360 EARC c
fill
n 1.0896 0.7510 0.0041 0.0041 0 360 EARC s
n
1.1047 0.7509 0.0041 0.0041 0 360 EARC c
fill
n 1.1047 0.7509 0.0041 0.0041 0 360 EARC s
n
1.1198 0.7508 0.0041 0.0041 0 360 EARC c
fill
n 1.1198 0.7508 0.0041 0.0041 0 360 EARC s
n
1.1349 0.7508 0.0041 0.0041 0 360 EARC c
fill
n 1.1349 0.7508 0.0041 0.0041 0 360 EARC s
[/DeviceRGB] SCS
Color1 SC
[] 0 SD
0.0045 SLW
n
0.1838 0.1500 m
1.1500 0.1500 l
s
n
0.1838 0.8529 m
1.1500 0.8529 l
s
n
0.3348 0.1500 m
0.3348 0.1600 l
s
n
0.3348 0.8529 m
0.3348 0.8429 l
s
n
0.6367 0.1500 m
0.6367 0.1600 l
s
n
0.6367 0.8529 m
0.6367 0.8429 l
s
n
0.9386 0.1500 m
0.9386 0.1600 l
s
n
0.9386 0.8529 m
0.9386 0.8429 l
s
n
0.1838 0.1500 m
0.1838 0.1700 l
s
n
0.1838 0.8529 m
0.1838 0.8329 l
s
n
0.4858 0.1500 m
0.4858 0.1700 l
s
n
0.4858 0.8529 m
0.4858 0.8329 l
s
n
0.7877 0.1500 m
0.7877 0.1700 l
s
n
0.7877 0.8529 m
0.7877 0.8329 l
s
n
1.0896 0.1500 m
1.0896 0.1700 l
s
n
1.0896 0.8529 m
1.0896 0.8329 l
s
/Times-Roman findfont
dup length dict begin
 {1 index /FID ne {def} {pop pop} ifelse} forall
 /Encoding DefEncoding def
 currentdict
end
/Font0 exch definefont pop
/Font0 FFSF
0.1732 0.1094 m
GS
[0.0448 0.0000 0.0000 0.0448 0 0] CC
(0) show
GR
/Font0 FFSF
0.4601 0.1094 m
GS
[0.0448 0.0000 0.0000 0.0448 0 0] CC
(0.1) show
GR
/Font0 FFSF
0.7602 0.1094 m
GS
[0.0448 0.0000 0.0000 0.0448 0 0] CC
(0.2) show
GR
/Font0 FFSF
1.0629 0.1094 m
GS
[0.0448 0.0000 0.0000 0.0448 0 0] CC
(0.3) show
GR
/Symbol findfont
/Font12 exch definefont pop
/Font12 FFSF
0.5891 0.0445 m
GS
[0.0504 0.0000 0.0000 0.0504 0 0] CC
(r) show
GR
/Font0 FFSF
0.6169 0.0445 m
GS
[0.0504 0.0000 0.0000 0.0504 0 0] CC
( [fm) show
GR
/Font0 FFSF
0.7024 0.0747 m
GS
[0.0356 0.0000 0.0000 0.0356 0 0] CC
(-3) show
GR
/Font0 FFSF
0.7322 0.0445 m
GS
[0.0504 0.0000 0.0000 0.0504 0 0] CC
(]) show
GR
n
0.1838 0.1500 m
0.1838 0.8529 l
s
n
1.1500 0.1500 m
1.1500 0.8529 l
s
n
0.1838 0.2002 m
0.1938 0.2002 l
s
n
1.1500 0.2002 m
1.1400 0.2002 l
s
n
0.1838 0.3006 m
0.1938 0.3006 l
s
n
1.1500 0.3006 m
1.1400 0.3006 l
s
n
0.1838 0.4011 m
0.1938 0.4011 l
s
n
1.1500 0.4011 m
1.1400 0.4011 l
s
n
0.1838 0.5015 m
0.1938 0.5015 l
s
n
1.1500 0.5015 m
1.1400 0.5015 l
s
n
0.1838 0.6019 m
0.1938 0.6019 l
s
n
1.1500 0.6019 m
1.1400 0.6019 l
s
n
0.1838 0.7023 m
0.1938 0.7023 l
s
n
1.1500 0.7023 m
1.1400 0.7023 l
s
n
0.1838 0.8027 m
0.1938 0.8027 l
s
n
1.1500 0.8027 m
1.1400 0.8027 l
s
n
0.1838 0.1500 m
0.2038 0.1500 l
s
n
1.1500 0.1500 m
1.1300 0.1500 l
s
n
0.1838 0.2504 m
0.2038 0.2504 l
s
n
1.1500 0.2504 m
1.1300 0.2504 l
s
n
0.1838 0.3508 m
0.2038 0.3508 l
s
n
1.1500 0.3508 m
1.1300 0.3508 l
s
n
0.1838 0.4513 m
0.2038 0.4513 l
s
n
1.1500 0.4513 m
1.1300 0.4513 l
s
n
0.1838 0.5517 m
0.2038 0.5517 l
s
n
1.1500 0.5517 m
1.1300 0.5517 l
s
n
0.1838 0.6521 m
0.2038 0.6521 l
s
n
1.1500 0.6521 m
1.1300 0.6521 l
s
n
0.1838 0.7525 m
0.2038 0.7525 l
s
n
1.1500 0.7525 m
1.1300 0.7525 l
s
n
0.1838 0.8529 m
0.2038 0.8529 l
s
n
1.1500 0.8529 m
1.1300 0.8529 l
s
/Font0 FFSF
0.0930 0.1351 m
GS
[0.0448 0.0000 0.0000 0.0448 0 0] CC
(-300) show
GR
/Font0 FFSF
0.0930 0.2353 m
GS
[0.0448 0.0000 0.0000 0.0448 0 0] CC
(-250) show
GR
/Font0 FFSF
0.0930 0.3359 m
GS
[0.0448 0.0000 0.0000 0.0448 0 0] CC
(-200) show
GR
/Font0 FFSF
0.0930 0.4362 m
GS
[0.0448 0.0000 0.0000 0.0448 0 0] CC
(-150) show
GR
/Font0 FFSF
0.0930 0.5368 m
GS
[0.0448 0.0000 0.0000 0.0448 0 0] CC
(-100) show
GR
/Font0 FFSF
0.1154 0.6370 m
GS
[0.0448 0.0000 0.0000 0.0448 0 0] CC
(-50) show
GR
/Font0 FFSF
0.1526 0.7376 m
GS
[0.0448 0.0000 0.0000 0.0448 0 0] CC
(0) show
GR
/Font0 FFSF
0.1303 0.8378 m
GS
[0.0448 0.0000 0.0000 0.0448 0 0] CC
(50) show
GR
/Font12 FFSF
0.0625 0.2501 m
GS
[0.0000 0.0504 -0.0504 0.0000 0 0] CC
(S) show
GR
/Times-Italic findfont
dup length dict begin
 {1 index /FID ne {def} {pop pop} ifelse} forall
 /Encoding DefEncoding def
 currentdict
end
/Font1 exch definefont pop
/Font1 FFSF
0.0826 0.2799 m
GS
[0.0000 0.0356 -0.0356 0.0000 0 0] CC
(l) show
GR
/Font0 FFSF
0.0625 0.2897 m
GS
[0.0000 0.0504 -0.0504 0.0000 0 0] CC
(\() show
GR
/Font1 FFSF
0.0625 0.3066 m
GS
[0.0000 0.0504 -0.0504 0.0000 0 0] CC
(g) show
GR
/Font1 FFSF
0.0826 0.3317 m
GS
[0.0000 0.0356 -0.0356 0.0000 0 0] CC
(l) show
GR
/Font0 FFSF
0.0625 0.3415 m
GS
[0.0000 0.0504 -0.0504 0.0000 0 0] CC
(+) show
GR
/Font1 FFSF
0.0625 0.3697 m
GS
[0.0000 0.0504 -0.0504 0.0000 0 0] CC
(f) show
GR
/Font1 FFSF
0.0826 0.3838 m
GS
[0.0000 0.0356 -0.0356 0.0000 0 0] CC
(l) show
GR
/Font1 FFSF
0.0625 0.3936 m
GS
[0.0000 0.0504 -0.0504 0.0000 0 0] CC
(') show
GR
/Font0 FFSF
0.0625 0.4105 m
GS
[0.0000 0.0504 -0.0504 0.0000 0 0] CC
(-2) show
GR
/Font1 FFSF
0.0625 0.4525 m
GS
[0.0000 0.0504 -0.0504 0.0000 0 0] CC
(g) show
GR
/Font1 FFSF
0.0826 0.4775 m
GS
[0.0000 0.0356 -0.0356 0.0000 0 0] CC
(l) show
GR
/Font1 FFSF
0.0625 0.4874 m
GS
[0.0000 0.0504 -0.0504 0.0000 0 0] CC
(') show
GR
/Font0 FFSF
0.0625 0.5042 m
GS
[0.0000 0.0504 -0.0504 0.0000 0 0] CC
(\) \(MeV fm) show
GR
/Font0 FFSF
0.0322 0.7226 m
GS
[0.0000 0.0356 -0.0356 0.0000 0 0] CC
(3) show
GR
/Font0 FFSF
0.0625 0.7403 m
GS
[0.0000 0.0504 -0.0504 0.0000 0 0] CC
(]) show
GR
[] 0 SD
0.0015 SLW
n
0.1838 0.1500 m
0.1838 0.8529 l
1.1500 0.8529 l
1.1500 0.1500 l
0.1838 0.1500 l
c
s
n
0.1840 0.8530 m
0.1840 0.4848 l
0.4026 0.4848 l
0.4026 0.8530 l
c
[/DeviceRGB] SCS
Color0 SC
fill
[/DeviceRGB] SCS
Color1 SC
[] 0 SD
0.0045 SLW
n
0.1840 0.8530 m
0.1840 0.4848 l
0.4026 0.4848 l
0.4026 0.8530 l
0.1840 0.8530 l
c
s
/Font1 FFSF
0.2789 0.8120 m
GS
[0.0456 0.0000 0.0000 0.0456 0 0] CC
(l) show
GR
/Font1 FFSF
0.2914 0.7938 m
GS
[0.0323 0.0000 0.0000 0.0323 0 0] CC
(max) show
GR
/Font0 FFSF
0.3451 0.8120 m
GS
[0.0456 0.0000 0.0000 0.0456 0 0] CC
(=0) show
GR
[] 0 SD
0.0037 SLW
n
0.1988 0.8182 m
0.2589 0.8182 l
s
/Font1 FFSF
0.2789 0.7524 m
GS
[0.0456 0.0000 0.0000 0.0456 0 0] CC
(l) show
GR
/Font1 FFSF
0.2914 0.7341 m
GS
[0.0323 0.0000 0.0000 0.0323 0 0] CC
(max) show
GR
/Font0 FFSF
0.3451 0.7524 m
GS
[0.0456 0.0000 0.0000 0.0456 0 0] CC
(=1) show
GR
[/DeviceRGB] SCS
Color2 SC
[0.0187 0.0112 ] 0 SD
0.0037 SLW
n
0.1988 0.7586 m
0.2589 0.7586 l
s
/Font1 FFSF
[/DeviceRGB] SCS
Color1 SC
0.2789 0.6928 m
GS
[0.0456 0.0000 0.0000 0.0456 0 0] CC
(l) show
GR
/Font1 FFSF
0.2914 0.6745 m
GS
[0.0323 0.0000 0.0000 0.0323 0 0] CC
(max) show
GR
/Font0 FFSF
0.3451 0.6928 m
GS
[0.0456 0.0000 0.0000 0.0456 0 0] CC
(=2) show
GR
[/DeviceRGB] SCS
Color3 SC
[0.0037 0.0112 ] 0 SD
0.0037 SLW
n
0.1988 0.6989 m
0.2589 0.6989 l
s
/Font1 FFSF
[/DeviceRGB] SCS
Color1 SC
0.2789 0.6331 m
GS
[0.0456 0.0000 0.0000 0.0456 0 0] CC
(l) show
GR
/Font1 FFSF
0.2914 0.6149 m
GS
[0.0323 0.0000 0.0000 0.0323 0 0] CC
(max) show
GR
/Font0 FFSF
0.3451 0.6331 m
GS
[0.0456 0.0000 0.0000 0.0456 0 0] CC
(=3) show
GR
[/DeviceRGB] SCS
Color4 SC
[0.0037 0.0112 0.0187 0.0112 ] 0 SD
0.0037 SLW
n
0.1988 0.6393 m
0.2589 0.6393 l
s
/Font1 FFSF
[/DeviceRGB] SCS
Color1 SC
0.2789 0.5735 m
GS
[0.0456 0.0000 0.0000 0.0456 0 0] CC
(l) show
GR
/Font1 FFSF
0.2914 0.5552 m
GS
[0.0323 0.0000 0.0000 0.0323 0 0] CC
(max) show
GR
/Font0 FFSF
0.3451 0.5735 m
GS
[0.0456 0.0000 0.0000 0.0456 0 0] CC
(=4) show
GR
[/DeviceRGB] SCS
Color8 SC
[0.0187 0.0112 0.0037 0.0112 0.0187 0.0112 ] 0 SD
0.0037 SLW
n
0.1988 0.5797 m
0.2589 0.5797 l
s
/Font1 FFSF
[/DeviceRGB] SCS
Color1 SC
0.2789 0.5135 m
GS
[0.0456 0.0000 0.0000 0.0456 0 0] CC
(l) show
GR
/Font1 FFSF
0.2914 0.4952 m
GS
[0.0323 0.0000 0.0000 0.0323 0 0] CC
(max) show
GR
/Font0 FFSF
0.3451 0.5135 m
GS
[0.0456 0.0000 0.0000 0.0456 0 0] CC
(=5) show
GR
[/DeviceRGB] SCS
Color15 SC
[] 0 SD
0.0030 SLW
n
0.1988 0.5198 m
0.2589 0.5198 l
s
n
0.1988 0.5198 0.0041 0.0041 0 360 EARC c
fill
[] 0 SD
0.0015 SLW
n 0.1988 0.5198 0.0041 0.0041 0 360 EARC s
n
0.2589 0.5198 0.0041 0.0041 0 360 EARC c
fill
n 0.2589 0.5198 0.0041 0.0041 0 360 EARC s
/Font0 FFSF
[/DeviceRGB] SCS
Color1 SC
0.5061 0.7745 m
GS
[0.0580 0.0000 0.0000 0.0580 0 0] CC
(D1MT) show
GR
showpage
%%PageTrailer
%%Trailer
%%DocumentNeededResources: font Times-Roman
%%+ font Times-Italic
%%+ font Symbol
%%EOF
