%!PS-Adobe-3.0
%%BoundingBox: 0 0 612 792
%%LanguageLevel: 2
%%Creator: Grace-5.1.21
%%CreationDate: Mon Aug  3 14:53:50 2015
%%DocumentData: Clean8Bit
%%Orientation: Landscape
%%Pages: 1
%%PageOrder: Ascend
%%Title: asymZOOM.agr
%%For: pastorea
%%DocumentNeededResources: (atend)
%%EndComments
%%BeginProlog
/PAGE_OFFSET_X 0 def
/PAGE_OFFSET_Y 0 def
/m {moveto} def
/l {lineto} def
/s {stroke} def
/n {newpath} def
/c {closepath} def
/RL {rlineto} def
/SLW {setlinewidth} def
/GS {gsave} def
/GR {grestore} def
/SC {setcolor} def
/SGRY {setgray} def
/SRGB {setrgbcolor} def
/SD {setdash} def
/SLC {setlinecap} def
/SLJ {setlinejoin} def
/SCS {setcolorspace} def
/FFSF {findfont setfont} def
/CC {concat} def
/PXL {n m 0 0 RL s} def
/Color0 {1.0000 1.0000 1.0000} def
/Color1 {0.0000 0.0000 0.0000} def
/Color2 {1.0000 0.0000 0.0000} def
/Color3 {0.0000 1.0000 0.0000} def
/Color4 {0.0000 0.0000 1.0000} def
/Color5 {1.0000 1.0000 0.0000} def
/Color6 {0.7373 0.5608 0.5608} def
/Color7 {0.8627 0.8627 0.8627} def
/Color8 {0.5804 0.0000 0.8275} def
/Color9 {0.0000 1.0000 1.0000} def
/Color10 {1.0000 0.0000 1.0000} def
/Color11 {1.0000 0.6471 0.0000} def
/Color12 {0.4471 0.1294 0.7373} def
/Color13 {0.4039 0.0275 0.2824} def
/Color14 {0.2510 0.8784 0.8157} def
/Color15 {0.0000 0.5451 0.0000} def
/Color16 {0.7529 0.7529 0.7529} def
/Color17 {0.5059 0.5059 0.5059} def
/Color18 {0.2588 0.2588 0.2588} def
/PTRN {
 /pat_bits exch def 
 <<
  /PaintType 2
  /PatternType 1 /TilingType 1
  /BBox[0 0 16 16]
  /XStep 16 /YStep 16
  /PaintProc {
   pop
   16 16 true [-1 0 0 -1 16 16] pat_bits imagemask
  }
 >>
 [0.0016 0 0 0.0016 0 0]
 makepattern
} def
/Pattern0 {<0000000000000000000000000000000000000000000000000000000000000000> PTRN} bind def
/Pattern1 {<ffffffffffffffffffffffffffffffffffffffffffffffffffffffffffffffff> PTRN} bind def
/Pattern2 {<eeeeffffbbbbffffeeeeffffbbbbffffeeeeffffbbbbffffeeeeffffbbbbffff> PTRN} bind def
/Pattern3 {<eeeebbbbeeeebbbbeeeebbbbeeeebbbbeeeebbbbeeeebbbbeeeebbbbeeeebbbb> PTRN} bind def
/Pattern4 {<5555aaaa5555aaaa5555aaaa5555aaaa5555aaaa5555aaaa5555aaaa5555aaaa> PTRN} bind def
/Pattern5 {<1111444411114444111144441111444411114444111144441111444411114444> PTRN} bind def
/Pattern6 {<1111000044440000111100004444000011110000444400001111000044440000> PTRN} bind def
/Pattern7 {<1010000000000000010100000000000010100000000000000101000000000000> PTRN} bind def
/Pattern8 {<0000000000000000000000000000000000000000000000000000000000000000> PTRN} bind def
/Pattern9 {<1e1e0f0f8787c3c3e1e1f0f078783c3c1e1e0f0f8787c3c3e1e1f0f078783c3c> PTRN} bind def
/Pattern10 {<7878f0f0e1e1c3c387870f0f1e1e3c3c7878f0f0e1e1c3c387870f0f1e1e3c3c> PTRN} bind def
/Pattern11 {<3333333333333333333333333333333333333333333333333333333333333333> PTRN} bind def
/Pattern12 {<ffffffff00000000ffffffff00000000ffffffff00000000ffffffff00000000> PTRN} bind def
/Pattern13 {<8181424224241818181824244242818181814242242418181818242442428181> PTRN} bind def
/Pattern14 {<8080404020201010080804040202010180804040202010100808040402020101> PTRN} bind def
/Pattern15 {<0101020204040808101020204040808001010202040408081010202040408080> PTRN} bind def
/Pattern16 {<2222222222222222222222222222222222222222222222222222222222222222> PTRN} bind def
/Pattern17 {<0000ffff000000000000ffff000000000000ffff000000000000ffff00000000> PTRN} bind def
/Pattern18 {<2222ffff222222222222ffff222222222222ffff222222222222ffff22222222> PTRN} bind def
/Pattern19 {<ffffffff33333333ffffffff33333333ffffffff33333333ffffffff33333333> PTRN} bind def
/Pattern20 {<0f0f0f0f0f0f0f0ff0f0f0f0f0f0f0f00f0f0f0f0f0f0f0ff0f0f0f0f0f0f0f0> PTRN} bind def
/Pattern21 {<ff00ff00ff00ff00ff00ff00ff00ff0000ff00ff00ff00ff00ff00ff00ff00ff> PTRN} bind def
/Pattern22 {<8001800180018001800180018001ffffffff8001800180018001800180018001> PTRN} bind def
/Pattern23 {<c003c003c003c003c003c003ffffffffffffffffc003c003c003c003c003c003> PTRN} bind def
/Pattern24 {<040404040404ffff404040404040ffff040404040404ffff404040404040ffff> PTRN} bind def
/Pattern25 {<180018001800180018001800ffffffff001800180018001800180018ffffffff> PTRN} bind def
/Pattern26 {<1111b8b87c7c3a3a1111a3a3c7c78b8b1111b8b87c7c3a3a1111a3a3c7c78b8b> PTRN} bind def
/Pattern27 {<101010102828c7c70101010182827c7c101010102828c7c70101010182827c7c> PTRN} bind def
/Pattern28 {<1c1c121211112121c1c12121111112121c1c121211112121c1c1212111111212> PTRN} bind def
/Pattern29 {<3e3e414180808080e3e31414080808083e3e414180808080e3e3141408080808> PTRN} bind def
/Pattern30 {<4848888884848383848488884848383848488888848483838484888848483838> PTRN} bind def
/Pattern31 {<03030404080808080c0c12122121c0c003030404080808080c0c12122121c0c0> PTRN} bind def
/ellipsedict 8 dict def
ellipsedict /mtrx matrix put
/EARC {
 ellipsedict begin
  /endangle exch def
  /startangle exch def
  /yrad exch def
  /xrad exch def
  /y exch def
  /x exch def
  /savematrix mtrx currentmatrix def
  x y translate
  xrad yrad scale
  0 0 1 startangle endangle arc
  savematrix setmatrix
 end
} def
/TL {
  /kcomp exch def
  /linewidth exch def
  /offset exch def
  GS
  0 offset rmoveto
  linewidth SLW
  dup stringwidth exch kcomp add exch RL s
  GR
} def
/KINIT
{
 /kvector exch def
 /kid 0 def
} def
/KPROC
{
 pop pop
 kvector kid get
 0 rmoveto
 /kid 1 kid add def
} def
/DefEncoding [
 /.notdef
 /.notdef
 /.notdef
 /.notdef
 /.notdef
 /.notdef
 /.notdef
 /.notdef
 /.notdef
 /.notdef
 /.notdef
 /.notdef
 /.notdef
 /.notdef
 /.notdef
 /.notdef
 /.notdef
 /.notdef
 /.notdef
 /.notdef
 /.notdef
 /.notdef
 /.notdef
 /.notdef
 /.notdef
 /.notdef
 /.notdef
 /.notdef
 /.notdef
 /.notdef
 /.notdef
 /.notdef
 /space
 /exclam
 /quotedbl
 /numbersign
 /dollar
 /percent
 /ampersand
 /quoteright
 /parenleft
 /parenright
 /asterisk
 /plus
 /comma
 /hyphen
 /period
 /slash
 /zero
 /one
 /two
 /three
 /four
 /five
 /six
 /seven
 /eight
 /nine
 /colon
 /semicolon
 /less
 /equal
 /greater
 /question
 /at
 /A
 /B
 /C
 /D
 /E
 /F
 /G
 /H
 /I
 /J
 /K
 /L
 /M
 /N
 /O
 /P
 /Q
 /R
 /S
 /T
 /U
 /V
 /W
 /X
 /Y
 /Z
 /bracketleft
 /backslash
 /bracketright
 /asciicircum
 /underscore
 /grave
 /a
 /b
 /c
 /d
 /e
 /f
 /g
 /h
 /i
 /j
 /k
 /l
 /m
 /n
 /o
 /p
 /q
 /r
 /s
 /t
 /u
 /v
 /w
 /x
 /y
 /z
 /braceleft
 /bar
 /braceright
 /asciitilde
 /.notdef
 /.notdef
 /.notdef
 /.notdef
 /.notdef
 /.notdef
 /.notdef
 /.notdef
 /.notdef
 /.notdef
 /.notdef
 /.notdef
 /.notdef
 /.notdef
 /.notdef
 /.notdef
 /.notdef
 /.notdef
 /.notdef
 /.notdef
 /.notdef
 /.notdef
 /.notdef
 /.notdef
 /.notdef
 /.notdef
 /.notdef
 /.notdef
 /.notdef
 /.notdef
 /.notdef
 /.notdef
 /.notdef
 /space
 /exclamdown
 /cent
 /sterling
 /currency
 /yen
 /brokenbar
 /section
 /dieresis
 /copyright
 /ordfeminine
 /guillemotleft
 /logicalnot
 /hyphen
 /registered
 /macron
 /degree
 /plusminus
 /twosuperior
 /threesuperior
 /acute
 /mu
 /paragraph
 /periodcentered
 /cedilla
 /onesuperior
 /ordmasculine
 /guillemotright
 /onequarter
 /onehalf
 /threequarters
 /questiondown
 /Agrave
 /Aacute
 /Acircumflex
 /Atilde
 /Adieresis
 /Aring
 /AE
 /Ccedilla
 /Egrave
 /Eacute
 /Ecircumflex
 /Edieresis
 /Igrave
 /Iacute
 /Icircumflex
 /Idieresis
 /Eth
 /Ntilde
 /Ograve
 /Oacute
 /Ocircumflex
 /Otilde
 /Odieresis
 /multiply
 /Oslash
 /Ugrave
 /Uacute
 /Ucircumflex
 /Udieresis
 /Yacute
 /Thorn
 /germandbls
 /agrave
 /aacute
 /acircumflex
 /atilde
 /adieresis
 /aring
 /ae
 /ccedilla
 /egrave
 /eacute
 /ecircumflex
 /edieresis
 /igrave
 /iacute
 /icircumflex
 /idieresis
 /eth
 /ntilde
 /ograve
 /oacute
 /ocircumflex
 /otilde
 /odieresis
 /divide
 /oslash
 /ugrave
 /uacute
 /ucircumflex
 /udieresis
 /yacute
 /thorn
 /ydieresis
] def
%%EndProlog
%%BeginSetup
%%EndSetup
%%Page: 1 1
PAGE_OFFSET_X PAGE_OFFSET_Y translate
612.00 612.00 scale
90 rotate
0.0 -1.0 translate
n
0.1500 0.2005 m
0.1500 0.2147 l
0.1500 0.2276 l
0.1656 0.2464 l
0.1809 0.2617 l
0.1961 0.2734 l
0.2204 0.2946 l
0.2417 0.3134 l
0.2644 0.3310 l
0.2948 0.3521 l
0.3237 0.3721 l
0.3525 0.3897 l
0.3783 0.4061 l
0.3995 0.4191 l
0.4238 0.4332 l
0.4526 0.4496 l
0.4814 0.4648 l
0.5117 0.4789 l
0.5375 0.4895 l
0.5678 0.5012 l
0.5966 0.5118 l
0.6253 0.5235 l
0.6541 0.5364 l
0.6875 0.5552 l
0.7179 0.5740 l
0.7406 0.5881 l
0.7770 0.6092 l
0.8104 0.6268 l
0.8423 0.6480 l
0.8832 0.6691 l
0.9166 0.6890 l
0.9514 0.7078 l
0.9939 0.7301 l
1.0257 0.7477 l
1.0561 0.7653 l
1.0834 0.7794 l
1.1000 0.7912 l
1.1000 0.1500 l
0.1500 0.1500 l
c
[/DeviceRGB] SCS
Color5 SC
fill
[] 0 SD
0.0075 SLW
0 SLC
0 SLJ
n
0.1500 0.2005 m
0.1500 0.2147 l
0.1500 0.2276 l
0.1656 0.2464 l
0.1809 0.2617 l
0.1961 0.2734 l
0.2204 0.2946 l
0.2417 0.3134 l
0.2644 0.3310 l
0.2948 0.3521 l
0.3237 0.3721 l
0.3525 0.3897 l
0.3783 0.4061 l
0.3995 0.4191 l
0.4238 0.4332 l
0.4526 0.4496 l
0.4814 0.4648 l
0.5117 0.4789 l
0.5375 0.4895 l
0.5678 0.5012 l
0.5966 0.5118 l
0.6253 0.5235 l
0.6541 0.5364 l
0.6875 0.5552 l
0.7179 0.5740 l
0.7406 0.5881 l
0.7770 0.6092 l
0.8104 0.6268 l
0.8423 0.6480 l
0.8832 0.6691 l
0.9166 0.6890 l
0.9514 0.7078 l
0.9939 0.7301 l
1.0257 0.7477 l
1.0561 0.7653 l
1.0834 0.7794 l
1.1000 0.7912 l
s
n
0.1500 0.1970 m
0.1684 0.2099 l
0.1851 0.2228 l
0.2033 0.2369 l
0.2231 0.2510 l
0.2474 0.2698 l
0.2747 0.2863 l
0.3066 0.3062 l
0.3369 0.3238 l
0.3672 0.3403 l
0.4006 0.3591 l
0.4294 0.3755 l
0.4537 0.3884 l
0.4825 0.4060 l
0.5143 0.4225 l
0.5432 0.4389 l
0.5720 0.4542 l
0.6008 0.4706 l
0.6266 0.4835 l
0.6554 0.4964 l
0.6947 0.5070 l
0.7295 0.5128 l
0.7658 0.5186 l
0.8006 0.5209 l
0.8278 0.5233 l
0.8671 0.5256 l
0.8973 0.5255 l
0.9320 0.5255 l
0.9683 0.5255 l
1.0060 0.5231 l
1.0468 0.5195 l
1.0770 0.5159 l
1.1000 0.5124 l
1.1000 0.5347 l
1.1000 0.5618 l
1.1000 0.5865 l
1.1000 0.6076 l
1.1000 0.6300 l
1.1000 0.6606 l
1.1000 0.6818 l
1.1000 0.7065 l
1.1000 0.7359 l
1.1000 0.7594 l
1.1000 0.7900 l
1.1000 0.1500 l
0.1500 0.1500 l
c
[/DeviceRGB] SCS
Color0 SC
fill
[/DeviceRGB] SCS
Color5 SC
n
0.1500 0.1970 m
0.1684 0.2099 l
0.1851 0.2228 l
0.2033 0.2369 l
0.2231 0.2510 l
0.2474 0.2698 l
0.2747 0.2863 l
0.3066 0.3062 l
0.3369 0.3238 l
0.3672 0.3403 l
0.4006 0.3591 l
0.4294 0.3755 l
0.4537 0.3884 l
0.4825 0.4060 l
0.5143 0.4225 l
0.5432 0.4389 l
0.5720 0.4542 l
0.6008 0.4706 l
0.6266 0.4835 l
0.6554 0.4964 l
0.6947 0.5070 l
0.7295 0.5128 l
0.7658 0.5186 l
0.8006 0.5209 l
0.8278 0.5233 l
0.8671 0.5256 l
0.8973 0.5255 l
0.9320 0.5255 l
0.9683 0.5255 l
1.0060 0.5231 l
1.0468 0.5195 l
1.0770 0.5159 l
1.1000 0.5124 l
1.1000 0.5347 l
1.1000 0.5618 l
1.1000 0.5865 l
1.1000 0.6076 l
1.1000 0.6300 l
1.1000 0.6606 l
1.1000 0.6818 l
1.1000 0.7065 l
1.1000 0.7359 l
1.1000 0.7594 l
1.1000 0.7900 l
s
[/DeviceRGB] SCS
Color1 SC
[] 0 SD
0.0037 SLW
n
0.1499 0.2130 m
0.1503 0.2133 l
0.1532 0.2161 l
0.1562 0.2190 l
0.1593 0.2219 l
0.1625 0.2249 l
0.1659 0.2280 l
0.1694 0.2311 l
0.1729 0.2343 l
0.1767 0.2375 l
0.1805 0.2408 l
0.1844 0.2442 l
0.1885 0.2476 l
0.1927 0.2511 l
0.1971 0.2547 l
0.2016 0.2583 l
0.2062 0.2620 l
0.2109 0.2657 l
0.2158 0.2695 l
0.2209 0.2734 l
0.2261 0.2773 l
0.2314 0.2813 l
0.2369 0.2853 l
0.2425 0.2894 l
0.2483 0.2935 l
0.2542 0.2977 l
0.2603 0.3020 l
0.2665 0.3063 l
0.2729 0.3107 l
0.2795 0.3151 l
0.2862 0.3195 l
0.2931 0.3241 l
0.3002 0.3286 l
0.3074 0.3333 l
0.3148 0.3379 l
0.3224 0.3427 l
0.3302 0.3474 l
0.3381 0.3523 l
0.3462 0.3571 l
0.3545 0.3621 l
0.3630 0.3670 l
0.3717 0.3720 l
0.3805 0.3771 l
0.3896 0.3822 l
0.3988 0.3873 l
0.4082 0.3925 l
0.4179 0.3978 l
0.4277 0.4030 l
0.4377 0.4084 l
0.4480 0.4137 l
0.4584 0.4191 l
0.4691 0.4246 l
0.4799 0.4300 l
0.4910 0.4356 l
0.5022 0.4411 l
0.5137 0.4467 l
0.5254 0.4523 l
0.5374 0.4580 l
0.5495 0.4637 l
0.5619 0.4695 l
0.5745 0.4752 l
0.5873 0.4811 l
0.6004 0.4869 l
0.6137 0.4928 l
0.6272 0.4987 l
0.6409 0.5047 l
0.6549 0.5107 l
0.6691 0.5167 l
0.6836 0.5228 l
0.6983 0.5289 l
0.7133 0.5350 l
0.7285 0.5412 l
0.7439 0.5474 l
0.7596 0.5536 l
0.7756 0.5599 l
0.7918 0.5662 l
0.8083 0.5726 l
0.8250 0.5789 l
0.8420 0.5854 l
0.8593 0.5918 l
0.8768 0.5983 l
0.8946 0.6049 l
0.9126 0.6114 l
0.9310 0.6180 l
0.9496 0.6247 l
0.9684 0.6314 l
0.9876 0.6381 l
1.0070 0.6449 l
1.0268 0.6517 l
1.0468 0.6586 l
1.0670 0.6655 l
1.0876 0.6724 l
1.1085 0.6795 l
1.1296 0.6865 l
1.1501 0.6933 l
s
[/DeviceRGB] SCS
Color4 SC
[0.0037 0.0112 ] 0 SD
0.0037 SLW
n
0.1500 0.2098 m
0.2000 0.2551 l
0.2500 0.2952 l
0.3000 0.3315 l
0.3500 0.3646 l
0.4000 0.3951 l
0.4500 0.4233 l
0.5000 0.4493 l
0.5500 0.4736 l
0.6000 0.4962 l
0.6500 0.5173 l
0.7000 0.5371 l
0.7500 0.5559 l
0.8000 0.5736 l
0.8500 0.5905 l
0.9000 0.6067 l
0.9500 0.6223 l
1.0000 0.6373 l
1.0500 0.6520 l
1.1000 0.6664 l
1.1500 0.6806 l
1.1501 0.6806 l
s
[/DeviceRGB] SCS
Color3 SC
[0.0187 0.0112 ] 0 SD
0.0037 SLW
n
0.1665 0.2388 m
0.2330 0.2973 l
0.2995 0.3450 l
0.3660 0.3856 l
0.4325 0.4207 l
0.4991 0.4514 l
0.5656 0.4784 l
0.6321 0.5020 l
0.6986 0.5227 l
0.7651 0.5408 l
0.8317 0.5565 l
0.8982 0.5700 l
0.9647 0.5814 l
1.0312 0.5909 l
1.0977 0.5985 l
1.1501 0.6032 l
s
[/DeviceRGB] SCS
Color2 SC
n
0.1665 0.2408 m
0.2330 0.2988 l
0.2995 0.3453 l
0.3660 0.3846 l
0.4326 0.4185 l
0.4991 0.4482 l
0.5656 0.4745 l
0.6321 0.4979 l
0.6986 0.5189 l
0.7651 0.5377 l
0.8317 0.5547 l
0.8982 0.5700 l
0.9647 0.5838 l
1.0312 0.5963 l
1.0978 0.6077 l
1.1501 0.6157 l
s
[/DeviceRGB] SCS
Color15 SC
n
0.1659 0.2451 m
0.2318 0.3026 l
0.2977 0.3473 l
0.3636 0.3843 l
0.4296 0.4160 l
0.4955 0.4439 l
0.5614 0.4688 l
0.6273 0.4916 l
0.6932 0.5128 l
0.7591 0.5327 l
0.8250 0.5517 l
0.8910 0.5700 l
0.9569 0.5879 l
1.0228 0.6057 l
1.0887 0.6234 l
1.1501 0.6399 l
s
[/DeviceRGB] SCS
Color13 SC
[] 0 SD
0.0045 SLW
n
0.3000 0.3262 m
0.3264 0.3380 l
0.3446 0.3485 l
0.3674 0.3603 l
0.3886 0.3732 l
0.4038 0.3826 l
0.4280 0.3920 l
0.4523 0.4061 l
0.4826 0.4190 l
0.5053 0.4307 l
0.5296 0.4436 l
0.5569 0.4565 l
0.5842 0.4694 l
0.6039 0.4788 l
0.6387 0.4917 l
0.6735 0.5046 l
0.7023 0.5164 l
0.7386 0.5234 l
0.7855 0.5351 l
0.8310 0.5468 l
0.8733 0.5597 l
0.9021 0.5679 l
0.9024 0.6149 l
0.8676 0.6056 l
0.8298 0.5915 l
0.7858 0.5751 l
0.7449 0.5598 l
0.7056 0.5446 l
0.6449 0.5176 l
0.5737 0.4883 l
0.5176 0.4566 l
0.4600 0.4308 l
0.4206 0.4120 l
0.3812 0.3897 l
0.3296 0.3615 l
0.3000 0.3451 l
0.3000 0.3262 l
s
[/DeviceRGB] SCS
Color12 SC
[0.0037 0.0112 0.0187 0.0112 ] 0 SD
0.0037 SLW
n
0.1499 0.2071 m
0.1500 0.2072 l
0.1550 0.2116 l
0.1600 0.2160 l
0.1650 0.2202 l
0.1700 0.2244 l
0.1750 0.2285 l
0.1800 0.2326 l
0.1850 0.2365 l
0.1900 0.2405 l
0.1950 0.2444 l
0.2000 0.2482 l
0.2050 0.2520 l
0.2100 0.2557 l
0.2150 0.2594 l
0.2200 0.2630 l
0.2250 0.2666 l
0.2300 0.2702 l
0.2350 0.2737 l
0.2400 0.2772 l
0.2450 0.2807 l
0.2500 0.2841 l
0.2550 0.2875 l
0.2600 0.2909 l
0.2650 0.2943 l
0.2700 0.2976 l
0.2750 0.3009 l
0.2800 0.3041 l
0.2850 0.3073 l
0.2900 0.3105 l
0.2950 0.3137 l
0.3000 0.3169 l
0.3050 0.3200 l
0.3100 0.3231 l
0.3150 0.3262 l
0.3200 0.3293 l
0.3250 0.3323 l
0.3300 0.3353 l
0.3350 0.3383 l
0.3400 0.3413 l
0.3450 0.3443 l
0.3500 0.3472 l
0.3550 0.3501 l
0.3600 0.3530 l
0.3650 0.3559 l
0.3700 0.3588 l
0.3750 0.3616 l
0.3800 0.3645 l
0.3850 0.3673 l
0.3900 0.3701 l
0.3950 0.3728 l
0.4000 0.3756 l
0.4050 0.3784 l
0.4100 0.3811 l
0.4150 0.3838 l
0.4200 0.3865 l
0.4250 0.3892 l
0.4300 0.3918 l
0.4350 0.3945 l
0.4400 0.3971 l
0.4450 0.3998 l
0.4500 0.4024 l
0.4550 0.4050 l
0.4600 0.4076 l
0.4650 0.4101 l
0.4700 0.4127 l
0.4750 0.4152 l
0.4800 0.4177 l
0.4850 0.4203 l
0.4900 0.4228 l
0.4950 0.4252 l
0.5000 0.4277 l
0.5050 0.4302 l
0.5100 0.4326 l
0.5150 0.4351 l
0.5200 0.4375 l
0.5250 0.4399 l
0.5300 0.4423 l
0.5350 0.4447 l
0.5400 0.4471 l
0.5450 0.4495 l
0.5500 0.4518 l
0.5550 0.4542 l
0.5600 0.4565 l
0.5650 0.4588 l
0.5700 0.4611 l
0.5750 0.4634 l
0.5800 0.4657 l
0.5850 0.4680 l
0.5900 0.4703 l
0.5950 0.4725 l
0.6000 0.4748 l
0.6050 0.4770 l
0.6100 0.4793 l
0.6150 0.4815 l
0.6200 0.4837 l
0.6250 0.4859 l
0.6300 0.4881 l
0.6350 0.4902 l
0.6400 0.4924 l
0.6450 0.4946 l
0.6500 0.4967 l
0.6550 0.4989 l
0.6600 0.5010 l
0.6650 0.5031 l
0.6700 0.5052 l
0.6750 0.5073 l
0.6800 0.5094 l
0.6850 0.5115 l
0.6900 0.5136 l
0.6950 0.5156 l
0.7000 0.5177 l
0.7050 0.5198 l
0.7100 0.5218 l
0.7150 0.5238 l
0.7200 0.5258 l
0.7250 0.5279 l
0.7300 0.5299 l
0.7350 0.5319 l
0.7400 0.5339 l
0.7450 0.5358 l
0.7500 0.5378 l
0.7550 0.5398 l
0.7600 0.5417 l
0.7650 0.5437 l
0.7700 0.5456 l
0.7750 0.5475 l
0.7800 0.5495 l
0.7850 0.5514 l
0.7900 0.5533 l
0.7950 0.5552 l
0.8000 0.5571 l
0.8050 0.5590 l
0.8100 0.5608 l
0.8150 0.5627 l
0.8200 0.5646 l
0.8250 0.5664 l
0.8300 0.5683 l
0.8350 0.5701 l
0.8400 0.5719 l
0.8450 0.5738 l
0.8500 0.5756 l
0.8550 0.5774 l
0.8600 0.5792 l
0.8650 0.5810 l
0.8700 0.5828 l
0.8750 0.5845 l
0.8800 0.5863 l
0.8850 0.5881 l
0.8900 0.5898 l
0.8950 0.5916 l
0.9000 0.5933 l
0.9050 0.5951 l
0.9100 0.5968 l
0.9150 0.5985 l
0.9200 0.6002 l
0.9250 0.6020 l
0.9300 0.6037 l
0.9350 0.6054 l
0.9400 0.6070 l
0.9450 0.6087 l
0.9500 0.6104 l
0.9550 0.6121 l
0.9600 0.6137 l
0.9650 0.6154 l
0.9700 0.6170 l
0.9750 0.6187 l
0.9800 0.6203 l
0.9850 0.6220 l
0.9900 0.6236 l
0.9950 0.6252 l
1.0000 0.6268 l
1.0050 0.6284 l
1.0100 0.6300 l
1.0150 0.6316 l
1.0200 0.6332 l
1.0250 0.6348 l
1.0300 0.6363 l
1.0350 0.6379 l
1.0400 0.6395 l
1.0450 0.6410 l
1.0500 0.6426 l
1.0550 0.6441 l
1.0600 0.6457 l
1.0650 0.6472 l
1.0700 0.6487 l
1.0750 0.6502 l
1.0800 0.6517 l
1.0850 0.6533 l
1.0900 0.6548 l
1.0950 0.6562 l
1.1000 0.6577 l
1.1050 0.6592 l
1.1100 0.6607 l
1.1150 0.6622 l
1.1200 0.6636 l
1.1250 0.6651 l
1.1300 0.6665 l
1.1350 0.6680 l
1.1400 0.6694 l
1.1450 0.6709 l
1.1500 0.6723 l
1.1501 0.6723 l
s
[/DeviceRGB] SCS
Color1 SC
[] 0 SD
0.0045 SLW
n
0.1500 0.1500 m
1.1500 0.1500 l
s
n
0.1500 0.8500 m
1.1500 0.8500 l
s
n
0.1500 0.1500 m
0.1500 0.1600 l
s
n
0.1500 0.8500 m
0.1500 0.8400 l
s
n
0.2500 0.1500 m
0.2500 0.1600 l
s
n
0.2500 0.8500 m
0.2500 0.8400 l
s
n
0.3500 0.1500 m
0.3500 0.1600 l
s
n
0.3500 0.8500 m
0.3500 0.8400 l
s
n
0.4500 0.1500 m
0.4500 0.1600 l
s
n
0.4500 0.8500 m
0.4500 0.8400 l
s
n
0.5500 0.1500 m
0.5500 0.1600 l
s
n
0.5500 0.8500 m
0.5500 0.8400 l
s
n
0.6500 0.1500 m
0.6500 0.1600 l
s
n
0.6500 0.8500 m
0.6500 0.8400 l
s
n
0.7500 0.1500 m
0.7500 0.1600 l
s
n
0.7500 0.8500 m
0.7500 0.8400 l
s
n
0.8500 0.1500 m
0.8500 0.1600 l
s
n
0.8500 0.8500 m
0.8500 0.8400 l
s
n
0.9500 0.1500 m
0.9500 0.1600 l
s
n
0.9500 0.8500 m
0.9500 0.8400 l
s
n
1.0500 0.1500 m
1.0500 0.1600 l
s
n
1.0500 0.8500 m
1.0500 0.8400 l
s
n
0.2000 0.1500 m
0.2000 0.1700 l
s
n
0.2000 0.8500 m
0.2000 0.8300 l
s
n
0.3000 0.1500 m
0.3000 0.1700 l
s
n
0.3000 0.8500 m
0.3000 0.8300 l
s
n
0.4000 0.1500 m
0.4000 0.1700 l
s
n
0.4000 0.8500 m
0.4000 0.8300 l
s
n
0.5000 0.1500 m
0.5000 0.1700 l
s
n
0.5000 0.8500 m
0.5000 0.8300 l
s
n
0.6000 0.1500 m
0.6000 0.1700 l
s
n
0.6000 0.8500 m
0.6000 0.8300 l
s
n
0.7000 0.1500 m
0.7000 0.1700 l
s
n
0.7000 0.8500 m
0.7000 0.8300 l
s
n
0.8000 0.1500 m
0.8000 0.1700 l
s
n
0.8000 0.8500 m
0.8000 0.8300 l
s
n
0.9000 0.1500 m
0.9000 0.1700 l
s
n
0.9000 0.8500 m
0.9000 0.8300 l
s
n
1.0000 0.1500 m
1.0000 0.1700 l
s
n
1.0000 0.8500 m
1.0000 0.8300 l
s
n
1.1000 0.1500 m
1.1000 0.1700 l
s
n
1.1000 0.8500 m
1.1000 0.8300 l
s
/Times-Roman findfont
dup length dict begin
 {1 index /FID ne {def} {pop pop} ifelse} forall
 /Encoding DefEncoding def
 currentdict
end
/Font0 exch definefont pop
/Font0 FFSF
0.1614 0.1094 m
GS
[0.0448 0.0000 0.0000 0.0448 0 0] CC
(0.02) show
GR
/Font0 FFSF
0.2614 0.1094 m
GS
[0.0448 0.0000 0.0000 0.0448 0 0] CC
(0.04) show
GR
/Font0 FFSF
0.3616 0.1094 m
GS
[0.0448 0.0000 0.0000 0.0448 0 0] CC
(0.06) show
GR
/Font0 FFSF
0.4620 0.1094 m
GS
[0.0448 0.0000 0.0000 0.0448 0 0] CC
(0.08) show
GR
/Font0 FFSF
0.5743 0.1094 m
GS
[0.0448 0.0000 0.0000 0.0448 0 0] CC
(0.1) show
GR
/Font0 FFSF
0.6614 0.1094 m
GS
[0.0448 0.0000 0.0000 0.0448 0 0] CC
(0.12) show
GR
/Font0 FFSF
0.7614 0.1094 m
GS
[0.0448 0.0000 0.0000 0.0448 0 0] CC
(0.14) show
GR
/Font0 FFSF
0.8616 0.1094 m
GS
[0.0448 0.0000 0.0000 0.0448 0 0] CC
(0.16) show
GR
/Font0 FFSF
0.9620 0.1094 m
GS
[0.0448 0.0000 0.0000 0.0448 0 0] CC
(0.18) show
GR
/Font0 FFSF
1.0725 0.1094 m
GS
[0.0448 0.0000 0.0000 0.0448 0 0] CC
(0.2) show
GR
/Times-Italic findfont
dup length dict begin
 {1 index /FID ne {def} {pop pop} ifelse} forall
 /Encoding DefEncoding def
 currentdict
end
/Font1 exch definefont pop
/Font1 FFSF
0.5735 0.0445 m
GS
[0.0504 0.0000 0.0000 0.0504 0 0] CC
(n) show
GR
/Font0 FFSF
0.5986 0.0445 m
GS
[0.0504 0.0000 0.0000 0.0504 0 0] CC
( [fm) show
GR
/Font0 FFSF
0.6841 0.0747 m
GS
[0.0356 0.0000 0.0000 0.0356 0 0] CC
(-3) show
GR
/Font0 FFSF
0.7139 0.0445 m
GS
[0.0504 0.0000 0.0000 0.0504 0 0] CC
(]) show
GR
n
0.1500 0.1500 m
0.1500 0.8500 l
s
n
1.1500 0.1500 m
1.1500 0.8500 l
s
n
0.1500 0.2200 m
0.1600 0.2200 l
s
n
1.1500 0.2200 m
1.1400 0.2200 l
s
n
0.1500 0.3600 m
0.1600 0.3600 l
s
n
1.1500 0.3600 m
1.1400 0.3600 l
s
n
0.1500 0.5000 m
0.1600 0.5000 l
s
n
1.1500 0.5000 m
1.1400 0.5000 l
s
n
0.1500 0.6400 m
0.1600 0.6400 l
s
n
1.1500 0.6400 m
1.1400 0.6400 l
s
n
0.1500 0.7800 m
0.1600 0.7800 l
s
n
1.1500 0.7800 m
1.1400 0.7800 l
s
n
0.1500 0.1500 m
0.1700 0.1500 l
s
n
1.1500 0.1500 m
1.1300 0.1500 l
s
n
0.1500 0.2900 m
0.1700 0.2900 l
s
n
1.1500 0.2900 m
1.1300 0.2900 l
s
n
0.1500 0.4300 m
0.1700 0.4300 l
s
n
1.1500 0.4300 m
1.1300 0.4300 l
s
n
0.1500 0.5700 m
0.1700 0.5700 l
s
n
1.1500 0.5700 m
1.1300 0.5700 l
s
n
0.1500 0.7100 m
0.1700 0.7100 l
s
n
1.1500 0.7100 m
1.1300 0.7100 l
s
n
0.1500 0.8500 m
0.1700 0.8500 l
s
n
1.1500 0.8500 m
1.1300 0.8500 l
s
/Font0 FFSF
0.1188 0.1351 m
GS
[0.0448 0.0000 0.0000 0.0448 0 0] CC
(0) show
GR
/Font0 FFSF
0.0965 0.2751 m
GS
[0.0448 0.0000 0.0000 0.0448 0 0] CC
(10) show
GR
/Font0 FFSF
0.0965 0.4151 m
GS
[0.0448 0.0000 0.0000 0.0448 0 0] CC
(20) show
GR
/Font0 FFSF
0.0965 0.5551 m
GS
[0.0448 0.0000 0.0000 0.0448 0 0] CC
(30) show
GR
/Font0 FFSF
0.0965 0.6951 m
GS
[0.0448 0.0000 0.0000 0.0448 0 0] CC
(40) show
GR
/Font0 FFSF
0.0965 0.8349 m
GS
[0.0448 0.0000 0.0000 0.0448 0 0] CC
(50) show
GR
/Symbol findfont
/Font12 exch definefont pop
/Font12 FFSF
0.0663 0.4053 m
GS
[0.0000 0.0504 -0.0504 0.0000 0 0] CC
(e) show
GR
/Font0 FFSF
0.0865 0.4273 m
GS
[0.0000 0.0356 -0.0356 0.0000 0 0] CC
(T) show
GR
/Font0 FFSF
0.0663 0.4492 m
GS
[0.0000 0.0504 -0.0504 0.0000 0 0] CC
( [MeV]) show
GR
[] 0 SD
0.0015 SLW
n
0.1500 0.1500 m
0.1500 0.8500 l
1.1500 0.8500 l
1.1500 0.1500 l
0.1500 0.1500 l
c
s
[/DeviceRGB] SCS
Color13 SC
[] 0 SD
0.0045 SLW
n
0.5800 0.2700 m
0.5800 0.2200 l
0.7000 0.2200 l
0.7000 0.2700 l
0.5800 0.2700 l
c
s
n
0.5800 0.3700 m
0.5800 0.3200 l
0.7000 0.3200 l
0.7000 0.3700 l
c
[/DeviceRGB] SCS
Color5 SC
fill
[] 0 SD
0.0037 SLW
n
0.5800 0.3700 m
0.5800 0.3200 l
0.7000 0.3200 l
0.7000 0.3700 l
0.5800 0.3700 l
c
s
/Font0 FFSF
[/DeviceRGB] SCS
Color1 SC
0.2000 0.7500 m
GS
[0.0834 0.0000 0.0000 0.0834 0 0] CC
(b\)) show
GR
/Font0 FFSF
0.7300 0.3300 m
GS
[0.0510 0.0000 0.0000 0.0510 0 0] CC
(IAS) show
GR
/Font0 FFSF
0.7300 0.2300 m
GS
[0.0510 0.0000 0.0000 0.0510 0 0] CC
(Neutron skin) show
GR
showpage
%%PageTrailer
%%Trailer
%%DocumentNeededResources: font Times-Roman
%%+ font Times-Italic
%%+ font Symbol
%%EOF
