%!PS-Adobe-3.0
%%BoundingBox: 0 0 612 792
%%LanguageLevel: 2
%%Creator: Grace-5.1.21
%%CreationDate: Mon Aug  3 14:52:53 2015
%%DocumentData: Clean8Bit
%%Orientation: Landscape
%%Pages: 1
%%PageOrder: Ascend
%%Title: asym.agr
%%For: pastorea
%%DocumentNeededResources: (atend)
%%EndComments
%%BeginProlog
/PAGE_OFFSET_X 0 def
/PAGE_OFFSET_Y 0 def
/m {moveto} def
/l {lineto} def
/s {stroke} def
/n {newpath} def
/c {closepath} def
/RL {rlineto} def
/SLW {setlinewidth} def
/GS {gsave} def
/GR {grestore} def
/SC {setcolor} def
/SGRY {setgray} def
/SRGB {setrgbcolor} def
/SD {setdash} def
/SLC {setlinecap} def
/SLJ {setlinejoin} def
/SCS {setcolorspace} def
/FFSF {findfont setfont} def
/CC {concat} def
/PXL {n m 0 0 RL s} def
/Color0 {1.0000 1.0000 1.0000} def
/Color1 {0.0000 0.0000 0.0000} def
/Color2 {1.0000 0.0000 0.0000} def
/Color3 {0.0000 1.0000 0.0000} def
/Color4 {0.0000 0.0000 1.0000} def
/Color5 {1.0000 1.0000 0.0000} def
/Color6 {0.7373 0.5608 0.5608} def
/Color7 {0.8627 0.8627 0.8627} def
/Color8 {0.5804 0.0000 0.8275} def
/Color9 {0.0000 1.0000 1.0000} def
/Color10 {1.0000 0.0000 1.0000} def
/Color11 {1.0000 0.6471 0.0000} def
/Color12 {0.4471 0.1294 0.7373} def
/Color13 {0.4039 0.0275 0.2824} def
/Color14 {0.2510 0.8784 0.8157} def
/Color15 {0.0000 0.5451 0.0000} def
/Color16 {0.7529 0.7529 0.7529} def
/Color17 {0.5059 0.5059 0.5059} def
/Color18 {0.2588 0.2588 0.2588} def
/PTRN {
 /pat_bits exch def 
 <<
  /PaintType 2
  /PatternType 1 /TilingType 1
  /BBox[0 0 16 16]
  /XStep 16 /YStep 16
  /PaintProc {
   pop
   16 16 true [-1 0 0 -1 16 16] pat_bits imagemask
  }
 >>
 [0.0016 0 0 0.0016 0 0]
 makepattern
} def
/Pattern0 {<0000000000000000000000000000000000000000000000000000000000000000> PTRN} bind def
/Pattern1 {<ffffffffffffffffffffffffffffffffffffffffffffffffffffffffffffffff> PTRN} bind def
/Pattern2 {<eeeeffffbbbbffffeeeeffffbbbbffffeeeeffffbbbbffffeeeeffffbbbbffff> PTRN} bind def
/Pattern3 {<eeeebbbbeeeebbbbeeeebbbbeeeebbbbeeeebbbbeeeebbbbeeeebbbbeeeebbbb> PTRN} bind def
/Pattern4 {<5555aaaa5555aaaa5555aaaa5555aaaa5555aaaa5555aaaa5555aaaa5555aaaa> PTRN} bind def
/Pattern5 {<1111444411114444111144441111444411114444111144441111444411114444> PTRN} bind def
/Pattern6 {<1111000044440000111100004444000011110000444400001111000044440000> PTRN} bind def
/Pattern7 {<1010000000000000010100000000000010100000000000000101000000000000> PTRN} bind def
/Pattern8 {<0000000000000000000000000000000000000000000000000000000000000000> PTRN} bind def
/Pattern9 {<1e1e0f0f8787c3c3e1e1f0f078783c3c1e1e0f0f8787c3c3e1e1f0f078783c3c> PTRN} bind def
/Pattern10 {<7878f0f0e1e1c3c387870f0f1e1e3c3c7878f0f0e1e1c3c387870f0f1e1e3c3c> PTRN} bind def
/Pattern11 {<3333333333333333333333333333333333333333333333333333333333333333> PTRN} bind def
/Pattern12 {<ffffffff00000000ffffffff00000000ffffffff00000000ffffffff00000000> PTRN} bind def
/Pattern13 {<8181424224241818181824244242818181814242242418181818242442428181> PTRN} bind def
/Pattern14 {<8080404020201010080804040202010180804040202010100808040402020101> PTRN} bind def
/Pattern15 {<0101020204040808101020204040808001010202040408081010202040408080> PTRN} bind def
/Pattern16 {<2222222222222222222222222222222222222222222222222222222222222222> PTRN} bind def
/Pattern17 {<0000ffff000000000000ffff000000000000ffff000000000000ffff00000000> PTRN} bind def
/Pattern18 {<2222ffff222222222222ffff222222222222ffff222222222222ffff22222222> PTRN} bind def
/Pattern19 {<ffffffff33333333ffffffff33333333ffffffff33333333ffffffff33333333> PTRN} bind def
/Pattern20 {<0f0f0f0f0f0f0f0ff0f0f0f0f0f0f0f00f0f0f0f0f0f0f0ff0f0f0f0f0f0f0f0> PTRN} bind def
/Pattern21 {<ff00ff00ff00ff00ff00ff00ff00ff0000ff00ff00ff00ff00ff00ff00ff00ff> PTRN} bind def
/Pattern22 {<8001800180018001800180018001ffffffff8001800180018001800180018001> PTRN} bind def
/Pattern23 {<c003c003c003c003c003c003ffffffffffffffffc003c003c003c003c003c003> PTRN} bind def
/Pattern24 {<040404040404ffff404040404040ffff040404040404ffff404040404040ffff> PTRN} bind def
/Pattern25 {<180018001800180018001800ffffffff001800180018001800180018ffffffff> PTRN} bind def
/Pattern26 {<1111b8b87c7c3a3a1111a3a3c7c78b8b1111b8b87c7c3a3a1111a3a3c7c78b8b> PTRN} bind def
/Pattern27 {<101010102828c7c70101010182827c7c101010102828c7c70101010182827c7c> PTRN} bind def
/Pattern28 {<1c1c121211112121c1c12121111112121c1c121211112121c1c1212111111212> PTRN} bind def
/Pattern29 {<3e3e414180808080e3e31414080808083e3e414180808080e3e3141408080808> PTRN} bind def
/Pattern30 {<4848888884848383848488884848383848488888848483838484888848483838> PTRN} bind def
/Pattern31 {<03030404080808080c0c12122121c0c003030404080808080c0c12122121c0c0> PTRN} bind def
/ellipsedict 8 dict def
ellipsedict /mtrx matrix put
/EARC {
 ellipsedict begin
  /endangle exch def
  /startangle exch def
  /yrad exch def
  /xrad exch def
  /y exch def
  /x exch def
  /savematrix mtrx currentmatrix def
  x y translate
  xrad yrad scale
  0 0 1 startangle endangle arc
  savematrix setmatrix
 end
} def
/TL {
  /kcomp exch def
  /linewidth exch def
  /offset exch def
  GS
  0 offset rmoveto
  linewidth SLW
  dup stringwidth exch kcomp add exch RL s
  GR
} def
/KINIT
{
 /kvector exch def
 /kid 0 def
} def
/KPROC
{
 pop pop
 kvector kid get
 0 rmoveto
 /kid 1 kid add def
} def
/DefEncoding [
 /.notdef
 /.notdef
 /.notdef
 /.notdef
 /.notdef
 /.notdef
 /.notdef
 /.notdef
 /.notdef
 /.notdef
 /.notdef
 /.notdef
 /.notdef
 /.notdef
 /.notdef
 /.notdef
 /.notdef
 /.notdef
 /.notdef
 /.notdef
 /.notdef
 /.notdef
 /.notdef
 /.notdef
 /.notdef
 /.notdef
 /.notdef
 /.notdef
 /.notdef
 /.notdef
 /.notdef
 /.notdef
 /space
 /exclam
 /quotedbl
 /numbersign
 /dollar
 /percent
 /ampersand
 /quoteright
 /parenleft
 /parenright
 /asterisk
 /plus
 /comma
 /hyphen
 /period
 /slash
 /zero
 /one
 /two
 /three
 /four
 /five
 /six
 /seven
 /eight
 /nine
 /colon
 /semicolon
 /less
 /equal
 /greater
 /question
 /at
 /A
 /B
 /C
 /D
 /E
 /F
 /G
 /H
 /I
 /J
 /K
 /L
 /M
 /N
 /O
 /P
 /Q
 /R
 /S
 /T
 /U
 /V
 /W
 /X
 /Y
 /Z
 /bracketleft
 /backslash
 /bracketright
 /asciicircum
 /underscore
 /grave
 /a
 /b
 /c
 /d
 /e
 /f
 /g
 /h
 /i
 /j
 /k
 /l
 /m
 /n
 /o
 /p
 /q
 /r
 /s
 /t
 /u
 /v
 /w
 /x
 /y
 /z
 /braceleft
 /bar
 /braceright
 /asciitilde
 /.notdef
 /.notdef
 /.notdef
 /.notdef
 /.notdef
 /.notdef
 /.notdef
 /.notdef
 /.notdef
 /.notdef
 /.notdef
 /.notdef
 /.notdef
 /.notdef
 /.notdef
 /.notdef
 /.notdef
 /.notdef
 /.notdef
 /.notdef
 /.notdef
 /.notdef
 /.notdef
 /.notdef
 /.notdef
 /.notdef
 /.notdef
 /.notdef
 /.notdef
 /.notdef
 /.notdef
 /.notdef
 /.notdef
 /space
 /exclamdown
 /cent
 /sterling
 /currency
 /yen
 /brokenbar
 /section
 /dieresis
 /copyright
 /ordfeminine
 /guillemotleft
 /logicalnot
 /hyphen
 /registered
 /macron
 /degree
 /plusminus
 /twosuperior
 /threesuperior
 /acute
 /mu
 /paragraph
 /periodcentered
 /cedilla
 /onesuperior
 /ordmasculine
 /guillemotright
 /onequarter
 /onehalf
 /threequarters
 /questiondown
 /Agrave
 /Aacute
 /Acircumflex
 /Atilde
 /Adieresis
 /Aring
 /AE
 /Ccedilla
 /Egrave
 /Eacute
 /Ecircumflex
 /Edieresis
 /Igrave
 /Iacute
 /Icircumflex
 /Idieresis
 /Eth
 /Ntilde
 /Ograve
 /Oacute
 /Ocircumflex
 /Otilde
 /Odieresis
 /multiply
 /Oslash
 /Ugrave
 /Uacute
 /Ucircumflex
 /Udieresis
 /Yacute
 /Thorn
 /germandbls
 /agrave
 /aacute
 /acircumflex
 /atilde
 /adieresis
 /aring
 /ae
 /ccedilla
 /egrave
 /eacute
 /ecircumflex
 /edieresis
 /igrave
 /iacute
 /icircumflex
 /idieresis
 /eth
 /ntilde
 /ograve
 /oacute
 /ocircumflex
 /otilde
 /odieresis
 /divide
 /oslash
 /ugrave
 /uacute
 /ucircumflex
 /udieresis
 /yacute
 /thorn
 /ydieresis
] def
%%EndProlog
%%BeginSetup
%%EndSetup
%%Page: 1 1
PAGE_OFFSET_X PAGE_OFFSET_Y translate
612.00 612.00 scale
90 rotate
0.0 -1.0 translate
[/DeviceRGB] SCS
Color1 SC
[] 0 SD
0.0037 SLW
0 SLC
0 SLJ
n
0.1500 0.1500 m
0.1500 0.1500 l
0.1500 0.1500 l
0.1500 0.1501 l
0.1500 0.1501 l
0.1500 0.1501 l
0.1500 0.1502 l
0.1500 0.1503 l
0.1500 0.1503 l
0.1501 0.1504 l
0.1501 0.1505 l
0.1501 0.1506 l
0.1501 0.1508 l
0.1502 0.1509 l
0.1502 0.1510 l
0.1503 0.1512 l
0.1503 0.1514 l
0.1504 0.1516 l
0.1505 0.1518 l
0.1505 0.1520 l
0.1506 0.1523 l
0.1507 0.1525 l
0.1508 0.1528 l
0.1509 0.1531 l
0.1511 0.1534 l
0.1512 0.1537 l
0.1513 0.1541 l
0.1515 0.1544 l
0.1516 0.1548 l
0.1518 0.1552 l
0.1520 0.1556 l
0.1522 0.1561 l
0.1524 0.1565 l
0.1527 0.1570 l
0.1529 0.1575 l
0.1532 0.1580 l
0.1534 0.1585 l
0.1537 0.1591 l
0.1540 0.1597 l
0.1543 0.1603 l
0.1547 0.1609 l
0.1550 0.1615 l
0.1554 0.1622 l
0.1558 0.1628 l
0.1562 0.1635 l
0.1566 0.1642 l
0.1570 0.1650 l
0.1575 0.1657 l
0.1579 0.1665 l
0.1584 0.1673 l
0.1590 0.1681 l
0.1595 0.1689 l
0.1601 0.1698 l
0.1606 0.1707 l
0.1612 0.1716 l
0.1619 0.1725 l
0.1625 0.1734 l
0.1632 0.1744 l
0.1639 0.1753 l
0.1646 0.1763 l
0.1653 0.1773 l
0.1661 0.1784 l
0.1669 0.1794 l
0.1677 0.1805 l
0.1685 0.1816 l
0.1694 0.1827 l
0.1703 0.1838 l
0.1712 0.1850 l
0.1722 0.1862 l
0.1732 0.1873 l
0.1742 0.1886 l
0.1752 0.1898 l
0.1763 0.1910 l
0.1774 0.1923 l
0.1785 0.1936 l
0.1797 0.1949 l
0.1808 0.1962 l
0.1821 0.1975 l
0.1833 0.1988 l
0.1846 0.2002 l
0.1859 0.2016 l
0.1872 0.2030 l
0.1886 0.2044 l
0.1900 0.2058 l
0.1915 0.2073 l
0.1930 0.2087 l
0.1945 0.2102 l
0.1960 0.2117 l
0.1976 0.2132 l
0.1992 0.2147 l
0.2009 0.2163 l
0.2026 0.2178 l
0.2043 0.2194 l
0.2061 0.2210 l
0.2079 0.2226 l
0.2098 0.2242 l
0.2116 0.2258 l
0.2136 0.2274 l
0.2155 0.2291 l
0.2175 0.2307 l
0.2196 0.2324 l
0.2217 0.2341 l
0.2238 0.2358 l
0.2260 0.2375 l
0.2282 0.2392 l
0.2304 0.2410 l
0.2327 0.2427 l
0.2351 0.2445 l
0.2375 0.2463 l
0.2399 0.2480 l
0.2424 0.2498 l
0.2449 0.2516 l
0.2475 0.2535 l
0.2501 0.2553 l
0.2527 0.2571 l
0.2554 0.2590 l
0.2582 0.2608 l
0.2610 0.2627 l
0.2638 0.2646 l
0.2667 0.2665 l
0.2697 0.2684 l
0.2727 0.2703 l
0.2757 0.2722 l
0.2788 0.2742 l
0.2819 0.2761 l
0.2851 0.2781 l
0.2884 0.2801 l
0.2917 0.2821 l
0.2950 0.2840 l
0.2984 0.2861 l
0.3019 0.2881 l
0.3054 0.2901 l
0.3089 0.2921 l
0.3125 0.2942 l
0.3162 0.2963 l
0.3199 0.2983 l
0.3237 0.3004 l
0.3275 0.3025 l
0.3314 0.3047 l
0.3353 0.3068 l
0.3393 0.3089 l
0.3434 0.3111 l
0.3475 0.3133 l
0.3517 0.3155 l
0.3559 0.3177 l
0.3602 0.3199 l
0.3646 0.3221 l
0.3690 0.3244 l
0.3734 0.3266 l
0.3780 0.3289 l
0.3826 0.3312 l
0.3872 0.3336 l
0.3919 0.3359 l
0.3967 0.3383 l
0.4015 0.3407 l
0.4064 0.3431 l
0.4114 0.3455 l
0.4164 0.3479 l
0.4215 0.3504 l
0.4267 0.3529 l
0.4319 0.3554 l
0.4372 0.3580 l
0.4425 0.3606 l
0.4479 0.3632 l
0.4534 0.3658 l
0.4590 0.3685 l
0.4646 0.3712 l
0.4703 0.3739 l
0.4760 0.3766 l
0.4819 0.3794 l
0.4878 0.3822 l
0.4937 0.3851 l
0.4997 0.3880 l
0.5058 0.3909 l
0.5120 0.3939 l
0.5183 0.3969 l
0.5246 0.3999 l
0.5310 0.4030 l
0.5374 0.4061 l
0.5439 0.4093 l
0.5505 0.4125 l
0.5572 0.4158 l
0.5640 0.4191 l
0.5708 0.4225 l
0.5777 0.4259 l
0.5847 0.4294 l
0.5917 0.4329 l
0.5988 0.4365 l
0.6060 0.4401 l
0.6133 0.4438 l
0.6207 0.4475 l
0.6281 0.4513 l
0.6356 0.4552 l
0.6432 0.4591 l
0.6509 0.4631 l
0.6586 0.4672 l
0.6664 0.4713 l
0.6743 0.4755 l
0.6823 0.4798 l
0.6904 0.4842 l
0.6985 0.4886 l
0.7068 0.4931 l
0.7151 0.4976 l
0.7235 0.5023 l
0.7319 0.5070 l
0.7405 0.5118 l
0.7491 0.5167 l
0.7579 0.5217 l
0.7667 0.5268 l
0.7756 0.5320 l
0.7845 0.5372 l
0.7936 0.5426 l
0.8028 0.5480 l
0.8120 0.5535 l
0.8213 0.5592 l
0.8307 0.5649 l
0.8402 0.5707 l
0.8498 0.5766 l
0.8595 0.5827 l
0.8692 0.5888 l
0.8791 0.5950 l
0.8890 0.6014 l
0.8991 0.6078 l
0.9092 0.6144 l
0.9194 0.6211 l
0.9297 0.6279 l
0.9401 0.6348 l
0.9506 0.6418 l
0.9612 0.6489 l
0.9718 0.6561 l
0.9826 0.6635 l
0.9935 0.6710 l
1.0044 0.6786 l
1.0155 0.6863 l
1.0266 0.6942 l
1.0379 0.7021 l
1.0492 0.7102 l
1.0606 0.7184 l
1.0722 0.7268 l
1.0838 0.7352 l
1.0955 0.7438 l
1.1073 0.7525 l
1.1192 0.7613 l
1.1312 0.7703 l
1.1434 0.7794 l
1.1501 0.7845 l
s
n
0.1622 0.1696 0.0100 0.0100 0 360 EARC c
GS
Color0 SRGB
fill
GR
[/Pattern /DeviceRGB] SCS
Color1 Pattern8 SC
fill
[/DeviceRGB] SCS
Color1 SC
n 0.1622 0.1696 0.0100 0.0100 0 360 EARC s
n
0.2076 0.2038 0.0100 0.0100 0 360 EARC c
GS
Color0 SRGB
fill
GR
[/Pattern /DeviceRGB] SCS
Color1 Pattern8 SC
fill
[/DeviceRGB] SCS
Color1 SC
n 0.2076 0.2038 0.0100 0.0100 0 360 EARC s
n
0.2682 0.2551 0.0100 0.0100 0 360 EARC c
GS
Color0 SRGB
fill
GR
[/Pattern /DeviceRGB] SCS
Color1 Pattern8 SC
fill
[/DeviceRGB] SCS
Color1 SC
n 0.2682 0.2551 0.0100 0.0100 0 360 EARC s
n
0.3348 0.2991 0.0100 0.0100 0 360 EARC c
GS
Color0 SRGB
fill
GR
[/Pattern /DeviceRGB] SCS
Color1 Pattern8 SC
fill
[/DeviceRGB] SCS
Color1 SC
n 0.3348 0.2991 0.0100 0.0100 0 360 EARC s
n
0.4347 0.3480 0.0100 0.0100 0 360 EARC c
GS
Color0 SRGB
fill
GR
[/Pattern /DeviceRGB] SCS
Color1 Pattern8 SC
fill
[/DeviceRGB] SCS
Color1 SC
n 0.4347 0.3480 0.0100 0.0100 0 360 EARC s
n
0.5315 0.3797 0.0100 0.0100 0 360 EARC c
GS
Color0 SRGB
fill
GR
[/Pattern /DeviceRGB] SCS
Color1 Pattern8 SC
fill
[/DeviceRGB] SCS
Color1 SC
n 0.5315 0.3797 0.0100 0.0100 0 360 EARC s
n
0.6283 0.4213 0.0100 0.0100 0 360 EARC c
GS
Color0 SRGB
fill
GR
[/Pattern /DeviceRGB] SCS
Color1 Pattern8 SC
fill
[/DeviceRGB] SCS
Color1 SC
n 0.6283 0.4213 0.0100 0.0100 0 360 EARC s
n
0.7342 0.4726 0.0100 0.0100 0 360 EARC c
GS
Color0 SRGB
fill
GR
[/Pattern /DeviceRGB] SCS
Color1 Pattern8 SC
fill
[/DeviceRGB] SCS
Color1 SC
n 0.7342 0.4726 0.0100 0.0100 0 360 EARC s
n
0.8431 0.5142 0.0100 0.0100 0 360 EARC c
GS
Color0 SRGB
fill
GR
[/Pattern /DeviceRGB] SCS
Color1 Pattern8 SC
fill
[/DeviceRGB] SCS
Color1 SC
n 0.8431 0.5142 0.0100 0.0100 0 360 EARC s
n
0.9339 0.5606 0.0100 0.0100 0 360 EARC c
GS
Color0 SRGB
fill
GR
[/Pattern /DeviceRGB] SCS
Color1 Pattern8 SC
fill
[/DeviceRGB] SCS
Color1 SC
n 0.9339 0.5606 0.0100 0.0100 0 360 EARC s
n
1.0277 0.6071 0.0100 0.0100 0 360 EARC c
GS
Color0 SRGB
fill
GR
[/Pattern /DeviceRGB] SCS
Color1 Pattern8 SC
fill
[/DeviceRGB] SCS
Color1 SC
n 1.0277 0.6071 0.0100 0.0100 0 360 EARC s
n
1.1185 0.6559 0.0100 0.0100 0 360 EARC c
GS
Color0 SRGB
fill
GR
[/Pattern /DeviceRGB] SCS
Color1 Pattern8 SC
fill
[/DeviceRGB] SCS
Color1 SC
n 1.1185 0.6559 0.0100 0.0100 0 360 EARC s
[/DeviceRGB] SCS
Color4 SC
[0.0037 0.0112 ] 0 SD
0.0037 SLW
n
0.1600 0.1687 m
0.1700 0.1828 l
0.1800 0.1954 l
0.1900 0.2067 l
0.2000 0.2171 l
0.2100 0.2266 l
0.2200 0.2354 l
0.2300 0.2435 l
0.2400 0.2511 l
0.2500 0.2582 l
0.2600 0.2648 l
0.2700 0.2710 l
0.2800 0.2768 l
0.2900 0.2824 l
0.3000 0.2877 l
0.3100 0.2927 l
0.3200 0.2976 l
0.3300 0.3023 l
0.3400 0.3069 l
0.3500 0.3114 l
0.3600 0.3158 l
0.3700 0.3202 l
0.3800 0.3245 l
0.3900 0.3289 l
0.4000 0.3333 l
0.4100 0.3377 l
0.4200 0.3421 l
0.4300 0.3466 l
0.4400 0.3512 l
0.4500 0.3559 l
0.4600 0.3606 l
0.4700 0.3655 l
0.4800 0.3704 l
0.4900 0.3755 l
0.5000 0.3806 l
0.5100 0.3859 l
0.5200 0.3912 l
0.5300 0.3966 l
0.5400 0.4021 l
0.5500 0.4077 l
0.5600 0.4134 l
0.5700 0.4191 l
0.5800 0.4249 l
0.5900 0.4307 l
0.6000 0.4365 l
0.6100 0.4424 l
0.6200 0.4482 l
0.6300 0.4540 l
0.6400 0.4597 l
0.6500 0.4654 l
0.6600 0.4709 l
0.6700 0.4764 l
0.6800 0.4817 l
0.6900 0.4868 l
0.7000 0.4918 l
0.7100 0.4965 l
0.7200 0.5010 l
0.7300 0.5052 l
0.7400 0.5091 l
0.7500 0.5126 l
s
[/DeviceRGB] SCS
Color3 SC
[0.0187 0.0112 ] 0 SD
0.0037 SLW
n
0.1633 0.1777 m
0.1766 0.1960 l
0.1899 0.2110 l
0.2032 0.2236 l
0.2165 0.2346 l
0.2298 0.2442 l
0.2431 0.2526 l
0.2564 0.2600 l
0.2697 0.2665 l
0.2830 0.2721 l
0.2963 0.2770 l
0.3096 0.2813 l
0.3229 0.2848 l
0.3362 0.2878 l
0.3495 0.2902 l
0.3628 0.2920 l
0.3761 0.2933 l
0.3895 0.2942 l
0.4027 0.2946 l
0.4160 0.2945 l
0.4294 0.2940 l
0.4427 0.2931 l
0.4560 0.2918 l
0.4693 0.2900 l
0.4826 0.2880 l
0.4959 0.2855 l
0.5092 0.2827 l
0.5225 0.2796 l
0.5358 0.2761 l
0.5491 0.2723 l
0.5624 0.2681 l
0.5757 0.2637 l
0.5890 0.2589 l
0.6023 0.2538 l
0.6156 0.2485 l
0.6289 0.2428 l
0.6422 0.2369 l
0.6555 0.2307 l
0.6688 0.2242 l
0.6821 0.2174 l
0.6954 0.2104 l
0.7087 0.2031 l
0.7220 0.1956 l
0.7353 0.1878 l
0.7486 0.1797 l
0.7619 0.1714 l
0.7752 0.1629 l
0.7885 0.1541 l
0.7947 0.1499 l
s
[/DeviceRGB] SCS
Color2 SC
n
0.1633 0.1784 m
0.1766 0.1965 l
0.1899 0.2110 l
0.2032 0.2233 l
0.2165 0.2339 l
0.2298 0.2432 l
0.2431 0.2514 l
0.2564 0.2587 l
0.2697 0.2653 l
0.2830 0.2712 l
0.2963 0.2765 l
0.3096 0.2813 l
0.3229 0.2856 l
0.3362 0.2895 l
0.3495 0.2930 l
0.3628 0.2962 l
0.3761 0.2991 l
0.3895 0.3017 l
0.4028 0.3041 l
0.4161 0.3062 l
0.4294 0.3082 l
0.4427 0.3099 l
0.4560 0.3115 l
0.4693 0.3129 l
0.4826 0.3141 l
0.4959 0.3153 l
0.5092 0.3163 l
0.5225 0.3172 l
0.5358 0.3180 l
0.5491 0.3187 l
0.5624 0.3193 l
0.5757 0.3199 l
0.5890 0.3204 l
0.6023 0.3208 l
0.6156 0.3212 l
0.6289 0.3216 l
0.6422 0.3219 l
0.6555 0.3222 l
0.6688 0.3225 l
0.6821 0.3228 l
0.6954 0.3230 l
0.7087 0.3233 l
0.7220 0.3235 l
0.7353 0.3237 l
0.7486 0.3240 l
0.7619 0.3242 l
0.7752 0.3245 l
0.7885 0.3248 l
0.8018 0.3251 l
0.8151 0.3255 l
0.8285 0.3258 l
0.8418 0.3262 l
0.8551 0.3267 l
0.8684 0.3271 l
0.8817 0.3276 l
0.8950 0.3282 l
0.9083 0.3288 l
0.9216 0.3295 l
0.9349 0.3302 l
0.9482 0.3309 l
0.9615 0.3317 l
0.9748 0.3326 l
0.9881 0.3335 l
1.0014 0.3345 l
1.0147 0.3356 l
1.0280 0.3367 l
1.0413 0.3379 l
1.0546 0.3391 l
1.0679 0.3405 l
1.0812 0.3419 l
1.0945 0.3434 l
1.1078 0.3449 l
1.1211 0.3466 l
1.1344 0.3483 l
1.1477 0.3501 l
1.1501 0.3504 l
s
[/DeviceRGB] SCS
Color15 SC
n
0.1632 0.1797 m
0.1764 0.1977 l
0.1895 0.2116 l
0.2027 0.2232 l
0.2159 0.2331 l
0.2291 0.2418 l
0.2423 0.2496 l
0.2555 0.2568 l
0.2686 0.2634 l
0.2818 0.2696 l
0.2950 0.2755 l
0.3082 0.2812 l
0.3214 0.2869 l
0.3346 0.2924 l
0.3477 0.2979 l
0.3609 0.3035 l
0.3741 0.3091 l
0.3873 0.3149 l
0.4005 0.3208 l
0.4137 0.3269 l
0.4268 0.3331 l
0.4400 0.3397 l
0.4532 0.3464 l
0.4664 0.3534 l
0.4796 0.3608 l
0.4928 0.3684 l
0.5059 0.3763 l
0.5191 0.3846 l
0.5323 0.3932 l
0.5455 0.4022 l
0.5587 0.4116 l
0.5719 0.4214 l
0.5850 0.4315 l
0.5982 0.4421 l
0.6114 0.4531 l
0.6246 0.4645 l
0.6378 0.4764 l
0.6509 0.4887 l
0.6641 0.5015 l
0.6773 0.5147 l
0.6905 0.5284 l
0.7037 0.5426 l
0.7169 0.5572 l
0.7300 0.5723 l
0.7432 0.5880 l
0.7564 0.6041 l
0.7696 0.6208 l
0.7828 0.6379 l
0.7960 0.6556 l
0.8091 0.6738 l
0.8223 0.6925 l
0.8355 0.7118 l
0.8487 0.7315 l
0.8619 0.7519 l
0.8751 0.7727 l
0.8882 0.7942 l
0.9014 0.8161 l
0.9146 0.8387 l
0.9211 0.8501 l
s
[/DeviceRGB] SCS
Color12 SC
[0.0037 0.0112 0.0187 0.0112 ] 0 SD
0.0037 SLW
n
0.1510 0.1530 m
0.1520 0.1551 l
0.1530 0.1570 l
0.1540 0.1587 l
0.1550 0.1604 l
0.1560 0.1620 l
0.1570 0.1635 l
0.1580 0.1650 l
0.1590 0.1665 l
0.1600 0.1679 l
0.1610 0.1693 l
0.1620 0.1706 l
0.1630 0.1719 l
0.1640 0.1733 l
0.1650 0.1745 l
0.1660 0.1758 l
0.1670 0.1770 l
0.1680 0.1783 l
0.1690 0.1795 l
0.1700 0.1807 l
0.1710 0.1819 l
0.1720 0.1830 l
0.1730 0.1842 l
0.1740 0.1853 l
0.1750 0.1865 l
0.1760 0.1876 l
0.1770 0.1887 l
0.1780 0.1898 l
0.1790 0.1908 l
0.1800 0.1919 l
0.1810 0.1930 l
0.1820 0.1940 l
0.1830 0.1951 l
0.1840 0.1961 l
0.1850 0.1971 l
0.1860 0.1982 l
0.1870 0.1992 l
0.1880 0.2002 l
0.1890 0.2012 l
0.1900 0.2022 l
0.1910 0.2031 l
0.1920 0.2041 l
0.1930 0.2051 l
0.1940 0.2060 l
0.1950 0.2070 l
0.1960 0.2079 l
0.1970 0.2089 l
0.1980 0.2098 l
0.1990 0.2107 l
0.2000 0.2116 l
0.2010 0.2125 l
0.2020 0.2134 l
0.2030 0.2143 l
0.2040 0.2152 l
0.2050 0.2161 l
0.2060 0.2170 l
0.2070 0.2179 l
0.2080 0.2188 l
0.2090 0.2196 l
0.2100 0.2205 l
0.2110 0.2214 l
0.2120 0.2222 l
0.2130 0.2231 l
0.2140 0.2239 l
0.2150 0.2247 l
0.2160 0.2256 l
0.2170 0.2264 l
0.2180 0.2272 l
0.2190 0.2281 l
0.2200 0.2289 l
0.2210 0.2297 l
0.2220 0.2305 l
0.2230 0.2313 l
0.2240 0.2321 l
0.2250 0.2329 l
0.2260 0.2337 l
0.2270 0.2345 l
0.2280 0.2352 l
0.2290 0.2360 l
0.2300 0.2368 l
0.2310 0.2376 l
0.2320 0.2383 l
0.2330 0.2391 l
0.2340 0.2398 l
0.2350 0.2406 l
0.2360 0.2414 l
0.2370 0.2421 l
0.2380 0.2428 l
0.2390 0.2436 l
0.2400 0.2443 l
0.2410 0.2451 l
0.2420 0.2458 l
0.2430 0.2465 l
0.2440 0.2472 l
0.2450 0.2479 l
0.2460 0.2487 l
0.2470 0.2494 l
0.2480 0.2501 l
0.2490 0.2508 l
0.2500 0.2515 l
0.2510 0.2522 l
0.2520 0.2529 l
0.2530 0.2536 l
0.2540 0.2543 l
0.2550 0.2550 l
0.2560 0.2556 l
0.2570 0.2563 l
0.2580 0.2570 l
0.2590 0.2577 l
0.2600 0.2583 l
0.2610 0.2590 l
0.2620 0.2597 l
0.2630 0.2603 l
0.2640 0.2610 l
0.2650 0.2617 l
0.2660 0.2623 l
0.2670 0.2630 l
0.2680 0.2636 l
0.2690 0.2643 l
0.2700 0.2649 l
0.2710 0.2655 l
0.2720 0.2662 l
0.2730 0.2668 l
0.2740 0.2675 l
0.2750 0.2681 l
0.2760 0.2687 l
0.2770 0.2693 l
0.2780 0.2700 l
0.2790 0.2706 l
0.2800 0.2712 l
0.2810 0.2718 l
0.2820 0.2724 l
0.2830 0.2730 l
0.2840 0.2736 l
0.2850 0.2742 l
0.2860 0.2748 l
0.2870 0.2754 l
0.2880 0.2760 l
0.2890 0.2766 l
0.2900 0.2772 l
0.2910 0.2778 l
0.2920 0.2784 l
0.2930 0.2790 l
0.2940 0.2796 l
0.2950 0.2801 l
0.2960 0.2807 l
0.2970 0.2813 l
0.2980 0.2819 l
0.2990 0.2824 l
0.3000 0.2830 l
0.3010 0.2836 l
0.3020 0.2841 l
0.3030 0.2847 l
0.3040 0.2852 l
0.3050 0.2858 l
0.3060 0.2864 l
0.3070 0.2869 l
0.3080 0.2875 l
0.3090 0.2880 l
0.3100 0.2885 l
0.3110 0.2891 l
0.3120 0.2896 l
0.3130 0.2902 l
0.3140 0.2907 l
0.3150 0.2912 l
0.3160 0.2918 l
0.3170 0.2923 l
0.3180 0.2928 l
0.3190 0.2934 l
0.3200 0.2939 l
0.3210 0.2944 l
0.3220 0.2949 l
0.3230 0.2954 l
0.3240 0.2960 l
0.3250 0.2965 l
0.3260 0.2970 l
0.3270 0.2975 l
0.3280 0.2980 l
0.3290 0.2985 l
0.3300 0.2990 l
0.3310 0.2995 l
0.3320 0.3000 l
0.3330 0.3005 l
0.3340 0.3010 l
0.3350 0.3015 l
0.3360 0.3020 l
0.3370 0.3025 l
0.3380 0.3030 l
0.3390 0.3034 l
0.3400 0.3039 l
0.3410 0.3044 l
0.3420 0.3049 l
0.3430 0.3054 l
0.3440 0.3058 l
0.3450 0.3063 l
0.3460 0.3068 l
0.3470 0.3073 l
0.3480 0.3077 l
0.3490 0.3082 l
0.3500 0.3087 l
0.3510 0.3091 l
0.3520 0.3096 l
0.3530 0.3101 l
0.3540 0.3105 l
0.3550 0.3110 l
0.3560 0.3114 l
0.3570 0.3119 l
0.3580 0.3123 l
0.3590 0.3128 l
0.3600 0.3132 l
0.3610 0.3137 l
0.3620 0.3141 l
0.3630 0.3146 l
0.3640 0.3150 l
0.3650 0.3154 l
0.3660 0.3159 l
0.3670 0.3163 l
0.3680 0.3167 l
0.3690 0.3172 l
0.3700 0.3176 l
0.3710 0.3180 l
0.3720 0.3185 l
0.3730 0.3189 l
0.3740 0.3193 l
0.3750 0.3197 l
0.3760 0.3201 l
0.3770 0.3206 l
0.3780 0.3210 l
0.3790 0.3214 l
0.3800 0.3218 l
0.3810 0.3222 l
0.3820 0.3226 l
0.3830 0.3230 l
0.3840 0.3234 l
0.3850 0.3239 l
0.3860 0.3243 l
0.3870 0.3247 l
0.3880 0.3251 l
0.3890 0.3255 l
0.3900 0.3259 l
0.3910 0.3262 l
0.3920 0.3266 l
0.3930 0.3270 l
0.3940 0.3274 l
0.3950 0.3278 l
0.3960 0.3282 l
0.3970 0.3286 l
0.3980 0.3290 l
0.3990 0.3294 l
0.4000 0.3297 l
0.4010 0.3301 l
0.4020 0.3305 l
0.4030 0.3309 l
0.4040 0.3313 l
0.4050 0.3316 l
0.4060 0.3320 l
0.4070 0.3324 l
0.4080 0.3327 l
0.4090 0.3331 l
0.4100 0.3335 l
0.4110 0.3338 l
0.4120 0.3342 l
0.4130 0.3346 l
0.4140 0.3349 l
0.4150 0.3353 l
0.4160 0.3356 l
0.4170 0.3360 l
0.4180 0.3363 l
0.4190 0.3367 l
0.4200 0.3371 l
0.4210 0.3374 l
0.4220 0.3378 l
0.4230 0.3381 l
0.4240 0.3384 l
0.4250 0.3388 l
0.4260 0.3391 l
0.4270 0.3395 l
0.4280 0.3398 l
0.4290 0.3402 l
0.4300 0.3405 l
0.4310 0.3408 l
0.4320 0.3412 l
0.4330 0.3415 l
0.4340 0.3418 l
0.4350 0.3422 l
0.4360 0.3425 l
0.4370 0.3428 l
0.4380 0.3431 l
0.4390 0.3435 l
0.4400 0.3438 l
0.4410 0.3441 l
0.4420 0.3444 l
0.4430 0.3447 l
0.4440 0.3451 l
0.4450 0.3454 l
0.4460 0.3457 l
0.4470 0.3460 l
0.4480 0.3463 l
0.4490 0.3466 l
0.4500 0.3469 l
0.4510 0.3472 l
0.4520 0.3476 l
0.4530 0.3479 l
0.4540 0.3482 l
0.4550 0.3485 l
0.4560 0.3488 l
0.4570 0.3491 l
0.4580 0.3494 l
0.4590 0.3497 l
0.4600 0.3500 l
0.4610 0.3503 l
0.4620 0.3506 l
0.4630 0.3508 l
0.4640 0.3511 l
0.4650 0.3514 l
0.4660 0.3517 l
0.4670 0.3520 l
0.4680 0.3523 l
0.4690 0.3526 l
0.4700 0.3529 l
0.4710 0.3531 l
0.4720 0.3534 l
0.4730 0.3537 l
0.4740 0.3540 l
0.4750 0.3542 l
0.4760 0.3545 l
0.4770 0.3548 l
0.4780 0.3551 l
0.4790 0.3553 l
0.4800 0.3556 l
0.4810 0.3559 l
0.4820 0.3562 l
0.4830 0.3564 l
0.4840 0.3567 l
0.4850 0.3569 l
0.4860 0.3572 l
0.4870 0.3575 l
0.4880 0.3577 l
0.4890 0.3580 l
0.4900 0.3583 l
0.4910 0.3585 l
0.4920 0.3588 l
0.4930 0.3590 l
0.4940 0.3593 l
0.4950 0.3595 l
0.4960 0.3598 l
0.4970 0.3600 l
0.4980 0.3603 l
0.4990 0.3605 l
0.5000 0.3608 l
0.5010 0.3610 l
0.5020 0.3613 l
0.5030 0.3615 l
0.5040 0.3617 l
0.5050 0.3620 l
0.5060 0.3622 l
0.5070 0.3625 l
0.5080 0.3627 l
0.5090 0.3629 l
0.5100 0.3632 l
0.5110 0.3634 l
0.5120 0.3636 l
0.5130 0.3639 l
0.5140 0.3641 l
0.5150 0.3643 l
0.5160 0.3645 l
0.5170 0.3648 l
0.5180 0.3650 l
0.5190 0.3652 l
0.5200 0.3654 l
0.5210 0.3657 l
0.5220 0.3659 l
0.5230 0.3661 l
0.5240 0.3663 l
0.5250 0.3665 l
0.5260 0.3667 l
0.5270 0.3670 l
0.5280 0.3672 l
0.5290 0.3674 l
0.5300 0.3676 l
0.5310 0.3678 l
0.5320 0.3680 l
0.5330 0.3682 l
0.5340 0.3684 l
0.5350 0.3686 l
0.5360 0.3688 l
0.5370 0.3690 l
0.5380 0.3692 l
0.5390 0.3694 l
0.5400 0.3696 l
0.5410 0.3698 l
0.5420 0.3700 l
0.5430 0.3702 l
0.5440 0.3704 l
0.5450 0.3706 l
0.5460 0.3708 l
0.5470 0.3710 l
0.5480 0.3712 l
0.5490 0.3714 l
0.5500 0.3716 l
0.5510 0.3718 l
0.5520 0.3719 l
0.5530 0.3721 l
0.5540 0.3723 l
0.5550 0.3725 l
0.5560 0.3727 l
0.5570 0.3729 l
0.5580 0.3730 l
0.5590 0.3732 l
0.5600 0.3734 l
0.5610 0.3736 l
0.5620 0.3737 l
0.5630 0.3739 l
0.5640 0.3741 l
0.5650 0.3743 l
0.5660 0.3744 l
0.5670 0.3746 l
0.5680 0.3748 l
0.5690 0.3749 l
0.5700 0.3751 l
0.5710 0.3753 l
0.5720 0.3754 l
0.5730 0.3756 l
0.5740 0.3758 l
0.5750 0.3759 l
0.5760 0.3761 l
0.5770 0.3762 l
0.5780 0.3764 l
0.5790 0.3766 l
0.5800 0.3767 l
0.5810 0.3769 l
0.5820 0.3770 l
0.5830 0.3772 l
0.5840 0.3773 l
0.5850 0.3775 l
0.5860 0.3776 l
0.5870 0.3778 l
0.5880 0.3779 l
0.5890 0.3781 l
0.5900 0.3782 l
0.5910 0.3784 l
0.5920 0.3785 l
0.5930 0.3786 l
0.5940 0.3788 l
0.5950 0.3789 l
0.5960 0.3791 l
0.5970 0.3792 l
0.5980 0.3793 l
0.5990 0.3795 l
0.6000 0.3796 l
0.6010 0.3798 l
0.6020 0.3799 l
0.6030 0.3800 l
0.6040 0.3802 l
0.6050 0.3803 l
0.6060 0.3804 l
0.6070 0.3805 l
0.6080 0.3807 l
0.6090 0.3808 l
0.6100 0.3809 l
0.6110 0.3810 l
0.6120 0.3812 l
0.6130 0.3813 l
0.6140 0.3814 l
0.6150 0.3815 l
0.6160 0.3817 l
0.6170 0.3818 l
0.6180 0.3819 l
0.6190 0.3820 l
0.6200 0.3821 l
0.6210 0.3822 l
0.6220 0.3823 l
0.6230 0.3825 l
0.6240 0.3826 l
0.6250 0.3827 l
0.6260 0.3828 l
0.6270 0.3829 l
0.6280 0.3830 l
0.6290 0.3831 l
0.6300 0.3832 l
0.6310 0.3833 l
0.6320 0.3834 l
0.6330 0.3835 l
0.6340 0.3836 l
0.6350 0.3837 l
0.6360 0.3838 l
0.6370 0.3839 l
0.6380 0.3840 l
0.6390 0.3841 l
0.6400 0.3842 l
0.6410 0.3843 l
0.6420 0.3844 l
0.6430 0.3845 l
0.6440 0.3846 l
0.6450 0.3847 l
0.6460 0.3848 l
0.6470 0.3849 l
0.6480 0.3850 l
0.6490 0.3850 l
0.6500 0.3851 l
0.6510 0.3852 l
0.6520 0.3853 l
0.6530 0.3854 l
0.6540 0.3855 l
0.6550 0.3856 l
0.6560 0.3856 l
0.6570 0.3857 l
0.6580 0.3858 l
0.6590 0.3859 l
0.6600 0.3860 l
0.6610 0.3860 l
0.6620 0.3861 l
0.6630 0.3862 l
0.6640 0.3863 l
0.6650 0.3863 l
0.6660 0.3864 l
0.6670 0.3865 l
0.6680 0.3865 l
0.6690 0.3866 l
0.6700 0.3867 l
0.6710 0.3867 l
0.6720 0.3868 l
0.6730 0.3869 l
0.6740 0.3869 l
0.6750 0.3870 l
0.6760 0.3871 l
0.6770 0.3871 l
0.6780 0.3872 l
0.6790 0.3872 l
0.6800 0.3873 l
0.6810 0.3874 l
0.6820 0.3874 l
0.6830 0.3875 l
0.6840 0.3875 l
0.6850 0.3876 l
0.6860 0.3876 l
0.6870 0.3877 l
0.6880 0.3877 l
0.6890 0.3878 l
0.6900 0.3878 l
0.6910 0.3879 l
0.6920 0.3879 l
0.6930 0.3880 l
0.6940 0.3880 l
0.6950 0.3881 l
0.6960 0.3881 l
0.6970 0.3882 l
0.6980 0.3882 l
0.6990 0.3883 l
0.7000 0.3883 l
0.7010 0.3883 l
0.7020 0.3884 l
0.7030 0.3884 l
0.7040 0.3884 l
0.7050 0.3885 l
0.7060 0.3885 l
0.7070 0.3886 l
0.7080 0.3886 l
0.7090 0.3886 l
0.7100 0.3887 l
0.7110 0.3887 l
0.7120 0.3887 l
0.7130 0.3887 l
0.7140 0.3888 l
0.7150 0.3888 l
0.7160 0.3888 l
0.7170 0.3889 l
0.7180 0.3889 l
0.7190 0.3889 l
0.7200 0.3889 l
0.7210 0.3890 l
0.7220 0.3890 l
0.7230 0.3890 l
0.7240 0.3890 l
0.7250 0.3890 l
0.7260 0.3891 l
0.7270 0.3891 l
0.7280 0.3891 l
0.7290 0.3891 l
0.7300 0.3891 l
0.7310 0.3891 l
0.7320 0.3891 l
0.7330 0.3892 l
0.7340 0.3892 l
0.7350 0.3892 l
0.7360 0.3892 l
0.7370 0.3892 l
0.7380 0.3892 l
0.7390 0.3892 l
0.7400 0.3892 l
0.7410 0.3892 l
0.7420 0.3892 l
0.7430 0.3892 l
0.7440 0.3892 l
0.7450 0.3892 l
0.7460 0.3892 l
0.7470 0.3892 l
0.7480 0.3892 l
0.7490 0.3892 l
0.7500 0.3892 l
0.7510 0.3892 l
0.7520 0.3892 l
0.7530 0.3892 l
0.7540 0.3892 l
0.7550 0.3892 l
0.7560 0.3892 l
0.7570 0.3892 l
0.7580 0.3892 l
0.7590 0.3892 l
0.7600 0.3892 l
0.7610 0.3892 l
0.7620 0.3891 l
0.7630 0.3891 l
0.7640 0.3891 l
0.7650 0.3891 l
0.7660 0.3891 l
0.7670 0.3891 l
0.7680 0.3891 l
0.7690 0.3890 l
0.7700 0.3890 l
0.7710 0.3890 l
0.7720 0.3890 l
0.7730 0.3890 l
0.7740 0.3889 l
0.7750 0.3889 l
0.7760 0.3889 l
0.7770 0.3889 l
0.7780 0.3888 l
0.7790 0.3888 l
0.7800 0.3888 l
0.7810 0.3888 l
0.7820 0.3887 l
0.7830 0.3887 l
0.7840 0.3887 l
0.7850 0.3886 l
0.7860 0.3886 l
0.7870 0.3886 l
0.7880 0.3885 l
0.7890 0.3885 l
0.7900 0.3885 l
0.7910 0.3884 l
0.7920 0.3884 l
0.7930 0.3884 l
0.7940 0.3883 l
0.7950 0.3883 l
0.7960 0.3883 l
0.7970 0.3882 l
0.7980 0.3882 l
0.7990 0.3881 l
0.8000 0.3881 l
0.8010 0.3880 l
0.8020 0.3880 l
0.8030 0.3880 l
0.8040 0.3879 l
0.8050 0.3879 l
0.8060 0.3878 l
0.8070 0.3878 l
0.8080 0.3877 l
0.8090 0.3877 l
0.8100 0.3876 l
0.8110 0.3876 l
0.8120 0.3875 l
0.8130 0.3875 l
0.8140 0.3874 l
0.8150 0.3874 l
0.8160 0.3873 l
0.8170 0.3872 l
0.8180 0.3872 l
0.8190 0.3871 l
0.8200 0.3871 l
0.8210 0.3870 l
0.8220 0.3869 l
0.8230 0.3869 l
0.8240 0.3868 l
0.8250 0.3868 l
0.8260 0.3867 l
0.8270 0.3866 l
0.8280 0.3866 l
0.8290 0.3865 l
0.8300 0.3864 l
0.8310 0.3864 l
0.8320 0.3863 l
0.8330 0.3862 l
0.8340 0.3862 l
0.8350 0.3861 l
0.8360 0.3860 l
0.8370 0.3860 l
0.8380 0.3859 l
0.8390 0.3858 l
0.8400 0.3857 l
0.8410 0.3857 l
0.8420 0.3856 l
0.8430 0.3855 l
0.8440 0.3854 l
0.8450 0.3854 l
0.8460 0.3853 l
0.8470 0.3852 l
0.8480 0.3851 l
0.8490 0.3850 l
0.8500 0.3850 l
0.8510 0.3849 l
0.8520 0.3848 l
0.8530 0.3847 l
0.8540 0.3846 l
0.8550 0.3845 l
0.8560 0.3844 l
0.8570 0.3844 l
0.8580 0.3843 l
0.8590 0.3842 l
0.8600 0.3841 l
0.8610 0.3840 l
0.8620 0.3839 l
0.8630 0.3838 l
0.8640 0.3837 l
0.8650 0.3836 l
0.8660 0.3835 l
0.8670 0.3834 l
0.8680 0.3834 l
0.8690 0.3833 l
0.8700 0.3832 l
0.8710 0.3831 l
0.8720 0.3830 l
0.8730 0.3829 l
0.8740 0.3828 l
0.8750 0.3827 l
0.8760 0.3826 l
0.8770 0.3825 l
0.8780 0.3824 l
0.8790 0.3823 l
0.8800 0.3822 l
0.8810 0.3820 l
0.8820 0.3819 l
0.8830 0.3818 l
0.8840 0.3817 l
0.8850 0.3816 l
0.8860 0.3815 l
0.8870 0.3814 l
0.8880 0.3813 l
0.8890 0.3812 l
0.8900 0.3811 l
0.8910 0.3810 l
0.8920 0.3808 l
0.8930 0.3807 l
0.8940 0.3806 l
0.8950 0.3805 l
0.8960 0.3804 l
0.8970 0.3803 l
0.8980 0.3802 l
0.8990 0.3800 l
0.9000 0.3799 l
0.9010 0.3798 l
0.9020 0.3797 l
0.9030 0.3796 l
0.9040 0.3794 l
0.9050 0.3793 l
0.9060 0.3792 l
0.9070 0.3791 l
0.9080 0.3789 l
0.9090 0.3788 l
0.9100 0.3787 l
0.9110 0.3786 l
0.9120 0.3784 l
0.9130 0.3783 l
0.9140 0.3782 l
0.9150 0.3781 l
0.9160 0.3779 l
0.9170 0.3778 l
0.9180 0.3777 l
0.9190 0.3775 l
0.9200 0.3774 l
0.9210 0.3773 l
0.9220 0.3771 l
0.9230 0.3770 l
0.9240 0.3769 l
0.9250 0.3767 l
0.9260 0.3766 l
0.9270 0.3764 l
0.9280 0.3763 l
0.9290 0.3762 l
0.9300 0.3760 l
0.9310 0.3759 l
0.9320 0.3757 l
0.9330 0.3756 l
0.9340 0.3755 l
0.9350 0.3753 l
0.9360 0.3752 l
0.9370 0.3750 l
0.9380 0.3749 l
0.9390 0.3747 l
0.9400 0.3746 l
0.9410 0.3744 l
0.9420 0.3743 l
0.9430 0.3741 l
0.9440 0.3740 l
0.9450 0.3738 l
0.9460 0.3737 l
0.9470 0.3735 l
0.9480 0.3734 l
0.9490 0.3732 l
0.9500 0.3731 l
0.9510 0.3729 l
0.9520 0.3728 l
0.9530 0.3726 l
0.9540 0.3725 l
0.9550 0.3723 l
0.9560 0.3721 l
0.9570 0.3720 l
0.9580 0.3718 l
0.9590 0.3717 l
0.9600 0.3715 l
0.9610 0.3713 l
0.9620 0.3712 l
0.9630 0.3710 l
0.9640 0.3708 l
0.9650 0.3707 l
0.9660 0.3705 l
0.9670 0.3703 l
0.9680 0.3702 l
0.9690 0.3700 l
0.9700 0.3698 l
0.9710 0.3697 l
0.9720 0.3695 l
0.9730 0.3693 l
0.9740 0.3692 l
0.9750 0.3690 l
0.9760 0.3688 l
0.9770 0.3687 l
0.9780 0.3685 l
0.9790 0.3683 l
0.9800 0.3681 l
0.9810 0.3680 l
0.9820 0.3678 l
0.9830 0.3676 l
0.9840 0.3674 l
0.9850 0.3672 l
0.9860 0.3671 l
0.9870 0.3669 l
0.9880 0.3667 l
0.9890 0.3665 l
0.9900 0.3663 l
0.9910 0.3662 l
0.9920 0.3660 l
0.9930 0.3658 l
0.9940 0.3656 l
0.9950 0.3654 l
0.9960 0.3652 l
0.9970 0.3651 l
0.9980 0.3649 l
0.9990 0.3647 l
1.0000 0.3645 l
1.0010 0.3643 l
1.0020 0.3641 l
1.0030 0.3639 l
1.0040 0.3637 l
1.0050 0.3635 l
1.0060 0.3633 l
1.0070 0.3632 l
1.0080 0.3630 l
1.0090 0.3628 l
1.0100 0.3626 l
1.0110 0.3624 l
1.0120 0.3622 l
1.0130 0.3620 l
1.0140 0.3618 l
1.0150 0.3616 l
1.0160 0.3614 l
1.0170 0.3612 l
1.0180 0.3610 l
1.0190 0.3608 l
1.0200 0.3606 l
1.0210 0.3604 l
1.0220 0.3602 l
1.0230 0.3600 l
1.0240 0.3598 l
1.0250 0.3596 l
1.0260 0.3594 l
1.0270 0.3592 l
1.0280 0.3589 l
1.0290 0.3587 l
1.0300 0.3585 l
1.0310 0.3583 l
1.0320 0.3581 l
1.0330 0.3579 l
1.0340 0.3577 l
1.0350 0.3575 l
1.0360 0.3573 l
1.0370 0.3571 l
1.0380 0.3568 l
1.0390 0.3566 l
1.0400 0.3564 l
1.0410 0.3562 l
1.0420 0.3560 l
1.0430 0.3558 l
1.0440 0.3555 l
1.0450 0.3553 l
1.0460 0.3551 l
1.0470 0.3549 l
1.0480 0.3547 l
1.0490 0.3544 l
1.0500 0.3542 l
1.0510 0.3540 l
1.0520 0.3538 l
1.0530 0.3536 l
1.0540 0.3533 l
1.0550 0.3531 l
1.0560 0.3529 l
1.0570 0.3527 l
1.0580 0.3524 l
1.0590 0.3522 l
1.0600 0.3520 l
1.0610 0.3517 l
1.0620 0.3515 l
1.0630 0.3513 l
1.0640 0.3511 l
1.0650 0.3508 l
1.0660 0.3506 l
1.0670 0.3504 l
1.0680 0.3501 l
1.0690 0.3499 l
1.0700 0.3497 l
1.0710 0.3494 l
1.0720 0.3492 l
1.0730 0.3490 l
1.0740 0.3487 l
1.0750 0.3485 l
1.0760 0.3482 l
1.0770 0.3480 l
1.0780 0.3478 l
1.0790 0.3475 l
1.0800 0.3473 l
1.0810 0.3470 l
1.0820 0.3468 l
1.0830 0.3466 l
1.0840 0.3463 l
1.0850 0.3461 l
1.0860 0.3458 l
1.0870 0.3456 l
1.0880 0.3453 l
1.0890 0.3451 l
1.0900 0.3448 l
1.0910 0.3446 l
1.0920 0.3443 l
1.0930 0.3441 l
1.0940 0.3438 l
1.0950 0.3436 l
1.0960 0.3433 l
1.0970 0.3431 l
1.0980 0.3428 l
1.0990 0.3426 l
1.1000 0.3423 l
1.1010 0.3421 l
1.1020 0.3418 l
1.1030 0.3416 l
1.1040 0.3413 l
1.1050 0.3411 l
1.1060 0.3408 l
1.1070 0.3405 l
1.1080 0.3403 l
1.1090 0.3400 l
1.1100 0.3398 l
1.1110 0.3395 l
1.1120 0.3392 l
1.1130 0.3390 l
1.1140 0.3387 l
1.1150 0.3385 l
1.1160 0.3382 l
1.1170 0.3379 l
1.1180 0.3377 l
1.1190 0.3374 l
1.1200 0.3371 l
1.1210 0.3369 l
1.1220 0.3366 l
1.1230 0.3363 l
1.1240 0.3361 l
1.1250 0.3358 l
1.1260 0.3355 l
1.1270 0.3353 l
1.1280 0.3350 l
1.1290 0.3347 l
1.1300 0.3344 l
1.1310 0.3342 l
1.1320 0.3339 l
1.1330 0.3336 l
1.1340 0.3334 l
1.1350 0.3331 l
1.1360 0.3328 l
1.1370 0.3325 l
1.1380 0.3323 l
1.1390 0.3320 l
1.1400 0.3317 l
1.1410 0.3314 l
1.1420 0.3311 l
1.1430 0.3309 l
1.1440 0.3306 l
1.1450 0.3303 l
1.1460 0.3300 l
1.1470 0.3297 l
1.1480 0.3295 l
1.1490 0.3292 l
1.1500 0.3289 l
s
[/DeviceRGB] SCS
Color1 SC
[] 0 SD
0.0045 SLW
n
0.1500 0.1500 m
1.1500 0.1500 l
s
n
0.1500 0.8500 m
1.1500 0.8500 l
s
n
0.2000 0.1500 m
0.2000 0.1600 l
s
n
0.2000 0.8500 m
0.2000 0.8400 l
s
n
0.3000 0.1500 m
0.3000 0.1600 l
s
n
0.3000 0.8500 m
0.3000 0.8400 l
s
n
0.4000 0.1500 m
0.4000 0.1600 l
s
n
0.4000 0.8500 m
0.4000 0.8400 l
s
n
0.5000 0.1500 m
0.5000 0.1600 l
s
n
0.5000 0.8500 m
0.5000 0.8400 l
s
n
0.6000 0.1500 m
0.6000 0.1600 l
s
n
0.6000 0.8500 m
0.6000 0.8400 l
s
n
0.7000 0.1500 m
0.7000 0.1600 l
s
n
0.7000 0.8500 m
0.7000 0.8400 l
s
n
0.8000 0.1500 m
0.8000 0.1600 l
s
n
0.8000 0.8500 m
0.8000 0.8400 l
s
n
0.9000 0.1500 m
0.9000 0.1600 l
s
n
0.9000 0.8500 m
0.9000 0.8400 l
s
n
1.0000 0.1500 m
1.0000 0.1600 l
s
n
1.0000 0.8500 m
1.0000 0.8400 l
s
n
1.1000 0.1500 m
1.1000 0.1600 l
s
n
1.1000 0.8500 m
1.1000 0.8400 l
s
n
0.1500 0.1500 m
0.1500 0.1700 l
s
n
0.1500 0.8500 m
0.1500 0.8300 l
s
n
0.2500 0.1500 m
0.2500 0.1700 l
s
n
0.2500 0.8500 m
0.2500 0.8300 l
s
n
0.3500 0.1500 m
0.3500 0.1700 l
s
n
0.3500 0.8500 m
0.3500 0.8300 l
s
n
0.4500 0.1500 m
0.4500 0.1700 l
s
n
0.4500 0.8500 m
0.4500 0.8300 l
s
n
0.5500 0.1500 m
0.5500 0.1700 l
s
n
0.5500 0.8500 m
0.5500 0.8300 l
s
n
0.6500 0.1500 m
0.6500 0.1700 l
s
n
0.6500 0.8500 m
0.6500 0.8300 l
s
n
0.7500 0.1500 m
0.7500 0.1700 l
s
n
0.7500 0.8500 m
0.7500 0.8300 l
s
n
0.8500 0.1500 m
0.8500 0.1700 l
s
n
0.8500 0.8500 m
0.8500 0.8300 l
s
n
0.9500 0.1500 m
0.9500 0.1700 l
s
n
0.9500 0.8500 m
0.9500 0.8300 l
s
n
1.0500 0.1500 m
1.0500 0.1700 l
s
n
1.0500 0.8500 m
1.0500 0.8300 l
s
n
1.1500 0.1500 m
1.1500 0.1700 l
s
n
1.1500 0.8500 m
1.1500 0.8300 l
s
/Times-Roman findfont
dup length dict begin
 {1 index /FID ne {def} {pop pop} ifelse} forall
 /Encoding DefEncoding def
 currentdict
end
/Font0 exch definefont pop
/Font0 FFSF
0.1394 0.1094 m
GS
[0.0448 0.0000 0.0000 0.0448 0 0] CC
(0) show
GR
/Font0 FFSF
0.2243 0.1094 m
GS
[0.0448 0.0000 0.0000 0.0448 0 0] CC
(0.1) show
GR
/Font0 FFSF
0.3225 0.1094 m
GS
[0.0448 0.0000 0.0000 0.0448 0 0] CC
(0.2) show
GR
/Font0 FFSF
0.4233 0.1094 m
GS
[0.0448 0.0000 0.0000 0.0448 0 0] CC
(0.3) show
GR
/Font0 FFSF
0.5225 0.1094 m
GS
[0.0448 0.0000 0.0000 0.0448 0 0] CC
(0.4) show
GR
/Font0 FFSF
0.6233 0.1090 m
GS
[0.0448 0.0000 0.0000 0.0448 0 0] CC
(0.5) show
GR
/Font0 FFSF
0.7227 0.1094 m
GS
[0.0448 0.0000 0.0000 0.0448 0 0] CC
(0.6) show
GR
/Font0 FFSF
0.8231 0.1094 m
GS
[0.0448 0.0000 0.0000 0.0448 0 0] CC
(0.7) show
GR
/Font0 FFSF
0.9231 0.1094 m
GS
[0.0448 0.0000 0.0000 0.0448 0 0] CC
(0.8) show
GR
/Font0 FFSF
1.0229 0.1094 m
GS
[0.0448 0.0000 0.0000 0.0448 0 0] CC
(0.9) show
GR
/Font0 FFSF
1.1412 0.1094 m
GS
[0.0448 0.0000 0.0000 0.0448 0 0] CC
(1) show
GR
/Times-Italic findfont
dup length dict begin
 {1 index /FID ne {def} {pop pop} ifelse} forall
 /Encoding DefEncoding def
 currentdict
end
/Font1 exch definefont pop
/Font1 FFSF
0.5735 0.0441 m
GS
[0.0504 0.0000 0.0000 0.0504 0 0] CC
(n) show
GR
/Font0 FFSF
0.5986 0.0441 m
GS
[0.0504 0.0000 0.0000 0.0504 0 0] CC
( [fm) show
GR
/Font0 FFSF
0.6841 0.0743 m
GS
[0.0356 0.0000 0.0000 0.0356 0 0] CC
(-3) show
GR
/Font0 FFSF
0.7139 0.0441 m
GS
[0.0504 0.0000 0.0000 0.0504 0 0] CC
(]) show
GR
n
0.1500 0.1500 m
0.1500 0.8500 l
s
n
1.1500 0.1500 m
1.1500 0.8500 l
s
n
0.1500 0.2375 m
0.1600 0.2375 l
s
n
1.1500 0.2375 m
1.1400 0.2375 l
s
n
0.1500 0.4125 m
0.1600 0.4125 l
s
n
1.1500 0.4125 m
1.1400 0.4125 l
s
n
0.1500 0.5875 m
0.1600 0.5875 l
s
n
1.1500 0.5875 m
1.1400 0.5875 l
s
n
0.1500 0.7625 m
0.1600 0.7625 l
s
n
1.1500 0.7625 m
1.1400 0.7625 l
s
n
0.1500 0.1500 m
0.1700 0.1500 l
s
n
1.1500 0.1500 m
1.1300 0.1500 l
s
n
0.1500 0.3250 m
0.1700 0.3250 l
s
n
1.1500 0.3250 m
1.1300 0.3250 l
s
n
0.1500 0.5000 m
0.1700 0.5000 l
s
n
1.1500 0.5000 m
1.1300 0.5000 l
s
n
0.1500 0.6750 m
0.1700 0.6750 l
s
n
1.1500 0.6750 m
1.1300 0.6750 l
s
n
0.1500 0.8500 m
0.1700 0.8500 l
s
n
1.1500 0.8500 m
1.1300 0.8500 l
s
/Font0 FFSF
0.1188 0.1351 m
GS
[0.0448 0.0000 0.0000 0.0448 0 0] CC
(0) show
GR
/Font0 FFSF
0.0965 0.3101 m
GS
[0.0448 0.0000 0.0000 0.0448 0 0] CC
(40) show
GR
/Font0 FFSF
0.0965 0.4851 m
GS
[0.0448 0.0000 0.0000 0.0448 0 0] CC
(80) show
GR
/Font0 FFSF
0.0741 0.6601 m
GS
[0.0448 0.0000 0.0000 0.0448 0 0] CC
(120) show
GR
/Font0 FFSF
0.0741 0.8351 m
GS
[0.0448 0.0000 0.0000 0.0448 0 0] CC
(160) show
GR
/Symbol findfont
/Font12 exch definefont pop
/Font12 FFSF
0.0440 0.4053 m
GS
[0.0000 0.0504 -0.0504 0.0000 0 0] CC
(e) show
GR
/Font0 FFSF
0.0641 0.4273 m
GS
[0.0000 0.0356 -0.0356 0.0000 0 0] CC
(T) show
GR
/Font0 FFSF
0.0440 0.4492 m
GS
[0.0000 0.0504 -0.0504 0.0000 0 0] CC
( [MeV]) show
GR
[] 0 SD
0.0015 SLW
n
0.1500 0.1500 m
0.1500 0.8500 l
1.1500 0.8500 l
1.1500 0.1500 l
0.1500 0.1500 l
c
s
n
0.1500 0.8500 m
0.1500 0.5671 l
0.4134 0.5671 l
0.4134 0.8500 l
c
[/DeviceRGB] SCS
Color0 SC
fill
[/DeviceRGB] SCS
Color1 SC
[] 0 SD
0.0045 SLW
n
0.1500 0.8500 m
0.1500 0.5671 l
0.4134 0.5671 l
0.4134 0.8500 l
0.1500 0.8500 l
c
s
/Font0 FFSF
0.2419 0.8055 m
GS
[0.0510 0.0000 0.0000 0.0510 0 0] CC
(LYVA1) show
GR
[] 0 SD
0.0037 SLW
n
0.1619 0.8225 m
0.2219 0.8225 l
s
/Font0 FFSF
0.2419 0.7606 m
GS
[0.0510 0.0000 0.0000 0.0510 0 0] CC
(BCPM) show
GR
[/DeviceRGB] SCS
Color4 SC
[0.0037 0.0112 ] 0 SD
0.0037 SLW
n
0.1619 0.7775 m
0.2219 0.7775 l
s
/Font0 FFSF
[/DeviceRGB] SCS
Color1 SC
0.2419 0.7149 m
GS
[0.0510 0.0000 0.0000 0.0510 0 0] CC
(BSk19) show
GR
[/DeviceRGB] SCS
Color3 SC
[0.0187 0.0112 ] 0 SD
0.0037 SLW
n
0.1619 0.7318 m
0.2219 0.7318 l
s
/Font0 FFSF
[/DeviceRGB] SCS
Color1 SC
0.2419 0.6688 m
GS
[0.0510 0.0000 0.0000 0.0510 0 0] CC
(BSk20) show
GR
[/DeviceRGB] SCS
Color2 SC
n
0.1619 0.6859 m
0.2219 0.6859 l
s
/Font0 FFSF
[/DeviceRGB] SCS
Color1 SC
0.2419 0.6231 m
GS
[0.0510 0.0000 0.0000 0.0510 0 0] CC
(BSk21) show
GR
[/DeviceRGB] SCS
Color15 SC
n
0.1619 0.6402 m
0.2219 0.6402 l
s
/Font0 FFSF
[/DeviceRGB] SCS
Color1 SC
0.2419 0.5778 m
GS
[0.0510 0.0000 0.0000 0.0510 0 0] CC
(LNS) show
GR
[/DeviceRGB] SCS
Color12 SC
[0.0037 0.0112 0.0187 0.0112 ] 0 SD
0.0037 SLW
n
0.1619 0.5947 m
0.2219 0.5947 l
s
/Font0 FFSF
[/DeviceRGB] SCS
Color1 SC
1.0000 0.7500 m
GS
[0.0834 0.0000 0.0000 0.0834 0 0] CC
(a\)) show
GR
showpage
%%PageTrailer
%%Trailer
%%DocumentNeededResources: font Times-Roman
%%+ font Times-Italic
%%+ font Symbol
%%EOF
