%!PS-Adobe-3.0
%%BoundingBox: 0 0 612 792
%%LanguageLevel: 2
%%Creator: Grace-5.1.22
%%CreationDate: Sun Jul 26 16:24:31 2015
%%DocumentData: Clean8Bit
%%Orientation: Landscape
%%Pages: 1
%%PageOrder: Ascend
%%Title: EoS_SNM_ST.agr
%%For: alessandropastore
%%DocumentNeededResources: (atend)
%%EndComments
%%BeginProlog
/PAGE_OFFSET_X 0 def
/PAGE_OFFSET_Y 0 def
/m {moveto} def
/l {lineto} def
/s {stroke} def
/n {newpath} def
/c {closepath} def
/RL {rlineto} def
/SLW {setlinewidth} def
/GS {gsave} def
/GR {grestore} def
/SC {setcolor} def
/SGRY {setgray} def
/SRGB {setrgbcolor} def
/SD {setdash} def
/SLC {setlinecap} def
/SLJ {setlinejoin} def
/SCS {setcolorspace} def
/FFSF {findfont setfont} def
/CC {concat} def
/PXL {n m 0 0 RL s} def
/Color0 {1.0000 1.0000 1.0000} def
/Color1 {0.0000 0.0000 0.0000} def
/Color2 {1.0000 0.0000 0.0000} def
/Color3 {0.0000 1.0000 0.0000} def
/Color4 {0.0000 0.0000 1.0000} def
/Color5 {1.0000 1.0000 0.0000} def
/Color6 {0.7373 0.5608 0.5608} def
/Color7 {0.8627 0.8627 0.8627} def
/Color8 {0.5804 0.0000 0.8275} def
/Color9 {0.0000 1.0000 1.0000} def
/Color10 {1.0000 0.0000 1.0000} def
/Color11 {1.0000 0.6471 0.0000} def
/Color12 {0.4471 0.1294 0.7373} def
/Color13 {0.4039 0.0275 0.2824} def
/Color14 {0.2510 0.8784 0.8157} def
/Color15 {0.0000 0.5451 0.0000} def
/Color16 {0.7529 0.7529 0.7529} def
/Color17 {0.5059 0.5059 0.5059} def
/Color18 {0.2588 0.2588 0.2588} def
/PTRN {
 /pat_bits exch def 
 <<
  /PaintType 2
  /PatternType 1 /TilingType 1
  /BBox[0 0 16 16]
  /XStep 16 /YStep 16
  /PaintProc {
   pop
   16 16 true [-1 0 0 -1 16 16] pat_bits imagemask
  }
 >>
 [0.0016 0 0 0.0016 0 0]
 makepattern
} def
/Pattern0 {<0000000000000000000000000000000000000000000000000000000000000000> PTRN} bind def
/Pattern1 {<ffffffffffffffffffffffffffffffffffffffffffffffffffffffffffffffff> PTRN} bind def
/Pattern2 {<eeeeffffbbbbffffeeeeffffbbbbffffeeeeffffbbbbffffeeeeffffbbbbffff> PTRN} bind def
/Pattern3 {<eeeebbbbeeeebbbbeeeebbbbeeeebbbbeeeebbbbeeeebbbbeeeebbbbeeeebbbb> PTRN} bind def
/Pattern4 {<5555aaaa5555aaaa5555aaaa5555aaaa5555aaaa5555aaaa5555aaaa5555aaaa> PTRN} bind def
/Pattern5 {<1111444411114444111144441111444411114444111144441111444411114444> PTRN} bind def
/Pattern6 {<1111000044440000111100004444000011110000444400001111000044440000> PTRN} bind def
/Pattern7 {<1010000000000000010100000000000010100000000000000101000000000000> PTRN} bind def
/Pattern8 {<0000000000000000000000000000000000000000000000000000000000000000> PTRN} bind def
/Pattern9 {<1e1e0f0f8787c3c3e1e1f0f078783c3c1e1e0f0f8787c3c3e1e1f0f078783c3c> PTRN} bind def
/Pattern10 {<7878f0f0e1e1c3c387870f0f1e1e3c3c7878f0f0e1e1c3c387870f0f1e1e3c3c> PTRN} bind def
/Pattern11 {<3333333333333333333333333333333333333333333333333333333333333333> PTRN} bind def
/Pattern12 {<ffffffff00000000ffffffff00000000ffffffff00000000ffffffff00000000> PTRN} bind def
/Pattern13 {<8181424224241818181824244242818181814242242418181818242442428181> PTRN} bind def
/Pattern14 {<8080404020201010080804040202010180804040202010100808040402020101> PTRN} bind def
/Pattern15 {<0101020204040808101020204040808001010202040408081010202040408080> PTRN} bind def
/Pattern16 {<2222222222222222222222222222222222222222222222222222222222222222> PTRN} bind def
/Pattern17 {<0000ffff000000000000ffff000000000000ffff000000000000ffff00000000> PTRN} bind def
/Pattern18 {<2222ffff222222222222ffff222222222222ffff222222222222ffff22222222> PTRN} bind def
/Pattern19 {<ffffffff33333333ffffffff33333333ffffffff33333333ffffffff33333333> PTRN} bind def
/Pattern20 {<0f0f0f0f0f0f0f0ff0f0f0f0f0f0f0f00f0f0f0f0f0f0f0ff0f0f0f0f0f0f0f0> PTRN} bind def
/Pattern21 {<ff00ff00ff00ff00ff00ff00ff00ff0000ff00ff00ff00ff00ff00ff00ff00ff> PTRN} bind def
/Pattern22 {<8001800180018001800180018001ffffffff8001800180018001800180018001> PTRN} bind def
/Pattern23 {<c003c003c003c003c003c003ffffffffffffffffc003c003c003c003c003c003> PTRN} bind def
/Pattern24 {<040404040404ffff404040404040ffff040404040404ffff404040404040ffff> PTRN} bind def
/Pattern25 {<180018001800180018001800ffffffff001800180018001800180018ffffffff> PTRN} bind def
/Pattern26 {<1111b8b87c7c3a3a1111a3a3c7c78b8b1111b8b87c7c3a3a1111a3a3c7c78b8b> PTRN} bind def
/Pattern27 {<101010102828c7c70101010182827c7c101010102828c7c70101010182827c7c> PTRN} bind def
/Pattern28 {<1c1c121211112121c1c12121111112121c1c121211112121c1c1212111111212> PTRN} bind def
/Pattern29 {<3e3e414180808080e3e31414080808083e3e414180808080e3e3141408080808> PTRN} bind def
/Pattern30 {<4848888884848383848488884848383848488888848483838484888848483838> PTRN} bind def
/Pattern31 {<03030404080808080c0c12122121c0c003030404080808080c0c12122121c0c0> PTRN} bind def
/ellipsedict 8 dict def
ellipsedict /mtrx matrix put
/EARC {
 ellipsedict begin
  /endangle exch def
  /startangle exch def
  /yrad exch def
  /xrad exch def
  /y exch def
  /x exch def
  /savematrix mtrx currentmatrix def
  x y translate
  xrad yrad scale
  0 0 1 startangle endangle arc
  savematrix setmatrix
 end
} def
/TL {
  /kcomp exch def
  /linewidth exch def
  /offset exch def
  GS
  0 offset rmoveto
  linewidth SLW
  dup stringwidth exch kcomp add exch RL s
  GR
} def
/KINIT
{
 /kvector exch def
 /kid 0 def
} def
/KPROC
{
 pop pop
 kvector kid get
 0 rmoveto
 /kid 1 kid add def
} def
/DefEncoding [
 /.notdef
 /.notdef
 /.notdef
 /.notdef
 /.notdef
 /.notdef
 /.notdef
 /.notdef
 /.notdef
 /.notdef
 /.notdef
 /.notdef
 /.notdef
 /.notdef
 /.notdef
 /.notdef
 /.notdef
 /.notdef
 /.notdef
 /.notdef
 /.notdef
 /.notdef
 /.notdef
 /.notdef
 /.notdef
 /.notdef
 /.notdef
 /.notdef
 /.notdef
 /.notdef
 /.notdef
 /.notdef
 /space
 /exclam
 /quotedbl
 /numbersign
 /dollar
 /percent
 /ampersand
 /quoteright
 /parenleft
 /parenright
 /asterisk
 /plus
 /comma
 /hyphen
 /period
 /slash
 /zero
 /one
 /two
 /three
 /four
 /five
 /six
 /seven
 /eight
 /nine
 /colon
 /semicolon
 /less
 /equal
 /greater
 /question
 /at
 /A
 /B
 /C
 /D
 /E
 /F
 /G
 /H
 /I
 /J
 /K
 /L
 /M
 /N
 /O
 /P
 /Q
 /R
 /S
 /T
 /U
 /V
 /W
 /X
 /Y
 /Z
 /bracketleft
 /backslash
 /bracketright
 /asciicircum
 /underscore
 /grave
 /a
 /b
 /c
 /d
 /e
 /f
 /g
 /h
 /i
 /j
 /k
 /l
 /m
 /n
 /o
 /p
 /q
 /r
 /s
 /t
 /u
 /v
 /w
 /x
 /y
 /z
 /braceleft
 /bar
 /braceright
 /asciitilde
 /.notdef
 /.notdef
 /.notdef
 /.notdef
 /.notdef
 /.notdef
 /.notdef
 /.notdef
 /.notdef
 /.notdef
 /.notdef
 /.notdef
 /.notdef
 /.notdef
 /.notdef
 /.notdef
 /.notdef
 /.notdef
 /.notdef
 /.notdef
 /.notdef
 /.notdef
 /.notdef
 /.notdef
 /.notdef
 /.notdef
 /.notdef
 /.notdef
 /.notdef
 /.notdef
 /.notdef
 /.notdef
 /.notdef
 /space
 /exclamdown
 /cent
 /sterling
 /currency
 /yen
 /brokenbar
 /section
 /dieresis
 /copyright
 /ordfeminine
 /guillemotleft
 /logicalnot
 /hyphen
 /registered
 /macron
 /degree
 /plusminus
 /twosuperior
 /threesuperior
 /acute
 /mu
 /paragraph
 /periodcentered
 /cedilla
 /onesuperior
 /ordmasculine
 /guillemotright
 /onequarter
 /onehalf
 /threequarters
 /questiondown
 /Agrave
 /Aacute
 /Acircumflex
 /Atilde
 /Adieresis
 /Aring
 /AE
 /Ccedilla
 /Egrave
 /Eacute
 /Ecircumflex
 /Edieresis
 /Igrave
 /Iacute
 /Icircumflex
 /Idieresis
 /Eth
 /Ntilde
 /Ograve
 /Oacute
 /Ocircumflex
 /Otilde
 /Odieresis
 /multiply
 /Oslash
 /Ugrave
 /Uacute
 /Ucircumflex
 /Udieresis
 /Yacute
 /Thorn
 /germandbls
 /agrave
 /aacute
 /acircumflex
 /atilde
 /adieresis
 /aring
 /ae
 /ccedilla
 /egrave
 /eacute
 /ecircumflex
 /edieresis
 /igrave
 /iacute
 /icircumflex
 /idieresis
 /eth
 /ntilde
 /ograve
 /oacute
 /ocircumflex
 /otilde
 /odieresis
 /divide
 /oslash
 /ugrave
 /uacute
 /ucircumflex
 /udieresis
 /yacute
 /thorn
 /ydieresis
] def
%%EndProlog
%%BeginSetup
%%EndSetup
%%Page: 1 1
PAGE_OFFSET_X PAGE_OFFSET_Y translate
612.00 612.00 scale
90 rotate
0.0 -1.0 translate
n
0.1589 0.5276 m
0.1589 0.5443 l
0.1755 0.5443 l
0.1755 0.5276 l
c
GS
[/DeviceRGB] SCS
Color0 SRGB
fill
GR
[/Pattern /DeviceRGB] SCS
Color1 Pattern8 SC
fill
[/DeviceRGB] SCS
Color1 SC
[] 0 SD
0.0030 SLW
0 SLC
0 SLJ
n
0.1589 0.5276 m
0.1589 0.5443 l
0.1755 0.5443 l
0.1755 0.5276 l
0.1589 0.5276 l
c
s
n
0.1661 0.5301 m
0.1661 0.5468 l
0.1828 0.5468 l
0.1828 0.5301 l
c
GS
Color0 SRGB
fill
GR
[/Pattern /DeviceRGB] SCS
Color1 Pattern8 SC
fill
[/DeviceRGB] SCS
Color1 SC
n
0.1661 0.5301 m
0.1661 0.5468 l
0.1828 0.5468 l
0.1828 0.5301 l
0.1661 0.5301 l
c
s
n
0.1752 0.5335 m
0.1752 0.5501 l
0.1919 0.5501 l
0.1919 0.5335 l
c
GS
Color0 SRGB
fill
GR
[/Pattern /DeviceRGB] SCS
Color1 Pattern8 SC
fill
[/DeviceRGB] SCS
Color1 SC
n
0.1752 0.5335 m
0.1752 0.5501 l
0.1919 0.5501 l
0.1919 0.5335 l
0.1752 0.5335 l
c
s
n
0.1864 0.5379 m
0.1864 0.5546 l
0.2030 0.5546 l
0.2030 0.5379 l
c
GS
Color0 SRGB
fill
GR
[/Pattern /DeviceRGB] SCS
Color1 Pattern8 SC
fill
[/DeviceRGB] SCS
Color1 SC
n
0.1864 0.5379 m
0.1864 0.5546 l
0.2030 0.5546 l
0.2030 0.5379 l
0.1864 0.5379 l
c
s
n
0.1997 0.5437 m
0.1997 0.5604 l
0.2163 0.5604 l
0.2163 0.5437 l
c
GS
Color0 SRGB
fill
GR
[/Pattern /DeviceRGB] SCS
Color1 Pattern8 SC
fill
[/DeviceRGB] SCS
Color1 SC
n
0.1997 0.5437 m
0.1997 0.5604 l
0.2163 0.5604 l
0.2163 0.5437 l
0.1997 0.5437 l
c
s
n
0.2154 0.5512 m
0.2154 0.5678 l
0.2321 0.5678 l
0.2321 0.5512 l
c
GS
Color0 SRGB
fill
GR
[/Pattern /DeviceRGB] SCS
Color1 Pattern8 SC
fill
[/DeviceRGB] SCS
Color1 SC
n
0.2154 0.5512 m
0.2154 0.5678 l
0.2321 0.5678 l
0.2321 0.5512 l
0.2154 0.5512 l
c
s
n
0.2338 0.5604 m
0.2338 0.5770 l
0.2505 0.5770 l
0.2505 0.5604 l
c
GS
Color0 SRGB
fill
GR
[/Pattern /DeviceRGB] SCS
Color1 Pattern8 SC
fill
[/DeviceRGB] SCS
Color1 SC
n
0.2338 0.5604 m
0.2338 0.5770 l
0.2505 0.5770 l
0.2505 0.5604 l
0.2338 0.5604 l
c
s
n
0.2550 0.5717 m
0.2550 0.5883 l
0.2716 0.5883 l
0.2716 0.5717 l
c
GS
Color0 SRGB
fill
GR
[/Pattern /DeviceRGB] SCS
Color1 Pattern8 SC
fill
[/DeviceRGB] SCS
Color1 SC
n
0.2550 0.5717 m
0.2550 0.5883 l
0.2716 0.5883 l
0.2716 0.5717 l
0.2550 0.5717 l
c
s
n
0.2792 0.5852 m
0.2792 0.6018 l
0.2959 0.6018 l
0.2959 0.5852 l
c
GS
Color0 SRGB
fill
GR
[/Pattern /DeviceRGB] SCS
Color1 Pattern8 SC
fill
[/DeviceRGB] SCS
Color1 SC
n
0.2792 0.5852 m
0.2792 0.6018 l
0.2959 0.6018 l
0.2959 0.5852 l
0.2792 0.5852 l
c
s
n
0.3066 0.6010 m
0.3066 0.6177 l
0.3233 0.6177 l
0.3233 0.6010 l
c
GS
Color0 SRGB
fill
GR
[/Pattern /DeviceRGB] SCS
Color1 Pattern8 SC
fill
[/DeviceRGB] SCS
Color1 SC
n
0.3066 0.6010 m
0.3066 0.6177 l
0.3233 0.6177 l
0.3233 0.6010 l
0.3066 0.6010 l
c
s
n
0.3375 0.6190 m
0.3375 0.6357 l
0.3541 0.6357 l
0.3541 0.6190 l
c
GS
Color0 SRGB
fill
GR
[/Pattern /DeviceRGB] SCS
Color1 Pattern8 SC
fill
[/DeviceRGB] SCS
Color1 SC
n
0.3375 0.6190 m
0.3375 0.6357 l
0.3541 0.6357 l
0.3541 0.6190 l
0.3375 0.6190 l
c
s
n
0.3720 0.6392 m
0.3720 0.6558 l
0.3886 0.6558 l
0.3886 0.6392 l
c
GS
Color0 SRGB
fill
GR
[/Pattern /DeviceRGB] SCS
Color1 Pattern8 SC
fill
[/DeviceRGB] SCS
Color1 SC
n
0.3720 0.6392 m
0.3720 0.6558 l
0.3886 0.6558 l
0.3886 0.6392 l
0.3720 0.6392 l
c
s
n
0.4103 0.6607 m
0.4103 0.6773 l
0.4269 0.6773 l
0.4269 0.6607 l
c
GS
Color0 SRGB
fill
GR
[/Pattern /DeviceRGB] SCS
Color1 Pattern8 SC
fill
[/DeviceRGB] SCS
Color1 SC
n
0.4103 0.6607 m
0.4103 0.6773 l
0.4269 0.6773 l
0.4269 0.6607 l
0.4103 0.6607 l
c
s
n
0.4526 0.6827 m
0.4526 0.6993 l
0.4693 0.6993 l
0.4693 0.6827 l
c
GS
Color0 SRGB
fill
GR
[/Pattern /DeviceRGB] SCS
Color1 Pattern8 SC
fill
[/DeviceRGB] SCS
Color1 SC
n
0.4526 0.6827 m
0.4526 0.6993 l
0.4693 0.6993 l
0.4693 0.6827 l
0.4526 0.6827 l
c
s
n
0.4992 0.7037 m
0.4992 0.7203 l
0.5158 0.7203 l
0.5158 0.7037 l
c
GS
Color0 SRGB
fill
GR
[/Pattern /DeviceRGB] SCS
Color1 Pattern8 SC
fill
[/DeviceRGB] SCS
Color1 SC
n
0.4992 0.7037 m
0.4992 0.7203 l
0.5158 0.7203 l
0.5158 0.7037 l
0.4992 0.7037 l
c
s
n
0.5502 0.7215 m
0.5502 0.7382 l
0.5668 0.7382 l
0.5668 0.7215 l
c
GS
Color0 SRGB
fill
GR
[/Pattern /DeviceRGB] SCS
Color1 Pattern8 SC
fill
[/DeviceRGB] SCS
Color1 SC
n
0.5502 0.7215 m
0.5502 0.7382 l
0.5668 0.7382 l
0.5668 0.7215 l
0.5502 0.7215 l
c
s
[] 0 SD
0.0037 SLW
n
0.1500 0.5318 m
0.1500 0.5318 l
0.1500 0.5318 l
0.1500 0.5318 l
0.1500 0.5318 l
0.1500 0.5318 l
0.1500 0.5318 l
0.1500 0.5318 l
0.1500 0.5318 l
0.1500 0.5318 l
0.1500 0.5318 l
0.1501 0.5318 l
0.1501 0.5318 l
0.1501 0.5318 l
0.1501 0.5318 l
0.1501 0.5318 l
0.1502 0.5318 l
0.1502 0.5318 l
0.1502 0.5318 l
0.1503 0.5318 l
0.1503 0.5318 l
0.1504 0.5318 l
0.1504 0.5318 l
0.1505 0.5318 l
0.1505 0.5318 l
0.1506 0.5318 l
0.1507 0.5318 l
0.1507 0.5318 l
0.1508 0.5318 l
0.1509 0.5318 l
0.1510 0.5318 l
0.1511 0.5318 l
0.1512 0.5319 l
0.1513 0.5319 l
0.1514 0.5319 l
0.1516 0.5319 l
0.1517 0.5319 l
0.1518 0.5319 l
0.1520 0.5319 l
0.1521 0.5319 l
0.1523 0.5319 l
0.1525 0.5319 l
0.1527 0.5319 l
0.1529 0.5320 l
0.1531 0.5320 l
0.1533 0.5320 l
0.1535 0.5320 l
0.1537 0.5320 l
0.1540 0.5321 l
0.1542 0.5321 l
0.1545 0.5321 l
0.1547 0.5321 l
0.1550 0.5322 l
0.1553 0.5322 l
0.1556 0.5322 l
0.1559 0.5323 l
0.1562 0.5323 l
0.1566 0.5324 l
0.1569 0.5324 l
0.1573 0.5325 l
0.1576 0.5325 l
0.1580 0.5326 l
0.1584 0.5326 l
0.1588 0.5327 l
0.1592 0.5328 l
0.1597 0.5328 l
0.1601 0.5329 l
0.1606 0.5330 l
0.1610 0.5331 l
0.1615 0.5332 l
0.1620 0.5333 l
0.1625 0.5334 l
0.1631 0.5335 l
0.1636 0.5336 l
0.1642 0.5337 l
0.1647 0.5338 l
0.1653 0.5340 l
0.1659 0.5341 l
0.1666 0.5343 l
0.1672 0.5344 l
0.1678 0.5346 l
0.1685 0.5347 l
0.1692 0.5349 l
0.1699 0.5351 l
0.1706 0.5353 l
0.1714 0.5355 l
0.1721 0.5357 l
0.1729 0.5359 l
0.1737 0.5362 l
0.1745 0.5364 l
0.1753 0.5366 l
0.1761 0.5369 l
0.1770 0.5372 l
0.1779 0.5375 l
0.1788 0.5377 l
0.1797 0.5381 l
0.1806 0.5384 l
0.1816 0.5387 l
0.1826 0.5390 l
0.1836 0.5394 l
0.1846 0.5398 l
0.1856 0.5401 l
0.1867 0.5405 l
0.1878 0.5409 l
0.1889 0.5414 l
0.1900 0.5418 l
0.1911 0.5422 l
0.1923 0.5427 l
0.1935 0.5432 l
0.1947 0.5437 l
0.1959 0.5442 l
0.1972 0.5447 l
0.1984 0.5453 l
0.1997 0.5459 l
0.2011 0.5464 l
0.2024 0.5470 l
0.2038 0.5477 l
0.2052 0.5483 l
0.2066 0.5490 l
0.2080 0.5496 l
0.2095 0.5503 l
0.2110 0.5511 l
0.2125 0.5518 l
0.2140 0.5526 l
0.2156 0.5533 l
0.2172 0.5541 l
0.2188 0.5550 l
0.2204 0.5558 l
0.2221 0.5567 l
0.2238 0.5576 l
0.2255 0.5585 l
0.2272 0.5594 l
0.2290 0.5604 l
0.2308 0.5614 l
0.2326 0.5624 l
0.2345 0.5634 l
0.2363 0.5645 l
0.2382 0.5656 l
0.2402 0.5667 l
0.2421 0.5679 l
0.2441 0.5690 l
0.2461 0.5702 l
0.2482 0.5715 l
0.2503 0.5727 l
0.2524 0.5740 l
0.2545 0.5753 l
0.2567 0.5766 l
0.2588 0.5780 l
0.2611 0.5794 l
0.2633 0.5808 l
0.2656 0.5823 l
0.2679 0.5838 l
0.2703 0.5853 l
0.2726 0.5868 l
0.2750 0.5884 l
0.2775 0.5900 l
0.2799 0.5917 l
0.2824 0.5934 l
0.2850 0.5951 l
0.2875 0.5968 l
0.2901 0.5986 l
0.2927 0.6004 l
0.2954 0.6022 l
0.2981 0.6041 l
0.3008 0.6060 l
0.3036 0.6080 l
0.3064 0.6099 l
0.3092 0.6120 l
0.3121 0.6140 l
0.3150 0.6161 l
0.3179 0.6182 l
0.3208 0.6204 l
0.3238 0.6226 l
0.3269 0.6248 l
0.3299 0.6270 l
0.3330 0.6293 l
0.3362 0.6317 l
0.3394 0.6341 l
0.3426 0.6365 l
0.3458 0.6389 l
0.3491 0.6414 l
0.3524 0.6439 l
0.3558 0.6465 l
0.3592 0.6491 l
0.3626 0.6517 l
0.3661 0.6544 l
0.3696 0.6571 l
0.3731 0.6598 l
0.3767 0.6626 l
0.3803 0.6654 l
0.3839 0.6683 l
0.3876 0.6712 l
0.3914 0.6741 l
0.3951 0.6771 l
0.3990 0.6801 l
0.4028 0.6832 l
0.4067 0.6863 l
0.4106 0.6894 l
0.4146 0.6926 l
0.4186 0.6958 l
0.4226 0.6990 l
0.4267 0.7023 l
0.4309 0.7056 l
0.4350 0.7090 l
0.4393 0.7124 l
0.4435 0.7158 l
0.4478 0.7193 l
0.4521 0.7228 l
0.4565 0.7263 l
0.4609 0.7299 l
0.4654 0.7336 l
0.4699 0.7372 l
0.4745 0.7409 l
0.4790 0.7447 l
0.4837 0.7484 l
0.4884 0.7523 l
0.4931 0.7561 l
0.4978 0.7600 l
0.5027 0.7639 l
0.5075 0.7679 l
0.5124 0.7719 l
0.5173 0.7760 l
0.5223 0.7800 l
0.5274 0.7842 l
0.5324 0.7883 l
0.5376 0.7925 l
0.5427 0.7967 l
0.5479 0.8010 l
0.5532 0.8053 l
0.5585 0.8096 l
0.5639 0.8140 l
0.5693 0.8184 l
0.5747 0.8229 l
0.5802 0.8274 l
0.5857 0.8319 l
0.5913 0.8365 l
0.5970 0.8411 l
0.6026 0.8457 l
0.6081 0.8501 l
s
[0.0187 0.0112 ] 0 SD
0.0037 SLW
n
0.1500 0.5318 m
0.1500 0.5318 l
0.1500 0.5318 l
0.1500 0.5318 l
0.1500 0.5318 l
0.1500 0.5318 l
0.1500 0.5318 l
0.1500 0.5318 l
0.1500 0.5318 l
0.1500 0.5318 l
0.1500 0.5318 l
0.1501 0.5318 l
0.1501 0.5318 l
0.1501 0.5318 l
0.1501 0.5318 l
0.1501 0.5318 l
0.1502 0.5318 l
0.1502 0.5318 l
0.1502 0.5318 l
0.1503 0.5318 l
0.1503 0.5318 l
0.1504 0.5318 l
0.1504 0.5318 l
0.1505 0.5318 l
0.1505 0.5318 l
0.1506 0.5318 l
0.1507 0.5318 l
0.1507 0.5318 l
0.1508 0.5318 l
0.1509 0.5318 l
0.1510 0.5318 l
0.1511 0.5318 l
0.1512 0.5318 l
0.1513 0.5318 l
0.1514 0.5318 l
0.1516 0.5318 l
0.1517 0.5318 l
0.1518 0.5318 l
0.1520 0.5318 l
0.1521 0.5318 l
0.1523 0.5318 l
0.1525 0.5317 l
0.1527 0.5317 l
0.1529 0.5317 l
0.1531 0.5317 l
0.1533 0.5317 l
0.1535 0.5317 l
0.1537 0.5317 l
0.1540 0.5317 l
0.1542 0.5317 l
0.1545 0.5316 l
0.1547 0.5316 l
0.1550 0.5316 l
0.1553 0.5316 l
0.1556 0.5316 l
0.1559 0.5315 l
0.1562 0.5315 l
0.1566 0.5315 l
0.1569 0.5314 l
0.1573 0.5314 l
0.1576 0.5314 l
0.1580 0.5313 l
0.1584 0.5313 l
0.1588 0.5312 l
0.1592 0.5312 l
0.1597 0.5312 l
0.1601 0.5311 l
0.1606 0.5310 l
0.1610 0.5310 l
0.1615 0.5309 l
0.1620 0.5309 l
0.1625 0.5308 l
0.1631 0.5307 l
0.1636 0.5306 l
0.1642 0.5306 l
0.1647 0.5305 l
0.1653 0.5304 l
0.1659 0.5303 l
0.1666 0.5302 l
0.1672 0.5301 l
0.1678 0.5300 l
0.1685 0.5298 l
0.1692 0.5297 l
0.1699 0.5296 l
0.1706 0.5295 l
0.1714 0.5293 l
0.1721 0.5292 l
0.1729 0.5290 l
0.1737 0.5289 l
0.1745 0.5287 l
0.1753 0.5285 l
0.1761 0.5283 l
0.1770 0.5281 l
0.1779 0.5279 l
0.1788 0.5277 l
0.1797 0.5275 l
0.1806 0.5273 l
0.1816 0.5270 l
0.1826 0.5268 l
0.1836 0.5265 l
0.1846 0.5262 l
0.1856 0.5260 l
0.1867 0.5257 l
0.1878 0.5254 l
0.1889 0.5250 l
0.1900 0.5247 l
0.1911 0.5244 l
0.1923 0.5240 l
0.1935 0.5236 l
0.1947 0.5233 l
0.1959 0.5229 l
0.1972 0.5225 l
0.1984 0.5220 l
0.1997 0.5216 l
0.2011 0.5211 l
0.2024 0.5207 l
0.2038 0.5202 l
0.2052 0.5197 l
0.2066 0.5191 l
0.2080 0.5186 l
0.2095 0.5180 l
0.2110 0.5175 l
0.2125 0.5169 l
0.2140 0.5163 l
0.2156 0.5156 l
0.2172 0.5150 l
0.2188 0.5143 l
0.2204 0.5136 l
0.2221 0.5129 l
0.2238 0.5121 l
0.2255 0.5113 l
0.2272 0.5105 l
0.2290 0.5097 l
0.2308 0.5089 l
0.2326 0.5080 l
0.2345 0.5071 l
0.2363 0.5062 l
0.2382 0.5052 l
0.2402 0.5043 l
0.2421 0.5033 l
0.2441 0.5022 l
0.2461 0.5012 l
0.2482 0.5001 l
0.2485 0.4999 l
s
[] 0 SD
0.0045 SLW
n
0.1500 0.5000 m
0.6471 0.5000 l
s
n
0.1500 0.8500 m
0.6471 0.8500 l
s
n
0.1997 0.5000 m
0.1997 0.5100 l
s
n
0.1997 0.8500 m
0.1997 0.8400 l
s
n
0.2991 0.5000 m
0.2991 0.5100 l
s
n
0.2991 0.8500 m
0.2991 0.8400 l
s
n
0.3985 0.5000 m
0.3985 0.5100 l
s
n
0.3985 0.8500 m
0.3985 0.8400 l
s
n
0.4979 0.5000 m
0.4979 0.5100 l
s
n
0.4979 0.8500 m
0.4979 0.8400 l
s
n
0.5974 0.5000 m
0.5974 0.5100 l
s
n
0.5974 0.8500 m
0.5974 0.8400 l
s
n
0.1500 0.5000 m
0.1500 0.5200 l
s
n
0.1500 0.8500 m
0.1500 0.8300 l
s
n
0.2494 0.5000 m
0.2494 0.5200 l
s
n
0.2494 0.8500 m
0.2494 0.8300 l
s
n
0.3488 0.5000 m
0.3488 0.5200 l
s
n
0.3488 0.8500 m
0.3488 0.8300 l
s
n
0.4482 0.5000 m
0.4482 0.5200 l
s
n
0.4482 0.8500 m
0.4482 0.8300 l
s
n
0.5476 0.5000 m
0.5476 0.5200 l
s
n
0.5476 0.8500 m
0.5476 0.8300 l
s
n
0.6471 0.5000 m
0.6471 0.5200 l
s
n
0.6471 0.8500 m
0.6471 0.8300 l
s
n
0.1500 0.5000 m
0.1500 0.8500 l
s
n
0.1500 0.5000 m
0.1600 0.5000 l
s
n
0.1500 0.5636 m
0.1600 0.5636 l
s
n
0.1500 0.6273 m
0.1600 0.6273 l
s
n
0.1500 0.6909 m
0.1600 0.6909 l
s
n
0.1500 0.7545 m
0.1600 0.7545 l
s
n
0.1500 0.8182 m
0.1600 0.8182 l
s
n
0.1500 0.5318 m
0.1700 0.5318 l
s
n
0.1500 0.5955 m
0.1700 0.5955 l
s
n
0.1500 0.6591 m
0.1700 0.6591 l
s
n
0.1500 0.7227 m
0.1700 0.7227 l
s
n
0.1500 0.7864 m
0.1700 0.7864 l
s
n
0.1500 0.8500 m
0.1700 0.8500 l
s
/Times-Roman findfont
dup length dict begin
 {1 index /FID ne {def} {pop pop} ifelse} forall
 /Encoding DefEncoding def
 currentdict
end
/Font0 exch definefont pop
/Font0 FFSF
0.1188 0.5169 m
GS
[0.0448 0.0000 0.0000 0.0448 0 0] CC
(0) show
GR
/Font0 FFSF
0.0965 0.5806 m
GS
[0.0448 0.0000 0.0000 0.0448 0 0] CC
(10) show
GR
/Font0 FFSF
0.0965 0.6442 m
GS
[0.0448 0.0000 0.0000 0.0448 0 0] CC
(20) show
GR
/Font0 FFSF
0.0965 0.7078 m
GS
[0.0448 0.0000 0.0000 0.0448 0 0] CC
(30) show
GR
/Font0 FFSF
0.0965 0.7715 m
GS
[0.0448 0.0000 0.0000 0.0448 0 0] CC
(40) show
GR
/Font0 FFSF
0.0965 0.8349 m
GS
[0.0448 0.0000 0.0000 0.0448 0 0] CC
(50) show
GR
/Font0 FFSF
0.0782 0.5795 m
GS
[0.0000 0.0459 -0.0459 0.0000 0 0] CC
(\(S=0,T=0\)) show
GR
[] 0 SD
0.0015 SLW
n
0.1500 0.5000 m
0.1500 0.8500 l
0.6471 0.8500 l
0.6471 0.5000 l
0.1500 0.5000 l
c
s
n
0.6559 0.5227 m
0.6559 0.5394 l
0.6726 0.5394 l
0.6726 0.5227 l
c
GS
Color0 SRGB
fill
GR
[/Pattern /DeviceRGB] SCS
Color1 Pattern8 SC
fill
[/DeviceRGB] SCS
Color1 SC
[] 0 SD
0.0030 SLW
n
0.6559 0.5227 m
0.6559 0.5394 l
0.6726 0.5394 l
0.6726 0.5227 l
0.6559 0.5227 l
c
s
n
0.6632 0.5223 m
0.6632 0.5389 l
0.6799 0.5389 l
0.6799 0.5223 l
c
GS
Color0 SRGB
fill
GR
[/Pattern /DeviceRGB] SCS
Color1 Pattern8 SC
fill
[/DeviceRGB] SCS
Color1 SC
n
0.6632 0.5223 m
0.6632 0.5389 l
0.6799 0.5389 l
0.6799 0.5223 l
0.6632 0.5223 l
c
s
n
0.6723 0.5218 m
0.6723 0.5385 l
0.6890 0.5385 l
0.6890 0.5218 l
c
GS
Color0 SRGB
fill
GR
[/Pattern /DeviceRGB] SCS
Color1 Pattern8 SC
fill
[/DeviceRGB] SCS
Color1 SC
n
0.6723 0.5218 m
0.6723 0.5385 l
0.6890 0.5385 l
0.6890 0.5218 l
0.6723 0.5218 l
c
s
n
0.6834 0.5214 m
0.6834 0.5380 l
0.7001 0.5380 l
0.7001 0.5214 l
c
GS
Color0 SRGB
fill
GR
[/Pattern /DeviceRGB] SCS
Color1 Pattern8 SC
fill
[/DeviceRGB] SCS
Color1 SC
n
0.6834 0.5214 m
0.6834 0.5380 l
0.7001 0.5380 l
0.7001 0.5214 l
0.6834 0.5214 l
c
s
n
0.6967 0.5215 m
0.6967 0.5382 l
0.7134 0.5382 l
0.7134 0.5215 l
c
GS
Color0 SRGB
fill
GR
[/Pattern /DeviceRGB] SCS
Color1 Pattern8 SC
fill
[/DeviceRGB] SCS
Color1 SC
n
0.6967 0.5215 m
0.6967 0.5382 l
0.7134 0.5382 l
0.7134 0.5215 l
0.6967 0.5215 l
c
s
n
0.7125 0.5225 m
0.7125 0.5392 l
0.7292 0.5392 l
0.7292 0.5225 l
c
GS
Color0 SRGB
fill
GR
[/Pattern /DeviceRGB] SCS
Color1 Pattern8 SC
fill
[/DeviceRGB] SCS
Color1 SC
n
0.7125 0.5225 m
0.7125 0.5392 l
0.7292 0.5392 l
0.7292 0.5225 l
0.7125 0.5225 l
c
s
n
0.7309 0.5249 m
0.7309 0.5416 l
0.7475 0.5416 l
0.7475 0.5249 l
c
GS
Color0 SRGB
fill
GR
[/Pattern /DeviceRGB] SCS
Color1 Pattern8 SC
fill
[/DeviceRGB] SCS
Color1 SC
n
0.7309 0.5249 m
0.7309 0.5416 l
0.7475 0.5416 l
0.7475 0.5249 l
0.7309 0.5249 l
c
s
n
0.7520 0.5295 m
0.7520 0.5461 l
0.7687 0.5461 l
0.7687 0.5295 l
c
GS
Color0 SRGB
fill
GR
[/Pattern /DeviceRGB] SCS
Color1 Pattern8 SC
fill
[/DeviceRGB] SCS
Color1 SC
n
0.7520 0.5295 m
0.7520 0.5461 l
0.7687 0.5461 l
0.7687 0.5295 l
0.7520 0.5295 l
c
s
n
0.7763 0.5369 m
0.7763 0.5536 l
0.7929 0.5536 l
0.7929 0.5369 l
c
GS
Color0 SRGB
fill
GR
[/Pattern /DeviceRGB] SCS
Color1 Pattern8 SC
fill
[/DeviceRGB] SCS
Color1 SC
n
0.7763 0.5369 m
0.7763 0.5536 l
0.7929 0.5536 l
0.7929 0.5369 l
0.7763 0.5369 l
c
s
n
0.8037 0.5483 m
0.8037 0.5650 l
0.8203 0.5650 l
0.8203 0.5483 l
c
GS
Color0 SRGB
fill
GR
[/Pattern /DeviceRGB] SCS
Color1 Pattern8 SC
fill
[/DeviceRGB] SCS
Color1 SC
n
0.8037 0.5483 m
0.8037 0.5650 l
0.8203 0.5650 l
0.8203 0.5483 l
0.8037 0.5483 l
c
s
n
0.8345 0.5647 m
0.8345 0.5813 l
0.8512 0.5813 l
0.8512 0.5647 l
c
GS
Color0 SRGB
fill
GR
[/Pattern /DeviceRGB] SCS
Color1 Pattern8 SC
fill
[/DeviceRGB] SCS
Color1 SC
n
0.8345 0.5647 m
0.8345 0.5813 l
0.8512 0.5813 l
0.8512 0.5647 l
0.8345 0.5647 l
c
s
n
0.8690 0.5877 m
0.8690 0.6044 l
0.8857 0.6044 l
0.8857 0.5877 l
c
GS
Color0 SRGB
fill
GR
[/Pattern /DeviceRGB] SCS
Color1 Pattern8 SC
fill
[/DeviceRGB] SCS
Color1 SC
n
0.8690 0.5877 m
0.8690 0.6044 l
0.8857 0.6044 l
0.8857 0.5877 l
0.8690 0.5877 l
c
s
n
0.9073 0.6193 m
0.9073 0.6359 l
0.9240 0.6359 l
0.9240 0.6193 l
c
GS
Color0 SRGB
fill
GR
[/Pattern /DeviceRGB] SCS
Color1 Pattern8 SC
fill
[/DeviceRGB] SCS
Color1 SC
n
0.9073 0.6193 m
0.9073 0.6359 l
0.9240 0.6359 l
0.9240 0.6193 l
0.9073 0.6193 l
c
s
n
0.9497 0.6595 m
0.9497 0.6761 l
0.9663 0.6761 l
0.9663 0.6595 l
c
GS
Color0 SRGB
fill
GR
[/Pattern /DeviceRGB] SCS
Color1 Pattern8 SC
fill
[/DeviceRGB] SCS
Color1 SC
n
0.9497 0.6595 m
0.9497 0.6761 l
0.9663 0.6761 l
0.9663 0.6595 l
0.9497 0.6595 l
c
s
n
0.9962 0.7114 m
0.9962 0.7281 l
1.0129 0.7281 l
1.0129 0.7114 l
c
GS
Color0 SRGB
fill
GR
[/Pattern /DeviceRGB] SCS
Color1 Pattern8 SC
fill
[/DeviceRGB] SCS
Color1 SC
n
0.9962 0.7114 m
0.9962 0.7281 l
1.0129 0.7281 l
1.0129 0.7114 l
0.9962 0.7114 l
c
s
n
1.0472 0.7777 m
1.0472 0.7944 l
1.0639 0.7944 l
1.0639 0.7777 l
c
GS
Color0 SRGB
fill
GR
[/Pattern /DeviceRGB] SCS
Color1 Pattern8 SC
fill
[/DeviceRGB] SCS
Color1 SC
n
1.0472 0.7777 m
1.0472 0.7944 l
1.0639 0.7944 l
1.0639 0.7777 l
1.0472 0.7777 l
c
s
[] 0 SD
0.0037 SLW
n
0.6471 0.5318 m
0.6471 0.5318 l
0.6471 0.5318 l
0.6471 0.5318 l
0.6471 0.5318 l
0.6471 0.5318 l
0.6471 0.5318 l
0.6471 0.5318 l
0.6471 0.5318 l
0.6471 0.5318 l
0.6471 0.5318 l
0.6471 0.5318 l
0.6471 0.5318 l
0.6472 0.5318 l
0.6472 0.5318 l
0.6472 0.5318 l
0.6472 0.5318 l
0.6473 0.5318 l
0.6473 0.5318 l
0.6473 0.5318 l
0.6474 0.5318 l
0.6474 0.5318 l
0.6475 0.5318 l
0.6475 0.5318 l
0.6476 0.5318 l
0.6476 0.5318 l
0.6477 0.5318 l
0.6478 0.5318 l
0.6479 0.5318 l
0.6480 0.5318 l
0.6481 0.5318 l
0.6482 0.5318 l
0.6483 0.5318 l
0.6484 0.5318 l
0.6485 0.5318 l
0.6486 0.5318 l
0.6488 0.5318 l
0.6489 0.5318 l
0.6491 0.5318 l
0.6492 0.5318 l
0.6494 0.5318 l
0.6495 0.5318 l
0.6497 0.5318 l
0.6499 0.5318 l
0.6501 0.5318 l
0.6503 0.5318 l
0.6505 0.5318 l
0.6508 0.5318 l
0.6510 0.5318 l
0.6513 0.5318 l
0.6515 0.5318 l
0.6518 0.5318 l
0.6521 0.5318 l
0.6523 0.5318 l
0.6526 0.5318 l
0.6530 0.5318 l
0.6533 0.5318 l
0.6536 0.5318 l
0.6540 0.5318 l
0.6543 0.5318 l
0.6547 0.5318 l
0.6551 0.5318 l
0.6555 0.5318 l
0.6559 0.5318 l
0.6563 0.5318 l
0.6567 0.5318 l
0.6572 0.5318 l
0.6576 0.5318 l
0.6581 0.5318 l
0.6586 0.5318 l
0.6591 0.5318 l
0.6596 0.5318 l
0.6601 0.5318 l
0.6607 0.5318 l
0.6612 0.5318 l
0.6618 0.5318 l
0.6624 0.5318 l
0.6630 0.5318 l
0.6636 0.5318 l
0.6642 0.5318 l
0.6649 0.5318 l
0.6656 0.5318 l
0.6663 0.5318 l
0.6670 0.5319 l
0.6677 0.5319 l
0.6684 0.5319 l
0.6692 0.5319 l
0.6699 0.5319 l
0.6707 0.5319 l
0.6715 0.5319 l
0.6724 0.5319 l
0.6732 0.5319 l
0.6741 0.5320 l
0.6749 0.5320 l
0.6758 0.5320 l
0.6768 0.5320 l
0.6777 0.5320 l
0.6787 0.5321 l
0.6796 0.5321 l
0.6806 0.5321 l
0.6817 0.5322 l
0.6827 0.5322 l
0.6837 0.5322 l
0.6848 0.5323 l
0.6859 0.5323 l
0.6870 0.5324 l
0.6882 0.5324 l
0.6894 0.5325 l
0.6905 0.5325 l
0.6917 0.5326 l
0.6930 0.5326 l
0.6942 0.5327 l
0.6955 0.5328 l
0.6968 0.5329 l
0.6981 0.5329 l
0.6995 0.5330 l
0.7008 0.5331 l
0.7022 0.5332 l
0.7036 0.5333 l
0.7051 0.5334 l
0.7065 0.5335 l
0.7080 0.5337 l
0.7095 0.5338 l
0.7111 0.5339 l
0.7126 0.5341 l
0.7142 0.5342 l
0.7158 0.5344 l
0.7175 0.5345 l
0.7191 0.5347 l
0.7208 0.5349 l
0.7225 0.5351 l
0.7243 0.5353 l
0.7260 0.5355 l
0.7278 0.5357 l
0.7297 0.5359 l
0.7315 0.5362 l
0.7334 0.5364 l
0.7353 0.5367 l
0.7372 0.5370 l
0.7392 0.5373 l
0.7412 0.5376 l
0.7432 0.5379 l
0.7452 0.5382 l
0.7473 0.5386 l
0.7494 0.5389 l
0.7515 0.5393 l
0.7537 0.5397 l
0.7559 0.5401 l
0.7581 0.5405 l
0.7604 0.5410 l
0.7627 0.5414 l
0.7650 0.5419 l
0.7673 0.5424 l
0.7697 0.5430 l
0.7721 0.5435 l
0.7745 0.5441 l
0.7770 0.5447 l
0.7795 0.5453 l
0.7820 0.5459 l
0.7846 0.5466 l
0.7872 0.5472 l
0.7898 0.5480 l
0.7925 0.5487 l
0.7952 0.5495 l
0.7979 0.5502 l
0.8006 0.5511 l
0.8034 0.5519 l
0.8063 0.5528 l
0.8091 0.5537 l
0.8120 0.5547 l
0.8149 0.5556 l
0.8179 0.5567 l
0.8209 0.5577 l
0.8239 0.5588 l
0.8270 0.5599 l
0.8301 0.5611 l
0.8332 0.5623 l
0.8364 0.5635 l
0.8396 0.5648 l
0.8429 0.5661 l
0.8462 0.5675 l
0.8495 0.5689 l
0.8528 0.5703 l
0.8562 0.5718 l
0.8596 0.5733 l
0.8631 0.5749 l
0.8666 0.5766 l
0.8702 0.5783 l
0.8737 0.5800 l
0.8774 0.5818 l
0.8810 0.5837 l
0.8847 0.5856 l
0.8884 0.5875 l
0.8922 0.5895 l
0.8960 0.5916 l
0.8999 0.5937 l
0.9038 0.5959 l
0.9077 0.5982 l
0.9117 0.6005 l
0.9157 0.6029 l
0.9197 0.6054 l
0.9238 0.6079 l
0.9279 0.6105 l
0.9321 0.6131 l
0.9363 0.6159 l
0.9406 0.6187 l
0.9449 0.6216 l
0.9492 0.6245 l
0.9536 0.6275 l
0.9580 0.6307 l
0.9625 0.6338 l
0.9670 0.6371 l
0.9715 0.6405 l
0.9761 0.6439 l
0.9807 0.6474 l
0.9854 0.6511 l
0.9901 0.6548 l
0.9949 0.6586 l
0.9997 0.6625 l
1.0046 0.6664 l
1.0095 0.6705 l
1.0144 0.6747 l
1.0194 0.6790 l
1.0244 0.6833 l
1.0295 0.6878 l
1.0346 0.6924 l
1.0398 0.6971 l
1.0450 0.7019 l
1.0503 0.7067 l
1.0556 0.7118 l
1.0609 0.7169 l
1.0663 0.7221 l
1.0718 0.7274 l
1.0773 0.7329 l
1.0828 0.7385 l
1.0884 0.7442 l
1.0940 0.7500 l
1.0997 0.7559 l
1.1054 0.7620 l
1.1112 0.7681 l
1.1170 0.7745 l
1.1229 0.7809 l
1.1288 0.7875 l
1.1348 0.7942 l
1.1408 0.8010 l
s
[0.0187 0.0112 ] 0 SD
0.0037 SLW
n
0.6471 0.5318 m
0.6471 0.5318 l
0.6471 0.5318 l
0.6471 0.5318 l
0.6471 0.5318 l
0.6471 0.5318 l
0.6471 0.5318 l
0.6471 0.5318 l
0.6471 0.5318 l
0.6471 0.5318 l
0.6471 0.5318 l
0.6471 0.5318 l
0.6471 0.5318 l
0.6472 0.5318 l
0.6472 0.5318 l
0.6472 0.5318 l
0.6472 0.5318 l
0.6473 0.5318 l
0.6473 0.5318 l
0.6473 0.5318 l
0.6474 0.5318 l
0.6474 0.5318 l
0.6475 0.5318 l
0.6475 0.5318 l
0.6476 0.5318 l
0.6476 0.5318 l
0.6477 0.5318 l
0.6478 0.5318 l
0.6479 0.5318 l
0.6480 0.5318 l
0.6481 0.5318 l
0.6482 0.5318 l
0.6483 0.5318 l
0.6484 0.5318 l
0.6485 0.5318 l
0.6486 0.5318 l
0.6488 0.5318 l
0.6489 0.5318 l
0.6491 0.5318 l
0.6492 0.5318 l
0.6494 0.5318 l
0.6495 0.5318 l
0.6497 0.5318 l
0.6499 0.5318 l
0.6501 0.5318 l
0.6503 0.5318 l
0.6505 0.5318 l
0.6508 0.5318 l
0.6510 0.5318 l
0.6513 0.5318 l
0.6515 0.5318 l
0.6518 0.5318 l
0.6521 0.5318 l
0.6523 0.5318 l
0.6526 0.5318 l
0.6530 0.5318 l
0.6533 0.5318 l
0.6536 0.5317 l
0.6540 0.5317 l
0.6543 0.5317 l
0.6547 0.5317 l
0.6551 0.5317 l
0.6555 0.5317 l
0.6559 0.5317 l
0.6563 0.5317 l
0.6567 0.5317 l
0.6572 0.5317 l
0.6576 0.5317 l
0.6581 0.5316 l
0.6586 0.5316 l
0.6591 0.5316 l
0.6596 0.5316 l
0.6601 0.5316 l
0.6607 0.5316 l
0.6612 0.5316 l
0.6618 0.5315 l
0.6624 0.5315 l
0.6630 0.5315 l
0.6636 0.5315 l
0.6642 0.5314 l
0.6649 0.5314 l
0.6656 0.5314 l
0.6663 0.5314 l
0.6670 0.5313 l
0.6677 0.5313 l
0.6684 0.5313 l
0.6692 0.5313 l
0.6699 0.5312 l
0.6707 0.5312 l
0.6715 0.5312 l
0.6724 0.5311 l
0.6732 0.5311 l
0.6741 0.5310 l
0.6749 0.5310 l
0.6758 0.5309 l
0.6768 0.5309 l
0.6777 0.5308 l
0.6787 0.5308 l
0.6796 0.5307 l
0.6806 0.5307 l
0.6817 0.5306 l
0.6827 0.5306 l
0.6837 0.5305 l
0.6848 0.5304 l
0.6859 0.5304 l
0.6870 0.5303 l
0.6882 0.5302 l
0.6894 0.5302 l
0.6905 0.5301 l
0.6917 0.5300 l
0.6930 0.5299 l
0.6942 0.5298 l
0.6955 0.5297 l
0.6968 0.5296 l
0.6981 0.5295 l
0.6995 0.5294 l
0.7008 0.5293 l
0.7022 0.5292 l
0.7036 0.5291 l
0.7051 0.5290 l
0.7065 0.5289 l
0.7080 0.5288 l
0.7095 0.5286 l
0.7111 0.5285 l
0.7126 0.5284 l
0.7142 0.5282 l
0.7158 0.5281 l
0.7175 0.5279 l
0.7191 0.5278 l
0.7208 0.5276 l
0.7225 0.5275 l
0.7243 0.5273 l
0.7260 0.5271 l
0.7278 0.5269 l
0.7297 0.5268 l
0.7315 0.5266 l
0.7334 0.5264 l
0.7353 0.5262 l
0.7372 0.5260 l
0.7392 0.5257 l
0.7412 0.5255 l
0.7432 0.5253 l
0.7452 0.5251 l
0.7473 0.5248 l
0.7494 0.5246 l
0.7515 0.5243 l
0.7537 0.5241 l
0.7559 0.5238 l
0.7581 0.5235 l
0.7604 0.5232 l
0.7627 0.5230 l
0.7650 0.5227 l
0.7673 0.5223 l
0.7697 0.5220 l
0.7721 0.5217 l
0.7745 0.5214 l
0.7770 0.5210 l
0.7795 0.5207 l
0.7820 0.5203 l
0.7846 0.5200 l
0.7872 0.5196 l
0.7898 0.5192 l
0.7925 0.5188 l
0.7952 0.5184 l
0.7979 0.5180 l
0.8006 0.5176 l
0.8034 0.5171 l
0.8063 0.5167 l
0.8091 0.5162 l
0.8120 0.5158 l
0.8149 0.5153 l
0.8179 0.5148 l
0.8209 0.5143 l
0.8239 0.5138 l
0.8270 0.5133 l
0.8301 0.5127 l
0.8332 0.5122 l
0.8364 0.5116 l
0.8396 0.5111 l
0.8429 0.5105 l
0.8462 0.5099 l
0.8495 0.5093 l
0.8528 0.5086 l
0.8562 0.5080 l
0.8596 0.5073 l
0.8631 0.5067 l
0.8666 0.5060 l
0.8702 0.5053 l
0.8737 0.5046 l
0.8774 0.5039 l
0.8810 0.5031 l
0.8847 0.5024 l
0.8884 0.5016 l
0.8922 0.5008 l
0.8960 0.5000 l
0.8964 0.4999 l
s
[] 0 SD
0.0045 SLW
n
0.6471 0.5000 m
1.1441 0.5000 l
s
n
0.6471 0.8500 m
1.1441 0.8500 l
s
n
0.6968 0.5000 m
0.6968 0.5100 l
s
n
0.6968 0.8500 m
0.6968 0.8400 l
s
n
0.7962 0.5000 m
0.7962 0.5100 l
s
n
0.7962 0.8500 m
0.7962 0.8400 l
s
n
0.8956 0.5000 m
0.8956 0.5100 l
s
n
0.8956 0.8500 m
0.8956 0.8400 l
s
n
0.9950 0.5000 m
0.9950 0.5100 l
s
n
0.9950 0.8500 m
0.9950 0.8400 l
s
n
1.0944 0.5000 m
1.0944 0.5100 l
s
n
1.0944 0.8500 m
1.0944 0.8400 l
s
n
0.6471 0.5000 m
0.6471 0.5200 l
s
n
0.6471 0.8500 m
0.6471 0.8300 l
s
n
0.7465 0.5000 m
0.7465 0.5200 l
s
n
0.7465 0.8500 m
0.7465 0.8300 l
s
n
0.8459 0.5000 m
0.8459 0.5200 l
s
n
0.8459 0.8500 m
0.8459 0.8300 l
s
n
0.9453 0.5000 m
0.9453 0.5200 l
s
n
0.9453 0.8500 m
0.9453 0.8300 l
s
n
1.0447 0.5000 m
1.0447 0.5200 l
s
n
1.0447 0.8500 m
1.0447 0.8300 l
s
n
1.1441 0.5000 m
1.1441 0.5200 l
s
n
1.1441 0.8500 m
1.1441 0.8300 l
s
n
0.6471 0.5000 m
0.6471 0.8500 l
s
n
1.1441 0.5000 m
1.1441 0.8500 l
s
n
0.6471 0.5000 m
0.6571 0.5000 l
s
n
1.1441 0.5000 m
1.1341 0.5000 l
s
n
0.6471 0.5636 m
0.6571 0.5636 l
s
n
1.1441 0.5636 m
1.1341 0.5636 l
s
n
0.6471 0.6273 m
0.6571 0.6273 l
s
n
1.1441 0.6273 m
1.1341 0.6273 l
s
n
0.6471 0.6909 m
0.6571 0.6909 l
s
n
1.1441 0.6909 m
1.1341 0.6909 l
s
n
0.6471 0.7545 m
0.6571 0.7545 l
s
n
1.1441 0.7545 m
1.1341 0.7545 l
s
n
0.6471 0.8182 m
0.6571 0.8182 l
s
n
1.1441 0.8182 m
1.1341 0.8182 l
s
n
0.6471 0.5318 m
0.6671 0.5318 l
s
n
1.1441 0.5318 m
1.1241 0.5318 l
s
n
0.6471 0.5955 m
0.6671 0.5955 l
s
n
1.1441 0.5955 m
1.1241 0.5955 l
s
n
0.6471 0.6591 m
0.6671 0.6591 l
s
n
1.1441 0.6591 m
1.1241 0.6591 l
s
n
0.6471 0.7227 m
0.6671 0.7227 l
s
n
1.1441 0.7227 m
1.1241 0.7227 l
s
n
0.6471 0.7864 m
0.6671 0.7864 l
s
n
1.1441 0.7864 m
1.1241 0.7864 l
s
n
0.6471 0.8500 m
0.6671 0.8500 l
s
n
1.1441 0.8500 m
1.1241 0.8500 l
s
/Font0 FFSF
1.1541 0.5169 m
GS
[0.0448 0.0000 0.0000 0.0448 0 0] CC
(0) show
GR
/Font0 FFSF
1.1541 0.5806 m
GS
[0.0448 0.0000 0.0000 0.0448 0 0] CC
(10) show
GR
/Font0 FFSF
1.1541 0.6442 m
GS
[0.0448 0.0000 0.0000 0.0448 0 0] CC
(20) show
GR
/Font0 FFSF
1.1541 0.7078 m
GS
[0.0448 0.0000 0.0000 0.0448 0 0] CC
(30) show
GR
/Font0 FFSF
1.1541 0.7715 m
GS
[0.0448 0.0000 0.0000 0.0448 0 0] CC
(40) show
GR
/Font0 FFSF
1.1541 0.8349 m
GS
[0.0448 0.0000 0.0000 0.0448 0 0] CC
(50) show
GR
/Font0 FFSF
1.2390 0.5795 m
GS
[0.0000 0.0459 -0.0459 0.0000 0 0] CC
(\(S=1,T=1\)) show
GR
[] 0 SD
0.0015 SLW
n
0.6471 0.5000 m
0.6471 0.8500 l
1.1441 0.8500 l
1.1441 0.5000 l
0.6471 0.5000 l
c
s
n
0.1589 0.3853 m
0.1589 0.4019 l
0.1755 0.4019 l
0.1755 0.3853 l
c
GS
Color0 SRGB
fill
GR
[/Pattern /DeviceRGB] SCS
Color1 Pattern8 SC
fill
[/DeviceRGB] SCS
Color1 SC
[] 0 SD
0.0030 SLW
n
0.1589 0.3853 m
0.1589 0.4019 l
0.1755 0.4019 l
0.1755 0.3853 l
0.1589 0.3853 l
c
s
n
0.1661 0.3672 m
0.1661 0.3838 l
0.1828 0.3838 l
0.1828 0.3672 l
c
GS
Color0 SRGB
fill
GR
[/Pattern /DeviceRGB] SCS
Color1 Pattern8 SC
fill
[/DeviceRGB] SCS
Color1 SC
n
0.1661 0.3672 m
0.1661 0.3838 l
0.1828 0.3838 l
0.1828 0.3672 l
0.1661 0.3672 l
c
s
n
0.1752 0.3483 m
0.1752 0.3649 l
0.1919 0.3649 l
0.1919 0.3483 l
c
GS
Color0 SRGB
fill
GR
[/Pattern /DeviceRGB] SCS
Color1 Pattern8 SC
fill
[/DeviceRGB] SCS
Color1 SC
n
0.1752 0.3483 m
0.1752 0.3649 l
0.1919 0.3649 l
0.1919 0.3483 l
0.1752 0.3483 l
c
s
n
0.1864 0.3282 m
0.1864 0.3448 l
0.2030 0.3448 l
0.2030 0.3282 l
c
GS
Color0 SRGB
fill
GR
[/Pattern /DeviceRGB] SCS
Color1 Pattern8 SC
fill
[/DeviceRGB] SCS
Color1 SC
n
0.1864 0.3282 m
0.1864 0.3448 l
0.2030 0.3448 l
0.2030 0.3282 l
0.1864 0.3282 l
c
s
n
0.1997 0.3076 m
0.1997 0.3242 l
0.2163 0.3242 l
0.2163 0.3076 l
c
GS
Color0 SRGB
fill
GR
[/Pattern /DeviceRGB] SCS
Color1 Pattern8 SC
fill
[/DeviceRGB] SCS
Color1 SC
n
0.1997 0.3076 m
0.1997 0.3242 l
0.2163 0.3242 l
0.2163 0.3076 l
0.1997 0.3076 l
c
s
n
0.2154 0.2850 m
0.2154 0.3017 l
0.2321 0.3017 l
0.2321 0.2850 l
c
GS
Color0 SRGB
fill
GR
[/Pattern /DeviceRGB] SCS
Color1 Pattern8 SC
fill
[/DeviceRGB] SCS
Color1 SC
n
0.2154 0.2850 m
0.2154 0.3017 l
0.2321 0.3017 l
0.2321 0.2850 l
0.2154 0.2850 l
c
s
n
0.2338 0.2619 m
0.2338 0.2786 l
0.2505 0.2786 l
0.2505 0.2619 l
c
GS
Color0 SRGB
fill
GR
[/Pattern /DeviceRGB] SCS
Color1 Pattern8 SC
fill
[/DeviceRGB] SCS
Color1 SC
n
0.2338 0.2619 m
0.2338 0.2786 l
0.2505 0.2786 l
0.2505 0.2619 l
0.2338 0.2619 l
c
s
n
0.2550 0.2383 m
0.2550 0.2550 l
0.2716 0.2550 l
0.2716 0.2383 l
c
GS
Color0 SRGB
fill
GR
[/Pattern /DeviceRGB] SCS
Color1 Pattern8 SC
fill
[/DeviceRGB] SCS
Color1 SC
n
0.2550 0.2383 m
0.2550 0.2550 l
0.2716 0.2550 l
0.2716 0.2383 l
0.2550 0.2383 l
c
s
n
0.2792 0.2159 m
0.2792 0.2325 l
0.2959 0.2325 l
0.2959 0.2159 l
c
GS
Color0 SRGB
fill
GR
[/Pattern /DeviceRGB] SCS
Color1 Pattern8 SC
fill
[/DeviceRGB] SCS
Color1 SC
n
0.2792 0.2159 m
0.2792 0.2325 l
0.2959 0.2325 l
0.2959 0.2159 l
0.2792 0.2159 l
c
s
n
0.3066 0.1951 m
0.3066 0.2118 l
0.3233 0.2118 l
0.3233 0.1951 l
c
GS
Color0 SRGB
fill
GR
[/Pattern /DeviceRGB] SCS
Color1 Pattern8 SC
fill
[/DeviceRGB] SCS
Color1 SC
n
0.3066 0.1951 m
0.3066 0.2118 l
0.3233 0.2118 l
0.3233 0.1951 l
0.3066 0.1951 l
c
s
n
0.3375 0.1766 m
0.3375 0.1933 l
0.3541 0.1933 l
0.3541 0.1766 l
c
GS
Color0 SRGB
fill
GR
[/Pattern /DeviceRGB] SCS
Color1 Pattern8 SC
fill
[/DeviceRGB] SCS
Color1 SC
n
0.3375 0.1766 m
0.3375 0.1933 l
0.3541 0.1933 l
0.3541 0.1766 l
0.3375 0.1766 l
c
s
n
0.3720 0.1623 m
0.3720 0.1790 l
0.3886 0.1790 l
0.3886 0.1623 l
c
GS
Color0 SRGB
fill
GR
[/Pattern /DeviceRGB] SCS
Color1 Pattern8 SC
fill
[/DeviceRGB] SCS
Color1 SC
n
0.3720 0.1623 m
0.3720 0.1790 l
0.3886 0.1790 l
0.3886 0.1623 l
0.3720 0.1623 l
c
s
n
0.4103 0.1543 m
0.4103 0.1709 l
0.4269 0.1709 l
0.4269 0.1543 l
c
GS
Color0 SRGB
fill
GR
[/Pattern /DeviceRGB] SCS
Color1 Pattern8 SC
fill
[/DeviceRGB] SCS
Color1 SC
n
0.4103 0.1543 m
0.4103 0.1709 l
0.4269 0.1709 l
0.4269 0.1543 l
0.4103 0.1543 l
c
s
n
0.4526 0.1522 m
0.4526 0.1688 l
0.4693 0.1688 l
0.4693 0.1522 l
c
GS
Color0 SRGB
fill
GR
[/Pattern /DeviceRGB] SCS
Color1 Pattern8 SC
fill
[/DeviceRGB] SCS
Color1 SC
n
0.4526 0.1522 m
0.4526 0.1688 l
0.4693 0.1688 l
0.4693 0.1522 l
0.4526 0.1522 l
c
s
n
0.4992 0.1604 m
0.4992 0.1770 l
0.5158 0.1770 l
0.5158 0.1604 l
c
GS
Color0 SRGB
fill
GR
[/Pattern /DeviceRGB] SCS
Color1 Pattern8 SC
fill
[/DeviceRGB] SCS
Color1 SC
n
0.4992 0.1604 m
0.4992 0.1770 l
0.5158 0.1770 l
0.5158 0.1604 l
0.4992 0.1604 l
c
s
n
0.5502 0.1793 m
0.5502 0.1960 l
0.5668 0.1960 l
0.5668 0.1793 l
c
GS
Color0 SRGB
fill
GR
[/Pattern /DeviceRGB] SCS
Color1 Pattern8 SC
fill
[/DeviceRGB] SCS
Color1 SC
n
0.5502 0.1793 m
0.5502 0.1960 l
0.5668 0.1960 l
0.5668 0.1793 l
0.5502 0.1793 l
c
s
[0.0187 0.0112 ] 0 SD
0.0037 SLW
n
0.1500 0.4650 m
0.1500 0.4650 l
0.1500 0.4650 l
0.1500 0.4650 l
0.1500 0.4650 l
0.1500 0.4650 l
0.1500 0.4649 l
0.1500 0.4649 l
0.1500 0.4649 l
0.1500 0.4648 l
0.1500 0.4647 l
0.1501 0.4647 l
0.1501 0.4646 l
0.1501 0.4645 l
0.1501 0.4644 l
0.1501 0.4643 l
0.1502 0.4641 l
0.1502 0.4640 l
0.1502 0.4638 l
0.1503 0.4636 l
0.1503 0.4634 l
0.1504 0.4632 l
0.1504 0.4629 l
0.1505 0.4627 l
0.1505 0.4624 l
0.1506 0.4621 l
0.1507 0.4618 l
0.1507 0.4614 l
0.1508 0.4611 l
0.1509 0.4607 l
0.1510 0.4603 l
0.1511 0.4598 l
0.1512 0.4594 l
0.1513 0.4589 l
0.1514 0.4584 l
0.1516 0.4579 l
0.1517 0.4573 l
0.1518 0.4567 l
0.1520 0.4561 l
0.1521 0.4555 l
0.1523 0.4549 l
0.1525 0.4542 l
0.1527 0.4535 l
0.1529 0.4528 l
0.1531 0.4520 l
0.1533 0.4512 l
0.1535 0.4504 l
0.1537 0.4496 l
0.1540 0.4487 l
0.1542 0.4478 l
0.1545 0.4469 l
0.1547 0.4460 l
0.1550 0.4450 l
0.1553 0.4440 l
0.1556 0.4430 l
0.1559 0.4420 l
0.1562 0.4409 l
0.1566 0.4398 l
0.1569 0.4387 l
0.1573 0.4376 l
0.1576 0.4364 l
0.1580 0.4352 l
0.1584 0.4340 l
0.1588 0.4327 l
0.1592 0.4315 l
0.1597 0.4302 l
0.1601 0.4289 l
0.1606 0.4275 l
0.1610 0.4262 l
0.1615 0.4248 l
0.1620 0.4234 l
0.1625 0.4220 l
0.1631 0.4205 l
0.1636 0.4190 l
0.1642 0.4176 l
0.1647 0.4160 l
0.1653 0.4145 l
0.1659 0.4130 l
0.1666 0.4114 l
0.1672 0.4098 l
0.1678 0.4082 l
0.1685 0.4066 l
0.1692 0.4050 l
0.1699 0.4033 l
0.1706 0.4017 l
0.1714 0.4000 l
0.1721 0.3983 l
0.1729 0.3966 l
0.1737 0.3949 l
0.1745 0.3932 l
0.1753 0.3914 l
0.1761 0.3897 l
0.1770 0.3879 l
0.1779 0.3862 l
0.1788 0.3844 l
0.1797 0.3826 l
0.1806 0.3808 l
0.1816 0.3791 l
0.1826 0.3773 l
0.1836 0.3755 l
0.1846 0.3737 l
0.1856 0.3719 l
0.1867 0.3701 l
0.1878 0.3684 l
0.1889 0.3666 l
0.1900 0.3648 l
0.1911 0.3630 l
0.1923 0.3613 l
0.1935 0.3595 l
0.1947 0.3578 l
0.1959 0.3561 l
0.1972 0.3543 l
0.1984 0.3526 l
0.1997 0.3509 l
0.2011 0.3493 l
0.2024 0.3476 l
0.2038 0.3460 l
0.2052 0.3444 l
0.2066 0.3428 l
0.2080 0.3412 l
0.2095 0.3396 l
0.2110 0.3381 l
0.2125 0.3366 l
0.2140 0.3352 l
0.2156 0.3337 l
0.2172 0.3323 l
0.2188 0.3310 l
0.2204 0.3297 l
0.2221 0.3284 l
0.2238 0.3271 l
0.2255 0.3259 l
0.2272 0.3247 l
0.2290 0.3236 l
0.2308 0.3225 l
0.2326 0.3215 l
0.2345 0.3205 l
0.2363 0.3196 l
0.2382 0.3188 l
0.2402 0.3179 l
0.2421 0.3172 l
0.2441 0.3165 l
0.2461 0.3159 l
0.2482 0.3153 l
0.2503 0.3148 l
0.2524 0.3144 l
0.2545 0.3140 l
0.2567 0.3137 l
0.2588 0.3135 l
0.2611 0.3134 l
0.2633 0.3133 l
0.2656 0.3134 l
0.2679 0.3135 l
0.2703 0.3137 l
0.2726 0.3140 l
0.2750 0.3144 l
0.2775 0.3148 l
0.2799 0.3154 l
0.2824 0.3161 l
0.2850 0.3169 l
0.2875 0.3177 l
0.2901 0.3187 l
0.2927 0.3198 l
0.2954 0.3210 l
0.2981 0.3223 l
0.3008 0.3238 l
0.3036 0.3253 l
0.3064 0.3270 l
0.3092 0.3288 l
0.3121 0.3308 l
0.3150 0.3328 l
0.3179 0.3351 l
0.3208 0.3374 l
0.3238 0.3399 l
0.3269 0.3425 l
0.3299 0.3453 l
0.3330 0.3482 l
0.3362 0.3513 l
0.3394 0.3545 l
0.3426 0.3579 l
0.3458 0.3614 l
0.3491 0.3651 l
0.3524 0.3690 l
0.3558 0.3731 l
0.3592 0.3773 l
0.3626 0.3817 l
0.3661 0.3863 l
0.3696 0.3911 l
0.3731 0.3961 l
0.3767 0.4012 l
0.3803 0.4066 l
0.3839 0.4121 l
0.3876 0.4179 l
0.3914 0.4238 l
0.3951 0.4300 l
0.3990 0.4364 l
0.4028 0.4430 l
0.4067 0.4498 l
0.4106 0.4568 l
0.4146 0.4641 l
0.4186 0.4716 l
0.4226 0.4793 l
0.4267 0.4873 l
0.4309 0.4956 l
0.4331 0.5001 l
s
[] 0 SD
0.0037 SLW
n
0.1500 0.4650 m
0.1500 0.4650 l
0.1500 0.4650 l
0.1500 0.4650 l
0.1500 0.4650 l
0.1500 0.4649 l
0.1500 0.4649 l
0.1500 0.4649 l
0.1500 0.4648 l
0.1500 0.4648 l
0.1500 0.4647 l
0.1501 0.4646 l
0.1501 0.4645 l
0.1501 0.4644 l
0.1501 0.4643 l
0.1501 0.4641 l
0.1502 0.4640 l
0.1502 0.4638 l
0.1502 0.4636 l
0.1503 0.4634 l
0.1503 0.4631 l
0.1504 0.4629 l
0.1504 0.4626 l
0.1505 0.4623 l
0.1505 0.4619 l
0.1506 0.4616 l
0.1507 0.4612 l
0.1507 0.4608 l
0.1508 0.4604 l
0.1509 0.4599 l
0.1510 0.4595 l
0.1511 0.4590 l
0.1512 0.4584 l
0.1513 0.4579 l
0.1514 0.4573 l
0.1516 0.4567 l
0.1517 0.4561 l
0.1518 0.4554 l
0.1520 0.4547 l
0.1521 0.4540 l
0.1523 0.4532 l
0.1525 0.4524 l
0.1527 0.4516 l
0.1529 0.4508 l
0.1531 0.4499 l
0.1533 0.4490 l
0.1535 0.4480 l
0.1537 0.4471 l
0.1540 0.4461 l
0.1542 0.4451 l
0.1545 0.4440 l
0.1547 0.4429 l
0.1550 0.4418 l
0.1553 0.4406 l
0.1556 0.4395 l
0.1559 0.4383 l
0.1562 0.4370 l
0.1566 0.4357 l
0.1569 0.4344 l
0.1573 0.4331 l
0.1576 0.4317 l
0.1580 0.4303 l
0.1584 0.4289 l
0.1588 0.4275 l
0.1592 0.4260 l
0.1597 0.4245 l
0.1601 0.4229 l
0.1606 0.4213 l
0.1610 0.4197 l
0.1615 0.4181 l
0.1620 0.4164 l
0.1625 0.4148 l
0.1631 0.4130 l
0.1636 0.4113 l
0.1642 0.4095 l
0.1647 0.4077 l
0.1653 0.4059 l
0.1659 0.4041 l
0.1666 0.4022 l
0.1672 0.4003 l
0.1678 0.3983 l
0.1685 0.3964 l
0.1692 0.3944 l
0.1699 0.3924 l
0.1706 0.3904 l
0.1714 0.3883 l
0.1721 0.3863 l
0.1729 0.3842 l
0.1737 0.3821 l
0.1745 0.3799 l
0.1753 0.3778 l
0.1761 0.3756 l
0.1770 0.3734 l
0.1779 0.3712 l
0.1788 0.3690 l
0.1797 0.3667 l
0.1806 0.3644 l
0.1816 0.3622 l
0.1826 0.3599 l
0.1836 0.3575 l
0.1846 0.3552 l
0.1856 0.3529 l
0.1867 0.3505 l
0.1878 0.3481 l
0.1889 0.3458 l
0.1900 0.3434 l
0.1911 0.3410 l
0.1923 0.3385 l
0.1935 0.3361 l
0.1947 0.3337 l
0.1959 0.3312 l
0.1972 0.3288 l
0.1984 0.3263 l
0.1997 0.3239 l
0.2011 0.3214 l
0.2024 0.3190 l
0.2038 0.3165 l
0.2052 0.3140 l
0.2066 0.3115 l
0.2080 0.3091 l
0.2095 0.3066 l
0.2110 0.3041 l
0.2125 0.3016 l
0.2140 0.2991 l
0.2156 0.2967 l
0.2172 0.2942 l
0.2188 0.2917 l
0.2204 0.2893 l
0.2221 0.2868 l
0.2238 0.2844 l
0.2255 0.2819 l
0.2272 0.2795 l
0.2290 0.2771 l
0.2308 0.2747 l
0.2326 0.2723 l
0.2345 0.2699 l
0.2363 0.2675 l
0.2382 0.2651 l
0.2402 0.2628 l
0.2421 0.2604 l
0.2441 0.2581 l
0.2461 0.2558 l
0.2482 0.2535 l
0.2503 0.2512 l
0.2524 0.2490 l
0.2545 0.2468 l
0.2567 0.2445 l
0.2588 0.2424 l
0.2611 0.2402 l
0.2633 0.2380 l
0.2656 0.2359 l
0.2679 0.2338 l
0.2703 0.2317 l
0.2726 0.2297 l
0.2750 0.2277 l
0.2775 0.2257 l
0.2799 0.2237 l
0.2824 0.2218 l
0.2850 0.2198 l
0.2875 0.2180 l
0.2901 0.2161 l
0.2927 0.2143 l
0.2954 0.2125 l
0.2981 0.2107 l
0.3008 0.2090 l
0.3036 0.2073 l
0.3064 0.2057 l
0.3092 0.2041 l
0.3121 0.2025 l
0.3150 0.2009 l
0.3179 0.1994 l
0.3208 0.1979 l
0.3238 0.1965 l
0.3269 0.1951 l
0.3299 0.1937 l
0.3330 0.1924 l
0.3362 0.1911 l
0.3394 0.1899 l
0.3426 0.1887 l
0.3458 0.1875 l
0.3491 0.1864 l
0.3524 0.1853 l
0.3558 0.1842 l
0.3592 0.1832 l
0.3626 0.1823 l
0.3661 0.1814 l
0.3696 0.1805 l
0.3731 0.1796 l
0.3767 0.1789 l
0.3803 0.1781 l
0.3839 0.1774 l
0.3876 0.1767 l
0.3914 0.1761 l
0.3951 0.1755 l
0.3990 0.1750 l
0.4028 0.1745 l
0.4067 0.1740 l
0.4106 0.1736 l
0.4146 0.1733 l
0.4186 0.1729 l
0.4226 0.1727 l
0.4267 0.1724 l
0.4309 0.1722 l
0.4350 0.1720 l
0.4393 0.1719 l
0.4435 0.1718 l
0.4478 0.1718 l
0.4521 0.1718 l
0.4565 0.1718 l
0.4609 0.1719 l
0.4654 0.1720 l
0.4699 0.1721 l
0.4745 0.1723 l
0.4790 0.1725 l
0.4837 0.1728 l
0.4884 0.1730 l
0.4931 0.1733 l
0.4978 0.1737 l
0.5027 0.1740 l
0.5075 0.1744 l
0.5124 0.1749 l
0.5173 0.1753 l
0.5223 0.1758 l
0.5274 0.1763 l
0.5324 0.1768 l
0.5376 0.1773 l
0.5427 0.1779 l
0.5479 0.1784 l
0.5532 0.1790 l
0.5585 0.1796 l
0.5639 0.1802 l
0.5693 0.1809 l
0.5747 0.1815 l
0.5802 0.1821 l
0.5857 0.1828 l
0.5913 0.1834 l
0.5970 0.1840 l
0.6026 0.1847 l
0.6084 0.1853 l
0.6141 0.1859 l
0.6200 0.1865 l
0.6258 0.1871 l
0.6318 0.1877 l
0.6377 0.1883 l
0.6438 0.1888 l
s
[] 0 SD
0.0045 SLW
n
0.1500 0.1500 m
0.6471 0.1500 l
s
n
0.1997 0.1500 m
0.1997 0.1600 l
s
n
0.2991 0.1500 m
0.2991 0.1600 l
s
n
0.3985 0.1500 m
0.3985 0.1600 l
s
n
0.4979 0.1500 m
0.4979 0.1600 l
s
n
0.5974 0.1500 m
0.5974 0.1600 l
s
n
0.1500 0.1500 m
0.1500 0.1700 l
s
n
0.2494 0.1500 m
0.2494 0.1700 l
s
n
0.3488 0.1500 m
0.3488 0.1700 l
s
n
0.4482 0.1500 m
0.4482 0.1700 l
s
n
0.5476 0.1500 m
0.5476 0.1700 l
s
/Font0 FFSF
0.1394 0.1094 m
GS
[0.0448 0.0000 0.0000 0.0448 0 0] CC
(0) show
GR
/Font0 FFSF
0.2220 0.1094 m
GS
[0.0448 0.0000 0.0000 0.0448 0 0] CC
(0.2) show
GR
/Font0 FFSF
0.3214 0.1094 m
GS
[0.0448 0.0000 0.0000 0.0448 0 0] CC
(0.4) show
GR
/Font0 FFSF
0.4210 0.1094 m
GS
[0.0448 0.0000 0.0000 0.0448 0 0] CC
(0.6) show
GR
/Font0 FFSF
0.5208 0.1094 m
GS
[0.0448 0.0000 0.0000 0.0448 0 0] CC
(0.8) show
GR
/Times-Italic findfont
dup length dict begin
 {1 index /FID ne {def} {pop pop} ifelse} forall
 /Encoding DefEncoding def
 currentdict
end
/Font1 exch definefont pop
/Font1 FFSF
0.5789 0.0490 m
GS
[0.0459 0.0000 0.0000 0.0459 0 0] CC
(n) show
GR
/Font0 FFSF
0.6021 0.0490 m
GS
[0.0459 0.0000 0.0000 0.0459 0 0] CC
( [fm) show
GR
/Font0 FFSF
0.6797 0.0765 m
GS
[0.0325 0.0000 0.0000 0.0325 0 0] CC
(-3) show
GR
/Font0 FFSF
0.7068 0.0490 m
GS
[0.0459 0.0000 0.0000 0.0459 0 0] CC
(]) show
GR
n
0.1500 0.1500 m
0.1500 0.5000 l
s
n
0.1500 0.1500 m
0.1600 0.1500 l
s
n
0.1500 0.2200 m
0.1600 0.2200 l
s
n
0.1500 0.2900 m
0.1600 0.2900 l
s
n
0.1500 0.3600 m
0.1600 0.3600 l
s
n
0.1500 0.4300 m
0.1600 0.4300 l
s
n
0.1500 0.5000 m
0.1600 0.5000 l
s
n
0.1500 0.1850 m
0.1700 0.1850 l
s
n
0.1500 0.2550 m
0.1700 0.2550 l
s
n
0.1500 0.3250 m
0.1700 0.3250 l
s
n
0.1500 0.3950 m
0.1700 0.3950 l
s
n
0.1500 0.4650 m
0.1700 0.4650 l
s
/Font0 FFSF
0.0816 0.1701 m
GS
[0.0448 0.0000 0.0000 0.0448 0 0] CC
(-40) show
GR
/Font0 FFSF
0.0816 0.2401 m
GS
[0.0448 0.0000 0.0000 0.0448 0 0] CC
(-30) show
GR
/Font0 FFSF
0.0816 0.3101 m
GS
[0.0448 0.0000 0.0000 0.0448 0 0] CC
(-20) show
GR
/Font0 FFSF
0.0816 0.3801 m
GS
[0.0448 0.0000 0.0000 0.0448 0 0] CC
(-10) show
GR
/Font0 FFSF
0.1188 0.4501 m
GS
[0.0448 0.0000 0.0000 0.0448 0 0] CC
(0) show
GR
/Font0 FFSF
0.0633 0.2295 m
GS
[0.0000 0.0459 -0.0459 0.0000 0 0] CC
(\(S=1,T=0\)) show
GR
[] 0 SD
0.0015 SLW
n
0.1500 0.1500 m
0.1500 0.5000 l
0.6471 0.5000 l
0.6471 0.1500 l
0.1500 0.1500 l
c
s
n
0.6559 0.4164 m
0.6559 0.4331 l
0.6726 0.4331 l
0.6726 0.4164 l
c
GS
Color0 SRGB
fill
GR
[/Pattern /DeviceRGB] SCS
Color1 Pattern8 SC
fill
[/DeviceRGB] SCS
Color1 SC
[] 0 SD
0.0030 SLW
n
0.6559 0.4164 m
0.6559 0.4331 l
0.6726 0.4331 l
0.6726 0.4164 l
0.6559 0.4164 l
c
s
n
0.6632 0.4045 m
0.6632 0.4211 l
0.6799 0.4211 l
0.6799 0.4045 l
c
GS
Color0 SRGB
fill
GR
[/Pattern /DeviceRGB] SCS
Color1 Pattern8 SC
fill
[/DeviceRGB] SCS
Color1 SC
n
0.6632 0.4045 m
0.6632 0.4211 l
0.6799 0.4211 l
0.6799 0.4045 l
0.6632 0.4045 l
c
s
n
0.6723 0.3915 m
0.6723 0.4081 l
0.6890 0.4081 l
0.6890 0.3915 l
c
GS
Color0 SRGB
fill
GR
[/Pattern /DeviceRGB] SCS
Color1 Pattern8 SC
fill
[/DeviceRGB] SCS
Color1 SC
n
0.6723 0.3915 m
0.6723 0.4081 l
0.6890 0.4081 l
0.6890 0.3915 l
0.6723 0.3915 l
c
s
n
0.6834 0.3777 m
0.6834 0.3943 l
0.7001 0.3943 l
0.7001 0.3777 l
c
GS
Color0 SRGB
fill
GR
[/Pattern /DeviceRGB] SCS
Color1 Pattern8 SC
fill
[/DeviceRGB] SCS
Color1 SC
n
0.6834 0.3777 m
0.6834 0.3943 l
0.7001 0.3943 l
0.7001 0.3777 l
0.6834 0.3777 l
c
s
n
0.6967 0.3632 m
0.6967 0.3799 l
0.7134 0.3799 l
0.7134 0.3632 l
c
GS
Color0 SRGB
fill
GR
[/Pattern /DeviceRGB] SCS
Color1 Pattern8 SC
fill
[/DeviceRGB] SCS
Color1 SC
n
0.6967 0.3632 m
0.6967 0.3799 l
0.7134 0.3799 l
0.7134 0.3632 l
0.6967 0.3632 l
c
s
n
0.7125 0.3481 m
0.7125 0.3648 l
0.7292 0.3648 l
0.7292 0.3481 l
c
GS
Color0 SRGB
fill
GR
[/Pattern /DeviceRGB] SCS
Color1 Pattern8 SC
fill
[/DeviceRGB] SCS
Color1 SC
n
0.7125 0.3481 m
0.7125 0.3648 l
0.7292 0.3648 l
0.7292 0.3481 l
0.7125 0.3481 l
c
s
n
0.7309 0.3334 m
0.7309 0.3500 l
0.7475 0.3500 l
0.7475 0.3334 l
c
GS
Color0 SRGB
fill
GR
[/Pattern /DeviceRGB] SCS
Color1 Pattern8 SC
fill
[/DeviceRGB] SCS
Color1 SC
n
0.7309 0.3334 m
0.7309 0.3500 l
0.7475 0.3500 l
0.7475 0.3334 l
0.7309 0.3334 l
c
s
n
0.7520 0.3199 m
0.7520 0.3366 l
0.7687 0.3366 l
0.7687 0.3199 l
c
GS
Color0 SRGB
fill
GR
[/Pattern /DeviceRGB] SCS
Color1 Pattern8 SC
fill
[/DeviceRGB] SCS
Color1 SC
n
0.7520 0.3199 m
0.7520 0.3366 l
0.7687 0.3366 l
0.7687 0.3199 l
0.7520 0.3199 l
c
s
n
0.7763 0.3090 m
0.7763 0.3257 l
0.7929 0.3257 l
0.7929 0.3090 l
c
GS
Color0 SRGB
fill
GR
[/Pattern /DeviceRGB] SCS
Color1 Pattern8 SC
fill
[/DeviceRGB] SCS
Color1 SC
n
0.7763 0.3090 m
0.7763 0.3257 l
0.7929 0.3257 l
0.7929 0.3090 l
0.7763 0.3090 l
c
s
n
0.8037 0.3018 m
0.8037 0.3184 l
0.8203 0.3184 l
0.8203 0.3018 l
c
GS
Color0 SRGB
fill
GR
[/Pattern /DeviceRGB] SCS
Color1 Pattern8 SC
fill
[/DeviceRGB] SCS
Color1 SC
n
0.8037 0.3018 m
0.8037 0.3184 l
0.8203 0.3184 l
0.8203 0.3018 l
0.8037 0.3018 l
c
s
n
0.8345 0.2998 m
0.8345 0.3164 l
0.8512 0.3164 l
0.8512 0.2998 l
c
GS
Color0 SRGB
fill
GR
[/Pattern /DeviceRGB] SCS
Color1 Pattern8 SC
fill
[/DeviceRGB] SCS
Color1 SC
n
0.8345 0.2998 m
0.8345 0.3164 l
0.8512 0.3164 l
0.8512 0.2998 l
0.8345 0.2998 l
c
s
n
0.8690 0.3049 m
0.8690 0.3215 l
0.8857 0.3215 l
0.8857 0.3049 l
c
GS
Color0 SRGB
fill
GR
[/Pattern /DeviceRGB] SCS
Color1 Pattern8 SC
fill
[/DeviceRGB] SCS
Color1 SC
n
0.8690 0.3049 m
0.8690 0.3215 l
0.8857 0.3215 l
0.8857 0.3049 l
0.8690 0.3049 l
c
s
n
0.9073 0.3197 m
0.9073 0.3363 l
0.9240 0.3363 l
0.9240 0.3197 l
c
GS
Color0 SRGB
fill
GR
[/Pattern /DeviceRGB] SCS
Color1 Pattern8 SC
fill
[/DeviceRGB] SCS
Color1 SC
n
0.9073 0.3197 m
0.9073 0.3363 l
0.9240 0.3363 l
0.9240 0.3197 l
0.9073 0.3197 l
c
s
n
0.9497 0.3460 m
0.9497 0.3627 l
0.9663 0.3627 l
0.9663 0.3460 l
c
GS
Color0 SRGB
fill
GR
[/Pattern /DeviceRGB] SCS
Color1 Pattern8 SC
fill
[/DeviceRGB] SCS
Color1 SC
n
0.9497 0.3460 m
0.9497 0.3627 l
0.9663 0.3627 l
0.9663 0.3460 l
0.9497 0.3460 l
c
s
n
0.9962 0.3870 m
0.9962 0.4037 l
1.0129 0.4037 l
1.0129 0.3870 l
c
GS
Color0 SRGB
fill
GR
[/Pattern /DeviceRGB] SCS
Color1 Pattern8 SC
fill
[/DeviceRGB] SCS
Color1 SC
n
0.9962 0.3870 m
0.9962 0.4037 l
1.0129 0.4037 l
1.0129 0.3870 l
0.9962 0.3870 l
c
s
n
1.0472 0.4454 m
1.0472 0.4621 l
1.0639 0.4621 l
1.0639 0.4454 l
c
GS
Color0 SRGB
fill
GR
[/Pattern /DeviceRGB] SCS
Color1 Pattern8 SC
fill
[/DeviceRGB] SCS
Color1 SC
n
1.0472 0.4454 m
1.0472 0.4621 l
1.0639 0.4621 l
1.0639 0.4454 l
1.0472 0.4454 l
c
s
[] 0 SD
0.0037 SLW
n
0.6471 0.4650 m
0.6471 0.4650 l
0.6471 0.4650 l
0.6471 0.4650 l
0.6471 0.4650 l
0.6471 0.4650 l
0.6471 0.4650 l
0.6471 0.4649 l
0.6471 0.4649 l
0.6471 0.4649 l
0.6471 0.4648 l
0.6471 0.4648 l
0.6471 0.4647 l
0.6472 0.4646 l
0.6472 0.4646 l
0.6472 0.4645 l
0.6472 0.4644 l
0.6473 0.4643 l
0.6473 0.4641 l
0.6473 0.4640 l
0.6474 0.4638 l
0.6474 0.4637 l
0.6475 0.4635 l
0.6475 0.4633 l
0.6476 0.4631 l
0.6476 0.4629 l
0.6477 0.4627 l
0.6478 0.4624 l
0.6479 0.4621 l
0.6480 0.4619 l
0.6481 0.4616 l
0.6482 0.4612 l
0.6483 0.4609 l
0.6484 0.4606 l
0.6485 0.4602 l
0.6486 0.4598 l
0.6488 0.4594 l
0.6489 0.4590 l
0.6491 0.4585 l
0.6492 0.4581 l
0.6494 0.4576 l
0.6495 0.4571 l
0.6497 0.4566 l
0.6499 0.4560 l
0.6501 0.4555 l
0.6503 0.4549 l
0.6505 0.4543 l
0.6508 0.4537 l
0.6510 0.4531 l
0.6513 0.4524 l
0.6515 0.4517 l
0.6518 0.4510 l
0.6521 0.4503 l
0.6523 0.4496 l
0.6526 0.4488 l
0.6530 0.4480 l
0.6533 0.4472 l
0.6536 0.4464 l
0.6540 0.4456 l
0.6543 0.4447 l
0.6547 0.4438 l
0.6551 0.4429 l
0.6555 0.4420 l
0.6559 0.4411 l
0.6563 0.4401 l
0.6567 0.4391 l
0.6572 0.4381 l
0.6576 0.4371 l
0.6581 0.4360 l
0.6586 0.4350 l
0.6591 0.4339 l
0.6596 0.4328 l
0.6601 0.4317 l
0.6607 0.4306 l
0.6612 0.4294 l
0.6618 0.4282 l
0.6624 0.4270 l
0.6630 0.4258 l
0.6636 0.4246 l
0.6642 0.4234 l
0.6649 0.4221 l
0.6656 0.4208 l
0.6663 0.4195 l
0.6670 0.4182 l
0.6677 0.4169 l
0.6684 0.4156 l
0.6692 0.4142 l
0.6699 0.4128 l
0.6707 0.4115 l
0.6715 0.4101 l
0.6724 0.4087 l
0.6732 0.4072 l
0.6741 0.4058 l
0.6749 0.4044 l
0.6758 0.4029 l
0.6768 0.4014 l
0.6777 0.3999 l
0.6787 0.3985 l
0.6796 0.3970 l
0.6806 0.3955 l
0.6817 0.3939 l
0.6827 0.3924 l
0.6837 0.3909 l
0.6848 0.3893 l
0.6859 0.3878 l
0.6870 0.3862 l
0.6882 0.3847 l
0.6894 0.3831 l
0.6905 0.3816 l
0.6917 0.3800 l
0.6930 0.3784 l
0.6942 0.3768 l
0.6955 0.3753 l
0.6968 0.3737 l
0.6981 0.3721 l
0.6995 0.3705 l
0.7008 0.3690 l
0.7022 0.3674 l
0.7036 0.3658 l
0.7051 0.3643 l
0.7065 0.3627 l
0.7080 0.3612 l
0.7095 0.3596 l
0.7111 0.3581 l
0.7126 0.3565 l
0.7142 0.3550 l
0.7158 0.3535 l
0.7175 0.3520 l
0.7191 0.3505 l
0.7208 0.3490 l
0.7225 0.3475 l
0.7243 0.3461 l
0.7260 0.3446 l
0.7278 0.3432 l
0.7297 0.3418 l
0.7315 0.3404 l
0.7334 0.3390 l
0.7353 0.3376 l
0.7372 0.3363 l
0.7392 0.3350 l
0.7412 0.3337 l
0.7432 0.3324 l
0.7452 0.3312 l
0.7473 0.3299 l
0.7494 0.3287 l
0.7515 0.3276 l
0.7537 0.3264 l
0.7559 0.3253 l
0.7581 0.3242 l
0.7604 0.3231 l
0.7627 0.3221 l
0.7650 0.3211 l
0.7673 0.3202 l
0.7697 0.3193 l
0.7721 0.3184 l
0.7745 0.3175 l
0.7770 0.3167 l
0.7795 0.3159 l
0.7820 0.3152 l
0.7846 0.3145 l
0.7872 0.3139 l
0.7898 0.3133 l
0.7925 0.3127 l
0.7952 0.3122 l
0.7979 0.3118 l
0.8006 0.3114 l
0.8034 0.3110 l
0.8063 0.3107 l
0.8091 0.3105 l
0.8120 0.3103 l
0.8149 0.3101 l
0.8179 0.3100 l
0.8209 0.3100 l
0.8239 0.3101 l
0.8270 0.3101 l
0.8301 0.3103 l
0.8332 0.3105 l
0.8364 0.3108 l
0.8396 0.3112 l
0.8429 0.3116 l
0.8462 0.3121 l
0.8495 0.3126 l
0.8528 0.3132 l
0.8562 0.3139 l
0.8596 0.3147 l
0.8631 0.3156 l
0.8666 0.3165 l
0.8702 0.3175 l
0.8737 0.3186 l
0.8774 0.3197 l
0.8810 0.3210 l
0.8847 0.3223 l
0.8884 0.3237 l
0.8922 0.3252 l
0.8960 0.3268 l
0.8999 0.3285 l
0.9038 0.3302 l
0.9077 0.3321 l
0.9117 0.3341 l
0.9157 0.3361 l
0.9197 0.3383 l
0.9238 0.3405 l
0.9279 0.3428 l
0.9321 0.3453 l
0.9363 0.3478 l
0.9406 0.3505 l
0.9449 0.3532 l
0.9492 0.3561 l
0.9536 0.3591 l
0.9580 0.3621 l
0.9625 0.3653 l
0.9670 0.3686 l
0.9715 0.3721 l
0.9761 0.3756 l
0.9807 0.3792 l
0.9854 0.3830 l
0.9901 0.3869 l
0.9949 0.3909 l
0.9997 0.3950 l
1.0046 0.3993 l
1.0095 0.4037 l
1.0144 0.4082 l
1.0194 0.4128 l
1.0244 0.4176 l
1.0295 0.4225 l
1.0346 0.4275 l
1.0398 0.4327 l
1.0450 0.4380 l
1.0503 0.4434 l
1.0556 0.4490 l
1.0609 0.4547 l
1.0663 0.4606 l
1.0718 0.4666 l
1.0773 0.4728 l
1.0828 0.4791 l
1.0884 0.4855 l
1.0940 0.4921 l
1.0997 0.4988 l
1.1007 0.5001 l
s
[0.0187 0.0112 ] 0 SD
0.0037 SLW
n
0.6471 0.4650 m
0.6471 0.4650 l
0.6471 0.4650 l
0.6471 0.4650 l
0.6471 0.4650 l
0.6471 0.4650 l
0.6471 0.4649 l
0.6471 0.4649 l
0.6471 0.4649 l
0.6471 0.4648 l
0.6471 0.4648 l
0.6471 0.4647 l
0.6471 0.4647 l
0.6472 0.4646 l
0.6472 0.4645 l
0.6472 0.4644 l
0.6472 0.4643 l
0.6473 0.4641 l
0.6473 0.4640 l
0.6473 0.4639 l
0.6474 0.4637 l
0.6474 0.4635 l
0.6475 0.4633 l
0.6475 0.4631 l
0.6476 0.4629 l
0.6476 0.4626 l
0.6477 0.4624 l
0.6478 0.4621 l
0.6479 0.4618 l
0.6480 0.4615 l
0.6481 0.4612 l
0.6482 0.4609 l
0.6483 0.4605 l
0.6484 0.4602 l
0.6485 0.4598 l
0.6486 0.4594 l
0.6488 0.4589 l
0.6489 0.4585 l
0.6491 0.4580 l
0.6492 0.4576 l
0.6494 0.4571 l
0.6495 0.4566 l
0.6497 0.4560 l
0.6499 0.4555 l
0.6501 0.4549 l
0.6503 0.4543 l
0.6505 0.4537 l
0.6508 0.4531 l
0.6510 0.4525 l
0.6513 0.4518 l
0.6515 0.4512 l
0.6518 0.4505 l
0.6521 0.4498 l
0.6523 0.4491 l
0.6526 0.4483 l
0.6530 0.4476 l
0.6533 0.4468 l
0.6536 0.4460 l
0.6540 0.4452 l
0.6543 0.4444 l
0.6547 0.4436 l
0.6551 0.4427 l
0.6555 0.4418 l
0.6559 0.4410 l
0.6563 0.4401 l
0.6567 0.4392 l
0.6572 0.4382 l
0.6576 0.4373 l
0.6581 0.4364 l
0.6586 0.4354 l
0.6591 0.4344 l
0.6596 0.4335 l
0.6601 0.4325 l
0.6607 0.4315 l
0.6612 0.4304 l
0.6618 0.4294 l
0.6624 0.4284 l
0.6630 0.4273 l
0.6636 0.4263 l
0.6642 0.4252 l
0.6649 0.4242 l
0.6656 0.4231 l
0.6663 0.4220 l
0.6670 0.4209 l
0.6677 0.4198 l
0.6684 0.4187 l
0.6692 0.4176 l
0.6699 0.4165 l
0.6707 0.4154 l
0.6715 0.4143 l
0.6724 0.4132 l
0.6732 0.4121 l
0.6741 0.4109 l
0.6749 0.4098 l
0.6758 0.4087 l
0.6768 0.4076 l
0.6777 0.4065 l
0.6787 0.4054 l
0.6796 0.4043 l
0.6806 0.4032 l
0.6817 0.4021 l
0.6827 0.4010 l
0.6837 0.3999 l
0.6848 0.3989 l
0.6859 0.3978 l
0.6870 0.3968 l
0.6882 0.3957 l
0.6894 0.3947 l
0.6905 0.3937 l
0.6917 0.3927 l
0.6930 0.3917 l
0.6942 0.3907 l
0.6955 0.3897 l
0.6968 0.3888 l
0.6981 0.3879 l
0.6995 0.3869 l
0.7008 0.3861 l
0.7022 0.3852 l
0.7036 0.3843 l
0.7051 0.3835 l
0.7065 0.3827 l
0.7080 0.3819 l
0.7095 0.3812 l
0.7111 0.3805 l
0.7126 0.3798 l
0.7142 0.3791 l
0.7158 0.3784 l
0.7175 0.3778 l
0.7191 0.3773 l
0.7208 0.3767 l
0.7225 0.3762 l
0.7243 0.3757 l
0.7260 0.3753 l
0.7278 0.3749 l
0.7297 0.3745 l
0.7315 0.3742 l
0.7334 0.3739 l
0.7353 0.3737 l
0.7372 0.3735 l
0.7392 0.3733 l
0.7412 0.3732 l
0.7432 0.3732 l
0.7452 0.3731 l
0.7473 0.3732 l
0.7494 0.3733 l
0.7515 0.3734 l
0.7537 0.3736 l
0.7559 0.3739 l
0.7581 0.3742 l
0.7604 0.3745 l
0.7627 0.3750 l
0.7650 0.3755 l
0.7673 0.3760 l
0.7697 0.3766 l
0.7721 0.3773 l
0.7745 0.3780 l
0.7770 0.3789 l
0.7795 0.3797 l
0.7820 0.3807 l
0.7846 0.3817 l
0.7872 0.3828 l
0.7898 0.3840 l
0.7925 0.3852 l
0.7952 0.3865 l
0.7979 0.3880 l
0.8006 0.3894 l
0.8034 0.3910 l
0.8063 0.3927 l
0.8091 0.3944 l
0.8120 0.3962 l
0.8149 0.3981 l
0.8179 0.4002 l
0.8209 0.4023 l
0.8239 0.4044 l
0.8270 0.4067 l
0.8301 0.4091 l
0.8332 0.4116 l
0.8364 0.4142 l
0.8396 0.4169 l
0.8429 0.4197 l
0.8462 0.4226 l
0.8495 0.4256 l
0.8528 0.4287 l
0.8562 0.4319 l
0.8596 0.4353 l
0.8631 0.4387 l
0.8666 0.4423 l
0.8702 0.4460 l
0.8737 0.4498 l
0.8774 0.4537 l
0.8810 0.4578 l
0.8847 0.4619 l
0.8884 0.4663 l
0.8922 0.4707 l
0.8960 0.4753 l
0.8999 0.4800 l
0.9038 0.4848 l
0.9077 0.4898 l
0.9117 0.4949 l
0.9156 0.5001 l
s
[] 0 SD
0.0045 SLW
n
0.6471 0.1500 m
1.1441 0.1500 l
s
n
0.6968 0.1500 m
0.6968 0.1600 l
s
n
0.7962 0.1500 m
0.7962 0.1600 l
s
n
0.8956 0.1500 m
0.8956 0.1600 l
s
n
0.9950 0.1500 m
0.9950 0.1600 l
s
n
1.0944 0.1500 m
1.0944 0.1600 l
s
n
0.6471 0.1500 m
0.6471 0.1700 l
s
n
0.7465 0.1500 m
0.7465 0.1700 l
s
n
0.8459 0.1500 m
0.8459 0.1700 l
s
n
0.9453 0.1500 m
0.9453 0.1700 l
s
n
1.0447 0.1500 m
1.0447 0.1700 l
s
n
1.1441 0.1500 m
1.1441 0.1700 l
s
/Font0 FFSF
0.6365 0.1094 m
GS
[0.0448 0.0000 0.0000 0.0448 0 0] CC
(0) show
GR
/Font0 FFSF
0.7190 0.1094 m
GS
[0.0448 0.0000 0.0000 0.0448 0 0] CC
(0.2) show
GR
/Font0 FFSF
0.8184 0.1094 m
GS
[0.0448 0.0000 0.0000 0.0448 0 0] CC
(0.4) show
GR
/Font0 FFSF
0.9180 0.1094 m
GS
[0.0448 0.0000 0.0000 0.0448 0 0] CC
(0.6) show
GR
/Font0 FFSF
1.0178 0.1094 m
GS
[0.0448 0.0000 0.0000 0.0448 0 0] CC
(0.8) show
GR
/Font0 FFSF
1.1353 0.1094 m
GS
[0.0448 0.0000 0.0000 0.0448 0 0] CC
(1) show
GR
n
0.6471 0.1500 m
0.6471 0.5000 l
s
n
1.1441 0.1500 m
1.1441 0.5000 l
s
n
0.6471 0.1500 m
0.6571 0.1500 l
s
n
1.1441 0.1500 m
1.1341 0.1500 l
s
n
0.6471 0.2200 m
0.6571 0.2200 l
s
n
1.1441 0.2200 m
1.1341 0.2200 l
s
n
0.6471 0.2900 m
0.6571 0.2900 l
s
n
1.1441 0.2900 m
1.1341 0.2900 l
s
n
0.6471 0.3600 m
0.6571 0.3600 l
s
n
1.1441 0.3600 m
1.1341 0.3600 l
s
n
0.6471 0.4300 m
0.6571 0.4300 l
s
n
1.1441 0.4300 m
1.1341 0.4300 l
s
n
0.6471 0.5000 m
0.6571 0.5000 l
s
n
1.1441 0.5000 m
1.1341 0.5000 l
s
n
0.6471 0.1850 m
0.6671 0.1850 l
s
n
1.1441 0.1850 m
1.1241 0.1850 l
s
n
0.6471 0.2550 m
0.6671 0.2550 l
s
n
1.1441 0.2550 m
1.1241 0.2550 l
s
n
0.6471 0.3250 m
0.6671 0.3250 l
s
n
1.1441 0.3250 m
1.1241 0.3250 l
s
n
0.6471 0.3950 m
0.6671 0.3950 l
s
n
1.1441 0.3950 m
1.1241 0.3950 l
s
n
0.6471 0.4650 m
0.6671 0.4650 l
s
n
1.1441 0.4650 m
1.1241 0.4650 l
s
/Font0 FFSF
1.1541 0.1701 m
GS
[0.0448 0.0000 0.0000 0.0448 0 0] CC
(-40) show
GR
/Font0 FFSF
1.1541 0.2401 m
GS
[0.0448 0.0000 0.0000 0.0448 0 0] CC
(-30) show
GR
/Font0 FFSF
1.1541 0.3101 m
GS
[0.0448 0.0000 0.0000 0.0448 0 0] CC
(-20) show
GR
/Font0 FFSF
1.1541 0.3801 m
GS
[0.0448 0.0000 0.0000 0.0448 0 0] CC
(-10) show
GR
/Font0 FFSF
1.1541 0.4501 m
GS
[0.0448 0.0000 0.0000 0.0448 0 0] CC
(0) show
GR
/Font0 FFSF
1.2539 0.2295 m
GS
[0.0000 0.0459 -0.0459 0.0000 0 0] CC
(\(S=0,T=1\)) show
GR
[] 0 SD
0.0015 SLW
n
0.6471 0.1500 m
0.6471 0.5000 l
1.1441 0.5000 l
1.1441 0.1500 l
0.6471 0.1500 l
c
s
/Font0 FFSF
0.1800 0.7700 m
GS
[0.0848 0.0000 0.0000 0.0848 0 0] CC
(b\)) show
GR
showpage
%%PageTrailer
%%Trailer
%%DocumentNeededResources: font Times-Roman
%%+ font Times-Italic
%%EOF
