%!PS-Adobe-3.0 EPSF-3.0
%%BoundingBox: (atend)
%%LanguageLevel: 2
%%Creator: Grace-5.1.21
%%CreationDate: Mon Aug  3 14:39:29 2015
%%DocumentData: Clean8Bit
%%Orientation: Portrait
%%Title: PressurePNM.agr
%%For: pastorea
%%DocumentNeededResources: (atend)
%%EndComments
%%BeginProlog
/m {moveto} def
/l {lineto} def
/s {stroke} def
/n {newpath} def
/c {closepath} def
/RL {rlineto} def
/SLW {setlinewidth} def
/GS {gsave} def
/GR {grestore} def
/SC {setcolor} def
/SGRY {setgray} def
/SRGB {setrgbcolor} def
/SD {setdash} def
/SLC {setlinecap} def
/SLJ {setlinejoin} def
/SCS {setcolorspace} def
/FFSF {findfont setfont} def
/CC {concat} def
/PXL {n m 0 0 RL s} def
/Color0 {1.0000 1.0000 1.0000} def
/Color1 {0.0000 0.0000 0.0000} def
/Color2 {1.0000 0.0000 0.0000} def
/Color3 {0.0000 1.0000 0.0000} def
/Color4 {0.0000 0.0000 1.0000} def
/Color5 {1.0000 1.0000 0.0000} def
/Color6 {0.7373 0.5608 0.5608} def
/Color7 {0.8627 0.8627 0.8627} def
/Color8 {0.5804 0.0000 0.8275} def
/Color9 {0.0000 1.0000 1.0000} def
/Color10 {1.0000 0.0000 1.0000} def
/Color11 {1.0000 0.6471 0.0000} def
/Color12 {0.4471 0.1294 0.7373} def
/Color13 {0.4039 0.0275 0.2824} def
/Color14 {0.2510 0.8784 0.8157} def
/Color15 {0.0000 0.5451 0.0000} def
/Color16 {0.7529 0.7529 0.7529} def
/Color17 {0.5059 0.5059 0.5059} def
/Color18 {0.2588 0.2588 0.2588} def
/PTRN {
 /pat_bits exch def 
 <<
  /PaintType 2
  /PatternType 1 /TilingType 1
  /BBox[0 0 16 16]
  /XStep 16 /YStep 16
  /PaintProc {
   pop
   16 16 true [-1 0 0 -1 16 16] pat_bits imagemask
  }
 >>
 [0.0016 0 0 0.0016 0 0]
 makepattern
} def
/Pattern0 {<0000000000000000000000000000000000000000000000000000000000000000> PTRN} bind def
/Pattern1 {<ffffffffffffffffffffffffffffffffffffffffffffffffffffffffffffffff> PTRN} bind def
/Pattern2 {<eeeeffffbbbbffffeeeeffffbbbbffffeeeeffffbbbbffffeeeeffffbbbbffff> PTRN} bind def
/Pattern3 {<eeeebbbbeeeebbbbeeeebbbbeeeebbbbeeeebbbbeeeebbbbeeeebbbbeeeebbbb> PTRN} bind def
/Pattern4 {<5555aaaa5555aaaa5555aaaa5555aaaa5555aaaa5555aaaa5555aaaa5555aaaa> PTRN} bind def
/Pattern5 {<1111444411114444111144441111444411114444111144441111444411114444> PTRN} bind def
/Pattern6 {<1111000044440000111100004444000011110000444400001111000044440000> PTRN} bind def
/Pattern7 {<1010000000000000010100000000000010100000000000000101000000000000> PTRN} bind def
/Pattern8 {<0000000000000000000000000000000000000000000000000000000000000000> PTRN} bind def
/Pattern9 {<1e1e0f0f8787c3c3e1e1f0f078783c3c1e1e0f0f8787c3c3e1e1f0f078783c3c> PTRN} bind def
/Pattern10 {<7878f0f0e1e1c3c387870f0f1e1e3c3c7878f0f0e1e1c3c387870f0f1e1e3c3c> PTRN} bind def
/Pattern11 {<3333333333333333333333333333333333333333333333333333333333333333> PTRN} bind def
/Pattern12 {<ffffffff00000000ffffffff00000000ffffffff00000000ffffffff00000000> PTRN} bind def
/Pattern13 {<8181424224241818181824244242818181814242242418181818242442428181> PTRN} bind def
/Pattern14 {<8080404020201010080804040202010180804040202010100808040402020101> PTRN} bind def
/Pattern15 {<0101020204040808101020204040808001010202040408081010202040408080> PTRN} bind def
/Pattern16 {<2222222222222222222222222222222222222222222222222222222222222222> PTRN} bind def
/Pattern17 {<0000ffff000000000000ffff000000000000ffff000000000000ffff00000000> PTRN} bind def
/Pattern18 {<2222ffff222222222222ffff222222222222ffff222222222222ffff22222222> PTRN} bind def
/Pattern19 {<ffffffff33333333ffffffff33333333ffffffff33333333ffffffff33333333> PTRN} bind def
/Pattern20 {<0f0f0f0f0f0f0f0ff0f0f0f0f0f0f0f00f0f0f0f0f0f0f0ff0f0f0f0f0f0f0f0> PTRN} bind def
/Pattern21 {<ff00ff00ff00ff00ff00ff00ff00ff0000ff00ff00ff00ff00ff00ff00ff00ff> PTRN} bind def
/Pattern22 {<8001800180018001800180018001ffffffff8001800180018001800180018001> PTRN} bind def
/Pattern23 {<c003c003c003c003c003c003ffffffffffffffffc003c003c003c003c003c003> PTRN} bind def
/Pattern24 {<040404040404ffff404040404040ffff040404040404ffff404040404040ffff> PTRN} bind def
/Pattern25 {<180018001800180018001800ffffffff001800180018001800180018ffffffff> PTRN} bind def
/Pattern26 {<1111b8b87c7c3a3a1111a3a3c7c78b8b1111b8b87c7c3a3a1111a3a3c7c78b8b> PTRN} bind def
/Pattern27 {<101010102828c7c70101010182827c7c101010102828c7c70101010182827c7c> PTRN} bind def
/Pattern28 {<1c1c121211112121c1c12121111112121c1c121211112121c1c1212111111212> PTRN} bind def
/Pattern29 {<3e3e414180808080e3e31414080808083e3e414180808080e3e3141408080808> PTRN} bind def
/Pattern30 {<4848888884848383848488884848383848488888848483838484888848483838> PTRN} bind def
/Pattern31 {<03030404080808080c0c12122121c0c003030404080808080c0c12122121c0c0> PTRN} bind def
/ellipsedict 8 dict def
ellipsedict /mtrx matrix put
/EARC {
 ellipsedict begin
  /endangle exch def
  /startangle exch def
  /yrad exch def
  /xrad exch def
  /y exch def
  /x exch def
  /savematrix mtrx currentmatrix def
  x y translate
  xrad yrad scale
  0 0 1 startangle endangle arc
  savematrix setmatrix
 end
} def
/TL {
  /kcomp exch def
  /linewidth exch def
  /offset exch def
  GS
  0 offset rmoveto
  linewidth SLW
  dup stringwidth exch kcomp add exch RL s
  GR
} def
/KINIT
{
 /kvector exch def
 /kid 0 def
} def
/KPROC
{
 pop pop
 kvector kid get
 0 rmoveto
 /kid 1 kid add def
} def
/DefEncoding [
 /.notdef
 /.notdef
 /.notdef
 /.notdef
 /.notdef
 /.notdef
 /.notdef
 /.notdef
 /.notdef
 /.notdef
 /.notdef
 /.notdef
 /.notdef
 /.notdef
 /.notdef
 /.notdef
 /.notdef
 /.notdef
 /.notdef
 /.notdef
 /.notdef
 /.notdef
 /.notdef
 /.notdef
 /.notdef
 /.notdef
 /.notdef
 /.notdef
 /.notdef
 /.notdef
 /.notdef
 /.notdef
 /space
 /exclam
 /quotedbl
 /numbersign
 /dollar
 /percent
 /ampersand
 /quoteright
 /parenleft
 /parenright
 /asterisk
 /plus
 /comma
 /hyphen
 /period
 /slash
 /zero
 /one
 /two
 /three
 /four
 /five
 /six
 /seven
 /eight
 /nine
 /colon
 /semicolon
 /less
 /equal
 /greater
 /question
 /at
 /A
 /B
 /C
 /D
 /E
 /F
 /G
 /H
 /I
 /J
 /K
 /L
 /M
 /N
 /O
 /P
 /Q
 /R
 /S
 /T
 /U
 /V
 /W
 /X
 /Y
 /Z
 /bracketleft
 /backslash
 /bracketright
 /asciicircum
 /underscore
 /grave
 /a
 /b
 /c
 /d
 /e
 /f
 /g
 /h
 /i
 /j
 /k
 /l
 /m
 /n
 /o
 /p
 /q
 /r
 /s
 /t
 /u
 /v
 /w
 /x
 /y
 /z
 /braceleft
 /bar
 /braceright
 /asciitilde
 /.notdef
 /.notdef
 /.notdef
 /.notdef
 /.notdef
 /.notdef
 /.notdef
 /.notdef
 /.notdef
 /.notdef
 /.notdef
 /.notdef
 /.notdef
 /.notdef
 /.notdef
 /.notdef
 /.notdef
 /.notdef
 /.notdef
 /.notdef
 /.notdef
 /.notdef
 /.notdef
 /.notdef
 /.notdef
 /.notdef
 /.notdef
 /.notdef
 /.notdef
 /.notdef
 /.notdef
 /.notdef
 /.notdef
 /space
 /exclamdown
 /cent
 /sterling
 /currency
 /yen
 /brokenbar
 /section
 /dieresis
 /copyright
 /ordfeminine
 /guillemotleft
 /logicalnot
 /hyphen
 /registered
 /macron
 /degree
 /plusminus
 /twosuperior
 /threesuperior
 /acute
 /mu
 /paragraph
 /periodcentered
 /cedilla
 /onesuperior
 /ordmasculine
 /guillemotright
 /onequarter
 /onehalf
 /threequarters
 /questiondown
 /Agrave
 /Aacute
 /Acircumflex
 /Atilde
 /Adieresis
 /Aring
 /AE
 /Ccedilla
 /Egrave
 /Eacute
 /Ecircumflex
 /Edieresis
 /Igrave
 /Iacute
 /Icircumflex
 /Idieresis
 /Eth
 /Ntilde
 /Ograve
 /Oacute
 /Ocircumflex
 /Otilde
 /Odieresis
 /multiply
 /Oslash
 /Ugrave
 /Uacute
 /Ucircumflex
 /Udieresis
 /Yacute
 /Thorn
 /germandbls
 /agrave
 /aacute
 /acircumflex
 /atilde
 /adieresis
 /aring
 /ae
 /ccedilla
 /egrave
 /eacute
 /ecircumflex
 /edieresis
 /igrave
 /iacute
 /icircumflex
 /idieresis
 /eth
 /ntilde
 /ograve
 /oacute
 /ocircumflex
 /otilde
 /odieresis
 /divide
 /oslash
 /ugrave
 /uacute
 /ucircumflex
 /udieresis
 /yacute
 /thorn
 /ydieresis
] def
%%EndProlog
%%BeginSetup
%%EndSetup
612.00 612.00 scale
n
0.4000 0.1500 m
0.4000 0.5095 l
0.4000 0.5294 l
0.4416 0.5525 l
0.4888 0.5804 l
0.5519 0.6155 l
0.5866 0.6330 l
0.6391 0.6538 l
0.6951 0.6713 l
0.7431 0.6888 l
0.7733 0.6992 l
0.8169 0.7088 l
0.8578 0.7191 l
0.9129 0.7319 l
0.9591 0.7422 l
1.0054 0.7502 l
1.0475 0.7590 l
1.0475 0.1500 l
c
GS
[/DeviceRGB] SCS
Color0 SRGB
fill
GR
[/Pattern /DeviceRGB] SCS
Color14 Pattern10 SC
fill
[/DeviceRGB] SCS
Color1 SC
[0.0187 0.0112 ] 0 SD
0.0037 SLW
0 SLC
0 SLJ
n
0.4000 0.5095 m
0.4000 0.5294 l
0.4416 0.5525 l
0.4888 0.5804 l
0.5519 0.6155 l
0.5866 0.6330 l
0.6391 0.6538 l
0.6951 0.6713 l
0.7431 0.6888 l
0.7733 0.6992 l
0.8169 0.7088 l
0.8578 0.7191 l
0.9129 0.7319 l
0.9591 0.7422 l
1.0054 0.7502 l
1.0475 0.7590 l
s
n
0.4000 0.1500 m
0.4000 0.5095 l
0.4540 0.5334 l
0.4923 0.5501 l
0.5358 0.5701 l
0.5536 0.5757 l
0.5936 0.5916 l
0.6354 0.6035 l
0.7759 0.6458 l
0.9022 0.6753 l
1.0475 0.6968 l
1.0475 0.7112 l
1.0475 0.7590 l
1.0475 0.1500 l
c
[/DeviceRGB] SCS
Color0 SC
fill
[/DeviceRGB] SCS
Color1 SC
n
0.4000 0.5095 m
0.4540 0.5334 l
0.4923 0.5501 l
0.5358 0.5701 l
0.5536 0.5757 l
0.5936 0.5916 l
0.6354 0.6035 l
0.7759 0.6458 l
0.9022 0.6753 l
1.0475 0.6968 l
1.0475 0.7112 l
1.0475 0.7590 l
s
n
0.4000 0.1500 m
0.4000 0.4409 l
0.4000 0.4696 l
0.4255 0.4896 l
0.4522 0.5079 l
0.4789 0.5270 l
0.5198 0.5533 l
0.5536 0.5757 l
0.5936 0.5916 l
0.6354 0.6035 l
0.7759 0.6458 l
0.9022 0.6753 l
1.0475 0.6968 l
1.0475 0.1500 l
c
[/DeviceRGB] SCS
Color9 SC
fill
[/DeviceRGB] SCS
Color1 SC
n
0.4000 0.4409 m
0.4000 0.4696 l
0.4255 0.4896 l
0.4522 0.5079 l
0.4789 0.5270 l
0.5198 0.5533 l
0.5536 0.5757 l
0.5936 0.5916 l
0.6354 0.6035 l
0.7759 0.6458 l
0.9022 0.6753 l
1.0475 0.6968 l
s
n
0.4000 0.1500 m
0.4000 0.4382 l
0.4274 0.4494 l
0.4584 0.4654 l
0.4894 0.4805 l
0.5213 0.4957 l
0.5461 0.5053 l
0.5727 0.5149 l
0.6037 0.5277 l
0.6426 0.5380 l
0.6780 0.5508 l
0.7108 0.5604 l
0.7374 0.5692 l
0.7684 0.5795 l
0.8020 0.5883 l
0.8357 0.5955 l
0.9003 0.6099 l
0.9384 0.6131 l
1.0500 0.6203 l
1.0475 0.6538 l
1.0475 0.6961 l
1.0495 0.1500 l
c
[/DeviceRGB] SCS
Color0 SC
fill
[/DeviceRGB] SCS
Color1 SC
n
0.4000 0.4382 m
0.4274 0.4494 l
0.4584 0.4654 l
0.4894 0.4805 l
0.5213 0.4957 l
0.5461 0.5053 l
0.5727 0.5149 l
0.6037 0.5277 l
0.6426 0.5380 l
0.6780 0.5508 l
0.7108 0.5604 l
0.7374 0.5692 l
0.7684 0.5795 l
0.8020 0.5883 l
0.8357 0.5955 l
0.9003 0.6099 l
0.9384 0.6131 l
1.0500 0.6203 l
1.0475 0.6538 l
1.0475 0.6961 l
s
[] 0 SD
0.0037 SLW
n
0.1499 0.2890 m
0.1503 0.2895 l
0.1518 0.2911 l
0.1533 0.2928 l
0.1547 0.2945 l
0.1562 0.2961 l
0.1577 0.2978 l
0.1592 0.2994 l
0.1607 0.3011 l
0.1621 0.3027 l
0.1636 0.3043 l
0.1651 0.3059 l
0.1666 0.3075 l
0.1681 0.3091 l
0.1695 0.3107 l
0.1710 0.3123 l
0.1725 0.3138 l
0.1740 0.3154 l
0.1755 0.3169 l
0.1770 0.3185 l
0.1784 0.3200 l
0.1799 0.3215 l
0.1814 0.3230 l
0.1829 0.3245 l
0.1844 0.3260 l
0.1858 0.3275 l
0.1873 0.3290 l
0.1888 0.3305 l
0.1903 0.3320 l
0.1918 0.3334 l
0.1932 0.3349 l
0.1947 0.3363 l
0.1962 0.3378 l
0.1977 0.3392 l
0.1992 0.3407 l
0.2007 0.3421 l
0.2021 0.3435 l
0.2036 0.3449 l
0.2051 0.3463 l
0.2066 0.3477 l
0.2081 0.3491 l
0.2095 0.3505 l
0.2110 0.3518 l
0.2125 0.3532 l
0.2140 0.3546 l
0.2155 0.3559 l
0.2169 0.3573 l
0.2184 0.3586 l
0.2199 0.3600 l
0.2214 0.3613 l
0.2229 0.3626 l
0.2243 0.3639 l
0.2258 0.3653 l
0.2273 0.3666 l
0.2288 0.3679 l
0.2303 0.3692 l
0.2318 0.3705 l
0.2332 0.3717 l
0.2347 0.3730 l
0.2362 0.3743 l
0.2377 0.3756 l
0.2392 0.3768 l
0.2406 0.3781 l
0.2421 0.3793 l
0.2436 0.3806 l
0.2451 0.3818 l
0.2466 0.3831 l
0.2480 0.3843 l
0.2495 0.3855 l
0.2510 0.3867 l
0.2525 0.3880 l
0.2540 0.3892 l
0.2555 0.3904 l
0.2569 0.3916 l
0.2584 0.3928 l
0.2599 0.3940 l
0.2614 0.3951 l
0.2629 0.3963 l
0.2643 0.3975 l
0.2658 0.3987 l
0.2673 0.3998 l
0.2688 0.4010 l
0.2703 0.4021 l
0.2717 0.4033 l
0.2732 0.4045 l
0.2747 0.4056 l
0.2762 0.4067 l
0.2777 0.4079 l
0.2791 0.4090 l
0.2806 0.4101 l
0.2821 0.4112 l
0.2836 0.4124 l
0.2851 0.4135 l
0.2866 0.4146 l
0.2880 0.4157 l
0.2895 0.4168 l
0.2910 0.4179 l
0.2925 0.4190 l
0.2940 0.4201 l
0.2954 0.4211 l
0.2969 0.4222 l
0.2984 0.4233 l
0.2999 0.4244 l
0.3014 0.4254 l
0.3028 0.4265 l
0.3043 0.4275 l
0.3058 0.4286 l
0.3073 0.4297 l
0.3088 0.4307 l
0.3102 0.4317 l
0.3117 0.4328 l
0.3132 0.4338 l
0.3147 0.4348 l
0.3162 0.4359 l
0.3177 0.4369 l
0.3191 0.4379 l
0.3206 0.4389 l
0.3221 0.4399 l
0.3236 0.4410 l
0.3251 0.4420 l
0.3265 0.4430 l
0.3280 0.4440 l
0.3295 0.4450 l
0.3310 0.4460 l
0.3325 0.4469 l
0.3339 0.4479 l
0.3354 0.4489 l
0.3369 0.4499 l
0.3384 0.4509 l
0.3399 0.4518 l
0.3414 0.4528 l
0.3428 0.4538 l
0.3443 0.4547 l
0.3458 0.4557 l
0.3473 0.4566 l
0.3488 0.4576 l
0.3502 0.4585 l
0.3517 0.4595 l
0.3532 0.4604 l
0.3547 0.4614 l
0.3562 0.4623 l
0.3576 0.4632 l
0.3591 0.4642 l
0.3606 0.4651 l
0.3621 0.4660 l
0.3636 0.4669 l
0.3650 0.4678 l
0.3665 0.4688 l
0.3680 0.4697 l
0.3695 0.4706 l
0.3710 0.4715 l
0.3725 0.4724 l
0.3739 0.4733 l
0.3754 0.4742 l
0.3769 0.4751 l
0.3784 0.4760 l
0.3799 0.4768 l
0.3813 0.4777 l
0.3828 0.4786 l
0.3843 0.4795 l
0.3858 0.4804 l
0.3873 0.4812 l
0.3887 0.4821 l
0.3902 0.4830 l
0.3917 0.4838 l
0.3932 0.4847 l
0.3947 0.4856 l
0.3961 0.4864 l
0.3976 0.4873 l
0.3991 0.4881 l
0.4006 0.4890 l
0.4021 0.4898 l
0.4036 0.4907 l
0.4050 0.4915 l
0.4065 0.4924 l
0.4080 0.4932 l
0.4095 0.4940 l
0.4110 0.4949 l
0.4124 0.4957 l
0.4139 0.4965 l
0.4154 0.4973 l
0.4169 0.4982 l
0.4184 0.4990 l
0.4198 0.4998 l
0.4213 0.5006 l
0.4228 0.5014 l
0.4243 0.5022 l
0.4258 0.5030 l
0.4273 0.5038 l
0.4287 0.5046 l
0.4302 0.5054 l
0.4317 0.5062 l
0.4332 0.5070 l
0.4347 0.5078 l
0.4361 0.5086 l
0.4376 0.5094 l
0.4391 0.5102 l
0.4406 0.5110 l
0.4421 0.5117 l
0.4435 0.5125 l
0.4450 0.5133 l
0.4465 0.5141 l
0.4480 0.5148 l
0.4495 0.5156 l
0.4509 0.5164 l
0.4524 0.5172 l
0.4539 0.5179 l
0.4554 0.5187 l
0.4569 0.5194 l
0.4584 0.5202 l
0.4598 0.5209 l
0.4613 0.5217 l
0.4628 0.5224 l
0.4643 0.5232 l
0.4658 0.5239 l
0.4672 0.5247 l
0.4687 0.5254 l
0.4702 0.5262 l
0.4717 0.5269 l
0.4732 0.5276 l
0.4746 0.5284 l
0.4761 0.5291 l
0.4776 0.5298 l
0.4791 0.5306 l
0.4806 0.5313 l
0.4820 0.5320 l
0.4835 0.5327 l
0.4850 0.5335 l
0.4865 0.5342 l
0.4880 0.5349 l
0.4895 0.5356 l
0.4909 0.5363 l
0.4924 0.5370 l
0.4939 0.5377 l
0.4954 0.5384 l
0.4969 0.5392 l
0.4983 0.5399 l
0.4998 0.5406 l
0.5013 0.5413 l
0.5028 0.5420 l
0.5043 0.5427 l
0.5057 0.5433 l
0.5072 0.5440 l
0.5087 0.5447 l
0.5102 0.5454 l
0.5117 0.5461 l
0.5132 0.5468 l
0.5146 0.5475 l
0.5161 0.5481 l
0.5176 0.5488 l
0.5191 0.5495 l
0.5206 0.5502 l
0.5220 0.5509 l
0.5235 0.5515 l
0.5250 0.5522 l
0.5265 0.5529 l
0.5280 0.5535 l
0.5294 0.5542 l
0.5309 0.5549 l
0.5324 0.5555 l
0.5339 0.5562 l
0.5354 0.5568 l
0.5368 0.5575 l
0.5383 0.5582 l
0.5398 0.5588 l
0.5413 0.5595 l
0.5428 0.5601 l
0.5443 0.5608 l
0.5457 0.5614 l
0.5472 0.5621 l
0.5487 0.5627 l
0.5502 0.5633 l
0.5517 0.5640 l
0.5531 0.5646 l
0.5546 0.5653 l
0.5561 0.5659 l
0.5576 0.5665 l
0.5591 0.5672 l
0.5605 0.5678 l
0.5620 0.5684 l
0.5635 0.5691 l
0.5650 0.5697 l
0.5665 0.5703 l
0.5680 0.5709 l
0.5694 0.5716 l
0.5709 0.5722 l
0.5724 0.5728 l
0.5739 0.5734 l
0.5754 0.5740 l
0.5768 0.5746 l
0.5783 0.5753 l
0.5798 0.5759 l
0.5813 0.5765 l
0.5828 0.5771 l
0.5842 0.5777 l
0.5857 0.5783 l
0.5872 0.5789 l
0.5887 0.5795 l
0.5902 0.5801 l
0.5916 0.5807 l
0.5931 0.5813 l
0.5946 0.5819 l
0.5961 0.5825 l
0.5976 0.5831 l
0.5991 0.5837 l
0.6005 0.5843 l
0.6020 0.5849 l
0.6035 0.5855 l
0.6050 0.5861 l
0.6065 0.5866 l
0.6079 0.5872 l
0.6094 0.5878 l
0.6109 0.5884 l
0.6124 0.5890 l
0.6139 0.5896 l
0.6153 0.5901 l
0.6168 0.5907 l
0.6183 0.5913 l
0.6198 0.5919 l
0.6213 0.5924 l
0.6227 0.5930 l
0.6242 0.5936 l
0.6257 0.5942 l
0.6272 0.5947 l
0.6287 0.5953 l
0.6302 0.5959 l
0.6316 0.5964 l
0.6331 0.5970 l
0.6346 0.5975 l
0.6361 0.5981 l
0.6376 0.5987 l
0.6390 0.5992 l
0.6405 0.5998 l
0.6420 0.6003 l
0.6435 0.6009 l
0.6450 0.6014 l
0.6464 0.6020 l
0.6479 0.6025 l
0.6494 0.6031 l
0.6509 0.6036 l
0.6524 0.6042 l
0.6539 0.6047 l
0.6553 0.6053 l
0.6568 0.6058 l
0.6583 0.6064 l
0.6598 0.6069 l
0.6613 0.6074 l
0.6627 0.6080 l
0.6642 0.6085 l
0.6657 0.6091 l
0.6672 0.6096 l
0.6687 0.6101 l
0.6701 0.6107 l
0.6716 0.6112 l
0.6731 0.6117 l
0.6746 0.6122 l
0.6761 0.6128 l
0.6775 0.6133 l
0.6790 0.6138 l
0.6805 0.6144 l
0.6820 0.6149 l
0.6835 0.6154 l
0.6850 0.6159 l
0.6864 0.6164 l
0.6879 0.6170 l
0.6894 0.6175 l
0.6909 0.6180 l
0.6924 0.6185 l
0.6938 0.6190 l
0.6953 0.6195 l
0.6968 0.6201 l
0.6983 0.6206 l
0.6998 0.6211 l
0.7012 0.6216 l
0.7027 0.6221 l
0.7042 0.6226 l
0.7057 0.6231 l
0.7072 0.6236 l
0.7086 0.6241 l
0.7101 0.6246 l
0.7116 0.6251 l
0.7131 0.6256 l
0.7146 0.6261 l
0.7161 0.6266 l
0.7175 0.6271 l
0.7190 0.6276 l
0.7205 0.6281 l
0.7220 0.6286 l
0.7235 0.6291 l
0.7249 0.6296 l
0.7264 0.6301 l
0.7279 0.6306 l
0.7294 0.6311 l
0.7309 0.6316 l
0.7323 0.6320 l
0.7338 0.6325 l
0.7353 0.6330 l
0.7368 0.6335 l
0.7383 0.6340 l
0.7398 0.6345 l
0.7412 0.6349 l
0.7427 0.6354 l
0.7442 0.6359 l
0.7457 0.6364 l
0.7472 0.6369 l
0.7486 0.6373 l
0.7501 0.6378 l
0.7516 0.6383 l
0.7531 0.6388 l
0.7546 0.6392 l
0.7560 0.6397 l
0.7575 0.6402 l
0.7590 0.6407 l
0.7605 0.6411 l
0.7620 0.6416 l
0.7634 0.6421 l
0.7649 0.6425 l
0.7664 0.6430 l
0.7679 0.6435 l
0.7694 0.6439 l
0.7709 0.6444 l
0.7723 0.6448 l
0.7738 0.6453 l
0.7753 0.6458 l
0.7768 0.6462 l
0.7783 0.6467 l
0.7797 0.6471 l
0.7812 0.6476 l
0.7827 0.6481 l
0.7842 0.6485 l
0.7857 0.6490 l
0.7871 0.6494 l
0.7886 0.6499 l
0.7901 0.6503 l
0.7916 0.6508 l
0.7931 0.6512 l
0.7945 0.6517 l
0.7960 0.6521 l
0.7975 0.6526 l
0.7990 0.6530 l
0.8005 0.6535 l
0.8020 0.6539 l
0.8034 0.6543 l
0.8049 0.6548 l
0.8064 0.6552 l
0.8079 0.6557 l
0.8094 0.6561 l
0.8108 0.6565 l
0.8123 0.6570 l
0.8138 0.6574 l
0.8153 0.6579 l
0.8168 0.6583 l
0.8182 0.6587 l
0.8197 0.6592 l
0.8212 0.6596 l
0.8227 0.6600 l
0.8242 0.6605 l
0.8257 0.6609 l
0.8271 0.6613 l
0.8286 0.6617 l
0.8301 0.6622 l
0.8316 0.6626 l
0.8331 0.6630 l
0.8345 0.6635 l
0.8360 0.6639 l
0.8375 0.6643 l
0.8390 0.6647 l
0.8405 0.6652 l
0.8419 0.6656 l
0.8434 0.6660 l
0.8449 0.6664 l
0.8464 0.6668 l
0.8479 0.6673 l
0.8493 0.6677 l
0.8508 0.6681 l
0.8523 0.6685 l
0.8538 0.6689 l
0.8553 0.6693 l
0.8568 0.6697 l
0.8582 0.6702 l
0.8597 0.6706 l
0.8612 0.6710 l
0.8627 0.6714 l
0.8642 0.6718 l
0.8656 0.6722 l
0.8671 0.6726 l
0.8686 0.6730 l
0.8701 0.6734 l
0.8716 0.6738 l
0.8730 0.6743 l
0.8745 0.6747 l
0.8760 0.6751 l
0.8775 0.6755 l
0.8790 0.6759 l
0.8805 0.6763 l
0.8819 0.6767 l
0.8834 0.6771 l
0.8849 0.6775 l
0.8864 0.6779 l
0.8879 0.6783 l
0.8893 0.6787 l
0.8908 0.6791 l
0.8923 0.6795 l
0.8938 0.6799 l
0.8953 0.6803 l
0.8967 0.6806 l
0.8982 0.6810 l
0.8997 0.6814 l
0.9012 0.6818 l
0.9027 0.6822 l
0.9041 0.6826 l
0.9056 0.6830 l
0.9071 0.6834 l
0.9086 0.6838 l
0.9101 0.6842 l
0.9116 0.6846 l
0.9130 0.6849 l
0.9145 0.6853 l
0.9160 0.6857 l
0.9175 0.6861 l
0.9190 0.6865 l
0.9204 0.6869 l
0.9219 0.6872 l
0.9234 0.6876 l
0.9249 0.6880 l
0.9264 0.6884 l
0.9278 0.6888 l
0.9293 0.6891 l
0.9308 0.6895 l
0.9323 0.6899 l
0.9338 0.6903 l
0.9352 0.6906 l
0.9367 0.6910 l
0.9382 0.6914 l
0.9397 0.6918 l
0.9412 0.6921 l
0.9427 0.6925 l
0.9441 0.6929 l
0.9456 0.6933 l
0.9471 0.6936 l
0.9486 0.6940 l
0.9501 0.6944 l
0.9515 0.6947 l
0.9530 0.6951 l
0.9545 0.6955 l
0.9560 0.6958 l
0.9575 0.6962 l
0.9589 0.6966 l
0.9604 0.6969 l
0.9619 0.6973 l
0.9634 0.6977 l
0.9649 0.6980 l
0.9664 0.6984 l
0.9678 0.6988 l
0.9693 0.6991 l
0.9708 0.6995 l
0.9723 0.6998 l
0.9738 0.7002 l
0.9752 0.7006 l
0.9767 0.7009 l
0.9782 0.7013 l
0.9797 0.7016 l
0.9812 0.7020 l
0.9826 0.7023 l
0.9841 0.7027 l
0.9856 0.7031 l
0.9871 0.7034 l
0.9886 0.7038 l
0.9900 0.7041 l
0.9915 0.7045 l
0.9930 0.7048 l
0.9945 0.7052 l
0.9960 0.7055 l
0.9975 0.7059 l
0.9989 0.7062 l
1.0004 0.7066 l
1.0019 0.7069 l
1.0034 0.7073 l
1.0049 0.7076 l
1.0063 0.7080 l
1.0078 0.7083 l
1.0093 0.7086 l
1.0108 0.7090 l
1.0123 0.7093 l
1.0137 0.7097 l
1.0152 0.7100 l
1.0167 0.7104 l
1.0182 0.7107 l
1.0197 0.7110 l
1.0211 0.7114 l
1.0226 0.7117 l
1.0241 0.7121 l
1.0256 0.7124 l
1.0271 0.7127 l
1.0286 0.7131 l
1.0300 0.7134 l
1.0315 0.7137 l
1.0330 0.7141 l
1.0345 0.7144 l
1.0360 0.7147 l
1.0374 0.7151 l
1.0389 0.7154 l
1.0404 0.7157 l
1.0419 0.7161 l
1.0434 0.7164 l
1.0448 0.7167 l
1.0463 0.7171 l
1.0478 0.7174 l
1.0493 0.7177 l
1.0508 0.7181 l
1.0523 0.7184 l
1.0537 0.7187 l
1.0552 0.7190 l
1.0567 0.7194 l
1.0582 0.7197 l
1.0597 0.7200 l
1.0611 0.7203 l
1.0626 0.7207 l
1.0641 0.7210 l
1.0656 0.7213 l
1.0671 0.7216 l
1.0685 0.7220 l
1.0700 0.7223 l
1.0715 0.7226 l
1.0730 0.7229 l
1.0745 0.7232 l
1.0759 0.7236 l
1.0774 0.7239 l
1.0789 0.7242 l
1.0804 0.7245 l
1.0819 0.7248 l
1.0834 0.7252 l
1.0848 0.7255 l
1.0863 0.7258 l
1.0878 0.7261 l
1.0893 0.7264 l
1.0908 0.7267 l
1.0922 0.7270 l
1.0937 0.7274 l
1.0952 0.7277 l
1.0967 0.7280 l
1.0982 0.7283 l
1.0996 0.7286 l
1.1011 0.7289 l
1.1026 0.7292 l
1.1041 0.7295 l
1.1056 0.7298 l
1.1070 0.7302 l
1.1085 0.7305 l
1.1100 0.7308 l
1.1115 0.7311 l
1.1130 0.7314 l
1.1145 0.7317 l
1.1159 0.7320 l
1.1174 0.7323 l
1.1189 0.7326 l
1.1204 0.7329 l
1.1219 0.7332 l
1.1233 0.7335 l
1.1248 0.7338 l
1.1263 0.7341 l
1.1278 0.7344 l
1.1293 0.7347 l
1.1307 0.7350 l
1.1322 0.7353 l
1.1337 0.7356 l
1.1352 0.7359 l
1.1367 0.7362 l
1.1382 0.7365 l
1.1396 0.7368 l
1.1411 0.7371 l
1.1426 0.7374 l
1.1441 0.7377 l
1.1456 0.7380 l
1.1470 0.7383 l
1.1485 0.7386 l
1.1500 0.7389 l
1.1501 0.7389 l
s
[/DeviceRGB] SCS
Color4 SC
[0.0037 0.0112 ] 0 SD
0.0037 SLW
n
0.1499 0.2611 m
0.1500 0.2615 l
0.1516 0.2633 l
0.1531 0.2650 l
0.1547 0.2667 l
0.1562 0.2685 l
0.1578 0.2702 l
0.1594 0.2719 l
0.1609 0.2736 l
0.1625 0.2753 l
0.1641 0.2770 l
0.1656 0.2787 l
0.1672 0.2803 l
0.1687 0.2820 l
0.1703 0.2837 l
0.1719 0.2853 l
0.1734 0.2869 l
0.1750 0.2885 l
0.1766 0.2902 l
0.1781 0.2918 l
0.1797 0.2934 l
0.1812 0.2950 l
0.1828 0.2965 l
0.1844 0.2981 l
0.1859 0.2997 l
0.1875 0.3012 l
0.1891 0.3028 l
0.1906 0.3043 l
0.1922 0.3059 l
0.1937 0.3074 l
0.1953 0.3089 l
0.1969 0.3104 l
0.1984 0.3119 l
0.2000 0.3134 l
0.2016 0.3149 l
0.2031 0.3164 l
0.2047 0.3179 l
0.2062 0.3194 l
0.2078 0.3208 l
0.2094 0.3223 l
0.2109 0.3237 l
0.2125 0.3252 l
0.2141 0.3266 l
0.2156 0.3281 l
0.2172 0.3295 l
0.2188 0.3309 l
0.2203 0.3323 l
0.2219 0.3337 l
0.2234 0.3351 l
0.2250 0.3365 l
0.2266 0.3379 l
0.2281 0.3393 l
0.2297 0.3407 l
0.2312 0.3420 l
0.2328 0.3434 l
0.2344 0.3448 l
0.2359 0.3461 l
0.2375 0.3475 l
0.2391 0.3488 l
0.2406 0.3501 l
0.2422 0.3515 l
0.2437 0.3528 l
0.2453 0.3541 l
0.2469 0.3554 l
0.2484 0.3568 l
0.2500 0.3581 l
0.2516 0.3594 l
0.2531 0.3607 l
0.2547 0.3620 l
0.2562 0.3632 l
0.2578 0.3645 l
0.2594 0.3658 l
0.2609 0.3671 l
0.2625 0.3683 l
0.2641 0.3696 l
0.2656 0.3709 l
0.2672 0.3721 l
0.2687 0.3734 l
0.2703 0.3746 l
0.2719 0.3759 l
0.2734 0.3771 l
0.2750 0.3783 l
0.2766 0.3796 l
0.2781 0.3808 l
0.2797 0.3820 l
0.2812 0.3832 l
0.2828 0.3844 l
0.2844 0.3856 l
0.2859 0.3868 l
0.2875 0.3880 l
0.2891 0.3892 l
0.2906 0.3904 l
0.2922 0.3916 l
0.2937 0.3928 l
0.2953 0.3940 l
0.2969 0.3951 l
0.2984 0.3963 l
0.3000 0.3975 l
0.3016 0.3986 l
0.3031 0.3998 l
0.3047 0.4010 l
0.3062 0.4021 l
0.3078 0.4033 l
0.3094 0.4044 l
0.3109 0.4055 l
0.3125 0.4067 l
0.3141 0.4078 l
0.3156 0.4089 l
0.3172 0.4101 l
0.3187 0.4112 l
0.3203 0.4123 l
0.3219 0.4134 l
0.3234 0.4146 l
0.3250 0.4157 l
0.3266 0.4168 l
0.3281 0.4179 l
0.3297 0.4190 l
0.3312 0.4201 l
0.3328 0.4212 l
0.3344 0.4223 l
0.3359 0.4233 l
0.3375 0.4244 l
0.3391 0.4255 l
0.3406 0.4266 l
0.3422 0.4277 l
0.3438 0.4287 l
0.3453 0.4298 l
0.3469 0.4309 l
0.3484 0.4319 l
0.3500 0.4330 l
0.3516 0.4341 l
0.3531 0.4351 l
0.3547 0.4362 l
0.3562 0.4372 l
0.3578 0.4383 l
0.3594 0.4393 l
0.3609 0.4404 l
0.3625 0.4414 l
0.3641 0.4424 l
0.3656 0.4435 l
0.3672 0.4445 l
0.3687 0.4455 l
0.3703 0.4465 l
0.3719 0.4476 l
0.3734 0.4486 l
0.3750 0.4496 l
0.3766 0.4506 l
0.3781 0.4516 l
0.3797 0.4526 l
0.3812 0.4536 l
0.3828 0.4546 l
0.3844 0.4557 l
0.3859 0.4566 l
0.3875 0.4576 l
0.3891 0.4586 l
0.3906 0.4596 l
0.3922 0.4606 l
0.3937 0.4616 l
0.3953 0.4626 l
0.3969 0.4636 l
0.3984 0.4645 l
0.4000 0.4655 l
0.4016 0.4665 l
0.4031 0.4675 l
0.4047 0.4684 l
0.4062 0.4694 l
0.4078 0.4704 l
0.4094 0.4713 l
0.4109 0.4723 l
0.4125 0.4732 l
0.4141 0.4742 l
0.4156 0.4752 l
0.4172 0.4761 l
0.4187 0.4771 l
0.4203 0.4780 l
0.4219 0.4789 l
0.4234 0.4799 l
0.4250 0.4808 l
0.4266 0.4818 l
0.4281 0.4827 l
0.4297 0.4836 l
0.4312 0.4846 l
0.4328 0.4855 l
0.4344 0.4864 l
0.4359 0.4873 l
0.4375 0.4883 l
0.4391 0.4892 l
0.4406 0.4901 l
0.4422 0.4910 l
0.4437 0.4919 l
0.4453 0.4928 l
0.4469 0.4937 l
0.4484 0.4946 l
0.4500 0.4956 l
0.4516 0.4965 l
0.4531 0.4974 l
0.4547 0.4983 l
0.4562 0.4991 l
0.4578 0.5000 l
0.4594 0.5009 l
0.4609 0.5018 l
0.4625 0.5027 l
0.4641 0.5036 l
0.4656 0.5045 l
0.4672 0.5054 l
0.4687 0.5062 l
0.4703 0.5071 l
0.4719 0.5080 l
0.4734 0.5089 l
0.4750 0.5097 l
0.4766 0.5106 l
0.4781 0.5115 l
0.4797 0.5123 l
0.4812 0.5132 l
0.4828 0.5141 l
0.4844 0.5149 l
0.4859 0.5158 l
0.4875 0.5166 l
0.4891 0.5175 l
0.4906 0.5183 l
0.4922 0.5192 l
0.4937 0.5200 l
0.4953 0.5209 l
0.4969 0.5217 l
0.4984 0.5226 l
0.5000 0.5234 l
0.5016 0.5242 l
0.5031 0.5251 l
0.5047 0.5259 l
0.5062 0.5267 l
0.5078 0.5276 l
0.5094 0.5284 l
0.5109 0.5292 l
0.5125 0.5300 l
0.5141 0.5309 l
0.5156 0.5317 l
0.5172 0.5325 l
0.5187 0.5333 l
0.5203 0.5341 l
0.5219 0.5349 l
0.5234 0.5357 l
0.5250 0.5366 l
0.5266 0.5374 l
0.5281 0.5382 l
0.5297 0.5390 l
0.5312 0.5398 l
0.5328 0.5406 l
0.5344 0.5414 l
0.5359 0.5422 l
0.5375 0.5430 l
0.5391 0.5437 l
0.5406 0.5445 l
0.5422 0.5453 l
0.5437 0.5461 l
0.5453 0.5469 l
0.5469 0.5477 l
0.5484 0.5484 l
0.5500 0.5492 l
0.5516 0.5500 l
0.5531 0.5508 l
0.5547 0.5515 l
0.5562 0.5523 l
0.5578 0.5531 l
0.5594 0.5538 l
0.5609 0.5546 l
0.5625 0.5554 l
0.5641 0.5561 l
0.5656 0.5569 l
0.5672 0.5576 l
0.5687 0.5584 l
0.5703 0.5592 l
0.5719 0.5599 l
0.5734 0.5607 l
0.5750 0.5614 l
0.5766 0.5621 l
0.5781 0.5629 l
0.5797 0.5636 l
0.5812 0.5644 l
0.5828 0.5651 l
0.5844 0.5658 l
0.5859 0.5666 l
0.5875 0.5673 l
0.5891 0.5680 l
0.5906 0.5688 l
0.5922 0.5695 l
0.5937 0.5702 l
0.5953 0.5709 l
0.5969 0.5717 l
0.5984 0.5724 l
0.6000 0.5731 l
0.6016 0.5738 l
0.6031 0.5745 l
0.6047 0.5752 l
0.6062 0.5759 l
0.6078 0.5766 l
0.6094 0.5774 l
0.6109 0.5781 l
0.6125 0.5788 l
0.6141 0.5795 l
0.6156 0.5802 l
0.6172 0.5808 l
0.6187 0.5815 l
0.6203 0.5822 l
0.6219 0.5829 l
0.6234 0.5836 l
0.6250 0.5843 l
0.6266 0.5850 l
0.6281 0.5857 l
0.6297 0.5863 l
0.6312 0.5870 l
0.6328 0.5877 l
0.6344 0.5884 l
0.6359 0.5890 l
0.6375 0.5897 l
0.6391 0.5904 l
0.6406 0.5910 l
0.6422 0.5917 l
0.6437 0.5924 l
0.6453 0.5930 l
0.6469 0.5937 l
0.6484 0.5943 l
0.6500 0.5950 l
0.6516 0.5957 l
0.6531 0.5963 l
0.6547 0.5970 l
0.6562 0.5976 l
0.6578 0.5982 l
0.6594 0.5989 l
0.6609 0.5995 l
0.6625 0.6002 l
0.6641 0.6008 l
0.6656 0.6014 l
0.6672 0.6021 l
0.6687 0.6027 l
0.6703 0.6033 l
0.6719 0.6040 l
0.6734 0.6046 l
0.6750 0.6052 l
0.6766 0.6058 l
0.6781 0.6064 l
0.6797 0.6071 l
0.6812 0.6077 l
0.6828 0.6083 l
0.6844 0.6089 l
0.6859 0.6095 l
0.6875 0.6101 l
0.6891 0.6107 l
0.6906 0.6113 l
0.6922 0.6119 l
0.6937 0.6125 l
0.6953 0.6131 l
0.6969 0.6137 l
0.6984 0.6143 l
0.7000 0.6149 l
0.7016 0.6155 l
0.7031 0.6161 l
0.7047 0.6166 l
0.7062 0.6172 l
0.7078 0.6178 l
0.7094 0.6184 l
0.7109 0.6190 l
0.7125 0.6195 l
0.7141 0.6201 l
0.7156 0.6207 l
0.7172 0.6212 l
0.7187 0.6218 l
0.7203 0.6224 l
0.7219 0.6229 l
0.7234 0.6235 l
0.7250 0.6240 l
0.7266 0.6246 l
0.7281 0.6251 l
0.7297 0.6257 l
0.7312 0.6262 l
0.7328 0.6268 l
0.7344 0.6273 l
0.7359 0.6279 l
0.7375 0.6284 l
0.7391 0.6289 l
0.7406 0.6295 l
0.7422 0.6300 l
0.7437 0.6305 l
0.7453 0.6311 l
0.7469 0.6316 l
0.7484 0.6321 l
0.7500 0.6326 l
0.7516 0.6331 l
0.7531 0.6337 l
0.7547 0.6342 l
0.7562 0.6347 l
0.7578 0.6352 l
0.7594 0.6357 l
0.7609 0.6362 l
0.7625 0.6367 l
0.7641 0.6372 l
0.7656 0.6377 l
0.7672 0.6382 l
0.7687 0.6387 l
0.7703 0.6392 l
0.7719 0.6397 l
0.7734 0.6401 l
0.7750 0.6406 l
0.7766 0.6411 l
0.7781 0.6416 l
0.7797 0.6421 l
0.7812 0.6425 l
0.7828 0.6430 l
0.7844 0.6435 l
0.7859 0.6439 l
0.7875 0.6444 l
0.7891 0.6449 l
0.7906 0.6453 l
0.7922 0.6458 l
0.7937 0.6462 l
0.7953 0.6467 l
0.7969 0.6471 l
0.7984 0.6476 l
0.8000 0.6480 l
0.8016 0.6485 l
0.8031 0.6489 l
0.8047 0.6493 l
0.8062 0.6498 l
0.8078 0.6502 l
0.8094 0.6506 l
0.8109 0.6510 l
0.8125 0.6515 l
0.8141 0.6519 l
0.8156 0.6523 l
0.8172 0.6527 l
0.8187 0.6531 l
0.8203 0.6535 l
0.8219 0.6539 l
0.8234 0.6543 l
0.8250 0.6547 l
0.8266 0.6551 l
0.8281 0.6555 l
0.8297 0.6559 l
0.8312 0.6563 l
0.8328 0.6567 l
0.8344 0.6571 l
0.8359 0.6575 l
0.8375 0.6579 l
s
[/DeviceRGB] SCS
Color3 SC
[0.0187 0.0112 ] 0 SD
0.0037 SLW
n
0.1499 0.4370 m
0.1500 0.4370 l
0.1708 0.4440 l
0.1917 0.4509 l
0.2125 0.4576 l
0.2333 0.4641 l
0.2542 0.4705 l
0.2750 0.4768 l
0.2958 0.4830 l
0.3167 0.4891 l
0.3375 0.4950 l
0.3583 0.5009 l
0.3792 0.5066 l
0.4000 0.5123 l
0.4208 0.5178 l
0.4417 0.5232 l
0.4625 0.5286 l
0.4833 0.5338 l
0.5042 0.5389 l
0.5250 0.5440 l
0.5458 0.5489 l
0.5667 0.5538 l
0.5875 0.5586 l
0.6083 0.5633 l
0.6292 0.5679 l
0.6500 0.5724 l
0.6708 0.5769 l
0.6917 0.5812 l
0.7125 0.5855 l
0.7333 0.5898 l
0.7542 0.5939 l
0.7750 0.5980 l
0.7958 0.6020 l
0.8167 0.6060 l
0.8375 0.6098 l
0.8583 0.6137 l
0.8792 0.6174 l
0.9000 0.6211 l
0.9208 0.6248 l
0.9417 0.6283 l
0.9625 0.6319 l
0.9833 0.6353 l
1.0042 0.6388 l
1.0250 0.6421 l
1.0458 0.6454 l
1.0667 0.6487 l
1.0875 0.6519 l
1.1083 0.6551 l
1.1292 0.6582 l
1.1500 0.6613 l
1.1501 0.6613 l
s
[/DeviceRGB] SCS
Color2 SC
n
0.1499 0.4356 m
0.1500 0.4357 l
0.1708 0.4437 l
0.1917 0.4516 l
0.2125 0.4595 l
0.2333 0.4674 l
0.2542 0.4752 l
0.2750 0.4829 l
0.2958 0.4905 l
0.3167 0.4980 l
0.3375 0.5054 l
0.3583 0.5127 l
0.3792 0.5198 l
0.4000 0.5268 l
0.4208 0.5337 l
0.4417 0.5404 l
0.4625 0.5471 l
0.4833 0.5535 l
0.5042 0.5599 l
0.5250 0.5661 l
0.5458 0.5722 l
0.5667 0.5782 l
0.5875 0.5840 l
0.6083 0.5898 l
0.6292 0.5954 l
0.6500 0.6009 l
0.6708 0.6063 l
0.6917 0.6116 l
0.7125 0.6167 l
0.7333 0.6218 l
0.7542 0.6268 l
0.7750 0.6317 l
0.7958 0.6365 l
0.8167 0.6411 l
0.8375 0.6458 l
0.8583 0.6503 l
0.8792 0.6547 l
0.9000 0.6591 l
0.9208 0.6634 l
0.9417 0.6676 l
0.9625 0.6717 l
0.9833 0.6758 l
1.0042 0.6798 l
1.0250 0.6837 l
1.0458 0.6875 l
1.0667 0.6913 l
1.0875 0.6951 l
1.1083 0.6988 l
1.1292 0.7024 l
1.1500 0.7059 l
1.1501 0.7060 l
s
[/DeviceRGB] SCS
Color15 SC
n
0.1499 0.4342 m
0.1500 0.4342 l
0.1708 0.4439 l
0.1917 0.4538 l
0.2125 0.4637 l
0.2333 0.4736 l
0.2542 0.4835 l
0.2750 0.4933 l
0.2958 0.5030 l
0.3167 0.5125 l
0.3375 0.5218 l
0.3583 0.5309 l
0.3792 0.5399 l
0.4000 0.5486 l
0.4208 0.5571 l
0.4417 0.5654 l
0.4625 0.5734 l
0.4833 0.5813 l
0.5042 0.5890 l
0.5250 0.5965 l
0.5458 0.6037 l
0.5667 0.6108 l
0.5875 0.6177 l
0.6083 0.6245 l
0.6292 0.6310 l
0.6500 0.6374 l
0.6708 0.6437 l
0.6917 0.6498 l
0.7125 0.6557 l
0.7333 0.6615 l
0.7542 0.6672 l
0.7750 0.6728 l
0.7958 0.6782 l
0.8167 0.6835 l
0.8375 0.6887 l
0.8583 0.6938 l
0.8792 0.6987 l
0.9000 0.7036 l
0.9208 0.7084 l
0.9417 0.7131 l
0.9625 0.7177 l
0.9833 0.7222 l
1.0042 0.7266 l
1.0250 0.7309 l
1.0458 0.7351 l
1.0667 0.7393 l
1.0875 0.7434 l
1.1083 0.7474 l
1.1292 0.7514 l
1.1500 0.7553 l
1.1501 0.7553 l
s
[/DeviceRGB] SCS
Color12 SC
[0.0037 0.0112 0.0187 0.0112 ] 0 SD
0.0037 SLW
n
0.1499 0.2897 m
0.1506 0.2904 l
0.1520 0.2918 l
0.1534 0.2933 l
0.1549 0.2947 l
0.1563 0.2962 l
0.1577 0.2976 l
0.1592 0.2990 l
0.1606 0.3004 l
0.1620 0.3018 l
0.1635 0.3032 l
0.1649 0.3046 l
0.1663 0.3060 l
0.1678 0.3074 l
0.1692 0.3087 l
0.1706 0.3101 l
0.1721 0.3114 l
0.1735 0.3128 l
0.1749 0.3141 l
0.1763 0.3155 l
0.1778 0.3168 l
0.1792 0.3181 l
0.1806 0.3194 l
0.1821 0.3207 l
0.1835 0.3220 l
0.1849 0.3233 l
0.1864 0.3246 l
0.1878 0.3259 l
0.1892 0.3272 l
0.1907 0.3284 l
0.1921 0.3297 l
0.1935 0.3310 l
0.1950 0.3322 l
0.1964 0.3335 l
0.1978 0.3347 l
0.1993 0.3359 l
0.2007 0.3372 l
0.2021 0.3384 l
0.2036 0.3396 l
0.2050 0.3408 l
0.2064 0.3420 l
0.2078 0.3432 l
0.2093 0.3444 l
0.2107 0.3456 l
0.2121 0.3468 l
0.2136 0.3480 l
0.2150 0.3492 l
0.2164 0.3503 l
0.2179 0.3515 l
0.2193 0.3527 l
0.2207 0.3538 l
0.2222 0.3550 l
0.2236 0.3561 l
0.2250 0.3572 l
0.2265 0.3584 l
0.2279 0.3595 l
0.2293 0.3606 l
0.2308 0.3618 l
0.2322 0.3629 l
0.2336 0.3640 l
0.2351 0.3651 l
0.2365 0.3662 l
0.2379 0.3673 l
0.2393 0.3684 l
0.2408 0.3695 l
0.2422 0.3705 l
0.2436 0.3716 l
0.2451 0.3727 l
0.2465 0.3738 l
0.2479 0.3748 l
0.2494 0.3759 l
0.2508 0.3770 l
0.2522 0.3780 l
0.2537 0.3791 l
0.2551 0.3801 l
0.2565 0.3811 l
0.2580 0.3822 l
0.2594 0.3832 l
0.2608 0.3842 l
0.2623 0.3853 l
0.2637 0.3863 l
0.2651 0.3873 l
0.2666 0.3883 l
0.2680 0.3893 l
0.2694 0.3903 l
0.2708 0.3913 l
0.2723 0.3923 l
0.2737 0.3933 l
0.2751 0.3943 l
0.2766 0.3953 l
0.2780 0.3963 l
0.2794 0.3973 l
0.2809 0.3982 l
0.2823 0.3992 l
0.2837 0.4002 l
0.2852 0.4011 l
0.2866 0.4021 l
0.2880 0.4031 l
0.2895 0.4040 l
0.2909 0.4050 l
0.2923 0.4059 l
0.2938 0.4069 l
0.2952 0.4078 l
0.2966 0.4087 l
0.2981 0.4097 l
0.2995 0.4106 l
0.3009 0.4115 l
0.3023 0.4124 l
0.3038 0.4134 l
0.3052 0.4143 l
0.3066 0.4152 l
0.3081 0.4161 l
0.3095 0.4170 l
0.3109 0.4179 l
0.3124 0.4188 l
0.3138 0.4197 l
0.3152 0.4206 l
0.3167 0.4215 l
0.3181 0.4224 l
0.3195 0.4233 l
0.3210 0.4242 l
0.3224 0.4251 l
0.3238 0.4259 l
0.3253 0.4268 l
0.3267 0.4277 l
0.3281 0.4285 l
0.3296 0.4294 l
0.3310 0.4303 l
0.3324 0.4311 l
0.3338 0.4320 l
0.3353 0.4328 l
0.3367 0.4337 l
0.3381 0.4345 l
0.3396 0.4354 l
0.3410 0.4362 l
0.3424 0.4371 l
0.3439 0.4379 l
0.3453 0.4388 l
0.3467 0.4396 l
0.3482 0.4404 l
0.3496 0.4412 l
0.3510 0.4421 l
0.3525 0.4429 l
0.3539 0.4437 l
0.3553 0.4445 l
0.3568 0.4453 l
0.3582 0.4462 l
0.3596 0.4470 l
0.3611 0.4478 l
0.3625 0.4486 l
0.3639 0.4494 l
0.3653 0.4502 l
0.3668 0.4510 l
0.3682 0.4518 l
0.3696 0.4526 l
0.3711 0.4534 l
0.3725 0.4541 l
0.3739 0.4549 l
0.3754 0.4557 l
0.3768 0.4565 l
0.3782 0.4573 l
0.3797 0.4580 l
0.3811 0.4588 l
0.3825 0.4596 l
0.3840 0.4604 l
0.3854 0.4611 l
0.3868 0.4619 l
0.3883 0.4627 l
0.3897 0.4634 l
0.3911 0.4642 l
0.3926 0.4649 l
0.3940 0.4657 l
0.3954 0.4664 l
0.3968 0.4672 l
0.3983 0.4679 l
0.3997 0.4687 l
0.4011 0.4694 l
0.4026 0.4702 l
0.4040 0.4709 l
0.4054 0.4716 l
0.4069 0.4724 l
0.4083 0.4731 l
0.4097 0.4738 l
0.4112 0.4746 l
0.4126 0.4753 l
0.4140 0.4760 l
0.4155 0.4767 l
0.4169 0.4774 l
0.4183 0.4782 l
0.4198 0.4789 l
0.4212 0.4796 l
0.4226 0.4803 l
0.4241 0.4810 l
0.4255 0.4817 l
0.4269 0.4824 l
0.4284 0.4831 l
0.4298 0.4838 l
0.4312 0.4845 l
0.4326 0.4852 l
0.4341 0.4859 l
0.4355 0.4866 l
0.4369 0.4873 l
0.4384 0.4880 l
0.4398 0.4887 l
0.4412 0.4894 l
0.4427 0.4901 l
0.4441 0.4908 l
0.4455 0.4915 l
0.4470 0.4921 l
0.4484 0.4928 l
0.4498 0.4935 l
0.4513 0.4942 l
0.4527 0.4948 l
0.4541 0.4955 l
0.4556 0.4962 l
0.4570 0.4968 l
0.4584 0.4975 l
0.4599 0.4982 l
0.4613 0.4988 l
0.4627 0.4995 l
0.4641 0.5002 l
0.4656 0.5008 l
0.4670 0.5015 l
0.4684 0.5021 l
0.4699 0.5028 l
0.4713 0.5034 l
0.4727 0.5041 l
0.4742 0.5047 l
0.4756 0.5054 l
0.4770 0.5060 l
0.4785 0.5067 l
0.4799 0.5073 l
0.4813 0.5080 l
0.4828 0.5086 l
0.4842 0.5092 l
0.4856 0.5099 l
0.4871 0.5105 l
0.4885 0.5111 l
0.4899 0.5118 l
0.4914 0.5124 l
0.4928 0.5130 l
0.4942 0.5136 l
0.4956 0.5143 l
0.4971 0.5149 l
0.4985 0.5155 l
0.4999 0.5161 l
0.5014 0.5168 l
0.5028 0.5174 l
0.5042 0.5180 l
0.5057 0.5186 l
0.5071 0.5192 l
0.5085 0.5198 l
0.5100 0.5204 l
0.5114 0.5211 l
0.5128 0.5217 l
0.5143 0.5223 l
0.5157 0.5229 l
0.5171 0.5235 l
0.5186 0.5241 l
0.5200 0.5247 l
0.5214 0.5253 l
0.5229 0.5259 l
0.5243 0.5265 l
0.5257 0.5271 l
0.5271 0.5277 l
0.5286 0.5282 l
0.5300 0.5288 l
0.5314 0.5294 l
0.5329 0.5300 l
0.5343 0.5306 l
0.5357 0.5312 l
0.5372 0.5318 l
0.5386 0.5324 l
0.5400 0.5329 l
0.5415 0.5335 l
0.5429 0.5341 l
0.5443 0.5347 l
0.5458 0.5353 l
0.5472 0.5358 l
0.5486 0.5364 l
0.5501 0.5370 l
0.5515 0.5375 l
0.5529 0.5381 l
0.5544 0.5387 l
0.5558 0.5392 l
0.5572 0.5398 l
0.5586 0.5404 l
0.5601 0.5409 l
0.5615 0.5415 l
0.5629 0.5421 l
0.5644 0.5426 l
0.5658 0.5432 l
0.5672 0.5437 l
0.5687 0.5443 l
0.5701 0.5449 l
0.5715 0.5454 l
0.5730 0.5460 l
0.5744 0.5465 l
0.5758 0.5471 l
0.5773 0.5476 l
0.5787 0.5482 l
0.5801 0.5487 l
0.5816 0.5493 l
0.5830 0.5498 l
0.5844 0.5503 l
0.5859 0.5509 l
0.5873 0.5514 l
0.5887 0.5520 l
0.5901 0.5525 l
0.5916 0.5530 l
0.5930 0.5536 l
0.5944 0.5541 l
0.5959 0.5547 l
0.5973 0.5552 l
0.5987 0.5557 l
0.6002 0.5563 l
0.6016 0.5568 l
0.6030 0.5573 l
0.6045 0.5578 l
0.6059 0.5584 l
0.6073 0.5589 l
0.6088 0.5594 l
0.6102 0.5599 l
0.6116 0.5605 l
0.6131 0.5610 l
0.6145 0.5615 l
0.6159 0.5620 l
0.6174 0.5625 l
0.6188 0.5631 l
0.6202 0.5636 l
0.6216 0.5641 l
0.6231 0.5646 l
0.6245 0.5651 l
0.6259 0.5656 l
0.6274 0.5661 l
0.6288 0.5667 l
0.6302 0.5672 l
0.6317 0.5677 l
0.6331 0.5682 l
0.6345 0.5687 l
0.6360 0.5692 l
0.6374 0.5697 l
0.6388 0.5702 l
0.6403 0.5707 l
0.6417 0.5712 l
0.6431 0.5717 l
0.6446 0.5722 l
0.6460 0.5727 l
0.6474 0.5732 l
0.6489 0.5737 l
0.6503 0.5742 l
0.6517 0.5747 l
0.6532 0.5752 l
0.6546 0.5757 l
0.6560 0.5762 l
0.6574 0.5767 l
0.6589 0.5771 l
0.6603 0.5776 l
0.6617 0.5781 l
0.6632 0.5786 l
0.6646 0.5791 l
0.6660 0.5796 l
0.6675 0.5801 l
0.6689 0.5805 l
0.6703 0.5810 l
0.6718 0.5815 l
0.6732 0.5820 l
0.6746 0.5825 l
0.6761 0.5830 l
0.6775 0.5834 l
0.6789 0.5839 l
0.6804 0.5844 l
0.6818 0.5849 l
0.6832 0.5853 l
0.6847 0.5858 l
0.6861 0.5863 l
0.6875 0.5868 l
0.6889 0.5872 l
0.6904 0.5877 l
0.6918 0.5882 l
0.6932 0.5886 l
0.6947 0.5891 l
0.6961 0.5896 l
0.6975 0.5900 l
0.6990 0.5905 l
0.7004 0.5910 l
0.7018 0.5914 l
0.7033 0.5919 l
0.7047 0.5924 l
0.7061 0.5928 l
0.7076 0.5933 l
0.7090 0.5937 l
0.7104 0.5942 l
0.7119 0.5946 l
0.7133 0.5951 l
0.7147 0.5956 l
0.7162 0.5960 l
0.7176 0.5965 l
0.7190 0.5969 l
0.7204 0.5974 l
0.7219 0.5978 l
0.7233 0.5983 l
0.7247 0.5987 l
0.7262 0.5992 l
0.7276 0.5996 l
0.7290 0.6001 l
0.7305 0.6005 l
0.7319 0.6010 l
0.7333 0.6014 l
0.7348 0.6019 l
0.7362 0.6023 l
0.7376 0.6028 l
0.7391 0.6032 l
0.7405 0.6036 l
0.7419 0.6041 l
0.7434 0.6045 l
0.7448 0.6050 l
0.7462 0.6054 l
0.7477 0.6058 l
0.7491 0.6063 l
0.7505 0.6067 l
0.7519 0.6071 l
0.7534 0.6076 l
0.7548 0.6080 l
0.7562 0.6085 l
0.7577 0.6089 l
0.7591 0.6093 l
0.7605 0.6097 l
0.7620 0.6102 l
0.7634 0.6106 l
0.7648 0.6110 l
0.7663 0.6115 l
0.7677 0.6119 l
0.7691 0.6123 l
0.7706 0.6127 l
0.7720 0.6132 l
0.7734 0.6136 l
0.7749 0.6140 l
0.7763 0.6144 l
0.7777 0.6149 l
0.7792 0.6153 l
0.7806 0.6157 l
0.7820 0.6161 l
0.7834 0.6166 l
0.7849 0.6170 l
0.7863 0.6174 l
0.7877 0.6178 l
0.7892 0.6182 l
0.7906 0.6186 l
0.7920 0.6191 l
0.7935 0.6195 l
0.7949 0.6199 l
0.7963 0.6203 l
0.7978 0.6207 l
0.7992 0.6211 l
0.8006 0.6215 l
0.8021 0.6220 l
0.8035 0.6224 l
0.8049 0.6228 l
0.8064 0.6232 l
0.8078 0.6236 l
0.8092 0.6240 l
0.8107 0.6244 l
0.8121 0.6248 l
0.8135 0.6252 l
0.8149 0.6256 l
0.8164 0.6260 l
0.8178 0.6264 l
0.8192 0.6268 l
0.8207 0.6273 l
0.8221 0.6277 l
0.8235 0.6281 l
0.8250 0.6285 l
0.8264 0.6289 l
0.8278 0.6293 l
0.8293 0.6297 l
0.8307 0.6301 l
0.8321 0.6305 l
0.8336 0.6309 l
0.8350 0.6312 l
0.8364 0.6316 l
0.8379 0.6320 l
0.8393 0.6324 l
0.8407 0.6328 l
0.8422 0.6332 l
0.8436 0.6336 l
0.8450 0.6340 l
0.8464 0.6344 l
0.8479 0.6348 l
0.8493 0.6352 l
0.8507 0.6356 l
0.8522 0.6360 l
0.8536 0.6364 l
0.8550 0.6367 l
0.8565 0.6371 l
0.8579 0.6375 l
0.8593 0.6379 l
0.8608 0.6383 l
0.8622 0.6387 l
0.8636 0.6391 l
0.8651 0.6394 l
0.8665 0.6398 l
0.8679 0.6402 l
0.8694 0.6406 l
0.8708 0.6410 l
0.8722 0.6414 l
0.8737 0.6417 l
0.8751 0.6421 l
0.8765 0.6425 l
0.8779 0.6429 l
0.8794 0.6433 l
0.8808 0.6436 l
0.8822 0.6440 l
0.8837 0.6444 l
0.8851 0.6448 l
0.8865 0.6451 l
0.8880 0.6455 l
0.8894 0.6459 l
0.8908 0.6463 l
0.8923 0.6466 l
0.8937 0.6470 l
0.8951 0.6474 l
0.8966 0.6478 l
0.8980 0.6481 l
0.8994 0.6485 l
0.9009 0.6489 l
0.9023 0.6492 l
0.9037 0.6496 l
0.9052 0.6500 l
0.9066 0.6504 l
0.9080 0.6507 l
0.9095 0.6511 l
0.9109 0.6515 l
0.9123 0.6518 l
0.9137 0.6522 l
0.9152 0.6526 l
0.9166 0.6529 l
0.9180 0.6533 l
0.9195 0.6536 l
0.9209 0.6540 l
0.9223 0.6544 l
0.9238 0.6547 l
0.9252 0.6551 l
0.9266 0.6555 l
0.9281 0.6558 l
0.9295 0.6562 l
0.9309 0.6565 l
0.9324 0.6569 l
0.9338 0.6573 l
0.9352 0.6576 l
0.9367 0.6580 l
0.9381 0.6583 l
0.9395 0.6587 l
0.9410 0.6590 l
0.9424 0.6594 l
0.9438 0.6598 l
0.9452 0.6601 l
0.9467 0.6605 l
0.9481 0.6608 l
0.9495 0.6612 l
0.9510 0.6615 l
0.9524 0.6619 l
0.9538 0.6622 l
0.9553 0.6626 l
0.9567 0.6629 l
0.9581 0.6633 l
0.9596 0.6636 l
0.9610 0.6640 l
0.9624 0.6643 l
0.9639 0.6647 l
0.9653 0.6650 l
0.9667 0.6654 l
0.9682 0.6657 l
0.9696 0.6661 l
0.9710 0.6664 l
0.9725 0.6668 l
0.9739 0.6671 l
0.9753 0.6674 l
0.9767 0.6678 l
0.9782 0.6681 l
0.9796 0.6685 l
0.9810 0.6688 l
0.9825 0.6692 l
0.9839 0.6695 l
0.9853 0.6698 l
0.9868 0.6702 l
0.9882 0.6705 l
0.9896 0.6709 l
0.9911 0.6712 l
0.9925 0.6715 l
0.9939 0.6719 l
0.9954 0.6722 l
0.9968 0.6726 l
0.9982 0.6729 l
0.9997 0.6732 l
1.0011 0.6736 l
1.0025 0.6739 l
1.0040 0.6742 l
1.0054 0.6746 l
1.0068 0.6749 l
1.0082 0.6752 l
1.0097 0.6756 l
1.0111 0.6759 l
1.0125 0.6762 l
1.0140 0.6766 l
1.0154 0.6769 l
1.0168 0.6772 l
1.0183 0.6776 l
1.0197 0.6779 l
1.0211 0.6782 l
1.0226 0.6786 l
1.0240 0.6789 l
1.0254 0.6792 l
1.0269 0.6796 l
1.0283 0.6799 l
1.0297 0.6802 l
1.0312 0.6805 l
1.0326 0.6809 l
1.0340 0.6812 l
1.0355 0.6815 l
1.0369 0.6818 l
1.0383 0.6822 l
1.0397 0.6825 l
1.0412 0.6828 l
1.0426 0.6831 l
1.0440 0.6835 l
1.0455 0.6838 l
1.0469 0.6841 l
1.0483 0.6844 l
1.0498 0.6848 l
1.0512 0.6851 l
1.0526 0.6854 l
1.0541 0.6857 l
1.0555 0.6860 l
1.0569 0.6864 l
1.0584 0.6867 l
1.0598 0.6870 l
1.0612 0.6873 l
1.0627 0.6876 l
1.0641 0.6880 l
1.0655 0.6883 l
1.0670 0.6886 l
1.0684 0.6889 l
1.0698 0.6892 l
1.0712 0.6895 l
1.0727 0.6899 l
1.0741 0.6902 l
1.0755 0.6905 l
1.0770 0.6908 l
1.0784 0.6911 l
1.0798 0.6914 l
1.0813 0.6917 l
1.0827 0.6921 l
1.0841 0.6924 l
1.0856 0.6927 l
1.0870 0.6930 l
1.0884 0.6933 l
1.0899 0.6936 l
1.0913 0.6939 l
1.0927 0.6942 l
1.0942 0.6945 l
1.0956 0.6949 l
1.0970 0.6952 l
1.0985 0.6955 l
1.0999 0.6958 l
1.1013 0.6961 l
1.1027 0.6964 l
1.1042 0.6967 l
1.1056 0.6970 l
1.1070 0.6973 l
1.1085 0.6976 l
1.1099 0.6979 l
1.1113 0.6982 l
1.1128 0.6985 l
1.1142 0.6988 l
1.1156 0.6992 l
1.1171 0.6995 l
1.1185 0.6998 l
1.1199 0.7001 l
1.1214 0.7004 l
1.1228 0.7007 l
1.1242 0.7010 l
1.1257 0.7013 l
1.1271 0.7016 l
1.1285 0.7019 l
1.1300 0.7022 l
1.1314 0.7025 l
1.1328 0.7028 l
1.1342 0.7031 l
1.1357 0.7034 l
1.1371 0.7037 l
1.1385 0.7040 l
1.1400 0.7043 l
1.1414 0.7046 l
1.1428 0.7049 l
1.1443 0.7052 l
1.1457 0.7055 l
1.1471 0.7058 l
1.1486 0.7061 l
1.1500 0.7064 l
1.1501 0.7064 l
s
[/DeviceRGB] SCS
Color1 SC
[] 0 SD
0.0045 SLW
n
0.1500 0.1500 m
1.1500 0.1500 l
s
n
0.1500 0.8500 m
1.1500 0.8500 l
s
n
0.2750 0.1500 m
0.2750 0.1600 l
s
n
0.2750 0.8500 m
0.2750 0.8400 l
s
n
0.5250 0.1500 m
0.5250 0.1600 l
s
n
0.5250 0.8500 m
0.5250 0.8400 l
s
n
0.7750 0.1500 m
0.7750 0.1600 l
s
n
0.7750 0.8500 m
0.7750 0.8400 l
s
n
1.0250 0.1500 m
1.0250 0.1600 l
s
n
1.0250 0.8500 m
1.0250 0.8400 l
s
n
0.1500 0.1500 m
0.1500 0.1700 l
s
n
0.1500 0.8500 m
0.1500 0.8300 l
s
n
0.4000 0.1500 m
0.4000 0.1700 l
s
n
0.4000 0.8500 m
0.4000 0.8300 l
s
n
0.6500 0.1500 m
0.6500 0.1700 l
s
n
0.6500 0.8500 m
0.6500 0.8300 l
s
n
0.9000 0.1500 m
0.9000 0.1700 l
s
n
0.9000 0.8500 m
0.9000 0.8300 l
s
n
1.1500 0.1500 m
1.1500 0.1700 l
s
n
1.1500 0.8500 m
1.1500 0.8300 l
s
/Times-Roman findfont
dup length dict begin
 {1 index /FID ne {def} {pop pop} ifelse} forall
 /Encoding DefEncoding def
 currentdict
end
/Font0 exch definefont pop
/Font0 FFSF
0.1412 0.1094 m
GS
[0.0448 0.0000 0.0000 0.0448 0 0] CC
(1) show
GR
/Font0 FFSF
0.3894 0.1094 m
GS
[0.0448 0.0000 0.0000 0.0448 0 0] CC
(2) show
GR
/Font0 FFSF
0.6402 0.1094 m
GS
[0.0448 0.0000 0.0000 0.0448 0 0] CC
(3) show
GR
/Font0 FFSF
0.8894 0.1094 m
GS
[0.0448 0.0000 0.0000 0.0448 0 0] CC
(4) show
GR
/Font0 FFSF
1.1402 0.1090 m
GS
[0.0448 0.0000 0.0000 0.0448 0 0] CC
(5) show
GR
/Times-Italic findfont
dup length dict begin
 {1 index /FID ne {def} {pop pop} ifelse} forall
 /Encoding DefEncoding def
 currentdict
end
/Font1 exch definefont pop
/Font1 FFSF
0.6090 0.0645 m
GS
[0.0504 0.0000 0.0000 0.0504 0 0] CC
(n/n) show
GR
/Font1 FFSF
0.6733 0.0443 m
GS
[0.0356 0.0000 0.0000 0.0356 0 0] CC
(0) show
GR
n
0.1500 0.1500 m
0.1500 0.8500 l
s
n
1.1500 0.1500 m
1.1500 0.8500 l
s
n
0.1500 0.2226 m
0.1600 0.2226 l
s
n
1.1500 0.2226 m
1.1400 0.2226 l
s
n
0.1500 0.2650 m
0.1600 0.2650 l
s
n
1.1500 0.2650 m
1.1400 0.2650 l
s
n
0.1500 0.2952 m
0.1600 0.2952 l
s
n
1.1500 0.2952 m
1.1400 0.2952 l
s
n
0.1500 0.3185 m
0.1600 0.3185 l
s
n
1.1500 0.3185 m
1.1400 0.3185 l
s
n
0.1500 0.3376 m
0.1600 0.3376 l
s
n
1.1500 0.3376 m
1.1400 0.3376 l
s
n
0.1500 0.3538 m
0.1600 0.3538 l
s
n
1.1500 0.3538 m
1.1400 0.3538 l
s
n
0.1500 0.3678 m
0.1600 0.3678 l
s
n
1.1500 0.3678 m
1.1400 0.3678 l
s
n
0.1500 0.3801 m
0.1600 0.3801 l
s
n
1.1500 0.3801 m
1.1400 0.3801 l
s
n
0.1500 0.3911 m
0.1600 0.3911 l
s
n
1.1500 0.3911 m
1.1400 0.3911 l
s
n
0.1500 0.4637 m
0.1600 0.4637 l
s
n
1.1500 0.4637 m
1.1400 0.4637 l
s
n
0.1500 0.5062 m
0.1600 0.5062 l
s
n
1.1500 0.5062 m
1.1400 0.5062 l
s
n
0.1500 0.5363 m
0.1600 0.5363 l
s
n
1.1500 0.5363 m
1.1400 0.5363 l
s
n
0.1500 0.5597 m
0.1600 0.5597 l
s
n
1.1500 0.5597 m
1.1400 0.5597 l
s
n
0.1500 0.5788 m
0.1600 0.5788 l
s
n
1.1500 0.5788 m
1.1400 0.5788 l
s
n
0.1500 0.5949 m
0.1600 0.5949 l
s
n
1.1500 0.5949 m
1.1400 0.5949 l
s
n
0.1500 0.6089 m
0.1600 0.6089 l
s
n
1.1500 0.6089 m
1.1400 0.6089 l
s
n
0.1500 0.6212 m
0.1600 0.6212 l
s
n
1.1500 0.6212 m
1.1400 0.6212 l
s
n
0.1500 0.6322 m
0.1600 0.6322 l
s
n
1.1500 0.6322 m
1.1400 0.6322 l
s
n
0.1500 0.7048 m
0.1600 0.7048 l
s
n
1.1500 0.7048 m
1.1400 0.7048 l
s
n
0.1500 0.7473 m
0.1600 0.7473 l
s
n
1.1500 0.7473 m
1.1400 0.7473 l
s
n
0.1500 0.7774 m
0.1600 0.7774 l
s
n
1.1500 0.7774 m
1.1400 0.7774 l
s
n
0.1500 0.8008 m
0.1600 0.8008 l
s
n
1.1500 0.8008 m
1.1400 0.8008 l
s
n
0.1500 0.8199 m
0.1600 0.8199 l
s
n
1.1500 0.8199 m
1.1400 0.8199 l
s
n
0.1500 0.8360 m
0.1600 0.8360 l
s
n
1.1500 0.8360 m
1.1400 0.8360 l
s
n
0.1500 0.8500 m
0.1600 0.8500 l
s
n
1.1500 0.8500 m
1.1400 0.8500 l
s
n
0.1500 0.1500 m
0.1700 0.1500 l
s
n
1.1500 0.1500 m
1.1300 0.1500 l
s
n
0.1500 0.3911 m
0.1700 0.3911 l
s
n
1.1500 0.3911 m
1.1300 0.3911 l
s
n
0.1500 0.6322 m
0.1700 0.6322 l
s
n
1.1500 0.6322 m
1.1300 0.6322 l
s
/Font0 FFSF
0.1224 0.1347 m
GS
[0.0448 0.0000 0.0000 0.0448 0 0] CC
(1) show
GR
/Font0 FFSF
0.0965 0.3762 m
GS
[0.0448 0.0000 0.0000 0.0448 0 0] CC
(10) show
GR
/Font0 FFSF
0.0741 0.6173 m
GS
[0.0448 0.0000 0.0000 0.0448 0 0] CC
(100) show
GR
/Font0 FFSF
0.0563 0.3704 m
GS
[0.0000 0.0504 -0.0504 0.0000 0 0] CC
(P [MeVfm) show
GR
/Font0 FFSF
0.0260 0.5873 m
GS
[0.0000 0.0356 -0.0356 0.0000 0 0] CC
(-3) show
GR
/Font0 FFSF
0.0563 0.6171 m
GS
[0.0000 0.0504 -0.0504 0.0000 0 0] CC
(]) show
GR
[] 0 SD
0.0015 SLW
n
0.1500 0.1500 m
0.1500 0.8500 l
1.1500 0.8500 l
1.1500 0.1500 l
0.1500 0.1500 l
c
s
n
0.1500 0.8500 m
0.1500 0.5671 l
0.4134 0.5671 l
0.4134 0.8500 l
c
[/DeviceRGB] SCS
Color0 SC
fill
[/DeviceRGB] SCS
Color1 SC
[] 0 SD
0.0045 SLW
n
0.1500 0.8500 m
0.1500 0.5671 l
0.4134 0.5671 l
0.4134 0.8500 l
0.1500 0.8500 l
c
s
/Font0 FFSF
0.2419 0.8055 m
GS
[0.0510 0.0000 0.0000 0.0510 0 0] CC
(LYVA1) show
GR
[] 0 SD
0.0037 SLW
n
0.1619 0.8225 m
0.2219 0.8225 l
s
/Font0 FFSF
0.2419 0.7606 m
GS
[0.0510 0.0000 0.0000 0.0510 0 0] CC
(BCPM) show
GR
[/DeviceRGB] SCS
Color4 SC
[0.0037 0.0112 ] 0 SD
0.0037 SLW
n
0.1619 0.7775 m
0.2219 0.7775 l
s
/Font0 FFSF
[/DeviceRGB] SCS
Color1 SC
0.2419 0.7149 m
GS
[0.0510 0.0000 0.0000 0.0510 0 0] CC
(BSk19) show
GR
[/DeviceRGB] SCS
Color3 SC
[0.0187 0.0112 ] 0 SD
0.0037 SLW
n
0.1619 0.7318 m
0.2219 0.7318 l
s
/Font0 FFSF
[/DeviceRGB] SCS
Color1 SC
0.2419 0.6688 m
GS
[0.0510 0.0000 0.0000 0.0510 0 0] CC
(BSk20) show
GR
[/DeviceRGB] SCS
Color2 SC
n
0.1619 0.6859 m
0.2219 0.6859 l
s
/Font0 FFSF
[/DeviceRGB] SCS
Color1 SC
0.2419 0.6231 m
GS
[0.0510 0.0000 0.0000 0.0510 0 0] CC
(BSk21) show
GR
[/DeviceRGB] SCS
Color15 SC
n
0.1619 0.6402 m
0.2219 0.6402 l
s
/Font0 FFSF
[/DeviceRGB] SCS
Color1 SC
0.2419 0.5778 m
GS
[0.0510 0.0000 0.0000 0.0510 0 0] CC
(LNS) show
GR
[/DeviceRGB] SCS
Color12 SC
[0.0037 0.0112 0.0187 0.0112 ] 0 SD
0.0037 SLW
n
0.1619 0.5947 m
0.2219 0.5947 l
s
n
0.6500 0.4000 m
0.6500 0.3500 l
0.7000 0.3500 l
0.7000 0.4000 l
c
GS
Color0 SRGB
fill
GR
[/Pattern /DeviceRGB] SCS
Color14 Pattern10 SC
fill
[/DeviceRGB] SCS
Color1 SC
[0.0187 0.0112 ] 0 SD
0.0037 SLW
n
0.6500 0.4000 m
0.6500 0.3500 l
0.7000 0.3500 l
0.7000 0.4000 l
0.6500 0.4000 l
c
s
n
0.6500 0.3300 m
0.6500 0.2800 l
0.7000 0.2800 l
0.7000 0.3300 l
c
[/DeviceRGB] SCS
Color9 SC
fill
[/DeviceRGB] SCS
Color1 SC
n
0.6500 0.3300 m
0.6500 0.2800 l
0.7000 0.2800 l
0.7000 0.3300 l
0.6500 0.3300 l
c
s
/Font0 FFSF
0.7500 0.3600 m
GS
[0.0510 0.0000 0.0000 0.0510 0 0] CC
(Exp.+ Asy) show
GR
/Font0 FFSF
0.9684 0.3396 m
GS
[0.0360 0.0000 0.0000 0.0360 0 0] CC
(stiff) show
GR
/Font0 FFSF
0.7500 0.2900 m
GS
[0.0510 0.0000 0.0000 0.0510 0 0] CC
(Exp.+ Asy) show
GR
/Font0 FFSF
0.9684 0.2696 m
GS
[0.0360 0.0000 0.0000 0.0360 0 0] CC
(soft) show
GR
%%Trailer
%%BoundingBox: 0 25 711 523
%%DocumentNeededResources: font Times-Roman
%%+ font Times-Italic
%%EOF
