%!PS-Adobe-3.0 EPSF-3.0
%%BoundingBox: (atend)
%%LanguageLevel: 2
%%Creator: Grace-5.1.21
%%CreationDate: Tue Aug  4 16:13:54 2015
%%DocumentData: Clean8Bit
%%Orientation: Portrait
%%Title: vsound.agr
%%For: pastorea
%%DocumentNeededResources: (atend)
%%EndComments
%%BeginProlog
/m {moveto} def
/l {lineto} def
/s {stroke} def
/n {newpath} def
/c {closepath} def
/RL {rlineto} def
/SLW {setlinewidth} def
/GS {gsave} def
/GR {grestore} def
/SC {setcolor} def
/SGRY {setgray} def
/SRGB {setrgbcolor} def
/SD {setdash} def
/SLC {setlinecap} def
/SLJ {setlinejoin} def
/SCS {setcolorspace} def
/FFSF {findfont setfont} def
/CC {concat} def
/PXL {n m 0 0 RL s} def
/Color0 {1.0000 1.0000 1.0000} def
/Color1 {0.0000 0.0000 0.0000} def
/Color2 {1.0000 0.0000 0.0000} def
/Color3 {0.0000 1.0000 0.0000} def
/Color4 {0.0000 0.0000 1.0000} def
/Color5 {1.0000 1.0000 0.0000} def
/Color6 {0.7373 0.5608 0.5608} def
/Color7 {0.8627 0.8627 0.8627} def
/Color8 {0.5804 0.0000 0.8275} def
/Color9 {0.0000 1.0000 1.0000} def
/Color10 {1.0000 0.0000 1.0000} def
/Color11 {1.0000 0.6471 0.0000} def
/Color12 {0.4471 0.1294 0.7373} def
/Color13 {0.4039 0.0275 0.2824} def
/Color14 {0.2510 0.8784 0.8157} def
/Color15 {0.0000 0.5451 0.0000} def
/Color16 {0.7529 0.7529 0.7529} def
/Color17 {0.5059 0.5059 0.5059} def
/Color18 {0.2588 0.2588 0.2588} def
/PTRN {
 /pat_bits exch def 
 <<
  /PaintType 2
  /PatternType 1 /TilingType 1
  /BBox[0 0 16 16]
  /XStep 16 /YStep 16
  /PaintProc {
   pop
   16 16 true [-1 0 0 -1 16 16] pat_bits imagemask
  }
 >>
 [0.0016 0 0 0.0016 0 0]
 makepattern
} def
/Pattern0 {<0000000000000000000000000000000000000000000000000000000000000000> PTRN} bind def
/Pattern1 {<ffffffffffffffffffffffffffffffffffffffffffffffffffffffffffffffff> PTRN} bind def
/Pattern2 {<eeeeffffbbbbffffeeeeffffbbbbffffeeeeffffbbbbffffeeeeffffbbbbffff> PTRN} bind def
/Pattern3 {<eeeebbbbeeeebbbbeeeebbbbeeeebbbbeeeebbbbeeeebbbbeeeebbbbeeeebbbb> PTRN} bind def
/Pattern4 {<5555aaaa5555aaaa5555aaaa5555aaaa5555aaaa5555aaaa5555aaaa5555aaaa> PTRN} bind def
/Pattern5 {<1111444411114444111144441111444411114444111144441111444411114444> PTRN} bind def
/Pattern6 {<1111000044440000111100004444000011110000444400001111000044440000> PTRN} bind def
/Pattern7 {<1010000000000000010100000000000010100000000000000101000000000000> PTRN} bind def
/Pattern8 {<0000000000000000000000000000000000000000000000000000000000000000> PTRN} bind def
/Pattern9 {<1e1e0f0f8787c3c3e1e1f0f078783c3c1e1e0f0f8787c3c3e1e1f0f078783c3c> PTRN} bind def
/Pattern10 {<7878f0f0e1e1c3c387870f0f1e1e3c3c7878f0f0e1e1c3c387870f0f1e1e3c3c> PTRN} bind def
/Pattern11 {<3333333333333333333333333333333333333333333333333333333333333333> PTRN} bind def
/Pattern12 {<ffffffff00000000ffffffff00000000ffffffff00000000ffffffff00000000> PTRN} bind def
/Pattern13 {<8181424224241818181824244242818181814242242418181818242442428181> PTRN} bind def
/Pattern14 {<8080404020201010080804040202010180804040202010100808040402020101> PTRN} bind def
/Pattern15 {<0101020204040808101020204040808001010202040408081010202040408080> PTRN} bind def
/Pattern16 {<2222222222222222222222222222222222222222222222222222222222222222> PTRN} bind def
/Pattern17 {<0000ffff000000000000ffff000000000000ffff000000000000ffff00000000> PTRN} bind def
/Pattern18 {<2222ffff222222222222ffff222222222222ffff222222222222ffff22222222> PTRN} bind def
/Pattern19 {<ffffffff33333333ffffffff33333333ffffffff33333333ffffffff33333333> PTRN} bind def
/Pattern20 {<0f0f0f0f0f0f0f0ff0f0f0f0f0f0f0f00f0f0f0f0f0f0f0ff0f0f0f0f0f0f0f0> PTRN} bind def
/Pattern21 {<ff00ff00ff00ff00ff00ff00ff00ff0000ff00ff00ff00ff00ff00ff00ff00ff> PTRN} bind def
/Pattern22 {<8001800180018001800180018001ffffffff8001800180018001800180018001> PTRN} bind def
/Pattern23 {<c003c003c003c003c003c003ffffffffffffffffc003c003c003c003c003c003> PTRN} bind def
/Pattern24 {<040404040404ffff404040404040ffff040404040404ffff404040404040ffff> PTRN} bind def
/Pattern25 {<180018001800180018001800ffffffff001800180018001800180018ffffffff> PTRN} bind def
/Pattern26 {<1111b8b87c7c3a3a1111a3a3c7c78b8b1111b8b87c7c3a3a1111a3a3c7c78b8b> PTRN} bind def
/Pattern27 {<101010102828c7c70101010182827c7c101010102828c7c70101010182827c7c> PTRN} bind def
/Pattern28 {<1c1c121211112121c1c12121111112121c1c121211112121c1c1212111111212> PTRN} bind def
/Pattern29 {<3e3e414180808080e3e31414080808083e3e414180808080e3e3141408080808> PTRN} bind def
/Pattern30 {<4848888884848383848488884848383848488888848483838484888848483838> PTRN} bind def
/Pattern31 {<03030404080808080c0c12122121c0c003030404080808080c0c12122121c0c0> PTRN} bind def
/ellipsedict 8 dict def
ellipsedict /mtrx matrix put
/EARC {
 ellipsedict begin
  /endangle exch def
  /startangle exch def
  /yrad exch def
  /xrad exch def
  /y exch def
  /x exch def
  /savematrix mtrx currentmatrix def
  x y translate
  xrad yrad scale
  0 0 1 startangle endangle arc
  savematrix setmatrix
 end
} def
/TL {
  /kcomp exch def
  /linewidth exch def
  /offset exch def
  GS
  0 offset rmoveto
  linewidth SLW
  dup stringwidth exch kcomp add exch RL s
  GR
} def
/KINIT
{
 /kvector exch def
 /kid 0 def
} def
/KPROC
{
 pop pop
 kvector kid get
 0 rmoveto
 /kid 1 kid add def
} def
/DefEncoding [
 /.notdef
 /.notdef
 /.notdef
 /.notdef
 /.notdef
 /.notdef
 /.notdef
 /.notdef
 /.notdef
 /.notdef
 /.notdef
 /.notdef
 /.notdef
 /.notdef
 /.notdef
 /.notdef
 /.notdef
 /.notdef
 /.notdef
 /.notdef
 /.notdef
 /.notdef
 /.notdef
 /.notdef
 /.notdef
 /.notdef
 /.notdef
 /.notdef
 /.notdef
 /.notdef
 /.notdef
 /.notdef
 /space
 /exclam
 /quotedbl
 /numbersign
 /dollar
 /percent
 /ampersand
 /quoteright
 /parenleft
 /parenright
 /asterisk
 /plus
 /comma
 /hyphen
 /period
 /slash
 /zero
 /one
 /two
 /three
 /four
 /five
 /six
 /seven
 /eight
 /nine
 /colon
 /semicolon
 /less
 /equal
 /greater
 /question
 /at
 /A
 /B
 /C
 /D
 /E
 /F
 /G
 /H
 /I
 /J
 /K
 /L
 /M
 /N
 /O
 /P
 /Q
 /R
 /S
 /T
 /U
 /V
 /W
 /X
 /Y
 /Z
 /bracketleft
 /backslash
 /bracketright
 /asciicircum
 /underscore
 /grave
 /a
 /b
 /c
 /d
 /e
 /f
 /g
 /h
 /i
 /j
 /k
 /l
 /m
 /n
 /o
 /p
 /q
 /r
 /s
 /t
 /u
 /v
 /w
 /x
 /y
 /z
 /braceleft
 /bar
 /braceright
 /asciitilde
 /.notdef
 /.notdef
 /.notdef
 /.notdef
 /.notdef
 /.notdef
 /.notdef
 /.notdef
 /.notdef
 /.notdef
 /.notdef
 /.notdef
 /.notdef
 /.notdef
 /.notdef
 /.notdef
 /.notdef
 /.notdef
 /.notdef
 /.notdef
 /.notdef
 /.notdef
 /.notdef
 /.notdef
 /.notdef
 /.notdef
 /.notdef
 /.notdef
 /.notdef
 /.notdef
 /.notdef
 /.notdef
 /.notdef
 /space
 /exclamdown
 /cent
 /sterling
 /currency
 /yen
 /brokenbar
 /section
 /dieresis
 /copyright
 /ordfeminine
 /guillemotleft
 /logicalnot
 /hyphen
 /registered
 /macron
 /degree
 /plusminus
 /twosuperior
 /threesuperior
 /acute
 /mu
 /paragraph
 /periodcentered
 /cedilla
 /onesuperior
 /ordmasculine
 /guillemotright
 /onequarter
 /onehalf
 /threequarters
 /questiondown
 /Agrave
 /Aacute
 /Acircumflex
 /Atilde
 /Adieresis
 /Aring
 /AE
 /Ccedilla
 /Egrave
 /Eacute
 /Ecircumflex
 /Edieresis
 /Igrave
 /Iacute
 /Icircumflex
 /Idieresis
 /Eth
 /Ntilde
 /Ograve
 /Oacute
 /Ocircumflex
 /Otilde
 /Odieresis
 /multiply
 /Oslash
 /Ugrave
 /Uacute
 /Ucircumflex
 /Udieresis
 /Yacute
 /Thorn
 /germandbls
 /agrave
 /aacute
 /acircumflex
 /atilde
 /adieresis
 /aring
 /ae
 /ccedilla
 /egrave
 /eacute
 /ecircumflex
 /edieresis
 /igrave
 /iacute
 /icircumflex
 /idieresis
 /eth
 /ntilde
 /ograve
 /oacute
 /ocircumflex
 /otilde
 /odieresis
 /divide
 /oslash
 /ugrave
 /uacute
 /ucircumflex
 /udieresis
 /yacute
 /thorn
 /ydieresis
] def
%%EndProlog
%%BeginSetup
%%EndSetup
612.00 612.00 scale
[/DeviceRGB] SCS
Color1 SC
[] 0 SD
0.0037 SLW
n 0.1909 0.1825 0.0100 0.0100 0 360 EARC s
n 0.2282 0.2059 0.0100 0.0100 0 360 EARC s
n 0.2628 0.2242 0.0100 0.0100 0 360 EARC s
n 0.3081 0.2476 0.0100 0.0100 0 360 EARC s
n 0.3373 0.2628 0.0100 0.0100 0 360 EARC s
n 0.3800 0.2811 0.0100 0.0100 0 360 EARC s
n 0.4093 0.2984 0.0100 0.0100 0 360 EARC s
n 0.4384 0.3248 0.0100 0.0100 0 360 EARC s
n 0.4970 0.3584 0.0100 0.0100 0 360 EARC s
n 0.5449 0.3838 0.0100 0.0100 0 360 EARC s
n 0.5901 0.4112 0.0100 0.0100 0 360 EARC s
n 0.6514 0.4346 0.0100 0.0100 0 360 EARC s
n 0.7262 0.4550 0.0100 0.0100 0 360 EARC s
n 0.8118 0.4683 0.0100 0.0100 0 360 EARC s
n 0.8920 0.4775 0.0100 0.0100 0 360 EARC s
n 0.9803 0.4867 0.0100 0.0100 0 360 EARC s
n 1.0659 0.4939 0.0100 0.0100 0 360 EARC s
[] 0 SD
0.0053 SLW
0 SLC
0 SLJ
n
0.1500 0.1506 m
0.1500 0.1511 l
0.1500 0.1516 l
0.1500 0.1522 l
0.1500 0.1527 l
0.1500 0.1532 l
0.1500 0.1537 l
0.1500 0.1542 l
0.1500 0.1546 l
0.1500 0.1551 l
0.1500 0.1556 l
0.1501 0.1560 l
0.1501 0.1565 l
0.1501 0.1569 l
0.1501 0.1573 l
0.1501 0.1577 l
0.1502 0.1581 l
0.1502 0.1585 l
0.1502 0.1589 l
0.1503 0.1593 l
0.1503 0.1596 l
0.1504 0.1600 l
0.1504 0.1603 l
0.1505 0.1607 l
0.1505 0.1610 l
0.1506 0.1613 l
0.1507 0.1617 l
0.1507 0.1620 l
0.1508 0.1623 l
0.1509 0.1626 l
0.1510 0.1629 l
0.1511 0.1631 l
0.1512 0.1634 l
0.1513 0.1637 l
0.1514 0.1640 l
0.1516 0.1642 l
0.1517 0.1645 l
0.1519 0.1647 l
0.1520 0.1650 l
0.1522 0.1652 l
0.1523 0.1654 l
0.1525 0.1657 l
0.1527 0.1659 l
0.1529 0.1661 l
0.1531 0.1663 l
0.1533 0.1665 l
0.1535 0.1667 l
0.1537 0.1669 l
0.1540 0.1671 l
0.1542 0.1673 l
0.1545 0.1675 l
0.1547 0.1677 l
0.1550 0.1679 l
0.1553 0.1681 l
0.1556 0.1683 l
0.1559 0.1685 l
0.1563 0.1686 l
0.1566 0.1688 l
0.1569 0.1690 l
0.1573 0.1692 l
0.1577 0.1694 l
0.1580 0.1696 l
0.1584 0.1698 l
0.1589 0.1700 l
0.1593 0.1702 l
0.1597 0.1704 l
0.1602 0.1706 l
0.1606 0.1708 l
0.1611 0.1710 l
0.1616 0.1712 l
0.1621 0.1714 l
0.1626 0.1717 l
0.1631 0.1719 l
0.1637 0.1722 l
0.1642 0.1724 l
0.1648 0.1727 l
0.1654 0.1729 l
0.1660 0.1732 l
0.1667 0.1735 l
0.1673 0.1738 l
0.1679 0.1741 l
0.1686 0.1744 l
0.1693 0.1748 l
0.1700 0.1751 l
0.1707 0.1755 l
0.1715 0.1758 l
0.1722 0.1762 l
0.1730 0.1766 l
0.1738 0.1770 l
0.1746 0.1774 l
0.1755 0.1779 l
0.1763 0.1783 l
0.1772 0.1788 l
0.1781 0.1792 l
0.1790 0.1797 l
0.1799 0.1802 l
0.1808 0.1808 l
0.1818 0.1813 l
0.1828 0.1819 l
0.1838 0.1824 l
0.1848 0.1830 l
0.1858 0.1836 l
0.1869 0.1843 l
0.1880 0.1849 l
0.1891 0.1856 l
0.1902 0.1862 l
0.1914 0.1869 l
0.1925 0.1876 l
0.1937 0.1884 l
0.1950 0.1891 l
0.1962 0.1899 l
0.1974 0.1907 l
0.1987 0.1915 l
0.2000 0.1923 l
0.2014 0.1931 l
0.2027 0.1940 l
0.2041 0.1948 l
0.2055 0.1957 l
0.2069 0.1966 l
0.2084 0.1976 l
0.2098 0.1985 l
0.2113 0.1995 l
0.2128 0.2005 l
0.2144 0.2014 l
0.2160 0.2025 l
0.2176 0.2035 l
0.2192 0.2046 l
0.2208 0.2056 l
0.2225 0.2067 l
0.2242 0.2078 l
0.2259 0.2090 l
0.2277 0.2101 l
0.2295 0.2113 l
0.2313 0.2124 l
0.2331 0.2136 l
0.2350 0.2149 l
0.2368 0.2161 l
0.2388 0.2174 l
0.2407 0.2186 l
0.2427 0.2199 l
0.2447 0.2212 l
0.2467 0.2226 l
0.2488 0.2239 l
0.2508 0.2253 l
0.2530 0.2267 l
0.2551 0.2281 l
0.2573 0.2295 l
0.2595 0.2309 l
0.2617 0.2324 l
0.2640 0.2338 l
0.2663 0.2353 l
0.2686 0.2369 l
0.2710 0.2384 l
0.2734 0.2399 l
0.2758 0.2415 l
0.2782 0.2431 l
0.2807 0.2447 l
0.2832 0.2463 l
0.2858 0.2479 l
0.2883 0.2496 l
0.2909 0.2513 l
0.2936 0.2530 l
0.2963 0.2547 l
0.2990 0.2564 l
0.3017 0.2582 l
0.3045 0.2599 l
0.3073 0.2617 l
0.3101 0.2635 l
0.3130 0.2653 l
0.3159 0.2672 l
0.3189 0.2690 l
0.3219 0.2709 l
0.3249 0.2728 l
0.3279 0.2747 l
0.3310 0.2766 l
0.3341 0.2786 l
0.3373 0.2805 l
0.3405 0.2825 l
0.3437 0.2845 l
0.3470 0.2865 l
0.3503 0.2886 l
0.3536 0.2906 l
0.3570 0.2927 l
0.3604 0.2948 l
0.3638 0.2969 l
0.3673 0.2990 l
0.3709 0.3011 l
0.3744 0.3033 l
0.3780 0.3055 l
0.3817 0.3076 l
0.3853 0.3098 l
0.3890 0.3121 l
0.3928 0.3143 l
0.3966 0.3166 l
0.4004 0.3188 l
0.4043 0.3211 l
0.4082 0.3234 l
0.4122 0.3257 l
0.4162 0.3281 l
0.4202 0.3304 l
0.4243 0.3328 l
0.4284 0.3351 l
0.4325 0.3375 l
0.4367 0.3399 l
0.4410 0.3424 l
0.4452 0.3448 l
0.4496 0.3473 l
0.4539 0.3497 l
0.4583 0.3522 l
0.4628 0.3547 l
0.4673 0.3572 l
0.4718 0.3597 l
0.4764 0.3623 l
0.4810 0.3648 l
0.4857 0.3674 l
0.4904 0.3700 l
0.4951 0.3725 l
0.4999 0.3751 l
0.5047 0.3778 l
0.5096 0.3804 l
0.5145 0.3830 l
0.5195 0.3857 l
0.5245 0.3883 l
0.5296 0.3910 l
0.5347 0.3937 l
0.5399 0.3964 l
0.5451 0.3991 l
0.5503 0.4018 l
0.5556 0.4045 l
0.5609 0.4072 l
0.5663 0.4100 l
0.5717 0.4127 l
0.5772 0.4155 l
0.5827 0.4182 l
0.5883 0.4210 l
0.5939 0.4238 l
0.5996 0.4266 l
0.6053 0.4294 l
0.6111 0.4321 l
0.6169 0.4350 l
0.6227 0.4378 l
0.6287 0.4406 l
0.6346 0.4434 l
0.6406 0.4462 l
0.6467 0.4490 l
0.6528 0.4519 l
0.6589 0.4547 l
0.6652 0.4575 l
0.6714 0.4603 l
0.6777 0.4632 l
0.6841 0.4660 l
0.6905 0.4688 l
0.6969 0.4717 l
0.7035 0.4745 l
0.7100 0.4773 l
0.7166 0.4802 l
0.7233 0.4830 l
0.7300 0.4858 l
0.7368 0.4886 l
0.7436 0.4914 l
0.7505 0.4942 l
0.7574 0.4970 l
0.7644 0.4998 l
0.7714 0.5026 l
0.7785 0.5054 l
0.7857 0.5082 l
0.7929 0.5109 l
0.8001 0.5137 l
0.8074 0.5164 l
0.8148 0.5191 l
0.8222 0.5218 l
0.8297 0.5245 l
0.8372 0.5272 l
0.8448 0.5298 l
0.8524 0.5325 l
0.8601 0.5351 l
0.8678 0.5377 l
0.8756 0.5403 l
0.8835 0.5429 l
0.8914 0.5454 l
0.8994 0.5479 l
0.9074 0.5504 l
0.9155 0.5529 l
0.9236 0.5553 l
0.9318 0.5577 l
0.9401 0.5601 l
0.9484 0.5625 l
0.9568 0.5648 l
0.9652 0.5671 l
0.9737 0.5693 l
0.9823 0.5716 l
0.9909 0.5737 l
0.9995 0.5759 l
1.0083 0.5780 l
1.0171 0.5800 l
1.0259 0.5820 l
1.0348 0.5840 l
1.0438 0.5859 l
1.0528 0.5878 l
1.0619 0.5896 l
1.0710 0.5914 l
1.0803 0.5931 l
1.0895 0.5947 l
1.0989 0.5963 l
1.1082 0.5978 l
1.1177 0.5993 l
1.1272 0.6007 l
1.1368 0.6020 l
1.1464 0.6033 l
1.1501 0.6037 l
s
[/DeviceRGB] SCS
Color3 SC
[0.0187 0.0112 ] 0 SD
0.0037 SLW
n
0.1633 0.1500 m
0.1766 0.1500 l
0.1899 0.1500 l
0.2032 0.1500 l
0.2165 0.1500 l
0.2298 0.1500 l
0.2431 0.1565 l
0.2564 0.1656 l
0.2697 0.1720 l
0.2830 0.1775 l
0.2963 0.1826 l
0.3096 0.1875 l
0.3229 0.1922 l
0.3362 0.1968 l
0.3495 0.2013 l
0.3628 0.2057 l
0.3761 0.2100 l
0.3894 0.2143 l
0.4028 0.2185 l
0.4161 0.2227 l
0.4294 0.2268 l
0.4427 0.2309 l
0.4560 0.2350 l
0.4693 0.2390 l
0.4826 0.2430 l
0.4959 0.2470 l
0.5092 0.2509 l
0.5225 0.2548 l
0.5358 0.2587 l
0.5491 0.2626 l
0.5624 0.2664 l
0.5757 0.2703 l
0.5890 0.2741 l
0.6023 0.2778 l
0.6156 0.2816 l
0.6289 0.2854 l
0.6422 0.2891 l
0.6555 0.2928 l
0.6688 0.2965 l
0.6821 0.3002 l
0.6954 0.3039 l
0.7087 0.3075 l
0.7220 0.3112 l
0.7353 0.3148 l
0.7486 0.3184 l
0.7619 0.3220 l
0.7752 0.3256 l
0.7885 0.3292 l
0.8018 0.3327 l
0.8151 0.3363 l
0.8284 0.3398 l
0.8417 0.3433 l
0.8550 0.3468 l
0.8683 0.3503 l
0.8816 0.3538 l
0.8950 0.3573 l
0.9083 0.3608 l
0.9216 0.3642 l
0.9349 0.3677 l
0.9482 0.3711 l
0.9615 0.3745 l
0.9748 0.3779 l
0.9881 0.3813 l
1.0014 0.3847 l
1.0147 0.3881 l
1.0280 0.3915 l
1.0413 0.3948 l
1.0546 0.3982 l
1.0679 0.4015 l
1.0812 0.4049 l
1.0945 0.4082 l
1.1078 0.4115 l
1.1211 0.4148 l
1.1344 0.4181 l
1.1477 0.4214 l
1.1501 0.4220 l
s
[/DeviceRGB] SCS
Color4 SC
n
0.1633 0.1500 m
0.1766 0.1500 l
0.1899 0.1500 l
0.2032 0.1500 l
0.2165 0.1500 l
0.2298 0.1574 l
0.2431 0.1687 l
0.2564 0.1767 l
0.2697 0.1838 l
0.2830 0.1906 l
0.2963 0.1970 l
0.3096 0.2033 l
0.3229 0.2095 l
0.3362 0.2156 l
0.3495 0.2216 l
0.3628 0.2276 l
0.3762 0.2335 l
0.3895 0.2394 l
0.4028 0.2452 l
0.4161 0.2510 l
0.4294 0.2568 l
0.4427 0.2626 l
0.4560 0.2683 l
0.4693 0.2740 l
0.4826 0.2797 l
0.4959 0.2854 l
0.5092 0.2911 l
0.5225 0.2967 l
0.5358 0.3023 l
0.5491 0.3080 l
0.5624 0.3136 l
0.5757 0.3192 l
0.5890 0.3247 l
0.6023 0.3303 l
0.6156 0.3359 l
0.6289 0.3414 l
0.6422 0.3470 l
0.6555 0.3525 l
0.6688 0.3580 l
0.6821 0.3635 l
0.6954 0.3691 l
0.7087 0.3746 l
0.7220 0.3800 l
0.7353 0.3855 l
0.7486 0.3910 l
0.7619 0.3965 l
0.7752 0.4019 l
0.7885 0.4074 l
0.8018 0.4128 l
0.8152 0.4182 l
0.8285 0.4237 l
0.8418 0.4291 l
0.8551 0.4345 l
0.8684 0.4399 l
0.8817 0.4453 l
0.8950 0.4507 l
0.9083 0.4561 l
0.9216 0.4615 l
0.9349 0.4669 l
0.9482 0.4723 l
0.9615 0.4776 l
0.9748 0.4830 l
0.9881 0.4884 l
1.0014 0.4937 l
1.0147 0.4991 l
1.0280 0.5044 l
1.0413 0.5097 l
1.0546 0.5151 l
1.0679 0.5204 l
1.0812 0.5257 l
1.0945 0.5311 l
1.1078 0.5364 l
1.1211 0.5417 l
1.1344 0.5470 l
1.1477 0.5523 l
1.1501 0.5532 l
s
[/DeviceRGB] SCS
Color15 SC
n
0.1632 0.1500 m
0.1764 0.1500 l
0.1895 0.1500 l
0.2027 0.1500 l
0.2159 0.1500 l
0.2291 0.1686 l
0.2423 0.1795 l
0.2555 0.1890 l
0.2686 0.1980 l
0.2818 0.2066 l
0.2950 0.2150 l
0.3082 0.2232 l
0.3214 0.2314 l
0.3346 0.2395 l
0.3477 0.2475 l
0.3609 0.2555 l
0.3741 0.2635 l
0.3873 0.2714 l
0.4005 0.2793 l
0.4137 0.2871 l
0.4268 0.2950 l
0.4400 0.3028 l
0.4532 0.3106 l
0.4664 0.3184 l
0.4796 0.3262 l
0.4928 0.3340 l
0.5059 0.3417 l
0.5191 0.3495 l
0.5323 0.3572 l
0.5455 0.3649 l
0.5587 0.3726 l
0.5719 0.3803 l
0.5850 0.3880 l
0.5982 0.3957 l
0.6114 0.4033 l
0.6246 0.4110 l
0.6378 0.4186 l
0.6510 0.4263 l
0.6641 0.4339 l
0.6773 0.4416 l
0.6905 0.4492 l
0.7037 0.4568 l
0.7169 0.4644 l
0.7301 0.4720 l
0.7432 0.4796 l
0.7564 0.4872 l
0.7696 0.4948 l
0.7828 0.5024 l
0.7960 0.5099 l
0.8091 0.5175 l
0.8223 0.5251 l
0.8355 0.5326 l
0.8487 0.5402 l
0.8619 0.5477 l
0.8751 0.5553 l
0.8882 0.5628 l
0.9014 0.5704 l
0.9146 0.5779 l
0.9278 0.5854 l
0.9410 0.5929 l
0.9542 0.6005 l
0.9673 0.6080 l
0.9805 0.6155 l
0.9937 0.6230 l
1.0069 0.6305 l
1.0201 0.6380 l
1.0333 0.6455 l
1.0464 0.6529 l
1.0596 0.6604 l
1.0728 0.6679 l
1.0860 0.6754 l
1.0992 0.6829 l
1.1124 0.6903 l
1.1255 0.6978 l
1.1387 0.7052 l
1.1501 0.7117 l
s
[/DeviceRGB] SCS
Color12 SC
[0.0037 0.0112 0.0187 0.0112 ] 0 SD
0.0037 SLW
n
0.1500 0.1506 m
0.1500 0.1511 l
0.1500 0.1516 l
0.1500 0.1522 l
0.1500 0.1527 l
0.1500 0.1532 l
0.1500 0.1536 l
0.1500 0.1541 l
0.1500 0.1546 l
0.1500 0.1550 l
0.1500 0.1555 l
0.1501 0.1559 l
0.1501 0.1563 l
0.1501 0.1567 l
0.1501 0.1571 l
0.1501 0.1575 l
0.1502 0.1579 l
0.1502 0.1583 l
0.1502 0.1586 l
0.1503 0.1590 l
0.1503 0.1593 l
0.1504 0.1597 l
0.1504 0.1600 l
0.1505 0.1603 l
0.1505 0.1606 l
0.1506 0.1610 l
0.1507 0.1613 l
0.1507 0.1616 l
0.1508 0.1618 l
0.1509 0.1621 l
0.1510 0.1624 l
0.1511 0.1627 l
0.1512 0.1630 l
0.1513 0.1632 l
0.1514 0.1635 l
0.1516 0.1637 l
0.1517 0.1640 l
0.1519 0.1642 l
0.1520 0.1645 l
0.1522 0.1647 l
0.1523 0.1650 l
0.1525 0.1652 l
0.1527 0.1654 l
0.1529 0.1657 l
0.1531 0.1659 l
0.1533 0.1661 l
0.1535 0.1664 l
0.1537 0.1666 l
0.1540 0.1668 l
0.1542 0.1670 l
0.1545 0.1673 l
0.1547 0.1675 l
0.1550 0.1677 l
0.1553 0.1680 l
0.1556 0.1682 l
0.1559 0.1684 l
0.1563 0.1687 l
0.1566 0.1689 l
0.1569 0.1692 l
0.1573 0.1694 l
0.1577 0.1697 l
0.1580 0.1699 l
0.1584 0.1702 l
0.1589 0.1705 l
0.1593 0.1707 l
0.1597 0.1710 l
0.1602 0.1713 l
0.1606 0.1716 l
0.1611 0.1719 l
0.1616 0.1722 l
0.1621 0.1725 l
0.1626 0.1728 l
0.1631 0.1732 l
0.1637 0.1735 l
0.1642 0.1738 l
0.1648 0.1742 l
0.1654 0.1746 l
0.1660 0.1749 l
0.1667 0.1753 l
0.1673 0.1757 l
0.1679 0.1761 l
0.1686 0.1765 l
0.1693 0.1769 l
0.1700 0.1774 l
0.1707 0.1778 l
0.1715 0.1782 l
0.1722 0.1787 l
0.1730 0.1792 l
0.1738 0.1797 l
0.1746 0.1802 l
0.1755 0.1807 l
0.1763 0.1812 l
0.1772 0.1817 l
0.1781 0.1823 l
0.1790 0.1828 l
0.1799 0.1834 l
0.1808 0.1839 l
0.1818 0.1845 l
0.1828 0.1851 l
0.1838 0.1857 l
0.1848 0.1864 l
0.1858 0.1870 l
0.1869 0.1876 l
0.1880 0.1883 l
0.1891 0.1890 l
0.1902 0.1896 l
0.1914 0.1903 l
0.1925 0.1910 l
0.1937 0.1917 l
0.1950 0.1925 l
0.1962 0.1932 l
0.1974 0.1940 l
0.1987 0.1947 l
0.2000 0.1955 l
0.2014 0.1963 l
0.2027 0.1971 l
0.2041 0.1979 l
0.2055 0.1987 l
0.2069 0.1995 l
0.2084 0.2004 l
0.2098 0.2012 l
0.2113 0.2021 l
0.2128 0.2030 l
0.2144 0.2039 l
0.2160 0.2048 l
0.2176 0.2057 l
0.2192 0.2066 l
0.2208 0.2075 l
0.2225 0.2085 l
0.2242 0.2095 l
0.2259 0.2104 l
0.2277 0.2114 l
0.2295 0.2124 l
0.2313 0.2134 l
0.2331 0.2144 l
0.2350 0.2154 l
0.2368 0.2165 l
0.2388 0.2175 l
0.2407 0.2186 l
0.2427 0.2197 l
0.2447 0.2207 l
0.2467 0.2218 l
0.2488 0.2229 l
0.2508 0.2241 l
0.2530 0.2252 l
0.2551 0.2263 l
0.2573 0.2275 l
0.2595 0.2286 l
0.2617 0.2298 l
0.2640 0.2310 l
0.2663 0.2322 l
0.2686 0.2334 l
0.2710 0.2346 l
0.2734 0.2358 l
0.2758 0.2371 l
0.2782 0.2383 l
0.2807 0.2396 l
0.2832 0.2408 l
0.2858 0.2421 l
0.2883 0.2434 l
0.2909 0.2447 l
0.2936 0.2460 l
0.2963 0.2473 l
0.2990 0.2487 l
0.3017 0.2500 l
0.3045 0.2514 l
0.3073 0.2527 l
0.3101 0.2541 l
0.3130 0.2555 l
0.3159 0.2569 l
0.3189 0.2583 l
0.3219 0.2597 l
0.3249 0.2612 l
0.3279 0.2626 l
0.3310 0.2640 l
0.3341 0.2655 l
0.3373 0.2670 l
0.3405 0.2685 l
0.3437 0.2699 l
0.3470 0.2714 l
0.3503 0.2730 l
0.3536 0.2745 l
0.3570 0.2760 l
0.3604 0.2776 l
0.3638 0.2791 l
0.3673 0.2807 l
0.3709 0.2823 l
0.3744 0.2838 l
0.3780 0.2854 l
0.3817 0.2870 l
0.3853 0.2887 l
0.3890 0.2903 l
0.3928 0.2919 l
0.3966 0.2936 l
0.4004 0.2952 l
0.4043 0.2969 l
0.4082 0.2986 l
0.4122 0.3003 l
0.4162 0.3020 l
0.4202 0.3037 l
0.4243 0.3054 l
0.4284 0.3071 l
0.4325 0.3089 l
0.4367 0.3106 l
0.4410 0.3124 l
0.4452 0.3142 l
0.4496 0.3160 l
0.4539 0.3177 l
0.4583 0.3196 l
0.4628 0.3214 l
0.4673 0.3232 l
0.4718 0.3250 l
0.4764 0.3269 l
0.4810 0.3287 l
0.4857 0.3306 l
0.4904 0.3325 l
0.4951 0.3344 l
0.4999 0.3362 l
0.5047 0.3382 l
0.5096 0.3401 l
0.5145 0.3420 l
0.5195 0.3439 l
0.5245 0.3459 l
0.5296 0.3478 l
0.5347 0.3498 l
0.5399 0.3518 l
0.5451 0.3538 l
0.5503 0.3558 l
0.5556 0.3578 l
0.5609 0.3598 l
0.5663 0.3618 l
0.5717 0.3639 l
0.5772 0.3659 l
0.5827 0.3680 l
0.5883 0.3700 l
0.5939 0.3721 l
0.5996 0.3742 l
0.6053 0.3763 l
0.6111 0.3784 l
0.6169 0.3805 l
0.6227 0.3827 l
0.6287 0.3848 l
0.6346 0.3870 l
0.6406 0.3891 l
0.6467 0.3913 l
0.6528 0.3935 l
0.6589 0.3957 l
0.6652 0.3979 l
0.6714 0.4001 l
0.6777 0.4023 l
0.6841 0.4045 l
0.6905 0.4068 l
0.6969 0.4090 l
0.7035 0.4113 l
0.7100 0.4136 l
0.7166 0.4159 l
0.7233 0.4181 l
0.7300 0.4205 l
0.7368 0.4228 l
0.7436 0.4251 l
0.7505 0.4274 l
0.7574 0.4298 l
0.7644 0.4321 l
0.7714 0.4345 l
0.7785 0.4369 l
0.7857 0.4392 l
0.7929 0.4416 l
0.8001 0.4440 l
0.8074 0.4465 l
0.8148 0.4489 l
0.8222 0.4513 l
0.8297 0.4538 l
0.8372 0.4562 l
0.8448 0.4587 l
0.8524 0.4612 l
0.8601 0.4637 l
0.8678 0.4662 l
0.8756 0.4687 l
0.8835 0.4712 l
0.8914 0.4737 l
0.8994 0.4762 l
0.9074 0.4788 l
0.9155 0.4813 l
0.9236 0.4839 l
0.9318 0.4865 l
0.9401 0.4891 l
0.9484 0.4917 l
0.9568 0.4943 l
0.9652 0.4969 l
0.9737 0.4995 l
0.9823 0.5022 l
0.9909 0.5048 l
0.9995 0.5075 l
1.0083 0.5102 l
1.0171 0.5128 l
1.0259 0.5155 l
1.0348 0.5182 l
1.0438 0.5209 l
1.0528 0.5237 l
1.0619 0.5264 l
1.0710 0.5291 l
1.0803 0.5319 l
1.0895 0.5346 l
1.0989 0.5374 l
1.1082 0.5402 l
1.1177 0.5430 l
1.1272 0.5458 l
1.1368 0.5486 l
1.1464 0.5514 l
1.1501 0.5525 l
s
[/DeviceRGB] SCS
Color1 SC
[] 0 SD
0.0045 SLW
n
0.1500 0.1500 m
1.1500 0.1500 l
s
n
0.1500 0.8500 m
1.1500 0.8500 l
s
n
0.2500 0.1500 m
0.2500 0.1600 l
s
n
0.2500 0.8500 m
0.2500 0.8400 l
s
n
0.4500 0.1500 m
0.4500 0.1600 l
s
n
0.4500 0.8500 m
0.4500 0.8400 l
s
n
0.6500 0.1500 m
0.6500 0.1600 l
s
n
0.6500 0.8500 m
0.6500 0.8400 l
s
n
0.8500 0.1500 m
0.8500 0.1600 l
s
n
0.8500 0.8500 m
0.8500 0.8400 l
s
n
1.0500 0.1500 m
1.0500 0.1600 l
s
n
1.0500 0.8500 m
1.0500 0.8400 l
s
n
0.1500 0.1500 m
0.1500 0.1700 l
s
n
0.1500 0.8500 m
0.1500 0.8300 l
s
n
0.3500 0.1500 m
0.3500 0.1700 l
s
n
0.3500 0.8500 m
0.3500 0.8300 l
s
n
0.5500 0.1500 m
0.5500 0.1700 l
s
n
0.5500 0.8500 m
0.5500 0.8300 l
s
n
0.7500 0.1500 m
0.7500 0.1700 l
s
n
0.7500 0.8500 m
0.7500 0.8300 l
s
n
0.9500 0.1500 m
0.9500 0.1700 l
s
n
0.9500 0.8500 m
0.9500 0.8300 l
s
n
1.1500 0.1500 m
1.1500 0.1700 l
s
n
1.1500 0.8500 m
1.1500 0.8300 l
s
/Times-Roman findfont
dup length dict begin
 {1 index /FID ne {def} {pop pop} ifelse} forall
 /Encoding DefEncoding def
 currentdict
end
/Font0 exch definefont pop
/Font0 FFSF
0.1394 0.1094 m
GS
[0.0448 0.0000 0.0000 0.0448 0 0] CC
(0) show
GR
/Font0 FFSF
0.3225 0.1094 m
GS
[0.0448 0.0000 0.0000 0.0448 0 0] CC
(0.2) show
GR
/Font0 FFSF
0.5225 0.1094 m
GS
[0.0448 0.0000 0.0000 0.0448 0 0] CC
(0.4) show
GR
/Font0 FFSF
0.7227 0.1094 m
GS
[0.0448 0.0000 0.0000 0.0448 0 0] CC
(0.6) show
GR
/Font0 FFSF
0.9231 0.1094 m
GS
[0.0448 0.0000 0.0000 0.0448 0 0] CC
(0.8) show
GR
/Font0 FFSF
1.1412 0.1094 m
GS
[0.0448 0.0000 0.0000 0.0448 0 0] CC
(1) show
GR
/Times-Italic findfont
dup length dict begin
 {1 index /FID ne {def} {pop pop} ifelse} forall
 /Encoding DefEncoding def
 currentdict
end
/Font1 exch definefont pop
/Font1 FFSF
0.5735 0.0445 m
GS
[0.0504 0.0000 0.0000 0.0504 0 0] CC
(n) show
GR
/Font0 FFSF
0.5986 0.0445 m
GS
[0.0504 0.0000 0.0000 0.0504 0 0] CC
( [fm) show
GR
/Font0 FFSF
0.6841 0.0747 m
GS
[0.0356 0.0000 0.0000 0.0356 0 0] CC
(-3) show
GR
/Font0 FFSF
0.7139 0.0445 m
GS
[0.0504 0.0000 0.0000 0.0504 0 0] CC
(]) show
GR
n
0.1500 0.1500 m
0.1500 0.8500 l
s
n
1.1500 0.1500 m
1.1500 0.8500 l
s
n
0.1500 0.2667 m
0.1600 0.2667 l
s
n
1.1500 0.2667 m
1.1400 0.2667 l
s
n
0.1500 0.5000 m
0.1600 0.5000 l
s
n
1.1500 0.5000 m
1.1400 0.5000 l
s
n
0.1500 0.7333 m
0.1600 0.7333 l
s
n
1.1500 0.7333 m
1.1400 0.7333 l
s
n
0.1500 0.1500 m
0.1700 0.1500 l
s
n
1.1500 0.1500 m
1.1300 0.1500 l
s
n
0.1500 0.3833 m
0.1700 0.3833 l
s
n
1.1500 0.3833 m
1.1300 0.3833 l
s
n
0.1500 0.6167 m
0.1700 0.6167 l
s
n
1.1500 0.6167 m
1.1300 0.6167 l
s
n
0.1500 0.8500 m
0.1700 0.8500 l
s
n
1.1500 0.8500 m
1.1300 0.8500 l
s
/Font0 FFSF
0.1188 0.1351 m
GS
[0.0448 0.0000 0.0000 0.0448 0 0] CC
(0) show
GR
/Font0 FFSF
0.0867 0.3682 m
GS
[0.0448 0.0000 0.0000 0.0448 0 0] CC
(0.5) show
GR
/Font0 FFSF
0.1224 0.6014 m
GS
[0.0448 0.0000 0.0000 0.0448 0 0] CC
(1) show
GR
/Font0 FFSF
0.0867 0.8349 m
GS
[0.0448 0.0000 0.0000 0.0448 0 0] CC
(1.5) show
GR
/Font0 FFSF
0.0561 0.4631 m
GS
[0.0000 0.0504 -0.0504 0.0000 0 0] CC
(v) show
GR
/Font0 FFSF
0.0763 0.4882 m
GS
[0.0000 0.0356 -0.0356 0.0000 0 0] CC
(s) show
GR
/Font0 FFSF
0.0561 0.5020 m
GS
[0.0000 0.0504 -0.0504 0.0000 0 0] CC
(/c) show
GR
[] 0 SD
0.0015 SLW
n
0.1500 0.1500 m
0.1500 0.8500 l
1.1500 0.8500 l
1.1500 0.1500 l
0.1500 0.1500 l
c
s
[0.0187 0.0112 ] 0 SD
0.0037 SLW
n
1.1500 0.6167 m
0.1500 0.6167 l
s
n
0.1500 0.8500 m
0.1500 0.5671 l
0.4142 0.5671 l
0.4142 0.8500 l
c
[/DeviceRGB] SCS
Color0 SC
fill
[/DeviceRGB] SCS
Color1 SC
[] 0 SD
0.0045 SLW
n
0.1500 0.8500 m
0.1500 0.5671 l
0.4142 0.5671 l
0.4142 0.8500 l
0.1500 0.8500 l
c
s
/Font0 FFSF
0.2426 0.8055 m
GS
[0.0510 0.0000 0.0000 0.0510 0 0] CC
(BBG) show
GR
[] 0 SD
0.0037 SLW
n 0.1926 0.8224 0.0100 0.0100 0 360 EARC s
/Font0 FFSF
0.2426 0.7602 m
GS
[0.0510 0.0000 0.0000 0.0510 0 0] CC
(LYVA1) show
GR
[] 0 SD
0.0053 SLW
n
0.1626 0.7773 m
0.2226 0.7773 l
s
/Font0 FFSF
0.2426 0.7149 m
GS
[0.0510 0.0000 0.0000 0.0510 0 0] CC
(BSk19) show
GR
[/DeviceRGB] SCS
Color3 SC
[0.0187 0.0112 ] 0 SD
0.0037 SLW
n
0.1626 0.7318 m
0.2226 0.7318 l
s
/Font0 FFSF
[/DeviceRGB] SCS
Color1 SC
0.2426 0.6688 m
GS
[0.0510 0.0000 0.0000 0.0510 0 0] CC
(BSk20) show
GR
[/DeviceRGB] SCS
Color4 SC
n
0.1626 0.6859 m
0.2226 0.6859 l
s
/Font0 FFSF
[/DeviceRGB] SCS
Color1 SC
0.2426 0.6231 m
GS
[0.0510 0.0000 0.0000 0.0510 0 0] CC
(BSk21) show
GR
[/DeviceRGB] SCS
Color15 SC
n
0.1626 0.6402 m
0.2226 0.6402 l
s
/Font0 FFSF
[/DeviceRGB] SCS
Color1 SC
0.2426 0.5778 m
GS
[0.0510 0.0000 0.0000 0.0510 0 0] CC
(LNS) show
GR
[/DeviceRGB] SCS
Color12 SC
[0.0037 0.0112 0.0187 0.0112 ] 0 SD
0.0037 SLW
n
0.1626 0.5947 m
0.2226 0.5947 l
s
[/DeviceRGB] SCS
Color1 SC
[] 0 SD
0.0015 SLW
n
0.1608 0.6144 m
0.1608 0.6144 l
s
%%Trailer
%%BoundingBox: 12 21 711 531
%%DocumentNeededResources: font Times-Roman
%%+ font Times-Italic
%%EOF
