%!PS-Adobe-3.0
%%BoundingBox: 0 0 612 792
%%LanguageLevel: 2
%%Creator: Grace-5.1.25
%%CreationDate: Mon Oct 31 15:13:12 2016
%%DocumentData: Clean8Bit
%%Orientation: Landscape
%%Pages: 1
%%PageOrder: Ascend
%%Title: /Users/ap1450/Dropbox/Physics_Reports_LR/Zakopane/After_referee/plot/Eos_decomposed_D1S.agr
%%For: ap1450
%%DocumentNeededResources: (atend)
%%EndComments
%%BeginProlog
/PAGE_OFFSET_X 0 def
/PAGE_OFFSET_Y 0 def
/m {moveto} def
/l {lineto} def
/s {stroke} def
/n {newpath} def
/c {closepath} def
/RL {rlineto} def
/SLW {setlinewidth} def
/GS {gsave} def
/GR {grestore} def
/SC {setcolor} def
/SGRY {setgray} def
/SRGB {setrgbcolor} def
/SD {setdash} def
/SLC {setlinecap} def
/SLJ {setlinejoin} def
/SCS {setcolorspace} def
/FFSF {findfont setfont} def
/CC {concat} def
/PXL {n m 0 0 RL s} def
/Color0 {1.0000 1.0000 1.0000} def
/Color1 {0.0000 0.0000 0.0000} def
/Color2 {1.0000 0.0000 0.0000} def
/Color3 {0.0000 1.0000 0.0000} def
/Color4 {0.0000 0.0000 1.0000} def
/Color5 {1.0000 1.0000 0.0000} def
/Color6 {0.7373 0.5608 0.5608} def
/Color7 {0.8627 0.8627 0.8627} def
/Color8 {0.5804 0.0000 0.8275} def
/Color9 {0.0000 1.0000 1.0000} def
/Color10 {1.0000 0.0000 1.0000} def
/Color11 {1.0000 0.6471 0.0000} def
/Color12 {0.4471 0.1294 0.7373} def
/Color13 {0.4039 0.0275 0.2824} def
/Color14 {0.2510 0.8784 0.8157} def
/Color15 {0.0000 0.5451 0.0000} def
/Color16 {0.7529 0.7529 0.7529} def
/Color17 {0.5059 0.5059 0.5059} def
/Color18 {0.2588 0.2588 0.2588} def
/PTRN {
 /pat_bits exch def 
 <<
  /PaintType 2
  /PatternType 1 /TilingType 1
  /BBox[0 0 16 16]
  /XStep 16 /YStep 16
  /PaintProc {
   pop
   16 16 true [-1 0 0 -1 16 16] pat_bits imagemask
  }
 >>
 [0.0016 0 0 0.0016 0 0]
 makepattern
} def
/Pattern0 {<0000000000000000000000000000000000000000000000000000000000000000> PTRN} bind def
/Pattern1 {<ffffffffffffffffffffffffffffffffffffffffffffffffffffffffffffffff> PTRN} bind def
/Pattern2 {<eeeeffffbbbbffffeeeeffffbbbbffffeeeeffffbbbbffffeeeeffffbbbbffff> PTRN} bind def
/Pattern3 {<eeeebbbbeeeebbbbeeeebbbbeeeebbbbeeeebbbbeeeebbbbeeeebbbbeeeebbbb> PTRN} bind def
/Pattern4 {<5555aaaa5555aaaa5555aaaa5555aaaa5555aaaa5555aaaa5555aaaa5555aaaa> PTRN} bind def
/Pattern5 {<1111444411114444111144441111444411114444111144441111444411114444> PTRN} bind def
/Pattern6 {<1111000044440000111100004444000011110000444400001111000044440000> PTRN} bind def
/Pattern7 {<1010000000000000010100000000000010100000000000000101000000000000> PTRN} bind def
/Pattern8 {<0000000000000000000000000000000000000000000000000000000000000000> PTRN} bind def
/Pattern9 {<1e1e0f0f8787c3c3e1e1f0f078783c3c1e1e0f0f8787c3c3e1e1f0f078783c3c> PTRN} bind def
/Pattern10 {<7878f0f0e1e1c3c387870f0f1e1e3c3c7878f0f0e1e1c3c387870f0f1e1e3c3c> PTRN} bind def
/Pattern11 {<3333333333333333333333333333333333333333333333333333333333333333> PTRN} bind def
/Pattern12 {<ffffffff00000000ffffffff00000000ffffffff00000000ffffffff00000000> PTRN} bind def
/Pattern13 {<8181424224241818181824244242818181814242242418181818242442428181> PTRN} bind def
/Pattern14 {<8080404020201010080804040202010180804040202010100808040402020101> PTRN} bind def
/Pattern15 {<0101020204040808101020204040808001010202040408081010202040408080> PTRN} bind def
/Pattern16 {<2222222222222222222222222222222222222222222222222222222222222222> PTRN} bind def
/Pattern17 {<0000ffff000000000000ffff000000000000ffff000000000000ffff00000000> PTRN} bind def
/Pattern18 {<2222ffff222222222222ffff222222222222ffff222222222222ffff22222222> PTRN} bind def
/Pattern19 {<ffffffff33333333ffffffff33333333ffffffff33333333ffffffff33333333> PTRN} bind def
/Pattern20 {<0f0f0f0f0f0f0f0ff0f0f0f0f0f0f0f00f0f0f0f0f0f0f0ff0f0f0f0f0f0f0f0> PTRN} bind def
/Pattern21 {<ff00ff00ff00ff00ff00ff00ff00ff0000ff00ff00ff00ff00ff00ff00ff00ff> PTRN} bind def
/Pattern22 {<8001800180018001800180018001ffffffff8001800180018001800180018001> PTRN} bind def
/Pattern23 {<c003c003c003c003c003c003ffffffffffffffffc003c003c003c003c003c003> PTRN} bind def
/Pattern24 {<040404040404ffff404040404040ffff040404040404ffff404040404040ffff> PTRN} bind def
/Pattern25 {<180018001800180018001800ffffffff001800180018001800180018ffffffff> PTRN} bind def
/Pattern26 {<1111b8b87c7c3a3a1111a3a3c7c78b8b1111b8b87c7c3a3a1111a3a3c7c78b8b> PTRN} bind def
/Pattern27 {<101010102828c7c70101010182827c7c101010102828c7c70101010182827c7c> PTRN} bind def
/Pattern28 {<1c1c121211112121c1c12121111112121c1c121211112121c1c1212111111212> PTRN} bind def
/Pattern29 {<3e3e414180808080e3e31414080808083e3e414180808080e3e3141408080808> PTRN} bind def
/Pattern30 {<4848888884848383848488884848383848488888848483838484888848483838> PTRN} bind def
/Pattern31 {<03030404080808080c0c12122121c0c003030404080808080c0c12122121c0c0> PTRN} bind def
/ellipsedict 8 dict def
ellipsedict /mtrx matrix put
/EARC {
 ellipsedict begin
  /endangle exch def
  /startangle exch def
  /yrad exch def
  /xrad exch def
  /y exch def
  /x exch def
  /savematrix mtrx currentmatrix def
  x y translate
  xrad yrad scale
  0 0 1 startangle endangle arc
  savematrix setmatrix
 end
} def
/TL {
  /kcomp exch def
  /linewidth exch def
  /offset exch def
  GS
  0 offset rmoveto
  linewidth SLW
  dup stringwidth exch kcomp add exch RL s
  GR
} def
/KINIT
{
 /kvector exch def
 /kid 0 def
} def
/KPROC
{
 pop pop
 kvector kid get
 0 rmoveto
 /kid 1 kid add def
} def
/DefEncoding [
 /.notdef
 /.notdef
 /.notdef
 /.notdef
 /.notdef
 /.notdef
 /.notdef
 /.notdef
 /.notdef
 /.notdef
 /.notdef
 /.notdef
 /.notdef
 /.notdef
 /.notdef
 /.notdef
 /.notdef
 /.notdef
 /.notdef
 /.notdef
 /.notdef
 /.notdef
 /.notdef
 /.notdef
 /.notdef
 /.notdef
 /.notdef
 /.notdef
 /.notdef
 /.notdef
 /.notdef
 /.notdef
 /space
 /exclam
 /quotedbl
 /numbersign
 /dollar
 /percent
 /ampersand
 /quoteright
 /parenleft
 /parenright
 /asterisk
 /plus
 /comma
 /hyphen
 /period
 /slash
 /zero
 /one
 /two
 /three
 /four
 /five
 /six
 /seven
 /eight
 /nine
 /colon
 /semicolon
 /less
 /equal
 /greater
 /question
 /at
 /A
 /B
 /C
 /D
 /E
 /F
 /G
 /H
 /I
 /J
 /K
 /L
 /M
 /N
 /O
 /P
 /Q
 /R
 /S
 /T
 /U
 /V
 /W
 /X
 /Y
 /Z
 /bracketleft
 /backslash
 /bracketright
 /asciicircum
 /underscore
 /grave
 /a
 /b
 /c
 /d
 /e
 /f
 /g
 /h
 /i
 /j
 /k
 /l
 /m
 /n
 /o
 /p
 /q
 /r
 /s
 /t
 /u
 /v
 /w
 /x
 /y
 /z
 /braceleft
 /bar
 /braceright
 /asciitilde
 /.notdef
 /.notdef
 /.notdef
 /.notdef
 /.notdef
 /.notdef
 /.notdef
 /.notdef
 /.notdef
 /.notdef
 /.notdef
 /.notdef
 /.notdef
 /.notdef
 /.notdef
 /.notdef
 /.notdef
 /.notdef
 /.notdef
 /.notdef
 /.notdef
 /.notdef
 /.notdef
 /.notdef
 /.notdef
 /.notdef
 /.notdef
 /.notdef
 /.notdef
 /.notdef
 /.notdef
 /.notdef
 /.notdef
 /space
 /exclamdown
 /cent
 /sterling
 /currency
 /yen
 /brokenbar
 /section
 /dieresis
 /copyright
 /ordfeminine
 /guillemotleft
 /logicalnot
 /hyphen
 /registered
 /macron
 /degree
 /plusminus
 /twosuperior
 /threesuperior
 /acute
 /mu
 /paragraph
 /periodcentered
 /cedilla
 /onesuperior
 /ordmasculine
 /guillemotright
 /onequarter
 /onehalf
 /threequarters
 /questiondown
 /Agrave
 /Aacute
 /Acircumflex
 /Atilde
 /Adieresis
 /Aring
 /AE
 /Ccedilla
 /Egrave
 /Eacute
 /Ecircumflex
 /Edieresis
 /Igrave
 /Iacute
 /Icircumflex
 /Idieresis
 /Eth
 /Ntilde
 /Ograve
 /Oacute
 /Ocircumflex
 /Otilde
 /Odieresis
 /multiply
 /Oslash
 /Ugrave
 /Uacute
 /Ucircumflex
 /Udieresis
 /Yacute
 /Thorn
 /germandbls
 /agrave
 /aacute
 /acircumflex
 /atilde
 /adieresis
 /aring
 /ae
 /ccedilla
 /egrave
 /eacute
 /ecircumflex
 /edieresis
 /igrave
 /iacute
 /icircumflex
 /idieresis
 /eth
 /ntilde
 /ograve
 /oacute
 /ocircumflex
 /otilde
 /odieresis
 /divide
 /oslash
 /ugrave
 /uacute
 /ucircumflex
 /udieresis
 /yacute
 /thorn
 /ydieresis
] def
%%EndProlog
%%BeginSetup
%%EndSetup
%%Page: 1 1
PAGE_OFFSET_X PAGE_OFFSET_Y translate
612.00 612.00 scale
90 rotate
0.0 -1.0 translate
n
0.0000 0.0000 m
0.0000 1.0000 l
1.2941 1.0000 l
1.2941 0.0000 l
c
[/DeviceRGB] SCS
Color0 SC
fill
[/DeviceRGB] SCS
Color1 SC
[0.0225 0.0135 ] 0 SD
0.0045 SLW
0 SLC
0 SLJ
n
0.1667 0.4972 m
0.1833 0.4942 l
0.2000 0.4912 l
0.2167 0.4881 l
0.2333 0.4849 l
0.2500 0.4816 l
0.2667 0.4783 l
0.2833 0.4749 l
0.3000 0.4715 l
0.3167 0.4680 l
0.3333 0.4645 l
0.3500 0.4609 l
0.3667 0.4573 l
0.3833 0.4537 l
0.4000 0.4500 l
0.4167 0.4463 l
0.4333 0.4426 l
0.4500 0.4388 l
0.4667 0.4350 l
0.4833 0.4312 l
0.5000 0.4273 l
0.5167 0.4234 l
0.5333 0.4195 l
0.5500 0.4156 l
0.5667 0.4116 l
0.5833 0.4076 l
0.6000 0.4036 l
0.6167 0.3996 l
0.6333 0.3955 l
0.6500 0.3915 l
0.6667 0.3874 l
0.6833 0.3833 l
0.7000 0.3791 l
0.7167 0.3750 l
0.7333 0.3708 l
0.7500 0.3666 l
0.7667 0.3624 l
0.7833 0.3582 l
0.8000 0.3539 l
0.8167 0.3497 l
0.8333 0.3454 l
0.8500 0.3411 l
0.8667 0.3368 l
0.8833 0.3325 l
0.9000 0.3281 l
0.9167 0.3238 l
0.9333 0.3194 l
0.9500 0.3150 l
0.9667 0.3106 l
0.9833 0.3062 l
1.0000 0.3018 l
1.0167 0.2974 l
1.0333 0.2929 l
1.0500 0.2884 l
1.0667 0.2840 l
1.0833 0.2795 l
1.1000 0.2750 l
1.1167 0.2705 l
1.1333 0.2660 l
1.1500 0.2614 l
1.1501 0.2614 l
s
[/DeviceRGB] SCS
Color2 SC
[0.0045 0.0135 0.0225 0.0135 0.0045 0.0135 ] 0 SD
0.0045 SLW
n
0.1667 0.4955 m
0.1833 0.4915 l
0.2000 0.4879 l
0.2167 0.4846 l
0.2333 0.4815 l
0.2500 0.4786 l
0.2667 0.4759 l
0.2833 0.4733 l
0.3000 0.4708 l
0.3167 0.4685 l
0.3333 0.4663 l
0.3500 0.4641 l
0.3667 0.4621 l
0.3833 0.4601 l
0.4000 0.4582 l
0.4167 0.4564 l
0.4333 0.4546 l
0.4500 0.4530 l
0.4667 0.4513 l
0.4833 0.4497 l
0.5000 0.4482 l
0.5167 0.4467 l
0.5333 0.4452 l
0.5500 0.4438 l
0.5667 0.4425 l
0.5833 0.4411 l
0.6000 0.4398 l
0.6167 0.4385 l
0.6333 0.4373 l
0.6500 0.4361 l
0.6667 0.4349 l
0.6833 0.4338 l
0.7000 0.4326 l
0.7167 0.4315 l
0.7333 0.4304 l
0.7500 0.4294 l
0.7667 0.4283 l
0.7833 0.4273 l
0.8000 0.4263 l
0.8167 0.4253 l
0.8333 0.4244 l
0.8500 0.4234 l
0.8667 0.4225 l
0.8833 0.4216 l
0.9000 0.4207 l
0.9167 0.4198 l
0.9333 0.4189 l
0.9500 0.4181 l
0.9667 0.4172 l
0.9833 0.4164 l
1.0000 0.4156 l
1.0167 0.4148 l
1.0333 0.4140 l
1.0500 0.4132 l
1.0667 0.4124 l
1.0833 0.4117 l
1.1000 0.4109 l
1.1167 0.4102 l
1.1333 0.4095 l
1.1500 0.4087 l
1.1501 0.4087 l
s
[/DeviceRGB] SCS
Color4 SC
[] 0 SD
0.0045 SLW
n
0.1667 0.5013 m
0.1833 0.5033 l
0.2000 0.5057 l
0.2167 0.5083 l
0.2333 0.5112 l
0.2500 0.5143 l
0.2667 0.5176 l
0.2833 0.5210 l
0.3000 0.5245 l
0.3167 0.5282 l
0.3333 0.5321 l
0.3500 0.5360 l
0.3667 0.5401 l
0.3833 0.5442 l
0.4000 0.5485 l
0.4167 0.5528 l
0.4333 0.5573 l
0.4500 0.5618 l
0.4667 0.5665 l
0.4833 0.5712 l
0.5000 0.5759 l
0.5167 0.5808 l
0.5333 0.5857 l
0.5500 0.5907 l
0.5667 0.5958 l
0.5833 0.6010 l
0.6000 0.6062 l
0.6167 0.6114 l
0.6333 0.6168 l
0.6500 0.6222 l
0.6667 0.6276 l
0.6833 0.6332 l
0.7000 0.6387 l
0.7167 0.6444 l
0.7333 0.6501 l
0.7500 0.6558 l
0.7667 0.6616 l
0.7833 0.6675 l
0.8000 0.6734 l
0.8167 0.6793 l
0.8333 0.6853 l
0.8500 0.6914 l
0.8667 0.6975 l
0.8833 0.7036 l
0.9000 0.7098 l
0.9167 0.7160 l
0.9333 0.7223 l
0.9500 0.7286 l
0.9667 0.7350 l
0.9833 0.7414 l
1.0000 0.7479 l
1.0167 0.7544 l
1.0333 0.7609 l
1.0500 0.7675 l
1.0667 0.7742 l
1.0833 0.7808 l
1.1000 0.7875 l
1.1167 0.7943 l
1.1333 0.8011 l
1.1500 0.8079 l
1.1501 0.8079 l
s
[/DeviceRGB] SCS
Color1 SC
n
0.1500 0.1500 m
1.1500 0.1500 l
s
n
0.1500 0.8500 m
1.1500 0.8500 l
s
n
0.2333 0.1500 m
0.2333 0.1600 l
s
n
0.2333 0.8500 m
0.2333 0.8400 l
s
n
0.4000 0.1500 m
0.4000 0.1600 l
s
n
0.4000 0.8500 m
0.4000 0.8400 l
s
n
0.5667 0.1500 m
0.5667 0.1600 l
s
n
0.5667 0.8500 m
0.5667 0.8400 l
s
n
0.7333 0.1500 m
0.7333 0.1600 l
s
n
0.7333 0.8500 m
0.7333 0.8400 l
s
n
0.9000 0.1500 m
0.9000 0.1600 l
s
n
0.9000 0.8500 m
0.9000 0.8400 l
s
n
1.0667 0.1500 m
1.0667 0.1600 l
s
n
1.0667 0.8500 m
1.0667 0.8400 l
s
n
0.1500 0.1500 m
0.1500 0.1700 l
s
n
0.1500 0.8500 m
0.1500 0.8300 l
s
n
0.3167 0.1500 m
0.3167 0.1700 l
s
n
0.3167 0.8500 m
0.3167 0.8300 l
s
n
0.4833 0.1500 m
0.4833 0.1700 l
s
n
0.4833 0.8500 m
0.4833 0.8300 l
s
n
0.6500 0.1500 m
0.6500 0.1700 l
s
n
0.6500 0.8500 m
0.6500 0.8300 l
s
n
0.8167 0.1500 m
0.8167 0.1700 l
s
n
0.8167 0.8500 m
0.8167 0.8300 l
s
n
0.9833 0.1500 m
0.9833 0.1700 l
s
n
0.9833 0.8500 m
0.9833 0.8300 l
s
/Times-Roman findfont
dup length dict begin
 {1 index /FID ne {def} {pop pop} ifelse} forall
 /Encoding DefEncoding def
 currentdict
end
/Font0 exch definefont pop
/Font0 FFSF
0.1394 0.1094 m
GS
[0.0448 0.0000 0.0000 0.0448 0 0] CC
(0) show
GR
/Font0 FFSF
0.2910 0.1094 m
GS
[0.0448 0.0000 0.0000 0.0448 0 0] CC
(0.1) show
GR
/Font0 FFSF
0.4559 0.1094 m
GS
[0.0448 0.0000 0.0000 0.0448 0 0] CC
(0.2) show
GR
/Font0 FFSF
0.6233 0.1094 m
GS
[0.0448 0.0000 0.0000 0.0448 0 0] CC
(0.3) show
GR
/Font0 FFSF
0.7892 0.1094 m
GS
[0.0448 0.0000 0.0000 0.0448 0 0] CC
(0.4) show
GR
/Font0 FFSF
0.9567 0.1090 m
GS
[0.0448 0.0000 0.0000 0.0448 0 0] CC
(0.5) show
GR
/Symbol findfont
/Font12 exch definefont pop
/Font12 FFSF
0.5722 0.0441 m
GS
[0.0504 0.0000 0.0000 0.0504 0 0] CC
(r) show
GR
/Font0 FFSF
0.6000 0.0441 m
GS
[0.0504 0.0000 0.0000 0.0504 0 0] CC
( [fm) show
GR
/Font0 FFSF
0.6855 0.0743 m
GS
[0.0356 0.0000 0.0000 0.0356 0 0] CC
(-3) show
GR
/Font0 FFSF
0.7153 0.0441 m
GS
[0.0504 0.0000 0.0000 0.0504 0 0] CC
(]) show
GR
n
0.1500 0.1500 m
0.1500 0.8500 l
s
n
1.1500 0.1500 m
1.1500 0.8500 l
s
n
0.1500 0.2083 m
0.1600 0.2083 l
s
n
1.1500 0.2083 m
1.1400 0.2083 l
s
n
0.1500 0.3250 m
0.1600 0.3250 l
s
n
1.1500 0.3250 m
1.1400 0.3250 l
s
n
0.1500 0.4417 m
0.1600 0.4417 l
s
n
1.1500 0.4417 m
1.1400 0.4417 l
s
n
0.1500 0.5583 m
0.1600 0.5583 l
s
n
1.1500 0.5583 m
1.1400 0.5583 l
s
n
0.1500 0.6750 m
0.1600 0.6750 l
s
n
1.1500 0.6750 m
1.1400 0.6750 l
s
n
0.1500 0.7917 m
0.1600 0.7917 l
s
n
1.1500 0.7917 m
1.1400 0.7917 l
s
n
0.1500 0.1500 m
0.1700 0.1500 l
s
n
1.1500 0.1500 m
1.1300 0.1500 l
s
n
0.1500 0.2667 m
0.1700 0.2667 l
s
n
1.1500 0.2667 m
1.1300 0.2667 l
s
n
0.1500 0.3833 m
0.1700 0.3833 l
s
n
1.1500 0.3833 m
1.1300 0.3833 l
s
n
0.1500 0.5000 m
0.1700 0.5000 l
s
n
1.1500 0.5000 m
1.1300 0.5000 l
s
n
0.1500 0.6167 m
0.1700 0.6167 l
s
n
1.1500 0.6167 m
1.1300 0.6167 l
s
n
0.1500 0.7333 m
0.1700 0.7333 l
s
n
1.1500 0.7333 m
1.1300 0.7333 l
s
n
0.1500 0.8500 m
0.1700 0.8500 l
s
n
1.1500 0.8500 m
1.1300 0.8500 l
s
/Font0 FFSF
0.0592 0.1351 m
GS
[0.0448 0.0000 0.0000 0.0448 0 0] CC
(-300) show
GR
/Font0 FFSF
0.0592 0.2518 m
GS
[0.0448 0.0000 0.0000 0.0448 0 0] CC
(-200) show
GR
/Font0 FFSF
0.0592 0.3684 m
GS
[0.0448 0.0000 0.0000 0.0448 0 0] CC
(-100) show
GR
/Font0 FFSF
0.1188 0.4851 m
GS
[0.0448 0.0000 0.0000 0.0448 0 0] CC
(0) show
GR
/Font0 FFSF
0.0741 0.6018 m
GS
[0.0448 0.0000 0.0000 0.0448 0 0] CC
(100) show
GR
/Font0 FFSF
0.0741 0.7184 m
GS
[0.0448 0.0000 0.0000 0.0448 0 0] CC
(200) show
GR
/Font0 FFSF
0.0741 0.8351 m
GS
[0.0448 0.0000 0.0000 0.0448 0 0] CC
(300) show
GR
/Font0 FFSF
0.0414 0.4090 m
GS
[0.0000 0.0504 -0.0504 0.0000 0 0] CC
(V [MeV]) show
GR
[] 0 SD
0.0015 SLW
n
0.1500 0.1500 m
0.1500 0.8500 l
1.1500 0.8500 l
1.1500 0.1500 l
0.1500 0.1500 l
c
s
n
0.2000 0.8000 m
0.2000 0.6396 l
0.6489 0.6396 l
0.6489 0.8000 l
c
[/DeviceRGB] SCS
Color0 SC
fill
/Font12 FFSF
[/DeviceRGB] SCS
Color1 SC
0.3123 0.7598 m
GS
[0.0445 0.0000 0.0000 0.0445 0 0] CC
(m) show
GR
/Font0 FFSF
0.3377 0.7598 m
GS
[0.0445 0.0000 0.0000 0.0445 0 0] CC
(=0.7 fm) show
GR
[0.0225 0.0135 ] 0 SD
0.0045 SLW
n
0.2123 0.7700 m
0.2923 0.7700 l
s
/Font12 FFSF
0.3123 0.7098 m
GS
[0.0445 0.0000 0.0000 0.0445 0 0] CC
(m) show
GR
/Font0 FFSF
0.3377 0.7098 m
GS
[0.0445 0.0000 0.0000 0.0445 0 0] CC
(=1.2 fm) show
GR
[/DeviceRGB] SCS
Color2 SC
[0.0045 0.0135 0.0225 0.0135 0.0045 0.0135 ] 0 SD
0.0045 SLW
n
0.2123 0.7200 m
0.2923 0.7200 l
s
/Font0 FFSF
[/DeviceRGB] SCS
Color1 SC
0.3123 0.6594 m
GS
[0.0445 0.0000 0.0000 0.0445 0 0] CC
(density-dependent) show
GR
[/DeviceRGB] SCS
Color4 SC
[] 0 SD
0.0045 SLW
n
0.2123 0.6698 m
0.2923 0.6698 l
s
/Font0 FFSF
[/DeviceRGB] SCS
Color1 SC
0.2316 0.2500 m
GS
[0.0580 0.0000 0.0000 0.0580 0 0] CC
(D1S) show
GR
showpage
%%PageTrailer
%%Trailer
%%DocumentNeededResources: font Times-Roman
%%+ font Symbol
%%EOF
