%!PS-Adobe-3.0
%%BoundingBox: 0 0 612 792
%%LanguageLevel: 2
%%Creator: Grace-5.1.25
%%CreationDate: Wed Oct 12 10:37:27 2016
%%DocumentData: Clean8Bit
%%Orientation: Landscape
%%Pages: 1
%%PageOrder: Ascend
%%Title: EoS_SNM_ST.agr
%%For: ap1450
%%DocumentNeededResources: (atend)
%%EndComments
%%BeginProlog
/PAGE_OFFSET_X 0 def
/PAGE_OFFSET_Y 0 def
/m {moveto} def
/l {lineto} def
/s {stroke} def
/n {newpath} def
/c {closepath} def
/RL {rlineto} def
/SLW {setlinewidth} def
/GS {gsave} def
/GR {grestore} def
/SC {setcolor} def
/SGRY {setgray} def
/SRGB {setrgbcolor} def
/SD {setdash} def
/SLC {setlinecap} def
/SLJ {setlinejoin} def
/SCS {setcolorspace} def
/FFSF {findfont setfont} def
/CC {concat} def
/PXL {n m 0 0 RL s} def
/Color0 {1.0000 1.0000 1.0000} def
/Color1 {0.0000 0.0000 0.0000} def
/Color2 {1.0000 0.0000 0.0000} def
/Color3 {0.0000 1.0000 0.0000} def
/Color4 {0.0000 0.0000 1.0000} def
/Color5 {1.0000 1.0000 0.0000} def
/Color6 {0.7373 0.5608 0.5608} def
/Color7 {0.8627 0.8627 0.8627} def
/Color8 {0.5804 0.0000 0.8275} def
/Color9 {0.0000 1.0000 1.0000} def
/Color10 {1.0000 0.0000 1.0000} def
/Color11 {1.0000 0.6471 0.0000} def
/Color12 {0.4471 0.1294 0.7373} def
/Color13 {0.4039 0.0275 0.2824} def
/Color14 {0.2510 0.8784 0.8157} def
/Color15 {0.0000 0.5451 0.0000} def
/Color16 {0.7529 0.7529 0.7529} def
/Color17 {0.5059 0.5059 0.5059} def
/Color18 {0.2588 0.2588 0.2588} def
/PTRN {
 /pat_bits exch def 
 <<
  /PaintType 2
  /PatternType 1 /TilingType 1
  /BBox[0 0 16 16]
  /XStep 16 /YStep 16
  /PaintProc {
   pop
   16 16 true [-1 0 0 -1 16 16] pat_bits imagemask
  }
 >>
 [0.0016 0 0 0.0016 0 0]
 makepattern
} def
/Pattern0 {<0000000000000000000000000000000000000000000000000000000000000000> PTRN} bind def
/Pattern1 {<ffffffffffffffffffffffffffffffffffffffffffffffffffffffffffffffff> PTRN} bind def
/Pattern2 {<eeeeffffbbbbffffeeeeffffbbbbffffeeeeffffbbbbffffeeeeffffbbbbffff> PTRN} bind def
/Pattern3 {<eeeebbbbeeeebbbbeeeebbbbeeeebbbbeeeebbbbeeeebbbbeeeebbbbeeeebbbb> PTRN} bind def
/Pattern4 {<5555aaaa5555aaaa5555aaaa5555aaaa5555aaaa5555aaaa5555aaaa5555aaaa> PTRN} bind def
/Pattern5 {<1111444411114444111144441111444411114444111144441111444411114444> PTRN} bind def
/Pattern6 {<1111000044440000111100004444000011110000444400001111000044440000> PTRN} bind def
/Pattern7 {<1010000000000000010100000000000010100000000000000101000000000000> PTRN} bind def
/Pattern8 {<0000000000000000000000000000000000000000000000000000000000000000> PTRN} bind def
/Pattern9 {<1e1e0f0f8787c3c3e1e1f0f078783c3c1e1e0f0f8787c3c3e1e1f0f078783c3c> PTRN} bind def
/Pattern10 {<7878f0f0e1e1c3c387870f0f1e1e3c3c7878f0f0e1e1c3c387870f0f1e1e3c3c> PTRN} bind def
/Pattern11 {<3333333333333333333333333333333333333333333333333333333333333333> PTRN} bind def
/Pattern12 {<ffffffff00000000ffffffff00000000ffffffff00000000ffffffff00000000> PTRN} bind def
/Pattern13 {<8181424224241818181824244242818181814242242418181818242442428181> PTRN} bind def
/Pattern14 {<8080404020201010080804040202010180804040202010100808040402020101> PTRN} bind def
/Pattern15 {<0101020204040808101020204040808001010202040408081010202040408080> PTRN} bind def
/Pattern16 {<2222222222222222222222222222222222222222222222222222222222222222> PTRN} bind def
/Pattern17 {<0000ffff000000000000ffff000000000000ffff000000000000ffff00000000> PTRN} bind def
/Pattern18 {<2222ffff222222222222ffff222222222222ffff222222222222ffff22222222> PTRN} bind def
/Pattern19 {<ffffffff33333333ffffffff33333333ffffffff33333333ffffffff33333333> PTRN} bind def
/Pattern20 {<0f0f0f0f0f0f0f0ff0f0f0f0f0f0f0f00f0f0f0f0f0f0f0ff0f0f0f0f0f0f0f0> PTRN} bind def
/Pattern21 {<ff00ff00ff00ff00ff00ff00ff00ff0000ff00ff00ff00ff00ff00ff00ff00ff> PTRN} bind def
/Pattern22 {<8001800180018001800180018001ffffffff8001800180018001800180018001> PTRN} bind def
/Pattern23 {<c003c003c003c003c003c003ffffffffffffffffc003c003c003c003c003c003> PTRN} bind def
/Pattern24 {<040404040404ffff404040404040ffff040404040404ffff404040404040ffff> PTRN} bind def
/Pattern25 {<180018001800180018001800ffffffff001800180018001800180018ffffffff> PTRN} bind def
/Pattern26 {<1111b8b87c7c3a3a1111a3a3c7c78b8b1111b8b87c7c3a3a1111a3a3c7c78b8b> PTRN} bind def
/Pattern27 {<101010102828c7c70101010182827c7c101010102828c7c70101010182827c7c> PTRN} bind def
/Pattern28 {<1c1c121211112121c1c12121111112121c1c121211112121c1c1212111111212> PTRN} bind def
/Pattern29 {<3e3e414180808080e3e31414080808083e3e414180808080e3e3141408080808> PTRN} bind def
/Pattern30 {<4848888884848383848488884848383848488888848483838484888848483838> PTRN} bind def
/Pattern31 {<03030404080808080c0c12122121c0c003030404080808080c0c12122121c0c0> PTRN} bind def
/ellipsedict 8 dict def
ellipsedict /mtrx matrix put
/EARC {
 ellipsedict begin
  /endangle exch def
  /startangle exch def
  /yrad exch def
  /xrad exch def
  /y exch def
  /x exch def
  /savematrix mtrx currentmatrix def
  x y translate
  xrad yrad scale
  0 0 1 startangle endangle arc
  savematrix setmatrix
 end
} def
/TL {
  /kcomp exch def
  /linewidth exch def
  /offset exch def
  GS
  0 offset rmoveto
  linewidth SLW
  dup stringwidth exch kcomp add exch RL s
  GR
} def
/KINIT
{
 /kvector exch def
 /kid 0 def
} def
/KPROC
{
 pop pop
 kvector kid get
 0 rmoveto
 /kid 1 kid add def
} def
/DefEncoding [
 /.notdef
 /.notdef
 /.notdef
 /.notdef
 /.notdef
 /.notdef
 /.notdef
 /.notdef
 /.notdef
 /.notdef
 /.notdef
 /.notdef
 /.notdef
 /.notdef
 /.notdef
 /.notdef
 /.notdef
 /.notdef
 /.notdef
 /.notdef
 /.notdef
 /.notdef
 /.notdef
 /.notdef
 /.notdef
 /.notdef
 /.notdef
 /.notdef
 /.notdef
 /.notdef
 /.notdef
 /.notdef
 /space
 /exclam
 /quotedbl
 /numbersign
 /dollar
 /percent
 /ampersand
 /quoteright
 /parenleft
 /parenright
 /asterisk
 /plus
 /comma
 /hyphen
 /period
 /slash
 /zero
 /one
 /two
 /three
 /four
 /five
 /six
 /seven
 /eight
 /nine
 /colon
 /semicolon
 /less
 /equal
 /greater
 /question
 /at
 /A
 /B
 /C
 /D
 /E
 /F
 /G
 /H
 /I
 /J
 /K
 /L
 /M
 /N
 /O
 /P
 /Q
 /R
 /S
 /T
 /U
 /V
 /W
 /X
 /Y
 /Z
 /bracketleft
 /backslash
 /bracketright
 /asciicircum
 /underscore
 /grave
 /a
 /b
 /c
 /d
 /e
 /f
 /g
 /h
 /i
 /j
 /k
 /l
 /m
 /n
 /o
 /p
 /q
 /r
 /s
 /t
 /u
 /v
 /w
 /x
 /y
 /z
 /braceleft
 /bar
 /braceright
 /asciitilde
 /.notdef
 /.notdef
 /.notdef
 /.notdef
 /.notdef
 /.notdef
 /.notdef
 /.notdef
 /.notdef
 /.notdef
 /.notdef
 /.notdef
 /.notdef
 /.notdef
 /.notdef
 /.notdef
 /.notdef
 /.notdef
 /.notdef
 /.notdef
 /.notdef
 /.notdef
 /.notdef
 /.notdef
 /.notdef
 /.notdef
 /.notdef
 /.notdef
 /.notdef
 /.notdef
 /.notdef
 /.notdef
 /.notdef
 /space
 /exclamdown
 /cent
 /sterling
 /currency
 /yen
 /brokenbar
 /section
 /dieresis
 /copyright
 /ordfeminine
 /guillemotleft
 /logicalnot
 /hyphen
 /registered
 /macron
 /degree
 /plusminus
 /twosuperior
 /threesuperior
 /acute
 /mu
 /paragraph
 /periodcentered
 /cedilla
 /onesuperior
 /ordmasculine
 /guillemotright
 /onequarter
 /onehalf
 /threequarters
 /questiondown
 /Agrave
 /Aacute
 /Acircumflex
 /Atilde
 /Adieresis
 /Aring
 /AE
 /Ccedilla
 /Egrave
 /Eacute
 /Ecircumflex
 /Edieresis
 /Igrave
 /Iacute
 /Icircumflex
 /Idieresis
 /Eth
 /Ntilde
 /Ograve
 /Oacute
 /Ocircumflex
 /Otilde
 /Odieresis
 /multiply
 /Oslash
 /Ugrave
 /Uacute
 /Ucircumflex
 /Udieresis
 /Yacute
 /Thorn
 /germandbls
 /agrave
 /aacute
 /acircumflex
 /atilde
 /adieresis
 /aring
 /ae
 /ccedilla
 /egrave
 /eacute
 /ecircumflex
 /edieresis
 /igrave
 /iacute
 /icircumflex
 /idieresis
 /eth
 /ntilde
 /ograve
 /oacute
 /ocircumflex
 /otilde
 /odieresis
 /divide
 /oslash
 /ugrave
 /uacute
 /ucircumflex
 /udieresis
 /yacute
 /thorn
 /ydieresis
] def
%%EndProlog
%%BeginSetup
%%EndSetup
%%Page: 1 1
PAGE_OFFSET_X PAGE_OFFSET_Y translate
612.00 612.00 scale
90 rotate
0.0 -1.0 translate
n
0.1510 0.5356 m
0.1510 0.5523 l
0.1676 0.5523 l
0.1676 0.5356 l
c
GS
[/DeviceRGB] SCS
Color0 SRGB
fill
GR
[/Pattern /DeviceRGB] SCS
Color1 Pattern8 SC
fill
[/DeviceRGB] SCS
Color1 SC
[] 0 SD
0.0030 SLW
0 SLC
0 SLJ
n
0.1510 0.5356 m
0.1510 0.5523 l
0.1676 0.5523 l
0.1676 0.5356 l
0.1510 0.5356 l
c
s
n
0.1603 0.5386 m
0.1603 0.5553 l
0.1770 0.5553 l
0.1770 0.5386 l
c
GS
Color0 SRGB
fill
GR
[/Pattern /DeviceRGB] SCS
Color1 Pattern8 SC
fill
[/DeviceRGB] SCS
Color1 SC
n
0.1603 0.5386 m
0.1603 0.5553 l
0.1770 0.5553 l
0.1770 0.5386 l
0.1603 0.5386 l
c
s
n
0.1720 0.5427 m
0.1720 0.5594 l
0.1886 0.5594 l
0.1886 0.5427 l
c
GS
Color0 SRGB
fill
GR
[/Pattern /DeviceRGB] SCS
Color1 Pattern8 SC
fill
[/DeviceRGB] SCS
Color1 SC
n
0.1720 0.5427 m
0.1720 0.5594 l
0.1886 0.5594 l
0.1886 0.5427 l
0.1720 0.5427 l
c
s
n
0.1862 0.5482 m
0.1862 0.5649 l
0.2029 0.5649 l
0.2029 0.5482 l
c
GS
Color0 SRGB
fill
GR
[/Pattern /DeviceRGB] SCS
Color1 Pattern8 SC
fill
[/DeviceRGB] SCS
Color1 SC
n
0.1862 0.5482 m
0.1862 0.5649 l
0.2029 0.5649 l
0.2029 0.5482 l
0.1862 0.5482 l
c
s
n
0.2033 0.5553 m
0.2033 0.5720 l
0.2200 0.5720 l
0.2200 0.5553 l
c
GS
Color0 SRGB
fill
GR
[/Pattern /DeviceRGB] SCS
Color1 Pattern8 SC
fill
[/DeviceRGB] SCS
Color1 SC
n
0.2033 0.5553 m
0.2033 0.5720 l
0.2200 0.5720 l
0.2200 0.5553 l
0.2033 0.5553 l
c
s
n
0.2235 0.5644 m
0.2235 0.5810 l
0.2402 0.5810 l
0.2402 0.5644 l
c
GS
Color0 SRGB
fill
GR
[/Pattern /DeviceRGB] SCS
Color1 Pattern8 SC
fill
[/DeviceRGB] SCS
Color1 SC
n
0.2235 0.5644 m
0.2235 0.5810 l
0.2402 0.5810 l
0.2402 0.5644 l
0.2235 0.5644 l
c
s
n
0.2470 0.5757 m
0.2470 0.5923 l
0.2637 0.5923 l
0.2637 0.5757 l
c
GS
Color0 SRGB
fill
GR
[/Pattern /DeviceRGB] SCS
Color1 Pattern8 SC
fill
[/DeviceRGB] SCS
Color1 SC
n
0.2470 0.5757 m
0.2470 0.5923 l
0.2637 0.5923 l
0.2637 0.5757 l
0.2470 0.5757 l
c
s
n
0.2742 0.5895 m
0.2742 0.6061 l
0.2909 0.6061 l
0.2909 0.5895 l
c
GS
Color0 SRGB
fill
GR
[/Pattern /DeviceRGB] SCS
Color1 Pattern8 SC
fill
[/DeviceRGB] SCS
Color1 SC
n
0.2742 0.5895 m
0.2742 0.6061 l
0.2909 0.6061 l
0.2909 0.5895 l
0.2742 0.5895 l
c
s
n
0.3052 0.6060 m
0.3052 0.6226 l
0.3219 0.6226 l
0.3219 0.6060 l
c
GS
Color0 SRGB
fill
GR
[/Pattern /DeviceRGB] SCS
Color1 Pattern8 SC
fill
[/DeviceRGB] SCS
Color1 SC
n
0.3052 0.6060 m
0.3052 0.6226 l
0.3219 0.6226 l
0.3219 0.6060 l
0.3052 0.6060 l
c
s
n
0.3404 0.6253 m
0.3404 0.6419 l
0.3571 0.6419 l
0.3571 0.6253 l
c
GS
Color0 SRGB
fill
GR
[/Pattern /DeviceRGB] SCS
Color1 Pattern8 SC
fill
[/DeviceRGB] SCS
Color1 SC
n
0.3404 0.6253 m
0.3404 0.6419 l
0.3571 0.6419 l
0.3571 0.6253 l
0.3404 0.6253 l
c
s
n
0.3800 0.6474 m
0.3800 0.6640 l
0.3966 0.6640 l
0.3966 0.6474 l
c
GS
Color0 SRGB
fill
GR
[/Pattern /DeviceRGB] SCS
Color1 Pattern8 SC
fill
[/DeviceRGB] SCS
Color1 SC
n
0.3800 0.6474 m
0.3800 0.6640 l
0.3966 0.6640 l
0.3966 0.6474 l
0.3800 0.6474 l
c
s
n
0.4242 0.6719 m
0.4242 0.6886 l
0.4408 0.6886 l
0.4408 0.6719 l
c
GS
Color0 SRGB
fill
GR
[/Pattern /DeviceRGB] SCS
Color1 Pattern8 SC
fill
[/DeviceRGB] SCS
Color1 SC
n
0.4242 0.6719 m
0.4242 0.6886 l
0.4408 0.6886 l
0.4408 0.6719 l
0.4242 0.6719 l
c
s
n
0.4733 0.6982 m
0.4733 0.7149 l
0.4899 0.7149 l
0.4899 0.6982 l
c
GS
Color0 SRGB
fill
GR
[/Pattern /DeviceRGB] SCS
Color1 Pattern8 SC
fill
[/DeviceRGB] SCS
Color1 SC
n
0.4733 0.6982 m
0.4733 0.7149 l
0.4899 0.7149 l
0.4899 0.6982 l
0.4733 0.6982 l
c
s
n
0.5276 0.7251 m
0.5276 0.7418 l
0.5442 0.7418 l
0.5442 0.7251 l
c
GS
Color0 SRGB
fill
GR
[/Pattern /DeviceRGB] SCS
Color1 Pattern8 SC
fill
[/DeviceRGB] SCS
Color1 SC
n
0.5276 0.7251 m
0.5276 0.7418 l
0.5442 0.7418 l
0.5442 0.7251 l
0.5276 0.7251 l
c
s
n
0.5873 0.7508 m
0.5873 0.7674 l
0.6039 0.7674 l
0.6039 0.7508 l
c
GS
Color0 SRGB
fill
GR
[/Pattern /DeviceRGB] SCS
Color1 Pattern8 SC
fill
[/DeviceRGB] SCS
Color1 SC
n
0.5873 0.7508 m
0.5873 0.7674 l
0.6039 0.7674 l
0.6039 0.7508 l
0.5873 0.7508 l
c
s
[0.0262 0.0112 ] 0 SD
0.0037 SLW
n
0.1499 0.5392 m
0.1500 0.5392 l
0.1564 0.5395 l
0.1627 0.5397 l
0.1691 0.5401 l
0.1755 0.5404 l
0.1819 0.5407 l
0.1882 0.5411 l
0.1946 0.5414 l
0.2010 0.5417 l
0.2074 0.5421 l
0.2137 0.5424 l
0.2201 0.5427 l
0.2265 0.5430 l
0.2328 0.5434 l
0.2392 0.5437 l
0.2456 0.5439 l
0.2520 0.5442 l
0.2583 0.5445 l
0.2647 0.5448 l
0.2711 0.5450 l
0.2775 0.5452 l
0.2838 0.5455 l
0.2902 0.5457 l
0.2966 0.5459 l
0.3029 0.5461 l
0.3093 0.5462 l
0.3157 0.5464 l
0.3221 0.5466 l
0.3284 0.5467 l
0.3348 0.5468 l
0.3412 0.5470 l
0.3475 0.5471 l
0.3539 0.5472 l
0.3603 0.5472 l
0.3667 0.5473 l
0.3730 0.5474 l
0.3794 0.5474 l
0.3858 0.5475 l
0.3922 0.5475 l
0.3985 0.5475 l
0.4049 0.5475 l
0.4113 0.5475 l
0.4176 0.5475 l
0.4240 0.5475 l
0.4304 0.5474 l
0.4368 0.5474 l
0.4431 0.5473 l
0.4495 0.5472 l
0.4559 0.5472 l
0.4623 0.5471 l
0.4686 0.5470 l
0.4750 0.5469 l
0.4814 0.5467 l
0.4877 0.5466 l
0.4941 0.5465 l
0.5005 0.5463 l
0.5069 0.5462 l
0.5132 0.5460 l
0.5196 0.5458 l
0.5260 0.5457 l
0.5324 0.5455 l
0.5387 0.5453 l
0.5451 0.5450 l
0.5515 0.5448 l
0.5578 0.5446 l
0.5642 0.5444 l
0.5706 0.5441 l
0.5770 0.5439 l
0.5833 0.5436 l
0.5897 0.5434 l
0.5961 0.5431 l
0.6025 0.5428 l
0.6088 0.5425 l
0.6152 0.5422 l
0.6216 0.5419 l
0.6279 0.5416 l
0.6343 0.5413 l
0.6407 0.5410 l
0.6471 0.5406 l
0.6472 0.5406 l
s
n
0.4686 0.5470 0.0100 0.0100 0 360 EARC c
fill
[] 0 SD
0.0015 SLW
n 0.4686 0.5470 0.0100 0.0100 0 360 EARC s
[/DeviceRGB] SCS
Color2 SC
[0.0187 0.0112 ] 0 SD
0.0037 SLW
n
0.1499 0.5404 m
0.1500 0.5404 l
0.1564 0.5416 l
0.1627 0.5429 l
0.1691 0.5443 l
0.1755 0.5456 l
0.1819 0.5469 l
0.1882 0.5482 l
0.1946 0.5494 l
0.2010 0.5505 l
0.2074 0.5516 l
0.2137 0.5525 l
0.2201 0.5533 l
0.2265 0.5540 l
0.2328 0.5547 l
0.2392 0.5552 l
0.2456 0.5556 l
0.2520 0.5558 l
0.2583 0.5560 l
0.2647 0.5560 l
0.2711 0.5559 l
0.2775 0.5557 l
0.2838 0.5554 l
0.2902 0.5550 l
0.2966 0.5544 l
0.3029 0.5538 l
0.3093 0.5530 l
0.3157 0.5521 l
0.3221 0.5511 l
0.3284 0.5499 l
0.3348 0.5487 l
0.3412 0.5473 l
0.3475 0.5459 l
0.3539 0.5443 l
0.3603 0.5426 l
0.3667 0.5409 l
0.3730 0.5390 l
0.3794 0.5370 l
0.3858 0.5349 l
0.3922 0.5327 l
0.3985 0.5304 l
0.4049 0.5280 l
0.4113 0.5256 l
0.4176 0.5230 l
0.4240 0.5203 l
0.4304 0.5175 l
0.4368 0.5147 l
0.4431 0.5117 l
0.4495 0.5087 l
0.4559 0.5056 l
0.4623 0.5023 l
0.4670 0.4999 l
s
n
0.3964 0.5195 m
0.3964 0.5365 l
0.4134 0.5365 l
0.4134 0.5195 l
c
fill
[] 0 SD
0.0015 SLW
n
0.3964 0.5195 m
0.3964 0.5365 l
0.4134 0.5365 l
0.4134 0.5195 l
0.3964 0.5195 l
c
s
[/DeviceRGB] SCS
Color4 SC
[0.0037 0.0112 ] 0 SD
0.0037 SLW
n
0.1499 0.5407 m
0.1500 0.5408 l
0.1564 0.5421 l
0.1627 0.5434 l
0.1691 0.5447 l
0.1755 0.5459 l
0.1819 0.5468 l
0.1882 0.5476 l
0.1946 0.5482 l
0.2010 0.5485 l
0.2074 0.5487 l
0.2137 0.5485 l
0.2201 0.5482 l
0.2265 0.5476 l
0.2328 0.5467 l
0.2392 0.5456 l
0.2456 0.5443 l
0.2520 0.5427 l
0.2583 0.5408 l
0.2647 0.5388 l
0.2711 0.5364 l
0.2775 0.5339 l
0.2838 0.5311 l
0.2902 0.5281 l
0.2966 0.5248 l
0.3029 0.5213 l
0.3093 0.5176 l
0.3157 0.5137 l
0.3221 0.5096 l
0.3284 0.5053 l
0.3348 0.5007 l
0.3359 0.4999 l
s
n
0.3029 0.5313 m
0.2929 0.5213 l
0.3029 0.5113 l
0.3129 0.5213 l
c
fill
[] 0 SD
0.0015 SLW
n
0.3029 0.5313 m
0.2929 0.5213 l
0.3029 0.5113 l
0.3129 0.5213 l
0.3029 0.5313 l
c
s
[/DeviceRGB] SCS
Color11 SC
[0.0037 0.0112 0.0187 0.0112 ] 0 SD
0.0037 SLW
n
0.1499 0.5415 m
0.1500 0.5415 l
0.1564 0.5437 l
0.1627 0.5462 l
0.1691 0.5488 l
0.1755 0.5515 l
0.1819 0.5543 l
0.1882 0.5571 l
0.1946 0.5598 l
0.2010 0.5624 l
0.2074 0.5650 l
0.2137 0.5675 l
0.2201 0.5698 l
0.2265 0.5720 l
0.2328 0.5741 l
0.2392 0.5760 l
0.2456 0.5777 l
0.2520 0.5793 l
0.2583 0.5806 l
0.2647 0.5818 l
0.2711 0.5828 l
0.2775 0.5836 l
0.2838 0.5841 l
0.2902 0.5845 l
0.2966 0.5847 l
0.3029 0.5847 l
0.3093 0.5844 l
0.3157 0.5839 l
0.3221 0.5833 l
0.3284 0.5824 l
0.3348 0.5813 l
0.3412 0.5799 l
0.3475 0.5784 l
0.3539 0.5766 l
0.3603 0.5746 l
0.3667 0.5724 l
0.3730 0.5700 l
0.3794 0.5673 l
0.3858 0.5645 l
0.3922 0.5614 l
0.3985 0.5581 l
0.4049 0.5546 l
0.4113 0.5509 l
0.4176 0.5469 l
0.4240 0.5428 l
0.4304 0.5384 l
0.4368 0.5338 l
0.4431 0.5290 l
0.4495 0.5240 l
0.4559 0.5188 l
0.4623 0.5134 l
0.4686 0.5077 l
0.4750 0.5019 l
0.4771 0.4999 l
s
n
0.4559 0.5303 m
0.4459 0.5130 l
0.4659 0.5130 l
c
fill
[] 0 SD
0.0015 SLW
n
0.4559 0.5303 m
0.4459 0.5130 l
0.4659 0.5130 l
0.4559 0.5303 l
c
s
[/DeviceRGB] SCS
Color3 SC
[] 0 SD
0.0037 SLW
n
0.1499 0.5401 m
0.1500 0.5401 l
0.1564 0.5411 l
0.1627 0.5421 l
0.1691 0.5433 l
0.1755 0.5444 l
0.1819 0.5456 l
0.1882 0.5467 l
0.1946 0.5478 l
0.2010 0.5489 l
0.2074 0.5499 l
0.2137 0.5509 l
0.2201 0.5518 l
0.2265 0.5526 l
0.2328 0.5534 l
0.2392 0.5542 l
0.2456 0.5548 l
0.2520 0.5554 l
0.2583 0.5559 l
0.2647 0.5564 l
0.2711 0.5568 l
0.2775 0.5571 l
0.2838 0.5573 l
0.2902 0.5575 l
0.2966 0.5576 l
0.3029 0.5576 l
0.3093 0.5575 l
0.3157 0.5574 l
0.3221 0.5572 l
0.3284 0.5570 l
0.3348 0.5566 l
0.3412 0.5562 l
0.3475 0.5558 l
0.3539 0.5552 l
0.3603 0.5546 l
0.3667 0.5539 l
0.3730 0.5532 l
0.3794 0.5524 l
0.3858 0.5515 l
0.3922 0.5506 l
0.3985 0.5496 l
0.4049 0.5485 l
0.4113 0.5474 l
0.4176 0.5462 l
0.4240 0.5450 l
0.4304 0.5437 l
0.4368 0.5423 l
0.4431 0.5409 l
0.4495 0.5395 l
0.4559 0.5379 l
0.4623 0.5363 l
0.4686 0.5347 l
0.4750 0.5330 l
0.4814 0.5313 l
0.4877 0.5295 l
0.4941 0.5276 l
0.5005 0.5257 l
0.5069 0.5238 l
0.5132 0.5217 l
0.5196 0.5197 l
0.5260 0.5176 l
0.5324 0.5154 l
0.5387 0.5132 l
0.5451 0.5110 l
0.5515 0.5087 l
0.5578 0.5063 l
0.5642 0.5040 l
0.5706 0.5015 l
0.5748 0.4999 l
s
n
0.4586 0.5405 m
0.4686 0.5232 l
0.4786 0.5405 l
c
fill
[] 0 SD
0.0015 SLW
n
0.4586 0.5405 m
0.4686 0.5232 l
0.4786 0.5405 l
0.4586 0.5405 l
c
s
[/DeviceRGB] SCS
Color8 SC
[] 0 SD
0.0037 SLW
n
0.1499 0.5382 m
0.1500 0.5382 l
0.1564 0.5378 l
0.1627 0.5374 l
0.1691 0.5371 l
0.1755 0.5369 l
0.1819 0.5369 l
0.1882 0.5370 l
0.1946 0.5372 l
0.2010 0.5376 l
0.2074 0.5381 l
0.2137 0.5389 l
0.2201 0.5397 l
0.2265 0.5407 l
0.2328 0.5419 l
0.2392 0.5433 l
0.2456 0.5447 l
0.2520 0.5464 l
0.2583 0.5482 l
0.2647 0.5502 l
0.2711 0.5523 l
0.2775 0.5546 l
0.2838 0.5570 l
0.2902 0.5596 l
0.2966 0.5623 l
0.3029 0.5652 l
0.3093 0.5682 l
0.3157 0.5713 l
0.3221 0.5746 l
0.3284 0.5780 l
0.3348 0.5816 l
0.3412 0.5852 l
0.3475 0.5891 l
0.3539 0.5930 l
0.3603 0.5971 l
0.3667 0.6013 l
0.3730 0.6056 l
0.3794 0.6100 l
0.3858 0.6146 l
0.3922 0.6193 l
0.3985 0.6241 l
0.4049 0.6290 l
0.4113 0.6340 l
0.4176 0.6391 l
0.4240 0.6443 l
0.4304 0.6497 l
0.4368 0.6551 l
0.4431 0.6607 l
0.4495 0.6664 l
0.4559 0.6721 l
0.4623 0.6780 l
0.4686 0.6839 l
0.4750 0.6900 l
0.4814 0.6961 l
0.4877 0.7024 l
0.4941 0.7087 l
0.5005 0.7151 l
0.5069 0.7217 l
0.5132 0.7283 l
0.5196 0.7350 l
0.5260 0.7417 l
0.5324 0.7486 l
0.5387 0.7556 l
0.5451 0.7626 l
0.5515 0.7697 l
0.5578 0.7769 l
0.5642 0.7842 l
0.5706 0.7915 l
0.5770 0.7990 l
0.5833 0.8065 l
0.5897 0.8141 l
0.5961 0.8217 l
0.6025 0.8295 l
0.6088 0.8373 l
0.6152 0.8451 l
0.6192 0.8501 l
s
n
0.4686 0.6839 0.0100 0.0100 0 360 EARC c
GS
Color0 SRGB
fill
GR
[/Pattern /DeviceRGB] SCS
Color8 Pattern9 SC
fill
[/DeviceRGB] SCS
Color8 SC
[] 0 SD
0.0030 SLW
n 0.4686 0.6839 0.0100 0.0100 0 360 EARC s
[/DeviceRGB] SCS
Color15 SC
[] 0 SD
0.0037 SLW
n
0.1499 0.5379 m
0.1500 0.5379 l
0.1564 0.5373 l
0.1627 0.5366 l
0.1691 0.5361 l
0.1755 0.5356 l
0.1819 0.5352 l
0.1882 0.5350 l
0.1946 0.5349 l
0.2010 0.5350 l
0.2074 0.5352 l
0.2137 0.5356 l
0.2201 0.5361 l
0.2265 0.5368 l
0.2328 0.5377 l
0.2392 0.5387 l
0.2456 0.5399 l
0.2520 0.5413 l
0.2583 0.5428 l
0.2647 0.5445 l
0.2711 0.5463 l
0.2775 0.5483 l
0.2838 0.5505 l
0.2902 0.5528 l
0.2966 0.5553 l
0.3029 0.5579 l
0.3093 0.5607 l
0.3157 0.5636 l
0.3221 0.5667 l
0.3284 0.5699 l
0.3348 0.5732 l
0.3412 0.5767 l
0.3475 0.5804 l
0.3539 0.5841 l
0.3603 0.5880 l
0.3667 0.5921 l
0.3730 0.5962 l
0.3794 0.6005 l
0.3858 0.6050 l
0.3922 0.6095 l
0.3985 0.6142 l
0.4049 0.6190 l
0.4113 0.6239 l
0.4176 0.6290 l
0.4240 0.6341 l
0.4304 0.6394 l
0.4368 0.6448 l
0.4431 0.6503 l
0.4495 0.6559 l
0.4559 0.6616 l
0.4623 0.6674 l
0.4686 0.6733 l
0.4750 0.6793 l
0.4814 0.6855 l
0.4877 0.6917 l
0.4941 0.6980 l
0.5005 0.7045 l
0.5069 0.7110 l
0.5132 0.7176 l
0.5196 0.7243 l
0.5260 0.7311 l
0.5324 0.7380 l
0.5387 0.7450 l
0.5451 0.7521 l
0.5515 0.7593 l
0.5578 0.7665 l
0.5642 0.7739 l
0.5706 0.7813 l
0.5770 0.7888 l
0.5833 0.7964 l
0.5897 0.8041 l
0.5961 0.8118 l
0.6025 0.8197 l
0.6088 0.8276 l
0.6152 0.8356 l
0.6216 0.8436 l
0.6266 0.8501 l
s
n
0.4601 0.6648 m
0.4601 0.6818 l
0.4771 0.6818 l
0.4771 0.6648 l
c
GS
Color0 SRGB
fill
GR
[/Pattern /DeviceRGB] SCS
Color15 Pattern9 SC
fill
[/DeviceRGB] SCS
Color15 SC
[] 0 SD
0.0030 SLW
n
0.4601 0.6648 m
0.4601 0.6818 l
0.4771 0.6818 l
0.4771 0.6648 l
0.4601 0.6648 l
c
s
[/DeviceRGB] SCS
Color2 SC
[] 0 SD
0.0037 SLW
n
0.1499 0.5382 m
0.1500 0.5382 l
0.1564 0.5377 l
0.1627 0.5372 l
0.1691 0.5366 l
0.1755 0.5361 l
0.1819 0.5356 l
0.1882 0.5351 l
0.1946 0.5347 l
0.2010 0.5343 l
0.2074 0.5339 l
0.2137 0.5336 l
0.2201 0.5334 l
0.2265 0.5333 l
0.2328 0.5332 l
0.2392 0.5331 l
0.2456 0.5331 l
0.2520 0.5332 l
0.2583 0.5334 l
0.2647 0.5336 l
0.2711 0.5339 l
0.2775 0.5342 l
0.2838 0.5346 l
0.2902 0.5351 l
0.2966 0.5356 l
0.3029 0.5362 l
0.3093 0.5368 l
0.3157 0.5375 l
0.3221 0.5383 l
0.3284 0.5391 l
0.3348 0.5400 l
0.3412 0.5410 l
0.3475 0.5420 l
0.3539 0.5430 l
0.3603 0.5441 l
0.3667 0.5453 l
0.3730 0.5465 l
0.3794 0.5478 l
0.3858 0.5491 l
0.3922 0.5505 l
0.3985 0.5519 l
0.4049 0.5534 l
0.4113 0.5549 l
0.4176 0.5565 l
0.4240 0.5581 l
0.4304 0.5598 l
0.4368 0.5616 l
0.4431 0.5633 l
0.4495 0.5651 l
0.4559 0.5670 l
0.4623 0.5689 l
0.4686 0.5709 l
0.4750 0.5729 l
0.4814 0.5749 l
0.4877 0.5770 l
0.4941 0.5791 l
0.5005 0.5813 l
0.5069 0.5835 l
0.5132 0.5858 l
0.5196 0.5881 l
0.5260 0.5904 l
0.5324 0.5928 l
0.5387 0.5952 l
0.5451 0.5976 l
0.5515 0.6001 l
0.5578 0.6026 l
0.5642 0.6052 l
0.5706 0.6078 l
0.5770 0.6104 l
0.5833 0.6130 l
0.5897 0.6157 l
0.5961 0.6185 l
0.6025 0.6212 l
0.6088 0.6240 l
0.6152 0.6269 l
0.6216 0.6297 l
0.6279 0.6326 l
0.6343 0.6356 l
0.6407 0.6385 l
0.6471 0.6415 l
0.6472 0.6416 l
s
n
0.4686 0.5809 m
0.4586 0.5709 l
0.4686 0.5609 l
0.4786 0.5709 l
c
GS
Color0 SRGB
fill
GR
[/Pattern /DeviceRGB] SCS
Color2 Pattern9 SC
fill
[/DeviceRGB] SCS
Color2 SC
[] 0 SD
0.0030 SLW
n
0.4686 0.5809 m
0.4586 0.5709 l
0.4686 0.5609 l
0.4786 0.5709 l
0.4686 0.5809 l
c
s
[/DeviceRGB] SCS
Color15 SC
[0.0037 0.0112 0.0187 0.0112 ] 0 SD
0.0037 SLW
n
0.1499 0.5398 m
0.1500 0.5398 l
0.1564 0.5405 l
0.1627 0.5412 l
0.1691 0.5419 l
0.1755 0.5426 l
0.1819 0.5433 l
0.1882 0.5439 l
0.1946 0.5446 l
0.2010 0.5451 l
0.2074 0.5457 l
0.2137 0.5462 l
0.2201 0.5466 l
0.2265 0.5470 l
0.2328 0.5473 l
0.2392 0.5476 l
0.2456 0.5478 l
0.2520 0.5480 l
0.2583 0.5482 l
0.2647 0.5482 l
0.2711 0.5483 l
0.2775 0.5483 l
0.2838 0.5482 l
0.2902 0.5481 l
0.2966 0.5480 l
0.3029 0.5478 l
0.3093 0.5476 l
0.3157 0.5473 l
0.3221 0.5470 l
0.3284 0.5467 l
0.3348 0.5463 l
0.3412 0.5459 l
0.3475 0.5454 l
0.3539 0.5449 l
0.3603 0.5444 l
0.3667 0.5438 l
0.3730 0.5432 l
0.3794 0.5426 l
0.3858 0.5419 l
0.3922 0.5413 l
0.3985 0.5405 l
0.4049 0.5398 l
0.4113 0.5390 l
0.4176 0.5382 l
0.4240 0.5373 l
0.4304 0.5365 l
0.4368 0.5356 l
0.4431 0.5347 l
0.4495 0.5337 l
0.4559 0.5327 l
0.4623 0.5318 l
0.4686 0.5307 l
0.4750 0.5297 l
0.4814 0.5286 l
0.4877 0.5275 l
0.4941 0.5264 l
0.5005 0.5253 l
0.5069 0.5241 l
0.5132 0.5230 l
0.5196 0.5218 l
0.5260 0.5205 l
0.5324 0.5193 l
0.5387 0.5181 l
0.5451 0.5168 l
0.5515 0.5155 l
0.5578 0.5142 l
0.5642 0.5128 l
0.5706 0.5115 l
0.5770 0.5101 l
0.5833 0.5088 l
0.5897 0.5074 l
0.5961 0.5060 l
0.6025 0.5045 l
0.6088 0.5031 l
0.6152 0.5016 l
0.6216 0.5001 l
0.6226 0.4999 l
s
n
0.4049 0.5513 m
0.3949 0.5340 l
0.4149 0.5340 l
c
GS
Color0 SRGB
fill
GR
[/Pattern /DeviceRGB] SCS
Color15 Pattern9 SC
fill
[/DeviceRGB] SCS
Color15 SC
[] 0 SD
0.0030 SLW
n
0.4049 0.5513 m
0.3949 0.5340 l
0.4149 0.5340 l
0.4049 0.5513 l
c
s
[/DeviceRGB] SCS
Color3 SC
[0.0037 0.0112 ] 0 SD
0.0037 SLW
n
0.1499 0.5392 m
0.1500 0.5392 l
0.1564 0.5395 l
0.1627 0.5397 l
0.1691 0.5401 l
0.1755 0.5404 l
0.1819 0.5407 l
0.1882 0.5411 l
0.1946 0.5414 l
0.2010 0.5417 l
0.2074 0.5421 l
0.2137 0.5424 l
0.2201 0.5427 l
0.2265 0.5430 l
0.2328 0.5434 l
0.2392 0.5437 l
0.2456 0.5439 l
0.2520 0.5442 l
0.2583 0.5445 l
0.2647 0.5448 l
0.2711 0.5450 l
0.2775 0.5452 l
0.2838 0.5455 l
0.2902 0.5457 l
0.2966 0.5459 l
0.3029 0.5461 l
0.3093 0.5462 l
0.3157 0.5464 l
0.3221 0.5466 l
0.3284 0.5467 l
0.3348 0.5468 l
0.3412 0.5470 l
0.3475 0.5471 l
0.3539 0.5472 l
0.3603 0.5472 l
0.3667 0.5473 l
0.3730 0.5474 l
0.3794 0.5474 l
0.3858 0.5475 l
0.3922 0.5475 l
0.3985 0.5475 l
0.4049 0.5475 l
0.4113 0.5475 l
0.4176 0.5475 l
0.4240 0.5475 l
0.4304 0.5474 l
0.4368 0.5474 l
0.4431 0.5473 l
0.4495 0.5472 l
0.4559 0.5472 l
0.4623 0.5471 l
0.4686 0.5470 l
0.4750 0.5469 l
0.4814 0.5467 l
0.4877 0.5466 l
0.4941 0.5465 l
0.5005 0.5463 l
0.5069 0.5462 l
0.5132 0.5460 l
0.5196 0.5458 l
0.5260 0.5457 l
0.5324 0.5455 l
0.5387 0.5453 l
0.5451 0.5450 l
0.5515 0.5448 l
0.5578 0.5446 l
0.5642 0.5444 l
0.5706 0.5441 l
0.5770 0.5439 l
0.5833 0.5436 l
0.5897 0.5434 l
0.5961 0.5431 l
0.6025 0.5428 l
0.6088 0.5425 l
0.6152 0.5422 l
0.6216 0.5419 l
0.6279 0.5416 l
0.6343 0.5413 l
0.6407 0.5410 l
0.6471 0.5406 l
0.6472 0.5406 l
s
n
0.4841 0.5522 m
0.4941 0.5349 l
0.5041 0.5522 l
c
GS
Color0 SRGB
fill
GR
[/Pattern /DeviceRGB] SCS
Color3 Pattern9 SC
fill
[/DeviceRGB] SCS
Color3 SC
[] 0 SD
0.0030 SLW
n
0.4841 0.5522 m
0.4941 0.5349 l
0.5041 0.5522 l
0.4841 0.5522 l
c
s
[/DeviceRGB] SCS
Color1 SC
[] 0 SD
0.0045 SLW
n
0.1500 0.5000 m
0.6471 0.5000 l
s
n
0.1500 0.8500 m
0.6471 0.8500 l
s
n
0.2010 0.5000 m
0.2010 0.5100 l
s
n
0.2010 0.8500 m
0.2010 0.8400 l
s
n
0.3284 0.5000 m
0.3284 0.5100 l
s
n
0.3284 0.8500 m
0.3284 0.8400 l
s
n
0.4559 0.5000 m
0.4559 0.5100 l
s
n
0.4559 0.8500 m
0.4559 0.8400 l
s
n
0.5833 0.5000 m
0.5833 0.5100 l
s
n
0.5833 0.8500 m
0.5833 0.8400 l
s
n
0.2647 0.5000 m
0.2647 0.5200 l
s
n
0.2647 0.8500 m
0.2647 0.8300 l
s
n
0.3922 0.5000 m
0.3922 0.5200 l
s
n
0.3922 0.8500 m
0.3922 0.8300 l
s
n
0.5196 0.5000 m
0.5196 0.5200 l
s
n
0.5196 0.8500 m
0.5196 0.8300 l
s
n
0.6471 0.5000 m
0.6471 0.5200 l
s
n
0.6471 0.8500 m
0.6471 0.8300 l
s
n
0.1500 0.5000 m
0.1500 0.8500 l
s
n
0.1500 0.5000 m
0.1600 0.5000 l
s
n
0.1500 0.5778 m
0.1600 0.5778 l
s
n
0.1500 0.6556 m
0.1600 0.6556 l
s
n
0.1500 0.7333 m
0.1600 0.7333 l
s
n
0.1500 0.8111 m
0.1600 0.8111 l
s
n
0.1500 0.5389 m
0.1700 0.5389 l
s
n
0.1500 0.6167 m
0.1700 0.6167 l
s
n
0.1500 0.6944 m
0.1700 0.6944 l
s
n
0.1500 0.7722 m
0.1700 0.7722 l
s
n
0.1500 0.8500 m
0.1700 0.8500 l
s
/Times-Roman findfont
dup length dict begin
 {1 index /FID ne {def} {pop pop} ifelse} forall
 /Encoding DefEncoding def
 currentdict
end
/Font0 exch definefont pop
/Font0 FFSF
0.1188 0.5240 m
GS
[0.0448 0.0000 0.0000 0.0448 0 0] CC
(0) show
GR
/Font0 FFSF
0.0965 0.6018 m
GS
[0.0448 0.0000 0.0000 0.0448 0 0] CC
(10) show
GR
/Font0 FFSF
0.0965 0.6795 m
GS
[0.0448 0.0000 0.0000 0.0448 0 0] CC
(20) show
GR
/Font0 FFSF
0.0965 0.7573 m
GS
[0.0448 0.0000 0.0000 0.0448 0 0] CC
(30) show
GR
/Font0 FFSF
0.0965 0.8351 m
GS
[0.0448 0.0000 0.0000 0.0448 0 0] CC
(40) show
GR
/Font0 FFSF
0.0782 0.5795 m
GS
[0.0000 0.0459 -0.0459 0.0000 0 0] CC
(\(S=0,T=0\)) show
GR
[] 0 SD
0.0015 SLW
n
0.1500 0.5000 m
0.1500 0.8500 l
0.6471 0.8500 l
0.6471 0.5000 l
0.1500 0.5000 l
c
s
/Font0 FFSF
0.5833 0.8889 m
GS
[0.0566 0.0000 0.0000 0.0566 0 0] CC
(\(MeV\)) show
GR
n
0.6480 0.5296 m
0.6480 0.5463 l
0.6647 0.5463 l
0.6647 0.5296 l
c
GS
Color0 SRGB
fill
GR
[/Pattern /DeviceRGB] SCS
Color1 Pattern8 SC
fill
[/DeviceRGB] SCS
Color1 SC
[] 0 SD
0.0030 SLW
n
0.6480 0.5296 m
0.6480 0.5463 l
0.6647 0.5463 l
0.6647 0.5296 l
0.6480 0.5296 l
c
s
n
0.6574 0.5291 m
0.6574 0.5457 l
0.6740 0.5457 l
0.6740 0.5291 l
c
GS
Color0 SRGB
fill
GR
[/Pattern /DeviceRGB] SCS
Color1 Pattern8 SC
fill
[/DeviceRGB] SCS
Color1 SC
n
0.6574 0.5291 m
0.6574 0.5457 l
0.6740 0.5457 l
0.6740 0.5291 l
0.6574 0.5291 l
c
s
n
0.6690 0.5285 m
0.6690 0.5452 l
0.6857 0.5452 l
0.6857 0.5285 l
c
GS
Color0 SRGB
fill
GR
[/Pattern /DeviceRGB] SCS
Color1 Pattern8 SC
fill
[/DeviceRGB] SCS
Color1 SC
n
0.6690 0.5285 m
0.6690 0.5452 l
0.6857 0.5452 l
0.6857 0.5285 l
0.6690 0.5285 l
c
s
n
0.6833 0.5280 m
0.6833 0.5446 l
0.6999 0.5446 l
0.6999 0.5280 l
c
GS
Color0 SRGB
fill
GR
[/Pattern /DeviceRGB] SCS
Color1 Pattern8 SC
fill
[/DeviceRGB] SCS
Color1 SC
n
0.6833 0.5280 m
0.6833 0.5446 l
0.6999 0.5446 l
0.6999 0.5280 l
0.6833 0.5280 l
c
s
n
0.7004 0.5281 m
0.7004 0.5448 l
0.7170 0.5448 l
0.7170 0.5281 l
c
GS
Color0 SRGB
fill
GR
[/Pattern /DeviceRGB] SCS
Color1 Pattern8 SC
fill
[/DeviceRGB] SCS
Color1 SC
n
0.7004 0.5281 m
0.7004 0.5448 l
0.7170 0.5448 l
0.7170 0.5281 l
0.7004 0.5281 l
c
s
n
0.7206 0.5293 m
0.7206 0.5460 l
0.7372 0.5460 l
0.7372 0.5293 l
c
GS
Color0 SRGB
fill
GR
[/Pattern /DeviceRGB] SCS
Color1 Pattern8 SC
fill
[/DeviceRGB] SCS
Color1 SC
n
0.7206 0.5293 m
0.7206 0.5460 l
0.7372 0.5460 l
0.7372 0.5293 l
0.7206 0.5293 l
c
s
n
0.7441 0.5323 m
0.7441 0.5489 l
0.7608 0.5489 l
0.7608 0.5323 l
c
GS
Color0 SRGB
fill
GR
[/Pattern /DeviceRGB] SCS
Color1 Pattern8 SC
fill
[/DeviceRGB] SCS
Color1 SC
n
0.7441 0.5323 m
0.7441 0.5489 l
0.7608 0.5489 l
0.7608 0.5323 l
0.7441 0.5323 l
c
s
n
0.7713 0.5379 m
0.7713 0.5545 l
0.7879 0.5545 l
0.7879 0.5379 l
c
GS
Color0 SRGB
fill
GR
[/Pattern /DeviceRGB] SCS
Color1 Pattern8 SC
fill
[/DeviceRGB] SCS
Color1 SC
n
0.7713 0.5379 m
0.7713 0.5545 l
0.7879 0.5545 l
0.7879 0.5379 l
0.7713 0.5379 l
c
s
n
0.8023 0.5470 m
0.8023 0.5637 l
0.8190 0.5637 l
0.8190 0.5470 l
c
GS
Color0 SRGB
fill
GR
[/Pattern /DeviceRGB] SCS
Color1 Pattern8 SC
fill
[/DeviceRGB] SCS
Color1 SC
n
0.8023 0.5470 m
0.8023 0.5637 l
0.8190 0.5637 l
0.8190 0.5470 l
0.8023 0.5470 l
c
s
n
0.8375 0.5609 m
0.8375 0.5776 l
0.8541 0.5776 l
0.8541 0.5609 l
c
GS
Color0 SRGB
fill
GR
[/Pattern /DeviceRGB] SCS
Color1 Pattern8 SC
fill
[/DeviceRGB] SCS
Color1 SC
n
0.8375 0.5609 m
0.8375 0.5776 l
0.8541 0.5776 l
0.8541 0.5609 l
0.8375 0.5609 l
c
s
n
0.8770 0.5809 m
0.8770 0.5976 l
0.8937 0.5976 l
0.8937 0.5809 l
c
GS
Color0 SRGB
fill
GR
[/Pattern /DeviceRGB] SCS
Color1 Pattern8 SC
fill
[/DeviceRGB] SCS
Color1 SC
n
0.8770 0.5809 m
0.8770 0.5976 l
0.8937 0.5976 l
0.8937 0.5809 l
0.8770 0.5809 l
c
s
n
0.9212 0.6091 m
0.9212 0.6258 l
0.9379 0.6258 l
0.9379 0.6091 l
c
GS
Color0 SRGB
fill
GR
[/Pattern /DeviceRGB] SCS
Color1 Pattern8 SC
fill
[/DeviceRGB] SCS
Color1 SC
n
0.9212 0.6091 m
0.9212 0.6258 l
0.9379 0.6258 l
0.9379 0.6091 l
0.9212 0.6091 l
c
s
n
0.9703 0.6476 m
0.9703 0.6643 l
0.9870 0.6643 l
0.9870 0.6476 l
c
GS
Color0 SRGB
fill
GR
[/Pattern /DeviceRGB] SCS
Color1 Pattern8 SC
fill
[/DeviceRGB] SCS
Color1 SC
n
0.9703 0.6476 m
0.9703 0.6643 l
0.9870 0.6643 l
0.9870 0.6476 l
0.9703 0.6476 l
c
s
n
1.0246 0.6967 m
1.0246 0.7134 l
1.0413 0.7134 l
1.0413 0.6967 l
c
GS
Color0 SRGB
fill
GR
[/Pattern /DeviceRGB] SCS
Color1 Pattern8 SC
fill
[/DeviceRGB] SCS
Color1 SC
n
1.0246 0.6967 m
1.0246 0.7134 l
1.0413 0.7134 l
1.0413 0.6967 l
1.0246 0.6967 l
c
s
n
1.0843 0.7602 m
1.0843 0.7769 l
1.1010 0.7769 l
1.1010 0.7602 l
c
GS
Color0 SRGB
fill
GR
[/Pattern /DeviceRGB] SCS
Color1 Pattern8 SC
fill
[/DeviceRGB] SCS
Color1 SC
n
1.0843 0.7602 m
1.0843 0.7769 l
1.1010 0.7769 l
1.1010 0.7602 l
1.0843 0.7602 l
c
s
[0.0187 0.0112 ] 0 SD
0.0037 SLW
n
0.6470 0.5389 m
0.6471 0.5389 l
0.6534 0.5389 l
0.6598 0.5388 l
0.6662 0.5388 l
0.6725 0.5388 l
0.6789 0.5388 l
0.6853 0.5388 l
0.6917 0.5388 l
0.6980 0.5388 l
0.7044 0.5388 l
0.7108 0.5389 l
0.7172 0.5389 l
0.7235 0.5389 l
0.7299 0.5389 l
0.7363 0.5390 l
0.7426 0.5390 l
0.7490 0.5390 l
0.7554 0.5391 l
0.7618 0.5391 l
0.7681 0.5391 l
0.7745 0.5392 l
0.7809 0.5393 l
0.7873 0.5393 l
0.7936 0.5394 l
0.8000 0.5394 l
0.8064 0.5395 l
0.8127 0.5396 l
0.8191 0.5396 l
0.8255 0.5397 l
0.8319 0.5398 l
0.8382 0.5399 l
0.8446 0.5400 l
0.8510 0.5401 l
0.8574 0.5402 l
0.8637 0.5402 l
0.8701 0.5403 l
0.8765 0.5404 l
0.8828 0.5406 l
0.8892 0.5407 l
0.8956 0.5408 l
0.9020 0.5409 l
0.9083 0.5410 l
0.9147 0.5411 l
0.9211 0.5412 l
0.9275 0.5414 l
0.9338 0.5415 l
0.9402 0.5416 l
0.9466 0.5417 l
0.9529 0.5419 l
0.9593 0.5420 l
0.9657 0.5421 l
0.9721 0.5423 l
0.9784 0.5424 l
0.9848 0.5426 l
0.9912 0.5427 l
0.9975 0.5429 l
1.0039 0.5430 l
1.0103 0.5432 l
1.0167 0.5433 l
1.0230 0.5435 l
1.0294 0.5436 l
1.0358 0.5438 l
1.0422 0.5439 l
1.0485 0.5441 l
1.0549 0.5443 l
1.0613 0.5444 l
1.0676 0.5446 l
1.0740 0.5448 l
1.0804 0.5450 l
1.0868 0.5451 l
1.0931 0.5453 l
1.0995 0.5455 l
1.1059 0.5457 l
1.1123 0.5458 l
1.1186 0.5460 l
1.1250 0.5462 l
1.1314 0.5464 l
1.1377 0.5466 l
1.1441 0.5468 l
1.1442 0.5468 l
s
n
0.9657 0.5421 0.0098 0.0098 0 360 EARC c
fill
[] 0 SD
0.0030 SLW
n 0.9657 0.5421 0.0098 0.0098 0 360 EARC s
[/DeviceRGB] SCS
Color2 SC
[0.0187 0.0112 ] 0 SD
0.0037 SLW
n
0.6470 0.5390 m
0.6471 0.5390 l
0.6534 0.5390 l
0.6598 0.5391 l
0.6662 0.5392 l
0.6725 0.5393 l
0.6789 0.5393 l
0.6853 0.5394 l
0.6917 0.5395 l
0.6980 0.5396 l
0.7044 0.5398 l
0.7108 0.5399 l
0.7172 0.5400 l
0.7235 0.5401 l
0.7299 0.5402 l
0.7363 0.5403 l
0.7426 0.5405 l
0.7490 0.5406 l
0.7554 0.5407 l
0.7618 0.5408 l
0.7681 0.5410 l
0.7745 0.5411 l
0.7809 0.5412 l
0.7873 0.5413 l
0.7936 0.5415 l
0.8000 0.5416 l
0.8064 0.5417 l
0.8127 0.5419 l
0.8191 0.5420 l
0.8255 0.5421 l
0.8319 0.5423 l
0.8382 0.5424 l
0.8446 0.5425 l
0.8510 0.5427 l
0.8574 0.5428 l
0.8637 0.5429 l
0.8701 0.5431 l
0.8765 0.5432 l
0.8828 0.5433 l
0.8892 0.5435 l
0.8956 0.5436 l
0.9020 0.5438 l
0.9083 0.5439 l
0.9147 0.5440 l
0.9211 0.5442 l
0.9275 0.5443 l
0.9338 0.5444 l
0.9402 0.5446 l
0.9466 0.5447 l
0.9529 0.5448 l
0.9593 0.5450 l
0.9657 0.5451 l
0.9721 0.5452 l
0.9784 0.5454 l
0.9848 0.5455 l
0.9912 0.5456 l
0.9975 0.5458 l
1.0039 0.5459 l
1.0103 0.5460 l
1.0167 0.5462 l
1.0230 0.5463 l
1.0294 0.5465 l
1.0358 0.5466 l
1.0422 0.5467 l
1.0485 0.5469 l
1.0549 0.5470 l
1.0613 0.5471 l
1.0676 0.5473 l
1.0740 0.5474 l
1.0804 0.5475 l
1.0868 0.5477 l
1.0931 0.5478 l
1.0995 0.5479 l
1.1059 0.5480 l
1.1123 0.5482 l
1.1186 0.5483 l
1.1250 0.5484 l
1.1314 0.5486 l
1.1377 0.5487 l
1.1441 0.5488 l
1.1442 0.5488 l
s
n
0.9572 0.5366 m
0.9572 0.5536 l
0.9742 0.5536 l
0.9742 0.5366 l
c
fill
[] 0 SD
0.0015 SLW
n
0.9572 0.5366 m
0.9572 0.5536 l
0.9742 0.5536 l
0.9742 0.5366 l
0.9572 0.5366 l
c
s
[/DeviceRGB] SCS
Color4 SC
[0.0037 0.0112 ] 0 SD
0.0037 SLW
n
0.6470 0.5369 m
0.6471 0.5369 l
0.6534 0.5354 l
0.6598 0.5337 l
0.6662 0.5319 l
0.6725 0.5302 l
0.6789 0.5284 l
0.6853 0.5267 l
0.6917 0.5251 l
0.6980 0.5236 l
0.7044 0.5222 l
0.7108 0.5209 l
0.7172 0.5197 l
0.7235 0.5186 l
0.7299 0.5176 l
0.7363 0.5168 l
0.7426 0.5161 l
0.7490 0.5155 l
0.7554 0.5150 l
0.7618 0.5147 l
0.7681 0.5145 l
0.7745 0.5145 l
0.7809 0.5146 l
0.7873 0.5148 l
0.7936 0.5151 l
0.8000 0.5156 l
0.8064 0.5161 l
0.8127 0.5168 l
0.8191 0.5177 l
0.8255 0.5186 l
0.8319 0.5197 l
0.8382 0.5209 l
0.8446 0.5222 l
0.8510 0.5236 l
0.8574 0.5252 l
0.8637 0.5268 l
0.8701 0.5286 l
0.8765 0.5305 l
0.8828 0.5324 l
0.8892 0.5345 l
0.8956 0.5367 l
0.9020 0.5390 l
0.9083 0.5414 l
0.9147 0.5439 l
0.9211 0.5465 l
0.9275 0.5491 l
0.9338 0.5519 l
0.9402 0.5548 l
0.9466 0.5578 l
0.9529 0.5608 l
0.9593 0.5640 l
0.9657 0.5672 l
0.9721 0.5705 l
0.9784 0.5739 l
0.9848 0.5774 l
0.9912 0.5810 l
0.9975 0.5846 l
1.0039 0.5884 l
1.0103 0.5922 l
1.0167 0.5961 l
1.0230 0.6000 l
1.0294 0.6041 l
1.0358 0.6082 l
1.0422 0.6124 l
1.0485 0.6166 l
1.0549 0.6210 l
1.0613 0.6254 l
1.0676 0.6298 l
1.0740 0.6344 l
1.0804 0.6390 l
1.0868 0.6436 l
1.0931 0.6484 l
1.0995 0.6532 l
1.1059 0.6580 l
1.1123 0.6630 l
1.1186 0.6679 l
1.1250 0.6730 l
1.1314 0.6781 l
1.1377 0.6833 l
1.1441 0.6885 l
1.1442 0.6886 l
s
n
0.9657 0.5772 m
0.9557 0.5672 l
0.9657 0.5572 l
0.9757 0.5672 l
c
fill
[] 0 SD
0.0015 SLW
n
0.9657 0.5772 m
0.9557 0.5672 l
0.9657 0.5572 l
0.9757 0.5672 l
0.9657 0.5772 l
c
s
[/DeviceRGB] SCS
Color11 SC
[0.0037 0.0112 0.0187 0.0112 0.0037 0.0112 ] 0 SD
0.0037 SLW
n
0.6470 0.5361 m
0.6471 0.5361 l
0.6534 0.5337 l
0.6598 0.5310 l
0.6662 0.5280 l
0.6725 0.5248 l
0.6789 0.5215 l
0.6853 0.5181 l
0.6917 0.5146 l
0.6980 0.5111 l
0.7044 0.5076 l
0.7108 0.5041 l
0.7172 0.5006 l
0.7186 0.4999 l
s
n
1.0742 0.4999 m
1.0804 0.5037 l
1.0868 0.5077 l
1.0931 0.5119 l
1.0995 0.5162 l
1.1059 0.5206 l
1.1123 0.5252 l
1.1186 0.5299 l
1.1250 0.5347 l
1.1314 0.5396 l
1.1377 0.5447 l
1.1441 0.5498 l
1.1442 0.5499 l
s
n
1.1186 0.5414 m
1.1086 0.5241 l
1.1286 0.5241 l
c
fill
[] 0 SD
0.0015 SLW
n
1.1186 0.5414 m
1.1086 0.5241 l
1.1286 0.5241 l
1.1186 0.5414 l
c
s
[/DeviceRGB] SCS
Color3 SC
[] 0 SD
0.0037 SLW
n
0.6470 0.5392 m
0.6471 0.5392 l
0.6534 0.5394 l
0.6598 0.5397 l
0.6662 0.5400 l
0.6725 0.5404 l
0.6789 0.5407 l
0.6853 0.5411 l
0.6917 0.5415 l
0.6980 0.5419 l
0.7044 0.5423 l
0.7108 0.5428 l
0.7172 0.5432 l
0.7235 0.5437 l
0.7299 0.5441 l
0.7363 0.5446 l
0.7426 0.5450 l
0.7490 0.5455 l
0.7554 0.5459 l
0.7618 0.5464 l
0.7681 0.5469 l
0.7745 0.5474 l
0.7809 0.5478 l
0.7873 0.5483 l
0.7936 0.5488 l
0.8000 0.5493 l
0.8064 0.5497 l
0.8127 0.5502 l
0.8191 0.5507 l
0.8255 0.5511 l
0.8319 0.5516 l
0.8382 0.5521 l
0.8446 0.5526 l
0.8510 0.5530 l
0.8574 0.5535 l
0.8637 0.5540 l
0.8701 0.5544 l
0.8765 0.5549 l
0.8828 0.5554 l
0.8892 0.5558 l
0.8956 0.5563 l
0.9020 0.5567 l
0.9083 0.5572 l
0.9147 0.5576 l
0.9211 0.5581 l
0.9275 0.5586 l
0.9338 0.5590 l
0.9402 0.5595 l
0.9466 0.5599 l
0.9529 0.5603 l
0.9593 0.5608 l
0.9657 0.5612 l
0.9721 0.5617 l
0.9784 0.5621 l
0.9848 0.5625 l
0.9912 0.5630 l
0.9975 0.5634 l
1.0039 0.5638 l
1.0103 0.5643 l
1.0167 0.5647 l
1.0230 0.5651 l
1.0294 0.5655 l
1.0358 0.5660 l
1.0422 0.5664 l
1.0485 0.5668 l
1.0549 0.5672 l
1.0613 0.5676 l
1.0676 0.5680 l
1.0740 0.5684 l
1.0804 0.5688 l
1.0868 0.5693 l
1.0931 0.5697 l
1.0995 0.5701 l
1.1059 0.5705 l
1.1123 0.5709 l
1.1186 0.5713 l
1.1250 0.5717 l
1.1314 0.5720 l
1.1377 0.5724 l
1.1441 0.5728 l
1.1442 0.5728 l
s
n
0.9557 0.5670 m
0.9657 0.5497 l
0.9757 0.5670 l
c
fill
[] 0 SD
0.0015 SLW
n
0.9557 0.5670 m
0.9657 0.5497 l
0.9757 0.5670 l
0.9557 0.5670 l
c
s
[/DeviceRGB] SCS
Color8 SC
[] 0 SD
0.0037 SLW
n
0.6470 0.5386 m
0.6471 0.5386 l
0.6534 0.5384 l
0.6598 0.5382 l
0.6662 0.5380 l
0.6725 0.5378 l
0.6789 0.5376 l
0.6853 0.5375 l
0.6917 0.5373 l
0.6980 0.5372 l
0.7044 0.5370 l
0.7108 0.5369 l
0.7172 0.5369 l
0.7235 0.5368 l
0.7299 0.5368 l
0.7363 0.5368 l
0.7426 0.5368 l
0.7490 0.5368 l
0.7554 0.5369 l
0.7618 0.5370 l
0.7681 0.5371 l
0.7745 0.5373 l
0.7809 0.5374 l
0.7873 0.5376 l
0.7936 0.5378 l
0.8000 0.5381 l
0.8064 0.5383 l
0.8127 0.5386 l
0.8191 0.5389 l
0.8255 0.5393 l
0.8319 0.5396 l
0.8382 0.5400 l
0.8446 0.5404 l
0.8510 0.5408 l
0.8574 0.5413 l
0.8637 0.5418 l
0.8701 0.5423 l
0.8765 0.5428 l
0.8828 0.5433 l
0.8892 0.5438 l
0.8956 0.5444 l
0.9020 0.5450 l
0.9083 0.5456 l
0.9147 0.5463 l
0.9211 0.5469 l
0.9275 0.5476 l
0.9338 0.5483 l
0.9402 0.5490 l
0.9466 0.5497 l
0.9529 0.5504 l
0.9593 0.5512 l
0.9657 0.5520 l
0.9721 0.5528 l
0.9784 0.5536 l
0.9848 0.5544 l
0.9912 0.5552 l
0.9975 0.5561 l
1.0039 0.5570 l
1.0103 0.5579 l
1.0167 0.5588 l
1.0230 0.5597 l
1.0294 0.5606 l
1.0358 0.5616 l
1.0422 0.5626 l
1.0485 0.5635 l
1.0549 0.5645 l
1.0613 0.5656 l
1.0676 0.5666 l
1.0740 0.5676 l
1.0804 0.5687 l
1.0868 0.5697 l
1.0931 0.5708 l
1.0995 0.5719 l
1.1059 0.5730 l
1.1123 0.5741 l
1.1186 0.5753 l
1.1250 0.5764 l
1.1314 0.5776 l
1.1377 0.5787 l
1.1441 0.5799 l
1.1442 0.5799 l
s
n
0.9657 0.5520 0.0100 0.0100 0 360 EARC c
GS
Color0 SRGB
fill
GR
[/Pattern /DeviceRGB] SCS
Color8 Pattern9 SC
fill
[/DeviceRGB] SCS
Color8 SC
[] 0 SD
0.0030 SLW
n 0.9657 0.5520 0.0100 0.0100 0 360 EARC s
[/DeviceRGB] SCS
Color15 SC
[] 0 SD
0.0037 SLW
n
0.6470 0.5377 m
0.6471 0.5377 l
0.6534 0.5368 l
0.6598 0.5360 l
0.6662 0.5353 l
0.6725 0.5347 l
0.6789 0.5342 l
0.6853 0.5339 l
0.6917 0.5338 l
0.6980 0.5338 l
0.7044 0.5341 l
0.7108 0.5345 l
0.7172 0.5351 l
0.7235 0.5360 l
0.7299 0.5370 l
0.7363 0.5383 l
0.7426 0.5397 l
0.7490 0.5414 l
0.7554 0.5432 l
0.7618 0.5453 l
0.7681 0.5475 l
0.7745 0.5500 l
0.7809 0.5526 l
0.7873 0.5555 l
0.7936 0.5585 l
0.8000 0.5617 l
0.8064 0.5651 l
0.8127 0.5687 l
0.8191 0.5725 l
0.8255 0.5764 l
0.8319 0.5806 l
0.8382 0.5849 l
0.8446 0.5893 l
0.8510 0.5940 l
0.8574 0.5988 l
0.8637 0.6038 l
0.8701 0.6089 l
0.8765 0.6142 l
0.8828 0.6197 l
0.8892 0.6253 l
0.8956 0.6310 l
0.9020 0.6370 l
0.9083 0.6430 l
0.9147 0.6492 l
0.9211 0.6556 l
0.9275 0.6621 l
0.9338 0.6687 l
0.9402 0.6755 l
0.9466 0.6824 l
0.9529 0.6895 l
0.9593 0.6967 l
0.9657 0.7040 l
0.9721 0.7114 l
0.9784 0.7190 l
0.9848 0.7267 l
0.9912 0.7345 l
0.9975 0.7425 l
1.0039 0.7505 l
1.0103 0.7587 l
1.0167 0.7670 l
1.0230 0.7754 l
1.0294 0.7839 l
1.0358 0.7926 l
1.0422 0.8013 l
1.0485 0.8102 l
1.0549 0.8192 l
1.0613 0.8282 l
1.0676 0.8374 l
1.0740 0.8467 l
1.0763 0.8501 l
s
n
0.9572 0.6955 m
0.9572 0.7125 l
0.9742 0.7125 l
0.9742 0.6955 l
c
GS
Color0 SRGB
fill
GR
[/Pattern /DeviceRGB] SCS
Color15 Pattern9 SC
fill
[/DeviceRGB] SCS
Color15 SC
[] 0 SD
0.0030 SLW
n
0.9572 0.6955 m
0.9572 0.7125 l
0.9742 0.7125 l
0.9742 0.6955 l
0.9572 0.6955 l
c
s
[/DeviceRGB] SCS
Color2 SC
[] 0 SD
0.0037 SLW
n
0.6470 0.5386 m
0.6471 0.5386 l
0.6534 0.5383 l
0.6598 0.5381 l
0.6662 0.5379 l
0.6725 0.5377 l
0.6789 0.5375 l
0.6853 0.5374 l
0.6917 0.5374 l
0.6980 0.5374 l
0.7044 0.5374 l
0.7108 0.5375 l
0.7172 0.5376 l
0.7235 0.5378 l
0.7299 0.5381 l
0.7363 0.5384 l
0.7426 0.5387 l
0.7490 0.5391 l
0.7554 0.5396 l
0.7618 0.5401 l
0.7681 0.5407 l
0.7745 0.5413 l
0.7809 0.5420 l
0.7873 0.5427 l
0.7936 0.5435 l
0.8000 0.5443 l
0.8064 0.5452 l
0.8127 0.5461 l
0.8191 0.5470 l
0.8255 0.5481 l
0.8319 0.5491 l
0.8382 0.5502 l
0.8446 0.5514 l
0.8510 0.5526 l
0.8574 0.5538 l
0.8637 0.5551 l
0.8701 0.5565 l
0.8765 0.5578 l
0.8828 0.5592 l
0.8892 0.5607 l
0.8956 0.5622 l
0.9020 0.5637 l
0.9083 0.5653 l
0.9147 0.5669 l
0.9211 0.5686 l
0.9275 0.5703 l
0.9338 0.5720 l
0.9402 0.5738 l
0.9466 0.5756 l
0.9529 0.5774 l
0.9593 0.5793 l
0.9657 0.5812 l
0.9721 0.5832 l
0.9784 0.5851 l
0.9848 0.5872 l
0.9912 0.5892 l
0.9975 0.5913 l
1.0039 0.5934 l
1.0103 0.5955 l
1.0167 0.5977 l
1.0230 0.5999 l
1.0294 0.6021 l
1.0358 0.6044 l
1.0422 0.6067 l
1.0485 0.6090 l
1.0549 0.6114 l
1.0613 0.6137 l
1.0676 0.6161 l
1.0740 0.6186 l
1.0804 0.6210 l
1.0868 0.6235 l
1.0931 0.6260 l
1.0995 0.6286 l
1.1059 0.6311 l
1.1123 0.6337 l
1.1186 0.6364 l
1.1250 0.6390 l
1.1314 0.6417 l
1.1377 0.6443 l
1.1441 0.6471 l
1.1442 0.6471 l
s
n
0.9657 0.5912 m
0.9557 0.5812 l
0.9657 0.5712 l
0.9757 0.5812 l
c
GS
Color0 SRGB
fill
GR
[/Pattern /DeviceRGB] SCS
Color2 Pattern9 SC
fill
[/DeviceRGB] SCS
Color2 SC
[] 0 SD
0.0030 SLW
n
0.9657 0.5912 m
0.9557 0.5812 l
0.9657 0.5712 l
0.9757 0.5812 l
0.9657 0.5912 l
c
s
[/DeviceRGB] SCS
Color15 SC
[0.0037 0.0112 0.0187 0.0112 ] 0 SD
0.0037 SLW
n
0.6470 0.5373 m
0.6471 0.5373 l
0.6534 0.5361 l
0.6598 0.5348 l
0.6662 0.5335 l
0.6725 0.5323 l
0.6789 0.5311 l
0.6853 0.5300 l
0.6917 0.5289 l
0.6980 0.5280 l
0.7044 0.5271 l
0.7108 0.5264 l
0.7172 0.5257 l
0.7235 0.5251 l
0.7299 0.5246 l
0.7363 0.5243 l
0.7426 0.5240 l
0.7490 0.5238 l
0.7554 0.5237 l
0.7618 0.5238 l
0.7681 0.5239 l
0.7745 0.5241 l
0.7809 0.5243 l
0.7873 0.5247 l
0.7936 0.5252 l
0.8000 0.5257 l
0.8064 0.5264 l
0.8127 0.5271 l
0.8191 0.5278 l
0.8255 0.5287 l
0.8319 0.5296 l
0.8382 0.5307 l
0.8446 0.5317 l
0.8510 0.5329 l
0.8574 0.5341 l
0.8637 0.5354 l
0.8701 0.5368 l
0.8765 0.5382 l
0.8828 0.5397 l
0.8892 0.5412 l
0.8956 0.5428 l
0.9020 0.5445 l
0.9083 0.5462 l
0.9147 0.5479 l
0.9211 0.5498 l
0.9275 0.5516 l
0.9338 0.5536 l
0.9402 0.5556 l
0.9466 0.5576 l
0.9529 0.5597 l
0.9593 0.5618 l
0.9657 0.5640 l
0.9721 0.5662 l
0.9784 0.5685 l
0.9848 0.5708 l
0.9912 0.5731 l
0.9975 0.5755 l
1.0039 0.5780 l
1.0103 0.5804 l
1.0167 0.5830 l
1.0230 0.5855 l
1.0294 0.5881 l
1.0358 0.5907 l
1.0422 0.5934 l
1.0485 0.5961 l
1.0549 0.5988 l
1.0613 0.6016 l
1.0676 0.6044 l
1.0740 0.6073 l
1.0804 0.6101 l
1.0868 0.6130 l
1.0931 0.6160 l
1.0995 0.6189 l
1.1059 0.6219 l
1.1123 0.6250 l
1.1186 0.6280 l
1.1250 0.6311 l
1.1314 0.6342 l
1.1377 0.6374 l
1.1441 0.6405 l
1.1442 0.6406 l
s
n
0.9784 0.5800 m
0.9684 0.5627 l
0.9884 0.5627 l
c
GS
Color0 SRGB
fill
GR
[/Pattern /DeviceRGB] SCS
Color15 Pattern9 SC
fill
[/DeviceRGB] SCS
Color15 SC
[] 0 SD
0.0030 SLW
n
0.9784 0.5800 m
0.9684 0.5627 l
0.9884 0.5627 l
0.9784 0.5800 l
c
s
[/DeviceRGB] SCS
Color3 SC
[0.0037 0.0112 ] 0 SD
0.0037 SLW
n
0.6470 0.5389 m
0.6471 0.5389 l
0.6534 0.5389 l
0.6598 0.5388 l
0.6662 0.5388 l
0.6725 0.5388 l
0.6789 0.5388 l
0.6853 0.5388 l
0.6917 0.5388 l
0.6980 0.5388 l
0.7044 0.5388 l
0.7108 0.5389 l
0.7172 0.5389 l
0.7235 0.5389 l
0.7299 0.5389 l
0.7363 0.5390 l
0.7426 0.5390 l
0.7490 0.5390 l
0.7554 0.5391 l
0.7618 0.5391 l
0.7681 0.5391 l
0.7745 0.5392 l
0.7809 0.5393 l
0.7873 0.5393 l
0.7936 0.5394 l
0.8000 0.5394 l
0.8064 0.5395 l
0.8127 0.5396 l
0.8191 0.5396 l
0.8255 0.5397 l
0.8319 0.5398 l
0.8382 0.5399 l
0.8446 0.5400 l
0.8510 0.5401 l
0.8574 0.5402 l
0.8637 0.5402 l
0.8701 0.5403 l
0.8765 0.5404 l
0.8828 0.5406 l
0.8892 0.5407 l
0.8956 0.5408 l
0.9020 0.5409 l
0.9083 0.5410 l
0.9147 0.5411 l
0.9211 0.5412 l
0.9275 0.5414 l
0.9338 0.5415 l
0.9402 0.5416 l
0.9466 0.5417 l
0.9529 0.5419 l
0.9593 0.5420 l
0.9657 0.5421 l
0.9721 0.5423 l
0.9784 0.5424 l
0.9848 0.5426 l
0.9912 0.5427 l
0.9975 0.5429 l
1.0039 0.5430 l
1.0103 0.5432 l
1.0167 0.5433 l
1.0230 0.5435 l
1.0294 0.5436 l
1.0358 0.5438 l
1.0422 0.5439 l
1.0485 0.5441 l
1.0549 0.5443 l
1.0613 0.5444 l
1.0676 0.5446 l
1.0740 0.5448 l
1.0804 0.5450 l
1.0868 0.5451 l
1.0931 0.5453 l
1.0995 0.5455 l
1.1059 0.5457 l
1.1123 0.5458 l
1.1186 0.5460 l
1.1250 0.5462 l
1.1314 0.5464 l
1.1377 0.5466 l
1.1441 0.5468 l
1.1442 0.5468 l
s
n
0.9684 0.5482 m
0.9784 0.5309 l
0.9884 0.5482 l
c
GS
Color0 SRGB
fill
GR
[/Pattern /DeviceRGB] SCS
Color3 Pattern9 SC
fill
[/DeviceRGB] SCS
Color3 SC
[] 0 SD
0.0030 SLW
n
0.9684 0.5482 m
0.9784 0.5309 l
0.9884 0.5482 l
0.9684 0.5482 l
c
s
[/DeviceRGB] SCS
Color1 SC
[] 0 SD
0.0045 SLW
n
0.6471 0.5000 m
1.1441 0.5000 l
s
n
0.6471 0.8500 m
1.1441 0.8500 l
s
n
0.6980 0.5000 m
0.6980 0.5100 l
s
n
0.6980 0.8500 m
0.6980 0.8400 l
s
n
0.8255 0.5000 m
0.8255 0.5100 l
s
n
0.8255 0.8500 m
0.8255 0.8400 l
s
n
0.9529 0.5000 m
0.9529 0.5100 l
s
n
0.9529 0.8500 m
0.9529 0.8400 l
s
n
1.0804 0.5000 m
1.0804 0.5100 l
s
n
1.0804 0.8500 m
1.0804 0.8400 l
s
n
0.7618 0.5000 m
0.7618 0.5200 l
s
n
0.7618 0.8500 m
0.7618 0.8300 l
s
n
0.8892 0.5000 m
0.8892 0.5200 l
s
n
0.8892 0.8500 m
0.8892 0.8300 l
s
n
1.0167 0.5000 m
1.0167 0.5200 l
s
n
1.0167 0.8500 m
1.0167 0.8300 l
s
n
1.1441 0.5000 m
1.1441 0.5200 l
s
n
1.1441 0.8500 m
1.1441 0.8300 l
s
n
0.6471 0.5000 m
0.6471 0.8500 l
s
n
1.1441 0.5000 m
1.1441 0.8500 l
s
n
0.6471 0.5000 m
0.6571 0.5000 l
s
n
1.1441 0.5000 m
1.1341 0.5000 l
s
n
0.6471 0.5778 m
0.6571 0.5778 l
s
n
1.1441 0.5778 m
1.1341 0.5778 l
s
n
0.6471 0.6556 m
0.6571 0.6556 l
s
n
1.1441 0.6556 m
1.1341 0.6556 l
s
n
0.6471 0.7333 m
0.6571 0.7333 l
s
n
1.1441 0.7333 m
1.1341 0.7333 l
s
n
0.6471 0.8111 m
0.6571 0.8111 l
s
n
1.1441 0.8111 m
1.1341 0.8111 l
s
n
0.6471 0.5389 m
0.6671 0.5389 l
s
n
1.1441 0.5389 m
1.1241 0.5389 l
s
n
0.6471 0.6167 m
0.6671 0.6167 l
s
n
1.1441 0.6167 m
1.1241 0.6167 l
s
n
0.6471 0.6944 m
0.6671 0.6944 l
s
n
1.1441 0.6944 m
1.1241 0.6944 l
s
n
0.6471 0.7722 m
0.6671 0.7722 l
s
n
1.1441 0.7722 m
1.1241 0.7722 l
s
n
0.6471 0.8500 m
0.6671 0.8500 l
s
n
1.1441 0.8500 m
1.1241 0.8500 l
s
/Font0 FFSF
1.1541 0.5240 m
GS
[0.0448 0.0000 0.0000 0.0448 0 0] CC
(0) show
GR
/Font0 FFSF
1.1541 0.6018 m
GS
[0.0448 0.0000 0.0000 0.0448 0 0] CC
(10) show
GR
/Font0 FFSF
1.1541 0.6795 m
GS
[0.0448 0.0000 0.0000 0.0448 0 0] CC
(20) show
GR
/Font0 FFSF
1.1541 0.7573 m
GS
[0.0448 0.0000 0.0000 0.0448 0 0] CC
(30) show
GR
/Font0 FFSF
1.1541 0.8351 m
GS
[0.0448 0.0000 0.0000 0.0448 0 0] CC
(40) show
GR
/Font0 FFSF
1.2390 0.5795 m
GS
[0.0000 0.0459 -0.0459 0.0000 0 0] CC
(\(S=1,T=1\)) show
GR
[] 0 SD
0.0015 SLW
n
0.6471 0.5000 m
0.6471 0.8500 l
1.1441 0.8500 l
1.1441 0.5000 l
0.6471 0.5000 l
c
s
n
0.1510 0.3853 m
0.1510 0.4019 l
0.1676 0.4019 l
0.1676 0.3853 l
c
GS
Color0 SRGB
fill
GR
[/Pattern /DeviceRGB] SCS
Color1 Pattern8 SC
fill
[/DeviceRGB] SCS
Color1 SC
[] 0 SD
0.0030 SLW
n
0.1510 0.3853 m
0.1510 0.4019 l
0.1676 0.4019 l
0.1676 0.3853 l
0.1510 0.3853 l
c
s
n
0.1603 0.3672 m
0.1603 0.3838 l
0.1770 0.3838 l
0.1770 0.3672 l
c
GS
Color0 SRGB
fill
GR
[/Pattern /DeviceRGB] SCS
Color1 Pattern8 SC
fill
[/DeviceRGB] SCS
Color1 SC
n
0.1603 0.3672 m
0.1603 0.3838 l
0.1770 0.3838 l
0.1770 0.3672 l
0.1603 0.3672 l
c
s
n
0.1720 0.3483 m
0.1720 0.3649 l
0.1886 0.3649 l
0.1886 0.3483 l
c
GS
Color0 SRGB
fill
GR
[/Pattern /DeviceRGB] SCS
Color1 Pattern8 SC
fill
[/DeviceRGB] SCS
Color1 SC
n
0.1720 0.3483 m
0.1720 0.3649 l
0.1886 0.3649 l
0.1886 0.3483 l
0.1720 0.3483 l
c
s
n
0.1862 0.3282 m
0.1862 0.3448 l
0.2029 0.3448 l
0.2029 0.3282 l
c
GS
Color0 SRGB
fill
GR
[/Pattern /DeviceRGB] SCS
Color1 Pattern8 SC
fill
[/DeviceRGB] SCS
Color1 SC
n
0.1862 0.3282 m
0.1862 0.3448 l
0.2029 0.3448 l
0.2029 0.3282 l
0.1862 0.3282 l
c
s
n
0.2033 0.3076 m
0.2033 0.3242 l
0.2200 0.3242 l
0.2200 0.3076 l
c
GS
Color0 SRGB
fill
GR
[/Pattern /DeviceRGB] SCS
Color1 Pattern8 SC
fill
[/DeviceRGB] SCS
Color1 SC
n
0.2033 0.3076 m
0.2033 0.3242 l
0.2200 0.3242 l
0.2200 0.3076 l
0.2033 0.3076 l
c
s
n
0.2235 0.2850 m
0.2235 0.3017 l
0.2402 0.3017 l
0.2402 0.2850 l
c
GS
Color0 SRGB
fill
GR
[/Pattern /DeviceRGB] SCS
Color1 Pattern8 SC
fill
[/DeviceRGB] SCS
Color1 SC
n
0.2235 0.2850 m
0.2235 0.3017 l
0.2402 0.3017 l
0.2402 0.2850 l
0.2235 0.2850 l
c
s
n
0.2470 0.2619 m
0.2470 0.2786 l
0.2637 0.2786 l
0.2637 0.2619 l
c
GS
Color0 SRGB
fill
GR
[/Pattern /DeviceRGB] SCS
Color1 Pattern8 SC
fill
[/DeviceRGB] SCS
Color1 SC
n
0.2470 0.2619 m
0.2470 0.2786 l
0.2637 0.2786 l
0.2637 0.2619 l
0.2470 0.2619 l
c
s
n
0.2742 0.2383 m
0.2742 0.2550 l
0.2909 0.2550 l
0.2909 0.2383 l
c
GS
Color0 SRGB
fill
GR
[/Pattern /DeviceRGB] SCS
Color1 Pattern8 SC
fill
[/DeviceRGB] SCS
Color1 SC
n
0.2742 0.2383 m
0.2742 0.2550 l
0.2909 0.2550 l
0.2909 0.2383 l
0.2742 0.2383 l
c
s
n
0.3052 0.2159 m
0.3052 0.2325 l
0.3219 0.2325 l
0.3219 0.2159 l
c
GS
Color0 SRGB
fill
GR
[/Pattern /DeviceRGB] SCS
Color1 Pattern8 SC
fill
[/DeviceRGB] SCS
Color1 SC
n
0.3052 0.2159 m
0.3052 0.2325 l
0.3219 0.2325 l
0.3219 0.2159 l
0.3052 0.2159 l
c
s
n
0.3404 0.1951 m
0.3404 0.2118 l
0.3571 0.2118 l
0.3571 0.1951 l
c
GS
Color0 SRGB
fill
GR
[/Pattern /DeviceRGB] SCS
Color1 Pattern8 SC
fill
[/DeviceRGB] SCS
Color1 SC
n
0.3404 0.1951 m
0.3404 0.2118 l
0.3571 0.2118 l
0.3571 0.1951 l
0.3404 0.1951 l
c
s
n
0.3800 0.1766 m
0.3800 0.1933 l
0.3966 0.1933 l
0.3966 0.1766 l
c
GS
Color0 SRGB
fill
GR
[/Pattern /DeviceRGB] SCS
Color1 Pattern8 SC
fill
[/DeviceRGB] SCS
Color1 SC
n
0.3800 0.1766 m
0.3800 0.1933 l
0.3966 0.1933 l
0.3966 0.1766 l
0.3800 0.1766 l
c
s
n
0.4242 0.1623 m
0.4242 0.1790 l
0.4408 0.1790 l
0.4408 0.1623 l
c
GS
Color0 SRGB
fill
GR
[/Pattern /DeviceRGB] SCS
Color1 Pattern8 SC
fill
[/DeviceRGB] SCS
Color1 SC
n
0.4242 0.1623 m
0.4242 0.1790 l
0.4408 0.1790 l
0.4408 0.1623 l
0.4242 0.1623 l
c
s
n
0.4733 0.1543 m
0.4733 0.1709 l
0.4899 0.1709 l
0.4899 0.1543 l
c
GS
Color0 SRGB
fill
GR
[/Pattern /DeviceRGB] SCS
Color1 Pattern8 SC
fill
[/DeviceRGB] SCS
Color1 SC
n
0.4733 0.1543 m
0.4733 0.1709 l
0.4899 0.1709 l
0.4899 0.1543 l
0.4733 0.1543 l
c
s
n
0.5276 0.1522 m
0.5276 0.1688 l
0.5442 0.1688 l
0.5442 0.1522 l
c
GS
Color0 SRGB
fill
GR
[/Pattern /DeviceRGB] SCS
Color1 Pattern8 SC
fill
[/DeviceRGB] SCS
Color1 SC
n
0.5276 0.1522 m
0.5276 0.1688 l
0.5442 0.1688 l
0.5442 0.1522 l
0.5276 0.1522 l
c
s
n
0.5873 0.1604 m
0.5873 0.1770 l
0.6039 0.1770 l
0.6039 0.1604 l
c
GS
Color0 SRGB
fill
GR
[/Pattern /DeviceRGB] SCS
Color1 Pattern8 SC
fill
[/DeviceRGB] SCS
Color1 SC
n
0.5873 0.1604 m
0.5873 0.1770 l
0.6039 0.1770 l
0.6039 0.1604 l
0.5873 0.1604 l
c
s
[0.0187 0.0112 ] 0 SD
0.0037 SLW
n
0.1499 0.4200 m
0.1500 0.4196 l
0.1564 0.4024 l
0.1627 0.3873 l
0.1691 0.3742 l
0.1755 0.3626 l
0.1819 0.3524 l
0.1882 0.3435 l
0.1946 0.3358 l
0.2010 0.3292 l
0.2074 0.3235 l
0.2137 0.3188 l
0.2201 0.3150 l
0.2265 0.3121 l
0.2328 0.3099 l
0.2392 0.3086 l
0.2456 0.3079 l
0.2520 0.3079 l
0.2583 0.3086 l
0.2647 0.3100 l
0.2711 0.3120 l
0.2775 0.3145 l
0.2838 0.3177 l
0.2902 0.3214 l
0.2966 0.3257 l
0.3029 0.3305 l
0.3093 0.3358 l
0.3157 0.3416 l
0.3221 0.3479 l
0.3284 0.3546 l
0.3348 0.3619 l
0.3412 0.3695 l
0.3475 0.3777 l
0.3539 0.3862 l
0.3603 0.3952 l
0.3667 0.4046 l
0.3730 0.4144 l
0.3794 0.4246 l
0.3858 0.4352 l
0.3922 0.4461 l
0.3985 0.4575 l
0.4049 0.4692 l
0.4113 0.4812 l
0.4176 0.4936 l
0.4209 0.5001 l
s
n
0.4049 0.4692 0.0100 0.0100 0 360 EARC c
fill
[] 0 SD
0.0015 SLW
n 0.4049 0.4692 0.0100 0.0100 0 360 EARC s
[/DeviceRGB] SCS
Color2 SC
[0.0187 0.0112 ] 0 SD
0.0037 SLW
n
0.1499 0.4166 m
0.1500 0.4162 l
0.1564 0.3977 l
0.1627 0.3816 l
0.1691 0.3676 l
0.1755 0.3552 l
0.1819 0.3444 l
0.1882 0.3349 l
0.1946 0.3267 l
0.2010 0.3197 l
0.2074 0.3137 l
0.2137 0.3087 l
0.2201 0.3047 l
0.2265 0.3016 l
0.2328 0.2993 l
0.2392 0.2978 l
0.2456 0.2971 l
0.2520 0.2971 l
0.2583 0.2978 l
0.2647 0.2992 l
0.2711 0.3012 l
0.2775 0.3039 l
0.2838 0.3072 l
0.2902 0.3110 l
0.2966 0.3154 l
0.3029 0.3204 l
0.3093 0.3259 l
0.3157 0.3319 l
0.3221 0.3384 l
0.3284 0.3455 l
0.3348 0.3530 l
0.3412 0.3609 l
0.3475 0.3693 l
0.3539 0.3782 l
0.3603 0.3875 l
0.3667 0.3972 l
0.3730 0.4073 l
0.3794 0.4179 l
0.3858 0.4288 l
0.3922 0.4401 l
0.3985 0.4518 l
0.4049 0.4639 l
0.4113 0.4764 l
0.4176 0.4892 l
0.4229 0.5001 l
s
n
0.3837 0.4316 m
0.3837 0.4486 l
0.4007 0.4486 l
0.4007 0.4316 l
c
fill
[] 0 SD
0.0015 SLW
n
0.3837 0.4316 m
0.3837 0.4486 l
0.4007 0.4486 l
0.4007 0.4316 l
0.3837 0.4316 l
c
s
[/DeviceRGB] SCS
Color4 SC
[0.0037 0.0112 ] 0 SD
0.0037 SLW
n
0.1499 0.4198 m
0.1500 0.4195 l
0.1564 0.4025 l
0.1627 0.3880 l
0.1691 0.3755 l
0.1755 0.3648 l
0.1819 0.3556 l
0.1882 0.3479 l
0.1946 0.3415 l
0.2010 0.3363 l
0.2074 0.3322 l
0.2137 0.3292 l
0.2201 0.3273 l
0.2265 0.3263 l
0.2328 0.3263 l
0.2392 0.3271 l
0.2456 0.3288 l
0.2520 0.3313 l
0.2583 0.3345 l
0.2647 0.3386 l
0.2711 0.3433 l
0.2775 0.3488 l
0.2838 0.3550 l
0.2902 0.3618 l
0.2966 0.3693 l
0.3029 0.3774 l
0.3093 0.3861 l
0.3157 0.3955 l
0.3221 0.4054 l
0.3284 0.4158 l
0.3348 0.4269 l
0.3412 0.4384 l
0.3475 0.4505 l
0.3539 0.4631 l
0.3603 0.4763 l
0.3667 0.4899 l
0.3713 0.5001 l
s
n
0.3539 0.4731 m
0.3439 0.4631 l
0.3539 0.4531 l
0.3639 0.4631 l
c
fill
[] 0 SD
0.0015 SLW
n
0.3539 0.4731 m
0.3439 0.4631 l
0.3539 0.4531 l
0.3639 0.4631 l
0.3539 0.4731 l
c
s
[/DeviceRGB] SCS
Color11 SC
[0.0037 0.0112 0.0187 0.0112 0.0037 0.0112 ] 0 SD
0.0037 SLW
n
0.1499 0.4146 m
0.1500 0.4142 l
0.1564 0.3949 l
0.1627 0.3782 l
0.1691 0.3635 l
0.1755 0.3506 l
0.1819 0.3393 l
0.1882 0.3295 l
0.1946 0.3210 l
0.2010 0.3137 l
0.2074 0.3075 l
0.2137 0.3024 l
0.2201 0.2983 l
0.2265 0.2951 l
0.2328 0.2929 l
0.2392 0.2915 l
0.2456 0.2909 l
0.2520 0.2912 l
0.2583 0.2921 l
0.2647 0.2938 l
0.2711 0.2962 l
0.2775 0.2993 l
0.2838 0.3030 l
0.2902 0.3074 l
0.2966 0.3124 l
0.3029 0.3179 l
0.3093 0.3241 l
0.3157 0.3308 l
0.3221 0.3381 l
0.3284 0.3459 l
0.3348 0.3542 l
0.3412 0.3630 l
0.3475 0.3723 l
0.3539 0.3821 l
0.3603 0.3924 l
0.3667 0.4032 l
0.3730 0.4144 l
0.3794 0.4261 l
0.3858 0.4381 l
0.3922 0.4507 l
0.3985 0.4636 l
0.4049 0.4770 l
0.4113 0.4908 l
0.4155 0.5001 l
s
n
0.4049 0.4885 m
0.3949 0.4712 l
0.4149 0.4712 l
c
fill
[] 0 SD
0.0015 SLW
n
0.4049 0.4885 m
0.3949 0.4712 l
0.4149 0.4712 l
0.4049 0.4885 l
c
s
[/DeviceRGB] SCS
Color3 SC
[] 0 SD
0.0037 SLW
n
0.1499 0.4213 m
0.1500 0.4210 l
0.1564 0.4029 l
0.1627 0.3867 l
0.1691 0.3722 l
0.1755 0.3593 l
0.1819 0.3478 l
0.1882 0.3376 l
0.1946 0.3286 l
0.2010 0.3208 l
0.2074 0.3142 l
0.2137 0.3085 l
0.2201 0.3040 l
0.2265 0.3004 l
0.2328 0.2977 l
0.2392 0.2960 l
0.2456 0.2951 l
0.2520 0.2952 l
0.2583 0.2960 l
0.2647 0.2977 l
0.2711 0.3002 l
0.2775 0.3035 l
0.2838 0.3076 l
0.2902 0.3124 l
0.2966 0.3179 l
0.3029 0.3242 l
0.3093 0.3312 l
0.3157 0.3389 l
0.3221 0.3472 l
0.3284 0.3563 l
0.3348 0.3660 l
0.3412 0.3764 l
0.3475 0.3874 l
0.3539 0.3991 l
0.3603 0.4114 l
0.3667 0.4243 l
0.3730 0.4379 l
0.3794 0.4520 l
0.3858 0.4668 l
0.3922 0.4821 l
0.3985 0.4980 l
0.3993 0.5001 l
s
n
0.3630 0.4436 m
0.3730 0.4263 l
0.3830 0.4436 l
c
fill
[] 0 SD
0.0015 SLW
n
0.3630 0.4436 m
0.3730 0.4263 l
0.3830 0.4436 l
0.3630 0.4436 l
c
s
[/DeviceRGB] SCS
Color8 SC
[] 0 SD
0.0037 SLW
n
0.1499 0.4228 m
0.1500 0.4225 l
0.1564 0.4061 l
0.1627 0.3916 l
0.1691 0.3788 l
0.1755 0.3674 l
0.1819 0.3573 l
0.1882 0.3483 l
0.1946 0.3404 l
0.2010 0.3335 l
0.2074 0.3276 l
0.2137 0.3225 l
0.2201 0.3182 l
0.2265 0.3147 l
0.2328 0.3119 l
0.2392 0.3099 l
0.2456 0.3085 l
0.2520 0.3078 l
0.2583 0.3078 l
0.2647 0.3083 l
0.2711 0.3095 l
0.2775 0.3112 l
0.2838 0.3134 l
0.2902 0.3162 l
0.2966 0.3195 l
0.3029 0.3234 l
0.3093 0.3277 l
0.3157 0.3325 l
0.3221 0.3378 l
0.3284 0.3435 l
0.3348 0.3497 l
0.3412 0.3563 l
0.3475 0.3633 l
0.3539 0.3708 l
0.3603 0.3787 l
0.3667 0.3870 l
0.3730 0.3956 l
0.3794 0.4047 l
0.3858 0.4141 l
0.3922 0.4239 l
0.3985 0.4341 l
0.4049 0.4446 l
0.4113 0.4555 l
0.4176 0.4668 l
0.4240 0.4783 l
0.4304 0.4903 l
0.4355 0.5001 l
s
n
0.4049 0.4446 0.0100 0.0100 0 360 EARC c
GS
Color0 SRGB
fill
GR
[/Pattern /DeviceRGB] SCS
Color8 Pattern9 SC
fill
[/DeviceRGB] SCS
Color8 SC
[] 0 SD
0.0030 SLW
n 0.4049 0.4446 0.0100 0.0100 0 360 EARC s
[/DeviceRGB] SCS
Color15 SC
[] 0 SD
0.0037 SLW
n
0.1499 0.4246 m
0.1500 0.4243 l
0.1564 0.4084 l
0.1627 0.3944 l
0.1691 0.3818 l
0.1755 0.3706 l
0.1819 0.3606 l
0.1882 0.3517 l
0.1946 0.3439 l
0.2010 0.3369 l
0.2074 0.3309 l
0.2137 0.3257 l
0.2201 0.3212 l
0.2265 0.3176 l
0.2328 0.3146 l
0.2392 0.3124 l
0.2456 0.3108 l
0.2520 0.3099 l
0.2583 0.3096 l
0.2647 0.3098 l
0.2711 0.3107 l
0.2775 0.3121 l
0.2838 0.3141 l
0.2902 0.3166 l
0.2966 0.3197 l
0.3029 0.3232 l
0.3093 0.3272 l
0.3157 0.3317 l
0.3221 0.3367 l
0.3284 0.3421 l
0.3348 0.3480 l
0.3412 0.3543 l
0.3475 0.3611 l
0.3539 0.3683 l
0.3603 0.3758 l
0.3667 0.3838 l
0.3730 0.3922 l
0.3794 0.4010 l
0.3858 0.4101 l
0.3922 0.4197 l
0.3985 0.4296 l
0.4049 0.4398 l
0.4113 0.4505 l
0.4176 0.4614 l
0.4240 0.4728 l
0.4304 0.4844 l
0.4368 0.4964 l
0.4387 0.5001 l
s
n
0.3837 0.4112 m
0.3837 0.4282 l
0.4007 0.4282 l
0.4007 0.4112 l
c
GS
Color0 SRGB
fill
GR
[/Pattern /DeviceRGB] SCS
Color15 Pattern9 SC
fill
[/DeviceRGB] SCS
Color15 SC
[] 0 SD
0.0030 SLW
n
0.3837 0.4112 m
0.3837 0.4282 l
0.4007 0.4282 l
0.4007 0.4112 l
0.3837 0.4112 l
c
s
[/DeviceRGB] SCS
Color2 SC
[] 0 SD
0.0037 SLW
n
0.1499 0.4265 m
0.1500 0.4262 l
0.1564 0.4101 l
0.1627 0.3956 l
0.1691 0.3826 l
0.1755 0.3710 l
0.1819 0.3607 l
0.1882 0.3517 l
0.1946 0.3438 l
0.2010 0.3370 l
0.2074 0.3313 l
0.2137 0.3267 l
0.2201 0.3231 l
0.2265 0.3204 l
0.2328 0.3187 l
0.2392 0.3179 l
0.2456 0.3180 l
0.2520 0.3190 l
0.2583 0.3209 l
0.2647 0.3236 l
0.2711 0.3272 l
0.2775 0.3316 l
0.2838 0.3367 l
0.2902 0.3427 l
0.2966 0.3494 l
0.3029 0.3569 l
0.3093 0.3651 l
0.3157 0.3741 l
0.3221 0.3838 l
0.3284 0.3943 l
0.3348 0.4054 l
0.3412 0.4173 l
0.3475 0.4298 l
0.3539 0.4430 l
0.3603 0.4569 l
0.3667 0.4715 l
0.3730 0.4867 l
0.3784 0.5001 l
s
n
0.3730 0.4967 m
0.3630 0.4867 l
0.3730 0.4767 l
0.3830 0.4867 l
c
GS
Color0 SRGB
fill
GR
[/Pattern /DeviceRGB] SCS
Color2 Pattern9 SC
fill
[/DeviceRGB] SCS
Color2 SC
[] 0 SD
0.0030 SLW
n
0.3730 0.4967 m
0.3630 0.4867 l
0.3730 0.4767 l
0.3830 0.4867 l
0.3730 0.4967 l
c
s
[/DeviceRGB] SCS
Color15 SC
[0.0037 0.0112 0.0187 0.0112 ] 0 SD
0.0037 SLW
n
0.1499 0.4267 m
0.1500 0.4265 l
0.1564 0.4110 l
0.1627 0.3972 l
0.1691 0.3847 l
0.1755 0.3735 l
0.1819 0.3632 l
0.1882 0.3540 l
0.1946 0.3456 l
0.2010 0.3381 l
0.2074 0.3314 l
0.2137 0.3254 l
0.2201 0.3200 l
0.2265 0.3154 l
0.2328 0.3113 l
0.2392 0.3078 l
0.2456 0.3049 l
0.2520 0.3026 l
0.2583 0.3007 l
0.2647 0.2994 l
0.2711 0.2985 l
0.2775 0.2981 l
0.2838 0.2982 l
0.2902 0.2986 l
0.2966 0.2995 l
0.3029 0.3008 l
0.3093 0.3024 l
0.3157 0.3045 l
0.3221 0.3069 l
0.3284 0.3097 l
0.3348 0.3128 l
0.3412 0.3162 l
0.3475 0.3200 l
0.3539 0.3241 l
0.3603 0.3285 l
0.3667 0.3331 l
0.3730 0.3381 l
0.3794 0.3434 l
0.3858 0.3489 l
0.3922 0.3547 l
0.3985 0.3608 l
0.4049 0.3672 l
0.4113 0.3737 l
0.4176 0.3806 l
0.4240 0.3877 l
0.4304 0.3950 l
0.4368 0.4025 l
0.4431 0.4103 l
0.4495 0.4183 l
0.4559 0.4265 l
0.4623 0.4349 l
0.4686 0.4435 l
0.4750 0.4524 l
0.4814 0.4614 l
0.4877 0.4706 l
0.4941 0.4800 l
0.5005 0.4896 l
0.5069 0.4994 l
0.5073 0.5001 l
s
n
0.4686 0.4551 m
0.4586 0.4378 l
0.4786 0.4378 l
c
GS
Color0 SRGB
fill
GR
[/Pattern /DeviceRGB] SCS
Color15 Pattern9 SC
fill
[/DeviceRGB] SCS
Color15 SC
[] 0 SD
0.0030 SLW
n
0.4686 0.4551 m
0.4586 0.4378 l
0.4786 0.4378 l
0.4686 0.4551 l
c
s
[/DeviceRGB] SCS
Color3 SC
[0.0037 0.0112 ] 0 SD
0.0037 SLW
n
0.1499 0.4343 m
0.1500 0.4341 l
0.1564 0.4209 l
0.1627 0.4087 l
0.1691 0.3973 l
0.1755 0.3867 l
0.1819 0.3767 l
0.1882 0.3673 l
0.1946 0.3584 l
0.2010 0.3501 l
0.2074 0.3422 l
0.2137 0.3347 l
0.2201 0.3276 l
0.2265 0.3209 l
0.2328 0.3146 l
0.2392 0.3086 l
0.2456 0.3029 l
0.2520 0.2975 l
0.2583 0.2925 l
0.2647 0.2877 l
0.2711 0.2832 l
0.2775 0.2790 l
0.2838 0.2750 l
0.2902 0.2713 l
0.2966 0.2678 l
0.3029 0.2646 l
0.3093 0.2615 l
0.3157 0.2587 l
0.3221 0.2561 l
0.3284 0.2537 l
0.3348 0.2515 l
0.3412 0.2495 l
0.3475 0.2477 l
0.3539 0.2461 l
0.3603 0.2446 l
0.3667 0.2434 l
0.3730 0.2423 l
0.3794 0.2413 l
0.3858 0.2406 l
0.3922 0.2400 l
0.3985 0.2395 l
0.4049 0.2392 l
0.4113 0.2390 l
0.4176 0.2390 l
0.4240 0.2392 l
0.4304 0.2395 l
0.4368 0.2399 l
0.4431 0.2404 l
0.4495 0.2411 l
0.4559 0.2420 l
0.4623 0.2429 l
0.4686 0.2440 l
0.4750 0.2452 l
0.4814 0.2465 l
0.4877 0.2479 l
0.4941 0.2495 l
0.5005 0.2512 l
0.5069 0.2530 l
0.5132 0.2549 l
0.5196 0.2569 l
0.5260 0.2590 l
0.5324 0.2613 l
0.5387 0.2636 l
0.5451 0.2660 l
0.5515 0.2686 l
0.5578 0.2712 l
0.5642 0.2740 l
0.5706 0.2768 l
0.5770 0.2798 l
0.5833 0.2828 l
0.5897 0.2859 l
0.5961 0.2892 l
0.6025 0.2925 l
0.6088 0.2959 l
0.6152 0.2994 l
0.6216 0.3030 l
0.6279 0.3067 l
0.6343 0.3104 l
0.6407 0.3143 l
0.6471 0.3182 l
0.6472 0.3183 l
s
n
0.4586 0.2498 m
0.4686 0.2324 l
0.4786 0.2498 l
c
GS
Color0 SRGB
fill
GR
[/Pattern /DeviceRGB] SCS
Color3 Pattern9 SC
fill
[/DeviceRGB] SCS
Color3 SC
[] 0 SD
0.0030 SLW
n
0.4586 0.2498 m
0.4686 0.2324 l
0.4786 0.2498 l
0.4586 0.2498 l
c
s
[/DeviceRGB] SCS
Color1 SC
[] 0 SD
0.0045 SLW
n
0.1500 0.1500 m
0.6471 0.1500 l
s
n
0.2010 0.1500 m
0.2010 0.1600 l
s
n
0.3284 0.1500 m
0.3284 0.1600 l
s
n
0.4559 0.1500 m
0.4559 0.1600 l
s
n
0.5833 0.1500 m
0.5833 0.1600 l
s
n
0.2647 0.1500 m
0.2647 0.1700 l
s
n
0.3922 0.1500 m
0.3922 0.1700 l
s
n
0.5196 0.1500 m
0.5196 0.1700 l
s
/Font0 FFSF
0.2373 0.1094 m
GS
[0.0448 0.0000 0.0000 0.0448 0 0] CC
(0.2) show
GR
/Font0 FFSF
0.3647 0.1094 m
GS
[0.0448 0.0000 0.0000 0.0448 0 0] CC
(0.4) show
GR
/Font0 FFSF
0.4924 0.1094 m
GS
[0.0448 0.0000 0.0000 0.0448 0 0] CC
(0.6) show
GR
/Symbol findfont
/Font12 exch definefont pop
/Font12 FFSF
0.5779 0.0503 m
GS
[0.0459 0.0000 0.0000 0.0459 0 0] CC
(r) show
GR
/Font0 FFSF
0.6030 0.0503 m
GS
[0.0459 0.0000 0.0000 0.0459 0 0] CC
( [fm) show
GR
/Font0 FFSF
0.6807 0.0779 m
GS
[0.0325 0.0000 0.0000 0.0325 0 0] CC
(-3) show
GR
/Font0 FFSF
0.7077 0.0503 m
GS
[0.0459 0.0000 0.0000 0.0459 0 0] CC
(]) show
GR
n
0.1500 0.1500 m
0.1500 0.5000 l
s
n
0.1500 0.1500 m
0.1600 0.1500 l
s
n
0.1500 0.2200 m
0.1600 0.2200 l
s
n
0.1500 0.2900 m
0.1600 0.2900 l
s
n
0.1500 0.3600 m
0.1600 0.3600 l
s
n
0.1500 0.4300 m
0.1600 0.4300 l
s
n
0.1500 0.5000 m
0.1600 0.5000 l
s
n
0.1500 0.1850 m
0.1700 0.1850 l
s
n
0.1500 0.2550 m
0.1700 0.2550 l
s
n
0.1500 0.3250 m
0.1700 0.3250 l
s
n
0.1500 0.3950 m
0.1700 0.3950 l
s
n
0.1500 0.4650 m
0.1700 0.4650 l
s
/Font0 FFSF
0.0816 0.1701 m
GS
[0.0448 0.0000 0.0000 0.0448 0 0] CC
(-40) show
GR
/Font0 FFSF
0.0816 0.2401 m
GS
[0.0448 0.0000 0.0000 0.0448 0 0] CC
(-30) show
GR
/Font0 FFSF
0.0816 0.3101 m
GS
[0.0448 0.0000 0.0000 0.0448 0 0] CC
(-20) show
GR
/Font0 FFSF
0.0816 0.3801 m
GS
[0.0448 0.0000 0.0000 0.0448 0 0] CC
(-10) show
GR
/Font0 FFSF
0.1188 0.4501 m
GS
[0.0448 0.0000 0.0000 0.0448 0 0] CC
(0) show
GR
/Font0 FFSF
0.0633 0.2295 m
GS
[0.0000 0.0459 -0.0459 0.0000 0 0] CC
(\(S=1,T=0\)) show
GR
[] 0 SD
0.0015 SLW
n
0.1500 0.1500 m
0.1500 0.5000 l
0.6471 0.5000 l
0.6471 0.1500 l
0.1500 0.1500 l
c
s
n
0.6480 0.4164 m
0.6480 0.4331 l
0.6647 0.4331 l
0.6647 0.4164 l
c
GS
Color0 SRGB
fill
GR
[/Pattern /DeviceRGB] SCS
Color1 Pattern8 SC
fill
[/DeviceRGB] SCS
Color1 SC
[] 0 SD
0.0030 SLW
n
0.6480 0.4164 m
0.6480 0.4331 l
0.6647 0.4331 l
0.6647 0.4164 l
0.6480 0.4164 l
c
s
n
0.6574 0.4045 m
0.6574 0.4211 l
0.6740 0.4211 l
0.6740 0.4045 l
c
GS
Color0 SRGB
fill
GR
[/Pattern /DeviceRGB] SCS
Color1 Pattern8 SC
fill
[/DeviceRGB] SCS
Color1 SC
n
0.6574 0.4045 m
0.6574 0.4211 l
0.6740 0.4211 l
0.6740 0.4045 l
0.6574 0.4045 l
c
s
n
0.6690 0.3915 m
0.6690 0.4081 l
0.6857 0.4081 l
0.6857 0.3915 l
c
GS
Color0 SRGB
fill
GR
[/Pattern /DeviceRGB] SCS
Color1 Pattern8 SC
fill
[/DeviceRGB] SCS
Color1 SC
n
0.6690 0.3915 m
0.6690 0.4081 l
0.6857 0.4081 l
0.6857 0.3915 l
0.6690 0.3915 l
c
s
n
0.6833 0.3777 m
0.6833 0.3943 l
0.6999 0.3943 l
0.6999 0.3777 l
c
GS
Color0 SRGB
fill
GR
[/Pattern /DeviceRGB] SCS
Color1 Pattern8 SC
fill
[/DeviceRGB] SCS
Color1 SC
n
0.6833 0.3777 m
0.6833 0.3943 l
0.6999 0.3943 l
0.6999 0.3777 l
0.6833 0.3777 l
c
s
n
0.7004 0.3632 m
0.7004 0.3799 l
0.7170 0.3799 l
0.7170 0.3632 l
c
GS
Color0 SRGB
fill
GR
[/Pattern /DeviceRGB] SCS
Color1 Pattern8 SC
fill
[/DeviceRGB] SCS
Color1 SC
n
0.7004 0.3632 m
0.7004 0.3799 l
0.7170 0.3799 l
0.7170 0.3632 l
0.7004 0.3632 l
c
s
n
0.7206 0.3481 m
0.7206 0.3648 l
0.7372 0.3648 l
0.7372 0.3481 l
c
GS
Color0 SRGB
fill
GR
[/Pattern /DeviceRGB] SCS
Color1 Pattern8 SC
fill
[/DeviceRGB] SCS
Color1 SC
n
0.7206 0.3481 m
0.7206 0.3648 l
0.7372 0.3648 l
0.7372 0.3481 l
0.7206 0.3481 l
c
s
n
0.7441 0.3334 m
0.7441 0.3500 l
0.7608 0.3500 l
0.7608 0.3334 l
c
GS
Color0 SRGB
fill
GR
[/Pattern /DeviceRGB] SCS
Color1 Pattern8 SC
fill
[/DeviceRGB] SCS
Color1 SC
n
0.7441 0.3334 m
0.7441 0.3500 l
0.7608 0.3500 l
0.7608 0.3334 l
0.7441 0.3334 l
c
s
n
0.7713 0.3199 m
0.7713 0.3366 l
0.7879 0.3366 l
0.7879 0.3199 l
c
GS
Color0 SRGB
fill
GR
[/Pattern /DeviceRGB] SCS
Color1 Pattern8 SC
fill
[/DeviceRGB] SCS
Color1 SC
n
0.7713 0.3199 m
0.7713 0.3366 l
0.7879 0.3366 l
0.7879 0.3199 l
0.7713 0.3199 l
c
s
n
0.8023 0.3090 m
0.8023 0.3257 l
0.8190 0.3257 l
0.8190 0.3090 l
c
GS
Color0 SRGB
fill
GR
[/Pattern /DeviceRGB] SCS
Color1 Pattern8 SC
fill
[/DeviceRGB] SCS
Color1 SC
n
0.8023 0.3090 m
0.8023 0.3257 l
0.8190 0.3257 l
0.8190 0.3090 l
0.8023 0.3090 l
c
s
n
0.8375 0.3018 m
0.8375 0.3184 l
0.8541 0.3184 l
0.8541 0.3018 l
c
GS
Color0 SRGB
fill
GR
[/Pattern /DeviceRGB] SCS
Color1 Pattern8 SC
fill
[/DeviceRGB] SCS
Color1 SC
n
0.8375 0.3018 m
0.8375 0.3184 l
0.8541 0.3184 l
0.8541 0.3018 l
0.8375 0.3018 l
c
s
n
0.8770 0.2998 m
0.8770 0.3164 l
0.8937 0.3164 l
0.8937 0.2998 l
c
GS
Color0 SRGB
fill
GR
[/Pattern /DeviceRGB] SCS
Color1 Pattern8 SC
fill
[/DeviceRGB] SCS
Color1 SC
n
0.8770 0.2998 m
0.8770 0.3164 l
0.8937 0.3164 l
0.8937 0.2998 l
0.8770 0.2998 l
c
s
n
0.9212 0.3049 m
0.9212 0.3215 l
0.9379 0.3215 l
0.9379 0.3049 l
c
GS
Color0 SRGB
fill
GR
[/Pattern /DeviceRGB] SCS
Color1 Pattern8 SC
fill
[/DeviceRGB] SCS
Color1 SC
n
0.9212 0.3049 m
0.9212 0.3215 l
0.9379 0.3215 l
0.9379 0.3049 l
0.9212 0.3049 l
c
s
n
0.9703 0.3197 m
0.9703 0.3363 l
0.9870 0.3363 l
0.9870 0.3197 l
c
GS
Color0 SRGB
fill
GR
[/Pattern /DeviceRGB] SCS
Color1 Pattern8 SC
fill
[/DeviceRGB] SCS
Color1 SC
n
0.9703 0.3197 m
0.9703 0.3363 l
0.9870 0.3363 l
0.9870 0.3197 l
0.9703 0.3197 l
c
s
n
1.0246 0.3460 m
1.0246 0.3627 l
1.0413 0.3627 l
1.0413 0.3460 l
c
GS
Color0 SRGB
fill
GR
[/Pattern /DeviceRGB] SCS
Color1 Pattern8 SC
fill
[/DeviceRGB] SCS
Color1 SC
n
1.0246 0.3460 m
1.0246 0.3627 l
1.0413 0.3627 l
1.0413 0.3460 l
1.0246 0.3460 l
c
s
n
1.0843 0.3870 m
1.0843 0.4037 l
1.1010 0.4037 l
1.1010 0.3870 l
c
GS
Color0 SRGB
fill
GR
[/Pattern /DeviceRGB] SCS
Color1 Pattern8 SC
fill
[/DeviceRGB] SCS
Color1 SC
n
1.0843 0.3870 m
1.0843 0.4037 l
1.1010 0.4037 l
1.1010 0.3870 l
1.0843 0.3870 l
c
s
[0.0187 0.0112 ] 0 SD
0.0037 SLW
n
0.6470 0.4467 m
0.6471 0.4465 l
0.6534 0.4381 l
0.6598 0.4301 l
0.6662 0.4224 l
0.6725 0.4149 l
0.6789 0.4076 l
0.6853 0.4005 l
0.6917 0.3936 l
0.6980 0.3868 l
0.7044 0.3801 l
0.7108 0.3736 l
0.7172 0.3671 l
0.7235 0.3608 l
0.7299 0.3545 l
0.7363 0.3484 l
0.7426 0.3422 l
0.7490 0.3362 l
0.7554 0.3302 l
0.7618 0.3243 l
0.7681 0.3184 l
0.7745 0.3126 l
0.7809 0.3068 l
0.7873 0.3011 l
0.7936 0.2954 l
0.8000 0.2898 l
0.8064 0.2842 l
0.8127 0.2786 l
0.8191 0.2730 l
0.8255 0.2675 l
0.8319 0.2620 l
0.8382 0.2565 l
0.8446 0.2511 l
0.8510 0.2456 l
0.8574 0.2402 l
0.8637 0.2348 l
0.8701 0.2295 l
0.8765 0.2241 l
0.8828 0.2188 l
0.8892 0.2135 l
0.8956 0.2082 l
0.9020 0.2029 l
0.9083 0.1976 l
0.9147 0.1924 l
0.9211 0.1871 l
0.9275 0.1819 l
0.9338 0.1767 l
0.9402 0.1715 l
0.9466 0.1663 l
0.9529 0.1611 l
0.9593 0.1559 l
0.9657 0.1507 l
0.9667 0.1499 l
s
n
0.9338 0.1767 0.0098 0.0098 0 360 EARC c
fill
[] 0 SD
0.0030 SLW
n 0.9338 0.1767 0.0098 0.0098 0 360 EARC s
[/DeviceRGB] SCS
Color2 SC
[0.0187 0.0112 ] 0 SD
0.0037 SLW
n
0.6470 0.4468 m
0.6471 0.4466 l
0.6534 0.4383 l
0.6598 0.4303 l
0.6662 0.4227 l
0.6725 0.4153 l
0.6789 0.4081 l
0.6853 0.4011 l
0.6917 0.3942 l
0.6980 0.3875 l
0.7044 0.3810 l
0.7108 0.3745 l
0.7172 0.3682 l
0.7235 0.3619 l
0.7299 0.3558 l
0.7363 0.3497 l
0.7426 0.3437 l
0.7490 0.3377 l
0.7554 0.3318 l
0.7618 0.3260 l
0.7681 0.3203 l
0.7745 0.3145 l
0.7809 0.3089 l
0.7873 0.3032 l
0.7936 0.2976 l
0.8000 0.2921 l
0.8064 0.2866 l
0.8127 0.2811 l
0.8191 0.2756 l
0.8255 0.2702 l
0.8319 0.2648 l
0.8382 0.2594 l
0.8446 0.2541 l
0.8510 0.2487 l
0.8574 0.2434 l
0.8637 0.2381 l
0.8701 0.2329 l
0.8765 0.2276 l
0.8828 0.2224 l
0.8892 0.2172 l
0.8956 0.2120 l
0.9020 0.2068 l
0.9083 0.2016 l
0.9147 0.1964 l
0.9211 0.1913 l
0.9275 0.1861 l
0.9338 0.1810 l
0.9402 0.1759 l
0.9466 0.1708 l
0.9529 0.1657 l
0.9593 0.1606 l
0.9657 0.1555 l
0.9721 0.1504 l
0.9727 0.1499 l
s
n
0.8807 0.2087 m
0.8807 0.2257 l
0.8977 0.2257 l
0.8977 0.2087 l
c
fill
[] 0 SD
0.0015 SLW
n
0.8807 0.2087 m
0.8807 0.2257 l
0.8977 0.2257 l
0.8977 0.2087 l
0.8807 0.2087 l
c
s
[/DeviceRGB] SCS
Color4 SC
[0.0037 0.0112 ] 0 SD
0.0037 SLW
n
0.6470 0.4467 m
0.6471 0.4466 l
0.6534 0.4383 l
0.6598 0.4303 l
0.6662 0.4227 l
0.6725 0.4154 l
0.6789 0.4082 l
0.6853 0.4013 l
0.6917 0.3945 l
0.6980 0.3878 l
0.7044 0.3813 l
0.7108 0.3749 l
0.7172 0.3687 l
0.7235 0.3625 l
0.7299 0.3564 l
0.7363 0.3503 l
0.7426 0.3444 l
0.7490 0.3385 l
0.7554 0.3326 l
0.7618 0.3269 l
0.7681 0.3211 l
0.7745 0.3155 l
0.7809 0.3098 l
0.7873 0.3042 l
0.7936 0.2987 l
0.8000 0.2931 l
0.8064 0.2877 l
0.8127 0.2822 l
0.8191 0.2768 l
0.8255 0.2714 l
0.8319 0.2660 l
0.8382 0.2606 l
0.8446 0.2553 l
0.8510 0.2500 l
0.8574 0.2447 l
0.8637 0.2394 l
0.8701 0.2341 l
0.8765 0.2289 l
0.8828 0.2236 l
0.8892 0.2184 l
0.8956 0.2132 l
0.9020 0.2080 l
0.9083 0.2028 l
0.9147 0.1977 l
0.9211 0.1925 l
0.9275 0.1873 l
0.9338 0.1822 l
0.9402 0.1771 l
0.9466 0.1719 l
0.9529 0.1668 l
0.9593 0.1617 l
0.9657 0.1566 l
0.9721 0.1515 l
0.9741 0.1499 l
s
n
0.9020 0.2180 m
0.8920 0.2080 l
0.9020 0.1980 l
0.9120 0.2080 l
c
fill
[] 0 SD
0.0015 SLW
n
0.9020 0.2180 m
0.8920 0.2080 l
0.9020 0.1980 l
0.9120 0.2080 l
0.9020 0.2180 l
c
s
[/DeviceRGB] SCS
Color11 SC
[0.0037 0.0112 0.0187 0.0112 0.0037 0.0112 ] 0 SD
0.0037 SLW
n
0.6470 0.4526 m
0.6471 0.4525 l
0.6534 0.4467 l
0.6598 0.4411 l
0.6662 0.4356 l
0.6725 0.4303 l
0.6789 0.4251 l
0.6853 0.4200 l
0.6917 0.4150 l
0.6980 0.4101 l
0.7044 0.4053 l
0.7108 0.4006 l
0.7172 0.3959 l
0.7235 0.3913 l
0.7299 0.3868 l
0.7363 0.3823 l
0.7426 0.3779 l
0.7490 0.3735 l
0.7554 0.3692 l
0.7618 0.3649 l
0.7681 0.3607 l
0.7745 0.3565 l
0.7809 0.3523 l
0.7873 0.3482 l
0.7936 0.3441 l
0.8000 0.3401 l
0.8064 0.3361 l
0.8127 0.3321 l
0.8191 0.3281 l
0.8255 0.3241 l
0.8319 0.3202 l
0.8382 0.3163 l
0.8446 0.3125 l
0.8510 0.3086 l
0.8574 0.3048 l
0.8637 0.3010 l
0.8701 0.2972 l
0.8765 0.2934 l
0.8828 0.2897 l
0.8892 0.2860 l
0.8956 0.2823 l
0.9020 0.2786 l
0.9083 0.2749 l
0.9147 0.2712 l
0.9211 0.2676 l
0.9275 0.2639 l
0.9338 0.2603 l
0.9402 0.2567 l
0.9466 0.2531 l
0.9529 0.2495 l
0.9593 0.2459 l
0.9657 0.2424 l
0.9721 0.2388 l
0.9784 0.2353 l
0.9848 0.2317 l
0.9912 0.2282 l
0.9975 0.2247 l
1.0039 0.2212 l
1.0103 0.2177 l
1.0167 0.2142 l
1.0230 0.2107 l
1.0294 0.2073 l
1.0358 0.2038 l
1.0422 0.2004 l
1.0485 0.1969 l
1.0549 0.1935 l
1.0613 0.1900 l
1.0676 0.1866 l
1.0740 0.1832 l
1.0804 0.1798 l
1.0868 0.1764 l
1.0931 0.1730 l
1.0995 0.1696 l
1.1059 0.1662 l
1.1123 0.1628 l
1.1186 0.1594 l
1.1250 0.1560 l
1.1314 0.1527 l
1.1366 0.1499 l
s
n
0.9020 0.2901 m
0.8920 0.2728 l
0.9120 0.2728 l
c
fill
[] 0 SD
0.0015 SLW
n
0.9020 0.2901 m
0.8920 0.2728 l
0.9120 0.2728 l
0.9020 0.2901 l
c
s
[/DeviceRGB] SCS
Color3 SC
[] 0 SD
0.0037 SLW
n
0.6470 0.4467 m
0.6471 0.4466 l
0.6534 0.4383 l
0.6598 0.4303 l
0.6662 0.4226 l
0.6725 0.4152 l
0.6789 0.4080 l
0.6853 0.4010 l
0.6917 0.3941 l
0.6980 0.3874 l
0.7044 0.3809 l
0.7108 0.3744 l
0.7172 0.3681 l
0.7235 0.3618 l
0.7299 0.3556 l
0.7363 0.3495 l
0.7426 0.3435 l
0.7490 0.3376 l
0.7554 0.3317 l
0.7618 0.3259 l
0.7681 0.3201 l
0.7745 0.3144 l
0.7809 0.3087 l
0.7873 0.3031 l
0.7936 0.2975 l
0.8000 0.2919 l
0.8064 0.2864 l
0.8127 0.2809 l
0.8191 0.2754 l
0.8255 0.2700 l
0.8319 0.2646 l
0.8382 0.2592 l
0.8446 0.2538 l
0.8510 0.2485 l
0.8574 0.2432 l
0.8637 0.2379 l
0.8701 0.2326 l
0.8765 0.2274 l
0.8828 0.2221 l
0.8892 0.2169 l
0.8956 0.2117 l
0.9020 0.2065 l
0.9083 0.2013 l
0.9147 0.1961 l
0.9211 0.1910 l
0.9275 0.1858 l
0.9338 0.1807 l
0.9402 0.1755 l
0.9466 0.1704 l
0.9529 0.1653 l
0.9593 0.1602 l
0.9657 0.1551 l
0.9721 0.1500 l
0.9722 0.1499 l
s
n
0.8920 0.2122 m
0.9020 0.1949 l
0.9120 0.2122 l
c
fill
[] 0 SD
0.0015 SLW
n
0.8920 0.2122 m
0.9020 0.1949 l
0.9120 0.2122 l
0.8920 0.2122 l
c
s
[/DeviceRGB] SCS
Color8 SC
[] 0 SD
0.0037 SLW
n
0.6470 0.4467 m
0.6471 0.4466 l
0.6534 0.4383 l
0.6598 0.4303 l
0.6662 0.4226 l
0.6725 0.4152 l
0.6789 0.4080 l
0.6853 0.4010 l
0.6917 0.3941 l
0.6980 0.3874 l
0.7044 0.3809 l
0.7108 0.3744 l
0.7172 0.3681 l
0.7235 0.3618 l
0.7299 0.3556 l
0.7363 0.3495 l
0.7426 0.3435 l
0.7490 0.3376 l
0.7554 0.3317 l
0.7618 0.3259 l
0.7681 0.3201 l
0.7745 0.3144 l
0.7809 0.3087 l
0.7873 0.3031 l
0.7936 0.2975 l
0.8000 0.2919 l
0.8064 0.2864 l
0.8127 0.2809 l
0.8191 0.2754 l
0.8255 0.2700 l
0.8319 0.2646 l
0.8382 0.2592 l
0.8446 0.2538 l
0.8510 0.2485 l
0.8574 0.2432 l
0.8637 0.2379 l
0.8701 0.2326 l
0.8765 0.2273 l
0.8828 0.2221 l
0.8892 0.2169 l
0.8956 0.2117 l
0.9020 0.2065 l
0.9083 0.2013 l
0.9147 0.1961 l
0.9211 0.1910 l
0.9275 0.1858 l
0.9338 0.1807 l
0.9402 0.1755 l
0.9466 0.1704 l
0.9529 0.1653 l
0.9593 0.1602 l
0.9657 0.1551 l
0.9721 0.1500 l
0.9722 0.1499 l
s
n
0.9020 0.2065 0.0100 0.0100 0 360 EARC c
GS
Color0 SRGB
fill
GR
[/Pattern /DeviceRGB] SCS
Color8 Pattern9 SC
fill
[/DeviceRGB] SCS
Color8 SC
[] 0 SD
0.0030 SLW
n 0.9020 0.2065 0.0100 0.0100 0 360 EARC s
[/DeviceRGB] SCS
Color15 SC
[] 0 SD
0.0037 SLW
n
0.6470 0.4467 m
0.6471 0.4466 l
0.6534 0.4383 l
0.6598 0.4303 l
0.6662 0.4226 l
0.6725 0.4152 l
0.6789 0.4080 l
0.6853 0.4010 l
0.6917 0.3941 l
0.6980 0.3874 l
0.7044 0.3809 l
0.7108 0.3744 l
0.7172 0.3681 l
0.7235 0.3618 l
0.7299 0.3556 l
0.7363 0.3495 l
0.7426 0.3435 l
0.7490 0.3376 l
0.7554 0.3317 l
0.7618 0.3259 l
0.7681 0.3201 l
0.7745 0.3144 l
0.7809 0.3087 l
0.7873 0.3031 l
0.7936 0.2975 l
0.8000 0.2919 l
0.8064 0.2864 l
0.8127 0.2809 l
0.8191 0.2754 l
0.8255 0.2700 l
0.8319 0.2646 l
0.8382 0.2592 l
0.8446 0.2538 l
0.8510 0.2485 l
0.8574 0.2432 l
0.8637 0.2379 l
0.8701 0.2326 l
0.8765 0.2273 l
0.8828 0.2221 l
0.8892 0.2169 l
0.8956 0.2117 l
0.9020 0.2065 l
0.9083 0.2013 l
0.9147 0.1961 l
0.9211 0.1910 l
0.9275 0.1858 l
0.9338 0.1807 l
0.9402 0.1755 l
0.9466 0.1704 l
0.9529 0.1653 l
0.9593 0.1602 l
0.9657 0.1551 l
0.9721 0.1500 l
0.9722 0.1499 l
s
n
0.8935 0.1980 m
0.8935 0.2150 l
0.9105 0.2150 l
0.9105 0.1980 l
c
GS
Color0 SRGB
fill
GR
[/Pattern /DeviceRGB] SCS
Color15 Pattern9 SC
fill
[/DeviceRGB] SCS
Color15 SC
[] 0 SD
0.0030 SLW
n
0.8935 0.1980 m
0.8935 0.2150 l
0.9105 0.2150 l
0.9105 0.1980 l
0.8935 0.1980 l
c
s
[/DeviceRGB] SCS
Color2 SC
n
0.6470 0.4467 m
0.6471 0.4466 l
0.6534 0.4383 l
0.6598 0.4303 l
0.6662 0.4226 l
0.6725 0.4152 l
0.6789 0.4080 l
0.6853 0.4010 l
0.6917 0.3941 l
0.6980 0.3874 l
0.7044 0.3809 l
0.7108 0.3744 l
0.7172 0.3681 l
0.7235 0.3618 l
0.7299 0.3556 l
0.7363 0.3495 l
0.7426 0.3435 l
0.7490 0.3376 l
0.7554 0.3317 l
0.7618 0.3259 l
0.7681 0.3201 l
0.7745 0.3144 l
0.7809 0.3087 l
0.7873 0.3031 l
0.7936 0.2975 l
0.8000 0.2919 l
0.8064 0.2864 l
0.8127 0.2809 l
0.8191 0.2754 l
0.8255 0.2700 l
0.8319 0.2646 l
0.8382 0.2592 l
0.8446 0.2538 l
0.8510 0.2485 l
0.8574 0.2432 l
0.8637 0.2379 l
0.8701 0.2326 l
0.8765 0.2273 l
0.8828 0.2221 l
0.8892 0.2169 l
0.8956 0.2117 l
0.9020 0.2065 l
0.9083 0.2013 l
0.9147 0.1961 l
0.9211 0.1910 l
0.9275 0.1858 l
0.9338 0.1807 l
0.9402 0.1755 l
0.9466 0.1704 l
0.9529 0.1653 l
0.9593 0.1602 l
0.9657 0.1551 l
0.9721 0.1500 l
0.9722 0.1499 l
s
n
0.9020 0.2165 m
0.8920 0.2065 l
0.9020 0.1965 l
0.9120 0.2065 l
c
GS
Color0 SRGB
fill
GR
[/Pattern /DeviceRGB] SCS
Color2 Pattern9 SC
fill
[/DeviceRGB] SCS
Color2 SC
n
0.9020 0.2165 m
0.8920 0.2065 l
0.9020 0.1965 l
0.9120 0.2065 l
0.9020 0.2165 l
c
s
[/DeviceRGB] SCS
Color15 SC
[0.0037 0.0112 0.0187 0.0112 ] 0 SD
0.0037 SLW
n
0.6470 0.4475 m
0.6471 0.4474 l
0.6534 0.4395 l
0.6598 0.4321 l
0.6662 0.4251 l
0.6725 0.4184 l
0.6789 0.4121 l
0.6853 0.4061 l
0.6917 0.4004 l
0.6980 0.3950 l
0.7044 0.3898 l
0.7108 0.3849 l
0.7172 0.3802 l
0.7235 0.3758 l
0.7299 0.3717 l
0.7363 0.3677 l
0.7426 0.3640 l
0.7490 0.3605 l
0.7554 0.3573 l
0.7618 0.3542 l
0.7681 0.3514 l
0.7745 0.3488 l
0.7809 0.3463 l
0.7873 0.3441 l
0.7936 0.3421 l
0.8000 0.3403 l
0.8064 0.3387 l
0.8127 0.3373 l
0.8191 0.3361 l
0.8255 0.3351 l
0.8319 0.3343 l
0.8382 0.3337 l
0.8446 0.3333 l
0.8510 0.3330 l
0.8574 0.3330 l
0.8637 0.3331 l
0.8701 0.3335 l
0.8765 0.3340 l
0.8828 0.3347 l
0.8892 0.3356 l
0.8956 0.3367 l
0.9020 0.3380 l
0.9083 0.3394 l
0.9147 0.3411 l
0.9211 0.3429 l
0.9275 0.3449 l
0.9338 0.3471 l
0.9402 0.3495 l
0.9466 0.3520 l
0.9529 0.3548 l
0.9593 0.3577 l
0.9657 0.3608 l
0.9721 0.3641 l
0.9784 0.3676 l
0.9848 0.3712 l
0.9912 0.3750 l
0.9975 0.3790 l
1.0039 0.3832 l
1.0103 0.3876 l
1.0167 0.3921 l
1.0230 0.3968 l
1.0294 0.4017 l
1.0358 0.4068 l
1.0422 0.4120 l
1.0485 0.4175 l
1.0549 0.4231 l
1.0613 0.4289 l
1.0676 0.4348 l
1.0740 0.4409 l
1.0804 0.4473 l
1.0868 0.4537 l
1.0931 0.4604 l
1.0995 0.4672 l
1.1059 0.4742 l
1.1123 0.4814 l
1.1186 0.4888 l
1.1250 0.4963 l
1.1281 0.5001 l
s
n
0.9020 0.3495 m
0.8920 0.3322 l
0.9120 0.3322 l
c
GS
Color0 SRGB
fill
GR
[/Pattern /DeviceRGB] SCS
Color15 Pattern9 SC
fill
[/DeviceRGB] SCS
Color15 SC
[] 0 SD
0.0030 SLW
n
0.9020 0.3495 m
0.8920 0.3322 l
0.9120 0.3322 l
0.9020 0.3495 l
c
s
[/DeviceRGB] SCS
Color3 SC
[0.0037 0.0112 ] 0 SD
0.0037 SLW
n
0.6470 0.4323 m
0.6471 0.4321 l
0.6534 0.4196 l
0.6598 0.4087 l
0.6662 0.3992 l
0.6725 0.3907 l
0.6789 0.3833 l
0.6853 0.3767 l
0.6917 0.3709 l
0.6980 0.3659 l
0.7044 0.3615 l
0.7108 0.3577 l
0.7172 0.3546 l
0.7235 0.3520 l
0.7299 0.3499 l
0.7363 0.3484 l
0.7426 0.3473 l
0.7490 0.3466 l
0.7554 0.3464 l
0.7618 0.3466 l
0.7681 0.3472 l
0.7745 0.3482 l
0.7809 0.3495 l
0.7873 0.3512 l
0.7936 0.3533 l
0.8000 0.3557 l
0.8064 0.3584 l
0.8127 0.3614 l
0.8191 0.3648 l
0.8255 0.3684 l
0.8319 0.3723 l
0.8382 0.3765 l
0.8446 0.3810 l
0.8510 0.3858 l
0.8574 0.3908 l
0.8637 0.3961 l
0.8701 0.4016 l
0.8765 0.4074 l
0.8828 0.4134 l
0.8892 0.4196 l
0.8956 0.4261 l
0.9020 0.4329 l
0.9083 0.4398 l
0.9147 0.4470 l
0.9211 0.4543 l
0.9275 0.4619 l
0.9338 0.4697 l
0.9402 0.4778 l
0.9466 0.4860 l
0.9529 0.4944 l
0.9572 0.5001 l
s
n
0.8920 0.4386 m
0.9020 0.4213 l
0.9120 0.4386 l
c
GS
Color0 SRGB
fill
GR
[/Pattern /DeviceRGB] SCS
Color3 Pattern9 SC
fill
[/DeviceRGB] SCS
Color3 SC
[] 0 SD
0.0030 SLW
n
0.8920 0.4386 m
0.9020 0.4213 l
0.9120 0.4386 l
0.8920 0.4386 l
c
s
[/DeviceRGB] SCS
Color1 SC
[] 0 SD
0.0045 SLW
n
0.6471 0.1500 m
1.1441 0.1500 l
s
n
0.6980 0.1500 m
0.6980 0.1600 l
s
n
0.8255 0.1500 m
0.8255 0.1600 l
s
n
0.9529 0.1500 m
0.9529 0.1600 l
s
n
1.0804 0.1500 m
1.0804 0.1600 l
s
n
0.7618 0.1500 m
0.7618 0.1700 l
s
n
0.8892 0.1500 m
0.8892 0.1700 l
s
n
1.0167 0.1500 m
1.0167 0.1700 l
s
n
1.1441 0.1500 m
1.1441 0.1700 l
s
/Font0 FFSF
0.7343 0.1094 m
GS
[0.0448 0.0000 0.0000 0.0448 0 0] CC
(0.2) show
GR
/Font0 FFSF
0.8618 0.1094 m
GS
[0.0448 0.0000 0.0000 0.0448 0 0] CC
(0.4) show
GR
/Font0 FFSF
0.9894 0.1094 m
GS
[0.0448 0.0000 0.0000 0.0448 0 0] CC
(0.6) show
GR
/Font0 FFSF
1.1173 0.1094 m
GS
[0.0448 0.0000 0.0000 0.0448 0 0] CC
(0.8) show
GR
n
0.6471 0.1500 m
0.6471 0.5000 l
s
n
1.1441 0.1500 m
1.1441 0.5000 l
s
n
0.6471 0.1500 m
0.6571 0.1500 l
s
n
1.1441 0.1500 m
1.1341 0.1500 l
s
n
0.6471 0.2200 m
0.6571 0.2200 l
s
n
1.1441 0.2200 m
1.1341 0.2200 l
s
n
0.6471 0.2900 m
0.6571 0.2900 l
s
n
1.1441 0.2900 m
1.1341 0.2900 l
s
n
0.6471 0.3600 m
0.6571 0.3600 l
s
n
1.1441 0.3600 m
1.1341 0.3600 l
s
n
0.6471 0.4300 m
0.6571 0.4300 l
s
n
1.1441 0.4300 m
1.1341 0.4300 l
s
n
0.6471 0.5000 m
0.6571 0.5000 l
s
n
1.1441 0.5000 m
1.1341 0.5000 l
s
n
0.6471 0.1850 m
0.6671 0.1850 l
s
n
1.1441 0.1850 m
1.1241 0.1850 l
s
n
0.6471 0.2550 m
0.6671 0.2550 l
s
n
1.1441 0.2550 m
1.1241 0.2550 l
s
n
0.6471 0.3250 m
0.6671 0.3250 l
s
n
1.1441 0.3250 m
1.1241 0.3250 l
s
n
0.6471 0.3950 m
0.6671 0.3950 l
s
n
1.1441 0.3950 m
1.1241 0.3950 l
s
n
0.6471 0.4650 m
0.6671 0.4650 l
s
n
1.1441 0.4650 m
1.1241 0.4650 l
s
/Font0 FFSF
1.1541 0.1701 m
GS
[0.0448 0.0000 0.0000 0.0448 0 0] CC
(-40) show
GR
/Font0 FFSF
1.1541 0.2401 m
GS
[0.0448 0.0000 0.0000 0.0448 0 0] CC
(-30) show
GR
/Font0 FFSF
1.1541 0.3101 m
GS
[0.0448 0.0000 0.0000 0.0448 0 0] CC
(-20) show
GR
/Font0 FFSF
1.1541 0.3801 m
GS
[0.0448 0.0000 0.0000 0.0448 0 0] CC
(-10) show
GR
/Font0 FFSF
1.1541 0.4501 m
GS
[0.0448 0.0000 0.0000 0.0448 0 0] CC
(0) show
GR
/Font0 FFSF
1.2539 0.2295 m
GS
[0.0000 0.0459 -0.0459 0.0000 0 0] CC
(\(S=0,T=1\)) show
GR
[] 0 SD
0.0015 SLW
n
0.6471 0.1500 m
0.6471 0.5000 l
1.1441 0.5000 l
1.1441 0.1500 l
0.6471 0.1500 l
c
s
showpage
%%PageTrailer
%%Trailer
%%DocumentNeededResources: font Times-Roman
%%+ font Symbol
%%EOF
