%!PS-Adobe-3.0
%%BoundingBox: 0 0 612 792
%%LanguageLevel: 2
%%Creator: Grace-5.1.25
%%CreationDate: Wed Oct 12 14:29:17 2016
%%DocumentData: Clean8Bit
%%Orientation: Landscape
%%Pages: 1
%%PageOrder: Ascend
%%Title: EsurA_refit3gaussian.agr
%%For: ap1450
%%DocumentNeededResources: (atend)
%%EndComments
%%BeginProlog
/PAGE_OFFSET_X 0 def
/PAGE_OFFSET_Y 0 def
/m {moveto} def
/l {lineto} def
/s {stroke} def
/n {newpath} def
/c {closepath} def
/RL {rlineto} def
/SLW {setlinewidth} def
/GS {gsave} def
/GR {grestore} def
/SC {setcolor} def
/SGRY {setgray} def
/SRGB {setrgbcolor} def
/SD {setdash} def
/SLC {setlinecap} def
/SLJ {setlinejoin} def
/SCS {setcolorspace} def
/FFSF {findfont setfont} def
/CC {concat} def
/PXL {n m 0 0 RL s} def
/Color0 {1.0000 1.0000 1.0000} def
/Color1 {0.0000 0.0000 0.0000} def
/Color2 {1.0000 0.0000 0.0000} def
/Color3 {0.0000 1.0000 0.0000} def
/Color4 {0.0000 0.0000 1.0000} def
/Color5 {1.0000 1.0000 0.0000} def
/Color6 {0.7373 0.5608 0.5608} def
/Color7 {0.8627 0.8627 0.8627} def
/Color8 {0.5804 0.0000 0.8275} def
/Color9 {0.0000 1.0000 1.0000} def
/Color10 {1.0000 0.0000 1.0000} def
/Color11 {1.0000 0.6471 0.0000} def
/Color12 {0.4471 0.1294 0.7373} def
/Color13 {0.4039 0.0275 0.2824} def
/Color14 {0.2510 0.8784 0.8157} def
/Color15 {0.0000 0.5451 0.0000} def
/Color16 {0.7529 0.7529 0.7529} def
/Color17 {0.5059 0.5059 0.5059} def
/Color18 {0.2588 0.2588 0.2588} def
/PTRN {
 /pat_bits exch def 
 <<
  /PaintType 2
  /PatternType 1 /TilingType 1
  /BBox[0 0 16 16]
  /XStep 16 /YStep 16
  /PaintProc {
   pop
   16 16 true [-1 0 0 -1 16 16] pat_bits imagemask
  }
 >>
 [0.0016 0 0 0.0016 0 0]
 makepattern
} def
/Pattern0 {<0000000000000000000000000000000000000000000000000000000000000000> PTRN} bind def
/Pattern1 {<ffffffffffffffffffffffffffffffffffffffffffffffffffffffffffffffff> PTRN} bind def
/Pattern2 {<eeeeffffbbbbffffeeeeffffbbbbffffeeeeffffbbbbffffeeeeffffbbbbffff> PTRN} bind def
/Pattern3 {<eeeebbbbeeeebbbbeeeebbbbeeeebbbbeeeebbbbeeeebbbbeeeebbbbeeeebbbb> PTRN} bind def
/Pattern4 {<5555aaaa5555aaaa5555aaaa5555aaaa5555aaaa5555aaaa5555aaaa5555aaaa> PTRN} bind def
/Pattern5 {<1111444411114444111144441111444411114444111144441111444411114444> PTRN} bind def
/Pattern6 {<1111000044440000111100004444000011110000444400001111000044440000> PTRN} bind def
/Pattern7 {<1010000000000000010100000000000010100000000000000101000000000000> PTRN} bind def
/Pattern8 {<0000000000000000000000000000000000000000000000000000000000000000> PTRN} bind def
/Pattern9 {<1e1e0f0f8787c3c3e1e1f0f078783c3c1e1e0f0f8787c3c3e1e1f0f078783c3c> PTRN} bind def
/Pattern10 {<7878f0f0e1e1c3c387870f0f1e1e3c3c7878f0f0e1e1c3c387870f0f1e1e3c3c> PTRN} bind def
/Pattern11 {<3333333333333333333333333333333333333333333333333333333333333333> PTRN} bind def
/Pattern12 {<ffffffff00000000ffffffff00000000ffffffff00000000ffffffff00000000> PTRN} bind def
/Pattern13 {<8181424224241818181824244242818181814242242418181818242442428181> PTRN} bind def
/Pattern14 {<8080404020201010080804040202010180804040202010100808040402020101> PTRN} bind def
/Pattern15 {<0101020204040808101020204040808001010202040408081010202040408080> PTRN} bind def
/Pattern16 {<2222222222222222222222222222222222222222222222222222222222222222> PTRN} bind def
/Pattern17 {<0000ffff000000000000ffff000000000000ffff000000000000ffff00000000> PTRN} bind def
/Pattern18 {<2222ffff222222222222ffff222222222222ffff222222222222ffff22222222> PTRN} bind def
/Pattern19 {<ffffffff33333333ffffffff33333333ffffffff33333333ffffffff33333333> PTRN} bind def
/Pattern20 {<0f0f0f0f0f0f0f0ff0f0f0f0f0f0f0f00f0f0f0f0f0f0f0ff0f0f0f0f0f0f0f0> PTRN} bind def
/Pattern21 {<ff00ff00ff00ff00ff00ff00ff00ff0000ff00ff00ff00ff00ff00ff00ff00ff> PTRN} bind def
/Pattern22 {<8001800180018001800180018001ffffffff8001800180018001800180018001> PTRN} bind def
/Pattern23 {<c003c003c003c003c003c003ffffffffffffffffc003c003c003c003c003c003> PTRN} bind def
/Pattern24 {<040404040404ffff404040404040ffff040404040404ffff404040404040ffff> PTRN} bind def
/Pattern25 {<180018001800180018001800ffffffff001800180018001800180018ffffffff> PTRN} bind def
/Pattern26 {<1111b8b87c7c3a3a1111a3a3c7c78b8b1111b8b87c7c3a3a1111a3a3c7c78b8b> PTRN} bind def
/Pattern27 {<101010102828c7c70101010182827c7c101010102828c7c70101010182827c7c> PTRN} bind def
/Pattern28 {<1c1c121211112121c1c12121111112121c1c121211112121c1c1212111111212> PTRN} bind def
/Pattern29 {<3e3e414180808080e3e31414080808083e3e414180808080e3e3141408080808> PTRN} bind def
/Pattern30 {<4848888884848383848488884848383848488888848483838484888848483838> PTRN} bind def
/Pattern31 {<03030404080808080c0c12122121c0c003030404080808080c0c12122121c0c0> PTRN} bind def
/ellipsedict 8 dict def
ellipsedict /mtrx matrix put
/EARC {
 ellipsedict begin
  /endangle exch def
  /startangle exch def
  /yrad exch def
  /xrad exch def
  /y exch def
  /x exch def
  /savematrix mtrx currentmatrix def
  x y translate
  xrad yrad scale
  0 0 1 startangle endangle arc
  savematrix setmatrix
 end
} def
/TL {
  /kcomp exch def
  /linewidth exch def
  /offset exch def
  GS
  0 offset rmoveto
  linewidth SLW
  dup stringwidth exch kcomp add exch RL s
  GR
} def
/KINIT
{
 /kvector exch def
 /kid 0 def
} def
/KPROC
{
 pop pop
 kvector kid get
 0 rmoveto
 /kid 1 kid add def
} def
/DefEncoding [
 /.notdef
 /.notdef
 /.notdef
 /.notdef
 /.notdef
 /.notdef
 /.notdef
 /.notdef
 /.notdef
 /.notdef
 /.notdef
 /.notdef
 /.notdef
 /.notdef
 /.notdef
 /.notdef
 /.notdef
 /.notdef
 /.notdef
 /.notdef
 /.notdef
 /.notdef
 /.notdef
 /.notdef
 /.notdef
 /.notdef
 /.notdef
 /.notdef
 /.notdef
 /.notdef
 /.notdef
 /.notdef
 /space
 /exclam
 /quotedbl
 /numbersign
 /dollar
 /percent
 /ampersand
 /quoteright
 /parenleft
 /parenright
 /asterisk
 /plus
 /comma
 /hyphen
 /period
 /slash
 /zero
 /one
 /two
 /three
 /four
 /five
 /six
 /seven
 /eight
 /nine
 /colon
 /semicolon
 /less
 /equal
 /greater
 /question
 /at
 /A
 /B
 /C
 /D
 /E
 /F
 /G
 /H
 /I
 /J
 /K
 /L
 /M
 /N
 /O
 /P
 /Q
 /R
 /S
 /T
 /U
 /V
 /W
 /X
 /Y
 /Z
 /bracketleft
 /backslash
 /bracketright
 /asciicircum
 /underscore
 /grave
 /a
 /b
 /c
 /d
 /e
 /f
 /g
 /h
 /i
 /j
 /k
 /l
 /m
 /n
 /o
 /p
 /q
 /r
 /s
 /t
 /u
 /v
 /w
 /x
 /y
 /z
 /braceleft
 /bar
 /braceright
 /asciitilde
 /.notdef
 /.notdef
 /.notdef
 /.notdef
 /.notdef
 /.notdef
 /.notdef
 /.notdef
 /.notdef
 /.notdef
 /.notdef
 /.notdef
 /.notdef
 /.notdef
 /.notdef
 /.notdef
 /.notdef
 /.notdef
 /.notdef
 /.notdef
 /.notdef
 /.notdef
 /.notdef
 /.notdef
 /.notdef
 /.notdef
 /.notdef
 /.notdef
 /.notdef
 /.notdef
 /.notdef
 /.notdef
 /.notdef
 /space
 /exclamdown
 /cent
 /sterling
 /currency
 /yen
 /brokenbar
 /section
 /dieresis
 /copyright
 /ordfeminine
 /guillemotleft
 /logicalnot
 /hyphen
 /registered
 /macron
 /degree
 /plusminus
 /twosuperior
 /threesuperior
 /acute
 /mu
 /paragraph
 /periodcentered
 /cedilla
 /onesuperior
 /ordmasculine
 /guillemotright
 /onequarter
 /onehalf
 /threequarters
 /questiondown
 /Agrave
 /Aacute
 /Acircumflex
 /Atilde
 /Adieresis
 /Aring
 /AE
 /Ccedilla
 /Egrave
 /Eacute
 /Ecircumflex
 /Edieresis
 /Igrave
 /Iacute
 /Icircumflex
 /Idieresis
 /Eth
 /Ntilde
 /Ograve
 /Oacute
 /Ocircumflex
 /Otilde
 /Odieresis
 /multiply
 /Oslash
 /Ugrave
 /Uacute
 /Ucircumflex
 /Udieresis
 /Yacute
 /Thorn
 /germandbls
 /agrave
 /aacute
 /acircumflex
 /atilde
 /adieresis
 /aring
 /ae
 /ccedilla
 /egrave
 /eacute
 /ecircumflex
 /edieresis
 /igrave
 /iacute
 /icircumflex
 /idieresis
 /eth
 /ntilde
 /ograve
 /oacute
 /ocircumflex
 /otilde
 /odieresis
 /divide
 /oslash
 /ugrave
 /uacute
 /ucircumflex
 /udieresis
 /yacute
 /thorn
 /ydieresis
] def
%%EndProlog
%%BeginSetup
%%EndSetup
%%Page: 1 1
PAGE_OFFSET_X PAGE_OFFSET_Y translate
612.00 612.00 scale
90 rotate
0.0 -1.0 translate
[/DeviceRGB] SCS
Color1 SC
[] 0 SD
0.0045 SLW
0 SLC
0 SLJ
n
0.1667 0.2283 m
0.1833 0.2212 l
0.2000 0.2143 l
0.2167 0.2079 l
0.2333 0.2019 l
0.2500 0.1965 l
0.2667 0.1916 l
0.2833 0.1871 l
0.3000 0.1832 l
0.3167 0.1796 l
0.3333 0.1766 l
0.3500 0.1739 l
0.3667 0.1717 l
0.3833 0.1698 l
0.4000 0.1684 l
0.4167 0.1673 l
0.4333 0.1666 l
0.4500 0.1662 l
0.4667 0.1662 l
0.4833 0.1665 l
0.5000 0.1672 l
0.5167 0.1681 l
0.5333 0.1694 l
0.5500 0.1710 l
0.5667 0.1729 l
0.5833 0.1750 l
0.6000 0.1775 l
0.6167 0.1802 l
0.6333 0.1832 l
0.6500 0.1864 l
0.6667 0.1900 l
0.6833 0.1937 l
0.7000 0.1978 l
0.7167 0.2020 l
0.7333 0.2066 l
0.7500 0.2113 l
0.7667 0.2163 l
0.7833 0.2215 l
0.8000 0.2270 l
0.8167 0.2326 l
0.8333 0.2385 l
0.8500 0.2446 l
0.8667 0.2509 l
0.8833 0.2575 l
0.9000 0.2642 l
0.9167 0.2711 l
0.9333 0.2782 l
0.9500 0.2856 l
0.9667 0.2931 l
0.9833 0.3008 l
1.0000 0.3087 l
1.0167 0.3168 l
1.0333 0.3251 l
1.0500 0.3335 l
1.0667 0.3421 l
1.0833 0.3509 l
1.1000 0.3599 l
1.1167 0.3691 l
1.1333 0.3784 l
1.1500 0.3879 l
1.1501 0.3880 l
s
[/DeviceRGB] SCS
Color2 SC
n
0.1667 0.2459 m
0.1833 0.2512 l
0.2000 0.2554 l
0.2167 0.2593 l
0.2333 0.2632 l
0.2500 0.2674 l
0.2667 0.2718 l
0.2833 0.2766 l
0.3000 0.2817 l
0.3167 0.2872 l
0.3333 0.2930 l
0.3500 0.2992 l
0.3667 0.3057 l
0.3833 0.3125 l
0.4000 0.3197 l
0.4167 0.3272 l
0.4333 0.3350 l
0.4500 0.3430 l
0.4667 0.3514 l
0.4833 0.3600 l
0.5000 0.3688 l
0.5167 0.3780 l
0.5333 0.3873 l
0.5500 0.3969 l
0.5667 0.4067 l
0.5833 0.4167 l
0.6000 0.4269 l
0.6167 0.4373 l
0.6333 0.4479 l
0.6500 0.4587 l
0.6667 0.4697 l
0.6833 0.4808 l
0.7000 0.4921 l
0.7167 0.5035 l
0.7333 0.5151 l
0.7500 0.5268 l
0.7667 0.5387 l
0.7833 0.5507 l
0.8000 0.5628 l
0.8167 0.5751 l
0.8333 0.5875 l
0.8500 0.6000 l
0.8667 0.6126 l
0.8833 0.6253 l
0.9000 0.6381 l
0.9167 0.6510 l
0.9333 0.6640 l
0.9500 0.6771 l
0.9667 0.6903 l
0.9833 0.7036 l
1.0000 0.7169 l
1.0167 0.7304 l
1.0333 0.7439 l
1.0500 0.7575 l
1.0667 0.7711 l
1.0833 0.7849 l
1.1000 0.7987 l
1.1167 0.8126 l
1.1333 0.8265 l
1.1500 0.8405 l
1.1501 0.8406 l
s
n
0.2748 0.1766 m
0.2748 0.1936 l
0.2918 0.1936 l
0.2918 0.1766 l
c
GS
Color0 SRGB
fill
GR
[/Pattern /DeviceRGB] SCS
Color1 Pattern8 SC
fill
[/DeviceRGB] SCS
Color1 SC
[] 0 SD
0.0037 SLW
n
0.2748 0.1766 m
0.2748 0.1936 l
0.2918 0.1936 l
0.2918 0.1766 l
0.2748 0.1766 l
c
s
n
0.4082 0.1567 m
0.4082 0.1737 l
0.4252 0.1737 l
0.4252 0.1567 l
c
GS
Color0 SRGB
fill
GR
[/Pattern /DeviceRGB] SCS
Color1 Pattern8 SC
fill
[/DeviceRGB] SCS
Color1 SC
n
0.4082 0.1567 m
0.4082 0.1737 l
0.4252 0.1737 l
0.4252 0.1567 l
0.4082 0.1567 l
c
s
n
0.4748 0.1569 m
0.4748 0.1739 l
0.4918 0.1739 l
0.4918 0.1569 l
c
GS
Color0 SRGB
fill
GR
[/Pattern /DeviceRGB] SCS
Color1 Pattern8 SC
fill
[/DeviceRGB] SCS
Color1 SC
n
0.4748 0.1569 m
0.4748 0.1739 l
0.4918 0.1739 l
0.4918 0.1569 l
0.4748 0.1569 l
c
s
n
0.6415 0.1795 m
0.6415 0.1965 l
0.6585 0.1965 l
0.6585 0.1795 l
c
GS
Color0 SRGB
fill
GR
[/Pattern /DeviceRGB] SCS
Color1 Pattern8 SC
fill
[/DeviceRGB] SCS
Color1 SC
n
0.6415 0.1795 m
0.6415 0.1965 l
0.6585 0.1965 l
0.6585 0.1795 l
0.6415 0.1795 l
c
s
n
0.8082 0.2271 m
0.8082 0.2441 l
0.8252 0.2441 l
0.8252 0.2271 l
c
GS
Color0 SRGB
fill
GR
[/Pattern /DeviceRGB] SCS
Color1 Pattern8 SC
fill
[/DeviceRGB] SCS
Color1 SC
n
0.8082 0.2271 m
0.8082 0.2441 l
0.8252 0.2441 l
0.8252 0.2271 l
0.8082 0.2271 l
c
s
n
0.9748 0.2960 m
0.9748 0.3130 l
0.9918 0.3130 l
0.9918 0.2960 l
c
GS
Color0 SRGB
fill
GR
[/Pattern /DeviceRGB] SCS
Color1 Pattern8 SC
fill
[/DeviceRGB] SCS
Color1 SC
n
0.9748 0.2960 m
0.9748 0.3130 l
0.9918 0.3130 l
0.9918 0.2960 l
0.9748 0.2960 l
c
s
n
0.2833 0.2675 0.0100 0.0100 0 360 EARC c
GS
Color0 SRGB
fill
GR
[/Pattern /DeviceRGB] SCS
Color2 Pattern8 SC
fill
[/DeviceRGB] SCS
Color2 SC
n 0.2833 0.2675 0.0100 0.0100 0 360 EARC s
n
0.4167 0.2991 0.0100 0.0100 0 360 EARC c
GS
Color0 SRGB
fill
GR
[/Pattern /DeviceRGB] SCS
Color2 Pattern8 SC
fill
[/DeviceRGB] SCS
Color2 SC
n 0.4167 0.2991 0.0100 0.0100 0 360 EARC s
n
0.4833 0.3188 0.0100 0.0100 0 360 EARC c
GS
Color0 SRGB
fill
GR
[/Pattern /DeviceRGB] SCS
Color2 Pattern8 SC
fill
[/DeviceRGB] SCS
Color2 SC
n 0.4833 0.3188 0.0100 0.0100 0 360 EARC s
n
0.6500 0.3789 0.0100 0.0100 0 360 EARC c
GS
Color0 SRGB
fill
GR
[/Pattern /DeviceRGB] SCS
Color2 Pattern8 SC
fill
[/DeviceRGB] SCS
Color2 SC
n 0.6500 0.3789 0.0100 0.0100 0 360 EARC s
n
0.8167 0.4599 0.0100 0.0100 0 360 EARC c
GS
Color0 SRGB
fill
GR
[/Pattern /DeviceRGB] SCS
Color2 Pattern8 SC
fill
[/DeviceRGB] SCS
Color2 SC
n 0.8167 0.4599 0.0100 0.0100 0 360 EARC s
n
0.9833 0.5664 0.0100 0.0100 0 360 EARC c
GS
Color0 SRGB
fill
GR
[/Pattern /DeviceRGB] SCS
Color2 Pattern8 SC
fill
[/DeviceRGB] SCS
Color2 SC
n 0.9833 0.5664 0.0100 0.0100 0 360 EARC s
[/DeviceRGB] SCS
Color1 SC
[] 0 SD
0.0045 SLW
n
0.1500 0.1500 m
1.1500 0.1500 l
s
n
0.1500 0.8500 m
1.1500 0.8500 l
s
n
0.2333 0.1500 m
0.2333 0.1600 l
s
n
0.2333 0.8500 m
0.2333 0.8400 l
s
n
0.4000 0.1500 m
0.4000 0.1600 l
s
n
0.4000 0.8500 m
0.4000 0.8400 l
s
n
0.5667 0.1500 m
0.5667 0.1600 l
s
n
0.5667 0.8500 m
0.5667 0.8400 l
s
n
0.7333 0.1500 m
0.7333 0.1600 l
s
n
0.7333 0.8500 m
0.7333 0.8400 l
s
n
0.9000 0.1500 m
0.9000 0.1600 l
s
n
0.9000 0.8500 m
0.9000 0.8400 l
s
n
1.0667 0.1500 m
1.0667 0.1600 l
s
n
1.0667 0.8500 m
1.0667 0.8400 l
s
n
0.1500 0.1500 m
0.1500 0.1700 l
s
n
0.1500 0.8500 m
0.1500 0.8300 l
s
n
0.3167 0.1500 m
0.3167 0.1700 l
s
n
0.3167 0.8500 m
0.3167 0.8300 l
s
n
0.4833 0.1500 m
0.4833 0.1700 l
s
n
0.4833 0.8500 m
0.4833 0.8300 l
s
n
0.6500 0.1500 m
0.6500 0.1700 l
s
n
0.6500 0.8500 m
0.6500 0.8300 l
s
n
0.8167 0.1500 m
0.8167 0.1700 l
s
n
0.8167 0.8500 m
0.8167 0.8300 l
s
n
0.9833 0.1500 m
0.9833 0.1700 l
s
n
0.9833 0.8500 m
0.9833 0.8300 l
s
/Times-Roman findfont
dup length dict begin
 {1 index /FID ne {def} {pop pop} ifelse} forall
 /Encoding DefEncoding def
 currentdict
end
/Font0 exch definefont pop
/Font0 FFSF
0.1394 0.1094 m
GS
[0.0448 0.0000 0.0000 0.0448 0 0] CC
(0) show
GR
/Font0 FFSF
0.2910 0.1094 m
GS
[0.0448 0.0000 0.0000 0.0448 0 0] CC
(0.1) show
GR
/Font0 FFSF
0.4559 0.1094 m
GS
[0.0448 0.0000 0.0000 0.0448 0 0] CC
(0.2) show
GR
/Font0 FFSF
0.6233 0.1094 m
GS
[0.0448 0.0000 0.0000 0.0448 0 0] CC
(0.3) show
GR
/Font0 FFSF
0.7892 0.1094 m
GS
[0.0448 0.0000 0.0000 0.0448 0 0] CC
(0.4) show
GR
/Font0 FFSF
0.9567 0.1090 m
GS
[0.0448 0.0000 0.0000 0.0448 0 0] CC
(0.5) show
GR
/Symbol findfont
/Font12 exch definefont pop
/Font12 FFSF
0.5722 0.0441 m
GS
[0.0504 0.0000 0.0000 0.0504 0 0] CC
(r) show
GR
/Font0 FFSF
0.6000 0.0441 m
GS
[0.0504 0.0000 0.0000 0.0504 0 0] CC
( [fm) show
GR
/Font0 FFSF
0.6855 0.0743 m
GS
[0.0356 0.0000 0.0000 0.0356 0 0] CC
(-3) show
GR
/Font0 FFSF
0.7153 0.0441 m
GS
[0.0504 0.0000 0.0000 0.0504 0 0] CC
(]) show
GR
n
0.1500 0.1500 m
0.1500 0.8500 l
s
n
1.1500 0.1500 m
1.1500 0.8500 l
s
n
0.1500 0.3353 m
0.1600 0.3353 l
s
n
1.1500 0.3353 m
1.1400 0.3353 l
s
n
0.1500 0.5412 m
0.1600 0.5412 l
s
n
1.1500 0.5412 m
1.1400 0.5412 l
s
n
0.1500 0.7471 m
0.1600 0.7471 l
s
n
1.1500 0.7471 m
1.1400 0.7471 l
s
n
0.1500 0.2324 m
0.1700 0.2324 l
s
n
1.1500 0.2324 m
1.1300 0.2324 l
s
n
0.1500 0.4382 m
0.1700 0.4382 l
s
n
1.1500 0.4382 m
1.1300 0.4382 l
s
n
0.1500 0.6441 m
0.1700 0.6441 l
s
n
1.1500 0.6441 m
1.1300 0.6441 l
s
n
0.1500 0.8500 m
0.1700 0.8500 l
s
n
1.1500 0.8500 m
1.1300 0.8500 l
s
/Font0 FFSF
0.1188 0.2175 m
GS
[0.0448 0.0000 0.0000 0.0448 0 0] CC
(0) show
GR
/Font0 FFSF
0.0965 0.4231 m
GS
[0.0448 0.0000 0.0000 0.0448 0 0] CC
(50) show
GR
/Font0 FFSF
0.0741 0.6292 m
GS
[0.0448 0.0000 0.0000 0.0448 0 0] CC
(100) show
GR
/Font0 FFSF
0.0741 0.8349 m
GS
[0.0448 0.0000 0.0000 0.0448 0 0] CC
(150) show
GR
/Font0 FFSF
0.0563 0.3867 m
GS
[0.0000 0.0504 -0.0504 0.0000 0 0] CC
(E/A [MeV]) show
GR
[] 0 SD
0.0015 SLW
n
0.1500 0.1500 m
0.1500 0.8500 l
1.1500 0.8500 l
1.1500 0.1500 l
0.1500 0.1500 l
c
s
n
0.1500 0.8500 m
0.1500 0.6624 l
0.5923 0.6624 l
0.5923 0.8500 l
c
[/DeviceRGB] SCS
Color0 SC
fill
[/DeviceRGB] SCS
Color1 SC
[] 0 SD
0.0045 SLW
n
0.1500 0.8500 m
0.1500 0.6624 l
0.5923 0.6624 l
0.5923 0.8500 l
0.1500 0.8500 l
c
s
/Font0 FFSF
0.2422 0.8059 m
GS
[0.0498 0.0000 0.0000 0.0498 0 0] CC
(SNM 3 Gaussian) show
GR
n
0.1623 0.8225 m
0.2223 0.8225 l
s
/Font0 FFSF
0.2422 0.7610 m
GS
[0.0498 0.0000 0.0000 0.0498 0 0] CC
(PNM 3 Gaussian) show
GR
[/DeviceRGB] SCS
Color2 SC
n
0.1623 0.7776 m
0.2223 0.7776 l
s
/Font0 FFSF
[/DeviceRGB] SCS
Color1 SC
0.2422 0.7165 m
GS
[0.0498 0.0000 0.0000 0.0498 0 0] CC
(SNM  BHF) show
GR
n
0.1837 0.7244 m
0.1837 0.7414 l
0.2008 0.7414 l
0.2008 0.7244 l
c
GS
Color0 SRGB
fill
GR
[/Pattern /DeviceRGB] SCS
Color1 Pattern8 SC
fill
[/DeviceRGB] SCS
Color1 SC
[] 0 SD
0.0037 SLW
n
0.1837 0.7244 m
0.1837 0.7414 l
0.2008 0.7414 l
0.2008 0.7244 l
0.1837 0.7244 l
c
s
/Font0 FFSF
0.2422 0.6727 m
GS
[0.0498 0.0000 0.0000 0.0498 0 0] CC
(PNM  BHF) show
GR
n
0.1923 0.6890 0.0100 0.0100 0 360 EARC c
GS
Color0 SRGB
fill
GR
[/Pattern /DeviceRGB] SCS
Color2 Pattern8 SC
fill
[/DeviceRGB] SCS
Color2 SC
n 0.1923 0.6890 0.0100 0.0100 0 360 EARC s
[/DeviceRGB] SCS
Color1 SC
[] 0 SD
0.0015 SLW
n
0.3752 0.8497 m
0.3725 0.8458 l
s
showpage
%%PageTrailer
%%Trailer
%%DocumentNeededResources: font Times-Roman
%%+ font Symbol
%%EOF
