%!PS-Adobe-3.0
%%BoundingBox: 0 0 612 792
%%LanguageLevel: 2
%%Creator: Grace-5.1.25
%%CreationDate: Wed Oct 12 09:57:35 2016
%%DocumentData: Clean8Bit
%%Orientation: Landscape
%%Pages: 1
%%PageOrder: Ascend
%%Title: EsurA.agr
%%For: ap1450
%%DocumentNeededResources: (atend)
%%EndComments
%%BeginProlog
/PAGE_OFFSET_X 0 def
/PAGE_OFFSET_Y 0 def
/m {moveto} def
/l {lineto} def
/s {stroke} def
/n {newpath} def
/c {closepath} def
/RL {rlineto} def
/SLW {setlinewidth} def
/GS {gsave} def
/GR {grestore} def
/SC {setcolor} def
/SGRY {setgray} def
/SRGB {setrgbcolor} def
/SD {setdash} def
/SLC {setlinecap} def
/SLJ {setlinejoin} def
/SCS {setcolorspace} def
/FFSF {findfont setfont} def
/CC {concat} def
/PXL {n m 0 0 RL s} def
/Color0 {1.0000 1.0000 1.0000} def
/Color1 {0.0000 0.0000 0.0000} def
/Color2 {1.0000 0.0000 0.0000} def
/Color3 {0.0000 1.0000 0.0000} def
/Color4 {0.0000 0.0000 1.0000} def
/Color5 {1.0000 1.0000 0.0000} def
/Color6 {0.7373 0.5608 0.5608} def
/Color7 {0.8627 0.8627 0.8627} def
/Color8 {0.5804 0.0000 0.8275} def
/Color9 {0.0000 1.0000 1.0000} def
/Color10 {1.0000 0.0000 1.0000} def
/Color11 {1.0000 0.6471 0.0000} def
/Color12 {0.4471 0.1294 0.7373} def
/Color13 {0.4039 0.0275 0.2824} def
/Color14 {0.2510 0.8784 0.8157} def
/Color15 {0.0000 0.5451 0.0000} def
/Color16 {0.7529 0.7529 0.7529} def
/Color17 {0.5059 0.5059 0.5059} def
/Color18 {0.2588 0.2588 0.2588} def
/PTRN {
 /pat_bits exch def 
 <<
  /PaintType 2
  /PatternType 1 /TilingType 1
  /BBox[0 0 16 16]
  /XStep 16 /YStep 16
  /PaintProc {
   pop
   16 16 true [-1 0 0 -1 16 16] pat_bits imagemask
  }
 >>
 [0.0016 0 0 0.0016 0 0]
 makepattern
} def
/Pattern0 {<0000000000000000000000000000000000000000000000000000000000000000> PTRN} bind def
/Pattern1 {<ffffffffffffffffffffffffffffffffffffffffffffffffffffffffffffffff> PTRN} bind def
/Pattern2 {<eeeeffffbbbbffffeeeeffffbbbbffffeeeeffffbbbbffffeeeeffffbbbbffff> PTRN} bind def
/Pattern3 {<eeeebbbbeeeebbbbeeeebbbbeeeebbbbeeeebbbbeeeebbbbeeeebbbbeeeebbbb> PTRN} bind def
/Pattern4 {<5555aaaa5555aaaa5555aaaa5555aaaa5555aaaa5555aaaa5555aaaa5555aaaa> PTRN} bind def
/Pattern5 {<1111444411114444111144441111444411114444111144441111444411114444> PTRN} bind def
/Pattern6 {<1111000044440000111100004444000011110000444400001111000044440000> PTRN} bind def
/Pattern7 {<1010000000000000010100000000000010100000000000000101000000000000> PTRN} bind def
/Pattern8 {<0000000000000000000000000000000000000000000000000000000000000000> PTRN} bind def
/Pattern9 {<1e1e0f0f8787c3c3e1e1f0f078783c3c1e1e0f0f8787c3c3e1e1f0f078783c3c> PTRN} bind def
/Pattern10 {<7878f0f0e1e1c3c387870f0f1e1e3c3c7878f0f0e1e1c3c387870f0f1e1e3c3c> PTRN} bind def
/Pattern11 {<3333333333333333333333333333333333333333333333333333333333333333> PTRN} bind def
/Pattern12 {<ffffffff00000000ffffffff00000000ffffffff00000000ffffffff00000000> PTRN} bind def
/Pattern13 {<8181424224241818181824244242818181814242242418181818242442428181> PTRN} bind def
/Pattern14 {<8080404020201010080804040202010180804040202010100808040402020101> PTRN} bind def
/Pattern15 {<0101020204040808101020204040808001010202040408081010202040408080> PTRN} bind def
/Pattern16 {<2222222222222222222222222222222222222222222222222222222222222222> PTRN} bind def
/Pattern17 {<0000ffff000000000000ffff000000000000ffff000000000000ffff00000000> PTRN} bind def
/Pattern18 {<2222ffff222222222222ffff222222222222ffff222222222222ffff22222222> PTRN} bind def
/Pattern19 {<ffffffff33333333ffffffff33333333ffffffff33333333ffffffff33333333> PTRN} bind def
/Pattern20 {<0f0f0f0f0f0f0f0ff0f0f0f0f0f0f0f00f0f0f0f0f0f0f0ff0f0f0f0f0f0f0f0> PTRN} bind def
/Pattern21 {<ff00ff00ff00ff00ff00ff00ff00ff0000ff00ff00ff00ff00ff00ff00ff00ff> PTRN} bind def
/Pattern22 {<8001800180018001800180018001ffffffff8001800180018001800180018001> PTRN} bind def
/Pattern23 {<c003c003c003c003c003c003ffffffffffffffffc003c003c003c003c003c003> PTRN} bind def
/Pattern24 {<040404040404ffff404040404040ffff040404040404ffff404040404040ffff> PTRN} bind def
/Pattern25 {<180018001800180018001800ffffffff001800180018001800180018ffffffff> PTRN} bind def
/Pattern26 {<1111b8b87c7c3a3a1111a3a3c7c78b8b1111b8b87c7c3a3a1111a3a3c7c78b8b> PTRN} bind def
/Pattern27 {<101010102828c7c70101010182827c7c101010102828c7c70101010182827c7c> PTRN} bind def
/Pattern28 {<1c1c121211112121c1c12121111112121c1c121211112121c1c1212111111212> PTRN} bind def
/Pattern29 {<3e3e414180808080e3e31414080808083e3e414180808080e3e3141408080808> PTRN} bind def
/Pattern30 {<4848888884848383848488884848383848488888848483838484888848483838> PTRN} bind def
/Pattern31 {<03030404080808080c0c12122121c0c003030404080808080c0c12122121c0c0> PTRN} bind def
/ellipsedict 8 dict def
ellipsedict /mtrx matrix put
/EARC {
 ellipsedict begin
  /endangle exch def
  /startangle exch def
  /yrad exch def
  /xrad exch def
  /y exch def
  /x exch def
  /savematrix mtrx currentmatrix def
  x y translate
  xrad yrad scale
  0 0 1 startangle endangle arc
  savematrix setmatrix
 end
} def
/TL {
  /kcomp exch def
  /linewidth exch def
  /offset exch def
  GS
  0 offset rmoveto
  linewidth SLW
  dup stringwidth exch kcomp add exch RL s
  GR
} def
/KINIT
{
 /kvector exch def
 /kid 0 def
} def
/KPROC
{
 pop pop
 kvector kid get
 0 rmoveto
 /kid 1 kid add def
} def
/DefEncoding [
 /.notdef
 /.notdef
 /.notdef
 /.notdef
 /.notdef
 /.notdef
 /.notdef
 /.notdef
 /.notdef
 /.notdef
 /.notdef
 /.notdef
 /.notdef
 /.notdef
 /.notdef
 /.notdef
 /.notdef
 /.notdef
 /.notdef
 /.notdef
 /.notdef
 /.notdef
 /.notdef
 /.notdef
 /.notdef
 /.notdef
 /.notdef
 /.notdef
 /.notdef
 /.notdef
 /.notdef
 /.notdef
 /space
 /exclam
 /quotedbl
 /numbersign
 /dollar
 /percent
 /ampersand
 /quoteright
 /parenleft
 /parenright
 /asterisk
 /plus
 /comma
 /hyphen
 /period
 /slash
 /zero
 /one
 /two
 /three
 /four
 /five
 /six
 /seven
 /eight
 /nine
 /colon
 /semicolon
 /less
 /equal
 /greater
 /question
 /at
 /A
 /B
 /C
 /D
 /E
 /F
 /G
 /H
 /I
 /J
 /K
 /L
 /M
 /N
 /O
 /P
 /Q
 /R
 /S
 /T
 /U
 /V
 /W
 /X
 /Y
 /Z
 /bracketleft
 /backslash
 /bracketright
 /asciicircum
 /underscore
 /grave
 /a
 /b
 /c
 /d
 /e
 /f
 /g
 /h
 /i
 /j
 /k
 /l
 /m
 /n
 /o
 /p
 /q
 /r
 /s
 /t
 /u
 /v
 /w
 /x
 /y
 /z
 /braceleft
 /bar
 /braceright
 /asciitilde
 /.notdef
 /.notdef
 /.notdef
 /.notdef
 /.notdef
 /.notdef
 /.notdef
 /.notdef
 /.notdef
 /.notdef
 /.notdef
 /.notdef
 /.notdef
 /.notdef
 /.notdef
 /.notdef
 /.notdef
 /.notdef
 /.notdef
 /.notdef
 /.notdef
 /.notdef
 /.notdef
 /.notdef
 /.notdef
 /.notdef
 /.notdef
 /.notdef
 /.notdef
 /.notdef
 /.notdef
 /.notdef
 /.notdef
 /space
 /exclamdown
 /cent
 /sterling
 /currency
 /yen
 /brokenbar
 /section
 /dieresis
 /copyright
 /ordfeminine
 /guillemotleft
 /logicalnot
 /hyphen
 /registered
 /macron
 /degree
 /plusminus
 /twosuperior
 /threesuperior
 /acute
 /mu
 /paragraph
 /periodcentered
 /cedilla
 /onesuperior
 /ordmasculine
 /guillemotright
 /onequarter
 /onehalf
 /threequarters
 /questiondown
 /Agrave
 /Aacute
 /Acircumflex
 /Atilde
 /Adieresis
 /Aring
 /AE
 /Ccedilla
 /Egrave
 /Eacute
 /Ecircumflex
 /Edieresis
 /Igrave
 /Iacute
 /Icircumflex
 /Idieresis
 /Eth
 /Ntilde
 /Ograve
 /Oacute
 /Ocircumflex
 /Otilde
 /Odieresis
 /multiply
 /Oslash
 /Ugrave
 /Uacute
 /Ucircumflex
 /Udieresis
 /Yacute
 /Thorn
 /germandbls
 /agrave
 /aacute
 /acircumflex
 /atilde
 /adieresis
 /aring
 /ae
 /ccedilla
 /egrave
 /eacute
 /ecircumflex
 /edieresis
 /igrave
 /iacute
 /icircumflex
 /idieresis
 /eth
 /ntilde
 /ograve
 /oacute
 /ocircumflex
 /otilde
 /odieresis
 /divide
 /oslash
 /ugrave
 /uacute
 /ucircumflex
 /udieresis
 /yacute
 /thorn
 /ydieresis
] def
%%EndProlog
%%BeginSetup
%%EndSetup
%%Page: 1 1
PAGE_OFFSET_X PAGE_OFFSET_Y translate
612.00 612.00 scale
90 rotate
0.0 -1.0 translate
n
0.2601 0.2161 m
0.2601 0.2331 l
0.2771 0.2331 l
0.2771 0.2161 l
c
GS
[/DeviceRGB] SCS
Color0 SRGB
fill
GR
[/Pattern /DeviceRGB] SCS
Color1 Pattern8 SC
fill
[/DeviceRGB] SCS
Color1 SC
[] 0 SD
0.0030 SLW
0 SLC
0 SLJ
n
0.2601 0.2161 m
0.2601 0.2331 l
0.2771 0.2331 l
0.2771 0.2161 l
0.2601 0.2161 l
c
s
n
0.3957 0.1737 m
0.3957 0.1907 l
0.4127 0.1907 l
0.4127 0.1737 l
c
GS
Color0 SRGB
fill
GR
[/Pattern /DeviceRGB] SCS
Color1 Pattern8 SC
fill
[/DeviceRGB] SCS
Color1 SC
n
0.3957 0.1737 m
0.3957 0.1907 l
0.4127 0.1907 l
0.4127 0.1737 l
0.3957 0.1737 l
c
s
n
0.4635 0.1743 m
0.4635 0.1913 l
0.4805 0.1913 l
0.4805 0.1743 l
c
GS
Color0 SRGB
fill
GR
[/Pattern /DeviceRGB] SCS
Color1 Pattern8 SC
fill
[/DeviceRGB] SCS
Color1 SC
n
0.4635 0.1743 m
0.4635 0.1913 l
0.4805 0.1913 l
0.4805 0.1743 l
0.4635 0.1743 l
c
s
n
0.6330 0.2222 m
0.6330 0.2392 l
0.6500 0.2392 l
0.6500 0.2222 l
c
GS
Color0 SRGB
fill
GR
[/Pattern /DeviceRGB] SCS
Color1 Pattern8 SC
fill
[/DeviceRGB] SCS
Color1 SC
n
0.6330 0.2222 m
0.6330 0.2392 l
0.6500 0.2392 l
0.6500 0.2222 l
0.6330 0.2222 l
c
s
n
0.8025 0.3234 m
0.8025 0.3404 l
0.8195 0.3404 l
0.8195 0.3234 l
c
GS
Color0 SRGB
fill
GR
[/Pattern /DeviceRGB] SCS
Color1 Pattern8 SC
fill
[/DeviceRGB] SCS
Color1 SC
n
0.8025 0.3234 m
0.8025 0.3404 l
0.8195 0.3404 l
0.8195 0.3234 l
0.8025 0.3234 l
c
s
n
0.9720 0.4699 m
0.9720 0.4869 l
0.9890 0.4869 l
0.9890 0.4699 l
c
GS
Color0 SRGB
fill
GR
[/Pattern /DeviceRGB] SCS
Color1 Pattern8 SC
fill
[/DeviceRGB] SCS
Color1 SC
n
0.9720 0.4699 m
0.9720 0.4869 l
0.9890 0.4869 l
0.9890 0.4699 l
0.9720 0.4699 l
c
s
[0.0037 0.0112 0.0187 0.0112 0.0037 0.0112 ] 0 SD
0.0037 SLW
n
0.1500 0.3121 m
0.1669 0.2939 l
0.1839 0.2772 l
0.2008 0.2620 l
0.2178 0.2485 l
0.2347 0.2366 l
0.2517 0.2260 l
0.2686 0.2168 l
0.2856 0.2089 l
0.3025 0.2021 l
0.3195 0.1964 l
0.3364 0.1917 l
0.3534 0.1881 l
0.3703 0.1854 l
0.3873 0.1836 l
0.4042 0.1826 l
0.4212 0.1825 l
0.4381 0.1832 l
0.4551 0.1846 l
0.4720 0.1868 l
0.4890 0.1897 l
0.5059 0.1933 l
0.5229 0.1975 l
0.5398 0.2024 l
0.5568 0.2079 l
0.5737 0.2140 l
0.5907 0.2207 l
0.6076 0.2280 l
0.6246 0.2358 l
0.6415 0.2442 l
0.6585 0.2531 l
0.6754 0.2625 l
0.6924 0.2725 l
0.7093 0.2829 l
0.7263 0.2938 l
0.7432 0.3052 l
0.7602 0.3170 l
0.7771 0.3293 l
0.7941 0.3421 l
0.8110 0.3552 l
0.8280 0.3688 l
0.8449 0.3829 l
0.8619 0.3973 l
0.8788 0.4121 l
0.8958 0.4274 l
0.9127 0.4430 l
0.9297 0.4590 l
0.9466 0.4754 l
0.9636 0.4922 l
0.9805 0.5093 l
0.9975 0.5268 l
1.0144 0.5447 l
1.0314 0.5629 l
1.0483 0.5814 l
1.0653 0.6003 l
1.0822 0.6196 l
1.0992 0.6391 l
1.1161 0.6590 l
1.1331 0.6792 l
1.1500 0.6997 l
1.1501 0.6999 l
s
n
0.9297 0.4590 0.0100 0.0100 0 360 EARC c
fill
[] 0 SD
0.0015 SLW
n 0.9297 0.4590 0.0100 0.0100 0 360 EARC s
[/DeviceRGB] SCS
Color2 SC
[0.0187 0.0112 ] 0 SD
0.0037 SLW
n
0.1500 0.3103 m
0.1669 0.2913 l
0.1839 0.2741 l
0.2008 0.2590 l
0.2178 0.2458 l
0.2347 0.2342 l
0.2517 0.2242 l
0.2686 0.2155 l
0.2856 0.2081 l
0.3025 0.2019 l
0.3195 0.1968 l
0.3364 0.1927 l
0.3534 0.1896 l
0.3703 0.1874 l
0.3873 0.1860 l
0.4042 0.1854 l
0.4212 0.1855 l
0.4381 0.1864 l
0.4551 0.1879 l
0.4720 0.1901 l
0.4890 0.1929 l
0.5059 0.1963 l
0.5229 0.2003 l
0.5398 0.2048 l
0.5568 0.2099 l
0.5737 0.2155 l
0.5907 0.2215 l
0.6076 0.2281 l
0.6246 0.2351 l
0.6415 0.2425 l
0.6585 0.2504 l
0.6754 0.2587 l
0.6924 0.2674 l
0.7093 0.2765 l
0.7263 0.2860 l
0.7432 0.2958 l
0.7602 0.3061 l
0.7771 0.3167 l
0.7941 0.3276 l
0.8110 0.3389 l
0.8280 0.3505 l
0.8449 0.3625 l
0.8619 0.3748 l
0.8788 0.3874 l
0.8958 0.4003 l
0.9127 0.4135 l
0.9297 0.4270 l
0.9466 0.4408 l
0.9636 0.4549 l
0.9805 0.4693 l
0.9975 0.4839 l
1.0144 0.4989 l
1.0314 0.5141 l
1.0483 0.5295 l
1.0653 0.5453 l
1.0822 0.5613 l
1.0992 0.5775 l
1.1161 0.5940 l
1.1331 0.6107 l
1.1500 0.6277 l
1.1501 0.6278 l
s
n
0.9212 0.4185 m
0.9212 0.4355 l
0.9382 0.4355 l
0.9382 0.4185 l
c
fill
[] 0 SD
0.0015 SLW
n
0.9212 0.4185 m
0.9212 0.4355 l
0.9382 0.4355 l
0.9382 0.4185 l
0.9212 0.4185 l
c
s
[/DeviceRGB] SCS
Color4 SC
[0.0037 0.0112 ] 0 SD
0.0037 SLW
n
0.1500 0.3116 m
0.1669 0.2933 l
0.1839 0.2765 l
0.2008 0.2615 l
0.2178 0.2481 l
0.2347 0.2363 l
0.2517 0.2260 l
0.2686 0.2170 l
0.2856 0.2093 l
0.3025 0.2028 l
0.3195 0.1974 l
0.3364 0.1931 l
0.3534 0.1898 l
0.3703 0.1875 l
0.3873 0.1861 l
0.4042 0.1855 l
0.4212 0.1858 l
0.4381 0.1870 l
0.4551 0.1889 l
0.4720 0.1916 l
0.4890 0.1950 l
0.5059 0.1991 l
0.5229 0.2039 l
0.5398 0.2094 l
0.5568 0.2155 l
0.5737 0.2223 l
0.5907 0.2296 l
0.6076 0.2376 l
0.6246 0.2461 l
0.6415 0.2552 l
0.6585 0.2649 l
0.6754 0.2750 l
0.6924 0.2858 l
0.7093 0.2970 l
0.7263 0.3087 l
0.7432 0.3210 l
0.7602 0.3337 l
0.7771 0.3469 l
0.7941 0.3606 l
0.8110 0.3747 l
0.8280 0.3893 l
0.8449 0.4043 l
0.8619 0.4198 l
0.8788 0.4357 l
0.8958 0.4520 l
0.9127 0.4687 l
0.9297 0.4858 l
0.9466 0.5033 l
0.9636 0.5213 l
0.9805 0.5396 l
0.9975 0.5583 l
1.0144 0.5774 l
1.0314 0.5968 l
1.0483 0.6166 l
1.0653 0.6368 l
1.0822 0.6574 l
1.0992 0.6783 l
1.1161 0.6995 l
1.1331 0.7211 l
1.1500 0.7430 l
1.1501 0.7432 l
s
n
0.9297 0.4958 m
0.9197 0.4858 l
0.9297 0.4758 l
0.9397 0.4858 l
c
fill
[] 0 SD
0.0015 SLW
n
0.9297 0.4958 m
0.9197 0.4858 l
0.9297 0.4758 l
0.9397 0.4858 l
0.9297 0.4958 l
c
s
[/DeviceRGB] SCS
Color11 SC
[0.0037 0.0112 0.0187 0.0112 ] 0 SD
0.0037 SLW
n
0.1500 0.3121 m
0.1669 0.2941 l
0.1839 0.2776 l
0.2008 0.2627 l
0.2178 0.2494 l
0.2347 0.2377 l
0.2517 0.2273 l
0.2686 0.2183 l
0.2856 0.2106 l
0.3025 0.2040 l
0.3195 0.1985 l
0.3364 0.1941 l
0.3534 0.1906 l
0.3703 0.1881 l
0.3873 0.1865 l
0.4042 0.1858 l
0.4212 0.1858 l
0.4381 0.1867 l
0.4551 0.1883 l
0.4720 0.1907 l
0.4890 0.1938 l
0.5059 0.1975 l
0.5229 0.2019 l
0.5398 0.2069 l
0.5568 0.2126 l
0.5737 0.2188 l
0.5907 0.2256 l
0.6076 0.2330 l
0.6246 0.2410 l
0.6415 0.2495 l
0.6585 0.2585 l
0.6754 0.2680 l
0.6924 0.2780 l
0.7093 0.2885 l
0.7263 0.2994 l
0.7432 0.3108 l
0.7602 0.3227 l
0.7771 0.3350 l
0.7941 0.3478 l
0.8110 0.3610 l
0.8280 0.3746 l
0.8449 0.3886 l
0.8619 0.4030 l
0.8788 0.4178 l
0.8958 0.4330 l
0.9127 0.4485 l
0.9297 0.4645 l
0.9466 0.4808 l
0.9636 0.4974 l
0.9805 0.5145 l
0.9975 0.5318 l
1.0144 0.5495 l
1.0314 0.5676 l
1.0483 0.5860 l
1.0653 0.6047 l
1.0822 0.6237 l
1.0992 0.6431 l
1.1161 0.6628 l
1.1331 0.6827 l
1.1500 0.7030 l
1.1501 0.7032 l
s
n
0.9297 0.4760 m
0.9197 0.4587 l
0.9397 0.4587 l
c
fill
[] 0 SD
0.0015 SLW
n
0.9297 0.4760 m
0.9197 0.4587 l
0.9397 0.4587 l
0.9297 0.4760 l
c
s
[/DeviceRGB] SCS
Color3 SC
[] 0 SD
0.0037 SLW
n
0.1500 0.3146 m
0.1669 0.2970 l
0.1839 0.2803 l
0.2008 0.2651 l
0.2178 0.2514 l
0.2347 0.2391 l
0.2517 0.2283 l
0.2686 0.2189 l
0.2856 0.2108 l
0.3025 0.2040 l
0.3195 0.1983 l
0.3364 0.1938 l
0.3534 0.1904 l
0.3703 0.1881 l
0.3873 0.1868 l
0.4042 0.1865 l
0.4212 0.1872 l
0.4381 0.1888 l
0.4551 0.1914 l
0.4720 0.1948 l
0.4890 0.1991 l
0.5059 0.2042 l
0.5229 0.2102 l
0.5398 0.2170 l
0.5568 0.2245 l
0.5737 0.2329 l
0.5907 0.2420 l
0.6076 0.2519 l
0.6246 0.2625 l
0.6415 0.2738 l
0.6585 0.2859 l
0.6754 0.2986 l
0.6924 0.3121 l
0.7093 0.3262 l
0.7263 0.3410 l
0.7432 0.3565 l
0.7602 0.3727 l
0.7771 0.3895 l
0.7941 0.4069 l
0.8110 0.4250 l
0.8280 0.4437 l
0.8449 0.4631 l
0.8619 0.4831 l
0.8788 0.5036 l
0.8958 0.5248 l
0.9127 0.5466 l
0.9297 0.5690 l
0.9466 0.5920 l
0.9636 0.6156 l
0.9805 0.6397 l
0.9975 0.6645 l
1.0144 0.6898 l
1.0314 0.7157 l
1.0483 0.7421 l
1.0653 0.7691 l
1.0822 0.7967 l
1.0992 0.8248 l
1.1141 0.8501 l
s
n
0.9197 0.5748 m
0.9297 0.5575 l
0.9397 0.5748 l
c
fill
[] 0 SD
0.0015 SLW
n
0.9197 0.5748 m
0.9297 0.5575 l
0.9397 0.5748 l
0.9197 0.5748 l
c
s
[/DeviceRGB] SCS
Color8 SC
[] 0 SD
0.0037 SLW
n
0.1500 0.3138 m
0.1669 0.2963 l
0.1839 0.2796 l
0.2008 0.2643 l
0.2178 0.2505 l
0.2347 0.2380 l
0.2517 0.2270 l
0.2686 0.2173 l
0.2856 0.2090 l
0.3025 0.2018 l
0.3195 0.1959 l
0.3364 0.1911 l
0.3534 0.1875 l
0.3703 0.1849 l
0.3873 0.1834 l
0.4042 0.1829 l
0.4212 0.1834 l
0.4381 0.1848 l
0.4551 0.1872 l
0.4720 0.1905 l
0.4890 0.1946 l
0.5059 0.1996 l
0.5229 0.2054 l
0.5398 0.2121 l
0.5568 0.2195 l
0.5737 0.2278 l
0.5907 0.2368 l
0.6076 0.2465 l
0.6246 0.2570 l
0.6415 0.2681 l
0.6585 0.2800 l
0.6754 0.2925 l
0.6924 0.3058 l
0.7093 0.3197 l
0.7263 0.3342 l
0.7432 0.3493 l
0.7602 0.3651 l
0.7771 0.3815 l
0.7941 0.3985 l
0.8110 0.4161 l
0.8280 0.4342 l
0.8449 0.4530 l
0.8619 0.4723 l
0.8788 0.4921 l
0.8958 0.5125 l
0.9127 0.5334 l
0.9297 0.5548 l
0.9466 0.5768 l
0.9636 0.5993 l
0.9805 0.6222 l
0.9975 0.6457 l
1.0144 0.6697 l
1.0314 0.6941 l
1.0483 0.7190 l
1.0653 0.7444 l
1.0822 0.7702 l
1.0992 0.7965 l
1.1161 0.8233 l
1.1328 0.8501 l
s
n
1.0144 0.6697 0.0100 0.0100 0 360 EARC c
GS
Color0 SRGB
fill
GR
[/Pattern /DeviceRGB] SCS
Color8 Pattern9 SC
fill
[/DeviceRGB] SCS
Color8 SC
[] 0 SD
0.0030 SLW
n 1.0144 0.6697 0.0100 0.0100 0 360 EARC s
[/DeviceRGB] SCS
Color15 SC
[] 0 SD
0.0037 SLW
n
0.1500 0.3146 m
0.1669 0.2971 l
0.1839 0.2801 l
0.2008 0.2644 l
0.2178 0.2500 l
0.2347 0.2370 l
0.2517 0.2255 l
0.2686 0.2154 l
0.2856 0.2067 l
0.3025 0.1993 l
0.3195 0.1934 l
0.3364 0.1887 l
0.3534 0.1853 l
0.3703 0.1832 l
0.3873 0.1823 l
0.4042 0.1826 l
0.4212 0.1840 l
0.4381 0.1867 l
0.4551 0.1904 l
0.4720 0.1952 l
0.4890 0.2011 l
0.5059 0.2081 l
0.5229 0.2161 l
0.5398 0.2250 l
0.5568 0.2350 l
0.5737 0.2460 l
0.5907 0.2579 l
0.6076 0.2707 l
0.6246 0.2844 l
0.6415 0.2991 l
0.6585 0.3146 l
0.6754 0.3310 l
0.6924 0.3482 l
0.7093 0.3663 l
0.7263 0.3852 l
0.7432 0.4049 l
0.7602 0.4253 l
0.7771 0.4466 l
0.7941 0.4686 l
0.8110 0.4914 l
0.8280 0.5149 l
0.8449 0.5392 l
0.8619 0.5642 l
0.8788 0.5899 l
0.8958 0.6163 l
0.9127 0.6433 l
0.9297 0.6711 l
0.9466 0.6995 l
0.9636 0.7286 l
0.9805 0.7583 l
0.9975 0.7886 l
1.0144 0.8196 l
1.0308 0.8501 l
s
n
1.0057 0.8109 m
1.0057 0.8284 l
1.0232 0.8284 l
1.0232 0.8109 l
c
GS
Color0 SRGB
fill
GR
[/Pattern /DeviceRGB] SCS
Color15 Pattern9 SC
fill
[/DeviceRGB] SCS
Color15 SC
[] 0 SD
0.0030 SLW
n
1.0057 0.8109 m
1.0057 0.8284 l
1.0232 0.8284 l
1.0232 0.8109 l
1.0057 0.8109 l
c
s
[/DeviceRGB] SCS
Color2 SC
[] 0 SD
0.0037 SLW
n
0.1500 0.3172 m
0.1669 0.3008 l
0.1839 0.2843 l
0.2008 0.2688 l
0.2178 0.2544 l
0.2347 0.2414 l
0.2517 0.2297 l
0.2686 0.2193 l
0.2856 0.2103 l
0.3025 0.2026 l
0.3195 0.1963 l
0.3364 0.1912 l
0.3534 0.1874 l
0.3703 0.1848 l
0.3873 0.1835 l
0.4042 0.1833 l
0.4212 0.1844 l
0.4381 0.1866 l
0.4551 0.1899 l
0.4720 0.1944 l
0.4890 0.2000 l
0.5059 0.2067 l
0.5229 0.2145 l
0.5398 0.2233 l
0.5568 0.2332 l
0.5737 0.2441 l
0.5907 0.2560 l
0.6076 0.2689 l
0.6246 0.2828 l
0.6415 0.2977 l
0.6585 0.3136 l
0.6754 0.3304 l
0.6924 0.3482 l
0.7093 0.3669 l
0.7263 0.3865 l
0.7432 0.4071 l
0.7602 0.4285 l
0.7771 0.4509 l
0.7941 0.4741 l
0.8110 0.4982 l
0.8280 0.5232 l
0.8449 0.5490 l
0.8619 0.5757 l
0.8788 0.6032 l
0.8958 0.6315 l
0.9127 0.6607 l
0.9297 0.6907 l
0.9466 0.7215 l
0.9636 0.7532 l
0.9805 0.7856 l
0.9975 0.8188 l
1.0131 0.8501 l
s
n
0.9297 0.7007 m
0.9197 0.6907 l
0.9297 0.6807 l
0.9397 0.6907 l
c
GS
Color0 SRGB
fill
GR
[/Pattern /DeviceRGB] SCS
Color2 Pattern9 SC
fill
[/DeviceRGB] SCS
Color2 SC
[] 0 SD
0.0030 SLW
n
0.9297 0.7007 m
0.9197 0.6907 l
0.9297 0.6807 l
0.9397 0.6907 l
0.9297 0.7007 l
c
s
[/DeviceRGB] SCS
Color15 SC
[0.0037 0.0112 0.0187 0.0112 0.0037 0.0112 ] 0 SD
0.0037 SLW
n
0.1500 0.3174 m
0.1669 0.3024 l
0.1839 0.2877 l
0.2008 0.2739 l
0.2178 0.2613 l
0.2347 0.2498 l
0.2517 0.2394 l
0.2686 0.2302 l
0.2856 0.2221 l
0.3025 0.2151 l
0.3195 0.2091 l
0.3364 0.2042 l
0.3534 0.2002 l
0.3703 0.1972 l
0.3873 0.1951 l
0.4042 0.1939 l
0.4212 0.1936 l
0.4381 0.1941 l
0.4551 0.1954 l
0.4720 0.1976 l
0.4890 0.2006 l
0.5059 0.2043 l
0.5229 0.2088 l
0.5398 0.2141 l
0.5568 0.2200 l
0.5737 0.2267 l
0.5907 0.2340 l
0.6076 0.2421 l
0.6246 0.2508 l
0.6415 0.2601 l
0.6585 0.2701 l
0.6754 0.2807 l
0.6924 0.2920 l
0.7093 0.3039 l
0.7263 0.3163 l
0.7432 0.3294 l
0.7602 0.3430 l
0.7771 0.3572 l
0.7941 0.3719 l
0.8110 0.3873 l
0.8280 0.4031 l
0.8449 0.4195 l
0.8619 0.4364 l
0.8788 0.4539 l
0.8958 0.4719 l
0.9127 0.4904 l
0.9297 0.5094 l
0.9466 0.5288 l
0.9636 0.5488 l
0.9805 0.5693 l
0.9975 0.5903 l
1.0144 0.6117 l
1.0314 0.6336 l
1.0483 0.6559 l
1.0653 0.6788 l
1.0822 0.7020 l
1.0992 0.7258 l
1.1161 0.7500 l
1.1331 0.7746 l
1.1500 0.7996 l
1.1501 0.7998 l
s
n
1.0144 0.6232 m
1.0044 0.6059 l
1.0244 0.6059 l
c
GS
Color0 SRGB
fill
GR
[/Pattern /DeviceRGB] SCS
Color15 Pattern9 SC
fill
[/DeviceRGB] SCS
Color15 SC
[] 0 SD
0.0030 SLW
n
1.0144 0.6232 m
1.0044 0.6059 l
1.0244 0.6059 l
1.0144 0.6232 l
c
s
[/DeviceRGB] SCS
Color3 SC
[0.0037 0.0112 ] 0 SD
0.0037 SLW
n
0.1500 0.3121 m
0.1669 0.2939 l
0.1839 0.2772 l
0.2008 0.2620 l
0.2178 0.2485 l
0.2347 0.2366 l
0.2517 0.2260 l
0.2686 0.2168 l
0.2856 0.2089 l
0.3025 0.2021 l
0.3195 0.1964 l
0.3364 0.1917 l
0.3534 0.1881 l
0.3703 0.1854 l
0.3873 0.1836 l
0.4042 0.1826 l
0.4212 0.1825 l
0.4381 0.1832 l
0.4551 0.1846 l
0.4720 0.1868 l
0.4890 0.1897 l
0.5059 0.1933 l
0.5229 0.1975 l
0.5398 0.2024 l
0.5568 0.2079 l
0.5737 0.2140 l
0.5907 0.2207 l
0.6076 0.2280 l
0.6246 0.2358 l
0.6415 0.2442 l
0.6585 0.2531 l
0.6754 0.2625 l
0.6924 0.2725 l
0.7093 0.2829 l
0.7263 0.2938 l
0.7432 0.3052 l
0.7602 0.3170 l
0.7771 0.3293 l
0.7941 0.3421 l
0.8110 0.3552 l
0.8280 0.3688 l
0.8449 0.3829 l
0.8619 0.3973 l
0.8788 0.4121 l
0.8958 0.4274 l
0.9127 0.4430 l
0.9297 0.4590 l
0.9466 0.4754 l
0.9636 0.4922 l
0.9805 0.5093 l
0.9975 0.5268 l
1.0144 0.5447 l
1.0314 0.5629 l
1.0483 0.5814 l
1.0653 0.6003 l
1.0822 0.6196 l
1.0992 0.6391 l
1.1161 0.6590 l
1.1331 0.6792 l
1.1500 0.6997 l
1.1501 0.6999 l
s
n
1.0044 0.5505 m
1.0144 0.5331 l
1.0244 0.5505 l
c
GS
Color0 SRGB
fill
GR
[/Pattern /DeviceRGB] SCS
Color3 Pattern9 SC
fill
[/DeviceRGB] SCS
Color3 SC
[] 0 SD
0.0030 SLW
n
1.0044 0.5505 m
1.0144 0.5331 l
1.0244 0.5505 l
1.0044 0.5505 l
c
s
[/DeviceRGB] SCS
Color1 SC
[] 0 SD
0.0045 SLW
n
0.1500 0.1500 m
1.1500 0.1500 l
s
n
0.1500 0.8500 m
1.1500 0.8500 l
s
n
0.2178 0.1500 m
0.2178 0.1600 l
s
n
0.2178 0.8500 m
0.2178 0.8400 l
s
n
0.3873 0.1500 m
0.3873 0.1600 l
s
n
0.3873 0.8500 m
0.3873 0.8400 l
s
n
0.5568 0.1500 m
0.5568 0.1600 l
s
n
0.5568 0.8500 m
0.5568 0.8400 l
s
n
0.7263 0.1500 m
0.7263 0.1600 l
s
n
0.7263 0.8500 m
0.7263 0.8400 l
s
n
0.8958 0.1500 m
0.8958 0.1600 l
s
n
0.8958 0.8500 m
0.8958 0.8400 l
s
n
1.0653 0.1500 m
1.0653 0.1600 l
s
n
1.0653 0.8500 m
1.0653 0.8400 l
s
n
0.3025 0.1500 m
0.3025 0.1700 l
s
n
0.3025 0.8500 m
0.3025 0.8300 l
s
n
0.4720 0.1500 m
0.4720 0.1700 l
s
n
0.4720 0.8500 m
0.4720 0.8300 l
s
n
0.6415 0.1500 m
0.6415 0.1700 l
s
n
0.6415 0.8500 m
0.6415 0.8300 l
s
n
0.8110 0.1500 m
0.8110 0.1700 l
s
n
0.8110 0.8500 m
0.8110 0.8300 l
s
n
0.9805 0.1500 m
0.9805 0.1700 l
s
n
0.9805 0.8500 m
0.9805 0.8300 l
s
/Times-Roman findfont
dup length dict begin
 {1 index /FID ne {def} {pop pop} ifelse} forall
 /Encoding DefEncoding def
 currentdict
end
/Font0 exch definefont pop
/Font0 FFSF
0.2769 0.1094 m
GS
[0.0448 0.0000 0.0000 0.0448 0 0] CC
(0.1) show
GR
/Font0 FFSF
0.4446 0.1094 m
GS
[0.0448 0.0000 0.0000 0.0448 0 0] CC
(0.2) show
GR
/Font0 FFSF
0.6149 0.1094 m
GS
[0.0448 0.0000 0.0000 0.0448 0 0] CC
(0.3) show
GR
/Font0 FFSF
0.7836 0.1094 m
GS
[0.0448 0.0000 0.0000 0.0448 0 0] CC
(0.4) show
GR
/Font0 FFSF
0.9538 0.1090 m
GS
[0.0448 0.0000 0.0000 0.0448 0 0] CC
(0.5) show
GR
/Symbol findfont
/Font12 exch definefont pop
/Font12 FFSF
0.5722 0.0441 m
GS
[0.0504 0.0000 0.0000 0.0504 0 0] CC
(r) show
GR
/Font0 FFSF
0.6000 0.0441 m
GS
[0.0504 0.0000 0.0000 0.0504 0 0] CC
( [fm) show
GR
/Font0 FFSF
0.6855 0.0743 m
GS
[0.0356 0.0000 0.0000 0.0356 0 0] CC
(-3) show
GR
/Font0 FFSF
0.7153 0.0441 m
GS
[0.0504 0.0000 0.0000 0.0504 0 0] CC
(]) show
GR
n
0.1500 0.1500 m
0.1500 0.8500 l
s
n
1.1500 0.1500 m
1.1500 0.8500 l
s
n
0.1500 0.2375 m
0.1600 0.2375 l
s
n
1.1500 0.2375 m
1.1400 0.2375 l
s
n
0.1500 0.4125 m
0.1600 0.4125 l
s
n
1.1500 0.4125 m
1.1400 0.4125 l
s
n
0.1500 0.5875 m
0.1600 0.5875 l
s
n
1.1500 0.5875 m
1.1400 0.5875 l
s
n
0.1500 0.7625 m
0.1600 0.7625 l
s
n
1.1500 0.7625 m
1.1400 0.7625 l
s
n
0.1500 0.1500 m
0.1700 0.1500 l
s
n
1.1500 0.1500 m
1.1300 0.1500 l
s
n
0.1500 0.3250 m
0.1700 0.3250 l
s
n
1.1500 0.3250 m
1.1300 0.3250 l
s
n
0.1500 0.5000 m
0.1700 0.5000 l
s
n
1.1500 0.5000 m
1.1300 0.5000 l
s
n
0.1500 0.6750 m
0.1700 0.6750 l
s
n
1.1500 0.6750 m
1.1300 0.6750 l
s
n
0.1500 0.8500 m
0.1700 0.8500 l
s
n
1.1500 0.8500 m
1.1300 0.8500 l
s
/Font0 FFSF
0.0816 0.1351 m
GS
[0.0448 0.0000 0.0000 0.0448 0 0] CC
(-20) show
GR
/Font0 FFSF
0.1188 0.3101 m
GS
[0.0448 0.0000 0.0000 0.0448 0 0] CC
(0) show
GR
/Font0 FFSF
0.0965 0.4851 m
GS
[0.0448 0.0000 0.0000 0.0448 0 0] CC
(20) show
GR
/Font0 FFSF
0.0965 0.6601 m
GS
[0.0448 0.0000 0.0000 0.0448 0 0] CC
(40) show
GR
/Font0 FFSF
0.0965 0.8351 m
GS
[0.0448 0.0000 0.0000 0.0448 0 0] CC
(60) show
GR
/Font0 FFSF
0.0637 0.3867 m
GS
[0.0000 0.0504 -0.0504 0.0000 0 0] CC
(E/A [MeV]) show
GR
[] 0 SD
0.0015 SLW
n
0.1500 0.1500 m
0.1500 0.8500 l
1.1500 0.8500 l
1.1500 0.1500 l
0.1500 0.1500 l
c
s
n
0.1500 0.8500 m
0.1500 0.3539 l
0.3994 0.3539 l
0.3994 0.8500 l
c
[/DeviceRGB] SCS
Color0 SC
fill
[/DeviceRGB] SCS
Color1 SC
[] 0 SD
0.0045 SLW
n
0.1500 0.8500 m
0.1500 0.3539 l
0.3994 0.3539 l
0.3994 0.8500 l
0.1500 0.8500 l
c
s
/Font0 FFSF
0.2518 0.8071 m
GS
[0.0498 0.0000 0.0000 0.0498 0 0] CC
(BHF) show
GR
n
0.1930 0.8150 m
0.1930 0.8320 l
0.2100 0.8320 l
0.2100 0.8150 l
c
GS
Color0 SRGB
fill
GR
[/Pattern /DeviceRGB] SCS
Color1 Pattern8 SC
fill
[/DeviceRGB] SCS
Color1 SC
[] 0 SD
0.0030 SLW
n
0.1930 0.8150 m
0.1930 0.8320 l
0.2100 0.8320 l
0.2100 0.8150 l
0.1930 0.8150 l
c
s
/Font0 FFSF
0.2518 0.7633 m
GS
[0.0498 0.0000 0.0000 0.0498 0 0] CC
(D1) show
GR
[0.0037 0.0112 0.0187 0.0112 0.0037 0.0112 ] 0 SD
0.0037 SLW
n
0.1715 0.7802 m
0.2315 0.7802 l
s
n
0.1715 0.7802 0.0100 0.0100 0 360 EARC c
fill
[] 0 SD
0.0015 SLW
n 0.1715 0.7802 0.0100 0.0100 0 360 EARC s
n
0.2315 0.7802 0.0100 0.0100 0 360 EARC c
fill
n 0.2315 0.7802 0.0100 0.0100 0 360 EARC s
/Font0 FFSF
0.2518 0.7196 m
GS
[0.0498 0.0000 0.0000 0.0498 0 0] CC
(D1S) show
GR
[/DeviceRGB] SCS
Color2 SC
[0.0187 0.0112 ] 0 SD
0.0037 SLW
n
0.1715 0.7361 m
0.2315 0.7361 l
s
n
0.1630 0.7276 m
0.1630 0.7446 l
0.1800 0.7446 l
0.1800 0.7276 l
c
fill
[] 0 SD
0.0015 SLW
n
0.1630 0.7276 m
0.1630 0.7446 l
0.1800 0.7446 l
0.1800 0.7276 l
0.1630 0.7276 l
c
s
n
0.2230 0.7276 m
0.2230 0.7446 l
0.2400 0.7446 l
0.2400 0.7276 l
c
fill
n
0.2230 0.7276 m
0.2230 0.7446 l
0.2400 0.7446 l
0.2400 0.7276 l
0.2230 0.7276 l
c
s
/Font0 FFSF
[/DeviceRGB] SCS
Color1 SC
0.2518 0.6751 m
GS
[0.0498 0.0000 0.0000 0.0498 0 0] CC
(D1N) show
GR
[/DeviceRGB] SCS
Color4 SC
[0.0037 0.0112 ] 0 SD
0.0037 SLW
n
0.1715 0.6918 m
0.2315 0.6918 l
s
n
0.1715 0.7018 m
0.1615 0.6918 l
0.1715 0.6818 l
0.1815 0.6918 l
c
fill
[] 0 SD
0.0015 SLW
n
0.1715 0.7018 m
0.1615 0.6918 l
0.1715 0.6818 l
0.1815 0.6918 l
0.1715 0.7018 l
c
s
n
0.2315 0.7018 m
0.2215 0.6918 l
0.2315 0.6818 l
0.2415 0.6918 l
c
fill
n
0.2315 0.7018 m
0.2215 0.6918 l
0.2315 0.6818 l
0.2415 0.6918 l
0.2315 0.7018 l
c
s
/Font0 FFSF
[/DeviceRGB] SCS
Color1 SC
0.2518 0.6310 m
GS
[0.0498 0.0000 0.0000 0.0498 0 0] CC
(D1M) show
GR
[/DeviceRGB] SCS
Color11 SC
[0.0037 0.0112 0.0187 0.0112 ] 0 SD
0.0037 SLW
n
0.1715 0.6478 m
0.2315 0.6478 l
s
n
0.1715 0.6594 m
0.1615 0.6421 l
0.1815 0.6421 l
c
fill
[] 0 SD
0.0015 SLW
n
0.1715 0.6594 m
0.1615 0.6421 l
0.1815 0.6421 l
0.1715 0.6594 l
c
s
n
0.2315 0.6594 m
0.2215 0.6421 l
0.2415 0.6421 l
c
fill
n
0.2315 0.6594 m
0.2215 0.6421 l
0.2415 0.6421 l
0.2315 0.6594 l
c
s
/Font0 FFSF
[/DeviceRGB] SCS
Color1 SC
0.2518 0.5869 m
GS
[0.0498 0.0000 0.0000 0.0498 0 0] CC
(D250) show
GR
[/DeviceRGB] SCS
Color3 SC
[] 0 SD
0.0037 SLW
n
0.1715 0.6035 m
0.2315 0.6035 l
s
n
0.1615 0.6093 m
0.1715 0.5920 l
0.1815 0.6093 l
c
fill
[] 0 SD
0.0015 SLW
n
0.1615 0.6093 m
0.1715 0.5920 l
0.1815 0.6093 l
0.1615 0.6093 l
c
s
n
0.2215 0.6093 m
0.2315 0.5920 l
0.2415 0.6093 l
c
fill
n
0.2215 0.6093 m
0.2315 0.5920 l
0.2415 0.6093 l
0.2215 0.6093 l
c
s
/Font0 FFSF
[/DeviceRGB] SCS
Color1 SC
0.2518 0.5420 m
GS
[0.0498 0.0000 0.0000 0.0498 0 0] CC
(D260) show
GR
[/DeviceRGB] SCS
Color8 SC
[] 0 SD
0.0037 SLW
n
0.1715 0.5586 m
0.2315 0.5586 l
s
n
0.1715 0.5586 0.0100 0.0100 0 360 EARC c
GS
Color0 SRGB
fill
GR
[/Pattern /DeviceRGB] SCS
Color8 Pattern9 SC
fill
[/DeviceRGB] SCS
Color8 SC
[] 0 SD
0.0030 SLW
n 0.1715 0.5586 0.0100 0.0100 0 360 EARC s
n
0.2315 0.5586 0.0100 0.0100 0 360 EARC c
GS
Color0 SRGB
fill
GR
[/Pattern /DeviceRGB] SCS
Color8 Pattern9 SC
fill
[/DeviceRGB] SCS
Color8 SC
n 0.2315 0.5586 0.0100 0.0100 0 360 EARC s
/Font0 FFSF
[/DeviceRGB] SCS
Color1 SC
0.2518 0.4975 m
GS
[0.0498 0.0000 0.0000 0.0498 0 0] CC
(D280) show
GR
[/DeviceRGB] SCS
Color15 SC
[] 0 SD
0.0037 SLW
n
0.1715 0.5139 m
0.2315 0.5139 l
s
n
0.1627 0.5052 m
0.1627 0.5227 l
0.1803 0.5227 l
0.1803 0.5052 l
c
GS
Color0 SRGB
fill
GR
[/Pattern /DeviceRGB] SCS
Color15 Pattern9 SC
fill
[/DeviceRGB] SCS
Color15 SC
[] 0 SD
0.0030 SLW
n
0.1627 0.5052 m
0.1627 0.5227 l
0.1803 0.5227 l
0.1803 0.5052 l
0.1627 0.5052 l
c
s
n
0.2227 0.5052 m
0.2227 0.5227 l
0.2403 0.5227 l
0.2403 0.5052 l
c
GS
Color0 SRGB
fill
GR
[/Pattern /DeviceRGB] SCS
Color15 Pattern9 SC
fill
[/DeviceRGB] SCS
Color15 SC
n
0.2227 0.5052 m
0.2227 0.5227 l
0.2403 0.5227 l
0.2403 0.5052 l
0.2227 0.5052 l
c
s
/Font0 FFSF
[/DeviceRGB] SCS
Color1 SC
0.2518 0.4529 m
GS
[0.0498 0.0000 0.0000 0.0498 0 0] CC
(D300) show
GR
[/DeviceRGB] SCS
Color2 SC
[] 0 SD
0.0037 SLW
n
0.1715 0.4694 m
0.2315 0.4694 l
s
n
0.1715 0.4794 m
0.1615 0.4694 l
0.1715 0.4594 l
0.1815 0.4694 l
c
GS
Color0 SRGB
fill
GR
[/Pattern /DeviceRGB] SCS
Color2 Pattern9 SC
fill
[/DeviceRGB] SCS
Color2 SC
[] 0 SD
0.0030 SLW
n
0.1715 0.4794 m
0.1615 0.4694 l
0.1715 0.4594 l
0.1815 0.4694 l
0.1715 0.4794 l
c
s
n
0.2315 0.4794 m
0.2215 0.4694 l
0.2315 0.4594 l
0.2415 0.4694 l
c
GS
Color0 SRGB
fill
GR
[/Pattern /DeviceRGB] SCS
Color2 Pattern9 SC
fill
[/DeviceRGB] SCS
Color2 SC
n
0.2315 0.4794 m
0.2215 0.4694 l
0.2315 0.4594 l
0.2415 0.4694 l
0.2315 0.4794 l
c
s
/Font0 FFSF
[/DeviceRGB] SCS
Color1 SC
0.2518 0.4084 m
GS
[0.0498 0.0000 0.0000 0.0498 0 0] CC
(D1P) show
GR
[/DeviceRGB] SCS
Color15 SC
[0.0037 0.0112 0.0187 0.0112 0.0037 0.0112 ] 0 SD
0.0037 SLW
n
0.1715 0.4253 m
0.2315 0.4253 l
s
n
0.1715 0.4368 m
0.1615 0.4195 l
0.1815 0.4195 l
c
GS
Color0 SRGB
fill
GR
[/Pattern /DeviceRGB] SCS
Color15 Pattern9 SC
fill
[/DeviceRGB] SCS
Color15 SC
[] 0 SD
0.0030 SLW
n
0.1715 0.4368 m
0.1615 0.4195 l
0.1815 0.4195 l
0.1715 0.4368 l
c
s
n
0.2315 0.4368 m
0.2215 0.4195 l
0.2415 0.4195 l
c
GS
Color0 SRGB
fill
GR
[/Pattern /DeviceRGB] SCS
Color15 Pattern9 SC
fill
[/DeviceRGB] SCS
Color15 SC
n
0.2315 0.4368 m
0.2215 0.4195 l
0.2415 0.4195 l
0.2315 0.4368 l
c
s
/Font0 FFSF
[/DeviceRGB] SCS
Color1 SC
0.2518 0.3647 m
GS
[0.0498 0.0000 0.0000 0.0498 0 0] CC
(D1-AS) show
GR
[/DeviceRGB] SCS
Color3 SC
[0.0037 0.0112 ] 0 SD
0.0037 SLW
n
0.1715 0.3812 m
0.2315 0.3812 l
s
n
0.1615 0.3869 m
0.1715 0.3696 l
0.1815 0.3869 l
c
GS
Color0 SRGB
fill
GR
[/Pattern /DeviceRGB] SCS
Color3 Pattern9 SC
fill
[/DeviceRGB] SCS
Color3 SC
[] 0 SD
0.0030 SLW
n
0.1615 0.3869 m
0.1715 0.3696 l
0.1815 0.3869 l
0.1615 0.3869 l
c
s
n
0.2215 0.3869 m
0.2315 0.3696 l
0.2415 0.3869 l
c
GS
Color0 SRGB
fill
GR
[/Pattern /DeviceRGB] SCS
Color3 Pattern9 SC
fill
[/DeviceRGB] SCS
Color3 SC
n
0.2215 0.3869 m
0.2315 0.3696 l
0.2415 0.3869 l
0.2215 0.3869 l
c
s
[/DeviceRGB] SCS
Color1 SC
[] 0 SD
0.0015 SLW
n
0.3752 0.8497 m
0.3725 0.8458 l
s
showpage
%%PageTrailer
%%Trailer
%%DocumentNeededResources: font Times-Roman
%%+ font Symbol
%%EOF
