%!PS-Adobe-3.0
%%BoundingBox: 0 0 612 792
%%LanguageLevel: 2
%%Creator: Grace-5.1.25
%%CreationDate: Tue Nov  1 08:57:56 2016
%%DocumentData: Clean8Bit
%%Orientation: Landscape
%%Pages: 1
%%PageOrder: Ascend
%%Title: meff.agr
%%For: ap1450
%%DocumentNeededResources: (atend)
%%EndComments
%%BeginProlog
/PAGE_OFFSET_X 0 def
/PAGE_OFFSET_Y 0 def
/m {moveto} def
/l {lineto} def
/s {stroke} def
/n {newpath} def
/c {closepath} def
/RL {rlineto} def
/SLW {setlinewidth} def
/GS {gsave} def
/GR {grestore} def
/SC {setcolor} def
/SGRY {setgray} def
/SRGB {setrgbcolor} def
/SD {setdash} def
/SLC {setlinecap} def
/SLJ {setlinejoin} def
/SCS {setcolorspace} def
/FFSF {findfont setfont} def
/CC {concat} def
/PXL {n m 0 0 RL s} def
/Color0 {1.0000 1.0000 1.0000} def
/Color1 {0.0000 0.0000 0.0000} def
/Color2 {1.0000 0.0000 0.0000} def
/Color3 {0.0000 1.0000 0.0000} def
/Color4 {0.0000 0.0000 1.0000} def
/Color5 {1.0000 1.0000 0.0000} def
/Color6 {0.7373 0.5608 0.5608} def
/Color7 {0.8627 0.8627 0.8627} def
/Color8 {0.5804 0.0000 0.8275} def
/Color9 {0.0000 1.0000 1.0000} def
/Color10 {1.0000 0.0000 1.0000} def
/Color11 {1.0000 0.6471 0.0000} def
/Color12 {0.4471 0.1294 0.7373} def
/Color13 {0.4039 0.0275 0.2824} def
/Color14 {0.2510 0.8784 0.8157} def
/Color15 {0.0000 0.5451 0.0000} def
/Color16 {0.7529 0.7529 0.7529} def
/Color17 {0.5059 0.5059 0.5059} def
/Color18 {0.2588 0.2588 0.2588} def
/PTRN {
 /pat_bits exch def 
 <<
  /PaintType 2
  /PatternType 1 /TilingType 1
  /BBox[0 0 16 16]
  /XStep 16 /YStep 16
  /PaintProc {
   pop
   16 16 true [-1 0 0 -1 16 16] pat_bits imagemask
  }
 >>
 [0.0016 0 0 0.0016 0 0]
 makepattern
} def
/Pattern0 {<0000000000000000000000000000000000000000000000000000000000000000> PTRN} bind def
/Pattern1 {<ffffffffffffffffffffffffffffffffffffffffffffffffffffffffffffffff> PTRN} bind def
/Pattern2 {<eeeeffffbbbbffffeeeeffffbbbbffffeeeeffffbbbbffffeeeeffffbbbbffff> PTRN} bind def
/Pattern3 {<eeeebbbbeeeebbbbeeeebbbbeeeebbbbeeeebbbbeeeebbbbeeeebbbbeeeebbbb> PTRN} bind def
/Pattern4 {<5555aaaa5555aaaa5555aaaa5555aaaa5555aaaa5555aaaa5555aaaa5555aaaa> PTRN} bind def
/Pattern5 {<1111444411114444111144441111444411114444111144441111444411114444> PTRN} bind def
/Pattern6 {<1111000044440000111100004444000011110000444400001111000044440000> PTRN} bind def
/Pattern7 {<1010000000000000010100000000000010100000000000000101000000000000> PTRN} bind def
/Pattern8 {<0000000000000000000000000000000000000000000000000000000000000000> PTRN} bind def
/Pattern9 {<1e1e0f0f8787c3c3e1e1f0f078783c3c1e1e0f0f8787c3c3e1e1f0f078783c3c> PTRN} bind def
/Pattern10 {<7878f0f0e1e1c3c387870f0f1e1e3c3c7878f0f0e1e1c3c387870f0f1e1e3c3c> PTRN} bind def
/Pattern11 {<3333333333333333333333333333333333333333333333333333333333333333> PTRN} bind def
/Pattern12 {<ffffffff00000000ffffffff00000000ffffffff00000000ffffffff00000000> PTRN} bind def
/Pattern13 {<8181424224241818181824244242818181814242242418181818242442428181> PTRN} bind def
/Pattern14 {<8080404020201010080804040202010180804040202010100808040402020101> PTRN} bind def
/Pattern15 {<0101020204040808101020204040808001010202040408081010202040408080> PTRN} bind def
/Pattern16 {<2222222222222222222222222222222222222222222222222222222222222222> PTRN} bind def
/Pattern17 {<0000ffff000000000000ffff000000000000ffff000000000000ffff00000000> PTRN} bind def
/Pattern18 {<2222ffff222222222222ffff222222222222ffff222222222222ffff22222222> PTRN} bind def
/Pattern19 {<ffffffff33333333ffffffff33333333ffffffff33333333ffffffff33333333> PTRN} bind def
/Pattern20 {<0f0f0f0f0f0f0f0ff0f0f0f0f0f0f0f00f0f0f0f0f0f0f0ff0f0f0f0f0f0f0f0> PTRN} bind def
/Pattern21 {<ff00ff00ff00ff00ff00ff00ff00ff0000ff00ff00ff00ff00ff00ff00ff00ff> PTRN} bind def
/Pattern22 {<8001800180018001800180018001ffffffff8001800180018001800180018001> PTRN} bind def
/Pattern23 {<c003c003c003c003c003c003ffffffffffffffffc003c003c003c003c003c003> PTRN} bind def
/Pattern24 {<040404040404ffff404040404040ffff040404040404ffff404040404040ffff> PTRN} bind def
/Pattern25 {<180018001800180018001800ffffffff001800180018001800180018ffffffff> PTRN} bind def
/Pattern26 {<1111b8b87c7c3a3a1111a3a3c7c78b8b1111b8b87c7c3a3a1111a3a3c7c78b8b> PTRN} bind def
/Pattern27 {<101010102828c7c70101010182827c7c101010102828c7c70101010182827c7c> PTRN} bind def
/Pattern28 {<1c1c121211112121c1c12121111112121c1c121211112121c1c1212111111212> PTRN} bind def
/Pattern29 {<3e3e414180808080e3e31414080808083e3e414180808080e3e3141408080808> PTRN} bind def
/Pattern30 {<4848888884848383848488884848383848488888848483838484888848483838> PTRN} bind def
/Pattern31 {<03030404080808080c0c12122121c0c003030404080808080c0c12122121c0c0> PTRN} bind def
/ellipsedict 8 dict def
ellipsedict /mtrx matrix put
/EARC {
 ellipsedict begin
  /endangle exch def
  /startangle exch def
  /yrad exch def
  /xrad exch def
  /y exch def
  /x exch def
  /savematrix mtrx currentmatrix def
  x y translate
  xrad yrad scale
  0 0 1 startangle endangle arc
  savematrix setmatrix
 end
} def
/TL {
  /kcomp exch def
  /linewidth exch def
  /offset exch def
  GS
  0 offset rmoveto
  linewidth SLW
  dup stringwidth exch kcomp add exch RL s
  GR
} def
/KINIT
{
 /kvector exch def
 /kid 0 def
} def
/KPROC
{
 pop pop
 kvector kid get
 0 rmoveto
 /kid 1 kid add def
} def
/DefEncoding [
 /.notdef
 /.notdef
 /.notdef
 /.notdef
 /.notdef
 /.notdef
 /.notdef
 /.notdef
 /.notdef
 /.notdef
 /.notdef
 /.notdef
 /.notdef
 /.notdef
 /.notdef
 /.notdef
 /.notdef
 /.notdef
 /.notdef
 /.notdef
 /.notdef
 /.notdef
 /.notdef
 /.notdef
 /.notdef
 /.notdef
 /.notdef
 /.notdef
 /.notdef
 /.notdef
 /.notdef
 /.notdef
 /space
 /exclam
 /quotedbl
 /numbersign
 /dollar
 /percent
 /ampersand
 /quoteright
 /parenleft
 /parenright
 /asterisk
 /plus
 /comma
 /hyphen
 /period
 /slash
 /zero
 /one
 /two
 /three
 /four
 /five
 /six
 /seven
 /eight
 /nine
 /colon
 /semicolon
 /less
 /equal
 /greater
 /question
 /at
 /A
 /B
 /C
 /D
 /E
 /F
 /G
 /H
 /I
 /J
 /K
 /L
 /M
 /N
 /O
 /P
 /Q
 /R
 /S
 /T
 /U
 /V
 /W
 /X
 /Y
 /Z
 /bracketleft
 /backslash
 /bracketright
 /asciicircum
 /underscore
 /grave
 /a
 /b
 /c
 /d
 /e
 /f
 /g
 /h
 /i
 /j
 /k
 /l
 /m
 /n
 /o
 /p
 /q
 /r
 /s
 /t
 /u
 /v
 /w
 /x
 /y
 /z
 /braceleft
 /bar
 /braceright
 /asciitilde
 /.notdef
 /.notdef
 /.notdef
 /.notdef
 /.notdef
 /.notdef
 /.notdef
 /.notdef
 /.notdef
 /.notdef
 /.notdef
 /.notdef
 /.notdef
 /.notdef
 /.notdef
 /.notdef
 /.notdef
 /.notdef
 /.notdef
 /.notdef
 /.notdef
 /.notdef
 /.notdef
 /.notdef
 /.notdef
 /.notdef
 /.notdef
 /.notdef
 /.notdef
 /.notdef
 /.notdef
 /.notdef
 /.notdef
 /space
 /exclamdown
 /cent
 /sterling
 /currency
 /yen
 /brokenbar
 /section
 /dieresis
 /copyright
 /ordfeminine
 /guillemotleft
 /logicalnot
 /hyphen
 /registered
 /macron
 /degree
 /plusminus
 /twosuperior
 /threesuperior
 /acute
 /mu
 /paragraph
 /periodcentered
 /cedilla
 /onesuperior
 /ordmasculine
 /guillemotright
 /onequarter
 /onehalf
 /threequarters
 /questiondown
 /Agrave
 /Aacute
 /Acircumflex
 /Atilde
 /Adieresis
 /Aring
 /AE
 /Ccedilla
 /Egrave
 /Eacute
 /Ecircumflex
 /Edieresis
 /Igrave
 /Iacute
 /Icircumflex
 /Idieresis
 /Eth
 /Ntilde
 /Ograve
 /Oacute
 /Ocircumflex
 /Otilde
 /Odieresis
 /multiply
 /Oslash
 /Ugrave
 /Uacute
 /Ucircumflex
 /Udieresis
 /Yacute
 /Thorn
 /germandbls
 /agrave
 /aacute
 /acircumflex
 /atilde
 /adieresis
 /aring
 /ae
 /ccedilla
 /egrave
 /eacute
 /ecircumflex
 /edieresis
 /igrave
 /iacute
 /icircumflex
 /idieresis
 /eth
 /ntilde
 /ograve
 /oacute
 /ocircumflex
 /otilde
 /odieresis
 /divide
 /oslash
 /ugrave
 /uacute
 /ucircumflex
 /udieresis
 /yacute
 /thorn
 /ydieresis
] def
%%EndProlog
%%BeginSetup
%%EndSetup
%%Page: 1 1
PAGE_OFFSET_X PAGE_OFFSET_Y translate
612.00 612.00 scale
90 rotate
0.0 -1.0 translate
n
0.0000 0.0000 m
0.0000 1.0000 l
1.2941 1.0000 l
1.2941 0.0000 l
c
[/DeviceRGB] SCS
Color0 SC
fill
[/DeviceRGB] SCS
Color1 SC
[] 0 SD
0.0045 SLW
0 SLC
0 SLJ
n
0.1520 0.6701 m
0.1540 0.6700 l
0.1560 0.6700 l
0.1580 0.6700 l
0.1600 0.6700 l
0.1620 0.6700 l
0.1640 0.6700 l
0.1660 0.6700 l
0.1680 0.6699 l
0.1700 0.6699 l
0.1720 0.6699 l
0.1740 0.6698 l
0.1760 0.6698 l
0.1780 0.6697 l
0.1800 0.6697 l
0.1820 0.6697 l
0.1840 0.6696 l
0.1860 0.6695 l
0.1880 0.6695 l
0.1900 0.6694 l
0.1920 0.6694 l
0.1940 0.6693 l
0.1960 0.6692 l
0.1980 0.6692 l
0.2000 0.6691 l
0.2020 0.6690 l
0.2040 0.6689 l
0.2060 0.6688 l
0.2080 0.6688 l
0.2100 0.6687 l
0.2120 0.6686 l
0.2140 0.6685 l
0.2160 0.6684 l
0.2180 0.6683 l
0.2200 0.6682 l
0.2220 0.6681 l
0.2240 0.6680 l
0.2260 0.6679 l
0.2280 0.6678 l
0.2300 0.6677 l
0.2320 0.6675 l
0.2340 0.6674 l
0.2360 0.6673 l
0.2380 0.6672 l
0.2400 0.6671 l
0.2420 0.6669 l
0.2440 0.6668 l
0.2460 0.6667 l
0.2480 0.6665 l
0.2500 0.6664 l
0.2520 0.6663 l
0.2540 0.6661 l
0.2560 0.6660 l
0.2580 0.6659 l
0.2600 0.6657 l
0.2620 0.6656 l
0.2640 0.6654 l
0.2660 0.6653 l
0.2680 0.6651 l
0.2700 0.6650 l
0.2720 0.6648 l
0.2740 0.6647 l
0.2760 0.6645 l
0.2780 0.6644 l
0.2800 0.6642 l
0.2820 0.6641 l
0.2840 0.6639 l
0.2860 0.6638 l
0.2880 0.6636 l
0.2900 0.6634 l
0.2920 0.6633 l
0.2940 0.6631 l
0.2960 0.6630 l
0.2980 0.6628 l
0.3000 0.6626 l
0.3020 0.6625 l
0.3040 0.6623 l
0.3060 0.6621 l
0.3080 0.6620 l
0.3100 0.6618 l
0.3120 0.6616 l
0.3140 0.6615 l
0.3160 0.6613 l
0.3180 0.6612 l
0.3200 0.6610 l
0.3220 0.6608 l
0.3240 0.6607 l
0.3260 0.6605 l
0.3280 0.6603 l
0.3300 0.6602 l
0.3320 0.6600 l
0.3340 0.6598 l
0.3360 0.6597 l
0.3380 0.6595 l
0.3400 0.6594 l
0.3420 0.6592 l
0.3440 0.6590 l
0.3460 0.6589 l
0.3480 0.6587 l
0.3500 0.6586 l
0.3520 0.6584 l
0.3540 0.6583 l
0.3560 0.6581 l
0.3580 0.6580 l
0.3600 0.6578 l
0.3620 0.6577 l
0.3640 0.6575 l
0.3660 0.6574 l
0.3680 0.6572 l
0.3700 0.6571 l
0.3720 0.6569 l
0.3740 0.6568 l
0.3760 0.6567 l
0.3780 0.6565 l
0.3800 0.6564 l
0.3820 0.6562 l
0.3840 0.6561 l
0.3860 0.6560 l
0.3880 0.6559 l
0.3900 0.6557 l
0.3920 0.6556 l
0.3940 0.6555 l
0.3960 0.6554 l
0.3980 0.6552 l
0.4000 0.6551 l
0.4020 0.6550 l
0.4040 0.6549 l
0.4060 0.6548 l
0.4080 0.6547 l
0.4100 0.6546 l
0.4120 0.6545 l
0.4140 0.6544 l
0.4160 0.6543 l
0.4180 0.6542 l
0.4200 0.6541 l
0.4220 0.6540 l
0.4240 0.6539 l
0.4260 0.6538 l
0.4280 0.6538 l
0.4300 0.6537 l
0.4320 0.6536 l
0.4340 0.6535 l
0.4360 0.6535 l
0.4380 0.6534 l
0.4400 0.6533 l
0.4420 0.6533 l
0.4440 0.6532 l
0.4460 0.6532 l
0.4480 0.6531 l
0.4500 0.6531 l
0.4520 0.6530 l
0.4540 0.6530 l
0.4560 0.6530 l
0.4580 0.6529 l
0.4600 0.6529 l
0.4620 0.6529 l
0.4640 0.6528 l
0.4660 0.6528 l
0.4680 0.6528 l
0.4700 0.6528 l
0.4720 0.6528 l
0.4740 0.6528 l
0.4760 0.6528 l
0.4780 0.6528 l
0.4800 0.6528 l
0.4820 0.6528 l
0.4840 0.6528 l
0.4860 0.6528 l
0.4880 0.6528 l
0.4900 0.6528 l
0.4920 0.6529 l
0.4940 0.6529 l
0.4960 0.6529 l
0.4980 0.6530 l
0.5000 0.6530 l
0.5020 0.6530 l
0.5040 0.6531 l
0.5060 0.6531 l
0.5080 0.6532 l
0.5100 0.6532 l
0.5120 0.6533 l
0.5140 0.6534 l
0.5160 0.6534 l
0.5180 0.6535 l
0.5200 0.6536 l
0.5220 0.6537 l
0.5240 0.6537 l
0.5260 0.6538 l
0.5280 0.6539 l
0.5300 0.6540 l
0.5320 0.6541 l
0.5340 0.6542 l
0.5360 0.6543 l
0.5380 0.6544 l
0.5400 0.6545 l
0.5420 0.6547 l
0.5440 0.6548 l
0.5460 0.6549 l
0.5480 0.6550 l
0.5500 0.6552 l
0.5520 0.6553 l
0.5540 0.6554 l
0.5560 0.6556 l
0.5580 0.6557 l
0.5600 0.6559 l
0.5620 0.6560 l
0.5640 0.6562 l
0.5660 0.6564 l
0.5680 0.6565 l
0.5700 0.6567 l
0.5720 0.6569 l
0.5740 0.6571 l
0.5760 0.6572 l
0.5780 0.6574 l
0.5800 0.6576 l
0.5820 0.6578 l
0.5840 0.6580 l
0.5860 0.6582 l
0.5880 0.6584 l
0.5900 0.6586 l
0.5920 0.6588 l
0.5940 0.6590 l
0.5960 0.6592 l
0.5980 0.6595 l
0.6000 0.6597 l
0.6020 0.6599 l
0.6040 0.6601 l
0.6060 0.6604 l
0.6080 0.6606 l
0.6100 0.6608 l
0.6120 0.6611 l
0.6140 0.6613 l
0.6160 0.6616 l
0.6180 0.6618 l
0.6200 0.6621 l
0.6220 0.6624 l
0.6240 0.6626 l
0.6260 0.6629 l
0.6280 0.6632 l
0.6300 0.6634 l
0.6320 0.6637 l
0.6340 0.6640 l
0.6360 0.6643 l
0.6380 0.6646 l
0.6400 0.6648 l
0.6420 0.6651 l
0.6440 0.6654 l
0.6460 0.6657 l
0.6480 0.6660 l
0.6500 0.6663 l
0.6520 0.6666 l
0.6540 0.6669 l
0.6560 0.6673 l
0.6580 0.6676 l
0.6600 0.6679 l
0.6620 0.6682 l
0.6640 0.6685 l
0.6660 0.6689 l
0.6680 0.6692 l
0.6700 0.6695 l
0.6720 0.6698 l
0.6740 0.6702 l
0.6760 0.6705 l
0.6780 0.6709 l
0.6800 0.6712 l
0.6820 0.6715 l
0.6840 0.6719 l
0.6860 0.6722 l
0.6880 0.6726 l
0.6900 0.6729 l
0.6920 0.6733 l
0.6940 0.6737 l
0.6960 0.6740 l
0.6980 0.6744 l
0.7000 0.6747 l
0.7020 0.6751 l
0.7040 0.6755 l
0.7060 0.6758 l
0.7080 0.6762 l
0.7100 0.6766 l
0.7120 0.6770 l
0.7140 0.6773 l
0.7160 0.6777 l
0.7180 0.6781 l
0.7200 0.6785 l
0.7220 0.6789 l
0.7240 0.6792 l
0.7260 0.6796 l
0.7280 0.6800 l
0.7300 0.6804 l
0.7320 0.6808 l
0.7340 0.6812 l
0.7360 0.6816 l
0.7380 0.6820 l
0.7400 0.6824 l
0.7420 0.6828 l
0.7440 0.6832 l
0.7460 0.6836 l
0.7480 0.6840 l
0.7500 0.6844 l
0.7520 0.6848 l
0.7540 0.6852 l
0.7560 0.6856 l
0.7580 0.6860 l
0.7600 0.6864 l
0.7620 0.6868 l
0.7640 0.6872 l
0.7660 0.6876 l
0.7680 0.6880 l
0.7700 0.6884 l
0.7720 0.6888 l
0.7740 0.6892 l
0.7760 0.6897 l
0.7780 0.6901 l
0.7800 0.6905 l
0.7820 0.6909 l
0.7840 0.6913 l
0.7860 0.6917 l
0.7880 0.6921 l
0.7900 0.6925 l
0.7920 0.6930 l
0.7940 0.6934 l
0.7960 0.6938 l
0.7980 0.6942 l
0.8000 0.6946 l
0.8020 0.6950 l
0.8040 0.6954 l
0.8060 0.6958 l
0.8080 0.6963 l
0.8100 0.6967 l
0.8120 0.6971 l
0.8140 0.6975 l
0.8160 0.6979 l
0.8180 0.6983 l
0.8200 0.6987 l
0.8220 0.6991 l
0.8240 0.6996 l
0.8260 0.7000 l
0.8280 0.7004 l
0.8300 0.7008 l
0.8320 0.7012 l
0.8340 0.7016 l
0.8360 0.7020 l
0.8380 0.7024 l
0.8400 0.7028 l
0.8420 0.7032 l
0.8440 0.7036 l
0.8460 0.7040 l
0.8480 0.7044 l
0.8500 0.7048 l
0.8520 0.7052 l
0.8540 0.7056 l
0.8560 0.7060 l
0.8580 0.7064 l
0.8600 0.7068 l
0.8620 0.7072 l
0.8640 0.7076 l
0.8660 0.7080 l
0.8680 0.7084 l
0.8700 0.7088 l
0.8720 0.7092 l
0.8740 0.7096 l
0.8760 0.7100 l
0.8780 0.7104 l
0.8800 0.7107 l
0.8820 0.7111 l
0.8840 0.7115 l
0.8860 0.7119 l
0.8880 0.7123 l
0.8900 0.7126 l
0.8920 0.7130 l
0.8940 0.7134 l
0.8960 0.7138 l
0.8980 0.7141 l
0.9000 0.7145 l
0.9020 0.7149 l
0.9040 0.7153 l
0.9060 0.7156 l
0.9080 0.7160 l
0.9100 0.7163 l
0.9120 0.7167 l
0.9140 0.7171 l
0.9160 0.7174 l
0.9180 0.7178 l
0.9200 0.7181 l
0.9220 0.7185 l
0.9240 0.7188 l
0.9260 0.7192 l
0.9280 0.7195 l
0.9300 0.7199 l
0.9320 0.7202 l
0.9340 0.7206 l
0.9360 0.7209 l
0.9380 0.7212 l
0.9400 0.7216 l
0.9420 0.7219 l
0.9440 0.7222 l
0.9460 0.7226 l
0.9480 0.7229 l
0.9500 0.7232 l
0.9520 0.7235 l
0.9540 0.7238 l
0.9560 0.7242 l
0.9580 0.7245 l
0.9600 0.7248 l
0.9620 0.7251 l
0.9640 0.7254 l
0.9660 0.7257 l
0.9680 0.7260 l
0.9700 0.7263 l
0.9720 0.7266 l
0.9740 0.7269 l
0.9760 0.7272 l
0.9780 0.7275 l
0.9800 0.7278 l
0.9820 0.7281 l
0.9840 0.7284 l
0.9860 0.7287 l
0.9880 0.7290 l
0.9900 0.7293 l
0.9920 0.7295 l
0.9940 0.7298 l
0.9960 0.7301 l
0.9980 0.7304 l
1.0000 0.7306 l
1.0020 0.7309 l
1.0040 0.7312 l
1.0060 0.7314 l
1.0080 0.7317 l
1.0100 0.7320 l
1.0120 0.7322 l
1.0140 0.7325 l
1.0160 0.7327 l
1.0180 0.7330 l
1.0200 0.7332 l
1.0220 0.7335 l
1.0240 0.7337 l
1.0260 0.7340 l
1.0280 0.7342 l
1.0300 0.7344 l
1.0320 0.7347 l
1.0340 0.7349 l
1.0360 0.7351 l
1.0380 0.7354 l
1.0400 0.7356 l
1.0420 0.7358 l
1.0440 0.7360 l
1.0460 0.7363 l
1.0480 0.7365 l
1.0500 0.7367 l
1.0520 0.7369 l
1.0540 0.7371 l
1.0560 0.7373 l
1.0580 0.7375 l
1.0600 0.7377 l
1.0620 0.7379 l
1.0640 0.7381 l
1.0660 0.7383 l
1.0680 0.7385 l
1.0700 0.7387 l
1.0720 0.7389 l
1.0740 0.7391 l
1.0760 0.7393 l
1.0780 0.7395 l
1.0800 0.7397 l
1.0820 0.7398 l
1.0840 0.7400 l
1.0860 0.7402 l
1.0880 0.7404 l
1.0900 0.7405 l
1.0920 0.7407 l
1.0940 0.7409 l
1.0960 0.7410 l
1.0980 0.7412 l
1.1000 0.7414 l
1.1020 0.7415 l
1.1040 0.7417 l
1.1060 0.7419 l
1.1080 0.7420 l
1.1100 0.7422 l
1.1120 0.7423 l
1.1140 0.7425 l
1.1160 0.7426 l
1.1180 0.7428 l
1.1200 0.7429 l
1.1220 0.7430 l
1.1240 0.7432 l
1.1260 0.7433 l
1.1280 0.7435 l
1.1300 0.7436 l
1.1320 0.7437 l
1.1340 0.7438 l
1.1360 0.7440 l
1.1380 0.7441 l
1.1400 0.7442 l
1.1420 0.7443 l
1.1440 0.7445 l
1.1460 0.7446 l
1.1480 0.7447 l
1.1500 0.7448 l
s
n
0.1520 0.6701 0.0100 0.0100 0 360 EARC c
fill
[] 0 SD
0.0015 SLW
n 0.1520 0.6701 0.0100 0.0100 0 360 EARC s
n
0.2040 0.6689 0.0100 0.0100 0 360 EARC c
fill
n 0.2040 0.6689 0.0100 0.0100 0 360 EARC s
n
0.2560 0.6660 0.0100 0.0100 0 360 EARC c
fill
n 0.2560 0.6660 0.0100 0.0100 0 360 EARC s
n
0.3080 0.6620 0.0100 0.0100 0 360 EARC c
fill
n 0.3080 0.6620 0.0100 0.0100 0 360 EARC s
n
0.3600 0.6578 0.0100 0.0100 0 360 EARC c
fill
n 0.3600 0.6578 0.0100 0.0100 0 360 EARC s
n
0.4120 0.6545 0.0100 0.0100 0 360 EARC c
fill
n 0.4120 0.6545 0.0100 0.0100 0 360 EARC s
n
0.4640 0.6528 0.0100 0.0100 0 360 EARC c
fill
n 0.4640 0.6528 0.0100 0.0100 0 360 EARC s
n
0.5160 0.6534 0.0100 0.0100 0 360 EARC c
fill
n 0.5160 0.6534 0.0100 0.0100 0 360 EARC s
n
0.5680 0.6565 0.0100 0.0100 0 360 EARC c
fill
n 0.5680 0.6565 0.0100 0.0100 0 360 EARC s
n
0.6200 0.6621 0.0100 0.0100 0 360 EARC c
fill
n 0.6200 0.6621 0.0100 0.0100 0 360 EARC s
n
0.6720 0.6698 0.0100 0.0100 0 360 EARC c
fill
n 0.6720 0.6698 0.0100 0.0100 0 360 EARC s
n
0.7240 0.6792 0.0100 0.0100 0 360 EARC c
fill
n 0.7240 0.6792 0.0100 0.0100 0 360 EARC s
n
0.7760 0.6897 0.0100 0.0100 0 360 EARC c
fill
n 0.7760 0.6897 0.0100 0.0100 0 360 EARC s
n
0.8280 0.7004 0.0100 0.0100 0 360 EARC c
fill
n 0.8280 0.7004 0.0100 0.0100 0 360 EARC s
n
0.8800 0.7107 0.0100 0.0100 0 360 EARC c
fill
n 0.8800 0.7107 0.0100 0.0100 0 360 EARC s
n
0.9320 0.7202 0.0100 0.0100 0 360 EARC c
fill
n 0.9320 0.7202 0.0100 0.0100 0 360 EARC s
n
0.9840 0.7284 0.0100 0.0100 0 360 EARC c
fill
n 0.9840 0.7284 0.0100 0.0100 0 360 EARC s
n
1.0360 0.7351 0.0100 0.0100 0 360 EARC c
fill
n 1.0360 0.7351 0.0100 0.0100 0 360 EARC s
n
1.0880 0.7404 0.0100 0.0100 0 360 EARC c
fill
n 1.0880 0.7404 0.0100 0.0100 0 360 EARC s
n
1.1400 0.7442 0.0100 0.0100 0 360 EARC c
fill
n 1.1400 0.7442 0.0100 0.0100 0 360 EARC s
[/DeviceRGB] SCS
Color2 SC
[0.0225 0.0135 ] 0 SD
0.0045 SLW
n
0.1520 0.4566 m
0.1540 0.4566 l
0.1560 0.4567 l
0.1580 0.4567 l
0.1600 0.4567 l
0.1620 0.4567 l
0.1640 0.4567 l
0.1660 0.4567 l
0.1680 0.4567 l
0.1700 0.4567 l
0.1720 0.4568 l
0.1740 0.4568 l
0.1760 0.4568 l
0.1780 0.4568 l
0.1800 0.4569 l
0.1820 0.4569 l
0.1840 0.4569 l
0.1860 0.4569 l
0.1880 0.4570 l
0.1900 0.4570 l
0.1920 0.4570 l
0.1940 0.4571 l
0.1960 0.4571 l
0.1980 0.4572 l
0.2000 0.4572 l
0.2020 0.4573 l
0.2040 0.4573 l
0.2060 0.4574 l
0.2080 0.4574 l
0.2100 0.4575 l
0.2120 0.4575 l
0.2140 0.4576 l
0.2160 0.4576 l
0.2180 0.4577 l
0.2200 0.4578 l
0.2220 0.4578 l
0.2240 0.4579 l
0.2260 0.4580 l
0.2280 0.4580 l
0.2300 0.4581 l
0.2320 0.4582 l
0.2340 0.4583 l
0.2360 0.4584 l
0.2380 0.4584 l
0.2400 0.4585 l
0.2420 0.4586 l
0.2440 0.4587 l
0.2460 0.4588 l
0.2480 0.4589 l
0.2500 0.4590 l
0.2520 0.4591 l
0.2540 0.4592 l
0.2560 0.4593 l
0.2580 0.4594 l
0.2600 0.4595 l
0.2620 0.4596 l
0.2640 0.4597 l
0.2660 0.4598 l
0.2680 0.4599 l
0.2700 0.4600 l
0.2720 0.4601 l
0.2740 0.4602 l
0.2760 0.4604 l
0.2780 0.4605 l
0.2800 0.4606 l
0.2820 0.4607 l
0.2840 0.4609 l
0.2860 0.4610 l
0.2880 0.4611 l
0.2900 0.4613 l
0.2920 0.4614 l
0.2940 0.4615 l
0.2960 0.4617 l
0.2980 0.4618 l
0.3000 0.4620 l
0.3020 0.4621 l
0.3040 0.4623 l
0.3060 0.4624 l
0.3080 0.4626 l
0.3100 0.4627 l
0.3120 0.4629 l
0.3140 0.4630 l
0.3160 0.4632 l
0.3180 0.4634 l
0.3200 0.4635 l
0.3220 0.4637 l
0.3240 0.4639 l
0.3260 0.4640 l
0.3280 0.4642 l
0.3300 0.4644 l
0.3320 0.4646 l
0.3340 0.4648 l
0.3360 0.4650 l
0.3380 0.4651 l
0.3400 0.4653 l
0.3420 0.4655 l
0.3440 0.4657 l
0.3460 0.4659 l
0.3480 0.4661 l
0.3500 0.4663 l
0.3520 0.4665 l
0.3540 0.4667 l
0.3560 0.4669 l
0.3580 0.4672 l
0.3600 0.4674 l
0.3620 0.4676 l
0.3640 0.4678 l
0.3660 0.4680 l
0.3680 0.4683 l
0.3700 0.4685 l
0.3720 0.4687 l
0.3740 0.4690 l
0.3760 0.4692 l
0.3780 0.4694 l
0.3800 0.4697 l
0.3820 0.4699 l
0.3840 0.4702 l
0.3860 0.4704 l
0.3880 0.4707 l
0.3900 0.4709 l
0.3920 0.4712 l
0.3940 0.4714 l
0.3960 0.4717 l
0.3980 0.4720 l
0.4000 0.4722 l
0.4020 0.4725 l
0.4040 0.4728 l
0.4060 0.4730 l
0.4080 0.4733 l
0.4100 0.4736 l
0.4120 0.4739 l
0.4140 0.4742 l
0.4160 0.4745 l
0.4180 0.4748 l
0.4200 0.4751 l
0.4220 0.4754 l
0.4240 0.4757 l
0.4260 0.4760 l
0.4280 0.4763 l
0.4300 0.4766 l
0.4320 0.4769 l
0.4340 0.4772 l
0.4360 0.4775 l
0.4380 0.4779 l
0.4400 0.4782 l
0.4420 0.4785 l
0.4440 0.4789 l
0.4460 0.4792 l
0.4480 0.4795 l
0.4500 0.4799 l
0.4520 0.4802 l
0.4540 0.4806 l
0.4560 0.4809 l
0.4580 0.4813 l
0.4600 0.4816 l
0.4620 0.4820 l
0.4640 0.4824 l
0.4660 0.4827 l
0.4680 0.4831 l
0.4700 0.4835 l
0.4720 0.4838 l
0.4740 0.4842 l
0.4760 0.4846 l
0.4780 0.4850 l
0.4800 0.4854 l
0.4820 0.4858 l
0.4840 0.4862 l
0.4860 0.4866 l
0.4880 0.4870 l
0.4900 0.4874 l
0.4920 0.4878 l
0.4940 0.4882 l
0.4960 0.4886 l
0.4980 0.4891 l
0.5000 0.4895 l
0.5020 0.4899 l
0.5040 0.4904 l
0.5060 0.4908 l
0.5080 0.4912 l
0.5100 0.4917 l
0.5120 0.4921 l
0.5140 0.4926 l
0.5160 0.4930 l
0.5180 0.4935 l
0.5200 0.4939 l
0.5220 0.4944 l
0.5240 0.4949 l
0.5260 0.4953 l
0.5280 0.4958 l
0.5300 0.4963 l
0.5320 0.4968 l
0.5340 0.4973 l
0.5360 0.4978 l
0.5380 0.4983 l
0.5400 0.4988 l
0.5420 0.4993 l
0.5440 0.4998 l
0.5460 0.5003 l
0.5480 0.5008 l
0.5500 0.5013 l
0.5520 0.5018 l
0.5540 0.5023 l
0.5560 0.5029 l
0.5580 0.5034 l
0.5600 0.5039 l
0.5620 0.5045 l
0.5640 0.5050 l
0.5660 0.5056 l
0.5680 0.5061 l
0.5700 0.5067 l
0.5720 0.5072 l
0.5740 0.5078 l
0.5760 0.5084 l
0.5780 0.5089 l
0.5800 0.5095 l
0.5820 0.5101 l
0.5840 0.5107 l
0.5860 0.5113 l
0.5880 0.5119 l
0.5900 0.5124 l
0.5920 0.5130 l
0.5940 0.5136 l
0.5960 0.5143 l
0.5980 0.5149 l
0.6000 0.5155 l
0.6020 0.5161 l
0.6040 0.5167 l
0.6060 0.5173 l
0.6080 0.5180 l
0.6100 0.5186 l
0.6120 0.5192 l
0.6140 0.5199 l
0.6160 0.5205 l
0.6180 0.5212 l
0.6200 0.5218 l
0.6220 0.5225 l
0.6240 0.5231 l
0.6260 0.5238 l
0.6280 0.5245 l
0.6300 0.5252 l
0.6320 0.5258 l
0.6340 0.5265 l
0.6360 0.5272 l
0.6380 0.5279 l
0.6400 0.5286 l
0.6420 0.5293 l
0.6440 0.5300 l
0.6460 0.5307 l
0.6480 0.5314 l
0.6500 0.5321 l
0.6520 0.5328 l
0.6540 0.5335 l
0.6560 0.5342 l
0.6580 0.5350 l
0.6600 0.5357 l
0.6620 0.5364 l
0.6640 0.5372 l
0.6660 0.5379 l
0.6680 0.5387 l
0.6700 0.5394 l
0.6720 0.5402 l
0.6740 0.5409 l
0.6760 0.5417 l
0.6780 0.5424 l
0.6800 0.5432 l
0.6820 0.5440 l
0.6840 0.5447 l
0.6860 0.5455 l
0.6880 0.5463 l
0.6900 0.5471 l
0.6920 0.5479 l
0.6940 0.5487 l
0.6960 0.5495 l
0.6980 0.5503 l
0.7000 0.5511 l
0.7020 0.5519 l
0.7040 0.5527 l
0.7060 0.5535 l
0.7080 0.5543 l
0.7100 0.5551 l
0.7120 0.5559 l
0.7140 0.5568 l
0.7160 0.5576 l
0.7180 0.5584 l
0.7200 0.5593 l
0.7220 0.5601 l
0.7240 0.5609 l
0.7260 0.5618 l
0.7280 0.5626 l
0.7300 0.5635 l
0.7320 0.5643 l
0.7340 0.5652 l
0.7360 0.5661 l
0.7380 0.5669 l
0.7400 0.5678 l
0.7420 0.5686 l
0.7440 0.5695 l
0.7460 0.5704 l
0.7480 0.5713 l
0.7500 0.5721 l
0.7520 0.5730 l
0.7540 0.5739 l
0.7560 0.5748 l
0.7580 0.5757 l
0.7600 0.5766 l
0.7620 0.5775 l
0.7640 0.5784 l
0.7660 0.5793 l
0.7680 0.5802 l
0.7700 0.5811 l
0.7720 0.5820 l
0.7740 0.5829 l
0.7760 0.5838 l
0.7780 0.5847 l
0.7800 0.5856 l
0.7820 0.5865 l
0.7840 0.5874 l
0.7860 0.5884 l
0.7880 0.5893 l
0.7900 0.5902 l
0.7920 0.5911 l
0.7940 0.5920 l
0.7960 0.5930 l
0.7980 0.5939 l
0.8000 0.5948 l
0.8020 0.5958 l
0.8040 0.5967 l
0.8060 0.5976 l
0.8080 0.5986 l
0.8100 0.5995 l
0.8120 0.6004 l
0.8140 0.6014 l
0.8160 0.6023 l
0.8180 0.6033 l
0.8200 0.6042 l
0.8220 0.6052 l
0.8240 0.6061 l
0.8260 0.6070 l
0.8280 0.6080 l
0.8300 0.6089 l
0.8320 0.6099 l
0.8340 0.6108 l
0.8360 0.6118 l
0.8380 0.6127 l
0.8400 0.6137 l
0.8420 0.6146 l
0.8440 0.6156 l
0.8460 0.6165 l
0.8480 0.6175 l
0.8500 0.6184 l
0.8520 0.6194 l
0.8540 0.6203 l
0.8560 0.6213 l
0.8580 0.6222 l
0.8600 0.6232 l
0.8620 0.6241 l
0.8640 0.6251 l
0.8660 0.6260 l
0.8680 0.6270 l
0.8700 0.6279 l
0.8720 0.6289 l
0.8740 0.6298 l
0.8760 0.6308 l
0.8780 0.6317 l
0.8800 0.6327 l
0.8820 0.6336 l
0.8840 0.6346 l
0.8860 0.6355 l
0.8880 0.6365 l
0.8900 0.6374 l
0.8920 0.6383 l
0.8940 0.6393 l
0.8960 0.6402 l
0.8980 0.6412 l
0.9000 0.6421 l
0.9020 0.6430 l
0.9040 0.6440 l
0.9060 0.6449 l
0.9080 0.6458 l
0.9100 0.6467 l
0.9120 0.6477 l
0.9140 0.6486 l
0.9160 0.6495 l
0.9180 0.6504 l
0.9200 0.6514 l
0.9220 0.6523 l
0.9240 0.6532 l
0.9260 0.6541 l
0.9280 0.6550 l
0.9300 0.6559 l
0.9320 0.6568 l
0.9340 0.6577 l
0.9360 0.6586 l
0.9380 0.6595 l
0.9400 0.6604 l
0.9420 0.6613 l
0.9440 0.6622 l
0.9460 0.6631 l
0.9480 0.6640 l
0.9500 0.6648 l
0.9520 0.6657 l
0.9540 0.6666 l
0.9560 0.6675 l
0.9580 0.6683 l
0.9600 0.6692 l
0.9620 0.6701 l
0.9640 0.6709 l
0.9660 0.6718 l
0.9680 0.6727 l
0.9700 0.6735 l
0.9720 0.6743 l
0.9740 0.6752 l
0.9760 0.6760 l
0.9780 0.6769 l
0.9800 0.6777 l
0.9820 0.6785 l
0.9840 0.6794 l
0.9860 0.6802 l
0.9880 0.6810 l
0.9900 0.6818 l
0.9920 0.6826 l
0.9940 0.6834 l
0.9960 0.6842 l
0.9980 0.6850 l
1.0000 0.6858 l
1.0020 0.6866 l
1.0040 0.6874 l
1.0060 0.6882 l
1.0080 0.6890 l
1.0100 0.6898 l
1.0120 0.6905 l
1.0140 0.6913 l
1.0160 0.6921 l
1.0180 0.6928 l
1.0200 0.6936 l
1.0220 0.6943 l
1.0240 0.6951 l
1.0260 0.6958 l
1.0280 0.6965 l
1.0300 0.6973 l
1.0320 0.6980 l
1.0340 0.6987 l
1.0360 0.6994 l
1.0380 0.7002 l
1.0400 0.7009 l
1.0420 0.7016 l
1.0440 0.7023 l
1.0460 0.7030 l
1.0480 0.7037 l
1.0500 0.7043 l
1.0520 0.7050 l
1.0540 0.7057 l
1.0560 0.7064 l
1.0580 0.7070 l
1.0600 0.7077 l
1.0620 0.7084 l
1.0640 0.7090 l
1.0660 0.7097 l
1.0680 0.7103 l
1.0700 0.7109 l
1.0720 0.7116 l
1.0740 0.7122 l
1.0760 0.7128 l
1.0780 0.7134 l
1.0800 0.7141 l
1.0820 0.7147 l
1.0840 0.7153 l
1.0860 0.7159 l
1.0880 0.7165 l
1.0900 0.7171 l
1.0920 0.7176 l
1.0940 0.7182 l
1.0960 0.7188 l
1.0980 0.7194 l
1.1000 0.7199 l
1.1020 0.7205 l
1.1040 0.7210 l
1.1060 0.7216 l
1.1080 0.7221 l
1.1100 0.7227 l
1.1120 0.7232 l
1.1140 0.7238 l
1.1160 0.7243 l
1.1180 0.7248 l
1.1200 0.7253 l
1.1220 0.7258 l
1.1240 0.7263 l
1.1260 0.7268 l
1.1280 0.7273 l
1.1300 0.7278 l
1.1320 0.7283 l
1.1340 0.7288 l
1.1360 0.7293 l
1.1380 0.7297 l
1.1400 0.7302 l
1.1420 0.7307 l
1.1440 0.7311 l
1.1460 0.7316 l
1.1480 0.7320 l
1.1500 0.7325 l
s
n
0.1520 0.4566 0.0100 0.0100 0 360 EARC c
GS
Color0 SRGB
fill
GR
[/Pattern /DeviceRGB] SCS
Color2 Pattern8 SC
fill
[/DeviceRGB] SCS
Color2 SC
[] 0 SD
0.0037 SLW
n 0.1520 0.4566 0.0100 0.0100 0 360 EARC s
n
0.2040 0.4573 0.0100 0.0100 0 360 EARC c
GS
Color0 SRGB
fill
GR
[/Pattern /DeviceRGB] SCS
Color2 Pattern8 SC
fill
[/DeviceRGB] SCS
Color2 SC
n 0.2040 0.4573 0.0100 0.0100 0 360 EARC s
n
0.2560 0.4593 0.0100 0.0100 0 360 EARC c
GS
Color0 SRGB
fill
GR
[/Pattern /DeviceRGB] SCS
Color2 Pattern8 SC
fill
[/DeviceRGB] SCS
Color2 SC
n 0.2560 0.4593 0.0100 0.0100 0 360 EARC s
n
0.3080 0.4626 0.0100 0.0100 0 360 EARC c
GS
Color0 SRGB
fill
GR
[/Pattern /DeviceRGB] SCS
Color2 Pattern8 SC
fill
[/DeviceRGB] SCS
Color2 SC
n 0.3080 0.4626 0.0100 0.0100 0 360 EARC s
n
0.3600 0.4674 0.0100 0.0100 0 360 EARC c
GS
Color0 SRGB
fill
GR
[/Pattern /DeviceRGB] SCS
Color2 Pattern8 SC
fill
[/DeviceRGB] SCS
Color2 SC
n 0.3600 0.4674 0.0100 0.0100 0 360 EARC s
n
0.4120 0.4739 0.0100 0.0100 0 360 EARC c
GS
Color0 SRGB
fill
GR
[/Pattern /DeviceRGB] SCS
Color2 Pattern8 SC
fill
[/DeviceRGB] SCS
Color2 SC
n 0.4120 0.4739 0.0100 0.0100 0 360 EARC s
n
0.4640 0.4824 0.0100 0.0100 0 360 EARC c
GS
Color0 SRGB
fill
GR
[/Pattern /DeviceRGB] SCS
Color2 Pattern8 SC
fill
[/DeviceRGB] SCS
Color2 SC
n 0.4640 0.4824 0.0100 0.0100 0 360 EARC s
n
0.5160 0.4930 0.0100 0.0100 0 360 EARC c
GS
Color0 SRGB
fill
GR
[/Pattern /DeviceRGB] SCS
Color2 Pattern8 SC
fill
[/DeviceRGB] SCS
Color2 SC
n 0.5160 0.4930 0.0100 0.0100 0 360 EARC s
n
0.5680 0.5061 0.0100 0.0100 0 360 EARC c
GS
Color0 SRGB
fill
GR
[/Pattern /DeviceRGB] SCS
Color2 Pattern8 SC
fill
[/DeviceRGB] SCS
Color2 SC
n 0.5680 0.5061 0.0100 0.0100 0 360 EARC s
n
0.6200 0.5218 0.0100 0.0100 0 360 EARC c
GS
Color0 SRGB
fill
GR
[/Pattern /DeviceRGB] SCS
Color2 Pattern8 SC
fill
[/DeviceRGB] SCS
Color2 SC
n 0.6200 0.5218 0.0100 0.0100 0 360 EARC s
n
0.6720 0.5402 0.0100 0.0100 0 360 EARC c
GS
Color0 SRGB
fill
GR
[/Pattern /DeviceRGB] SCS
Color2 Pattern8 SC
fill
[/DeviceRGB] SCS
Color2 SC
n 0.6720 0.5402 0.0100 0.0100 0 360 EARC s
n
0.7240 0.5609 0.0100 0.0100 0 360 EARC c
GS
Color0 SRGB
fill
GR
[/Pattern /DeviceRGB] SCS
Color2 Pattern8 SC
fill
[/DeviceRGB] SCS
Color2 SC
n 0.7240 0.5609 0.0100 0.0100 0 360 EARC s
n
0.7760 0.5838 0.0100 0.0100 0 360 EARC c
GS
Color0 SRGB
fill
GR
[/Pattern /DeviceRGB] SCS
Color2 Pattern8 SC
fill
[/DeviceRGB] SCS
Color2 SC
n 0.7760 0.5838 0.0100 0.0100 0 360 EARC s
n
0.8280 0.6080 0.0100 0.0100 0 360 EARC c
GS
Color0 SRGB
fill
GR
[/Pattern /DeviceRGB] SCS
Color2 Pattern8 SC
fill
[/DeviceRGB] SCS
Color2 SC
n 0.8280 0.6080 0.0100 0.0100 0 360 EARC s
n
0.8800 0.6327 0.0100 0.0100 0 360 EARC c
GS
Color0 SRGB
fill
GR
[/Pattern /DeviceRGB] SCS
Color2 Pattern8 SC
fill
[/DeviceRGB] SCS
Color2 SC
n 0.8800 0.6327 0.0100 0.0100 0 360 EARC s
n
0.9320 0.6568 0.0100 0.0100 0 360 EARC c
GS
Color0 SRGB
fill
GR
[/Pattern /DeviceRGB] SCS
Color2 Pattern8 SC
fill
[/DeviceRGB] SCS
Color2 SC
n 0.9320 0.6568 0.0100 0.0100 0 360 EARC s
n
0.9840 0.6794 0.0100 0.0100 0 360 EARC c
GS
Color0 SRGB
fill
GR
[/Pattern /DeviceRGB] SCS
Color2 Pattern8 SC
fill
[/DeviceRGB] SCS
Color2 SC
n 0.9840 0.6794 0.0100 0.0100 0 360 EARC s
n
1.0360 0.6994 0.0100 0.0100 0 360 EARC c
GS
Color0 SRGB
fill
GR
[/Pattern /DeviceRGB] SCS
Color2 Pattern8 SC
fill
[/DeviceRGB] SCS
Color2 SC
n 1.0360 0.6994 0.0100 0.0100 0 360 EARC s
n
1.0880 0.7165 0.0100 0.0100 0 360 EARC c
GS
Color0 SRGB
fill
GR
[/Pattern /DeviceRGB] SCS
Color2 Pattern8 SC
fill
[/DeviceRGB] SCS
Color2 SC
n 1.0880 0.7165 0.0100 0.0100 0 360 EARC s
n
1.1400 0.7302 0.0100 0.0100 0 360 EARC c
GS
Color0 SRGB
fill
GR
[/Pattern /DeviceRGB] SCS
Color2 Pattern8 SC
fill
[/DeviceRGB] SCS
Color2 SC
n 1.1400 0.7302 0.0100 0.0100 0 360 EARC s
[/DeviceRGB] SCS
Color3 SC
n
0.1520 0.4690 m
0.1540 0.4690 l
0.1560 0.4690 l
0.1580 0.4691 l
0.1600 0.4691 l
0.1620 0.4692 l
0.1640 0.4692 l
0.1660 0.4693 l
0.1680 0.4694 l
0.1700 0.4695 l
0.1720 0.4696 l
0.1740 0.4697 l
0.1760 0.4698 l
0.1780 0.4699 l
0.1800 0.4701 l
0.1820 0.4702 l
0.1840 0.4704 l
0.1860 0.4706 l
0.1880 0.4708 l
0.1900 0.4710 l
0.1920 0.4712 l
0.1940 0.4714 l
0.1960 0.4716 l
0.1980 0.4718 l
0.2000 0.4721 l
0.2020 0.4723 l
0.2040 0.4726 l
0.2060 0.4729 l
0.2080 0.4731 l
0.2100 0.4734 l
0.2120 0.4737 l
0.2140 0.4740 l
0.2160 0.4744 l
0.2180 0.4747 l
0.2200 0.4750 l
0.2220 0.4754 l
0.2240 0.4758 l
0.2260 0.4761 l
0.2280 0.4765 l
0.2300 0.4769 l
0.2320 0.4773 l
0.2340 0.4777 l
0.2360 0.4781 l
0.2380 0.4786 l
0.2400 0.4790 l
0.2420 0.4795 l
0.2440 0.4799 l
0.2460 0.4804 l
0.2480 0.4809 l
0.2500 0.4814 l
0.2520 0.4819 l
0.2540 0.4824 l
0.2560 0.4829 l
0.2580 0.4834 l
0.2600 0.4840 l
0.2620 0.4845 l
0.2640 0.4851 l
0.2660 0.4857 l
0.2680 0.4862 l
0.2700 0.4868 l
0.2720 0.4874 l
0.2740 0.4881 l
0.2760 0.4887 l
0.2780 0.4893 l
0.2800 0.4900 l
0.2820 0.4906 l
0.2840 0.4913 l
0.2860 0.4919 l
0.2880 0.4926 l
0.2900 0.4933 l
0.2920 0.4940 l
0.2940 0.4947 l
0.2960 0.4955 l
0.2980 0.4962 l
0.3000 0.4969 l
0.3020 0.4977 l
0.3040 0.4984 l
0.3060 0.4992 l
0.3080 0.5000 l
0.3100 0.5008 l
0.3120 0.5016 l
0.3140 0.5024 l
0.3160 0.5032 l
0.3180 0.5041 l
0.3200 0.5049 l
0.3220 0.5058 l
0.3240 0.5066 l
0.3260 0.5075 l
0.3280 0.5084 l
0.3300 0.5093 l
0.3320 0.5102 l
0.3340 0.5111 l
0.3360 0.5120 l
0.3380 0.5129 l
0.3400 0.5139 l
0.3420 0.5148 l
0.3440 0.5158 l
0.3460 0.5167 l
0.3480 0.5177 l
0.3500 0.5187 l
0.3520 0.5197 l
0.3540 0.5207 l
0.3560 0.5217 l
0.3580 0.5228 l
0.3600 0.5238 l
0.3620 0.5248 l
0.3640 0.5259 l
0.3660 0.5269 l
0.3680 0.5280 l
0.3700 0.5291 l
0.3720 0.5302 l
0.3740 0.5313 l
0.3760 0.5324 l
0.3780 0.5335 l
0.3800 0.5346 l
0.3820 0.5358 l
0.3840 0.5369 l
0.3860 0.5381 l
0.3880 0.5392 l
0.3900 0.5404 l
0.3920 0.5416 l
0.3940 0.5428 l
0.3960 0.5440 l
0.3980 0.5452 l
0.4000 0.5464 l
0.4020 0.5476 l
0.4040 0.5488 l
0.4060 0.5501 l
0.4080 0.5513 l
0.4100 0.5526 l
0.4120 0.5538 l
0.4140 0.5551 l
0.4160 0.5564 l
0.4180 0.5577 l
0.4200 0.5590 l
0.4220 0.5603 l
0.4240 0.5616 l
0.4260 0.5629 l
0.4280 0.5642 l
0.4300 0.5655 l
0.4320 0.5669 l
0.4340 0.5682 l
0.4360 0.5695 l
0.4380 0.5709 l
0.4400 0.5723 l
0.4420 0.5736 l
0.4440 0.5750 l
0.4460 0.5764 l
0.4480 0.5778 l
0.4500 0.5792 l
0.4520 0.5806 l
0.4540 0.5820 l
0.4560 0.5834 l
0.4580 0.5848 l
0.4600 0.5862 l
0.4620 0.5876 l
0.4640 0.5891 l
0.4660 0.5905 l
0.4680 0.5919 l
0.4700 0.5934 l
0.4720 0.5948 l
0.4740 0.5963 l
0.4760 0.5977 l
0.4780 0.5992 l
0.4800 0.6007 l
0.4820 0.6021 l
0.4840 0.6036 l
0.4860 0.6051 l
0.4880 0.6065 l
0.4900 0.6080 l
0.4920 0.6095 l
0.4940 0.6110 l
0.4960 0.6125 l
0.4980 0.6140 l
0.5000 0.6155 l
0.5020 0.6170 l
0.5040 0.6185 l
0.5060 0.6200 l
0.5080 0.6215 l
0.5100 0.6230 l
0.5120 0.6245 l
0.5140 0.6260 l
0.5160 0.6275 l
0.5180 0.6290 l
0.5200 0.6305 l
0.5220 0.6320 l
0.5240 0.6335 l
0.5260 0.6350 l
0.5280 0.6365 l
0.5300 0.6380 l
0.5320 0.6395 l
0.5340 0.6410 l
0.5360 0.6425 l
0.5380 0.6440 l
0.5400 0.6455 l
0.5420 0.6470 l
0.5440 0.6485 l
0.5460 0.6499 l
0.5480 0.6514 l
0.5500 0.6529 l
0.5520 0.6544 l
0.5540 0.6559 l
0.5560 0.6573 l
0.5580 0.6588 l
0.5600 0.6603 l
0.5620 0.6617 l
0.5640 0.6632 l
0.5660 0.6647 l
0.5680 0.6661 l
0.5700 0.6676 l
0.5720 0.6690 l
0.5740 0.6704 l
0.5760 0.6719 l
0.5780 0.6733 l
0.5800 0.6747 l
0.5820 0.6761 l
0.5840 0.6775 l
0.5860 0.6789 l
0.5880 0.6803 l
0.5900 0.6817 l
0.5920 0.6831 l
0.5940 0.6845 l
0.5960 0.6858 l
0.5980 0.6872 l
0.6000 0.6885 l
0.6020 0.6899 l
0.6040 0.6912 l
0.6060 0.6925 l
0.6080 0.6939 l
0.6100 0.6952 l
0.6120 0.6965 l
0.6140 0.6978 l
0.6160 0.6990 l
0.6180 0.7003 l
0.6200 0.7016 l
0.6220 0.7028 l
0.6240 0.7041 l
0.6260 0.7053 l
0.6280 0.7065 l
0.6300 0.7078 l
0.6320 0.7090 l
0.6340 0.7102 l
0.6360 0.7113 l
0.6380 0.7125 l
0.6400 0.7137 l
0.6420 0.7148 l
0.6440 0.7160 l
0.6460 0.7171 l
0.6480 0.7182 l
0.6500 0.7193 l
0.6520 0.7204 l
0.6540 0.7215 l
0.6560 0.7226 l
0.6580 0.7237 l
0.6600 0.7247 l
0.6620 0.7258 l
0.6640 0.7268 l
0.6660 0.7278 l
0.6680 0.7288 l
0.6700 0.7298 l
0.6720 0.7308 l
0.6740 0.7317 l
0.6760 0.7327 l
0.6780 0.7336 l
0.6800 0.7346 l
0.6820 0.7355 l
0.6840 0.7364 l
0.6860 0.7373 l
0.6880 0.7381 l
0.6900 0.7390 l
0.6920 0.7399 l
0.6940 0.7407 l
0.6960 0.7415 l
0.6980 0.7423 l
0.7000 0.7431 l
0.7020 0.7439 l
0.7040 0.7447 l
0.7060 0.7455 l
0.7080 0.7462 l
0.7100 0.7470 l
0.7120 0.7477 l
0.7140 0.7484 l
0.7160 0.7491 l
0.7180 0.7498 l
0.7200 0.7505 l
0.7220 0.7511 l
0.7240 0.7518 l
0.7260 0.7524 l
0.7280 0.7530 l
0.7300 0.7536 l
0.7320 0.7542 l
0.7340 0.7548 l
0.7360 0.7554 l
0.7380 0.7560 l
0.7400 0.7565 l
0.7420 0.7571 l
0.7440 0.7576 l
0.7460 0.7581 l
0.7480 0.7586 l
0.7500 0.7591 l
0.7520 0.7596 l
0.7540 0.7600 l
0.7560 0.7605 l
0.7580 0.7609 l
0.7600 0.7614 l
0.7620 0.7618 l
0.7640 0.7622 l
0.7660 0.7626 l
0.7680 0.7630 l
0.7700 0.7633 l
0.7720 0.7637 l
0.7740 0.7641 l
0.7760 0.7644 l
0.7780 0.7647 l
0.7800 0.7650 l
0.7820 0.7653 l
0.7840 0.7656 l
0.7860 0.7659 l
0.7880 0.7662 l
0.7900 0.7665 l
0.7920 0.7667 l
0.7940 0.7670 l
0.7960 0.7672 l
0.7980 0.7675 l
0.8000 0.7677 l
0.8020 0.7679 l
0.8040 0.7681 l
0.8060 0.7683 l
0.8080 0.7685 l
0.8100 0.7686 l
0.8120 0.7688 l
0.8140 0.7689 l
0.8160 0.7691 l
0.8180 0.7692 l
0.8200 0.7694 l
0.8220 0.7695 l
0.8240 0.7696 l
0.8260 0.7697 l
0.8280 0.7698 l
0.8300 0.7699 l
0.8320 0.7700 l
0.8340 0.7700 l
0.8360 0.7701 l
0.8380 0.7702 l
0.8400 0.7702 l
0.8420 0.7703 l
0.8440 0.7703 l
0.8460 0.7703 l
0.8480 0.7704 l
0.8500 0.7704 l
0.8520 0.7704 l
0.8540 0.7704 l
0.8560 0.7704 l
0.8580 0.7704 l
0.8600 0.7704 l
0.8620 0.7704 l
0.8640 0.7703 l
0.8660 0.7703 l
0.8680 0.7703 l
0.8700 0.7702 l
0.8720 0.7702 l
0.8740 0.7701 l
0.8760 0.7701 l
0.8780 0.7700 l
0.8800 0.7699 l
0.8820 0.7699 l
0.8840 0.7698 l
0.8860 0.7697 l
0.8880 0.7696 l
0.8900 0.7695 l
0.8920 0.7694 l
0.8940 0.7693 l
0.8960 0.7692 l
0.8980 0.7691 l
0.9000 0.7690 l
0.9020 0.7689 l
0.9040 0.7688 l
0.9060 0.7687 l
0.9080 0.7686 l
0.9100 0.7684 l
0.9120 0.7683 l
0.9140 0.7682 l
0.9160 0.7680 l
0.9180 0.7679 l
0.9200 0.7677 l
0.9220 0.7676 l
0.9240 0.7674 l
0.9260 0.7673 l
0.9280 0.7671 l
0.9300 0.7670 l
0.9320 0.7668 l
0.9340 0.7667 l
0.9360 0.7665 l
0.9380 0.7663 l
0.9400 0.7662 l
0.9420 0.7660 l
0.9440 0.7658 l
0.9460 0.7657 l
0.9480 0.7655 l
0.9500 0.7653 l
0.9520 0.7651 l
0.9540 0.7649 l
0.9560 0.7648 l
0.9580 0.7646 l
0.9600 0.7644 l
0.9620 0.7642 l
0.9640 0.7640 l
0.9660 0.7638 l
0.9680 0.7636 l
0.9700 0.7635 l
0.9720 0.7633 l
0.9740 0.7631 l
0.9760 0.7629 l
0.9780 0.7627 l
0.9800 0.7625 l
0.9820 0.7623 l
0.9840 0.7621 l
0.9860 0.7619 l
0.9880 0.7617 l
0.9900 0.7615 l
0.9920 0.7613 l
0.9940 0.7611 l
0.9960 0.7609 l
0.9980 0.7607 l
1.0000 0.7605 l
1.0020 0.7603 l
1.0040 0.7601 l
1.0060 0.7599 l
1.0080 0.7597 l
1.0100 0.7595 l
1.0120 0.7593 l
1.0140 0.7591 l
1.0160 0.7589 l
1.0180 0.7587 l
1.0200 0.7585 l
1.0220 0.7583 l
1.0240 0.7581 l
1.0260 0.7579 l
1.0280 0.7577 l
1.0300 0.7575 l
1.0320 0.7573 l
1.0340 0.7571 l
1.0360 0.7569 l
1.0380 0.7567 l
1.0400 0.7565 l
1.0420 0.7563 l
1.0440 0.7562 l
1.0460 0.7560 l
1.0480 0.7558 l
1.0500 0.7556 l
1.0520 0.7554 l
1.0540 0.7552 l
1.0560 0.7550 l
1.0580 0.7548 l
1.0600 0.7546 l
1.0620 0.7544 l
1.0640 0.7542 l
1.0660 0.7540 l
1.0680 0.7539 l
1.0700 0.7537 l
1.0720 0.7535 l
1.0740 0.7533 l
1.0760 0.7531 l
1.0780 0.7529 l
1.0800 0.7527 l
1.0820 0.7526 l
1.0840 0.7524 l
1.0860 0.7522 l
1.0880 0.7520 l
1.0900 0.7518 l
1.0920 0.7517 l
1.0940 0.7515 l
1.0960 0.7513 l
1.0980 0.7511 l
1.1000 0.7510 l
1.1020 0.7508 l
1.1040 0.7506 l
1.1060 0.7505 l
1.1080 0.7503 l
1.1100 0.7501 l
1.1120 0.7499 l
1.1140 0.7498 l
1.1160 0.7496 l
1.1180 0.7495 l
1.1200 0.7493 l
1.1220 0.7491 l
1.1240 0.7490 l
1.1260 0.7488 l
1.1280 0.7486 l
1.1300 0.7485 l
1.1320 0.7483 l
1.1340 0.7482 l
1.1360 0.7480 l
1.1380 0.7479 l
1.1400 0.7477 l
1.1420 0.7476 l
1.1440 0.7474 l
1.1460 0.7473 l
1.1480 0.7471 l
1.1500 0.7470 l
s
n
0.1435 0.4605 m
0.1435 0.4775 l
0.1605 0.4775 l
0.1605 0.4605 l
c
fill
[] 0 SD
0.0015 SLW
n
0.1435 0.4605 m
0.1435 0.4775 l
0.1605 0.4775 l
0.1605 0.4605 l
0.1435 0.4605 l
c
s
n
0.1955 0.4641 m
0.1955 0.4811 l
0.2125 0.4811 l
0.2125 0.4641 l
c
fill
n
0.1955 0.4641 m
0.1955 0.4811 l
0.2125 0.4811 l
0.2125 0.4641 l
0.1955 0.4641 l
c
s
n
0.2475 0.4744 m
0.2475 0.4914 l
0.2645 0.4914 l
0.2645 0.4744 l
c
fill
n
0.2475 0.4744 m
0.2475 0.4914 l
0.2645 0.4914 l
0.2645 0.4744 l
0.2475 0.4744 l
c
s
n
0.2995 0.4915 m
0.2995 0.5085 l
0.3165 0.5085 l
0.3165 0.4915 l
c
fill
n
0.2995 0.4915 m
0.2995 0.5085 l
0.3165 0.5085 l
0.3165 0.4915 l
0.2995 0.4915 l
c
s
n
0.3515 0.5153 m
0.3515 0.5323 l
0.3685 0.5323 l
0.3685 0.5153 l
c
fill
n
0.3515 0.5153 m
0.3515 0.5323 l
0.3685 0.5323 l
0.3685 0.5153 l
0.3515 0.5153 l
c
s
n
0.4035 0.5453 m
0.4035 0.5623 l
0.4205 0.5623 l
0.4205 0.5453 l
c
fill
n
0.4035 0.5453 m
0.4035 0.5623 l
0.4205 0.5623 l
0.4205 0.5453 l
0.4035 0.5453 l
c
s
n
0.4555 0.5806 m
0.4555 0.5976 l
0.4725 0.5976 l
0.4725 0.5806 l
c
fill
n
0.4555 0.5806 m
0.4555 0.5976 l
0.4725 0.5976 l
0.4725 0.5806 l
0.4555 0.5806 l
c
s
n
0.5075 0.6190 m
0.5075 0.6360 l
0.5245 0.6360 l
0.5245 0.6190 l
c
fill
n
0.5075 0.6190 m
0.5075 0.6360 l
0.5245 0.6360 l
0.5245 0.6190 l
0.5075 0.6190 l
c
s
n
0.5595 0.6576 m
0.5595 0.6746 l
0.5765 0.6746 l
0.5765 0.6576 l
c
fill
n
0.5595 0.6576 m
0.5595 0.6746 l
0.5765 0.6746 l
0.5765 0.6576 l
0.5595 0.6576 l
c
s
n
0.6115 0.6931 m
0.6115 0.7101 l
0.6285 0.7101 l
0.6285 0.6931 l
c
fill
n
0.6115 0.6931 m
0.6115 0.7101 l
0.6285 0.7101 l
0.6285 0.6931 l
0.6115 0.6931 l
c
s
n
0.6635 0.7223 m
0.6635 0.7393 l
0.6805 0.7393 l
0.6805 0.7223 l
c
fill
n
0.6635 0.7223 m
0.6635 0.7393 l
0.6805 0.7393 l
0.6805 0.7223 l
0.6635 0.7223 l
c
s
n
0.7155 0.7433 m
0.7155 0.7603 l
0.7325 0.7603 l
0.7325 0.7433 l
c
fill
n
0.7155 0.7433 m
0.7155 0.7603 l
0.7325 0.7603 l
0.7325 0.7433 l
0.7155 0.7433 l
c
s
n
0.7675 0.7559 m
0.7675 0.7729 l
0.7845 0.7729 l
0.7845 0.7559 l
c
fill
n
0.7675 0.7559 m
0.7675 0.7729 l
0.7845 0.7729 l
0.7845 0.7559 l
0.7675 0.7559 l
c
s
n
0.8195 0.7613 m
0.8195 0.7783 l
0.8365 0.7783 l
0.8365 0.7613 l
c
fill
n
0.8195 0.7613 m
0.8195 0.7783 l
0.8365 0.7783 l
0.8365 0.7613 l
0.8195 0.7613 l
c
s
n
0.8715 0.7614 m
0.8715 0.7784 l
0.8885 0.7784 l
0.8885 0.7614 l
c
fill
n
0.8715 0.7614 m
0.8715 0.7784 l
0.8885 0.7784 l
0.8885 0.7614 l
0.8715 0.7614 l
c
s
n
0.9235 0.7583 m
0.9235 0.7753 l
0.9405 0.7753 l
0.9405 0.7583 l
c
fill
n
0.9235 0.7583 m
0.9235 0.7753 l
0.9405 0.7753 l
0.9405 0.7583 l
0.9235 0.7583 l
c
s
n
0.9755 0.7536 m
0.9755 0.7706 l
0.9925 0.7706 l
0.9925 0.7536 l
c
fill
n
0.9755 0.7536 m
0.9755 0.7706 l
0.9925 0.7706 l
0.9925 0.7536 l
0.9755 0.7536 l
c
s
n
1.0275 0.7484 m
1.0275 0.7654 l
1.0445 0.7654 l
1.0445 0.7484 l
c
fill
n
1.0275 0.7484 m
1.0275 0.7654 l
1.0445 0.7654 l
1.0445 0.7484 l
1.0275 0.7484 l
c
s
n
1.0795 0.7435 m
1.0795 0.7605 l
1.0965 0.7605 l
1.0965 0.7435 l
c
fill
n
1.0795 0.7435 m
1.0795 0.7605 l
1.0965 0.7605 l
1.0965 0.7435 l
1.0795 0.7435 l
c
s
n
1.1315 0.7392 m
1.1315 0.7562 l
1.1485 0.7562 l
1.1485 0.7392 l
c
fill
n
1.1315 0.7392 m
1.1315 0.7562 l
1.1485 0.7562 l
1.1485 0.7392 l
1.1315 0.7392 l
c
s
[/DeviceRGB] SCS
Color4 SC
[0.0262 0.0112 ] 0 SD
0.0037 SLW
n
0.1520 0.6228 m
0.1540 0.6228 l
0.1560 0.6228 l
0.1580 0.6228 l
0.1600 0.6229 l
0.1620 0.6229 l
0.1640 0.6229 l
0.1660 0.6230 l
0.1680 0.6230 l
0.1700 0.6230 l
0.1720 0.6231 l
0.1740 0.6231 l
0.1760 0.6232 l
0.1780 0.6232 l
0.1800 0.6233 l
0.1820 0.6234 l
0.1840 0.6234 l
0.1860 0.6235 l
0.1880 0.6236 l
0.1900 0.6237 l
0.1920 0.6238 l
0.1940 0.6239 l
0.1960 0.6240 l
0.1980 0.6241 l
0.2000 0.6242 l
0.2020 0.6243 l
0.2040 0.6244 l
0.2060 0.6245 l
0.2080 0.6246 l
0.2100 0.6248 l
0.2120 0.6249 l
0.2140 0.6250 l
0.2160 0.6252 l
0.2180 0.6253 l
0.2200 0.6255 l
0.2220 0.6256 l
0.2240 0.6258 l
0.2260 0.6259 l
0.2280 0.6261 l
0.2300 0.6263 l
0.2320 0.6265 l
0.2340 0.6266 l
0.2360 0.6268 l
0.2380 0.6270 l
0.2400 0.6272 l
0.2420 0.6274 l
0.2440 0.6276 l
0.2460 0.6278 l
0.2480 0.6280 l
0.2500 0.6282 l
0.2520 0.6284 l
0.2540 0.6286 l
0.2560 0.6289 l
0.2580 0.6291 l
0.2600 0.6293 l
0.2620 0.6295 l
0.2640 0.6298 l
0.2660 0.6300 l
0.2680 0.6303 l
0.2700 0.6305 l
0.2720 0.6308 l
0.2740 0.6310 l
0.2760 0.6313 l
0.2780 0.6316 l
0.2800 0.6318 l
0.2820 0.6321 l
0.2840 0.6324 l
0.2860 0.6327 l
0.2880 0.6330 l
0.2900 0.6332 l
0.2920 0.6335 l
0.2940 0.6338 l
0.2960 0.6341 l
0.2980 0.6344 l
0.3000 0.6347 l
0.3020 0.6350 l
0.3040 0.6354 l
0.3060 0.6357 l
0.3080 0.6360 l
0.3100 0.6363 l
0.3120 0.6366 l
0.3140 0.6370 l
0.3160 0.6373 l
0.3180 0.6376 l
0.3200 0.6380 l
0.3220 0.6383 l
0.3240 0.6387 l
0.3260 0.6390 l
0.3280 0.6394 l
0.3300 0.6397 l
0.3320 0.6401 l
0.3340 0.6405 l
0.3360 0.6408 l
0.3380 0.6412 l
0.3400 0.6416 l
0.3420 0.6420 l
0.3440 0.6423 l
0.3460 0.6427 l
0.3480 0.6431 l
0.3500 0.6435 l
0.3520 0.6439 l
0.3540 0.6443 l
0.3560 0.6447 l
0.3580 0.6451 l
0.3600 0.6455 l
0.3620 0.6459 l
0.3640 0.6463 l
0.3660 0.6467 l
0.3680 0.6471 l
0.3700 0.6475 l
0.3720 0.6479 l
0.3740 0.6484 l
0.3760 0.6488 l
0.3780 0.6492 l
0.3800 0.6496 l
0.3820 0.6501 l
0.3840 0.6505 l
0.3860 0.6509 l
0.3880 0.6514 l
0.3900 0.6518 l
0.3920 0.6522 l
0.3940 0.6527 l
0.3960 0.6531 l
0.3980 0.6536 l
0.4000 0.6540 l
0.4020 0.6545 l
0.4040 0.6549 l
0.4060 0.6554 l
0.4080 0.6559 l
0.4100 0.6563 l
0.4120 0.6568 l
0.4140 0.6572 l
0.4160 0.6577 l
0.4180 0.6582 l
0.4200 0.6586 l
0.4220 0.6591 l
0.4240 0.6596 l
0.4260 0.6601 l
0.4280 0.6605 l
0.4300 0.6610 l
0.4320 0.6615 l
0.4340 0.6620 l
0.4360 0.6624 l
0.4380 0.6629 l
0.4400 0.6634 l
0.4420 0.6639 l
0.4440 0.6644 l
0.4460 0.6649 l
0.4480 0.6653 l
0.4500 0.6658 l
0.4520 0.6663 l
0.4540 0.6668 l
0.4560 0.6673 l
0.4580 0.6678 l
0.4600 0.6683 l
0.4620 0.6688 l
0.4640 0.6693 l
0.4660 0.6698 l
0.4680 0.6703 l
0.4700 0.6708 l
0.4720 0.6713 l
0.4740 0.6717 l
0.4760 0.6722 l
0.4780 0.6727 l
0.4800 0.6732 l
0.4820 0.6737 l
0.4840 0.6742 l
0.4860 0.6747 l
0.4880 0.6752 l
0.4900 0.6757 l
0.4920 0.6762 l
0.4940 0.6767 l
0.4960 0.6772 l
0.4980 0.6777 l
0.5000 0.6782 l
0.5020 0.6787 l
0.5040 0.6792 l
0.5060 0.6797 l
0.5080 0.6802 l
0.5100 0.6807 l
0.5120 0.6812 l
0.5140 0.6817 l
0.5160 0.6822 l
0.5180 0.6827 l
0.5200 0.6832 l
0.5220 0.6837 l
0.5240 0.6842 l
0.5260 0.6847 l
0.5280 0.6852 l
0.5300 0.6856 l
0.5320 0.6861 l
0.5340 0.6866 l
0.5360 0.6871 l
0.5380 0.6876 l
0.5400 0.6881 l
0.5420 0.6886 l
0.5440 0.6890 l
0.5460 0.6895 l
0.5480 0.6900 l
0.5500 0.6905 l
0.5520 0.6910 l
0.5540 0.6914 l
0.5560 0.6919 l
0.5580 0.6924 l
0.5600 0.6929 l
0.5620 0.6933 l
0.5640 0.6938 l
0.5660 0.6943 l
0.5680 0.6947 l
0.5700 0.6952 l
0.5720 0.6957 l
0.5740 0.6961 l
0.5760 0.6966 l
0.5780 0.6970 l
0.5800 0.6975 l
0.5820 0.6980 l
0.5840 0.6984 l
0.5860 0.6989 l
0.5880 0.6993 l
0.5900 0.6998 l
0.5920 0.7002 l
0.5940 0.7006 l
0.5960 0.7011 l
0.5980 0.7015 l
0.6000 0.7020 l
0.6020 0.7024 l
0.6040 0.7028 l
0.6060 0.7032 l
0.6080 0.7037 l
0.6100 0.7041 l
0.6120 0.7045 l
0.6140 0.7049 l
0.6160 0.7054 l
0.6180 0.7058 l
0.6200 0.7062 l
0.6220 0.7066 l
0.6240 0.7070 l
0.6260 0.7074 l
0.6280 0.7078 l
0.6300 0.7082 l
0.6320 0.7086 l
0.6340 0.7090 l
0.6360 0.7094 l
0.6380 0.7098 l
0.6400 0.7102 l
0.6420 0.7105 l
0.6440 0.7109 l
0.6460 0.7113 l
0.6480 0.7117 l
0.6500 0.7120 l
0.6520 0.7124 l
0.6540 0.7128 l
0.6560 0.7131 l
0.6580 0.7135 l
0.6600 0.7138 l
0.6620 0.7142 l
0.6640 0.7146 l
0.6660 0.7149 l
0.6680 0.7152 l
0.6700 0.7156 l
0.6720 0.7159 l
0.6740 0.7163 l
0.6760 0.7166 l
0.6780 0.7169 l
0.6800 0.7173 l
0.6820 0.7176 l
0.6840 0.7179 l
0.6860 0.7182 l
0.6880 0.7185 l
0.6900 0.7188 l
0.6920 0.7192 l
0.6940 0.7195 l
0.6960 0.7198 l
0.6980 0.7201 l
0.7000 0.7204 l
0.7020 0.7207 l
0.7040 0.7209 l
0.7060 0.7212 l
0.7080 0.7215 l
0.7100 0.7218 l
0.7120 0.7221 l
0.7140 0.7224 l
0.7160 0.7226 l
0.7180 0.7229 l
0.7200 0.7232 l
0.7220 0.7234 l
0.7240 0.7237 l
0.7260 0.7239 l
0.7280 0.7242 l
0.7300 0.7244 l
0.7320 0.7247 l
0.7340 0.7249 l
0.7360 0.7252 l
0.7380 0.7254 l
0.7400 0.7257 l
0.7420 0.7259 l
0.7440 0.7261 l
0.7460 0.7263 l
0.7480 0.7266 l
0.7500 0.7268 l
0.7520 0.7270 l
0.7540 0.7272 l
0.7560 0.7274 l
0.7580 0.7276 l
0.7600 0.7278 l
0.7620 0.7280 l
0.7640 0.7282 l
0.7660 0.7284 l
0.7680 0.7286 l
0.7700 0.7288 l
0.7720 0.7290 l
0.7740 0.7292 l
0.7760 0.7294 l
0.7780 0.7296 l
0.7800 0.7297 l
0.7820 0.7299 l
0.7840 0.7301 l
0.7860 0.7303 l
0.7880 0.7304 l
0.7900 0.7306 l
0.7920 0.7307 l
0.7940 0.7309 l
0.7960 0.7311 l
0.7980 0.7312 l
0.8000 0.7314 l
0.8020 0.7315 l
0.8040 0.7317 l
0.8060 0.7318 l
0.8080 0.7319 l
0.8100 0.7321 l
0.8120 0.7322 l
0.8140 0.7323 l
0.8160 0.7325 l
0.8180 0.7326 l
0.8200 0.7327 l
0.8220 0.7329 l
0.8240 0.7330 l
0.8260 0.7331 l
0.8280 0.7332 l
0.8300 0.7333 l
0.8320 0.7334 l
0.8340 0.7335 l
0.8360 0.7336 l
0.8380 0.7338 l
0.8400 0.7339 l
0.8420 0.7340 l
0.8440 0.7341 l
0.8460 0.7342 l
0.8480 0.7342 l
0.8500 0.7343 l
0.8520 0.7344 l
0.8540 0.7345 l
0.8560 0.7346 l
0.8580 0.7347 l
0.8600 0.7348 l
0.8620 0.7348 l
0.8640 0.7349 l
0.8660 0.7350 l
0.8680 0.7351 l
0.8700 0.7351 l
0.8720 0.7352 l
0.8740 0.7353 l
0.8760 0.7354 l
0.8780 0.7354 l
0.8800 0.7355 l
0.8820 0.7355 l
0.8840 0.7356 l
0.8860 0.7357 l
0.8880 0.7357 l
0.8900 0.7358 l
0.8920 0.7358 l
0.8940 0.7359 l
0.8960 0.7359 l
0.8980 0.7360 l
0.9000 0.7360 l
0.9020 0.7361 l
0.9040 0.7361 l
0.9060 0.7362 l
0.9080 0.7362 l
0.9100 0.7362 l
0.9120 0.7363 l
0.9140 0.7363 l
0.9160 0.7363 l
0.9180 0.7364 l
0.9200 0.7364 l
0.9220 0.7364 l
0.9240 0.7365 l
0.9260 0.7365 l
0.9280 0.7365 l
0.9300 0.7366 l
0.9320 0.7366 l
0.9340 0.7366 l
0.9360 0.7366 l
0.9380 0.7367 l
0.9400 0.7367 l
0.9420 0.7367 l
0.9440 0.7367 l
0.9460 0.7367 l
0.9480 0.7367 l
0.9500 0.7368 l
0.9520 0.7368 l
0.9540 0.7368 l
0.9560 0.7368 l
0.9580 0.7368 l
0.9600 0.7368 l
0.9620 0.7368 l
0.9640 0.7368 l
0.9660 0.7369 l
0.9680 0.7369 l
0.9700 0.7369 l
0.9720 0.7369 l
0.9740 0.7369 l
0.9760 0.7369 l
0.9780 0.7369 l
0.9800 0.7369 l
0.9820 0.7369 l
0.9840 0.7369 l
0.9860 0.7369 l
0.9880 0.7369 l
0.9900 0.7369 l
0.9920 0.7369 l
0.9940 0.7369 l
0.9960 0.7369 l
0.9980 0.7369 l
1.0000 0.7369 l
1.0020 0.7369 l
1.0040 0.7369 l
1.0060 0.7369 l
1.0080 0.7369 l
1.0100 0.7368 l
1.0120 0.7368 l
1.0140 0.7368 l
1.0160 0.7368 l
1.0180 0.7368 l
1.0200 0.7368 l
1.0220 0.7368 l
1.0240 0.7368 l
1.0260 0.7368 l
1.0280 0.7368 l
1.0300 0.7368 l
1.0320 0.7367 l
1.0340 0.7367 l
1.0360 0.7367 l
1.0380 0.7367 l
1.0400 0.7367 l
1.0420 0.7367 l
1.0440 0.7367 l
1.0460 0.7366 l
1.0480 0.7366 l
1.0500 0.7366 l
1.0520 0.7366 l
1.0540 0.7366 l
1.0560 0.7366 l
1.0580 0.7366 l
1.0600 0.7365 l
1.0620 0.7365 l
1.0640 0.7365 l
1.0660 0.7365 l
1.0680 0.7365 l
1.0700 0.7365 l
1.0720 0.7364 l
1.0740 0.7364 l
1.0760 0.7364 l
1.0780 0.7364 l
1.0800 0.7364 l
1.0820 0.7363 l
1.0840 0.7363 l
1.0860 0.7363 l
1.0880 0.7363 l
1.0900 0.7363 l
1.0920 0.7363 l
1.0940 0.7362 l
1.0960 0.7362 l
1.0980 0.7362 l
1.1000 0.7362 l
1.1020 0.7362 l
1.1040 0.7361 l
1.1060 0.7361 l
1.1080 0.7361 l
1.1100 0.7361 l
1.1120 0.7361 l
1.1140 0.7360 l
1.1160 0.7360 l
1.1180 0.7360 l
1.1200 0.7360 l
1.1220 0.7360 l
1.1240 0.7359 l
1.1260 0.7359 l
1.1280 0.7359 l
1.1300 0.7359 l
1.1320 0.7359 l
1.1340 0.7358 l
1.1360 0.7358 l
1.1380 0.7358 l
1.1400 0.7358 l
1.1420 0.7358 l
1.1440 0.7357 l
1.1460 0.7357 l
1.1480 0.7357 l
1.1500 0.7357 l
s
n
0.1435 0.6143 m
0.1435 0.6313 l
0.1605 0.6313 l
0.1605 0.6143 l
c
GS
Color0 SRGB
fill
GR
[/Pattern /DeviceRGB] SCS
Color4 Pattern8 SC
fill
[/DeviceRGB] SCS
Color4 SC
[] 0 SD
0.0037 SLW
n
0.1435 0.6143 m
0.1435 0.6313 l
0.1605 0.6313 l
0.1605 0.6143 l
0.1435 0.6143 l
c
s
n
0.1955 0.6159 m
0.1955 0.6329 l
0.2125 0.6329 l
0.2125 0.6159 l
c
GS
Color0 SRGB
fill
GR
[/Pattern /DeviceRGB] SCS
Color4 Pattern8 SC
fill
[/DeviceRGB] SCS
Color4 SC
n
0.1955 0.6159 m
0.1955 0.6329 l
0.2125 0.6329 l
0.2125 0.6159 l
0.1955 0.6159 l
c
s
n
0.2475 0.6204 m
0.2475 0.6374 l
0.2645 0.6374 l
0.2645 0.6204 l
c
GS
Color0 SRGB
fill
GR
[/Pattern /DeviceRGB] SCS
Color4 Pattern8 SC
fill
[/DeviceRGB] SCS
Color4 SC
n
0.2475 0.6204 m
0.2475 0.6374 l
0.2645 0.6374 l
0.2645 0.6204 l
0.2475 0.6204 l
c
s
n
0.2995 0.6275 m
0.2995 0.6445 l
0.3165 0.6445 l
0.3165 0.6275 l
c
GS
Color0 SRGB
fill
GR
[/Pattern /DeviceRGB] SCS
Color4 Pattern8 SC
fill
[/DeviceRGB] SCS
Color4 SC
n
0.2995 0.6275 m
0.2995 0.6445 l
0.3165 0.6445 l
0.3165 0.6275 l
0.2995 0.6275 l
c
s
n
0.3515 0.6370 m
0.3515 0.6540 l
0.3685 0.6540 l
0.3685 0.6370 l
c
GS
Color0 SRGB
fill
GR
[/Pattern /DeviceRGB] SCS
Color4 Pattern8 SC
fill
[/DeviceRGB] SCS
Color4 SC
n
0.3515 0.6370 m
0.3515 0.6540 l
0.3685 0.6540 l
0.3685 0.6370 l
0.3515 0.6370 l
c
s
n
0.4035 0.6483 m
0.4035 0.6653 l
0.4205 0.6653 l
0.4205 0.6483 l
c
GS
Color0 SRGB
fill
GR
[/Pattern /DeviceRGB] SCS
Color4 Pattern8 SC
fill
[/DeviceRGB] SCS
Color4 SC
n
0.4035 0.6483 m
0.4035 0.6653 l
0.4205 0.6653 l
0.4205 0.6483 l
0.4035 0.6483 l
c
s
n
0.4555 0.6608 m
0.4555 0.6778 l
0.4725 0.6778 l
0.4725 0.6608 l
c
GS
Color0 SRGB
fill
GR
[/Pattern /DeviceRGB] SCS
Color4 Pattern8 SC
fill
[/DeviceRGB] SCS
Color4 SC
n
0.4555 0.6608 m
0.4555 0.6778 l
0.4725 0.6778 l
0.4725 0.6608 l
0.4555 0.6608 l
c
s
n
0.5075 0.6737 m
0.5075 0.6907 l
0.5245 0.6907 l
0.5245 0.6737 l
c
GS
Color0 SRGB
fill
GR
[/Pattern /DeviceRGB] SCS
Color4 Pattern8 SC
fill
[/DeviceRGB] SCS
Color4 SC
n
0.5075 0.6737 m
0.5075 0.6907 l
0.5245 0.6907 l
0.5245 0.6737 l
0.5075 0.6737 l
c
s
n
0.5595 0.6862 m
0.5595 0.7032 l
0.5765 0.7032 l
0.5765 0.6862 l
c
GS
Color0 SRGB
fill
GR
[/Pattern /DeviceRGB] SCS
Color4 Pattern8 SC
fill
[/DeviceRGB] SCS
Color4 SC
n
0.5595 0.6862 m
0.5595 0.7032 l
0.5765 0.7032 l
0.5765 0.6862 l
0.5595 0.6862 l
c
s
n
0.6115 0.6977 m
0.6115 0.7147 l
0.6285 0.7147 l
0.6285 0.6977 l
c
GS
Color0 SRGB
fill
GR
[/Pattern /DeviceRGB] SCS
Color4 Pattern8 SC
fill
[/DeviceRGB] SCS
Color4 SC
n
0.6115 0.6977 m
0.6115 0.7147 l
0.6285 0.7147 l
0.6285 0.6977 l
0.6115 0.6977 l
c
s
n
0.6635 0.7074 m
0.6635 0.7244 l
0.6805 0.7244 l
0.6805 0.7074 l
c
GS
Color0 SRGB
fill
GR
[/Pattern /DeviceRGB] SCS
Color4 Pattern8 SC
fill
[/DeviceRGB] SCS
Color4 SC
n
0.6635 0.7074 m
0.6635 0.7244 l
0.6805 0.7244 l
0.6805 0.7074 l
0.6635 0.7074 l
c
s
n
0.7155 0.7152 m
0.7155 0.7322 l
0.7325 0.7322 l
0.7325 0.7152 l
c
GS
Color0 SRGB
fill
GR
[/Pattern /DeviceRGB] SCS
Color4 Pattern8 SC
fill
[/DeviceRGB] SCS
Color4 SC
n
0.7155 0.7152 m
0.7155 0.7322 l
0.7325 0.7322 l
0.7325 0.7152 l
0.7155 0.7152 l
c
s
n
0.7675 0.7209 m
0.7675 0.7379 l
0.7845 0.7379 l
0.7845 0.7209 l
c
GS
Color0 SRGB
fill
GR
[/Pattern /DeviceRGB] SCS
Color4 Pattern8 SC
fill
[/DeviceRGB] SCS
Color4 SC
n
0.7675 0.7209 m
0.7675 0.7379 l
0.7845 0.7379 l
0.7845 0.7209 l
0.7675 0.7209 l
c
s
n
0.8195 0.7247 m
0.8195 0.7417 l
0.8365 0.7417 l
0.8365 0.7247 l
c
GS
Color0 SRGB
fill
GR
[/Pattern /DeviceRGB] SCS
Color4 Pattern8 SC
fill
[/DeviceRGB] SCS
Color4 SC
n
0.8195 0.7247 m
0.8195 0.7417 l
0.8365 0.7417 l
0.8365 0.7247 l
0.8195 0.7247 l
c
s
n
0.8715 0.7270 m
0.8715 0.7440 l
0.8885 0.7440 l
0.8885 0.7270 l
c
GS
Color0 SRGB
fill
GR
[/Pattern /DeviceRGB] SCS
Color4 Pattern8 SC
fill
[/DeviceRGB] SCS
Color4 SC
n
0.8715 0.7270 m
0.8715 0.7440 l
0.8885 0.7440 l
0.8885 0.7270 l
0.8715 0.7270 l
c
s
n
0.9235 0.7281 m
0.9235 0.7451 l
0.9405 0.7451 l
0.9405 0.7281 l
c
GS
Color0 SRGB
fill
GR
[/Pattern /DeviceRGB] SCS
Color4 Pattern8 SC
fill
[/DeviceRGB] SCS
Color4 SC
n
0.9235 0.7281 m
0.9235 0.7451 l
0.9405 0.7451 l
0.9405 0.7281 l
0.9235 0.7281 l
c
s
n
0.9755 0.7284 m
0.9755 0.7454 l
0.9925 0.7454 l
0.9925 0.7284 l
c
GS
Color0 SRGB
fill
GR
[/Pattern /DeviceRGB] SCS
Color4 Pattern8 SC
fill
[/DeviceRGB] SCS
Color4 SC
n
0.9755 0.7284 m
0.9755 0.7454 l
0.9925 0.7454 l
0.9925 0.7284 l
0.9755 0.7284 l
c
s
n
1.0275 0.7282 m
1.0275 0.7452 l
1.0445 0.7452 l
1.0445 0.7282 l
c
GS
Color0 SRGB
fill
GR
[/Pattern /DeviceRGB] SCS
Color4 Pattern8 SC
fill
[/DeviceRGB] SCS
Color4 SC
n
1.0275 0.7282 m
1.0275 0.7452 l
1.0445 0.7452 l
1.0445 0.7282 l
1.0275 0.7282 l
c
s
n
1.0795 0.7278 m
1.0795 0.7448 l
1.0965 0.7448 l
1.0965 0.7278 l
c
GS
Color0 SRGB
fill
GR
[/Pattern /DeviceRGB] SCS
Color4 Pattern8 SC
fill
[/DeviceRGB] SCS
Color4 SC
n
1.0795 0.7278 m
1.0795 0.7448 l
1.0965 0.7448 l
1.0965 0.7278 l
1.0795 0.7278 l
c
s
n
1.1315 0.7273 m
1.1315 0.7443 l
1.1485 0.7443 l
1.1485 0.7273 l
c
GS
Color0 SRGB
fill
GR
[/Pattern /DeviceRGB] SCS
Color4 Pattern8 SC
fill
[/DeviceRGB] SCS
Color4 SC
n
1.1315 0.7273 m
1.1315 0.7443 l
1.1485 0.7443 l
1.1485 0.7273 l
1.1315 0.7273 l
c
s
[/DeviceRGB] SCS
Color1 SC
[] 0 SD
0.0045 SLW
n
0.1500 0.1500 m
1.1500 0.1500 l
s
n
0.1500 0.8500 m
1.1500 0.8500 l
s
n
0.2500 0.1500 m
0.2500 0.1600 l
s
n
0.2500 0.8500 m
0.2500 0.8400 l
s
n
0.4500 0.1500 m
0.4500 0.1600 l
s
n
0.4500 0.8500 m
0.4500 0.8400 l
s
n
0.6500 0.1500 m
0.6500 0.1600 l
s
n
0.6500 0.8500 m
0.6500 0.8400 l
s
n
0.8500 0.1500 m
0.8500 0.1600 l
s
n
0.8500 0.8500 m
0.8500 0.8400 l
s
n
1.0500 0.1500 m
1.0500 0.1600 l
s
n
1.0500 0.8500 m
1.0500 0.8400 l
s
n
0.1500 0.1500 m
0.1500 0.1700 l
s
n
0.1500 0.8500 m
0.1500 0.8300 l
s
n
0.3500 0.1500 m
0.3500 0.1700 l
s
n
0.3500 0.8500 m
0.3500 0.8300 l
s
n
0.5500 0.1500 m
0.5500 0.1700 l
s
n
0.5500 0.8500 m
0.5500 0.8300 l
s
n
0.7500 0.1500 m
0.7500 0.1700 l
s
n
0.7500 0.8500 m
0.7500 0.8300 l
s
n
0.9500 0.1500 m
0.9500 0.1700 l
s
n
0.9500 0.8500 m
0.9500 0.8300 l
s
n
1.1500 0.1500 m
1.1500 0.1700 l
s
n
1.1500 0.8500 m
1.1500 0.8300 l
s
/Times-Roman findfont
dup length dict begin
 {1 index /FID ne {def} {pop pop} ifelse} forall
 /Encoding DefEncoding def
 currentdict
end
/Font0 exch definefont pop
/Font0 FFSF
0.1394 0.1094 m
GS
[0.0448 0.0000 0.0000 0.0448 0 0] CC
(0) show
GR
/Font0 FFSF
0.3412 0.1094 m
GS
[0.0448 0.0000 0.0000 0.0448 0 0] CC
(1) show
GR
/Font0 FFSF
0.5394 0.1094 m
GS
[0.0448 0.0000 0.0000 0.0448 0 0] CC
(2) show
GR
/Font0 FFSF
0.7402 0.1094 m
GS
[0.0448 0.0000 0.0000 0.0448 0 0] CC
(3) show
GR
/Font0 FFSF
0.9394 0.1094 m
GS
[0.0448 0.0000 0.0000 0.0448 0 0] CC
(4) show
GR
/Font0 FFSF
1.1402 0.1090 m
GS
[0.0448 0.0000 0.0000 0.0448 0 0] CC
(5) show
GR
/Font0 FFSF
0.5735 0.0441 m
GS
[0.0504 0.0000 0.0000 0.0504 0 0] CC
(k [fm) show
GR
/Font0 FFSF
0.6841 0.0743 m
GS
[0.0356 0.0000 0.0000 0.0356 0 0] CC
(-1) show
GR
/Font0 FFSF
0.7139 0.0441 m
GS
[0.0504 0.0000 0.0000 0.0504 0 0] CC
(]) show
GR
n
0.1500 0.1500 m
0.1500 0.8500 l
s
n
1.1500 0.1500 m
1.1500 0.8500 l
s
n
0.1500 0.2083 m
0.1600 0.2083 l
s
n
1.1500 0.2083 m
1.1400 0.2083 l
s
n
0.1500 0.3250 m
0.1600 0.3250 l
s
n
1.1500 0.3250 m
1.1400 0.3250 l
s
n
0.1500 0.4417 m
0.1600 0.4417 l
s
n
1.1500 0.4417 m
1.1400 0.4417 l
s
n
0.1500 0.5583 m
0.1600 0.5583 l
s
n
1.1500 0.5583 m
1.1400 0.5583 l
s
n
0.1500 0.6750 m
0.1600 0.6750 l
s
n
1.1500 0.6750 m
1.1400 0.6750 l
s
n
0.1500 0.7917 m
0.1600 0.7917 l
s
n
1.1500 0.7917 m
1.1400 0.7917 l
s
n
0.1500 0.1500 m
0.1700 0.1500 l
s
n
1.1500 0.1500 m
1.1300 0.1500 l
s
n
0.1500 0.2667 m
0.1700 0.2667 l
s
n
1.1500 0.2667 m
1.1300 0.2667 l
s
n
0.1500 0.3833 m
0.1700 0.3833 l
s
n
1.1500 0.3833 m
1.1300 0.3833 l
s
n
0.1500 0.5000 m
0.1700 0.5000 l
s
n
1.1500 0.5000 m
1.1300 0.5000 l
s
n
0.1500 0.6167 m
0.1700 0.6167 l
s
n
1.1500 0.6167 m
1.1300 0.6167 l
s
n
0.1500 0.7333 m
0.1700 0.7333 l
s
n
1.1500 0.7333 m
1.1300 0.7333 l
s
/Font0 FFSF
0.1188 0.1351 m
GS
[0.0448 0.0000 0.0000 0.0448 0 0] CC
(0) show
GR
/Font0 FFSF
0.0851 0.2518 m
GS
[0.0448 0.0000 0.0000 0.0448 0 0] CC
(0.2) show
GR
/Font0 FFSF
0.0851 0.3684 m
GS
[0.0448 0.0000 0.0000 0.0448 0 0] CC
(0.4) show
GR
/Font0 FFSF
0.0855 0.4851 m
GS
[0.0448 0.0000 0.0000 0.0448 0 0] CC
(0.6) show
GR
/Font0 FFSF
0.0863 0.6018 m
GS
[0.0448 0.0000 0.0000 0.0448 0 0] CC
(0.8) show
GR
/Font0 FFSF
0.1224 0.7180 m
GS
[0.0448 0.0000 0.0000 0.0448 0 0] CC
(1) show
GR
/Font0 FFSF
0.0545 0.4235 m
GS
[0.0000 0.0504 -0.0504 0.0000 0 0] CC
(m) show
GR
/Font0 FFSF
0.0243 0.4627 m
GS
[0.0000 0.0356 -0.0356 0.0000 0 0] CC
(*) show
GR
/Font0 FFSF
0.0747 0.4804 m
GS
[0.0000 0.0356 -0.0356 0.0000 0 0] CC
(n) show
GR
/Font0 FFSF
0.0545 0.4980 m
GS
[0.0000 0.0504 -0.0504 0.0000 0 0] CC
(/m) show
GR
/Font0 FFSF
0.0747 0.5514 m
GS
[0.0000 0.0356 -0.0356 0.0000 0 0] CC
(N) show
GR
[] 0 SD
0.0015 SLW
n
0.1500 0.1500 m
0.1500 0.8500 l
1.1500 0.8500 l
1.1500 0.1500 l
0.1500 0.1500 l
c
s
n
0.6500 0.4000 m
0.6500 0.2080 l
1.1085 0.2080 l
1.1085 0.4000 l
c
[/DeviceRGB] SCS
Color0 SC
fill
/Font0 FFSF
[/DeviceRGB] SCS
Color1 SC
0.7519 0.3551 m
GS
[0.0510 0.0000 0.0000 0.0510 0 0] CC
(3 Gaussian SNM) show
GR
[] 0 SD
0.0045 SLW
n
0.6719 0.3722 m
0.7319 0.3722 l
s
n
0.6719 0.3722 0.0100 0.0100 0 360 EARC c
fill
[] 0 SD
0.0015 SLW
n 0.6719 0.3722 0.0100 0.0100 0 360 EARC s
n
0.7319 0.3722 0.0100 0.0100 0 360 EARC c
fill
n 0.7319 0.3722 0.0100 0.0100 0 360 EARC s
/Font0 FFSF
0.7519 0.3094 m
GS
[0.0510 0.0000 0.0000 0.0510 0 0] CC
(3 Gaussian PNM) show
GR
[/DeviceRGB] SCS
Color2 SC
[0.0225 0.0135 ] 0 SD
0.0045 SLW
n
0.6719 0.3265 m
0.7319 0.3265 l
s
n
0.6719 0.3265 0.0100 0.0100 0 360 EARC c
GS
Color0 SRGB
fill
GR
[/Pattern /DeviceRGB] SCS
Color2 Pattern8 SC
fill
[/DeviceRGB] SCS
Color2 SC
[] 0 SD
0.0037 SLW
n 0.6719 0.3265 0.0100 0.0100 0 360 EARC s
n
0.7319 0.3265 0.0100 0.0100 0 360 EARC c
GS
Color0 SRGB
fill
GR
[/Pattern /DeviceRGB] SCS
Color2 Pattern8 SC
fill
[/DeviceRGB] SCS
Color2 SC
n 0.7319 0.3265 0.0100 0.0100 0 360 EARC s
/Font0 FFSF
[/DeviceRGB] SCS
Color1 SC
0.7519 0.2641 m
GS
[0.0510 0.0000 0.0000 0.0510 0 0] CC
(D1S SNM) show
GR
[/DeviceRGB] SCS
Color3 SC
n
0.6719 0.2810 m
0.7319 0.2810 l
s
n
0.6634 0.2725 m
0.6634 0.2895 l
0.6804 0.2895 l
0.6804 0.2725 l
c
fill
[] 0 SD
0.0015 SLW
n
0.6634 0.2725 m
0.6634 0.2895 l
0.6804 0.2895 l
0.6804 0.2725 l
0.6634 0.2725 l
c
s
n
0.7234 0.2725 m
0.7234 0.2895 l
0.7404 0.2895 l
0.7404 0.2725 l
c
fill
n
0.7234 0.2725 m
0.7234 0.2895 l
0.7404 0.2895 l
0.7404 0.2725 l
0.7234 0.2725 l
c
s
/Font0 FFSF
[/DeviceRGB] SCS
Color1 SC
0.7519 0.2188 m
GS
[0.0510 0.0000 0.0000 0.0510 0 0] CC
(D1S PNM) show
GR
[/DeviceRGB] SCS
Color4 SC
[0.0262 0.0112 ] 0 SD
0.0037 SLW
n
0.6719 0.2357 m
0.7319 0.2357 l
s
n
0.6634 0.2272 m
0.6634 0.2442 l
0.6804 0.2442 l
0.6804 0.2272 l
c
GS
Color0 SRGB
fill
GR
[/Pattern /DeviceRGB] SCS
Color4 Pattern8 SC
fill
[/DeviceRGB] SCS
Color4 SC
[] 0 SD
0.0037 SLW
n
0.6634 0.2272 m
0.6634 0.2442 l
0.6804 0.2442 l
0.6804 0.2272 l
0.6634 0.2272 l
c
s
n
0.7234 0.2272 m
0.7234 0.2442 l
0.7404 0.2442 l
0.7404 0.2272 l
c
GS
Color0 SRGB
fill
GR
[/Pattern /DeviceRGB] SCS
Color4 Pattern8 SC
fill
[/DeviceRGB] SCS
Color4 SC
n
0.7234 0.2272 m
0.7234 0.2442 l
0.7404 0.2442 l
0.7404 0.2272 l
0.7234 0.2272 l
c
s
showpage
%%PageTrailer
%%Trailer
%%DocumentNeededResources: font Times-Roman
%%EOF
