%!PS-Adobe-3.0 EPSF-3.0
%%BoundingBox: (atend)
%%LanguageLevel: 2
%%Creator: Grace-5.1.22
%%CreationDate: Wed Nov 25 11:20:38 2015
%%DocumentData: Clean8Bit
%%Orientation: Portrait
%%Title: D1ST2a.agr
%%For: navarro
%%DocumentNeededResources: (atend)
%%EndComments
%%BeginProlog
/m {moveto} def
/l {lineto} def
/s {stroke} def
/n {newpath} def
/c {closepath} def
/RL {rlineto} def
/SLW {setlinewidth} def
/GS {gsave} def
/GR {grestore} def
/SC {setcolor} def
/SGRY {setgray} def
/SRGB {setrgbcolor} def
/SD {setdash} def
/SLC {setlinecap} def
/SLJ {setlinejoin} def
/SCS {setcolorspace} def
/FFSF {findfont setfont} def
/CC {concat} def
/PXL {n m 0 0 RL s} def
/Color0 {1.0000 1.0000 1.0000} def
/Color1 {0.0000 0.0000 0.0000} def
/Color2 {1.0000 0.0000 0.0000} def
/Color3 {0.0000 1.0000 0.0000} def
/Color4 {0.0000 0.0000 1.0000} def
/Color5 {1.0000 1.0000 0.0000} def
/Color6 {0.7373 0.5608 0.5608} def
/Color7 {0.8627 0.8627 0.8627} def
/Color8 {0.5804 0.0000 0.8275} def
/Color9 {0.0000 1.0000 1.0000} def
/Color10 {1.0000 0.0000 1.0000} def
/Color11 {1.0000 0.6471 0.0000} def
/Color12 {0.4471 0.1294 0.7373} def
/Color13 {0.4039 0.0275 0.2824} def
/Color14 {0.2510 0.8784 0.8157} def
/Color15 {0.0000 0.5451 0.0000} def
/Color16 {0.7529 0.7529 0.7529} def
/Color17 {0.5059 0.5059 0.5059} def
/Color18 {0.2588 0.2588 0.2588} def
/PTRN {
 /pat_bits exch def 
 <<
  /PaintType 2
  /PatternType 1 /TilingType 1
  /BBox[0 0 16 16]
  /XStep 16 /YStep 16
  /PaintProc {
   pop
   16 16 true [-1 0 0 -1 16 16] pat_bits imagemask
  }
 >>
 [0.0016 0 0 0.0016 0 0]
 makepattern
} def
/Pattern0 {<0000000000000000000000000000000000000000000000000000000000000000> PTRN} bind def
/Pattern1 {<ffffffffffffffffffffffffffffffffffffffffffffffffffffffffffffffff> PTRN} bind def
/Pattern2 {<eeeeffffbbbbffffeeeeffffbbbbffffeeeeffffbbbbffffeeeeffffbbbbffff> PTRN} bind def
/Pattern3 {<eeeebbbbeeeebbbbeeeebbbbeeeebbbbeeeebbbbeeeebbbbeeeebbbbeeeebbbb> PTRN} bind def
/Pattern4 {<5555aaaa5555aaaa5555aaaa5555aaaa5555aaaa5555aaaa5555aaaa5555aaaa> PTRN} bind def
/Pattern5 {<1111444411114444111144441111444411114444111144441111444411114444> PTRN} bind def
/Pattern6 {<1111000044440000111100004444000011110000444400001111000044440000> PTRN} bind def
/Pattern7 {<1010000000000000010100000000000010100000000000000101000000000000> PTRN} bind def
/Pattern8 {<0000000000000000000000000000000000000000000000000000000000000000> PTRN} bind def
/Pattern9 {<1e1e0f0f8787c3c3e1e1f0f078783c3c1e1e0f0f8787c3c3e1e1f0f078783c3c> PTRN} bind def
/Pattern10 {<7878f0f0e1e1c3c387870f0f1e1e3c3c7878f0f0e1e1c3c387870f0f1e1e3c3c> PTRN} bind def
/Pattern11 {<3333333333333333333333333333333333333333333333333333333333333333> PTRN} bind def
/Pattern12 {<ffffffff00000000ffffffff00000000ffffffff00000000ffffffff00000000> PTRN} bind def
/Pattern13 {<8181424224241818181824244242818181814242242418181818242442428181> PTRN} bind def
/Pattern14 {<8080404020201010080804040202010180804040202010100808040402020101> PTRN} bind def
/Pattern15 {<0101020204040808101020204040808001010202040408081010202040408080> PTRN} bind def
/Pattern16 {<2222222222222222222222222222222222222222222222222222222222222222> PTRN} bind def
/Pattern17 {<0000ffff000000000000ffff000000000000ffff000000000000ffff00000000> PTRN} bind def
/Pattern18 {<2222ffff222222222222ffff222222222222ffff222222222222ffff22222222> PTRN} bind def
/Pattern19 {<ffffffff33333333ffffffff33333333ffffffff33333333ffffffff33333333> PTRN} bind def
/Pattern20 {<0f0f0f0f0f0f0f0ff0f0f0f0f0f0f0f00f0f0f0f0f0f0f0ff0f0f0f0f0f0f0f0> PTRN} bind def
/Pattern21 {<ff00ff00ff00ff00ff00ff00ff00ff0000ff00ff00ff00ff00ff00ff00ff00ff> PTRN} bind def
/Pattern22 {<8001800180018001800180018001ffffffff8001800180018001800180018001> PTRN} bind def
/Pattern23 {<c003c003c003c003c003c003ffffffffffffffffc003c003c003c003c003c003> PTRN} bind def
/Pattern24 {<040404040404ffff404040404040ffff040404040404ffff404040404040ffff> PTRN} bind def
/Pattern25 {<180018001800180018001800ffffffff001800180018001800180018ffffffff> PTRN} bind def
/Pattern26 {<1111b8b87c7c3a3a1111a3a3c7c78b8b1111b8b87c7c3a3a1111a3a3c7c78b8b> PTRN} bind def
/Pattern27 {<101010102828c7c70101010182827c7c101010102828c7c70101010182827c7c> PTRN} bind def
/Pattern28 {<1c1c121211112121c1c12121111112121c1c121211112121c1c1212111111212> PTRN} bind def
/Pattern29 {<3e3e414180808080e3e31414080808083e3e414180808080e3e3141408080808> PTRN} bind def
/Pattern30 {<4848888884848383848488884848383848488888848483838484888848483838> PTRN} bind def
/Pattern31 {<03030404080808080c0c12122121c0c003030404080808080c0c12122121c0c0> PTRN} bind def
/ellipsedict 8 dict def
ellipsedict /mtrx matrix put
/EARC {
 ellipsedict begin
  /endangle exch def
  /startangle exch def
  /yrad exch def
  /xrad exch def
  /y exch def
  /x exch def
  /savematrix mtrx currentmatrix def
  x y translate
  xrad yrad scale
  0 0 1 startangle endangle arc
  savematrix setmatrix
 end
} def
/TL {
  /kcomp exch def
  /linewidth exch def
  /offset exch def
  GS
  0 offset rmoveto
  linewidth SLW
  dup stringwidth exch kcomp add exch RL s
  GR
} def
/KINIT
{
 /kvector exch def
 /kid 0 def
} def
/KPROC
{
 pop pop
 kvector kid get
 0 rmoveto
 /kid 1 kid add def
} def
/DefEncoding [
 /.notdef
 /.notdef
 /.notdef
 /.notdef
 /.notdef
 /.notdef
 /.notdef
 /.notdef
 /.notdef
 /.notdef
 /.notdef
 /.notdef
 /.notdef
 /.notdef
 /.notdef
 /.notdef
 /.notdef
 /.notdef
 /.notdef
 /.notdef
 /.notdef
 /.notdef
 /.notdef
 /.notdef
 /.notdef
 /.notdef
 /.notdef
 /.notdef
 /.notdef
 /.notdef
 /.notdef
 /.notdef
 /space
 /exclam
 /quotedbl
 /numbersign
 /dollar
 /percent
 /ampersand
 /quoteright
 /parenleft
 /parenright
 /asterisk
 /plus
 /comma
 /hyphen
 /period
 /slash
 /zero
 /one
 /two
 /three
 /four
 /five
 /six
 /seven
 /eight
 /nine
 /colon
 /semicolon
 /less
 /equal
 /greater
 /question
 /at
 /A
 /B
 /C
 /D
 /E
 /F
 /G
 /H
 /I
 /J
 /K
 /L
 /M
 /N
 /O
 /P
 /Q
 /R
 /S
 /T
 /U
 /V
 /W
 /X
 /Y
 /Z
 /bracketleft
 /backslash
 /bracketright
 /asciicircum
 /underscore
 /grave
 /a
 /b
 /c
 /d
 /e
 /f
 /g
 /h
 /i
 /j
 /k
 /l
 /m
 /n
 /o
 /p
 /q
 /r
 /s
 /t
 /u
 /v
 /w
 /x
 /y
 /z
 /braceleft
 /bar
 /braceright
 /asciitilde
 /.notdef
 /.notdef
 /.notdef
 /.notdef
 /.notdef
 /.notdef
 /.notdef
 /.notdef
 /.notdef
 /.notdef
 /.notdef
 /.notdef
 /.notdef
 /.notdef
 /.notdef
 /.notdef
 /.notdef
 /.notdef
 /.notdef
 /.notdef
 /.notdef
 /.notdef
 /.notdef
 /.notdef
 /.notdef
 /.notdef
 /.notdef
 /.notdef
 /.notdef
 /.notdef
 /.notdef
 /.notdef
 /.notdef
 /space
 /exclamdown
 /cent
 /sterling
 /currency
 /yen
 /brokenbar
 /section
 /dieresis
 /copyright
 /ordfeminine
 /guillemotleft
 /logicalnot
 /hyphen
 /registered
 /macron
 /degree
 /plusminus
 /twosuperior
 /threesuperior
 /acute
 /mu
 /paragraph
 /periodcentered
 /cedilla
 /onesuperior
 /ordmasculine
 /guillemotright
 /onequarter
 /onehalf
 /threequarters
 /questiondown
 /Agrave
 /Aacute
 /Acircumflex
 /Atilde
 /Adieresis
 /Aring
 /AE
 /Ccedilla
 /Egrave
 /Eacute
 /Ecircumflex
 /Edieresis
 /Igrave
 /Iacute
 /Icircumflex
 /Idieresis
 /Eth
 /Ntilde
 /Ograve
 /Oacute
 /Ocircumflex
 /Otilde
 /Odieresis
 /multiply
 /Oslash
 /Ugrave
 /Uacute
 /Ucircumflex
 /Udieresis
 /Yacute
 /Thorn
 /germandbls
 /agrave
 /aacute
 /acircumflex
 /atilde
 /adieresis
 /aring
 /ae
 /ccedilla
 /egrave
 /eacute
 /ecircumflex
 /edieresis
 /igrave
 /iacute
 /icircumflex
 /idieresis
 /eth
 /ntilde
 /ograve
 /oacute
 /ocircumflex
 /otilde
 /odieresis
 /divide
 /oslash
 /ugrave
 /uacute
 /ucircumflex
 /udieresis
 /yacute
 /thorn
 /ydieresis
] def
%%EndProlog
%%BeginSetup
%%EndSetup
612.00 612.00 scale
n
0.1646 0.5204 0.0075 0.0075 0 360 EARC c
[/DeviceRGB] SCS
Color1 SC
fill
[] 0 SD
0.0015 SLW
n 0.1646 0.5204 0.0075 0.0075 0 360 EARC s
n
0.1939 0.5315 0.0075 0.0075 0 360 EARC c
fill
n 0.1939 0.5315 0.0075 0.0075 0 360 EARC s
n
0.2231 0.5460 0.0075 0.0075 0 360 EARC c
fill
n 0.2231 0.5460 0.0075 0.0075 0 360 EARC s
n
0.2523 0.5644 0.0075 0.0075 0 360 EARC c
fill
n 0.2523 0.5644 0.0075 0.0075 0 360 EARC s
n
0.2816 0.5874 0.0075 0.0075 0 360 EARC c
fill
n 0.2816 0.5874 0.0075 0.0075 0 360 EARC s
n
0.3108 0.6157 0.0075 0.0075 0 360 EARC c
fill
n 0.3108 0.6157 0.0075 0.0075 0 360 EARC s
n
0.3401 0.6505 0.0075 0.0075 0 360 EARC c
fill
n 0.3401 0.6505 0.0075 0.0075 0 360 EARC s
n
0.3693 0.6930 0.0075 0.0075 0 360 EARC c
fill
n 0.3693 0.6930 0.0075 0.0075 0 360 EARC s
n
0.3985 0.7448 0.0075 0.0075 0 360 EARC c
fill
n 0.3985 0.7448 0.0075 0.0075 0 360 EARC s
n
0.4278 0.8079 0.0075 0.0075 0 360 EARC c
fill
n 0.4278 0.8079 0.0075 0.0075 0 360 EARC s
[] 0 SD
0.0030 SLW
0 SLC
0 SLJ
n
0.1646 0.4847 m
0.1939 0.4741 l
0.2231 0.4591 l
0.2523 0.4388 l
0.2816 0.4125 l
0.3108 0.3798 l
0.3401 0.3400 l
0.3693 0.2931 l
0.3985 0.2387 l
0.4278 0.1768 l
0.4391 0.1499 l
s
[/DeviceRGB] SCS
Color2 SC
[0.0210 0.0090 ] 0 SD
0.0030 SLW
n
0.1646 0.5153 m
0.1939 0.5258 l
0.2231 0.5405 l
0.2523 0.5602 l
0.2816 0.5853 l
0.3108 0.6161 l
0.3401 0.6528 l
0.3693 0.6954 l
0.3985 0.7434 l
0.4278 0.7964 l
0.4425 0.8254 l
s
[/DeviceRGB] SCS
Color1 SC
[] 0 SD
0.0015 SLW
n
0.1500 0.1500 m
0.4424 0.1500 l
s
n
0.1500 0.8500 m
0.4424 0.8500 l
s
n
0.1939 0.1500 m
0.1939 0.1600 l
s
n
0.1939 0.8500 m
0.1939 0.8400 l
s
n
0.2523 0.1500 m
0.2523 0.1600 l
s
n
0.2523 0.8500 m
0.2523 0.8400 l
s
n
0.3108 0.1500 m
0.3108 0.1600 l
s
n
0.3108 0.8500 m
0.3108 0.8400 l
s
n
0.3693 0.1500 m
0.3693 0.1600 l
s
n
0.3693 0.8500 m
0.3693 0.8400 l
s
n
0.4278 0.1500 m
0.4278 0.1600 l
s
n
0.4278 0.8500 m
0.4278 0.8400 l
s
n
0.1646 0.1500 m
0.1646 0.1700 l
s
n
0.1646 0.8500 m
0.1646 0.8300 l
s
n
0.2231 0.1500 m
0.2231 0.1700 l
s
n
0.2231 0.8500 m
0.2231 0.8300 l
s
n
0.2816 0.1500 m
0.2816 0.1700 l
s
n
0.2816 0.8500 m
0.2816 0.8300 l
s
n
0.3401 0.1500 m
0.3401 0.1700 l
s
n
0.3401 0.8500 m
0.3401 0.8300 l
s
n
0.3985 0.1500 m
0.3985 0.1700 l
s
n
0.3985 0.8500 m
0.3985 0.8300 l
s
/Times-Roman findfont
dup length dict begin
 {1 index /FID ne {def} {pop pop} ifelse} forall
 /Encoding DefEncoding def
 currentdict
end
/Font0 exch definefont pop
/Font0 FFSF
0.1478 0.1212 m
GS
[0.0280 0.0000 0.0000 0.0280 0 0] CC
(0,8) show
GR
/Font0 FFSF
0.2176 0.1212 m
GS
[0.0280 0.0000 0.0000 0.0280 0 0] CC
(1) show
GR
/Font0 FFSF
0.2643 0.1212 m
GS
[0.0280 0.0000 0.0000 0.0280 0 0] CC
(1,2) show
GR
/Font0 FFSF
0.3228 0.1212 m
GS
[0.0280 0.0000 0.0000 0.0280 0 0] CC
(1,4) show
GR
/Font0 FFSF
0.3815 0.1208 m
GS
[0.0280 0.0000 0.0000 0.0280 0 0] CC
(1,6) show
GR
n
0.1500 0.1500 m
0.1500 0.8500 l
s
n
0.4424 0.1500 m
0.4424 0.8500 l
s
n
0.1500 0.2426 m
0.1600 0.2426 l
s
n
0.4424 0.2426 m
0.4324 0.2426 l
s
n
0.1500 0.3456 m
0.1600 0.3456 l
s
n
0.4424 0.3456 m
0.4324 0.3456 l
s
n
0.1500 0.4485 m
0.1600 0.4485 l
s
n
0.4424 0.4485 m
0.4324 0.4485 l
s
n
0.1500 0.5515 m
0.1600 0.5515 l
s
n
0.4424 0.5515 m
0.4324 0.5515 l
s
n
0.1500 0.6544 m
0.1600 0.6544 l
s
n
0.4424 0.6544 m
0.4324 0.6544 l
s
n
0.1500 0.7574 m
0.1600 0.7574 l
s
n
0.4424 0.7574 m
0.4324 0.7574 l
s
n
0.1500 0.1912 m
0.1700 0.1912 l
s
n
0.4424 0.1912 m
0.4224 0.1912 l
s
n
0.1500 0.2941 m
0.1700 0.2941 l
s
n
0.4424 0.2941 m
0.4224 0.2941 l
s
n
0.1500 0.3971 m
0.1700 0.3971 l
s
n
0.4424 0.3971 m
0.4224 0.3971 l
s
n
0.1500 0.5000 m
0.1700 0.5000 l
s
n
0.4424 0.5000 m
0.4224 0.5000 l
s
n
0.1500 0.6029 m
0.1700 0.6029 l
s
n
0.4424 0.6029 m
0.4224 0.6029 l
s
n
0.1500 0.7059 m
0.1700 0.7059 l
s
n
0.4424 0.7059 m
0.4224 0.7059 l
s
n
0.1500 0.8088 m
0.1700 0.8088 l
s
n
0.4424 0.8088 m
0.4224 0.8088 l
s
/Font0 FFSF
0.1047 0.1818 m
GS
[0.0280 0.0000 0.0000 0.0280 0 0] CC
(-15) show
GR
/Font0 FFSF
0.1035 0.2849 m
GS
[0.0280 0.0000 0.0000 0.0280 0 0] CC
(-10) show
GR
/Font0 FFSF
0.1184 0.3876 m
GS
[0.0280 0.0000 0.0000 0.0280 0 0] CC
(-5) show
GR
/Font0 FFSF
0.1267 0.4908 m
GS
[0.0280 0.0000 0.0000 0.0280 0 0] CC
(0) show
GR
/Font0 FFSF
0.1278 0.5935 m
GS
[0.0280 0.0000 0.0000 0.0280 0 0] CC
(5) show
GR
/Font0 FFSF
0.1125 0.6967 m
GS
[0.0280 0.0000 0.0000 0.0280 0 0] CC
(10) show
GR
/Font0 FFSF
0.1137 0.7994 m
GS
[0.0280 0.0000 0.0000 0.0280 0 0] CC
(15) show
GR
n
0.1500 0.1500 m
0.1500 0.8500 l
0.4424 0.8500 l
0.4424 0.1500 l
0.1500 0.1500 l
c
s
n
0.1500 0.8500 m
0.1500 0.7386 l
0.3766 0.7386 l
0.3766 0.8500 l
c
[/DeviceRGB] SCS
Color0 SC
fill
[/DeviceRGB] SCS
Color1 SC
n
0.1500 0.8500 m
0.1500 0.7386 l
0.3766 0.7386 l
0.3766 0.8500 l
0.1500 0.8500 l
c
s
/Font0 FFSF
0.2215 0.8169 m
GS
[0.0350 0.0000 0.0000 0.0350 0 0] CC
(BHF) show
GR
n
0.1815 0.8284 0.0075 0.0075 0 360 EARC c
fill
n 0.1815 0.8284 0.0075 0.0075 0 360 EARC s
/Font0 FFSF
0.2215 0.7833 m
GS
[0.0350 0.0000 0.0000 0.0350 0 0] CC
(D1ST2a) show
GR
[] 0 SD
0.0030 SLW
n
0.1615 0.7949 m
0.2015 0.7949 l
s
/Font0 FFSF
0.2215 0.7490 m
GS
[0.0350 0.0000 0.0000 0.0350 0 0] CC
(Fit Tensor) show
GR
[/DeviceRGB] SCS
Color2 SC
[0.0210 0.0090 ] 0 SD
0.0030 SLW
n
0.1615 0.7608 m
0.2015 0.7608 l
s
/Symbol findfont
/Font12 exch definefont pop
/Font12 FFSF
[/DeviceRGB] SCS
Color1 SC
0.2778 0.8868 m
GS
[0.0420 0.0000 0.0000 0.0420 0 0] CC
(d) show
GR
/Font0 FFSF
0.2985 0.8700 m
GS
[0.0297 0.0000 0.0000 0.0297 0 0] CC
(P) show
GR
n
0.5155 0.7720 0.0075 0.0075 0 360 EARC c
fill
[] 0 SD
0.0015 SLW
n 0.5155 0.7720 0.0075 0.0075 0 360 EARC s
n
0.5447 0.7581 0.0075 0.0075 0 360 EARC c
fill
n 0.5447 0.7581 0.0075 0.0075 0 360 EARC s
n
0.5740 0.7388 0.0075 0.0075 0 360 EARC c
fill
n 0.5740 0.7388 0.0075 0.0075 0 360 EARC s
n
0.6032 0.7129 0.0075 0.0075 0 360 EARC c
fill
n 0.6032 0.7129 0.0075 0.0075 0 360 EARC s
n
0.6324 0.6799 0.0075 0.0075 0 360 EARC c
fill
n 0.6324 0.6799 0.0075 0.0075 0 360 EARC s
n
0.6617 0.6388 0.0075 0.0075 0 360 EARC c
fill
n 0.6617 0.6388 0.0075 0.0075 0 360 EARC s
n
0.6909 0.5885 0.0075 0.0075 0 360 EARC c
fill
n 0.6909 0.5885 0.0075 0.0075 0 360 EARC s
n
0.7202 0.5280 0.0075 0.0075 0 360 EARC c
fill
n 0.7202 0.5280 0.0075 0.0075 0 360 EARC s
n
0.7494 0.4548 0.0075 0.0075 0 360 EARC c
fill
n 0.7494 0.4548 0.0075 0.0075 0 360 EARC s
n
0.7786 0.3663 0.0075 0.0075 0 360 EARC c
fill
n 0.7786 0.3663 0.0075 0.0075 0 360 EARC s
[] 0 SD
0.0030 SLW
n
0.5155 0.7867 m
0.5447 0.7823 l
0.5740 0.7743 l
0.6032 0.7612 l
0.6324 0.7411 l
0.6617 0.7119 l
0.6909 0.6714 l
0.7202 0.6173 l
0.7494 0.5477 l
0.7786 0.4606 l
0.7934 0.4071 l
s
[/DeviceRGB] SCS
Color2 SC
[0.0210 0.0090 ] 0 SD
0.0030 SLW
n
0.5155 0.7834 m
0.5447 0.7760 l
0.5740 0.7627 l
0.6032 0.7409 l
0.6324 0.7073 l
0.6617 0.6585 l
0.6909 0.5909 l
0.7202 0.5008 l
0.7494 0.3846 l
0.7786 0.2392 l
0.7934 0.1500 l
s
[/DeviceRGB] SCS
Color1 SC
[] 0 SD
0.0015 SLW
n
0.5009 0.1500 m
0.7933 0.1500 l
s
n
0.5009 0.8500 m
0.7933 0.8500 l
s
n
0.5447 0.1500 m
0.5447 0.1600 l
s
n
0.5447 0.8500 m
0.5447 0.8400 l
s
n
0.6032 0.1500 m
0.6032 0.1600 l
s
n
0.6032 0.8500 m
0.6032 0.8400 l
s
n
0.6617 0.1500 m
0.6617 0.1600 l
s
n
0.6617 0.8500 m
0.6617 0.8400 l
s
n
0.7202 0.1500 m
0.7202 0.1600 l
s
n
0.7202 0.8500 m
0.7202 0.8400 l
s
n
0.7786 0.1500 m
0.7786 0.1600 l
s
n
0.7786 0.8500 m
0.7786 0.8400 l
s
n
0.5155 0.1500 m
0.5155 0.1700 l
s
n
0.5155 0.8500 m
0.5155 0.8300 l
s
n
0.5740 0.1500 m
0.5740 0.1700 l
s
n
0.5740 0.8500 m
0.5740 0.8300 l
s
n
0.6324 0.1500 m
0.6324 0.1700 l
s
n
0.6324 0.8500 m
0.6324 0.8300 l
s
n
0.6909 0.1500 m
0.6909 0.1700 l
s
n
0.6909 0.8500 m
0.6909 0.8300 l
s
n
0.7494 0.1500 m
0.7494 0.1700 l
s
n
0.7494 0.8500 m
0.7494 0.8300 l
s
/Font0 FFSF
0.4986 0.1212 m
GS
[0.0280 0.0000 0.0000 0.0280 0 0] CC
(0,8) show
GR
/Font0 FFSF
0.5685 0.1212 m
GS
[0.0280 0.0000 0.0000 0.0280 0 0] CC
(1) show
GR
/Font0 FFSF
0.6152 0.1212 m
GS
[0.0280 0.0000 0.0000 0.0280 0 0] CC
(1,2) show
GR
/Font0 FFSF
0.6737 0.1212 m
GS
[0.0280 0.0000 0.0000 0.0280 0 0] CC
(1,4) show
GR
/Font0 FFSF
0.7323 0.1208 m
GS
[0.0280 0.0000 0.0000 0.0280 0 0] CC
(1,6) show
GR
n
0.5009 0.1500 m
0.5009 0.8500 l
s
n
0.7933 0.1500 m
0.7933 0.8500 l
s
n
0.5009 0.2812 m
0.5109 0.2812 l
s
n
0.7933 0.2812 m
0.7833 0.2812 l
s
n
0.5009 0.4271 m
0.5109 0.4271 l
s
n
0.7933 0.4271 m
0.7833 0.4271 l
s
n
0.5009 0.5729 m
0.5109 0.5729 l
s
n
0.7933 0.5729 m
0.7833 0.5729 l
s
n
0.5009 0.7188 m
0.5109 0.7188 l
s
n
0.7933 0.7188 m
0.7833 0.7188 l
s
n
0.5009 0.2083 m
0.5209 0.2083 l
s
n
0.7933 0.2083 m
0.7733 0.2083 l
s
n
0.5009 0.3542 m
0.5209 0.3542 l
s
n
0.7933 0.3542 m
0.7733 0.3542 l
s
n
0.5009 0.5000 m
0.5209 0.5000 l
s
n
0.7933 0.5000 m
0.7733 0.5000 l
s
n
0.5009 0.6458 m
0.5209 0.6458 l
s
n
0.7933 0.6458 m
0.7733 0.6458 l
s
n
0.5009 0.7917 m
0.5209 0.7917 l
s
n
0.7933 0.7917 m
0.7733 0.7917 l
s
/Font0 FFSF
0.4681 0.1989 m
GS
[0.0280 0.0000 0.0000 0.0280 0 0] CC
(-2) show
GR
/Font0 FFSF
0.4485 0.3465 m
GS
[0.0280 0.0000 0.0000 0.0280 0 0] CC
(-1,5) show
GR
/Font0 FFSF
0.4705 0.4906 m
GS
[0.0280 0.0000 0.0000 0.0280 0 0] CC
(-1) show
GR
/Font0 FFSF
0.4485 0.6382 m
GS
[0.0280 0.0000 0.0000 0.0280 0 0] CC
(-0,5) show
GR
/Font0 FFSF
0.4775 0.7825 m
GS
[0.0280 0.0000 0.0000 0.0280 0 0] CC
(0) show
GR
n
0.5009 0.1500 m
0.5009 0.8500 l
0.7933 0.8500 l
0.7933 0.1500 l
0.5009 0.1500 l
c
s
/Font12 FFSF
0.6265 0.8868 m
GS
[0.0420 0.0000 0.0000 0.0420 0 0] CC
(d) show
GR
/Font0 FFSF
0.6473 0.8700 m
GS
[0.0297 0.0000 0.0000 0.0297 0 0] CC
(D) show
GR
n
0.8663 0.5778 0.0075 0.0075 0 360 EARC c
fill
n 0.8663 0.5778 0.0075 0.0075 0 360 EARC s
n
0.8956 0.5886 0.0075 0.0075 0 360 EARC c
fill
n 0.8956 0.5886 0.0075 0.0075 0 360 EARC s
n
0.9248 0.6042 0.0075 0.0075 0 360 EARC c
fill
n 0.9248 0.6042 0.0075 0.0075 0 360 EARC s
n
0.9541 0.6245 0.0075 0.0075 0 360 EARC c
fill
n 0.9541 0.6245 0.0075 0.0075 0 360 EARC s
n
0.9833 0.6491 0.0075 0.0075 0 360 EARC c
fill
n 0.9833 0.6491 0.0075 0.0075 0 360 EARC s
n
1.0125 0.6770 0.0075 0.0075 0 360 EARC c
fill
n 1.0125 0.6770 0.0075 0.0075 0 360 EARC s
n
1.0418 0.7066 0.0075 0.0075 0 360 EARC c
fill
n 1.0418 0.7066 0.0075 0.0075 0 360 EARC s
n
1.0710 0.7365 0.0075 0.0075 0 360 EARC c
fill
n 1.0710 0.7365 0.0075 0.0075 0 360 EARC s
n
1.1003 0.7653 0.0075 0.0075 0 360 EARC c
fill
n 1.1003 0.7653 0.0075 0.0075 0 360 EARC s
n
1.1295 0.7923 0.0075 0.0075 0 360 EARC c
fill
n 1.1295 0.7923 0.0075 0.0075 0 360 EARC s
[] 0 SD
0.0030 SLW
n
0.8663 0.5544 m
0.8956 0.5519 l
0.9248 0.5497 l
0.9541 0.5450 l
0.9833 0.5342 l
1.0125 0.5143 l
1.0418 0.4816 l
1.0710 0.4312 l
1.1003 0.3574 l
1.1295 0.2538 l
1.1442 0.1832 l
s
[/DeviceRGB] SCS
Color2 SC
[0.0210 0.0090 ] 0 SD
0.0030 SLW
n
0.8663 0.5847 m
0.8956 0.5808 l
0.9248 0.5811 l
0.9541 0.5862 l
0.9833 0.5979 l
1.0125 0.6194 l
1.0418 0.6547 l
1.0710 0.7092 l
1.1003 0.7889 l
1.1162 0.8501 l
s
[/DeviceRGB] SCS
Color1 SC
[] 0 SD
0.0015 SLW
n
0.8517 0.1500 m
1.1441 0.1500 l
s
n
0.8517 0.8500 m
1.1441 0.8500 l
s
n
0.8956 0.1500 m
0.8956 0.1600 l
s
n
0.8956 0.8500 m
0.8956 0.8400 l
s
n
0.9541 0.1500 m
0.9541 0.1600 l
s
n
0.9541 0.8500 m
0.9541 0.8400 l
s
n
1.0125 0.1500 m
1.0125 0.1600 l
s
n
1.0125 0.8500 m
1.0125 0.8400 l
s
n
1.0710 0.1500 m
1.0710 0.1600 l
s
n
1.0710 0.8500 m
1.0710 0.8400 l
s
n
1.1295 0.1500 m
1.1295 0.1600 l
s
n
1.1295 0.8500 m
1.1295 0.8400 l
s
n
0.8663 0.1500 m
0.8663 0.1700 l
s
n
0.8663 0.8500 m
0.8663 0.8300 l
s
n
0.9248 0.1500 m
0.9248 0.1700 l
s
n
0.9248 0.8500 m
0.9248 0.8300 l
s
n
0.9833 0.1500 m
0.9833 0.1700 l
s
n
0.9833 0.8500 m
0.9833 0.8300 l
s
n
1.0418 0.1500 m
1.0418 0.1700 l
s
n
1.0418 0.8500 m
1.0418 0.8300 l
s
n
1.1003 0.1500 m
1.1003 0.1700 l
s
n
1.1003 0.8500 m
1.1003 0.8300 l
s
/Font0 FFSF
0.8495 0.1212 m
GS
[0.0280 0.0000 0.0000 0.0280 0 0] CC
(0,8) show
GR
/Font0 FFSF
0.9193 0.1212 m
GS
[0.0280 0.0000 0.0000 0.0280 0 0] CC
(1) show
GR
/Font0 FFSF
0.9660 0.1212 m
GS
[0.0280 0.0000 0.0000 0.0280 0 0] CC
(1,2) show
GR
/Font0 FFSF
1.0245 0.1212 m
GS
[0.0280 0.0000 0.0000 0.0280 0 0] CC
(1,4) show
GR
/Font0 FFSF
1.0832 0.1208 m
GS
[0.0280 0.0000 0.0000 0.0280 0 0] CC
(1,6) show
GR
n
0.8517 0.1500 m
0.8517 0.8500 l
s
n
1.1441 0.1500 m
1.1441 0.8500 l
s
n
0.8517 0.2407 m
0.8617 0.2407 l
s
n
1.1441 0.2407 m
1.1341 0.2407 l
s
n
0.8517 0.3704 m
0.8617 0.3704 l
s
n
1.1441 0.3704 m
1.1341 0.3704 l
s
n
0.8517 0.5000 m
0.8617 0.5000 l
s
n
1.1441 0.5000 m
1.1341 0.5000 l
s
n
0.8517 0.6296 m
0.8617 0.6296 l
s
n
1.1441 0.6296 m
1.1341 0.6296 l
s
n
0.8517 0.7593 m
0.8617 0.7593 l
s
n
1.1441 0.7593 m
1.1341 0.7593 l
s
n
0.8517 0.1759 m
0.8717 0.1759 l
s
n
1.1441 0.1759 m
1.1241 0.1759 l
s
n
0.8517 0.3056 m
0.8717 0.3056 l
s
n
1.1441 0.3056 m
1.1241 0.3056 l
s
n
0.8517 0.4352 m
0.8717 0.4352 l
s
n
1.1441 0.4352 m
1.1241 0.4352 l
s
n
0.8517 0.5648 m
0.8717 0.5648 l
s
n
1.1441 0.5648 m
1.1241 0.5648 l
s
n
0.8517 0.6944 m
0.8717 0.6944 l
s
n
1.1441 0.6944 m
1.1241 0.6944 l
s
n
0.8517 0.8241 m
0.8717 0.8241 l
s
n
1.1441 0.8241 m
1.1241 0.8241 l
s
/Font0 FFSF
0.7994 0.1685 m
GS
[0.0280 0.0000 0.0000 0.0280 0 0] CC
(-0,3) show
GR
/Font0 FFSF
0.7982 0.2981 m
GS
[0.0280 0.0000 0.0000 0.0280 0 0] CC
(-0,2) show
GR
/Font0 FFSF
0.8006 0.4277 m
GS
[0.0280 0.0000 0.0000 0.0280 0 0] CC
(-0,1) show
GR
/Font0 FFSF
0.8284 0.5556 m
GS
[0.0280 0.0000 0.0000 0.0280 0 0] CC
(0) show
GR
/Font0 FFSF
0.8096 0.6870 m
GS
[0.0280 0.0000 0.0000 0.0280 0 0] CC
(0,1) show
GR
/Font0 FFSF
0.8072 0.8166 m
GS
[0.0280 0.0000 0.0000 0.0280 0 0] CC
(0,2) show
GR
n
0.8517 0.1500 m
0.8517 0.8500 l
1.1441 0.8500 l
1.1441 0.1500 l
0.8517 0.1500 l
c
s
/Font12 FFSF
0.9795 0.8868 m
GS
[0.0420 0.0000 0.0000 0.0420 0 0] CC
(d) show
GR
/Font0 FFSF
1.0003 0.8700 m
GS
[0.0297 0.0000 0.0000 0.0297 0 0] CC
(F) show
GR
%%Trailer
%%BoundingBox: 62 70 703 563
%%DocumentNeededResources: font Times-Roman
%%+ font Symbol
%%EOF
