%!PS-Adobe-3.0
%%BoundingBox: 0 0 612 792
%%LanguageLevel: 2
%%Creator: Grace-5.1.25
%%CreationDate: Tue Dec  1 09:13:31 2015
%%DocumentData: Clean8Bit
%%Orientation: Landscape
%%Pages: 1
%%PageOrder: Ascend
%%Title: /Users/ap1450/Dropbox/Physics_Reports_LR/ST_channel_finite_range/Vers2/plots/EoS_SNM_STfit.agr
%%For: ap1450
%%DocumentNeededResources: (atend)
%%EndComments
%%BeginProlog
/PAGE_OFFSET_X 0 def
/PAGE_OFFSET_Y 0 def
/m {moveto} def
/l {lineto} def
/s {stroke} def
/n {newpath} def
/c {closepath} def
/RL {rlineto} def
/SLW {setlinewidth} def
/GS {gsave} def
/GR {grestore} def
/SC {setcolor} def
/SGRY {setgray} def
/SRGB {setrgbcolor} def
/SD {setdash} def
/SLC {setlinecap} def
/SLJ {setlinejoin} def
/SCS {setcolorspace} def
/FFSF {findfont setfont} def
/CC {concat} def
/PXL {n m 0 0 RL s} def
/Color0 {1.0000 1.0000 1.0000} def
/Color1 {0.0000 0.0000 0.0000} def
/Color2 {1.0000 0.0000 0.0000} def
/Color3 {0.0000 1.0000 0.0000} def
/Color4 {0.0000 0.0000 1.0000} def
/Color5 {1.0000 1.0000 0.0000} def
/Color6 {0.7373 0.5608 0.5608} def
/Color7 {0.8627 0.8627 0.8627} def
/Color8 {0.5804 0.0000 0.8275} def
/Color9 {0.0000 1.0000 1.0000} def
/Color10 {1.0000 0.0000 1.0000} def
/Color11 {1.0000 0.6471 0.0000} def
/Color12 {0.4471 0.1294 0.7373} def
/Color13 {0.4039 0.0275 0.2824} def
/Color14 {0.2510 0.8784 0.8157} def
/Color15 {0.0000 0.5451 0.0000} def
/Color16 {0.7529 0.7529 0.7529} def
/Color17 {0.5059 0.5059 0.5059} def
/Color18 {0.2588 0.2588 0.2588} def
/PTRN {
 /pat_bits exch def 
 <<
  /PaintType 2
  /PatternType 1 /TilingType 1
  /BBox[0 0 16 16]
  /XStep 16 /YStep 16
  /PaintProc {
   pop
   16 16 true [-1 0 0 -1 16 16] pat_bits imagemask
  }
 >>
 [0.0016 0 0 0.0016 0 0]
 makepattern
} def
/Pattern0 {<0000000000000000000000000000000000000000000000000000000000000000> PTRN} bind def
/Pattern1 {<ffffffffffffffffffffffffffffffffffffffffffffffffffffffffffffffff> PTRN} bind def
/Pattern2 {<eeeeffffbbbbffffeeeeffffbbbbffffeeeeffffbbbbffffeeeeffffbbbbffff> PTRN} bind def
/Pattern3 {<eeeebbbbeeeebbbbeeeebbbbeeeebbbbeeeebbbbeeeebbbbeeeebbbbeeeebbbb> PTRN} bind def
/Pattern4 {<5555aaaa5555aaaa5555aaaa5555aaaa5555aaaa5555aaaa5555aaaa5555aaaa> PTRN} bind def
/Pattern5 {<1111444411114444111144441111444411114444111144441111444411114444> PTRN} bind def
/Pattern6 {<1111000044440000111100004444000011110000444400001111000044440000> PTRN} bind def
/Pattern7 {<1010000000000000010100000000000010100000000000000101000000000000> PTRN} bind def
/Pattern8 {<0000000000000000000000000000000000000000000000000000000000000000> PTRN} bind def
/Pattern9 {<1e1e0f0f8787c3c3e1e1f0f078783c3c1e1e0f0f8787c3c3e1e1f0f078783c3c> PTRN} bind def
/Pattern10 {<7878f0f0e1e1c3c387870f0f1e1e3c3c7878f0f0e1e1c3c387870f0f1e1e3c3c> PTRN} bind def
/Pattern11 {<3333333333333333333333333333333333333333333333333333333333333333> PTRN} bind def
/Pattern12 {<ffffffff00000000ffffffff00000000ffffffff00000000ffffffff00000000> PTRN} bind def
/Pattern13 {<8181424224241818181824244242818181814242242418181818242442428181> PTRN} bind def
/Pattern14 {<8080404020201010080804040202010180804040202010100808040402020101> PTRN} bind def
/Pattern15 {<0101020204040808101020204040808001010202040408081010202040408080> PTRN} bind def
/Pattern16 {<2222222222222222222222222222222222222222222222222222222222222222> PTRN} bind def
/Pattern17 {<0000ffff000000000000ffff000000000000ffff000000000000ffff00000000> PTRN} bind def
/Pattern18 {<2222ffff222222222222ffff222222222222ffff222222222222ffff22222222> PTRN} bind def
/Pattern19 {<ffffffff33333333ffffffff33333333ffffffff33333333ffffffff33333333> PTRN} bind def
/Pattern20 {<0f0f0f0f0f0f0f0ff0f0f0f0f0f0f0f00f0f0f0f0f0f0f0ff0f0f0f0f0f0f0f0> PTRN} bind def
/Pattern21 {<ff00ff00ff00ff00ff00ff00ff00ff0000ff00ff00ff00ff00ff00ff00ff00ff> PTRN} bind def
/Pattern22 {<8001800180018001800180018001ffffffff8001800180018001800180018001> PTRN} bind def
/Pattern23 {<c003c003c003c003c003c003ffffffffffffffffc003c003c003c003c003c003> PTRN} bind def
/Pattern24 {<040404040404ffff404040404040ffff040404040404ffff404040404040ffff> PTRN} bind def
/Pattern25 {<180018001800180018001800ffffffff001800180018001800180018ffffffff> PTRN} bind def
/Pattern26 {<1111b8b87c7c3a3a1111a3a3c7c78b8b1111b8b87c7c3a3a1111a3a3c7c78b8b> PTRN} bind def
/Pattern27 {<101010102828c7c70101010182827c7c101010102828c7c70101010182827c7c> PTRN} bind def
/Pattern28 {<1c1c121211112121c1c12121111112121c1c121211112121c1c1212111111212> PTRN} bind def
/Pattern29 {<3e3e414180808080e3e31414080808083e3e414180808080e3e3141408080808> PTRN} bind def
/Pattern30 {<4848888884848383848488884848383848488888848483838484888848483838> PTRN} bind def
/Pattern31 {<03030404080808080c0c12122121c0c003030404080808080c0c12122121c0c0> PTRN} bind def
/ellipsedict 8 dict def
ellipsedict /mtrx matrix put
/EARC {
 ellipsedict begin
  /endangle exch def
  /startangle exch def
  /yrad exch def
  /xrad exch def
  /y exch def
  /x exch def
  /savematrix mtrx currentmatrix def
  x y translate
  xrad yrad scale
  0 0 1 startangle endangle arc
  savematrix setmatrix
 end
} def
/TL {
  /kcomp exch def
  /linewidth exch def
  /offset exch def
  GS
  0 offset rmoveto
  linewidth SLW
  dup stringwidth exch kcomp add exch RL s
  GR
} def
/KINIT
{
 /kvector exch def
 /kid 0 def
} def
/KPROC
{
 pop pop
 kvector kid get
 0 rmoveto
 /kid 1 kid add def
} def
/DefEncoding [
 /.notdef
 /.notdef
 /.notdef
 /.notdef
 /.notdef
 /.notdef
 /.notdef
 /.notdef
 /.notdef
 /.notdef
 /.notdef
 /.notdef
 /.notdef
 /.notdef
 /.notdef
 /.notdef
 /.notdef
 /.notdef
 /.notdef
 /.notdef
 /.notdef
 /.notdef
 /.notdef
 /.notdef
 /.notdef
 /.notdef
 /.notdef
 /.notdef
 /.notdef
 /.notdef
 /.notdef
 /.notdef
 /space
 /exclam
 /quotedbl
 /numbersign
 /dollar
 /percent
 /ampersand
 /quoteright
 /parenleft
 /parenright
 /asterisk
 /plus
 /comma
 /hyphen
 /period
 /slash
 /zero
 /one
 /two
 /three
 /four
 /five
 /six
 /seven
 /eight
 /nine
 /colon
 /semicolon
 /less
 /equal
 /greater
 /question
 /at
 /A
 /B
 /C
 /D
 /E
 /F
 /G
 /H
 /I
 /J
 /K
 /L
 /M
 /N
 /O
 /P
 /Q
 /R
 /S
 /T
 /U
 /V
 /W
 /X
 /Y
 /Z
 /bracketleft
 /backslash
 /bracketright
 /asciicircum
 /underscore
 /grave
 /a
 /b
 /c
 /d
 /e
 /f
 /g
 /h
 /i
 /j
 /k
 /l
 /m
 /n
 /o
 /p
 /q
 /r
 /s
 /t
 /u
 /v
 /w
 /x
 /y
 /z
 /braceleft
 /bar
 /braceright
 /asciitilde
 /.notdef
 /.notdef
 /.notdef
 /.notdef
 /.notdef
 /.notdef
 /.notdef
 /.notdef
 /.notdef
 /.notdef
 /.notdef
 /.notdef
 /.notdef
 /.notdef
 /.notdef
 /.notdef
 /.notdef
 /.notdef
 /.notdef
 /.notdef
 /.notdef
 /.notdef
 /.notdef
 /.notdef
 /.notdef
 /.notdef
 /.notdef
 /.notdef
 /.notdef
 /.notdef
 /.notdef
 /.notdef
 /.notdef
 /space
 /exclamdown
 /cent
 /sterling
 /currency
 /yen
 /brokenbar
 /section
 /dieresis
 /copyright
 /ordfeminine
 /guillemotleft
 /logicalnot
 /hyphen
 /registered
 /macron
 /degree
 /plusminus
 /twosuperior
 /threesuperior
 /acute
 /mu
 /paragraph
 /periodcentered
 /cedilla
 /onesuperior
 /ordmasculine
 /guillemotright
 /onequarter
 /onehalf
 /threequarters
 /questiondown
 /Agrave
 /Aacute
 /Acircumflex
 /Atilde
 /Adieresis
 /Aring
 /AE
 /Ccedilla
 /Egrave
 /Eacute
 /Ecircumflex
 /Edieresis
 /Igrave
 /Iacute
 /Icircumflex
 /Idieresis
 /Eth
 /Ntilde
 /Ograve
 /Oacute
 /Ocircumflex
 /Otilde
 /Odieresis
 /multiply
 /Oslash
 /Ugrave
 /Uacute
 /Ucircumflex
 /Udieresis
 /Yacute
 /Thorn
 /germandbls
 /agrave
 /aacute
 /acircumflex
 /atilde
 /adieresis
 /aring
 /ae
 /ccedilla
 /egrave
 /eacute
 /ecircumflex
 /edieresis
 /igrave
 /iacute
 /icircumflex
 /idieresis
 /eth
 /ntilde
 /ograve
 /oacute
 /ocircumflex
 /otilde
 /odieresis
 /divide
 /oslash
 /ugrave
 /uacute
 /ucircumflex
 /udieresis
 /yacute
 /thorn
 /ydieresis
] def
%%EndProlog
%%BeginSetup
%%EndSetup
%%Page: 1 1
PAGE_OFFSET_X PAGE_OFFSET_Y translate
612.00 612.00 scale
90 rotate
0.0 -1.0 translate
n
0.1632 0.4974 m
0.1632 0.5140 l
0.1798 0.5140 l
0.1798 0.4974 l
c
GS
[/DeviceRGB] SCS
Color0 SRGB
fill
GR
[/Pattern /DeviceRGB] SCS
Color1 Pattern8 SC
fill
[/DeviceRGB] SCS
Color1 SC
[] 0 SD
0.0030 SLW
0 SLC
0 SLJ
n
0.1632 0.4974 m
0.1632 0.5140 l
0.1798 0.5140 l
0.1798 0.4974 l
0.1632 0.4974 l
c
s
n
0.1723 0.5008 m
0.1723 0.5174 l
0.1889 0.5174 l
0.1889 0.5008 l
c
GS
Color0 SRGB
fill
GR
[/Pattern /DeviceRGB] SCS
Color1 Pattern8 SC
fill
[/DeviceRGB] SCS
Color1 SC
n
0.1723 0.5008 m
0.1723 0.5174 l
0.1889 0.5174 l
0.1889 0.5008 l
0.1723 0.5008 l
c
s
n
0.1836 0.5054 m
0.1836 0.5220 l
0.2003 0.5220 l
0.2003 0.5054 l
c
GS
Color0 SRGB
fill
GR
[/Pattern /DeviceRGB] SCS
Color1 Pattern8 SC
fill
[/DeviceRGB] SCS
Color1 SC
n
0.1836 0.5054 m
0.1836 0.5220 l
0.2003 0.5220 l
0.2003 0.5054 l
0.1836 0.5054 l
c
s
n
0.1975 0.5115 m
0.1975 0.5282 l
0.2142 0.5282 l
0.2142 0.5115 l
c
GS
Color0 SRGB
fill
GR
[/Pattern /DeviceRGB] SCS
Color1 Pattern8 SC
fill
[/DeviceRGB] SCS
Color1 SC
n
0.1975 0.5115 m
0.1975 0.5282 l
0.2142 0.5282 l
0.2142 0.5115 l
0.1975 0.5115 l
c
s
n
0.2142 0.5195 m
0.2142 0.5362 l
0.2309 0.5362 l
0.2309 0.5195 l
c
GS
Color0 SRGB
fill
GR
[/Pattern /DeviceRGB] SCS
Color1 Pattern8 SC
fill
[/DeviceRGB] SCS
Color1 SC
n
0.2142 0.5195 m
0.2142 0.5362 l
0.2309 0.5362 l
0.2309 0.5195 l
0.2142 0.5195 l
c
s
n
0.2339 0.5297 m
0.2339 0.5464 l
0.2505 0.5464 l
0.2505 0.5297 l
c
GS
Color0 SRGB
fill
GR
[/Pattern /DeviceRGB] SCS
Color1 Pattern8 SC
fill
[/DeviceRGB] SCS
Color1 SC
n
0.2339 0.5297 m
0.2339 0.5464 l
0.2505 0.5464 l
0.2505 0.5297 l
0.2339 0.5297 l
c
s
n
0.2568 0.5424 m
0.2568 0.5591 l
0.2735 0.5591 l
0.2735 0.5424 l
c
GS
Color0 SRGB
fill
GR
[/Pattern /DeviceRGB] SCS
Color1 Pattern8 SC
fill
[/DeviceRGB] SCS
Color1 SC
n
0.2568 0.5424 m
0.2568 0.5591 l
0.2735 0.5591 l
0.2735 0.5424 l
0.2568 0.5424 l
c
s
n
0.2833 0.5579 m
0.2833 0.5746 l
0.3000 0.5746 l
0.3000 0.5579 l
c
GS
Color0 SRGB
fill
GR
[/Pattern /DeviceRGB] SCS
Color1 Pattern8 SC
fill
[/DeviceRGB] SCS
Color1 SC
n
0.2833 0.5579 m
0.2833 0.5746 l
0.3000 0.5746 l
0.3000 0.5579 l
0.2833 0.5579 l
c
s
n
0.3136 0.5765 m
0.3136 0.5932 l
0.3302 0.5932 l
0.3302 0.5765 l
c
GS
Color0 SRGB
fill
GR
[/Pattern /DeviceRGB] SCS
Color1 Pattern8 SC
fill
[/DeviceRGB] SCS
Color1 SC
n
0.3136 0.5765 m
0.3136 0.5932 l
0.3302 0.5932 l
0.3302 0.5765 l
0.3136 0.5765 l
c
s
n
0.3479 0.5982 m
0.3479 0.6149 l
0.3645 0.6149 l
0.3645 0.5982 l
c
GS
Color0 SRGB
fill
GR
[/Pattern /DeviceRGB] SCS
Color1 Pattern8 SC
fill
[/DeviceRGB] SCS
Color1 SC
n
0.3479 0.5982 m
0.3479 0.6149 l
0.3645 0.6149 l
0.3645 0.5982 l
0.3479 0.5982 l
c
s
n
0.3864 0.6231 m
0.3864 0.6397 l
0.4031 0.6397 l
0.4031 0.6231 l
c
GS
Color0 SRGB
fill
GR
[/Pattern /DeviceRGB] SCS
Color1 Pattern8 SC
fill
[/DeviceRGB] SCS
Color1 SC
n
0.3864 0.6231 m
0.3864 0.6397 l
0.4031 0.6397 l
0.4031 0.6231 l
0.3864 0.6231 l
c
s
n
0.4295 0.6507 m
0.4295 0.6674 l
0.4462 0.6674 l
0.4462 0.6507 l
c
GS
Color0 SRGB
fill
GR
[/Pattern /DeviceRGB] SCS
Color1 Pattern8 SC
fill
[/DeviceRGB] SCS
Color1 SC
n
0.4295 0.6507 m
0.4295 0.6674 l
0.4462 0.6674 l
0.4462 0.6507 l
0.4295 0.6507 l
c
s
n
0.4774 0.6803 m
0.4774 0.6970 l
0.4941 0.6970 l
0.4941 0.6803 l
c
GS
Color0 SRGB
fill
GR
[/Pattern /DeviceRGB] SCS
Color1 Pattern8 SC
fill
[/DeviceRGB] SCS
Color1 SC
n
0.4774 0.6803 m
0.4774 0.6970 l
0.4941 0.6970 l
0.4941 0.6803 l
0.4774 0.6803 l
c
s
n
0.5303 0.7105 m
0.5303 0.7272 l
0.5470 0.7272 l
0.5470 0.7105 l
c
GS
Color0 SRGB
fill
GR
[/Pattern /DeviceRGB] SCS
Color1 Pattern8 SC
fill
[/DeviceRGB] SCS
Color1 SC
n
0.5303 0.7105 m
0.5303 0.7272 l
0.5470 0.7272 l
0.5470 0.7105 l
0.5303 0.7105 l
c
s
n
0.5886 0.7394 m
0.5886 0.7561 l
0.6052 0.7561 l
0.6052 0.7394 l
c
GS
Color0 SRGB
fill
GR
[/Pattern /DeviceRGB] SCS
Color1 Pattern8 SC
fill
[/DeviceRGB] SCS
Color1 SC
n
0.5886 0.7394 m
0.5886 0.7561 l
0.6052 0.7561 l
0.6052 0.7394 l
0.5886 0.7394 l
c
s
[] 0 SD
0.0037 SLW
n
0.1500 0.5000 m
0.1500 0.5000 l
0.1500 0.5000 l
0.1500 0.5000 l
0.1500 0.5000 l
0.1500 0.5000 l
0.1500 0.5000 l
0.1500 0.5000 l
0.1500 0.5000 l
0.1500 0.5000 l
0.1501 0.5000 l
0.1501 0.5000 l
0.1501 0.5000 l
0.1501 0.5000 l
0.1501 0.5000 l
0.1502 0.5000 l
0.1502 0.5000 l
0.1502 0.5000 l
0.1503 0.5000 l
0.1503 0.5000 l
0.1504 0.5000 l
0.1504 0.5000 l
0.1505 0.5000 l
0.1506 0.5000 l
0.1507 0.5000 l
0.1507 0.5000 l
0.1508 0.5000 l
0.1509 0.5000 l
0.1510 0.5000 l
0.1511 0.5000 l
0.1513 0.5000 l
0.1514 0.5000 l
0.1515 0.5001 l
0.1516 0.5001 l
0.1518 0.5001 l
0.1520 0.5001 l
0.1521 0.5001 l
0.1523 0.5001 l
0.1525 0.5001 l
0.1527 0.5001 l
0.1529 0.5002 l
0.1531 0.5002 l
0.1533 0.5002 l
0.1536 0.5002 l
0.1538 0.5003 l
0.1541 0.5003 l
0.1544 0.5003 l
0.1546 0.5004 l
0.1549 0.5004 l
0.1552 0.5004 l
0.1556 0.5005 l
0.1559 0.5005 l
0.1562 0.5006 l
0.1566 0.5006 l
0.1570 0.5007 l
0.1574 0.5008 l
0.1578 0.5008 l
0.1582 0.5009 l
0.1586 0.5010 l
0.1591 0.5011 l
0.1595 0.5011 l
0.1600 0.5012 l
0.1605 0.5013 l
0.1610 0.5014 l
0.1615 0.5016 l
0.1621 0.5017 l
0.1626 0.5018 l
0.1632 0.5019 l
0.1638 0.5021 l
0.1644 0.5022 l
0.1650 0.5024 l
0.1657 0.5025 l
0.1663 0.5027 l
0.1670 0.5029 l
0.1677 0.5031 l
0.1684 0.5033 l
0.1692 0.5035 l
0.1699 0.5037 l
0.1707 0.5039 l
0.1715 0.5042 l
0.1723 0.5044 l
0.1731 0.5047 l
0.1740 0.5050 l
0.1749 0.5052 l
0.1758 0.5055 l
0.1767 0.5058 l
0.1776 0.5062 l
0.1786 0.5065 l
0.1796 0.5069 l
0.1806 0.5072 l
0.1816 0.5076 l
0.1827 0.5080 l
0.1838 0.5084 l
0.1849 0.5088 l
0.1860 0.5093 l
0.1871 0.5097 l
0.1883 0.5102 l
0.1895 0.5107 l
0.1907 0.5112 l
0.1920 0.5117 l
0.1932 0.5122 l
0.1945 0.5128 l
0.1959 0.5133 l
0.1972 0.5139 l
0.1986 0.5145 l
0.2000 0.5152 l
0.2014 0.5158 l
0.2029 0.5165 l
0.2044 0.5172 l
0.2059 0.5179 l
0.2074 0.5186 l
0.2090 0.5194 l
0.2106 0.5202 l
0.2122 0.5210 l
0.2138 0.5218 l
0.2155 0.5226 l
0.2172 0.5235 l
0.2190 0.5244 l
0.2207 0.5253 l
0.2225 0.5262 l
0.2244 0.5272 l
0.2262 0.5281 l
0.2281 0.5291 l
0.2300 0.5302 l
0.2320 0.5312 l
0.2340 0.5323 l
0.2360 0.5334 l
0.2380 0.5346 l
0.2401 0.5357 l
0.2422 0.5369 l
0.2443 0.5381 l
0.2465 0.5393 l
0.2487 0.5406 l
0.2510 0.5419 l
0.2533 0.5432 l
0.2556 0.5446 l
0.2579 0.5459 l
0.2603 0.5473 l
0.2627 0.5488 l
0.2652 0.5502 l
0.2676 0.5517 l
0.2702 0.5532 l
0.2727 0.5548 l
0.2753 0.5563 l
0.2779 0.5579 l
0.2806 0.5596 l
0.2833 0.5612 l
0.2861 0.5629 l
0.2888 0.5646 l
0.2916 0.5664 l
0.2945 0.5681 l
0.2974 0.5699 l
0.3003 0.5718 l
0.3033 0.5736 l
0.3063 0.5755 l
0.3093 0.5775 l
0.3124 0.5794 l
0.3155 0.5814 l
0.3187 0.5834 l
0.3219 0.5854 l
0.3251 0.5875 l
0.3284 0.5896 l
0.3318 0.5917 l
0.3351 0.5939 l
0.3385 0.5961 l
0.3420 0.5983 l
0.3455 0.6005 l
0.3490 0.6028 l
0.3526 0.6051 l
0.3562 0.6074 l
0.3599 0.6097 l
0.3636 0.6121 l
0.3673 0.6145 l
0.3711 0.6170 l
0.3749 0.6194 l
0.3788 0.6219 l
0.3827 0.6244 l
0.3867 0.6270 l
0.3907 0.6295 l
0.3948 0.6321 l
0.3989 0.6347 l
0.4030 0.6374 l
0.4072 0.6401 l
0.4114 0.6427 l
0.4157 0.6455 l
0.4201 0.6482 l
0.4244 0.6509 l
0.4289 0.6537 l
0.4333 0.6565 l
0.4379 0.6594 l
0.4424 0.6622 l
0.4471 0.6651 l
0.4517 0.6680 l
0.4564 0.6709 l
0.4612 0.6738 l
0.4660 0.6767 l
0.4709 0.6797 l
0.4758 0.6827 l
0.4807 0.6857 l
0.4858 0.6887 l
0.4908 0.6917 l
0.4959 0.6948 l
0.5011 0.6978 l
0.5063 0.7009 l
0.5116 0.7040 l
0.5169 0.7071 l
0.5223 0.7102 l
0.5277 0.7133 l
0.5331 0.7164 l
0.5387 0.7196 l
0.5443 0.7227 l
0.5499 0.7258 l
0.5556 0.7290 l
0.5613 0.7322 l
0.5671 0.7353 l
0.5729 0.7385 l
0.5789 0.7417 l
0.5848 0.7449 l
0.5908 0.7481 l
0.5969 0.7512 l
0.6030 0.7544 l
0.6092 0.7576 l
0.6154 0.7608 l
0.6217 0.7640 l
0.6281 0.7671 l
0.6345 0.7703 l
0.6409 0.7735 l
0.6472 0.7765 l
s
[] 0 SD
0.0045 SLW
n
0.1500 0.5000 m
0.6471 0.5000 l
s
n
0.1500 0.8500 m
0.6471 0.8500 l
s
n
0.2121 0.5000 m
0.2121 0.5100 l
s
n
0.2121 0.8500 m
0.2121 0.8400 l
s
n
0.3364 0.5000 m
0.3364 0.5100 l
s
n
0.3364 0.8500 m
0.3364 0.8400 l
s
n
0.4607 0.5000 m
0.4607 0.5100 l
s
n
0.4607 0.8500 m
0.4607 0.8400 l
s
n
0.5849 0.5000 m
0.5849 0.5100 l
s
n
0.5849 0.8500 m
0.5849 0.8400 l
s
n
0.1500 0.5000 m
0.1500 0.5200 l
s
n
0.1500 0.8500 m
0.1500 0.8300 l
s
n
0.2743 0.5000 m
0.2743 0.5200 l
s
n
0.2743 0.8500 m
0.2743 0.8300 l
s
n
0.3985 0.5000 m
0.3985 0.5200 l
s
n
0.3985 0.8500 m
0.3985 0.8300 l
s
n
0.5228 0.5000 m
0.5228 0.5200 l
s
n
0.5228 0.8500 m
0.5228 0.8300 l
s
n
0.6471 0.5000 m
0.6471 0.5200 l
s
n
0.6471 0.8500 m
0.6471 0.8300 l
s
n
0.1500 0.5000 m
0.1500 0.8500 l
s
n
0.1500 0.5438 m
0.1600 0.5438 l
s
n
0.1500 0.6313 m
0.1600 0.6313 l
s
n
0.1500 0.7188 m
0.1600 0.7188 l
s
n
0.1500 0.8063 m
0.1600 0.8063 l
s
n
0.1500 0.5000 m
0.1700 0.5000 l
s
n
0.1500 0.5875 m
0.1700 0.5875 l
s
n
0.1500 0.6750 m
0.1700 0.6750 l
s
n
0.1500 0.7625 m
0.1700 0.7625 l
s
n
0.1500 0.8500 m
0.1700 0.8500 l
s
/Times-Roman findfont
dup length dict begin
 {1 index /FID ne {def} {pop pop} ifelse} forall
 /Encoding DefEncoding def
 currentdict
end
/Font0 exch definefont pop
/Font0 FFSF
0.1188 0.4851 m
GS
[0.0448 0.0000 0.0000 0.0448 0 0] CC
(0) show
GR
/Font0 FFSF
0.0965 0.5726 m
GS
[0.0448 0.0000 0.0000 0.0448 0 0] CC
(10) show
GR
/Font0 FFSF
0.0965 0.6601 m
GS
[0.0448 0.0000 0.0000 0.0448 0 0] CC
(20) show
GR
/Font0 FFSF
0.0965 0.7476 m
GS
[0.0448 0.0000 0.0000 0.0448 0 0] CC
(30) show
GR
/Font0 FFSF
0.0965 0.8351 m
GS
[0.0448 0.0000 0.0000 0.0448 0 0] CC
(40) show
GR
/Font0 FFSF
0.0782 0.5795 m
GS
[0.0000 0.0459 -0.0459 0.0000 0 0] CC
(\(S=0,T=0\)) show
GR
[] 0 SD
0.0015 SLW
n
0.1500 0.5000 m
0.1500 0.8500 l
0.6471 0.8500 l
0.6471 0.5000 l
0.1500 0.5000 l
c
s
n
0.6602 0.5296 m
0.6602 0.5463 l
0.6769 0.5463 l
0.6769 0.5296 l
c
GS
Color0 SRGB
fill
GR
[/Pattern /DeviceRGB] SCS
Color1 Pattern8 SC
fill
[/DeviceRGB] SCS
Color1 SC
[] 0 SD
0.0030 SLW
n
0.6602 0.5296 m
0.6602 0.5463 l
0.6769 0.5463 l
0.6769 0.5296 l
0.6602 0.5296 l
c
s
n
0.6693 0.5291 m
0.6693 0.5457 l
0.6860 0.5457 l
0.6860 0.5291 l
c
GS
Color0 SRGB
fill
GR
[/Pattern /DeviceRGB] SCS
Color1 Pattern8 SC
fill
[/DeviceRGB] SCS
Color1 SC
n
0.6693 0.5291 m
0.6693 0.5457 l
0.6860 0.5457 l
0.6860 0.5291 l
0.6693 0.5291 l
c
s
n
0.6807 0.5285 m
0.6807 0.5452 l
0.6974 0.5452 l
0.6974 0.5285 l
c
GS
Color0 SRGB
fill
GR
[/Pattern /DeviceRGB] SCS
Color1 Pattern8 SC
fill
[/DeviceRGB] SCS
Color1 SC
n
0.6807 0.5285 m
0.6807 0.5452 l
0.6974 0.5452 l
0.6974 0.5285 l
0.6807 0.5285 l
c
s
n
0.6946 0.5280 m
0.6946 0.5446 l
0.7112 0.5446 l
0.7112 0.5280 l
c
GS
Color0 SRGB
fill
GR
[/Pattern /DeviceRGB] SCS
Color1 Pattern8 SC
fill
[/DeviceRGB] SCS
Color1 SC
n
0.6946 0.5280 m
0.6946 0.5446 l
0.7112 0.5446 l
0.7112 0.5280 l
0.6946 0.5280 l
c
s
n
0.7112 0.5281 m
0.7112 0.5448 l
0.7279 0.5448 l
0.7279 0.5281 l
c
GS
Color0 SRGB
fill
GR
[/Pattern /DeviceRGB] SCS
Color1 Pattern8 SC
fill
[/DeviceRGB] SCS
Color1 SC
n
0.7112 0.5281 m
0.7112 0.5448 l
0.7279 0.5448 l
0.7279 0.5281 l
0.7112 0.5281 l
c
s
n
0.7309 0.5293 m
0.7309 0.5460 l
0.7476 0.5460 l
0.7476 0.5293 l
c
GS
Color0 SRGB
fill
GR
[/Pattern /DeviceRGB] SCS
Color1 Pattern8 SC
fill
[/DeviceRGB] SCS
Color1 SC
n
0.7309 0.5293 m
0.7309 0.5460 l
0.7476 0.5460 l
0.7476 0.5293 l
0.7309 0.5293 l
c
s
n
0.7539 0.5323 m
0.7539 0.5489 l
0.7706 0.5489 l
0.7706 0.5323 l
c
GS
Color0 SRGB
fill
GR
[/Pattern /DeviceRGB] SCS
Color1 Pattern8 SC
fill
[/DeviceRGB] SCS
Color1 SC
n
0.7539 0.5323 m
0.7539 0.5489 l
0.7706 0.5489 l
0.7706 0.5323 l
0.7539 0.5323 l
c
s
n
0.7804 0.5379 m
0.7804 0.5545 l
0.7970 0.5545 l
0.7970 0.5379 l
c
GS
Color0 SRGB
fill
GR
[/Pattern /DeviceRGB] SCS
Color1 Pattern8 SC
fill
[/DeviceRGB] SCS
Color1 SC
n
0.7804 0.5379 m
0.7804 0.5545 l
0.7970 0.5545 l
0.7970 0.5379 l
0.7804 0.5379 l
c
s
n
0.8106 0.5470 m
0.8106 0.5637 l
0.8273 0.5637 l
0.8273 0.5470 l
c
GS
Color0 SRGB
fill
GR
[/Pattern /DeviceRGB] SCS
Color1 Pattern8 SC
fill
[/DeviceRGB] SCS
Color1 SC
n
0.8106 0.5470 m
0.8106 0.5637 l
0.8273 0.5637 l
0.8273 0.5470 l
0.8106 0.5470 l
c
s
n
0.8449 0.5609 m
0.8449 0.5776 l
0.8616 0.5776 l
0.8616 0.5609 l
c
GS
Color0 SRGB
fill
GR
[/Pattern /DeviceRGB] SCS
Color1 Pattern8 SC
fill
[/DeviceRGB] SCS
Color1 SC
n
0.8449 0.5609 m
0.8449 0.5776 l
0.8616 0.5776 l
0.8616 0.5609 l
0.8449 0.5609 l
c
s
n
0.8835 0.5809 m
0.8835 0.5976 l
0.9002 0.5976 l
0.9002 0.5809 l
c
GS
Color0 SRGB
fill
GR
[/Pattern /DeviceRGB] SCS
Color1 Pattern8 SC
fill
[/DeviceRGB] SCS
Color1 SC
n
0.8835 0.5809 m
0.8835 0.5976 l
0.9002 0.5976 l
0.9002 0.5809 l
0.8835 0.5809 l
c
s
n
0.9266 0.6091 m
0.9266 0.6258 l
0.9433 0.6258 l
0.9433 0.6091 l
c
GS
Color0 SRGB
fill
GR
[/Pattern /DeviceRGB] SCS
Color1 Pattern8 SC
fill
[/DeviceRGB] SCS
Color1 SC
n
0.9266 0.6091 m
0.9266 0.6258 l
0.9433 0.6258 l
0.9433 0.6091 l
0.9266 0.6091 l
c
s
n
0.9745 0.6476 m
0.9745 0.6643 l
0.9911 0.6643 l
0.9911 0.6476 l
c
GS
Color0 SRGB
fill
GR
[/Pattern /DeviceRGB] SCS
Color1 Pattern8 SC
fill
[/DeviceRGB] SCS
Color1 SC
n
0.9745 0.6476 m
0.9745 0.6643 l
0.9911 0.6643 l
0.9911 0.6476 l
0.9745 0.6476 l
c
s
n
1.0274 0.6967 m
1.0274 0.7134 l
1.0441 0.7134 l
1.0441 0.6967 l
c
GS
Color0 SRGB
fill
GR
[/Pattern /DeviceRGB] SCS
Color1 Pattern8 SC
fill
[/DeviceRGB] SCS
Color1 SC
n
1.0274 0.6967 m
1.0274 0.7134 l
1.0441 0.7134 l
1.0441 0.6967 l
1.0274 0.6967 l
c
s
n
1.0856 0.7602 m
1.0856 0.7769 l
1.1023 0.7769 l
1.1023 0.7602 l
c
GS
Color0 SRGB
fill
GR
[/Pattern /DeviceRGB] SCS
Color1 Pattern8 SC
fill
[/DeviceRGB] SCS
Color1 SC
n
1.0856 0.7602 m
1.0856 0.7769 l
1.1023 0.7769 l
1.1023 0.7602 l
1.0856 0.7602 l
c
s
[] 0 SD
0.0037 SLW
n
0.6471 0.5389 m
0.6471 0.5389 l
0.6471 0.5389 l
0.6471 0.5389 l
0.6471 0.5389 l
0.6471 0.5389 l
0.6471 0.5389 l
0.6471 0.5389 l
0.6471 0.5389 l
0.6471 0.5389 l
0.6471 0.5389 l
0.6471 0.5389 l
0.6472 0.5389 l
0.6472 0.5389 l
0.6472 0.5389 l
0.6472 0.5389 l
0.6473 0.5389 l
0.6473 0.5389 l
0.6473 0.5389 l
0.6474 0.5389 l
0.6474 0.5389 l
0.6475 0.5389 l
0.6476 0.5389 l
0.6476 0.5389 l
0.6477 0.5389 l
0.6478 0.5389 l
0.6479 0.5389 l
0.6480 0.5389 l
0.6481 0.5389 l
0.6482 0.5389 l
0.6483 0.5389 l
0.6484 0.5389 l
0.6486 0.5388 l
0.6487 0.5388 l
0.6489 0.5388 l
0.6490 0.5388 l
0.6492 0.5388 l
0.6494 0.5388 l
0.6495 0.5388 l
0.6497 0.5388 l
0.6500 0.5388 l
0.6502 0.5388 l
0.6504 0.5387 l
0.6506 0.5387 l
0.6509 0.5387 l
0.6511 0.5387 l
0.6514 0.5387 l
0.6517 0.5386 l
0.6520 0.5386 l
0.6523 0.5386 l
0.6526 0.5385 l
0.6530 0.5385 l
0.6533 0.5385 l
0.6537 0.5385 l
0.6540 0.5384 l
0.6544 0.5384 l
0.6548 0.5383 l
0.6552 0.5383 l
0.6557 0.5382 l
0.6561 0.5382 l
0.6566 0.5381 l
0.6571 0.5381 l
0.6576 0.5380 l
0.6581 0.5380 l
0.6586 0.5379 l
0.6591 0.5379 l
0.6597 0.5378 l
0.6603 0.5377 l
0.6608 0.5376 l
0.6615 0.5376 l
0.6621 0.5375 l
0.6627 0.5374 l
0.6634 0.5373 l
0.6641 0.5373 l
0.6648 0.5372 l
0.6655 0.5371 l
0.6662 0.5370 l
0.6670 0.5369 l
0.6678 0.5368 l
0.6685 0.5367 l
0.6694 0.5366 l
0.6702 0.5365 l
0.6711 0.5364 l
0.6719 0.5363 l
0.6728 0.5362 l
0.6738 0.5361 l
0.6747 0.5360 l
0.6757 0.5359 l
0.6766 0.5357 l
0.6777 0.5356 l
0.6787 0.5355 l
0.6797 0.5354 l
0.6808 0.5353 l
0.6819 0.5352 l
0.6830 0.5351 l
0.6842 0.5350 l
0.6854 0.5349 l
0.6866 0.5348 l
0.6878 0.5347 l
0.6890 0.5346 l
0.6903 0.5345 l
0.6916 0.5344 l
0.6929 0.5343 l
0.6943 0.5342 l
0.6956 0.5341 l
0.6970 0.5340 l
0.6985 0.5340 l
0.6999 0.5339 l
0.7014 0.5338 l
0.7029 0.5338 l
0.7045 0.5337 l
0.7060 0.5337 l
0.7076 0.5337 l
0.7092 0.5336 l
0.7109 0.5336 l
0.7126 0.5336 l
0.7143 0.5336 l
0.7160 0.5337 l
0.7178 0.5337 l
0.7196 0.5337 l
0.7214 0.5338 l
0.7233 0.5339 l
0.7252 0.5340 l
0.7271 0.5341 l
0.7290 0.5342 l
0.7310 0.5343 l
0.7330 0.5345 l
0.7351 0.5346 l
0.7372 0.5348 l
0.7393 0.5350 l
0.7414 0.5353 l
0.7436 0.5355 l
0.7458 0.5358 l
0.7480 0.5361 l
0.7503 0.5365 l
0.7526 0.5368 l
0.7550 0.5372 l
0.7574 0.5376 l
0.7598 0.5380 l
0.7622 0.5385 l
0.7647 0.5390 l
0.7672 0.5395 l
0.7698 0.5401 l
0.7724 0.5407 l
0.7750 0.5413 l
0.7777 0.5419 l
0.7804 0.5426 l
0.7831 0.5434 l
0.7859 0.5441 l
0.7887 0.5449 l
0.7916 0.5458 l
0.7944 0.5467 l
0.7974 0.5476 l
0.8003 0.5486 l
0.8033 0.5496 l
0.8064 0.5507 l
0.8095 0.5518 l
0.8126 0.5530 l
0.8158 0.5542 l
0.8190 0.5554 l
0.8222 0.5567 l
0.8255 0.5581 l
0.8288 0.5595 l
0.8322 0.5610 l
0.8356 0.5625 l
0.8390 0.5641 l
0.8425 0.5658 l
0.8461 0.5675 l
0.8496 0.5692 l
0.8533 0.5710 l
0.8569 0.5729 l
0.8606 0.5749 l
0.8644 0.5769 l
0.8682 0.5790 l
0.8720 0.5811 l
0.8759 0.5833 l
0.8798 0.5856 l
0.8838 0.5880 l
0.8878 0.5904 l
0.8918 0.5929 l
0.8959 0.5955 l
0.9001 0.5981 l
0.9043 0.6009 l
0.9085 0.6037 l
0.9128 0.6066 l
0.9171 0.6095 l
0.9215 0.6126 l
0.9259 0.6157 l
0.9304 0.6189 l
0.9349 0.6222 l
0.9395 0.6256 l
0.9441 0.6291 l
0.9488 0.6326 l
0.9535 0.6363 l
0.9583 0.6400 l
0.9631 0.6438 l
0.9679 0.6478 l
0.9728 0.6518 l
0.9778 0.6559 l
0.9828 0.6601 l
0.9879 0.6644 l
0.9930 0.6688 l
0.9981 0.6733 l
1.0034 0.6779 l
1.0086 0.6826 l
1.0139 0.6874 l
1.0193 0.6924 l
1.0247 0.6974 l
1.0302 0.7025 l
1.0357 0.7077 l
1.0413 0.7131 l
1.0469 0.7185 l
1.0526 0.7241 l
1.0584 0.7298 l
1.0642 0.7355 l
1.0700 0.7414 l
1.0759 0.7475 l
1.0819 0.7536 l
1.0879 0.7598 l
1.0939 0.7662 l
1.1001 0.7727 l
1.1062 0.7793 l
1.1125 0.7860 l
1.1188 0.7929 l
1.1251 0.7998 l
1.1315 0.8069 l
1.1380 0.8141 l
1.1442 0.8212 l
s
[] 0 SD
0.0045 SLW
n
0.6471 0.5000 m
1.1441 0.5000 l
s
n
0.6471 0.8500 m
1.1441 0.8500 l
s
n
0.7092 0.5000 m
0.7092 0.5100 l
s
n
0.7092 0.8500 m
0.7092 0.8400 l
s
n
0.8335 0.5000 m
0.8335 0.5100 l
s
n
0.8335 0.8500 m
0.8335 0.8400 l
s
n
0.9577 0.5000 m
0.9577 0.5100 l
s
n
0.9577 0.8500 m
0.9577 0.8400 l
s
n
1.0820 0.5000 m
1.0820 0.5100 l
s
n
1.0820 0.8500 m
1.0820 0.8400 l
s
n
0.6471 0.5000 m
0.6471 0.5200 l
s
n
0.6471 0.8500 m
0.6471 0.8300 l
s
n
0.7713 0.5000 m
0.7713 0.5200 l
s
n
0.7713 0.8500 m
0.7713 0.8300 l
s
n
0.8956 0.5000 m
0.8956 0.5200 l
s
n
0.8956 0.8500 m
0.8956 0.8300 l
s
n
1.0199 0.5000 m
1.0199 0.5200 l
s
n
1.0199 0.8500 m
1.0199 0.8300 l
s
n
1.1441 0.5000 m
1.1441 0.5200 l
s
n
1.1441 0.8500 m
1.1441 0.8300 l
s
n
0.6471 0.5000 m
0.6471 0.8500 l
s
n
1.1441 0.5000 m
1.1441 0.8500 l
s
n
0.6471 0.5000 m
0.6571 0.5000 l
s
n
1.1441 0.5000 m
1.1341 0.5000 l
s
n
0.6471 0.5778 m
0.6571 0.5778 l
s
n
1.1441 0.5778 m
1.1341 0.5778 l
s
n
0.6471 0.6556 m
0.6571 0.6556 l
s
n
1.1441 0.6556 m
1.1341 0.6556 l
s
n
0.6471 0.7333 m
0.6571 0.7333 l
s
n
1.1441 0.7333 m
1.1341 0.7333 l
s
n
0.6471 0.8111 m
0.6571 0.8111 l
s
n
1.1441 0.8111 m
1.1341 0.8111 l
s
n
0.6471 0.5389 m
0.6671 0.5389 l
s
n
1.1441 0.5389 m
1.1241 0.5389 l
s
n
0.6471 0.6167 m
0.6671 0.6167 l
s
n
1.1441 0.6167 m
1.1241 0.6167 l
s
n
0.6471 0.6944 m
0.6671 0.6944 l
s
n
1.1441 0.6944 m
1.1241 0.6944 l
s
n
0.6471 0.7722 m
0.6671 0.7722 l
s
n
1.1441 0.7722 m
1.1241 0.7722 l
s
n
0.6471 0.8500 m
0.6671 0.8500 l
s
n
1.1441 0.8500 m
1.1241 0.8500 l
s
/Font0 FFSF
1.1541 0.5240 m
GS
[0.0448 0.0000 0.0000 0.0448 0 0] CC
(0) show
GR
/Font0 FFSF
1.1541 0.6018 m
GS
[0.0448 0.0000 0.0000 0.0448 0 0] CC
(10) show
GR
/Font0 FFSF
1.1541 0.6795 m
GS
[0.0448 0.0000 0.0000 0.0448 0 0] CC
(20) show
GR
/Font0 FFSF
1.1541 0.7573 m
GS
[0.0448 0.0000 0.0000 0.0448 0 0] CC
(30) show
GR
/Font0 FFSF
1.1541 0.8351 m
GS
[0.0448 0.0000 0.0000 0.0448 0 0] CC
(40) show
GR
/Font0 FFSF
1.2390 0.5795 m
GS
[0.0000 0.0459 -0.0459 0.0000 0 0] CC
(\(S=1,T=1\)) show
GR
[] 0 SD
0.0015 SLW
n
0.6471 0.5000 m
0.6471 0.8500 l
1.1441 0.8500 l
1.1441 0.5000 l
0.6471 0.5000 l
c
s
n
0.1632 0.3853 m
0.1632 0.4019 l
0.1798 0.4019 l
0.1798 0.3853 l
c
GS
Color0 SRGB
fill
GR
[/Pattern /DeviceRGB] SCS
Color1 Pattern8 SC
fill
[/DeviceRGB] SCS
Color1 SC
[] 0 SD
0.0030 SLW
n
0.1632 0.3853 m
0.1632 0.4019 l
0.1798 0.4019 l
0.1798 0.3853 l
0.1632 0.3853 l
c
s
n
0.1723 0.3672 m
0.1723 0.3838 l
0.1889 0.3838 l
0.1889 0.3672 l
c
GS
Color0 SRGB
fill
GR
[/Pattern /DeviceRGB] SCS
Color1 Pattern8 SC
fill
[/DeviceRGB] SCS
Color1 SC
n
0.1723 0.3672 m
0.1723 0.3838 l
0.1889 0.3838 l
0.1889 0.3672 l
0.1723 0.3672 l
c
s
n
0.1836 0.3483 m
0.1836 0.3649 l
0.2003 0.3649 l
0.2003 0.3483 l
c
GS
Color0 SRGB
fill
GR
[/Pattern /DeviceRGB] SCS
Color1 Pattern8 SC
fill
[/DeviceRGB] SCS
Color1 SC
n
0.1836 0.3483 m
0.1836 0.3649 l
0.2003 0.3649 l
0.2003 0.3483 l
0.1836 0.3483 l
c
s
n
0.1975 0.3282 m
0.1975 0.3448 l
0.2142 0.3448 l
0.2142 0.3282 l
c
GS
Color0 SRGB
fill
GR
[/Pattern /DeviceRGB] SCS
Color1 Pattern8 SC
fill
[/DeviceRGB] SCS
Color1 SC
n
0.1975 0.3282 m
0.1975 0.3448 l
0.2142 0.3448 l
0.2142 0.3282 l
0.1975 0.3282 l
c
s
n
0.2142 0.3076 m
0.2142 0.3242 l
0.2309 0.3242 l
0.2309 0.3076 l
c
GS
Color0 SRGB
fill
GR
[/Pattern /DeviceRGB] SCS
Color1 Pattern8 SC
fill
[/DeviceRGB] SCS
Color1 SC
n
0.2142 0.3076 m
0.2142 0.3242 l
0.2309 0.3242 l
0.2309 0.3076 l
0.2142 0.3076 l
c
s
n
0.2339 0.2850 m
0.2339 0.3017 l
0.2505 0.3017 l
0.2505 0.2850 l
c
GS
Color0 SRGB
fill
GR
[/Pattern /DeviceRGB] SCS
Color1 Pattern8 SC
fill
[/DeviceRGB] SCS
Color1 SC
n
0.2339 0.2850 m
0.2339 0.3017 l
0.2505 0.3017 l
0.2505 0.2850 l
0.2339 0.2850 l
c
s
n
0.2568 0.2619 m
0.2568 0.2786 l
0.2735 0.2786 l
0.2735 0.2619 l
c
GS
Color0 SRGB
fill
GR
[/Pattern /DeviceRGB] SCS
Color1 Pattern8 SC
fill
[/DeviceRGB] SCS
Color1 SC
n
0.2568 0.2619 m
0.2568 0.2786 l
0.2735 0.2786 l
0.2735 0.2619 l
0.2568 0.2619 l
c
s
n
0.2833 0.2383 m
0.2833 0.2550 l
0.3000 0.2550 l
0.3000 0.2383 l
c
GS
Color0 SRGB
fill
GR
[/Pattern /DeviceRGB] SCS
Color1 Pattern8 SC
fill
[/DeviceRGB] SCS
Color1 SC
n
0.2833 0.2383 m
0.2833 0.2550 l
0.3000 0.2550 l
0.3000 0.2383 l
0.2833 0.2383 l
c
s
n
0.3136 0.2159 m
0.3136 0.2325 l
0.3302 0.2325 l
0.3302 0.2159 l
c
GS
Color0 SRGB
fill
GR
[/Pattern /DeviceRGB] SCS
Color1 Pattern8 SC
fill
[/DeviceRGB] SCS
Color1 SC
n
0.3136 0.2159 m
0.3136 0.2325 l
0.3302 0.2325 l
0.3302 0.2159 l
0.3136 0.2159 l
c
s
n
0.3479 0.1951 m
0.3479 0.2118 l
0.3645 0.2118 l
0.3645 0.1951 l
c
GS
Color0 SRGB
fill
GR
[/Pattern /DeviceRGB] SCS
Color1 Pattern8 SC
fill
[/DeviceRGB] SCS
Color1 SC
n
0.3479 0.1951 m
0.3479 0.2118 l
0.3645 0.2118 l
0.3645 0.1951 l
0.3479 0.1951 l
c
s
n
0.3864 0.1766 m
0.3864 0.1933 l
0.4031 0.1933 l
0.4031 0.1766 l
c
GS
Color0 SRGB
fill
GR
[/Pattern /DeviceRGB] SCS
Color1 Pattern8 SC
fill
[/DeviceRGB] SCS
Color1 SC
n
0.3864 0.1766 m
0.3864 0.1933 l
0.4031 0.1933 l
0.4031 0.1766 l
0.3864 0.1766 l
c
s
n
0.4295 0.1623 m
0.4295 0.1790 l
0.4462 0.1790 l
0.4462 0.1623 l
c
GS
Color0 SRGB
fill
GR
[/Pattern /DeviceRGB] SCS
Color1 Pattern8 SC
fill
[/DeviceRGB] SCS
Color1 SC
n
0.4295 0.1623 m
0.4295 0.1790 l
0.4462 0.1790 l
0.4462 0.1623 l
0.4295 0.1623 l
c
s
n
0.4774 0.1543 m
0.4774 0.1709 l
0.4941 0.1709 l
0.4941 0.1543 l
c
GS
Color0 SRGB
fill
GR
[/Pattern /DeviceRGB] SCS
Color1 Pattern8 SC
fill
[/DeviceRGB] SCS
Color1 SC
n
0.4774 0.1543 m
0.4774 0.1709 l
0.4941 0.1709 l
0.4941 0.1543 l
0.4774 0.1543 l
c
s
n
0.5304 0.1522 m
0.5304 0.1688 l
0.5470 0.1688 l
0.5470 0.1522 l
c
GS
Color0 SRGB
fill
GR
[/Pattern /DeviceRGB] SCS
Color1 Pattern8 SC
fill
[/DeviceRGB] SCS
Color1 SC
n
0.5304 0.1522 m
0.5304 0.1688 l
0.5470 0.1688 l
0.5470 0.1522 l
0.5304 0.1522 l
c
s
n
0.5886 0.1604 m
0.5886 0.1770 l
0.6052 0.1770 l
0.6052 0.1604 l
c
GS
Color0 SRGB
fill
GR
[/Pattern /DeviceRGB] SCS
Color1 Pattern8 SC
fill
[/DeviceRGB] SCS
Color1 SC
n
0.5886 0.1604 m
0.5886 0.1770 l
0.6052 0.1770 l
0.6052 0.1604 l
0.5886 0.1604 l
c
s
[] 0 SD
0.0037 SLW
n
0.1500 0.4650 m
0.1500 0.4650 l
0.1500 0.4650 l
0.1500 0.4650 l
0.1500 0.4650 l
0.1500 0.4650 l
0.1500 0.4649 l
0.1500 0.4649 l
0.1500 0.4649 l
0.1500 0.4648 l
0.1501 0.4648 l
0.1501 0.4647 l
0.1501 0.4646 l
0.1501 0.4645 l
0.1501 0.4644 l
0.1502 0.4643 l
0.1502 0.4642 l
0.1502 0.4640 l
0.1503 0.4639 l
0.1503 0.4637 l
0.1504 0.4635 l
0.1504 0.4633 l
0.1505 0.4631 l
0.1506 0.4628 l
0.1507 0.4625 l
0.1507 0.4622 l
0.1508 0.4619 l
0.1509 0.4616 l
0.1510 0.4612 l
0.1511 0.4609 l
0.1513 0.4605 l
0.1514 0.4601 l
0.1515 0.4596 l
0.1516 0.4591 l
0.1518 0.4587 l
0.1520 0.4581 l
0.1521 0.4576 l
0.1523 0.4570 l
0.1525 0.4565 l
0.1527 0.4558 l
0.1529 0.4552 l
0.1531 0.4545 l
0.1533 0.4538 l
0.1536 0.4531 l
0.1538 0.4524 l
0.1541 0.4516 l
0.1544 0.4508 l
0.1546 0.4500 l
0.1549 0.4491 l
0.1552 0.4483 l
0.1556 0.4474 l
0.1559 0.4464 l
0.1562 0.4455 l
0.1566 0.4445 l
0.1570 0.4434 l
0.1574 0.4424 l
0.1578 0.4413 l
0.1582 0.4402 l
0.1586 0.4391 l
0.1591 0.4379 l
0.1595 0.4368 l
0.1600 0.4355 l
0.1605 0.4343 l
0.1610 0.4330 l
0.1615 0.4317 l
0.1621 0.4304 l
0.1626 0.4291 l
0.1632 0.4277 l
0.1638 0.4263 l
0.1644 0.4248 l
0.1650 0.4234 l
0.1657 0.4219 l
0.1663 0.4203 l
0.1670 0.4188 l
0.1677 0.4172 l
0.1684 0.4156 l
0.1692 0.4140 l
0.1699 0.4123 l
0.1707 0.4107 l
0.1715 0.4089 l
0.1723 0.4072 l
0.1731 0.4054 l
0.1740 0.4037 l
0.1749 0.4018 l
0.1758 0.4000 l
0.1767 0.3981 l
0.1776 0.3962 l
0.1786 0.3943 l
0.1796 0.3924 l
0.1806 0.3904 l
0.1816 0.3884 l
0.1827 0.3864 l
0.1838 0.3844 l
0.1849 0.3823 l
0.1860 0.3802 l
0.1871 0.3781 l
0.1883 0.3760 l
0.1895 0.3738 l
0.1907 0.3716 l
0.1920 0.3694 l
0.1932 0.3672 l
0.1945 0.3650 l
0.1959 0.3627 l
0.1972 0.3604 l
0.1986 0.3581 l
0.2000 0.3558 l
0.2014 0.3534 l
0.2029 0.3511 l
0.2044 0.3487 l
0.2059 0.3463 l
0.2074 0.3439 l
0.2090 0.3414 l
0.2106 0.3390 l
0.2122 0.3365 l
0.2138 0.3340 l
0.2155 0.3315 l
0.2172 0.3290 l
0.2190 0.3264 l
0.2207 0.3239 l
0.2225 0.3213 l
0.2244 0.3187 l
0.2262 0.3161 l
0.2281 0.3135 l
0.2300 0.3109 l
0.2320 0.3083 l
0.2340 0.3057 l
0.2360 0.3030 l
0.2380 0.3004 l
0.2401 0.2977 l
0.2422 0.2951 l
0.2444 0.2924 l
0.2465 0.2897 l
0.2487 0.2870 l
0.2510 0.2843 l
0.2533 0.2817 l
0.2556 0.2790 l
0.2579 0.2763 l
0.2603 0.2736 l
0.2627 0.2709 l
0.2652 0.2682 l
0.2676 0.2655 l
0.2702 0.2628 l
0.2727 0.2601 l
0.2753 0.2575 l
0.2779 0.2548 l
0.2806 0.2521 l
0.2833 0.2495 l
0.2861 0.2468 l
0.2888 0.2442 l
0.2916 0.2416 l
0.2945 0.2390 l
0.2974 0.2364 l
0.3003 0.2338 l
0.3033 0.2313 l
0.3063 0.2287 l
0.3093 0.2262 l
0.3124 0.2237 l
0.3155 0.2212 l
0.3187 0.2188 l
0.3219 0.2164 l
0.3252 0.2140 l
0.3284 0.2116 l
0.3318 0.2093 l
0.3351 0.2070 l
0.3385 0.2047 l
0.3420 0.2025 l
0.3455 0.2003 l
0.3490 0.1982 l
0.3526 0.1961 l
0.3562 0.1940 l
0.3599 0.1920 l
0.3636 0.1901 l
0.3673 0.1882 l
0.3711 0.1863 l
0.3749 0.1845 l
0.3788 0.1827 l
0.3827 0.1811 l
0.3867 0.1794 l
0.3907 0.1779 l
0.3948 0.1764 l
0.3989 0.1749 l
0.4030 0.1736 l
0.4072 0.1723 l
0.4114 0.1711 l
0.4157 0.1699 l
0.4201 0.1689 l
0.4244 0.1679 l
0.4289 0.1670 l
0.4333 0.1662 l
0.4379 0.1655 l
0.4424 0.1649 l
0.4471 0.1644 l
0.4517 0.1640 l
0.4564 0.1637 l
0.4612 0.1635 l
0.4660 0.1634 l
0.4709 0.1634 l
0.4758 0.1636 l
0.4807 0.1638 l
0.4858 0.1642 l
0.4908 0.1647 l
0.4959 0.1654 l
0.5011 0.1661 l
0.5063 0.1670 l
0.5116 0.1681 l
0.5169 0.1692 l
0.5223 0.1706 l
0.5277 0.1721 l
0.5332 0.1737 l
0.5387 0.1755 l
0.5443 0.1774 l
0.5499 0.1795 l
0.5556 0.1818 l
0.5613 0.1843 l
0.5671 0.1869 l
0.5730 0.1897 l
0.5789 0.1927 l
0.5848 0.1959 l
0.5908 0.1993 l
0.5969 0.2029 l
0.6030 0.2066 l
0.6092 0.2106 l
0.6154 0.2148 l
0.6217 0.2192 l
0.6281 0.2238 l
0.6345 0.2287 l
0.6409 0.2338 l
0.6472 0.2388 l
s
[] 0 SD
0.0045 SLW
n
0.1500 0.1500 m
0.6471 0.1500 l
s
n
0.2121 0.1500 m
0.2121 0.1600 l
s
n
0.3364 0.1500 m
0.3364 0.1600 l
s
n
0.4607 0.1500 m
0.4607 0.1600 l
s
n
0.5849 0.1500 m
0.5849 0.1600 l
s
n
0.1500 0.1500 m
0.1500 0.1700 l
s
n
0.2743 0.1500 m
0.2743 0.1700 l
s
n
0.3985 0.1500 m
0.3985 0.1700 l
s
n
0.5228 0.1500 m
0.5228 0.1700 l
s
/Font0 FFSF
0.1394 0.1094 m
GS
[0.0448 0.0000 0.0000 0.0448 0 0] CC
(0) show
GR
/Font0 FFSF
0.2468 0.1094 m
GS
[0.0448 0.0000 0.0000 0.0448 0 0] CC
(0.2) show
GR
/Font0 FFSF
0.3711 0.1094 m
GS
[0.0448 0.0000 0.0000 0.0448 0 0] CC
(0.4) show
GR
/Font0 FFSF
0.4955 0.1094 m
GS
[0.0448 0.0000 0.0000 0.0448 0 0] CC
(0.6) show
GR
/Symbol findfont
/Font12 exch definefont pop
/Font12 FFSF
0.5779 0.0503 m
GS
[0.0459 0.0000 0.0000 0.0459 0 0] CC
(r) show
GR
/Font0 FFSF
0.6030 0.0503 m
GS
[0.0459 0.0000 0.0000 0.0459 0 0] CC
( [fm) show
GR
/Font0 FFSF
0.6807 0.0779 m
GS
[0.0325 0.0000 0.0000 0.0325 0 0] CC
(-3) show
GR
/Font0 FFSF
0.7077 0.0503 m
GS
[0.0459 0.0000 0.0000 0.0459 0 0] CC
(]) show
GR
n
0.1500 0.1500 m
0.1500 0.5000 l
s
n
0.1500 0.1500 m
0.1600 0.1500 l
s
n
0.1500 0.2200 m
0.1600 0.2200 l
s
n
0.1500 0.2900 m
0.1600 0.2900 l
s
n
0.1500 0.3600 m
0.1600 0.3600 l
s
n
0.1500 0.4300 m
0.1600 0.4300 l
s
n
0.1500 0.5000 m
0.1600 0.5000 l
s
n
0.1500 0.1850 m
0.1700 0.1850 l
s
n
0.1500 0.2550 m
0.1700 0.2550 l
s
n
0.1500 0.3250 m
0.1700 0.3250 l
s
n
0.1500 0.3950 m
0.1700 0.3950 l
s
n
0.1500 0.4650 m
0.1700 0.4650 l
s
/Font0 FFSF
0.0816 0.1701 m
GS
[0.0448 0.0000 0.0000 0.0448 0 0] CC
(-40) show
GR
/Font0 FFSF
0.0816 0.2401 m
GS
[0.0448 0.0000 0.0000 0.0448 0 0] CC
(-30) show
GR
/Font0 FFSF
0.0816 0.3101 m
GS
[0.0448 0.0000 0.0000 0.0448 0 0] CC
(-20) show
GR
/Font0 FFSF
0.0816 0.3801 m
GS
[0.0448 0.0000 0.0000 0.0448 0 0] CC
(-10) show
GR
/Font0 FFSF
0.1188 0.4501 m
GS
[0.0448 0.0000 0.0000 0.0448 0 0] CC
(0) show
GR
/Font0 FFSF
0.0633 0.2295 m
GS
[0.0000 0.0459 -0.0459 0.0000 0 0] CC
(\(S=1,T=0\)) show
GR
[] 0 SD
0.0015 SLW
n
0.1500 0.1500 m
0.1500 0.5000 l
0.6471 0.5000 l
0.6471 0.1500 l
0.1500 0.1500 l
c
s
n
0.6602 0.4164 m
0.6602 0.4331 l
0.6769 0.4331 l
0.6769 0.4164 l
c
GS
Color0 SRGB
fill
GR
[/Pattern /DeviceRGB] SCS
Color1 Pattern8 SC
fill
[/DeviceRGB] SCS
Color1 SC
[] 0 SD
0.0030 SLW
n
0.6602 0.4164 m
0.6602 0.4331 l
0.6769 0.4331 l
0.6769 0.4164 l
0.6602 0.4164 l
c
s
n
0.6693 0.4045 m
0.6693 0.4211 l
0.6860 0.4211 l
0.6860 0.4045 l
c
GS
Color0 SRGB
fill
GR
[/Pattern /DeviceRGB] SCS
Color1 Pattern8 SC
fill
[/DeviceRGB] SCS
Color1 SC
n
0.6693 0.4045 m
0.6693 0.4211 l
0.6860 0.4211 l
0.6860 0.4045 l
0.6693 0.4045 l
c
s
n
0.6807 0.3915 m
0.6807 0.4081 l
0.6974 0.4081 l
0.6974 0.3915 l
c
GS
Color0 SRGB
fill
GR
[/Pattern /DeviceRGB] SCS
Color1 Pattern8 SC
fill
[/DeviceRGB] SCS
Color1 SC
n
0.6807 0.3915 m
0.6807 0.4081 l
0.6974 0.4081 l
0.6974 0.3915 l
0.6807 0.3915 l
c
s
n
0.6946 0.3777 m
0.6946 0.3943 l
0.7112 0.3943 l
0.7112 0.3777 l
c
GS
Color0 SRGB
fill
GR
[/Pattern /DeviceRGB] SCS
Color1 Pattern8 SC
fill
[/DeviceRGB] SCS
Color1 SC
n
0.6946 0.3777 m
0.6946 0.3943 l
0.7112 0.3943 l
0.7112 0.3777 l
0.6946 0.3777 l
c
s
n
0.7112 0.3632 m
0.7112 0.3799 l
0.7279 0.3799 l
0.7279 0.3632 l
c
GS
Color0 SRGB
fill
GR
[/Pattern /DeviceRGB] SCS
Color1 Pattern8 SC
fill
[/DeviceRGB] SCS
Color1 SC
n
0.7112 0.3632 m
0.7112 0.3799 l
0.7279 0.3799 l
0.7279 0.3632 l
0.7112 0.3632 l
c
s
n
0.7309 0.3481 m
0.7309 0.3648 l
0.7476 0.3648 l
0.7476 0.3481 l
c
GS
Color0 SRGB
fill
GR
[/Pattern /DeviceRGB] SCS
Color1 Pattern8 SC
fill
[/DeviceRGB] SCS
Color1 SC
n
0.7309 0.3481 m
0.7309 0.3648 l
0.7476 0.3648 l
0.7476 0.3481 l
0.7309 0.3481 l
c
s
n
0.7539 0.3334 m
0.7539 0.3500 l
0.7706 0.3500 l
0.7706 0.3334 l
c
GS
Color0 SRGB
fill
GR
[/Pattern /DeviceRGB] SCS
Color1 Pattern8 SC
fill
[/DeviceRGB] SCS
Color1 SC
n
0.7539 0.3334 m
0.7539 0.3500 l
0.7706 0.3500 l
0.7706 0.3334 l
0.7539 0.3334 l
c
s
n
0.7804 0.3199 m
0.7804 0.3366 l
0.7970 0.3366 l
0.7970 0.3199 l
c
GS
Color0 SRGB
fill
GR
[/Pattern /DeviceRGB] SCS
Color1 Pattern8 SC
fill
[/DeviceRGB] SCS
Color1 SC
n
0.7804 0.3199 m
0.7804 0.3366 l
0.7970 0.3366 l
0.7970 0.3199 l
0.7804 0.3199 l
c
s
n
0.8106 0.3090 m
0.8106 0.3257 l
0.8273 0.3257 l
0.8273 0.3090 l
c
GS
Color0 SRGB
fill
GR
[/Pattern /DeviceRGB] SCS
Color1 Pattern8 SC
fill
[/DeviceRGB] SCS
Color1 SC
n
0.8106 0.3090 m
0.8106 0.3257 l
0.8273 0.3257 l
0.8273 0.3090 l
0.8106 0.3090 l
c
s
n
0.8449 0.3018 m
0.8449 0.3184 l
0.8616 0.3184 l
0.8616 0.3018 l
c
GS
Color0 SRGB
fill
GR
[/Pattern /DeviceRGB] SCS
Color1 Pattern8 SC
fill
[/DeviceRGB] SCS
Color1 SC
n
0.8449 0.3018 m
0.8449 0.3184 l
0.8616 0.3184 l
0.8616 0.3018 l
0.8449 0.3018 l
c
s
n
0.8835 0.2998 m
0.8835 0.3164 l
0.9002 0.3164 l
0.9002 0.2998 l
c
GS
Color0 SRGB
fill
GR
[/Pattern /DeviceRGB] SCS
Color1 Pattern8 SC
fill
[/DeviceRGB] SCS
Color1 SC
n
0.8835 0.2998 m
0.8835 0.3164 l
0.9002 0.3164 l
0.9002 0.2998 l
0.8835 0.2998 l
c
s
n
0.9266 0.3049 m
0.9266 0.3215 l
0.9433 0.3215 l
0.9433 0.3049 l
c
GS
Color0 SRGB
fill
GR
[/Pattern /DeviceRGB] SCS
Color1 Pattern8 SC
fill
[/DeviceRGB] SCS
Color1 SC
n
0.9266 0.3049 m
0.9266 0.3215 l
0.9433 0.3215 l
0.9433 0.3049 l
0.9266 0.3049 l
c
s
n
0.9745 0.3197 m
0.9745 0.3363 l
0.9911 0.3363 l
0.9911 0.3197 l
c
GS
Color0 SRGB
fill
GR
[/Pattern /DeviceRGB] SCS
Color1 Pattern8 SC
fill
[/DeviceRGB] SCS
Color1 SC
n
0.9745 0.3197 m
0.9745 0.3363 l
0.9911 0.3363 l
0.9911 0.3197 l
0.9745 0.3197 l
c
s
n
1.0274 0.3460 m
1.0274 0.3627 l
1.0441 0.3627 l
1.0441 0.3460 l
c
GS
Color0 SRGB
fill
GR
[/Pattern /DeviceRGB] SCS
Color1 Pattern8 SC
fill
[/DeviceRGB] SCS
Color1 SC
n
1.0274 0.3460 m
1.0274 0.3627 l
1.0441 0.3627 l
1.0441 0.3460 l
1.0274 0.3460 l
c
s
n
1.0856 0.3870 m
1.0856 0.4037 l
1.1023 0.4037 l
1.1023 0.3870 l
c
GS
Color0 SRGB
fill
GR
[/Pattern /DeviceRGB] SCS
Color1 Pattern8 SC
fill
[/DeviceRGB] SCS
Color1 SC
n
1.0856 0.3870 m
1.0856 0.4037 l
1.1023 0.4037 l
1.1023 0.3870 l
1.0856 0.3870 l
c
s
[] 0 SD
0.0037 SLW
n
0.6471 0.4650 m
0.6471 0.4650 l
0.6471 0.4650 l
0.6471 0.4650 l
0.6471 0.4650 l
0.6471 0.4650 l
0.6471 0.4650 l
0.6471 0.4650 l
0.6471 0.4649 l
0.6471 0.4649 l
0.6471 0.4649 l
0.6471 0.4649 l
0.6472 0.4648 l
0.6472 0.4648 l
0.6472 0.4647 l
0.6472 0.4646 l
0.6473 0.4646 l
0.6473 0.4645 l
0.6473 0.4644 l
0.6474 0.4643 l
0.6474 0.4642 l
0.6475 0.4641 l
0.6476 0.4640 l
0.6476 0.4638 l
0.6477 0.4637 l
0.6478 0.4635 l
0.6479 0.4633 l
0.6480 0.4631 l
0.6481 0.4629 l
0.6482 0.4627 l
0.6483 0.4625 l
0.6484 0.4622 l
0.6486 0.4620 l
0.6487 0.4617 l
0.6489 0.4614 l
0.6490 0.4611 l
0.6492 0.4608 l
0.6494 0.4604 l
0.6495 0.4601 l
0.6497 0.4597 l
0.6500 0.4593 l
0.6502 0.4589 l
0.6504 0.4585 l
0.6506 0.4580 l
0.6509 0.4575 l
0.6511 0.4571 l
0.6514 0.4566 l
0.6517 0.4560 l
0.6520 0.4555 l
0.6523 0.4549 l
0.6526 0.4543 l
0.6530 0.4537 l
0.6533 0.4531 l
0.6537 0.4524 l
0.6540 0.4518 l
0.6544 0.4511 l
0.6548 0.4504 l
0.6552 0.4496 l
0.6557 0.4489 l
0.6561 0.4481 l
0.6566 0.4473 l
0.6571 0.4465 l
0.6576 0.4456 l
0.6581 0.4448 l
0.6586 0.4439 l
0.6591 0.4430 l
0.6597 0.4421 l
0.6603 0.4411 l
0.6608 0.4401 l
0.6615 0.4392 l
0.6621 0.4381 l
0.6627 0.4371 l
0.6634 0.4361 l
0.6641 0.4350 l
0.6648 0.4339 l
0.6655 0.4328 l
0.6662 0.4316 l
0.6670 0.4305 l
0.6678 0.4293 l
0.6685 0.4281 l
0.6694 0.4269 l
0.6702 0.4257 l
0.6711 0.4244 l
0.6719 0.4231 l
0.6728 0.4218 l
0.6738 0.4205 l
0.6747 0.4192 l
0.6757 0.4179 l
0.6766 0.4165 l
0.6777 0.4151 l
0.6787 0.4138 l
0.6797 0.4123 l
0.6808 0.4109 l
0.6819 0.4095 l
0.6830 0.4080 l
0.6842 0.4066 l
0.6854 0.4051 l
0.6866 0.4036 l
0.6878 0.4021 l
0.6890 0.4006 l
0.6903 0.3991 l
0.6916 0.3975 l
0.6929 0.3960 l
0.6943 0.3944 l
0.6956 0.3929 l
0.6970 0.3913 l
0.6985 0.3897 l
0.6999 0.3882 l
0.7014 0.3866 l
0.7029 0.3850 l
0.7045 0.3834 l
0.7060 0.3818 l
0.7076 0.3802 l
0.7092 0.3786 l
0.7109 0.3770 l
0.7126 0.3754 l
0.7143 0.3737 l
0.7160 0.3721 l
0.7178 0.3705 l
0.7196 0.3689 l
0.7214 0.3673 l
0.7233 0.3657 l
0.7252 0.3641 l
0.7271 0.3626 l
0.7290 0.3610 l
0.7310 0.3594 l
0.7330 0.3578 l
0.7351 0.3563 l
0.7372 0.3547 l
0.7393 0.3532 l
0.7414 0.3517 l
0.7436 0.3502 l
0.7458 0.3487 l
0.7480 0.3472 l
0.7503 0.3457 l
0.7526 0.3443 l
0.7550 0.3429 l
0.7574 0.3414 l
0.7598 0.3401 l
0.7622 0.3387 l
0.7647 0.3373 l
0.7672 0.3360 l
0.7698 0.3347 l
0.7724 0.3334 l
0.7750 0.3322 l
0.7777 0.3309 l
0.7804 0.3297 l
0.7831 0.3285 l
0.7859 0.3274 l
0.7887 0.3263 l
0.7916 0.3252 l
0.7944 0.3241 l
0.7974 0.3231 l
0.8003 0.3221 l
0.8033 0.3212 l
0.8064 0.3203 l
0.8095 0.3194 l
0.8126 0.3185 l
0.8158 0.3177 l
0.8190 0.3170 l
0.8222 0.3163 l
0.8255 0.3156 l
0.8288 0.3149 l
0.8322 0.3143 l
0.8356 0.3138 l
0.8390 0.3133 l
0.8425 0.3128 l
0.8461 0.3124 l
0.8496 0.3121 l
0.8533 0.3118 l
0.8569 0.3115 l
0.8606 0.3113 l
0.8644 0.3111 l
0.8682 0.3110 l
0.8720 0.3110 l
0.8759 0.3110 l
0.8798 0.3110 l
0.8838 0.3111 l
0.8878 0.3113 l
0.8918 0.3115 l
0.8959 0.3118 l
0.9001 0.3122 l
0.9043 0.3126 l
0.9085 0.3131 l
0.9128 0.3136 l
0.9171 0.3142 l
0.9215 0.3148 l
0.9259 0.3156 l
0.9304 0.3164 l
0.9349 0.3172 l
0.9395 0.3182 l
0.9441 0.3191 l
0.9488 0.3202 l
0.9535 0.3213 l
0.9583 0.3225 l
0.9631 0.3238 l
0.9679 0.3252 l
0.9728 0.3266 l
0.9778 0.3281 l
0.9828 0.3296 l
0.9879 0.3313 l
0.9930 0.3330 l
0.9981 0.3348 l
1.0034 0.3367 l
1.0086 0.3386 l
1.0139 0.3406 l
1.0193 0.3427 l
1.0247 0.3449 l
1.0302 0.3472 l
1.0357 0.3495 l
1.0413 0.3519 l
1.0469 0.3545 l
1.0526 0.3570 l
1.0584 0.3597 l
1.0642 0.3625 l
1.0700 0.3653 l
1.0759 0.3682 l
1.0819 0.3712 l
1.0879 0.3743 l
1.0939 0.3775 l
1.1001 0.3807 l
1.1062 0.3841 l
1.1125 0.3875 l
1.1188 0.3910 l
1.1251 0.3947 l
1.1315 0.3984 l
1.1380 0.4021 l
1.1442 0.4059 l
s
[] 0 SD
0.0045 SLW
n
0.6471 0.1500 m
1.1441 0.1500 l
s
n
0.7092 0.1500 m
0.7092 0.1600 l
s
n
0.8335 0.1500 m
0.8335 0.1600 l
s
n
0.9577 0.1500 m
0.9577 0.1600 l
s
n
1.0820 0.1500 m
1.0820 0.1600 l
s
n
0.6471 0.1500 m
0.6471 0.1700 l
s
n
0.7713 0.1500 m
0.7713 0.1700 l
s
n
0.8956 0.1500 m
0.8956 0.1700 l
s
n
1.0199 0.1500 m
1.0199 0.1700 l
s
n
1.1441 0.1500 m
1.1441 0.1700 l
s
/Font0 FFSF
0.6365 0.1094 m
GS
[0.0448 0.0000 0.0000 0.0448 0 0] CC
(0) show
GR
/Font0 FFSF
0.7439 0.1094 m
GS
[0.0448 0.0000 0.0000 0.0448 0 0] CC
(0.2) show
GR
/Font0 FFSF
0.8681 0.1094 m
GS
[0.0448 0.0000 0.0000 0.0448 0 0] CC
(0.4) show
GR
/Font0 FFSF
0.9926 0.1094 m
GS
[0.0448 0.0000 0.0000 0.0448 0 0] CC
(0.6) show
GR
/Font0 FFSF
1.1173 0.1094 m
GS
[0.0448 0.0000 0.0000 0.0448 0 0] CC
(0.8) show
GR
n
0.6471 0.1500 m
0.6471 0.5000 l
s
n
1.1441 0.1500 m
1.1441 0.5000 l
s
n
0.6471 0.1500 m
0.6571 0.1500 l
s
n
1.1441 0.1500 m
1.1341 0.1500 l
s
n
0.6471 0.2200 m
0.6571 0.2200 l
s
n
1.1441 0.2200 m
1.1341 0.2200 l
s
n
0.6471 0.2900 m
0.6571 0.2900 l
s
n
1.1441 0.2900 m
1.1341 0.2900 l
s
n
0.6471 0.3600 m
0.6571 0.3600 l
s
n
1.1441 0.3600 m
1.1341 0.3600 l
s
n
0.6471 0.4300 m
0.6571 0.4300 l
s
n
1.1441 0.4300 m
1.1341 0.4300 l
s
n
0.6471 0.5000 m
0.6571 0.5000 l
s
n
1.1441 0.5000 m
1.1341 0.5000 l
s
n
0.6471 0.1850 m
0.6671 0.1850 l
s
n
1.1441 0.1850 m
1.1241 0.1850 l
s
n
0.6471 0.2550 m
0.6671 0.2550 l
s
n
1.1441 0.2550 m
1.1241 0.2550 l
s
n
0.6471 0.3250 m
0.6671 0.3250 l
s
n
1.1441 0.3250 m
1.1241 0.3250 l
s
n
0.6471 0.3950 m
0.6671 0.3950 l
s
n
1.1441 0.3950 m
1.1241 0.3950 l
s
n
0.6471 0.4650 m
0.6671 0.4650 l
s
n
1.1441 0.4650 m
1.1241 0.4650 l
s
/Font0 FFSF
1.1541 0.1701 m
GS
[0.0448 0.0000 0.0000 0.0448 0 0] CC
(-40) show
GR
/Font0 FFSF
1.1541 0.2401 m
GS
[0.0448 0.0000 0.0000 0.0448 0 0] CC
(-30) show
GR
/Font0 FFSF
1.1541 0.3101 m
GS
[0.0448 0.0000 0.0000 0.0448 0 0] CC
(-20) show
GR
/Font0 FFSF
1.1541 0.3801 m
GS
[0.0448 0.0000 0.0000 0.0448 0 0] CC
(-10) show
GR
/Font0 FFSF
1.1541 0.4501 m
GS
[0.0448 0.0000 0.0000 0.0448 0 0] CC
(0) show
GR
/Font0 FFSF
1.2539 0.2295 m
GS
[0.0000 0.0459 -0.0459 0.0000 0 0] CC
(\(S=0,T=1\)) show
GR
[] 0 SD
0.0015 SLW
n
0.6471 0.1500 m
0.6471 0.5000 l
1.1441 0.5000 l
1.1441 0.1500 l
0.6471 0.1500 l
c
s
showpage
%%PageTrailer
%%Trailer
%%DocumentNeededResources: font Times-Roman
%%+ font Symbol
%%EOF
