%!PS-Adobe-3.0
%%BoundingBox: 0 0 612 792
%%LanguageLevel: 2
%%Creator: Grace-5.1.25
%%CreationDate: Wed Nov 25 14:23:56 2015
%%DocumentData: Clean8Bit
%%Orientation: Landscape
%%Pages: 1
%%PageOrder: Ascend
%%Title: EsurApnm.agr
%%For: ap1450
%%DocumentNeededResources: (atend)
%%EndComments
%%BeginProlog
/PAGE_OFFSET_X 0 def
/PAGE_OFFSET_Y 0 def
/m {moveto} def
/l {lineto} def
/s {stroke} def
/n {newpath} def
/c {closepath} def
/RL {rlineto} def
/SLW {setlinewidth} def
/GS {gsave} def
/GR {grestore} def
/SC {setcolor} def
/SGRY {setgray} def
/SRGB {setrgbcolor} def
/SD {setdash} def
/SLC {setlinecap} def
/SLJ {setlinejoin} def
/SCS {setcolorspace} def
/FFSF {findfont setfont} def
/CC {concat} def
/PXL {n m 0 0 RL s} def
/Color0 {1.0000 1.0000 1.0000} def
/Color1 {0.0000 0.0000 0.0000} def
/Color2 {1.0000 0.0000 0.0000} def
/Color3 {0.0000 1.0000 0.0000} def
/Color4 {0.0000 0.0000 1.0000} def
/Color5 {1.0000 1.0000 0.0000} def
/Color6 {0.7373 0.5608 0.5608} def
/Color7 {0.8627 0.8627 0.8627} def
/Color8 {0.5804 0.0000 0.8275} def
/Color9 {0.0000 1.0000 1.0000} def
/Color10 {1.0000 0.0000 1.0000} def
/Color11 {1.0000 0.6471 0.0000} def
/Color12 {0.4471 0.1294 0.7373} def
/Color13 {0.4039 0.0275 0.2824} def
/Color14 {0.2510 0.8784 0.8157} def
/Color15 {0.0000 0.5451 0.0000} def
/Color16 {0.7529 0.7529 0.7529} def
/Color17 {0.5059 0.5059 0.5059} def
/Color18 {0.2588 0.2588 0.2588} def
/PTRN {
 /pat_bits exch def 
 <<
  /PaintType 2
  /PatternType 1 /TilingType 1
  /BBox[0 0 16 16]
  /XStep 16 /YStep 16
  /PaintProc {
   pop
   16 16 true [-1 0 0 -1 16 16] pat_bits imagemask
  }
 >>
 [0.0016 0 0 0.0016 0 0]
 makepattern
} def
/Pattern0 {<0000000000000000000000000000000000000000000000000000000000000000> PTRN} bind def
/Pattern1 {<ffffffffffffffffffffffffffffffffffffffffffffffffffffffffffffffff> PTRN} bind def
/Pattern2 {<eeeeffffbbbbffffeeeeffffbbbbffffeeeeffffbbbbffffeeeeffffbbbbffff> PTRN} bind def
/Pattern3 {<eeeebbbbeeeebbbbeeeebbbbeeeebbbbeeeebbbbeeeebbbbeeeebbbbeeeebbbb> PTRN} bind def
/Pattern4 {<5555aaaa5555aaaa5555aaaa5555aaaa5555aaaa5555aaaa5555aaaa5555aaaa> PTRN} bind def
/Pattern5 {<1111444411114444111144441111444411114444111144441111444411114444> PTRN} bind def
/Pattern6 {<1111000044440000111100004444000011110000444400001111000044440000> PTRN} bind def
/Pattern7 {<1010000000000000010100000000000010100000000000000101000000000000> PTRN} bind def
/Pattern8 {<0000000000000000000000000000000000000000000000000000000000000000> PTRN} bind def
/Pattern9 {<1e1e0f0f8787c3c3e1e1f0f078783c3c1e1e0f0f8787c3c3e1e1f0f078783c3c> PTRN} bind def
/Pattern10 {<7878f0f0e1e1c3c387870f0f1e1e3c3c7878f0f0e1e1c3c387870f0f1e1e3c3c> PTRN} bind def
/Pattern11 {<3333333333333333333333333333333333333333333333333333333333333333> PTRN} bind def
/Pattern12 {<ffffffff00000000ffffffff00000000ffffffff00000000ffffffff00000000> PTRN} bind def
/Pattern13 {<8181424224241818181824244242818181814242242418181818242442428181> PTRN} bind def
/Pattern14 {<8080404020201010080804040202010180804040202010100808040402020101> PTRN} bind def
/Pattern15 {<0101020204040808101020204040808001010202040408081010202040408080> PTRN} bind def
/Pattern16 {<2222222222222222222222222222222222222222222222222222222222222222> PTRN} bind def
/Pattern17 {<0000ffff000000000000ffff000000000000ffff000000000000ffff00000000> PTRN} bind def
/Pattern18 {<2222ffff222222222222ffff222222222222ffff222222222222ffff22222222> PTRN} bind def
/Pattern19 {<ffffffff33333333ffffffff33333333ffffffff33333333ffffffff33333333> PTRN} bind def
/Pattern20 {<0f0f0f0f0f0f0f0ff0f0f0f0f0f0f0f00f0f0f0f0f0f0f0ff0f0f0f0f0f0f0f0> PTRN} bind def
/Pattern21 {<ff00ff00ff00ff00ff00ff00ff00ff0000ff00ff00ff00ff00ff00ff00ff00ff> PTRN} bind def
/Pattern22 {<8001800180018001800180018001ffffffff8001800180018001800180018001> PTRN} bind def
/Pattern23 {<c003c003c003c003c003c003ffffffffffffffffc003c003c003c003c003c003> PTRN} bind def
/Pattern24 {<040404040404ffff404040404040ffff040404040404ffff404040404040ffff> PTRN} bind def
/Pattern25 {<180018001800180018001800ffffffff001800180018001800180018ffffffff> PTRN} bind def
/Pattern26 {<1111b8b87c7c3a3a1111a3a3c7c78b8b1111b8b87c7c3a3a1111a3a3c7c78b8b> PTRN} bind def
/Pattern27 {<101010102828c7c70101010182827c7c101010102828c7c70101010182827c7c> PTRN} bind def
/Pattern28 {<1c1c121211112121c1c12121111112121c1c121211112121c1c1212111111212> PTRN} bind def
/Pattern29 {<3e3e414180808080e3e31414080808083e3e414180808080e3e3141408080808> PTRN} bind def
/Pattern30 {<4848888884848383848488884848383848488888848483838484888848483838> PTRN} bind def
/Pattern31 {<03030404080808080c0c12122121c0c003030404080808080c0c12122121c0c0> PTRN} bind def
/ellipsedict 8 dict def
ellipsedict /mtrx matrix put
/EARC {
 ellipsedict begin
  /endangle exch def
  /startangle exch def
  /yrad exch def
  /xrad exch def
  /y exch def
  /x exch def
  /savematrix mtrx currentmatrix def
  x y translate
  xrad yrad scale
  0 0 1 startangle endangle arc
  savematrix setmatrix
 end
} def
/TL {
  /kcomp exch def
  /linewidth exch def
  /offset exch def
  GS
  0 offset rmoveto
  linewidth SLW
  dup stringwidth exch kcomp add exch RL s
  GR
} def
/KINIT
{
 /kvector exch def
 /kid 0 def
} def
/KPROC
{
 pop pop
 kvector kid get
 0 rmoveto
 /kid 1 kid add def
} def
/DefEncoding [
 /.notdef
 /.notdef
 /.notdef
 /.notdef
 /.notdef
 /.notdef
 /.notdef
 /.notdef
 /.notdef
 /.notdef
 /.notdef
 /.notdef
 /.notdef
 /.notdef
 /.notdef
 /.notdef
 /.notdef
 /.notdef
 /.notdef
 /.notdef
 /.notdef
 /.notdef
 /.notdef
 /.notdef
 /.notdef
 /.notdef
 /.notdef
 /.notdef
 /.notdef
 /.notdef
 /.notdef
 /.notdef
 /space
 /exclam
 /quotedbl
 /numbersign
 /dollar
 /percent
 /ampersand
 /quoteright
 /parenleft
 /parenright
 /asterisk
 /plus
 /comma
 /hyphen
 /period
 /slash
 /zero
 /one
 /two
 /three
 /four
 /five
 /six
 /seven
 /eight
 /nine
 /colon
 /semicolon
 /less
 /equal
 /greater
 /question
 /at
 /A
 /B
 /C
 /D
 /E
 /F
 /G
 /H
 /I
 /J
 /K
 /L
 /M
 /N
 /O
 /P
 /Q
 /R
 /S
 /T
 /U
 /V
 /W
 /X
 /Y
 /Z
 /bracketleft
 /backslash
 /bracketright
 /asciicircum
 /underscore
 /grave
 /a
 /b
 /c
 /d
 /e
 /f
 /g
 /h
 /i
 /j
 /k
 /l
 /m
 /n
 /o
 /p
 /q
 /r
 /s
 /t
 /u
 /v
 /w
 /x
 /y
 /z
 /braceleft
 /bar
 /braceright
 /asciitilde
 /.notdef
 /.notdef
 /.notdef
 /.notdef
 /.notdef
 /.notdef
 /.notdef
 /.notdef
 /.notdef
 /.notdef
 /.notdef
 /.notdef
 /.notdef
 /.notdef
 /.notdef
 /.notdef
 /.notdef
 /.notdef
 /.notdef
 /.notdef
 /.notdef
 /.notdef
 /.notdef
 /.notdef
 /.notdef
 /.notdef
 /.notdef
 /.notdef
 /.notdef
 /.notdef
 /.notdef
 /.notdef
 /.notdef
 /space
 /exclamdown
 /cent
 /sterling
 /currency
 /yen
 /brokenbar
 /section
 /dieresis
 /copyright
 /ordfeminine
 /guillemotleft
 /logicalnot
 /hyphen
 /registered
 /macron
 /degree
 /plusminus
 /twosuperior
 /threesuperior
 /acute
 /mu
 /paragraph
 /periodcentered
 /cedilla
 /onesuperior
 /ordmasculine
 /guillemotright
 /onequarter
 /onehalf
 /threequarters
 /questiondown
 /Agrave
 /Aacute
 /Acircumflex
 /Atilde
 /Adieresis
 /Aring
 /AE
 /Ccedilla
 /Egrave
 /Eacute
 /Ecircumflex
 /Edieresis
 /Igrave
 /Iacute
 /Icircumflex
 /Idieresis
 /Eth
 /Ntilde
 /Ograve
 /Oacute
 /Ocircumflex
 /Otilde
 /Odieresis
 /multiply
 /Oslash
 /Ugrave
 /Uacute
 /Ucircumflex
 /Udieresis
 /Yacute
 /Thorn
 /germandbls
 /agrave
 /aacute
 /acircumflex
 /atilde
 /adieresis
 /aring
 /ae
 /ccedilla
 /egrave
 /eacute
 /ecircumflex
 /edieresis
 /igrave
 /iacute
 /icircumflex
 /idieresis
 /eth
 /ntilde
 /ograve
 /oacute
 /ocircumflex
 /otilde
 /odieresis
 /divide
 /oslash
 /ugrave
 /uacute
 /ucircumflex
 /udieresis
 /yacute
 /thorn
 /ydieresis
] def
%%EndProlog
%%BeginSetup
%%EndSetup
%%Page: 1 1
PAGE_OFFSET_X PAGE_OFFSET_Y translate
612.00 612.00 scale
90 rotate
0.0 -1.0 translate
[/DeviceRGB] SCS
Color1 SC
[] 0 SD
0.0045 SLW
0 SLC
0 SLJ
n
0.1502 0.1499 m
0.1502 0.1500 l
0.1503 0.1502 l
0.1504 0.1505 l
0.1505 0.1508 l
0.1506 0.1511 l
0.1507 0.1514 l
0.1508 0.1517 l
0.1509 0.1521 l
0.1510 0.1524 l
0.1512 0.1528 l
0.1514 0.1531 l
0.1516 0.1535 l
0.1518 0.1539 l
0.1520 0.1543 l
0.1522 0.1547 l
0.1525 0.1552 l
0.1527 0.1556 l
0.1530 0.1561 l
0.1534 0.1565 l
0.1537 0.1570 l
0.1540 0.1575 l
0.1544 0.1579 l
0.1548 0.1584 l
0.1553 0.1589 l
0.1557 0.1594 l
0.1562 0.1599 l
0.1567 0.1605 l
0.1572 0.1610 l
0.1578 0.1615 l
0.1583 0.1621 l
0.1590 0.1626 l
0.1596 0.1632 l
0.1603 0.1637 l
0.1610 0.1643 l
0.1617 0.1649 l
0.1625 0.1654 l
0.1632 0.1660 l
0.1641 0.1666 l
0.1649 0.1672 l
0.1658 0.1678 l
0.1668 0.1684 l
0.1677 0.1690 l
0.1687 0.1697 l
0.1698 0.1703 l
0.1708 0.1709 l
0.1720 0.1715 l
0.1731 0.1722 l
0.1743 0.1728 l
0.1756 0.1735 l
0.1768 0.1741 l
0.1782 0.1748 l
0.1795 0.1754 l
0.1809 0.1761 l
0.1824 0.1768 l
0.1839 0.1775 l
0.1854 0.1781 l
0.1870 0.1788 l
0.1886 0.1795 l
0.1903 0.1802 l
0.1920 0.1809 l
0.1938 0.1816 l
0.1956 0.1823 l
0.1975 0.1831 l
0.1994 0.1838 l
0.2014 0.1845 l
0.2034 0.1852 l
0.2055 0.1860 l
0.2076 0.1867 l
0.2098 0.1875 l
0.2121 0.1882 l
0.2144 0.1890 l
0.2167 0.1897 l
0.2191 0.1905 l
0.2216 0.1913 l
0.2241 0.1921 l
0.2267 0.1929 l
0.2294 0.1937 l
0.2321 0.1945 l
0.2348 0.1953 l
0.2377 0.1961 l
0.2406 0.1969 l
0.2435 0.1977 l
0.2465 0.1986 l
0.2496 0.1994 l
0.2527 0.2003 l
0.2560 0.2011 l
0.2592 0.2020 l
0.2626 0.2029 l
0.2660 0.2038 l
0.2695 0.2046 l
0.2730 0.2055 l
0.2766 0.2065 l
0.2803 0.2074 l
0.2841 0.2083 l
0.2879 0.2092 l
0.2918 0.2102 l
0.2958 0.2112 l
0.2998 0.2121 l
0.3040 0.2131 l
0.3082 0.2141 l
0.3124 0.2151 l
0.3168 0.2161 l
0.3212 0.2171 l
0.3257 0.2182 l
0.3303 0.2192 l
0.3350 0.2203 l
0.3397 0.2214 l
0.3445 0.2225 l
0.3494 0.2236 l
0.3544 0.2247 l
0.3595 0.2258 l
0.3646 0.2270 l
0.3699 0.2281 l
0.3752 0.2293 l
0.3806 0.2305 l
0.3861 0.2317 l
0.3917 0.2329 l
0.3973 0.2342 l
0.4031 0.2354 l
0.4089 0.2367 l
0.4149 0.2380 l
0.4209 0.2393 l
0.4270 0.2406 l
0.4332 0.2420 l
0.4395 0.2433 l
0.4459 0.2447 l
0.4523 0.2461 l
0.4589 0.2475 l
0.4656 0.2490 l
0.4723 0.2505 l
0.4792 0.2519 l
0.4862 0.2535 l
0.4932 0.2550 l
0.5004 0.2565 l
0.5076 0.2581 l
0.5150 0.2597 l
0.5224 0.2614 l
0.5300 0.2630 l
0.5376 0.2647 l
0.5454 0.2664 l
0.5532 0.2681 l
0.5612 0.2699 l
0.5692 0.2716 l
0.5774 0.2734 l
0.5857 0.2753 l
0.5940 0.2771 l
0.6025 0.2790 l
0.6111 0.2810 l
0.6198 0.2829 l
0.6286 0.2849 l
0.6376 0.2869 l
0.6466 0.2889 l
0.6557 0.2910 l
0.6650 0.2931 l
0.6743 0.2953 l
0.6838 0.2974 l
0.6934 0.2996 l
0.7031 0.3019 l
0.7129 0.3042 l
0.7229 0.3065 l
0.7329 0.3088 l
0.7431 0.3112 l
0.7534 0.3136 l
0.7638 0.3161 l
0.7743 0.3186 l
0.7849 0.3211 l
0.7957 0.3237 l
0.8066 0.3263 l
0.8176 0.3289 l
0.8287 0.3316 l
0.8399 0.3344 l
0.8513 0.3371 l
0.8628 0.3400 l
0.8744 0.3428 l
0.8862 0.3457 l
0.8981 0.3487 l
0.9101 0.3517 l
0.9222 0.3547 l
0.9344 0.3578 l
0.9468 0.3609 l
0.9593 0.3641 l
0.9720 0.3673 l
0.9848 0.3706 l
0.9977 0.3739 l
1.0107 0.3773 l
1.0239 0.3807 l
1.0372 0.3842 l
1.0506 0.3877 l
1.0642 0.3913 l
1.0779 0.3949 l
1.0918 0.3986 l
1.1058 0.4024 l
1.1199 0.4062 l
1.1341 0.4100 l
1.1485 0.4139 l
1.1501 0.4143 l
s
[/DeviceRGB] SCS
Color2 SC
[0.0187 0.0112 ] 0 SD
0.0037 SLW
n
0.1502 0.1499 m
0.1502 0.1500 l
0.1503 0.1503 l
0.1504 0.1505 l
0.1505 0.1508 l
0.1506 0.1512 l
0.1507 0.1515 l
0.1508 0.1518 l
0.1509 0.1522 l
0.1510 0.1525 l
0.1512 0.1529 l
0.1514 0.1533 l
0.1516 0.1537 l
0.1518 0.1542 l
0.1520 0.1546 l
0.1522 0.1550 l
0.1525 0.1555 l
0.1527 0.1559 l
0.1530 0.1564 l
0.1534 0.1569 l
0.1537 0.1574 l
0.1540 0.1579 l
0.1544 0.1584 l
0.1548 0.1590 l
0.1553 0.1595 l
0.1557 0.1600 l
0.1562 0.1606 l
0.1567 0.1611 l
0.1572 0.1617 l
0.1578 0.1623 l
0.1583 0.1629 l
0.1590 0.1634 l
0.1596 0.1640 l
0.1603 0.1646 l
0.1610 0.1652 l
0.1617 0.1659 l
0.1625 0.1665 l
0.1632 0.1671 l
0.1641 0.1677 l
0.1649 0.1684 l
0.1658 0.1690 l
0.1668 0.1696 l
0.1677 0.1703 l
0.1687 0.1709 l
0.1698 0.1716 l
0.1708 0.1722 l
0.1720 0.1729 l
0.1731 0.1736 l
0.1743 0.1742 l
0.1756 0.1749 l
0.1768 0.1756 l
0.1782 0.1762 l
0.1795 0.1769 l
0.1809 0.1776 l
0.1824 0.1782 l
0.1839 0.1789 l
0.1854 0.1796 l
0.1870 0.1803 l
0.1886 0.1810 l
0.1903 0.1817 l
0.1920 0.1823 l
0.1938 0.1830 l
0.1956 0.1837 l
0.1975 0.1844 l
0.1994 0.1851 l
0.2014 0.1858 l
0.2034 0.1865 l
0.2055 0.1872 l
0.2076 0.1879 l
0.2098 0.1885 l
0.2121 0.1892 l
0.2144 0.1899 l
0.2167 0.1906 l
0.2191 0.1913 l
0.2216 0.1920 l
0.2241 0.1927 l
0.2267 0.1934 l
0.2294 0.1941 l
0.2321 0.1948 l
0.2348 0.1955 l
0.2377 0.1962 l
0.2406 0.1969 l
0.2435 0.1977 l
0.2465 0.1984 l
0.2496 0.1991 l
0.2527 0.1998 l
0.2560 0.2005 l
0.2592 0.2013 l
0.2626 0.2020 l
0.2660 0.2027 l
0.2695 0.2035 l
0.2730 0.2042 l
0.2766 0.2050 l
0.2803 0.2057 l
0.2841 0.2065 l
0.2879 0.2073 l
0.2918 0.2080 l
0.2958 0.2088 l
0.2998 0.2096 l
0.3040 0.2104 l
0.3082 0.2113 l
0.3124 0.2121 l
0.3168 0.2129 l
0.3212 0.2138 l
0.3257 0.2146 l
0.3303 0.2155 l
0.3350 0.2164 l
0.3397 0.2173 l
0.3445 0.2182 l
0.3494 0.2191 l
0.3544 0.2201 l
0.3595 0.2210 l
0.3646 0.2220 l
0.3699 0.2230 l
0.3752 0.2240 l
0.3806 0.2251 l
0.3861 0.2261 l
0.3917 0.2272 l
0.3973 0.2283 l
0.4031 0.2295 l
0.4089 0.2306 l
0.4149 0.2318 l
0.4209 0.2330 l
0.4270 0.2342 l
0.4332 0.2355 l
0.4395 0.2368 l
0.4459 0.2382 l
0.4523 0.2395 l
0.4589 0.2409 l
0.4656 0.2424 l
0.4723 0.2438 l
0.4792 0.2454 l
0.4862 0.2469 l
0.4932 0.2485 l
0.5004 0.2501 l
0.5076 0.2518 l
0.5150 0.2536 l
0.5224 0.2553 l
0.5300 0.2572 l
0.5376 0.2590 l
0.5454 0.2610 l
0.5532 0.2629 l
0.5612 0.2650 l
0.5692 0.2671 l
0.5774 0.2692 l
0.5857 0.2714 l
0.5940 0.2737 l
0.6025 0.2760 l
0.6111 0.2784 l
0.6198 0.2809 l
0.6286 0.2834 l
0.6376 0.2860 l
0.6466 0.2887 l
0.6557 0.2915 l
0.6650 0.2943 l
0.6743 0.2972 l
0.6838 0.3002 l
0.6934 0.3033 l
0.7031 0.3065 l
0.7129 0.3097 l
0.7229 0.3131 l
0.7329 0.3165 l
0.7431 0.3200 l
0.7534 0.3237 l
0.7638 0.3274 l
0.7743 0.3312 l
0.7849 0.3351 l
0.7957 0.3392 l
0.8066 0.3433 l
0.8176 0.3476 l
0.8287 0.3520 l
0.8399 0.3564 l
0.8513 0.3611 l
0.8628 0.3658 l
0.8744 0.3706 l
0.8862 0.3756 l
0.8981 0.3807 l
0.9101 0.3860 l
0.9222 0.3914 l
0.9344 0.3969 l
0.9468 0.4026 l
0.9593 0.4084 l
0.9720 0.4143 l
0.9848 0.4204 l
0.9977 0.4267 l
1.0107 0.4331 l
1.0239 0.4397 l
1.0372 0.4465 l
1.0506 0.4534 l
1.0642 0.4605 l
1.0779 0.4677 l
1.0918 0.4752 l
1.1058 0.4828 l
1.1199 0.4906 l
1.1341 0.4986 l
1.1485 0.5068 l
1.1501 0.5077 l
s
[/DeviceRGB] SCS
Color4 SC
[0.0037 0.0112 ] 0 SD
0.0037 SLW
n
0.1502 0.1499 m
0.1502 0.1500 l
0.1503 0.1503 l
0.1504 0.1506 l
0.1505 0.1508 l
0.1506 0.1512 l
0.1507 0.1515 l
0.1508 0.1518 l
0.1509 0.1522 l
0.1510 0.1526 l
0.1512 0.1529 l
0.1514 0.1533 l
0.1516 0.1537 l
0.1518 0.1542 l
0.1520 0.1546 l
0.1522 0.1550 l
0.1525 0.1555 l
0.1527 0.1560 l
0.1530 0.1564 l
0.1534 0.1569 l
0.1537 0.1574 l
0.1540 0.1579 l
0.1544 0.1585 l
0.1548 0.1590 l
0.1553 0.1595 l
0.1557 0.1601 l
0.1562 0.1606 l
0.1567 0.1612 l
0.1572 0.1618 l
0.1578 0.1623 l
0.1583 0.1629 l
0.1590 0.1635 l
0.1596 0.1641 l
0.1603 0.1647 l
0.1610 0.1653 l
0.1617 0.1660 l
0.1625 0.1666 l
0.1632 0.1672 l
0.1641 0.1679 l
0.1649 0.1685 l
0.1658 0.1691 l
0.1668 0.1698 l
0.1677 0.1705 l
0.1687 0.1711 l
0.1698 0.1718 l
0.1708 0.1725 l
0.1720 0.1731 l
0.1731 0.1738 l
0.1743 0.1745 l
0.1756 0.1752 l
0.1768 0.1759 l
0.1782 0.1766 l
0.1795 0.1773 l
0.1809 0.1779 l
0.1824 0.1786 l
0.1839 0.1793 l
0.1854 0.1800 l
0.1870 0.1808 l
0.1886 0.1815 l
0.1903 0.1822 l
0.1920 0.1829 l
0.1938 0.1836 l
0.1956 0.1843 l
0.1975 0.1850 l
0.1994 0.1857 l
0.2014 0.1864 l
0.2034 0.1871 l
0.2055 0.1879 l
0.2076 0.1886 l
0.2098 0.1893 l
0.2121 0.1900 l
0.2144 0.1907 l
0.2167 0.1914 l
0.2191 0.1921 l
0.2216 0.1929 l
0.2241 0.1936 l
0.2267 0.1943 l
0.2294 0.1950 l
0.2321 0.1957 l
0.2348 0.1964 l
0.2377 0.1971 l
0.2406 0.1979 l
0.2435 0.1986 l
0.2465 0.1993 l
0.2496 0.2000 l
0.2527 0.2007 l
0.2560 0.2014 l
0.2592 0.2021 l
0.2626 0.2029 l
0.2660 0.2036 l
0.2695 0.2043 l
0.2730 0.2050 l
0.2766 0.2057 l
0.2803 0.2064 l
0.2841 0.2072 l
0.2879 0.2079 l
0.2918 0.2086 l
0.2958 0.2093 l
0.2998 0.2101 l
0.3040 0.2108 l
0.3082 0.2115 l
0.3124 0.2123 l
0.3168 0.2130 l
0.3212 0.2138 l
0.3257 0.2145 l
0.3303 0.2153 l
0.3350 0.2160 l
0.3397 0.2168 l
0.3445 0.2175 l
0.3494 0.2183 l
0.3544 0.2191 l
0.3595 0.2199 l
0.3646 0.2207 l
0.3699 0.2215 l
0.3752 0.2223 l
0.3806 0.2231 l
0.3861 0.2239 l
0.3917 0.2248 l
0.3973 0.2256 l
0.4031 0.2265 l
0.4089 0.2274 l
0.4149 0.2283 l
0.4209 0.2292 l
0.4270 0.2301 l
0.4332 0.2310 l
0.4395 0.2319 l
0.4459 0.2329 l
0.4523 0.2339 l
0.4589 0.2349 l
0.4656 0.2359 l
0.4723 0.2369 l
0.4792 0.2379 l
0.4862 0.2390 l
0.4932 0.2401 l
0.5004 0.2412 l
0.5076 0.2424 l
0.5150 0.2435 l
0.5224 0.2447 l
0.5300 0.2459 l
0.5376 0.2472 l
0.5454 0.2485 l
0.5532 0.2498 l
0.5612 0.2511 l
0.5692 0.2525 l
0.5774 0.2539 l
0.5857 0.2553 l
0.5940 0.2568 l
0.6025 0.2583 l
0.6111 0.2599 l
0.6198 0.2615 l
0.6286 0.2631 l
0.6376 0.2648 l
0.6466 0.2665 l
0.6557 0.2683 l
0.6650 0.2701 l
0.6743 0.2720 l
0.6838 0.2739 l
0.6934 0.2759 l
0.7031 0.2779 l
0.7129 0.2800 l
0.7229 0.2821 l
0.7329 0.2844 l
0.7431 0.2866 l
0.7534 0.2889 l
0.7638 0.2913 l
0.7743 0.2938 l
0.7849 0.2963 l
0.7957 0.2989 l
0.8066 0.3016 l
0.8176 0.3044 l
0.8287 0.3072 l
0.8399 0.3101 l
0.8513 0.3131 l
0.8628 0.3162 l
0.8744 0.3193 l
0.8862 0.3226 l
0.8981 0.3259 l
0.9101 0.3293 l
0.9222 0.3329 l
0.9344 0.3365 l
0.9468 0.3402 l
0.9593 0.3441 l
0.9720 0.3480 l
0.9848 0.3520 l
0.9977 0.3562 l
1.0107 0.3605 l
1.0239 0.3649 l
1.0372 0.3694 l
1.0506 0.3740 l
1.0642 0.3788 l
1.0779 0.3836 l
1.0918 0.3887 l
1.1058 0.3938 l
1.1199 0.3991 l
1.1341 0.4045 l
1.1485 0.4101 l
1.1501 0.4107 l
s
[/DeviceRGB] SCS
Color11 SC
[0.0037 0.0112 0.0187 0.0112 0.0037 0.0112 ] 0 SD
0.0037 SLW
n
0.1502 0.1499 m
0.1502 0.1500 l
0.1503 0.1503 l
0.1504 0.1505 l
0.1505 0.1508 l
0.1506 0.1512 l
0.1507 0.1515 l
0.1508 0.1518 l
0.1509 0.1522 l
0.1510 0.1525 l
0.1512 0.1529 l
0.1514 0.1533 l
0.1516 0.1537 l
0.1518 0.1541 l
0.1520 0.1546 l
0.1522 0.1550 l
0.1525 0.1555 l
0.1527 0.1559 l
0.1530 0.1564 l
0.1534 0.1569 l
0.1537 0.1574 l
0.1540 0.1579 l
0.1544 0.1584 l
0.1548 0.1589 l
0.1553 0.1595 l
0.1557 0.1600 l
0.1562 0.1606 l
0.1567 0.1611 l
0.1572 0.1617 l
0.1578 0.1622 l
0.1583 0.1628 l
0.1590 0.1634 l
0.1596 0.1640 l
0.1603 0.1646 l
0.1610 0.1652 l
0.1617 0.1658 l
0.1625 0.1664 l
0.1632 0.1671 l
0.1641 0.1677 l
0.1649 0.1683 l
0.1658 0.1690 l
0.1668 0.1696 l
0.1677 0.1703 l
0.1687 0.1709 l
0.1698 0.1716 l
0.1708 0.1722 l
0.1720 0.1729 l
0.1731 0.1736 l
0.1743 0.1742 l
0.1756 0.1749 l
0.1768 0.1756 l
0.1782 0.1763 l
0.1795 0.1770 l
0.1809 0.1776 l
0.1824 0.1783 l
0.1839 0.1790 l
0.1854 0.1797 l
0.1870 0.1804 l
0.1886 0.1811 l
0.1903 0.1818 l
0.1920 0.1825 l
0.1938 0.1832 l
0.1956 0.1839 l
0.1975 0.1846 l
0.1994 0.1853 l
0.2014 0.1860 l
0.2034 0.1867 l
0.2055 0.1874 l
0.2076 0.1882 l
0.2098 0.1889 l
0.2121 0.1896 l
0.2144 0.1903 l
0.2167 0.1910 l
0.2191 0.1918 l
0.2216 0.1925 l
0.2241 0.1932 l
0.2267 0.1939 l
0.2294 0.1947 l
0.2321 0.1954 l
0.2348 0.1961 l
0.2377 0.1969 l
0.2406 0.1976 l
0.2435 0.1984 l
0.2465 0.1991 l
0.2496 0.1999 l
0.2527 0.2006 l
0.2560 0.2014 l
0.2592 0.2021 l
0.2626 0.2029 l
0.2660 0.2037 l
0.2695 0.2045 l
0.2730 0.2053 l
0.2766 0.2060 l
0.2803 0.2068 l
0.2841 0.2076 l
0.2879 0.2084 l
0.2918 0.2093 l
0.2958 0.2101 l
0.2998 0.2109 l
0.3040 0.2118 l
0.3082 0.2126 l
0.3124 0.2135 l
0.3168 0.2143 l
0.3212 0.2152 l
0.3257 0.2161 l
0.3303 0.2170 l
0.3350 0.2179 l
0.3397 0.2188 l
0.3445 0.2198 l
0.3494 0.2207 l
0.3544 0.2217 l
0.3595 0.2227 l
0.3646 0.2237 l
0.3699 0.2247 l
0.3752 0.2257 l
0.3806 0.2268 l
0.3861 0.2278 l
0.3917 0.2289 l
0.3973 0.2300 l
0.4031 0.2312 l
0.4089 0.2323 l
0.4149 0.2335 l
0.4209 0.2347 l
0.4270 0.2359 l
0.4332 0.2371 l
0.4395 0.2384 l
0.4459 0.2397 l
0.4523 0.2410 l
0.4589 0.2424 l
0.4656 0.2437 l
0.4723 0.2452 l
0.4792 0.2466 l
0.4862 0.2481 l
0.4932 0.2496 l
0.5004 0.2511 l
0.5076 0.2527 l
0.5150 0.2543 l
0.5224 0.2560 l
0.5300 0.2577 l
0.5376 0.2594 l
0.5454 0.2612 l
0.5532 0.2630 l
0.5612 0.2648 l
0.5692 0.2667 l
0.5774 0.2687 l
0.5857 0.2707 l
0.5940 0.2727 l
0.6025 0.2748 l
0.6111 0.2770 l
0.6198 0.2792 l
0.6286 0.2814 l
0.6376 0.2837 l
0.6466 0.2861 l
0.6557 0.2885 l
0.6650 0.2910 l
0.6743 0.2936 l
0.6838 0.2962 l
0.6934 0.2988 l
0.7031 0.3016 l
0.7129 0.3044 l
0.7229 0.3072 l
0.7329 0.3102 l
0.7431 0.3132 l
0.7534 0.3163 l
0.7638 0.3195 l
0.7743 0.3227 l
0.7849 0.3260 l
0.7957 0.3294 l
0.8066 0.3329 l
0.8176 0.3365 l
0.8287 0.3401 l
0.8399 0.3439 l
0.8513 0.3477 l
0.8628 0.3516 l
0.8744 0.3556 l
0.8862 0.3597 l
0.8981 0.3639 l
0.9101 0.3682 l
0.9222 0.3726 l
0.9344 0.3772 l
0.9468 0.3818 l
0.9593 0.3865 l
0.9720 0.3913 l
0.9848 0.3963 l
0.9977 0.4013 l
1.0107 0.4065 l
1.0239 0.4118 l
1.0372 0.4172 l
1.0506 0.4227 l
1.0642 0.4284 l
1.0779 0.4342 l
1.0918 0.4401 l
1.1058 0.4462 l
1.1199 0.4523 l
1.1341 0.4587 l
1.1485 0.4651 l
1.1501 0.4658 l
s
[/DeviceRGB] SCS
Color1 SC
[] 0 SD
0.0037 SLW
n
0.2748 0.1897 m
0.2748 0.2067 l
0.2918 0.2067 l
0.2918 0.1897 l
0.2748 0.1897 l
c
s
n
0.4082 0.2345 m
0.4082 0.2515 l
0.4252 0.2515 l
0.4252 0.2345 l
0.4082 0.2345 l
c
s
n
0.4748 0.2626 m
0.4748 0.2796 l
0.4918 0.2796 l
0.4918 0.2626 l
0.4748 0.2626 l
c
s
n
0.6415 0.3479 m
0.6415 0.3649 l
0.6585 0.3649 l
0.6585 0.3479 l
0.6415 0.3479 l
c
s
n
0.8082 0.4629 m
0.8082 0.4799 l
0.8252 0.4799 l
0.8252 0.4629 l
0.8082 0.4629 l
c
s
n
0.9748 0.6142 m
0.9748 0.6312 l
0.9918 0.6312 l
0.9918 0.6142 l
0.9748 0.6142 l
c
s
[/DeviceRGB] SCS
Color3 SC
[0.0037 0.0112 0.0262 0.0112 ] 0 SD
0.0037 SLW
n
0.1502 0.1499 m
0.1502 0.1500 l
0.1503 0.1502 l
0.1504 0.1505 l
0.1505 0.1508 l
0.1506 0.1511 l
0.1507 0.1514 l
0.1508 0.1517 l
0.1509 0.1521 l
0.1510 0.1524 l
0.1512 0.1528 l
0.1514 0.1531 l
0.1516 0.1535 l
0.1518 0.1539 l
0.1520 0.1543 l
0.1522 0.1547 l
0.1525 0.1551 l
0.1527 0.1556 l
0.1530 0.1560 l
0.1534 0.1565 l
0.1537 0.1569 l
0.1540 0.1574 l
0.1544 0.1579 l
0.1548 0.1583 l
0.1553 0.1588 l
0.1557 0.1593 l
0.1562 0.1598 l
0.1567 0.1603 l
0.1572 0.1608 l
0.1578 0.1613 l
0.1583 0.1619 l
0.1590 0.1624 l
0.1596 0.1629 l
0.1603 0.1635 l
0.1610 0.1640 l
0.1617 0.1646 l
0.1625 0.1651 l
0.1632 0.1657 l
0.1641 0.1662 l
0.1649 0.1668 l
0.1658 0.1674 l
0.1668 0.1679 l
0.1677 0.1685 l
0.1687 0.1691 l
0.1698 0.1697 l
0.1708 0.1703 l
0.1720 0.1709 l
0.1731 0.1715 l
0.1743 0.1721 l
0.1756 0.1727 l
0.1768 0.1733 l
0.1782 0.1739 l
0.1795 0.1745 l
0.1809 0.1751 l
0.1824 0.1757 l
0.1839 0.1764 l
0.1854 0.1770 l
0.1870 0.1776 l
0.1886 0.1783 l
0.1903 0.1789 l
0.1920 0.1796 l
0.1938 0.1802 l
0.1956 0.1809 l
0.1975 0.1815 l
0.1994 0.1822 l
0.2014 0.1829 l
0.2034 0.1836 l
0.2055 0.1842 l
0.2076 0.1849 l
0.2098 0.1856 l
0.2121 0.1863 l
0.2144 0.1871 l
0.2167 0.1878 l
0.2191 0.1885 l
0.2216 0.1893 l
0.2241 0.1900 l
0.2267 0.1908 l
0.2294 0.1915 l
0.2321 0.1923 l
0.2348 0.1931 l
0.2377 0.1939 l
0.2406 0.1947 l
0.2435 0.1956 l
0.2465 0.1964 l
0.2496 0.1973 l
0.2527 0.1981 l
0.2560 0.1990 l
0.2592 0.1999 l
0.2626 0.2008 l
0.2660 0.2018 l
0.2695 0.2027 l
0.2730 0.2037 l
0.2766 0.2047 l
0.2803 0.2057 l
0.2841 0.2067 l
0.2879 0.2078 l
0.2918 0.2088 l
0.2958 0.2099 l
0.2998 0.2110 l
0.3040 0.2122 l
0.3082 0.2134 l
0.3124 0.2146 l
0.3168 0.2158 l
0.3212 0.2170 l
0.3257 0.2183 l
0.3303 0.2196 l
0.3350 0.2210 l
0.3397 0.2224 l
0.3445 0.2238 l
0.3494 0.2252 l
0.3544 0.2267 l
0.3595 0.2282 l
0.3646 0.2298 l
0.3699 0.2314 l
0.3752 0.2330 l
0.3806 0.2347 l
0.3861 0.2365 l
0.3917 0.2382 l
0.3973 0.2400 l
0.4031 0.2419 l
0.4089 0.2438 l
0.4149 0.2458 l
0.4209 0.2478 l
0.4270 0.2499 l
0.4332 0.2520 l
0.4395 0.2542 l
0.4459 0.2564 l
0.4523 0.2587 l
0.4589 0.2611 l
0.4656 0.2635 l
0.4723 0.2660 l
0.4792 0.2685 l
0.4862 0.2711 l
0.4932 0.2738 l
0.5004 0.2766 l
0.5076 0.2794 l
0.5150 0.2823 l
0.5224 0.2853 l
0.5300 0.2883 l
0.5376 0.2915 l
0.5454 0.2947 l
0.5532 0.2980 l
0.5612 0.3014 l
0.5692 0.3049 l
0.5774 0.3084 l
0.5857 0.3121 l
0.5940 0.3158 l
0.6025 0.3197 l
0.6111 0.3236 l
0.6198 0.3276 l
0.6286 0.3318 l
0.6376 0.3360 l
0.6466 0.3404 l
0.6557 0.3448 l
0.6650 0.3494 l
0.6743 0.3541 l
0.6838 0.3589 l
0.6934 0.3638 l
0.7031 0.3688 l
0.7129 0.3740 l
0.7229 0.3793 l
0.7329 0.3847 l
0.7431 0.3902 l
0.7534 0.3959 l
0.7638 0.4017 l
0.7743 0.4076 l
0.7849 0.4137 l
0.7957 0.4200 l
0.8066 0.4263 l
0.8176 0.4328 l
0.8287 0.4395 l
0.8399 0.4463 l
0.8513 0.4533 l
0.8628 0.4605 l
0.8744 0.4678 l
0.8862 0.4753 l
0.8981 0.4829 l
0.9101 0.4907 l
0.9222 0.4987 l
0.9344 0.5069 l
0.9468 0.5152 l
0.9593 0.5237 l
0.9720 0.5324 l
0.9848 0.5414 l
0.9977 0.5505 l
1.0107 0.5598 l
1.0239 0.5693 l
1.0372 0.5790 l
1.0506 0.5889 l
1.0642 0.5990 l
1.0779 0.6093 l
1.0918 0.6199 l
1.1058 0.6306 l
1.1199 0.6416 l
1.1341 0.6529 l
1.1485 0.6643 l
1.1501 0.6656 l
s
[/DeviceRGB] SCS
Color8 SC
[0.0187 0.0112 0.0037 0.0112 0.0187 0.0112 ] 0 SD
0.0037 SLW
n
0.1502 0.1499 m
0.1502 0.1500 l
0.1503 0.1502 l
0.1504 0.1505 l
0.1505 0.1508 l
0.1506 0.1511 l
0.1507 0.1514 l
0.1508 0.1517 l
0.1509 0.1520 l
0.1510 0.1524 l
0.1512 0.1527 l
0.1514 0.1531 l
0.1516 0.1534 l
0.1518 0.1538 l
0.1520 0.1542 l
0.1522 0.1546 l
0.1525 0.1550 l
0.1527 0.1554 l
0.1530 0.1559 l
0.1534 0.1563 l
0.1537 0.1567 l
0.1540 0.1572 l
0.1544 0.1576 l
0.1548 0.1581 l
0.1553 0.1586 l
0.1557 0.1590 l
0.1562 0.1595 l
0.1567 0.1600 l
0.1572 0.1605 l
0.1578 0.1610 l
0.1583 0.1615 l
0.1590 0.1620 l
0.1596 0.1625 l
0.1603 0.1630 l
0.1610 0.1635 l
0.1617 0.1640 l
0.1625 0.1645 l
0.1632 0.1650 l
0.1641 0.1655 l
0.1649 0.1661 l
0.1658 0.1666 l
0.1668 0.1671 l
0.1677 0.1677 l
0.1687 0.1682 l
0.1698 0.1687 l
0.1708 0.1693 l
0.1720 0.1698 l
0.1731 0.1703 l
0.1743 0.1709 l
0.1756 0.1714 l
0.1768 0.1720 l
0.1782 0.1725 l
0.1795 0.1731 l
0.1809 0.1736 l
0.1824 0.1742 l
0.1839 0.1747 l
0.1854 0.1753 l
0.1870 0.1758 l
0.1886 0.1764 l
0.1903 0.1770 l
0.1920 0.1775 l
0.1938 0.1781 l
0.1956 0.1787 l
0.1975 0.1793 l
0.1994 0.1799 l
0.2014 0.1805 l
0.2034 0.1811 l
0.2055 0.1817 l
0.2076 0.1823 l
0.2098 0.1829 l
0.2121 0.1835 l
0.2144 0.1841 l
0.2167 0.1848 l
0.2191 0.1854 l
0.2216 0.1861 l
0.2241 0.1867 l
0.2267 0.1874 l
0.2294 0.1881 l
0.2321 0.1888 l
0.2348 0.1895 l
0.2377 0.1902 l
0.2406 0.1910 l
0.2435 0.1917 l
0.2465 0.1925 l
0.2496 0.1933 l
0.2527 0.1941 l
0.2560 0.1949 l
0.2592 0.1957 l
0.2626 0.1966 l
0.2660 0.1974 l
0.2695 0.1983 l
0.2730 0.1992 l
0.2766 0.2002 l
0.2803 0.2012 l
0.2841 0.2021 l
0.2879 0.2032 l
0.2918 0.2042 l
0.2958 0.2053 l
0.2998 0.2064 l
0.3040 0.2075 l
0.3082 0.2087 l
0.3124 0.2099 l
0.3168 0.2112 l
0.3212 0.2124 l
0.3257 0.2138 l
0.3303 0.2151 l
0.3350 0.2165 l
0.3397 0.2180 l
0.3445 0.2195 l
0.3494 0.2210 l
0.3544 0.2226 l
0.3595 0.2242 l
0.3646 0.2259 l
0.3699 0.2277 l
0.3752 0.2295 l
0.3806 0.2313 l
0.3861 0.2333 l
0.3917 0.2352 l
0.3973 0.2373 l
0.4031 0.2394 l
0.4089 0.2416 l
0.4149 0.2438 l
0.4209 0.2462 l
0.4270 0.2486 l
0.4332 0.2510 l
0.4395 0.2536 l
0.4459 0.2562 l
0.4523 0.2590 l
0.4589 0.2618 l
0.4656 0.2647 l
0.4723 0.2677 l
0.4792 0.2708 l
0.4862 0.2739 l
0.4932 0.2772 l
0.5004 0.2806 l
0.5076 0.2841 l
0.5150 0.2877 l
0.5224 0.2914 l
0.5300 0.2952 l
0.5376 0.2992 l
0.5454 0.3033 l
0.5532 0.3075 l
0.5612 0.3118 l
0.5692 0.3162 l
0.5774 0.3208 l
0.5857 0.3255 l
0.5940 0.3304 l
0.6025 0.3354 l
0.6111 0.3405 l
0.6198 0.3458 l
0.6286 0.3513 l
0.6376 0.3569 l
0.6466 0.3627 l
0.6557 0.3686 l
0.6650 0.3747 l
0.6743 0.3810 l
0.6838 0.3875 l
0.6934 0.3941 l
0.7031 0.4009 l
0.7129 0.4079 l
0.7229 0.4152 l
0.7329 0.4226 l
0.7431 0.4302 l
0.7534 0.4380 l
0.7638 0.4460 l
0.7743 0.4543 l
0.7849 0.4627 l
0.7957 0.4714 l
0.8066 0.4803 l
0.8176 0.4895 l
0.8287 0.4989 l
0.8399 0.5085 l
0.8513 0.5184 l
0.8628 0.5286 l
0.8744 0.5390 l
0.8862 0.5497 l
0.8981 0.5606 l
0.9101 0.5718 l
0.9222 0.5833 l
0.9344 0.5951 l
0.9468 0.6072 l
0.9593 0.6195 l
0.9720 0.6322 l
0.9848 0.6452 l
0.9977 0.6585 l
1.0107 0.6722 l
1.0239 0.6861 l
1.0372 0.7004 l
1.0506 0.7150 l
1.0642 0.7300 l
1.0779 0.7453 l
1.0918 0.7610 l
1.1058 0.7771 l
1.1199 0.7935 l
1.1341 0.8103 l
1.1485 0.8275 l
1.1501 0.8294 l
s
[/DeviceRGB] SCS
Color1 SC
[] 0 SD
0.0045 SLW
n
0.1500 0.1500 m
1.1500 0.1500 l
s
n
0.1500 0.8500 m
1.1500 0.8500 l
s
n
0.2333 0.1500 m
0.2333 0.1600 l
s
n
0.2333 0.8500 m
0.2333 0.8400 l
s
n
0.4000 0.1500 m
0.4000 0.1600 l
s
n
0.4000 0.8500 m
0.4000 0.8400 l
s
n
0.5667 0.1500 m
0.5667 0.1600 l
s
n
0.5667 0.8500 m
0.5667 0.8400 l
s
n
0.7333 0.1500 m
0.7333 0.1600 l
s
n
0.7333 0.8500 m
0.7333 0.8400 l
s
n
0.9000 0.1500 m
0.9000 0.1600 l
s
n
0.9000 0.8500 m
0.9000 0.8400 l
s
n
1.0667 0.1500 m
1.0667 0.1600 l
s
n
1.0667 0.8500 m
1.0667 0.8400 l
s
n
0.1500 0.1500 m
0.1500 0.1700 l
s
n
0.1500 0.8500 m
0.1500 0.8300 l
s
n
0.3167 0.1500 m
0.3167 0.1700 l
s
n
0.3167 0.8500 m
0.3167 0.8300 l
s
n
0.4833 0.1500 m
0.4833 0.1700 l
s
n
0.4833 0.8500 m
0.4833 0.8300 l
s
n
0.6500 0.1500 m
0.6500 0.1700 l
s
n
0.6500 0.8500 m
0.6500 0.8300 l
s
n
0.8167 0.1500 m
0.8167 0.1700 l
s
n
0.8167 0.8500 m
0.8167 0.8300 l
s
n
0.9833 0.1500 m
0.9833 0.1700 l
s
n
0.9833 0.8500 m
0.9833 0.8300 l
s
/Times-Roman findfont
dup length dict begin
 {1 index /FID ne {def} {pop pop} ifelse} forall
 /Encoding DefEncoding def
 currentdict
end
/Font0 exch definefont pop
/Font0 FFSF
0.1394 0.1094 m
GS
[0.0448 0.0000 0.0000 0.0448 0 0] CC
(0) show
GR
/Font0 FFSF
0.2910 0.1094 m
GS
[0.0448 0.0000 0.0000 0.0448 0 0] CC
(0.1) show
GR
/Font0 FFSF
0.4559 0.1094 m
GS
[0.0448 0.0000 0.0000 0.0448 0 0] CC
(0.2) show
GR
/Font0 FFSF
0.6233 0.1094 m
GS
[0.0448 0.0000 0.0000 0.0448 0 0] CC
(0.3) show
GR
/Font0 FFSF
0.7892 0.1094 m
GS
[0.0448 0.0000 0.0000 0.0448 0 0] CC
(0.4) show
GR
/Font0 FFSF
0.9567 0.1090 m
GS
[0.0448 0.0000 0.0000 0.0448 0 0] CC
(0.5) show
GR
/Symbol findfont
/Font12 exch definefont pop
/Font12 FFSF
0.5722 0.0441 m
GS
[0.0504 0.0000 0.0000 0.0504 0 0] CC
(r) show
GR
/Font0 FFSF
0.6000 0.0441 m
GS
[0.0504 0.0000 0.0000 0.0504 0 0] CC
( [fm) show
GR
/Font0 FFSF
0.6855 0.0743 m
GS
[0.0356 0.0000 0.0000 0.0356 0 0] CC
(-3) show
GR
/Font0 FFSF
0.7153 0.0441 m
GS
[0.0504 0.0000 0.0000 0.0504 0 0] CC
(]) show
GR
n
0.1500 0.1500 m
0.1500 0.8500 l
s
n
1.1500 0.1500 m
1.1500 0.8500 l
s
n
0.1500 0.2944 m
0.1600 0.2944 l
s
n
1.1500 0.2944 m
1.1400 0.2944 l
s
n
0.1500 0.5868 m
0.1600 0.5868 l
s
n
1.1500 0.5868 m
1.1400 0.5868 l
s
n
0.1500 0.4406 m
0.1700 0.4406 l
s
n
1.1500 0.4406 m
1.1300 0.4406 l
s
n
0.1500 0.7330 m
0.1700 0.7330 l
s
n
1.1500 0.7330 m
1.1300 0.7330 l
s
/Font0 FFSF
0.0965 0.4255 m
GS
[0.0448 0.0000 0.0000 0.0448 0 0] CC
(50) show
GR
/Font0 FFSF
0.0741 0.7181 m
GS
[0.0448 0.0000 0.0000 0.0448 0 0] CC
(100) show
GR
/Font0 FFSF
0.0563 0.3867 m
GS
[0.0000 0.0504 -0.0504 0.0000 0 0] CC
(E/N [MeV]) show
GR
[] 0 SD
0.0015 SLW
n
0.1500 0.1500 m
0.1500 0.8500 l
1.1500 0.8500 l
1.1500 0.1500 l
0.1500 0.1500 l
c
s
n
0.1500 0.8500 m
0.1500 0.5722 l
0.4452 0.5722 l
0.4452 0.8500 l
c
[/DeviceRGB] SCS
Color0 SC
fill
[/DeviceRGB] SCS
Color1 SC
[] 0 SD
0.0045 SLW
n
0.1500 0.8500 m
0.1500 0.5722 l
0.4452 0.5722 l
0.4452 0.8500 l
0.1500 0.8500 l
c
s
/Font0 FFSF
0.2623 0.8063 m
GS
[0.0498 0.0000 0.0000 0.0498 0 0] CC
(M3Y-P2) show
GR
n
0.1623 0.8227 m
0.2423 0.8227 l
s
/Font0 FFSF
0.2623 0.7618 m
GS
[0.0498 0.0000 0.0000 0.0498 0 0] CC
(M3Y-P3) show
GR
[/DeviceRGB] SCS
Color2 SC
[0.0187 0.0112 ] 0 SD
0.0037 SLW
n
0.1623 0.7782 m
0.2423 0.7782 l
s
/Font0 FFSF
[/DeviceRGB] SCS
Color1 SC
0.2623 0.7173 m
GS
[0.0498 0.0000 0.0000 0.0498 0 0] CC
(M3Y-P4) show
GR
[/DeviceRGB] SCS
Color4 SC
[0.0037 0.0112 ] 0 SD
0.0037 SLW
n
0.1623 0.7337 m
0.2423 0.7337 l
s
/Font0 FFSF
[/DeviceRGB] SCS
Color1 SC
0.2623 0.6724 m
GS
[0.0498 0.0000 0.0000 0.0498 0 0] CC
(M3Y-P5) show
GR
[/DeviceRGB] SCS
Color11 SC
[0.0037 0.0112 0.0187 0.0112 0.0037 0.0112 ] 0 SD
0.0037 SLW
n
0.1623 0.6890 m
0.2423 0.6890 l
s
/Font0 FFSF
[/DeviceRGB] SCS
Color1 SC
0.2623 0.6275 m
GS
[0.0498 0.0000 0.0000 0.0498 0 0] CC
(M3Y-P6) show
GR
[/DeviceRGB] SCS
Color3 SC
[0.0037 0.0112 0.0262 0.0112 ] 0 SD
0.0037 SLW
n
0.1623 0.6441 m
0.2423 0.6441 l
s
/Font0 FFSF
[/DeviceRGB] SCS
Color1 SC
0.2623 0.5829 m
GS
[0.0498 0.0000 0.0000 0.0498 0 0] CC
(M3Y-P7) show
GR
[/DeviceRGB] SCS
Color8 SC
[0.0187 0.0112 0.0037 0.0112 0.0187 0.0112 ] 0 SD
0.0037 SLW
n
0.1623 0.5994 m
0.2423 0.5994 l
s
[/DeviceRGB] SCS
Color1 SC
[] 0 SD
0.0015 SLW
n
0.3752 0.8497 m
0.3725 0.8458 l
s
/Font0 FFSF
0.4877 0.7426 m
GS
[0.0764 0.0000 0.0000 0.0764 0 0] CC
(a\)) show
GR
showpage
%%PageTrailer
%%Trailer
%%DocumentNeededResources: font Times-Roman
%%+ font Symbol
%%EOF
