%!PS-Adobe-3.0
%%BoundingBox: 0 0 612 792
%%LanguageLevel: 2
%%Creator: Grace-5.1.25
%%CreationDate: Tue Dec  1 10:55:55 2015
%%DocumentData: Clean8Bit
%%Orientation: Landscape
%%Pages: 1
%%PageOrder: Ascend
%%Title: /Users/ap1450/Dropbox/Physics_Reports_LR/ST_channel_finite_range/Vers2/plots/JLS_nakada4.agr
%%For: ap1450
%%DocumentNeededResources: (atend)
%%EndComments
%%BeginProlog
/PAGE_OFFSET_X 0 def
/PAGE_OFFSET_Y 0 def
/m {moveto} def
/l {lineto} def
/s {stroke} def
/n {newpath} def
/c {closepath} def
/RL {rlineto} def
/SLW {setlinewidth} def
/GS {gsave} def
/GR {grestore} def
/SC {setcolor} def
/SGRY {setgray} def
/SRGB {setrgbcolor} def
/SD {setdash} def
/SLC {setlinecap} def
/SLJ {setlinejoin} def
/SCS {setcolorspace} def
/FFSF {findfont setfont} def
/CC {concat} def
/PXL {n m 0 0 RL s} def
/Color0 {1.0000 1.0000 1.0000} def
/Color1 {0.0000 0.0000 0.0000} def
/Color2 {1.0000 0.0000 0.0000} def
/Color3 {0.0000 1.0000 0.0000} def
/Color4 {0.0000 0.0000 1.0000} def
/Color5 {1.0000 1.0000 0.0000} def
/Color6 {0.7373 0.5608 0.5608} def
/Color7 {0.8627 0.8627 0.8627} def
/Color8 {0.5804 0.0000 0.8275} def
/Color9 {0.0000 1.0000 1.0000} def
/Color10 {1.0000 0.0000 1.0000} def
/Color11 {1.0000 0.6471 0.0000} def
/Color12 {0.4471 0.1294 0.7373} def
/Color13 {0.4039 0.0275 0.2824} def
/Color14 {0.2510 0.8784 0.8157} def
/Color15 {0.0000 0.5451 0.0000} def
/Color16 {0.7529 0.7529 0.7529} def
/Color17 {0.5059 0.5059 0.5059} def
/Color18 {0.2588 0.2588 0.2588} def
/PTRN {
 /pat_bits exch def 
 <<
  /PaintType 2
  /PatternType 1 /TilingType 1
  /BBox[0 0 16 16]
  /XStep 16 /YStep 16
  /PaintProc {
   pop
   16 16 true [-1 0 0 -1 16 16] pat_bits imagemask
  }
 >>
 [0.0016 0 0 0.0016 0 0]
 makepattern
} def
/Pattern0 {<0000000000000000000000000000000000000000000000000000000000000000> PTRN} bind def
/Pattern1 {<ffffffffffffffffffffffffffffffffffffffffffffffffffffffffffffffff> PTRN} bind def
/Pattern2 {<eeeeffffbbbbffffeeeeffffbbbbffffeeeeffffbbbbffffeeeeffffbbbbffff> PTRN} bind def
/Pattern3 {<eeeebbbbeeeebbbbeeeebbbbeeeebbbbeeeebbbbeeeebbbbeeeebbbbeeeebbbb> PTRN} bind def
/Pattern4 {<5555aaaa5555aaaa5555aaaa5555aaaa5555aaaa5555aaaa5555aaaa5555aaaa> PTRN} bind def
/Pattern5 {<1111444411114444111144441111444411114444111144441111444411114444> PTRN} bind def
/Pattern6 {<1111000044440000111100004444000011110000444400001111000044440000> PTRN} bind def
/Pattern7 {<1010000000000000010100000000000010100000000000000101000000000000> PTRN} bind def
/Pattern8 {<0000000000000000000000000000000000000000000000000000000000000000> PTRN} bind def
/Pattern9 {<1e1e0f0f8787c3c3e1e1f0f078783c3c1e1e0f0f8787c3c3e1e1f0f078783c3c> PTRN} bind def
/Pattern10 {<7878f0f0e1e1c3c387870f0f1e1e3c3c7878f0f0e1e1c3c387870f0f1e1e3c3c> PTRN} bind def
/Pattern11 {<3333333333333333333333333333333333333333333333333333333333333333> PTRN} bind def
/Pattern12 {<ffffffff00000000ffffffff00000000ffffffff00000000ffffffff00000000> PTRN} bind def
/Pattern13 {<8181424224241818181824244242818181814242242418181818242442428181> PTRN} bind def
/Pattern14 {<8080404020201010080804040202010180804040202010100808040402020101> PTRN} bind def
/Pattern15 {<0101020204040808101020204040808001010202040408081010202040408080> PTRN} bind def
/Pattern16 {<2222222222222222222222222222222222222222222222222222222222222222> PTRN} bind def
/Pattern17 {<0000ffff000000000000ffff000000000000ffff000000000000ffff00000000> PTRN} bind def
/Pattern18 {<2222ffff222222222222ffff222222222222ffff222222222222ffff22222222> PTRN} bind def
/Pattern19 {<ffffffff33333333ffffffff33333333ffffffff33333333ffffffff33333333> PTRN} bind def
/Pattern20 {<0f0f0f0f0f0f0f0ff0f0f0f0f0f0f0f00f0f0f0f0f0f0f0ff0f0f0f0f0f0f0f0> PTRN} bind def
/Pattern21 {<ff00ff00ff00ff00ff00ff00ff00ff0000ff00ff00ff00ff00ff00ff00ff00ff> PTRN} bind def
/Pattern22 {<8001800180018001800180018001ffffffff8001800180018001800180018001> PTRN} bind def
/Pattern23 {<c003c003c003c003c003c003ffffffffffffffffc003c003c003c003c003c003> PTRN} bind def
/Pattern24 {<040404040404ffff404040404040ffff040404040404ffff404040404040ffff> PTRN} bind def
/Pattern25 {<180018001800180018001800ffffffff001800180018001800180018ffffffff> PTRN} bind def
/Pattern26 {<1111b8b87c7c3a3a1111a3a3c7c78b8b1111b8b87c7c3a3a1111a3a3c7c78b8b> PTRN} bind def
/Pattern27 {<101010102828c7c70101010182827c7c101010102828c7c70101010182827c7c> PTRN} bind def
/Pattern28 {<1c1c121211112121c1c12121111112121c1c121211112121c1c1212111111212> PTRN} bind def
/Pattern29 {<3e3e414180808080e3e31414080808083e3e414180808080e3e3141408080808> PTRN} bind def
/Pattern30 {<4848888884848383848488884848383848488888848483838484888848483838> PTRN} bind def
/Pattern31 {<03030404080808080c0c12122121c0c003030404080808080c0c12122121c0c0> PTRN} bind def
/ellipsedict 8 dict def
ellipsedict /mtrx matrix put
/EARC {
 ellipsedict begin
  /endangle exch def
  /startangle exch def
  /yrad exch def
  /xrad exch def
  /y exch def
  /x exch def
  /savematrix mtrx currentmatrix def
  x y translate
  xrad yrad scale
  0 0 1 startangle endangle arc
  savematrix setmatrix
 end
} def
/TL {
  /kcomp exch def
  /linewidth exch def
  /offset exch def
  GS
  0 offset rmoveto
  linewidth SLW
  dup stringwidth exch kcomp add exch RL s
  GR
} def
/KINIT
{
 /kvector exch def
 /kid 0 def
} def
/KPROC
{
 pop pop
 kvector kid get
 0 rmoveto
 /kid 1 kid add def
} def
/DefEncoding [
 /.notdef
 /.notdef
 /.notdef
 /.notdef
 /.notdef
 /.notdef
 /.notdef
 /.notdef
 /.notdef
 /.notdef
 /.notdef
 /.notdef
 /.notdef
 /.notdef
 /.notdef
 /.notdef
 /.notdef
 /.notdef
 /.notdef
 /.notdef
 /.notdef
 /.notdef
 /.notdef
 /.notdef
 /.notdef
 /.notdef
 /.notdef
 /.notdef
 /.notdef
 /.notdef
 /.notdef
 /.notdef
 /space
 /exclam
 /quotedbl
 /numbersign
 /dollar
 /percent
 /ampersand
 /quoteright
 /parenleft
 /parenright
 /asterisk
 /plus
 /comma
 /hyphen
 /period
 /slash
 /zero
 /one
 /two
 /three
 /four
 /five
 /six
 /seven
 /eight
 /nine
 /colon
 /semicolon
 /less
 /equal
 /greater
 /question
 /at
 /A
 /B
 /C
 /D
 /E
 /F
 /G
 /H
 /I
 /J
 /K
 /L
 /M
 /N
 /O
 /P
 /Q
 /R
 /S
 /T
 /U
 /V
 /W
 /X
 /Y
 /Z
 /bracketleft
 /backslash
 /bracketright
 /asciicircum
 /underscore
 /grave
 /a
 /b
 /c
 /d
 /e
 /f
 /g
 /h
 /i
 /j
 /k
 /l
 /m
 /n
 /o
 /p
 /q
 /r
 /s
 /t
 /u
 /v
 /w
 /x
 /y
 /z
 /braceleft
 /bar
 /braceright
 /asciitilde
 /.notdef
 /.notdef
 /.notdef
 /.notdef
 /.notdef
 /.notdef
 /.notdef
 /.notdef
 /.notdef
 /.notdef
 /.notdef
 /.notdef
 /.notdef
 /.notdef
 /.notdef
 /.notdef
 /.notdef
 /.notdef
 /.notdef
 /.notdef
 /.notdef
 /.notdef
 /.notdef
 /.notdef
 /.notdef
 /.notdef
 /.notdef
 /.notdef
 /.notdef
 /.notdef
 /.notdef
 /.notdef
 /.notdef
 /space
 /exclamdown
 /cent
 /sterling
 /currency
 /yen
 /brokenbar
 /section
 /dieresis
 /copyright
 /ordfeminine
 /guillemotleft
 /logicalnot
 /hyphen
 /registered
 /macron
 /degree
 /plusminus
 /twosuperior
 /threesuperior
 /acute
 /mu
 /paragraph
 /periodcentered
 /cedilla
 /onesuperior
 /ordmasculine
 /guillemotright
 /onequarter
 /onehalf
 /threequarters
 /questiondown
 /Agrave
 /Aacute
 /Acircumflex
 /Atilde
 /Adieresis
 /Aring
 /AE
 /Ccedilla
 /Egrave
 /Eacute
 /Ecircumflex
 /Edieresis
 /Igrave
 /Iacute
 /Icircumflex
 /Idieresis
 /Eth
 /Ntilde
 /Ograve
 /Oacute
 /Ocircumflex
 /Otilde
 /Odieresis
 /multiply
 /Oslash
 /Ugrave
 /Uacute
 /Ucircumflex
 /Udieresis
 /Yacute
 /Thorn
 /germandbls
 /agrave
 /aacute
 /acircumflex
 /atilde
 /adieresis
 /aring
 /ae
 /ccedilla
 /egrave
 /eacute
 /ecircumflex
 /edieresis
 /igrave
 /iacute
 /icircumflex
 /idieresis
 /eth
 /ntilde
 /ograve
 /oacute
 /ocircumflex
 /otilde
 /odieresis
 /divide
 /oslash
 /ugrave
 /uacute
 /ucircumflex
 /udieresis
 /yacute
 /thorn
 /ydieresis
] def
%%EndProlog
%%BeginSetup
%%EndSetup
%%Page: 1 1
PAGE_OFFSET_X PAGE_OFFSET_Y translate
612.00 612.00 scale
90 rotate
0.0 -1.0 translate
n
0.4267 0.7897 m
0.4267 0.8077 l
0.4447 0.8077 l
0.4447 0.7897 l
c
GS
[/DeviceRGB] SCS
Color0 SRGB
fill
GR
[/Pattern /DeviceRGB] SCS
Color1 Pattern8 SC
fill
[/DeviceRGB] SCS
Color1 SC
[] 0 SD
0.0045 SLW
0 SLC
0 SLJ
n
0.4267 0.7897 m
0.4267 0.8077 l
0.4447 0.8077 l
0.4447 0.7897 l
0.4267 0.7897 l
c
s
n
0.4981 0.7637 m
0.4981 0.7818 l
0.5162 0.7818 l
0.5162 0.7637 l
c
GS
Color0 SRGB
fill
GR
[/Pattern /DeviceRGB] SCS
Color1 Pattern8 SC
fill
[/DeviceRGB] SCS
Color1 SC
n
0.4981 0.7637 m
0.4981 0.7818 l
0.5162 0.7818 l
0.5162 0.7637 l
0.4981 0.7637 l
c
s
n
0.5696 0.7313 m
0.5696 0.7493 l
0.5876 0.7493 l
0.5876 0.7313 l
c
GS
Color0 SRGB
fill
GR
[/Pattern /DeviceRGB] SCS
Color1 Pattern8 SC
fill
[/DeviceRGB] SCS
Color1 SC
n
0.5696 0.7313 m
0.5696 0.7493 l
0.5876 0.7493 l
0.5876 0.7313 l
0.5696 0.7313 l
c
s
n
0.6410 0.6922 m
0.6410 0.7102 l
0.6590 0.7102 l
0.6590 0.6922 l
c
GS
Color0 SRGB
fill
GR
[/Pattern /DeviceRGB] SCS
Color1 Pattern8 SC
fill
[/DeviceRGB] SCS
Color1 SC
n
0.6410 0.6922 m
0.6410 0.7102 l
0.6590 0.7102 l
0.6590 0.6922 l
0.6410 0.6922 l
c
s
n
0.7124 0.6466 m
0.7124 0.6646 l
0.7304 0.6646 l
0.7304 0.6466 l
c
GS
Color0 SRGB
fill
GR
[/Pattern /DeviceRGB] SCS
Color1 Pattern8 SC
fill
[/DeviceRGB] SCS
Color1 SC
n
0.7124 0.6466 m
0.7124 0.6646 l
0.7304 0.6646 l
0.7304 0.6466 l
0.7124 0.6466 l
c
s
n
0.7838 0.5942 m
0.7838 0.6122 l
0.8019 0.6122 l
0.8019 0.5942 l
c
GS
Color0 SRGB
fill
GR
[/Pattern /DeviceRGB] SCS
Color1 Pattern8 SC
fill
[/DeviceRGB] SCS
Color1 SC
n
0.7838 0.5942 m
0.7838 0.6122 l
0.8019 0.6122 l
0.8019 0.5942 l
0.7838 0.5942 l
c
s
n
0.8553 0.5346 m
0.8553 0.5526 l
0.8733 0.5526 l
0.8733 0.5346 l
c
GS
Color0 SRGB
fill
GR
[/Pattern /DeviceRGB] SCS
Color1 Pattern8 SC
fill
[/DeviceRGB] SCS
Color1 SC
n
0.8553 0.5346 m
0.8553 0.5526 l
0.8733 0.5526 l
0.8733 0.5346 l
0.8553 0.5346 l
c
s
n
0.9267 0.4672 m
0.9267 0.4852 l
0.9447 0.4852 l
0.9447 0.4672 l
c
GS
Color0 SRGB
fill
GR
[/Pattern /DeviceRGB] SCS
Color1 Pattern8 SC
fill
[/DeviceRGB] SCS
Color1 SC
n
0.9267 0.4672 m
0.9267 0.4852 l
0.9447 0.4852 l
0.9447 0.4672 l
0.9267 0.4672 l
c
s
n
0.9981 0.3903 m
0.9981 0.4084 l
1.0162 0.4084 l
1.0162 0.3903 l
c
GS
Color0 SRGB
fill
GR
[/Pattern /DeviceRGB] SCS
Color1 Pattern8 SC
fill
[/DeviceRGB] SCS
Color1 SC
n
0.9981 0.3903 m
0.9981 0.4084 l
1.0162 0.4084 l
1.0162 0.3903 l
0.9981 0.3903 l
c
s
n
1.0696 0.3026 m
1.0696 0.3207 l
1.0876 0.3207 l
1.0876 0.3026 l
c
GS
Color0 SRGB
fill
GR
[/Pattern /DeviceRGB] SCS
Color1 Pattern8 SC
fill
[/DeviceRGB] SCS
Color1 SC
n
1.0696 0.3026 m
1.0696 0.3207 l
1.0876 0.3207 l
1.0876 0.3026 l
1.0696 0.3026 l
c
s
n
1.1410 0.2016 m
1.1410 0.2196 l
1.1590 0.2196 l
1.1590 0.2016 l
c
GS
Color0 SRGB
fill
GR
[/Pattern /DeviceRGB] SCS
Color1 Pattern8 SC
fill
[/DeviceRGB] SCS
Color1 SC
n
1.1410 0.2016 m
1.1410 0.2196 l
1.1590 0.2196 l
1.1590 0.2016 l
1.1410 0.2016 l
c
s
[] 0 SD
0.0037 SLW
n
0.1499 0.8499 m
0.1500 0.8499 l
0.1571 0.8499 l
0.1643 0.8499 l
0.1714 0.8498 l
0.1786 0.8498 l
0.1857 0.8498 l
0.1929 0.8498 l
0.2000 0.8497 l
0.2071 0.8497 l
0.2143 0.8496 l
0.2214 0.8496 l
0.2286 0.8495 l
0.2357 0.8495 l
0.2429 0.8494 l
0.2500 0.8493 l
0.2571 0.8492 l
0.2643 0.8491 l
0.2714 0.8490 l
0.2786 0.8489 l
0.2857 0.8488 l
0.2929 0.8487 l
0.3000 0.8485 l
0.3071 0.8484 l
0.3143 0.8482 l
0.3214 0.8481 l
0.3286 0.8479 l
0.3357 0.8477 l
0.3429 0.8475 l
0.3500 0.8473 l
0.3571 0.8470 l
0.3643 0.8468 l
0.3714 0.8465 l
0.3786 0.8462 l
0.3857 0.8459 l
0.3929 0.8456 l
0.4000 0.8452 l
0.4071 0.8449 l
0.4143 0.8445 l
0.4214 0.8441 l
0.4286 0.8436 l
0.4357 0.8432 l
0.4429 0.8427 l
0.4500 0.8422 l
0.4571 0.8417 l
0.4643 0.8411 l
0.4714 0.8405 l
0.4786 0.8399 l
0.4857 0.8393 l
0.4929 0.8386 l
0.5000 0.8379 l
0.5071 0.8372 l
0.5143 0.8364 l
0.5214 0.8356 l
0.5286 0.8348 l
0.5357 0.8339 l
0.5429 0.8330 l
0.5500 0.8321 l
0.5571 0.8311 l
0.5643 0.8301 l
0.5714 0.8290 l
0.5786 0.8279 l
0.5857 0.8267 l
0.5929 0.8255 l
0.6000 0.8243 l
0.6071 0.8230 l
0.6143 0.8217 l
0.6214 0.8203 l
0.6286 0.8189 l
0.6357 0.8174 l
0.6429 0.8159 l
0.6500 0.8143 l
0.6571 0.8127 l
0.6643 0.8110 l
0.6714 0.8092 l
0.6786 0.8074 l
0.6857 0.8056 l
0.6929 0.8037 l
0.7000 0.8017 l
0.7071 0.7997 l
0.7143 0.7976 l
0.7214 0.7954 l
0.7286 0.7932 l
0.7357 0.7909 l
0.7429 0.7886 l
0.7500 0.7861 l
0.7571 0.7836 l
0.7643 0.7811 l
0.7714 0.7785 l
0.7786 0.7758 l
0.7857 0.7730 l
0.7929 0.7702 l
0.8000 0.7672 l
0.8071 0.7642 l
0.8143 0.7612 l
0.8214 0.7580 l
0.8286 0.7548 l
0.8357 0.7515 l
0.8429 0.7481 l
0.8500 0.7446 l
0.8571 0.7411 l
0.8643 0.7374 l
0.8714 0.7337 l
0.8786 0.7299 l
0.8857 0.7260 l
0.8929 0.7220 l
0.9000 0.7179 l
0.9071 0.7138 l
0.9143 0.7095 l
0.9214 0.7052 l
0.9286 0.7007 l
0.9357 0.6962 l
0.9429 0.6915 l
0.9500 0.6868 l
0.9571 0.6820 l
0.9643 0.6770 l
0.9714 0.6720 l
0.9786 0.6669 l
0.9857 0.6616 l
0.9929 0.6563 l
1.0000 0.6509 l
1.0071 0.6453 l
1.0143 0.6397 l
1.0214 0.6339 l
1.0286 0.6280 l
1.0357 0.6221 l
1.0429 0.6160 l
1.0500 0.6098 l
1.0571 0.6035 l
1.0643 0.5970 l
1.0714 0.5905 l
1.0786 0.5839 l
1.0857 0.5771 l
1.0929 0.5702 l
1.1000 0.5632 l
1.1071 0.5561 l
1.1143 0.5488 l
1.1214 0.5415 l
1.1286 0.5340 l
1.1357 0.5264 l
1.1429 0.5187 l
1.1500 0.5108 l
1.1501 0.5107 l
s
[/DeviceRGB] SCS
Color2 SC
[0.0187 0.0112 ] 0 SD
0.0037 SLW
n
0.1499 0.8492 m
0.1500 0.8492 l
0.1571 0.8491 l
0.1643 0.8490 l
0.1714 0.8489 l
0.1786 0.8487 l
0.1857 0.8486 l
0.1929 0.8484 l
0.2000 0.8482 l
0.2071 0.8481 l
0.2143 0.8478 l
0.2214 0.8476 l
0.2286 0.8474 l
0.2357 0.8471 l
0.2429 0.8468 l
0.2500 0.8466 l
0.2571 0.8462 l
0.2643 0.8459 l
0.2714 0.8455 l
0.2786 0.8451 l
0.2857 0.8447 l
0.2929 0.8443 l
0.3000 0.8438 l
0.3071 0.8433 l
0.3143 0.8428 l
0.3214 0.8423 l
0.3286 0.8417 l
0.3357 0.8410 l
0.3429 0.8404 l
0.3500 0.8397 l
0.3571 0.8390 l
0.3643 0.8382 l
0.3714 0.8374 l
0.3786 0.8366 l
0.3857 0.8357 l
0.3929 0.8348 l
0.4000 0.8338 l
0.4071 0.8328 l
0.4143 0.8317 l
0.4214 0.8306 l
0.4286 0.8295 l
0.4357 0.8283 l
0.4429 0.8270 l
0.4500 0.8257 l
0.4571 0.8243 l
0.4643 0.8229 l
0.4714 0.8214 l
0.4786 0.8199 l
0.4857 0.8183 l
0.4929 0.8167 l
0.5000 0.8149 l
0.5071 0.8132 l
0.5143 0.8113 l
0.5214 0.8094 l
0.5286 0.8074 l
0.5357 0.8054 l
0.5429 0.8033 l
0.5500 0.8011 l
0.5571 0.7988 l
0.5643 0.7965 l
0.5714 0.7941 l
0.5786 0.7916 l
0.5857 0.7890 l
0.5929 0.7864 l
0.6000 0.7837 l
0.6071 0.7809 l
0.6143 0.7780 l
0.6214 0.7750 l
0.6286 0.7720 l
0.6357 0.7688 l
0.6429 0.7656 l
0.6500 0.7623 l
0.6571 0.7588 l
0.6643 0.7553 l
0.6714 0.7517 l
0.6786 0.7480 l
0.6857 0.7442 l
0.6929 0.7404 l
0.7000 0.7364 l
0.7071 0.7323 l
0.7143 0.7281 l
0.7214 0.7238 l
0.7286 0.7194 l
0.7357 0.7149 l
0.7429 0.7103 l
0.7500 0.7056 l
0.7571 0.7008 l
0.7643 0.6959 l
0.7714 0.6908 l
0.7786 0.6857 l
0.7857 0.6804 l
0.7929 0.6750 l
0.8000 0.6695 l
0.8071 0.6639 l
0.8143 0.6582 l
0.8214 0.6524 l
0.8286 0.6464 l
0.8357 0.6403 l
0.8429 0.6341 l
0.8500 0.6278 l
0.8571 0.6214 l
0.8643 0.6148 l
0.8714 0.6081 l
0.8786 0.6013 l
0.8857 0.5944 l
0.8929 0.5873 l
0.9000 0.5801 l
0.9071 0.5728 l
0.9143 0.5653 l
0.9214 0.5577 l
0.9286 0.5500 l
0.9357 0.5421 l
0.9429 0.5341 l
0.9500 0.5260 l
0.9571 0.5177 l
0.9643 0.5093 l
0.9714 0.5008 l
0.9786 0.4921 l
0.9857 0.4833 l
0.9929 0.4744 l
1.0000 0.4653 l
1.0071 0.4561 l
1.0143 0.4467 l
1.0214 0.4372 l
1.0286 0.4275 l
1.0357 0.4177 l
1.0429 0.4078 l
1.0500 0.3977 l
1.0571 0.3875 l
1.0643 0.3771 l
1.0714 0.3666 l
1.0786 0.3559 l
1.0857 0.3451 l
1.0929 0.3342 l
1.1000 0.3230 l
1.1071 0.3118 l
1.1143 0.3004 l
1.1214 0.2888 l
1.1286 0.2771 l
1.1357 0.2653 l
1.1429 0.2533 l
1.1500 0.2411 l
1.1501 0.2409 l
s
[/DeviceRGB] SCS
Color4 SC
[0.0037 0.0112 ] 0 SD
0.0037 SLW
n
0.1499 0.8499 m
0.1500 0.8499 l
0.1571 0.8499 l
0.1643 0.8499 l
0.1714 0.8499 l
0.1786 0.8499 l
0.1857 0.8498 l
0.1929 0.8498 l
0.2000 0.8498 l
0.2071 0.8497 l
0.2143 0.8497 l
0.2214 0.8496 l
0.2286 0.8496 l
0.2357 0.8495 l
0.2429 0.8495 l
0.2500 0.8494 l
0.2571 0.8493 l
0.2643 0.8492 l
0.2714 0.8491 l
0.2786 0.8490 l
0.2857 0.8489 l
0.2929 0.8488 l
0.3000 0.8487 l
0.3071 0.8485 l
0.3143 0.8484 l
0.3214 0.8482 l
0.3286 0.8480 l
0.3357 0.8478 l
0.3429 0.8476 l
0.3500 0.8474 l
0.3571 0.8472 l
0.3643 0.8469 l
0.3714 0.8466 l
0.3786 0.8463 l
0.3857 0.8460 l
0.3929 0.8457 l
0.4000 0.8454 l
0.4071 0.8450 l
0.4143 0.8446 l
0.4214 0.8442 l
0.4286 0.8438 l
0.4357 0.8433 l
0.4429 0.8428 l
0.4500 0.8423 l
0.4571 0.8418 l
0.4643 0.8412 l
0.4714 0.8406 l
0.4786 0.8400 l
0.4857 0.8393 l
0.4929 0.8386 l
0.5000 0.8379 l
0.5071 0.8371 l
0.5143 0.8364 l
0.5214 0.8355 l
0.5286 0.8347 l
0.5357 0.8338 l
0.5429 0.8328 l
0.5500 0.8318 l
0.5571 0.8308 l
0.5643 0.8298 l
0.5714 0.8286 l
0.5786 0.8275 l
0.5857 0.8263 l
0.5929 0.8250 l
0.6000 0.8238 l
0.6071 0.8224 l
0.6143 0.8210 l
0.6214 0.8196 l
0.6286 0.8181 l
0.6357 0.8165 l
0.6429 0.8149 l
0.6500 0.8133 l
0.6571 0.8115 l
0.6643 0.8098 l
0.6714 0.8079 l
0.6786 0.8060 l
0.6857 0.8041 l
0.6929 0.8020 l
0.7000 0.7999 l
0.7071 0.7978 l
0.7143 0.7956 l
0.7214 0.7933 l
0.7286 0.7909 l
0.7357 0.7885 l
0.7429 0.7860 l
0.7500 0.7834 l
0.7571 0.7808 l
0.7643 0.7780 l
0.7714 0.7753 l
0.7786 0.7724 l
0.7857 0.7694 l
0.7929 0.7664 l
0.8000 0.7633 l
0.8071 0.7601 l
0.8143 0.7568 l
0.8214 0.7534 l
0.8286 0.7500 l
0.8357 0.7464 l
0.8429 0.7428 l
0.8500 0.7391 l
0.8571 0.7352 l
0.8643 0.7313 l
0.8714 0.7273 l
0.8786 0.7232 l
0.8857 0.7190 l
0.8929 0.7148 l
0.9000 0.7104 l
0.9071 0.7059 l
0.9143 0.7013 l
0.9214 0.6966 l
0.9286 0.6918 l
0.9357 0.6869 l
0.9429 0.6819 l
0.9500 0.6768 l
0.9571 0.6716 l
0.9643 0.6663 l
0.9714 0.6608 l
0.9786 0.6553 l
0.9857 0.6496 l
0.9929 0.6438 l
1.0000 0.6379 l
1.0071 0.6319 l
1.0143 0.6258 l
1.0214 0.6196 l
1.0286 0.6132 l
1.0357 0.6067 l
1.0429 0.6001 l
1.0500 0.5934 l
1.0571 0.5865 l
1.0643 0.5795 l
1.0714 0.5724 l
1.0786 0.5652 l
1.0857 0.5578 l
1.0929 0.5503 l
1.1000 0.5427 l
1.1071 0.5350 l
1.1143 0.5271 l
1.1214 0.5190 l
1.1286 0.5109 l
1.1357 0.5026 l
1.1429 0.4942 l
1.1500 0.4856 l
1.1501 0.4855 l
s
[/DeviceRGB] SCS
Color11 SC
[0.0037 0.0112 0.0187 0.0112 ] 0 SD
0.0037 SLW
n
0.1499 0.8492 m
0.1500 0.8492 l
0.1571 0.8491 l
0.1643 0.8490 l
0.1714 0.8489 l
0.1786 0.8488 l
0.1857 0.8486 l
0.1929 0.8485 l
0.2000 0.8483 l
0.2071 0.8481 l
0.2143 0.8479 l
0.2214 0.8477 l
0.2286 0.8474 l
0.2357 0.8472 l
0.2429 0.8469 l
0.2500 0.8466 l
0.2571 0.8463 l
0.2643 0.8460 l
0.2714 0.8456 l
0.2786 0.8453 l
0.2857 0.8449 l
0.2929 0.8444 l
0.3000 0.8440 l
0.3071 0.8435 l
0.3143 0.8430 l
0.3214 0.8424 l
0.3286 0.8419 l
0.3357 0.8413 l
0.3429 0.8406 l
0.3500 0.8399 l
0.3571 0.8392 l
0.3643 0.8385 l
0.3714 0.8377 l
0.3786 0.8369 l
0.3857 0.8360 l
0.3929 0.8351 l
0.4000 0.8342 l
0.4071 0.8332 l
0.4143 0.8322 l
0.4214 0.8311 l
0.4286 0.8300 l
0.4357 0.8288 l
0.4429 0.8276 l
0.4500 0.8263 l
0.4571 0.8249 l
0.4643 0.8236 l
0.4714 0.8221 l
0.4786 0.8206 l
0.4857 0.8191 l
0.4929 0.8175 l
0.5000 0.8158 l
0.5071 0.8141 l
0.5143 0.8123 l
0.5214 0.8104 l
0.5286 0.8085 l
0.5357 0.8065 l
0.5429 0.8044 l
0.5500 0.8023 l
0.5571 0.8001 l
0.5643 0.7978 l
0.5714 0.7955 l
0.5786 0.7930 l
0.5857 0.7905 l
0.5929 0.7880 l
0.6000 0.7853 l
0.6071 0.7826 l
0.6143 0.7798 l
0.6214 0.7769 l
0.6286 0.7739 l
0.6357 0.7708 l
0.6429 0.7677 l
0.6500 0.7645 l
0.6571 0.7611 l
0.6643 0.7577 l
0.6714 0.7542 l
0.6786 0.7506 l
0.6857 0.7469 l
0.6929 0.7431 l
0.7000 0.7393 l
0.7071 0.7353 l
0.7143 0.7312 l
0.7214 0.7270 l
0.7286 0.7228 l
0.7357 0.7184 l
0.7429 0.7139 l
0.7500 0.7093 l
0.7571 0.7046 l
0.7643 0.6999 l
0.7714 0.6950 l
0.7786 0.6900 l
0.7857 0.6848 l
0.7929 0.6796 l
0.8000 0.6743 l
0.8071 0.6688 l
0.8143 0.6633 l
0.8214 0.6576 l
0.8286 0.6518 l
0.8357 0.6459 l
0.8429 0.6399 l
0.8500 0.6337 l
0.8571 0.6275 l
0.8643 0.6211 l
0.8714 0.6146 l
0.8786 0.6080 l
0.8857 0.6012 l
0.8929 0.5944 l
0.9000 0.5874 l
0.9071 0.5803 l
0.9143 0.5730 l
0.9214 0.5657 l
0.9286 0.5582 l
0.9357 0.5505 l
0.9429 0.5428 l
0.9500 0.5349 l
0.9571 0.5269 l
0.9643 0.5187 l
0.9714 0.5105 l
0.9786 0.5020 l
0.9857 0.4935 l
0.9929 0.4848 l
1.0000 0.4760 l
1.0071 0.4671 l
1.0143 0.4580 l
1.0214 0.4487 l
1.0286 0.4394 l
1.0357 0.4299 l
1.0429 0.4203 l
1.0500 0.4105 l
1.0571 0.4006 l
1.0643 0.3905 l
1.0714 0.3803 l
1.0786 0.3700 l
1.0857 0.3595 l
1.0929 0.3489 l
1.1000 0.3381 l
1.1071 0.3272 l
1.1143 0.3162 l
1.1214 0.3050 l
1.1286 0.2936 l
1.1357 0.2821 l
1.1429 0.2705 l
1.1500 0.2587 l
1.1501 0.2586 l
s
[/DeviceRGB] SCS
Color3 SC
[0.0037 0.0112 0.0187 0.0112 0.0037 0.0112 ] 0 SD
0.0037 SLW
n
0.1499 0.8493 m
0.1500 0.8493 l
0.1571 0.8492 l
0.1643 0.8491 l
0.1714 0.8490 l
0.1786 0.8489 l
0.1857 0.8488 l
0.1929 0.8486 l
0.2000 0.8485 l
0.2071 0.8483 l
0.2143 0.8481 l
0.2214 0.8479 l
0.2286 0.8477 l
0.2357 0.8475 l
0.2429 0.8473 l
0.2500 0.8470 l
0.2571 0.8467 l
0.2643 0.8464 l
0.2714 0.8461 l
0.2786 0.8458 l
0.2857 0.8454 l
0.2929 0.8450 l
0.3000 0.8446 l
0.3071 0.8442 l
0.3143 0.8438 l
0.3214 0.8433 l
0.3286 0.8428 l
0.3357 0.8422 l
0.3429 0.8417 l
0.3500 0.8411 l
0.3571 0.8404 l
0.3643 0.8398 l
0.3714 0.8391 l
0.3786 0.8384 l
0.3857 0.8376 l
0.3929 0.8368 l
0.4000 0.8360 l
0.4071 0.8351 l
0.4143 0.8342 l
0.4214 0.8333 l
0.4286 0.8323 l
0.4357 0.8312 l
0.4429 0.8302 l
0.4500 0.8290 l
0.4571 0.8279 l
0.4643 0.8267 l
0.4714 0.8254 l
0.4786 0.8241 l
0.4857 0.8227 l
0.4929 0.8213 l
0.5000 0.8199 l
0.5071 0.8183 l
0.5143 0.8168 l
0.5214 0.8152 l
0.5286 0.8135 l
0.5357 0.8117 l
0.5429 0.8100 l
0.5500 0.8081 l
0.5571 0.8062 l
0.5643 0.8042 l
0.5714 0.8022 l
0.5786 0.8001 l
0.5857 0.7979 l
0.5929 0.7957 l
0.6000 0.7934 l
0.6071 0.7910 l
0.6143 0.7886 l
0.6214 0.7861 l
0.6286 0.7835 l
0.6357 0.7809 l
0.6429 0.7782 l
0.6500 0.7754 l
0.6571 0.7726 l
0.6643 0.7696 l
0.6714 0.7666 l
0.6786 0.7635 l
0.6857 0.7604 l
0.6929 0.7571 l
0.7000 0.7538 l
0.7071 0.7504 l
0.7143 0.7469 l
0.7214 0.7434 l
0.7286 0.7397 l
0.7357 0.7360 l
0.7429 0.7322 l
0.7500 0.7283 l
0.7571 0.7243 l
0.7643 0.7203 l
0.7714 0.7161 l
0.7786 0.7119 l
0.7857 0.7075 l
0.7929 0.7031 l
0.8000 0.6986 l
0.8071 0.6940 l
0.8143 0.6893 l
0.8214 0.6845 l
0.8286 0.6796 l
0.8357 0.6747 l
0.8429 0.6696 l
0.8500 0.6645 l
0.8571 0.6592 l
0.8643 0.6538 l
0.8714 0.6484 l
0.8786 0.6429 l
0.8857 0.6372 l
0.8929 0.6315 l
0.9000 0.6257 l
0.9071 0.6197 l
0.9143 0.6137 l
0.9214 0.6075 l
0.9286 0.6013 l
0.9357 0.5950 l
0.9429 0.5885 l
0.9500 0.5820 l
0.9571 0.5754 l
0.9643 0.5686 l
0.9714 0.5618 l
0.9786 0.5548 l
0.9857 0.5478 l
0.9929 0.5406 l
1.0000 0.5334 l
1.0071 0.5260 l
1.0143 0.5186 l
1.0214 0.5110 l
1.0286 0.5033 l
1.0357 0.4955 l
1.0429 0.4877 l
1.0500 0.4797 l
1.0571 0.4716 l
1.0643 0.4634 l
1.0714 0.4551 l
1.0786 0.4467 l
1.0857 0.4381 l
1.0929 0.4295 l
1.1000 0.4208 l
1.1071 0.4119 l
1.1143 0.4030 l
1.1214 0.3939 l
1.1286 0.3848 l
1.1357 0.3755 l
1.1429 0.3661 l
1.1500 0.3567 l
1.1501 0.3565 l
s
[/DeviceRGB] SCS
Color8 SC
[0.0187 0.0112 0.0037 0.0112 0.0187 0.0112 ] 0 SD
0.0037 SLW
n
0.1499 0.8493 m
0.1500 0.8493 l
0.1571 0.8492 l
0.1643 0.8491 l
0.1714 0.8489 l
0.1786 0.8488 l
0.1857 0.8487 l
0.1929 0.8485 l
0.2000 0.8484 l
0.2071 0.8482 l
0.2143 0.8480 l
0.2214 0.8478 l
0.2286 0.8476 l
0.2357 0.8473 l
0.2429 0.8471 l
0.2500 0.8468 l
0.2571 0.8465 l
0.2643 0.8462 l
0.2714 0.8458 l
0.2786 0.8455 l
0.2857 0.8451 l
0.2929 0.8447 l
0.3000 0.8443 l
0.3071 0.8438 l
0.3143 0.8433 l
0.3214 0.8428 l
0.3286 0.8423 l
0.3357 0.8417 l
0.3429 0.8411 l
0.3500 0.8404 l
0.3571 0.8398 l
0.3643 0.8391 l
0.3714 0.8383 l
0.3786 0.8376 l
0.3857 0.8367 l
0.3929 0.8359 l
0.4000 0.8350 l
0.4071 0.8341 l
0.4143 0.8331 l
0.4214 0.8321 l
0.4286 0.8310 l
0.4357 0.8299 l
0.4429 0.8287 l
0.4500 0.8275 l
0.4571 0.8263 l
0.4643 0.8250 l
0.4714 0.8236 l
0.4786 0.8222 l
0.4857 0.8208 l
0.4929 0.8192 l
0.5000 0.8177 l
0.5071 0.8160 l
0.5143 0.8144 l
0.5214 0.8126 l
0.5286 0.8108 l
0.5357 0.8089 l
0.5429 0.8070 l
0.5500 0.8050 l
0.5571 0.8030 l
0.5643 0.8008 l
0.5714 0.7986 l
0.5786 0.7964 l
0.5857 0.7941 l
0.5929 0.7917 l
0.6000 0.7892 l
0.6071 0.7866 l
0.6143 0.7840 l
0.6214 0.7813 l
0.6286 0.7786 l
0.6357 0.7757 l
0.6429 0.7728 l
0.6500 0.7698 l
0.6571 0.7667 l
0.6643 0.7635 l
0.6714 0.7603 l
0.6786 0.7570 l
0.6857 0.7536 l
0.6929 0.7501 l
0.7000 0.7465 l
0.7071 0.7428 l
0.7143 0.7391 l
0.7214 0.7352 l
0.7286 0.7313 l
0.7357 0.7272 l
0.7429 0.7231 l
0.7500 0.7189 l
0.7571 0.7146 l
0.7643 0.7102 l
0.7714 0.7057 l
0.7786 0.7011 l
0.7857 0.6964 l
0.7929 0.6917 l
0.8000 0.6868 l
0.8071 0.6818 l
0.8143 0.6767 l
0.8214 0.6715 l
0.8286 0.6663 l
0.8357 0.6609 l
0.8429 0.6554 l
0.8500 0.6498 l
0.8571 0.6441 l
0.8643 0.6383 l
0.8714 0.6324 l
0.8786 0.6264 l
0.8857 0.6203 l
0.8929 0.6141 l
0.9000 0.6078 l
0.9071 0.6013 l
0.9143 0.5948 l
0.9214 0.5881 l
0.9286 0.5814 l
0.9357 0.5745 l
0.9429 0.5675 l
0.9500 0.5604 l
0.9571 0.5532 l
0.9643 0.5459 l
0.9714 0.5385 l
0.9786 0.5309 l
0.9857 0.5233 l
0.9929 0.5155 l
1.0000 0.5076 l
1.0071 0.4996 l
1.0143 0.4915 l
1.0214 0.4833 l
1.0286 0.4749 l
1.0357 0.4665 l
1.0429 0.4579 l
1.0500 0.4492 l
1.0571 0.4404 l
1.0643 0.4315 l
1.0714 0.4225 l
1.0786 0.4133 l
1.0857 0.4040 l
1.0929 0.3947 l
1.1000 0.3852 l
1.1071 0.3755 l
1.1143 0.3658 l
1.1214 0.3559 l
1.1286 0.3460 l
1.1357 0.3359 l
1.1429 0.3257 l
1.1500 0.3154 l
1.1501 0.3152 l
s
[/DeviceRGB] SCS
Color1 SC
[] 0 SD
0.0045 SLW
n
0.1500 0.1500 m
1.1500 0.1500 l
s
n
0.1500 0.8500 m
1.1500 0.8500 l
s
n
0.2214 0.1500 m
0.2214 0.1600 l
s
n
0.2214 0.8500 m
0.2214 0.8400 l
s
n
0.3643 0.1500 m
0.3643 0.1600 l
s
n
0.3643 0.8500 m
0.3643 0.8400 l
s
n
0.5071 0.1500 m
0.5071 0.1600 l
s
n
0.5071 0.8500 m
0.5071 0.8400 l
s
n
0.6500 0.1500 m
0.6500 0.1600 l
s
n
0.6500 0.8500 m
0.6500 0.8400 l
s
n
0.7929 0.1500 m
0.7929 0.1600 l
s
n
0.7929 0.8500 m
0.7929 0.8400 l
s
n
0.9357 0.1500 m
0.9357 0.1600 l
s
n
0.9357 0.8500 m
0.9357 0.8400 l
s
n
1.0786 0.1500 m
1.0786 0.1600 l
s
n
1.0786 0.8500 m
1.0786 0.8400 l
s
n
0.1500 0.1500 m
0.1500 0.1700 l
s
n
0.1500 0.8500 m
0.1500 0.8300 l
s
n
0.2929 0.1500 m
0.2929 0.1700 l
s
n
0.2929 0.8500 m
0.2929 0.8300 l
s
n
0.4357 0.1500 m
0.4357 0.1700 l
s
n
0.4357 0.8500 m
0.4357 0.8300 l
s
n
0.5786 0.1500 m
0.5786 0.1700 l
s
n
0.5786 0.8500 m
0.5786 0.8300 l
s
n
0.7214 0.1500 m
0.7214 0.1700 l
s
n
0.7214 0.8500 m
0.7214 0.8300 l
s
n
0.8643 0.1500 m
0.8643 0.1700 l
s
n
0.8643 0.8500 m
0.8643 0.8300 l
s
n
1.0071 0.1500 m
1.0071 0.1700 l
s
n
1.0071 0.8500 m
1.0071 0.8300 l
s
n
0.1500 0.1500 m
0.1500 0.8500 l
s
n
1.1500 0.1500 m
1.1500 0.8500 l
s
n
0.1500 0.1938 m
0.1600 0.1938 l
s
n
1.1500 0.1938 m
1.1400 0.1938 l
s
n
0.1500 0.2812 m
0.1600 0.2812 l
s
n
1.1500 0.2812 m
1.1400 0.2812 l
s
n
0.1500 0.3688 m
0.1600 0.3688 l
s
n
1.1500 0.3688 m
1.1400 0.3688 l
s
n
0.1500 0.4562 m
0.1600 0.4562 l
s
n
1.1500 0.4562 m
1.1400 0.4562 l
s
n
0.1500 0.5437 m
0.1600 0.5437 l
s
n
1.1500 0.5437 m
1.1400 0.5437 l
s
n
0.1500 0.6312 m
0.1600 0.6312 l
s
n
1.1500 0.6312 m
1.1400 0.6312 l
s
n
0.1500 0.7188 m
0.1600 0.7188 l
s
n
1.1500 0.7188 m
1.1400 0.7188 l
s
n
0.1500 0.8062 m
0.1600 0.8062 l
s
n
1.1500 0.8062 m
1.1400 0.8062 l
s
n
0.1500 0.1500 m
0.1700 0.1500 l
s
n
1.1500 0.1500 m
1.1300 0.1500 l
s
n
0.1500 0.2375 m
0.1700 0.2375 l
s
n
1.1500 0.2375 m
1.1300 0.2375 l
s
n
0.1500 0.3250 m
0.1700 0.3250 l
s
n
1.1500 0.3250 m
1.1300 0.3250 l
s
n
0.1500 0.4125 m
0.1700 0.4125 l
s
n
1.1500 0.4125 m
1.1300 0.4125 l
s
n
0.1500 0.5000 m
0.1700 0.5000 l
s
n
1.1500 0.5000 m
1.1300 0.5000 l
s
n
0.1500 0.5875 m
0.1700 0.5875 l
s
n
1.1500 0.5875 m
1.1300 0.5875 l
s
n
0.1500 0.6750 m
0.1700 0.6750 l
s
n
1.1500 0.6750 m
1.1300 0.6750 l
s
n
0.1500 0.7625 m
0.1700 0.7625 l
s
n
1.1500 0.7625 m
1.1300 0.7625 l
s
n
0.1500 0.8500 m
0.1700 0.8500 l
s
n
1.1500 0.8500 m
1.1300 0.8500 l
s
/Times-Roman findfont
dup length dict begin
 {1 index /FID ne {def} {pop pop} ifelse} forall
 /Encoding DefEncoding def
 currentdict
end
/Font0 exch definefont pop
/Font0 FFSF
1.1600 0.1351 m
GS
[0.0448 0.0000 0.0000 0.0448 0 0] CC
(-8) show
GR
/Font0 FFSF
1.1600 0.2228 m
GS
[0.0448 0.0000 0.0000 0.0448 0 0] CC
(-7) show
GR
/Font0 FFSF
1.1600 0.3101 m
GS
[0.0448 0.0000 0.0000 0.0448 0 0] CC
(-6) show
GR
/Font0 FFSF
1.1600 0.3974 m
GS
[0.0448 0.0000 0.0000 0.0448 0 0] CC
(-5) show
GR
/Font0 FFSF
1.1600 0.4847 m
GS
[0.0448 0.0000 0.0000 0.0448 0 0] CC
(-4) show
GR
/Font0 FFSF
1.1600 0.5726 m
GS
[0.0448 0.0000 0.0000 0.0448 0 0] CC
(-3) show
GR
/Font0 FFSF
1.1600 0.6597 m
GS
[0.0448 0.0000 0.0000 0.0448 0 0] CC
(-2) show
GR
/Font0 FFSF
1.1600 0.7472 m
GS
[0.0448 0.0000 0.0000 0.0448 0 0] CC
(-1) show
GR
/Font0 FFSF
1.1600 0.8351 m
GS
[0.0448 0.0000 0.0000 0.0448 0 0] CC
(0) show
GR
/Font0 FFSF
1.2577 0.4335 m
GS
[0.0000 0.0504 -0.0504 0.0000 0 0] CC
([MeV]) show
GR
[] 0 SD
0.0015 SLW
n
0.1500 0.1500 m
0.1500 0.8500 l
1.1500 0.8500 l
1.1500 0.1500 l
0.1500 0.1500 l
c
s
/Font0 FFSF
0.2000 0.3009 m
GS
[0.0600 0.0000 0.0000 0.0600 0 0] CC
(3) show
GR
/Font0 FFSF
0.2298 0.2500 m
GS
[0.0848 0.0000 0.0000 0.0848 0 0] CC
(P) show
GR
/Font0 FFSF
0.2769 0.2161 m
GS
[0.0600 0.0000 0.0000 0.0600 0 0] CC
(0) show
GR
showpage
%%PageTrailer
%%Trailer
%%DocumentNeededResources: font Times-Roman
%%EOF
