%!PS-Adobe-2.0 EPSF-2.0
%%Title: cutoff_mf.eps
%%Creator: gnuplot 5.0 patchlevel 3
%%CreationDate: Wed Jun 28 13:29:56 2017
%%DocumentFonts: (atend)
%%BoundingBox: 50 50 410 302
%%EndComments
%%BeginProlog
/gnudict 256 dict def
gnudict begin
%
% The following true/false flags may be edited by hand if desired.
% The unit line width and grayscale image gamma correction may also be changed.
%
/Color true def
/Blacktext false def
/Solid false def
/Dashlength 1 def
/Landscape false def
/Level1 false def
/Level3 false def
/Rounded false def
/ClipToBoundingBox false def
/SuppressPDFMark false def
/TransparentPatterns false def
/gnulinewidth 5.000 def
/userlinewidth gnulinewidth def
/Gamma 1.0 def
/BackgroundColor {-1.000 -1.000 -1.000} def
%
/vshift -66 def
/dl1 {
  10.0 Dashlength userlinewidth gnulinewidth div mul mul mul
  Rounded { currentlinewidth 0.75 mul sub dup 0 le { pop 0.01 } if } if
} def
/dl2 {
  10.0 Dashlength userlinewidth gnulinewidth div mul mul mul
  Rounded { currentlinewidth 0.75 mul add } if
} def
/hpt_ 31.5 def
/vpt_ 31.5 def
/hpt hpt_ def
/vpt vpt_ def
/doclip {
  ClipToBoundingBox {
    newpath 50 50 moveto 410 50 lineto 410 302 lineto 50 302 lineto closepath
    clip
  } if
} def
%
% Gnuplot Prolog Version 5.1 (Oct 2015)
%
%/SuppressPDFMark true def
%
/M {moveto} bind def
/L {lineto} bind def
/R {rmoveto} bind def
/V {rlineto} bind def
/N {newpath moveto} bind def
/Z {closepath} bind def
/C {setrgbcolor} bind def
/f {rlineto fill} bind def
/g {setgray} bind def
/Gshow {show} def   % May be redefined later in the file to support UTF-8
/vpt2 vpt 2 mul def
/hpt2 hpt 2 mul def
/Lshow {currentpoint stroke M 0 vshift R 
	Blacktext {gsave 0 setgray textshow grestore} {textshow} ifelse} def
/Rshow {currentpoint stroke M dup stringwidth pop neg vshift R
	Blacktext {gsave 0 setgray textshow grestore} {textshow} ifelse} def
/Cshow {currentpoint stroke M dup stringwidth pop -2 div vshift R 
	Blacktext {gsave 0 setgray textshow grestore} {textshow} ifelse} def
/UP {dup vpt_ mul /vpt exch def hpt_ mul /hpt exch def
  /hpt2 hpt 2 mul def /vpt2 vpt 2 mul def} def
/DL {Color {setrgbcolor Solid {pop []} if 0 setdash}
 {pop pop pop 0 setgray Solid {pop []} if 0 setdash} ifelse} def
/BL {stroke userlinewidth 2 mul setlinewidth
	Rounded {1 setlinejoin 1 setlinecap} if} def
/AL {stroke userlinewidth 2 div setlinewidth
	Rounded {1 setlinejoin 1 setlinecap} if} def
/UL {dup gnulinewidth mul /userlinewidth exch def
	dup 1 lt {pop 1} if 10 mul /udl exch def} def
/PL {stroke userlinewidth setlinewidth
	Rounded {1 setlinejoin 1 setlinecap} if} def
3.8 setmiterlimit
% Classic Line colors (version 5.0)
/LCw {1 1 1} def
/LCb {0 0 0} def
/LCa {0 0 0} def
/LC0 {1 0 0} def
/LC1 {0 1 0} def
/LC2 {0 0 1} def
/LC3 {1 0 1} def
/LC4 {0 1 1} def
/LC5 {1 1 0} def
/LC6 {0 0 0} def
/LC7 {1 0.3 0} def
/LC8 {0.5 0.5 0.5} def
% Default dash patterns (version 5.0)
/LTB {BL [] LCb DL} def
/LTw {PL [] 1 setgray} def
/LTb {PL [] LCb DL} def
/LTa {AL [1 udl mul 2 udl mul] 0 setdash LCa setrgbcolor} def
/LT0 {PL [] LC0 DL} def
/LT1 {PL [2 dl1 3 dl2] LC1 DL} def
/LT2 {PL [1 dl1 1.5 dl2] LC2 DL} def
/LT3 {PL [6 dl1 2 dl2 1 dl1 2 dl2] LC3 DL} def
/LT4 {PL [1 dl1 2 dl2 6 dl1 2 dl2 1 dl1 2 dl2] LC4 DL} def
/LT5 {PL [4 dl1 2 dl2] LC5 DL} def
/LT6 {PL [1.5 dl1 1.5 dl2 1.5 dl1 1.5 dl2 1.5 dl1 6 dl2] LC6 DL} def
/LT7 {PL [3 dl1 3 dl2 1 dl1 3 dl2] LC7 DL} def
/LT8 {PL [2 dl1 2 dl2 2 dl1 6 dl2] LC8 DL} def
/SL {[] 0 setdash} def
/Pnt {stroke [] 0 setdash gsave 1 setlinecap M 0 0 V stroke grestore} def
/Dia {stroke [] 0 setdash 2 copy vpt add M
  hpt neg vpt neg V hpt vpt neg V
  hpt vpt V hpt neg vpt V closepath stroke
  Pnt} def
/Pls {stroke [] 0 setdash vpt sub M 0 vpt2 V
  currentpoint stroke M
  hpt neg vpt neg R hpt2 0 V stroke
 } def
/Box {stroke [] 0 setdash 2 copy exch hpt sub exch vpt add M
  0 vpt2 neg V hpt2 0 V 0 vpt2 V
  hpt2 neg 0 V closepath stroke
  Pnt} def
/Crs {stroke [] 0 setdash exch hpt sub exch vpt add M
  hpt2 vpt2 neg V currentpoint stroke M
  hpt2 neg 0 R hpt2 vpt2 V stroke} def
/TriU {stroke [] 0 setdash 2 copy vpt 1.12 mul add M
  hpt neg vpt -1.62 mul V
  hpt 2 mul 0 V
  hpt neg vpt 1.62 mul V closepath stroke
  Pnt} def
/Star {2 copy Pls Crs} def
/BoxF {stroke [] 0 setdash exch hpt sub exch vpt add M
  0 vpt2 neg V hpt2 0 V 0 vpt2 V
  hpt2 neg 0 V closepath fill} def
/TriUF {stroke [] 0 setdash vpt 1.12 mul add M
  hpt neg vpt -1.62 mul V
  hpt 2 mul 0 V
  hpt neg vpt 1.62 mul V closepath fill} def
/TriD {stroke [] 0 setdash 2 copy vpt 1.12 mul sub M
  hpt neg vpt 1.62 mul V
  hpt 2 mul 0 V
  hpt neg vpt -1.62 mul V closepath stroke
  Pnt} def
/TriDF {stroke [] 0 setdash vpt 1.12 mul sub M
  hpt neg vpt 1.62 mul V
  hpt 2 mul 0 V
  hpt neg vpt -1.62 mul V closepath fill} def
/DiaF {stroke [] 0 setdash vpt add M
  hpt neg vpt neg V hpt vpt neg V
  hpt vpt V hpt neg vpt V closepath fill} def
/Pent {stroke [] 0 setdash 2 copy gsave
  translate 0 hpt M 4 {72 rotate 0 hpt L} repeat
  closepath stroke grestore Pnt} def
/PentF {stroke [] 0 setdash gsave
  translate 0 hpt M 4 {72 rotate 0 hpt L} repeat
  closepath fill grestore} def
/Circle {stroke [] 0 setdash 2 copy
  hpt 0 360 arc stroke Pnt} def
/CircleF {stroke [] 0 setdash hpt 0 360 arc fill} def
/C0 {BL [] 0 setdash 2 copy moveto vpt 90 450 arc} bind def
/C1 {BL [] 0 setdash 2 copy moveto
	2 copy vpt 0 90 arc closepath fill
	vpt 0 360 arc closepath} bind def
/C2 {BL [] 0 setdash 2 copy moveto
	2 copy vpt 90 180 arc closepath fill
	vpt 0 360 arc closepath} bind def
/C3 {BL [] 0 setdash 2 copy moveto
	2 copy vpt 0 180 arc closepath fill
	vpt 0 360 arc closepath} bind def
/C4 {BL [] 0 setdash 2 copy moveto
	2 copy vpt 180 270 arc closepath fill
	vpt 0 360 arc closepath} bind def
/C5 {BL [] 0 setdash 2 copy moveto
	2 copy vpt 0 90 arc
	2 copy moveto
	2 copy vpt 180 270 arc closepath fill
	vpt 0 360 arc} bind def
/C6 {BL [] 0 setdash 2 copy moveto
	2 copy vpt 90 270 arc closepath fill
	vpt 0 360 arc closepath} bind def
/C7 {BL [] 0 setdash 2 copy moveto
	2 copy vpt 0 270 arc closepath fill
	vpt 0 360 arc closepath} bind def
/C8 {BL [] 0 setdash 2 copy moveto
	2 copy vpt 270 360 arc closepath fill
	vpt 0 360 arc closepath} bind def
/C9 {BL [] 0 setdash 2 copy moveto
	2 copy vpt 270 450 arc closepath fill
	vpt 0 360 arc closepath} bind def
/C10 {BL [] 0 setdash 2 copy 2 copy moveto vpt 270 360 arc closepath fill
	2 copy moveto
	2 copy vpt 90 180 arc closepath fill
	vpt 0 360 arc closepath} bind def
/C11 {BL [] 0 setdash 2 copy moveto
	2 copy vpt 0 180 arc closepath fill
	2 copy moveto
	2 copy vpt 270 360 arc closepath fill
	vpt 0 360 arc closepath} bind def
/C12 {BL [] 0 setdash 2 copy moveto
	2 copy vpt 180 360 arc closepath fill
	vpt 0 360 arc closepath} bind def
/C13 {BL [] 0 setdash 2 copy moveto
	2 copy vpt 0 90 arc closepath fill
	2 copy moveto
	2 copy vpt 180 360 arc closepath fill
	vpt 0 360 arc closepath} bind def
/C14 {BL [] 0 setdash 2 copy moveto
	2 copy vpt 90 360 arc closepath fill
	vpt 0 360 arc} bind def
/C15 {BL [] 0 setdash 2 copy vpt 0 360 arc closepath fill
	vpt 0 360 arc closepath} bind def
/Rec {newpath 4 2 roll moveto 1 index 0 rlineto 0 exch rlineto
	neg 0 rlineto closepath} bind def
/Square {dup Rec} bind def
/Bsquare {vpt sub exch vpt sub exch vpt2 Square} bind def
/S0 {BL [] 0 setdash 2 copy moveto 0 vpt rlineto BL Bsquare} bind def
/S1 {BL [] 0 setdash 2 copy vpt Square fill Bsquare} bind def
/S2 {BL [] 0 setdash 2 copy exch vpt sub exch vpt Square fill Bsquare} bind def
/S3 {BL [] 0 setdash 2 copy exch vpt sub exch vpt2 vpt Rec fill Bsquare} bind def
/S4 {BL [] 0 setdash 2 copy exch vpt sub exch vpt sub vpt Square fill Bsquare} bind def
/S5 {BL [] 0 setdash 2 copy 2 copy vpt Square fill
	exch vpt sub exch vpt sub vpt Square fill Bsquare} bind def
/S6 {BL [] 0 setdash 2 copy exch vpt sub exch vpt sub vpt vpt2 Rec fill Bsquare} bind def
/S7 {BL [] 0 setdash 2 copy exch vpt sub exch vpt sub vpt vpt2 Rec fill
	2 copy vpt Square fill Bsquare} bind def
/S8 {BL [] 0 setdash 2 copy vpt sub vpt Square fill Bsquare} bind def
/S9 {BL [] 0 setdash 2 copy vpt sub vpt vpt2 Rec fill Bsquare} bind def
/S10 {BL [] 0 setdash 2 copy vpt sub vpt Square fill 2 copy exch vpt sub exch vpt Square fill
	Bsquare} bind def
/S11 {BL [] 0 setdash 2 copy vpt sub vpt Square fill 2 copy exch vpt sub exch vpt2 vpt Rec fill
	Bsquare} bind def
/S12 {BL [] 0 setdash 2 copy exch vpt sub exch vpt sub vpt2 vpt Rec fill Bsquare} bind def
/S13 {BL [] 0 setdash 2 copy exch vpt sub exch vpt sub vpt2 vpt Rec fill
	2 copy vpt Square fill Bsquare} bind def
/S14 {BL [] 0 setdash 2 copy exch vpt sub exch vpt sub vpt2 vpt Rec fill
	2 copy exch vpt sub exch vpt Square fill Bsquare} bind def
/S15 {BL [] 0 setdash 2 copy Bsquare fill Bsquare} bind def
/D0 {gsave translate 45 rotate 0 0 S0 stroke grestore} bind def
/D1 {gsave translate 45 rotate 0 0 S1 stroke grestore} bind def
/D2 {gsave translate 45 rotate 0 0 S2 stroke grestore} bind def
/D3 {gsave translate 45 rotate 0 0 S3 stroke grestore} bind def
/D4 {gsave translate 45 rotate 0 0 S4 stroke grestore} bind def
/D5 {gsave translate 45 rotate 0 0 S5 stroke grestore} bind def
/D6 {gsave translate 45 rotate 0 0 S6 stroke grestore} bind def
/D7 {gsave translate 45 rotate 0 0 S7 stroke grestore} bind def
/D8 {gsave translate 45 rotate 0 0 S8 stroke grestore} bind def
/D9 {gsave translate 45 rotate 0 0 S9 stroke grestore} bind def
/D10 {gsave translate 45 rotate 0 0 S10 stroke grestore} bind def
/D11 {gsave translate 45 rotate 0 0 S11 stroke grestore} bind def
/D12 {gsave translate 45 rotate 0 0 S12 stroke grestore} bind def
/D13 {gsave translate 45 rotate 0 0 S13 stroke grestore} bind def
/D14 {gsave translate 45 rotate 0 0 S14 stroke grestore} bind def
/D15 {gsave translate 45 rotate 0 0 S15 stroke grestore} bind def
/DiaE {stroke [] 0 setdash vpt add M
  hpt neg vpt neg V hpt vpt neg V
  hpt vpt V hpt neg vpt V closepath stroke} def
/BoxE {stroke [] 0 setdash exch hpt sub exch vpt add M
  0 vpt2 neg V hpt2 0 V 0 vpt2 V
  hpt2 neg 0 V closepath stroke} def
/TriUE {stroke [] 0 setdash vpt 1.12 mul add M
  hpt neg vpt -1.62 mul V
  hpt 2 mul 0 V
  hpt neg vpt 1.62 mul V closepath stroke} def
/TriDE {stroke [] 0 setdash vpt 1.12 mul sub M
  hpt neg vpt 1.62 mul V
  hpt 2 mul 0 V
  hpt neg vpt -1.62 mul V closepath stroke} def
/PentE {stroke [] 0 setdash gsave
  translate 0 hpt M 4 {72 rotate 0 hpt L} repeat
  closepath stroke grestore} def
/CircE {stroke [] 0 setdash 
  hpt 0 360 arc stroke} def
/Opaque {gsave closepath 1 setgray fill grestore 0 setgray closepath} def
/DiaW {stroke [] 0 setdash vpt add M
  hpt neg vpt neg V hpt vpt neg V
  hpt vpt V hpt neg vpt V Opaque stroke} def
/BoxW {stroke [] 0 setdash exch hpt sub exch vpt add M
  0 vpt2 neg V hpt2 0 V 0 vpt2 V
  hpt2 neg 0 V Opaque stroke} def
/TriUW {stroke [] 0 setdash vpt 1.12 mul add M
  hpt neg vpt -1.62 mul V
  hpt 2 mul 0 V
  hpt neg vpt 1.62 mul V Opaque stroke} def
/TriDW {stroke [] 0 setdash vpt 1.12 mul sub M
  hpt neg vpt 1.62 mul V
  hpt 2 mul 0 V
  hpt neg vpt -1.62 mul V Opaque stroke} def
/PentW {stroke [] 0 setdash gsave
  translate 0 hpt M 4 {72 rotate 0 hpt L} repeat
  Opaque stroke grestore} def
/CircW {stroke [] 0 setdash 
  hpt 0 360 arc Opaque stroke} def
/BoxFill {gsave Rec 1 setgray fill grestore} def
/Density {
  /Fillden exch def
  currentrgbcolor
  /ColB exch def /ColG exch def /ColR exch def
  /ColR ColR Fillden mul Fillden sub 1 add def
  /ColG ColG Fillden mul Fillden sub 1 add def
  /ColB ColB Fillden mul Fillden sub 1 add def
  ColR ColG ColB setrgbcolor} def
/BoxColFill {gsave Rec PolyFill} def
/PolyFill {gsave Density fill grestore grestore} def
/h {rlineto rlineto rlineto gsave closepath fill grestore} bind def
%
% PostScript Level 1 Pattern Fill routine for rectangles
% Usage: x y w h s a XX PatternFill
%	x,y = lower left corner of box to be filled
%	w,h = width and height of box
%	  a = angle in degrees between lines and x-axis
%	 XX = 0/1 for no/yes cross-hatch
%
/PatternFill {gsave /PFa [ 9 2 roll ] def
  PFa 0 get PFa 2 get 2 div add PFa 1 get PFa 3 get 2 div add translate
  PFa 2 get -2 div PFa 3 get -2 div PFa 2 get PFa 3 get Rec
  TransparentPatterns {} {gsave 1 setgray fill grestore} ifelse
  clip
  currentlinewidth 0.5 mul setlinewidth
  /PFs PFa 2 get dup mul PFa 3 get dup mul add sqrt def
  0 0 M PFa 5 get rotate PFs -2 div dup translate
  0 1 PFs PFa 4 get div 1 add floor cvi
	{PFa 4 get mul 0 M 0 PFs V} for
  0 PFa 6 get ne {
	0 1 PFs PFa 4 get div 1 add floor cvi
	{PFa 4 get mul 0 2 1 roll M PFs 0 V} for
 } if
  stroke grestore} def
%
/languagelevel where
 {pop languagelevel} {1} ifelse
dup 2 lt
	{/InterpretLevel1 true def
	 /InterpretLevel3 false def}
	{/InterpretLevel1 Level1 def
	 2 gt
	    {/InterpretLevel3 Level3 def}
	    {/InterpretLevel3 false def}
	 ifelse }
 ifelse
%
% PostScript level 2 pattern fill definitions
%
/Level2PatternFill {
/Tile8x8 {/PaintType 2 /PatternType 1 /TilingType 1 /BBox [0 0 8 8] /XStep 8 /YStep 8}
	bind def
/KeepColor {currentrgbcolor [/Pattern /DeviceRGB] setcolorspace} bind def
<< Tile8x8
 /PaintProc {0.5 setlinewidth pop 0 0 M 8 8 L 0 8 M 8 0 L stroke} 
>> matrix makepattern
/Pat1 exch def
<< Tile8x8
 /PaintProc {0.5 setlinewidth pop 0 0 M 8 8 L 0 8 M 8 0 L stroke
	0 4 M 4 8 L 8 4 L 4 0 L 0 4 L stroke}
>> matrix makepattern
/Pat2 exch def
<< Tile8x8
 /PaintProc {0.5 setlinewidth pop 0 0 M 0 8 L
	8 8 L 8 0 L 0 0 L fill}
>> matrix makepattern
/Pat3 exch def
<< Tile8x8
 /PaintProc {0.5 setlinewidth pop -4 8 M 8 -4 L
	0 12 M 12 0 L stroke}
>> matrix makepattern
/Pat4 exch def
<< Tile8x8
 /PaintProc {0.5 setlinewidth pop -4 0 M 8 12 L
	0 -4 M 12 8 L stroke}
>> matrix makepattern
/Pat5 exch def
<< Tile8x8
 /PaintProc {0.5 setlinewidth pop -2 8 M 4 -4 L
	0 12 M 8 -4 L 4 12 M 10 0 L stroke}
>> matrix makepattern
/Pat6 exch def
<< Tile8x8
 /PaintProc {0.5 setlinewidth pop -2 0 M 4 12 L
	0 -4 M 8 12 L 4 -4 M 10 8 L stroke}
>> matrix makepattern
/Pat7 exch def
<< Tile8x8
 /PaintProc {0.5 setlinewidth pop 8 -2 M -4 4 L
	12 0 M -4 8 L 12 4 M 0 10 L stroke}
>> matrix makepattern
/Pat8 exch def
<< Tile8x8
 /PaintProc {0.5 setlinewidth pop 0 -2 M 12 4 L
	-4 0 M 12 8 L -4 4 M 8 10 L stroke}
>> matrix makepattern
/Pat9 exch def
/Pattern1 {PatternBgnd KeepColor Pat1 setpattern} bind def
/Pattern2 {PatternBgnd KeepColor Pat2 setpattern} bind def
/Pattern3 {PatternBgnd KeepColor Pat3 setpattern} bind def
/Pattern4 {PatternBgnd KeepColor Landscape {Pat5} {Pat4} ifelse setpattern} bind def
/Pattern5 {PatternBgnd KeepColor Landscape {Pat4} {Pat5} ifelse setpattern} bind def
/Pattern6 {PatternBgnd KeepColor Landscape {Pat9} {Pat6} ifelse setpattern} bind def
/Pattern7 {PatternBgnd KeepColor Landscape {Pat8} {Pat7} ifelse setpattern} bind def
} def
%
%
%End of PostScript Level 2 code
%
/PatternBgnd {
  TransparentPatterns {} {gsave 1 setgray fill grestore} ifelse
} def
%
% Substitute for Level 2 pattern fill codes with
% grayscale if Level 2 support is not selected.
%
/Level1PatternFill {
/Pattern1 {0.250 Density} bind def
/Pattern2 {0.500 Density} bind def
/Pattern3 {0.750 Density} bind def
/Pattern4 {0.125 Density} bind def
/Pattern5 {0.375 Density} bind def
/Pattern6 {0.625 Density} bind def
/Pattern7 {0.875 Density} bind def
} def
%
% Now test for support of Level 2 code
%
Level1 {Level1PatternFill} {Level2PatternFill} ifelse
%
/Symbol-Oblique /Symbol findfont [1 0 .167 1 0 0] makefont
dup length dict begin {1 index /FID eq {pop pop} {def} ifelse} forall
currentdict end definefont pop
%
/MFshow {
   { dup 5 get 3 ge
     { 5 get 3 eq {gsave} {grestore} ifelse }
     {dup dup 0 get findfont exch 1 get scalefont setfont
     [ currentpoint ] exch dup 2 get 0 exch R dup 5 get 2 ne {dup dup 6
     get exch 4 get {textshow} {stringwidth pop 0 R} ifelse }if dup 5 get 0 eq
     {dup 3 get {2 get neg 0 exch R pop} {pop aload pop M} ifelse} {dup 5
     get 1 eq {dup 2 get exch dup 3 get exch 6 get stringwidth pop -2 div
     dup 0 R} {dup 6 get stringwidth pop -2 div 0 R 6 get
     textshow 2 index {aload pop M neg 3 -1 roll neg R pop pop} {pop pop pop
     pop aload pop M} ifelse }ifelse }ifelse }
     ifelse }
   forall} def
/Gswidth {dup type /stringtype eq {stringwidth} {pop (n) stringwidth} ifelse} def
/MFwidth {0 exch { dup 5 get 3 ge { 5 get 3 eq { 0 } { pop } ifelse }
 {dup 3 get{dup dup 0 get findfont exch 1 get scalefont setfont
     6 get Gswidth pop add} {pop} ifelse} ifelse} forall} def
/MLshow { currentpoint stroke M
  0 exch R
  Blacktext {gsave 0 setgray MFshow grestore} {MFshow} ifelse } bind def
/MRshow { currentpoint stroke M
  exch dup MFwidth neg 3 -1 roll R
  Blacktext {gsave 0 setgray MFshow grestore} {MFshow} ifelse } bind def
/MCshow { currentpoint stroke M
  exch dup MFwidth -2 div 3 -1 roll R
  Blacktext {gsave 0 setgray MFshow grestore} {MFshow} ifelse } bind def
/XYsave    { [( ) 1 2 true false 3 ()] } bind def
/XYrestore { [( ) 1 2 true false 4 ()] } bind def
Level1 SuppressPDFMark or 
{} {
/SDict 10 dict def
systemdict /pdfmark known not {
  userdict /pdfmark systemdict /cleartomark get put
} if
SDict begin [
  /Title (cutoff_mf.eps)
  /Subject (gnuplot plot)
  /Creator (gnuplot 5.0 patchlevel 3)
  /Author (kb2)
%  /Producer (gnuplot)
%  /Keywords ()
  /CreationDate (Wed Jun 28 13:29:56 2017)
  /DOCINFO pdfmark
end
} ifelse
%
% Support for boxed text - Ethan A Merritt May 2005
%
/InitTextBox { userdict /TBy2 3 -1 roll put userdict /TBx2 3 -1 roll put
           userdict /TBy1 3 -1 roll put userdict /TBx1 3 -1 roll put
	   /Boxing true def } def
/ExtendTextBox { Boxing
    { gsave dup false charpath pathbbox
      dup TBy2 gt {userdict /TBy2 3 -1 roll put} {pop} ifelse
      dup TBx2 gt {userdict /TBx2 3 -1 roll put} {pop} ifelse
      dup TBy1 lt {userdict /TBy1 3 -1 roll put} {pop} ifelse
      dup TBx1 lt {userdict /TBx1 3 -1 roll put} {pop} ifelse
      grestore } if } def
/PopTextBox { newpath TBx1 TBxmargin sub TBy1 TBymargin sub M
               TBx1 TBxmargin sub TBy2 TBymargin add L
	       TBx2 TBxmargin add TBy2 TBymargin add L
	       TBx2 TBxmargin add TBy1 TBymargin sub L closepath } def
/DrawTextBox { PopTextBox stroke /Boxing false def} def
/FillTextBox { gsave PopTextBox 1 1 1 setrgbcolor fill grestore /Boxing false def} def
0 0 0 0 InitTextBox
/TBxmargin 20 def
/TBymargin 20 def
/Boxing false def
/textshow { ExtendTextBox Gshow } def
%
% redundant definitions for compatibility with prologue.ps older than 5.0.2
/LTB {BL [] LCb DL} def
/LTb {PL [] LCb DL} def
end
%%EndProlog
%%Page: 1 1
gnudict begin
gsave
doclip
50 50 translate
0.050 0.050 scale
0 setgray
newpath
(Helvetica) findfont 200 scalefont setfont
BackgroundColor 0 lt 3 1 roll 0 lt exch 0 lt or or not {BackgroundColor C 1.000 0 0 7200.00 5040.00 BoxColFill} if
1.000 UL
LTb
0.50 0.50 0.50 C 2.000 UL
LTa
0.50 0.50 0.50 C 1267 687 M
5572 0 V
stroke
1.000 UL
LTb
0.50 0.50 0.50 C 1267 687 M
-47 0 V
stroke
1100 687 M
[ [(Helvetica) 200.0 0.0 true true 0 (-1x10)]
[(Helvetica) 160.0 100.0 true true 0 (-6)]
] -86.7 MRshow
1.000 UL
LTb
0.50 0.50 0.50 C 2.000 UL
LTa
0.50 0.50 0.50 C 1267 1372 M
5572 0 V
stroke
1.000 UL
LTb
0.50 0.50 0.50 C 1267 1372 M
-47 0 V
stroke
1100 1372 M
[ [(Helvetica) 200.0 0.0 true true 0 (-8x10)]
[(Helvetica) 160.0 100.0 true true 0 (-7)]
] -86.7 MRshow
1.000 UL
LTb
0.50 0.50 0.50 C 2.000 UL
LTa
0.50 0.50 0.50 C 1267 2058 M
5572 0 V
stroke
1.000 UL
LTb
0.50 0.50 0.50 C 1267 2058 M
-47 0 V
stroke
1100 2058 M
[ [(Helvetica) 200.0 0.0 true true 0 (-6x10)]
[(Helvetica) 160.0 100.0 true true 0 (-7)]
] -86.7 MRshow
1.000 UL
LTb
0.50 0.50 0.50 C 2.000 UL
LTa
0.50 0.50 0.50 C 1267 2743 M
5572 0 V
stroke
1.000 UL
LTb
0.50 0.50 0.50 C 1267 2743 M
-47 0 V
stroke
1100 2743 M
[ [(Helvetica) 200.0 0.0 true true 0 (-4x10)]
[(Helvetica) 160.0 100.0 true true 0 (-7)]
] -86.7 MRshow
1.000 UL
LTb
0.50 0.50 0.50 C 2.000 UL
LTa
0.50 0.50 0.50 C 1267 3428 M
5572 0 V
stroke
1.000 UL
LTb
0.50 0.50 0.50 C 1267 3428 M
-47 0 V
stroke
1100 3428 M
[ [(Helvetica) 200.0 0.0 true true 0 (-2x10)]
[(Helvetica) 160.0 100.0 true true 0 (-7)]
] -86.7 MRshow
1.000 UL
LTb
0.50 0.50 0.50 C 2.000 UL
LTa
0.50 0.50 0.50 C 1267 4114 M
5572 0 V
stroke
1.000 UL
LTb
0.50 0.50 0.50 C 1267 4114 M
-47 0 V
stroke
1100 4114 M
[ [(Helvetica) 200.0 0.0 true true 0 ( 0)]
] -66.7 MRshow
1.000 UL
LTb
0.50 0.50 0.50 C 2.000 UL
LTa
0.50 0.50 0.50 C 1267 4799 M
5572 0 V
stroke
1.000 UL
LTb
0.50 0.50 0.50 C 1267 4799 M
-47 0 V
stroke
1100 4799 M
[ [(Helvetica) 200.0 0.0 true true 0 ( 2x10)]
[(Helvetica) 160.0 100.0 true true 0 (-7)]
] -86.7 MRshow
1.000 UL
LTb
0.50 0.50 0.50 C 2.000 UL
LTa
0.50 0.50 0.50 C 1267 687 M
0 4112 V
stroke
1.000 UL
LTb
0.50 0.50 0.50 C 1267 687 M
0 -47 V
stroke
1267 440 M
[ [(Helvetica) 200.0 0.0 true true 0 ( 0)]
] -66.7 MCshow
1.000 UL
LTb
0.50 0.50 0.50 C 2.000 UL
LTa
0.50 0.50 0.50 C 1824 687 M
0 4112 V
stroke
1.000 UL
LTb
0.50 0.50 0.50 C 1824 687 M
0 -47 V
stroke
1824 440 M
[ [(Helvetica) 200.0 0.0 true true 0 ( 100)]
] -66.7 MCshow
1.000 UL
LTb
0.50 0.50 0.50 C 2.000 UL
LTa
0.50 0.50 0.50 C 2381 687 M
0 4112 V
stroke
1.000 UL
LTb
0.50 0.50 0.50 C 2381 687 M
0 -47 V
stroke
2381 440 M
[ [(Helvetica) 200.0 0.0 true true 0 ( 200)]
] -66.7 MCshow
1.000 UL
LTb
0.50 0.50 0.50 C 2.000 UL
LTa
0.50 0.50 0.50 C 2939 687 M
0 4112 V
stroke
1.000 UL
LTb
0.50 0.50 0.50 C 2939 687 M
0 -47 V
stroke
2939 440 M
[ [(Helvetica) 200.0 0.0 true true 0 ( 300)]
] -66.7 MCshow
1.000 UL
LTb
0.50 0.50 0.50 C 2.000 UL
LTa
0.50 0.50 0.50 C 3496 687 M
0 4112 V
stroke
1.000 UL
LTb
0.50 0.50 0.50 C 3496 687 M
0 -47 V
stroke
3496 440 M
[ [(Helvetica) 200.0 0.0 true true 0 ( 400)]
] -66.7 MCshow
1.000 UL
LTb
0.50 0.50 0.50 C 2.000 UL
LTa
0.50 0.50 0.50 C 4053 687 M
0 4112 V
stroke
1.000 UL
LTb
0.50 0.50 0.50 C 4053 687 M
0 -47 V
stroke
4053 440 M
[ [(Helvetica) 200.0 0.0 true true 0 ( 500)]
] -66.7 MCshow
1.000 UL
LTb
0.50 0.50 0.50 C 2.000 UL
LTa
0.50 0.50 0.50 C 4610 687 M
0 4112 V
stroke
1.000 UL
LTb
0.50 0.50 0.50 C 4610 687 M
0 -47 V
stroke
4610 440 M
[ [(Helvetica) 200.0 0.0 true true 0 ( 600)]
] -66.7 MCshow
1.000 UL
LTb
0.50 0.50 0.50 C 2.000 UL
LTa
0.50 0.50 0.50 C 5167 687 M
0 4112 V
stroke
1.000 UL
LTb
0.50 0.50 0.50 C 5167 687 M
0 -47 V
stroke
5167 440 M
[ [(Helvetica) 200.0 0.0 true true 0 ( 700)]
] -66.7 MCshow
1.000 UL
LTb
0.50 0.50 0.50 C 2.000 UL
LTa
0.50 0.50 0.50 C 5725 687 M
0 4112 V
stroke
1.000 UL
LTb
0.50 0.50 0.50 C 5725 687 M
0 -47 V
stroke
5725 440 M
[ [(Helvetica) 200.0 0.0 true true 0 ( 800)]
] -66.7 MCshow
1.000 UL
LTb
0.50 0.50 0.50 C 2.000 UL
LTa
0.50 0.50 0.50 C 6282 687 M
0 4112 V
stroke
1.000 UL
LTb
0.50 0.50 0.50 C 6282 687 M
0 -47 V
stroke
6282 440 M
[ [(Helvetica) 200.0 0.0 true true 0 ( 900)]
] -66.7 MCshow
1.000 UL
LTb
0.50 0.50 0.50 C 2.000 UL
LTa
0.50 0.50 0.50 C 6839 687 M
0 4112 V
stroke
1.000 UL
LTb
0.50 0.50 0.50 C 6839 687 M
0 -47 V
stroke
6839 440 M
[ [(Helvetica) 200.0 0.0 true true 0 ( 1000)]
] -66.7 MCshow
1.000 UL
LTb
0.50 0.50 0.50 C 1.000 UL
LTB
0.50 0.50 0.50 C 1267 4799 M
0 -4112 V
5572 0 V
0 4112 R
-5572 0 R
1.000 UP
stroke
LCb setrgbcolor
3384 -2147483647 M
[ [(Helvetica) 160.0 0.0 true true 0 (E)]
[(Helvetica) 128.0 -48.0 true true 0 (Lenteur)]
[(Helvetica) 160.0 0.0 true true 0 ( \()]
[(Helvetica) 128.0 80.0 true true 0 (12)]
[(Helvetica) 160.0 0.0 true true 0 ( C\) = 90.588 MeV)]
] -53.3 MLshow
LCb setrgbcolor
3384 -2147483647 M
[ [(Helvetica) 160.0 0.0 true true 0 (E)]
[(Helvetica) 128.0 -48.0 true true 0 (Lenteur)]
[(Helvetica) 160.0 0.0 true true 0 ( \()]
[(Helvetica) 128.0 80.0 true true 0 (16)]
[(Helvetica) 160.0 0.0 true true 0 ( O\) = 128.498 MeV)]
] -53.3 MLshow
LCb setrgbcolor
3384 -2147483647 M
[ [(Helvetica) 160.0 0.0 true true 0 (E)]
[(Helvetica) 128.0 -48.0 true true 0 (Lenteur)]
[(Helvetica) 160.0 0.0 true true 0 ( \()]
[(Helvetica) 128.0 80.0 true true 0 (40)]
[(Helvetica) 160.0 0.0 true true 0 ( Ca\) = 344.262 MeV)]
] -53.3 MLshow
LCb setrgbcolor
3384 -2147483647 M
[ [(Helvetica) 160.0 0.0 true true 0 (E)]
[(Helvetica) 128.0 -48.0 true true 0 (Lenteur)]
[(Helvetica) 160.0 0.0 true true 0 ( \()]
[(Helvetica) 128.0 80.0 true true 0 (42)]
[(Helvetica) 160.0 0.0 true true 0 ( Ca\) = 362.539 MeV)]
] -53.3 MLshow
LCb setrgbcolor
3384 -2147483647 M
[ [(Helvetica) 160.0 0.0 true true 0 (E)]
[(Helvetica) 128.0 -48.0 true true 0 (Lenteur)]
[(Helvetica) 160.0 0.0 true true 0 ( \()]
[(Helvetica) 128.0 80.0 true true 0 (48)]
[(Helvetica) 160.0 0.0 true true 0 ( Ca\) = 417.912 MeV)]
] -53.3 MLshow
LCb setrgbcolor
3384 -2147483647 M
[ [(Helvetica) 160.0 0.0 true true 0 (E)]
[(Helvetica) 128.0 -48.0 true true 0 (Lenteur)]
[(Helvetica) 160.0 0.0 true true 0 ( \()]
[(Helvetica) 128.0 80.0 true true 0 (126)]
[(Helvetica) 160.0 0.0 true true 0 ( Pb\) = 1635.694 MeV)]
] -53.3 MLshow
1.000 UL
LTb
0.50 0.50 0.50 C LCb setrgbcolor
160 2743 M
currentpoint gsave translate -270 rotate 0 0 moveto
[ [(Helvetica) 200.0 0.0 true true 0 (Précision de la formule magique)]
] -66.7 MCshow
grestore
LTb
LCb setrgbcolor
4053 140 M
[ [(Helvetica) 200.0 0.0 true true 0 (Coupure sur la base Wood-Saxon [MeV])]
] -66.7 MCshow
LTb
% Begin plot #1
2.000 UP
1.000 UL
LTb
0.58 0.00 0.83 C LCb setrgbcolor
6128 -2147483648 M
[ [(Helvetica) 144.0 90.0 true true 0 (12)]
[(Helvetica) 180.0 0.0 true true 0 ( C)]
] -78.0 MRshow
2.000 UP
1.000 UL
LTb
0.58 0.00 0.83 C 6839 1113 Pls
1824 1581 Pls
1323 1240 Pls
1991 1406 Pls
2159 1246 Pls
2326 1125 Pls
2493 1101 Pls
2660 1089 Pls
2827 1110 Pls
2994 1135 Pls
3161 1132 Pls
3329 1136 Pls
3496 1135 Pls
1490 1741 Pls
3663 1127 Pls
3830 1121 Pls
3997 1116 Pls
4164 1112 Pls
4332 1112 Pls
4499 1110 Pls
4666 1109 Pls
4833 1110 Pls
5000 1111 Pls
5167 1112 Pls
1657 1739 Pls
5335 1113 Pls
5502 1113 Pls
5669 1114 Pls
5836 1114 Pls
6003 1114 Pls
6170 1113 Pls
6338 1113 Pls
6505 1113 Pls
6672 1113 Pls
6483 -2147483648 Pls
% End plot #1
% Begin plot #2
2.000 UP
1.000 UL
LTb
0.00 0.62 0.45 C LCb setrgbcolor
6128 2147483360 M
[ [(Helvetica) 144.0 90.0 true true 0 (16)]
[(Helvetica) 180.0 0.0 true true 0 ( O)]
] -78.0 MRshow
2.000 UP
1.000 UL
LTb
0.00 0.62 0.45 C 6839 4209 Crs
1824 4194 Crs
1323 4533 Crs
1991 4210 Crs
2159 4192 Crs
2326 4190 Crs
2493 4194 Crs
2660 4195 Crs
2827 4204 Crs
2994 4197 Crs
3161 4200 Crs
3329 4202 Crs
3496 4205 Crs
1490 4161 Crs
3663 4206 Crs
3830 4207 Crs
3997 4207 Crs
4164 4207 Crs
4332 4208 Crs
4499 4208 Crs
4666 4208 Crs
4833 4208 Crs
5000 4208 Crs
5167 4208 Crs
1657 4126 Crs
5335 4208 Crs
5502 4209 Crs
5669 4209 Crs
5836 4209 Crs
6003 4209 Crs
6170 4209 Crs
6338 4209 Crs
6505 4209 Crs
6672 4209 Crs
6483 2147483360 Crs
% End plot #2
% Begin plot #3
2.000 UP
1.000 UL
LTb
0.34 0.71 0.91 C LCb setrgbcolor
6128 2147483072 M
[ [(Helvetica) 144.0 90.0 true true 0 (40)]
[(Helvetica) 180.0 0.0 true true 0 ( Ca)]
] -78.0 MRshow
2.000 UP
1.000 UL
LTb
0.34 0.71 0.91 C 6839 4126 Star
1824 4250 Star
1991 4156 Star
2159 4169 Star
2326 4126 Star
2493 4121 Star
2660 4121 Star
2827 4123 Star
2994 4122 Star
3161 4126 Star
3329 4123 Star
3496 4124 Star
1490 4260 Star
3663 4125 Star
3830 4125 Star
3997 4125 Star
4164 4126 Star
4332 4126 Star
4499 4126 Star
4666 4126 Star
4833 4126 Star
5000 4126 Star
5167 4126 Star
1657 4411 Star
5335 4126 Star
5502 4126 Star
5669 4126 Star
5836 4126 Star
6003 4126 Star
6170 4126 Star
6338 4126 Star
6505 4126 Star
6672 4126 Star
6483 2147483072 Star
% End plot #3
% Begin plot #4
2.000 UP
1.000 UL
LTb
0.90 0.62 0.00 C LCb setrgbcolor
6128 2147482784 M
[ [(Helvetica) 144.0 90.0 true true 0 (42)]
[(Helvetica) 180.0 0.0 true true 0 ( Ca)]
] -78.0 MRshow
2.000 UP
1.000 UL
LTb
0.90 0.62 0.00 C 6839 4157 Box
1824 4269 Box
1991 4193 Box
2159 4201 Box
2326 4154 Box
2493 4153 Box
2660 4152 Box
2827 4153 Box
2994 4152 Box
3161 4157 Box
3329 4154 Box
3496 4155 Box
1490 4275 Box
3663 4155 Box
3830 4156 Box
3997 4156 Box
4164 4157 Box
4332 4156 Box
4499 4157 Box
4666 4157 Box
4833 4157 Box
5000 4157 Box
5167 4157 Box
1657 4454 Box
5335 4157 Box
5502 4157 Box
5669 4157 Box
5836 4157 Box
6003 4157 Box
6170 4157 Box
6338 4157 Box
6505 4157 Box
6672 4157 Box
6483 2147482784 Box
% End plot #4
% Begin plot #5
2.000 UP
1.000 UL
LTb
0.94 0.89 0.26 C LCb setrgbcolor
6128 2147482496 M
[ [(Helvetica) 144.0 90.0 true true 0 (48)]
[(Helvetica) 180.0 0.0 true true 0 ( Ca)]
] -78.0 MRshow
2.000 UP
1.000 UL
LTb
0.94 0.89 0.26 C 6839 4242 TriU
1824 4346 TriU
1323 4540 TriU
1991 4294 TriU
2159 4285 TriU
2326 4238 TriU
2493 4231 TriU
2660 4237 TriU
2827 4236 TriU
2994 4229 TriU
3161 4237 TriU
3329 4238 TriU
3496 4232 TriU
1490 4398 TriU
3663 4240 TriU
3830 4240 TriU
3997 4241 TriU
4164 4242 TriU
4332 4242 TriU
4499 4242 TriU
4666 4242 TriU
4833 4242 TriU
5000 4242 TriU
5167 4242 TriU
1657 4530 TriU
5335 4242 TriU
5502 4242 TriU
5669 4235 TriU
5836 4242 TriU
6003 4242 TriU
6170 4242 TriU
6338 4242 TriU
6505 4242 TriU
6672 4242 TriU
6483 2147482496 TriU
% End plot #5
% Begin plot #6
2.000 UP
1.000 UL
LTb
0.00 0.45 0.70 C LCb setrgbcolor
6128 2147482208 M
[ [(Helvetica) 144.0 90.0 true true 0 (126)]
[(Helvetica) 180.0 0.0 true true 0 ( Pb)]
] -78.0 MRshow
2.000 UP
1.000 UL
LTb
0.00 0.45 0.70 C 6839 3838 Circle
1824 3884 Circle
1323 3790 Circle
1991 3858 Circle
2159 3873 Circle
2326 3846 Circle
2493 3841 Circle
2660 3843 Circle
2827 3842 Circle
2994 3839 Circle
3161 3838 Circle
3329 3838 Circle
3496 3838 Circle
1490 4088 Circle
3663 3837 Circle
3830 3838 Circle
3997 3838 Circle
4164 3838 Circle
4332 3838 Circle
4499 3838 Circle
4666 3838 Circle
4833 3838 Circle
5000 3838 Circle
5167 3838 Circle
1657 4036 Circle
5335 3838 Circle
5502 3838 Circle
5669 3838 Circle
5836 3838 Circle
6003 3838 Circle
6170 3838 Circle
6338 3838 Circle
6505 3838 Circle
6672 3838 Circle
6483 2147482208 Circle
% End plot #6
2.000 UL
LTb
LCb setrgbcolor
1.000 UP
1.000 UL
LTb
0.50 0.50 0.50 C stroke
grestore
end
showpage
%%Trailer
%%DocumentFonts: Helvetica
