%!PS-Adobe-2.0 EPSF-2.0
%%Title: endrhocut.eps
%%Creator: gnuplot 5.0 patchlevel 3
%%CreationDate: Thu Jun 22 21:03:27 2017
%%DocumentFonts: (atend)
%%BoundingBox: 50 50 410 302
%%EndComments
%%BeginProlog
/gnudict 256 dict def
gnudict begin
%
% The following true/false flags may be edited by hand if desired.
% The unit line width and grayscale image gamma correction may also be changed.
%
/Color true def
/Blacktext false def
/Solid false def
/Dashlength 1 def
/Landscape false def
/Level1 false def
/Level3 false def
/Rounded false def
/ClipToBoundingBox false def
/SuppressPDFMark false def
/TransparentPatterns false def
/gnulinewidth 5.000 def
/userlinewidth gnulinewidth def
/Gamma 1.0 def
/BackgroundColor {-1.000 -1.000 -1.000} def
%
/vshift -60 def
/dl1 {
  10.0 Dashlength userlinewidth gnulinewidth div mul mul mul
  Rounded { currentlinewidth 0.75 mul sub dup 0 le { pop 0.01 } if } if
} def
/dl2 {
  10.0 Dashlength userlinewidth gnulinewidth div mul mul mul
  Rounded { currentlinewidth 0.75 mul add } if
} def
/hpt_ 31.5 def
/vpt_ 31.5 def
/hpt hpt_ def
/vpt vpt_ def
/doclip {
  ClipToBoundingBox {
    newpath 50 50 moveto 410 50 lineto 410 302 lineto 50 302 lineto closepath
    clip
  } if
} def
%
% Gnuplot Prolog Version 5.1 (Oct 2015)
%
%/SuppressPDFMark true def
%
/M {moveto} bind def
/L {lineto} bind def
/R {rmoveto} bind def
/V {rlineto} bind def
/N {newpath moveto} bind def
/Z {closepath} bind def
/C {setrgbcolor} bind def
/f {rlineto fill} bind def
/g {setgray} bind def
/Gshow {show} def   % May be redefined later in the file to support UTF-8
/vpt2 vpt 2 mul def
/hpt2 hpt 2 mul def
/Lshow {currentpoint stroke M 0 vshift R 
	Blacktext {gsave 0 setgray textshow grestore} {textshow} ifelse} def
/Rshow {currentpoint stroke M dup stringwidth pop neg vshift R
	Blacktext {gsave 0 setgray textshow grestore} {textshow} ifelse} def
/Cshow {currentpoint stroke M dup stringwidth pop -2 div vshift R 
	Blacktext {gsave 0 setgray textshow grestore} {textshow} ifelse} def
/UP {dup vpt_ mul /vpt exch def hpt_ mul /hpt exch def
  /hpt2 hpt 2 mul def /vpt2 vpt 2 mul def} def
/DL {Color {setrgbcolor Solid {pop []} if 0 setdash}
 {pop pop pop 0 setgray Solid {pop []} if 0 setdash} ifelse} def
/BL {stroke userlinewidth 2 mul setlinewidth
	Rounded {1 setlinejoin 1 setlinecap} if} def
/AL {stroke userlinewidth 2 div setlinewidth
	Rounded {1 setlinejoin 1 setlinecap} if} def
/UL {dup gnulinewidth mul /userlinewidth exch def
	dup 1 lt {pop 1} if 10 mul /udl exch def} def
/PL {stroke userlinewidth setlinewidth
	Rounded {1 setlinejoin 1 setlinecap} if} def
3.8 setmiterlimit
% Classic Line colors (version 5.0)
/LCw {1 1 1} def
/LCb {0 0 0} def
/LCa {0 0 0} def
/LC0 {1 0 0} def
/LC1 {0 1 0} def
/LC2 {0 0 1} def
/LC3 {1 0 1} def
/LC4 {0 1 1} def
/LC5 {1 1 0} def
/LC6 {0 0 0} def
/LC7 {1 0.3 0} def
/LC8 {0.5 0.5 0.5} def
% Default dash patterns (version 5.0)
/LTB {BL [] LCb DL} def
/LTw {PL [] 1 setgray} def
/LTb {PL [] LCb DL} def
/LTa {AL [1 udl mul 2 udl mul] 0 setdash LCa setrgbcolor} def
/LT0 {PL [] LC0 DL} def
/LT1 {PL [2 dl1 3 dl2] LC1 DL} def
/LT2 {PL [1 dl1 1.5 dl2] LC2 DL} def
/LT3 {PL [6 dl1 2 dl2 1 dl1 2 dl2] LC3 DL} def
/LT4 {PL [1 dl1 2 dl2 6 dl1 2 dl2 1 dl1 2 dl2] LC4 DL} def
/LT5 {PL [4 dl1 2 dl2] LC5 DL} def
/LT6 {PL [1.5 dl1 1.5 dl2 1.5 dl1 1.5 dl2 1.5 dl1 6 dl2] LC6 DL} def
/LT7 {PL [3 dl1 3 dl2 1 dl1 3 dl2] LC7 DL} def
/LT8 {PL [2 dl1 2 dl2 2 dl1 6 dl2] LC8 DL} def
/SL {[] 0 setdash} def
/Pnt {stroke [] 0 setdash gsave 1 setlinecap M 0 0 V stroke grestore} def
/Dia {stroke [] 0 setdash 2 copy vpt add M
  hpt neg vpt neg V hpt vpt neg V
  hpt vpt V hpt neg vpt V closepath stroke
  Pnt} def
/Pls {stroke [] 0 setdash vpt sub M 0 vpt2 V
  currentpoint stroke M
  hpt neg vpt neg R hpt2 0 V stroke
 } def
/Box {stroke [] 0 setdash 2 copy exch hpt sub exch vpt add M
  0 vpt2 neg V hpt2 0 V 0 vpt2 V
  hpt2 neg 0 V closepath stroke
  Pnt} def
/Crs {stroke [] 0 setdash exch hpt sub exch vpt add M
  hpt2 vpt2 neg V currentpoint stroke M
  hpt2 neg 0 R hpt2 vpt2 V stroke} def
/TriU {stroke [] 0 setdash 2 copy vpt 1.12 mul add M
  hpt neg vpt -1.62 mul V
  hpt 2 mul 0 V
  hpt neg vpt 1.62 mul V closepath stroke
  Pnt} def
/Star {2 copy Pls Crs} def
/BoxF {stroke [] 0 setdash exch hpt sub exch vpt add M
  0 vpt2 neg V hpt2 0 V 0 vpt2 V
  hpt2 neg 0 V closepath fill} def
/TriUF {stroke [] 0 setdash vpt 1.12 mul add M
  hpt neg vpt -1.62 mul V
  hpt 2 mul 0 V
  hpt neg vpt 1.62 mul V closepath fill} def
/TriD {stroke [] 0 setdash 2 copy vpt 1.12 mul sub M
  hpt neg vpt 1.62 mul V
  hpt 2 mul 0 V
  hpt neg vpt -1.62 mul V closepath stroke
  Pnt} def
/TriDF {stroke [] 0 setdash vpt 1.12 mul sub M
  hpt neg vpt 1.62 mul V
  hpt 2 mul 0 V
  hpt neg vpt -1.62 mul V closepath fill} def
/DiaF {stroke [] 0 setdash vpt add M
  hpt neg vpt neg V hpt vpt neg V
  hpt vpt V hpt neg vpt V closepath fill} def
/Pent {stroke [] 0 setdash 2 copy gsave
  translate 0 hpt M 4 {72 rotate 0 hpt L} repeat
  closepath stroke grestore Pnt} def
/PentF {stroke [] 0 setdash gsave
  translate 0 hpt M 4 {72 rotate 0 hpt L} repeat
  closepath fill grestore} def
/Circle {stroke [] 0 setdash 2 copy
  hpt 0 360 arc stroke Pnt} def
/CircleF {stroke [] 0 setdash hpt 0 360 arc fill} def
/C0 {BL [] 0 setdash 2 copy moveto vpt 90 450 arc} bind def
/C1 {BL [] 0 setdash 2 copy moveto
	2 copy vpt 0 90 arc closepath fill
	vpt 0 360 arc closepath} bind def
/C2 {BL [] 0 setdash 2 copy moveto
	2 copy vpt 90 180 arc closepath fill
	vpt 0 360 arc closepath} bind def
/C3 {BL [] 0 setdash 2 copy moveto
	2 copy vpt 0 180 arc closepath fill
	vpt 0 360 arc closepath} bind def
/C4 {BL [] 0 setdash 2 copy moveto
	2 copy vpt 180 270 arc closepath fill
	vpt 0 360 arc closepath} bind def
/C5 {BL [] 0 setdash 2 copy moveto
	2 copy vpt 0 90 arc
	2 copy moveto
	2 copy vpt 180 270 arc closepath fill
	vpt 0 360 arc} bind def
/C6 {BL [] 0 setdash 2 copy moveto
	2 copy vpt 90 270 arc closepath fill
	vpt 0 360 arc closepath} bind def
/C7 {BL [] 0 setdash 2 copy moveto
	2 copy vpt 0 270 arc closepath fill
	vpt 0 360 arc closepath} bind def
/C8 {BL [] 0 setdash 2 copy moveto
	2 copy vpt 270 360 arc closepath fill
	vpt 0 360 arc closepath} bind def
/C9 {BL [] 0 setdash 2 copy moveto
	2 copy vpt 270 450 arc closepath fill
	vpt 0 360 arc closepath} bind def
/C10 {BL [] 0 setdash 2 copy 2 copy moveto vpt 270 360 arc closepath fill
	2 copy moveto
	2 copy vpt 90 180 arc closepath fill
	vpt 0 360 arc closepath} bind def
/C11 {BL [] 0 setdash 2 copy moveto
	2 copy vpt 0 180 arc closepath fill
	2 copy moveto
	2 copy vpt 270 360 arc closepath fill
	vpt 0 360 arc closepath} bind def
/C12 {BL [] 0 setdash 2 copy moveto
	2 copy vpt 180 360 arc closepath fill
	vpt 0 360 arc closepath} bind def
/C13 {BL [] 0 setdash 2 copy moveto
	2 copy vpt 0 90 arc closepath fill
	2 copy moveto
	2 copy vpt 180 360 arc closepath fill
	vpt 0 360 arc closepath} bind def
/C14 {BL [] 0 setdash 2 copy moveto
	2 copy vpt 90 360 arc closepath fill
	vpt 0 360 arc} bind def
/C15 {BL [] 0 setdash 2 copy vpt 0 360 arc closepath fill
	vpt 0 360 arc closepath} bind def
/Rec {newpath 4 2 roll moveto 1 index 0 rlineto 0 exch rlineto
	neg 0 rlineto closepath} bind def
/Square {dup Rec} bind def
/Bsquare {vpt sub exch vpt sub exch vpt2 Square} bind def
/S0 {BL [] 0 setdash 2 copy moveto 0 vpt rlineto BL Bsquare} bind def
/S1 {BL [] 0 setdash 2 copy vpt Square fill Bsquare} bind def
/S2 {BL [] 0 setdash 2 copy exch vpt sub exch vpt Square fill Bsquare} bind def
/S3 {BL [] 0 setdash 2 copy exch vpt sub exch vpt2 vpt Rec fill Bsquare} bind def
/S4 {BL [] 0 setdash 2 copy exch vpt sub exch vpt sub vpt Square fill Bsquare} bind def
/S5 {BL [] 0 setdash 2 copy 2 copy vpt Square fill
	exch vpt sub exch vpt sub vpt Square fill Bsquare} bind def
/S6 {BL [] 0 setdash 2 copy exch vpt sub exch vpt sub vpt vpt2 Rec fill Bsquare} bind def
/S7 {BL [] 0 setdash 2 copy exch vpt sub exch vpt sub vpt vpt2 Rec fill
	2 copy vpt Square fill Bsquare} bind def
/S8 {BL [] 0 setdash 2 copy vpt sub vpt Square fill Bsquare} bind def
/S9 {BL [] 0 setdash 2 copy vpt sub vpt vpt2 Rec fill Bsquare} bind def
/S10 {BL [] 0 setdash 2 copy vpt sub vpt Square fill 2 copy exch vpt sub exch vpt Square fill
	Bsquare} bind def
/S11 {BL [] 0 setdash 2 copy vpt sub vpt Square fill 2 copy exch vpt sub exch vpt2 vpt Rec fill
	Bsquare} bind def
/S12 {BL [] 0 setdash 2 copy exch vpt sub exch vpt sub vpt2 vpt Rec fill Bsquare} bind def
/S13 {BL [] 0 setdash 2 copy exch vpt sub exch vpt sub vpt2 vpt Rec fill
	2 copy vpt Square fill Bsquare} bind def
/S14 {BL [] 0 setdash 2 copy exch vpt sub exch vpt sub vpt2 vpt Rec fill
	2 copy exch vpt sub exch vpt Square fill Bsquare} bind def
/S15 {BL [] 0 setdash 2 copy Bsquare fill Bsquare} bind def
/D0 {gsave translate 45 rotate 0 0 S0 stroke grestore} bind def
/D1 {gsave translate 45 rotate 0 0 S1 stroke grestore} bind def
/D2 {gsave translate 45 rotate 0 0 S2 stroke grestore} bind def
/D3 {gsave translate 45 rotate 0 0 S3 stroke grestore} bind def
/D4 {gsave translate 45 rotate 0 0 S4 stroke grestore} bind def
/D5 {gsave translate 45 rotate 0 0 S5 stroke grestore} bind def
/D6 {gsave translate 45 rotate 0 0 S6 stroke grestore} bind def
/D7 {gsave translate 45 rotate 0 0 S7 stroke grestore} bind def
/D8 {gsave translate 45 rotate 0 0 S8 stroke grestore} bind def
/D9 {gsave translate 45 rotate 0 0 S9 stroke grestore} bind def
/D10 {gsave translate 45 rotate 0 0 S10 stroke grestore} bind def
/D11 {gsave translate 45 rotate 0 0 S11 stroke grestore} bind def
/D12 {gsave translate 45 rotate 0 0 S12 stroke grestore} bind def
/D13 {gsave translate 45 rotate 0 0 S13 stroke grestore} bind def
/D14 {gsave translate 45 rotate 0 0 S14 stroke grestore} bind def
/D15 {gsave translate 45 rotate 0 0 S15 stroke grestore} bind def
/DiaE {stroke [] 0 setdash vpt add M
  hpt neg vpt neg V hpt vpt neg V
  hpt vpt V hpt neg vpt V closepath stroke} def
/BoxE {stroke [] 0 setdash exch hpt sub exch vpt add M
  0 vpt2 neg V hpt2 0 V 0 vpt2 V
  hpt2 neg 0 V closepath stroke} def
/TriUE {stroke [] 0 setdash vpt 1.12 mul add M
  hpt neg vpt -1.62 mul V
  hpt 2 mul 0 V
  hpt neg vpt 1.62 mul V closepath stroke} def
/TriDE {stroke [] 0 setdash vpt 1.12 mul sub M
  hpt neg vpt 1.62 mul V
  hpt 2 mul 0 V
  hpt neg vpt -1.62 mul V closepath stroke} def
/PentE {stroke [] 0 setdash gsave
  translate 0 hpt M 4 {72 rotate 0 hpt L} repeat
  closepath stroke grestore} def
/CircE {stroke [] 0 setdash 
  hpt 0 360 arc stroke} def
/Opaque {gsave closepath 1 setgray fill grestore 0 setgray closepath} def
/DiaW {stroke [] 0 setdash vpt add M
  hpt neg vpt neg V hpt vpt neg V
  hpt vpt V hpt neg vpt V Opaque stroke} def
/BoxW {stroke [] 0 setdash exch hpt sub exch vpt add M
  0 vpt2 neg V hpt2 0 V 0 vpt2 V
  hpt2 neg 0 V Opaque stroke} def
/TriUW {stroke [] 0 setdash vpt 1.12 mul add M
  hpt neg vpt -1.62 mul V
  hpt 2 mul 0 V
  hpt neg vpt 1.62 mul V Opaque stroke} def
/TriDW {stroke [] 0 setdash vpt 1.12 mul sub M
  hpt neg vpt 1.62 mul V
  hpt 2 mul 0 V
  hpt neg vpt -1.62 mul V Opaque stroke} def
/PentW {stroke [] 0 setdash gsave
  translate 0 hpt M 4 {72 rotate 0 hpt L} repeat
  Opaque stroke grestore} def
/CircW {stroke [] 0 setdash 
  hpt 0 360 arc Opaque stroke} def
/BoxFill {gsave Rec 1 setgray fill grestore} def
/Density {
  /Fillden exch def
  currentrgbcolor
  /ColB exch def /ColG exch def /ColR exch def
  /ColR ColR Fillden mul Fillden sub 1 add def
  /ColG ColG Fillden mul Fillden sub 1 add def
  /ColB ColB Fillden mul Fillden sub 1 add def
  ColR ColG ColB setrgbcolor} def
/BoxColFill {gsave Rec PolyFill} def
/PolyFill {gsave Density fill grestore grestore} def
/h {rlineto rlineto rlineto gsave closepath fill grestore} bind def
%
% PostScript Level 1 Pattern Fill routine for rectangles
% Usage: x y w h s a XX PatternFill
%	x,y = lower left corner of box to be filled
%	w,h = width and height of box
%	  a = angle in degrees between lines and x-axis
%	 XX = 0/1 for no/yes cross-hatch
%
/PatternFill {gsave /PFa [ 9 2 roll ] def
  PFa 0 get PFa 2 get 2 div add PFa 1 get PFa 3 get 2 div add translate
  PFa 2 get -2 div PFa 3 get -2 div PFa 2 get PFa 3 get Rec
  TransparentPatterns {} {gsave 1 setgray fill grestore} ifelse
  clip
  currentlinewidth 0.5 mul setlinewidth
  /PFs PFa 2 get dup mul PFa 3 get dup mul add sqrt def
  0 0 M PFa 5 get rotate PFs -2 div dup translate
  0 1 PFs PFa 4 get div 1 add floor cvi
	{PFa 4 get mul 0 M 0 PFs V} for
  0 PFa 6 get ne {
	0 1 PFs PFa 4 get div 1 add floor cvi
	{PFa 4 get mul 0 2 1 roll M PFs 0 V} for
 } if
  stroke grestore} def
%
/languagelevel where
 {pop languagelevel} {1} ifelse
dup 2 lt
	{/InterpretLevel1 true def
	 /InterpretLevel3 false def}
	{/InterpretLevel1 Level1 def
	 2 gt
	    {/InterpretLevel3 Level3 def}
	    {/InterpretLevel3 false def}
	 ifelse }
 ifelse
%
% PostScript level 2 pattern fill definitions
%
/Level2PatternFill {
/Tile8x8 {/PaintType 2 /PatternType 1 /TilingType 1 /BBox [0 0 8 8] /XStep 8 /YStep 8}
	bind def
/KeepColor {currentrgbcolor [/Pattern /DeviceRGB] setcolorspace} bind def
<< Tile8x8
 /PaintProc {0.5 setlinewidth pop 0 0 M 8 8 L 0 8 M 8 0 L stroke} 
>> matrix makepattern
/Pat1 exch def
<< Tile8x8
 /PaintProc {0.5 setlinewidth pop 0 0 M 8 8 L 0 8 M 8 0 L stroke
	0 4 M 4 8 L 8 4 L 4 0 L 0 4 L stroke}
>> matrix makepattern
/Pat2 exch def
<< Tile8x8
 /PaintProc {0.5 setlinewidth pop 0 0 M 0 8 L
	8 8 L 8 0 L 0 0 L fill}
>> matrix makepattern
/Pat3 exch def
<< Tile8x8
 /PaintProc {0.5 setlinewidth pop -4 8 M 8 -4 L
	0 12 M 12 0 L stroke}
>> matrix makepattern
/Pat4 exch def
<< Tile8x8
 /PaintProc {0.5 setlinewidth pop -4 0 M 8 12 L
	0 -4 M 12 8 L stroke}
>> matrix makepattern
/Pat5 exch def
<< Tile8x8
 /PaintProc {0.5 setlinewidth pop -2 8 M 4 -4 L
	0 12 M 8 -4 L 4 12 M 10 0 L stroke}
>> matrix makepattern
/Pat6 exch def
<< Tile8x8
 /PaintProc {0.5 setlinewidth pop -2 0 M 4 12 L
	0 -4 M 8 12 L 4 -4 M 10 8 L stroke}
>> matrix makepattern
/Pat7 exch def
<< Tile8x8
 /PaintProc {0.5 setlinewidth pop 8 -2 M -4 4 L
	12 0 M -4 8 L 12 4 M 0 10 L stroke}
>> matrix makepattern
/Pat8 exch def
<< Tile8x8
 /PaintProc {0.5 setlinewidth pop 0 -2 M 12 4 L
	-4 0 M 12 8 L -4 4 M 8 10 L stroke}
>> matrix makepattern
/Pat9 exch def
/Pattern1 {PatternBgnd KeepColor Pat1 setpattern} bind def
/Pattern2 {PatternBgnd KeepColor Pat2 setpattern} bind def
/Pattern3 {PatternBgnd KeepColor Pat3 setpattern} bind def
/Pattern4 {PatternBgnd KeepColor Landscape {Pat5} {Pat4} ifelse setpattern} bind def
/Pattern5 {PatternBgnd KeepColor Landscape {Pat4} {Pat5} ifelse setpattern} bind def
/Pattern6 {PatternBgnd KeepColor Landscape {Pat9} {Pat6} ifelse setpattern} bind def
/Pattern7 {PatternBgnd KeepColor Landscape {Pat8} {Pat7} ifelse setpattern} bind def
} def
%
%
%End of PostScript Level 2 code
%
/PatternBgnd {
  TransparentPatterns {} {gsave 1 setgray fill grestore} ifelse
} def
%
% Substitute for Level 2 pattern fill codes with
% grayscale if Level 2 support is not selected.
%
/Level1PatternFill {
/Pattern1 {0.250 Density} bind def
/Pattern2 {0.500 Density} bind def
/Pattern3 {0.750 Density} bind def
/Pattern4 {0.125 Density} bind def
/Pattern5 {0.375 Density} bind def
/Pattern6 {0.625 Density} bind def
/Pattern7 {0.875 Density} bind def
} def
%
% Now test for support of Level 2 code
%
Level1 {Level1PatternFill} {Level2PatternFill} ifelse
%
/Symbol-Oblique /Symbol findfont [1 0 .167 1 0 0] makefont
dup length dict begin {1 index /FID eq {pop pop} {def} ifelse} forall
currentdict end definefont pop
%
/MFshow {
   { dup 5 get 3 ge
     { 5 get 3 eq {gsave} {grestore} ifelse }
     {dup dup 0 get findfont exch 1 get scalefont setfont
     [ currentpoint ] exch dup 2 get 0 exch R dup 5 get 2 ne {dup dup 6
     get exch 4 get {textshow} {stringwidth pop 0 R} ifelse }if dup 5 get 0 eq
     {dup 3 get {2 get neg 0 exch R pop} {pop aload pop M} ifelse} {dup 5
     get 1 eq {dup 2 get exch dup 3 get exch 6 get stringwidth pop -2 div
     dup 0 R} {dup 6 get stringwidth pop -2 div 0 R 6 get
     textshow 2 index {aload pop M neg 3 -1 roll neg R pop pop} {pop pop pop
     pop aload pop M} ifelse }ifelse }ifelse }
     ifelse }
   forall} def
/Gswidth {dup type /stringtype eq {stringwidth} {pop (n) stringwidth} ifelse} def
/MFwidth {0 exch { dup 5 get 3 ge { 5 get 3 eq { 0 } { pop } ifelse }
 {dup 3 get{dup dup 0 get findfont exch 1 get scalefont setfont
     6 get Gswidth pop add} {pop} ifelse} ifelse} forall} def
/MLshow { currentpoint stroke M
  0 exch R
  Blacktext {gsave 0 setgray MFshow grestore} {MFshow} ifelse } bind def
/MRshow { currentpoint stroke M
  exch dup MFwidth neg 3 -1 roll R
  Blacktext {gsave 0 setgray MFshow grestore} {MFshow} ifelse } bind def
/MCshow { currentpoint stroke M
  exch dup MFwidth -2 div 3 -1 roll R
  Blacktext {gsave 0 setgray MFshow grestore} {MFshow} ifelse } bind def
/XYsave    { [( ) 1 2 true false 3 ()] } bind def
/XYrestore { [( ) 1 2 true false 4 ()] } bind def
Level1 SuppressPDFMark or 
{} {
/SDict 10 dict def
systemdict /pdfmark known not {
  userdict /pdfmark systemdict /cleartomark get put
} if
SDict begin [
  /Title (endrhocut.eps)
  /Subject (gnuplot plot)
  /Creator (gnuplot 5.0 patchlevel 3)
  /Author (kb2)
%  /Producer (gnuplot)
%  /Keywords ()
  /CreationDate (Thu Jun 22 21:03:27 2017)
  /DOCINFO pdfmark
end
} ifelse
%
% Support for boxed text - Ethan A Merritt May 2005
%
/InitTextBox { userdict /TBy2 3 -1 roll put userdict /TBx2 3 -1 roll put
           userdict /TBy1 3 -1 roll put userdict /TBx1 3 -1 roll put
	   /Boxing true def } def
/ExtendTextBox { Boxing
    { gsave dup false charpath pathbbox
      dup TBy2 gt {userdict /TBy2 3 -1 roll put} {pop} ifelse
      dup TBx2 gt {userdict /TBx2 3 -1 roll put} {pop} ifelse
      dup TBy1 lt {userdict /TBy1 3 -1 roll put} {pop} ifelse
      dup TBx1 lt {userdict /TBx1 3 -1 roll put} {pop} ifelse
      grestore } if } def
/PopTextBox { newpath TBx1 TBxmargin sub TBy1 TBymargin sub M
               TBx1 TBxmargin sub TBy2 TBymargin add L
	       TBx2 TBxmargin add TBy2 TBymargin add L
	       TBx2 TBxmargin add TBy1 TBymargin sub L closepath } def
/DrawTextBox { PopTextBox stroke /Boxing false def} def
/FillTextBox { gsave PopTextBox 1 1 1 setrgbcolor fill grestore /Boxing false def} def
0 0 0 0 InitTextBox
/TBxmargin 20 def
/TBymargin 20 def
/Boxing false def
/textshow { ExtendTextBox Gshow } def
%
% redundant definitions for compatibility with prologue.ps older than 5.0.2
/LTB {BL [] LCb DL} def
/LTb {PL [] LCb DL} def
end
%%EndProlog
%%Page: 1 1
gnudict begin
gsave
doclip
50 50 translate
0.050 0.050 scale
0 setgray
newpath
(Helvetica) findfont 180 scalefont setfont
BackgroundColor 0 lt 3 1 roll 0 lt exch 0 lt or or not {BackgroundColor C 1.000 0 0 7200.00 5040.00 BoxColFill} if
1.000 UL
LTb
0.50 0.50 0.50 C 2.000 UL
LTa
0.50 0.50 0.50 C 821 623 M
6054 0 V
stroke
1.000 UL
LTb
0.50 0.50 0.50 C 821 623 M
-47 0 V
stroke
666 623 M
[ [(Helvetica) 180.0 0.0 true true 0 (-16)]
] -60.0 MRshow
1.000 UL
LTb
0.50 0.50 0.50 C 2.000 UL
LTa
0.50 0.50 0.50 C 821 1148 M
6054 0 V
stroke
1.000 UL
LTb
0.50 0.50 0.50 C 821 1148 M
-47 0 V
stroke
666 1148 M
[ [(Helvetica) 180.0 0.0 true true 0 (-14)]
] -60.0 MRshow
1.000 UL
LTb
0.50 0.50 0.50 C 2.000 UL
LTa
0.50 0.50 0.50 C 821 1673 M
6054 0 V
stroke
1.000 UL
LTb
0.50 0.50 0.50 C 821 1673 M
-47 0 V
stroke
666 1673 M
[ [(Helvetica) 180.0 0.0 true true 0 (-12)]
] -60.0 MRshow
1.000 UL
LTb
0.50 0.50 0.50 C 2.000 UL
LTa
0.50 0.50 0.50 C 821 2198 M
6054 0 V
stroke
1.000 UL
LTb
0.50 0.50 0.50 C 821 2198 M
-47 0 V
stroke
666 2198 M
[ [(Helvetica) 180.0 0.0 true true 0 (-10)]
] -60.0 MRshow
1.000 UL
LTb
0.50 0.50 0.50 C 2.000 UL
LTa
0.50 0.50 0.50 C 821 2723 M
6054 0 V
stroke
1.000 UL
LTb
0.50 0.50 0.50 C 821 2723 M
-47 0 V
stroke
666 2723 M
[ [(Helvetica) 180.0 0.0 true true 0 (-8)]
] -60.0 MRshow
1.000 UL
LTb
0.50 0.50 0.50 C 2.000 UL
LTa
0.50 0.50 0.50 C 821 3248 M
4058 0 V
987 0 R
1009 0 V
stroke
1.000 UL
LTb
0.50 0.50 0.50 C 821 3248 M
-47 0 V
stroke
666 3248 M
[ [(Helvetica) 180.0 0.0 true true 0 (-6)]
] -60.0 MRshow
1.000 UL
LTb
0.50 0.50 0.50 C 2.000 UL
LTa
0.50 0.50 0.50 C 821 3773 M
4058 0 V
987 0 R
1009 0 V
stroke
1.000 UL
LTb
0.50 0.50 0.50 C 821 3773 M
-47 0 V
stroke
666 3773 M
[ [(Helvetica) 180.0 0.0 true true 0 (-4)]
] -60.0 MRshow
1.000 UL
LTb
0.50 0.50 0.50 C 2.000 UL
LTa
0.50 0.50 0.50 C 821 4298 M
6054 0 V
stroke
1.000 UL
LTb
0.50 0.50 0.50 C 821 4298 M
-47 0 V
stroke
666 4298 M
[ [(Helvetica) 180.0 0.0 true true 0 (-2)]
] -60.0 MRshow
1.000 UL
LTb
0.50 0.50 0.50 C 2.000 UL
LTa
0.50 0.50 0.50 C 821 4823 M
6054 0 V
stroke
1.000 UL
LTb
0.50 0.50 0.50 C 821 4823 M
-47 0 V
stroke
666 4823 M
[ [(Helvetica) 180.0 0.0 true true 0 ( 0)]
] -60.0 MRshow
1.000 UL
LTb
0.50 0.50 0.50 C 2.000 UL
LTa
0.50 0.50 0.50 C 821 623 M
0 4200 V
stroke
1.000 UL
LTb
0.50 0.50 0.50 C 821 623 M
0 -47 V
stroke
821 396 M
[ [(Helvetica) 180.0 0.0 true true 0 ( 0)]
] -60.0 MCshow
1.000 UL
LTb
0.50 0.50 0.50 C 2.000 UL
LTa
0.50 0.50 0.50 C 1830 623 M
0 4200 V
stroke
1.000 UL
LTb
0.50 0.50 0.50 C 1830 623 M
0 -47 V
stroke
1830 396 M
[ [(Helvetica) 180.0 0.0 true true 0 ( 5)]
] -60.0 MCshow
1.000 UL
LTb
0.50 0.50 0.50 C 2.000 UL
LTa
0.50 0.50 0.50 C 2839 623 M
0 4200 V
stroke
1.000 UL
LTb
0.50 0.50 0.50 C 2839 623 M
0 -47 V
stroke
2839 396 M
[ [(Helvetica) 180.0 0.0 true true 0 ( 10)]
] -60.0 MCshow
1.000 UL
LTb
0.50 0.50 0.50 C 2.000 UL
LTa
0.50 0.50 0.50 C 3848 623 M
0 4200 V
stroke
1.000 UL
LTb
0.50 0.50 0.50 C 3848 623 M
0 -47 V
stroke
3848 396 M
[ [(Helvetica) 180.0 0.0 true true 0 ( 15)]
] -60.0 MCshow
1.000 UL
LTb
0.50 0.50 0.50 C 2.000 UL
LTa
0.50 0.50 0.50 C 4857 623 M
0 4200 V
stroke
1.000 UL
LTb
0.50 0.50 0.50 C 4857 623 M
0 -47 V
stroke
4857 396 M
[ [(Helvetica) 180.0 0.0 true true 0 ( 20)]
] -60.0 MCshow
1.000 UL
LTb
0.50 0.50 0.50 C 2.000 UL
LTa
0.50 0.50 0.50 C 5866 623 M
0 4200 V
stroke
1.000 UL
LTb
0.50 0.50 0.50 C 5866 623 M
0 -47 V
stroke
5866 396 M
[ [(Helvetica) 180.0 0.0 true true 0 ( 25)]
] -60.0 MCshow
1.000 UL
LTb
0.50 0.50 0.50 C 2.000 UL
LTa
0.50 0.50 0.50 C 6875 623 M
0 4200 V
stroke
1.000 UL
LTb
0.50 0.50 0.50 C 6875 623 M
0 -47 V
stroke
6875 396 M
[ [(Helvetica) 180.0 0.0 true true 0 ( 30)]
] -60.0 MCshow
1.000 UL
LTb
0.50 0.50 0.50 C 1.000 UL
LTB
0.50 0.50 0.50 C 821 4823 M
821 623 L
6054 0 V
0 4200 R
-6054 0 R
1.000 UP
stroke
LTb
0.50 0.50 0.50 C LCb setrgbcolor
144 2723 M
currentpoint gsave translate -270 rotate 0 0 moveto
[ [(Helvetica) 180.0 0.0 true true 0 (log\()]
[(Symbol) 180.0 0.0 true true 0 (r)]
[(Helvetica) 180.0 0.0 true true 0 ( \(r\)\))]
] -60.0 MCshow
grestore
LTb
LCb setrgbcolor
3848 126 M
[ [(Helvetica) 180.0 0.0 true true 0 (r [fm])]
] -60.0 MCshow
LTb
% Begin plot #1
2.000 UL
LTb
0.00 0.00 0.00 C LCb setrgbcolor
5299 4186 M
[ [(Helvetica) 112.0 70.0 true true 0 (12)]
[(Helvetica) 140.0 0.0 true true 0 ( C)]
] -60.7 MRshow
2.000 UL
LTb
0.00 0.00 0.00 C 5383 4186 M
399 0 V
831 4634 M
20 -1 V
20 0 V
21 0 V
20 -1 V
20 -1 V
20 -2 V
20 -1 V
21 -2 V
20 -3 V
20 -2 V
20 -4 V
20 -3 V
20 -4 V
21 -5 V
20 -5 V
20 -6 V
20 -7 V
20 -7 V
21 -8 V
20 -9 V
20 -9 V
20 -11 V
20 -11 V
20 -13 V
21 -14 V
20 -15 V
20 -16 V
20 -17 V
20 -18 V
20 -20 V
21 -21 V
20 -21 V
20 -23 V
20 -24 V
20 -24 V
21 -25 V
20 -26 V
20 -26 V
20 -26 V
20 -27 V
20 -27 V
21 -27 V
20 -27 V
20 -27 V
20 -27 V
20 -26 V
21 -27 V
20 -26 V
20 -27 V
20 -26 V
20 -27 V
20 -26 V
21 -27 V
20 -26 V
20 -27 V
20 -26 V
20 -26 V
21 -26 V
20 -25 V
20 -25 V
20 -25 V
20 -25 V
20 -24 V
21 -25 V
20 -25 V
20 -25 V
20 -25 V
20 -26 V
21 -25 V
20 -26 V
20 -26 V
20 -25 V
20 -25 V
20 -24 V
21 -24 V
20 -23 V
20 -22 V
20 -22 V
20 -22 V
20 -23 V
21 -23 V
20 -24 V
20 -26 V
20 -26 V
20 -27 V
21 -28 V
20 -28 V
20 -26 V
20 -25 V
20 -23 V
20 -20 V
21 -19 V
20 -17 V
20 -16 V
20 -17 V
20 -19 V
21 -21 V
20 -24 V
20 -29 V
20 -32 V
20 -36 V
20 -37 V
stroke 2889 2618 M
21 -37 V
20 -35 V
20 -27 V
20 -19 V
20 -10 V
21 -3 V
20 1 V
20 1 V
20 -3 V
20 -10 V
20 -18 V
21 -28 V
20 -40 V
20 -53 V
20 -69 V
20 -85 V
21 -96 V
20 -90 V
20 -50 V
20 12 V
20 63 V
20 76 V
21 63 V
20 45 V
20 25 V
20 6 V
20 -14 V
20 -36 V
21 -64 V
20 -111 V
20 -219 V
20 -75 V
20 197 V
21 63 V
20 -1 V
20 -62 V
20 -180 V
20 -90 V
20 272 V
21 110 V
20 54 V
20 18 V
20 -12 V
20 -45 V
21 -94 V
20 -214 V
20 -109 V
20 266 V
20 90 V
20 32 V
21 -11 V
20 -54 V
20 -130 V
20 -566 V
20 537 V
21 150 V
20 65 V
20 21 V
20 -13 V
20 -51 V
20 -114 V
21 -336 V
20 200 V
20 181 V
20 73 V
20 24 V
21 -14 V
20 -56 V
20 -128 V
20 -511 V
20 459 V
20 154 V
21 65 V
20 21 V
20 -16 V
20 -56 V
20 -127 V
20 -474 V
21 409 V
20 156 V
20 66 V
20 20 V
20 -17 V
21 -59 V
20 -134 V
20 -634 V
20 603 V
20 146 V
20 62 V
21 18 V
20 -18 V
20 -61 V
20 -137 V
20 -733 V
21 712 V
20 143 V
20 61 V
20 17 V
20 -20 V
20 -63 V
21 -143 V
20 -932 V
20 933 V
20 137 V
stroke 4988 1838 M
20 58 V
21 16 V
20 -21 V
20 -65 V
20 -148 V
20 -671 V
20 688 V
21 132 V
20 57 V
20 14 V
20 -23 V
20 -67 V
21 -154 V
20 -519 V
20 556 V
20 127 V
20 54 V
20 13 V
21 -24 V
20 -70 V
20 -159 V
20 -428 V
20 482 V
20 123 V
21 52 V
20 11 V
20 -25 V
20 -72 V
20 -166 V
21 -354 V
20 427 V
20 119 V
20 50 V
20 10 V
20 -27 V
21 -74 V
20 -173 V
20 -295 V
20 386 V
20 115 V
21 49 V
20 8 V
20 -28 V
20 -77 V
20 -180 V
20 -243 V
21 353 V
20 111 V
20 47 V
20 7 V
20 -30 V
21 -79 V
20 -188 V
20 -197 V
20 326 V
20 108 V
20 45 V
21 5 V
20 -31 V
20 -82 V
20 -196 V
20 -154 V
21 303 V
20 104 V
20 43 V
20 4 V
20 -33 V
20 -84 V
21 -206 V
20 -114 V
20 284 V
20 101 V
20 41 V
20 3 V
21 -35 V
20 -87 V
20 -216 V
20 -75 V
20 267 V
21 97 V
20 40 V
20 1 V
20 -36 V
20 -90 V
20 -227 V
21 -38 V
20 252 V
20 94 V
20 38 V
20 0 V
21 -38 V
20 -93 V
20 -239 V
% End plot #1
% Begin plot #2
stroke
LTb
0.90 0.62 0.00 C LCb setrgbcolor
5299 3962 M
[ [(Helvetica) 112.0 70.0 true true 0 (16)]
[(Helvetica) 140.0 0.0 true true 0 ( O)]
] -60.7 MRshow
2.000 UL
LTb
0.90 0.62 0.00 C 5383 3962 M
399 0 V
831 4607 M
20 1 V
20 0 V
21 0 V
20 1 V
20 1 V
20 0 V
20 1 V
21 0 V
20 0 V
20 0 V
20 0 V
20 -1 V
20 -2 V
21 -2 V
20 -2 V
20 -3 V
20 -4 V
20 -4 V
21 -5 V
20 -6 V
20 -6 V
20 -7 V
20 -8 V
20 -9 V
21 -10 V
20 -11 V
20 -12 V
20 -13 V
20 -14 V
20 -15 V
21 -17 V
20 -18 V
20 -18 V
20 -20 V
20 -21 V
21 -22 V
20 -23 V
20 -24 V
20 -24 V
20 -25 V
20 -26 V
21 -25 V
20 -27 V
20 -26 V
20 -27 V
20 -26 V
21 -27 V
20 -26 V
20 -26 V
20 -26 V
20 -27 V
20 -26 V
21 -26 V
20 -26 V
20 -26 V
20 -26 V
20 -26 V
21 -25 V
20 -26 V
20 -26 V
20 -25 V
20 -25 V
20 -24 V
21 -25 V
20 -24 V
20 -24 V
20 -25 V
20 -24 V
21 -24 V
20 -24 V
20 -25 V
20 -24 V
20 -25 V
20 -24 V
21 -24 V
20 -24 V
20 -23 V
20 -24 V
20 -22 V
20 -23 V
21 -22 V
20 -22 V
20 -23 V
20 -22 V
20 -23 V
21 -24 V
20 -23 V
20 -24 V
20 -24 V
20 -24 V
20 -23 V
21 -23 V
20 -22 V
20 -21 V
20 -20 V
20 -20 V
21 -20 V
20 -20 V
20 -21 V
20 -21 V
20 -23 V
20 -24 V
stroke 2889 2772 M
21 -24 V
20 -26 V
20 -25 V
20 -25 V
20 -23 V
21 -21 V
20 -19 V
20 -18 V
20 -16 V
20 -16 V
20 -16 V
21 -17 V
20 -18 V
20 -20 V
20 -24 V
20 -26 V
21 -29 V
20 -31 V
20 -32 V
20 -29 V
20 -23 V
20 -16 V
21 -10 V
20 -7 V
20 -7 V
20 -9 V
20 -10 V
20 -12 V
21 -14 V
20 -17 V
20 -21 V
20 -28 V
20 -37 V
21 -46 V
20 -52 V
20 -44 V
20 -11 V
20 20 V
20 25 V
21 16 V
20 4 V
20 -8 V
20 -14 V
20 -15 V
21 -8 V
20 -1 V
20 0 V
20 -8 V
20 -22 V
20 -40 V
21 -60 V
20 -60 V
20 3 V
20 57 V
20 49 V
21 27 V
20 4 V
20 -17 V
20 -33 V
20 -36 V
20 -12 V
21 22 V
20 31 V
20 18 V
20 -3 V
20 -25 V
21 -50 V
20 -64 V
20 -20 V
20 53 V
20 55 V
20 32 V
21 7 V
20 -18 V
20 -43 V
20 -60 V
20 -30 V
20 40 V
21 53 V
20 33 V
20 7 V
20 -19 V
20 -48 V
21 -73 V
20 -45 V
20 54 V
20 67 V
20 41 V
20 11 V
21 -17 V
20 -46 V
20 -76 V
20 -57 V
20 52 V
21 73 V
20 43 V
20 14 V
20 -16 V
20 -47 V
20 -83 V
21 -75 V
20 60 V
20 84 V
20 49 V
stroke 4988 1808 M
20 16 V
21 -14 V
20 -47 V
20 -87 V
20 -90 V
20 62 V
20 92 V
21 53 V
20 19 V
20 -13 V
20 -47 V
20 -91 V
21 -110 V
20 68 V
20 104 V
20 57 V
20 21 V
20 -12 V
21 -47 V
20 -94 V
20 -129 V
20 72 V
20 115 V
20 61 V
21 23 V
20 -11 V
20 -46 V
20 -96 V
20 -151 V
21 77 V
20 127 V
20 65 V
20 25 V
20 -10 V
20 -45 V
21 -98 V
20 -172 V
20 80 V
20 139 V
20 70 V
21 26 V
20 -8 V
20 -45 V
20 -99 V
20 -193 V
20 82 V
21 153 V
20 73 V
20 28 V
20 -7 V
20 -44 V
21 -99 V
20 -213 V
20 80 V
20 168 V
20 76 V
20 30 V
21 -6 V
20 -43 V
20 -99 V
20 -230 V
20 76 V
21 182 V
20 80 V
20 32 V
20 -5 V
20 -42 V
20 -98 V
21 -242 V
20 65 V
20 198 V
20 83 V
20 33 V
20 -3 V
21 -42 V
20 -96 V
20 -248 V
20 48 V
20 213 V
21 86 V
20 35 V
20 -3 V
20 -40 V
20 -95 V
20 -246 V
21 25 V
20 227 V
20 89 V
20 36 V
20 -2 V
21 -38 V
20 -93 V
20 -240 V
% End plot #2
% Begin plot #3
stroke
LTb
0.34 0.71 0.91 C LCb setrgbcolor
5299 3738 M
[ [(Helvetica) 112.0 70.0 true true 0 (40)]
[(Helvetica) 140.0 0.0 true true 0 ( Ca)]
] -60.7 MRshow
2.000 UL
LTb
0.34 0.71 0.91 C 5383 3738 M
399 0 V
831 4631 M
20 0 V
20 -1 V
21 0 V
20 -1 V
20 -1 V
20 -1 V
20 -1 V
21 -2 V
20 -1 V
20 -2 V
20 -1 V
20 -1 V
20 -2 V
21 -1 V
20 -1 V
20 -1 V
20 -1 V
20 -1 V
21 -1 V
20 -1 V
20 -1 V
20 -1 V
20 -2 V
20 -2 V
21 -2 V
20 -3 V
20 -3 V
20 -3 V
20 -5 V
20 -4 V
21 -6 V
20 -6 V
20 -7 V
20 -7 V
20 -9 V
21 -9 V
20 -11 V
20 -11 V
20 -13 V
20 -13 V
20 -15 V
21 -16 V
20 -16 V
20 -18 V
20 -19 V
20 -20 V
21 -21 V
20 -22 V
20 -23 V
20 -23 V
20 -24 V
20 -24 V
21 -25 V
20 -25 V
20 -26 V
20 -25 V
20 -26 V
21 -25 V
20 -25 V
20 -26 V
20 -25 V
20 -25 V
20 -25 V
21 -25 V
20 -26 V
20 -25 V
20 -25 V
20 -24 V
21 -25 V
20 -25 V
20 -24 V
20 -25 V
20 -24 V
20 -23 V
21 -24 V
20 -23 V
20 -23 V
20 -24 V
20 -23 V
20 -23 V
21 -23 V
20 -23 V
20 -24 V
20 -23 V
20 -24 V
21 -23 V
20 -23 V
20 -22 V
20 -22 V
20 -22 V
20 -21 V
21 -21 V
20 -21 V
20 -21 V
20 -22 V
20 -21 V
21 -23 V
20 -22 V
20 -23 V
20 -23 V
20 -23 V
20 -23 V
stroke 2889 3069 M
21 -21 V
20 -21 V
20 -20 V
20 -20 V
20 -18 V
21 -18 V
20 -19 V
20 -18 V
20 -20 V
20 -21 V
20 -22 V
21 -23 V
20 -25 V
20 -25 V
20 -24 V
20 -24 V
21 -22 V
20 -19 V
20 -17 V
20 -15 V
20 -13 V
20 -13 V
21 -13 V
20 -15 V
20 -17 V
20 -21 V
20 -24 V
20 -28 V
21 -30 V
20 -32 V
20 -32 V
20 -29 V
20 -24 V
21 -17 V
20 -10 V
20 -4 V
20 1 V
20 0 V
20 -1 V
21 -7 V
20 -13 V
20 -22 V
20 -30 V
20 -38 V
21 -47 V
20 -49 V
20 -48 V
20 -39 V
20 -28 V
20 -17 V
21 2 V
20 23 V
20 34 V
20 32 V
20 21 V
21 7 V
20 -7 V
20 -24 V
20 -42 V
20 -57 V
20 -63 V
21 -35 V
20 5 V
20 12 V
20 -7 V
20 -35 V
21 -56 V
20 -18 V
20 65 V
20 71 V
20 46 V
20 20 V
21 -4 V
20 -28 V
20 -55 V
20 -76 V
20 -46 V
20 42 V
21 55 V
20 27 V
20 -2 V
20 -35 V
20 -70 V
21 -85 V
20 33 V
20 91 V
20 61 V
20 27 V
20 -2 V
21 -30 V
20 -64 V
20 -94 V
20 -29 V
20 84 V
21 67 V
20 32 V
20 0 V
20 -33 V
20 -71 V
20 -108 V
21 -4 V
20 108 V
20 71 V
20 34 V
stroke 4988 1887 M
20 1 V
21 -30 V
20 -68 V
20 -113 V
20 -38 V
20 111 V
20 79 V
21 37 V
20 4 V
20 -30 V
20 -70 V
20 -123 V
21 -46 V
20 131 V
20 84 V
20 40 V
20 6 V
20 -28 V
21 -67 V
20 -126 V
20 -78 V
20 141 V
20 93 V
20 44 V
21 8 V
20 -25 V
20 -66 V
20 -131 V
20 -108 V
21 162 V
20 101 V
20 48 V
20 10 V
20 -23 V
20 -63 V
21 -130 V
20 -150 V
20 179 V
20 111 V
20 52 V
21 14 V
20 -20 V
20 -61 V
20 -128 V
20 -197 V
20 201 V
21 123 V
20 57 V
20 16 V
20 -17 V
20 -58 V
21 -124 V
20 -245 V
20 218 V
20 135 V
20 62 V
20 20 V
21 -14 V
20 -55 V
20 -119 V
20 -285 V
20 224 V
21 150 V
20 68 V
20 23 V
20 -12 V
20 -50 V
20 -114 V
21 -302 V
20 202 V
20 168 V
20 73 V
20 27 V
20 -9 V
21 -47 V
20 -107 V
20 -293 V
20 150 V
20 188 V
21 79 V
20 31 V
20 -6 V
20 -43 V
20 -100 V
20 -268 V
21 78 V
20 211 V
20 86 V
20 34 V
20 -3 V
21 -39 V
20 -93 V
20 -240 V
% End plot #3
% Begin plot #4
stroke
LTb
0.00 0.62 0.45 C LCb setrgbcolor
5299 3514 M
[ [(Helvetica) 112.0 70.0 true true 0 (42)]
[(Helvetica) 140.0 0.0 true true 0 ( Ca)]
] -60.7 MRshow
2.000 UL
LTb
0.00 0.62 0.45 C 5383 3514 M
399 0 V
831 4629 M
20 0 V
20 0 V
21 -1 V
20 -1 V
20 -1 V
20 -1 V
20 -1 V
21 -1 V
20 -1 V
20 -2 V
20 -1 V
20 -1 V
20 -1 V
21 -1 V
20 -1 V
20 -1 V
20 -1 V
20 0 V
21 -1 V
20 -1 V
20 -1 V
20 -1 V
20 -1 V
20 -2 V
21 -2 V
20 -2 V
20 -3 V
20 -3 V
20 -4 V
20 -4 V
21 -5 V
20 -6 V
20 -6 V
20 -8 V
20 -8 V
21 -9 V
20 -9 V
20 -11 V
20 -12 V
20 -13 V
20 -14 V
21 -15 V
20 -17 V
20 -17 V
20 -18 V
20 -20 V
21 -20 V
20 -22 V
20 -22 V
20 -23 V
20 -24 V
20 -24 V
21 -25 V
20 -25 V
20 -25 V
20 -26 V
20 -25 V
21 -26 V
20 -26 V
20 -25 V
20 -25 V
20 -26 V
20 -25 V
21 -25 V
20 -26 V
20 -25 V
20 -25 V
20 -25 V
21 -25 V
20 -25 V
20 -25 V
20 -24 V
20 -25 V
20 -24 V
21 -24 V
20 -23 V
20 -24 V
20 -23 V
20 -23 V
20 -23 V
21 -24 V
20 -23 V
20 -24 V
20 -23 V
20 -24 V
21 -23 V
20 -23 V
20 -23 V
20 -23 V
20 -22 V
20 -22 V
21 -22 V
20 -21 V
20 -21 V
20 -21 V
20 -22 V
21 -21 V
20 -22 V
20 -23 V
20 -23 V
20 -23 V
20 -23 V
stroke 2889 3076 M
21 -23 V
20 -22 V
20 -22 V
20 -21 V
20 -20 V
21 -19 V
20 -18 V
20 -19 V
20 -18 V
20 -19 V
20 -20 V
21 -21 V
20 -22 V
20 -24 V
20 -24 V
20 -25 V
21 -24 V
20 -24 V
20 -22 V
20 -20 V
20 -17 V
20 -15 V
21 -14 V
20 -13 V
20 -14 V
20 -14 V
20 -17 V
20 -19 V
21 -22 V
20 -26 V
20 -29 V
20 -31 V
20 -32 V
21 -30 V
20 -26 V
20 -20 V
20 -13 V
20 -6 V
20 -4 V
21 -2 V
20 -4 V
20 -5 V
20 -8 V
20 -13 V
21 -19 V
20 -25 V
20 -34 V
20 -42 V
20 -52 V
20 -56 V
21 -44 V
20 -14 V
20 13 V
20 20 V
20 14 V
21 9 V
20 5 V
20 4 V
20 5 V
20 4 V
20 -2 V
21 -10 V
20 -23 V
20 -38 V
20 -59 V
20 -76 V
21 -54 V
20 27 V
20 55 V
20 37 V
20 14 V
20 -5 V
21 -19 V
20 -18 V
20 0 V
20 22 V
20 26 V
20 15 V
21 -1 V
20 -21 V
20 -44 V
20 -66 V
20 -57 V
21 23 V
20 61 V
20 43 V
20 18 V
20 -7 V
20 -31 V
21 -50 V
20 -39 V
20 20 V
20 51 V
20 40 V
21 17 V
20 -7 V
20 -34 V
20 -62 V
20 -77 V
20 -4 V
21 72 V
20 58 V
20 29 V
20 1 V
stroke 4988 1868 M
20 -27 V
21 -57 V
20 -79 V
20 -17 V
20 72 V
20 64 V
20 34 V
21 5 V
20 -24 V
20 -57 V
20 -93 V
20 -57 V
21 82 V
20 81 V
20 43 V
20 12 V
20 -19 V
20 -52 V
21 -93 V
20 -86 V
20 81 V
20 92 V
20 51 V
20 17 V
21 -14 V
20 -47 V
20 -93 V
20 -124 V
20 69 V
21 112 V
20 62 V
20 23 V
20 -8 V
20 -42 V
20 -89 V
21 -145 V
20 40 V
20 132 V
20 72 V
20 30 V
21 -3 V
20 -37 V
20 -83 V
20 -157 V
20 -14 V
20 160 V
21 85 V
20 37 V
20 2 V
20 -31 V
20 -76 V
21 -156 V
20 -89 V
20 195 V
20 98 V
20 45 V
20 8 V
21 -26 V
20 -68 V
20 -147 V
20 -190 V
20 242 V
21 116 V
20 52 V
20 14 V
20 -20 V
20 -61 V
20 -134 V
21 -297 V
20 288 V
20 136 V
20 61 V
20 20 V
20 -15 V
21 -54 V
20 -119 V
20 -342 V
20 264 V
20 161 V
21 71 V
20 26 V
20 -9 V
20 -47 V
20 -106 V
20 -297 V
21 143 V
20 194 V
20 81 V
20 32 V
20 -3 V
21 -40 V
20 -94 V
20 -240 V
% End plot #4
% Begin plot #5
stroke
LTb
0.94 0.89 0.26 C LCb setrgbcolor
5299 3290 M
[ [(Helvetica) 112.0 70.0 true true 0 (48)]
[(Helvetica) 140.0 0.0 true true 0 ( Ca)]
] -60.7 MRshow
2.000 UL
LTb
0.94 0.89 0.26 C 5383 3290 M
399 0 V
831 4625 M
20 -1 V
20 0 V
21 -1 V
20 0 V
20 -1 V
20 -1 V
20 -1 V
21 -1 V
20 -1 V
20 -1 V
20 -1 V
20 -1 V
20 -1 V
21 0 V
20 -1 V
20 0 V
20 0 V
20 0 V
21 0 V
20 0 V
20 0 V
20 0 V
20 -1 V
20 -1 V
21 -1 V
20 -1 V
20 -2 V
20 -2 V
20 -3 V
20 -4 V
21 -4 V
20 -4 V
20 -6 V
20 -6 V
20 -6 V
21 -8 V
20 -8 V
20 -10 V
20 -10 V
20 -12 V
20 -12 V
21 -14 V
20 -15 V
20 -15 V
20 -17 V
20 -18 V
21 -20 V
20 -20 V
20 -21 V
20 -22 V
20 -23 V
20 -23 V
21 -24 V
20 -25 V
20 -25 V
20 -25 V
20 -26 V
21 -26 V
20 -25 V
20 -26 V
20 -25 V
20 -26 V
20 -25 V
21 -25 V
20 -25 V
20 -25 V
20 -25 V
20 -24 V
21 -25 V
20 -25 V
20 -24 V
20 -25 V
20 -24 V
20 -24 V
21 -24 V
20 -23 V
20 -23 V
20 -23 V
20 -23 V
20 -22 V
21 -23 V
20 -22 V
20 -23 V
20 -22 V
20 -23 V
21 -23 V
20 -23 V
20 -22 V
20 -23 V
20 -22 V
20 -22 V
21 -21 V
20 -21 V
20 -20 V
20 -21 V
20 -19 V
21 -20 V
20 -20 V
20 -21 V
20 -21 V
20 -21 V
20 -22 V
stroke 2889 3142 M
21 -23 V
20 -22 V
20 -23 V
20 -21 V
20 -21 V
21 -20 V
20 -19 V
20 -18 V
20 -17 V
20 -16 V
20 -17 V
21 -17 V
20 -18 V
20 -20 V
20 -21 V
20 -23 V
21 -25 V
20 -25 V
20 -25 V
20 -24 V
20 -22 V
20 -20 V
21 -16 V
20 -14 V
20 -11 V
20 -9 V
20 -10 V
20 -11 V
21 -14 V
20 -17 V
20 -22 V
20 -27 V
20 -31 V
21 -34 V
20 -36 V
20 -33 V
20 -29 V
20 -22 V
20 -14 V
21 -6 V
20 2 V
20 7 V
20 9 V
20 5 V
21 -2 V
20 -11 V
20 -22 V
20 -34 V
20 -47 V
20 -60 V
21 -65 V
20 -51 V
20 -23 V
20 -9 V
20 -15 V
21 -20 V
20 3 V
20 43 V
20 54 V
20 42 V
20 24 V
21 5 V
20 -15 V
20 -39 V
20 -68 V
20 -110 V
21 -131 V
20 54 V
20 90 V
20 39 V
20 -2 V
20 -45 V
21 -100 V
20 -104 V
20 126 V
20 111 V
20 61 V
20 27 V
21 -3 V
20 -32 V
20 -69 V
20 -137 V
20 -221 V
21 210 V
20 119 V
20 51 V
20 10 V
20 -26 V
20 -73 V
21 -157 V
20 -111 V
20 216 V
20 105 V
20 48 V
21 13 V
20 -19 V
20 -57 V
20 -118 V
20 -272 V
20 189 V
21 152 V
20 68 V
20 23 V
20 -12 V
stroke 4988 1955 M
20 -50 V
21 -111 V
20 -259 V
20 162 V
20 162 V
20 73 V
20 29 V
21 -6 V
20 -40 V
20 -92 V
20 -210 V
20 -23 V
21 219 V
20 91 V
20 38 V
20 2 V
20 -34 V
20 -80 V
21 -182 V
20 -132 V
20 262 V
20 104 V
20 46 V
20 8 V
21 -25 V
20 -69 V
20 -149 V
20 -312 V
20 345 V
21 126 V
20 55 V
20 16 V
20 -18 V
20 -59 V
20 -128 V
21 -367 V
20 325 V
20 148 V
20 66 V
20 23 V
21 -12 V
20 -49 V
20 -109 V
20 -296 V
20 161 V
20 183 V
21 78 V
20 31 V
20 -5 V
20 -41 V
20 -93 V
21 -233 V
20 -1 V
20 230 V
20 92 V
20 38 V
20 3 V
21 -33 V
20 -81 V
20 -186 V
20 -183 V
20 311 V
21 108 V
20 47 V
20 10 V
20 -26 V
20 -68 V
20 -155 V
21 -439 V
20 480 V
20 128 V
20 56 V
20 16 V
20 -18 V
21 -58 V
20 -130 V
20 -507 V
20 461 V
20 154 V
21 67 V
20 23 V
20 -11 V
20 -49 V
20 -110 V
20 -325 V
21 189 V
20 188 V
20 79 V
20 31 V
20 -5 V
21 -40 V
20 -94 V
20 -240 V
% End plot #5
% Begin plot #6
stroke
LTb
0.00 0.45 0.70 C LCb setrgbcolor
5299 3066 M
[ [(Helvetica) 112.0 70.0 true true 0 (208)]
[(Helvetica) 140.0 0.0 true true 0 ( Pb)]
] -60.7 MRshow
2.000 UL
LTb
0.00 0.45 0.70 C 5383 3066 M
399 0 V
831 4613 M
20 0 V
20 0 V
21 0 V
20 0 V
20 0 V
20 0 V
20 0 V
21 0 V
20 0 V
20 1 V
20 -1 V
20 0 V
20 0 V
21 0 V
20 0 V
20 0 V
20 -1 V
20 0 V
21 0 V
20 -1 V
20 0 V
20 0 V
20 -1 V
20 0 V
21 0 V
20 0 V
20 0 V
20 0 V
20 0 V
20 1 V
21 0 V
20 0 V
20 0 V
20 0 V
20 0 V
21 0 V
20 0 V
20 0 V
20 0 V
20 -1 V
20 0 V
21 0 V
20 -1 V
20 0 V
20 0 V
20 -1 V
21 0 V
20 -1 V
20 -1 V
20 -1 V
20 -1 V
20 -1 V
21 -2 V
20 -2 V
20 -2 V
20 -3 V
20 -3 V
21 -3 V
20 -4 V
20 -5 V
20 -5 V
20 -6 V
20 -6 V
21 -8 V
20 -8 V
20 -8 V
20 -10 V
20 -11 V
21 -12 V
20 -12 V
20 -14 V
20 -14 V
20 -16 V
20 -17 V
21 -17 V
20 -19 V
20 -19 V
20 -20 V
20 -21 V
20 -21 V
21 -22 V
20 -22 V
20 -23 V
20 -23 V
20 -23 V
21 -23 V
20 -23 V
20 -23 V
20 -23 V
20 -23 V
20 -23 V
21 -22 V
20 -23 V
20 -22 V
20 -22 V
20 -22 V
21 -22 V
20 -22 V
20 -21 V
20 -22 V
20 -21 V
20 -21 V
stroke 2889 3824 M
21 -21 V
20 -21 V
20 -20 V
20 -20 V
20 -20 V
21 -20 V
20 -20 V
20 -19 V
20 -20 V
20 -19 V
20 -20 V
21 -19 V
20 -20 V
20 -19 V
20 -20 V
20 -19 V
21 -19 V
20 -18 V
20 -19 V
20 -18 V
20 -18 V
20 -18 V
21 -18 V
20 -18 V
20 -18 V
20 -18 V
20 -18 V
20 -19 V
21 -18 V
20 -18 V
20 -19 V
20 -18 V
20 -18 V
21 -18 V
20 -17 V
20 -18 V
20 -17 V
20 -16 V
20 -17 V
21 -17 V
20 -16 V
20 -17 V
20 -18 V
20 -17 V
21 -18 V
20 -18 V
20 -18 V
20 -19 V
20 -18 V
20 -17 V
21 -18 V
20 -16 V
20 -16 V
20 -16 V
20 -15 V
21 -15 V
20 -16 V
20 -15 V
20 -17 V
20 -17 V
20 -17 V
21 -19 V
20 -19 V
20 -19 V
20 -19 V
20 -18 V
21 -18 V
20 -17 V
20 -15 V
20 -14 V
20 -14 V
20 -12 V
21 -13 V
20 -14 V
20 -14 V
20 -16 V
20 -17 V
20 -19 V
21 -20 V
20 -21 V
20 -22 V
20 -22 V
20 -21 V
21 -18 V
20 -14 V
20 -12 V
20 -10 V
20 -8 V
20 -9 V
21 -9 V
20 -10 V
20 -12 V
20 -14 V
20 -16 V
21 -20 V
20 -25 V
20 -28 V
20 -32 V
20 -30 V
20 -23 V
21 -11 V
20 -1 V
20 1 V
20 -2 V
stroke 4988 2037 M
20 -4 V
21 -8 V
20 -6 V
20 -3 V
20 -1 V
20 -2 V
20 -9 V
21 -21 V
20 -34 V
20 -51 V
20 -59 V
20 -34 V
21 20 V
20 38 V
20 26 V
20 5 V
20 -13 V
20 -28 V
21 -26 V
20 1 V
20 27 V
20 30 V
20 16 V
20 -3 V
21 -28 V
20 -56 V
20 -91 V
20 -72 V
20 66 V
21 81 V
20 45 V
20 14 V
20 -15 V
20 -46 V
20 -74 V
21 -49 V
20 56 V
20 73 V
20 44 V
20 14 V
21 -14 V
20 -47 V
20 -92 V
20 -135 V
20 54 V
20 120 V
21 66 V
20 27 V
20 -6 V
20 -39 V
20 -83 V
21 -136 V
20 23 V
20 129 V
20 74 V
20 33 V
20 -1 V
21 -33 V
20 -78 V
20 -156 V
20 -77 V
20 189 V
21 96 V
20 43 V
20 8 V
20 -26 V
20 -69 V
20 -144 V
21 -176 V
20 229 V
20 114 V
20 53 V
20 14 V
20 -19 V
21 -59 V
20 -128 V
20 -326 V
20 291 V
20 145 V
21 65 V
20 23 V
20 -12 V
20 -50 V
20 -110 V
20 -315 V
21 188 V
20 182 V
20 78 V
20 30 V
20 -4 V
21 -41 V
20 -94 V
20 -240 V
% End plot #6
stroke
LTb
LCb setrgbcolor
1.000 UP
1.000 UL
LTb
0.50 0.50 0.50 C stroke
grestore
end
showpage
%%Trailer
%%DocumentFonts: Symbol Helvetica
