   20.000000000000000        20.000000000000000        1000.0000000000000       -344.26217909323628        3.6839651329501066E-009
   20.000000000000000        20.000000000000000        100.00000000000000       -343.64205427387833        3.9730593925924040E-008
   20.000000000000000        20.000000000000000        130.00000000000000       -343.88603733294565        1.2258794868102996E-008
   20.000000000000000        20.000000000000000        160.00000000000000       -344.08594412716235        1.6283422610285925E-008
   20.000000000000000        20.000000000000000        190.00000000000000       -344.24338308612090        3.4872869036917109E-009
   20.000000000000000        20.000000000000000        220.00000000000000       -344.25333328510658        2.0481820683926344E-009
   20.000000000000000        20.000000000000000        250.00000000000000       -344.25361403390525        2.0618813323380891E-009
   20.000000000000000        20.000000000000000        280.00000000000000       -344.25798526234519        2.6503812478040345E-009
   20.000000000000000        20.000000000000000        310.00000000000000       -344.25895304198679        2.4155610844900366E-009
   20.000000000000000        20.000000000000000        340.00000000000000       -344.25950783576411        3.6852156881650444E-009
   20.000000000000000        20.000000000000000        370.00000000000000       -344.26020301799355        2.8173303689982276E-009
   20.000000000000000        20.000000000000000        400.00000000000000       -344.26103189203531        3.0900650926923845E-009
   20.000000000000000        20.000000000000000        40.000000000000000       -341.26522995145984        4.2680028400354786E-008
   20.000000000000000        20.000000000000000        430.00000000000000       -344.26157942535747        3.1882336770649999E-009
   20.000000000000000        20.000000000000000        460.00000000000000       -344.26176367151771        3.2591174203844275E-009
   20.000000000000000        20.000000000000000        490.00000000000000       -344.26184305874784        3.3859919312817510E-009
   20.000000000000000        20.000000000000000        520.00000000000000       -344.26196704210571        3.5345806281839032E-009
   20.000000000000000        20.000000000000000        550.00000000000000       -344.26208993783160        3.6128540159552358E-009
   20.000000000000000        20.000000000000000        580.00000000000000       -344.26214984109265        3.6231426747690421E-009
   20.000000000000000        20.000000000000000        610.00000000000000       -344.26215969187558        3.6603751141228713E-009
   20.000000000000000        20.000000000000000        640.00000000000000       -344.26216094610953        3.6823735172220040E-009
   20.000000000000000        20.000000000000000        670.00000000000000       -344.26216153190995        3.6951064430468250E-009
   20.000000000000000        20.000000000000000        700.00000000000000       -344.26216740146140        3.7133531805011444E-009
   20.000000000000000        20.000000000000000        70.000000000000000       -342.67349047280402        8.6697582446504384E-008
   20.000000000000000        20.000000000000000        730.00000000000000       -344.26217273966205        3.7150016396481078E-009
   20.000000000000000        20.000000000000000        760.00000000000000       -344.26217371977680        3.7227323446131777E-009
   20.000000000000000        20.000000000000000        790.00000000000000       -344.26217459201143        3.7088057069922797E-009
   20.000000000000000        20.000000000000000        820.00000000000000       -344.26217513160663        3.7080667425470892E-009
   20.000000000000000        20.000000000000000        850.00000000000000       -344.26217665980153        3.7107383832335472E-009
   20.000000000000000        20.000000000000000        880.00000000000000       -344.26217817303848        3.7142058317840565E-009
   20.000000000000000        20.000000000000000        910.00000000000000       -344.26217817417523        3.6952769733034074E-009
   20.000000000000000        20.000000000000000        940.00000000000000       -344.26217883546423        3.6841925066255499E-009
   20.000000000000000        20.000000000000000        970.00000000000000       -344.26217888208993        3.6986307350161951E-009


   22.000000000000000        20.000000000000000        1000.0000000000000       -362.53900258550146        1.2733437415590743E-008
   22.000000000000000        20.000000000000000        100.00000000000000       -361.91806720834563        4.5292324557522079E-008
   22.000000000000000        20.000000000000000        130.00000000000000       -362.16109979771090        2.3100255930330604E-008
   22.000000000000000        20.000000000000000        160.00000000000000       -362.38293318470483        2.5584256491129054E-008
   22.000000000000000        20.000000000000000        190.00000000000000       -362.52070226700175        1.1746067229978507E-008
   22.000000000000000        20.000000000000000        220.00000000000000       -362.52926802007528        1.1590032045205589E-008
   22.000000000000000        20.000000000000000        250.00000000000000       -362.52980075123230        1.1180986803083215E-008
   22.000000000000000        20.000000000000000        280.00000000000000       -362.53429516048021        1.1439794889156474E-008
   22.000000000000000        20.000000000000000        310.00000000000000       -362.53508612442653        1.1277052180957980E-008
   22.000000000000000        20.000000000000000        340.00000000000000       -362.53605786628185        1.2579221220221370E-008
   22.000000000000000        20.000000000000000        370.00000000000000       -362.53699264769574        1.1815302514150972E-008
   22.000000000000000        20.000000000000000        400.00000000000000       -362.53789778625782        1.2036082353006350E-008
   22.000000000000000        20.000000000000000        40.000000000000000       -359.50692700772993        4.6957211452536285E-008
   22.000000000000000        20.000000000000000        430.00000000000000       -362.53838843715863        1.2156078810221516E-008
   22.000000000000000        20.000000000000000        460.00000000000000       -362.53854375718623        1.2254247394594131E-008
   22.000000000000000        20.000000000000000        490.00000000000000       -362.53865597370549        1.2411987881932873E-008
   22.000000000000000        20.000000000000000        520.00000000000000       -362.53881091094354        1.2550117389764637E-008
   22.000000000000000        20.000000000000000        550.00000000000000       -362.53892931606532        1.2498333035182441E-008
   22.000000000000000        20.000000000000000        580.00000000000000       -362.53896960299534        1.2647035418922314E-008
   22.000000000000000        20.000000000000000        610.00000000000000       -362.53897633602458        1.2681880434683990E-008
   22.000000000000000        20.000000000000000        640.00000000000000       -362.53898254743052        1.2709108432318317E-008
   22.000000000000000        20.000000000000000        670.00000000000000       -362.53898283549148        1.2722978226520354E-008
   22.000000000000000        20.000000000000000        700.00000000000000       -362.53899059217633        1.2742646049446194E-008
   22.000000000000000        20.000000000000000        70.000000000000000       -361.00312021657697        9.9193300684419228E-008
   22.000000000000000        20.000000000000000        730.00000000000000       -362.53899526917849        1.2755890566040762E-008
   22.000000000000000        20.000000000000000        760.00000000000000       -362.53899535727260        1.2751229405694176E-008
   22.000000000000000        20.000000000000000        790.00000000000000       -362.53899769574144        1.2766179224854568E-008
   22.000000000000000        20.000000000000000        820.00000000000000       -362.53899816973632        1.2757254808093421E-008
   22.000000000000000        20.000000000000000        850.00000000000000       -362.53900036928871        1.2748671451845439E-008
   22.000000000000000        20.000000000000000        880.00000000000000       -362.53900173396823        1.2737643828586442E-008
   22.000000000000000        20.000000000000000        910.00000000000000       -362.53900185723603        1.2743385013891384E-008
   22.000000000000000        20.000000000000000        940.00000000000000       -362.53900232706815        1.2744180821755435E-008
   22.000000000000000        20.000000000000000        970.00000000000000       -362.53900237843453        1.2742873423121637E-008


   28.000000000000000        20.000000000000000        1000.0000000000000       -417.91167610688939        3.7525580864894437E-008
   28.000000000000000        20.000000000000000        100.00000000000000       -417.27066424977107        6.7773783030133927E-008
   28.000000000000000        20.000000000000000        10.000000000000000       -412.06703041946145        1.2453836006898200E-007
   28.000000000000000        20.000000000000000        130.00000000000000       -417.53218178164343        5.2543896345014218E-008
   28.000000000000000        20.000000000000000        160.00000000000000       -417.79856563172052        5.0008907237497624E-008
   28.000000000000000        20.000000000000000        190.00000000000000       -417.89203763417333        3.6343465126265073E-008
   28.000000000000000        20.000000000000000        220.00000000000000       -417.89828454807025        3.4205186238978058E-008
   28.000000000000000        20.000000000000000        250.00000000000000       -417.90036423258675        3.5889343052986078E-008
   28.000000000000000        20.000000000000000        280.00000000000000       -417.90482686153524        3.5666346320795128E-008
   28.000000000000000        20.000000000000000        310.00000000000000       -417.90637925177094        3.3711444302753080E-008
   28.000000000000000        20.000000000000000        340.00000000000000       -417.90814205301609        3.5991376989841228E-008
   28.000000000000000        20.000000000000000        370.00000000000000       -417.90968538226150        3.6408209780347534E-008
   28.000000000000000        20.000000000000000        400.00000000000000       -417.91061086390835        3.4547667837614426E-008
   28.000000000000000        20.000000000000000        40.000000000000000       -414.72573550302678        8.2991448380198563E-008
   28.000000000000000        20.000000000000000        430.00000000000000       -417.91095157896012        3.6739038478117436E-008
   28.000000000000000        20.000000000000000        460.00000000000000       -417.91112447627989        3.6925996482750634E-008
   28.000000000000000        20.000000000000000        490.00000000000000       -417.91134864151394        3.7150755360926269E-008
   28.000000000000000        20.000000000000000        520.00000000000000       -417.91153997718737        3.7310314837668557E-008
   28.000000000000000        20.000000000000000        550.00000000000000       -417.91161845834131        3.7347660963860108E-008
   28.000000000000000        20.000000000000000        580.00000000000000       -417.91162123173990        3.7410927689052187E-008
   28.000000000000000        20.000000000000000        610.00000000000000       -417.91163642635411        3.7452764445333742E-008
   28.000000000000000        20.000000000000000        640.00000000000000       -417.91164755258615        3.7497784433071502E-008
   28.000000000000000        20.000000000000000        670.00000000000000       -417.91165055149173        3.7524330309679499E-008
   28.000000000000000        20.000000000000000        700.00000000000000       -417.91165985040050        3.7527172480622539E-008
   28.000000000000000        20.000000000000000        70.000000000000000       -416.46962204100549        1.2162075790911331E-007
   28.000000000000000        20.000000000000000        730.00000000000000       -417.91166004590775        3.7542804420809262E-008
   28.000000000000000        20.000000000000000        760.00000000000000       -417.91166639339497        3.7536437957896851E-008
   28.000000000000000        20.000000000000000        790.00000000000000       -417.91166884349940        3.5471032333589392E-008
   28.000000000000000        20.000000000000000        820.00000000000000       -417.91167148071639        3.7542406516877236E-008
   28.000000000000000        20.000000000000000        850.00000000000000       -417.91167347243430        3.7547749798250152E-008
   28.000000000000000        20.000000000000000        880.00000000000000       -417.91167450514280        3.7540587527473690E-008
   28.000000000000000        20.000000000000000        910.00000000000000       -417.91167515350207        3.7538939068326727E-008
   28.000000000000000        20.000000000000000        940.00000000000000       -417.91167554026816        3.7537631669692928E-008
   28.000000000000000        20.000000000000000        970.00000000000000       -417.91167607480941        3.7527570384554565E-008


   6.0000000000000000        6.0000000000000000        1000.0000000000000       -90.587692018753032       -8.7578989393932716E-007
   6.0000000000000000        6.0000000000000000        100.00000000000000       -90.288798824493512       -7.3905025033127458E-007
   6.0000000000000000        6.0000000000000000        10.000000000000000       -88.447036421875154       -8.3854877175326692E-007
   6.0000000000000000        6.0000000000000000        130.00000000000000       -90.438934174926928       -7.9024316335107869E-007
   6.0000000000000000        6.0000000000000000        160.00000000000000       -90.542582801207587       -8.3673005235596065E-007
   6.0000000000000000        6.0000000000000000        190.00000000000000       -90.581370805340867       -8.7223699551941536E-007
   6.0000000000000000        6.0000000000000000        220.00000000000000       -90.583981567061159       -8.7909819512788090E-007
   6.0000000000000000        6.0000000000000000        250.00000000000000       -90.584151374096763       -8.8275174903174047E-007
   6.0000000000000000        6.0000000000000000        280.00000000000000       -90.585288490270202       -8.7651228852791974E-007
   6.0000000000000000        6.0000000000000000        310.00000000000000       -90.586211739642636       -8.6924993070169876E-007
   6.0000000000000000        6.0000000000000000        340.00000000000000       -90.586836112561400       -8.7017062355698727E-007
   6.0000000000000000        6.0000000000000000        370.00000000000000       -90.587110437807198       -8.6905920682056603E-007
   6.0000000000000000        6.0000000000000000        400.00000000000000       -90.587205408093880       -8.6924605113836151E-007
   6.0000000000000000        6.0000000000000000        40.000000000000000       -89.724438012921439       -6.9255293055903167E-007
   6.0000000000000000        6.0000000000000000        430.00000000000000       -90.587356295297838       -8.7146790406222863E-007
   6.0000000000000000        6.0000000000000000        460.00000000000000       -90.587499044635308       -8.7333572196257592E-007
   6.0000000000000000        6.0000000000000000        490.00000000000000       -90.587603566720546       -8.7494302647428412E-007
   6.0000000000000000        6.0000000000000000        520.00000000000000       -90.587656766168280       -8.7608152909979253E-007
   6.0000000000000000        6.0000000000000000        550.00000000000000       -90.587656812856267       -8.7609990373493929E-007
   6.0000000000000000        6.0000000000000000        580.00000000000000       -90.587673935718001       -8.7662245107367198E-007
   6.0000000000000000        6.0000000000000000        610.00000000000000       -90.587676618742520       -8.7672391657633852E-007
   6.0000000000000000        6.0000000000000000        640.00000000000000       -90.587677872921049       -8.7653934599529748E-007
   6.0000000000000000        6.0000000000000000        670.00000000000000       -90.587681164928711       -8.7626281697339437E-007
   6.0000000000000000        6.0000000000000000        700.00000000000000       -90.587685859770033       -8.7589512531849323E-007
   6.0000000000000000        6.0000000000000000        70.000000000000000       -90.088844365363087       -6.9287756332414574E-007
   6.0000000000000000        6.0000000000000000        730.00000000000000       -90.587689044994818       -8.7560711392598023E-007
   6.0000000000000000        6.0000000000000000        760.00000000000000       -90.587689066134629       -8.7561762995846948E-007
   6.0000000000000000        6.0000000000000000        790.00000000000000       -90.587690492603812       -8.7547773830465303E-007
   6.0000000000000000        6.0000000000000000        820.00000000000000       -90.587690697017351       -8.7541106097432930E-007
   6.0000000000000000        6.0000000000000000        850.00000000000000       -90.587690883480846       -8.7546277427463792E-007
   6.0000000000000000        6.0000000000000000        880.00000000000000       -90.587691248564099       -8.7556979622149811E-007
   6.0000000000000000        6.0000000000000000        910.00000000000000       -90.587691325112559       -8.7559915584733972E-007
   6.0000000000000000        6.0000000000000000        940.00000000000000       -90.587691687084629       -8.7568677997751365E-007
   6.0000000000000000        6.0000000000000000        970.00000000000000       -90.587692016997821       -8.7578395380205620E-007


   126.00000000000000        82.000000000000000        1000.0000000000000       -1635.6940501637682       -8.0455947681912221E-008
   126.00000000000000        82.000000000000000        100.00000000000000       -1634.8374869177983       -6.6973370849154890E-008
   126.00000000000000        82.000000000000000        10.000000000000000       -1626.4310862715081       -9.4583128884551115E-008
   126.00000000000000        82.000000000000000        130.00000000000000       -1635.2974702642443       -7.4530817073537037E-008
   126.00000000000000        82.000000000000000        160.00000000000000       -1635.4925725529467       -7.0175474320421927E-008
   126.00000000000000        82.000000000000000        190.00000000000000       -1635.6153546628786       -7.8135144576663151E-008
   126.00000000000000        82.000000000000000        220.00000000000000       -1635.6615813962112       -7.9517349149682559E-008
   126.00000000000000        82.000000000000000        250.00000000000000       -1635.6804373349964       -7.9045548773137853E-008
   126.00000000000000        82.000000000000000        280.00000000000000       -1635.6884737939995       -7.9366827776539139E-008
   126.00000000000000        82.000000000000000        310.00000000000000       -1635.6894875978724       -8.0110339695238508E-008
   126.00000000000000        82.000000000000000        340.00000000000000       -1635.6911343398024       -8.0553945736028254E-008
   126.00000000000000        82.000000000000000        370.00000000000000       -1635.6920608724879       -8.0334757512900978E-008
   126.00000000000000        82.000000000000000        400.00000000000000       -1635.6929703172011       -8.0556446846458130E-008
   126.00000000000000        82.000000000000000        40.000000000000000       -1631.5098336776321       -7.3512183007551357E-009
   126.00000000000000        82.000000000000000        430.00000000000000       -1635.6931849971700       -8.0693098425399512E-008
   126.00000000000000        82.000000000000000        460.00000000000000       -1635.6935643178540       -8.0454128692508675E-008
   126.00000000000000        82.000000000000000        490.00000000000000       -1635.6938075444959       -8.0563950177747756E-008
   126.00000000000000        82.000000000000000        520.00000000000000       -1635.6938558821878       -8.0515519584878348E-008
   126.00000000000000        82.000000000000000        550.00000000000000       -1635.6939234123010       -8.0566223914502189E-008
   126.00000000000000        82.000000000000000        580.00000000000000       -1635.6939602467678       -8.0541212810203433E-008
   126.00000000000000        82.000000000000000        610.00000000000000       -1635.6940055593802       -8.0525069279246964E-008
   126.00000000000000        82.000000000000000        640.00000000000000       -1635.6940088599617       -8.0521431300439872E-008
   126.00000000000000        82.000000000000000        670.00000000000000       -1635.6940309651843       -8.0460495155421086E-008
   126.00000000000000        82.000000000000000        700.00000000000000       -1635.6940361969100       -8.0486643128097057E-008
   126.00000000000000        82.000000000000000        70.000000000000000       -1633.7622570871472       -2.2613221517531201E-008
   126.00000000000000        82.000000000000000        730.00000000000000       -1635.6940404840900       -8.0439122029929422E-008
   126.00000000000000        82.000000000000000        760.00000000000000       -1635.6940427052491       -8.0462996265850961E-008
   126.00000000000000        82.000000000000000        790.00000000000000       -1635.6940455310541       -8.0429117588209920E-008
   126.00000000000000        82.000000000000000        820.00000000000000       -1635.6940463550156       -8.0436848293174990E-008
   126.00000000000000        82.000000000000000        850.00000000000000       -1635.6940476860236       -8.0461632023798302E-008
   126.00000000000000        82.000000000000000        880.00000000000000       -1635.6940484238964       -8.0401377999805845E-008
   126.00000000000000        82.000000000000000        910.00000000000000       -1635.6940491437149       -8.0411382441525348E-008
   126.00000000000000        82.000000000000000        940.00000000000000       -1635.6940495101787       -8.0397740020998754E-008
   126.00000000000000        82.000000000000000        970.00000000000000       -1635.6940498744782       -8.0465270002605394E-008


   8.0000000000000000        8.0000000000000000        1000.0000000000000       -128.49796842212263        2.7724297524400754E-008
   8.0000000000000000        8.0000000000000000        100.00000000000000       -127.91189057426051        2.3557973349852546E-008
   8.0000000000000000        8.0000000000000000        10.000000000000000       -122.66107661784994        1.2250882264197571E-007
   8.0000000000000000        8.0000000000000000        130.00000000000000       -128.34334274106163        2.7993536377834971E-008
   8.0000000000000000        8.0000000000000000        160.00000000000000       -128.47776531743125        2.2968350776864099E-008
   8.0000000000000000        8.0000000000000000        190.00000000000000       -128.48493378256597        2.2184451609064126E-008
   8.0000000000000000        8.0000000000000000        220.00000000000000       -128.48673784918893        2.3337378252108465E-008
   8.0000000000000000        8.0000000000000000        250.00000000000000       -128.49020379369210        2.3767768198013073E-008
   8.0000000000000000        8.0000000000000000        280.00000000000000       -128.49391828554690        2.6493580662645400E-008
   8.0000000000000000        8.0000000000000000        310.00000000000000       -128.49468308409385        2.4453242986055557E-008
   8.0000000000000000        8.0000000000000000        340.00000000000000       -128.49519339897839        2.5143179982478614E-008
   8.0000000000000000        8.0000000000000000        370.00000000000000       -128.49619947178826        2.5851193186099408E-008
   8.0000000000000000        8.0000000000000000        400.00000000000000       -128.49696080424206        2.6529164642852265E-008
   8.0000000000000000        8.0000000000000000        40.000000000000000       -126.91639625632763        1.3932975662100944E-008
   8.0000000000000000        8.0000000000000000        430.00000000000000       -128.49753213640793        2.6974760203302139E-008
   8.0000000000000000        8.0000000000000000        460.00000000000000       -128.49781965296131        2.7211171982344240E-008
   8.0000000000000000        8.0000000000000000        490.00000000000000       -128.49790409125595        2.7317526019032812E-008
   8.0000000000000000        8.0000000000000000        520.00000000000000       -128.49791068505269        2.7357714316167403E-008
   8.0000000000000000        8.0000000000000000        550.00000000000000       -128.49791427601807        2.7394577273298637E-008
   8.0000000000000000        8.0000000000000000        580.00000000000000       -128.49792939458300        2.7423453730079927E-008
   8.0000000000000000        8.0000000000000000        610.00000000000000       -128.49794414415894        2.7458099793875590E-008
   8.0000000000000000        8.0000000000000000        640.00000000000000       -128.49795162998586        2.7510651534612407E-008
   8.0000000000000000        8.0000000000000000        670.00000000000000       -128.49795408751496        2.7580057349041454E-008
   8.0000000000000000        8.0000000000000000        700.00000000000000       -128.49795589543842        2.7569086569201318E-008
   8.0000000000000000        8.0000000000000000        70.000000000000000       -127.40803222957886        3.7079104231452220E-009
   8.0000000000000000        8.0000000000000000        730.00000000000000       -128.49795777152559        2.7633689114736626E-008
   8.0000000000000000        8.0000000000000000        760.00000000000000       -128.49796090990506        2.7678225933414069E-008
   8.0000000000000000        8.0000000000000000        790.00000000000000       -128.49796411901400        2.7716595241145114E-008
   8.0000000000000000        8.0000000000000000        820.00000000000000       -128.49796690223414        2.7729612384064239E-008
   8.0000000000000000        8.0000000000000000        850.00000000000000       -128.49796698445408        2.7733818797059939E-008
   8.0000000000000000        8.0000000000000000        880.00000000000000       -128.49796811561149        2.7742117936213617E-008
   8.0000000000000000        8.0000000000000000        910.00000000000000       -128.49796836198908        2.7729981866286835E-008
   8.0000000000000000        8.0000000000000000        940.00000000000000       -128.49796836220631        2.7734415652957978E-008
   8.0000000000000000        8.0000000000000000        970.00000000000000       -128.49796836501719        2.7724013307306450E-008
