\relax 
\citation{ben03}
\citation{sky59,vau72}
\citation{gog75,dec80}
\citation{ber77,nak03}
\citation{gor09,gor09b}
\citation{ber07,ter08}
\citation{dut12}
\citation{bal97}
\citation{heb11,gez13}
\citation{bog05,rot08}
\Newlabel{1}{a}
\Newlabel{2}{b}
\Newlabel{3}{c}
\Newlabel{4}{d}
\@writefile{toc}{\contentsline {section}{\numberline {1}Introduction}{1}}
\citation{les07,Ang11,fia02}
\citation{bal12}
\citation{bal97}
\citation{sta77,oni78}
\citation{ots06}
\citation{sag14}
\citation{car08,rai11}
\citation{sky59,kor13}
\citation{car10}
\citation{dec80}
\citation{Ang11,Ang12,Gra13}
\citation{vau72}
\citation{vau72}
\citation{Gra13}
\citation{Gra13}
\citation{dec80,cha08,gor09b}
\citation{cha15}
\@writefile{toc}{\contentsline {section}{\numberline {2}Effective NN interactions}{3}}
\newlabel{sect:interactions}{{2}{3}}
\@writefile{toc}{\contentsline {subsection}{\numberline {2.1}Gogny's interaction}{3}}
\newlabel{eq:gog}{{1}{3}}
\newlabel{gog:cen}{{2}{3}}
\newlabel{gog:so}{{3}{3}}
\newlabel{gog:dd}{{4}{3}}
\newlabel{gog:ten}{{5}{3}}
\citation{ber77}
\citation{nak03,nak08,nak13}
\citation{ana83}
\citation{nak03}
\citation{nak08}
\citation{nak13}
\citation{nak03,nak08,nak13}
\@writefile{toc}{\contentsline {subsection}{\numberline {2.2}Nakada's M3Y interaction}{4}}
\newlabel{eq:m3y}{{7}{4}}
\newlabel{nak:cen}{{8}{4}}
\newlabel{nak:ten}{{9}{4}}
\citation{car08,rai11,dav14c}
\citation{ben03}
\citation{dav14c,Dav15,Dav15AA,Dav16}
\@writefile{toc}{\contentsline {subsection}{\numberline {2.3}N3LO}{5}}
\newlabel{eq:N3LO:c}{{13}{5}}
\newlabel{eq:N3LO:t}{{14}{5}}
\citation{sel14}
\citation{bal97}
\citation{bal97}
\citation{bal97}
\@writefile{toc}{\contentsline {section}{\numberline {3}Equation of state and its decompositions}{6}}
\newlabel{sect:decomposition}{{3}{6}}
\newlabel{eq:hf}{{17}{6}}
\newlabel{eq:potener}{{18}{6}}
\@writefile{lof}{\contentsline {figure}{\numberline {1}{\ignorespaces (Colors online) Equations of state of SNM for the M3Y (panel a) and Gogny (panel b). The lines represent the result obtained with the two effective interactions discussed in this article while the empty squares represent the EoS obtained in \cite  {bal97}.}}{6}}
\newlabel{fig:EoS}{{1}{6}}
\citation{cha97}
\@writefile{toc}{\contentsline {subsection}{\numberline {3.1}Decomposition in spin-isospin $(S,T)$ channels}{7}}
\newlabel{sect:STchannels}{{3.1}{7}}
\@writefile{lof}{\contentsline {figure}{\numberline {2}{\ignorespaces (Colors online) Same as Fig.\nobreakspace  {}1\hbox {} but for PNM.}}{8}}
\newlabel{fig:PNM}{{2}{8}}
\@writefile{lof}{\contentsline {figure}{\numberline {3}{\ignorespaces (Colors online) Same as in Fig.\nobreakspace  {}1\hbox {} but for the $(S,T)$ channels. {\bf  JN: It is not exactly so. Write panel X for M3Y and panel Y for Gogny. Alternatively, put M3Y and Gogny in the title for each figure.}}}{8}}
\newlabel{fig:STchannel}{{3}{8}}
\citation{les06}
\citation{Dav15AA}
\citation{bal97}
\citation{bal97}
\citation{dav14k}
\citation{car08,rai11,dav14c}
\@writefile{lof}{\contentsline {figure}{\numberline {4}{\ignorespaces (Colors online) $(S,T)$ channels of the EoS obtained with the Gogny interaction when a third gaussian is added. The symbols are from \cite  {bal97}. See text for details.}}{9}}
\newlabel{fig:fitG}{{4}{9}}
\@writefile{toc}{\contentsline {subsection}{\numberline {3.2}Decomposition in $(S,L,J)$ partial waves}{9}}
\newlabel{sect:partialwaves}{{3.2}{9}}
\citation{bal97}
\citation{bal97}
\citation{bal97}
\citation{Dav15PRL}
\citation{Gra13}
\citation{Pas14L,prep}
\newlabel{eq:jls:truncated}{{20}{10}}
\newlabel{deltas:gog}{{21}{10}}
\citation{bal97}
\citation{bal97}
\citation{bal97}
\citation{Pas14L}
\@writefile{lof}{\contentsline {figure}{\numberline {5}{\ignorespaces (Colors online) EoS in SNM for the D1S interaction (dots) and sum of different partial waves (left). Comparison between the EoS obtained using full HF calculations Eq.\nobreakspace  {}17\hbox {} (symbols) and the Eq.\nobreakspace  {}20\hbox {} truncated (dashed-lines) at $L=3$ (right). See text for details.}}{11}}
\newlabel{Eos:convergence}{{5}{11}}
\citation{sky59}
\citation{Dav15}
\@writefile{lof}{\contentsline {figure}{\numberline {6}{\ignorespaces (Colors online) Partial wave decomposition of EoS in SNM for the different Gogny interactions (lines) and the BHF calculations (symbols)\nobreakspace  {}\cite  {bal97}. See text for details.}}{12}}
\newlabel{JLST:gog}{{6}{12}}
\@writefile{toc}{\contentsline {section}{\numberline {4}From finite-range to zero-range}{12}}
\newlabel{sect:finitezero}{{4}{12}}
\@writefile{lof}{\contentsline {figure}{\numberline {7}{\ignorespaces (Colors online) Difference of partial waves for BHF results (dots) and Gogny interactions (lines). The legend is the same as in Fig.6\hbox {}. See text for details.}}{13}}
\newlabel{deltas:gog}{{7}{13}}
\@writefile{toc}{\contentsline {subsection}{\numberline {4.1}Local gauge invariance}{13}}
\newlabel{eq:cont}{{24}{13}}
\@writefile{lof}{\contentsline {figure}{\numberline {8}{\ignorespaces (Colors online) Partial wave decomposition of EoS in SNM for the different M3Y interactions (solid lines) and the BHF calculations (symbols)\nobreakspace  {}\cite  {bal97}.}}{14}}
\newlabel{JLST}{{8}{14}}
\newlabel{eq:Etilde}{{28}{14}}
\citation{rai11b}
\@writefile{lof}{\contentsline {figure}{\numberline {9}{\ignorespaces (Colors online) Difference of partial waves for BHF results (dots) and M3Y interactions (lines). The legend is the same as in Fig.8\hbox {}. See text for details.}}{15}}
\newlabel{deltas:M3Y}{{9}{15}}
\newlabel{eq:Ttilde}{{29}{15}}
\@writefile{toc}{\contentsline {subsection}{\numberline {4.2}M3Y}{15}}
\newlabel{central:kk}{{30}{15}}
\newlabel{eq:vcen|:exp}{{31}{16}}
\newlabel{eq:vtenkk}{{33}{16}}
\citation{bel59}
\citation{car08}
\citation{car08,rai11}
\newlabel{eq:soN}{{35}{17}}
\newlabel{central:kk:so}{{36}{17}}
\@writefile{toc}{\contentsline {subsection}{\numberline {4.3}Gogny interaction}{17}}
\newlabel{eq:cenG}{{36}{17}}
\newlabel{eq:reconstruction}{{39}{18}}
\@writefile{toc}{\contentsline {section}{\numberline {5}Conclusion}{18}}
\newlabel{sect:conclusions}{{5}{18}}
\citation{abr64}
\@writefile{toc}{\let\numberline\tmptocnumberline}
\@writefile{toc}{\contentsline {section}{\numberline {Appendix \nobreakspace  {}A}Symmetric nuclear matter and pure neutron matter potential energies}{19}}
\newlabel{app:EOS}{{Appendix \nobreakspace  {}A}{19}}
\@writefile{toc}{\contentsline {section}{\numberline {Appendix \nobreakspace  {}B}Contributions to the $(S,T)$ channels in symmetric nuclear matter}{20}}
\newlabel{app:ST}{{Appendix \nobreakspace  {}B}{20}}
\citation{car08,rai11}
\@writefile{toc}{\contentsline {section}{\numberline {Appendix \nobreakspace  {}C}Partial wave decomposition in symmetric nuclear matter}{22}}
\newlabel{app:aux}{{Appendix \nobreakspace  {}C}{22}}
\newlabel{spin1:gog}{{C.1}{22}}
\citation{abr64}
\citation{abr64}
\citation{Dav15}
\bibstyle{elsarticle-num}
\bibdata{biblio}
\bibcite{ben03}{{1}{}{{}}{{}}}
\bibcite{sky59}{{2}{}{{}}{{}}}
\bibcite{vau72}{{3}{}{{}}{{}}}
\bibcite{gog75}{{4}{}{{}}{{}}}
\bibcite{dec80}{{5}{}{{}}{{}}}
\bibcite{ber77}{{6}{}{{}}{{}}}
\bibcite{nak03}{{7}{}{{}}{{}}}
\bibcite{gor09}{{8}{}{{}}{{}}}
\bibcite{gor09b}{{9}{}{{}}{{}}}
\bibcite{ber07}{{10}{}{{}}{{}}}
\bibcite{ter08}{{11}{}{{}}{{}}}
\bibcite{dut12}{{12}{}{{}}{{}}}
\bibcite{bal97}{{13}{}{{}}{{}}}
\bibcite{heb11}{{14}{}{{}}{{}}}
\bibcite{gez13}{{15}{}{{}}{{}}}
\bibcite{bog05}{{16}{}{{}}{{}}}
\bibcite{rot08}{{17}{}{{}}{{}}}
\bibcite{les07}{{18}{}{{}}{{}}}
\bibcite{Ang11}{{19}{}{{}}{{}}}
\bibcite{fia02}{{20}{}{{}}{{}}}
\bibcite{bal12}{{21}{}{{}}{{}}}
\bibcite{sta77}{{22}{}{{}}{{}}}
\bibcite{oni78}{{23}{}{{}}{{}}}
\bibcite{ots06}{{24}{}{{}}{{}}}
\bibcite{sag14}{{25}{}{{}}{{}}}
\bibcite{car08}{{26}{}{{}}{{}}}
\bibcite{rai11}{{27}{}{{}}{{}}}
\bibcite{kor13}{{28}{}{{}}{{}}}
\bibcite{car10}{{29}{}{{}}{{}}}
\bibcite{Ang12}{{30}{}{{}}{{}}}
\bibcite{Gra13}{{31}{}{{}}{{}}}
\bibcite{cha08}{{32}{}{{}}{{}}}
\bibcite{cha15}{{33}{}{{}}{{}}}
\bibcite{nak08}{{34}{}{{}}{{}}}
\bibcite{nak13}{{35}{}{{}}{{}}}
\bibcite{ana83}{{36}{}{{}}{{}}}
\bibcite{dav14c}{{37}{}{{}}{{}}}
\bibcite{Dav15}{{38}{}{{}}{{}}}
\bibcite{Dav15AA}{{39}{}{{}}{{}}}
\bibcite{Dav16}{{40}{}{{}}{{}}}
\bibcite{sel14}{{41}{}{{}}{{}}}
\bibcite{cha97}{{42}{}{{}}{{}}}
\bibcite{les06}{{43}{}{{}}{{}}}
\bibcite{dav14k}{{44}{}{{}}{{}}}
\bibcite{Dav15PRL}{{45}{}{{}}{{}}}
\bibcite{Pas14L}{{46}{}{{}}{{}}}
\bibcite{prep}{{47}{}{{}}{{}}}
\bibcite{rai11b}{{48}{}{{}}{{}}}
\bibcite{bel59}{{49}{}{{}}{{}}}
\bibcite{abr64}{{50}{}{{}}{{}}}
\providecommand\NAT@force@numbers{}\NAT@force@numbers
