\relax 
\citation{ben03}
\citation{sky59}
\citation{dec80}
\citation{ber77}
\citation{gor09,gor09b}
\citation{ber07,ter08}
\citation{dut12}
\citation{bal97}
\citation{heb11,gez13}
\citation{bog05,rot08}
\citation{les07,Ang11,fia02}
\Newlabel{1}{a}
\Newlabel{2}{b}
\Newlabel{3}{c}
\Newlabel{4}{d}
\@writefile{toc}{\contentsline {section}{\numberline {1}Introduction}{1}}
\citation{ots06}
\citation{bal12}
\citation{bal97}
\citation{car08,rai11}
\citation{sky59,kor13}
\citation{car10}
\citation{ber77}
\citation{nak03}
\@writefile{toc}{\contentsline {section}{\numberline {2}Effective NN interactions}{2}}
\newlabel{sect:interactions}{{2}{2}}
\citation{ana83}
\citation{nak03}
\citation{vau72}
\citation{nak08}
\citation{nak03,nak08,Nak13}
\@writefile{toc}{\contentsline {subsection}{\numberline {2.1}M3Y}{3}}
\newlabel{eq:m3y}{{1}{3}}
\newlabel{nak:cen}{{2}{3}}
\newlabel{nak:ten}{{3}{3}}
\citation{dec80}
\citation{Ang11,Ang12,Gra13}
\citation{vau72}
\citation{Gra13}
\citation{dec80,cha08,gor09b}
\citation{cha15}
\citation{Gra13}
\citation{car08,rai11,dav14c}
\@writefile{toc}{\contentsline {subsection}{\numberline {2.2}Gogny}{4}}
\newlabel{eq:gog}{{7}{4}}
\newlabel{gog:cen}{{8}{4}}
\newlabel{gog:so}{{9}{4}}
\newlabel{gog:ten}{{10}{4}}
\newlabel{gog:dd}{{11}{4}}
\citation{ben03}
\citation{dav14c,Dav15,Dav15AA}
\@writefile{toc}{\contentsline {subsection}{\numberline {2.3}N3LO}{5}}
\newlabel{eq:N3LO:c}{{13}{5}}
\newlabel{eq:N3LO:t}{{14}{5}}
\citation{sel14}
\citation{bal97}
\citation{bal97}
\citation{bal97}
\citation{cha97}
\@writefile{toc}{\contentsline {section}{\numberline {3}Equation of state and its decompositions}{6}}
\newlabel{sect:decomposition}{{3}{6}}
\newlabel{eq:hf}{{17}{6}}
\newlabel{eq:potener}{{18}{6}}
\@writefile{lof}{\contentsline {figure}{\numberline {1}{\ignorespaces (Colors online) Equations of state of SNM for the M3Y (panel a) and Gogny (panel b). The lines represent the result obtained with the two effective interactions discussed in this article while the empty squares represent the EoS obtained in \cite  {bal97}.}}{6}}
\newlabel{fig:EoS}{{1}{6}}
\citation{les06}
\citation{Dav15AA}
\@writefile{lof}{\contentsline {figure}{\numberline {2}{\ignorespaces (Colors online) Same as Fig.\nobreakspace  {}1\hbox {} but for PNM.}}{7}}
\newlabel{fig:PNM}{{2}{7}}
\@writefile{toc}{\contentsline {subsection}{\numberline {3.1}Decomposition in spin-isospin channels}{7}}
\newlabel{sect:STchannels}{{3.1}{7}}
\citation{bal97}
\citation{bal97}
\citation{dav14k}
\citation{car08,rai11,dav14c}
\citation{bal97}
\@writefile{lof}{\contentsline {figure}{\numberline {3}{\ignorespaces (Colors online) Same as in Fig.\nobreakspace  {}1\hbox {} but for the $(S,T)$ channels.}}{8}}
\newlabel{fig:STchannel}{{3}{8}}
\@writefile{lof}{\contentsline {figure}{\numberline {4}{\ignorespaces (Colors online) $(S,T)$ channels of the EoS obtained with the Gogny interaction when a third gaussian is added. The symbols are from \cite  {bal97}. See text for details.}}{8}}
\newlabel{fig:fitG}{{4}{8}}
\@writefile{toc}{\contentsline {subsection}{\numberline {3.2}Decomposition in partial waves}{8}}
\newlabel{sect:partialwaves}{{3.2}{8}}
\newlabel{eq:jls:truncated}{{20}{8}}
\citation{bal97}
\citation{bal97}
\citation{Dav15PRL}
\citation{Gra13}
\citation{Pas14L,prep}
\@writefile{lof}{\contentsline {figure}{\numberline {5}{\ignorespaces (Colors online) EoS in SNM for the D1S interaction (dots) and sum of different partial waves (left). Comparison between the EoS obtained using full HF calculations Eq.\nobreakspace  {}17\hbox {} (symbols) and the Eq.\nobreakspace  {}20\hbox {} truncated (dashed-lines) at $L=3$ (right). See text for details.}}{9}}
\newlabel{Eos:convergence}{{5}{9}}
\newlabel{deltas:gog}{{21}{9}}
\citation{bal97}
\citation{bal97}
\citation{bal97}
\citation{Pas14L}
\@writefile{lof}{\contentsline {figure}{\numberline {6}{\ignorespaces (Colors online) Partial wave decomposition of EoS in SNM for the different Gogny interactions (lines) and the BHF calculations (symbols)\nobreakspace  {}\cite  {bal97}. See text for details.}}{10}}
\newlabel{JLST:gog}{{6}{10}}
\citation{sky59}
\citation{Dav15}
\@writefile{lof}{\contentsline {figure}{\numberline {7}{\ignorespaces (Colors online) Difference of partial waves for BHF results (dots) and Gogny interactions (lines). The legend is the same as in Fig.6\hbox {}. See text for details.}}{11}}
\newlabel{deltas:gog}{{7}{11}}
\@writefile{toc}{\contentsline {section}{\numberline {4}From finite-range to zero-range}{11}}
\newlabel{sect:finitezero}{{4}{11}}
\@writefile{lof}{\contentsline {figure}{\numberline {8}{\ignorespaces (Colors online) Partial wave decomposition of EoS in SNM for the different M3Y interactions (solid lines) and the BHF calculations (symbols)\nobreakspace  {}\cite  {bal97}.}}{12}}
\newlabel{JLST}{{8}{12}}
\@writefile{toc}{\contentsline {subsection}{\numberline {4.1}Local gauge invariance}{12}}
\newlabel{eq:cont}{{24}{12}}
\@writefile{lof}{\contentsline {figure}{\numberline {9}{\ignorespaces (Colors online) Difference of partial waves for BHF results (dots) and M3Y interactions (lines). The legend is the same as in Fig.8\hbox {}. See text for details.}}{13}}
\newlabel{deltas:M3Y}{{9}{13}}
\newlabel{eq:Etilde}{{28}{13}}
\citation{rai11b}
\newlabel{eq:Ttilde}{{29}{14}}
\@writefile{toc}{\contentsline {subsection}{\numberline {4.2}M3Y}{14}}
\newlabel{central:kk}{{30}{14}}
\newlabel{eq:vcen|:exp}{{31}{14}}
\newlabel{eq:vtenkk}{{33}{14}}
\citation{bel59}
\citation{car08}
\citation{car08,rai11}
\newlabel{eq:soN}{{35}{15}}
\newlabel{central:kk:so}{{36}{15}}
\@writefile{toc}{\contentsline {subsection}{\numberline {4.3}Gogny interaction}{16}}
\newlabel{eq:cenG}{{36}{16}}
\newlabel{eq:reconstruction}{{39}{16}}
\@writefile{toc}{\contentsline {section}{\numberline {5}Conclusion}{17}}
\@writefile{toc}{\let\numberline\tmptocnumberline}
\@writefile{toc}{\contentsline {section}{\numberline {Appendix \nobreakspace  {}A}Symmetric nuclear matter and pure neutron matter EoS}{17}}
\newlabel{app:EOS}{{Appendix \nobreakspace  {}A}{17}}
\@writefile{toc}{\contentsline {section}{\numberline {Appendix \nobreakspace  {}B}Contributions to the $(S,T)$ channels}{18}}
\newlabel{app:ST}{{Appendix \nobreakspace  {}B}{18}}
\citation{abr64}
\citation{car08,rai11}
\@writefile{toc}{\contentsline {section}{\numberline {Appendix \nobreakspace  {}C}Partial wave decomposition}{20}}
\citation{abr64}
\newlabel{spin1:gog}{{C.1}{22}}
\citation{abr64}
\citation{Dav15}
\bibstyle{elsarticle-num}
\bibdata{biblio}
\bibcite{ben03}{{1}{}{{}}{{}}}
\bibcite{sky59}{{2}{}{{}}{{}}}
\bibcite{dec80}{{3}{}{{}}{{}}}
\bibcite{ber77}{{4}{}{{}}{{}}}
\bibcite{gor09}{{5}{}{{}}{{}}}
\bibcite{gor09b}{{6}{}{{}}{{}}}
\bibcite{ber07}{{7}{}{{}}{{}}}
\bibcite{ter08}{{8}{}{{}}{{}}}
\bibcite{dut12}{{9}{}{{}}{{}}}
\bibcite{coe70}{{10}{}{{}}{{}}}
\bibcite{bal97}{{11}{}{{}}{{}}}
\bibcite{heb11}{{12}{}{{}}{{}}}
\bibcite{gez13}{{13}{}{{}}{{}}}
\bibcite{bog05}{{14}{}{{}}{{}}}
\bibcite{rot08}{{15}{}{{}}{{}}}
\bibcite{les07}{{16}{}{{}}{{}}}
\bibcite{Ang11}{{17}{}{{}}{{}}}
\bibcite{fia02}{{18}{}{{}}{{}}}
\bibcite{ots06}{{19}{}{{}}{{}}}
\bibcite{car08}{{20}{}{{}}{{}}}
\bibcite{rai11}{{21}{}{{}}{{}}}
\bibcite{kor13}{{22}{}{{}}{{}}}
\bibcite{car10}{{23}{}{{}}{{}}}
\bibcite{nak03}{{24}{}{{}}{{}}}
\bibcite{ana83}{{25}{}{{}}{{}}}
\bibcite{vau72}{{26}{}{{}}{{}}}
\bibcite{nak08}{{27}{}{{}}{{}}}
\bibcite{Nak13}{{28}{}{{}}{{}}}
\bibcite{Ang12}{{29}{}{{}}{{}}}
\bibcite{Gra13}{{30}{}{{}}{{}}}
\bibcite{cha08}{{31}{}{{}}{{}}}
\bibcite{cha15}{{32}{}{{}}{{}}}
\bibcite{dav14c}{{33}{}{{}}{{}}}
\bibcite{Dav15}{{34}{}{{}}{{}}}
\bibcite{Dav15AA}{{35}{}{{}}{{}}}
\bibcite{sel14}{{36}{}{{}}{{}}}
\bibcite{cha97}{{37}{}{{}}{{}}}
\bibcite{les06}{{38}{}{{}}{{}}}
\bibcite{dav14k}{{39}{}{{}}{{}}}
\bibcite{Dav15PRL}{{40}{}{{}}{{}}}
\bibcite{Pas14L}{{41}{}{{}}{{}}}
\bibcite{prep}{{42}{}{{}}{{}}}
\bibcite{rai11b}{{43}{}{{}}{{}}}
\bibcite{bel59}{{44}{}{{}}{{}}}
\bibcite{abr64}{{45}{}{{}}{{}}}
\providecommand\NAT@force@numbers{}\NAT@force@numbers
