   0.025    0.126372E+00    0.434844E-01    0.169856E+00    0.828874E-01
   0.075    0.126204E+00    0.435916E-01    0.169796E+00    0.826124E-01
   0.125    0.125870E+00    0.438050E-01    0.169675E+00    0.820650E-01
   0.175    0.125374E+00    0.441231E-01    0.169497E+00    0.812508E-01
   0.225    0.124721E+00    0.445432E-01    0.169264E+00    0.801778E-01
   0.275    0.123919E+00    0.450620E-01    0.168981E+00    0.788566E-01
   0.325    0.122976E+00    0.456753E-01    0.168651E+00    0.773006E-01
   0.375    0.121903E+00    0.463780E-01    0.168281E+00    0.755251E-01
   0.425    0.120712E+00    0.471643E-01    0.167876E+00    0.735479E-01
   0.475    0.119416E+00    0.480273E-01    0.167443E+00    0.713886E-01
   0.525    0.118029E+00    0.489597E-01    0.166988E+00    0.690689E-01
   0.575    0.116565E+00    0.499531E-01    0.166518E+00    0.666117E-01
   0.625    0.115040E+00    0.509986E-01    0.166039E+00    0.640416E-01
   0.675    0.113471E+00    0.520867E-01    0.165557E+00    0.613838E-01
   0.725    0.111872E+00    0.532073E-01    0.165079E+00    0.586647E-01
   0.775    0.110261E+00    0.543499E-01    0.164611E+00    0.559108E-01
   0.825    0.108652E+00    0.555036E-01    0.164156E+00    0.531488E-01
   0.875    0.107063E+00    0.566574E-01    0.163720E+00    0.504051E-01
   0.925    0.105506E+00    0.578003E-01    0.163306E+00    0.477058E-01
   0.975    0.103997E+00    0.589212E-01    0.162918E+00    0.450757E-01
   1.025    0.102548E+00    0.600095E-01    0.162557E+00    0.425386E-01
   1.075    0.101172E+00    0.610549E-01    0.162226E+00    0.401167E-01
   1.125    0.998781E-01    0.620477E-01    0.161926E+00    0.378304E-01
   1.175    0.986770E-01    0.629790E-01    0.161656E+00    0.356981E-01
   1.225    0.975762E-01    0.638406E-01    0.161417E+00    0.337356E-01
   1.275    0.965819E-01    0.646255E-01    0.161207E+00    0.319564E-01
   1.325    0.956991E-01    0.653276E-01    0.161027E+00    0.303714E-01
   1.375    0.949308E-01    0.659422E-01    0.160873E+00    0.289886E-01
   1.425    0.942787E-01    0.664656E-01    0.160744E+00    0.278131E-01
   1.475    0.937430E-01    0.668956E-01    0.160639E+00    0.268474E-01
   1.525    0.933220E-01    0.672310E-01    0.160553E+00    0.260910E-01
   1.575    0.930131E-01    0.674723E-01    0.160485E+00    0.255408E-01
   1.625    0.928118E-01    0.676208E-01    0.160433E+00    0.251910E-01
   1.675    0.927127E-01    0.676792E-01    0.160392E+00    0.250335E-01
   1.725    0.927092E-01    0.676513E-01    0.160361E+00    0.250579E-01
   1.775    0.927936E-01    0.675419E-01    0.160335E+00    0.252517E-01
   1.825    0.929573E-01    0.673565E-01    0.160314E+00    0.256009E-01
   1.875    0.931913E-01    0.671015E-01    0.160293E+00    0.260898E-01
   1.925    0.934856E-01    0.667839E-01    0.160270E+00    0.267017E-01
   1.975    0.938301E-01    0.664113E-01    0.160241E+00    0.274188E-01
   2.025    0.942144E-01    0.659913E-01    0.160206E+00    0.282231E-01
   2.075    0.946281E-01    0.655321E-01    0.160160E+00    0.290959E-01
   2.125    0.950607E-01    0.650418E-01    0.160103E+00    0.300189E-01
   2.175    0.955020E-01    0.645284E-01    0.160030E+00    0.309736E-01
   2.225    0.959424E-01    0.639999E-01    0.159942E+00    0.319425E-01
   2.275    0.963725E-01    0.634637E-01    0.159836E+00    0.329088E-01
   2.325    0.967837E-01    0.629273E-01    0.159711E+00    0.338564E-01
   2.375    0.971681E-01    0.623974E-01    0.159565E+00    0.347708E-01
   2.425    0.975186E-01    0.618801E-01    0.159399E+00    0.356385E-01
   2.475    0.978292E-01    0.613813E-01    0.159210E+00    0.364478E-01
   2.525    0.980944E-01    0.609059E-01    0.159000E+00    0.371885E-01
   2.575    0.983103E-01    0.604582E-01    0.158768E+00    0.378521E-01
   2.625    0.984736E-01    0.600417E-01    0.158515E+00    0.384319E-01
   2.675    0.985821E-01    0.596594E-01    0.158241E+00    0.389228E-01
   2.725    0.986349E-01    0.593132E-01    0.157948E+00    0.393217E-01
   2.775    0.986317E-01    0.590045E-01    0.157636E+00    0.396272E-01
   2.825    0.985733E-01    0.587337E-01    0.157307E+00    0.398396E-01
   2.875    0.984616E-01    0.585007E-01    0.156962E+00    0.399609E-01
   2.925    0.982990E-01    0.583044E-01    0.156603E+00    0.399945E-01
   2.975    0.980887E-01    0.581434E-01    0.156232E+00    0.399454E-01
   3.025    0.978346E-01    0.580151E-01    0.155850E+00    0.398195E-01
   3.075    0.975411E-01    0.579167E-01    0.155458E+00    0.396244E-01
   3.125    0.972129E-01    0.578448E-01    0.155058E+00    0.393681E-01
   3.175    0.968549E-01    0.577952E-01    0.154650E+00    0.390597E-01
   3.225    0.964724E-01    0.577637E-01    0.154236E+00    0.387087E-01
   3.275    0.960706E-01    0.577455E-01    0.153816E+00    0.383251E-01
   3.325    0.956543E-01    0.577354E-01    0.153390E+00    0.379189E-01
   3.375    0.952286E-01    0.577283E-01    0.152957E+00    0.375003E-01
   3.425    0.947978E-01    0.577187E-01    0.152516E+00    0.370791E-01
   3.475    0.943659E-01    0.577012E-01    0.152067E+00    0.366647E-01
   3.525    0.939363E-01    0.576704E-01    0.151607E+00    0.362659E-01
   3.575    0.935120E-01    0.576211E-01    0.151133E+00    0.358910E-01
   3.625    0.930950E-01    0.575480E-01    0.150643E+00    0.355470E-01
   3.675    0.926866E-01    0.574465E-01    0.150133E+00    0.352402E-01
   3.725    0.922875E-01    0.573118E-01    0.149599E+00    0.349757E-01
   3.775    0.918974E-01    0.571400E-01    0.149037E+00    0.347574E-01
   3.825    0.915153E-01    0.569272E-01    0.148442E+00    0.345881E-01
   3.875    0.911393E-01    0.566701E-01    0.147809E+00    0.344692E-01
   3.925    0.907669E-01    0.563659E-01    0.147133E+00    0.344010E-01
   3.975    0.903948E-01    0.560122E-01    0.146407E+00    0.343826E-01
   4.025    0.900191E-01    0.556072E-01    0.145626E+00    0.344118E-01
   4.075    0.896353E-01    0.551496E-01    0.144785E+00    0.344857E-01
   4.125    0.892387E-01    0.546385E-01    0.143877E+00    0.346002E-01
   4.175    0.888237E-01    0.540734E-01    0.142897E+00    0.347503E-01
   4.225    0.883850E-01    0.534544E-01    0.141839E+00    0.349306E-01
   4.275    0.879168E-01    0.527820E-01    0.140699E+00    0.351348E-01
   4.325    0.874133E-01    0.520569E-01    0.139470E+00    0.353564E-01
   4.375    0.868689E-01    0.512804E-01    0.138149E+00    0.355885E-01
   4.425    0.862778E-01    0.504538E-01    0.136732E+00    0.358240E-01
   4.475    0.856348E-01    0.495789E-01    0.135214E+00    0.360560E-01
   4.525    0.849349E-01    0.486576E-01    0.133592E+00    0.362774E-01
   4.575    0.841734E-01    0.476919E-01    0.131865E+00    0.364815E-01
   4.625    0.833462E-01    0.466842E-01    0.130030E+00    0.366620E-01
   4.675    0.824495E-01    0.456368E-01    0.128086E+00    0.368128E-01
   4.725    0.814804E-01    0.445521E-01    0.126033E+00    0.369283E-01
   4.775    0.804364E-01    0.434328E-01    0.123869E+00    0.370035E-01
   4.825    0.793155E-01    0.422814E-01    0.121597E+00    0.370341E-01
   4.875    0.781166E-01    0.411006E-01    0.119217E+00    0.370160E-01
   4.925    0.768392E-01    0.398930E-01    0.116732E+00    0.369462E-01
   4.975    0.754834E-01    0.386615E-01    0.114145E+00    0.368219E-01
   5.025    0.740499E-01    0.374087E-01    0.111459E+00    0.366412E-01
   5.075    0.725403E-01    0.361376E-01    0.108678E+00    0.364027E-01
   5.125    0.709567E-01    0.348511E-01    0.105808E+00    0.361056E-01
   5.175    0.693017E-01    0.335521E-01    0.102854E+00    0.357496E-01
   5.225    0.675787E-01    0.322436E-01    0.998223E-01    0.353351E-01
   5.275    0.657917E-01    0.309289E-01    0.967206E-01    0.348628E-01
   5.325    0.639451E-01    0.296111E-01    0.935562E-01    0.343340E-01
   5.375    0.620440E-01    0.282935E-01    0.903375E-01    0.337505E-01
   5.425    0.600938E-01    0.269795E-01    0.870734E-01    0.331143E-01
   5.475    0.581006E-01    0.256726E-01    0.837732E-01    0.324281E-01
   5.525    0.560707E-01    0.243761E-01    0.804469E-01    0.316946E-01
   5.575    0.540109E-01    0.230937E-01    0.771046E-01    0.309172E-01
   5.625    0.519280E-01    0.218288E-01    0.737568E-01    0.300992E-01
   5.675    0.498295E-01    0.205849E-01    0.704144E-01    0.292445E-01
   5.725    0.477226E-01    0.193655E-01    0.670881E-01    0.283570E-01
   5.775    0.456148E-01    0.181738E-01    0.637886E-01    0.274410E-01
   5.825    0.435136E-01    0.170130E-01    0.605267E-01    0.265006E-01
   5.875    0.414265E-01    0.158861E-01    0.573126E-01    0.255404E-01
   5.925    0.393606E-01    0.147959E-01    0.541565E-01    0.245647E-01
   5.975    0.373230E-01    0.137447E-01    0.510677E-01    0.235783E-01
   6.025    0.353203E-01    0.127349E-01    0.480553E-01    0.225854E-01
   6.075    0.333590E-01    0.117683E-01    0.451273E-01    0.215906E-01
   6.125    0.314447E-01    0.108464E-01    0.422911E-01    0.205982E-01
   6.175    0.295828E-01    0.997046E-02    0.395533E-01    0.196123E-01
   6.225    0.277781E-01    0.914116E-02    0.369193E-01    0.186370E-01
   6.275    0.260348E-01    0.835898E-02    0.343938E-01    0.176758E-01
   6.325    0.243564E-01    0.762398E-02    0.319804E-01    0.167324E-01
   6.375    0.227457E-01    0.693585E-02    0.296816E-01    0.158099E-01
   6.425    0.212050E-01    0.629398E-02    0.274990E-01    0.149110E-01
   6.475    0.197359E-01    0.569745E-02    0.254334E-01    0.140385E-01
   6.525    0.183393E-01    0.514503E-02    0.234844E-01    0.131943E-01
   6.575    0.170157E-01    0.463528E-02    0.216510E-01    0.123804E-01
   6.625    0.157648E-01    0.416653E-02    0.199313E-01    0.115982E-01
   6.675    0.145858E-01    0.373696E-02    0.183228E-01    0.108489E-01
   6.725    0.134778E-01    0.334459E-02    0.168224E-01    0.101332E-01
   6.775    0.124389E-01    0.298735E-02    0.154263E-01    0.945159E-02
   6.825    0.114674E-01    0.266312E-02    0.141305E-01    0.880430E-02
   6.875    0.105610E-01    0.236973E-02    0.129307E-01    0.819123E-02
   6.925    0.971706E-02    0.210501E-02    0.118221E-01    0.761205E-02
   6.975    0.893303E-02    0.186683E-02    0.107999E-01    0.706620E-02
   7.025    0.820602E-02    0.165308E-02    0.985910E-02    0.655294E-02
   7.075    0.753311E-02    0.146173E-02    0.899484E-02    0.607137E-02
   7.125    0.691130E-02    0.129085E-02    0.820215E-02    0.562045E-02
   7.175    0.633760E-02    0.113858E-02    0.747618E-02    0.519902E-02
   7.225    0.580902E-02    0.100317E-02    0.681219E-02    0.480584E-02
   7.275    0.532262E-02    0.882992E-03    0.620561E-02    0.443963E-02
   7.325    0.487554E-02    0.776509E-03    0.565205E-02    0.409903E-02
   7.375    0.446501E-02    0.682316E-03    0.514733E-02    0.378269E-02
   7.425    0.408837E-02    0.599117E-03    0.468749E-02    0.348926E-02
   7.475    0.374309E-02    0.525725E-03    0.426881E-02    0.321736E-02
   7.525    0.342675E-02    0.461060E-03    0.388781E-02    0.296569E-02
   7.575    0.313708E-02    0.404145E-03    0.354122E-02    0.273293E-02
   7.625    0.287195E-02    0.354097E-03    0.322604E-02    0.251785E-02
   7.675    0.262935E-02    0.310123E-03    0.293948E-02    0.231923E-02
   7.725    0.240744E-02    0.271514E-03    0.267895E-02    0.213592E-02
   7.775    0.220448E-02    0.237637E-03    0.244211E-02    0.196684E-02
   7.825    0.201887E-02    0.207928E-03    0.222680E-02    0.181094E-02
   7.875    0.184915E-02    0.181886E-03    0.203104E-02    0.166726E-02
   7.925    0.169395E-02    0.159070E-03    0.185302E-02    0.153488E-02
   7.975    0.155203E-02    0.139086E-03    0.169112E-02    0.141295E-02
   8.025    0.142225E-02    0.121591E-03    0.154384E-02    0.130066E-02
   8.075    0.130356E-02    0.106278E-03    0.140984E-02    0.119728E-02
   8.125    0.119500E-02    0.928809E-04    0.128788E-02    0.110212E-02
   8.175    0.109570E-02    0.811626E-04    0.117686E-02    0.101454E-02
   8.225    0.100486E-02    0.709160E-04    0.107577E-02    0.933942E-03
   8.275    0.921744E-03    0.619589E-04    0.983703E-03    0.859785E-03
   8.325    0.845692E-03    0.541313E-04    0.899824E-03    0.791561E-03
   8.375    0.776096E-03    0.472927E-04    0.823388E-03    0.728803E-03
   8.425    0.712398E-03    0.413194E-04    0.753717E-03    0.671079E-03
   8.475    0.654092E-03    0.361034E-04    0.690196E-03    0.617989E-03
   8.525    0.600715E-03    0.315493E-04    0.632264E-03    0.569166E-03
   8.575    0.551843E-03    0.275739E-04    0.579417E-03    0.524269E-03
   8.625    0.507089E-03    0.241039E-04    0.531193E-03    0.482985E-03
   8.675    0.466098E-03    0.210753E-04    0.487174E-03    0.445023E-03
   8.725    0.428548E-03    0.184318E-04    0.446980E-03    0.410116E-03
   8.775    0.394142E-03    0.161242E-04    0.410266E-03    0.378017E-03
   8.825    0.362608E-03    0.141095E-04    0.376718E-03    0.348499E-03
   8.875    0.333700E-03    0.123501E-04    0.346050E-03    0.321350E-03
   8.925    0.307191E-03    0.108132E-04    0.318004E-03    0.296378E-03
   8.975    0.282874E-03    0.947023E-05    0.292344E-03    0.273404E-03
   9.025    0.260560E-03    0.829612E-05    0.268856E-03    0.252264E-03
   9.075    0.240076E-03    0.726921E-05    0.247345E-03    0.232807E-03
   9.125    0.221265E-03    0.637062E-05    0.227635E-03    0.214894E-03
   9.175    0.203983E-03    0.558394E-05    0.209567E-03    0.198399E-03
   9.225    0.188100E-03    0.489492E-05    0.192995E-03    0.183205E-03
   9.275    0.173497E-03    0.429117E-05    0.177788E-03    0.169206E-03
   9.325    0.160064E-03    0.376196E-05    0.163826E-03    0.156302E-03
   9.375    0.147704E-03    0.329796E-05    0.151002E-03    0.144406E-03
   9.425    0.136326E-03    0.289104E-05    0.139217E-03    0.133435E-03
   9.475    0.125849E-03    0.253416E-05    0.128383E-03    0.123315E-03
   9.525    0.116198E-03    0.222117E-05    0.118419E-03    0.113977E-03
   9.575    0.107307E-03    0.194669E-05    0.109253E-03    0.105360E-03
   9.625    0.991121E-04    0.170605E-05    0.100818E-03    0.974061E-04
   9.675    0.915587E-04    0.149514E-05    0.930538E-04    0.900635E-04
   9.725    0.845949E-04    0.131035E-05    0.859052E-04    0.832845E-04
   9.775    0.781739E-04    0.114851E-05    0.793224E-04    0.770254E-04
   9.825    0.722528E-04    0.100684E-05    0.732597E-04    0.712460E-04
   9.875    0.667923E-04    0.882866E-06    0.676752E-04    0.659094E-04
   9.925    0.617562E-04    0.774422E-06    0.625306E-04    0.609818E-04
   9.975    0.571112E-04    0.679586E-06    0.577908E-04    0.564316E-04
  10.025    0.528268E-04    0.596663E-06    0.534235E-04    0.522301E-04
  10.075    0.488747E-04    0.524155E-06    0.493989E-04    0.483506E-04
  10.125    0.452289E-04    0.460743E-06    0.456896E-04    0.447681E-04
  10.175    0.418652E-04    0.405265E-06    0.422705E-04    0.414599E-04
  10.225    0.387614E-04    0.356698E-06    0.391181E-04    0.384047E-04
  10.275    0.358969E-04    0.314149E-06    0.362111E-04    0.355828E-04
  10.325    0.332528E-04    0.276834E-06    0.335296E-04    0.329759E-04
  10.375    0.308113E-04    0.244074E-06    0.310553E-04    0.305672E-04
  10.425    0.285562E-04    0.215274E-06    0.287715E-04    0.283410E-04
  10.475    0.264727E-04    0.189923E-06    0.266626E-04    0.262828E-04
  10.525    0.245468E-04    0.167578E-06    0.247144E-04    0.243793E-04
  10.575    0.227660E-04    0.147856E-06    0.229139E-04    0.226182E-04
  10.625    0.211186E-04    0.130430E-06    0.212490E-04    0.209881E-04
  10.675    0.195938E-04    0.115017E-06    0.197088E-04    0.194788E-04
  10.725    0.181820E-04    0.101377E-06    0.182834E-04    0.180806E-04
  10.775    0.168742E-04    0.893003E-07    0.169635E-04    0.167849E-04
  10.825    0.156622E-04    0.786084E-07    0.157408E-04    0.155835E-04
  10.875    0.145386E-04    0.691459E-07    0.146077E-04    0.144694E-04
  10.925    0.134966E-04    0.607778E-07    0.135573E-04    0.134358E-04
  10.975    0.125300E-04    0.533859E-07    0.125834E-04    0.124766E-04
  11.025    0.116332E-04    0.468657E-07    0.116801E-04    0.115864E-04
  11.075    0.108011E-04    0.411241E-07    0.108422E-04    0.107600E-04
  11.125    0.100289E-04    0.360778E-07    0.100650E-04    0.999287E-05
  11.175    0.931239E-05    0.316514E-07    0.934404E-05    0.928074E-05
  11.225    0.864751E-05    0.277765E-07    0.867529E-05    0.861973E-05
  11.275    0.803064E-05    0.243907E-07    0.805503E-05    0.800625E-05
  11.325    0.745842E-05    0.214373E-07    0.747986E-05    0.743698E-05
  11.375    0.692771E-05    0.188643E-07    0.694658E-05    0.690885E-05
  11.425    0.643561E-05    0.166247E-07    0.645224E-05    0.641899E-05
  11.475    0.597940E-05    0.146758E-07    0.599408E-05    0.596473E-05
  11.525    0.555654E-05    0.129790E-07    0.556952E-05    0.554356E-05
  11.575    0.516465E-05    0.115000E-07    0.517615E-05    0.515315E-05
  11.625    0.480148E-05    0.102083E-07    0.481169E-05    0.479127E-05
  11.675    0.446495E-05    0.907692E-08    0.447402E-05    0.445587E-05
  11.725    0.415307E-05    0.808245E-08    0.416115E-05    0.414499E-05
  11.775    0.386400E-05    0.720464E-08    0.387121E-05    0.385680E-05
  11.825    0.359601E-05    0.642622E-08    0.360243E-05    0.358958E-05
  11.875    0.334746E-05    0.573265E-08    0.335320E-05    0.334173E-05
  11.925    0.311686E-05    0.511182E-08    0.312198E-05    0.311175E-05
  11.975    0.290280E-05    0.455379E-08    0.290736E-05    0.289825E-05
  12.025    0.270398E-05    0.405051E-08    0.270803E-05    0.269993E-05
  12.075    0.251919E-05    0.359557E-08    0.252279E-05    0.251560E-05
  12.125    0.234734E-05    0.318389E-08    0.235053E-05    0.234416E-05
  12.175    0.218742E-05    0.281144E-08    0.219023E-05    0.218461E-05
  12.225    0.203850E-05    0.247504E-08    0.204097E-05    0.203602E-05
  12.275    0.189975E-05    0.217211E-08    0.190192E-05    0.189758E-05
  12.325    0.177041E-05    0.190045E-08    0.177231E-05    0.176851E-05
  12.375    0.164979E-05    0.165811E-08    0.165145E-05    0.164813E-05
  12.425    0.153728E-05    0.144325E-08    0.153872E-05    0.153583E-05
  12.475    0.143230E-05    0.125403E-08    0.143356E-05    0.143105E-05
  12.525    0.133436E-05    0.108859E-08    0.133545E-05    0.133327E-05
  12.575    0.124300E-05    0.945010E-09    0.124394E-05    0.124205E-05
  12.625    0.115778E-05    0.821330E-09    0.115861E-05    0.115696E-05
  12.675    0.107834E-05    0.715549E-09    0.107906E-05    0.107763E-05
  12.725    0.100431E-05    0.625672E-09    0.100494E-05    0.100368E-05
  12.775    0.935361E-06    0.549742E-09    0.935911E-06    0.934811E-06
  12.825    0.871184E-06    0.485878E-09    0.871670E-06    0.870699E-06
  12.875    0.811488E-06    0.432298E-09    0.811920E-06    0.811055E-06
  12.925    0.755992E-06    0.387347E-09    0.756379E-06    0.755605E-06
  12.975    0.704431E-06    0.349505E-09    0.704781E-06    0.704082E-06
  13.025    0.656549E-06    0.317404E-09    0.656867E-06    0.656232E-06
  13.075    0.612101E-06    0.289829E-09    0.612391E-06    0.611811E-06
  13.125    0.570848E-06    0.265722E-09    0.571114E-06    0.570583E-06
  13.175    0.532565E-06    0.244183E-09    0.532809E-06    0.532321E-06
  13.225    0.497032E-06    0.224477E-09    0.497256E-06    0.496807E-06
  13.275    0.464042E-06    0.206025E-09    0.464248E-06    0.463835E-06
  13.325    0.433396E-06    0.188408E-09    0.433584E-06    0.433207E-06
  13.375    0.404908E-06    0.171355E-09    0.405080E-06    0.404737E-06
  13.425    0.378404E-06    0.154734E-09    0.378558E-06    0.378249E-06
  13.475    0.353719E-06    0.138528E-09    0.353858E-06    0.353581E-06
  13.525    0.330704E-06    0.122815E-09    0.330827E-06    0.330582E-06
  13.575    0.309221E-06    0.107736E-09    0.309329E-06    0.309113E-06
  13.625    0.289144E-06    0.934661E-10    0.289237E-06    0.289050E-06
  13.675    0.270360E-06    0.801841E-10    0.270440E-06    0.270280E-06
  13.725    0.252768E-06    0.680463E-10    0.252836E-06    0.252700E-06
  13.775    0.236279E-06    0.571680E-10    0.236336E-06    0.236221E-06
  13.825    0.220812E-06    0.476119E-10    0.220860E-06    0.220765E-06
  13.875    0.206300E-06    0.393852E-10    0.206339E-06    0.206260E-06
  13.925    0.192680E-06    0.324443E-10    0.192713E-06    0.192648E-06
  13.975    0.179901E-06    0.267051E-10    0.179928E-06    0.179874E-06
  14.025    0.167914E-06    0.220568E-10    0.167936E-06    0.167892E-06
  14.075    0.156680E-06    0.183754E-10    0.156698E-06    0.156661E-06
  14.125    0.146159E-06    0.155363E-10    0.146175E-06    0.146144E-06
  14.175    0.136319E-06    0.134222E-10    0.136332E-06    0.136305E-06
  14.225    0.127126E-06    0.119270E-10    0.127138E-06    0.127115E-06
  14.275    0.118551E-06    0.109549E-10    0.118562E-06    0.118540E-06
  14.325    0.110564E-06    0.104172E-10    0.110574E-06    0.110553E-06
  14.375    0.103133E-06    0.102270E-10    0.103143E-06    0.103123E-06
  14.425    0.962300E-07    0.102948E-10    0.962403E-07    0.962197E-07
  14.475    0.898239E-07    0.105265E-10    0.898344E-07    0.898133E-07
  14.525    0.838842E-07    0.108240E-10    0.838950E-07    0.838733E-07
  14.575    0.783801E-07    0.110902E-10    0.783912E-07    0.783690E-07
  14.625    0.732810E-07    0.112356E-10    0.732922E-07    0.732697E-07
  14.675    0.685562E-07    0.111871E-10    0.685674E-07    0.685450E-07
  14.725    0.641760E-07    0.108963E-10    0.641869E-07    0.641651E-07
  14.775    0.601114E-07    0.103445E-10    0.601217E-07    0.601010E-07
  14.825    0.563345E-07    0.954569E-11    0.563440E-07    0.563249E-07
  14.875    0.528191E-07    0.854367E-11    0.528276E-07    0.528105E-07
  14.925    0.495406E-07    0.740558E-11    0.495480E-07    0.495332E-07
  14.975    0.464763E-07    0.621189E-11    0.464825E-07    0.464701E-07
  15.025    0.436055E-07    0.504461E-11    0.436106E-07    0.436005E-07
  15.075    0.409099E-07    0.397582E-11    0.409139E-07    0.409059E-07
  15.125    0.383731E-07    0.305829E-11    0.383761E-07    0.383700E-07
  15.175    0.359810E-07    0.231990E-11    0.359833E-07    0.359787E-07
  15.225    0.337217E-07    0.176252E-11    0.337234E-07    0.337199E-07
  15.275    0.315852E-07    0.136544E-11    0.315866E-07    0.315838E-07
  15.325    0.295636E-07    0.109242E-11    0.295647E-07    0.295625E-07
  15.375    0.276504E-07    0.900863E-12    0.276513E-07    0.276495E-07
  15.425    0.258408E-07    0.751211E-12    0.258415E-07    0.258400E-07
  15.475    0.241310E-07    0.614799E-12    0.241316E-07    0.241304E-07
  15.525    0.225181E-07    0.478598E-12    0.225186E-07    0.225176E-07
  15.575    0.210000E-07    0.346135E-12    0.210003E-07    0.209996E-07
  15.625    0.195745E-07    0.234559E-12    0.195748E-07    0.195743E-07
  15.675    0.182399E-07    0.168644E-12    0.182400E-07    0.182397E-07
  15.725    0.169939E-07    0.173123E-12    0.169941E-07    0.169938E-07
  15.775    0.158343E-07    0.265053E-12    0.158345E-07    0.158340E-07
  15.825    0.147580E-07    0.447876E-12    0.147585E-07    0.147576E-07
  15.875    0.137618E-07    0.708448E-12    0.137625E-07    0.137611E-07
  15.925    0.128418E-07    0.101771E-11    0.128428E-07    0.128407E-07
  15.975    0.119936E-07    0.133486E-11    0.119949E-07    0.119922E-07
  16.025    0.112126E-07    0.161427E-11    0.112142E-07    0.112109E-07
  16.075    0.104938E-07    0.181362E-11    0.104956E-07    0.104920E-07
  16.125    0.983212E-08    0.190182E-11    0.983402E-08    0.983022E-08
  16.175    0.922243E-08    0.186484E-11    0.922430E-08    0.922057E-08
  16.225    0.865961E-08    0.170858E-11    0.866132E-08    0.865790E-08
  16.275    0.813871E-08    0.145788E-11    0.814017E-08    0.813726E-08
  16.325    0.765501E-08    0.115213E-11    0.765617E-08    0.765386E-08
  16.375    0.720407E-08    0.838056E-12    0.720491E-08    0.720324E-08
  16.425    0.678179E-08    0.561325E-12    0.678235E-08    0.678123E-08
  16.475    0.638446E-08    0.358390E-12    0.638482E-08    0.638410E-08
  16.525    0.600879E-08    0.250270E-12    0.600904E-08    0.600854E-08
  16.575    0.565194E-08    0.239364E-12    0.565218E-08    0.565170E-08
  16.625    0.531158E-08    0.309884E-12    0.531189E-08    0.531127E-08
  16.675    0.498585E-08    0.431765E-12    0.498628E-08    0.498542E-08
  16.725    0.467340E-08    0.567206E-12    0.467397E-08    0.467283E-08
  16.775    0.437336E-08    0.678528E-12    0.437404E-08    0.437268E-08
  16.825    0.408530E-08    0.735777E-12    0.408603E-08    0.408456E-08
  16.875    0.380915E-08    0.722576E-12    0.380987E-08    0.380843E-08
  16.925    0.354517E-08    0.639105E-12    0.354581E-08    0.354453E-08
  16.975    0.329380E-08    0.501670E-12    0.329431E-08    0.329330E-08
  17.025    0.305560E-08    0.339003E-12    0.305594E-08    0.305526E-08
  17.075    0.283111E-08    0.186091E-12    0.283130E-08    0.283093E-08
  17.125    0.262080E-08    0.767915E-13    0.262088E-08    0.262072E-08
  17.175    0.242496E-08    0.367452E-13    0.242500E-08    0.242493E-08
  17.225    0.224368E-08    0.779942E-13    0.224376E-08    0.224360E-08
  17.275    0.207681E-08    0.196376E-12    0.207700E-08    0.207661E-08
  17.325    0.192394E-08    0.372192E-12    0.192432E-08    0.192357E-08
  17.375    0.178449E-08    0.573993E-12    0.178506E-08    0.178391E-08
  17.425    0.165765E-08    0.764718E-12    0.165842E-08    0.165689E-08
  17.475    0.154252E-08    0.908936E-12    0.154343E-08    0.154162E-08
  17.525    0.143811E-08    0.979765E-12    0.143909E-08    0.143713E-08
  17.575    0.134338E-08    0.964096E-12    0.134435E-08    0.134242E-08
  17.625    0.125730E-08    0.865100E-12    0.125816E-08    0.125643E-08
  17.675    0.117883E-08    0.701536E-12    0.117954E-08    0.117813E-08
  17.725    0.110702E-08    0.504037E-12    0.110752E-08    0.110651E-08
  17.775    0.104090E-08    0.309103E-12    0.104121E-08    0.104060E-08
  17.825    0.979596E-09    0.152016E-12    0.979748E-09    0.979444E-09
  17.875    0.922243E-09    0.600605E-13    0.922303E-09    0.922183E-09
  17.925    0.868054E-09    0.473844E-13    0.868102E-09    0.868007E-09
  17.975    0.816311E-09    0.112478E-12    0.816423E-09    0.816198E-09
  18.025    0.766383E-09    0.238746E-12    0.766622E-09    0.766144E-09
  18.075    0.717756E-09    0.398015E-12    0.718154E-09    0.717358E-09
  18.125    0.670052E-09    0.556265E-12    0.670608E-09    0.669496E-09
  18.175    0.623046E-09    0.680421E-12    0.623727E-09    0.622366E-09
  18.225    0.576675E-09    0.744873E-12    0.577420E-09    0.575930E-09
  18.275    0.531032E-09    0.736432E-12    0.531768E-09    0.530295E-09
  18.325    0.486346E-09    0.656774E-12    0.487002E-09    0.485689E-09
  18.375    0.442950E-09    0.521925E-12    0.443472E-09    0.442429E-09
  18.425    0.401240E-09    0.358904E-12    0.401599E-09    0.400882E-09
  18.475    0.361623E-09    0.200242E-12    0.361823E-09    0.361422E-09
  18.525    0.324469E-09    0.774563E-13    0.324547E-09    0.324392E-09
  18.575    0.290077E-09    0.147992E-13    0.290092E-09    0.290062E-09
  18.625    0.258638E-09    0.244925E-13    0.258663E-09    0.258614E-09
  18.675    0.230226E-09    0.104387E-12    0.230330E-09    0.230122E-09
  18.725    0.204796E-09    0.238476E-12    0.205035E-09    0.204558E-09
  18.775    0.182204E-09    0.400140E-12    0.182604E-09    0.181804E-09
  18.825    0.162228E-09    0.557455E-12    0.162785E-09    0.161670E-09
  18.875    0.144602E-09    0.679506E-12    0.145282E-09    0.143923E-09
  18.925    0.129050E-09    0.742443E-12    0.129793E-09    0.128308E-09
  18.975    0.115307E-09    0.734110E-12    0.116041E-09    0.114573E-09
  19.025    0.103138E-09    0.656329E-12    0.103794E-09    0.102481E-09
  19.075    0.923469E-10    0.524426E-12    0.928713E-10    0.918224E-10
  19.125    0.827736E-10    0.364117E-12    0.831377E-10    0.824094E-10
  19.175    0.742812E-10    0.206382E-12    0.744876E-10    0.740748E-10
  19.225    0.667441E-10    0.813563E-13    0.668255E-10    0.666627E-10
  19.275    0.600338E-10    0.124492E-13    0.600462E-10    0.600213E-10
  19.325    0.540101E-10    0.118383E-13    0.540219E-10    0.539983E-10
  19.375    0.485197E-10    0.782092E-13    0.485979E-10    0.484414E-10
  19.425    0.434020E-10    0.197162E-12    0.435991E-10    0.432048E-10
  19.475    0.385035E-10    0.344181E-12    0.388477E-10    0.381594E-10
  19.525    0.336961E-10    0.489548E-12    0.341857E-10    0.332066E-10
  19.575    0.288960E-10    0.604235E-12    0.295003E-10    0.282918E-10
  19.625    0.240801E-10    0.665586E-12    0.247457E-10    0.234145E-10
  19.675    0.192942E-10    0.661698E-12    0.199559E-10    0.186325E-10
  19.725    0.146518E-10    0.593640E-12    0.152455E-10    0.140582E-10
  19.775    0.103226E-10    0.475100E-12    0.107977E-10    0.984751E-11
  19.825    0.651064E-11    0.329563E-12    0.684020E-11    0.618108E-11
  19.875    0.342665E-11    0.185591E-12    0.361224E-11    0.324106E-11
  19.925    0.125794E-11    0.711536E-13    0.132910E-11    0.118679E-11
  19.975    0.140812E-12    0.813556E-14    0.148947E-12    0.132676E-12
