   0.025    0.117542E+00    0.419866E-01    0.159529E+00    0.755557E-01
   0.075    0.117388E+00    0.420847E-01    0.159473E+00    0.753036E-01
   0.125    0.117082E+00    0.422803E-01    0.159362E+00    0.748017E-01
   0.175    0.116626E+00    0.425719E-01    0.159198E+00    0.740546E-01
   0.225    0.116026E+00    0.429574E-01    0.158984E+00    0.730691E-01
   0.275    0.115288E+00    0.434339E-01    0.158722E+00    0.718543E-01
   0.325    0.114419E+00    0.439978E-01    0.158417E+00    0.704214E-01
   0.375    0.113428E+00    0.446449E-01    0.158073E+00    0.687835E-01
   0.425    0.112326E+00    0.453701E-01    0.157696E+00    0.669558E-01
   0.475    0.111123E+00    0.461678E-01    0.157291E+00    0.649553E-01
   0.525    0.109832E+00    0.470315E-01    0.156863E+00    0.628005E-01
   0.575    0.108466E+00    0.479542E-01    0.156420E+00    0.605114E-01
   0.625    0.107037E+00    0.489282E-01    0.155966E+00    0.581093E-01
   0.675    0.105562E+00    0.499453E-01    0.155507E+00    0.556166E-01
   0.725    0.104053E+00    0.509968E-01    0.155050E+00    0.530566E-01
   0.775    0.102526E+00    0.520735E-01    0.154600E+00    0.504528E-01
   0.825    0.100995E+00    0.531658E-01    0.154161E+00    0.478294E-01
   0.875    0.994746E-01    0.542642E-01    0.153739E+00    0.452104E-01
   0.925    0.979783E-01    0.553587E-01    0.153337E+00    0.426196E-01
   0.975    0.965198E-01    0.564395E-01    0.152959E+00    0.400803E-01
   1.025    0.951117E-01    0.574970E-01    0.152609E+00    0.376147E-01
   1.075    0.937658E-01    0.585216E-01    0.152287E+00    0.352441E-01
   1.125    0.924930E-01    0.595045E-01    0.151998E+00    0.329885E-01
   1.175    0.913031E-01    0.604370E-01    0.151740E+00    0.308661E-01
   1.225    0.902046E-01    0.613115E-01    0.151516E+00    0.288931E-01
   1.275    0.892048E-01    0.621208E-01    0.151326E+00    0.270840E-01
   1.325    0.883096E-01    0.628589E-01    0.151169E+00    0.254507E-01
   1.375    0.875236E-01    0.635206E-01    0.151044E+00    0.240030E-01
   1.425    0.868497E-01    0.641017E-01    0.150951E+00    0.227481E-01
   1.475    0.862899E-01    0.645992E-01    0.150889E+00    0.216907E-01
   1.525    0.858443E-01    0.650114E-01    0.150856E+00    0.208329E-01
   1.575    0.855119E-01    0.653375E-01    0.150849E+00    0.201744E-01
   1.625    0.852904E-01    0.655780E-01    0.150868E+00    0.197124E-01
   1.675    0.851760E-01    0.657345E-01    0.150911E+00    0.194416E-01
   1.725    0.851641E-01    0.658096E-01    0.150974E+00    0.193545E-01
   1.775    0.852486E-01    0.658070E-01    0.151056E+00    0.194416E-01
   1.825    0.854228E-01    0.657314E-01    0.151154E+00    0.196913E-01
   1.875    0.856789E-01    0.655884E-01    0.151267E+00    0.200905E-01
   1.925    0.860084E-01    0.653841E-01    0.151392E+00    0.206243E-01
   1.975    0.864023E-01    0.651255E-01    0.151528E+00    0.212768E-01
   2.025    0.868511E-01    0.648201E-01    0.151671E+00    0.220310E-01
   2.075    0.873448E-01    0.644757E-01    0.151820E+00    0.228691E-01
   2.125    0.878733E-01    0.641006E-01    0.151974E+00    0.237727E-01
   2.175    0.884264E-01    0.637031E-01    0.152130E+00    0.247233E-01
   2.225    0.889941E-01    0.632917E-01    0.152286E+00    0.257025E-01
   2.275    0.895665E-01    0.628747E-01    0.152441E+00    0.266918E-01
   2.325    0.901338E-01    0.624603E-01    0.152594E+00    0.276735E-01
   2.375    0.906871E-01    0.620567E-01    0.152744E+00    0.286304E-01
   2.425    0.912176E-01    0.616713E-01    0.152889E+00    0.295463E-01
   2.475    0.917174E-01    0.613113E-01    0.153029E+00    0.304061E-01
   2.525    0.921795E-01    0.609834E-01    0.153163E+00    0.311960E-01
   2.575    0.925973E-01    0.606936E-01    0.153291E+00    0.319037E-01
   2.625    0.929655E-01    0.604472E-01    0.153413E+00    0.325184E-01
   2.675    0.932796E-01    0.602487E-01    0.153528E+00    0.330309E-01
   2.725    0.935361E-01    0.601020E-01    0.153638E+00    0.334341E-01
   2.775    0.937325E-01    0.600100E-01    0.153742E+00    0.337225E-01
   2.825    0.938673E-01    0.599747E-01    0.153842E+00    0.338926E-01
   2.875    0.939402E-01    0.599974E-01    0.153938E+00    0.339429E-01
   2.925    0.939517E-01    0.600782E-01    0.154030E+00    0.338735E-01
   2.975    0.939033E-01    0.602165E-01    0.154120E+00    0.336868E-01
   3.025    0.937974E-01    0.604107E-01    0.154208E+00    0.333868E-01
   3.075    0.936373E-01    0.606583E-01    0.154296E+00    0.329790E-01
   3.125    0.934268E-01    0.609560E-01    0.154383E+00    0.324708E-01
   3.175    0.931705E-01    0.612995E-01    0.154470E+00    0.318710E-01
   3.225    0.928735E-01    0.616841E-01    0.154558E+00    0.311894E-01
   3.275    0.925412E-01    0.621041E-01    0.154645E+00    0.304371E-01
   3.325    0.921793E-01    0.625532E-01    0.154733E+00    0.296261E-01
   3.375    0.917936E-01    0.630248E-01    0.154818E+00    0.287689E-01
   3.425    0.913900E-01    0.635115E-01    0.154902E+00    0.278785E-01
   3.475    0.909741E-01    0.640059E-01    0.154980E+00    0.269681E-01
   3.525    0.905511E-01    0.645003E-01    0.155051E+00    0.260509E-01
   3.575    0.901262E-01    0.649867E-01    0.155113E+00    0.251395E-01
   3.625    0.897037E-01    0.654573E-01    0.155161E+00    0.242464E-01
   3.675    0.892874E-01    0.659043E-01    0.155192E+00    0.233831E-01
   3.725    0.888805E-01    0.663202E-01    0.155201E+00    0.225603E-01
   3.775    0.884853E-01    0.666976E-01    0.155183E+00    0.217877E-01
   3.825    0.881032E-01    0.670297E-01    0.155133E+00    0.210735E-01
   3.875    0.877350E-01    0.673101E-01    0.155045E+00    0.204249E-01
   3.925    0.873802E-01    0.675329E-01    0.154913E+00    0.198473E-01
   3.975    0.870378E-01    0.676928E-01    0.154731E+00    0.193450E-01
   4.025    0.867059E-01    0.677852E-01    0.154491E+00    0.189206E-01
   4.075    0.863815E-01    0.678062E-01    0.154188E+00    0.185753E-01
   4.125    0.860611E-01    0.677525E-01    0.153814E+00    0.183086E-01
   4.175    0.857404E-01    0.676215E-01    0.153362E+00    0.181189E-01
   4.225    0.854147E-01    0.674114E-01    0.152826E+00    0.180033E-01
   4.275    0.850785E-01    0.671210E-01    0.152199E+00    0.179576E-01
   4.325    0.847262E-01    0.667496E-01    0.151476E+00    0.179765E-01
   4.375    0.843517E-01    0.662975E-01    0.150649E+00    0.180542E-01
   4.425    0.839488E-01    0.657651E-01    0.149714E+00    0.181837E-01
   4.475    0.835113E-01    0.651536E-01    0.148665E+00    0.183577E-01
   4.525    0.830329E-01    0.644645E-01    0.147497E+00    0.185684E-01
   4.575    0.825077E-01    0.636997E-01    0.146207E+00    0.188080E-01
   4.625    0.819298E-01    0.628616E-01    0.144791E+00    0.190682E-01
   4.675    0.812939E-01    0.619527E-01    0.143247E+00    0.193412E-01
   4.725    0.805949E-01    0.609757E-01    0.141571E+00    0.196192E-01
   4.775    0.798283E-01    0.599337E-01    0.139762E+00    0.198946E-01
   4.825    0.789901E-01    0.588296E-01    0.137820E+00    0.201605E-01
   4.875    0.780771E-01    0.576668E-01    0.135744E+00    0.204103E-01
   4.925    0.770864E-01    0.564484E-01    0.133535E+00    0.206381E-01
   4.975    0.760162E-01    0.551777E-01    0.131194E+00    0.208385E-01
   5.025    0.748650E-01    0.538581E-01    0.128723E+00    0.210069E-01
   5.075    0.736322E-01    0.524929E-01    0.126125E+00    0.211393E-01
   5.125    0.723178E-01    0.510855E-01    0.123403E+00    0.212323E-01
   5.175    0.709228E-01    0.496394E-01    0.120562E+00    0.212834E-01
   5.225    0.694484E-01    0.481579E-01    0.117606E+00    0.212905E-01
   5.275    0.678969E-01    0.466445E-01    0.114541E+00    0.212524E-01
   5.325    0.662711E-01    0.451030E-01    0.111374E+00    0.211681E-01
   5.375    0.645743E-01    0.435369E-01    0.108111E+00    0.210374E-01
   5.425    0.628108E-01    0.419501E-01    0.104761E+00    0.208607E-01
   5.475    0.609851E-01    0.403464E-01    0.101332E+00    0.206387E-01
   5.525    0.591024E-01    0.387300E-01    0.978324E-01    0.203724E-01
   5.575    0.571685E-01    0.371051E-01    0.942736E-01    0.200634E-01
   5.625    0.551896E-01    0.354759E-01    0.906655E-01    0.197137E-01
   5.675    0.531723E-01    0.338471E-01    0.870194E-01    0.193252E-01
   5.725    0.511236E-01    0.322231E-01    0.833467E-01    0.189005E-01
   5.775    0.490509E-01    0.306088E-01    0.796597E-01    0.184421E-01
   5.825    0.469617E-01    0.290088E-01    0.759705E-01    0.179529E-01
   5.875    0.448638E-01    0.274279E-01    0.722918E-01    0.174359E-01
   5.925    0.427652E-01    0.258710E-01    0.686361E-01    0.168942E-01
   5.975    0.406735E-01    0.243426E-01    0.650161E-01    0.163309E-01
   6.025    0.385968E-01    0.228473E-01    0.614441E-01    0.157495E-01
   6.075    0.365427E-01    0.213895E-01    0.579322E-01    0.151531E-01
   6.125    0.345185E-01    0.199732E-01    0.544918E-01    0.145453E-01
   6.175    0.325315E-01    0.186023E-01    0.511338E-01    0.139292E-01
   6.225    0.305883E-01    0.172801E-01    0.478684E-01    0.133081E-01
   6.275    0.286951E-01    0.160097E-01    0.447049E-01    0.126854E-01
   6.325    0.268577E-01    0.147937E-01    0.416514E-01    0.120640E-01
   6.375    0.250810E-01    0.136340E-01    0.387151E-01    0.114470E-01
   6.425    0.233695E-01    0.125324E-01    0.359019E-01    0.108371E-01
   6.475    0.217269E-01    0.114899E-01    0.332168E-01    0.102370E-01
   6.525    0.201562E-01    0.105071E-01    0.306633E-01    0.964904E-02
   6.575    0.186596E-01    0.958416E-02    0.282438E-01    0.907545E-02
   6.625    0.172388E-01    0.872060E-02    0.259594E-01    0.851816E-02
   6.675    0.158945E-01    0.791565E-02    0.238102E-01    0.797886E-02
   6.725    0.146271E-01    0.716809E-02    0.217951E-01    0.745898E-02
   6.775    0.134360E-01    0.647632E-02    0.199123E-01    0.695969E-02
   6.825    0.123204E-01    0.583844E-02    0.181588E-01    0.648193E-02
   6.875    0.112786E-01    0.525228E-02    0.165309E-01    0.602635E-02
   6.925    0.103088E-01    0.471544E-02    0.150243E-01    0.559339E-02
   6.975    0.940863E-02    0.422538E-02    0.136340E-01    0.518325E-02
   7.025    0.857535E-02    0.377941E-02    0.123548E-01    0.479594E-02
   7.075    0.780604E-02    0.337477E-02    0.111808E-01    0.443127E-02
   7.125    0.709758E-02    0.300870E-02    0.101063E-01    0.408888E-02
   7.175    0.644668E-02    0.267842E-02    0.912511E-02    0.376826E-02
   7.225    0.584999E-02    0.238120E-02    0.823119E-02    0.346880E-02
   7.275    0.530412E-02    0.211437E-02    0.741848E-02    0.318975E-02
   7.325    0.480567E-02    0.187537E-02    0.668103E-02    0.293030E-02
   7.375    0.435131E-02    0.166174E-02    0.601305E-02    0.268957E-02
   7.425    0.393780E-02    0.147117E-02    0.540897E-02    0.246664E-02
   7.475    0.356199E-02    0.130145E-02    0.486345E-02    0.226054E-02
   7.525    0.322088E-02    0.115056E-02    0.437144E-02    0.207032E-02
   7.575    0.291159E-02    0.101659E-02    0.392817E-02    0.189500E-02
   7.625    0.263142E-02    0.897788E-03    0.352921E-02    0.173363E-02
   7.675    0.237784E-02    0.792561E-03    0.317040E-02    0.158528E-02
   7.725    0.214847E-02    0.699443E-03    0.284791E-02    0.144902E-02
   7.775    0.194111E-02    0.617107E-03    0.255821E-02    0.132400E-02
   7.825    0.175372E-02    0.544352E-03    0.229808E-02    0.120937E-02
   7.875    0.158445E-02    0.480099E-03    0.206455E-02    0.110435E-02
   7.925    0.143157E-02    0.423378E-03    0.185495E-02    0.100819E-02
   7.975    0.129351E-02    0.373324E-03    0.166683E-02    0.920186E-03
   8.025    0.116885E-02    0.329165E-03    0.149802E-02    0.839685E-03
   8.075    0.105629E-02    0.290215E-03    0.134651E-02    0.766077E-03
   8.125    0.954660E-03    0.255863E-03    0.121052E-02    0.698796E-03
   8.175    0.862891E-03    0.225572E-03    0.108846E-02    0.637319E-03
   8.225    0.780025E-03    0.198863E-03    0.978888E-03    0.581163E-03
   8.275    0.705195E-03    0.175315E-03    0.880510E-03    0.529881E-03
   8.325    0.637620E-03    0.154556E-03    0.792176E-03    0.483063E-03
   8.375    0.576593E-03    0.136258E-03    0.712851E-03    0.440335E-03
   8.425    0.521479E-03    0.120131E-03    0.641610E-03    0.401348E-03
   8.475    0.471705E-03    0.105919E-03    0.577624E-03    0.365787E-03
   8.525    0.426754E-03    0.933961E-04    0.520150E-03    0.333358E-03
   8.575    0.386159E-03    0.823641E-04    0.468523E-03    0.303795E-03
   8.625    0.349498E-03    0.726467E-04    0.422145E-03    0.276851E-03
   8.675    0.316390E-03    0.640886E-04    0.380479E-03    0.252302E-03
   8.725    0.286491E-03    0.565524E-04    0.343044E-03    0.229939E-03
   8.775    0.259490E-03    0.499168E-04    0.309406E-03    0.209573E-03
   8.825    0.235103E-03    0.440745E-04    0.279177E-03    0.191028E-03
   8.875    0.213075E-03    0.389305E-04    0.252006E-03    0.174145E-03
   8.925    0.193176E-03    0.344012E-04    0.227577E-03    0.158775E-03
   8.975    0.175196E-03    0.304124E-04    0.205608E-03    0.144783E-03
   9.025    0.158945E-03    0.268987E-04    0.185844E-03    0.132047E-03
   9.075    0.144253E-03    0.238025E-04    0.168056E-03    0.120451E-03
   9.125    0.130966E-03    0.210730E-04    0.152039E-03    0.109893E-03
   9.175    0.118943E-03    0.186654E-04    0.137608E-03    0.100277E-03
   9.225    0.108058E-03    0.165406E-04    0.124599E-03    0.915178E-04
   9.275    0.982001E-04    0.146639E-04    0.112864E-03    0.835363E-04
   9.325    0.892661E-04    0.130052E-04    0.102271E-03    0.762610E-04
   9.375    0.811651E-04    0.115379E-04    0.927030E-04    0.696271E-04
   9.425    0.738152E-04    0.102391E-04    0.840543E-04    0.635761E-04
   9.475    0.671430E-04    0.908843E-05    0.762315E-04    0.580546E-04
   9.525    0.610831E-04    0.806829E-05    0.691514E-04    0.530148E-04
   9.575    0.555766E-04    0.716329E-05    0.627399E-04    0.484133E-04
   9.625    0.505710E-04    0.636000E-05    0.569310E-04    0.442110E-04
   9.675    0.460193E-04    0.564670E-05    0.516660E-04    0.403726E-04
   9.725    0.418794E-04    0.501313E-05    0.468925E-04    0.368662E-04
   9.775    0.381134E-04    0.445032E-05    0.425637E-04    0.336631E-04
   9.825    0.346875E-04    0.395038E-05    0.386378E-04    0.307371E-04
   9.875    0.315710E-04    0.350638E-05    0.350773E-04    0.280646E-04
   9.925    0.287363E-04    0.311220E-05    0.318485E-04    0.256241E-04
   9.975    0.261584E-04    0.276240E-05    0.289208E-04    0.233960E-04
  10.025    0.238147E-04    0.245216E-05    0.262669E-04    0.213625E-04
  10.075    0.216844E-04    0.217718E-05    0.238615E-04    0.195072E-04
  10.125    0.197485E-04    0.193359E-05    0.216821E-04    0.178149E-04
  10.175    0.179899E-04    0.171796E-05    0.197079E-04    0.162720E-04
  10.225    0.163927E-04    0.152717E-05    0.179199E-04    0.148655E-04
  10.275    0.149422E-04    0.135843E-05    0.163006E-04    0.135838E-04
  10.325    0.136251E-04    0.120923E-05    0.148343E-04    0.124159E-04
  10.375    0.124291E-04    0.107731E-05    0.135064E-04    0.113517E-04
  10.425    0.113428E-04    0.960643E-06    0.123034E-04    0.103821E-04
  10.475    0.103559E-04    0.857420E-06    0.112133E-04    0.949850E-05
  10.525    0.945897E-05    0.766019E-06    0.102250E-04    0.869295E-05
  10.575    0.864328E-05    0.684998E-06    0.932828E-05    0.795829E-05
  10.625    0.790097E-05    0.613078E-06    0.851405E-05    0.728789E-05
  10.675    0.722488E-05    0.549133E-06    0.777401E-05    0.667575E-05
  10.725    0.660855E-05    0.492173E-06    0.710072E-05    0.611638E-05
  10.775    0.604616E-05    0.441332E-06    0.648749E-05    0.560482E-05
  10.825    0.553247E-05    0.395860E-06    0.592833E-05    0.513661E-05
  10.875    0.506283E-05    0.355106E-06    0.541793E-05    0.470772E-05
  10.925    0.463306E-05    0.318510E-06    0.495157E-05    0.431455E-05
  10.975    0.423947E-05    0.285593E-06    0.452507E-05    0.395388E-05
  11.025    0.387879E-05    0.255946E-06    0.413473E-05    0.362284E-05
  11.075    0.354809E-05    0.229219E-06    0.377731E-05    0.331888E-05
  11.125    0.324482E-05    0.205114E-06    0.344993E-05    0.303971E-05
  11.175    0.296668E-05    0.183376E-06    0.315006E-05    0.278331E-05
  11.225    0.271164E-05    0.163785E-06    0.287542E-05    0.254785E-05
  11.275    0.247787E-05    0.146149E-06    0.262402E-05    0.233172E-05
  11.325    0.226373E-05    0.130301E-06    0.239404E-05    0.213343E-05
  11.375    0.206774E-05    0.116089E-06    0.218383E-05    0.195165E-05
  11.425    0.188851E-05    0.103376E-06    0.199189E-05    0.178514E-05
  11.475    0.172479E-05    0.920334E-07    0.181683E-05    0.163276E-05
  11.525    0.157541E-05    0.819429E-07    0.165735E-05    0.149346E-05
  11.575    0.143924E-05    0.729916E-07    0.151223E-05    0.136625E-05
  11.625    0.131526E-05    0.650726E-07    0.138033E-05    0.125019E-05
  11.675    0.120247E-05    0.580840E-07    0.126056E-05    0.114439E-05
  11.725    0.109994E-05    0.519290E-07    0.115187E-05    0.104801E-05
  11.775    0.100678E-05    0.465162E-07    0.105330E-05    0.960269E-06
  11.825    0.922160E-06    0.417599E-07    0.963920E-06    0.880400E-06
  11.875    0.845279E-06    0.375802E-07    0.882859E-06    0.807699E-06
  11.925    0.775398E-06    0.339034E-07    0.809302E-06    0.741495E-06
  11.975    0.711828E-06    0.306621E-07    0.742490E-06    0.681166E-06
  12.025    0.653928E-06    0.277953E-07    0.681724E-06    0.626133E-06
  12.075    0.601111E-06    0.252486E-07    0.626359E-06    0.575862E-06
  12.125    0.552840E-06    0.229737E-07    0.575814E-06    0.529866E-06
  12.175    0.508632E-06    0.209286E-07    0.529561E-06    0.487703E-06
  12.225    0.468055E-06    0.190773E-07    0.487133E-06    0.448978E-06
  12.275    0.430728E-06    0.173894E-07    0.448117E-06    0.413338E-06
  12.325    0.396314E-06    0.158398E-07    0.412154E-06    0.380474E-06
  12.375    0.364525E-06    0.144087E-07    0.378933E-06    0.350116E-06
  12.425    0.335112E-06    0.130806E-07    0.348193E-06    0.322032E-06
  12.475    0.307867E-06    0.118442E-07    0.319711E-06    0.296023E-06
  12.525    0.282611E-06    0.106916E-07    0.293303E-06    0.271919E-06
  12.575    0.259197E-06    0.961787E-08    0.268815E-06    0.249579E-06
  12.625    0.237501E-06    0.862010E-08    0.246121E-06    0.228881E-06
  12.675    0.217418E-06    0.769687E-08    0.225115E-06    0.209721E-06
  12.725    0.198857E-06    0.684760E-08    0.205705E-06    0.192009E-06
  12.775    0.181739E-06    0.607192E-08    0.187811E-06    0.175668E-06
  12.825    0.165992E-06    0.536921E-08    0.171361E-06    0.160622E-06
  12.875    0.151544E-06    0.473822E-08    0.156283E-06    0.146806E-06
  12.925    0.138330E-06    0.417687E-08    0.142507E-06    0.134153E-06
  12.975    0.126279E-06    0.368219E-08    0.129961E-06    0.122597E-06
  13.025    0.115323E-06    0.325032E-08    0.118573E-06    0.112073E-06
  13.075    0.105390E-06    0.287667E-08    0.108266E-06    0.102513E-06
  13.125    0.964062E-07    0.255609E-08    0.989623E-07    0.938501E-07
  13.175    0.882981E-07    0.228316E-08    0.905813E-07    0.860150E-07
  13.225    0.809908E-07    0.205232E-08    0.830431E-07    0.789384E-07
  13.275    0.744097E-07    0.185808E-08    0.762678E-07    0.725517E-07
  13.325    0.684822E-07    0.169520E-08    0.701774E-07    0.667870E-07
  13.375    0.631375E-07    0.155869E-08    0.646962E-07    0.615788E-07
  13.425    0.583082E-07    0.144394E-08    0.597522E-07    0.568643E-07
  13.475    0.539310E-07    0.134667E-08    0.552777E-07    0.525843E-07
  13.525    0.499468E-07    0.126297E-08    0.512098E-07    0.486839E-07
  13.575    0.463021E-07    0.118927E-08    0.474913E-07    0.451128E-07
  13.625    0.429486E-07    0.112237E-08    0.440709E-07    0.418262E-07
  13.675    0.398441E-07    0.105949E-08    0.409036E-07    0.387846E-07
  13.725    0.369525E-07    0.998304E-09    0.379508E-07    0.359542E-07
  13.775    0.342438E-07    0.936983E-09    0.351808E-07    0.333068E-07
  13.825    0.316941E-07    0.874281E-09    0.325684E-07    0.308198E-07
  13.875    0.292852E-07    0.809543E-09    0.300948E-07    0.284757E-07
  13.925    0.270043E-07    0.742706E-09    0.277470E-07    0.262616E-07
  13.975    0.248432E-07    0.674249E-09    0.255175E-07    0.241690E-07
  14.025    0.227976E-07    0.605103E-09    0.234027E-07    0.221925E-07
  14.075    0.208663E-07    0.536520E-09    0.214028E-07    0.203297E-07
  14.125    0.190499E-07    0.469914E-09    0.195198E-07    0.185800E-07
  14.175    0.173505E-07    0.406704E-09    0.177572E-07    0.169438E-07
  14.225    0.157701E-07    0.348156E-09    0.161183E-07    0.154220E-07
  14.275    0.143105E-07    0.295265E-09    0.146058E-07    0.140153E-07
  14.325    0.129723E-07    0.248676E-09    0.132210E-07    0.127236E-07
  14.375    0.117546E-07    0.208656E-09    0.119632E-07    0.115459E-07
  14.425    0.106548E-07    0.175116E-09    0.108299E-07    0.104797E-07
  14.475    0.966888E-08    0.147669E-09    0.981655E-08    0.952121E-08
  14.525    0.879107E-08    0.125725E-09    0.891679E-08    0.866534E-08
  14.575    0.801440E-08    0.108584E-09    0.812298E-08    0.790582E-08
  14.625    0.733092E-08    0.955334E-10    0.742646E-08    0.723539E-08
  14.675    0.673201E-08    0.859168E-10    0.681793E-08    0.664610E-08
  14.725    0.620868E-08    0.791759E-10    0.628785E-08    0.612950E-08
  14.775    0.575181E-08    0.748595E-10    0.582667E-08    0.567695E-08
  14.825    0.535237E-08    0.726034E-10    0.542497E-08    0.527976E-08
  14.875    0.500157E-08    0.720905E-10    0.507366E-08    0.492948E-08
  14.925    0.469098E-08    0.730040E-10    0.476399E-08    0.461798E-08
  14.975    0.441265E-08    0.749854E-10    0.448764E-08    0.433767E-08
  15.025    0.415918E-08    0.776102E-10    0.423679E-08    0.408157E-08
  15.075    0.392390E-08    0.803864E-10    0.400428E-08    0.384351E-08
  15.125    0.370093E-08    0.827790E-10    0.378371E-08    0.361815E-08
  15.175    0.348538E-08    0.842562E-10    0.356964E-08    0.340113E-08
  15.225    0.327344E-08    0.843483E-10    0.335779E-08    0.318909E-08
  15.275    0.306248E-08    0.827086E-10    0.314518E-08    0.297977E-08
  15.325    0.285106E-08    0.791640E-10    0.293022E-08    0.277190E-08
  15.375    0.263896E-08    0.737439E-10    0.271271E-08    0.256522E-08
  15.425    0.242701E-08    0.666828E-10    0.249370E-08    0.236033E-08
  15.475    0.221693E-08    0.583922E-10    0.227532E-08    0.215854E-08
  15.525    0.201107E-08    0.494081E-10    0.206048E-08    0.196166E-08
  15.575    0.181211E-08    0.403198E-10    0.185243E-08    0.177179E-08
  15.625    0.162280E-08    0.316932E-10    0.165450E-08    0.159111E-08
  15.675    0.144564E-08    0.240004E-10    0.146964E-08    0.142164E-08
  15.725    0.128265E-08    0.175661E-10    0.130022E-08    0.126509E-08
  15.775    0.113529E-08    0.125403E-10    0.114783E-08    0.112275E-08
  15.825    0.100429E-08    0.889866E-11    0.101319E-08    0.995395E-09
  15.875    0.889759E-09    0.647100E-11    0.896230E-09    0.883288E-09
  15.925    0.791189E-09    0.498959E-11    0.796179E-09    0.786200E-09
  15.975    0.707640E-09    0.414915E-11    0.711789E-09    0.703491E-09
  16.025    0.637862E-09    0.366623E-11    0.641528E-09    0.634195E-09
  16.075    0.580449E-09    0.332788E-11    0.583777E-09    0.577121E-09
  16.125    0.533957E-09    0.302105E-11    0.536978E-09    0.530936E-09
  16.175    0.496978E-09    0.273881E-11    0.499717E-09    0.494239E-09
  16.225    0.468175E-09    0.256327E-11    0.470738E-09    0.465612E-09
  16.275    0.446274E-09    0.263018E-11    0.448904E-09    0.443644E-09
  16.325    0.430031E-09    0.308307E-11    0.433115E-09    0.426948E-09
  16.375    0.418192E-09    0.402669E-11    0.422219E-09    0.414165E-09
  16.425    0.409459E-09    0.548934E-11    0.414948E-09    0.403969E-09
  16.475    0.402488E-09    0.740180E-11    0.409889E-09    0.395086E-09
  16.525    0.395916E-09    0.959695E-11    0.405513E-09    0.386319E-09
  16.575    0.388424E-09    0.118304E-10    0.400254E-09    0.376593E-09
  16.625    0.378826E-09    0.138179E-10    0.392644E-09    0.365008E-09
  16.675    0.366172E-09    0.152829E-10    0.381455E-09    0.350889E-09
  16.725    0.349838E-09    0.160043E-10    0.365842E-09    0.333834E-09
  16.775    0.329598E-09    0.158565E-10    0.345455E-09    0.313742E-09
  16.825    0.305652E-09    0.148325E-10    0.320485E-09    0.290820E-09
  16.875    0.278602E-09    0.130477E-10    0.291650E-09    0.265554E-09
  16.925    0.249383E-09    0.107219E-10    0.260105E-09    0.238661E-09
  16.975    0.219151E-09    0.814335E-11    0.227295E-09    0.211008E-09
  17.025    0.189147E-09    0.562216E-11    0.194769E-09    0.183524E-09
  17.075    0.160549E-09    0.344006E-11    0.163989E-09    0.157109E-09
  17.125    0.134352E-09    0.180671E-11    0.136159E-09    0.132545E-09
  17.175    0.111267E-09    0.829669E-12    0.112097E-09    0.110438E-09
  17.225    0.916787E-10    0.503114E-12    0.921818E-10    0.911756E-10
  17.275    0.756432E-10    0.716899E-12    0.763601E-10    0.749263E-10
  17.325    0.629409E-10    0.128367E-11    0.642246E-10    0.616572E-10
  17.375    0.531572E-10    0.197854E-11    0.551358E-10    0.511787E-10
  17.425    0.457842E-10    0.258373E-11    0.483679E-10    0.432004E-10
  17.475    0.403190E-10    0.292964E-11    0.432486E-10    0.373894E-10
  17.525    0.363445E-10    0.292499E-11    0.392695E-10    0.334195E-10
  17.575    0.335767E-10    0.257063E-11    0.361473E-10    0.310061E-10
  17.625    0.318744E-10    0.195493E-11    0.338294E-10    0.299195E-10
  17.675    0.312124E-10    0.123214E-11    0.324445E-10    0.299803E-10
  17.725    0.316261E-10    0.588271E-12    0.322144E-10    0.310378E-10
  17.775    0.331424E-10    0.201372E-12    0.333437E-10    0.329410E-10
  17.825    0.357124E-10    0.203867E-12    0.359163E-10    0.355086E-10
  17.875    0.391620E-10    0.654275E-12    0.398163E-10    0.385077E-10
  17.925    0.431706E-10    0.152358E-11    0.446942E-10    0.416470E-10
  17.975    0.472854E-10    0.269872E-11    0.499841E-10    0.445866E-10
  18.025    0.509679E-10    0.400246E-11    0.549704E-10    0.469655E-10
  18.075    0.536659E-10    0.522562E-11    0.588915E-10    0.484403E-10
  18.125    0.548959E-10    0.616556E-11    0.610615E-10    0.487304E-10
  18.175    0.543225E-10    0.666359E-11    0.609861E-10    0.476589E-10
  18.225    0.518170E-10    0.663423E-11    0.584512E-10    0.451827E-10
  18.275    0.474858E-10    0.608094E-11    0.535668E-10    0.414049E-10
  18.325    0.416611E-10    0.509540E-11    0.467565E-10    0.365657E-10
  18.375    0.348548E-10    0.384072E-11    0.386956E-10    0.310141E-10
  18.425    0.276840E-10    0.252173E-11    0.302058E-10    0.251623E-10
  18.475    0.207798E-10    0.134797E-11    0.221278E-10    0.194319E-10
  18.525    0.146959E-10    0.496414E-12    0.151923E-10    0.141995E-10
  18.575    0.983197E-11    0.807363E-13    0.991271E-11    0.975124E-11
  18.625    0.638531E-11    0.132654E-12    0.651796E-11    0.625266E-11
  18.675    0.433778E-11    0.598689E-12    0.493647E-11    0.373909E-11
  18.725    0.347950E-11    0.135265E-11    0.483214E-11    0.212685E-11
  18.775    0.346362E-11    0.222121E-11    0.568482E-11    0.124241E-11
  18.825    0.388130E-11    0.301770E-11    0.689900E-11    0.863597E-12
  18.875    0.434248E-11    0.357755E-11    0.792003E-11    0.764926E-12
  18.925    0.454740E-11    0.378880E-11    0.833620E-11    0.758596E-12
  18.975    0.433614E-11    0.361209E-11    0.794823E-11    0.724054E-12
  19.025    0.370770E-11    0.308647E-11    0.679417E-11    0.621233E-12
  19.075    0.280621E-11    0.232027E-11    0.512648E-11    0.485940E-12
  19.125    0.187825E-11    0.146895E-11    0.334720E-11    0.409293E-12
  19.175    0.121040E-11    0.704288E-12    0.191469E-11    0.506114E-12
  19.225    0.106008E-11    0.180894E-12    0.124097E-11    0.879184E-12
  19.275    0.159335E-11    0.642915E-14    0.159978E-11    0.158692E-11
  19.325    0.284222E-11    0.221074E-12    0.306330E-11    0.262115E-11
  19.375    0.468971E-11    0.790066E-12    0.547978E-11    0.389965E-11
  19.425    0.688553E-11    0.161057E-11    0.849610E-11    0.527496E-11
  19.475    0.908940E-11    0.253144E-11    0.116208E-10    0.655796E-11
  19.525    0.109335E-10    0.338203E-11    0.143156E-10    0.755151E-11
  19.575    0.120922E-10    0.400448E-11    0.160967E-10    0.808774E-11
  19.625    0.123450E-10    0.428345E-11    0.166284E-10    0.806152E-11
  19.675    0.116213E-10    0.416765E-11    0.157889E-10    0.745362E-11
  19.725    0.100179E-10    0.367919E-11    0.136970E-10    0.633867E-11
  19.775    0.778540E-11    0.290911E-11    0.106945E-10    0.487630E-11
  19.825    0.528654E-11    0.200001E-11    0.728655E-11    0.328653E-11
  19.875    0.293310E-11    0.111919E-11    0.405229E-11    0.181390E-11
  19.925    0.111396E-11    0.427353E-12    0.154131E-11    0.686602E-12
  19.975    0.126785E-12    0.487661E-13    0.175551E-12    0.780189E-13
