   0.025    0.122728E+00    0.427366E-01    0.165464E+00    0.799911E-01
   0.075    0.122564E+00    0.428414E-01    0.165405E+00    0.797221E-01
   0.125    0.122237E+00    0.430501E-01    0.165287E+00    0.791868E-01
   0.175    0.121751E+00    0.433613E-01    0.165113E+00    0.783902E-01
   0.225    0.121112E+00    0.437725E-01    0.164885E+00    0.773398E-01
   0.275    0.120327E+00    0.442808E-01    0.164607E+00    0.760457E-01
   0.325    0.119402E+00    0.448822E-01    0.164285E+00    0.745202E-01
   0.375    0.118350E+00    0.455720E-01    0.163922E+00    0.727780E-01
   0.425    0.117180E+00    0.463448E-01    0.163525E+00    0.708356E-01
   0.475    0.115906E+00    0.471943E-01    0.163100E+00    0.687117E-01
   0.525    0.114540E+00    0.481135E-01    0.162654E+00    0.664267E-01
   0.575    0.113097E+00    0.490948E-01    0.162192E+00    0.640026E-01
   0.625    0.111592E+00    0.501299E-01    0.161722E+00    0.614625E-01
   0.675    0.110040E+00    0.512096E-01    0.161250E+00    0.588309E-01
   0.725    0.108457E+00    0.523245E-01    0.160782E+00    0.561330E-01
   0.775    0.106859E+00    0.534646E-01    0.160324E+00    0.533944E-01
   0.825    0.105261E+00    0.546196E-01    0.159880E+00    0.506411E-01
   0.875    0.103678E+00    0.557789E-01    0.159457E+00    0.478990E-01
   0.925    0.102125E+00    0.569319E-01    0.159057E+00    0.451934E-01
   0.975    0.100617E+00    0.580679E-01    0.158685E+00    0.425493E-01
   1.025    0.991667E-01    0.591766E-01    0.158343E+00    0.399902E-01
   1.075    0.977862E-01    0.602477E-01    0.158034E+00    0.375385E-01
   1.125    0.964868E-01    0.612718E-01    0.157759E+00    0.352150E-01
   1.175    0.952784E-01    0.622398E-01    0.157518E+00    0.330386E-01
   1.225    0.941694E-01    0.631435E-01    0.157313E+00    0.310259E-01
   1.275    0.931671E-01    0.639757E-01    0.157143E+00    0.291914E-01
   1.325    0.922770E-01    0.647300E-01    0.157007E+00    0.275471E-01
   1.375    0.915033E-01    0.654013E-01    0.156905E+00    0.261020E-01
   1.425    0.908483E-01    0.659856E-01    0.156834E+00    0.248628E-01
   1.475    0.903132E-01    0.664800E-01    0.156793E+00    0.238332E-01
   1.525    0.898974E-01    0.668832E-01    0.156781E+00    0.230142E-01
   1.575    0.895989E-01    0.671948E-01    0.156794E+00    0.224041E-01
   1.625    0.894143E-01    0.674158E-01    0.156830E+00    0.219985E-01
   1.675    0.893390E-01    0.675484E-01    0.156887E+00    0.217905E-01
   1.725    0.893669E-01    0.675960E-01    0.156963E+00    0.217709E-01
   1.775    0.894911E-01    0.675628E-01    0.157054E+00    0.219283E-01
   1.825    0.897036E-01    0.674543E-01    0.157158E+00    0.222493E-01
   1.875    0.899955E-01    0.672766E-01    0.157272E+00    0.227190E-01
   1.925    0.903573E-01    0.670365E-01    0.157394E+00    0.233208E-01
   1.975    0.907789E-01    0.667417E-01    0.157521E+00    0.240372E-01
   2.025    0.912498E-01    0.664000E-01    0.157650E+00    0.248499E-01
   2.075    0.917593E-01    0.660196E-01    0.157779E+00    0.257397E-01
   2.125    0.922966E-01    0.656091E-01    0.157906E+00    0.266874E-01
   2.175    0.928509E-01    0.651771E-01    0.158028E+00    0.276738E-01
   2.225    0.934117E-01    0.647319E-01    0.158144E+00    0.286798E-01
   2.275    0.939689E-01    0.642818E-01    0.158251E+00    0.296871E-01
   2.325    0.945128E-01    0.638349E-01    0.158348E+00    0.306779E-01
   2.375    0.950343E-01    0.633987E-01    0.158433E+00    0.316356E-01
   2.425    0.955252E-01    0.629804E-01    0.158506E+00    0.325448E-01
   2.475    0.959779E-01    0.625865E-01    0.158564E+00    0.333914E-01
   2.525    0.963859E-01    0.622228E-01    0.158609E+00    0.341630E-01
   2.575    0.967435E-01    0.618946E-01    0.158638E+00    0.348489E-01
   2.625    0.970462E-01    0.616062E-01    0.158652E+00    0.354399E-01
   2.675    0.972904E-01    0.613613E-01    0.158652E+00    0.359291E-01
   2.725    0.974737E-01    0.611626E-01    0.158636E+00    0.363111E-01
   2.775    0.975948E-01    0.610119E-01    0.158607E+00    0.365829E-01
   2.825    0.976533E-01    0.609104E-01    0.158564E+00    0.367430E-01
   2.875    0.976499E-01    0.608580E-01    0.158508E+00    0.367920E-01
   2.925    0.975864E-01    0.608540E-01    0.158440E+00    0.367324E-01
   2.975    0.974652E-01    0.608968E-01    0.158362E+00    0.365683E-01
   3.025    0.972897E-01    0.609840E-01    0.158274E+00    0.363056E-01
   3.075    0.970639E-01    0.611124E-01    0.158176E+00    0.359515E-01
   3.125    0.967927E-01    0.612780E-01    0.158071E+00    0.355147E-01
   3.175    0.964809E-01    0.614761E-01    0.157957E+00    0.350048E-01
   3.225    0.961342E-01    0.617017E-01    0.157836E+00    0.344325E-01
   3.275    0.957581E-01    0.619488E-01    0.157707E+00    0.338093E-01
   3.325    0.953584E-01    0.622114E-01    0.157570E+00    0.331470E-01
   3.375    0.949408E-01    0.624831E-01    0.157424E+00    0.324577E-01
   3.425    0.945106E-01    0.627569E-01    0.157268E+00    0.317537E-01
   3.475    0.940731E-01    0.630262E-01    0.157099E+00    0.310470E-01
   3.525    0.936328E-01    0.632839E-01    0.156917E+00    0.303489E-01
   3.575    0.931938E-01    0.635232E-01    0.156717E+00    0.296706E-01
   3.625    0.927596E-01    0.637375E-01    0.156497E+00    0.290222E-01
   3.675    0.923328E-01    0.639202E-01    0.156253E+00    0.284126E-01
   3.725    0.919153E-01    0.640654E-01    0.155981E+00    0.278499E-01
   3.775    0.915081E-01    0.641672E-01    0.155675E+00    0.273409E-01
   3.825    0.911114E-01    0.642205E-01    0.155332E+00    0.268908E-01
   3.875    0.907244E-01    0.642206E-01    0.154945E+00    0.265038E-01
   3.925    0.903455E-01    0.641633E-01    0.154509E+00    0.261822E-01
   3.975    0.899724E-01    0.640451E-01    0.154018E+00    0.259273E-01
   4.025    0.896019E-01    0.638631E-01    0.153465E+00    0.257388E-01
   4.075    0.892300E-01    0.636149E-01    0.152845E+00    0.256151E-01
   4.125    0.888522E-01    0.632989E-01    0.152151E+00    0.255534E-01
   4.175    0.884636E-01    0.629139E-01    0.151377E+00    0.255497E-01
   4.225    0.880586E-01    0.624595E-01    0.150518E+00    0.255991E-01
   4.275    0.876315E-01    0.619355E-01    0.149567E+00    0.256959E-01
   4.325    0.871762E-01    0.613427E-01    0.148519E+00    0.258336E-01
   4.375    0.866869E-01    0.606817E-01    0.147369E+00    0.260052E-01
   4.425    0.861573E-01    0.599541E-01    0.146111E+00    0.262033E-01
   4.475    0.855817E-01    0.591614E-01    0.144743E+00    0.264203E-01
   4.525    0.849544E-01    0.583057E-01    0.143260E+00    0.266487E-01
   4.575    0.842700E-01    0.573891E-01    0.141659E+00    0.268808E-01
   4.625    0.835236E-01    0.564142E-01    0.139938E+00    0.271094E-01
   4.675    0.827108E-01    0.553834E-01    0.138094E+00    0.273274E-01
   4.725    0.818277E-01    0.542995E-01    0.136127E+00    0.275282E-01
   4.775    0.808709E-01    0.531652E-01    0.134036E+00    0.277057E-01
   4.825    0.798379E-01    0.519834E-01    0.131821E+00    0.278545E-01
   4.875    0.787266E-01    0.507571E-01    0.129484E+00    0.279695E-01
   4.925    0.775355E-01    0.494890E-01    0.127025E+00    0.280465E-01
   4.975    0.762642E-01    0.481823E-01    0.124446E+00    0.280820E-01
   5.025    0.749126E-01    0.468398E-01    0.121752E+00    0.280728E-01
   5.075    0.734814E-01    0.454647E-01    0.118946E+00    0.280167E-01
   5.125    0.719721E-01    0.440600E-01    0.116032E+00    0.279120E-01
   5.175    0.703866E-01    0.426290E-01    0.113016E+00    0.277576E-01
   5.225    0.687277E-01    0.411748E-01    0.109903E+00    0.275529E-01
   5.275    0.669987E-01    0.397009E-01    0.106700E+00    0.272978E-01
   5.325    0.652035E-01    0.382106E-01    0.103414E+00    0.269930E-01
   5.375    0.633467E-01    0.367076E-01    0.100054E+00    0.266392E-01
   5.425    0.614333E-01    0.351956E-01    0.966289E-01    0.262377E-01
   5.475    0.594688E-01    0.336785E-01    0.931473E-01    0.257903E-01
   5.525    0.574593E-01    0.321603E-01    0.896196E-01    0.252990E-01
   5.575    0.554112E-01    0.306451E-01    0.860563E-01    0.247661E-01
   5.625    0.533314E-01    0.291371E-01    0.824685E-01    0.241942E-01
   5.675    0.512269E-01    0.276407E-01    0.788676E-01    0.235862E-01
   5.725    0.491052E-01    0.261602E-01    0.752654E-01    0.229449E-01
   5.775    0.469738E-01    0.247000E-01    0.716738E-01    0.222738E-01
   5.825    0.448406E-01    0.232644E-01    0.681049E-01    0.215762E-01
   5.875    0.427131E-01    0.218576E-01    0.645707E-01    0.208555E-01
   5.925    0.405992E-01    0.204837E-01    0.610829E-01    0.201155E-01
   5.975    0.385064E-01    0.191467E-01    0.576531E-01    0.193597E-01
   6.025    0.364420E-01    0.178501E-01    0.542921E-01    0.185919E-01
   6.075    0.344132E-01    0.165974E-01    0.510105E-01    0.178158E-01
   6.125    0.324265E-01    0.153914E-01    0.478179E-01    0.170351E-01
   6.175    0.304882E-01    0.142348E-01    0.447231E-01    0.162534E-01
   6.225    0.286041E-01    0.131298E-01    0.417339E-01    0.154743E-01
   6.275    0.267792E-01    0.120782E-01    0.388574E-01    0.147011E-01
   6.325    0.250180E-01    0.110811E-01    0.360991E-01    0.139370E-01
   6.375    0.233244E-01    0.101393E-01    0.334638E-01    0.131851E-01
   6.425    0.217015E-01    0.925336E-02    0.309549E-01    0.124482E-01
   6.475    0.201518E-01    0.842298E-02    0.285748E-01    0.117288E-01
   6.525    0.186770E-01    0.764768E-02    0.263246E-01    0.110293E-01
   6.575    0.172781E-01    0.692651E-02    0.242046E-01    0.103516E-01
   6.625    0.159556E-01    0.625818E-02    0.222138E-01    0.969739E-02
   6.675    0.147093E-01    0.564108E-02    0.203503E-01    0.906820E-02
   6.725    0.135384E-01    0.507329E-02    0.186117E-01    0.846511E-02
   6.775    0.124416E-01    0.455269E-02    0.169943E-01    0.788896E-02
   6.825    0.114173E-01    0.407698E-02    0.154943E-01    0.734032E-02
   6.875    0.104632E-01    0.364371E-02    0.141069E-01    0.681949E-02
   6.925    0.957687E-02    0.325033E-02    0.128272E-01    0.632654E-02
   6.975    0.875555E-02    0.289426E-02    0.116498E-01    0.586130E-02
   7.025    0.799628E-02    0.257289E-02    0.105692E-01    0.542339E-02
   7.075    0.729593E-02    0.228366E-02    0.957958E-02    0.501227E-02
   7.125    0.665126E-02    0.202401E-02    0.867527E-02    0.462725E-02
   7.175    0.605900E-02    0.179151E-02    0.785051E-02    0.426748E-02
   7.225    0.551585E-02    0.158381E-02    0.709965E-02    0.393204E-02
   7.275    0.501855E-02    0.139864E-02    0.641719E-02    0.361991E-02
   7.325    0.456391E-02    0.123391E-02    0.579782E-02    0.333000E-02
   7.375    0.414882E-02    0.108762E-02    0.523643E-02    0.306120E-02
   7.425    0.377028E-02    0.957922E-03    0.472820E-02    0.281236E-02
   7.475    0.342543E-02    0.843115E-03    0.426854E-02    0.258231E-02
   7.525    0.311155E-02    0.741625E-03    0.385318E-02    0.236993E-02
   7.575    0.282609E-02    0.652014E-03    0.347810E-02    0.217407E-02
   7.625    0.256662E-02    0.572977E-03    0.313960E-02    0.199364E-02
   7.675    0.233091E-02    0.503330E-03    0.283424E-02    0.182758E-02
   7.725    0.211686E-02    0.442005E-03    0.255887E-02    0.167486E-02
   7.775    0.192255E-02    0.388046E-03    0.231060E-02    0.153451E-02
   7.825    0.174620E-02    0.340594E-03    0.208679E-02    0.140560E-02
   7.875    0.158615E-02    0.298885E-03    0.188504E-02    0.128727E-02
   7.925    0.144093E-02    0.262238E-03    0.170317E-02    0.117869E-02
   7.975    0.130916E-02    0.230050E-03    0.153921E-02    0.107911E-02
   8.025    0.118959E-02    0.201787E-03    0.139138E-02    0.987807E-03
   8.075    0.108109E-02    0.176975E-03    0.125807E-02    0.904119E-03
   8.125    0.982632E-03    0.155198E-03    0.113783E-02    0.827434E-03
   8.175    0.893273E-03    0.136089E-03    0.102936E-02    0.757184E-03
   8.225    0.812168E-03    0.119324E-03    0.931492E-03    0.692844E-03
   8.275    0.738549E-03    0.104618E-03    0.843168E-03    0.633931E-03
   8.325    0.671721E-03    0.917218E-04    0.763442E-03    0.579999E-03
   8.375    0.611052E-03    0.804137E-04    0.691466E-03    0.530638E-03
   8.425    0.555972E-03    0.705006E-04    0.626473E-03    0.485472E-03
   8.475    0.505963E-03    0.618121E-04    0.567776E-03    0.444151E-03
   8.525    0.460556E-03    0.541985E-04    0.514755E-03    0.406358E-03
   8.575    0.419325E-03    0.475279E-04    0.466853E-03    0.371797E-03
   8.625    0.381882E-03    0.416844E-04    0.423567E-03    0.340198E-03
   8.675    0.347878E-03    0.365663E-04    0.384444E-03    0.311312E-03
   8.725    0.316993E-03    0.320839E-04    0.349077E-03    0.284909E-03
   8.775    0.288937E-03    0.281583E-04    0.317095E-03    0.260779E-03
   8.825    0.263447E-03    0.247203E-04    0.288167E-03    0.238727E-03
   8.875    0.240283E-03    0.217090E-04    0.261993E-03    0.218574E-03
   8.925    0.219229E-03    0.190712E-04    0.238300E-03    0.200158E-03
   8.975    0.200086E-03    0.167598E-04    0.216846E-03    0.183326E-03
   9.025    0.182675E-03    0.147339E-04    0.197409E-03    0.167941E-03
   9.075    0.166833E-03    0.129575E-04    0.179790E-03    0.153875E-03
   9.125    0.152413E-03    0.113991E-04    0.163812E-03    0.141014E-03
   9.175    0.139281E-03    0.100314E-04    0.149313E-03    0.129250E-03
   9.225    0.127317E-03    0.883024E-05    0.136148E-03    0.118487E-03
   9.275    0.116412E-03    0.777481E-05    0.124187E-03    0.108637E-03
   9.325    0.106466E-03    0.684687E-05    0.113313E-03    0.996194E-04
   9.375    0.973916E-04    0.603055E-05    0.103422E-03    0.913610E-04
   9.425    0.891077E-04    0.531207E-05    0.944198E-04    0.837957E-04
   9.475    0.815425E-04    0.467939E-05    0.862219E-04    0.768631E-04
   9.525    0.746307E-04    0.412206E-05    0.787528E-04    0.705087E-04
   9.575    0.683138E-04    0.363096E-05    0.719448E-04    0.646829E-04
   9.625    0.625389E-04    0.319814E-05    0.657370E-04    0.593408E-04
   9.675    0.572583E-04    0.281668E-05    0.600750E-04    0.544416E-04
   9.725    0.524289E-04    0.248049E-05    0.549094E-04    0.499484E-04
   9.775    0.480117E-04    0.218425E-05    0.501960E-04    0.458275E-04
   9.825    0.439715E-04    0.192329E-05    0.458948E-04    0.420482E-04
   9.875    0.402760E-04    0.169350E-05    0.419695E-04    0.385825E-04
   9.925    0.368961E-04    0.149124E-05    0.383874E-04    0.354049E-04
   9.975    0.338052E-04    0.131330E-05    0.351185E-04    0.324919E-04
  10.025    0.309789E-04    0.115682E-05    0.321357E-04    0.298220E-04
  10.075    0.283947E-04    0.101929E-05    0.294140E-04    0.273754E-04
  10.125    0.260322E-04    0.898461E-06    0.269307E-04    0.251338E-04
  10.175    0.238726E-04    0.792329E-06    0.246649E-04    0.230803E-04
  10.225    0.218984E-04    0.699123E-06    0.225975E-04    0.211993E-04
  10.275    0.200937E-04    0.617270E-06    0.207110E-04    0.194764E-04
  10.325    0.184437E-04    0.545371E-06    0.189891E-04    0.178983E-04
  10.375    0.169349E-04    0.482191E-06    0.174171E-04    0.164527E-04
  10.425    0.155548E-04    0.426637E-06    0.159814E-04    0.151281E-04
  10.475    0.142919E-04    0.377747E-06    0.146696E-04    0.139141E-04
  10.525    0.131357E-04    0.334677E-06    0.134704E-04    0.128011E-04
  10.575    0.120767E-04    0.296687E-06    0.123734E-04    0.117801E-04
  10.625    0.111061E-04    0.263132E-06    0.113692E-04    0.108430E-04
  10.675    0.102159E-04    0.233451E-06    0.104493E-04    0.998244E-05
  10.725    0.939884E-05    0.207157E-06    0.960600E-05    0.919168E-05
  10.775    0.864842E-05    0.183829E-06    0.883225E-05    0.846459E-05
  10.825    0.795872E-05    0.163107E-06    0.812182E-05    0.779561E-05
  10.875    0.732441E-05    0.144676E-06    0.746909E-05    0.717973E-05
  10.925    0.674072E-05    0.128269E-06    0.686899E-05    0.661245E-05
  10.975    0.620335E-05    0.113655E-06    0.631701E-05    0.608970E-05
  11.025    0.570845E-05    0.100636E-06    0.580909E-05    0.560782E-05
  11.075    0.525256E-05    0.890382E-07    0.534160E-05    0.516352E-05
  11.125    0.483257E-05    0.787137E-07    0.491128E-05    0.475386E-05
  11.175    0.444568E-05    0.695312E-07    0.451521E-05    0.437614E-05
  11.225    0.408934E-05    0.613754E-07    0.415072E-05    0.402797E-05
  11.275    0.376127E-05    0.541435E-07    0.381541E-05    0.370713E-05
  11.325    0.345935E-05    0.477432E-07    0.350710E-05    0.341161E-05
  11.375    0.318166E-05    0.420907E-07    0.322375E-05    0.313957E-05
  11.425    0.292639E-05    0.371093E-07    0.296350E-05    0.288928E-05
  11.475    0.269190E-05    0.327289E-07    0.272463E-05    0.265917E-05
  11.525    0.247663E-05    0.288844E-07    0.250552E-05    0.244775E-05
  11.575    0.227912E-05    0.255163E-07    0.230464E-05    0.225360E-05
  11.625    0.209800E-05    0.225694E-07    0.212057E-05    0.207543E-05
  11.675    0.193198E-05    0.199933E-07    0.195197E-05    0.191198E-05
  11.725    0.177983E-05    0.177419E-07    0.179757E-05    0.176209E-05
  11.775    0.164041E-05    0.157737E-07    0.165618E-05    0.162463E-05
  11.825    0.151263E-05    0.140510E-07    0.152668E-05    0.149858E-05
  11.875    0.139548E-05    0.125405E-07    0.140802E-05    0.138294E-05
  11.925    0.128802E-05    0.112124E-07    0.129924E-05    0.127681E-05
  11.975    0.118937E-05    0.100408E-07    0.119941E-05    0.117933E-05
  12.025    0.109871E-05    0.900324E-08    0.110772E-05    0.108971E-05
  12.075    0.101530E-05    0.808013E-08    0.102338E-05    0.100722E-05
  12.125    0.938468E-06    0.725495E-08    0.945723E-06    0.931213E-06
  12.175    0.867589E-06    0.651372E-08    0.874103E-06    0.861076E-06
  12.225    0.802115E-06    0.584480E-08    0.807960E-06    0.796271E-06
  12.275    0.741554E-06    0.523862E-08    0.746792E-06    0.736315E-06
  12.325    0.685467E-06    0.468748E-08    0.690155E-06    0.680780E-06
  12.375    0.633472E-06    0.418521E-08    0.637657E-06    0.629287E-06
  12.425    0.585231E-06    0.372701E-08    0.588958E-06    0.581504E-06
  12.475    0.540451E-06    0.330916E-08    0.543760E-06    0.537141E-06
  12.525    0.498875E-06    0.292880E-08    0.501803E-06    0.495946E-06
  12.575    0.460280E-06    0.258368E-08    0.462864E-06    0.457696E-06
  12.625    0.424470E-06    0.227196E-08    0.426742E-06    0.422199E-06
  12.675    0.391273E-06    0.199204E-08    0.393265E-06    0.389281E-06
  12.725    0.360531E-06    0.174235E-08    0.362273E-06    0.358788E-06
  12.775    0.332102E-06    0.152129E-08    0.333623E-06    0.330581E-06
  12.825    0.305854E-06    0.132710E-08    0.307181E-06    0.304527E-06
  12.875    0.281661E-06    0.115786E-08    0.282819E-06    0.280503E-06
  12.925    0.259401E-06    0.101151E-08    0.260413E-06    0.258390E-06
  12.975    0.238956E-06    0.885831E-09    0.239841E-06    0.238070E-06
  13.025    0.220207E-06    0.778552E-09    0.220986E-06    0.219429E-06
  13.075    0.203040E-06    0.687405E-09    0.203727E-06    0.202352E-06
  13.125    0.187338E-06    0.610195E-09    0.187948E-06    0.186728E-06
  13.175    0.172989E-06    0.544861E-09    0.173534E-06    0.172444E-06
  13.225    0.159880E-06    0.489521E-09    0.160370E-06    0.159391E-06
  13.275    0.147904E-06    0.442498E-09    0.148347E-06    0.147462E-06
  13.325    0.136955E-06    0.402327E-09    0.137358E-06    0.136553E-06
  13.375    0.126934E-06    0.367743E-09    0.127302E-06    0.126567E-06
  13.425    0.117746E-06    0.337661E-09    0.118084E-06    0.117409E-06
  13.475    0.109303E-06    0.311149E-09    0.109614E-06    0.108992E-06
  13.525    0.101523E-06    0.287409E-09    0.101811E-06    0.101236E-06
  13.575    0.943336E-07    0.265753E-09    0.945994E-07    0.940679E-07
  13.625    0.876675E-07    0.245594E-09    0.879131E-07    0.874219E-07
  13.675    0.814669E-07    0.226448E-09    0.816934E-07    0.812405E-07
  13.725    0.756814E-07    0.207937E-09    0.758894E-07    0.754735E-07
  13.775    0.702684E-07    0.189797E-09    0.704582E-07    0.700786E-07
  13.825    0.651926E-07    0.171887E-09    0.653645E-07    0.650207E-07
  13.875    0.604253E-07    0.154186E-09    0.605795E-07    0.602711E-07
  13.925    0.559442E-07    0.136788E-09    0.560810E-07    0.558074E-07
  13.975    0.517320E-07    0.119877E-09    0.518519E-07    0.516121E-07
  14.025    0.477760E-07    0.103707E-09    0.478797E-07    0.476723E-07
  14.075    0.440667E-07    0.885561E-10    0.441553E-07    0.439781E-07
  14.125    0.405972E-07    0.746956E-10    0.406719E-07    0.405225E-07
  14.175    0.373618E-07    0.623493E-10    0.374241E-07    0.372994E-07
  14.225    0.343556E-07    0.516655E-10    0.344073E-07    0.343039E-07
  14.275    0.315735E-07    0.426993E-10    0.316162E-07    0.315308E-07
  14.325    0.290095E-07    0.354080E-10    0.290449E-07    0.289741E-07
  14.375    0.266568E-07    0.296596E-10    0.266865E-07    0.266271E-07
  14.425    0.245069E-07    0.252535E-10    0.245322E-07    0.244817E-07
  14.475    0.225501E-07    0.219483E-10    0.225720E-07    0.225282E-07
  14.525    0.207752E-07    0.194933E-10    0.207947E-07    0.207557E-07
  14.575    0.191700E-07    0.176567E-10    0.191877E-07    0.191524E-07
  14.625    0.177214E-07    0.162486E-10    0.177376E-07    0.177051E-07
  14.675    0.164155E-07    0.151330E-10    0.164306E-07    0.164003E-07
  14.725    0.152383E-07    0.142304E-10    0.152525E-07    0.152241E-07
  14.775    0.141759E-07    0.135092E-10    0.141894E-07    0.141624E-07
  14.825    0.132146E-07    0.129700E-10    0.132276E-07    0.132016E-07
  14.875    0.123412E-07    0.126253E-10    0.123538E-07    0.123286E-07
  14.925    0.115432E-07    0.124805E-10    0.115557E-07    0.115307E-07
  14.975    0.108092E-07    0.125184E-10    0.108217E-07    0.107967E-07
  15.025    0.101287E-07    0.126902E-10    0.101414E-07    0.101160E-07
  15.075    0.949237E-08    0.129168E-10    0.950528E-08    0.947945E-08
  15.125    0.889229E-08    0.130966E-10    0.890538E-08    0.887919E-08
  15.175    0.832186E-08    0.131205E-10    0.833498E-08    0.830874E-08
  15.225    0.777592E-08    0.128908E-10    0.778881E-08    0.776303E-08
  15.275    0.725075E-08    0.123380E-10    0.726309E-08    0.723841E-08
  15.325    0.674402E-08    0.114357E-10    0.675545E-08    0.673258E-08
  15.375    0.625467E-08    0.102068E-10    0.626487E-08    0.624446E-08
  15.425    0.578277E-08    0.872280E-11    0.579149E-08    0.577405E-08
  15.475    0.532928E-08    0.709384E-11    0.533638E-08    0.532219E-08
  15.525    0.489581E-08    0.545252E-11    0.490127E-08    0.489036E-08
  15.575    0.448432E-08    0.393380E-11    0.448825E-08    0.448039E-08
  15.625    0.409683E-08    0.265442E-11    0.409949E-08    0.409418E-08
  15.675    0.373522E-08    0.169563E-11    0.373691E-08    0.373352E-08
  15.725    0.340094E-08    0.109207E-11    0.340203E-08    0.339985E-08
  15.775    0.309493E-08    0.828698E-12    0.309576E-08    0.309410E-08
  15.825    0.281750E-08    0.846009E-12    0.281835E-08    0.281666E-08
  15.875    0.256832E-08    0.105259E-11    0.256938E-08    0.256727E-08
  15.925    0.234646E-08    0.134251E-11    0.234781E-08    0.234512E-08
  15.975    0.215049E-08    0.161431E-11    0.215210E-08    0.214888E-08
  16.025    0.197857E-08    0.178829E-11    0.198036E-08    0.197678E-08
  16.075    0.182860E-08    0.181896E-11    0.183042E-08    0.182678E-08
  16.125    0.169831E-08    0.170059E-11    0.170001E-08    0.169660E-08
  16.175    0.158535E-08    0.146514E-11    0.158681E-08    0.158388E-08
  16.225    0.148738E-08    0.117320E-11    0.148856E-08    0.148621E-08
  16.275    0.140211E-08    0.899829E-12    0.140301E-08    0.140121E-08
  16.325    0.132730E-08    0.718111E-12    0.132802E-08    0.132658E-08
  16.375    0.126079E-08    0.683569E-12    0.126148E-08    0.126011E-08
  16.425    0.120053E-08    0.822397E-12    0.120136E-08    0.119971E-08
  16.475    0.114458E-08    0.112563E-11    0.114571E-08    0.114346E-08
  16.525    0.109117E-08    0.155026E-11    0.109272E-08    0.108962E-08
  16.575    0.103873E-08    0.202697E-11    0.104075E-08    0.103670E-08
  16.625    0.985958E-09    0.247298E-11    0.988431E-09    0.983485E-09
  16.675    0.931905E-09    0.280746E-11    0.934712E-09    0.929097E-09
  16.725    0.875981E-09    0.296665E-11    0.878948E-09    0.873015E-09
  16.775    0.818012E-09    0.291576E-11    0.820928E-09    0.815096E-09
  16.825    0.758222E-09    0.265558E-11    0.760878E-09    0.755567E-09
  16.875    0.697202E-09    0.222245E-11    0.699425E-09    0.694980E-09
  16.925    0.635834E-09    0.168185E-11    0.637516E-09    0.634152E-09
  16.975    0.575191E-09    0.111660E-11    0.576308E-09    0.574075E-09
  17.025    0.516424E-09    0.612124E-12    0.517036E-09    0.515812E-09
  17.075    0.460639E-09    0.241335E-12    0.460880E-09    0.460398E-09
  17.125    0.408798E-09    0.520569E-13    0.408850E-09    0.408746E-09
  17.175    0.361632E-09    0.591231E-13    0.361691E-09    0.361573E-09
  17.225    0.319598E-09    0.242616E-12    0.319841E-09    0.319356E-09
  17.275    0.282870E-09    0.552436E-12    0.283422E-09    0.282317E-09
  17.325    0.251358E-09    0.918262E-12    0.252276E-09    0.250439E-09
  17.375    0.224766E-09    0.126299E-11    0.226029E-09    0.223503E-09
  17.425    0.202659E-09    0.151710E-11    0.204176E-09    0.201142E-09
  17.475    0.184532E-09    0.163133E-11    0.186163E-09    0.182900E-09
  17.525    0.169871E-09    0.158528E-11    0.171457E-09    0.168286E-09
  17.575    0.158204E-09    0.139048E-11    0.159594E-09    0.156813E-09
  17.625    0.149113E-09    0.108746E-11    0.150200E-09    0.148025E-09
  17.675    0.142238E-09    0.737415E-12    0.142976E-09    0.141501E-09
  17.725    0.137255E-09    0.410156E-12    0.137666E-09    0.136845E-09
  17.775    0.133844E-09    0.170657E-12    0.134014E-09    0.133673E-09
  17.825    0.131656E-09    0.666876E-13    0.131723E-09    0.131590E-09
  17.875    0.130297E-09    0.119872E-12    0.130417E-09    0.130177E-09
  17.925    0.129317E-09    0.321775E-12    0.129638E-09    0.128995E-09
  17.975    0.128225E-09    0.635687E-12    0.128861E-09    0.127590E-09
  18.025    0.126528E-09    0.100371E-11    0.127532E-09    0.125524E-09
  18.075    0.123772E-09    0.135772E-11    0.125129E-09    0.122414E-09
  18.125    0.119597E-09    0.163220E-11    0.121229E-09    0.117965E-09
  18.175    0.113789E-09    0.177640E-11    0.115565E-09    0.112012E-09
  18.225    0.106307E-09    0.176366E-11    0.108071E-09    0.104543E-09
  18.275    0.973004E-10    0.159621E-11    0.988966E-10    0.957042E-10
  18.325    0.870930E-10    0.130444E-11    0.883974E-10    0.857885E-10
  18.375    0.761448E-10    0.941071E-12    0.770858E-10    0.752037E-10
  18.425    0.649950E-10    0.571183E-12    0.655662E-10    0.644238E-10
  18.475    0.541937E-10    0.260072E-12    0.544538E-10    0.539337E-10
  18.525    0.442336E-10    0.612220E-13    0.442948E-10    0.441724E-10
  18.575    0.354927E-10    0.661343E-14    0.354993E-10    0.354860E-10
  18.625    0.281964E-10    0.101133E-12    0.282975E-10    0.280952E-10
  18.675    0.224048E-10    0.322086E-12    0.227269E-10    0.220827E-10
  18.725    0.180251E-10    0.623829E-12    0.186490E-10    0.174013E-10
  18.775    0.148471E-10    0.946606E-12    0.157937E-10    0.139005E-10
  18.825    0.125926E-10    0.122788E-11    0.138205E-10    0.113647E-10
  18.875    0.109715E-10    0.141404E-11    0.123856E-10    0.955749E-11
  18.925    0.973193E-11    0.147025E-11    0.112022E-10    0.826168E-11
  18.975    0.869747E-11    0.138673E-11    0.100842E-10    0.731074E-11
  19.025    0.778486E-11    0.118020E-11    0.896506E-11    0.660466E-11
  19.075    0.700008E-11    0.890425E-12    0.789050E-11    0.610965E-11
  19.125    0.641531E-11    0.572423E-12    0.698774E-11    0.584289E-11
  19.175    0.613251E-11    0.285992E-12    0.641850E-11    0.584652E-11
  19.225    0.624180E-11    0.844067E-13    0.632621E-11    0.615740E-11
  19.275    0.678384E-11    0.449123E-14    0.678833E-11    0.677935E-11
  19.325    0.772409E-11    0.598788E-13    0.778397E-11    0.766421E-11
  19.375    0.894458E-11    0.238682E-12    0.918326E-11    0.870590E-11
  19.425    0.102550E-10    0.505967E-12    0.107610E-10    0.974908E-11
  19.475    0.114215E-10    0.810512E-12    0.122320E-10    0.106110E-10
  19.525    0.122066E-10    0.109455E-11    0.133011E-10    0.111120E-10
  19.575    0.124141E-10    0.130464E-11    0.137188E-10    0.111095E-10
  19.625    0.119285E-10    0.140161E-11    0.133301E-10    0.105269E-10
  19.675    0.107415E-10    0.136774E-11    0.121093E-10    0.937379E-11
  19.725    0.896093E-11    0.120991E-11    0.101708E-10    0.775102E-11
  19.775    0.679784E-11    0.958036E-12    0.775587E-11    0.583980E-11
  19.825    0.453583E-11    0.659304E-12    0.519514E-11    0.387653E-11
  19.875    0.248612E-11    0.369189E-12    0.285531E-11    0.211693E-11
  19.925    0.936956E-12    0.141030E-12    0.107799E-11    0.795926E-12
  19.975    0.106243E-12    0.160963E-13    0.122339E-12    0.901463E-13
