%!PS-Adobe-3.0 EPSF-3.0
%%BoundingBox: (atend)
%%LanguageLevel: 2
%%Creator: Grace-5.1.25
%%CreationDate: Wed Nov 25 11:39:00 2015
%%DocumentData: Clean8Bit
%%Orientation: Portrait
%%Title: EoS_SNM_STfit.agr
%%For: ap1450
%%DocumentNeededResources: (atend)
%%EndComments
%%BeginProlog
/m {moveto} def
/l {lineto} def
/s {stroke} def
/n {newpath} def
/c {closepath} def
/RL {rlineto} def
/SLW {setlinewidth} def
/GS {gsave} def
/GR {grestore} def
/SC {setcolor} def
/SGRY {setgray} def
/SRGB {setrgbcolor} def
/SD {setdash} def
/SLC {setlinecap} def
/SLJ {setlinejoin} def
/SCS {setcolorspace} def
/FFSF {findfont setfont} def
/CC {concat} def
/PXL {n m 0 0 RL s} def
/Color0 {1.0000 1.0000 1.0000} def
/Color1 {0.0000 0.0000 0.0000} def
/Color2 {1.0000 0.0000 0.0000} def
/Color3 {0.0000 1.0000 0.0000} def
/Color4 {0.0000 0.0000 1.0000} def
/Color5 {1.0000 1.0000 0.0000} def
/Color6 {0.7373 0.5608 0.5608} def
/Color7 {0.8627 0.8627 0.8627} def
/Color8 {0.5804 0.0000 0.8275} def
/Color9 {0.0000 1.0000 1.0000} def
/Color10 {1.0000 0.0000 1.0000} def
/Color11 {1.0000 0.6471 0.0000} def
/Color12 {0.4471 0.1294 0.7373} def
/Color13 {0.4039 0.0275 0.2824} def
/Color14 {0.2510 0.8784 0.8157} def
/Color15 {0.0000 0.5451 0.0000} def
/Color16 {0.7529 0.7529 0.7529} def
/Color17 {0.5059 0.5059 0.5059} def
/Color18 {0.2588 0.2588 0.2588} def
/PTRN {
 /pat_bits exch def 
 <<
  /PaintType 2
  /PatternType 1 /TilingType 1
  /BBox[0 0 16 16]
  /XStep 16 /YStep 16
  /PaintProc {
   pop
   16 16 true [-1 0 0 -1 16 16] pat_bits imagemask
  }
 >>
 [0.0016 0 0 0.0016 0 0]
 makepattern
} def
/Pattern0 {<0000000000000000000000000000000000000000000000000000000000000000> PTRN} bind def
/Pattern1 {<ffffffffffffffffffffffffffffffffffffffffffffffffffffffffffffffff> PTRN} bind def
/Pattern2 {<eeeeffffbbbbffffeeeeffffbbbbffffeeeeffffbbbbffffeeeeffffbbbbffff> PTRN} bind def
/Pattern3 {<eeeebbbbeeeebbbbeeeebbbbeeeebbbbeeeebbbbeeeebbbbeeeebbbbeeeebbbb> PTRN} bind def
/Pattern4 {<5555aaaa5555aaaa5555aaaa5555aaaa5555aaaa5555aaaa5555aaaa5555aaaa> PTRN} bind def
/Pattern5 {<1111444411114444111144441111444411114444111144441111444411114444> PTRN} bind def
/Pattern6 {<1111000044440000111100004444000011110000444400001111000044440000> PTRN} bind def
/Pattern7 {<1010000000000000010100000000000010100000000000000101000000000000> PTRN} bind def
/Pattern8 {<0000000000000000000000000000000000000000000000000000000000000000> PTRN} bind def
/Pattern9 {<1e1e0f0f8787c3c3e1e1f0f078783c3c1e1e0f0f8787c3c3e1e1f0f078783c3c> PTRN} bind def
/Pattern10 {<7878f0f0e1e1c3c387870f0f1e1e3c3c7878f0f0e1e1c3c387870f0f1e1e3c3c> PTRN} bind def
/Pattern11 {<3333333333333333333333333333333333333333333333333333333333333333> PTRN} bind def
/Pattern12 {<ffffffff00000000ffffffff00000000ffffffff00000000ffffffff00000000> PTRN} bind def
/Pattern13 {<8181424224241818181824244242818181814242242418181818242442428181> PTRN} bind def
/Pattern14 {<8080404020201010080804040202010180804040202010100808040402020101> PTRN} bind def
/Pattern15 {<0101020204040808101020204040808001010202040408081010202040408080> PTRN} bind def
/Pattern16 {<2222222222222222222222222222222222222222222222222222222222222222> PTRN} bind def
/Pattern17 {<0000ffff000000000000ffff000000000000ffff000000000000ffff00000000> PTRN} bind def
/Pattern18 {<2222ffff222222222222ffff222222222222ffff222222222222ffff22222222> PTRN} bind def
/Pattern19 {<ffffffff33333333ffffffff33333333ffffffff33333333ffffffff33333333> PTRN} bind def
/Pattern20 {<0f0f0f0f0f0f0f0ff0f0f0f0f0f0f0f00f0f0f0f0f0f0f0ff0f0f0f0f0f0f0f0> PTRN} bind def
/Pattern21 {<ff00ff00ff00ff00ff00ff00ff00ff0000ff00ff00ff00ff00ff00ff00ff00ff> PTRN} bind def
/Pattern22 {<8001800180018001800180018001ffffffff8001800180018001800180018001> PTRN} bind def
/Pattern23 {<c003c003c003c003c003c003ffffffffffffffffc003c003c003c003c003c003> PTRN} bind def
/Pattern24 {<040404040404ffff404040404040ffff040404040404ffff404040404040ffff> PTRN} bind def
/Pattern25 {<180018001800180018001800ffffffff001800180018001800180018ffffffff> PTRN} bind def
/Pattern26 {<1111b8b87c7c3a3a1111a3a3c7c78b8b1111b8b87c7c3a3a1111a3a3c7c78b8b> PTRN} bind def
/Pattern27 {<101010102828c7c70101010182827c7c101010102828c7c70101010182827c7c> PTRN} bind def
/Pattern28 {<1c1c121211112121c1c12121111112121c1c121211112121c1c1212111111212> PTRN} bind def
/Pattern29 {<3e3e414180808080e3e31414080808083e3e414180808080e3e3141408080808> PTRN} bind def
/Pattern30 {<4848888884848383848488884848383848488888848483838484888848483838> PTRN} bind def
/Pattern31 {<03030404080808080c0c12122121c0c003030404080808080c0c12122121c0c0> PTRN} bind def
/ellipsedict 8 dict def
ellipsedict /mtrx matrix put
/EARC {
 ellipsedict begin
  /endangle exch def
  /startangle exch def
  /yrad exch def
  /xrad exch def
  /y exch def
  /x exch def
  /savematrix mtrx currentmatrix def
  x y translate
  xrad yrad scale
  0 0 1 startangle endangle arc
  savematrix setmatrix
 end
} def
/TL {
  /kcomp exch def
  /linewidth exch def
  /offset exch def
  GS
  0 offset rmoveto
  linewidth SLW
  dup stringwidth exch kcomp add exch RL s
  GR
} def
/KINIT
{
 /kvector exch def
 /kid 0 def
} def
/KPROC
{
 pop pop
 kvector kid get
 0 rmoveto
 /kid 1 kid add def
} def
/DefEncoding [
 /.notdef
 /.notdef
 /.notdef
 /.notdef
 /.notdef
 /.notdef
 /.notdef
 /.notdef
 /.notdef
 /.notdef
 /.notdef
 /.notdef
 /.notdef
 /.notdef
 /.notdef
 /.notdef
 /.notdef
 /.notdef
 /.notdef
 /.notdef
 /.notdef
 /.notdef
 /.notdef
 /.notdef
 /.notdef
 /.notdef
 /.notdef
 /.notdef
 /.notdef
 /.notdef
 /.notdef
 /.notdef
 /space
 /exclam
 /quotedbl
 /numbersign
 /dollar
 /percent
 /ampersand
 /quoteright
 /parenleft
 /parenright
 /asterisk
 /plus
 /comma
 /hyphen
 /period
 /slash
 /zero
 /one
 /two
 /three
 /four
 /five
 /six
 /seven
 /eight
 /nine
 /colon
 /semicolon
 /less
 /equal
 /greater
 /question
 /at
 /A
 /B
 /C
 /D
 /E
 /F
 /G
 /H
 /I
 /J
 /K
 /L
 /M
 /N
 /O
 /P
 /Q
 /R
 /S
 /T
 /U
 /V
 /W
 /X
 /Y
 /Z
 /bracketleft
 /backslash
 /bracketright
 /asciicircum
 /underscore
 /grave
 /a
 /b
 /c
 /d
 /e
 /f
 /g
 /h
 /i
 /j
 /k
 /l
 /m
 /n
 /o
 /p
 /q
 /r
 /s
 /t
 /u
 /v
 /w
 /x
 /y
 /z
 /braceleft
 /bar
 /braceright
 /asciitilde
 /.notdef
 /.notdef
 /.notdef
 /.notdef
 /.notdef
 /.notdef
 /.notdef
 /.notdef
 /.notdef
 /.notdef
 /.notdef
 /.notdef
 /.notdef
 /.notdef
 /.notdef
 /.notdef
 /.notdef
 /.notdef
 /.notdef
 /.notdef
 /.notdef
 /.notdef
 /.notdef
 /.notdef
 /.notdef
 /.notdef
 /.notdef
 /.notdef
 /.notdef
 /.notdef
 /.notdef
 /.notdef
 /.notdef
 /space
 /exclamdown
 /cent
 /sterling
 /currency
 /yen
 /brokenbar
 /section
 /dieresis
 /copyright
 /ordfeminine
 /guillemotleft
 /logicalnot
 /hyphen
 /registered
 /macron
 /degree
 /plusminus
 /twosuperior
 /threesuperior
 /acute
 /mu
 /paragraph
 /periodcentered
 /cedilla
 /onesuperior
 /ordmasculine
 /guillemotright
 /onequarter
 /onehalf
 /threequarters
 /questiondown
 /Agrave
 /Aacute
 /Acircumflex
 /Atilde
 /Adieresis
 /Aring
 /AE
 /Ccedilla
 /Egrave
 /Eacute
 /Ecircumflex
 /Edieresis
 /Igrave
 /Iacute
 /Icircumflex
 /Idieresis
 /Eth
 /Ntilde
 /Ograve
 /Oacute
 /Ocircumflex
 /Otilde
 /Odieresis
 /multiply
 /Oslash
 /Ugrave
 /Uacute
 /Ucircumflex
 /Udieresis
 /Yacute
 /Thorn
 /germandbls
 /agrave
 /aacute
 /acircumflex
 /atilde
 /adieresis
 /aring
 /ae
 /ccedilla
 /egrave
 /eacute
 /ecircumflex
 /edieresis
 /igrave
 /iacute
 /icircumflex
 /idieresis
 /eth
 /ntilde
 /ograve
 /oacute
 /ocircumflex
 /otilde
 /odieresis
 /divide
 /oslash
 /ugrave
 /uacute
 /ucircumflex
 /udieresis
 /yacute
 /thorn
 /ydieresis
] def
%%EndProlog
%%BeginSetup
%%EndSetup
612.00 612.00 scale
n
0.1589 0.4974 m
0.1589 0.5140 l
0.1755 0.5140 l
0.1755 0.4974 l
c
GS
[/DeviceRGB] SCS
Color0 SRGB
fill
GR
[/Pattern /DeviceRGB] SCS
Color1 Pattern8 SC
fill
[/DeviceRGB] SCS
Color1 SC
[] 0 SD
0.0030 SLW
0 SLC
0 SLJ
n
0.1589 0.4974 m
0.1589 0.5140 l
0.1755 0.5140 l
0.1755 0.4974 l
0.1589 0.4974 l
c
s
n
0.1661 0.5008 m
0.1661 0.5174 l
0.1828 0.5174 l
0.1828 0.5008 l
c
GS
Color0 SRGB
fill
GR
[/Pattern /DeviceRGB] SCS
Color1 Pattern8 SC
fill
[/DeviceRGB] SCS
Color1 SC
n
0.1661 0.5008 m
0.1661 0.5174 l
0.1828 0.5174 l
0.1828 0.5008 l
0.1661 0.5008 l
c
s
n
0.1752 0.5054 m
0.1752 0.5220 l
0.1919 0.5220 l
0.1919 0.5054 l
c
GS
Color0 SRGB
fill
GR
[/Pattern /DeviceRGB] SCS
Color1 Pattern8 SC
fill
[/DeviceRGB] SCS
Color1 SC
n
0.1752 0.5054 m
0.1752 0.5220 l
0.1919 0.5220 l
0.1919 0.5054 l
0.1752 0.5054 l
c
s
n
0.1864 0.5115 m
0.1864 0.5282 l
0.2030 0.5282 l
0.2030 0.5115 l
c
GS
Color0 SRGB
fill
GR
[/Pattern /DeviceRGB] SCS
Color1 Pattern8 SC
fill
[/DeviceRGB] SCS
Color1 SC
n
0.1864 0.5115 m
0.1864 0.5282 l
0.2030 0.5282 l
0.2030 0.5115 l
0.1864 0.5115 l
c
s
n
0.1997 0.5195 m
0.1997 0.5362 l
0.2163 0.5362 l
0.2163 0.5195 l
c
GS
Color0 SRGB
fill
GR
[/Pattern /DeviceRGB] SCS
Color1 Pattern8 SC
fill
[/DeviceRGB] SCS
Color1 SC
n
0.1997 0.5195 m
0.1997 0.5362 l
0.2163 0.5362 l
0.2163 0.5195 l
0.1997 0.5195 l
c
s
n
0.2154 0.5297 m
0.2154 0.5464 l
0.2321 0.5464 l
0.2321 0.5297 l
c
GS
Color0 SRGB
fill
GR
[/Pattern /DeviceRGB] SCS
Color1 Pattern8 SC
fill
[/DeviceRGB] SCS
Color1 SC
n
0.2154 0.5297 m
0.2154 0.5464 l
0.2321 0.5464 l
0.2321 0.5297 l
0.2154 0.5297 l
c
s
n
0.2338 0.5424 m
0.2338 0.5591 l
0.2505 0.5591 l
0.2505 0.5424 l
c
GS
Color0 SRGB
fill
GR
[/Pattern /DeviceRGB] SCS
Color1 Pattern8 SC
fill
[/DeviceRGB] SCS
Color1 SC
n
0.2338 0.5424 m
0.2338 0.5591 l
0.2505 0.5591 l
0.2505 0.5424 l
0.2338 0.5424 l
c
s
n
0.2550 0.5579 m
0.2550 0.5746 l
0.2716 0.5746 l
0.2716 0.5579 l
c
GS
Color0 SRGB
fill
GR
[/Pattern /DeviceRGB] SCS
Color1 Pattern8 SC
fill
[/DeviceRGB] SCS
Color1 SC
n
0.2550 0.5579 m
0.2550 0.5746 l
0.2716 0.5746 l
0.2716 0.5579 l
0.2550 0.5579 l
c
s
n
0.2792 0.5765 m
0.2792 0.5932 l
0.2959 0.5932 l
0.2959 0.5765 l
c
GS
Color0 SRGB
fill
GR
[/Pattern /DeviceRGB] SCS
Color1 Pattern8 SC
fill
[/DeviceRGB] SCS
Color1 SC
n
0.2792 0.5765 m
0.2792 0.5932 l
0.2959 0.5932 l
0.2959 0.5765 l
0.2792 0.5765 l
c
s
n
0.3066 0.5982 m
0.3066 0.6149 l
0.3233 0.6149 l
0.3233 0.5982 l
c
GS
Color0 SRGB
fill
GR
[/Pattern /DeviceRGB] SCS
Color1 Pattern8 SC
fill
[/DeviceRGB] SCS
Color1 SC
n
0.3066 0.5982 m
0.3066 0.6149 l
0.3233 0.6149 l
0.3233 0.5982 l
0.3066 0.5982 l
c
s
n
0.3375 0.6231 m
0.3375 0.6397 l
0.3541 0.6397 l
0.3541 0.6231 l
c
GS
Color0 SRGB
fill
GR
[/Pattern /DeviceRGB] SCS
Color1 Pattern8 SC
fill
[/DeviceRGB] SCS
Color1 SC
n
0.3375 0.6231 m
0.3375 0.6397 l
0.3541 0.6397 l
0.3541 0.6231 l
0.3375 0.6231 l
c
s
n
0.3720 0.6507 m
0.3720 0.6674 l
0.3886 0.6674 l
0.3886 0.6507 l
c
GS
Color0 SRGB
fill
GR
[/Pattern /DeviceRGB] SCS
Color1 Pattern8 SC
fill
[/DeviceRGB] SCS
Color1 SC
n
0.3720 0.6507 m
0.3720 0.6674 l
0.3886 0.6674 l
0.3886 0.6507 l
0.3720 0.6507 l
c
s
n
0.4103 0.6803 m
0.4103 0.6970 l
0.4269 0.6970 l
0.4269 0.6803 l
c
GS
Color0 SRGB
fill
GR
[/Pattern /DeviceRGB] SCS
Color1 Pattern8 SC
fill
[/DeviceRGB] SCS
Color1 SC
n
0.4103 0.6803 m
0.4103 0.6970 l
0.4269 0.6970 l
0.4269 0.6803 l
0.4103 0.6803 l
c
s
n
0.4526 0.7105 m
0.4526 0.7272 l
0.4693 0.7272 l
0.4693 0.7105 l
c
GS
Color0 SRGB
fill
GR
[/Pattern /DeviceRGB] SCS
Color1 Pattern8 SC
fill
[/DeviceRGB] SCS
Color1 SC
n
0.4526 0.7105 m
0.4526 0.7272 l
0.4693 0.7272 l
0.4693 0.7105 l
0.4526 0.7105 l
c
s
n
0.4992 0.7394 m
0.4992 0.7561 l
0.5158 0.7561 l
0.5158 0.7394 l
c
GS
Color0 SRGB
fill
GR
[/Pattern /DeviceRGB] SCS
Color1 Pattern8 SC
fill
[/DeviceRGB] SCS
Color1 SC
n
0.4992 0.7394 m
0.4992 0.7561 l
0.5158 0.7561 l
0.5158 0.7394 l
0.4992 0.7394 l
c
s
n
0.5502 0.7640 m
0.5502 0.7806 l
0.5668 0.7806 l
0.5668 0.7640 l
c
GS
Color0 SRGB
fill
GR
[/Pattern /DeviceRGB] SCS
Color1 Pattern8 SC
fill
[/DeviceRGB] SCS
Color1 SC
n
0.5502 0.7640 m
0.5502 0.7806 l
0.5668 0.7806 l
0.5668 0.7640 l
0.5502 0.7640 l
c
s
[] 0 SD
0.0037 SLW
n
0.1500 0.5000 m
0.1500 0.5000 l
0.1500 0.5000 l
0.1500 0.5000 l
0.1500 0.5000 l
0.1500 0.5000 l
0.1500 0.5000 l
0.1500 0.5000 l
0.1500 0.5000 l
0.1500 0.5000 l
0.1500 0.5000 l
0.1501 0.5000 l
0.1501 0.5000 l
0.1501 0.5000 l
0.1501 0.5000 l
0.1501 0.5000 l
0.1502 0.5000 l
0.1502 0.5000 l
0.1502 0.5000 l
0.1503 0.5000 l
0.1503 0.5000 l
0.1504 0.5000 l
0.1504 0.5000 l
0.1505 0.5000 l
0.1505 0.5000 l
0.1506 0.5000 l
0.1507 0.5000 l
0.1507 0.5000 l
0.1508 0.5000 l
0.1509 0.5000 l
0.1510 0.5000 l
0.1511 0.5000 l
0.1512 0.5001 l
0.1513 0.5001 l
0.1514 0.5001 l
0.1516 0.5001 l
0.1517 0.5001 l
0.1518 0.5001 l
0.1520 0.5001 l
0.1521 0.5001 l
0.1523 0.5002 l
0.1525 0.5002 l
0.1527 0.5002 l
0.1529 0.5002 l
0.1531 0.5003 l
0.1533 0.5003 l
0.1535 0.5003 l
0.1537 0.5004 l
0.1540 0.5004 l
0.1542 0.5004 l
0.1545 0.5005 l
0.1547 0.5005 l
0.1550 0.5006 l
0.1553 0.5006 l
0.1556 0.5007 l
0.1559 0.5008 l
0.1562 0.5008 l
0.1566 0.5009 l
0.1569 0.5010 l
0.1573 0.5011 l
0.1576 0.5011 l
0.1580 0.5012 l
0.1584 0.5013 l
0.1588 0.5014 l
0.1592 0.5016 l
0.1597 0.5017 l
0.1601 0.5018 l
0.1606 0.5019 l
0.1610 0.5021 l
0.1615 0.5022 l
0.1620 0.5024 l
0.1625 0.5025 l
0.1631 0.5027 l
0.1636 0.5029 l
0.1642 0.5031 l
0.1647 0.5033 l
0.1653 0.5035 l
0.1659 0.5037 l
0.1666 0.5039 l
0.1672 0.5042 l
0.1678 0.5044 l
0.1685 0.5047 l
0.1692 0.5050 l
0.1699 0.5052 l
0.1706 0.5055 l
0.1714 0.5058 l
0.1721 0.5062 l
0.1729 0.5065 l
0.1737 0.5069 l
0.1745 0.5072 l
0.1753 0.5076 l
0.1761 0.5080 l
0.1770 0.5084 l
0.1779 0.5088 l
0.1788 0.5092 l
0.1797 0.5097 l
0.1806 0.5102 l
0.1816 0.5107 l
0.1826 0.5112 l
0.1836 0.5117 l
0.1846 0.5122 l
0.1856 0.5128 l
0.1867 0.5133 l
0.1878 0.5139 l
0.1889 0.5145 l
0.1900 0.5152 l
0.1911 0.5158 l
0.1923 0.5165 l
0.1935 0.5172 l
0.1947 0.5179 l
0.1959 0.5186 l
0.1972 0.5194 l
0.1984 0.5202 l
0.1997 0.5209 l
0.2011 0.5218 l
0.2024 0.5226 l
0.2038 0.5235 l
0.2052 0.5244 l
0.2066 0.5253 l
0.2080 0.5262 l
0.2095 0.5272 l
0.2110 0.5281 l
0.2125 0.5291 l
0.2140 0.5302 l
0.2156 0.5312 l
0.2172 0.5323 l
0.2188 0.5334 l
0.2204 0.5345 l
0.2221 0.5357 l
0.2238 0.5369 l
0.2255 0.5381 l
0.2272 0.5393 l
0.2290 0.5406 l
0.2308 0.5419 l
0.2326 0.5432 l
0.2345 0.5446 l
0.2363 0.5459 l
0.2382 0.5473 l
0.2402 0.5488 l
0.2421 0.5502 l
0.2441 0.5517 l
0.2461 0.5532 l
0.2482 0.5548 l
0.2503 0.5563 l
0.2524 0.5579 l
0.2545 0.5596 l
0.2567 0.5612 l
0.2588 0.5629 l
0.2611 0.5646 l
0.2633 0.5664 l
0.2656 0.5681 l
0.2679 0.5699 l
0.2703 0.5718 l
0.2726 0.5736 l
0.2750 0.5755 l
0.2775 0.5774 l
0.2799 0.5794 l
0.2824 0.5814 l
0.2850 0.5834 l
0.2875 0.5854 l
0.2901 0.5875 l
0.2927 0.5896 l
0.2954 0.5917 l
0.2981 0.5939 l
0.3008 0.5960 l
0.3036 0.5982 l
0.3064 0.6005 l
0.3092 0.6028 l
0.3121 0.6051 l
0.3150 0.6074 l
0.3179 0.6097 l
0.3208 0.6121 l
0.3238 0.6145 l
0.3269 0.6169 l
0.3299 0.6194 l
0.3330 0.6219 l
0.3362 0.6244 l
0.3394 0.6269 l
0.3426 0.6295 l
0.3458 0.6321 l
0.3491 0.6347 l
0.3524 0.6374 l
0.3558 0.6400 l
0.3592 0.6427 l
0.3626 0.6454 l
0.3661 0.6482 l
0.3696 0.6509 l
0.3731 0.6537 l
0.3767 0.6565 l
0.3803 0.6593 l
0.3839 0.6622 l
0.3876 0.6650 l
0.3914 0.6679 l
0.3951 0.6708 l
0.3990 0.6738 l
0.4028 0.6767 l
0.4067 0.6797 l
0.4106 0.6826 l
0.4146 0.6856 l
0.4186 0.6886 l
0.4226 0.6917 l
0.4267 0.6947 l
0.4309 0.6978 l
0.4350 0.7008 l
0.4393 0.7039 l
0.4435 0.7070 l
0.4478 0.7101 l
0.4521 0.7132 l
0.4565 0.7164 l
0.4609 0.7195 l
0.4654 0.7226 l
0.4699 0.7258 l
0.4745 0.7289 l
0.4790 0.7321 l
0.4837 0.7353 l
0.4884 0.7385 l
0.4931 0.7416 l
0.4978 0.7448 l
0.5027 0.7480 l
0.5075 0.7512 l
0.5124 0.7544 l
0.5173 0.7575 l
0.5223 0.7607 l
0.5274 0.7639 l
0.5324 0.7671 l
0.5376 0.7702 l
0.5427 0.7734 l
0.5479 0.7765 l
0.5532 0.7797 l
0.5585 0.7828 l
0.5639 0.7859 l
0.5693 0.7891 l
0.5747 0.7922 l
0.5802 0.7952 l
0.5857 0.7983 l
0.5913 0.8014 l
0.5970 0.8044 l
0.6026 0.8074 l
0.6084 0.8104 l
0.6141 0.8134 l
0.6200 0.8164 l
0.6258 0.8193 l
0.6318 0.8222 l
0.6377 0.8251 l
0.6438 0.8279 l
0.6472 0.8295 l
s
[] 0 SD
0.0045 SLW
n
0.1500 0.5000 m
0.6471 0.5000 l
s
n
0.1500 0.8500 m
0.6471 0.8500 l
s
n
0.2743 0.5000 m
0.2743 0.5100 l
s
n
0.2743 0.8500 m
0.2743 0.8400 l
s
n
0.5228 0.5000 m
0.5228 0.5100 l
s
n
0.5228 0.8500 m
0.5228 0.8400 l
s
n
0.1500 0.5000 m
0.1500 0.5200 l
s
n
0.1500 0.8500 m
0.1500 0.8300 l
s
n
0.3985 0.5000 m
0.3985 0.5200 l
s
n
0.3985 0.8500 m
0.3985 0.8300 l
s
n
0.6471 0.5000 m
0.6471 0.5200 l
s
n
0.6471 0.8500 m
0.6471 0.8300 l
s
n
0.1500 0.5000 m
0.1500 0.8500 l
s
n
0.1500 0.5438 m
0.1600 0.5438 l
s
n
0.1500 0.6313 m
0.1600 0.6313 l
s
n
0.1500 0.7188 m
0.1600 0.7188 l
s
n
0.1500 0.8063 m
0.1600 0.8063 l
s
n
0.1500 0.5000 m
0.1700 0.5000 l
s
n
0.1500 0.5875 m
0.1700 0.5875 l
s
n
0.1500 0.6750 m
0.1700 0.6750 l
s
n
0.1500 0.7625 m
0.1700 0.7625 l
s
n
0.1500 0.8500 m
0.1700 0.8500 l
s
/Times-Roman findfont
dup length dict begin
 {1 index /FID ne {def} {pop pop} ifelse} forall
 /Encoding DefEncoding def
 currentdict
end
/Font0 exch definefont pop
/Font0 FFSF
0.1188 0.4851 m
GS
[0.0448 0.0000 0.0000 0.0448 0 0] CC
(0) show
GR
/Font0 FFSF
0.0965 0.5726 m
GS
[0.0448 0.0000 0.0000 0.0448 0 0] CC
(10) show
GR
/Font0 FFSF
0.0965 0.6601 m
GS
[0.0448 0.0000 0.0000 0.0448 0 0] CC
(20) show
GR
/Font0 FFSF
0.0965 0.7476 m
GS
[0.0448 0.0000 0.0000 0.0448 0 0] CC
(30) show
GR
/Font0 FFSF
0.0965 0.8351 m
GS
[0.0448 0.0000 0.0000 0.0448 0 0] CC
(40) show
GR
/Font0 FFSF
0.0782 0.5795 m
GS
[0.0000 0.0459 -0.0459 0.0000 0 0] CC
(\(S=0,T=0\)) show
GR
[] 0 SD
0.0015 SLW
n
0.1500 0.5000 m
0.1500 0.8500 l
0.6471 0.8500 l
0.6471 0.5000 l
0.1500 0.5000 l
c
s
n
0.6559 0.5227 m
0.6559 0.5394 l
0.6726 0.5394 l
0.6726 0.5227 l
c
GS
Color0 SRGB
fill
GR
[/Pattern /DeviceRGB] SCS
Color1 Pattern8 SC
fill
[/DeviceRGB] SCS
Color1 SC
[] 0 SD
0.0030 SLW
n
0.6559 0.5227 m
0.6559 0.5394 l
0.6726 0.5394 l
0.6726 0.5227 l
0.6559 0.5227 l
c
s
n
0.6632 0.5223 m
0.6632 0.5389 l
0.6799 0.5389 l
0.6799 0.5223 l
c
GS
Color0 SRGB
fill
GR
[/Pattern /DeviceRGB] SCS
Color1 Pattern8 SC
fill
[/DeviceRGB] SCS
Color1 SC
n
0.6632 0.5223 m
0.6632 0.5389 l
0.6799 0.5389 l
0.6799 0.5223 l
0.6632 0.5223 l
c
s
n
0.6723 0.5218 m
0.6723 0.5385 l
0.6890 0.5385 l
0.6890 0.5218 l
c
GS
Color0 SRGB
fill
GR
[/Pattern /DeviceRGB] SCS
Color1 Pattern8 SC
fill
[/DeviceRGB] SCS
Color1 SC
n
0.6723 0.5218 m
0.6723 0.5385 l
0.6890 0.5385 l
0.6890 0.5218 l
0.6723 0.5218 l
c
s
n
0.6834 0.5214 m
0.6834 0.5380 l
0.7001 0.5380 l
0.7001 0.5214 l
c
GS
Color0 SRGB
fill
GR
[/Pattern /DeviceRGB] SCS
Color1 Pattern8 SC
fill
[/DeviceRGB] SCS
Color1 SC
n
0.6834 0.5214 m
0.6834 0.5380 l
0.7001 0.5380 l
0.7001 0.5214 l
0.6834 0.5214 l
c
s
n
0.6967 0.5215 m
0.6967 0.5382 l
0.7134 0.5382 l
0.7134 0.5215 l
c
GS
Color0 SRGB
fill
GR
[/Pattern /DeviceRGB] SCS
Color1 Pattern8 SC
fill
[/DeviceRGB] SCS
Color1 SC
n
0.6967 0.5215 m
0.6967 0.5382 l
0.7134 0.5382 l
0.7134 0.5215 l
0.6967 0.5215 l
c
s
n
0.7125 0.5225 m
0.7125 0.5392 l
0.7292 0.5392 l
0.7292 0.5225 l
c
GS
Color0 SRGB
fill
GR
[/Pattern /DeviceRGB] SCS
Color1 Pattern8 SC
fill
[/DeviceRGB] SCS
Color1 SC
n
0.7125 0.5225 m
0.7125 0.5392 l
0.7292 0.5392 l
0.7292 0.5225 l
0.7125 0.5225 l
c
s
n
0.7309 0.5249 m
0.7309 0.5416 l
0.7475 0.5416 l
0.7475 0.5249 l
c
GS
Color0 SRGB
fill
GR
[/Pattern /DeviceRGB] SCS
Color1 Pattern8 SC
fill
[/DeviceRGB] SCS
Color1 SC
n
0.7309 0.5249 m
0.7309 0.5416 l
0.7475 0.5416 l
0.7475 0.5249 l
0.7309 0.5249 l
c
s
n
0.7520 0.5295 m
0.7520 0.5461 l
0.7687 0.5461 l
0.7687 0.5295 l
c
GS
Color0 SRGB
fill
GR
[/Pattern /DeviceRGB] SCS
Color1 Pattern8 SC
fill
[/DeviceRGB] SCS
Color1 SC
n
0.7520 0.5295 m
0.7520 0.5461 l
0.7687 0.5461 l
0.7687 0.5295 l
0.7520 0.5295 l
c
s
n
0.7763 0.5369 m
0.7763 0.5536 l
0.7929 0.5536 l
0.7929 0.5369 l
c
GS
Color0 SRGB
fill
GR
[/Pattern /DeviceRGB] SCS
Color1 Pattern8 SC
fill
[/DeviceRGB] SCS
Color1 SC
n
0.7763 0.5369 m
0.7763 0.5536 l
0.7929 0.5536 l
0.7929 0.5369 l
0.7763 0.5369 l
c
s
n
0.8037 0.5483 m
0.8037 0.5650 l
0.8203 0.5650 l
0.8203 0.5483 l
c
GS
Color0 SRGB
fill
GR
[/Pattern /DeviceRGB] SCS
Color1 Pattern8 SC
fill
[/DeviceRGB] SCS
Color1 SC
n
0.8037 0.5483 m
0.8037 0.5650 l
0.8203 0.5650 l
0.8203 0.5483 l
0.8037 0.5483 l
c
s
n
0.8345 0.5647 m
0.8345 0.5813 l
0.8512 0.5813 l
0.8512 0.5647 l
c
GS
Color0 SRGB
fill
GR
[/Pattern /DeviceRGB] SCS
Color1 Pattern8 SC
fill
[/DeviceRGB] SCS
Color1 SC
n
0.8345 0.5647 m
0.8345 0.5813 l
0.8512 0.5813 l
0.8512 0.5647 l
0.8345 0.5647 l
c
s
n
0.8690 0.5877 m
0.8690 0.6044 l
0.8857 0.6044 l
0.8857 0.5877 l
c
GS
Color0 SRGB
fill
GR
[/Pattern /DeviceRGB] SCS
Color1 Pattern8 SC
fill
[/DeviceRGB] SCS
Color1 SC
n
0.8690 0.5877 m
0.8690 0.6044 l
0.8857 0.6044 l
0.8857 0.5877 l
0.8690 0.5877 l
c
s
n
0.9073 0.6193 m
0.9073 0.6359 l
0.9240 0.6359 l
0.9240 0.6193 l
c
GS
Color0 SRGB
fill
GR
[/Pattern /DeviceRGB] SCS
Color1 Pattern8 SC
fill
[/DeviceRGB] SCS
Color1 SC
n
0.9073 0.6193 m
0.9073 0.6359 l
0.9240 0.6359 l
0.9240 0.6193 l
0.9073 0.6193 l
c
s
n
0.9497 0.6595 m
0.9497 0.6761 l
0.9663 0.6761 l
0.9663 0.6595 l
c
GS
Color0 SRGB
fill
GR
[/Pattern /DeviceRGB] SCS
Color1 Pattern8 SC
fill
[/DeviceRGB] SCS
Color1 SC
n
0.9497 0.6595 m
0.9497 0.6761 l
0.9663 0.6761 l
0.9663 0.6595 l
0.9497 0.6595 l
c
s
n
0.9962 0.7114 m
0.9962 0.7281 l
1.0129 0.7281 l
1.0129 0.7114 l
c
GS
Color0 SRGB
fill
GR
[/Pattern /DeviceRGB] SCS
Color1 Pattern8 SC
fill
[/DeviceRGB] SCS
Color1 SC
n
0.9962 0.7114 m
0.9962 0.7281 l
1.0129 0.7281 l
1.0129 0.7114 l
0.9962 0.7114 l
c
s
n
1.0472 0.7777 m
1.0472 0.7944 l
1.0639 0.7944 l
1.0639 0.7777 l
c
GS
Color0 SRGB
fill
GR
[/Pattern /DeviceRGB] SCS
Color1 Pattern8 SC
fill
[/DeviceRGB] SCS
Color1 SC
n
1.0472 0.7777 m
1.0472 0.7944 l
1.0639 0.7944 l
1.0639 0.7777 l
1.0472 0.7777 l
c
s
[] 0 SD
0.0037 SLW
n
0.6471 0.5318 m
0.6471 0.5318 l
0.6471 0.5318 l
0.6471 0.5318 l
0.6471 0.5318 l
0.6471 0.5318 l
0.6471 0.5318 l
0.6471 0.5318 l
0.6471 0.5318 l
0.6471 0.5318 l
0.6471 0.5318 l
0.6471 0.5318 l
0.6471 0.5318 l
0.6472 0.5318 l
0.6472 0.5318 l
0.6472 0.5318 l
0.6472 0.5318 l
0.6473 0.5318 l
0.6473 0.5318 l
0.6473 0.5318 l
0.6474 0.5318 l
0.6474 0.5318 l
0.6475 0.5318 l
0.6475 0.5318 l
0.6476 0.5318 l
0.6476 0.5318 l
0.6477 0.5318 l
0.6478 0.5318 l
0.6479 0.5318 l
0.6480 0.5318 l
0.6481 0.5318 l
0.6482 0.5318 l
0.6483 0.5318 l
0.6484 0.5318 l
0.6485 0.5318 l
0.6486 0.5318 l
0.6488 0.5318 l
0.6489 0.5317 l
0.6491 0.5317 l
0.6492 0.5317 l
0.6494 0.5317 l
0.6495 0.5317 l
0.6497 0.5317 l
0.6499 0.5317 l
0.6501 0.5317 l
0.6503 0.5316 l
0.6505 0.5316 l
0.6508 0.5316 l
0.6510 0.5316 l
0.6513 0.5316 l
0.6515 0.5315 l
0.6518 0.5315 l
0.6521 0.5315 l
0.6523 0.5315 l
0.6526 0.5314 l
0.6530 0.5314 l
0.6533 0.5314 l
0.6536 0.5313 l
0.6540 0.5313 l
0.6543 0.5313 l
0.6547 0.5312 l
0.6551 0.5312 l
0.6555 0.5311 l
0.6559 0.5311 l
0.6563 0.5310 l
0.6567 0.5310 l
0.6572 0.5309 l
0.6576 0.5309 l
0.6581 0.5308 l
0.6586 0.5307 l
0.6591 0.5307 l
0.6596 0.5306 l
0.6601 0.5305 l
0.6607 0.5305 l
0.6612 0.5304 l
0.6618 0.5303 l
0.6624 0.5303 l
0.6630 0.5302 l
0.6636 0.5301 l
0.6642 0.5300 l
0.6649 0.5299 l
0.6656 0.5299 l
0.6663 0.5298 l
0.6670 0.5297 l
0.6677 0.5296 l
0.6684 0.5295 l
0.6692 0.5294 l
0.6699 0.5293 l
0.6707 0.5293 l
0.6715 0.5292 l
0.6724 0.5291 l
0.6732 0.5290 l
0.6741 0.5289 l
0.6749 0.5288 l
0.6758 0.5287 l
0.6768 0.5286 l
0.6777 0.5285 l
0.6787 0.5285 l
0.6796 0.5284 l
0.6806 0.5283 l
0.6817 0.5282 l
0.6827 0.5281 l
0.6837 0.5281 l
0.6848 0.5280 l
0.6859 0.5279 l
0.6870 0.5279 l
0.6882 0.5278 l
0.6894 0.5277 l
0.6905 0.5277 l
0.6917 0.5276 l
0.6930 0.5276 l
0.6942 0.5276 l
0.6955 0.5276 l
0.6968 0.5275 l
0.6981 0.5275 l
0.6995 0.5275 l
0.7008 0.5275 l
0.7022 0.5276 l
0.7036 0.5276 l
0.7051 0.5276 l
0.7065 0.5277 l
0.7080 0.5277 l
0.7095 0.5278 l
0.7111 0.5279 l
0.7126 0.5280 l
0.7142 0.5281 l
0.7158 0.5282 l
0.7175 0.5284 l
0.7191 0.5285 l
0.7208 0.5287 l
0.7225 0.5289 l
0.7243 0.5291 l
0.7260 0.5293 l
0.7278 0.5296 l
0.7297 0.5299 l
0.7315 0.5302 l
0.7334 0.5305 l
0.7353 0.5308 l
0.7372 0.5312 l
0.7392 0.5315 l
0.7412 0.5320 l
0.7432 0.5324 l
0.7452 0.5328 l
0.7473 0.5333 l
0.7494 0.5338 l
0.7515 0.5344 l
0.7537 0.5350 l
0.7559 0.5356 l
0.7581 0.5362 l
0.7604 0.5369 l
0.7627 0.5375 l
0.7650 0.5383 l
0.7673 0.5390 l
0.7697 0.5398 l
0.7721 0.5407 l
0.7745 0.5416 l
0.7770 0.5425 l
0.7795 0.5434 l
0.7820 0.5444 l
0.7846 0.5455 l
0.7872 0.5465 l
0.7898 0.5477 l
0.7925 0.5488 l
0.7952 0.5500 l
0.7979 0.5513 l
0.8006 0.5526 l
0.8034 0.5539 l
0.8063 0.5553 l
0.8091 0.5568 l
0.8120 0.5583 l
0.8149 0.5598 l
0.8179 0.5614 l
0.8209 0.5631 l
0.8239 0.5648 l
0.8270 0.5665 l
0.8301 0.5683 l
0.8332 0.5702 l
0.8364 0.5721 l
0.8396 0.5741 l
0.8429 0.5762 l
0.8462 0.5783 l
0.8495 0.5805 l
0.8528 0.5827 l
0.8562 0.5850 l
0.8596 0.5874 l
0.8631 0.5898 l
0.8666 0.5923 l
0.8702 0.5949 l
0.8737 0.5975 l
0.8774 0.6002 l
0.8810 0.6030 l
0.8847 0.6058 l
0.8884 0.6087 l
0.8922 0.6117 l
0.8960 0.6148 l
0.8999 0.6179 l
0.9038 0.6211 l
0.9077 0.6244 l
0.9117 0.6278 l
0.9157 0.6313 l
0.9197 0.6348 l
0.9238 0.6384 l
0.9279 0.6421 l
0.9321 0.6459 l
0.9363 0.6497 l
0.9406 0.6537 l
0.9449 0.6577 l
0.9492 0.6618 l
0.9536 0.6660 l
0.9580 0.6703 l
0.9625 0.6747 l
0.9670 0.6791 l
0.9715 0.6837 l
0.9761 0.6883 l
0.9807 0.6931 l
0.9854 0.6979 l
0.9901 0.7028 l
0.9949 0.7079 l
0.9997 0.7130 l
1.0046 0.7182 l
1.0095 0.7235 l
1.0144 0.7289 l
1.0194 0.7344 l
1.0244 0.7400 l
1.0295 0.7457 l
1.0346 0.7515 l
1.0398 0.7575 l
1.0450 0.7635 l
1.0503 0.7696 l
1.0556 0.7758 l
1.0609 0.7822 l
1.0663 0.7886 l
1.0718 0.7951 l
1.0773 0.8018 l
1.0828 0.8085 l
1.0884 0.8154 l
1.0940 0.8224 l
1.0997 0.8295 l
1.1054 0.8367 l
1.1112 0.8440 l
1.1160 0.8501 l
s
[] 0 SD
0.0045 SLW
n
0.6471 0.5000 m
1.1441 0.5000 l
s
n
0.6471 0.8500 m
1.1441 0.8500 l
s
n
0.6968 0.5000 m
0.6968 0.5100 l
s
n
0.6968 0.8500 m
0.6968 0.8400 l
s
n
0.7962 0.5000 m
0.7962 0.5100 l
s
n
0.7962 0.8500 m
0.7962 0.8400 l
s
n
0.8956 0.5000 m
0.8956 0.5100 l
s
n
0.8956 0.8500 m
0.8956 0.8400 l
s
n
0.9950 0.5000 m
0.9950 0.5100 l
s
n
0.9950 0.8500 m
0.9950 0.8400 l
s
n
1.0944 0.5000 m
1.0944 0.5100 l
s
n
1.0944 0.8500 m
1.0944 0.8400 l
s
n
0.6471 0.5000 m
0.6471 0.5200 l
s
n
0.6471 0.8500 m
0.6471 0.8300 l
s
n
0.7465 0.5000 m
0.7465 0.5200 l
s
n
0.7465 0.8500 m
0.7465 0.8300 l
s
n
0.8459 0.5000 m
0.8459 0.5200 l
s
n
0.8459 0.8500 m
0.8459 0.8300 l
s
n
0.9453 0.5000 m
0.9453 0.5200 l
s
n
0.9453 0.8500 m
0.9453 0.8300 l
s
n
1.0447 0.5000 m
1.0447 0.5200 l
s
n
1.0447 0.8500 m
1.0447 0.8300 l
s
n
1.1441 0.5000 m
1.1441 0.5200 l
s
n
1.1441 0.8500 m
1.1441 0.8300 l
s
n
0.6471 0.5000 m
0.6471 0.8500 l
s
n
1.1441 0.5000 m
1.1441 0.8500 l
s
n
0.6471 0.5000 m
0.6571 0.5000 l
s
n
1.1441 0.5000 m
1.1341 0.5000 l
s
n
0.6471 0.5636 m
0.6571 0.5636 l
s
n
1.1441 0.5636 m
1.1341 0.5636 l
s
n
0.6471 0.6273 m
0.6571 0.6273 l
s
n
1.1441 0.6273 m
1.1341 0.6273 l
s
n
0.6471 0.6909 m
0.6571 0.6909 l
s
n
1.1441 0.6909 m
1.1341 0.6909 l
s
n
0.6471 0.7545 m
0.6571 0.7545 l
s
n
1.1441 0.7545 m
1.1341 0.7545 l
s
n
0.6471 0.8182 m
0.6571 0.8182 l
s
n
1.1441 0.8182 m
1.1341 0.8182 l
s
n
0.6471 0.5318 m
0.6671 0.5318 l
s
n
1.1441 0.5318 m
1.1241 0.5318 l
s
n
0.6471 0.5955 m
0.6671 0.5955 l
s
n
1.1441 0.5955 m
1.1241 0.5955 l
s
n
0.6471 0.6591 m
0.6671 0.6591 l
s
n
1.1441 0.6591 m
1.1241 0.6591 l
s
n
0.6471 0.7227 m
0.6671 0.7227 l
s
n
1.1441 0.7227 m
1.1241 0.7227 l
s
n
0.6471 0.7864 m
0.6671 0.7864 l
s
n
1.1441 0.7864 m
1.1241 0.7864 l
s
n
0.6471 0.8500 m
0.6671 0.8500 l
s
n
1.1441 0.8500 m
1.1241 0.8500 l
s
/Font0 FFSF
1.1541 0.5169 m
GS
[0.0448 0.0000 0.0000 0.0448 0 0] CC
(0) show
GR
/Font0 FFSF
1.1541 0.5806 m
GS
[0.0448 0.0000 0.0000 0.0448 0 0] CC
(10) show
GR
/Font0 FFSF
1.1541 0.6442 m
GS
[0.0448 0.0000 0.0000 0.0448 0 0] CC
(20) show
GR
/Font0 FFSF
1.1541 0.7078 m
GS
[0.0448 0.0000 0.0000 0.0448 0 0] CC
(30) show
GR
/Font0 FFSF
1.1541 0.7715 m
GS
[0.0448 0.0000 0.0000 0.0448 0 0] CC
(40) show
GR
/Font0 FFSF
1.1541 0.8349 m
GS
[0.0448 0.0000 0.0000 0.0448 0 0] CC
(50) show
GR
/Font0 FFSF
1.2390 0.5795 m
GS
[0.0000 0.0459 -0.0459 0.0000 0 0] CC
(\(S=1,T=1\)) show
GR
[] 0 SD
0.0015 SLW
n
0.6471 0.5000 m
0.6471 0.8500 l
1.1441 0.8500 l
1.1441 0.5000 l
0.6471 0.5000 l
c
s
n
0.1589 0.3853 m
0.1589 0.4019 l
0.1755 0.4019 l
0.1755 0.3853 l
c
GS
Color0 SRGB
fill
GR
[/Pattern /DeviceRGB] SCS
Color1 Pattern8 SC
fill
[/DeviceRGB] SCS
Color1 SC
[] 0 SD
0.0030 SLW
n
0.1589 0.3853 m
0.1589 0.4019 l
0.1755 0.4019 l
0.1755 0.3853 l
0.1589 0.3853 l
c
s
n
0.1661 0.3672 m
0.1661 0.3838 l
0.1828 0.3838 l
0.1828 0.3672 l
c
GS
Color0 SRGB
fill
GR
[/Pattern /DeviceRGB] SCS
Color1 Pattern8 SC
fill
[/DeviceRGB] SCS
Color1 SC
n
0.1661 0.3672 m
0.1661 0.3838 l
0.1828 0.3838 l
0.1828 0.3672 l
0.1661 0.3672 l
c
s
n
0.1752 0.3483 m
0.1752 0.3649 l
0.1919 0.3649 l
0.1919 0.3483 l
c
GS
Color0 SRGB
fill
GR
[/Pattern /DeviceRGB] SCS
Color1 Pattern8 SC
fill
[/DeviceRGB] SCS
Color1 SC
n
0.1752 0.3483 m
0.1752 0.3649 l
0.1919 0.3649 l
0.1919 0.3483 l
0.1752 0.3483 l
c
s
n
0.1864 0.3282 m
0.1864 0.3448 l
0.2030 0.3448 l
0.2030 0.3282 l
c
GS
Color0 SRGB
fill
GR
[/Pattern /DeviceRGB] SCS
Color1 Pattern8 SC
fill
[/DeviceRGB] SCS
Color1 SC
n
0.1864 0.3282 m
0.1864 0.3448 l
0.2030 0.3448 l
0.2030 0.3282 l
0.1864 0.3282 l
c
s
n
0.1997 0.3076 m
0.1997 0.3242 l
0.2163 0.3242 l
0.2163 0.3076 l
c
GS
Color0 SRGB
fill
GR
[/Pattern /DeviceRGB] SCS
Color1 Pattern8 SC
fill
[/DeviceRGB] SCS
Color1 SC
n
0.1997 0.3076 m
0.1997 0.3242 l
0.2163 0.3242 l
0.2163 0.3076 l
0.1997 0.3076 l
c
s
n
0.2154 0.2850 m
0.2154 0.3017 l
0.2321 0.3017 l
0.2321 0.2850 l
c
GS
Color0 SRGB
fill
GR
[/Pattern /DeviceRGB] SCS
Color1 Pattern8 SC
fill
[/DeviceRGB] SCS
Color1 SC
n
0.2154 0.2850 m
0.2154 0.3017 l
0.2321 0.3017 l
0.2321 0.2850 l
0.2154 0.2850 l
c
s
n
0.2338 0.2619 m
0.2338 0.2786 l
0.2505 0.2786 l
0.2505 0.2619 l
c
GS
Color0 SRGB
fill
GR
[/Pattern /DeviceRGB] SCS
Color1 Pattern8 SC
fill
[/DeviceRGB] SCS
Color1 SC
n
0.2338 0.2619 m
0.2338 0.2786 l
0.2505 0.2786 l
0.2505 0.2619 l
0.2338 0.2619 l
c
s
n
0.2550 0.2383 m
0.2550 0.2550 l
0.2716 0.2550 l
0.2716 0.2383 l
c
GS
Color0 SRGB
fill
GR
[/Pattern /DeviceRGB] SCS
Color1 Pattern8 SC
fill
[/DeviceRGB] SCS
Color1 SC
n
0.2550 0.2383 m
0.2550 0.2550 l
0.2716 0.2550 l
0.2716 0.2383 l
0.2550 0.2383 l
c
s
n
0.2792 0.2159 m
0.2792 0.2325 l
0.2959 0.2325 l
0.2959 0.2159 l
c
GS
Color0 SRGB
fill
GR
[/Pattern /DeviceRGB] SCS
Color1 Pattern8 SC
fill
[/DeviceRGB] SCS
Color1 SC
n
0.2792 0.2159 m
0.2792 0.2325 l
0.2959 0.2325 l
0.2959 0.2159 l
0.2792 0.2159 l
c
s
n
0.3066 0.1951 m
0.3066 0.2118 l
0.3233 0.2118 l
0.3233 0.1951 l
c
GS
Color0 SRGB
fill
GR
[/Pattern /DeviceRGB] SCS
Color1 Pattern8 SC
fill
[/DeviceRGB] SCS
Color1 SC
n
0.3066 0.1951 m
0.3066 0.2118 l
0.3233 0.2118 l
0.3233 0.1951 l
0.3066 0.1951 l
c
s
n
0.3375 0.1766 m
0.3375 0.1933 l
0.3541 0.1933 l
0.3541 0.1766 l
c
GS
Color0 SRGB
fill
GR
[/Pattern /DeviceRGB] SCS
Color1 Pattern8 SC
fill
[/DeviceRGB] SCS
Color1 SC
n
0.3375 0.1766 m
0.3375 0.1933 l
0.3541 0.1933 l
0.3541 0.1766 l
0.3375 0.1766 l
c
s
n
0.3720 0.1623 m
0.3720 0.1790 l
0.3886 0.1790 l
0.3886 0.1623 l
c
GS
Color0 SRGB
fill
GR
[/Pattern /DeviceRGB] SCS
Color1 Pattern8 SC
fill
[/DeviceRGB] SCS
Color1 SC
n
0.3720 0.1623 m
0.3720 0.1790 l
0.3886 0.1790 l
0.3886 0.1623 l
0.3720 0.1623 l
c
s
n
0.4103 0.1543 m
0.4103 0.1709 l
0.4269 0.1709 l
0.4269 0.1543 l
c
GS
Color0 SRGB
fill
GR
[/Pattern /DeviceRGB] SCS
Color1 Pattern8 SC
fill
[/DeviceRGB] SCS
Color1 SC
n
0.4103 0.1543 m
0.4103 0.1709 l
0.4269 0.1709 l
0.4269 0.1543 l
0.4103 0.1543 l
c
s
n
0.4526 0.1522 m
0.4526 0.1688 l
0.4693 0.1688 l
0.4693 0.1522 l
c
GS
Color0 SRGB
fill
GR
[/Pattern /DeviceRGB] SCS
Color1 Pattern8 SC
fill
[/DeviceRGB] SCS
Color1 SC
n
0.4526 0.1522 m
0.4526 0.1688 l
0.4693 0.1688 l
0.4693 0.1522 l
0.4526 0.1522 l
c
s
n
0.4992 0.1604 m
0.4992 0.1770 l
0.5158 0.1770 l
0.5158 0.1604 l
c
GS
Color0 SRGB
fill
GR
[/Pattern /DeviceRGB] SCS
Color1 Pattern8 SC
fill
[/DeviceRGB] SCS
Color1 SC
n
0.4992 0.1604 m
0.4992 0.1770 l
0.5158 0.1770 l
0.5158 0.1604 l
0.4992 0.1604 l
c
s
n
0.5502 0.1793 m
0.5502 0.1960 l
0.5668 0.1960 l
0.5668 0.1793 l
c
GS
Color0 SRGB
fill
GR
[/Pattern /DeviceRGB] SCS
Color1 Pattern8 SC
fill
[/DeviceRGB] SCS
Color1 SC
n
0.5502 0.1793 m
0.5502 0.1960 l
0.5668 0.1960 l
0.5668 0.1793 l
0.5502 0.1793 l
c
s
[] 0 SD
0.0037 SLW
n
0.1500 0.4650 m
0.1500 0.4650 l
0.1500 0.4650 l
0.1500 0.4650 l
0.1500 0.4650 l
0.1500 0.4650 l
0.1500 0.4649 l
0.1500 0.4649 l
0.1500 0.4649 l
0.1500 0.4648 l
0.1500 0.4648 l
0.1501 0.4647 l
0.1501 0.4646 l
0.1501 0.4645 l
0.1501 0.4644 l
0.1501 0.4643 l
0.1502 0.4642 l
0.1502 0.4640 l
0.1502 0.4639 l
0.1503 0.4637 l
0.1503 0.4635 l
0.1504 0.4633 l
0.1504 0.4631 l
0.1505 0.4628 l
0.1505 0.4625 l
0.1506 0.4622 l
0.1507 0.4619 l
0.1507 0.4616 l
0.1508 0.4612 l
0.1509 0.4609 l
0.1510 0.4605 l
0.1511 0.4601 l
0.1512 0.4596 l
0.1513 0.4591 l
0.1514 0.4587 l
0.1516 0.4581 l
0.1517 0.4576 l
0.1518 0.4570 l
0.1520 0.4565 l
0.1521 0.4558 l
0.1523 0.4552 l
0.1525 0.4545 l
0.1527 0.4538 l
0.1529 0.4531 l
0.1531 0.4524 l
0.1533 0.4516 l
0.1535 0.4508 l
0.1537 0.4500 l
0.1540 0.4491 l
0.1542 0.4483 l
0.1545 0.4474 l
0.1547 0.4464 l
0.1550 0.4455 l
0.1553 0.4445 l
0.1556 0.4435 l
0.1559 0.4424 l
0.1562 0.4413 l
0.1566 0.4402 l
0.1569 0.4391 l
0.1573 0.4380 l
0.1576 0.4368 l
0.1580 0.4356 l
0.1584 0.4343 l
0.1588 0.4330 l
0.1592 0.4317 l
0.1597 0.4304 l
0.1601 0.4291 l
0.1606 0.4277 l
0.1610 0.4263 l
0.1615 0.4248 l
0.1620 0.4234 l
0.1625 0.4219 l
0.1631 0.4204 l
0.1636 0.4188 l
0.1642 0.4172 l
0.1647 0.4156 l
0.1653 0.4140 l
0.1659 0.4124 l
0.1666 0.4107 l
0.1672 0.4090 l
0.1678 0.4072 l
0.1685 0.4055 l
0.1692 0.4037 l
0.1699 0.4019 l
0.1706 0.4000 l
0.1714 0.3982 l
0.1721 0.3963 l
0.1729 0.3944 l
0.1737 0.3924 l
0.1745 0.3904 l
0.1753 0.3885 l
0.1761 0.3864 l
0.1770 0.3844 l
0.1779 0.3823 l
0.1788 0.3803 l
0.1797 0.3781 l
0.1806 0.3760 l
0.1816 0.3739 l
0.1826 0.3717 l
0.1836 0.3695 l
0.1846 0.3673 l
0.1856 0.3650 l
0.1867 0.3627 l
0.1878 0.3605 l
0.1889 0.3582 l
0.1900 0.3558 l
0.1911 0.3535 l
0.1923 0.3511 l
0.1935 0.3487 l
0.1947 0.3463 l
0.1959 0.3439 l
0.1972 0.3415 l
0.1984 0.3390 l
0.1997 0.3365 l
0.2011 0.3341 l
0.2024 0.3316 l
0.2038 0.3290 l
0.2052 0.3265 l
0.2066 0.3240 l
0.2080 0.3214 l
0.2095 0.3188 l
0.2110 0.3162 l
0.2125 0.3136 l
0.2140 0.3110 l
0.2156 0.3084 l
0.2172 0.3058 l
0.2188 0.3031 l
0.2204 0.3005 l
0.2221 0.2978 l
0.2238 0.2952 l
0.2255 0.2925 l
0.2272 0.2898 l
0.2290 0.2871 l
0.2308 0.2844 l
0.2326 0.2818 l
0.2345 0.2791 l
0.2363 0.2764 l
0.2382 0.2737 l
0.2402 0.2710 l
0.2421 0.2683 l
0.2441 0.2656 l
0.2461 0.2629 l
0.2482 0.2603 l
0.2503 0.2576 l
0.2524 0.2549 l
0.2545 0.2523 l
0.2567 0.2496 l
0.2588 0.2470 l
0.2611 0.2443 l
0.2633 0.2417 l
0.2656 0.2391 l
0.2679 0.2365 l
0.2703 0.2340 l
0.2726 0.2314 l
0.2750 0.2289 l
0.2775 0.2264 l
0.2799 0.2239 l
0.2824 0.2214 l
0.2850 0.2190 l
0.2875 0.2165 l
0.2901 0.2142 l
0.2927 0.2118 l
0.2954 0.2095 l
0.2981 0.2072 l
0.3008 0.2049 l
0.3036 0.2027 l
0.3064 0.2005 l
0.3092 0.1984 l
0.3121 0.1963 l
0.3150 0.1942 l
0.3179 0.1922 l
0.3208 0.1903 l
0.3238 0.1884 l
0.3269 0.1865 l
0.3299 0.1847 l
0.3330 0.1830 l
0.3362 0.1813 l
0.3394 0.1796 l
0.3426 0.1781 l
0.3458 0.1766 l
0.3491 0.1752 l
0.3524 0.1738 l
0.3558 0.1725 l
0.3592 0.1713 l
0.3626 0.1702 l
0.3661 0.1691 l
0.3696 0.1682 l
0.3731 0.1673 l
0.3767 0.1665 l
0.3803 0.1658 l
0.3839 0.1652 l
0.3876 0.1647 l
0.3914 0.1643 l
0.3951 0.1640 l
0.3990 0.1638 l
0.4028 0.1637 l
0.4067 0.1637 l
0.4106 0.1639 l
0.4146 0.1641 l
0.4186 0.1645 l
0.4226 0.1650 l
0.4267 0.1657 l
0.4309 0.1664 l
0.4350 0.1673 l
0.4393 0.1684 l
0.4435 0.1696 l
0.4478 0.1709 l
0.4521 0.1724 l
0.4565 0.1740 l
0.4609 0.1758 l
0.4654 0.1778 l
0.4699 0.1799 l
0.4745 0.1822 l
0.4790 0.1846 l
0.4837 0.1873 l
0.4884 0.1901 l
0.4931 0.1931 l
0.4978 0.1963 l
0.5027 0.1996 l
0.5075 0.2032 l
0.5124 0.2070 l
0.5173 0.2110 l
0.5223 0.2152 l
0.5274 0.2196 l
0.5324 0.2242 l
0.5376 0.2291 l
0.5427 0.2342 l
0.5479 0.2395 l
0.5532 0.2450 l
0.5585 0.2508 l
0.5639 0.2569 l
0.5693 0.2632 l
0.5747 0.2697 l
0.5802 0.2765 l
0.5857 0.2836 l
0.5913 0.2909 l
0.5970 0.2986 l
0.6026 0.3065 l
0.6084 0.3147 l
0.6141 0.3231 l
0.6200 0.3319 l
0.6258 0.3410 l
0.6318 0.3504 l
0.6377 0.3601 l
0.6438 0.3701 l
0.6472 0.3759 l
s
[] 0 SD
0.0045 SLW
n
0.1500 0.1500 m
0.6471 0.1500 l
s
n
0.1997 0.1500 m
0.1997 0.1600 l
s
n
0.2991 0.1500 m
0.2991 0.1600 l
s
n
0.3985 0.1500 m
0.3985 0.1600 l
s
n
0.4979 0.1500 m
0.4979 0.1600 l
s
n
0.5974 0.1500 m
0.5974 0.1600 l
s
n
0.1500 0.1500 m
0.1500 0.1700 l
s
n
0.2494 0.1500 m
0.2494 0.1700 l
s
n
0.3488 0.1500 m
0.3488 0.1700 l
s
n
0.4482 0.1500 m
0.4482 0.1700 l
s
n
0.5476 0.1500 m
0.5476 0.1700 l
s
/Font0 FFSF
0.1394 0.1094 m
GS
[0.0448 0.0000 0.0000 0.0448 0 0] CC
(0) show
GR
/Font0 FFSF
0.2220 0.1094 m
GS
[0.0448 0.0000 0.0000 0.0448 0 0] CC
(0.2) show
GR
/Font0 FFSF
0.3214 0.1094 m
GS
[0.0448 0.0000 0.0000 0.0448 0 0] CC
(0.4) show
GR
/Font0 FFSF
0.4210 0.1094 m
GS
[0.0448 0.0000 0.0000 0.0448 0 0] CC
(0.6) show
GR
/Font0 FFSF
0.5208 0.1094 m
GS
[0.0448 0.0000 0.0000 0.0448 0 0] CC
(0.8) show
GR
/Symbol findfont
/Font12 exch definefont pop
/Font12 FFSF
0.5779 0.0503 m
GS
[0.0459 0.0000 0.0000 0.0459 0 0] CC
(r) show
GR
/Font0 FFSF
0.6030 0.0503 m
GS
[0.0459 0.0000 0.0000 0.0459 0 0] CC
( [fm) show
GR
/Font0 FFSF
0.6807 0.0779 m
GS
[0.0325 0.0000 0.0000 0.0325 0 0] CC
(-3) show
GR
/Font0 FFSF
0.7077 0.0503 m
GS
[0.0459 0.0000 0.0000 0.0459 0 0] CC
(]) show
GR
n
0.1500 0.1500 m
0.1500 0.5000 l
s
n
0.1500 0.1500 m
0.1600 0.1500 l
s
n
0.1500 0.2200 m
0.1600 0.2200 l
s
n
0.1500 0.2900 m
0.1600 0.2900 l
s
n
0.1500 0.3600 m
0.1600 0.3600 l
s
n
0.1500 0.4300 m
0.1600 0.4300 l
s
n
0.1500 0.5000 m
0.1600 0.5000 l
s
n
0.1500 0.1850 m
0.1700 0.1850 l
s
n
0.1500 0.2550 m
0.1700 0.2550 l
s
n
0.1500 0.3250 m
0.1700 0.3250 l
s
n
0.1500 0.3950 m
0.1700 0.3950 l
s
n
0.1500 0.4650 m
0.1700 0.4650 l
s
/Font0 FFSF
0.0816 0.1701 m
GS
[0.0448 0.0000 0.0000 0.0448 0 0] CC
(-40) show
GR
/Font0 FFSF
0.0816 0.2401 m
GS
[0.0448 0.0000 0.0000 0.0448 0 0] CC
(-30) show
GR
/Font0 FFSF
0.0816 0.3101 m
GS
[0.0448 0.0000 0.0000 0.0448 0 0] CC
(-20) show
GR
/Font0 FFSF
0.0816 0.3801 m
GS
[0.0448 0.0000 0.0000 0.0448 0 0] CC
(-10) show
GR
/Font0 FFSF
0.1188 0.4501 m
GS
[0.0448 0.0000 0.0000 0.0448 0 0] CC
(0) show
GR
/Font0 FFSF
0.0633 0.2295 m
GS
[0.0000 0.0459 -0.0459 0.0000 0 0] CC
(\(S=1,T=0\)) show
GR
[] 0 SD
0.0015 SLW
n
0.1500 0.1500 m
0.1500 0.5000 l
0.6471 0.5000 l
0.6471 0.1500 l
0.1500 0.1500 l
c
s
n
0.6559 0.4164 m
0.6559 0.4331 l
0.6726 0.4331 l
0.6726 0.4164 l
c
GS
Color0 SRGB
fill
GR
[/Pattern /DeviceRGB] SCS
Color1 Pattern8 SC
fill
[/DeviceRGB] SCS
Color1 SC
[] 0 SD
0.0030 SLW
n
0.6559 0.4164 m
0.6559 0.4331 l
0.6726 0.4331 l
0.6726 0.4164 l
0.6559 0.4164 l
c
s
n
0.6632 0.4045 m
0.6632 0.4211 l
0.6799 0.4211 l
0.6799 0.4045 l
c
GS
Color0 SRGB
fill
GR
[/Pattern /DeviceRGB] SCS
Color1 Pattern8 SC
fill
[/DeviceRGB] SCS
Color1 SC
n
0.6632 0.4045 m
0.6632 0.4211 l
0.6799 0.4211 l
0.6799 0.4045 l
0.6632 0.4045 l
c
s
n
0.6723 0.3915 m
0.6723 0.4081 l
0.6890 0.4081 l
0.6890 0.3915 l
c
GS
Color0 SRGB
fill
GR
[/Pattern /DeviceRGB] SCS
Color1 Pattern8 SC
fill
[/DeviceRGB] SCS
Color1 SC
n
0.6723 0.3915 m
0.6723 0.4081 l
0.6890 0.4081 l
0.6890 0.3915 l
0.6723 0.3915 l
c
s
n
0.6834 0.3777 m
0.6834 0.3943 l
0.7001 0.3943 l
0.7001 0.3777 l
c
GS
Color0 SRGB
fill
GR
[/Pattern /DeviceRGB] SCS
Color1 Pattern8 SC
fill
[/DeviceRGB] SCS
Color1 SC
n
0.6834 0.3777 m
0.6834 0.3943 l
0.7001 0.3943 l
0.7001 0.3777 l
0.6834 0.3777 l
c
s
n
0.6967 0.3632 m
0.6967 0.3799 l
0.7134 0.3799 l
0.7134 0.3632 l
c
GS
Color0 SRGB
fill
GR
[/Pattern /DeviceRGB] SCS
Color1 Pattern8 SC
fill
[/DeviceRGB] SCS
Color1 SC
n
0.6967 0.3632 m
0.6967 0.3799 l
0.7134 0.3799 l
0.7134 0.3632 l
0.6967 0.3632 l
c
s
n
0.7125 0.3481 m
0.7125 0.3648 l
0.7292 0.3648 l
0.7292 0.3481 l
c
GS
Color0 SRGB
fill
GR
[/Pattern /DeviceRGB] SCS
Color1 Pattern8 SC
fill
[/DeviceRGB] SCS
Color1 SC
n
0.7125 0.3481 m
0.7125 0.3648 l
0.7292 0.3648 l
0.7292 0.3481 l
0.7125 0.3481 l
c
s
n
0.7309 0.3334 m
0.7309 0.3500 l
0.7475 0.3500 l
0.7475 0.3334 l
c
GS
Color0 SRGB
fill
GR
[/Pattern /DeviceRGB] SCS
Color1 Pattern8 SC
fill
[/DeviceRGB] SCS
Color1 SC
n
0.7309 0.3334 m
0.7309 0.3500 l
0.7475 0.3500 l
0.7475 0.3334 l
0.7309 0.3334 l
c
s
n
0.7520 0.3199 m
0.7520 0.3366 l
0.7687 0.3366 l
0.7687 0.3199 l
c
GS
Color0 SRGB
fill
GR
[/Pattern /DeviceRGB] SCS
Color1 Pattern8 SC
fill
[/DeviceRGB] SCS
Color1 SC
n
0.7520 0.3199 m
0.7520 0.3366 l
0.7687 0.3366 l
0.7687 0.3199 l
0.7520 0.3199 l
c
s
n
0.7763 0.3090 m
0.7763 0.3257 l
0.7929 0.3257 l
0.7929 0.3090 l
c
GS
Color0 SRGB
fill
GR
[/Pattern /DeviceRGB] SCS
Color1 Pattern8 SC
fill
[/DeviceRGB] SCS
Color1 SC
n
0.7763 0.3090 m
0.7763 0.3257 l
0.7929 0.3257 l
0.7929 0.3090 l
0.7763 0.3090 l
c
s
n
0.8037 0.3018 m
0.8037 0.3184 l
0.8203 0.3184 l
0.8203 0.3018 l
c
GS
Color0 SRGB
fill
GR
[/Pattern /DeviceRGB] SCS
Color1 Pattern8 SC
fill
[/DeviceRGB] SCS
Color1 SC
n
0.8037 0.3018 m
0.8037 0.3184 l
0.8203 0.3184 l
0.8203 0.3018 l
0.8037 0.3018 l
c
s
n
0.8345 0.2998 m
0.8345 0.3164 l
0.8512 0.3164 l
0.8512 0.2998 l
c
GS
Color0 SRGB
fill
GR
[/Pattern /DeviceRGB] SCS
Color1 Pattern8 SC
fill
[/DeviceRGB] SCS
Color1 SC
n
0.8345 0.2998 m
0.8345 0.3164 l
0.8512 0.3164 l
0.8512 0.2998 l
0.8345 0.2998 l
c
s
n
0.8690 0.3049 m
0.8690 0.3215 l
0.8857 0.3215 l
0.8857 0.3049 l
c
GS
Color0 SRGB
fill
GR
[/Pattern /DeviceRGB] SCS
Color1 Pattern8 SC
fill
[/DeviceRGB] SCS
Color1 SC
n
0.8690 0.3049 m
0.8690 0.3215 l
0.8857 0.3215 l
0.8857 0.3049 l
0.8690 0.3049 l
c
s
n
0.9073 0.3197 m
0.9073 0.3363 l
0.9240 0.3363 l
0.9240 0.3197 l
c
GS
Color0 SRGB
fill
GR
[/Pattern /DeviceRGB] SCS
Color1 Pattern8 SC
fill
[/DeviceRGB] SCS
Color1 SC
n
0.9073 0.3197 m
0.9073 0.3363 l
0.9240 0.3363 l
0.9240 0.3197 l
0.9073 0.3197 l
c
s
n
0.9497 0.3460 m
0.9497 0.3627 l
0.9663 0.3627 l
0.9663 0.3460 l
c
GS
Color0 SRGB
fill
GR
[/Pattern /DeviceRGB] SCS
Color1 Pattern8 SC
fill
[/DeviceRGB] SCS
Color1 SC
n
0.9497 0.3460 m
0.9497 0.3627 l
0.9663 0.3627 l
0.9663 0.3460 l
0.9497 0.3460 l
c
s
n
0.9962 0.3870 m
0.9962 0.4037 l
1.0129 0.4037 l
1.0129 0.3870 l
c
GS
Color0 SRGB
fill
GR
[/Pattern /DeviceRGB] SCS
Color1 Pattern8 SC
fill
[/DeviceRGB] SCS
Color1 SC
n
0.9962 0.3870 m
0.9962 0.4037 l
1.0129 0.4037 l
1.0129 0.3870 l
0.9962 0.3870 l
c
s
n
1.0472 0.4454 m
1.0472 0.4621 l
1.0639 0.4621 l
1.0639 0.4454 l
c
GS
Color0 SRGB
fill
GR
[/Pattern /DeviceRGB] SCS
Color1 Pattern8 SC
fill
[/DeviceRGB] SCS
Color1 SC
n
1.0472 0.4454 m
1.0472 0.4621 l
1.0639 0.4621 l
1.0639 0.4454 l
1.0472 0.4454 l
c
s
[] 0 SD
0.0037 SLW
n
0.6471 0.4650 m
0.6471 0.4650 l
0.6471 0.4650 l
0.6471 0.4650 l
0.6471 0.4650 l
0.6471 0.4650 l
0.6471 0.4650 l
0.6471 0.4650 l
0.6471 0.4649 l
0.6471 0.4649 l
0.6471 0.4649 l
0.6471 0.4648 l
0.6471 0.4648 l
0.6472 0.4648 l
0.6472 0.4647 l
0.6472 0.4646 l
0.6472 0.4646 l
0.6473 0.4645 l
0.6473 0.4644 l
0.6473 0.4643 l
0.6474 0.4642 l
0.6474 0.4641 l
0.6475 0.4639 l
0.6475 0.4638 l
0.6476 0.4637 l
0.6476 0.4635 l
0.6477 0.4633 l
0.6478 0.4631 l
0.6479 0.4629 l
0.6480 0.4627 l
0.6481 0.4625 l
0.6482 0.4622 l
0.6483 0.4619 l
0.6484 0.4617 l
0.6485 0.4614 l
0.6486 0.4611 l
0.6488 0.4607 l
0.6489 0.4604 l
0.6491 0.4600 l
0.6492 0.4597 l
0.6494 0.4593 l
0.6495 0.4588 l
0.6497 0.4584 l
0.6499 0.4580 l
0.6501 0.4575 l
0.6503 0.4570 l
0.6505 0.4565 l
0.6508 0.4560 l
0.6510 0.4554 l
0.6513 0.4548 l
0.6515 0.4543 l
0.6518 0.4537 l
0.6521 0.4530 l
0.6523 0.4524 l
0.6526 0.4517 l
0.6530 0.4510 l
0.6533 0.4503 l
0.6536 0.4496 l
0.6540 0.4488 l
0.6543 0.4481 l
0.6547 0.4473 l
0.6551 0.4465 l
0.6555 0.4456 l
0.6559 0.4448 l
0.6563 0.4439 l
0.6567 0.4430 l
0.6572 0.4421 l
0.6576 0.4411 l
0.6581 0.4402 l
0.6586 0.4392 l
0.6591 0.4382 l
0.6596 0.4372 l
0.6601 0.4361 l
0.6607 0.4351 l
0.6612 0.4340 l
0.6618 0.4329 l
0.6624 0.4318 l
0.6630 0.4306 l
0.6636 0.4295 l
0.6642 0.4283 l
0.6649 0.4271 l
0.6656 0.4259 l
0.6663 0.4247 l
0.6670 0.4234 l
0.6677 0.4222 l
0.6684 0.4209 l
0.6692 0.4196 l
0.6699 0.4183 l
0.6707 0.4169 l
0.6715 0.4156 l
0.6724 0.4142 l
0.6732 0.4128 l
0.6741 0.4115 l
0.6749 0.4100 l
0.6758 0.4086 l
0.6768 0.4072 l
0.6777 0.4057 l
0.6787 0.4043 l
0.6796 0.4028 l
0.6806 0.4013 l
0.6817 0.3998 l
0.6827 0.3983 l
0.6837 0.3968 l
0.6848 0.3953 l
0.6859 0.3938 l
0.6870 0.3922 l
0.6882 0.3907 l
0.6894 0.3891 l
0.6905 0.3876 l
0.6917 0.3860 l
0.6930 0.3845 l
0.6942 0.3829 l
0.6955 0.3813 l
0.6968 0.3797 l
0.6981 0.3781 l
0.6995 0.3765 l
0.7008 0.3750 l
0.7022 0.3734 l
0.7036 0.3718 l
0.7051 0.3702 l
0.7065 0.3686 l
0.7080 0.3670 l
0.7095 0.3654 l
0.7111 0.3639 l
0.7126 0.3623 l
0.7142 0.3607 l
0.7158 0.3591 l
0.7175 0.3576 l
0.7191 0.3560 l
0.7208 0.3545 l
0.7225 0.3530 l
0.7243 0.3514 l
0.7260 0.3499 l
0.7278 0.3484 l
0.7297 0.3469 l
0.7315 0.3454 l
0.7334 0.3440 l
0.7353 0.3425 l
0.7372 0.3411 l
0.7392 0.3396 l
0.7412 0.3382 l
0.7432 0.3368 l
0.7452 0.3354 l
0.7473 0.3341 l
0.7494 0.3327 l
0.7515 0.3314 l
0.7537 0.3301 l
0.7559 0.3288 l
0.7581 0.3276 l
0.7604 0.3263 l
0.7627 0.3251 l
0.7650 0.3239 l
0.7673 0.3228 l
0.7697 0.3216 l
0.7721 0.3205 l
0.7745 0.3194 l
0.7770 0.3184 l
0.7795 0.3173 l
0.7820 0.3163 l
0.7846 0.3154 l
0.7872 0.3144 l
0.7898 0.3135 l
0.7925 0.3126 l
0.7952 0.3118 l
0.7979 0.3110 l
0.8006 0.3102 l
0.8034 0.3095 l
0.8063 0.3088 l
0.8091 0.3081 l
0.8120 0.3075 l
0.8149 0.3069 l
0.8179 0.3063 l
0.8209 0.3058 l
0.8239 0.3053 l
0.8270 0.3049 l
0.8301 0.3045 l
0.8332 0.3041 l
0.8364 0.3038 l
0.8396 0.3036 l
0.8429 0.3033 l
0.8462 0.3032 l
0.8495 0.3030 l
0.8528 0.3029 l
0.8562 0.3029 l
0.8596 0.3029 l
0.8631 0.3030 l
0.8666 0.3031 l
0.8702 0.3032 l
0.8737 0.3034 l
0.8774 0.3037 l
0.8810 0.3039 l
0.8847 0.3043 l
0.8884 0.3047 l
0.8922 0.3051 l
0.8960 0.3057 l
0.8999 0.3062 l
0.9038 0.3068 l
0.9077 0.3075 l
0.9117 0.3082 l
0.9157 0.3090 l
0.9197 0.3098 l
0.9238 0.3107 l
0.9279 0.3116 l
0.9321 0.3126 l
0.9363 0.3137 l
0.9406 0.3148 l
0.9449 0.3160 l
0.9492 0.3172 l
0.9536 0.3185 l
0.9580 0.3198 l
0.9625 0.3212 l
0.9670 0.3227 l
0.9715 0.3242 l
0.9761 0.3258 l
0.9807 0.3274 l
0.9854 0.3292 l
0.9901 0.3309 l
0.9949 0.3328 l
0.9997 0.3347 l
1.0046 0.3366 l
1.0095 0.3386 l
1.0144 0.3407 l
1.0194 0.3429 l
1.0244 0.3451 l
1.0295 0.3473 l
1.0346 0.3497 l
1.0398 0.3521 l
1.0450 0.3545 l
1.0503 0.3571 l
1.0556 0.3597 l
1.0609 0.3623 l
1.0663 0.3651 l
1.0718 0.3678 l
1.0773 0.3707 l
1.0828 0.3736 l
1.0884 0.3766 l
1.0940 0.3797 l
1.0997 0.3828 l
1.1054 0.3860 l
1.1112 0.3892 l
1.1170 0.3926 l
1.1229 0.3960 l
1.1288 0.3994 l
1.1348 0.4029 l
1.1408 0.4065 l
1.1442 0.4086 l
s
[] 0 SD
0.0045 SLW
n
0.6471 0.1500 m
1.1441 0.1500 l
s
n
0.6968 0.1500 m
0.6968 0.1600 l
s
n
0.7962 0.1500 m
0.7962 0.1600 l
s
n
0.8956 0.1500 m
0.8956 0.1600 l
s
n
0.9950 0.1500 m
0.9950 0.1600 l
s
n
1.0944 0.1500 m
1.0944 0.1600 l
s
n
0.6471 0.1500 m
0.6471 0.1700 l
s
n
0.7465 0.1500 m
0.7465 0.1700 l
s
n
0.8459 0.1500 m
0.8459 0.1700 l
s
n
0.9453 0.1500 m
0.9453 0.1700 l
s
n
1.0447 0.1500 m
1.0447 0.1700 l
s
n
1.1441 0.1500 m
1.1441 0.1700 l
s
/Font0 FFSF
0.6365 0.1094 m
GS
[0.0448 0.0000 0.0000 0.0448 0 0] CC
(0) show
GR
/Font0 FFSF
0.7190 0.1094 m
GS
[0.0448 0.0000 0.0000 0.0448 0 0] CC
(0.2) show
GR
/Font0 FFSF
0.8184 0.1094 m
GS
[0.0448 0.0000 0.0000 0.0448 0 0] CC
(0.4) show
GR
/Font0 FFSF
0.9180 0.1094 m
GS
[0.0448 0.0000 0.0000 0.0448 0 0] CC
(0.6) show
GR
/Font0 FFSF
1.0178 0.1094 m
GS
[0.0448 0.0000 0.0000 0.0448 0 0] CC
(0.8) show
GR
/Font0 FFSF
1.1353 0.1094 m
GS
[0.0448 0.0000 0.0000 0.0448 0 0] CC
(1) show
GR
n
0.6471 0.1500 m
0.6471 0.5000 l
s
n
1.1441 0.1500 m
1.1441 0.5000 l
s
n
0.6471 0.1500 m
0.6571 0.1500 l
s
n
1.1441 0.1500 m
1.1341 0.1500 l
s
n
0.6471 0.2200 m
0.6571 0.2200 l
s
n
1.1441 0.2200 m
1.1341 0.2200 l
s
n
0.6471 0.2900 m
0.6571 0.2900 l
s
n
1.1441 0.2900 m
1.1341 0.2900 l
s
n
0.6471 0.3600 m
0.6571 0.3600 l
s
n
1.1441 0.3600 m
1.1341 0.3600 l
s
n
0.6471 0.4300 m
0.6571 0.4300 l
s
n
1.1441 0.4300 m
1.1341 0.4300 l
s
n
0.6471 0.5000 m
0.6571 0.5000 l
s
n
1.1441 0.5000 m
1.1341 0.5000 l
s
n
0.6471 0.1850 m
0.6671 0.1850 l
s
n
1.1441 0.1850 m
1.1241 0.1850 l
s
n
0.6471 0.2550 m
0.6671 0.2550 l
s
n
1.1441 0.2550 m
1.1241 0.2550 l
s
n
0.6471 0.3250 m
0.6671 0.3250 l
s
n
1.1441 0.3250 m
1.1241 0.3250 l
s
n
0.6471 0.3950 m
0.6671 0.3950 l
s
n
1.1441 0.3950 m
1.1241 0.3950 l
s
n
0.6471 0.4650 m
0.6671 0.4650 l
s
n
1.1441 0.4650 m
1.1241 0.4650 l
s
/Font0 FFSF
1.1541 0.1701 m
GS
[0.0448 0.0000 0.0000 0.0448 0 0] CC
(-40) show
GR
/Font0 FFSF
1.1541 0.2401 m
GS
[0.0448 0.0000 0.0000 0.0448 0 0] CC
(-30) show
GR
/Font0 FFSF
1.1541 0.3101 m
GS
[0.0448 0.0000 0.0000 0.0448 0 0] CC
(-20) show
GR
/Font0 FFSF
1.1541 0.3801 m
GS
[0.0448 0.0000 0.0000 0.0448 0 0] CC
(-10) show
GR
/Font0 FFSF
1.1541 0.4501 m
GS
[0.0448 0.0000 0.0000 0.0448 0 0] CC
(0) show
GR
/Font0 FFSF
1.2539 0.2295 m
GS
[0.0000 0.0459 -0.0459 0.0000 0 0] CC
(\(S=0,T=1\)) show
GR
[] 0 SD
0.0015 SLW
n
0.6471 0.1500 m
0.6471 0.5000 l
1.1441 0.5000 l
1.1441 0.1500 l
0.6471 0.1500 l
c
s
%%Trailer
%%BoundingBox: 18 23 774 531
%%DocumentNeededResources: font Times-Roman
%%+ font Symbol
%%EOF
