%!PS-Adobe-3.0
%%BoundingBox: 0 0 612 792
%%LanguageLevel: 2
%%Creator: Grace-5.1.25
%%CreationDate: Sun Nov  1 15:01:31 2015
%%DocumentData: Clean8Bit
%%Orientation: Landscape
%%Pages: 1
%%PageOrder: Ascend
%%Title: EoS_SNM_ST_gogny.agr
%%For: ap1450
%%DocumentNeededResources: (atend)
%%EndComments
%%BeginProlog
/PAGE_OFFSET_X 0 def
/PAGE_OFFSET_Y 0 def
/m {moveto} def
/l {lineto} def
/s {stroke} def
/n {newpath} def
/c {closepath} def
/RL {rlineto} def
/SLW {setlinewidth} def
/GS {gsave} def
/GR {grestore} def
/SC {setcolor} def
/SGRY {setgray} def
/SRGB {setrgbcolor} def
/SD {setdash} def
/SLC {setlinecap} def
/SLJ {setlinejoin} def
/SCS {setcolorspace} def
/FFSF {findfont setfont} def
/CC {concat} def
/PXL {n m 0 0 RL s} def
/Color0 {1.0000 1.0000 1.0000} def
/Color1 {0.0000 0.0000 0.0000} def
/Color2 {1.0000 0.0000 0.0000} def
/Color3 {0.0000 1.0000 0.0000} def
/Color4 {0.0000 0.0000 1.0000} def
/Color5 {1.0000 1.0000 0.0000} def
/Color6 {0.7373 0.5608 0.5608} def
/Color7 {0.8627 0.8627 0.8627} def
/Color8 {0.5804 0.0000 0.8275} def
/Color9 {0.0000 1.0000 1.0000} def
/Color10 {1.0000 0.0000 1.0000} def
/Color11 {1.0000 0.6471 0.0000} def
/Color12 {0.4471 0.1294 0.7373} def
/Color13 {0.4039 0.0275 0.2824} def
/Color14 {0.2510 0.8784 0.8157} def
/Color15 {0.0000 0.5451 0.0000} def
/Color16 {0.7529 0.7529 0.7529} def
/Color17 {0.5059 0.5059 0.5059} def
/Color18 {0.2588 0.2588 0.2588} def
/PTRN {
 /pat_bits exch def 
 <<
  /PaintType 2
  /PatternType 1 /TilingType 1
  /BBox[0 0 16 16]
  /XStep 16 /YStep 16
  /PaintProc {
   pop
   16 16 true [-1 0 0 -1 16 16] pat_bits imagemask
  }
 >>
 [0.0016 0 0 0.0016 0 0]
 makepattern
} def
/Pattern0 {<0000000000000000000000000000000000000000000000000000000000000000> PTRN} bind def
/Pattern1 {<ffffffffffffffffffffffffffffffffffffffffffffffffffffffffffffffff> PTRN} bind def
/Pattern2 {<eeeeffffbbbbffffeeeeffffbbbbffffeeeeffffbbbbffffeeeeffffbbbbffff> PTRN} bind def
/Pattern3 {<eeeebbbbeeeebbbbeeeebbbbeeeebbbbeeeebbbbeeeebbbbeeeebbbbeeeebbbb> PTRN} bind def
/Pattern4 {<5555aaaa5555aaaa5555aaaa5555aaaa5555aaaa5555aaaa5555aaaa5555aaaa> PTRN} bind def
/Pattern5 {<1111444411114444111144441111444411114444111144441111444411114444> PTRN} bind def
/Pattern6 {<1111000044440000111100004444000011110000444400001111000044440000> PTRN} bind def
/Pattern7 {<1010000000000000010100000000000010100000000000000101000000000000> PTRN} bind def
/Pattern8 {<0000000000000000000000000000000000000000000000000000000000000000> PTRN} bind def
/Pattern9 {<1e1e0f0f8787c3c3e1e1f0f078783c3c1e1e0f0f8787c3c3e1e1f0f078783c3c> PTRN} bind def
/Pattern10 {<7878f0f0e1e1c3c387870f0f1e1e3c3c7878f0f0e1e1c3c387870f0f1e1e3c3c> PTRN} bind def
/Pattern11 {<3333333333333333333333333333333333333333333333333333333333333333> PTRN} bind def
/Pattern12 {<ffffffff00000000ffffffff00000000ffffffff00000000ffffffff00000000> PTRN} bind def
/Pattern13 {<8181424224241818181824244242818181814242242418181818242442428181> PTRN} bind def
/Pattern14 {<8080404020201010080804040202010180804040202010100808040402020101> PTRN} bind def
/Pattern15 {<0101020204040808101020204040808001010202040408081010202040408080> PTRN} bind def
/Pattern16 {<2222222222222222222222222222222222222222222222222222222222222222> PTRN} bind def
/Pattern17 {<0000ffff000000000000ffff000000000000ffff000000000000ffff00000000> PTRN} bind def
/Pattern18 {<2222ffff222222222222ffff222222222222ffff222222222222ffff22222222> PTRN} bind def
/Pattern19 {<ffffffff33333333ffffffff33333333ffffffff33333333ffffffff33333333> PTRN} bind def
/Pattern20 {<0f0f0f0f0f0f0f0ff0f0f0f0f0f0f0f00f0f0f0f0f0f0f0ff0f0f0f0f0f0f0f0> PTRN} bind def
/Pattern21 {<ff00ff00ff00ff00ff00ff00ff00ff0000ff00ff00ff00ff00ff00ff00ff00ff> PTRN} bind def
/Pattern22 {<8001800180018001800180018001ffffffff8001800180018001800180018001> PTRN} bind def
/Pattern23 {<c003c003c003c003c003c003ffffffffffffffffc003c003c003c003c003c003> PTRN} bind def
/Pattern24 {<040404040404ffff404040404040ffff040404040404ffff404040404040ffff> PTRN} bind def
/Pattern25 {<180018001800180018001800ffffffff001800180018001800180018ffffffff> PTRN} bind def
/Pattern26 {<1111b8b87c7c3a3a1111a3a3c7c78b8b1111b8b87c7c3a3a1111a3a3c7c78b8b> PTRN} bind def
/Pattern27 {<101010102828c7c70101010182827c7c101010102828c7c70101010182827c7c> PTRN} bind def
/Pattern28 {<1c1c121211112121c1c12121111112121c1c121211112121c1c1212111111212> PTRN} bind def
/Pattern29 {<3e3e414180808080e3e31414080808083e3e414180808080e3e3141408080808> PTRN} bind def
/Pattern30 {<4848888884848383848488884848383848488888848483838484888848483838> PTRN} bind def
/Pattern31 {<03030404080808080c0c12122121c0c003030404080808080c0c12122121c0c0> PTRN} bind def
/ellipsedict 8 dict def
ellipsedict /mtrx matrix put
/EARC {
 ellipsedict begin
  /endangle exch def
  /startangle exch def
  /yrad exch def
  /xrad exch def
  /y exch def
  /x exch def
  /savematrix mtrx currentmatrix def
  x y translate
  xrad yrad scale
  0 0 1 startangle endangle arc
  savematrix setmatrix
 end
} def
/TL {
  /kcomp exch def
  /linewidth exch def
  /offset exch def
  GS
  0 offset rmoveto
  linewidth SLW
  dup stringwidth exch kcomp add exch RL s
  GR
} def
/KINIT
{
 /kvector exch def
 /kid 0 def
} def
/KPROC
{
 pop pop
 kvector kid get
 0 rmoveto
 /kid 1 kid add def
} def
/DefEncoding [
 /.notdef
 /.notdef
 /.notdef
 /.notdef
 /.notdef
 /.notdef
 /.notdef
 /.notdef
 /.notdef
 /.notdef
 /.notdef
 /.notdef
 /.notdef
 /.notdef
 /.notdef
 /.notdef
 /.notdef
 /.notdef
 /.notdef
 /.notdef
 /.notdef
 /.notdef
 /.notdef
 /.notdef
 /.notdef
 /.notdef
 /.notdef
 /.notdef
 /.notdef
 /.notdef
 /.notdef
 /.notdef
 /space
 /exclam
 /quotedbl
 /numbersign
 /dollar
 /percent
 /ampersand
 /quoteright
 /parenleft
 /parenright
 /asterisk
 /plus
 /comma
 /hyphen
 /period
 /slash
 /zero
 /one
 /two
 /three
 /four
 /five
 /six
 /seven
 /eight
 /nine
 /colon
 /semicolon
 /less
 /equal
 /greater
 /question
 /at
 /A
 /B
 /C
 /D
 /E
 /F
 /G
 /H
 /I
 /J
 /K
 /L
 /M
 /N
 /O
 /P
 /Q
 /R
 /S
 /T
 /U
 /V
 /W
 /X
 /Y
 /Z
 /bracketleft
 /backslash
 /bracketright
 /asciicircum
 /underscore
 /grave
 /a
 /b
 /c
 /d
 /e
 /f
 /g
 /h
 /i
 /j
 /k
 /l
 /m
 /n
 /o
 /p
 /q
 /r
 /s
 /t
 /u
 /v
 /w
 /x
 /y
 /z
 /braceleft
 /bar
 /braceright
 /asciitilde
 /.notdef
 /.notdef
 /.notdef
 /.notdef
 /.notdef
 /.notdef
 /.notdef
 /.notdef
 /.notdef
 /.notdef
 /.notdef
 /.notdef
 /.notdef
 /.notdef
 /.notdef
 /.notdef
 /.notdef
 /.notdef
 /.notdef
 /.notdef
 /.notdef
 /.notdef
 /.notdef
 /.notdef
 /.notdef
 /.notdef
 /.notdef
 /.notdef
 /.notdef
 /.notdef
 /.notdef
 /.notdef
 /.notdef
 /space
 /exclamdown
 /cent
 /sterling
 /currency
 /yen
 /brokenbar
 /section
 /dieresis
 /copyright
 /ordfeminine
 /guillemotleft
 /logicalnot
 /hyphen
 /registered
 /macron
 /degree
 /plusminus
 /twosuperior
 /threesuperior
 /acute
 /mu
 /paragraph
 /periodcentered
 /cedilla
 /onesuperior
 /ordmasculine
 /guillemotright
 /onequarter
 /onehalf
 /threequarters
 /questiondown
 /Agrave
 /Aacute
 /Acircumflex
 /Atilde
 /Adieresis
 /Aring
 /AE
 /Ccedilla
 /Egrave
 /Eacute
 /Ecircumflex
 /Edieresis
 /Igrave
 /Iacute
 /Icircumflex
 /Idieresis
 /Eth
 /Ntilde
 /Ograve
 /Oacute
 /Ocircumflex
 /Otilde
 /Odieresis
 /multiply
 /Oslash
 /Ugrave
 /Uacute
 /Ucircumflex
 /Udieresis
 /Yacute
 /Thorn
 /germandbls
 /agrave
 /aacute
 /acircumflex
 /atilde
 /adieresis
 /aring
 /ae
 /ccedilla
 /egrave
 /eacute
 /ecircumflex
 /edieresis
 /igrave
 /iacute
 /icircumflex
 /idieresis
 /eth
 /ntilde
 /ograve
 /oacute
 /ocircumflex
 /otilde
 /odieresis
 /divide
 /oslash
 /ugrave
 /uacute
 /ucircumflex
 /udieresis
 /yacute
 /thorn
 /ydieresis
] def
%%EndProlog
%%BeginSetup
%%EndSetup
%%Page: 1 1
PAGE_OFFSET_X PAGE_OFFSET_Y translate
612.00 612.00 scale
90 rotate
0.0 -1.0 translate
n
0.1589 0.5276 m
0.1589 0.5443 l
0.1755 0.5443 l
0.1755 0.5276 l
c
GS
[/DeviceRGB] SCS
Color0 SRGB
fill
GR
[/Pattern /DeviceRGB] SCS
Color1 Pattern8 SC
fill
[/DeviceRGB] SCS
Color1 SC
[] 0 SD
0.0030 SLW
0 SLC
0 SLJ
n
0.1589 0.5276 m
0.1589 0.5443 l
0.1755 0.5443 l
0.1755 0.5276 l
0.1589 0.5276 l
c
s
n
0.1661 0.5301 m
0.1661 0.5468 l
0.1828 0.5468 l
0.1828 0.5301 l
c
GS
Color0 SRGB
fill
GR
[/Pattern /DeviceRGB] SCS
Color1 Pattern8 SC
fill
[/DeviceRGB] SCS
Color1 SC
n
0.1661 0.5301 m
0.1661 0.5468 l
0.1828 0.5468 l
0.1828 0.5301 l
0.1661 0.5301 l
c
s
n
0.1752 0.5335 m
0.1752 0.5501 l
0.1919 0.5501 l
0.1919 0.5335 l
c
GS
Color0 SRGB
fill
GR
[/Pattern /DeviceRGB] SCS
Color1 Pattern8 SC
fill
[/DeviceRGB] SCS
Color1 SC
n
0.1752 0.5335 m
0.1752 0.5501 l
0.1919 0.5501 l
0.1919 0.5335 l
0.1752 0.5335 l
c
s
n
0.1864 0.5379 m
0.1864 0.5546 l
0.2030 0.5546 l
0.2030 0.5379 l
c
GS
Color0 SRGB
fill
GR
[/Pattern /DeviceRGB] SCS
Color1 Pattern8 SC
fill
[/DeviceRGB] SCS
Color1 SC
n
0.1864 0.5379 m
0.1864 0.5546 l
0.2030 0.5546 l
0.2030 0.5379 l
0.1864 0.5379 l
c
s
n
0.1997 0.5437 m
0.1997 0.5604 l
0.2163 0.5604 l
0.2163 0.5437 l
c
GS
Color0 SRGB
fill
GR
[/Pattern /DeviceRGB] SCS
Color1 Pattern8 SC
fill
[/DeviceRGB] SCS
Color1 SC
n
0.1997 0.5437 m
0.1997 0.5604 l
0.2163 0.5604 l
0.2163 0.5437 l
0.1997 0.5437 l
c
s
n
0.2154 0.5512 m
0.2154 0.5678 l
0.2321 0.5678 l
0.2321 0.5512 l
c
GS
Color0 SRGB
fill
GR
[/Pattern /DeviceRGB] SCS
Color1 Pattern8 SC
fill
[/DeviceRGB] SCS
Color1 SC
n
0.2154 0.5512 m
0.2154 0.5678 l
0.2321 0.5678 l
0.2321 0.5512 l
0.2154 0.5512 l
c
s
n
0.2338 0.5604 m
0.2338 0.5770 l
0.2505 0.5770 l
0.2505 0.5604 l
c
GS
Color0 SRGB
fill
GR
[/Pattern /DeviceRGB] SCS
Color1 Pattern8 SC
fill
[/DeviceRGB] SCS
Color1 SC
n
0.2338 0.5604 m
0.2338 0.5770 l
0.2505 0.5770 l
0.2505 0.5604 l
0.2338 0.5604 l
c
s
n
0.2550 0.5717 m
0.2550 0.5883 l
0.2716 0.5883 l
0.2716 0.5717 l
c
GS
Color0 SRGB
fill
GR
[/Pattern /DeviceRGB] SCS
Color1 Pattern8 SC
fill
[/DeviceRGB] SCS
Color1 SC
n
0.2550 0.5717 m
0.2550 0.5883 l
0.2716 0.5883 l
0.2716 0.5717 l
0.2550 0.5717 l
c
s
n
0.2792 0.5852 m
0.2792 0.6018 l
0.2959 0.6018 l
0.2959 0.5852 l
c
GS
Color0 SRGB
fill
GR
[/Pattern /DeviceRGB] SCS
Color1 Pattern8 SC
fill
[/DeviceRGB] SCS
Color1 SC
n
0.2792 0.5852 m
0.2792 0.6018 l
0.2959 0.6018 l
0.2959 0.5852 l
0.2792 0.5852 l
c
s
n
0.3066 0.6010 m
0.3066 0.6177 l
0.3233 0.6177 l
0.3233 0.6010 l
c
GS
Color0 SRGB
fill
GR
[/Pattern /DeviceRGB] SCS
Color1 Pattern8 SC
fill
[/DeviceRGB] SCS
Color1 SC
n
0.3066 0.6010 m
0.3066 0.6177 l
0.3233 0.6177 l
0.3233 0.6010 l
0.3066 0.6010 l
c
s
n
0.3375 0.6190 m
0.3375 0.6357 l
0.3541 0.6357 l
0.3541 0.6190 l
c
GS
Color0 SRGB
fill
GR
[/Pattern /DeviceRGB] SCS
Color1 Pattern8 SC
fill
[/DeviceRGB] SCS
Color1 SC
n
0.3375 0.6190 m
0.3375 0.6357 l
0.3541 0.6357 l
0.3541 0.6190 l
0.3375 0.6190 l
c
s
n
0.3720 0.6392 m
0.3720 0.6558 l
0.3886 0.6558 l
0.3886 0.6392 l
c
GS
Color0 SRGB
fill
GR
[/Pattern /DeviceRGB] SCS
Color1 Pattern8 SC
fill
[/DeviceRGB] SCS
Color1 SC
n
0.3720 0.6392 m
0.3720 0.6558 l
0.3886 0.6558 l
0.3886 0.6392 l
0.3720 0.6392 l
c
s
n
0.4103 0.6607 m
0.4103 0.6773 l
0.4269 0.6773 l
0.4269 0.6607 l
c
GS
Color0 SRGB
fill
GR
[/Pattern /DeviceRGB] SCS
Color1 Pattern8 SC
fill
[/DeviceRGB] SCS
Color1 SC
n
0.4103 0.6607 m
0.4103 0.6773 l
0.4269 0.6773 l
0.4269 0.6607 l
0.4103 0.6607 l
c
s
n
0.4526 0.6827 m
0.4526 0.6993 l
0.4693 0.6993 l
0.4693 0.6827 l
c
GS
Color0 SRGB
fill
GR
[/Pattern /DeviceRGB] SCS
Color1 Pattern8 SC
fill
[/DeviceRGB] SCS
Color1 SC
n
0.4526 0.6827 m
0.4526 0.6993 l
0.4693 0.6993 l
0.4693 0.6827 l
0.4526 0.6827 l
c
s
n
0.4992 0.7037 m
0.4992 0.7203 l
0.5158 0.7203 l
0.5158 0.7037 l
c
GS
Color0 SRGB
fill
GR
[/Pattern /DeviceRGB] SCS
Color1 Pattern8 SC
fill
[/DeviceRGB] SCS
Color1 SC
n
0.4992 0.7037 m
0.4992 0.7203 l
0.5158 0.7203 l
0.5158 0.7037 l
0.4992 0.7037 l
c
s
n
0.5502 0.7215 m
0.5502 0.7382 l
0.5668 0.7382 l
0.5668 0.7215 l
c
GS
Color0 SRGB
fill
GR
[/Pattern /DeviceRGB] SCS
Color1 Pattern8 SC
fill
[/DeviceRGB] SCS
Color1 SC
n
0.5502 0.7215 m
0.5502 0.7382 l
0.5668 0.7382 l
0.5668 0.7215 l
0.5502 0.7215 l
c
s
[] 0 SD
0.0037 SLW
n
0.1500 0.5318 m
0.1500 0.5318 l
0.1500 0.5318 l
0.1500 0.5318 l
0.1500 0.5318 l
0.1500 0.5318 l
0.1500 0.5318 l
0.1500 0.5318 l
0.1500 0.5318 l
0.1500 0.5318 l
0.1500 0.5318 l
0.1501 0.5318 l
0.1501 0.5318 l
0.1501 0.5318 l
0.1501 0.5318 l
0.1501 0.5318 l
0.1502 0.5318 l
0.1502 0.5318 l
0.1502 0.5318 l
0.1503 0.5318 l
0.1503 0.5318 l
0.1504 0.5318 l
0.1504 0.5318 l
0.1505 0.5318 l
0.1505 0.5318 l
0.1506 0.5318 l
0.1507 0.5318 l
0.1507 0.5318 l
0.1508 0.5318 l
0.1509 0.5318 l
0.1510 0.5319 l
0.1511 0.5319 l
0.1512 0.5319 l
0.1513 0.5319 l
0.1514 0.5319 l
0.1516 0.5319 l
0.1517 0.5319 l
0.1518 0.5319 l
0.1520 0.5319 l
0.1521 0.5319 l
0.1523 0.5320 l
0.1525 0.5320 l
0.1527 0.5320 l
0.1529 0.5320 l
0.1531 0.5320 l
0.1533 0.5321 l
0.1535 0.5321 l
0.1537 0.5321 l
0.1540 0.5321 l
0.1542 0.5322 l
0.1545 0.5322 l
0.1547 0.5322 l
0.1550 0.5323 l
0.1553 0.5323 l
0.1556 0.5324 l
0.1559 0.5324 l
0.1562 0.5324 l
0.1566 0.5325 l
0.1569 0.5326 l
0.1573 0.5326 l
0.1576 0.5327 l
0.1580 0.5327 l
0.1584 0.5328 l
0.1588 0.5329 l
0.1592 0.5329 l
0.1597 0.5330 l
0.1601 0.5331 l
0.1606 0.5332 l
0.1610 0.5333 l
0.1615 0.5334 l
0.1620 0.5335 l
0.1625 0.5336 l
0.1631 0.5337 l
0.1636 0.5338 l
0.1642 0.5339 l
0.1647 0.5340 l
0.1653 0.5341 l
0.1659 0.5343 l
0.1666 0.5344 l
0.1672 0.5345 l
0.1678 0.5347 l
0.1685 0.5348 l
0.1692 0.5350 l
0.1699 0.5351 l
0.1706 0.5353 l
0.1714 0.5354 l
0.1721 0.5356 l
0.1729 0.5358 l
0.1737 0.5360 l
0.1745 0.5361 l
0.1753 0.5363 l
0.1761 0.5365 l
0.1770 0.5367 l
0.1779 0.5369 l
0.1788 0.5371 l
0.1797 0.5373 l
0.1806 0.5375 l
0.1816 0.5377 l
0.1826 0.5379 l
0.1836 0.5381 l
0.1846 0.5384 l
0.1856 0.5386 l
0.1867 0.5388 l
0.1878 0.5390 l
0.1889 0.5393 l
0.1900 0.5395 l
0.1911 0.5397 l
0.1923 0.5399 l
0.1935 0.5402 l
0.1947 0.5404 l
0.1959 0.5406 l
0.1972 0.5409 l
0.1984 0.5411 l
0.1997 0.5413 l
0.2011 0.5416 l
0.2024 0.5418 l
0.2038 0.5420 l
0.2052 0.5423 l
0.2066 0.5425 l
0.2080 0.5427 l
0.2095 0.5429 l
0.2110 0.5431 l
0.2125 0.5433 l
0.2140 0.5435 l
0.2156 0.5437 l
0.2172 0.5439 l
0.2188 0.5441 l
0.2204 0.5443 l
0.2221 0.5445 l
0.2238 0.5446 l
0.2255 0.5448 l
0.2272 0.5450 l
0.2290 0.5451 l
0.2308 0.5452 l
0.2326 0.5453 l
0.2345 0.5455 l
0.2363 0.5455 l
0.2382 0.5456 l
0.2402 0.5457 l
0.2421 0.5458 l
0.2441 0.5458 l
0.2461 0.5458 l
0.2482 0.5458 l
0.2503 0.5458 l
0.2524 0.5458 l
0.2545 0.5458 l
0.2567 0.5457 l
0.2588 0.5456 l
0.2611 0.5455 l
0.2633 0.5454 l
0.2656 0.5453 l
0.2679 0.5451 l
0.2703 0.5449 l
0.2726 0.5447 l
0.2750 0.5445 l
0.2775 0.5442 l
0.2799 0.5439 l
0.2824 0.5436 l
0.2850 0.5432 l
0.2875 0.5429 l
0.2901 0.5425 l
0.2927 0.5420 l
0.2954 0.5415 l
0.2981 0.5410 l
0.3008 0.5405 l
0.3036 0.5399 l
0.3064 0.5393 l
0.3092 0.5387 l
0.3121 0.5380 l
0.3150 0.5373 l
0.3179 0.5366 l
0.3208 0.5358 l
0.3238 0.5349 l
0.3269 0.5341 l
0.3299 0.5331 l
0.3330 0.5322 l
0.3362 0.5312 l
0.3394 0.5301 l
0.3426 0.5290 l
0.3458 0.5279 l
0.3491 0.5267 l
0.3524 0.5254 l
0.3558 0.5241 l
0.3592 0.5228 l
0.3626 0.5214 l
0.3661 0.5199 l
0.3696 0.5184 l
0.3731 0.5169 l
0.3767 0.5153 l
0.3803 0.5136 l
0.3839 0.5119 l
0.3876 0.5101 l
0.3914 0.5082 l
0.3951 0.5063 l
0.3990 0.5043 l
0.4028 0.5023 l
0.4067 0.5002 l
0.4072 0.4999 l
s
[/DeviceRGB] SCS
Color2 SC
n
0.1500 0.5318 m
0.1500 0.5318 l
0.1500 0.5318 l
0.1500 0.5318 l
0.1500 0.5318 l
0.1500 0.5318 l
0.1500 0.5318 l
0.1500 0.5318 l
0.1500 0.5318 l
0.1500 0.5318 l
0.1500 0.5318 l
0.1501 0.5318 l
0.1501 0.5318 l
0.1501 0.5318 l
0.1501 0.5318 l
0.1501 0.5318 l
0.1502 0.5318 l
0.1502 0.5318 l
0.1502 0.5318 l
0.1503 0.5318 l
0.1503 0.5318 l
0.1504 0.5318 l
0.1504 0.5318 l
0.1505 0.5318 l
0.1505 0.5318 l
0.1506 0.5318 l
0.1507 0.5318 l
0.1507 0.5318 l
0.1508 0.5319 l
0.1509 0.5319 l
0.1510 0.5319 l
0.1511 0.5319 l
0.1512 0.5319 l
0.1513 0.5319 l
0.1514 0.5319 l
0.1516 0.5319 l
0.1517 0.5319 l
0.1518 0.5319 l
0.1520 0.5320 l
0.1521 0.5320 l
0.1523 0.5320 l
0.1525 0.5320 l
0.1527 0.5320 l
0.1529 0.5321 l
0.1531 0.5321 l
0.1533 0.5321 l
0.1535 0.5321 l
0.1537 0.5322 l
0.1540 0.5322 l
0.1542 0.5323 l
0.1545 0.5323 l
0.1547 0.5323 l
0.1550 0.5324 l
0.1553 0.5324 l
0.1556 0.5325 l
0.1559 0.5325 l
0.1562 0.5326 l
0.1566 0.5327 l
0.1569 0.5327 l
0.1573 0.5328 l
0.1576 0.5329 l
0.1580 0.5330 l
0.1584 0.5330 l
0.1588 0.5331 l
0.1592 0.5332 l
0.1597 0.5333 l
0.1601 0.5334 l
0.1606 0.5335 l
0.1610 0.5336 l
0.1615 0.5337 l
0.1620 0.5338 l
0.1625 0.5339 l
0.1631 0.5340 l
0.1636 0.5342 l
0.1642 0.5343 l
0.1647 0.5344 l
0.1653 0.5345 l
0.1659 0.5347 l
0.1666 0.5348 l
0.1672 0.5350 l
0.1678 0.5351 l
0.1685 0.5352 l
0.1692 0.5354 l
0.1699 0.5356 l
0.1706 0.5357 l
0.1714 0.5359 l
0.1721 0.5360 l
0.1729 0.5362 l
0.1737 0.5363 l
0.1745 0.5365 l
0.1753 0.5367 l
0.1761 0.5368 l
0.1770 0.5370 l
0.1779 0.5372 l
0.1788 0.5373 l
0.1797 0.5375 l
0.1806 0.5377 l
0.1816 0.5378 l
0.1826 0.5380 l
0.1836 0.5381 l
0.1846 0.5383 l
0.1856 0.5384 l
0.1867 0.5386 l
0.1878 0.5387 l
0.1889 0.5389 l
0.1900 0.5390 l
0.1911 0.5391 l
0.1923 0.5392 l
0.1935 0.5393 l
0.1947 0.5394 l
0.1959 0.5395 l
0.1972 0.5396 l
0.1984 0.5397 l
0.1997 0.5397 l
0.2011 0.5398 l
0.2024 0.5398 l
0.2038 0.5398 l
0.2052 0.5398 l
0.2066 0.5398 l
0.2080 0.5398 l
0.2095 0.5397 l
0.2110 0.5397 l
0.2125 0.5396 l
0.2140 0.5395 l
0.2156 0.5393 l
0.2172 0.5392 l
0.2188 0.5390 l
0.2204 0.5388 l
0.2221 0.5386 l
0.2238 0.5384 l
0.2255 0.5381 l
0.2272 0.5378 l
0.2290 0.5374 l
0.2308 0.5371 l
0.2326 0.5367 l
0.2345 0.5362 l
0.2363 0.5358 l
0.2382 0.5353 l
0.2402 0.5347 l
0.2421 0.5341 l
0.2441 0.5335 l
0.2461 0.5329 l
0.2482 0.5321 l
0.2503 0.5314 l
0.2524 0.5306 l
0.2545 0.5298 l
0.2567 0.5289 l
0.2588 0.5279 l
0.2611 0.5270 l
0.2633 0.5259 l
0.2656 0.5248 l
0.2679 0.5237 l
0.2703 0.5225 l
0.2726 0.5212 l
0.2750 0.5199 l
0.2775 0.5185 l
0.2799 0.5170 l
0.2824 0.5155 l
0.2850 0.5140 l
0.2875 0.5123 l
0.2901 0.5106 l
0.2927 0.5088 l
0.2954 0.5070 l
0.2981 0.5050 l
0.3008 0.5030 l
0.3036 0.5010 l
0.3050 0.4999 l
s
[/DeviceRGB] SCS
Color4 SC
n
0.1500 0.5318 m
0.1500 0.5318 l
0.1500 0.5318 l
0.1500 0.5318 l
0.1500 0.5318 l
0.1500 0.5318 l
0.1500 0.5318 l
0.1500 0.5318 l
0.1500 0.5318 l
0.1500 0.5318 l
0.1500 0.5318 l
0.1501 0.5318 l
0.1501 0.5318 l
0.1501 0.5318 l
0.1501 0.5318 l
0.1501 0.5318 l
0.1502 0.5318 l
0.1502 0.5318 l
0.1502 0.5318 l
0.1503 0.5318 l
0.1503 0.5318 l
0.1504 0.5318 l
0.1504 0.5318 l
0.1505 0.5318 l
0.1505 0.5318 l
0.1506 0.5318 l
0.1507 0.5318 l
0.1507 0.5319 l
0.1508 0.5319 l
0.1509 0.5319 l
0.1510 0.5319 l
0.1511 0.5319 l
0.1512 0.5319 l
0.1513 0.5319 l
0.1514 0.5319 l
0.1516 0.5319 l
0.1517 0.5320 l
0.1518 0.5320 l
0.1520 0.5320 l
0.1521 0.5320 l
0.1523 0.5320 l
0.1525 0.5321 l
0.1527 0.5321 l
0.1529 0.5321 l
0.1531 0.5322 l
0.1533 0.5322 l
0.1535 0.5322 l
0.1537 0.5323 l
0.1540 0.5323 l
0.1542 0.5324 l
0.1545 0.5324 l
0.1547 0.5325 l
0.1550 0.5326 l
0.1553 0.5326 l
0.1556 0.5327 l
0.1559 0.5328 l
0.1562 0.5329 l
0.1566 0.5330 l
0.1569 0.5331 l
0.1573 0.5332 l
0.1576 0.5333 l
0.1580 0.5334 l
0.1584 0.5335 l
0.1588 0.5336 l
0.1592 0.5338 l
0.1597 0.5339 l
0.1601 0.5340 l
0.1606 0.5342 l
0.1610 0.5344 l
0.1615 0.5345 l
0.1620 0.5347 l
0.1625 0.5349 l
0.1631 0.5351 l
0.1636 0.5353 l
0.1642 0.5355 l
0.1647 0.5357 l
0.1653 0.5359 l
0.1659 0.5362 l
0.1666 0.5364 l
0.1672 0.5367 l
0.1678 0.5369 l
0.1685 0.5372 l
0.1692 0.5375 l
0.1699 0.5378 l
0.1706 0.5381 l
0.1714 0.5384 l
0.1721 0.5387 l
0.1729 0.5391 l
0.1737 0.5394 l
0.1745 0.5398 l
0.1753 0.5401 l
0.1761 0.5405 l
0.1770 0.5409 l
0.1779 0.5413 l
0.1788 0.5417 l
0.1797 0.5421 l
0.1806 0.5425 l
0.1816 0.5430 l
0.1826 0.5434 l
0.1836 0.5439 l
0.1846 0.5443 l
0.1856 0.5448 l
0.1867 0.5453 l
0.1878 0.5458 l
0.1889 0.5463 l
0.1900 0.5468 l
0.1911 0.5473 l
0.1923 0.5478 l
0.1935 0.5484 l
0.1947 0.5489 l
0.1959 0.5494 l
0.1972 0.5500 l
0.1984 0.5505 l
0.1997 0.5511 l
0.2011 0.5517 l
0.2024 0.5522 l
0.2038 0.5528 l
0.2052 0.5534 l
0.2066 0.5540 l
0.2080 0.5546 l
0.2095 0.5551 l
0.2110 0.5557 l
0.2125 0.5563 l
0.2140 0.5569 l
0.2156 0.5575 l
0.2172 0.5581 l
0.2188 0.5586 l
0.2204 0.5592 l
0.2221 0.5598 l
0.2238 0.5604 l
0.2255 0.5609 l
0.2272 0.5615 l
0.2290 0.5620 l
0.2308 0.5625 l
0.2326 0.5631 l
0.2345 0.5636 l
0.2363 0.5641 l
0.2382 0.5645 l
0.2402 0.5650 l
0.2421 0.5655 l
0.2441 0.5659 l
0.2461 0.5663 l
0.2482 0.5667 l
0.2503 0.5671 l
0.2524 0.5674 l
0.2545 0.5677 l
0.2567 0.5680 l
0.2588 0.5683 l
0.2611 0.5686 l
0.2633 0.5688 l
0.2656 0.5689 l
0.2679 0.5691 l
0.2703 0.5692 l
0.2726 0.5693 l
0.2750 0.5693 l
0.2775 0.5693 l
0.2799 0.5692 l
0.2824 0.5692 l
0.2850 0.5690 l
0.2875 0.5688 l
0.2901 0.5686 l
0.2927 0.5683 l
0.2954 0.5680 l
0.2981 0.5676 l
0.3008 0.5671 l
0.3036 0.5666 l
0.3064 0.5660 l
0.3092 0.5654 l
0.3121 0.5646 l
0.3150 0.5639 l
0.3179 0.5630 l
0.3208 0.5621 l
0.3238 0.5611 l
0.3269 0.5600 l
0.3299 0.5589 l
0.3330 0.5576 l
0.3362 0.5563 l
0.3394 0.5549 l
0.3426 0.5534 l
0.3458 0.5518 l
0.3491 0.5501 l
0.3524 0.5483 l
0.3558 0.5464 l
0.3592 0.5444 l
0.3626 0.5423 l
0.3661 0.5401 l
0.3696 0.5378 l
0.3731 0.5354 l
0.3767 0.5329 l
0.3803 0.5302 l
0.3839 0.5274 l
0.3876 0.5245 l
0.3914 0.5215 l
0.3951 0.5183 l
0.3990 0.5150 l
0.4028 0.5116 l
0.4067 0.5080 l
0.4106 0.5043 l
0.4146 0.5004 l
0.4151 0.4999 l
s
[/DeviceRGB] SCS
Color1 SC
[] 0 SD
0.0045 SLW
n
0.1500 0.5000 m
0.6471 0.5000 l
s
n
0.1500 0.8500 m
0.6471 0.8500 l
s
n
0.1997 0.5000 m
0.1997 0.5100 l
s
n
0.1997 0.8500 m
0.1997 0.8400 l
s
n
0.2991 0.5000 m
0.2991 0.5100 l
s
n
0.2991 0.8500 m
0.2991 0.8400 l
s
n
0.3985 0.5000 m
0.3985 0.5100 l
s
n
0.3985 0.8500 m
0.3985 0.8400 l
s
n
0.4979 0.5000 m
0.4979 0.5100 l
s
n
0.4979 0.8500 m
0.4979 0.8400 l
s
n
0.5974 0.5000 m
0.5974 0.5100 l
s
n
0.5974 0.8500 m
0.5974 0.8400 l
s
n
0.1500 0.5000 m
0.1500 0.5200 l
s
n
0.1500 0.8500 m
0.1500 0.8300 l
s
n
0.2494 0.5000 m
0.2494 0.5200 l
s
n
0.2494 0.8500 m
0.2494 0.8300 l
s
n
0.3488 0.5000 m
0.3488 0.5200 l
s
n
0.3488 0.8500 m
0.3488 0.8300 l
s
n
0.4482 0.5000 m
0.4482 0.5200 l
s
n
0.4482 0.8500 m
0.4482 0.8300 l
s
n
0.5476 0.5000 m
0.5476 0.5200 l
s
n
0.5476 0.8500 m
0.5476 0.8300 l
s
n
0.6471 0.5000 m
0.6471 0.5200 l
s
n
0.6471 0.8500 m
0.6471 0.8300 l
s
n
0.1500 0.5000 m
0.1500 0.8500 l
s
n
0.1500 0.5000 m
0.1600 0.5000 l
s
n
0.1500 0.5636 m
0.1600 0.5636 l
s
n
0.1500 0.6273 m
0.1600 0.6273 l
s
n
0.1500 0.6909 m
0.1600 0.6909 l
s
n
0.1500 0.7545 m
0.1600 0.7545 l
s
n
0.1500 0.8182 m
0.1600 0.8182 l
s
n
0.1500 0.5318 m
0.1700 0.5318 l
s
n
0.1500 0.5955 m
0.1700 0.5955 l
s
n
0.1500 0.6591 m
0.1700 0.6591 l
s
n
0.1500 0.7227 m
0.1700 0.7227 l
s
n
0.1500 0.7864 m
0.1700 0.7864 l
s
n
0.1500 0.8500 m
0.1700 0.8500 l
s
/Times-Roman findfont
dup length dict begin
 {1 index /FID ne {def} {pop pop} ifelse} forall
 /Encoding DefEncoding def
 currentdict
end
/Font0 exch definefont pop
/Font0 FFSF
0.1188 0.5169 m
GS
[0.0448 0.0000 0.0000 0.0448 0 0] CC
(0) show
GR
/Font0 FFSF
0.0965 0.5806 m
GS
[0.0448 0.0000 0.0000 0.0448 0 0] CC
(10) show
GR
/Font0 FFSF
0.0965 0.6442 m
GS
[0.0448 0.0000 0.0000 0.0448 0 0] CC
(20) show
GR
/Font0 FFSF
0.0965 0.7078 m
GS
[0.0448 0.0000 0.0000 0.0448 0 0] CC
(30) show
GR
/Font0 FFSF
0.0965 0.7715 m
GS
[0.0448 0.0000 0.0000 0.0448 0 0] CC
(40) show
GR
/Font0 FFSF
0.0965 0.8349 m
GS
[0.0448 0.0000 0.0000 0.0448 0 0] CC
(50) show
GR
/Font0 FFSF
0.0782 0.5795 m
GS
[0.0000 0.0459 -0.0459 0.0000 0 0] CC
(\(S=0,T=0\)) show
GR
[] 0 SD
0.0015 SLW
n
0.1500 0.5000 m
0.1500 0.8500 l
0.6471 0.8500 l
0.6471 0.5000 l
0.1500 0.5000 l
c
s
n
0.6559 0.5227 m
0.6559 0.5394 l
0.6726 0.5394 l
0.6726 0.5227 l
c
GS
Color0 SRGB
fill
GR
[/Pattern /DeviceRGB] SCS
Color1 Pattern8 SC
fill
[/DeviceRGB] SCS
Color1 SC
[] 0 SD
0.0030 SLW
n
0.6559 0.5227 m
0.6559 0.5394 l
0.6726 0.5394 l
0.6726 0.5227 l
0.6559 0.5227 l
c
s
n
0.6632 0.5223 m
0.6632 0.5389 l
0.6799 0.5389 l
0.6799 0.5223 l
c
GS
Color0 SRGB
fill
GR
[/Pattern /DeviceRGB] SCS
Color1 Pattern8 SC
fill
[/DeviceRGB] SCS
Color1 SC
n
0.6632 0.5223 m
0.6632 0.5389 l
0.6799 0.5389 l
0.6799 0.5223 l
0.6632 0.5223 l
c
s
n
0.6723 0.5218 m
0.6723 0.5385 l
0.6890 0.5385 l
0.6890 0.5218 l
c
GS
Color0 SRGB
fill
GR
[/Pattern /DeviceRGB] SCS
Color1 Pattern8 SC
fill
[/DeviceRGB] SCS
Color1 SC
n
0.6723 0.5218 m
0.6723 0.5385 l
0.6890 0.5385 l
0.6890 0.5218 l
0.6723 0.5218 l
c
s
n
0.6834 0.5214 m
0.6834 0.5380 l
0.7001 0.5380 l
0.7001 0.5214 l
c
GS
Color0 SRGB
fill
GR
[/Pattern /DeviceRGB] SCS
Color1 Pattern8 SC
fill
[/DeviceRGB] SCS
Color1 SC
n
0.6834 0.5214 m
0.6834 0.5380 l
0.7001 0.5380 l
0.7001 0.5214 l
0.6834 0.5214 l
c
s
n
0.6967 0.5215 m
0.6967 0.5382 l
0.7134 0.5382 l
0.7134 0.5215 l
c
GS
Color0 SRGB
fill
GR
[/Pattern /DeviceRGB] SCS
Color1 Pattern8 SC
fill
[/DeviceRGB] SCS
Color1 SC
n
0.6967 0.5215 m
0.6967 0.5382 l
0.7134 0.5382 l
0.7134 0.5215 l
0.6967 0.5215 l
c
s
n
0.7125 0.5225 m
0.7125 0.5392 l
0.7292 0.5392 l
0.7292 0.5225 l
c
GS
Color0 SRGB
fill
GR
[/Pattern /DeviceRGB] SCS
Color1 Pattern8 SC
fill
[/DeviceRGB] SCS
Color1 SC
n
0.7125 0.5225 m
0.7125 0.5392 l
0.7292 0.5392 l
0.7292 0.5225 l
0.7125 0.5225 l
c
s
n
0.7309 0.5249 m
0.7309 0.5416 l
0.7475 0.5416 l
0.7475 0.5249 l
c
GS
Color0 SRGB
fill
GR
[/Pattern /DeviceRGB] SCS
Color1 Pattern8 SC
fill
[/DeviceRGB] SCS
Color1 SC
n
0.7309 0.5249 m
0.7309 0.5416 l
0.7475 0.5416 l
0.7475 0.5249 l
0.7309 0.5249 l
c
s
n
0.7520 0.5295 m
0.7520 0.5461 l
0.7687 0.5461 l
0.7687 0.5295 l
c
GS
Color0 SRGB
fill
GR
[/Pattern /DeviceRGB] SCS
Color1 Pattern8 SC
fill
[/DeviceRGB] SCS
Color1 SC
n
0.7520 0.5295 m
0.7520 0.5461 l
0.7687 0.5461 l
0.7687 0.5295 l
0.7520 0.5295 l
c
s
n
0.7763 0.5369 m
0.7763 0.5536 l
0.7929 0.5536 l
0.7929 0.5369 l
c
GS
Color0 SRGB
fill
GR
[/Pattern /DeviceRGB] SCS
Color1 Pattern8 SC
fill
[/DeviceRGB] SCS
Color1 SC
n
0.7763 0.5369 m
0.7763 0.5536 l
0.7929 0.5536 l
0.7929 0.5369 l
0.7763 0.5369 l
c
s
n
0.8037 0.5483 m
0.8037 0.5650 l
0.8203 0.5650 l
0.8203 0.5483 l
c
GS
Color0 SRGB
fill
GR
[/Pattern /DeviceRGB] SCS
Color1 Pattern8 SC
fill
[/DeviceRGB] SCS
Color1 SC
n
0.8037 0.5483 m
0.8037 0.5650 l
0.8203 0.5650 l
0.8203 0.5483 l
0.8037 0.5483 l
c
s
n
0.8345 0.5647 m
0.8345 0.5813 l
0.8512 0.5813 l
0.8512 0.5647 l
c
GS
Color0 SRGB
fill
GR
[/Pattern /DeviceRGB] SCS
Color1 Pattern8 SC
fill
[/DeviceRGB] SCS
Color1 SC
n
0.8345 0.5647 m
0.8345 0.5813 l
0.8512 0.5813 l
0.8512 0.5647 l
0.8345 0.5647 l
c
s
n
0.8690 0.5877 m
0.8690 0.6044 l
0.8857 0.6044 l
0.8857 0.5877 l
c
GS
Color0 SRGB
fill
GR
[/Pattern /DeviceRGB] SCS
Color1 Pattern8 SC
fill
[/DeviceRGB] SCS
Color1 SC
n
0.8690 0.5877 m
0.8690 0.6044 l
0.8857 0.6044 l
0.8857 0.5877 l
0.8690 0.5877 l
c
s
n
0.9073 0.6193 m
0.9073 0.6359 l
0.9240 0.6359 l
0.9240 0.6193 l
c
GS
Color0 SRGB
fill
GR
[/Pattern /DeviceRGB] SCS
Color1 Pattern8 SC
fill
[/DeviceRGB] SCS
Color1 SC
n
0.9073 0.6193 m
0.9073 0.6359 l
0.9240 0.6359 l
0.9240 0.6193 l
0.9073 0.6193 l
c
s
n
0.9497 0.6595 m
0.9497 0.6761 l
0.9663 0.6761 l
0.9663 0.6595 l
c
GS
Color0 SRGB
fill
GR
[/Pattern /DeviceRGB] SCS
Color1 Pattern8 SC
fill
[/DeviceRGB] SCS
Color1 SC
n
0.9497 0.6595 m
0.9497 0.6761 l
0.9663 0.6761 l
0.9663 0.6595 l
0.9497 0.6595 l
c
s
n
0.9962 0.7114 m
0.9962 0.7281 l
1.0129 0.7281 l
1.0129 0.7114 l
c
GS
Color0 SRGB
fill
GR
[/Pattern /DeviceRGB] SCS
Color1 Pattern8 SC
fill
[/DeviceRGB] SCS
Color1 SC
n
0.9962 0.7114 m
0.9962 0.7281 l
1.0129 0.7281 l
1.0129 0.7114 l
0.9962 0.7114 l
c
s
n
1.0472 0.7777 m
1.0472 0.7944 l
1.0639 0.7944 l
1.0639 0.7777 l
c
GS
Color0 SRGB
fill
GR
[/Pattern /DeviceRGB] SCS
Color1 Pattern8 SC
fill
[/DeviceRGB] SCS
Color1 SC
n
1.0472 0.7777 m
1.0472 0.7944 l
1.0639 0.7944 l
1.0639 0.7777 l
1.0472 0.7777 l
c
s
[] 0 SD
0.0037 SLW
n
0.6471 0.5318 m
0.6471 0.5318 l
0.6471 0.5318 l
0.6471 0.5318 l
0.6471 0.5318 l
0.6471 0.5318 l
0.6471 0.5318 l
0.6471 0.5318 l
0.6471 0.5318 l
0.6471 0.5318 l
0.6471 0.5318 l
0.6471 0.5318 l
0.6471 0.5318 l
0.6472 0.5318 l
0.6472 0.5318 l
0.6472 0.5318 l
0.6472 0.5318 l
0.6473 0.5318 l
0.6473 0.5318 l
0.6473 0.5318 l
0.6474 0.5318 l
0.6474 0.5318 l
0.6475 0.5318 l
0.6475 0.5318 l
0.6476 0.5318 l
0.6476 0.5318 l
0.6477 0.5318 l
0.6478 0.5318 l
0.6479 0.5318 l
0.6480 0.5318 l
0.6481 0.5318 l
0.6482 0.5318 l
0.6483 0.5318 l
0.6484 0.5318 l
0.6485 0.5318 l
0.6486 0.5318 l
0.6488 0.5318 l
0.6489 0.5318 l
0.6491 0.5318 l
0.6492 0.5318 l
0.6494 0.5318 l
0.6495 0.5318 l
0.6497 0.5318 l
0.6499 0.5318 l
0.6501 0.5318 l
0.6503 0.5318 l
0.6505 0.5318 l
0.6508 0.5318 l
0.6510 0.5318 l
0.6513 0.5318 l
0.6515 0.5318 l
0.6518 0.5318 l
0.6521 0.5318 l
0.6523 0.5318 l
0.6526 0.5318 l
0.6530 0.5318 l
0.6533 0.5318 l
0.6536 0.5318 l
0.6540 0.5318 l
0.6543 0.5319 l
0.6547 0.5319 l
0.6551 0.5319 l
0.6555 0.5319 l
0.6559 0.5319 l
0.6563 0.5319 l
0.6567 0.5319 l
0.6572 0.5319 l
0.6576 0.5319 l
0.6581 0.5319 l
0.6586 0.5319 l
0.6591 0.5319 l
0.6596 0.5319 l
0.6601 0.5319 l
0.6607 0.5319 l
0.6612 0.5319 l
0.6618 0.5319 l
0.6624 0.5319 l
0.6630 0.5319 l
0.6636 0.5319 l
0.6642 0.5319 l
0.6649 0.5320 l
0.6656 0.5320 l
0.6663 0.5320 l
0.6670 0.5320 l
0.6677 0.5320 l
0.6684 0.5320 l
0.6692 0.5320 l
0.6699 0.5320 l
0.6707 0.5320 l
0.6715 0.5320 l
0.6724 0.5321 l
0.6732 0.5321 l
0.6741 0.5321 l
0.6749 0.5321 l
0.6758 0.5321 l
0.6768 0.5321 l
0.6777 0.5321 l
0.6787 0.5321 l
0.6796 0.5322 l
0.6806 0.5322 l
0.6817 0.5322 l
0.6827 0.5322 l
0.6837 0.5322 l
0.6848 0.5322 l
0.6859 0.5323 l
0.6870 0.5323 l
0.6882 0.5323 l
0.6894 0.5323 l
0.6905 0.5323 l
0.6917 0.5324 l
0.6930 0.5324 l
0.6942 0.5324 l
0.6955 0.5324 l
0.6968 0.5324 l
0.6981 0.5325 l
0.6995 0.5325 l
0.7008 0.5325 l
0.7022 0.5325 l
0.7036 0.5326 l
0.7051 0.5326 l
0.7065 0.5326 l
0.7080 0.5326 l
0.7095 0.5327 l
0.7111 0.5327 l
0.7126 0.5327 l
0.7142 0.5328 l
0.7158 0.5328 l
0.7175 0.5328 l
0.7191 0.5329 l
0.7208 0.5329 l
0.7225 0.5329 l
0.7243 0.5330 l
0.7260 0.5330 l
0.7278 0.5330 l
0.7297 0.5331 l
0.7315 0.5331 l
0.7334 0.5331 l
0.7353 0.5332 l
0.7372 0.5332 l
0.7392 0.5333 l
0.7412 0.5333 l
0.7432 0.5333 l
0.7452 0.5334 l
0.7473 0.5334 l
0.7494 0.5335 l
0.7515 0.5335 l
0.7537 0.5336 l
0.7559 0.5336 l
0.7581 0.5337 l
0.7604 0.5337 l
0.7627 0.5338 l
0.7650 0.5338 l
0.7673 0.5339 l
0.7697 0.5339 l
0.7721 0.5340 l
0.7745 0.5340 l
0.7770 0.5341 l
0.7795 0.5341 l
0.7820 0.5342 l
0.7846 0.5342 l
0.7872 0.5343 l
0.7898 0.5343 l
0.7925 0.5344 l
0.7952 0.5345 l
0.7979 0.5345 l
0.8006 0.5346 l
0.8034 0.5346 l
0.8063 0.5347 l
0.8091 0.5348 l
0.8120 0.5348 l
0.8149 0.5349 l
0.8179 0.5350 l
0.8209 0.5350 l
0.8239 0.5351 l
0.8270 0.5352 l
0.8301 0.5352 l
0.8332 0.5353 l
0.8364 0.5354 l
0.8396 0.5354 l
0.8429 0.5355 l
0.8462 0.5356 l
0.8495 0.5357 l
0.8528 0.5357 l
0.8562 0.5358 l
0.8596 0.5359 l
0.8631 0.5360 l
0.8666 0.5360 l
0.8702 0.5361 l
0.8737 0.5362 l
0.8774 0.5363 l
0.8810 0.5364 l
0.8847 0.5364 l
0.8884 0.5365 l
0.8922 0.5366 l
0.8960 0.5367 l
0.8999 0.5368 l
0.9038 0.5369 l
0.9077 0.5370 l
0.9117 0.5370 l
0.9157 0.5371 l
0.9197 0.5372 l
0.9238 0.5373 l
0.9279 0.5374 l
0.9321 0.5375 l
0.9363 0.5376 l
0.9406 0.5377 l
0.9449 0.5378 l
0.9492 0.5379 l
0.9536 0.5380 l
0.9580 0.5381 l
0.9625 0.5382 l
0.9670 0.5383 l
0.9715 0.5384 l
0.9761 0.5385 l
0.9807 0.5386 l
0.9854 0.5387 l
0.9901 0.5388 l
0.9949 0.5389 l
0.9997 0.5390 l
1.0046 0.5391 l
1.0095 0.5392 l
1.0144 0.5393 l
1.0194 0.5394 l
1.0244 0.5395 l
1.0295 0.5396 l
1.0346 0.5397 l
1.0398 0.5399 l
1.0450 0.5400 l
1.0503 0.5401 l
1.0556 0.5402 l
1.0609 0.5403 l
1.0663 0.5404 l
1.0718 0.5405 l
1.0773 0.5407 l
1.0828 0.5408 l
1.0884 0.5409 l
1.0940 0.5410 l
1.0997 0.5411 l
1.1054 0.5413 l
1.1112 0.5414 l
1.1170 0.5415 l
1.1229 0.5416 l
1.1288 0.5418 l
1.1348 0.5419 l
1.1408 0.5420 l
1.1442 0.5421 l
s
[/DeviceRGB] SCS
Color2 SC
n
0.6471 0.5318 m
0.6471 0.5318 l
0.6471 0.5318 l
0.6471 0.5318 l
0.6471 0.5318 l
0.6471 0.5318 l
0.6471 0.5318 l
0.6471 0.5318 l
0.6471 0.5318 l
0.6471 0.5318 l
0.6471 0.5318 l
0.6471 0.5318 l
0.6471 0.5318 l
0.6472 0.5318 l
0.6472 0.5318 l
0.6472 0.5318 l
0.6472 0.5318 l
0.6473 0.5318 l
0.6473 0.5318 l
0.6473 0.5318 l
0.6474 0.5318 l
0.6474 0.5318 l
0.6475 0.5318 l
0.6475 0.5318 l
0.6476 0.5318 l
0.6476 0.5318 l
0.6477 0.5318 l
0.6478 0.5318 l
0.6479 0.5318 l
0.6480 0.5318 l
0.6481 0.5318 l
0.6482 0.5318 l
0.6483 0.5318 l
0.6484 0.5317 l
0.6485 0.5317 l
0.6486 0.5317 l
0.6488 0.5317 l
0.6489 0.5317 l
0.6491 0.5317 l
0.6492 0.5317 l
0.6494 0.5316 l
0.6495 0.5316 l
0.6497 0.5316 l
0.6499 0.5316 l
0.6501 0.5315 l
0.6503 0.5315 l
0.6505 0.5315 l
0.6508 0.5315 l
0.6510 0.5314 l
0.6513 0.5314 l
0.6515 0.5313 l
0.6518 0.5313 l
0.6521 0.5312 l
0.6523 0.5312 l
0.6526 0.5311 l
0.6530 0.5311 l
0.6533 0.5310 l
0.6536 0.5309 l
0.6540 0.5309 l
0.6543 0.5308 l
0.6547 0.5307 l
0.6551 0.5306 l
0.6555 0.5306 l
0.6559 0.5305 l
0.6563 0.5304 l
0.6567 0.5303 l
0.6572 0.5302 l
0.6576 0.5300 l
0.6581 0.5299 l
0.6586 0.5298 l
0.6591 0.5297 l
0.6596 0.5296 l
0.6601 0.5294 l
0.6607 0.5293 l
0.6612 0.5291 l
0.6618 0.5290 l
0.6624 0.5288 l
0.6630 0.5286 l
0.6636 0.5285 l
0.6642 0.5283 l
0.6649 0.5281 l
0.6656 0.5279 l
0.6663 0.5277 l
0.6670 0.5275 l
0.6677 0.5273 l
0.6684 0.5271 l
0.6692 0.5269 l
0.6699 0.5267 l
0.6707 0.5265 l
0.6715 0.5262 l
0.6724 0.5260 l
0.6732 0.5257 l
0.6741 0.5255 l
0.6749 0.5252 l
0.6758 0.5250 l
0.6768 0.5247 l
0.6777 0.5244 l
0.6787 0.5242 l
0.6796 0.5239 l
0.6806 0.5236 l
0.6817 0.5233 l
0.6827 0.5230 l
0.6837 0.5227 l
0.6848 0.5224 l
0.6859 0.5221 l
0.6870 0.5218 l
0.6882 0.5215 l
0.6894 0.5212 l
0.6905 0.5209 l
0.6917 0.5206 l
0.6930 0.5203 l
0.6942 0.5199 l
0.6955 0.5196 l
0.6968 0.5193 l
0.6981 0.5190 l
0.6995 0.5187 l
0.7008 0.5183 l
0.7022 0.5180 l
0.7036 0.5177 l
0.7051 0.5174 l
0.7065 0.5171 l
0.7080 0.5168 l
0.7095 0.5165 l
0.7111 0.5162 l
0.7126 0.5159 l
0.7142 0.5156 l
0.7158 0.5153 l
0.7175 0.5151 l
0.7191 0.5148 l
0.7208 0.5145 l
0.7225 0.5143 l
0.7243 0.5140 l
0.7260 0.5138 l
0.7278 0.5136 l
0.7297 0.5134 l
0.7315 0.5132 l
0.7334 0.5130 l
0.7353 0.5128 l
0.7372 0.5126 l
0.7392 0.5125 l
0.7412 0.5123 l
0.7432 0.5122 l
0.7452 0.5121 l
0.7473 0.5120 l
0.7494 0.5119 l
0.7515 0.5119 l
0.7537 0.5119 l
0.7559 0.5119 l
0.7581 0.5119 l
0.7604 0.5119 l
0.7627 0.5119 l
0.7650 0.5120 l
0.7673 0.5121 l
0.7697 0.5123 l
0.7721 0.5124 l
0.7745 0.5126 l
0.7770 0.5128 l
0.7795 0.5130 l
0.7820 0.5133 l
0.7846 0.5136 l
0.7872 0.5139 l
0.7898 0.5143 l
0.7925 0.5147 l
0.7952 0.5151 l
0.7979 0.5155 l
0.8006 0.5160 l
0.8034 0.5166 l
0.8063 0.5171 l
0.8091 0.5177 l
0.8120 0.5184 l
0.8149 0.5191 l
0.8179 0.5198 l
0.8209 0.5206 l
0.8239 0.5214 l
0.8270 0.5222 l
0.8301 0.5231 l
0.8332 0.5241 l
0.8364 0.5251 l
0.8396 0.5261 l
0.8429 0.5272 l
0.8462 0.5283 l
0.8495 0.5295 l
0.8528 0.5308 l
0.8562 0.5321 l
0.8596 0.5334 l
0.8631 0.5348 l
0.8666 0.5363 l
0.8702 0.5378 l
0.8737 0.5393 l
0.8774 0.5410 l
0.8810 0.5426 l
0.8847 0.5444 l
0.8884 0.5462 l
0.8922 0.5480 l
0.8960 0.5500 l
0.8999 0.5520 l
0.9038 0.5540 l
0.9077 0.5561 l
0.9117 0.5583 l
0.9157 0.5606 l
0.9197 0.5629 l
0.9238 0.5653 l
0.9279 0.5678 l
0.9321 0.5703 l
0.9363 0.5729 l
0.9406 0.5756 l
0.9449 0.5783 l
0.9492 0.5811 l
0.9536 0.5840 l
0.9580 0.5870 l
0.9625 0.5901 l
0.9670 0.5932 l
0.9715 0.5964 l
0.9761 0.5997 l
0.9807 0.6030 l
0.9854 0.6065 l
0.9901 0.6100 l
0.9949 0.6136 l
0.9997 0.6173 l
1.0046 0.6211 l
1.0095 0.6250 l
1.0144 0.6289 l
1.0194 0.6330 l
1.0244 0.6371 l
1.0295 0.6413 l
1.0346 0.6456 l
1.0398 0.6500 l
1.0450 0.6545 l
1.0503 0.6590 l
1.0556 0.6637 l
1.0609 0.6685 l
1.0663 0.6733 l
1.0718 0.6783 l
1.0773 0.6833 l
1.0828 0.6885 l
1.0884 0.6937 l
1.0940 0.6990 l
1.0997 0.7044 l
1.1054 0.7100 l
1.1112 0.7156 l
1.1170 0.7213 l
1.1229 0.7272 l
1.1288 0.7331 l
1.1348 0.7391 l
1.1408 0.7453 l
1.1442 0.7488 l
s
[/DeviceRGB] SCS
Color4 SC
n
0.6471 0.5318 m
0.6471 0.5318 l
0.6471 0.5318 l
0.6471 0.5318 l
0.6471 0.5318 l
0.6471 0.5318 l
0.6471 0.5318 l
0.6471 0.5318 l
0.6471 0.5318 l
0.6471 0.5318 l
0.6471 0.5318 l
0.6471 0.5318 l
0.6471 0.5318 l
0.6472 0.5318 l
0.6472 0.5318 l
0.6472 0.5318 l
0.6472 0.5318 l
0.6473 0.5318 l
0.6473 0.5318 l
0.6473 0.5318 l
0.6474 0.5318 l
0.6474 0.5318 l
0.6475 0.5318 l
0.6475 0.5318 l
0.6476 0.5318 l
0.6476 0.5318 l
0.6477 0.5318 l
0.6478 0.5318 l
0.6479 0.5318 l
0.6480 0.5318 l
0.6481 0.5318 l
0.6482 0.5318 l
0.6483 0.5317 l
0.6484 0.5317 l
0.6485 0.5317 l
0.6486 0.5317 l
0.6488 0.5317 l
0.6489 0.5317 l
0.6491 0.5316 l
0.6492 0.5316 l
0.6494 0.5316 l
0.6495 0.5316 l
0.6497 0.5315 l
0.6499 0.5315 l
0.6501 0.5315 l
0.6503 0.5314 l
0.6505 0.5314 l
0.6508 0.5313 l
0.6510 0.5313 l
0.6513 0.5312 l
0.6515 0.5312 l
0.6518 0.5311 l
0.6521 0.5310 l
0.6523 0.5310 l
0.6526 0.5309 l
0.6530 0.5308 l
0.6533 0.5307 l
0.6536 0.5306 l
0.6540 0.5305 l
0.6543 0.5304 l
0.6547 0.5303 l
0.6551 0.5302 l
0.6555 0.5301 l
0.6559 0.5299 l
0.6563 0.5298 l
0.6567 0.5296 l
0.6572 0.5295 l
0.6576 0.5293 l
0.6581 0.5291 l
0.6586 0.5290 l
0.6591 0.5288 l
0.6596 0.5286 l
0.6601 0.5284 l
0.6607 0.5281 l
0.6612 0.5279 l
0.6618 0.5277 l
0.6624 0.5274 l
0.6630 0.5271 l
0.6636 0.5269 l
0.6642 0.5266 l
0.6649 0.5263 l
0.6656 0.5260 l
0.6663 0.5257 l
0.6670 0.5253 l
0.6677 0.5250 l
0.6684 0.5246 l
0.6692 0.5243 l
0.6699 0.5239 l
0.6707 0.5235 l
0.6715 0.5231 l
0.6724 0.5227 l
0.6732 0.5222 l
0.6741 0.5218 l
0.6749 0.5213 l
0.6758 0.5208 l
0.6768 0.5203 l
0.6777 0.5198 l
0.6787 0.5193 l
0.6796 0.5188 l
0.6806 0.5182 l
0.6817 0.5177 l
0.6827 0.5171 l
0.6837 0.5165 l
0.6848 0.5159 l
0.6859 0.5153 l
0.6870 0.5147 l
0.6882 0.5140 l
0.6894 0.5133 l
0.6905 0.5127 l
0.6917 0.5120 l
0.6930 0.5113 l
0.6942 0.5105 l
0.6955 0.5098 l
0.6968 0.5091 l
0.6981 0.5083 l
0.6995 0.5075 l
0.7008 0.5067 l
0.7022 0.5059 l
0.7036 0.5051 l
0.7051 0.5043 l
0.7065 0.5035 l
0.7080 0.5026 l
0.7095 0.5017 l
0.7111 0.5009 l
0.7126 0.5000 l
0.7128 0.4999 l
s
n
0.9902 0.4999 m
0.9949 0.5029 l
0.9997 0.5061 l
1.0046 0.5095 l
1.0095 0.5129 l
1.0144 0.5165 l
1.0194 0.5202 l
1.0244 0.5241 l
1.0295 0.5281 l
1.0346 0.5323 l
1.0398 0.5366 l
1.0450 0.5410 l
1.0503 0.5456 l
1.0556 0.5504 l
1.0609 0.5553 l
1.0663 0.5604 l
1.0718 0.5656 l
1.0773 0.5711 l
1.0828 0.5766 l
1.0884 0.5824 l
1.0940 0.5883 l
1.0997 0.5944 l
1.1054 0.6006 l
1.1112 0.6071 l
1.1170 0.6137 l
1.1229 0.6205 l
1.1288 0.6275 l
1.1348 0.6347 l
1.1408 0.6421 l
1.1442 0.6464 l
s
[/DeviceRGB] SCS
Color1 SC
[] 0 SD
0.0045 SLW
n
0.6471 0.5000 m
1.1441 0.5000 l
s
n
0.6471 0.8500 m
1.1441 0.8500 l
s
n
0.6968 0.5000 m
0.6968 0.5100 l
s
n
0.6968 0.8500 m
0.6968 0.8400 l
s
n
0.7962 0.5000 m
0.7962 0.5100 l
s
n
0.7962 0.8500 m
0.7962 0.8400 l
s
n
0.8956 0.5000 m
0.8956 0.5100 l
s
n
0.8956 0.8500 m
0.8956 0.8400 l
s
n
0.9950 0.5000 m
0.9950 0.5100 l
s
n
0.9950 0.8500 m
0.9950 0.8400 l
s
n
1.0944 0.5000 m
1.0944 0.5100 l
s
n
1.0944 0.8500 m
1.0944 0.8400 l
s
n
0.6471 0.5000 m
0.6471 0.5200 l
s
n
0.6471 0.8500 m
0.6471 0.8300 l
s
n
0.7465 0.5000 m
0.7465 0.5200 l
s
n
0.7465 0.8500 m
0.7465 0.8300 l
s
n
0.8459 0.5000 m
0.8459 0.5200 l
s
n
0.8459 0.8500 m
0.8459 0.8300 l
s
n
0.9453 0.5000 m
0.9453 0.5200 l
s
n
0.9453 0.8500 m
0.9453 0.8300 l
s
n
1.0447 0.5000 m
1.0447 0.5200 l
s
n
1.0447 0.8500 m
1.0447 0.8300 l
s
n
1.1441 0.5000 m
1.1441 0.5200 l
s
n
1.1441 0.8500 m
1.1441 0.8300 l
s
n
0.6471 0.5000 m
0.6471 0.8500 l
s
n
1.1441 0.5000 m
1.1441 0.8500 l
s
n
0.6471 0.5000 m
0.6571 0.5000 l
s
n
1.1441 0.5000 m
1.1341 0.5000 l
s
n
0.6471 0.5636 m
0.6571 0.5636 l
s
n
1.1441 0.5636 m
1.1341 0.5636 l
s
n
0.6471 0.6273 m
0.6571 0.6273 l
s
n
1.1441 0.6273 m
1.1341 0.6273 l
s
n
0.6471 0.6909 m
0.6571 0.6909 l
s
n
1.1441 0.6909 m
1.1341 0.6909 l
s
n
0.6471 0.7545 m
0.6571 0.7545 l
s
n
1.1441 0.7545 m
1.1341 0.7545 l
s
n
0.6471 0.8182 m
0.6571 0.8182 l
s
n
1.1441 0.8182 m
1.1341 0.8182 l
s
n
0.6471 0.5318 m
0.6671 0.5318 l
s
n
1.1441 0.5318 m
1.1241 0.5318 l
s
n
0.6471 0.5955 m
0.6671 0.5955 l
s
n
1.1441 0.5955 m
1.1241 0.5955 l
s
n
0.6471 0.6591 m
0.6671 0.6591 l
s
n
1.1441 0.6591 m
1.1241 0.6591 l
s
n
0.6471 0.7227 m
0.6671 0.7227 l
s
n
1.1441 0.7227 m
1.1241 0.7227 l
s
n
0.6471 0.7864 m
0.6671 0.7864 l
s
n
1.1441 0.7864 m
1.1241 0.7864 l
s
n
0.6471 0.8500 m
0.6671 0.8500 l
s
n
1.1441 0.8500 m
1.1241 0.8500 l
s
/Font0 FFSF
1.1541 0.5169 m
GS
[0.0448 0.0000 0.0000 0.0448 0 0] CC
(0) show
GR
/Font0 FFSF
1.1541 0.5806 m
GS
[0.0448 0.0000 0.0000 0.0448 0 0] CC
(10) show
GR
/Font0 FFSF
1.1541 0.6442 m
GS
[0.0448 0.0000 0.0000 0.0448 0 0] CC
(20) show
GR
/Font0 FFSF
1.1541 0.7078 m
GS
[0.0448 0.0000 0.0000 0.0448 0 0] CC
(30) show
GR
/Font0 FFSF
1.1541 0.7715 m
GS
[0.0448 0.0000 0.0000 0.0448 0 0] CC
(40) show
GR
/Font0 FFSF
1.1541 0.8349 m
GS
[0.0448 0.0000 0.0000 0.0448 0 0] CC
(50) show
GR
/Font0 FFSF
1.2390 0.5795 m
GS
[0.0000 0.0459 -0.0459 0.0000 0 0] CC
(\(S=1,T=1\)) show
GR
[] 0 SD
0.0015 SLW
n
0.6471 0.5000 m
0.6471 0.8500 l
1.1441 0.8500 l
1.1441 0.5000 l
0.6471 0.5000 l
c
s
n
0.1589 0.3853 m
0.1589 0.4019 l
0.1755 0.4019 l
0.1755 0.3853 l
c
GS
Color0 SRGB
fill
GR
[/Pattern /DeviceRGB] SCS
Color1 Pattern8 SC
fill
[/DeviceRGB] SCS
Color1 SC
[] 0 SD
0.0030 SLW
n
0.1589 0.3853 m
0.1589 0.4019 l
0.1755 0.4019 l
0.1755 0.3853 l
0.1589 0.3853 l
c
s
n
0.1661 0.3672 m
0.1661 0.3838 l
0.1828 0.3838 l
0.1828 0.3672 l
c
GS
Color0 SRGB
fill
GR
[/Pattern /DeviceRGB] SCS
Color1 Pattern8 SC
fill
[/DeviceRGB] SCS
Color1 SC
n
0.1661 0.3672 m
0.1661 0.3838 l
0.1828 0.3838 l
0.1828 0.3672 l
0.1661 0.3672 l
c
s
n
0.1752 0.3483 m
0.1752 0.3649 l
0.1919 0.3649 l
0.1919 0.3483 l
c
GS
Color0 SRGB
fill
GR
[/Pattern /DeviceRGB] SCS
Color1 Pattern8 SC
fill
[/DeviceRGB] SCS
Color1 SC
n
0.1752 0.3483 m
0.1752 0.3649 l
0.1919 0.3649 l
0.1919 0.3483 l
0.1752 0.3483 l
c
s
n
0.1864 0.3282 m
0.1864 0.3448 l
0.2030 0.3448 l
0.2030 0.3282 l
c
GS
Color0 SRGB
fill
GR
[/Pattern /DeviceRGB] SCS
Color1 Pattern8 SC
fill
[/DeviceRGB] SCS
Color1 SC
n
0.1864 0.3282 m
0.1864 0.3448 l
0.2030 0.3448 l
0.2030 0.3282 l
0.1864 0.3282 l
c
s
n
0.1997 0.3076 m
0.1997 0.3242 l
0.2163 0.3242 l
0.2163 0.3076 l
c
GS
Color0 SRGB
fill
GR
[/Pattern /DeviceRGB] SCS
Color1 Pattern8 SC
fill
[/DeviceRGB] SCS
Color1 SC
n
0.1997 0.3076 m
0.1997 0.3242 l
0.2163 0.3242 l
0.2163 0.3076 l
0.1997 0.3076 l
c
s
n
0.2154 0.2850 m
0.2154 0.3017 l
0.2321 0.3017 l
0.2321 0.2850 l
c
GS
Color0 SRGB
fill
GR
[/Pattern /DeviceRGB] SCS
Color1 Pattern8 SC
fill
[/DeviceRGB] SCS
Color1 SC
n
0.2154 0.2850 m
0.2154 0.3017 l
0.2321 0.3017 l
0.2321 0.2850 l
0.2154 0.2850 l
c
s
n
0.2338 0.2619 m
0.2338 0.2786 l
0.2505 0.2786 l
0.2505 0.2619 l
c
GS
Color0 SRGB
fill
GR
[/Pattern /DeviceRGB] SCS
Color1 Pattern8 SC
fill
[/DeviceRGB] SCS
Color1 SC
n
0.2338 0.2619 m
0.2338 0.2786 l
0.2505 0.2786 l
0.2505 0.2619 l
0.2338 0.2619 l
c
s
n
0.2550 0.2383 m
0.2550 0.2550 l
0.2716 0.2550 l
0.2716 0.2383 l
c
GS
Color0 SRGB
fill
GR
[/Pattern /DeviceRGB] SCS
Color1 Pattern8 SC
fill
[/DeviceRGB] SCS
Color1 SC
n
0.2550 0.2383 m
0.2550 0.2550 l
0.2716 0.2550 l
0.2716 0.2383 l
0.2550 0.2383 l
c
s
n
0.2792 0.2159 m
0.2792 0.2325 l
0.2959 0.2325 l
0.2959 0.2159 l
c
GS
Color0 SRGB
fill
GR
[/Pattern /DeviceRGB] SCS
Color1 Pattern8 SC
fill
[/DeviceRGB] SCS
Color1 SC
n
0.2792 0.2159 m
0.2792 0.2325 l
0.2959 0.2325 l
0.2959 0.2159 l
0.2792 0.2159 l
c
s
n
0.3066 0.1951 m
0.3066 0.2118 l
0.3233 0.2118 l
0.3233 0.1951 l
c
GS
Color0 SRGB
fill
GR
[/Pattern /DeviceRGB] SCS
Color1 Pattern8 SC
fill
[/DeviceRGB] SCS
Color1 SC
n
0.3066 0.1951 m
0.3066 0.2118 l
0.3233 0.2118 l
0.3233 0.1951 l
0.3066 0.1951 l
c
s
n
0.3375 0.1766 m
0.3375 0.1933 l
0.3541 0.1933 l
0.3541 0.1766 l
c
GS
Color0 SRGB
fill
GR
[/Pattern /DeviceRGB] SCS
Color1 Pattern8 SC
fill
[/DeviceRGB] SCS
Color1 SC
n
0.3375 0.1766 m
0.3375 0.1933 l
0.3541 0.1933 l
0.3541 0.1766 l
0.3375 0.1766 l
c
s
n
0.3720 0.1623 m
0.3720 0.1790 l
0.3886 0.1790 l
0.3886 0.1623 l
c
GS
Color0 SRGB
fill
GR
[/Pattern /DeviceRGB] SCS
Color1 Pattern8 SC
fill
[/DeviceRGB] SCS
Color1 SC
n
0.3720 0.1623 m
0.3720 0.1790 l
0.3886 0.1790 l
0.3886 0.1623 l
0.3720 0.1623 l
c
s
n
0.4103 0.1543 m
0.4103 0.1709 l
0.4269 0.1709 l
0.4269 0.1543 l
c
GS
Color0 SRGB
fill
GR
[/Pattern /DeviceRGB] SCS
Color1 Pattern8 SC
fill
[/DeviceRGB] SCS
Color1 SC
n
0.4103 0.1543 m
0.4103 0.1709 l
0.4269 0.1709 l
0.4269 0.1543 l
0.4103 0.1543 l
c
s
n
0.4526 0.1522 m
0.4526 0.1688 l
0.4693 0.1688 l
0.4693 0.1522 l
c
GS
Color0 SRGB
fill
GR
[/Pattern /DeviceRGB] SCS
Color1 Pattern8 SC
fill
[/DeviceRGB] SCS
Color1 SC
n
0.4526 0.1522 m
0.4526 0.1688 l
0.4693 0.1688 l
0.4693 0.1522 l
0.4526 0.1522 l
c
s
n
0.4992 0.1604 m
0.4992 0.1770 l
0.5158 0.1770 l
0.5158 0.1604 l
c
GS
Color0 SRGB
fill
GR
[/Pattern /DeviceRGB] SCS
Color1 Pattern8 SC
fill
[/DeviceRGB] SCS
Color1 SC
n
0.4992 0.1604 m
0.4992 0.1770 l
0.5158 0.1770 l
0.5158 0.1604 l
0.4992 0.1604 l
c
s
n
0.5502 0.1793 m
0.5502 0.1960 l
0.5668 0.1960 l
0.5668 0.1793 l
c
GS
Color0 SRGB
fill
GR
[/Pattern /DeviceRGB] SCS
Color1 Pattern8 SC
fill
[/DeviceRGB] SCS
Color1 SC
n
0.5502 0.1793 m
0.5502 0.1960 l
0.5668 0.1960 l
0.5668 0.1793 l
0.5502 0.1793 l
c
s
[] 0 SD
0.0037 SLW
n
0.1500 0.4650 m
0.1500 0.4650 l
0.1500 0.4650 l
0.1500 0.4650 l
0.1500 0.4650 l
0.1500 0.4649 l
0.1500 0.4649 l
0.1500 0.4649 l
0.1500 0.4648 l
0.1500 0.4648 l
0.1500 0.4647 l
0.1501 0.4646 l
0.1501 0.4645 l
0.1501 0.4644 l
0.1501 0.4642 l
0.1501 0.4641 l
0.1502 0.4639 l
0.1502 0.4637 l
0.1502 0.4635 l
0.1503 0.4632 l
0.1503 0.4629 l
0.1504 0.4626 l
0.1504 0.4623 l
0.1505 0.4620 l
0.1505 0.4616 l
0.1506 0.4612 l
0.1507 0.4608 l
0.1507 0.4603 l
0.1508 0.4598 l
0.1509 0.4593 l
0.1510 0.4587 l
0.1511 0.4581 l
0.1512 0.4575 l
0.1513 0.4569 l
0.1514 0.4562 l
0.1516 0.4555 l
0.1517 0.4547 l
0.1518 0.4539 l
0.1520 0.4531 l
0.1521 0.4522 l
0.1523 0.4513 l
0.1525 0.4504 l
0.1527 0.4494 l
0.1529 0.4484 l
0.1531 0.4474 l
0.1533 0.4463 l
0.1535 0.4452 l
0.1537 0.4441 l
0.1540 0.4429 l
0.1542 0.4416 l
0.1545 0.4404 l
0.1547 0.4391 l
0.1550 0.4378 l
0.1553 0.4364 l
0.1556 0.4350 l
0.1559 0.4336 l
0.1562 0.4321 l
0.1566 0.4306 l
0.1569 0.4291 l
0.1573 0.4275 l
0.1576 0.4259 l
0.1580 0.4242 l
0.1584 0.4226 l
0.1588 0.4209 l
0.1592 0.4191 l
0.1597 0.4174 l
0.1601 0.4156 l
0.1606 0.4138 l
0.1610 0.4119 l
0.1615 0.4101 l
0.1620 0.4082 l
0.1625 0.4062 l
0.1631 0.4043 l
0.1636 0.4023 l
0.1642 0.4003 l
0.1647 0.3983 l
0.1653 0.3963 l
0.1659 0.3942 l
0.1666 0.3922 l
0.1672 0.3901 l
0.1678 0.3880 l
0.1685 0.3859 l
0.1692 0.3837 l
0.1699 0.3816 l
0.1706 0.3794 l
0.1714 0.3773 l
0.1721 0.3751 l
0.1729 0.3729 l
0.1737 0.3707 l
0.1745 0.3686 l
0.1753 0.3664 l
0.1761 0.3642 l
0.1770 0.3620 l
0.1779 0.3598 l
0.1788 0.3576 l
0.1797 0.3555 l
0.1806 0.3533 l
0.1816 0.3512 l
0.1826 0.3490 l
0.1836 0.3469 l
0.1846 0.3448 l
0.1856 0.3427 l
0.1867 0.3406 l
0.1878 0.3386 l
0.1889 0.3365 l
0.1900 0.3345 l
0.1911 0.3325 l
0.1923 0.3306 l
0.1935 0.3287 l
0.1947 0.3268 l
0.1959 0.3249 l
0.1972 0.3231 l
0.1984 0.3213 l
0.1997 0.3196 l
0.2011 0.3179 l
0.2024 0.3163 l
0.2038 0.3147 l
0.2052 0.3132 l
0.2066 0.3117 l
0.2080 0.3103 l
0.2095 0.3089 l
0.2110 0.3076 l
0.2125 0.3063 l
0.2140 0.3051 l
0.2156 0.3040 l
0.2172 0.3030 l
0.2188 0.3020 l
0.2204 0.3011 l
0.2221 0.3003 l
0.2238 0.2996 l
0.2255 0.2990 l
0.2272 0.2984 l
0.2290 0.2979 l
0.2308 0.2975 l
0.2326 0.2973 l
0.2345 0.2971 l
0.2363 0.2970 l
0.2382 0.2970 l
0.2402 0.2971 l
0.2421 0.2974 l
0.2441 0.2977 l
0.2461 0.2982 l
0.2482 0.2988 l
0.2503 0.2995 l
0.2524 0.3003 l
0.2545 0.3013 l
0.2567 0.3024 l
0.2588 0.3036 l
0.2611 0.3050 l
0.2633 0.3065 l
0.2656 0.3081 l
0.2679 0.3099 l
0.2703 0.3118 l
0.2726 0.3139 l
0.2750 0.3162 l
0.2775 0.3186 l
0.2799 0.3211 l
0.2824 0.3239 l
0.2850 0.3268 l
0.2875 0.3299 l
0.2901 0.3331 l
0.2927 0.3366 l
0.2954 0.3402 l
0.2981 0.3440 l
0.3008 0.3480 l
0.3036 0.3522 l
0.3064 0.3566 l
0.3092 0.3611 l
0.3121 0.3659 l
0.3150 0.3709 l
0.3179 0.3761 l
0.3208 0.3816 l
0.3238 0.3872 l
0.3269 0.3931 l
0.3299 0.3992 l
0.3330 0.4055 l
0.3362 0.4121 l
0.3394 0.4189 l
0.3426 0.4259 l
0.3458 0.4332 l
0.3491 0.4407 l
0.3524 0.4485 l
0.3558 0.4566 l
0.3592 0.4649 l
0.3626 0.4735 l
0.3661 0.4823 l
0.3696 0.4914 l
0.3728 0.5001 l
s
[/DeviceRGB] SCS
Color2 SC
n
0.1500 0.4650 m
0.1500 0.4650 l
0.1500 0.4650 l
0.1500 0.4650 l
0.1500 0.4650 l
0.1500 0.4650 l
0.1500 0.4649 l
0.1500 0.4649 l
0.1500 0.4648 l
0.1500 0.4648 l
0.1500 0.4647 l
0.1501 0.4646 l
0.1501 0.4645 l
0.1501 0.4644 l
0.1501 0.4643 l
0.1501 0.4641 l
0.1502 0.4639 l
0.1502 0.4637 l
0.1502 0.4635 l
0.1503 0.4633 l
0.1503 0.4630 l
0.1504 0.4628 l
0.1504 0.4624 l
0.1505 0.4621 l
0.1505 0.4618 l
0.1506 0.4614 l
0.1507 0.4610 l
0.1507 0.4605 l
0.1508 0.4601 l
0.1509 0.4596 l
0.1510 0.4590 l
0.1511 0.4585 l
0.1512 0.4579 l
0.1513 0.4573 l
0.1514 0.4566 l
0.1516 0.4560 l
0.1517 0.4552 l
0.1518 0.4545 l
0.1520 0.4537 l
0.1521 0.4529 l
0.1523 0.4521 l
0.1525 0.4512 l
0.1527 0.4503 l
0.1529 0.4494 l
0.1531 0.4484 l
0.1533 0.4474 l
0.1535 0.4463 l
0.1537 0.4453 l
0.1540 0.4442 l
0.1542 0.4430 l
0.1545 0.4418 l
0.1547 0.4406 l
0.1550 0.4394 l
0.1553 0.4381 l
0.1556 0.4368 l
0.1559 0.4355 l
0.1562 0.4341 l
0.1566 0.4327 l
0.1569 0.4313 l
0.1573 0.4299 l
0.1576 0.4284 l
0.1580 0.4269 l
0.1584 0.4253 l
0.1588 0.4237 l
0.1592 0.4221 l
0.1597 0.4205 l
0.1601 0.4189 l
0.1606 0.4172 l
0.1610 0.4155 l
0.1615 0.4138 l
0.1620 0.4121 l
0.1625 0.4103 l
0.1631 0.4085 l
0.1636 0.4067 l
0.1642 0.4049 l
0.1647 0.4031 l
0.1653 0.4012 l
0.1659 0.3994 l
0.1666 0.3975 l
0.1672 0.3956 l
0.1678 0.3937 l
0.1685 0.3918 l
0.1692 0.3899 l
0.1699 0.3880 l
0.1706 0.3860 l
0.1714 0.3841 l
0.1721 0.3822 l
0.1729 0.3803 l
0.1737 0.3783 l
0.1745 0.3764 l
0.1753 0.3745 l
0.1761 0.3726 l
0.1770 0.3707 l
0.1779 0.3688 l
0.1788 0.3669 l
0.1797 0.3650 l
0.1806 0.3632 l
0.1816 0.3613 l
0.1826 0.3595 l
0.1836 0.3577 l
0.1846 0.3560 l
0.1856 0.3542 l
0.1867 0.3525 l
0.1878 0.3508 l
0.1889 0.3492 l
0.1900 0.3476 l
0.1911 0.3460 l
0.1923 0.3444 l
0.1935 0.3430 l
0.1947 0.3415 l
0.1959 0.3401 l
0.1972 0.3388 l
0.1984 0.3375 l
0.1997 0.3362 l
0.2011 0.3350 l
0.2024 0.3339 l
0.2038 0.3329 l
0.2052 0.3319 l
0.2066 0.3309 l
0.2080 0.3301 l
0.2095 0.3293 l
0.2110 0.3286 l
0.2125 0.3280 l
0.2140 0.3275 l
0.2156 0.3270 l
0.2172 0.3267 l
0.2188 0.3264 l
0.2204 0.3262 l
0.2221 0.3262 l
0.2238 0.3262 l
0.2255 0.3263 l
0.2272 0.3266 l
0.2290 0.3269 l
0.2308 0.3274 l
0.2326 0.3280 l
0.2345 0.3287 l
0.2363 0.3296 l
0.2382 0.3306 l
0.2402 0.3317 l
0.2421 0.3329 l
0.2441 0.3343 l
0.2461 0.3358 l
0.2482 0.3375 l
0.2503 0.3393 l
0.2524 0.3413 l
0.2545 0.3435 l
0.2567 0.3458 l
0.2588 0.3482 l
0.2611 0.3509 l
0.2633 0.3537 l
0.2656 0.3567 l
0.2679 0.3598 l
0.2703 0.3632 l
0.2726 0.3668 l
0.2750 0.3705 l
0.2775 0.3744 l
0.2799 0.3786 l
0.2824 0.3829 l
0.2850 0.3875 l
0.2875 0.3923 l
0.2901 0.3973 l
0.2927 0.4025 l
0.2954 0.4080 l
0.2981 0.4136 l
0.3008 0.4195 l
0.3036 0.4257 l
0.3064 0.4321 l
0.3092 0.4388 l
0.3121 0.4457 l
0.3150 0.4528 l
0.3179 0.4603 l
0.3208 0.4680 l
0.3238 0.4759 l
0.3269 0.4842 l
0.3299 0.4927 l
0.3326 0.5001 l
s
[/DeviceRGB] SCS
Color4 SC
n
0.1500 0.4650 m
0.1500 0.4650 l
0.1500 0.4650 l
0.1500 0.4650 l
0.1500 0.4650 l
0.1500 0.4649 l
0.1500 0.4649 l
0.1500 0.4649 l
0.1500 0.4648 l
0.1500 0.4648 l
0.1500 0.4647 l
0.1501 0.4646 l
0.1501 0.4645 l
0.1501 0.4643 l
0.1501 0.4642 l
0.1501 0.4640 l
0.1502 0.4638 l
0.1502 0.4636 l
0.1502 0.4634 l
0.1503 0.4631 l
0.1503 0.4628 l
0.1504 0.4625 l
0.1504 0.4622 l
0.1505 0.4618 l
0.1505 0.4614 l
0.1506 0.4610 l
0.1507 0.4606 l
0.1507 0.4601 l
0.1508 0.4596 l
0.1509 0.4590 l
0.1510 0.4585 l
0.1511 0.4578 l
0.1512 0.4572 l
0.1513 0.4565 l
0.1514 0.4558 l
0.1516 0.4551 l
0.1517 0.4543 l
0.1518 0.4534 l
0.1520 0.4526 l
0.1521 0.4517 l
0.1523 0.4508 l
0.1525 0.4498 l
0.1527 0.4488 l
0.1529 0.4477 l
0.1531 0.4467 l
0.1533 0.4455 l
0.1535 0.4444 l
0.1537 0.4432 l
0.1540 0.4419 l
0.1542 0.4407 l
0.1545 0.4394 l
0.1547 0.4380 l
0.1550 0.4366 l
0.1553 0.4352 l
0.1556 0.4338 l
0.1559 0.4323 l
0.1562 0.4307 l
0.1566 0.4292 l
0.1569 0.4276 l
0.1573 0.4259 l
0.1576 0.4243 l
0.1580 0.4226 l
0.1584 0.4208 l
0.1588 0.4191 l
0.1592 0.4173 l
0.1597 0.4154 l
0.1601 0.4136 l
0.1606 0.4117 l
0.1610 0.4097 l
0.1615 0.4078 l
0.1620 0.4058 l
0.1625 0.4038 l
0.1631 0.4018 l
0.1636 0.3997 l
0.1642 0.3977 l
0.1647 0.3956 l
0.1653 0.3934 l
0.1659 0.3913 l
0.1666 0.3891 l
0.1672 0.3870 l
0.1678 0.3848 l
0.1685 0.3826 l
0.1692 0.3803 l
0.1699 0.3781 l
0.1706 0.3759 l
0.1714 0.3736 l
0.1721 0.3714 l
0.1729 0.3691 l
0.1737 0.3668 l
0.1745 0.3645 l
0.1753 0.3623 l
0.1761 0.3600 l
0.1770 0.3577 l
0.1779 0.3554 l
0.1788 0.3532 l
0.1797 0.3509 l
0.1806 0.3486 l
0.1816 0.3464 l
0.1826 0.3442 l
0.1836 0.3419 l
0.1846 0.3397 l
0.1856 0.3376 l
0.1867 0.3354 l
0.1878 0.3333 l
0.1889 0.3312 l
0.1900 0.3291 l
0.1911 0.3270 l
0.1923 0.3250 l
0.1935 0.3230 l
0.1947 0.3210 l
0.1959 0.3191 l
0.1972 0.3172 l
0.1984 0.3154 l
0.1997 0.3136 l
0.2011 0.3119 l
0.2024 0.3102 l
0.2038 0.3085 l
0.2052 0.3069 l
0.2066 0.3054 l
0.2080 0.3040 l
0.2095 0.3025 l
0.2110 0.3012 l
0.2125 0.2999 l
0.2140 0.2987 l
0.2156 0.2976 l
0.2172 0.2966 l
0.2188 0.2956 l
0.2204 0.2947 l
0.2221 0.2939 l
0.2238 0.2932 l
0.2255 0.2926 l
0.2272 0.2920 l
0.2290 0.2916 l
0.2308 0.2913 l
0.2326 0.2911 l
0.2345 0.2909 l
0.2363 0.2909 l
0.2382 0.2910 l
0.2402 0.2912 l
0.2421 0.2916 l
0.2441 0.2920 l
0.2461 0.2926 l
0.2482 0.2933 l
0.2503 0.2942 l
0.2524 0.2952 l
0.2545 0.2963 l
0.2567 0.2975 l
0.2588 0.2989 l
0.2611 0.3005 l
0.2633 0.3022 l
0.2656 0.3041 l
0.2679 0.3061 l
0.2703 0.3083 l
0.2726 0.3106 l
0.2750 0.3132 l
0.2775 0.3159 l
0.2799 0.3188 l
0.2824 0.3218 l
0.2850 0.3251 l
0.2875 0.3285 l
0.2901 0.3321 l
0.2927 0.3360 l
0.2954 0.3400 l
0.2981 0.3442 l
0.3008 0.3486 l
0.3036 0.3533 l
0.3064 0.3582 l
0.3092 0.3633 l
0.3121 0.3686 l
0.3150 0.3741 l
0.3179 0.3799 l
0.3208 0.3859 l
0.3238 0.3922 l
0.3269 0.3987 l
0.3299 0.4054 l
0.3330 0.4124 l
0.3362 0.4197 l
0.3394 0.4272 l
0.3426 0.4350 l
0.3458 0.4430 l
0.3491 0.4514 l
0.3524 0.4600 l
0.3558 0.4689 l
0.3592 0.4781 l
0.3626 0.4875 l
0.3661 0.4973 l
0.3670 0.5001 l
s
[/DeviceRGB] SCS
Color1 SC
[] 0 SD
0.0045 SLW
n
0.1500 0.1500 m
0.6471 0.1500 l
s
n
0.1997 0.1500 m
0.1997 0.1600 l
s
n
0.2991 0.1500 m
0.2991 0.1600 l
s
n
0.3985 0.1500 m
0.3985 0.1600 l
s
n
0.4979 0.1500 m
0.4979 0.1600 l
s
n
0.5974 0.1500 m
0.5974 0.1600 l
s
n
0.1500 0.1500 m
0.1500 0.1700 l
s
n
0.2494 0.1500 m
0.2494 0.1700 l
s
n
0.3488 0.1500 m
0.3488 0.1700 l
s
n
0.4482 0.1500 m
0.4482 0.1700 l
s
n
0.5476 0.1500 m
0.5476 0.1700 l
s
/Font0 FFSF
0.1394 0.1094 m
GS
[0.0448 0.0000 0.0000 0.0448 0 0] CC
(0) show
GR
/Font0 FFSF
0.2220 0.1094 m
GS
[0.0448 0.0000 0.0000 0.0448 0 0] CC
(0.2) show
GR
/Font0 FFSF
0.3214 0.1094 m
GS
[0.0448 0.0000 0.0000 0.0448 0 0] CC
(0.4) show
GR
/Font0 FFSF
0.4210 0.1094 m
GS
[0.0448 0.0000 0.0000 0.0448 0 0] CC
(0.6) show
GR
/Font0 FFSF
0.5208 0.1094 m
GS
[0.0448 0.0000 0.0000 0.0448 0 0] CC
(0.8) show
GR
/Symbol findfont
/Font12 exch definefont pop
/Font12 FFSF
0.5779 0.0503 m
GS
[0.0459 0.0000 0.0000 0.0459 0 0] CC
(r) show
GR
/Font0 FFSF
0.6030 0.0503 m
GS
[0.0459 0.0000 0.0000 0.0459 0 0] CC
( [fm) show
GR
/Font0 FFSF
0.6807 0.0779 m
GS
[0.0325 0.0000 0.0000 0.0325 0 0] CC
(-3) show
GR
/Font0 FFSF
0.7077 0.0503 m
GS
[0.0459 0.0000 0.0000 0.0459 0 0] CC
(]) show
GR
n
0.1500 0.1500 m
0.1500 0.5000 l
s
n
0.1500 0.1500 m
0.1600 0.1500 l
s
n
0.1500 0.2200 m
0.1600 0.2200 l
s
n
0.1500 0.2900 m
0.1600 0.2900 l
s
n
0.1500 0.3600 m
0.1600 0.3600 l
s
n
0.1500 0.4300 m
0.1600 0.4300 l
s
n
0.1500 0.5000 m
0.1600 0.5000 l
s
n
0.1500 0.1850 m
0.1700 0.1850 l
s
n
0.1500 0.2550 m
0.1700 0.2550 l
s
n
0.1500 0.3250 m
0.1700 0.3250 l
s
n
0.1500 0.3950 m
0.1700 0.3950 l
s
n
0.1500 0.4650 m
0.1700 0.4650 l
s
/Font0 FFSF
0.0816 0.1701 m
GS
[0.0448 0.0000 0.0000 0.0448 0 0] CC
(-40) show
GR
/Font0 FFSF
0.0816 0.2401 m
GS
[0.0448 0.0000 0.0000 0.0448 0 0] CC
(-30) show
GR
/Font0 FFSF
0.0816 0.3101 m
GS
[0.0448 0.0000 0.0000 0.0448 0 0] CC
(-20) show
GR
/Font0 FFSF
0.0816 0.3801 m
GS
[0.0448 0.0000 0.0000 0.0448 0 0] CC
(-10) show
GR
/Font0 FFSF
0.1188 0.4501 m
GS
[0.0448 0.0000 0.0000 0.0448 0 0] CC
(0) show
GR
/Font0 FFSF
0.0633 0.2295 m
GS
[0.0000 0.0459 -0.0459 0.0000 0 0] CC
(\(S=1,T=0\)) show
GR
[] 0 SD
0.0015 SLW
n
0.1500 0.1500 m
0.1500 0.5000 l
0.6471 0.5000 l
0.6471 0.1500 l
0.1500 0.1500 l
c
s
n
0.6559 0.4164 m
0.6559 0.4331 l
0.6726 0.4331 l
0.6726 0.4164 l
c
GS
Color0 SRGB
fill
GR
[/Pattern /DeviceRGB] SCS
Color1 Pattern8 SC
fill
[/DeviceRGB] SCS
Color1 SC
[] 0 SD
0.0030 SLW
n
0.6559 0.4164 m
0.6559 0.4331 l
0.6726 0.4331 l
0.6726 0.4164 l
0.6559 0.4164 l
c
s
n
0.6632 0.4045 m
0.6632 0.4211 l
0.6799 0.4211 l
0.6799 0.4045 l
c
GS
Color0 SRGB
fill
GR
[/Pattern /DeviceRGB] SCS
Color1 Pattern8 SC
fill
[/DeviceRGB] SCS
Color1 SC
n
0.6632 0.4045 m
0.6632 0.4211 l
0.6799 0.4211 l
0.6799 0.4045 l
0.6632 0.4045 l
c
s
n
0.6723 0.3915 m
0.6723 0.4081 l
0.6890 0.4081 l
0.6890 0.3915 l
c
GS
Color0 SRGB
fill
GR
[/Pattern /DeviceRGB] SCS
Color1 Pattern8 SC
fill
[/DeviceRGB] SCS
Color1 SC
n
0.6723 0.3915 m
0.6723 0.4081 l
0.6890 0.4081 l
0.6890 0.3915 l
0.6723 0.3915 l
c
s
n
0.6834 0.3777 m
0.6834 0.3943 l
0.7001 0.3943 l
0.7001 0.3777 l
c
GS
Color0 SRGB
fill
GR
[/Pattern /DeviceRGB] SCS
Color1 Pattern8 SC
fill
[/DeviceRGB] SCS
Color1 SC
n
0.6834 0.3777 m
0.6834 0.3943 l
0.7001 0.3943 l
0.7001 0.3777 l
0.6834 0.3777 l
c
s
n
0.6967 0.3632 m
0.6967 0.3799 l
0.7134 0.3799 l
0.7134 0.3632 l
c
GS
Color0 SRGB
fill
GR
[/Pattern /DeviceRGB] SCS
Color1 Pattern8 SC
fill
[/DeviceRGB] SCS
Color1 SC
n
0.6967 0.3632 m
0.6967 0.3799 l
0.7134 0.3799 l
0.7134 0.3632 l
0.6967 0.3632 l
c
s
n
0.7125 0.3481 m
0.7125 0.3648 l
0.7292 0.3648 l
0.7292 0.3481 l
c
GS
Color0 SRGB
fill
GR
[/Pattern /DeviceRGB] SCS
Color1 Pattern8 SC
fill
[/DeviceRGB] SCS
Color1 SC
n
0.7125 0.3481 m
0.7125 0.3648 l
0.7292 0.3648 l
0.7292 0.3481 l
0.7125 0.3481 l
c
s
n
0.7309 0.3334 m
0.7309 0.3500 l
0.7475 0.3500 l
0.7475 0.3334 l
c
GS
Color0 SRGB
fill
GR
[/Pattern /DeviceRGB] SCS
Color1 Pattern8 SC
fill
[/DeviceRGB] SCS
Color1 SC
n
0.7309 0.3334 m
0.7309 0.3500 l
0.7475 0.3500 l
0.7475 0.3334 l
0.7309 0.3334 l
c
s
n
0.7520 0.3199 m
0.7520 0.3366 l
0.7687 0.3366 l
0.7687 0.3199 l
c
GS
Color0 SRGB
fill
GR
[/Pattern /DeviceRGB] SCS
Color1 Pattern8 SC
fill
[/DeviceRGB] SCS
Color1 SC
n
0.7520 0.3199 m
0.7520 0.3366 l
0.7687 0.3366 l
0.7687 0.3199 l
0.7520 0.3199 l
c
s
n
0.7763 0.3090 m
0.7763 0.3257 l
0.7929 0.3257 l
0.7929 0.3090 l
c
GS
Color0 SRGB
fill
GR
[/Pattern /DeviceRGB] SCS
Color1 Pattern8 SC
fill
[/DeviceRGB] SCS
Color1 SC
n
0.7763 0.3090 m
0.7763 0.3257 l
0.7929 0.3257 l
0.7929 0.3090 l
0.7763 0.3090 l
c
s
n
0.8037 0.3018 m
0.8037 0.3184 l
0.8203 0.3184 l
0.8203 0.3018 l
c
GS
Color0 SRGB
fill
GR
[/Pattern /DeviceRGB] SCS
Color1 Pattern8 SC
fill
[/DeviceRGB] SCS
Color1 SC
n
0.8037 0.3018 m
0.8037 0.3184 l
0.8203 0.3184 l
0.8203 0.3018 l
0.8037 0.3018 l
c
s
n
0.8345 0.2998 m
0.8345 0.3164 l
0.8512 0.3164 l
0.8512 0.2998 l
c
GS
Color0 SRGB
fill
GR
[/Pattern /DeviceRGB] SCS
Color1 Pattern8 SC
fill
[/DeviceRGB] SCS
Color1 SC
n
0.8345 0.2998 m
0.8345 0.3164 l
0.8512 0.3164 l
0.8512 0.2998 l
0.8345 0.2998 l
c
s
n
0.8690 0.3049 m
0.8690 0.3215 l
0.8857 0.3215 l
0.8857 0.3049 l
c
GS
Color0 SRGB
fill
GR
[/Pattern /DeviceRGB] SCS
Color1 Pattern8 SC
fill
[/DeviceRGB] SCS
Color1 SC
n
0.8690 0.3049 m
0.8690 0.3215 l
0.8857 0.3215 l
0.8857 0.3049 l
0.8690 0.3049 l
c
s
n
0.9073 0.3197 m
0.9073 0.3363 l
0.9240 0.3363 l
0.9240 0.3197 l
c
GS
Color0 SRGB
fill
GR
[/Pattern /DeviceRGB] SCS
Color1 Pattern8 SC
fill
[/DeviceRGB] SCS
Color1 SC
n
0.9073 0.3197 m
0.9073 0.3363 l
0.9240 0.3363 l
0.9240 0.3197 l
0.9073 0.3197 l
c
s
n
0.9497 0.3460 m
0.9497 0.3627 l
0.9663 0.3627 l
0.9663 0.3460 l
c
GS
Color0 SRGB
fill
GR
[/Pattern /DeviceRGB] SCS
Color1 Pattern8 SC
fill
[/DeviceRGB] SCS
Color1 SC
n
0.9497 0.3460 m
0.9497 0.3627 l
0.9663 0.3627 l
0.9663 0.3460 l
0.9497 0.3460 l
c
s
n
0.9962 0.3870 m
0.9962 0.4037 l
1.0129 0.4037 l
1.0129 0.3870 l
c
GS
Color0 SRGB
fill
GR
[/Pattern /DeviceRGB] SCS
Color1 Pattern8 SC
fill
[/DeviceRGB] SCS
Color1 SC
n
0.9962 0.3870 m
0.9962 0.4037 l
1.0129 0.4037 l
1.0129 0.3870 l
0.9962 0.3870 l
c
s
n
1.0472 0.4454 m
1.0472 0.4621 l
1.0639 0.4621 l
1.0639 0.4454 l
c
GS
Color0 SRGB
fill
GR
[/Pattern /DeviceRGB] SCS
Color1 Pattern8 SC
fill
[/DeviceRGB] SCS
Color1 SC
n
1.0472 0.4454 m
1.0472 0.4621 l
1.0639 0.4621 l
1.0639 0.4454 l
1.0472 0.4454 l
c
s
[] 0 SD
0.0037 SLW
n
0.6471 0.4650 m
0.6471 0.4650 l
0.6471 0.4650 l
0.6471 0.4650 l
0.6471 0.4650 l
0.6471 0.4650 l
0.6471 0.4650 l
0.6471 0.4650 l
0.6471 0.4649 l
0.6471 0.4649 l
0.6471 0.4649 l
0.6471 0.4649 l
0.6471 0.4648 l
0.6472 0.4648 l
0.6472 0.4648 l
0.6472 0.4647 l
0.6472 0.4647 l
0.6473 0.4646 l
0.6473 0.4645 l
0.6473 0.4644 l
0.6474 0.4644 l
0.6474 0.4643 l
0.6475 0.4642 l
0.6475 0.4641 l
0.6476 0.4639 l
0.6476 0.4638 l
0.6477 0.4637 l
0.6478 0.4635 l
0.6479 0.4633 l
0.6480 0.4632 l
0.6481 0.4630 l
0.6482 0.4628 l
0.6483 0.4626 l
0.6484 0.4623 l
0.6485 0.4621 l
0.6486 0.4619 l
0.6488 0.4616 l
0.6489 0.4613 l
0.6491 0.4610 l
0.6492 0.4607 l
0.6494 0.4604 l
0.6495 0.4601 l
0.6497 0.4597 l
0.6499 0.4594 l
0.6501 0.4590 l
0.6503 0.4586 l
0.6505 0.4582 l
0.6508 0.4578 l
0.6510 0.4573 l
0.6513 0.4569 l
0.6515 0.4564 l
0.6518 0.4559 l
0.6521 0.4554 l
0.6523 0.4549 l
0.6526 0.4543 l
0.6530 0.4537 l
0.6533 0.4532 l
0.6536 0.4526 l
0.6540 0.4519 l
0.6543 0.4513 l
0.6547 0.4507 l
0.6551 0.4500 l
0.6555 0.4493 l
0.6559 0.4486 l
0.6563 0.4479 l
0.6567 0.4471 l
0.6572 0.4463 l
0.6576 0.4456 l
0.6581 0.4448 l
0.6586 0.4439 l
0.6591 0.4431 l
0.6596 0.4422 l
0.6601 0.4413 l
0.6607 0.4404 l
0.6612 0.4395 l
0.6618 0.4386 l
0.6624 0.4376 l
0.6630 0.4366 l
0.6636 0.4356 l
0.6642 0.4346 l
0.6649 0.4336 l
0.6656 0.4325 l
0.6663 0.4314 l
0.6670 0.4303 l
0.6677 0.4292 l
0.6684 0.4280 l
0.6692 0.4269 l
0.6699 0.4257 l
0.6707 0.4245 l
0.6715 0.4232 l
0.6724 0.4220 l
0.6732 0.4207 l
0.6741 0.4194 l
0.6749 0.4181 l
0.6758 0.4168 l
0.6768 0.4154 l
0.6777 0.4141 l
0.6787 0.4127 l
0.6796 0.4112 l
0.6806 0.4098 l
0.6817 0.4084 l
0.6827 0.4069 l
0.6837 0.4054 l
0.6848 0.4039 l
0.6859 0.4023 l
0.6870 0.4007 l
0.6882 0.3992 l
0.6894 0.3976 l
0.6905 0.3959 l
0.6917 0.3943 l
0.6930 0.3926 l
0.6942 0.3909 l
0.6955 0.3892 l
0.6968 0.3875 l
0.6981 0.3857 l
0.6995 0.3839 l
0.7008 0.3821 l
0.7022 0.3803 l
0.7036 0.3785 l
0.7051 0.3766 l
0.7065 0.3747 l
0.7080 0.3728 l
0.7095 0.3709 l
0.7111 0.3689 l
0.7126 0.3670 l
0.7142 0.3650 l
0.7158 0.3629 l
0.7175 0.3609 l
0.7191 0.3588 l
0.7208 0.3567 l
0.7225 0.3546 l
0.7243 0.3525 l
0.7260 0.3503 l
0.7278 0.3481 l
0.7297 0.3459 l
0.7315 0.3437 l
0.7334 0.3415 l
0.7353 0.3392 l
0.7372 0.3369 l
0.7392 0.3346 l
0.7412 0.3322 l
0.7432 0.3299 l
0.7452 0.3275 l
0.7473 0.3250 l
0.7494 0.3226 l
0.7515 0.3201 l
0.7537 0.3176 l
0.7559 0.3151 l
0.7581 0.3126 l
0.7604 0.3100 l
0.7627 0.3074 l
0.7650 0.3048 l
0.7673 0.3022 l
0.7697 0.2995 l
0.7721 0.2968 l
0.7745 0.2941 l
0.7770 0.2913 l
0.7795 0.2885 l
0.7820 0.2857 l
0.7846 0.2829 l
0.7872 0.2800 l
0.7898 0.2772 l
0.7925 0.2743 l
0.7952 0.2713 l
0.7979 0.2683 l
0.8006 0.2654 l
0.8034 0.2623 l
0.8063 0.2593 l
0.8091 0.2562 l
0.8120 0.2531 l
0.8149 0.2499 l
0.8179 0.2468 l
0.8209 0.2436 l
0.8239 0.2403 l
0.8270 0.2371 l
0.8301 0.2338 l
0.8332 0.2305 l
0.8364 0.2271 l
0.8396 0.2237 l
0.8429 0.2203 l
0.8462 0.2169 l
0.8495 0.2134 l
0.8528 0.2099 l
0.8562 0.2064 l
0.8596 0.2028 l
0.8631 0.1992 l
0.8666 0.1956 l
0.8702 0.1919 l
0.8737 0.1882 l
0.8774 0.1844 l
0.8810 0.1807 l
0.8847 0.1769 l
0.8884 0.1730 l
0.8922 0.1691 l
0.8960 0.1652 l
0.8999 0.1613 l
0.9038 0.1573 l
0.9077 0.1533 l
0.9110 0.1499 l
s
[/DeviceRGB] SCS
Color2 SC
n
0.6471 0.4650 m
0.6471 0.4650 l
0.6471 0.4650 l
0.6471 0.4650 l
0.6471 0.4650 l
0.6471 0.4650 l
0.6471 0.4650 l
0.6471 0.4650 l
0.6471 0.4649 l
0.6471 0.4649 l
0.6471 0.4649 l
0.6471 0.4649 l
0.6471 0.4648 l
0.6472 0.4648 l
0.6472 0.4648 l
0.6472 0.4647 l
0.6472 0.4647 l
0.6473 0.4646 l
0.6473 0.4645 l
0.6473 0.4644 l
0.6474 0.4644 l
0.6474 0.4643 l
0.6475 0.4642 l
0.6475 0.4640 l
0.6476 0.4639 l
0.6476 0.4638 l
0.6477 0.4636 l
0.6478 0.4635 l
0.6479 0.4633 l
0.6480 0.4632 l
0.6481 0.4630 l
0.6482 0.4628 l
0.6483 0.4626 l
0.6484 0.4623 l
0.6485 0.4621 l
0.6486 0.4618 l
0.6488 0.4616 l
0.6489 0.4613 l
0.6491 0.4610 l
0.6492 0.4607 l
0.6494 0.4604 l
0.6495 0.4601 l
0.6497 0.4597 l
0.6499 0.4593 l
0.6501 0.4590 l
0.6503 0.4586 l
0.6505 0.4582 l
0.6508 0.4577 l
0.6510 0.4573 l
0.6513 0.4568 l
0.6515 0.4563 l
0.6518 0.4558 l
0.6521 0.4553 l
0.6523 0.4548 l
0.6526 0.4543 l
0.6530 0.4537 l
0.6533 0.4531 l
0.6536 0.4525 l
0.6540 0.4519 l
0.6543 0.4513 l
0.6547 0.4506 l
0.6551 0.4499 l
0.6555 0.4493 l
0.6559 0.4485 l
0.6563 0.4478 l
0.6567 0.4471 l
0.6572 0.4463 l
0.6576 0.4455 l
0.6581 0.4447 l
0.6586 0.4439 l
0.6591 0.4430 l
0.6596 0.4422 l
0.6601 0.4413 l
0.6607 0.4404 l
0.6612 0.4395 l
0.6618 0.4385 l
0.6624 0.4376 l
0.6630 0.4366 l
0.6636 0.4356 l
0.6642 0.4346 l
0.6649 0.4335 l
0.6656 0.4325 l
0.6663 0.4314 l
0.6670 0.4303 l
0.6677 0.4292 l
0.6684 0.4280 l
0.6692 0.4269 l
0.6699 0.4257 l
0.6707 0.4245 l
0.6715 0.4233 l
0.6724 0.4220 l
0.6732 0.4208 l
0.6741 0.4195 l
0.6749 0.4182 l
0.6758 0.4169 l
0.6768 0.4155 l
0.6777 0.4142 l
0.6787 0.4128 l
0.6796 0.4114 l
0.6806 0.4099 l
0.6817 0.4085 l
0.6827 0.4070 l
0.6837 0.4055 l
0.6848 0.4040 l
0.6859 0.4025 l
0.6870 0.4010 l
0.6882 0.3994 l
0.6894 0.3978 l
0.6905 0.3962 l
0.6917 0.3945 l
0.6930 0.3929 l
0.6942 0.3912 l
0.6955 0.3895 l
0.6968 0.3878 l
0.6981 0.3861 l
0.6995 0.3843 l
0.7008 0.3825 l
0.7022 0.3807 l
0.7036 0.3789 l
0.7051 0.3770 l
0.7065 0.3752 l
0.7080 0.3733 l
0.7095 0.3713 l
0.7111 0.3694 l
0.7126 0.3675 l
0.7142 0.3655 l
0.7158 0.3635 l
0.7175 0.3614 l
0.7191 0.3594 l
0.7208 0.3573 l
0.7225 0.3552 l
0.7243 0.3531 l
0.7260 0.3510 l
0.7278 0.3488 l
0.7297 0.3466 l
0.7315 0.3444 l
0.7334 0.3422 l
0.7353 0.3399 l
0.7372 0.3377 l
0.7392 0.3353 l
0.7412 0.3330 l
0.7432 0.3307 l
0.7452 0.3283 l
0.7473 0.3259 l
0.7494 0.3235 l
0.7515 0.3210 l
0.7537 0.3185 l
0.7559 0.3160 l
0.7581 0.3135 l
0.7604 0.3110 l
0.7627 0.3084 l
0.7650 0.3058 l
0.7673 0.3032 l
0.7697 0.3005 l
0.7721 0.2978 l
0.7745 0.2951 l
0.7770 0.2924 l
0.7795 0.2896 l
0.7820 0.2868 l
0.7846 0.2840 l
0.7872 0.2812 l
0.7898 0.2783 l
0.7925 0.2754 l
0.7952 0.2725 l
0.7979 0.2695 l
0.8006 0.2665 l
0.8034 0.2635 l
0.8063 0.2605 l
0.8091 0.2574 l
0.8120 0.2543 l
0.8149 0.2512 l
0.8179 0.2480 l
0.8209 0.2448 l
0.8239 0.2416 l
0.8270 0.2383 l
0.8301 0.2350 l
0.8332 0.2317 l
0.8364 0.2284 l
0.8396 0.2250 l
0.8429 0.2216 l
0.8462 0.2181 l
0.8495 0.2147 l
0.8528 0.2112 l
0.8562 0.2076 l
0.8596 0.2040 l
0.8631 0.2004 l
0.8666 0.1968 l
0.8702 0.1931 l
0.8737 0.1894 l
0.8774 0.1856 l
0.8810 0.1819 l
0.8847 0.1780 l
0.8884 0.1742 l
0.8922 0.1703 l
0.8960 0.1664 l
0.8999 0.1624 l
0.9038 0.1584 l
0.9077 0.1544 l
0.9117 0.1503 l
0.9121 0.1499 l
s
[/DeviceRGB] SCS
Color4 SC
n
0.6471 0.4650 m
0.6471 0.4650 l
0.6471 0.4650 l
0.6471 0.4650 l
0.6471 0.4650 l
0.6471 0.4650 l
0.6471 0.4650 l
0.6471 0.4650 l
0.6471 0.4650 l
0.6471 0.4650 l
0.6471 0.4649 l
0.6471 0.4649 l
0.6471 0.4649 l
0.6472 0.4649 l
0.6472 0.4648 l
0.6472 0.4648 l
0.6472 0.4648 l
0.6473 0.4647 l
0.6473 0.4647 l
0.6473 0.4646 l
0.6474 0.4646 l
0.6474 0.4645 l
0.6475 0.4645 l
0.6475 0.4644 l
0.6476 0.4643 l
0.6476 0.4642 l
0.6477 0.4641 l
0.6478 0.4640 l
0.6479 0.4639 l
0.6480 0.4638 l
0.6481 0.4637 l
0.6482 0.4635 l
0.6483 0.4634 l
0.6484 0.4632 l
0.6485 0.4631 l
0.6486 0.4629 l
0.6488 0.4627 l
0.6489 0.4626 l
0.6491 0.4624 l
0.6492 0.4622 l
0.6494 0.4620 l
0.6495 0.4617 l
0.6497 0.4615 l
0.6499 0.4612 l
0.6501 0.4610 l
0.6503 0.4607 l
0.6505 0.4604 l
0.6508 0.4602 l
0.6510 0.4599 l
0.6513 0.4595 l
0.6515 0.4592 l
0.6518 0.4589 l
0.6521 0.4585 l
0.6523 0.4582 l
0.6526 0.4578 l
0.6530 0.4574 l
0.6533 0.4570 l
0.6536 0.4566 l
0.6540 0.4562 l
0.6543 0.4558 l
0.6547 0.4553 l
0.6551 0.4548 l
0.6555 0.4544 l
0.6559 0.4539 l
0.6563 0.4534 l
0.6567 0.4529 l
0.6572 0.4523 l
0.6576 0.4518 l
0.6581 0.4512 l
0.6586 0.4507 l
0.6591 0.4501 l
0.6596 0.4495 l
0.6601 0.4488 l
0.6607 0.4482 l
0.6612 0.4476 l
0.6618 0.4469 l
0.6624 0.4462 l
0.6630 0.4455 l
0.6636 0.4448 l
0.6642 0.4441 l
0.6649 0.4434 l
0.6656 0.4426 l
0.6663 0.4418 l
0.6670 0.4411 l
0.6677 0.4403 l
0.6684 0.4394 l
0.6692 0.4386 l
0.6699 0.4378 l
0.6707 0.4369 l
0.6715 0.4360 l
0.6724 0.4351 l
0.6732 0.4342 l
0.6741 0.4333 l
0.6749 0.4324 l
0.6758 0.4314 l
0.6768 0.4304 l
0.6777 0.4294 l
0.6787 0.4284 l
0.6796 0.4274 l
0.6806 0.4264 l
0.6817 0.4253 l
0.6827 0.4242 l
0.6837 0.4232 l
0.6848 0.4220 l
0.6859 0.4209 l
0.6870 0.4198 l
0.6882 0.4186 l
0.6894 0.4175 l
0.6905 0.4163 l
0.6917 0.4151 l
0.6930 0.4139 l
0.6942 0.4126 l
0.6955 0.4114 l
0.6968 0.4101 l
0.6981 0.4088 l
0.6995 0.4075 l
0.7008 0.4062 l
0.7022 0.4049 l
0.7036 0.4035 l
0.7051 0.4021 l
0.7065 0.4008 l
0.7080 0.3994 l
0.7095 0.3979 l
0.7111 0.3965 l
0.7126 0.3950 l
0.7142 0.3936 l
0.7158 0.3921 l
0.7175 0.3906 l
0.7191 0.3891 l
0.7208 0.3875 l
0.7225 0.3860 l
0.7243 0.3844 l
0.7260 0.3828 l
0.7278 0.3812 l
0.7297 0.3796 l
0.7315 0.3780 l
0.7334 0.3763 l
0.7353 0.3746 l
0.7372 0.3729 l
0.7392 0.3712 l
0.7412 0.3695 l
0.7432 0.3678 l
0.7452 0.3660 l
0.7473 0.3642 l
0.7494 0.3624 l
0.7515 0.3606 l
0.7537 0.3588 l
0.7559 0.3569 l
0.7581 0.3551 l
0.7604 0.3532 l
0.7627 0.3513 l
0.7650 0.3494 l
0.7673 0.3474 l
0.7697 0.3455 l
0.7721 0.3435 l
0.7745 0.3415 l
0.7770 0.3395 l
0.7795 0.3375 l
0.7820 0.3354 l
0.7846 0.3334 l
0.7872 0.3313 l
0.7898 0.3292 l
0.7925 0.3271 l
0.7952 0.3250 l
0.7979 0.3228 l
0.8006 0.3206 l
0.8034 0.3184 l
0.8063 0.3162 l
0.8091 0.3140 l
0.8120 0.3118 l
0.8149 0.3095 l
0.8179 0.3072 l
0.8209 0.3049 l
0.8239 0.3026 l
0.8270 0.3002 l
0.8301 0.2979 l
0.8332 0.2955 l
0.8364 0.2931 l
0.8396 0.2907 l
0.8429 0.2882 l
0.8462 0.2858 l
0.8495 0.2833 l
0.8528 0.2808 l
0.8562 0.2783 l
0.8596 0.2757 l
0.8631 0.2732 l
0.8666 0.2706 l
0.8702 0.2680 l
0.8737 0.2654 l
0.8774 0.2627 l
0.8810 0.2601 l
0.8847 0.2574 l
0.8884 0.2547 l
0.8922 0.2519 l
0.8960 0.2492 l
0.8999 0.2464 l
0.9038 0.2436 l
0.9077 0.2408 l
0.9117 0.2380 l
0.9157 0.2351 l
0.9197 0.2323 l
0.9238 0.2294 l
0.9279 0.2264 l
0.9321 0.2235 l
0.9363 0.2205 l
0.9406 0.2175 l
0.9449 0.2145 l
0.9492 0.2115 l
0.9536 0.2084 l
0.9580 0.2053 l
0.9625 0.2022 l
0.9670 0.1991 l
0.9715 0.1960 l
0.9761 0.1928 l
0.9807 0.1896 l
0.9854 0.1864 l
0.9901 0.1831 l
0.9949 0.1798 l
0.9997 0.1765 l
1.0046 0.1732 l
1.0095 0.1699 l
1.0144 0.1665 l
1.0194 0.1631 l
1.0244 0.1597 l
1.0295 0.1562 l
1.0346 0.1528 l
1.0389 0.1499 l
s
[/DeviceRGB] SCS
Color1 SC
[] 0 SD
0.0045 SLW
n
0.6471 0.1500 m
1.1441 0.1500 l
s
n
0.6968 0.1500 m
0.6968 0.1600 l
s
n
0.7962 0.1500 m
0.7962 0.1600 l
s
n
0.8956 0.1500 m
0.8956 0.1600 l
s
n
0.9950 0.1500 m
0.9950 0.1600 l
s
n
1.0944 0.1500 m
1.0944 0.1600 l
s
n
0.6471 0.1500 m
0.6471 0.1700 l
s
n
0.7465 0.1500 m
0.7465 0.1700 l
s
n
0.8459 0.1500 m
0.8459 0.1700 l
s
n
0.9453 0.1500 m
0.9453 0.1700 l
s
n
1.0447 0.1500 m
1.0447 0.1700 l
s
n
1.1441 0.1500 m
1.1441 0.1700 l
s
/Font0 FFSF
0.6365 0.1094 m
GS
[0.0448 0.0000 0.0000 0.0448 0 0] CC
(0) show
GR
/Font0 FFSF
0.7190 0.1094 m
GS
[0.0448 0.0000 0.0000 0.0448 0 0] CC
(0.2) show
GR
/Font0 FFSF
0.8184 0.1094 m
GS
[0.0448 0.0000 0.0000 0.0448 0 0] CC
(0.4) show
GR
/Font0 FFSF
0.9180 0.1094 m
GS
[0.0448 0.0000 0.0000 0.0448 0 0] CC
(0.6) show
GR
/Font0 FFSF
1.0178 0.1094 m
GS
[0.0448 0.0000 0.0000 0.0448 0 0] CC
(0.8) show
GR
/Font0 FFSF
1.1353 0.1094 m
GS
[0.0448 0.0000 0.0000 0.0448 0 0] CC
(1) show
GR
n
0.6471 0.1500 m
0.6471 0.5000 l
s
n
1.1441 0.1500 m
1.1441 0.5000 l
s
n
0.6471 0.1500 m
0.6571 0.1500 l
s
n
1.1441 0.1500 m
1.1341 0.1500 l
s
n
0.6471 0.2200 m
0.6571 0.2200 l
s
n
1.1441 0.2200 m
1.1341 0.2200 l
s
n
0.6471 0.2900 m
0.6571 0.2900 l
s
n
1.1441 0.2900 m
1.1341 0.2900 l
s
n
0.6471 0.3600 m
0.6571 0.3600 l
s
n
1.1441 0.3600 m
1.1341 0.3600 l
s
n
0.6471 0.4300 m
0.6571 0.4300 l
s
n
1.1441 0.4300 m
1.1341 0.4300 l
s
n
0.6471 0.5000 m
0.6571 0.5000 l
s
n
1.1441 0.5000 m
1.1341 0.5000 l
s
n
0.6471 0.1850 m
0.6671 0.1850 l
s
n
1.1441 0.1850 m
1.1241 0.1850 l
s
n
0.6471 0.2550 m
0.6671 0.2550 l
s
n
1.1441 0.2550 m
1.1241 0.2550 l
s
n
0.6471 0.3250 m
0.6671 0.3250 l
s
n
1.1441 0.3250 m
1.1241 0.3250 l
s
n
0.6471 0.3950 m
0.6671 0.3950 l
s
n
1.1441 0.3950 m
1.1241 0.3950 l
s
n
0.6471 0.4650 m
0.6671 0.4650 l
s
n
1.1441 0.4650 m
1.1241 0.4650 l
s
/Font0 FFSF
1.1541 0.1701 m
GS
[0.0448 0.0000 0.0000 0.0448 0 0] CC
(-40) show
GR
/Font0 FFSF
1.1541 0.2401 m
GS
[0.0448 0.0000 0.0000 0.0448 0 0] CC
(-30) show
GR
/Font0 FFSF
1.1541 0.3101 m
GS
[0.0448 0.0000 0.0000 0.0448 0 0] CC
(-20) show
GR
/Font0 FFSF
1.1541 0.3801 m
GS
[0.0448 0.0000 0.0000 0.0448 0 0] CC
(-10) show
GR
/Font0 FFSF
1.1541 0.4501 m
GS
[0.0448 0.0000 0.0000 0.0448 0 0] CC
(0) show
GR
/Font0 FFSF
1.2539 0.2295 m
GS
[0.0000 0.0459 -0.0459 0.0000 0 0] CC
(\(S=0,T=1\)) show
GR
[] 0 SD
0.0015 SLW
n
0.6471 0.1500 m
0.6471 0.5000 l
1.1441 0.5000 l
1.1441 0.1500 l
0.6471 0.1500 l
c
s
showpage
%%PageTrailer
%%Trailer
%%DocumentNeededResources: font Times-Roman
%%+ font Symbol
%%EOF
