%!PS-Adobe-3.0
%%BoundingBox: 0 0 612 792
%%LanguageLevel: 2
%%Creator: Grace-5.1.25
%%CreationDate: Tue Oct 27 19:06:12 2015
%%DocumentData: Clean8Bit
%%Orientation: Landscape
%%Pages: 1
%%PageOrder: Ascend
%%Title: EsurA.agr
%%For: ap1450
%%DocumentNeededResources: (atend)
%%EndComments
%%BeginProlog
/PAGE_OFFSET_X 0 def
/PAGE_OFFSET_Y 0 def
/m {moveto} def
/l {lineto} def
/s {stroke} def
/n {newpath} def
/c {closepath} def
/RL {rlineto} def
/SLW {setlinewidth} def
/GS {gsave} def
/GR {grestore} def
/SC {setcolor} def
/SGRY {setgray} def
/SRGB {setrgbcolor} def
/SD {setdash} def
/SLC {setlinecap} def
/SLJ {setlinejoin} def
/SCS {setcolorspace} def
/FFSF {findfont setfont} def
/CC {concat} def
/PXL {n m 0 0 RL s} def
/Color0 {1.0000 1.0000 1.0000} def
/Color1 {0.0000 0.0000 0.0000} def
/Color2 {1.0000 0.0000 0.0000} def
/Color3 {0.0000 1.0000 0.0000} def
/Color4 {0.0000 0.0000 1.0000} def
/Color5 {1.0000 1.0000 0.0000} def
/Color6 {0.7373 0.5608 0.5608} def
/Color7 {0.8627 0.8627 0.8627} def
/Color8 {0.5804 0.0000 0.8275} def
/Color9 {0.0000 1.0000 1.0000} def
/Color10 {1.0000 0.0000 1.0000} def
/Color11 {1.0000 0.6471 0.0000} def
/Color12 {0.4471 0.1294 0.7373} def
/Color13 {0.4039 0.0275 0.2824} def
/Color14 {0.2510 0.8784 0.8157} def
/Color15 {0.0000 0.5451 0.0000} def
/Color16 {0.7529 0.7529 0.7529} def
/Color17 {0.5059 0.5059 0.5059} def
/Color18 {0.2588 0.2588 0.2588} def
/PTRN {
 /pat_bits exch def 
 <<
  /PaintType 2
  /PatternType 1 /TilingType 1
  /BBox[0 0 16 16]
  /XStep 16 /YStep 16
  /PaintProc {
   pop
   16 16 true [-1 0 0 -1 16 16] pat_bits imagemask
  }
 >>
 [0.0016 0 0 0.0016 0 0]
 makepattern
} def
/Pattern0 {<0000000000000000000000000000000000000000000000000000000000000000> PTRN} bind def
/Pattern1 {<ffffffffffffffffffffffffffffffffffffffffffffffffffffffffffffffff> PTRN} bind def
/Pattern2 {<eeeeffffbbbbffffeeeeffffbbbbffffeeeeffffbbbbffffeeeeffffbbbbffff> PTRN} bind def
/Pattern3 {<eeeebbbbeeeebbbbeeeebbbbeeeebbbbeeeebbbbeeeebbbbeeeebbbbeeeebbbb> PTRN} bind def
/Pattern4 {<5555aaaa5555aaaa5555aaaa5555aaaa5555aaaa5555aaaa5555aaaa5555aaaa> PTRN} bind def
/Pattern5 {<1111444411114444111144441111444411114444111144441111444411114444> PTRN} bind def
/Pattern6 {<1111000044440000111100004444000011110000444400001111000044440000> PTRN} bind def
/Pattern7 {<1010000000000000010100000000000010100000000000000101000000000000> PTRN} bind def
/Pattern8 {<0000000000000000000000000000000000000000000000000000000000000000> PTRN} bind def
/Pattern9 {<1e1e0f0f8787c3c3e1e1f0f078783c3c1e1e0f0f8787c3c3e1e1f0f078783c3c> PTRN} bind def
/Pattern10 {<7878f0f0e1e1c3c387870f0f1e1e3c3c7878f0f0e1e1c3c387870f0f1e1e3c3c> PTRN} bind def
/Pattern11 {<3333333333333333333333333333333333333333333333333333333333333333> PTRN} bind def
/Pattern12 {<ffffffff00000000ffffffff00000000ffffffff00000000ffffffff00000000> PTRN} bind def
/Pattern13 {<8181424224241818181824244242818181814242242418181818242442428181> PTRN} bind def
/Pattern14 {<8080404020201010080804040202010180804040202010100808040402020101> PTRN} bind def
/Pattern15 {<0101020204040808101020204040808001010202040408081010202040408080> PTRN} bind def
/Pattern16 {<2222222222222222222222222222222222222222222222222222222222222222> PTRN} bind def
/Pattern17 {<0000ffff000000000000ffff000000000000ffff000000000000ffff00000000> PTRN} bind def
/Pattern18 {<2222ffff222222222222ffff222222222222ffff222222222222ffff22222222> PTRN} bind def
/Pattern19 {<ffffffff33333333ffffffff33333333ffffffff33333333ffffffff33333333> PTRN} bind def
/Pattern20 {<0f0f0f0f0f0f0f0ff0f0f0f0f0f0f0f00f0f0f0f0f0f0f0ff0f0f0f0f0f0f0f0> PTRN} bind def
/Pattern21 {<ff00ff00ff00ff00ff00ff00ff00ff0000ff00ff00ff00ff00ff00ff00ff00ff> PTRN} bind def
/Pattern22 {<8001800180018001800180018001ffffffff8001800180018001800180018001> PTRN} bind def
/Pattern23 {<c003c003c003c003c003c003ffffffffffffffffc003c003c003c003c003c003> PTRN} bind def
/Pattern24 {<040404040404ffff404040404040ffff040404040404ffff404040404040ffff> PTRN} bind def
/Pattern25 {<180018001800180018001800ffffffff001800180018001800180018ffffffff> PTRN} bind def
/Pattern26 {<1111b8b87c7c3a3a1111a3a3c7c78b8b1111b8b87c7c3a3a1111a3a3c7c78b8b> PTRN} bind def
/Pattern27 {<101010102828c7c70101010182827c7c101010102828c7c70101010182827c7c> PTRN} bind def
/Pattern28 {<1c1c121211112121c1c12121111112121c1c121211112121c1c1212111111212> PTRN} bind def
/Pattern29 {<3e3e414180808080e3e31414080808083e3e414180808080e3e3141408080808> PTRN} bind def
/Pattern30 {<4848888884848383848488884848383848488888848483838484888848483838> PTRN} bind def
/Pattern31 {<03030404080808080c0c12122121c0c003030404080808080c0c12122121c0c0> PTRN} bind def
/ellipsedict 8 dict def
ellipsedict /mtrx matrix put
/EARC {
 ellipsedict begin
  /endangle exch def
  /startangle exch def
  /yrad exch def
  /xrad exch def
  /y exch def
  /x exch def
  /savematrix mtrx currentmatrix def
  x y translate
  xrad yrad scale
  0 0 1 startangle endangle arc
  savematrix setmatrix
 end
} def
/TL {
  /kcomp exch def
  /linewidth exch def
  /offset exch def
  GS
  0 offset rmoveto
  linewidth SLW
  dup stringwidth exch kcomp add exch RL s
  GR
} def
/KINIT
{
 /kvector exch def
 /kid 0 def
} def
/KPROC
{
 pop pop
 kvector kid get
 0 rmoveto
 /kid 1 kid add def
} def
/DefEncoding [
 /.notdef
 /.notdef
 /.notdef
 /.notdef
 /.notdef
 /.notdef
 /.notdef
 /.notdef
 /.notdef
 /.notdef
 /.notdef
 /.notdef
 /.notdef
 /.notdef
 /.notdef
 /.notdef
 /.notdef
 /.notdef
 /.notdef
 /.notdef
 /.notdef
 /.notdef
 /.notdef
 /.notdef
 /.notdef
 /.notdef
 /.notdef
 /.notdef
 /.notdef
 /.notdef
 /.notdef
 /.notdef
 /space
 /exclam
 /quotedbl
 /numbersign
 /dollar
 /percent
 /ampersand
 /quoteright
 /parenleft
 /parenright
 /asterisk
 /plus
 /comma
 /hyphen
 /period
 /slash
 /zero
 /one
 /two
 /three
 /four
 /five
 /six
 /seven
 /eight
 /nine
 /colon
 /semicolon
 /less
 /equal
 /greater
 /question
 /at
 /A
 /B
 /C
 /D
 /E
 /F
 /G
 /H
 /I
 /J
 /K
 /L
 /M
 /N
 /O
 /P
 /Q
 /R
 /S
 /T
 /U
 /V
 /W
 /X
 /Y
 /Z
 /bracketleft
 /backslash
 /bracketright
 /asciicircum
 /underscore
 /grave
 /a
 /b
 /c
 /d
 /e
 /f
 /g
 /h
 /i
 /j
 /k
 /l
 /m
 /n
 /o
 /p
 /q
 /r
 /s
 /t
 /u
 /v
 /w
 /x
 /y
 /z
 /braceleft
 /bar
 /braceright
 /asciitilde
 /.notdef
 /.notdef
 /.notdef
 /.notdef
 /.notdef
 /.notdef
 /.notdef
 /.notdef
 /.notdef
 /.notdef
 /.notdef
 /.notdef
 /.notdef
 /.notdef
 /.notdef
 /.notdef
 /.notdef
 /.notdef
 /.notdef
 /.notdef
 /.notdef
 /.notdef
 /.notdef
 /.notdef
 /.notdef
 /.notdef
 /.notdef
 /.notdef
 /.notdef
 /.notdef
 /.notdef
 /.notdef
 /.notdef
 /space
 /exclamdown
 /cent
 /sterling
 /currency
 /yen
 /brokenbar
 /section
 /dieresis
 /copyright
 /ordfeminine
 /guillemotleft
 /logicalnot
 /hyphen
 /registered
 /macron
 /degree
 /plusminus
 /twosuperior
 /threesuperior
 /acute
 /mu
 /paragraph
 /periodcentered
 /cedilla
 /onesuperior
 /ordmasculine
 /guillemotright
 /onequarter
 /onehalf
 /threequarters
 /questiondown
 /Agrave
 /Aacute
 /Acircumflex
 /Atilde
 /Adieresis
 /Aring
 /AE
 /Ccedilla
 /Egrave
 /Eacute
 /Ecircumflex
 /Edieresis
 /Igrave
 /Iacute
 /Icircumflex
 /Idieresis
 /Eth
 /Ntilde
 /Ograve
 /Oacute
 /Ocircumflex
 /Otilde
 /Odieresis
 /multiply
 /Oslash
 /Ugrave
 /Uacute
 /Ucircumflex
 /Udieresis
 /Yacute
 /Thorn
 /germandbls
 /agrave
 /aacute
 /acircumflex
 /atilde
 /adieresis
 /aring
 /ae
 /ccedilla
 /egrave
 /eacute
 /ecircumflex
 /edieresis
 /igrave
 /iacute
 /icircumflex
 /idieresis
 /eth
 /ntilde
 /ograve
 /oacute
 /ocircumflex
 /otilde
 /odieresis
 /divide
 /oslash
 /ugrave
 /uacute
 /ucircumflex
 /udieresis
 /yacute
 /thorn
 /ydieresis
] def
%%EndProlog
%%BeginSetup
%%EndSetup
%%Page: 1 1
PAGE_OFFSET_X PAGE_OFFSET_Y translate
612.00 612.00 scale
90 rotate
0.0 -1.0 translate
n
0.2215 0.1636 m
0.2215 0.1806 l
0.2385 0.1806 l
0.2385 0.1636 l
c
GS
[/DeviceRGB] SCS
Color0 SRGB
fill
GR
[/Pattern /DeviceRGB] SCS
Color1 Pattern8 SC
fill
[/DeviceRGB] SCS
Color1 SC
[] 0 SD
0.0030 SLW
0 SLC
0 SLJ
n
0.2215 0.1636 m
0.2215 0.1806 l
0.2385 0.1806 l
0.2385 0.1636 l
0.2215 0.1636 l
c
s
n
0.3015 0.1510 m
0.3015 0.1680 l
0.3185 0.1680 l
0.3185 0.1510 l
c
GS
Color0 SRGB
fill
GR
[/Pattern /DeviceRGB] SCS
Color1 Pattern8 SC
fill
[/DeviceRGB] SCS
Color1 SC
n
0.3015 0.1510 m
0.3015 0.1680 l
0.3185 0.1680 l
0.3185 0.1510 l
0.3015 0.1510 l
c
s
n
0.3415 0.1512 m
0.3415 0.1682 l
0.3585 0.1682 l
0.3585 0.1512 l
c
GS
Color0 SRGB
fill
GR
[/Pattern /DeviceRGB] SCS
Color1 Pattern8 SC
fill
[/DeviceRGB] SCS
Color1 SC
n
0.3415 0.1512 m
0.3415 0.1682 l
0.3585 0.1682 l
0.3585 0.1512 l
0.3415 0.1512 l
c
s
n
0.4415 0.1654 m
0.4415 0.1824 l
0.4585 0.1824 l
0.4585 0.1654 l
c
GS
Color0 SRGB
fill
GR
[/Pattern /DeviceRGB] SCS
Color1 Pattern8 SC
fill
[/DeviceRGB] SCS
Color1 SC
n
0.4415 0.1654 m
0.4415 0.1824 l
0.4585 0.1824 l
0.4585 0.1654 l
0.4415 0.1654 l
c
s
n
0.5415 0.1954 m
0.5415 0.2124 l
0.5585 0.2124 l
0.5585 0.1954 l
c
GS
Color0 SRGB
fill
GR
[/Pattern /DeviceRGB] SCS
Color1 Pattern8 SC
fill
[/DeviceRGB] SCS
Color1 SC
n
0.5415 0.1954 m
0.5415 0.2124 l
0.5585 0.2124 l
0.5585 0.1954 l
0.5415 0.1954 l
c
s
n
0.6415 0.2388 m
0.6415 0.2558 l
0.6585 0.2558 l
0.6585 0.2388 l
c
GS
Color0 SRGB
fill
GR
[/Pattern /DeviceRGB] SCS
Color1 Pattern8 SC
fill
[/DeviceRGB] SCS
Color1 SC
n
0.6415 0.2388 m
0.6415 0.2558 l
0.6585 0.2558 l
0.6585 0.2388 l
0.6415 0.2388 l
c
s
n
0.7415 0.2932 m
0.7415 0.3102 l
0.7585 0.3102 l
0.7585 0.2932 l
c
GS
Color0 SRGB
fill
GR
[/Pattern /DeviceRGB] SCS
Color1 Pattern8 SC
fill
[/DeviceRGB] SCS
Color1 SC
n
0.7415 0.2932 m
0.7415 0.3102 l
0.7585 0.3102 l
0.7585 0.2932 l
0.7415 0.2932 l
c
s
n
0.8415 0.3559 m
0.8415 0.3729 l
0.8585 0.3729 l
0.8585 0.3559 l
c
GS
Color0 SRGB
fill
GR
[/Pattern /DeviceRGB] SCS
Color1 Pattern8 SC
fill
[/DeviceRGB] SCS
Color1 SC
n
0.8415 0.3559 m
0.8415 0.3729 l
0.8585 0.3729 l
0.8585 0.3559 l
0.8415 0.3559 l
c
s
n
0.9415 0.4249 m
0.9415 0.4419 l
0.9585 0.4419 l
0.9585 0.4249 l
c
GS
Color0 SRGB
fill
GR
[/Pattern /DeviceRGB] SCS
Color1 Pattern8 SC
fill
[/DeviceRGB] SCS
Color1 SC
n
0.9415 0.4249 m
0.9415 0.4419 l
0.9585 0.4419 l
0.9585 0.4249 l
0.9415 0.4249 l
c
s
n
1.0415 0.4984 m
1.0415 0.5154 l
1.0585 0.5154 l
1.0585 0.4984 l
c
GS
Color0 SRGB
fill
GR
[/Pattern /DeviceRGB] SCS
Color1 Pattern8 SC
fill
[/DeviceRGB] SCS
Color1 SC
n
1.0415 0.4984 m
1.0415 0.5154 l
1.0585 0.5154 l
1.0585 0.4984 l
1.0415 0.4984 l
c
s
n
1.1415 0.5754 m
1.1415 0.5924 l
1.1585 0.5924 l
1.1585 0.5754 l
c
GS
Color0 SRGB
fill
GR
[/Pattern /DeviceRGB] SCS
Color1 Pattern8 SC
fill
[/DeviceRGB] SCS
Color1 SC
n
1.1415 0.5754 m
1.1415 0.5924 l
1.1585 0.5924 l
1.1585 0.5754 l
1.1415 0.5754 l
c
s
[] 0 SD
0.0037 SLW
n
0.1500 0.2019 m
0.1500 0.2019 l
0.1500 0.2019 l
0.1500 0.2019 l
0.1500 0.2019 l
0.1500 0.2019 l
0.1500 0.2020 l
0.1500 0.2020 l
0.1500 0.2020 l
0.1501 0.2021 l
0.1501 0.2021 l
0.1501 0.2021 l
0.1501 0.2021 l
0.1502 0.2022 l
0.1502 0.2022 l
0.1503 0.2022 l
0.1503 0.2022 l
0.1504 0.2022 l
0.1505 0.2022 l
0.1505 0.2022 l
0.1506 0.2022 l
0.1507 0.2022 l
0.1508 0.2022 l
0.1509 0.2022 l
0.1511 0.2022 l
0.1512 0.2021 l
0.1513 0.2021 l
0.1515 0.2020 l
0.1516 0.2020 l
0.1518 0.2019 l
0.1520 0.2018 l
0.1522 0.2017 l
0.1524 0.2016 l
0.1527 0.2015 l
0.1529 0.2014 l
0.1532 0.2013 l
0.1534 0.2011 l
0.1537 0.2010 l
0.1540 0.2008 l
0.1543 0.2006 l
0.1547 0.2004 l
0.1550 0.2002 l
0.1554 0.2000 l
0.1558 0.1998 l
0.1562 0.1996 l
0.1566 0.1993 l
0.1570 0.1991 l
0.1575 0.1988 l
0.1579 0.1986 l
0.1584 0.1983 l
0.1590 0.1980 l
0.1595 0.1977 l
0.1601 0.1973 l
0.1606 0.1970 l
0.1612 0.1966 l
0.1619 0.1963 l
0.1625 0.1959 l
0.1632 0.1955 l
0.1639 0.1952 l
0.1646 0.1947 l
0.1653 0.1943 l
0.1661 0.1939 l
0.1669 0.1935 l
0.1677 0.1930 l
0.1686 0.1926 l
0.1694 0.1921 l
0.1703 0.1916 l
0.1712 0.1912 l
0.1722 0.1907 l
0.1732 0.1902 l
0.1742 0.1896 l
0.1752 0.1891 l
0.1763 0.1886 l
0.1774 0.1881 l
0.1785 0.1875 l
0.1797 0.1870 l
0.1808 0.1864 l
0.1821 0.1859 l
0.1833 0.1853 l
0.1846 0.1847 l
0.1859 0.1841 l
0.1872 0.1835 l
0.1886 0.1830 l
0.1900 0.1824 l
0.1915 0.1818 l
0.1930 0.1812 l
0.1945 0.1806 l
0.1960 0.1799 l
0.1976 0.1793 l
0.1992 0.1787 l
0.2009 0.1781 l
0.2026 0.1775 l
0.2043 0.1769 l
0.2061 0.1763 l
0.2079 0.1757 l
0.2098 0.1751 l
0.2116 0.1745 l
0.2136 0.1739 l
0.2155 0.1733 l
0.2175 0.1727 l
0.2196 0.1721 l
0.2217 0.1715 l
0.2238 0.1709 l
0.2260 0.1704 l
0.2282 0.1698 l
0.2305 0.1692 l
0.2327 0.1687 l
0.2351 0.1682 l
0.2375 0.1676 l
0.2399 0.1671 l
0.2424 0.1666 l
0.2449 0.1661 l
0.2475 0.1656 l
0.2501 0.1652 l
0.2527 0.1647 l
0.2554 0.1643 l
0.2582 0.1639 l
0.2610 0.1635 l
0.2638 0.1631 l
0.2667 0.1627 l
0.2697 0.1624 l
0.2727 0.1621 l
0.2757 0.1618 l
0.2788 0.1615 l
0.2819 0.1612 l
0.2851 0.1610 l
0.2884 0.1608 l
0.2917 0.1606 l
0.2950 0.1604 l
0.2984 0.1603 l
0.3019 0.1602 l
0.3054 0.1601 l
0.3089 0.1601 l
0.3125 0.1600 l
0.3162 0.1601 l
0.3199 0.1601 l
0.3237 0.1602 l
0.3275 0.1603 l
0.3314 0.1605 l
0.3354 0.1606 l
0.3394 0.1609 l
0.3434 0.1611 l
0.3475 0.1614 l
0.3517 0.1618 l
0.3559 0.1622 l
0.3602 0.1626 l
0.3646 0.1631 l
0.3690 0.1636 l
0.3734 0.1642 l
0.3780 0.1648 l
0.3826 0.1655 l
0.3872 0.1662 l
0.3919 0.1669 l
0.3967 0.1677 l
0.4015 0.1686 l
0.4064 0.1695 l
0.4114 0.1705 l
0.4164 0.1715 l
0.4215 0.1726 l
0.4267 0.1738 l
0.4319 0.1750 l
0.4372 0.1762 l
0.4425 0.1776 l
0.4479 0.1790 l
0.4534 0.1804 l
0.4590 0.1819 l
0.4646 0.1835 l
0.4703 0.1852 l
0.4760 0.1869 l
0.4819 0.1887 l
0.4878 0.1906 l
0.4937 0.1925 l
0.4997 0.1945 l
0.5058 0.1966 l
0.5120 0.1988 l
0.5183 0.2011 l
0.5246 0.2034 l
0.5310 0.2058 l
0.5374 0.2083 l
0.5439 0.2109 l
0.5505 0.2135 l
0.5572 0.2163 l
0.5640 0.2191 l
0.5708 0.2220 l
0.5777 0.2251 l
0.5847 0.2282 l
0.5917 0.2314 l
0.5988 0.2347 l
0.6060 0.2380 l
0.6133 0.2415 l
0.6207 0.2451 l
0.6281 0.2488 l
0.6356 0.2526 l
0.6432 0.2565 l
0.6509 0.2605 l
0.6586 0.2646 l
0.6664 0.2688 l
0.6743 0.2731 l
0.6823 0.2776 l
0.6904 0.2821 l
0.6985 0.2868 l
0.7068 0.2915 l
0.7151 0.2964 l
0.7235 0.3014 l
0.7319 0.3065 l
0.7405 0.3118 l
0.7491 0.3172 l
0.7579 0.3227 l
0.7667 0.3283 l
0.7756 0.3340 l
0.7845 0.3399 l
0.7936 0.3459 l
0.8028 0.3521 l
0.8120 0.3583 l
0.8213 0.3647 l
0.8307 0.3713 l
0.8402 0.3780 l
0.8498 0.3848 l
0.8595 0.3918 l
0.8692 0.3989 l
0.8791 0.4062 l
0.8890 0.4136 l
0.8991 0.4211 l
0.9092 0.4288 l
0.9194 0.4367 l
0.9297 0.4447 l
0.9401 0.4529 l
0.9506 0.4612 l
0.9612 0.4697 l
0.9718 0.4783 l
0.9826 0.4871 l
0.9935 0.4961 l
1.0044 0.5052 l
1.0155 0.5145 l
1.0266 0.5240 l
1.0379 0.5337 l
1.0492 0.5435 l
1.0606 0.5535 l
1.0722 0.5636 l
1.0838 0.5740 l
1.0955 0.5845 l
1.1073 0.5952 l
1.1192 0.6061 l
1.1312 0.6172 l
1.1434 0.6285 l
1.1501 0.6348 l
s
[/DeviceRGB] SCS
Color2 SC
n
0.1500 0.2019 m
0.1500 0.2019 l
0.1500 0.2019 l
0.1500 0.2019 l
0.1500 0.2019 l
0.1500 0.2019 l
0.1500 0.2020 l
0.1500 0.2020 l
0.1500 0.2020 l
0.1501 0.2021 l
0.1501 0.2021 l
0.1501 0.2021 l
0.1501 0.2022 l
0.1502 0.2022 l
0.1502 0.2022 l
0.1503 0.2022 l
0.1503 0.2022 l
0.1504 0.2023 l
0.1505 0.2023 l
0.1505 0.2023 l
0.1506 0.2023 l
0.1507 0.2023 l
0.1508 0.2023 l
0.1509 0.2022 l
0.1511 0.2022 l
0.1512 0.2022 l
0.1513 0.2021 l
0.1515 0.2021 l
0.1516 0.2020 l
0.1518 0.2020 l
0.1520 0.2019 l
0.1522 0.2018 l
0.1524 0.2017 l
0.1527 0.2016 l
0.1529 0.2015 l
0.1532 0.2014 l
0.1534 0.2013 l
0.1537 0.2011 l
0.1540 0.2010 l
0.1543 0.2008 l
0.1547 0.2006 l
0.1550 0.2004 l
0.1554 0.2002 l
0.1558 0.2000 l
0.1562 0.1998 l
0.1566 0.1996 l
0.1570 0.1993 l
0.1575 0.1991 l
0.1579 0.1988 l
0.1584 0.1985 l
0.1590 0.1982 l
0.1595 0.1979 l
0.1601 0.1976 l
0.1606 0.1973 l
0.1612 0.1970 l
0.1619 0.1966 l
0.1625 0.1963 l
0.1632 0.1959 l
0.1639 0.1955 l
0.1646 0.1951 l
0.1653 0.1947 l
0.1661 0.1943 l
0.1669 0.1939 l
0.1677 0.1934 l
0.1686 0.1930 l
0.1694 0.1925 l
0.1703 0.1920 l
0.1712 0.1915 l
0.1722 0.1911 l
0.1732 0.1906 l
0.1742 0.1900 l
0.1752 0.1895 l
0.1763 0.1890 l
0.1774 0.1885 l
0.1785 0.1879 l
0.1797 0.1874 l
0.1808 0.1868 l
0.1821 0.1862 l
0.1833 0.1856 l
0.1846 0.1851 l
0.1859 0.1845 l
0.1872 0.1839 l
0.1886 0.1833 l
0.1900 0.1827 l
0.1915 0.1820 l
0.1930 0.1814 l
0.1945 0.1808 l
0.1960 0.1802 l
0.1976 0.1796 l
0.1992 0.1789 l
0.2009 0.1783 l
0.2026 0.1777 l
0.2043 0.1770 l
0.2061 0.1764 l
0.2079 0.1758 l
0.2098 0.1751 l
0.2116 0.1745 l
0.2136 0.1739 l
0.2155 0.1733 l
0.2175 0.1726 l
0.2196 0.1720 l
0.2217 0.1714 l
0.2238 0.1708 l
0.2260 0.1702 l
0.2282 0.1696 l
0.2305 0.1690 l
0.2327 0.1684 l
0.2351 0.1679 l
0.2375 0.1673 l
0.2399 0.1667 l
0.2424 0.1662 l
0.2449 0.1657 l
0.2475 0.1652 l
0.2501 0.1647 l
0.2527 0.1642 l
0.2554 0.1637 l
0.2582 0.1633 l
0.2610 0.1628 l
0.2638 0.1624 l
0.2667 0.1620 l
0.2697 0.1617 l
0.2727 0.1613 l
0.2757 0.1610 l
0.2788 0.1607 l
0.2819 0.1604 l
0.2851 0.1601 l
0.2884 0.1599 l
0.2917 0.1597 l
0.2950 0.1595 l
0.2984 0.1594 l
0.3019 0.1592 l
0.3054 0.1592 l
0.3089 0.1591 l
0.3125 0.1591 l
0.3162 0.1591 l
0.3199 0.1592 l
0.3237 0.1593 l
0.3275 0.1594 l
0.3314 0.1596 l
0.3354 0.1598 l
0.3394 0.1601 l
0.3434 0.1604 l
0.3475 0.1607 l
0.3517 0.1611 l
0.3559 0.1615 l
0.3602 0.1620 l
0.3646 0.1626 l
0.3690 0.1632 l
0.3734 0.1638 l
0.3780 0.1645 l
0.3826 0.1653 l
0.3872 0.1661 l
0.3919 0.1670 l
0.3967 0.1680 l
0.4015 0.1690 l
0.4064 0.1700 l
0.4114 0.1712 l
0.4164 0.1724 l
0.4215 0.1737 l
0.4267 0.1750 l
0.4319 0.1764 l
0.4372 0.1779 l
0.4425 0.1795 l
0.4479 0.1811 l
0.4534 0.1829 l
0.4590 0.1847 l
0.4646 0.1865 l
0.4703 0.1885 l
0.4760 0.1906 l
0.4819 0.1927 l
0.4878 0.1950 l
0.4937 0.1973 l
0.4997 0.1997 l
0.5058 0.2022 l
0.5120 0.2049 l
0.5183 0.2076 l
0.5246 0.2104 l
0.5310 0.2133 l
0.5374 0.2163 l
0.5439 0.2195 l
0.5505 0.2227 l
0.5572 0.2261 l
0.5640 0.2295 l
0.5708 0.2331 l
0.5777 0.2368 l
0.5847 0.2406 l
0.5917 0.2446 l
0.5988 0.2486 l
0.6060 0.2528 l
0.6133 0.2572 l
0.6207 0.2616 l
0.6281 0.2662 l
0.6356 0.2709 l
0.6432 0.2758 l
0.6509 0.2808 l
0.6586 0.2859 l
0.6664 0.2912 l
0.6743 0.2966 l
0.6823 0.3022 l
0.6904 0.3080 l
0.6985 0.3138 l
0.7068 0.3199 l
0.7151 0.3261 l
0.7235 0.3325 l
0.7319 0.3390 l
0.7405 0.3457 l
0.7491 0.3526 l
0.7579 0.3596 l
0.7667 0.3668 l
0.7756 0.3742 l
0.7845 0.3818 l
0.7936 0.3895 l
0.8028 0.3975 l
0.8120 0.4056 l
0.8213 0.4139 l
0.8307 0.4225 l
0.8402 0.4312 l
0.8498 0.4401 l
0.8595 0.4492 l
0.8692 0.4585 l
0.8791 0.4681 l
0.8890 0.4778 l
0.8991 0.4878 l
0.9092 0.4979 l
0.9194 0.5083 l
0.9297 0.5189 l
0.9401 0.5298 l
0.9506 0.5409 l
0.9612 0.5522 l
0.9718 0.5637 l
0.9826 0.5755 l
0.9935 0.5875 l
1.0044 0.5998 l
1.0155 0.6123 l
1.0266 0.6251 l
1.0379 0.6381 l
1.0492 0.6514 l
1.0606 0.6650 l
1.0722 0.6788 l
1.0838 0.6929 l
1.0955 0.7072 l
1.1073 0.7219 l
1.1192 0.7368 l
1.1312 0.7520 l
1.1434 0.7675 l
1.1501 0.7762 l
s
[/DeviceRGB] SCS
Color4 SC
n
0.1500 0.2019 m
0.1500 0.2019 l
0.1500 0.2019 l
0.1500 0.2019 l
0.1500 0.2019 l
0.1500 0.2019 l
0.1500 0.2020 l
0.1500 0.2020 l
0.1500 0.2020 l
0.1501 0.2021 l
0.1501 0.2021 l
0.1501 0.2021 l
0.1501 0.2022 l
0.1502 0.2022 l
0.1502 0.2022 l
0.1503 0.2022 l
0.1503 0.2022 l
0.1504 0.2023 l
0.1505 0.2023 l
0.1505 0.2023 l
0.1506 0.2023 l
0.1507 0.2023 l
0.1508 0.2023 l
0.1509 0.2022 l
0.1511 0.2022 l
0.1512 0.2022 l
0.1513 0.2021 l
0.1515 0.2021 l
0.1516 0.2020 l
0.1518 0.2020 l
0.1520 0.2019 l
0.1522 0.2018 l
0.1524 0.2017 l
0.1527 0.2016 l
0.1529 0.2015 l
0.1532 0.2014 l
0.1534 0.2013 l
0.1537 0.2011 l
0.1540 0.2010 l
0.1543 0.2008 l
0.1547 0.2006 l
0.1550 0.2005 l
0.1554 0.2003 l
0.1558 0.2001 l
0.1562 0.1998 l
0.1566 0.1996 l
0.1570 0.1994 l
0.1575 0.1991 l
0.1579 0.1988 l
0.1584 0.1986 l
0.1590 0.1983 l
0.1595 0.1980 l
0.1601 0.1977 l
0.1606 0.1973 l
0.1612 0.1970 l
0.1619 0.1967 l
0.1625 0.1963 l
0.1632 0.1959 l
0.1639 0.1956 l
0.1646 0.1952 l
0.1653 0.1948 l
0.1661 0.1944 l
0.1669 0.1939 l
0.1677 0.1935 l
0.1686 0.1931 l
0.1694 0.1926 l
0.1703 0.1921 l
0.1712 0.1917 l
0.1722 0.1912 l
0.1732 0.1907 l
0.1742 0.1902 l
0.1752 0.1897 l
0.1763 0.1891 l
0.1774 0.1886 l
0.1785 0.1881 l
0.1797 0.1875 l
0.1808 0.1870 l
0.1821 0.1864 l
0.1833 0.1859 l
0.1846 0.1853 l
0.1859 0.1847 l
0.1872 0.1841 l
0.1886 0.1835 l
0.1900 0.1829 l
0.1915 0.1823 l
0.1930 0.1817 l
0.1945 0.1811 l
0.1960 0.1805 l
0.1976 0.1799 l
0.1992 0.1793 l
0.2009 0.1787 l
0.2026 0.1781 l
0.2043 0.1775 l
0.2061 0.1768 l
0.2079 0.1762 l
0.2098 0.1756 l
0.2116 0.1750 l
0.2136 0.1744 l
0.2155 0.1738 l
0.2175 0.1732 l
0.2196 0.1726 l
0.2217 0.1720 l
0.2238 0.1714 l
0.2260 0.1708 l
0.2282 0.1702 l
0.2305 0.1696 l
0.2327 0.1691 l
0.2351 0.1685 l
0.2375 0.1680 l
0.2399 0.1675 l
0.2424 0.1669 l
0.2449 0.1664 l
0.2475 0.1659 l
0.2501 0.1655 l
0.2527 0.1650 l
0.2554 0.1645 l
0.2582 0.1641 l
0.2610 0.1637 l
0.2638 0.1633 l
0.2667 0.1629 l
0.2697 0.1625 l
0.2727 0.1622 l
0.2757 0.1619 l
0.2788 0.1616 l
0.2819 0.1613 l
0.2851 0.1611 l
0.2884 0.1608 l
0.2917 0.1606 l
0.2950 0.1605 l
0.2984 0.1603 l
0.3019 0.1602 l
0.3054 0.1601 l
0.3089 0.1601 l
0.3125 0.1601 l
0.3162 0.1601 l
0.3199 0.1601 l
0.3237 0.1602 l
0.3275 0.1603 l
0.3314 0.1605 l
0.3354 0.1607 l
0.3394 0.1610 l
0.3434 0.1612 l
0.3475 0.1616 l
0.3517 0.1620 l
0.3559 0.1624 l
0.3602 0.1628 l
0.3646 0.1634 l
0.3690 0.1639 l
0.3734 0.1645 l
0.3780 0.1652 l
0.3826 0.1659 l
0.3872 0.1667 l
0.3919 0.1676 l
0.3967 0.1685 l
0.4015 0.1694 l
0.4064 0.1704 l
0.4114 0.1715 l
0.4164 0.1726 l
0.4215 0.1739 l
0.4267 0.1751 l
0.4319 0.1765 l
0.4372 0.1779 l
0.4425 0.1794 l
0.4479 0.1809 l
0.4534 0.1825 l
0.4590 0.1843 l
0.4646 0.1860 l
0.4703 0.1879 l
0.4760 0.1899 l
0.4819 0.1919 l
0.4878 0.1940 l
0.4937 0.1962 l
0.4997 0.1985 l
0.5058 0.2009 l
0.5120 0.2033 l
0.5183 0.2059 l
0.5246 0.2086 l
0.5310 0.2113 l
0.5374 0.2142 l
0.5439 0.2171 l
0.5505 0.2202 l
0.5572 0.2233 l
0.5640 0.2266 l
0.5708 0.2300 l
0.5777 0.2335 l
0.5847 0.2371 l
0.5917 0.2408 l
0.5988 0.2446 l
0.6060 0.2486 l
0.6133 0.2527 l
0.6207 0.2569 l
0.6281 0.2612 l
0.6356 0.2656 l
0.6432 0.2702 l
0.6509 0.2749 l
0.6586 0.2798 l
0.6664 0.2847 l
0.6743 0.2899 l
0.6823 0.2951 l
0.6904 0.3005 l
0.6985 0.3061 l
0.7068 0.3118 l
0.7151 0.3176 l
0.7235 0.3236 l
0.7319 0.3297 l
0.7405 0.3360 l
0.7491 0.3425 l
0.7579 0.3491 l
0.7667 0.3559 l
0.7756 0.3629 l
0.7845 0.3700 l
0.7936 0.3773 l
0.8028 0.3848 l
0.8120 0.3925 l
0.8213 0.4003 l
0.8307 0.4083 l
0.8402 0.4165 l
0.8498 0.4249 l
0.8595 0.4335 l
0.8692 0.4423 l
0.8791 0.4513 l
0.8890 0.4604 l
0.8991 0.4698 l
0.9092 0.4794 l
0.9194 0.4892 l
0.9297 0.4992 l
0.9401 0.5094 l
0.9506 0.5198 l
0.9612 0.5305 l
0.9718 0.5414 l
0.9826 0.5525 l
0.9935 0.5638 l
1.0044 0.5754 l
1.0155 0.5872 l
1.0266 0.5992 l
1.0379 0.6115 l
1.0492 0.6240 l
1.0606 0.6368 l
1.0722 0.6498 l
1.0838 0.6631 l
1.0955 0.6766 l
1.1073 0.6904 l
1.1192 0.7045 l
1.1312 0.7188 l
1.1434 0.7335 l
1.1501 0.7417 l
s
[/DeviceRGB] SCS
Color11 SC
n
0.1500 0.2019 m
0.1500 0.2019 l
0.1500 0.2019 l
0.1500 0.2019 l
0.1500 0.2019 l
0.1500 0.2019 l
0.1500 0.2020 l
0.1500 0.2020 l
0.1500 0.2020 l
0.1501 0.2021 l
0.1501 0.2021 l
0.1501 0.2021 l
0.1501 0.2022 l
0.1502 0.2022 l
0.1502 0.2022 l
0.1503 0.2022 l
0.1503 0.2022 l
0.1504 0.2023 l
0.1505 0.2023 l
0.1505 0.2023 l
0.1506 0.2023 l
0.1507 0.2023 l
0.1508 0.2023 l
0.1509 0.2022 l
0.1511 0.2022 l
0.1512 0.2022 l
0.1513 0.2022 l
0.1515 0.2021 l
0.1516 0.2020 l
0.1518 0.2020 l
0.1520 0.2019 l
0.1522 0.2018 l
0.1524 0.2017 l
0.1527 0.2016 l
0.1529 0.2015 l
0.1532 0.2014 l
0.1534 0.2013 l
0.1537 0.2011 l
0.1540 0.2010 l
0.1543 0.2008 l
0.1547 0.2007 l
0.1550 0.2005 l
0.1554 0.2003 l
0.1558 0.2001 l
0.1562 0.1998 l
0.1566 0.1996 l
0.1570 0.1994 l
0.1575 0.1991 l
0.1579 0.1989 l
0.1584 0.1986 l
0.1590 0.1983 l
0.1595 0.1980 l
0.1601 0.1977 l
0.1606 0.1973 l
0.1612 0.1970 l
0.1619 0.1967 l
0.1625 0.1963 l
0.1632 0.1959 l
0.1639 0.1955 l
0.1646 0.1951 l
0.1653 0.1947 l
0.1661 0.1943 l
0.1669 0.1939 l
0.1677 0.1935 l
0.1686 0.1930 l
0.1694 0.1925 l
0.1703 0.1921 l
0.1712 0.1916 l
0.1722 0.1911 l
0.1732 0.1906 l
0.1742 0.1901 l
0.1752 0.1895 l
0.1763 0.1890 l
0.1774 0.1885 l
0.1785 0.1879 l
0.1797 0.1874 l
0.1808 0.1868 l
0.1821 0.1862 l
0.1833 0.1856 l
0.1846 0.1850 l
0.1859 0.1844 l
0.1872 0.1838 l
0.1886 0.1832 l
0.1900 0.1826 l
0.1915 0.1820 l
0.1930 0.1814 l
0.1945 0.1807 l
0.1960 0.1801 l
0.1976 0.1794 l
0.1992 0.1788 l
0.2009 0.1782 l
0.2026 0.1775 l
0.2043 0.1769 l
0.2061 0.1762 l
0.2079 0.1755 l
0.2098 0.1749 l
0.2116 0.1742 l
0.2136 0.1736 l
0.2155 0.1729 l
0.2175 0.1723 l
0.2196 0.1716 l
0.2217 0.1710 l
0.2238 0.1704 l
0.2260 0.1697 l
0.2282 0.1691 l
0.2305 0.1685 l
0.2327 0.1678 l
0.2351 0.1672 l
0.2375 0.1666 l
0.2399 0.1660 l
0.2424 0.1654 l
0.2449 0.1649 l
0.2475 0.1643 l
0.2501 0.1637 l
0.2527 0.1632 l
0.2554 0.1627 l
0.2582 0.1622 l
0.2610 0.1617 l
0.2638 0.1612 l
0.2667 0.1607 l
0.2697 0.1603 l
0.2727 0.1598 l
0.2757 0.1594 l
0.2788 0.1590 l
0.2819 0.1586 l
0.2851 0.1583 l
0.2884 0.1580 l
0.2917 0.1576 l
0.2950 0.1574 l
0.2984 0.1571 l
0.3019 0.1569 l
0.3054 0.1567 l
0.3089 0.1565 l
0.3125 0.1564 l
0.3162 0.1562 l
0.3199 0.1562 l
0.3237 0.1561 l
0.3275 0.1561 l
0.3314 0.1561 l
0.3354 0.1562 l
0.3394 0.1563 l
0.3434 0.1564 l
0.3475 0.1566 l
0.3517 0.1568 l
0.3559 0.1570 l
0.3602 0.1573 l
0.3646 0.1577 l
0.3690 0.1580 l
0.3734 0.1585 l
0.3780 0.1590 l
0.3826 0.1595 l
0.3872 0.1601 l
0.3919 0.1607 l
0.3967 0.1614 l
0.4015 0.1621 l
0.4064 0.1629 l
0.4114 0.1638 l
0.4164 0.1647 l
0.4215 0.1656 l
0.4267 0.1667 l
0.4319 0.1678 l
0.4372 0.1689 l
0.4425 0.1701 l
0.4479 0.1714 l
0.4534 0.1728 l
0.4590 0.1742 l
0.4646 0.1757 l
0.4703 0.1773 l
0.4760 0.1789 l
0.4819 0.1806 l
0.4878 0.1824 l
0.4937 0.1843 l
0.4997 0.1862 l
0.5058 0.1883 l
0.5120 0.1904 l
0.5183 0.1926 l
0.5246 0.1949 l
0.5310 0.1973 l
0.5374 0.1998 l
0.5439 0.2023 l
0.5505 0.2050 l
0.5572 0.2077 l
0.5640 0.2106 l
0.5708 0.2135 l
0.5777 0.2166 l
0.5847 0.2197 l
0.5917 0.2230 l
0.5988 0.2263 l
0.6060 0.2298 l
0.6133 0.2334 l
0.6207 0.2371 l
0.6281 0.2409 l
0.6356 0.2448 l
0.6432 0.2488 l
0.6509 0.2530 l
0.6586 0.2572 l
0.6664 0.2616 l
0.6743 0.2662 l
0.6823 0.2708 l
0.6904 0.2756 l
0.6985 0.2805 l
0.7068 0.2855 l
0.7151 0.2907 l
0.7235 0.2960 l
0.7319 0.3014 l
0.7405 0.3070 l
0.7491 0.3128 l
0.7579 0.3186 l
0.7667 0.3247 l
0.7756 0.3308 l
0.7845 0.3372 l
0.7936 0.3436 l
0.8028 0.3503 l
0.8120 0.3571 l
0.8213 0.3640 l
0.8307 0.3711 l
0.8402 0.3784 l
0.8498 0.3859 l
0.8595 0.3935 l
0.8692 0.4013 l
0.8791 0.4092 l
0.8890 0.4174 l
0.8991 0.4257 l
0.9092 0.4342 l
0.9194 0.4429 l
0.9297 0.4517 l
0.9401 0.4608 l
0.9506 0.4700 l
0.9612 0.4795 l
0.9718 0.4891 l
0.9826 0.4989 l
0.9935 0.5090 l
1.0044 0.5192 l
1.0155 0.5297 l
1.0266 0.5403 l
1.0379 0.5512 l
1.0492 0.5623 l
1.0606 0.5736 l
1.0722 0.5851 l
1.0838 0.5968 l
1.0955 0.6088 l
1.1073 0.6210 l
1.1192 0.6334 l
1.1312 0.6461 l
1.1434 0.6589 l
1.1501 0.6662 l
s
[/DeviceRGB] SCS
Color3 SC
n
0.1500 0.2019 m
0.1500 0.2019 l
0.1500 0.2019 l
0.1500 0.2019 l
0.1500 0.2019 l
0.1500 0.2019 l
0.1500 0.2020 l
0.1500 0.2020 l
0.1500 0.2020 l
0.1501 0.2021 l
0.1501 0.2021 l
0.1501 0.2021 l
0.1501 0.2022 l
0.1502 0.2022 l
0.1502 0.2022 l
0.1503 0.2022 l
0.1503 0.2023 l
0.1504 0.2023 l
0.1505 0.2023 l
0.1505 0.2023 l
0.1506 0.2023 l
0.1507 0.2023 l
0.1508 0.2023 l
0.1509 0.2023 l
0.1511 0.2022 l
0.1512 0.2022 l
0.1513 0.2022 l
0.1515 0.2021 l
0.1516 0.2021 l
0.1518 0.2020 l
0.1520 0.2019 l
0.1522 0.2019 l
0.1524 0.2018 l
0.1527 0.2017 l
0.1529 0.2016 l
0.1532 0.2015 l
0.1534 0.2013 l
0.1537 0.2012 l
0.1540 0.2010 l
0.1543 0.2009 l
0.1547 0.2007 l
0.1550 0.2005 l
0.1554 0.2003 l
0.1558 0.2001 l
0.1562 0.1999 l
0.1566 0.1997 l
0.1570 0.1995 l
0.1575 0.1992 l
0.1579 0.1989 l
0.1584 0.1987 l
0.1590 0.1984 l
0.1595 0.1981 l
0.1601 0.1978 l
0.1606 0.1975 l
0.1612 0.1971 l
0.1619 0.1968 l
0.1625 0.1964 l
0.1632 0.1961 l
0.1639 0.1957 l
0.1646 0.1953 l
0.1653 0.1949 l
0.1661 0.1945 l
0.1669 0.1940 l
0.1677 0.1936 l
0.1686 0.1932 l
0.1694 0.1927 l
0.1703 0.1922 l
0.1712 0.1918 l
0.1722 0.1913 l
0.1732 0.1908 l
0.1742 0.1903 l
0.1752 0.1898 l
0.1763 0.1893 l
0.1774 0.1887 l
0.1785 0.1882 l
0.1797 0.1876 l
0.1808 0.1871 l
0.1821 0.1865 l
0.1833 0.1859 l
0.1846 0.1854 l
0.1859 0.1848 l
0.1872 0.1842 l
0.1886 0.1836 l
0.1900 0.1830 l
0.1915 0.1824 l
0.1930 0.1818 l
0.1945 0.1812 l
0.1960 0.1806 l
0.1976 0.1799 l
0.1992 0.1793 l
0.2009 0.1787 l
0.2026 0.1781 l
0.2043 0.1775 l
0.2061 0.1768 l
0.2079 0.1762 l
0.2098 0.1756 l
0.2116 0.1750 l
0.2136 0.1743 l
0.2155 0.1737 l
0.2175 0.1731 l
0.2196 0.1725 l
0.2217 0.1719 l
0.2238 0.1713 l
0.2260 0.1707 l
0.2282 0.1701 l
0.2305 0.1695 l
0.2327 0.1690 l
0.2351 0.1684 l
0.2375 0.1679 l
0.2399 0.1673 l
0.2424 0.1668 l
0.2449 0.1663 l
0.2475 0.1658 l
0.2501 0.1653 l
0.2527 0.1648 l
0.2554 0.1644 l
0.2582 0.1639 l
0.2610 0.1635 l
0.2638 0.1631 l
0.2667 0.1627 l
0.2697 0.1623 l
0.2727 0.1620 l
0.2757 0.1616 l
0.2788 0.1613 l
0.2819 0.1611 l
0.2851 0.1608 l
0.2884 0.1606 l
0.2917 0.1604 l
0.2950 0.1602 l
0.2984 0.1601 l
0.3019 0.1599 l
0.3054 0.1599 l
0.3089 0.1598 l
0.3125 0.1598 l
0.3162 0.1598 l
0.3199 0.1599 l
0.3237 0.1600 l
0.3275 0.1601 l
0.3314 0.1603 l
0.3354 0.1605 l
0.3394 0.1607 l
0.3434 0.1610 l
0.3475 0.1614 l
0.3517 0.1617 l
0.3559 0.1622 l
0.3602 0.1626 l
0.3646 0.1632 l
0.3690 0.1637 l
0.3734 0.1644 l
0.3780 0.1651 l
0.3826 0.1658 l
0.3872 0.1666 l
0.3919 0.1674 l
0.3967 0.1684 l
0.4015 0.1693 l
0.4064 0.1704 l
0.4114 0.1715 l
0.4164 0.1726 l
0.4215 0.1739 l
0.4267 0.1752 l
0.4319 0.1765 l
0.4372 0.1780 l
0.4425 0.1795 l
0.4479 0.1810 l
0.4534 0.1827 l
0.4590 0.1844 l
0.4646 0.1863 l
0.4703 0.1882 l
0.4760 0.1901 l
0.4819 0.1922 l
0.4878 0.1943 l
0.4937 0.1966 l
0.4997 0.1989 l
0.5058 0.2013 l
0.5120 0.2038 l
0.5183 0.2064 l
0.5246 0.2091 l
0.5310 0.2119 l
0.5374 0.2148 l
0.5439 0.2178 l
0.5505 0.2209 l
0.5572 0.2241 l
0.5640 0.2275 l
0.5708 0.2309 l
0.5777 0.2344 l
0.5847 0.2381 l
0.5917 0.2418 l
0.5988 0.2457 l
0.6060 0.2497 l
0.6133 0.2538 l
0.6207 0.2581 l
0.6281 0.2624 l
0.6356 0.2669 l
0.6432 0.2716 l
0.6509 0.2763 l
0.6586 0.2812 l
0.6664 0.2863 l
0.6743 0.2914 l
0.6823 0.2967 l
0.6904 0.3022 l
0.6985 0.3078 l
0.7068 0.3135 l
0.7151 0.3194 l
0.7235 0.3254 l
0.7319 0.3316 l
0.7405 0.3380 l
0.7491 0.3445 l
0.7579 0.3512 l
0.7667 0.3580 l
0.7756 0.3650 l
0.7845 0.3722 l
0.7936 0.3795 l
0.8028 0.3870 l
0.8120 0.3947 l
0.8213 0.4026 l
0.8307 0.4106 l
0.8402 0.4189 l
0.8498 0.4273 l
0.8595 0.4359 l
0.8692 0.4447 l
0.8791 0.4537 l
0.8890 0.4629 l
0.8991 0.4723 l
0.9092 0.4818 l
0.9194 0.4916 l
0.9297 0.5016 l
0.9401 0.5118 l
0.9506 0.5223 l
0.9612 0.5329 l
0.9718 0.5438 l
0.9826 0.5548 l
0.9935 0.5661 l
1.0044 0.5777 l
1.0155 0.5894 l
1.0266 0.6014 l
1.0379 0.6136 l
1.0492 0.6261 l
1.0606 0.6388 l
1.0722 0.6518 l
1.0838 0.6650 l
1.0955 0.6784 l
1.1073 0.6921 l
1.1192 0.7061 l
1.1312 0.7203 l
1.1434 0.7348 l
1.1501 0.7430 l
s
[/DeviceRGB] SCS
Color8 SC
n
0.1500 0.2019 m
0.1500 0.2019 l
0.1500 0.2019 l
0.1500 0.2019 l
0.1500 0.2019 l
0.1500 0.2019 l
0.1500 0.2020 l
0.1500 0.2020 l
0.1500 0.2020 l
0.1501 0.2021 l
0.1501 0.2021 l
0.1501 0.2021 l
0.1501 0.2022 l
0.1502 0.2022 l
0.1502 0.2022 l
0.1503 0.2023 l
0.1503 0.2023 l
0.1504 0.2023 l
0.1505 0.2023 l
0.1505 0.2023 l
0.1506 0.2023 l
0.1507 0.2023 l
0.1508 0.2023 l
0.1509 0.2023 l
0.1511 0.2023 l
0.1512 0.2023 l
0.1513 0.2023 l
0.1515 0.2022 l
0.1516 0.2022 l
0.1518 0.2021 l
0.1520 0.2021 l
0.1522 0.2020 l
0.1524 0.2019 l
0.1527 0.2018 l
0.1529 0.2017 l
0.1532 0.2016 l
0.1534 0.2015 l
0.1537 0.2014 l
0.1540 0.2012 l
0.1543 0.2011 l
0.1547 0.2009 l
0.1550 0.2008 l
0.1554 0.2006 l
0.1558 0.2004 l
0.1562 0.2002 l
0.1566 0.2000 l
0.1570 0.1997 l
0.1575 0.1995 l
0.1579 0.1993 l
0.1584 0.1990 l
0.1590 0.1987 l
0.1595 0.1984 l
0.1601 0.1981 l
0.1606 0.1978 l
0.1612 0.1975 l
0.1619 0.1972 l
0.1625 0.1968 l
0.1632 0.1965 l
0.1639 0.1961 l
0.1646 0.1957 l
0.1653 0.1953 l
0.1661 0.1949 l
0.1669 0.1945 l
0.1677 0.1941 l
0.1686 0.1937 l
0.1694 0.1932 l
0.1703 0.1928 l
0.1712 0.1923 l
0.1722 0.1918 l
0.1732 0.1913 l
0.1742 0.1909 l
0.1752 0.1903 l
0.1763 0.1898 l
0.1774 0.1893 l
0.1785 0.1888 l
0.1797 0.1882 l
0.1808 0.1877 l
0.1821 0.1871 l
0.1833 0.1865 l
0.1846 0.1860 l
0.1859 0.1854 l
0.1872 0.1848 l
0.1886 0.1842 l
0.1900 0.1836 l
0.1915 0.1830 l
0.1930 0.1824 l
0.1945 0.1818 l
0.1960 0.1812 l
0.1976 0.1805 l
0.1992 0.1799 l
0.2009 0.1793 l
0.2026 0.1787 l
0.2043 0.1780 l
0.2061 0.1774 l
0.2079 0.1768 l
0.2098 0.1761 l
0.2116 0.1755 l
0.2136 0.1749 l
0.2155 0.1742 l
0.2175 0.1736 l
0.2196 0.1730 l
0.2217 0.1724 l
0.2238 0.1718 l
0.2260 0.1712 l
0.2282 0.1706 l
0.2305 0.1700 l
0.2327 0.1694 l
0.2351 0.1688 l
0.2375 0.1682 l
0.2399 0.1677 l
0.2424 0.1671 l
0.2449 0.1666 l
0.2475 0.1661 l
0.2501 0.1656 l
0.2527 0.1651 l
0.2554 0.1646 l
0.2582 0.1641 l
0.2610 0.1637 l
0.2638 0.1633 l
0.2667 0.1629 l
0.2697 0.1625 l
0.2727 0.1621 l
0.2757 0.1618 l
0.2788 0.1615 l
0.2819 0.1612 l
0.2851 0.1609 l
0.2884 0.1607 l
0.2917 0.1604 l
0.2950 0.1603 l
0.2984 0.1601 l
0.3019 0.1600 l
0.3054 0.1599 l
0.3089 0.1598 l
0.3125 0.1598 l
0.3162 0.1599 l
0.3199 0.1599 l
0.3237 0.1600 l
0.3275 0.1601 l
0.3314 0.1603 l
0.3354 0.1605 l
0.3394 0.1608 l
0.3434 0.1611 l
0.3475 0.1615 l
0.3517 0.1619 l
0.3559 0.1624 l
0.3602 0.1629 l
0.3646 0.1635 l
0.3690 0.1641 l
0.3734 0.1648 l
0.3780 0.1655 l
0.3826 0.1663 l
0.3872 0.1672 l
0.3919 0.1681 l
0.3967 0.1691 l
0.4015 0.1701 l
0.4064 0.1713 l
0.4114 0.1725 l
0.4164 0.1737 l
0.4215 0.1751 l
0.4267 0.1765 l
0.4319 0.1780 l
0.4372 0.1796 l
0.4425 0.1812 l
0.4479 0.1830 l
0.4534 0.1848 l
0.4590 0.1867 l
0.4646 0.1887 l
0.4703 0.1908 l
0.4760 0.1930 l
0.4819 0.1953 l
0.4878 0.1977 l
0.4937 0.2002 l
0.4997 0.2028 l
0.5058 0.2055 l
0.5120 0.2083 l
0.5183 0.2112 l
0.5246 0.2142 l
0.5310 0.2173 l
0.5374 0.2206 l
0.5439 0.2239 l
0.5505 0.2274 l
0.5572 0.2310 l
0.5640 0.2348 l
0.5708 0.2386 l
0.5777 0.2426 l
0.5847 0.2468 l
0.5917 0.2510 l
0.5988 0.2554 l
0.6060 0.2600 l
0.6133 0.2646 l
0.6207 0.2695 l
0.6281 0.2744 l
0.6356 0.2796 l
0.6432 0.2849 l
0.6509 0.2903 l
0.6586 0.2959 l
0.6664 0.3017 l
0.6743 0.3076 l
0.6823 0.3137 l
0.6904 0.3200 l
0.6985 0.3264 l
0.7068 0.3330 l
0.7151 0.3398 l
0.7235 0.3468 l
0.7319 0.3540 l
0.7405 0.3614 l
0.7491 0.3689 l
0.7579 0.3767 l
0.7667 0.3846 l
0.7756 0.3928 l
0.7845 0.4011 l
0.7936 0.4097 l
0.8028 0.4185 l
0.8120 0.4275 l
0.8213 0.4367 l
0.8307 0.4461 l
0.8402 0.4558 l
0.8498 0.4657 l
0.8595 0.4758 l
0.8692 0.4862 l
0.8791 0.4968 l
0.8890 0.5077 l
0.8991 0.5188 l
0.9092 0.5301 l
0.9194 0.5417 l
0.9297 0.5536 l
0.9401 0.5658 l
0.9506 0.5782 l
0.9612 0.5908 l
0.9718 0.6038 l
0.9826 0.6170 l
0.9935 0.6306 l
1.0044 0.6444 l
1.0155 0.6585 l
1.0266 0.6729 l
1.0379 0.6876 l
1.0492 0.7026 l
1.0606 0.7179 l
1.0722 0.7335 l
1.0838 0.7495 l
1.0955 0.7657 l
1.1073 0.7823 l
1.1192 0.7993 l
1.1312 0.8166 l
1.1434 0.8342 l
1.1501 0.8441 l
s
[/DeviceRGB] SCS
Color1 SC
[] 0 SD
0.0045 SLW
n
0.1500 0.1500 m
1.1500 0.1500 l
s
n
0.1500 0.8500 m
1.1500 0.8500 l
s
n
0.2500 0.1500 m
0.2500 0.1600 l
s
n
0.2500 0.8500 m
0.2500 0.8400 l
s
n
0.4500 0.1500 m
0.4500 0.1600 l
s
n
0.4500 0.8500 m
0.4500 0.8400 l
s
n
0.6500 0.1500 m
0.6500 0.1600 l
s
n
0.6500 0.8500 m
0.6500 0.8400 l
s
n
0.8500 0.1500 m
0.8500 0.1600 l
s
n
0.8500 0.8500 m
0.8500 0.8400 l
s
n
1.0500 0.1500 m
1.0500 0.1600 l
s
n
1.0500 0.8500 m
1.0500 0.8400 l
s
n
0.1500 0.1500 m
0.1500 0.1700 l
s
n
0.1500 0.8500 m
0.1500 0.8300 l
s
n
0.3500 0.1500 m
0.3500 0.1700 l
s
n
0.3500 0.8500 m
0.3500 0.8300 l
s
n
0.5500 0.1500 m
0.5500 0.1700 l
s
n
0.5500 0.8500 m
0.5500 0.8300 l
s
n
0.7500 0.1500 m
0.7500 0.1700 l
s
n
0.7500 0.8500 m
0.7500 0.8300 l
s
n
0.9500 0.1500 m
0.9500 0.1700 l
s
n
0.9500 0.8500 m
0.9500 0.8300 l
s
n
1.1500 0.1500 m
1.1500 0.1700 l
s
n
1.1500 0.8500 m
1.1500 0.8300 l
s
/Times-Roman findfont
dup length dict begin
 {1 index /FID ne {def} {pop pop} ifelse} forall
 /Encoding DefEncoding def
 currentdict
end
/Font0 exch definefont pop
/Font0 FFSF
0.1394 0.1094 m
GS
[0.0448 0.0000 0.0000 0.0448 0 0] CC
(0) show
GR
/Font0 FFSF
0.3225 0.1094 m
GS
[0.0448 0.0000 0.0000 0.0448 0 0] CC
(0.2) show
GR
/Font0 FFSF
0.5225 0.1094 m
GS
[0.0448 0.0000 0.0000 0.0448 0 0] CC
(0.4) show
GR
/Font0 FFSF
0.7227 0.1094 m
GS
[0.0448 0.0000 0.0000 0.0448 0 0] CC
(0.6) show
GR
/Font0 FFSF
0.9231 0.1094 m
GS
[0.0448 0.0000 0.0000 0.0448 0 0] CC
(0.8) show
GR
/Font0 FFSF
1.1412 0.1094 m
GS
[0.0448 0.0000 0.0000 0.0448 0 0] CC
(1) show
GR
/Symbol findfont
/Font12 exch definefont pop
/Font12 FFSF
0.5722 0.0445 m
GS
[0.0504 0.0000 0.0000 0.0504 0 0] CC
(r) show
GR
/Font0 FFSF
0.6000 0.0445 m
GS
[0.0504 0.0000 0.0000 0.0504 0 0] CC
( [fm) show
GR
/Font0 FFSF
0.6855 0.0747 m
GS
[0.0356 0.0000 0.0000 0.0356 0 0] CC
(-3) show
GR
/Font0 FFSF
0.7153 0.0445 m
GS
[0.0504 0.0000 0.0000 0.0504 0 0] CC
(]) show
GR
n
0.1500 0.1500 m
0.1500 0.8500 l
s
n
1.1500 0.1500 m
1.1500 0.8500 l
s
n
0.1500 0.2667 m
0.1600 0.2667 l
s
n
1.1500 0.2667 m
1.1400 0.2667 l
s
n
0.1500 0.3963 m
0.1600 0.3963 l
s
n
1.1500 0.3963 m
1.1400 0.3963 l
s
n
0.1500 0.5259 m
0.1600 0.5259 l
s
n
1.1500 0.5259 m
1.1400 0.5259 l
s
n
0.1500 0.6556 m
0.1600 0.6556 l
s
n
1.1500 0.6556 m
1.1400 0.6556 l
s
n
0.1500 0.7852 m
0.1600 0.7852 l
s
n
1.1500 0.7852 m
1.1400 0.7852 l
s
n
0.1500 0.2019 m
0.1700 0.2019 l
s
n
1.1500 0.2019 m
1.1300 0.2019 l
s
n
0.1500 0.3315 m
0.1700 0.3315 l
s
n
1.1500 0.3315 m
1.1300 0.3315 l
s
n
0.1500 0.4611 m
0.1700 0.4611 l
s
n
1.1500 0.4611 m
1.1300 0.4611 l
s
n
0.1500 0.5907 m
0.1700 0.5907 l
s
n
1.1500 0.5907 m
1.1300 0.5907 l
s
n
0.1500 0.7204 m
0.1700 0.7204 l
s
n
1.1500 0.7204 m
1.1300 0.7204 l
s
n
0.1500 0.8500 m
0.1700 0.8500 l
s
n
1.1500 0.8500 m
1.1300 0.8500 l
s
/Font0 FFSF
0.1188 0.1869 m
GS
[0.0448 0.0000 0.0000 0.0448 0 0] CC
(0) show
GR
/Font0 FFSF
0.0965 0.3164 m
GS
[0.0448 0.0000 0.0000 0.0448 0 0] CC
(50) show
GR
/Font0 FFSF
0.0741 0.4462 m
GS
[0.0448 0.0000 0.0000 0.0448 0 0] CC
(100) show
GR
/Font0 FFSF
0.0741 0.5756 m
GS
[0.0448 0.0000 0.0000 0.0448 0 0] CC
(150) show
GR
/Font0 FFSF
0.0741 0.7055 m
GS
[0.0448 0.0000 0.0000 0.0448 0 0] CC
(200) show
GR
/Font0 FFSF
0.0741 0.8349 m
GS
[0.0448 0.0000 0.0000 0.0448 0 0] CC
(250) show
GR
/Font0 FFSF
0.0563 0.3867 m
GS
[0.0000 0.0504 -0.0504 0.0000 0 0] CC
(E/A [MeV]) show
GR
[] 0 SD
0.0015 SLW
n
0.1500 0.1500 m
0.1500 0.8500 l
1.1500 0.8500 l
1.1500 0.1500 l
0.1500 0.1500 l
c
s
n
0.1500 0.8500 m
0.1500 0.5276 l
0.4048 0.5276 l
0.4048 0.8500 l
c
[/DeviceRGB] SCS
Color0 SC
fill
[/DeviceRGB] SCS
Color1 SC
[] 0 SD
0.0045 SLW
n
0.1500 0.8500 m
0.1500 0.5276 l
0.4048 0.5276 l
0.4048 0.8500 l
0.1500 0.8500 l
c
s
/Font0 FFSF
0.2219 0.8063 m
GS
[0.0498 0.0000 0.0000 0.0498 0 0] CC
(BBG) show
GR
n
0.1734 0.8142 m
0.1734 0.8312 l
0.1904 0.8312 l
0.1904 0.8142 l
c
GS
Color0 SRGB
fill
GR
[/Pattern /DeviceRGB] SCS
Color1 Pattern8 SC
fill
[/DeviceRGB] SCS
Color1 SC
[] 0 SD
0.0030 SLW
n
0.1734 0.8142 m
0.1734 0.8312 l
0.1904 0.8312 l
0.1904 0.8142 l
0.1734 0.8142 l
c
s
/Font0 FFSF
0.2219 0.7618 m
GS
[0.0498 0.0000 0.0000 0.0498 0 0] CC
(M3Y-P2) show
GR
[] 0 SD
0.0037 SLW
n
0.1619 0.7782 m
0.2019 0.7782 l
s
/Font0 FFSF
0.2219 0.7173 m
GS
[0.0498 0.0000 0.0000 0.0498 0 0] CC
(M3Y-P3) show
GR
[/DeviceRGB] SCS
Color2 SC
n
0.1619 0.7337 m
0.2019 0.7337 l
s
/Font0 FFSF
[/DeviceRGB] SCS
Color1 SC
0.2219 0.6727 m
GS
[0.0498 0.0000 0.0000 0.0498 0 0] CC
(M3Y-P4) show
GR
[/DeviceRGB] SCS
Color4 SC
n
0.1619 0.6892 m
0.2019 0.6892 l
s
/Font0 FFSF
[/DeviceRGB] SCS
Color1 SC
0.2219 0.6278 m
GS
[0.0498 0.0000 0.0000 0.0498 0 0] CC
(M3Y-P5) show
GR
[/DeviceRGB] SCS
Color11 SC
n
0.1619 0.6445 m
0.2019 0.6445 l
s
/Font0 FFSF
[/DeviceRGB] SCS
Color1 SC
0.2219 0.5829 m
GS
[0.0498 0.0000 0.0000 0.0498 0 0] CC
(M3Y-P6) show
GR
[/DeviceRGB] SCS
Color3 SC
n
0.1619 0.5996 m
0.2019 0.5996 l
s
/Font0 FFSF
[/DeviceRGB] SCS
Color1 SC
0.2219 0.5384 m
GS
[0.0498 0.0000 0.0000 0.0498 0 0] CC
(M3Y-P7) show
GR
[/DeviceRGB] SCS
Color8 SC
n
0.1619 0.5549 m
0.2019 0.5549 l
s
[/DeviceRGB] SCS
Color1 SC
[] 0 SD
0.0015 SLW
n
0.3752 0.8497 m
0.3725 0.8458 l
s
/Font0 FFSF
0.6000 0.7500 m
GS
[0.0862 0.0000 0.0000 0.0862 0 0] CC
(a\)) show
GR
showpage
%%PageTrailer
%%Trailer
%%DocumentNeededResources: font Times-Roman
%%+ font Symbol
%%EOF
