%!PS-Adobe-3.0
%%BoundingBox: 0 0 612 792
%%LanguageLevel: 2
%%Creator: Grace-5.1.25
%%CreationDate: Sun Nov  1 14:30:44 2015
%%DocumentData: Clean8Bit
%%Orientation: Landscape
%%Pages: 1
%%PageOrder: Ascend
%%Title: /Users/ap1450/Dropbox/physics_reports_lr/ST_channel_finite_range/Vers0/plots/EsurApnm_gogny.agr
%%For: ap1450
%%DocumentNeededResources: (atend)
%%EndComments
%%BeginProlog
/PAGE_OFFSET_X 0 def
/PAGE_OFFSET_Y 0 def
/m {moveto} def
/l {lineto} def
/s {stroke} def
/n {newpath} def
/c {closepath} def
/RL {rlineto} def
/SLW {setlinewidth} def
/GS {gsave} def
/GR {grestore} def
/SC {setcolor} def
/SGRY {setgray} def
/SRGB {setrgbcolor} def
/SD {setdash} def
/SLC {setlinecap} def
/SLJ {setlinejoin} def
/SCS {setcolorspace} def
/FFSF {findfont setfont} def
/CC {concat} def
/PXL {n m 0 0 RL s} def
/Color0 {1.0000 1.0000 1.0000} def
/Color1 {0.0000 0.0000 0.0000} def
/Color2 {1.0000 0.0000 0.0000} def
/Color3 {0.0000 1.0000 0.0000} def
/Color4 {0.0000 0.0000 1.0000} def
/Color5 {1.0000 1.0000 0.0000} def
/Color6 {0.7373 0.5608 0.5608} def
/Color7 {0.8627 0.8627 0.8627} def
/Color8 {0.5804 0.0000 0.8275} def
/Color9 {0.0000 1.0000 1.0000} def
/Color10 {1.0000 0.0000 1.0000} def
/Color11 {1.0000 0.6471 0.0000} def
/Color12 {0.4471 0.1294 0.7373} def
/Color13 {0.4039 0.0275 0.2824} def
/Color14 {0.2510 0.8784 0.8157} def
/Color15 {0.0000 0.5451 0.0000} def
/Color16 {0.7529 0.7529 0.7529} def
/Color17 {0.5059 0.5059 0.5059} def
/Color18 {0.2588 0.2588 0.2588} def
/PTRN {
 /pat_bits exch def 
 <<
  /PaintType 2
  /PatternType 1 /TilingType 1
  /BBox[0 0 16 16]
  /XStep 16 /YStep 16
  /PaintProc {
   pop
   16 16 true [-1 0 0 -1 16 16] pat_bits imagemask
  }
 >>
 [0.0016 0 0 0.0016 0 0]
 makepattern
} def
/Pattern0 {<0000000000000000000000000000000000000000000000000000000000000000> PTRN} bind def
/Pattern1 {<ffffffffffffffffffffffffffffffffffffffffffffffffffffffffffffffff> PTRN} bind def
/Pattern2 {<eeeeffffbbbbffffeeeeffffbbbbffffeeeeffffbbbbffffeeeeffffbbbbffff> PTRN} bind def
/Pattern3 {<eeeebbbbeeeebbbbeeeebbbbeeeebbbbeeeebbbbeeeebbbbeeeebbbbeeeebbbb> PTRN} bind def
/Pattern4 {<5555aaaa5555aaaa5555aaaa5555aaaa5555aaaa5555aaaa5555aaaa5555aaaa> PTRN} bind def
/Pattern5 {<1111444411114444111144441111444411114444111144441111444411114444> PTRN} bind def
/Pattern6 {<1111000044440000111100004444000011110000444400001111000044440000> PTRN} bind def
/Pattern7 {<1010000000000000010100000000000010100000000000000101000000000000> PTRN} bind def
/Pattern8 {<0000000000000000000000000000000000000000000000000000000000000000> PTRN} bind def
/Pattern9 {<1e1e0f0f8787c3c3e1e1f0f078783c3c1e1e0f0f8787c3c3e1e1f0f078783c3c> PTRN} bind def
/Pattern10 {<7878f0f0e1e1c3c387870f0f1e1e3c3c7878f0f0e1e1c3c387870f0f1e1e3c3c> PTRN} bind def
/Pattern11 {<3333333333333333333333333333333333333333333333333333333333333333> PTRN} bind def
/Pattern12 {<ffffffff00000000ffffffff00000000ffffffff00000000ffffffff00000000> PTRN} bind def
/Pattern13 {<8181424224241818181824244242818181814242242418181818242442428181> PTRN} bind def
/Pattern14 {<8080404020201010080804040202010180804040202010100808040402020101> PTRN} bind def
/Pattern15 {<0101020204040808101020204040808001010202040408081010202040408080> PTRN} bind def
/Pattern16 {<2222222222222222222222222222222222222222222222222222222222222222> PTRN} bind def
/Pattern17 {<0000ffff000000000000ffff000000000000ffff000000000000ffff00000000> PTRN} bind def
/Pattern18 {<2222ffff222222222222ffff222222222222ffff222222222222ffff22222222> PTRN} bind def
/Pattern19 {<ffffffff33333333ffffffff33333333ffffffff33333333ffffffff33333333> PTRN} bind def
/Pattern20 {<0f0f0f0f0f0f0f0ff0f0f0f0f0f0f0f00f0f0f0f0f0f0f0ff0f0f0f0f0f0f0f0> PTRN} bind def
/Pattern21 {<ff00ff00ff00ff00ff00ff00ff00ff0000ff00ff00ff00ff00ff00ff00ff00ff> PTRN} bind def
/Pattern22 {<8001800180018001800180018001ffffffff8001800180018001800180018001> PTRN} bind def
/Pattern23 {<c003c003c003c003c003c003ffffffffffffffffc003c003c003c003c003c003> PTRN} bind def
/Pattern24 {<040404040404ffff404040404040ffff040404040404ffff404040404040ffff> PTRN} bind def
/Pattern25 {<180018001800180018001800ffffffff001800180018001800180018ffffffff> PTRN} bind def
/Pattern26 {<1111b8b87c7c3a3a1111a3a3c7c78b8b1111b8b87c7c3a3a1111a3a3c7c78b8b> PTRN} bind def
/Pattern27 {<101010102828c7c70101010182827c7c101010102828c7c70101010182827c7c> PTRN} bind def
/Pattern28 {<1c1c121211112121c1c12121111112121c1c121211112121c1c1212111111212> PTRN} bind def
/Pattern29 {<3e3e414180808080e3e31414080808083e3e414180808080e3e3141408080808> PTRN} bind def
/Pattern30 {<4848888884848383848488884848383848488888848483838484888848483838> PTRN} bind def
/Pattern31 {<03030404080808080c0c12122121c0c003030404080808080c0c12122121c0c0> PTRN} bind def
/ellipsedict 8 dict def
ellipsedict /mtrx matrix put
/EARC {
 ellipsedict begin
  /endangle exch def
  /startangle exch def
  /yrad exch def
  /xrad exch def
  /y exch def
  /x exch def
  /savematrix mtrx currentmatrix def
  x y translate
  xrad yrad scale
  0 0 1 startangle endangle arc
  savematrix setmatrix
 end
} def
/TL {
  /kcomp exch def
  /linewidth exch def
  /offset exch def
  GS
  0 offset rmoveto
  linewidth SLW
  dup stringwidth exch kcomp add exch RL s
  GR
} def
/KINIT
{
 /kvector exch def
 /kid 0 def
} def
/KPROC
{
 pop pop
 kvector kid get
 0 rmoveto
 /kid 1 kid add def
} def
/DefEncoding [
 /.notdef
 /.notdef
 /.notdef
 /.notdef
 /.notdef
 /.notdef
 /.notdef
 /.notdef
 /.notdef
 /.notdef
 /.notdef
 /.notdef
 /.notdef
 /.notdef
 /.notdef
 /.notdef
 /.notdef
 /.notdef
 /.notdef
 /.notdef
 /.notdef
 /.notdef
 /.notdef
 /.notdef
 /.notdef
 /.notdef
 /.notdef
 /.notdef
 /.notdef
 /.notdef
 /.notdef
 /.notdef
 /space
 /exclam
 /quotedbl
 /numbersign
 /dollar
 /percent
 /ampersand
 /quoteright
 /parenleft
 /parenright
 /asterisk
 /plus
 /comma
 /hyphen
 /period
 /slash
 /zero
 /one
 /two
 /three
 /four
 /five
 /six
 /seven
 /eight
 /nine
 /colon
 /semicolon
 /less
 /equal
 /greater
 /question
 /at
 /A
 /B
 /C
 /D
 /E
 /F
 /G
 /H
 /I
 /J
 /K
 /L
 /M
 /N
 /O
 /P
 /Q
 /R
 /S
 /T
 /U
 /V
 /W
 /X
 /Y
 /Z
 /bracketleft
 /backslash
 /bracketright
 /asciicircum
 /underscore
 /grave
 /a
 /b
 /c
 /d
 /e
 /f
 /g
 /h
 /i
 /j
 /k
 /l
 /m
 /n
 /o
 /p
 /q
 /r
 /s
 /t
 /u
 /v
 /w
 /x
 /y
 /z
 /braceleft
 /bar
 /braceright
 /asciitilde
 /.notdef
 /.notdef
 /.notdef
 /.notdef
 /.notdef
 /.notdef
 /.notdef
 /.notdef
 /.notdef
 /.notdef
 /.notdef
 /.notdef
 /.notdef
 /.notdef
 /.notdef
 /.notdef
 /.notdef
 /.notdef
 /.notdef
 /.notdef
 /.notdef
 /.notdef
 /.notdef
 /.notdef
 /.notdef
 /.notdef
 /.notdef
 /.notdef
 /.notdef
 /.notdef
 /.notdef
 /.notdef
 /.notdef
 /space
 /exclamdown
 /cent
 /sterling
 /currency
 /yen
 /brokenbar
 /section
 /dieresis
 /copyright
 /ordfeminine
 /guillemotleft
 /logicalnot
 /hyphen
 /registered
 /macron
 /degree
 /plusminus
 /twosuperior
 /threesuperior
 /acute
 /mu
 /paragraph
 /periodcentered
 /cedilla
 /onesuperior
 /ordmasculine
 /guillemotright
 /onequarter
 /onehalf
 /threequarters
 /questiondown
 /Agrave
 /Aacute
 /Acircumflex
 /Atilde
 /Adieresis
 /Aring
 /AE
 /Ccedilla
 /Egrave
 /Eacute
 /Ecircumflex
 /Edieresis
 /Igrave
 /Iacute
 /Icircumflex
 /Idieresis
 /Eth
 /Ntilde
 /Ograve
 /Oacute
 /Ocircumflex
 /Otilde
 /Odieresis
 /multiply
 /Oslash
 /Ugrave
 /Uacute
 /Ucircumflex
 /Udieresis
 /Yacute
 /Thorn
 /germandbls
 /agrave
 /aacute
 /acircumflex
 /atilde
 /adieresis
 /aring
 /ae
 /ccedilla
 /egrave
 /eacute
 /ecircumflex
 /edieresis
 /igrave
 /iacute
 /icircumflex
 /idieresis
 /eth
 /ntilde
 /ograve
 /oacute
 /ocircumflex
 /otilde
 /odieresis
 /divide
 /oslash
 /ugrave
 /uacute
 /ucircumflex
 /udieresis
 /yacute
 /thorn
 /ydieresis
] def
%%EndProlog
%%BeginSetup
%%EndSetup
%%Page: 1 1
PAGE_OFFSET_X PAGE_OFFSET_Y translate
612.00 612.00 scale
90 rotate
0.0 -1.0 translate
[/DeviceRGB] SCS
Color1 SC
[] 0 SD
0.0045 SLW
0 SLC
0 SLJ
n
0.1502 0.1499 m
0.1502 0.1500 l
0.1502 0.1502 l
0.1503 0.1503 l
0.1503 0.1505 l
0.1504 0.1506 l
0.1505 0.1508 l
0.1505 0.1510 l
0.1506 0.1513 l
0.1507 0.1515 l
0.1508 0.1517 l
0.1509 0.1520 l
0.1511 0.1523 l
0.1512 0.1525 l
0.1513 0.1528 l
0.1515 0.1532 l
0.1516 0.1535 l
0.1518 0.1538 l
0.1520 0.1542 l
0.1522 0.1546 l
0.1524 0.1550 l
0.1527 0.1554 l
0.1529 0.1558 l
0.1532 0.1562 l
0.1534 0.1567 l
0.1537 0.1571 l
0.1540 0.1576 l
0.1543 0.1581 l
0.1547 0.1586 l
0.1550 0.1592 l
0.1554 0.1597 l
0.1558 0.1603 l
0.1562 0.1609 l
0.1566 0.1615 l
0.1570 0.1621 l
0.1575 0.1627 l
0.1579 0.1634 l
0.1584 0.1640 l
0.1590 0.1647 l
0.1595 0.1654 l
0.1601 0.1661 l
0.1606 0.1669 l
0.1612 0.1676 l
0.1619 0.1684 l
0.1625 0.1692 l
0.1632 0.1700 l
0.1639 0.1708 l
0.1646 0.1716 l
0.1653 0.1725 l
0.1661 0.1733 l
0.1669 0.1742 l
0.1677 0.1751 l
0.1686 0.1760 l
0.1694 0.1769 l
0.1703 0.1779 l
0.1712 0.1788 l
0.1722 0.1798 l
0.1732 0.1808 l
0.1742 0.1818 l
0.1752 0.1828 l
0.1763 0.1838 l
0.1774 0.1848 l
0.1785 0.1859 l
0.1797 0.1870 l
0.1808 0.1880 l
0.1821 0.1891 l
0.1833 0.1903 l
0.1846 0.1914 l
0.1859 0.1925 l
0.1872 0.1937 l
0.1886 0.1948 l
0.1900 0.1960 l
0.1915 0.1972 l
0.1930 0.1984 l
0.1945 0.1996 l
0.1960 0.2008 l
0.1976 0.2020 l
0.1992 0.2032 l
0.2009 0.2045 l
0.2026 0.2057 l
0.2043 0.2070 l
0.2061 0.2082 l
0.2079 0.2095 l
0.2098 0.2108 l
0.2116 0.2121 l
0.2136 0.2134 l
0.2155 0.2147 l
0.2175 0.2160 l
0.2196 0.2173 l
0.2217 0.2186 l
0.2238 0.2199 l
0.2260 0.2213 l
0.2282 0.2226 l
0.2305 0.2239 l
0.2327 0.2253 l
0.2351 0.2266 l
0.2375 0.2279 l
0.2399 0.2293 l
0.2424 0.2306 l
0.2449 0.2320 l
0.2475 0.2333 l
0.2501 0.2346 l
0.2527 0.2360 l
0.2554 0.2373 l
0.2582 0.2386 l
0.2610 0.2400 l
0.2638 0.2413 l
0.2667 0.2426 l
0.2697 0.2439 l
0.2727 0.2452 l
0.2757 0.2465 l
0.2788 0.2478 l
0.2819 0.2491 l
0.2851 0.2504 l
0.2884 0.2516 l
0.2917 0.2529 l
0.2950 0.2541 l
0.2984 0.2553 l
0.3019 0.2566 l
0.3054 0.2578 l
0.3089 0.2589 l
0.3125 0.2601 l
0.3162 0.2613 l
0.3199 0.2624 l
0.3237 0.2635 l
0.3275 0.2646 l
0.3314 0.2657 l
0.3354 0.2668 l
0.3394 0.2678 l
0.3434 0.2689 l
0.3475 0.2699 l
0.3517 0.2708 l
0.3559 0.2718 l
0.3602 0.2727 l
0.3646 0.2736 l
0.3690 0.2745 l
0.3734 0.2753 l
0.3780 0.2761 l
0.3826 0.2769 l
0.3872 0.2777 l
0.3919 0.2784 l
0.3967 0.2791 l
0.4015 0.2798 l
0.4064 0.2804 l
0.4114 0.2810 l
0.4164 0.2815 l
0.4215 0.2820 l
0.4267 0.2825 l
0.4319 0.2829 l
0.4372 0.2833 l
0.4425 0.2836 l
0.4479 0.2839 l
0.4534 0.2842 l
0.4590 0.2844 l
0.4646 0.2846 l
0.4703 0.2847 l
0.4760 0.2848 l
0.4819 0.2848 l
0.4878 0.2847 l
0.4937 0.2847 l
0.4997 0.2845 l
0.5058 0.2843 l
0.5120 0.2841 l
0.5183 0.2838 l
0.5246 0.2834 l
0.5310 0.2830 l
0.5374 0.2825 l
0.5439 0.2819 l
0.5505 0.2813 l
0.5572 0.2806 l
0.5640 0.2799 l
0.5708 0.2791 l
0.5777 0.2782 l
0.5847 0.2772 l
0.5917 0.2762 l
0.5988 0.2751 l
0.6060 0.2739 l
0.6133 0.2727 l
0.6207 0.2713 l
0.6281 0.2699 l
0.6356 0.2685 l
0.6432 0.2669 l
0.6509 0.2652 l
0.6586 0.2635 l
0.6664 0.2617 l
0.6743 0.2598 l
0.6823 0.2578 l
0.6904 0.2557 l
0.6985 0.2535 l
0.7068 0.2513 l
0.7151 0.2489 l
0.7235 0.2464 l
0.7319 0.2439 l
0.7405 0.2412 l
0.7491 0.2385 l
0.7579 0.2356 l
0.7667 0.2327 l
0.7756 0.2296 l
0.7845 0.2264 l
0.7936 0.2231 l
0.8028 0.2197 l
0.8120 0.2162 l
0.8213 0.2126 l
0.8307 0.2089 l
0.8402 0.2050 l
0.8498 0.2011 l
0.8595 0.1970 l
0.8692 0.1928 l
0.8791 0.1885 l
0.8890 0.1840 l
0.8991 0.1794 l
0.9092 0.1747 l
0.9194 0.1699 l
0.9297 0.1649 l
0.9401 0.1598 l
0.9506 0.1546 l
0.9598 0.1499 l
s
[] 0 SD
0.0037 SLW
n 0.2300 0.1731 0.0100 0.0100 0 360 EARC s
n 0.3100 0.1946 0.0100 0.0100 0 360 EARC s
n 0.3500 0.2080 0.0100 0.0100 0 360 EARC s
n 0.4500 0.2490 0.0100 0.0100 0 360 EARC s
n 0.5500 0.3041 0.0100 0.0100 0 360 EARC s
n 0.6500 0.3766 0.0100 0.0100 0 360 EARC s
n 0.7500 0.4645 0.0100 0.0100 0 360 EARC s
n 0.8500 0.5638 0.0100 0.0100 0 360 EARC s
n 0.9500 0.6703 0.0100 0.0100 0 360 EARC s
n 1.0500 0.7819 0.0100 0.0100 0 360 EARC s
[] 0 SD
0.0045 SLW
n
0.1500 0.1500 m
1.1500 0.1500 l
s
n
0.1500 0.8500 m
1.1500 0.8500 l
s
n
0.2500 0.1500 m
0.2500 0.1600 l
s
n
0.2500 0.8500 m
0.2500 0.8400 l
s
n
0.4500 0.1500 m
0.4500 0.1600 l
s
n
0.4500 0.8500 m
0.4500 0.8400 l
s
n
0.6500 0.1500 m
0.6500 0.1600 l
s
n
0.6500 0.8500 m
0.6500 0.8400 l
s
n
0.8500 0.1500 m
0.8500 0.1600 l
s
n
0.8500 0.8500 m
0.8500 0.8400 l
s
n
1.0500 0.1500 m
1.0500 0.1600 l
s
n
1.0500 0.8500 m
1.0500 0.8400 l
s
n
0.1500 0.1500 m
0.1500 0.1700 l
s
n
0.1500 0.8500 m
0.1500 0.8300 l
s
n
0.3500 0.1500 m
0.3500 0.1700 l
s
n
0.3500 0.8500 m
0.3500 0.8300 l
s
n
0.5500 0.1500 m
0.5500 0.1700 l
s
n
0.5500 0.8500 m
0.5500 0.8300 l
s
n
0.7500 0.1500 m
0.7500 0.1700 l
s
n
0.7500 0.8500 m
0.7500 0.8300 l
s
n
0.9500 0.1500 m
0.9500 0.1700 l
s
n
0.9500 0.8500 m
0.9500 0.8300 l
s
n
1.1500 0.1500 m
1.1500 0.1700 l
s
n
1.1500 0.8500 m
1.1500 0.8300 l
s
/Times-Roman findfont
dup length dict begin
 {1 index /FID ne {def} {pop pop} ifelse} forall
 /Encoding DefEncoding def
 currentdict
end
/Font0 exch definefont pop
/Font0 FFSF
0.1394 0.1094 m
GS
[0.0448 0.0000 0.0000 0.0448 0 0] CC
(0) show
GR
/Font0 FFSF
0.3225 0.1094 m
GS
[0.0448 0.0000 0.0000 0.0448 0 0] CC
(0.2) show
GR
/Font0 FFSF
0.5225 0.1094 m
GS
[0.0448 0.0000 0.0000 0.0448 0 0] CC
(0.4) show
GR
/Font0 FFSF
0.7227 0.1094 m
GS
[0.0448 0.0000 0.0000 0.0448 0 0] CC
(0.6) show
GR
/Font0 FFSF
0.9231 0.1094 m
GS
[0.0448 0.0000 0.0000 0.0448 0 0] CC
(0.8) show
GR
/Font0 FFSF
1.1412 0.1094 m
GS
[0.0448 0.0000 0.0000 0.0448 0 0] CC
(1) show
GR
/Symbol findfont
/Font12 exch definefont pop
/Font12 FFSF
0.5722 0.0445 m
GS
[0.0504 0.0000 0.0000 0.0504 0 0] CC
(r) show
GR
/Font0 FFSF
0.6000 0.0445 m
GS
[0.0504 0.0000 0.0000 0.0504 0 0] CC
( [fm) show
GR
/Font0 FFSF
0.6855 0.0747 m
GS
[0.0356 0.0000 0.0000 0.0356 0 0] CC
(-3) show
GR
/Font0 FFSF
0.7153 0.0445 m
GS
[0.0504 0.0000 0.0000 0.0504 0 0] CC
(]) show
GR
n
0.1500 0.1500 m
0.1500 0.8500 l
s
n
1.1500 0.1500 m
1.1500 0.8500 l
s
n
0.1500 0.2192 m
0.1600 0.2192 l
s
n
1.1500 0.2192 m
1.1400 0.2192 l
s
n
0.1500 0.3594 m
0.1600 0.3594 l
s
n
1.1500 0.3594 m
1.1400 0.3594 l
s
n
0.1500 0.4996 m
0.1600 0.4996 l
s
n
1.1500 0.4996 m
1.1400 0.4996 l
s
n
0.1500 0.6397 m
0.1600 0.6397 l
s
n
1.1500 0.6397 m
1.1400 0.6397 l
s
n
0.1500 0.7799 m
0.1600 0.7799 l
s
n
1.1500 0.7799 m
1.1400 0.7799 l
s
n
0.1500 0.2893 m
0.1700 0.2893 l
s
n
1.1500 0.2893 m
1.1300 0.2893 l
s
n
0.1500 0.4295 m
0.1700 0.4295 l
s
n
1.1500 0.4295 m
1.1300 0.4295 l
s
n
0.1500 0.5697 m
0.1700 0.5697 l
s
n
1.1500 0.5697 m
1.1300 0.5697 l
s
n
0.1500 0.7098 m
0.1700 0.7098 l
s
n
1.1500 0.7098 m
1.1300 0.7098 l
s
n
0.1500 0.8500 m
0.1700 0.8500 l
s
n
1.1500 0.8500 m
1.1300 0.8500 l
s
/Font0 FFSF
0.0965 0.2742 m
GS
[0.0448 0.0000 0.0000 0.0448 0 0] CC
(50) show
GR
/Font0 FFSF
0.0741 0.4146 m
GS
[0.0448 0.0000 0.0000 0.0448 0 0] CC
(100) show
GR
/Font0 FFSF
0.0741 0.5546 m
GS
[0.0448 0.0000 0.0000 0.0448 0 0] CC
(150) show
GR
/Font0 FFSF
0.0741 0.6949 m
GS
[0.0448 0.0000 0.0000 0.0448 0 0] CC
(200) show
GR
/Font0 FFSF
0.0741 0.8349 m
GS
[0.0448 0.0000 0.0000 0.0448 0 0] CC
(250) show
GR
/Font0 FFSF
0.0563 0.3867 m
GS
[0.0000 0.0504 -0.0504 0.0000 0 0] CC
(E/N [MeV]) show
GR
[] 0 SD
0.0015 SLW
n
0.1500 0.1500 m
0.1500 0.8500 l
1.1500 0.8500 l
1.1500 0.1500 l
0.1500 0.1500 l
c
s
n
0.1500 0.8500 m
0.1500 0.7955 l
0.3173 0.7955 l
0.3173 0.8500 l
c
[/DeviceRGB] SCS
Color0 SC
fill
[/DeviceRGB] SCS
Color1 SC
[] 0 SD
0.0045 SLW
n
0.1500 0.8500 m
0.1500 0.7955 l
0.3173 0.7955 l
0.3173 0.8500 l
0.1500 0.8500 l
c
s
/Font0 FFSF
0.2223 0.8063 m
GS
[0.0498 0.0000 0.0000 0.0498 0 0] CC
(D1S) show
GR
n
0.1623 0.8227 m
0.2023 0.8227 l
s
[] 0 SD
0.0015 SLW
n
0.3752 0.8497 m
0.3725 0.8458 l
s
/Font0 FFSF
0.4069 0.7623 m
GS
[0.0764 0.0000 0.0000 0.0764 0 0] CC
(b\)) show
GR
showpage
%%PageTrailer
%%Trailer
%%DocumentNeededResources: font Times-Roman
%%+ font Symbol
%%EOF
