%!PS-Adobe-3.0
%%BoundingBox: 0 0 612 792
%%LanguageLevel: 2
%%Creator: Grace-5.1.25
%%CreationDate: Sun Nov  1 13:53:31 2015
%%DocumentData: Clean8Bit
%%Orientation: Landscape
%%Pages: 1
%%PageOrder: Ascend
%%Title: /Users/ap1450/Dropbox/physics_reports_lr/ST_channel_finite_range/Vers0/plots/EsurApnm.agr
%%For: ap1450
%%DocumentNeededResources: (atend)
%%EndComments
%%BeginProlog
/PAGE_OFFSET_X 0 def
/PAGE_OFFSET_Y 0 def
/m {moveto} def
/l {lineto} def
/s {stroke} def
/n {newpath} def
/c {closepath} def
/RL {rlineto} def
/SLW {setlinewidth} def
/GS {gsave} def
/GR {grestore} def
/SC {setcolor} def
/SGRY {setgray} def
/SRGB {setrgbcolor} def
/SD {setdash} def
/SLC {setlinecap} def
/SLJ {setlinejoin} def
/SCS {setcolorspace} def
/FFSF {findfont setfont} def
/CC {concat} def
/PXL {n m 0 0 RL s} def
/Color0 {1.0000 1.0000 1.0000} def
/Color1 {0.0000 0.0000 0.0000} def
/Color2 {1.0000 0.0000 0.0000} def
/Color3 {0.0000 1.0000 0.0000} def
/Color4 {0.0000 0.0000 1.0000} def
/Color5 {1.0000 1.0000 0.0000} def
/Color6 {0.7373 0.5608 0.5608} def
/Color7 {0.8627 0.8627 0.8627} def
/Color8 {0.5804 0.0000 0.8275} def
/Color9 {0.0000 1.0000 1.0000} def
/Color10 {1.0000 0.0000 1.0000} def
/Color11 {1.0000 0.6471 0.0000} def
/Color12 {0.4471 0.1294 0.7373} def
/Color13 {0.4039 0.0275 0.2824} def
/Color14 {0.2510 0.8784 0.8157} def
/Color15 {0.0000 0.5451 0.0000} def
/Color16 {0.7529 0.7529 0.7529} def
/Color17 {0.5059 0.5059 0.5059} def
/Color18 {0.2588 0.2588 0.2588} def
/PTRN {
 /pat_bits exch def 
 <<
  /PaintType 2
  /PatternType 1 /TilingType 1
  /BBox[0 0 16 16]
  /XStep 16 /YStep 16
  /PaintProc {
   pop
   16 16 true [-1 0 0 -1 16 16] pat_bits imagemask
  }
 >>
 [0.0016 0 0 0.0016 0 0]
 makepattern
} def
/Pattern0 {<0000000000000000000000000000000000000000000000000000000000000000> PTRN} bind def
/Pattern1 {<ffffffffffffffffffffffffffffffffffffffffffffffffffffffffffffffff> PTRN} bind def
/Pattern2 {<eeeeffffbbbbffffeeeeffffbbbbffffeeeeffffbbbbffffeeeeffffbbbbffff> PTRN} bind def
/Pattern3 {<eeeebbbbeeeebbbbeeeebbbbeeeebbbbeeeebbbbeeeebbbbeeeebbbbeeeebbbb> PTRN} bind def
/Pattern4 {<5555aaaa5555aaaa5555aaaa5555aaaa5555aaaa5555aaaa5555aaaa5555aaaa> PTRN} bind def
/Pattern5 {<1111444411114444111144441111444411114444111144441111444411114444> PTRN} bind def
/Pattern6 {<1111000044440000111100004444000011110000444400001111000044440000> PTRN} bind def
/Pattern7 {<1010000000000000010100000000000010100000000000000101000000000000> PTRN} bind def
/Pattern8 {<0000000000000000000000000000000000000000000000000000000000000000> PTRN} bind def
/Pattern9 {<1e1e0f0f8787c3c3e1e1f0f078783c3c1e1e0f0f8787c3c3e1e1f0f078783c3c> PTRN} bind def
/Pattern10 {<7878f0f0e1e1c3c387870f0f1e1e3c3c7878f0f0e1e1c3c387870f0f1e1e3c3c> PTRN} bind def
/Pattern11 {<3333333333333333333333333333333333333333333333333333333333333333> PTRN} bind def
/Pattern12 {<ffffffff00000000ffffffff00000000ffffffff00000000ffffffff00000000> PTRN} bind def
/Pattern13 {<8181424224241818181824244242818181814242242418181818242442428181> PTRN} bind def
/Pattern14 {<8080404020201010080804040202010180804040202010100808040402020101> PTRN} bind def
/Pattern15 {<0101020204040808101020204040808001010202040408081010202040408080> PTRN} bind def
/Pattern16 {<2222222222222222222222222222222222222222222222222222222222222222> PTRN} bind def
/Pattern17 {<0000ffff000000000000ffff000000000000ffff000000000000ffff00000000> PTRN} bind def
/Pattern18 {<2222ffff222222222222ffff222222222222ffff222222222222ffff22222222> PTRN} bind def
/Pattern19 {<ffffffff33333333ffffffff33333333ffffffff33333333ffffffff33333333> PTRN} bind def
/Pattern20 {<0f0f0f0f0f0f0f0ff0f0f0f0f0f0f0f00f0f0f0f0f0f0f0ff0f0f0f0f0f0f0f0> PTRN} bind def
/Pattern21 {<ff00ff00ff00ff00ff00ff00ff00ff0000ff00ff00ff00ff00ff00ff00ff00ff> PTRN} bind def
/Pattern22 {<8001800180018001800180018001ffffffff8001800180018001800180018001> PTRN} bind def
/Pattern23 {<c003c003c003c003c003c003ffffffffffffffffc003c003c003c003c003c003> PTRN} bind def
/Pattern24 {<040404040404ffff404040404040ffff040404040404ffff404040404040ffff> PTRN} bind def
/Pattern25 {<180018001800180018001800ffffffff001800180018001800180018ffffffff> PTRN} bind def
/Pattern26 {<1111b8b87c7c3a3a1111a3a3c7c78b8b1111b8b87c7c3a3a1111a3a3c7c78b8b> PTRN} bind def
/Pattern27 {<101010102828c7c70101010182827c7c101010102828c7c70101010182827c7c> PTRN} bind def
/Pattern28 {<1c1c121211112121c1c12121111112121c1c121211112121c1c1212111111212> PTRN} bind def
/Pattern29 {<3e3e414180808080e3e31414080808083e3e414180808080e3e3141408080808> PTRN} bind def
/Pattern30 {<4848888884848383848488884848383848488888848483838484888848483838> PTRN} bind def
/Pattern31 {<03030404080808080c0c12122121c0c003030404080808080c0c12122121c0c0> PTRN} bind def
/ellipsedict 8 dict def
ellipsedict /mtrx matrix put
/EARC {
 ellipsedict begin
  /endangle exch def
  /startangle exch def
  /yrad exch def
  /xrad exch def
  /y exch def
  /x exch def
  /savematrix mtrx currentmatrix def
  x y translate
  xrad yrad scale
  0 0 1 startangle endangle arc
  savematrix setmatrix
 end
} def
/TL {
  /kcomp exch def
  /linewidth exch def
  /offset exch def
  GS
  0 offset rmoveto
  linewidth SLW
  dup stringwidth exch kcomp add exch RL s
  GR
} def
/KINIT
{
 /kvector exch def
 /kid 0 def
} def
/KPROC
{
 pop pop
 kvector kid get
 0 rmoveto
 /kid 1 kid add def
} def
/DefEncoding [
 /.notdef
 /.notdef
 /.notdef
 /.notdef
 /.notdef
 /.notdef
 /.notdef
 /.notdef
 /.notdef
 /.notdef
 /.notdef
 /.notdef
 /.notdef
 /.notdef
 /.notdef
 /.notdef
 /.notdef
 /.notdef
 /.notdef
 /.notdef
 /.notdef
 /.notdef
 /.notdef
 /.notdef
 /.notdef
 /.notdef
 /.notdef
 /.notdef
 /.notdef
 /.notdef
 /.notdef
 /.notdef
 /space
 /exclam
 /quotedbl
 /numbersign
 /dollar
 /percent
 /ampersand
 /quoteright
 /parenleft
 /parenright
 /asterisk
 /plus
 /comma
 /hyphen
 /period
 /slash
 /zero
 /one
 /two
 /three
 /four
 /five
 /six
 /seven
 /eight
 /nine
 /colon
 /semicolon
 /less
 /equal
 /greater
 /question
 /at
 /A
 /B
 /C
 /D
 /E
 /F
 /G
 /H
 /I
 /J
 /K
 /L
 /M
 /N
 /O
 /P
 /Q
 /R
 /S
 /T
 /U
 /V
 /W
 /X
 /Y
 /Z
 /bracketleft
 /backslash
 /bracketright
 /asciicircum
 /underscore
 /grave
 /a
 /b
 /c
 /d
 /e
 /f
 /g
 /h
 /i
 /j
 /k
 /l
 /m
 /n
 /o
 /p
 /q
 /r
 /s
 /t
 /u
 /v
 /w
 /x
 /y
 /z
 /braceleft
 /bar
 /braceright
 /asciitilde
 /.notdef
 /.notdef
 /.notdef
 /.notdef
 /.notdef
 /.notdef
 /.notdef
 /.notdef
 /.notdef
 /.notdef
 /.notdef
 /.notdef
 /.notdef
 /.notdef
 /.notdef
 /.notdef
 /.notdef
 /.notdef
 /.notdef
 /.notdef
 /.notdef
 /.notdef
 /.notdef
 /.notdef
 /.notdef
 /.notdef
 /.notdef
 /.notdef
 /.notdef
 /.notdef
 /.notdef
 /.notdef
 /.notdef
 /space
 /exclamdown
 /cent
 /sterling
 /currency
 /yen
 /brokenbar
 /section
 /dieresis
 /copyright
 /ordfeminine
 /guillemotleft
 /logicalnot
 /hyphen
 /registered
 /macron
 /degree
 /plusminus
 /twosuperior
 /threesuperior
 /acute
 /mu
 /paragraph
 /periodcentered
 /cedilla
 /onesuperior
 /ordmasculine
 /guillemotright
 /onequarter
 /onehalf
 /threequarters
 /questiondown
 /Agrave
 /Aacute
 /Acircumflex
 /Atilde
 /Adieresis
 /Aring
 /AE
 /Ccedilla
 /Egrave
 /Eacute
 /Ecircumflex
 /Edieresis
 /Igrave
 /Iacute
 /Icircumflex
 /Idieresis
 /Eth
 /Ntilde
 /Ograve
 /Oacute
 /Ocircumflex
 /Otilde
 /Odieresis
 /multiply
 /Oslash
 /Ugrave
 /Uacute
 /Ucircumflex
 /Udieresis
 /Yacute
 /Thorn
 /germandbls
 /agrave
 /aacute
 /acircumflex
 /atilde
 /adieresis
 /aring
 /ae
 /ccedilla
 /egrave
 /eacute
 /ecircumflex
 /edieresis
 /igrave
 /iacute
 /icircumflex
 /idieresis
 /eth
 /ntilde
 /ograve
 /oacute
 /ocircumflex
 /otilde
 /odieresis
 /divide
 /oslash
 /ugrave
 /uacute
 /ucircumflex
 /udieresis
 /yacute
 /thorn
 /ydieresis
] def
%%EndProlog
%%BeginSetup
%%EndSetup
%%Page: 1 1
PAGE_OFFSET_X PAGE_OFFSET_Y translate
612.00 612.00 scale
90 rotate
0.0 -1.0 translate
[/DeviceRGB] SCS
Color1 SC
[] 0 SD
0.0045 SLW
0 SLC
0 SLJ
n
0.1501 0.1499 m
0.1501 0.1500 l
0.1502 0.1501 l
0.1502 0.1502 l
0.1503 0.1504 l
0.1503 0.1505 l
0.1504 0.1507 l
0.1505 0.1508 l
0.1505 0.1510 l
0.1506 0.1512 l
0.1507 0.1513 l
0.1508 0.1515 l
0.1509 0.1517 l
0.1511 0.1519 l
0.1512 0.1521 l
0.1513 0.1523 l
0.1515 0.1525 l
0.1516 0.1527 l
0.1518 0.1529 l
0.1520 0.1531 l
0.1522 0.1533 l
0.1524 0.1536 l
0.1527 0.1538 l
0.1529 0.1540 l
0.1532 0.1543 l
0.1534 0.1545 l
0.1537 0.1548 l
0.1540 0.1550 l
0.1543 0.1553 l
0.1547 0.1555 l
0.1550 0.1558 l
0.1554 0.1560 l
0.1558 0.1563 l
0.1562 0.1566 l
0.1566 0.1569 l
0.1570 0.1571 l
0.1575 0.1574 l
0.1579 0.1577 l
0.1584 0.1580 l
0.1590 0.1583 l
0.1595 0.1585 l
0.1601 0.1588 l
0.1606 0.1591 l
0.1612 0.1594 l
0.1619 0.1597 l
0.1625 0.1600 l
0.1632 0.1603 l
0.1639 0.1606 l
0.1646 0.1609 l
0.1653 0.1613 l
0.1661 0.1616 l
0.1669 0.1619 l
0.1677 0.1622 l
0.1686 0.1625 l
0.1694 0.1628 l
0.1703 0.1632 l
0.1712 0.1635 l
0.1722 0.1638 l
0.1732 0.1642 l
0.1742 0.1645 l
0.1752 0.1648 l
0.1763 0.1652 l
0.1774 0.1655 l
0.1785 0.1658 l
0.1797 0.1662 l
0.1808 0.1665 l
0.1821 0.1669 l
0.1833 0.1672 l
0.1846 0.1676 l
0.1859 0.1680 l
0.1872 0.1683 l
0.1886 0.1687 l
0.1900 0.1691 l
0.1915 0.1694 l
0.1930 0.1698 l
0.1945 0.1702 l
0.1960 0.1705 l
0.1976 0.1709 l
0.1992 0.1713 l
0.2009 0.1717 l
0.2026 0.1721 l
0.2043 0.1725 l
0.2061 0.1729 l
0.2079 0.1733 l
0.2098 0.1737 l
0.2116 0.1741 l
0.2136 0.1745 l
0.2155 0.1749 l
0.2175 0.1753 l
0.2196 0.1758 l
0.2217 0.1762 l
0.2238 0.1766 l
0.2260 0.1771 l
0.2282 0.1775 l
0.2305 0.1780 l
0.2327 0.1784 l
0.2351 0.1789 l
0.2375 0.1793 l
0.2399 0.1798 l
0.2424 0.1803 l
0.2449 0.1807 l
0.2475 0.1812 l
0.2501 0.1817 l
0.2527 0.1822 l
0.2554 0.1827 l
0.2582 0.1832 l
0.2610 0.1837 l
0.2638 0.1842 l
0.2667 0.1847 l
0.2697 0.1853 l
0.2727 0.1858 l
0.2757 0.1863 l
0.2788 0.1869 l
0.2819 0.1874 l
0.2851 0.1880 l
0.2884 0.1886 l
0.2917 0.1892 l
0.2950 0.1897 l
0.2984 0.1903 l
0.3019 0.1909 l
0.3054 0.1916 l
0.3089 0.1922 l
0.3125 0.1928 l
0.3162 0.1934 l
0.3199 0.1941 l
0.3237 0.1947 l
0.3275 0.1954 l
0.3314 0.1961 l
0.3354 0.1968 l
0.3394 0.1975 l
0.3434 0.1982 l
0.3475 0.1989 l
0.3517 0.1996 l
0.3559 0.2003 l
0.3602 0.2011 l
0.3646 0.2018 l
0.3690 0.2026 l
0.3734 0.2034 l
0.3780 0.2042 l
0.3826 0.2050 l
0.3872 0.2058 l
0.3919 0.2066 l
0.3967 0.2075 l
0.4015 0.2083 l
0.4064 0.2092 l
0.4114 0.2101 l
0.4164 0.2110 l
0.4215 0.2119 l
0.4267 0.2128 l
0.4319 0.2137 l
0.4372 0.2147 l
0.4425 0.2156 l
0.4479 0.2166 l
0.4534 0.2176 l
0.4590 0.2186 l
0.4646 0.2196 l
0.4703 0.2207 l
0.4760 0.2217 l
0.4819 0.2228 l
0.4878 0.2239 l
0.4937 0.2250 l
0.4997 0.2261 l
0.5058 0.2273 l
0.5120 0.2284 l
0.5183 0.2296 l
0.5246 0.2308 l
0.5310 0.2320 l
0.5374 0.2333 l
0.5439 0.2345 l
0.5505 0.2358 l
0.5572 0.2371 l
0.5640 0.2384 l
0.5708 0.2397 l
0.5777 0.2411 l
0.5847 0.2424 l
0.5917 0.2438 l
0.5988 0.2452 l
0.6060 0.2467 l
0.6133 0.2481 l
0.6207 0.2496 l
0.6281 0.2511 l
0.6356 0.2526 l
0.6432 0.2542 l
0.6509 0.2557 l
0.6586 0.2573 l
0.6664 0.2590 l
0.6743 0.2606 l
0.6823 0.2623 l
0.6904 0.2640 l
0.6985 0.2657 l
0.7068 0.2674 l
0.7151 0.2692 l
0.7235 0.2710 l
0.7319 0.2728 l
0.7405 0.2746 l
0.7491 0.2765 l
0.7579 0.2784 l
0.7667 0.2803 l
0.7756 0.2823 l
0.7845 0.2843 l
0.7936 0.2863 l
0.8028 0.2883 l
0.8120 0.2904 l
0.8213 0.2925 l
0.8307 0.2946 l
0.8402 0.2968 l
0.8498 0.2990 l
0.8595 0.3012 l
0.8692 0.3035 l
0.8791 0.3057 l
0.8890 0.3081 l
0.8991 0.3104 l
0.9092 0.3128 l
0.9194 0.3152 l
0.9297 0.3176 l
0.9401 0.3201 l
0.9506 0.3226 l
0.9612 0.3252 l
0.9718 0.3278 l
0.9826 0.3304 l
0.9935 0.3330 l
1.0044 0.3357 l
1.0155 0.3385 l
1.0266 0.3412 l
1.0379 0.3440 l
1.0492 0.3468 l
1.0606 0.3497 l
1.0722 0.3526 l
1.0838 0.3556 l
1.0955 0.3586 l
1.1073 0.3616 l
1.1192 0.3647 l
1.1312 0.3678 l
1.1434 0.3709 l
1.1501 0.3727 l
s
[/DeviceRGB] SCS
Color2 SC
[] 0 SD
0.0037 SLW
n
0.1501 0.1499 m
0.1501 0.1500 l
0.1502 0.1501 l
0.1502 0.1503 l
0.1503 0.1504 l
0.1503 0.1506 l
0.1504 0.1507 l
0.1505 0.1509 l
0.1505 0.1510 l
0.1506 0.1512 l
0.1507 0.1514 l
0.1508 0.1516 l
0.1509 0.1518 l
0.1511 0.1520 l
0.1512 0.1522 l
0.1513 0.1524 l
0.1515 0.1526 l
0.1516 0.1529 l
0.1518 0.1531 l
0.1520 0.1533 l
0.1522 0.1536 l
0.1524 0.1538 l
0.1527 0.1540 l
0.1529 0.1543 l
0.1532 0.1545 l
0.1534 0.1548 l
0.1537 0.1551 l
0.1540 0.1553 l
0.1543 0.1556 l
0.1547 0.1559 l
0.1550 0.1562 l
0.1554 0.1564 l
0.1558 0.1567 l
0.1562 0.1570 l
0.1566 0.1573 l
0.1570 0.1576 l
0.1575 0.1579 l
0.1579 0.1582 l
0.1584 0.1585 l
0.1590 0.1588 l
0.1595 0.1591 l
0.1601 0.1594 l
0.1606 0.1597 l
0.1612 0.1600 l
0.1619 0.1603 l
0.1625 0.1607 l
0.1632 0.1610 l
0.1639 0.1613 l
0.1646 0.1616 l
0.1653 0.1619 l
0.1661 0.1622 l
0.1669 0.1626 l
0.1677 0.1629 l
0.1686 0.1632 l
0.1694 0.1635 l
0.1703 0.1639 l
0.1712 0.1642 l
0.1722 0.1645 l
0.1732 0.1648 l
0.1742 0.1652 l
0.1752 0.1655 l
0.1763 0.1658 l
0.1774 0.1662 l
0.1785 0.1665 l
0.1797 0.1668 l
0.1808 0.1672 l
0.1821 0.1675 l
0.1833 0.1678 l
0.1846 0.1681 l
0.1859 0.1685 l
0.1872 0.1688 l
0.1886 0.1691 l
0.1900 0.1695 l
0.1915 0.1698 l
0.1930 0.1701 l
0.1945 0.1705 l
0.1960 0.1708 l
0.1976 0.1712 l
0.1992 0.1715 l
0.2009 0.1718 l
0.2026 0.1722 l
0.2043 0.1725 l
0.2061 0.1728 l
0.2079 0.1732 l
0.2098 0.1735 l
0.2116 0.1739 l
0.2136 0.1742 l
0.2155 0.1746 l
0.2175 0.1749 l
0.2196 0.1753 l
0.2217 0.1756 l
0.2238 0.1760 l
0.2260 0.1764 l
0.2282 0.1767 l
0.2305 0.1771 l
0.2327 0.1775 l
0.2351 0.1778 l
0.2375 0.1782 l
0.2399 0.1786 l
0.2424 0.1790 l
0.2449 0.1794 l
0.2475 0.1798 l
0.2501 0.1802 l
0.2527 0.1806 l
0.2554 0.1810 l
0.2582 0.1814 l
0.2610 0.1818 l
0.2638 0.1822 l
0.2667 0.1827 l
0.2697 0.1831 l
0.2727 0.1836 l
0.2757 0.1840 l
0.2788 0.1845 l
0.2819 0.1850 l
0.2851 0.1855 l
0.2884 0.1860 l
0.2917 0.1865 l
0.2950 0.1870 l
0.2984 0.1875 l
0.3019 0.1881 l
0.3054 0.1886 l
0.3089 0.1892 l
0.3125 0.1898 l
0.3162 0.1904 l
0.3199 0.1910 l
0.3237 0.1916 l
0.3275 0.1923 l
0.3314 0.1929 l
0.3354 0.1936 l
0.3394 0.1943 l
0.3434 0.1950 l
0.3475 0.1957 l
0.3517 0.1965 l
0.3559 0.1972 l
0.3602 0.1980 l
0.3646 0.1988 l
0.3690 0.1996 l
0.3734 0.2005 l
0.3780 0.2014 l
0.3826 0.2023 l
0.3872 0.2032 l
0.3919 0.2041 l
0.3967 0.2051 l
0.4015 0.2061 l
0.4064 0.2071 l
0.4114 0.2082 l
0.4164 0.2093 l
0.4215 0.2104 l
0.4267 0.2116 l
0.4319 0.2128 l
0.4372 0.2140 l
0.4425 0.2152 l
0.4479 0.2165 l
0.4534 0.2178 l
0.4590 0.2192 l
0.4646 0.2206 l
0.4703 0.2220 l
0.4760 0.2235 l
0.4819 0.2250 l
0.4878 0.2266 l
0.4937 0.2282 l
0.4997 0.2298 l
0.5058 0.2315 l
0.5120 0.2332 l
0.5183 0.2350 l
0.5246 0.2369 l
0.5310 0.2388 l
0.5374 0.2407 l
0.5439 0.2427 l
0.5505 0.2447 l
0.5572 0.2468 l
0.5640 0.2490 l
0.5708 0.2512 l
0.5777 0.2534 l
0.5847 0.2558 l
0.5917 0.2582 l
0.5988 0.2606 l
0.6060 0.2631 l
0.6133 0.2657 l
0.6207 0.2684 l
0.6281 0.2711 l
0.6356 0.2739 l
0.6432 0.2767 l
0.6509 0.2796 l
0.6586 0.2826 l
0.6664 0.2857 l
0.6743 0.2889 l
0.6823 0.2921 l
0.6904 0.2954 l
0.6985 0.2988 l
0.7068 0.3023 l
0.7151 0.3059 l
0.7235 0.3095 l
0.7319 0.3133 l
0.7405 0.3171 l
0.7491 0.3210 l
0.7579 0.3251 l
0.7667 0.3292 l
0.7756 0.3334 l
0.7845 0.3377 l
0.7936 0.3421 l
0.8028 0.3466 l
0.8120 0.3513 l
0.8213 0.3560 l
0.8307 0.3608 l
0.8402 0.3658 l
0.8498 0.3708 l
0.8595 0.3760 l
0.8692 0.3813 l
0.8791 0.3867 l
0.8890 0.3923 l
0.8991 0.3979 l
0.9092 0.4037 l
0.9194 0.4096 l
0.9297 0.4157 l
0.9401 0.4219 l
0.9506 0.4282 l
0.9612 0.4346 l
0.9718 0.4412 l
0.9826 0.4479 l
0.9935 0.4548 l
1.0044 0.4618 l
1.0155 0.4690 l
1.0266 0.4763 l
1.0379 0.4838 l
1.0492 0.4914 l
1.0606 0.4992 l
1.0722 0.5071 l
1.0838 0.5152 l
1.0955 0.5235 l
1.1073 0.5320 l
1.1192 0.5406 l
1.1312 0.5494 l
1.1434 0.5583 l
1.1501 0.5634 l
s
[/DeviceRGB] SCS
Color4 SC
n
0.1501 0.1499 m
0.1501 0.1500 l
0.1502 0.1501 l
0.1502 0.1503 l
0.1503 0.1504 l
0.1503 0.1506 l
0.1504 0.1507 l
0.1505 0.1509 l
0.1505 0.1510 l
0.1506 0.1512 l
0.1507 0.1514 l
0.1508 0.1516 l
0.1509 0.1518 l
0.1511 0.1520 l
0.1512 0.1522 l
0.1513 0.1524 l
0.1515 0.1526 l
0.1516 0.1529 l
0.1518 0.1531 l
0.1520 0.1533 l
0.1522 0.1536 l
0.1524 0.1538 l
0.1527 0.1541 l
0.1529 0.1543 l
0.1532 0.1546 l
0.1534 0.1548 l
0.1537 0.1551 l
0.1540 0.1554 l
0.1543 0.1556 l
0.1547 0.1559 l
0.1550 0.1562 l
0.1554 0.1565 l
0.1558 0.1568 l
0.1562 0.1571 l
0.1566 0.1574 l
0.1570 0.1577 l
0.1575 0.1580 l
0.1579 0.1583 l
0.1584 0.1586 l
0.1590 0.1589 l
0.1595 0.1592 l
0.1601 0.1595 l
0.1606 0.1598 l
0.1612 0.1601 l
0.1619 0.1604 l
0.1625 0.1608 l
0.1632 0.1611 l
0.1639 0.1614 l
0.1646 0.1617 l
0.1653 0.1621 l
0.1661 0.1624 l
0.1669 0.1627 l
0.1677 0.1631 l
0.1686 0.1634 l
0.1694 0.1637 l
0.1703 0.1641 l
0.1712 0.1644 l
0.1722 0.1647 l
0.1732 0.1651 l
0.1742 0.1654 l
0.1752 0.1658 l
0.1763 0.1661 l
0.1774 0.1664 l
0.1785 0.1668 l
0.1797 0.1671 l
0.1808 0.1675 l
0.1821 0.1678 l
0.1833 0.1681 l
0.1846 0.1685 l
0.1859 0.1688 l
0.1872 0.1692 l
0.1886 0.1695 l
0.1900 0.1699 l
0.1915 0.1702 l
0.1930 0.1705 l
0.1945 0.1709 l
0.1960 0.1712 l
0.1976 0.1716 l
0.1992 0.1719 l
0.2009 0.1723 l
0.2026 0.1726 l
0.2043 0.1729 l
0.2061 0.1733 l
0.2079 0.1736 l
0.2098 0.1740 l
0.2116 0.1743 l
0.2136 0.1747 l
0.2155 0.1750 l
0.2175 0.1753 l
0.2196 0.1757 l
0.2217 0.1760 l
0.2238 0.1764 l
0.2260 0.1767 l
0.2282 0.1771 l
0.2305 0.1774 l
0.2327 0.1778 l
0.2351 0.1781 l
0.2375 0.1784 l
0.2399 0.1788 l
0.2424 0.1791 l
0.2449 0.1795 l
0.2475 0.1799 l
0.2501 0.1802 l
0.2527 0.1806 l
0.2554 0.1809 l
0.2582 0.1813 l
0.2610 0.1816 l
0.2638 0.1820 l
0.2667 0.1824 l
0.2697 0.1828 l
0.2727 0.1831 l
0.2757 0.1835 l
0.2788 0.1839 l
0.2819 0.1843 l
0.2851 0.1847 l
0.2884 0.1851 l
0.2917 0.1854 l
0.2950 0.1859 l
0.2984 0.1863 l
0.3019 0.1867 l
0.3054 0.1871 l
0.3089 0.1875 l
0.3125 0.1879 l
0.3162 0.1884 l
0.3199 0.1888 l
0.3237 0.1893 l
0.3275 0.1897 l
0.3314 0.1902 l
0.3354 0.1907 l
0.3394 0.1912 l
0.3434 0.1917 l
0.3475 0.1922 l
0.3517 0.1927 l
0.3559 0.1932 l
0.3602 0.1937 l
0.3646 0.1943 l
0.3690 0.1948 l
0.3734 0.1954 l
0.3780 0.1960 l
0.3826 0.1966 l
0.3872 0.1972 l
0.3919 0.1978 l
0.3967 0.1985 l
0.4015 0.1991 l
0.4064 0.1998 l
0.4114 0.2005 l
0.4164 0.2012 l
0.4215 0.2019 l
0.4267 0.2027 l
0.4319 0.2034 l
0.4372 0.2042 l
0.4425 0.2050 l
0.4479 0.2059 l
0.4534 0.2067 l
0.4590 0.2076 l
0.4646 0.2085 l
0.4703 0.2094 l
0.4760 0.2103 l
0.4819 0.2113 l
0.4878 0.2123 l
0.4937 0.2133 l
0.4997 0.2144 l
0.5058 0.2155 l
0.5120 0.2166 l
0.5183 0.2178 l
0.5246 0.2189 l
0.5310 0.2201 l
0.5374 0.2214 l
0.5439 0.2227 l
0.5505 0.2240 l
0.5572 0.2254 l
0.5640 0.2267 l
0.5708 0.2282 l
0.5777 0.2297 l
0.5847 0.2312 l
0.5917 0.2327 l
0.5988 0.2343 l
0.6060 0.2360 l
0.6133 0.2377 l
0.6207 0.2394 l
0.6281 0.2412 l
0.6356 0.2430 l
0.6432 0.2449 l
0.6509 0.2469 l
0.6586 0.2488 l
0.6664 0.2509 l
0.6743 0.2530 l
0.6823 0.2552 l
0.6904 0.2574 l
0.6985 0.2597 l
0.7068 0.2620 l
0.7151 0.2644 l
0.7235 0.2669 l
0.7319 0.2694 l
0.7405 0.2720 l
0.7491 0.2747 l
0.7579 0.2774 l
0.7667 0.2802 l
0.7756 0.2831 l
0.7845 0.2861 l
0.7936 0.2891 l
0.8028 0.2923 l
0.8120 0.2955 l
0.8213 0.2987 l
0.8307 0.3021 l
0.8402 0.3056 l
0.8498 0.3091 l
0.8595 0.3127 l
0.8692 0.3165 l
0.8791 0.3203 l
0.8890 0.3242 l
0.8991 0.3282 l
0.9092 0.3323 l
0.9194 0.3365 l
0.9297 0.3408 l
0.9401 0.3453 l
0.9506 0.3498 l
0.9612 0.3544 l
0.9718 0.3592 l
0.9826 0.3641 l
0.9935 0.3690 l
1.0044 0.3741 l
1.0155 0.3794 l
1.0266 0.3847 l
1.0379 0.3902 l
1.0492 0.3958 l
1.0606 0.4015 l
1.0722 0.4074 l
1.0838 0.4133 l
1.0955 0.4195 l
1.1073 0.4258 l
1.1192 0.4322 l
1.1312 0.4387 l
1.1434 0.4454 l
1.1501 0.4492 l
s
[/DeviceRGB] SCS
Color11 SC
n
0.1501 0.1499 m
0.1501 0.1500 l
0.1502 0.1501 l
0.1502 0.1503 l
0.1503 0.1504 l
0.1503 0.1506 l
0.1504 0.1507 l
0.1505 0.1509 l
0.1505 0.1510 l
0.1506 0.1512 l
0.1507 0.1514 l
0.1508 0.1516 l
0.1509 0.1518 l
0.1511 0.1520 l
0.1512 0.1522 l
0.1513 0.1524 l
0.1515 0.1526 l
0.1516 0.1528 l
0.1518 0.1531 l
0.1520 0.1533 l
0.1522 0.1535 l
0.1524 0.1538 l
0.1527 0.1540 l
0.1529 0.1543 l
0.1532 0.1545 l
0.1534 0.1548 l
0.1537 0.1551 l
0.1540 0.1553 l
0.1543 0.1556 l
0.1547 0.1559 l
0.1550 0.1561 l
0.1554 0.1564 l
0.1558 0.1567 l
0.1562 0.1570 l
0.1566 0.1573 l
0.1570 0.1576 l
0.1575 0.1579 l
0.1579 0.1582 l
0.1584 0.1585 l
0.1590 0.1588 l
0.1595 0.1591 l
0.1601 0.1594 l
0.1606 0.1597 l
0.1612 0.1600 l
0.1619 0.1603 l
0.1625 0.1607 l
0.1632 0.1610 l
0.1639 0.1613 l
0.1646 0.1616 l
0.1653 0.1619 l
0.1661 0.1623 l
0.1669 0.1626 l
0.1677 0.1629 l
0.1686 0.1632 l
0.1694 0.1636 l
0.1703 0.1639 l
0.1712 0.1642 l
0.1722 0.1646 l
0.1732 0.1649 l
0.1742 0.1652 l
0.1752 0.1656 l
0.1763 0.1659 l
0.1774 0.1663 l
0.1785 0.1666 l
0.1797 0.1669 l
0.1808 0.1673 l
0.1821 0.1676 l
0.1833 0.1680 l
0.1846 0.1683 l
0.1859 0.1686 l
0.1872 0.1690 l
0.1886 0.1693 l
0.1900 0.1697 l
0.1915 0.1700 l
0.1930 0.1704 l
0.1945 0.1707 l
0.1960 0.1711 l
0.1976 0.1714 l
0.1992 0.1718 l
0.2009 0.1721 l
0.2026 0.1725 l
0.2043 0.1728 l
0.2061 0.1732 l
0.2079 0.1735 l
0.2098 0.1739 l
0.2116 0.1743 l
0.2136 0.1746 l
0.2155 0.1750 l
0.2175 0.1754 l
0.2196 0.1757 l
0.2217 0.1761 l
0.2238 0.1765 l
0.2260 0.1769 l
0.2282 0.1772 l
0.2305 0.1776 l
0.2327 0.1780 l
0.2351 0.1784 l
0.2375 0.1788 l
0.2399 0.1792 l
0.2424 0.1796 l
0.2449 0.1800 l
0.2475 0.1804 l
0.2501 0.1808 l
0.2527 0.1813 l
0.2554 0.1817 l
0.2582 0.1821 l
0.2610 0.1826 l
0.2638 0.1830 l
0.2667 0.1835 l
0.2697 0.1839 l
0.2727 0.1844 l
0.2757 0.1848 l
0.2788 0.1853 l
0.2819 0.1858 l
0.2851 0.1863 l
0.2884 0.1868 l
0.2917 0.1873 l
0.2950 0.1878 l
0.2984 0.1884 l
0.3019 0.1889 l
0.3054 0.1895 l
0.3089 0.1900 l
0.3125 0.1906 l
0.3162 0.1912 l
0.3199 0.1918 l
0.3237 0.1924 l
0.3275 0.1930 l
0.3314 0.1936 l
0.3354 0.1943 l
0.3394 0.1949 l
0.3434 0.1956 l
0.3475 0.1963 l
0.3517 0.1970 l
0.3559 0.1977 l
0.3602 0.1985 l
0.3646 0.1992 l
0.3690 0.2000 l
0.3734 0.2008 l
0.3780 0.2016 l
0.3826 0.2024 l
0.3872 0.2033 l
0.3919 0.2042 l
0.3967 0.2051 l
0.4015 0.2060 l
0.4064 0.2069 l
0.4114 0.2079 l
0.4164 0.2088 l
0.4215 0.2098 l
0.4267 0.2109 l
0.4319 0.2119 l
0.4372 0.2130 l
0.4425 0.2141 l
0.4479 0.2152 l
0.4534 0.2164 l
0.4590 0.2176 l
0.4646 0.2188 l
0.4703 0.2201 l
0.4760 0.2213 l
0.4819 0.2227 l
0.4878 0.2240 l
0.4937 0.2254 l
0.4997 0.2268 l
0.5058 0.2282 l
0.5120 0.2297 l
0.5183 0.2312 l
0.5246 0.2328 l
0.5310 0.2344 l
0.5374 0.2360 l
0.5439 0.2377 l
0.5505 0.2394 l
0.5572 0.2411 l
0.5640 0.2429 l
0.5708 0.2448 l
0.5777 0.2466 l
0.5847 0.2486 l
0.5917 0.2505 l
0.5988 0.2526 l
0.6060 0.2546 l
0.6133 0.2567 l
0.6207 0.2589 l
0.6281 0.2611 l
0.6356 0.2634 l
0.6432 0.2657 l
0.6509 0.2681 l
0.6586 0.2705 l
0.6664 0.2730 l
0.6743 0.2755 l
0.6823 0.2781 l
0.6904 0.2807 l
0.6985 0.2835 l
0.7068 0.2862 l
0.7151 0.2891 l
0.7235 0.2920 l
0.7319 0.2949 l
0.7405 0.2980 l
0.7491 0.3011 l
0.7579 0.3042 l
0.7667 0.3075 l
0.7756 0.3108 l
0.7845 0.3141 l
0.7936 0.3176 l
0.8028 0.3211 l
0.8120 0.3247 l
0.8213 0.3284 l
0.8307 0.3321 l
0.8402 0.3360 l
0.8498 0.3399 l
0.8595 0.3439 l
0.8692 0.3479 l
0.8791 0.3521 l
0.8890 0.3563 l
0.8991 0.3607 l
0.9092 0.3651 l
0.9194 0.3696 l
0.9297 0.3742 l
0.9401 0.3789 l
0.9506 0.3837 l
0.9612 0.3886 l
0.9718 0.3936 l
0.9826 0.3987 l
0.9935 0.4038 l
1.0044 0.4091 l
1.0155 0.4145 l
1.0266 0.4200 l
1.0379 0.4256 l
1.0492 0.4313 l
1.0606 0.4371 l
1.0722 0.4431 l
1.0838 0.4491 l
1.0955 0.4553 l
1.1073 0.4616 l
1.1192 0.4680 l
1.1312 0.4745 l
1.1434 0.4811 l
1.1501 0.4849 l
s
[/DeviceRGB] SCS
Color1 SC
n 0.2300 0.1731 0.0100 0.0100 0 360 EARC s
n 0.3100 0.1946 0.0100 0.0100 0 360 EARC s
n 0.3500 0.2080 0.0100 0.0100 0 360 EARC s
n 0.4500 0.2490 0.0100 0.0100 0 360 EARC s
n 0.5500 0.3041 0.0100 0.0100 0 360 EARC s
n 0.6500 0.3766 0.0100 0.0100 0 360 EARC s
n 0.7500 0.4645 0.0100 0.0100 0 360 EARC s
n 0.8500 0.5638 0.0100 0.0100 0 360 EARC s
n 0.9500 0.6703 0.0100 0.0100 0 360 EARC s
n 1.0500 0.7819 0.0100 0.0100 0 360 EARC s
[/DeviceRGB] SCS
Color3 SC
n
0.1501 0.1499 m
0.1501 0.1500 l
0.1502 0.1501 l
0.1502 0.1502 l
0.1503 0.1504 l
0.1503 0.1505 l
0.1504 0.1507 l
0.1505 0.1508 l
0.1505 0.1510 l
0.1506 0.1512 l
0.1507 0.1513 l
0.1508 0.1515 l
0.1509 0.1517 l
0.1511 0.1519 l
0.1512 0.1521 l
0.1513 0.1523 l
0.1515 0.1525 l
0.1516 0.1527 l
0.1518 0.1529 l
0.1520 0.1531 l
0.1522 0.1533 l
0.1524 0.1535 l
0.1527 0.1538 l
0.1529 0.1540 l
0.1532 0.1542 l
0.1534 0.1545 l
0.1537 0.1547 l
0.1540 0.1549 l
0.1543 0.1552 l
0.1547 0.1554 l
0.1550 0.1557 l
0.1554 0.1559 l
0.1558 0.1562 l
0.1562 0.1565 l
0.1566 0.1567 l
0.1570 0.1570 l
0.1575 0.1572 l
0.1579 0.1575 l
0.1584 0.1578 l
0.1590 0.1581 l
0.1595 0.1583 l
0.1601 0.1586 l
0.1606 0.1589 l
0.1612 0.1592 l
0.1619 0.1594 l
0.1625 0.1597 l
0.1632 0.1600 l
0.1639 0.1603 l
0.1646 0.1606 l
0.1653 0.1609 l
0.1661 0.1612 l
0.1669 0.1614 l
0.1677 0.1617 l
0.1686 0.1620 l
0.1694 0.1623 l
0.1703 0.1626 l
0.1712 0.1629 l
0.1722 0.1632 l
0.1732 0.1635 l
0.1742 0.1639 l
0.1752 0.1642 l
0.1763 0.1645 l
0.1774 0.1648 l
0.1785 0.1651 l
0.1797 0.1654 l
0.1808 0.1658 l
0.1821 0.1661 l
0.1833 0.1664 l
0.1846 0.1667 l
0.1859 0.1671 l
0.1872 0.1674 l
0.1886 0.1678 l
0.1900 0.1681 l
0.1915 0.1685 l
0.1930 0.1688 l
0.1945 0.1692 l
0.1960 0.1695 l
0.1976 0.1699 l
0.1992 0.1703 l
0.2009 0.1707 l
0.2026 0.1711 l
0.2043 0.1714 l
0.2061 0.1718 l
0.2079 0.1722 l
0.2098 0.1727 l
0.2116 0.1731 l
0.2136 0.1735 l
0.2155 0.1739 l
0.2175 0.1744 l
0.2196 0.1748 l
0.2217 0.1753 l
0.2238 0.1757 l
0.2260 0.1762 l
0.2282 0.1767 l
0.2305 0.1772 l
0.2327 0.1777 l
0.2351 0.1782 l
0.2375 0.1787 l
0.2399 0.1793 l
0.2424 0.1798 l
0.2449 0.1804 l
0.2475 0.1809 l
0.2501 0.1815 l
0.2527 0.1821 l
0.2554 0.1828 l
0.2582 0.1834 l
0.2610 0.1840 l
0.2638 0.1847 l
0.2667 0.1854 l
0.2697 0.1861 l
0.2727 0.1868 l
0.2757 0.1875 l
0.2788 0.1883 l
0.2819 0.1890 l
0.2851 0.1898 l
0.2884 0.1906 l
0.2917 0.1914 l
0.2950 0.1923 l
0.2984 0.1932 l
0.3019 0.1941 l
0.3054 0.1950 l
0.3089 0.1959 l
0.3125 0.1969 l
0.3162 0.1979 l
0.3199 0.1989 l
0.3237 0.1999 l
0.3275 0.2010 l
0.3314 0.2021 l
0.3354 0.2032 l
0.3394 0.2044 l
0.3434 0.2056 l
0.3475 0.2068 l
0.3517 0.2081 l
0.3559 0.2094 l
0.3602 0.2107 l
0.3646 0.2120 l
0.3690 0.2134 l
0.3734 0.2149 l
0.3780 0.2163 l
0.3826 0.2178 l
0.3872 0.2194 l
0.3919 0.2209 l
0.3967 0.2226 l
0.4015 0.2242 l
0.4064 0.2259 l
0.4114 0.2277 l
0.4164 0.2295 l
0.4215 0.2313 l
0.4267 0.2332 l
0.4319 0.2352 l
0.4372 0.2371 l
0.4425 0.2392 l
0.4479 0.2413 l
0.4534 0.2434 l
0.4590 0.2456 l
0.4646 0.2478 l
0.4703 0.2501 l
0.4760 0.2525 l
0.4819 0.2549 l
0.4878 0.2574 l
0.4937 0.2599 l
0.4997 0.2625 l
0.5058 0.2652 l
0.5120 0.2679 l
0.5183 0.2707 l
0.5246 0.2735 l
0.5310 0.2764 l
0.5374 0.2794 l
0.5439 0.2825 l
0.5505 0.2856 l
0.5572 0.2888 l
0.5640 0.2921 l
0.5708 0.2954 l
0.5777 0.2988 l
0.5847 0.3023 l
0.5917 0.3059 l
0.5988 0.3096 l
0.6060 0.3133 l
0.6133 0.3172 l
0.6207 0.3211 l
0.6281 0.3251 l
0.6356 0.3292 l
0.6432 0.3333 l
0.6509 0.3376 l
0.6586 0.3420 l
0.6664 0.3464 l
0.6743 0.3510 l
0.6823 0.3556 l
0.6904 0.3604 l
0.6985 0.3652 l
0.7068 0.3702 l
0.7151 0.3752 l
0.7235 0.3804 l
0.7319 0.3857 l
0.7405 0.3911 l
0.7491 0.3966 l
0.7579 0.4022 l
0.7667 0.4079 l
0.7756 0.4137 l
0.7845 0.4197 l
0.7936 0.4258 l
0.8028 0.4320 l
0.8120 0.4383 l
0.8213 0.4447 l
0.8307 0.4513 l
0.8402 0.4580 l
0.8498 0.4649 l
0.8595 0.4718 l
0.8692 0.4790 l
0.8791 0.4862 l
0.8890 0.4936 l
0.8991 0.5011 l
0.9092 0.5088 l
0.9194 0.5166 l
0.9297 0.5246 l
0.9401 0.5327 l
0.9506 0.5410 l
0.9612 0.5494 l
0.9718 0.5580 l
0.9826 0.5668 l
0.9935 0.5757 l
1.0044 0.5848 l
1.0155 0.5940 l
1.0266 0.6035 l
1.0379 0.6130 l
1.0492 0.6228 l
1.0606 0.6327 l
1.0722 0.6429 l
1.0838 0.6532 l
1.0955 0.6637 l
1.1073 0.6743 l
1.1192 0.6852 l
1.1312 0.6963 l
1.1434 0.7075 l
1.1501 0.7138 l
s
[/DeviceRGB] SCS
Color8 SC
n
0.1501 0.1499 m
0.1501 0.1500 l
0.1502 0.1501 l
0.1502 0.1502 l
0.1503 0.1504 l
0.1503 0.1505 l
0.1504 0.1507 l
0.1505 0.1508 l
0.1505 0.1510 l
0.1506 0.1511 l
0.1507 0.1513 l
0.1508 0.1515 l
0.1509 0.1517 l
0.1511 0.1518 l
0.1512 0.1520 l
0.1513 0.1522 l
0.1515 0.1524 l
0.1516 0.1526 l
0.1518 0.1528 l
0.1520 0.1530 l
0.1522 0.1532 l
0.1524 0.1534 l
0.1527 0.1537 l
0.1529 0.1539 l
0.1532 0.1541 l
0.1534 0.1543 l
0.1537 0.1546 l
0.1540 0.1548 l
0.1543 0.1550 l
0.1547 0.1553 l
0.1550 0.1555 l
0.1554 0.1557 l
0.1558 0.1560 l
0.1562 0.1562 l
0.1566 0.1565 l
0.1570 0.1567 l
0.1575 0.1570 l
0.1579 0.1572 l
0.1584 0.1575 l
0.1590 0.1577 l
0.1595 0.1580 l
0.1601 0.1582 l
0.1606 0.1585 l
0.1612 0.1587 l
0.1619 0.1590 l
0.1625 0.1592 l
0.1632 0.1595 l
0.1639 0.1597 l
0.1646 0.1600 l
0.1653 0.1603 l
0.1661 0.1605 l
0.1669 0.1608 l
0.1677 0.1611 l
0.1686 0.1613 l
0.1694 0.1616 l
0.1703 0.1619 l
0.1712 0.1621 l
0.1722 0.1624 l
0.1732 0.1627 l
0.1742 0.1629 l
0.1752 0.1632 l
0.1763 0.1635 l
0.1774 0.1638 l
0.1785 0.1640 l
0.1797 0.1643 l
0.1808 0.1646 l
0.1821 0.1649 l
0.1833 0.1652 l
0.1846 0.1655 l
0.1859 0.1658 l
0.1872 0.1661 l
0.1886 0.1664 l
0.1900 0.1667 l
0.1915 0.1670 l
0.1930 0.1673 l
0.1945 0.1676 l
0.1960 0.1679 l
0.1976 0.1683 l
0.1992 0.1686 l
0.2009 0.1689 l
0.2026 0.1693 l
0.2043 0.1696 l
0.2061 0.1700 l
0.2079 0.1704 l
0.2098 0.1707 l
0.2116 0.1711 l
0.2136 0.1715 l
0.2155 0.1719 l
0.2175 0.1723 l
0.2196 0.1727 l
0.2217 0.1732 l
0.2238 0.1736 l
0.2260 0.1741 l
0.2282 0.1745 l
0.2305 0.1750 l
0.2327 0.1755 l
0.2351 0.1760 l
0.2375 0.1765 l
0.2399 0.1770 l
0.2424 0.1776 l
0.2449 0.1781 l
0.2475 0.1787 l
0.2501 0.1793 l
0.2527 0.1799 l
0.2554 0.1806 l
0.2582 0.1812 l
0.2610 0.1819 l
0.2638 0.1826 l
0.2667 0.1833 l
0.2697 0.1840 l
0.2727 0.1848 l
0.2757 0.1856 l
0.2788 0.1864 l
0.2819 0.1872 l
0.2851 0.1881 l
0.2884 0.1890 l
0.2917 0.1899 l
0.2950 0.1909 l
0.2984 0.1918 l
0.3019 0.1929 l
0.3054 0.1939 l
0.3089 0.1950 l
0.3125 0.1961 l
0.3162 0.1972 l
0.3199 0.1984 l
0.3237 0.1997 l
0.3275 0.2009 l
0.3314 0.2022 l
0.3354 0.2036 l
0.3394 0.2050 l
0.3434 0.2064 l
0.3475 0.2079 l
0.3517 0.2094 l
0.3559 0.2110 l
0.3602 0.2126 l
0.3646 0.2143 l
0.3690 0.2160 l
0.3734 0.2178 l
0.3780 0.2196 l
0.3826 0.2215 l
0.3872 0.2235 l
0.3919 0.2255 l
0.3967 0.2275 l
0.4015 0.2297 l
0.4064 0.2319 l
0.4114 0.2341 l
0.4164 0.2365 l
0.4215 0.2389 l
0.4267 0.2413 l
0.4319 0.2439 l
0.4372 0.2465 l
0.4425 0.2492 l
0.4479 0.2519 l
0.4534 0.2548 l
0.4590 0.2577 l
0.4646 0.2607 l
0.4703 0.2638 l
0.4760 0.2670 l
0.4819 0.2703 l
0.4878 0.2737 l
0.4937 0.2771 l
0.4997 0.2807 l
0.5058 0.2843 l
0.5120 0.2881 l
0.5183 0.2919 l
0.5246 0.2959 l
0.5310 0.2999 l
0.5374 0.3041 l
0.5439 0.3084 l
0.5505 0.3128 l
0.5572 0.3173 l
0.5640 0.3219 l
0.5708 0.3266 l
0.5777 0.3315 l
0.5847 0.3365 l
0.5917 0.3416 l
0.5988 0.3468 l
0.6060 0.3522 l
0.6133 0.3577 l
0.6207 0.3634 l
0.6281 0.3692 l
0.6356 0.3751 l
0.6432 0.3812 l
0.6509 0.3874 l
0.6586 0.3938 l
0.6664 0.4003 l
0.6743 0.4070 l
0.6823 0.4138 l
0.6904 0.4209 l
0.6985 0.4280 l
0.7068 0.4354 l
0.7151 0.4429 l
0.7235 0.4506 l
0.7319 0.4585 l
0.7405 0.4665 l
0.7491 0.4748 l
0.7579 0.4832 l
0.7667 0.4918 l
0.7756 0.5006 l
0.7845 0.5097 l
0.7936 0.5189 l
0.8028 0.5283 l
0.8120 0.5379 l
0.8213 0.5478 l
0.8307 0.5578 l
0.8402 0.5681 l
0.8498 0.5786 l
0.8595 0.5893 l
0.8692 0.6003 l
0.8791 0.6115 l
0.8890 0.6230 l
0.8991 0.6346 l
0.9092 0.6466 l
0.9194 0.6587 l
0.9297 0.6712 l
0.9401 0.6839 l
0.9506 0.6968 l
0.9612 0.7101 l
0.9718 0.7236 l
0.9826 0.7373 l
0.9935 0.7514 l
1.0044 0.7658 l
1.0155 0.7804 l
1.0266 0.7953 l
1.0379 0.8105 l
1.0492 0.8261 l
1.0606 0.8419 l
1.0665 0.8501 l
s
[/DeviceRGB] SCS
Color1 SC
[] 0 SD
0.0045 SLW
n
0.1500 0.1500 m
1.1500 0.1500 l
s
n
0.1500 0.8500 m
1.1500 0.8500 l
s
n
0.2500 0.1500 m
0.2500 0.1600 l
s
n
0.2500 0.8500 m
0.2500 0.8400 l
s
n
0.4500 0.1500 m
0.4500 0.1600 l
s
n
0.4500 0.8500 m
0.4500 0.8400 l
s
n
0.6500 0.1500 m
0.6500 0.1600 l
s
n
0.6500 0.8500 m
0.6500 0.8400 l
s
n
0.8500 0.1500 m
0.8500 0.1600 l
s
n
0.8500 0.8500 m
0.8500 0.8400 l
s
n
1.0500 0.1500 m
1.0500 0.1600 l
s
n
1.0500 0.8500 m
1.0500 0.8400 l
s
n
0.1500 0.1500 m
0.1500 0.1700 l
s
n
0.1500 0.8500 m
0.1500 0.8300 l
s
n
0.3500 0.1500 m
0.3500 0.1700 l
s
n
0.3500 0.8500 m
0.3500 0.8300 l
s
n
0.5500 0.1500 m
0.5500 0.1700 l
s
n
0.5500 0.8500 m
0.5500 0.8300 l
s
n
0.7500 0.1500 m
0.7500 0.1700 l
s
n
0.7500 0.8500 m
0.7500 0.8300 l
s
n
0.9500 0.1500 m
0.9500 0.1700 l
s
n
0.9500 0.8500 m
0.9500 0.8300 l
s
n
1.1500 0.1500 m
1.1500 0.1700 l
s
n
1.1500 0.8500 m
1.1500 0.8300 l
s
/Times-Roman findfont
dup length dict begin
 {1 index /FID ne {def} {pop pop} ifelse} forall
 /Encoding DefEncoding def
 currentdict
end
/Font0 exch definefont pop
/Font0 FFSF
0.1394 0.1094 m
GS
[0.0448 0.0000 0.0000 0.0448 0 0] CC
(0) show
GR
/Font0 FFSF
0.3225 0.1094 m
GS
[0.0448 0.0000 0.0000 0.0448 0 0] CC
(0.2) show
GR
/Font0 FFSF
0.5225 0.1094 m
GS
[0.0448 0.0000 0.0000 0.0448 0 0] CC
(0.4) show
GR
/Font0 FFSF
0.7227 0.1094 m
GS
[0.0448 0.0000 0.0000 0.0448 0 0] CC
(0.6) show
GR
/Font0 FFSF
0.9231 0.1094 m
GS
[0.0448 0.0000 0.0000 0.0448 0 0] CC
(0.8) show
GR
/Font0 FFSF
1.1412 0.1094 m
GS
[0.0448 0.0000 0.0000 0.0448 0 0] CC
(1) show
GR
/Symbol findfont
/Font12 exch definefont pop
/Font12 FFSF
0.5722 0.0445 m
GS
[0.0504 0.0000 0.0000 0.0504 0 0] CC
(r) show
GR
/Font0 FFSF
0.6000 0.0445 m
GS
[0.0504 0.0000 0.0000 0.0504 0 0] CC
( [fm) show
GR
/Font0 FFSF
0.6855 0.0747 m
GS
[0.0356 0.0000 0.0000 0.0356 0 0] CC
(-3) show
GR
/Font0 FFSF
0.7153 0.0445 m
GS
[0.0504 0.0000 0.0000 0.0504 0 0] CC
(]) show
GR
n
0.1500 0.1500 m
0.1500 0.8500 l
s
n
1.1500 0.1500 m
1.1500 0.8500 l
s
n
0.1500 0.2192 m
0.1600 0.2192 l
s
n
1.1500 0.2192 m
1.1400 0.2192 l
s
n
0.1500 0.3594 m
0.1600 0.3594 l
s
n
1.1500 0.3594 m
1.1400 0.3594 l
s
n
0.1500 0.4996 m
0.1600 0.4996 l
s
n
1.1500 0.4996 m
1.1400 0.4996 l
s
n
0.1500 0.6397 m
0.1600 0.6397 l
s
n
1.1500 0.6397 m
1.1400 0.6397 l
s
n
0.1500 0.7799 m
0.1600 0.7799 l
s
n
1.1500 0.7799 m
1.1400 0.7799 l
s
n
0.1500 0.2893 m
0.1700 0.2893 l
s
n
1.1500 0.2893 m
1.1300 0.2893 l
s
n
0.1500 0.4295 m
0.1700 0.4295 l
s
n
1.1500 0.4295 m
1.1300 0.4295 l
s
n
0.1500 0.5697 m
0.1700 0.5697 l
s
n
1.1500 0.5697 m
1.1300 0.5697 l
s
n
0.1500 0.7098 m
0.1700 0.7098 l
s
n
1.1500 0.7098 m
1.1300 0.7098 l
s
n
0.1500 0.8500 m
0.1700 0.8500 l
s
n
1.1500 0.8500 m
1.1300 0.8500 l
s
/Font0 FFSF
0.0965 0.2742 m
GS
[0.0448 0.0000 0.0000 0.0448 0 0] CC
(50) show
GR
/Font0 FFSF
0.0741 0.4146 m
GS
[0.0448 0.0000 0.0000 0.0448 0 0] CC
(100) show
GR
/Font0 FFSF
0.0741 0.5546 m
GS
[0.0448 0.0000 0.0000 0.0448 0 0] CC
(150) show
GR
/Font0 FFSF
0.0741 0.6949 m
GS
[0.0448 0.0000 0.0000 0.0448 0 0] CC
(200) show
GR
/Font0 FFSF
0.0741 0.8349 m
GS
[0.0448 0.0000 0.0000 0.0448 0 0] CC
(250) show
GR
/Font0 FFSF
0.0563 0.3867 m
GS
[0.0000 0.0504 -0.0504 0.0000 0 0] CC
(E/N [MeV]) show
GR
[] 0 SD
0.0015 SLW
n
0.1500 0.1500 m
0.1500 0.8500 l
1.1500 0.8500 l
1.1500 0.1500 l
0.1500 0.1500 l
c
s
n
0.1500 0.8500 m
0.1500 0.5722 l
0.4052 0.5722 l
0.4052 0.8500 l
c
[/DeviceRGB] SCS
Color0 SC
fill
[/DeviceRGB] SCS
Color1 SC
[] 0 SD
0.0045 SLW
n
0.1500 0.8500 m
0.1500 0.5722 l
0.4052 0.5722 l
0.4052 0.8500 l
0.1500 0.8500 l
c
s
/Font0 FFSF
0.2223 0.8063 m
GS
[0.0498 0.0000 0.0000 0.0498 0 0] CC
(M3Y-P2) show
GR
n
0.1623 0.8227 m
0.2023 0.8227 l
s
/Font0 FFSF
0.2223 0.7618 m
GS
[0.0498 0.0000 0.0000 0.0498 0 0] CC
(M3Y-P3) show
GR
[/DeviceRGB] SCS
Color2 SC
[] 0 SD
0.0037 SLW
n
0.1623 0.7782 m
0.2023 0.7782 l
s
/Font0 FFSF
[/DeviceRGB] SCS
Color1 SC
0.2223 0.7173 m
GS
[0.0498 0.0000 0.0000 0.0498 0 0] CC
(M3Y-P4) show
GR
[/DeviceRGB] SCS
Color4 SC
n
0.1623 0.7337 m
0.2023 0.7337 l
s
/Font0 FFSF
[/DeviceRGB] SCS
Color1 SC
0.2223 0.6724 m
GS
[0.0498 0.0000 0.0000 0.0498 0 0] CC
(M3Y-P5) show
GR
[/DeviceRGB] SCS
Color11 SC
n
0.1623 0.6890 m
0.2023 0.6890 l
s
/Font0 FFSF
[/DeviceRGB] SCS
Color1 SC
0.2223 0.6275 m
GS
[0.0498 0.0000 0.0000 0.0498 0 0] CC
(M3Y-P6) show
GR
[/DeviceRGB] SCS
Color3 SC
n
0.1623 0.6441 m
0.2023 0.6441 l
s
/Font0 FFSF
[/DeviceRGB] SCS
Color1 SC
0.2223 0.5829 m
GS
[0.0498 0.0000 0.0000 0.0498 0 0] CC
(M3Y-P7) show
GR
[/DeviceRGB] SCS
Color8 SC
n
0.1623 0.5994 m
0.2023 0.5994 l
s
[/DeviceRGB] SCS
Color1 SC
[] 0 SD
0.0015 SLW
n
0.3752 0.8497 m
0.3725 0.8458 l
s
/Font0 FFSF
0.4877 0.7426 m
GS
[0.0764 0.0000 0.0000 0.0764 0 0] CC
(a\)) show
GR
showpage
%%PageTrailer
%%Trailer
%%DocumentNeededResources: font Times-Roman
%%+ font Symbol
%%EOF
