%!PS-Adobe-3.0
%%BoundingBox: 0 0 612 792
%%LanguageLevel: 2
%%Creator: Grace-5.1.25
%%CreationDate: Sun Nov  1 16:39:59 2015
%%DocumentData: Clean8Bit
%%Orientation: Landscape
%%Pages: 1
%%PageOrder: Ascend
%%Title: Tensor_Sorb_p7.agr
%%For: ap1450
%%DocumentNeededResources: (atend)
%%EndComments
%%BeginProlog
/PAGE_OFFSET_X 0 def
/PAGE_OFFSET_Y 0 def
/m {moveto} def
/l {lineto} def
/s {stroke} def
/n {newpath} def
/c {closepath} def
/RL {rlineto} def
/SLW {setlinewidth} def
/GS {gsave} def
/GR {grestore} def
/SC {setcolor} def
/SGRY {setgray} def
/SRGB {setrgbcolor} def
/SD {setdash} def
/SLC {setlinecap} def
/SLJ {setlinejoin} def
/SCS {setcolorspace} def
/FFSF {findfont setfont} def
/CC {concat} def
/PXL {n m 0 0 RL s} def
/Color0 {1.0000 1.0000 1.0000} def
/Color1 {0.0000 0.0000 0.0000} def
/Color2 {1.0000 0.0000 0.0000} def
/Color3 {0.0000 1.0000 0.0000} def
/Color4 {0.0000 0.0000 1.0000} def
/Color5 {1.0000 1.0000 0.0000} def
/Color6 {0.7373 0.5608 0.5608} def
/Color7 {0.8627 0.8627 0.8627} def
/Color8 {0.5804 0.0000 0.8275} def
/Color9 {0.0000 1.0000 1.0000} def
/Color10 {1.0000 0.0000 1.0000} def
/Color11 {1.0000 0.6471 0.0000} def
/Color12 {0.4471 0.1294 0.7373} def
/Color13 {0.4039 0.0275 0.2824} def
/Color14 {0.2510 0.8784 0.8157} def
/Color15 {0.0000 0.5451 0.0000} def
/Color16 {0.7529 0.7529 0.7529} def
/Color17 {0.5059 0.5059 0.5059} def
/Color18 {0.2588 0.2588 0.2588} def
/PTRN {
 /pat_bits exch def 
 <<
  /PaintType 2
  /PatternType 1 /TilingType 1
  /BBox[0 0 16 16]
  /XStep 16 /YStep 16
  /PaintProc {
   pop
   16 16 true [-1 0 0 -1 16 16] pat_bits imagemask
  }
 >>
 [0.0016 0 0 0.0016 0 0]
 makepattern
} def
/Pattern0 {<0000000000000000000000000000000000000000000000000000000000000000> PTRN} bind def
/Pattern1 {<ffffffffffffffffffffffffffffffffffffffffffffffffffffffffffffffff> PTRN} bind def
/Pattern2 {<eeeeffffbbbbffffeeeeffffbbbbffffeeeeffffbbbbffffeeeeffffbbbbffff> PTRN} bind def
/Pattern3 {<eeeebbbbeeeebbbbeeeebbbbeeeebbbbeeeebbbbeeeebbbbeeeebbbbeeeebbbb> PTRN} bind def
/Pattern4 {<5555aaaa5555aaaa5555aaaa5555aaaa5555aaaa5555aaaa5555aaaa5555aaaa> PTRN} bind def
/Pattern5 {<1111444411114444111144441111444411114444111144441111444411114444> PTRN} bind def
/Pattern6 {<1111000044440000111100004444000011110000444400001111000044440000> PTRN} bind def
/Pattern7 {<1010000000000000010100000000000010100000000000000101000000000000> PTRN} bind def
/Pattern8 {<0000000000000000000000000000000000000000000000000000000000000000> PTRN} bind def
/Pattern9 {<1e1e0f0f8787c3c3e1e1f0f078783c3c1e1e0f0f8787c3c3e1e1f0f078783c3c> PTRN} bind def
/Pattern10 {<7878f0f0e1e1c3c387870f0f1e1e3c3c7878f0f0e1e1c3c387870f0f1e1e3c3c> PTRN} bind def
/Pattern11 {<3333333333333333333333333333333333333333333333333333333333333333> PTRN} bind def
/Pattern12 {<ffffffff00000000ffffffff00000000ffffffff00000000ffffffff00000000> PTRN} bind def
/Pattern13 {<8181424224241818181824244242818181814242242418181818242442428181> PTRN} bind def
/Pattern14 {<8080404020201010080804040202010180804040202010100808040402020101> PTRN} bind def
/Pattern15 {<0101020204040808101020204040808001010202040408081010202040408080> PTRN} bind def
/Pattern16 {<2222222222222222222222222222222222222222222222222222222222222222> PTRN} bind def
/Pattern17 {<0000ffff000000000000ffff000000000000ffff000000000000ffff00000000> PTRN} bind def
/Pattern18 {<2222ffff222222222222ffff222222222222ffff222222222222ffff22222222> PTRN} bind def
/Pattern19 {<ffffffff33333333ffffffff33333333ffffffff33333333ffffffff33333333> PTRN} bind def
/Pattern20 {<0f0f0f0f0f0f0f0ff0f0f0f0f0f0f0f00f0f0f0f0f0f0f0ff0f0f0f0f0f0f0f0> PTRN} bind def
/Pattern21 {<ff00ff00ff00ff00ff00ff00ff00ff0000ff00ff00ff00ff00ff00ff00ff00ff> PTRN} bind def
/Pattern22 {<8001800180018001800180018001ffffffff8001800180018001800180018001> PTRN} bind def
/Pattern23 {<c003c003c003c003c003c003ffffffffffffffffc003c003c003c003c003c003> PTRN} bind def
/Pattern24 {<040404040404ffff404040404040ffff040404040404ffff404040404040ffff> PTRN} bind def
/Pattern25 {<180018001800180018001800ffffffff001800180018001800180018ffffffff> PTRN} bind def
/Pattern26 {<1111b8b87c7c3a3a1111a3a3c7c78b8b1111b8b87c7c3a3a1111a3a3c7c78b8b> PTRN} bind def
/Pattern27 {<101010102828c7c70101010182827c7c101010102828c7c70101010182827c7c> PTRN} bind def
/Pattern28 {<1c1c121211112121c1c12121111112121c1c121211112121c1c1212111111212> PTRN} bind def
/Pattern29 {<3e3e414180808080e3e31414080808083e3e414180808080e3e3141408080808> PTRN} bind def
/Pattern30 {<4848888884848383848488884848383848488888848483838484888848483838> PTRN} bind def
/Pattern31 {<03030404080808080c0c12122121c0c003030404080808080c0c12122121c0c0> PTRN} bind def
/ellipsedict 8 dict def
ellipsedict /mtrx matrix put
/EARC {
 ellipsedict begin
  /endangle exch def
  /startangle exch def
  /yrad exch def
  /xrad exch def
  /y exch def
  /x exch def
  /savematrix mtrx currentmatrix def
  x y translate
  xrad yrad scale
  0 0 1 startangle endangle arc
  savematrix setmatrix
 end
} def
/TL {
  /kcomp exch def
  /linewidth exch def
  /offset exch def
  GS
  0 offset rmoveto
  linewidth SLW
  dup stringwidth exch kcomp add exch RL s
  GR
} def
/KINIT
{
 /kvector exch def
 /kid 0 def
} def
/KPROC
{
 pop pop
 kvector kid get
 0 rmoveto
 /kid 1 kid add def
} def
/DefEncoding [
 /.notdef
 /.notdef
 /.notdef
 /.notdef
 /.notdef
 /.notdef
 /.notdef
 /.notdef
 /.notdef
 /.notdef
 /.notdef
 /.notdef
 /.notdef
 /.notdef
 /.notdef
 /.notdef
 /.notdef
 /.notdef
 /.notdef
 /.notdef
 /.notdef
 /.notdef
 /.notdef
 /.notdef
 /.notdef
 /.notdef
 /.notdef
 /.notdef
 /.notdef
 /.notdef
 /.notdef
 /.notdef
 /space
 /exclam
 /quotedbl
 /numbersign
 /dollar
 /percent
 /ampersand
 /quoteright
 /parenleft
 /parenright
 /asterisk
 /plus
 /comma
 /hyphen
 /period
 /slash
 /zero
 /one
 /two
 /three
 /four
 /five
 /six
 /seven
 /eight
 /nine
 /colon
 /semicolon
 /less
 /equal
 /greater
 /question
 /at
 /A
 /B
 /C
 /D
 /E
 /F
 /G
 /H
 /I
 /J
 /K
 /L
 /M
 /N
 /O
 /P
 /Q
 /R
 /S
 /T
 /U
 /V
 /W
 /X
 /Y
 /Z
 /bracketleft
 /backslash
 /bracketright
 /asciicircum
 /underscore
 /grave
 /a
 /b
 /c
 /d
 /e
 /f
 /g
 /h
 /i
 /j
 /k
 /l
 /m
 /n
 /o
 /p
 /q
 /r
 /s
 /t
 /u
 /v
 /w
 /x
 /y
 /z
 /braceleft
 /bar
 /braceright
 /asciitilde
 /.notdef
 /.notdef
 /.notdef
 /.notdef
 /.notdef
 /.notdef
 /.notdef
 /.notdef
 /.notdef
 /.notdef
 /.notdef
 /.notdef
 /.notdef
 /.notdef
 /.notdef
 /.notdef
 /.notdef
 /.notdef
 /.notdef
 /.notdef
 /.notdef
 /.notdef
 /.notdef
 /.notdef
 /.notdef
 /.notdef
 /.notdef
 /.notdef
 /.notdef
 /.notdef
 /.notdef
 /.notdef
 /.notdef
 /space
 /exclamdown
 /cent
 /sterling
 /currency
 /yen
 /brokenbar
 /section
 /dieresis
 /copyright
 /ordfeminine
 /guillemotleft
 /logicalnot
 /hyphen
 /registered
 /macron
 /degree
 /plusminus
 /twosuperior
 /threesuperior
 /acute
 /mu
 /paragraph
 /periodcentered
 /cedilla
 /onesuperior
 /ordmasculine
 /guillemotright
 /onequarter
 /onehalf
 /threequarters
 /questiondown
 /Agrave
 /Aacute
 /Acircumflex
 /Atilde
 /Adieresis
 /Aring
 /AE
 /Ccedilla
 /Egrave
 /Eacute
 /Ecircumflex
 /Edieresis
 /Igrave
 /Iacute
 /Icircumflex
 /Idieresis
 /Eth
 /Ntilde
 /Ograve
 /Oacute
 /Ocircumflex
 /Otilde
 /Odieresis
 /multiply
 /Oslash
 /Ugrave
 /Uacute
 /Ucircumflex
 /Udieresis
 /Yacute
 /Thorn
 /germandbls
 /agrave
 /aacute
 /acircumflex
 /atilde
 /adieresis
 /aring
 /ae
 /ccedilla
 /egrave
 /eacute
 /ecircumflex
 /edieresis
 /igrave
 /iacute
 /icircumflex
 /idieresis
 /eth
 /ntilde
 /ograve
 /oacute
 /ocircumflex
 /otilde
 /odieresis
 /divide
 /oslash
 /ugrave
 /uacute
 /ucircumflex
 /udieresis
 /yacute
 /thorn
 /ydieresis
] def
%%EndProlog
%%BeginSetup
%%EndSetup
%%Page: 1 1
PAGE_OFFSET_X PAGE_OFFSET_Y translate
612.00 612.00 scale
90 rotate
0.0 -1.0 translate
[/DeviceRGB] SCS
Color1 SC
[] 0 SD
0.0037 SLW
0 SLC
0 SLJ
n
0.1500 0.4682 m
0.1500 0.4682 l
0.1500 0.4682 l
0.1500 0.4682 l
0.1500 0.4682 l
0.1500 0.4682 l
0.1500 0.4682 l
0.1500 0.4682 l
0.1500 0.4682 l
0.1501 0.4682 l
0.1501 0.4682 l
0.1501 0.4682 l
0.1501 0.4682 l
0.1502 0.4682 l
0.1502 0.4682 l
0.1503 0.4682 l
0.1503 0.4682 l
0.1504 0.4682 l
0.1505 0.4682 l
0.1505 0.4682 l
0.1506 0.4682 l
0.1507 0.4682 l
0.1508 0.4682 l
0.1509 0.4682 l
0.1511 0.4682 l
0.1512 0.4682 l
0.1513 0.4682 l
0.1515 0.4682 l
0.1516 0.4682 l
0.1518 0.4682 l
0.1520 0.4682 l
0.1522 0.4682 l
0.1524 0.4682 l
0.1527 0.4682 l
0.1529 0.4682 l
0.1532 0.4682 l
0.1534 0.4682 l
0.1537 0.4682 l
0.1540 0.4683 l
0.1543 0.4683 l
0.1547 0.4683 l
0.1550 0.4683 l
0.1554 0.4683 l
0.1558 0.4683 l
0.1562 0.4683 l
0.1566 0.4683 l
0.1570 0.4684 l
0.1575 0.4684 l
0.1579 0.4684 l
0.1584 0.4684 l
0.1590 0.4684 l
0.1595 0.4684 l
0.1601 0.4685 l
0.1606 0.4685 l
0.1612 0.4685 l
0.1619 0.4686 l
0.1625 0.4686 l
0.1632 0.4686 l
0.1639 0.4687 l
0.1646 0.4687 l
0.1653 0.4687 l
0.1661 0.4688 l
0.1669 0.4688 l
0.1677 0.4689 l
0.1685 0.4689 l
0.1694 0.4689 l
0.1703 0.4690 l
0.1712 0.4691 l
0.1722 0.4691 l
0.1732 0.4692 l
0.1742 0.4692 l
0.1752 0.4693 l
0.1763 0.4694 l
0.1774 0.4694 l
0.1785 0.4695 l
0.1797 0.4696 l
0.1808 0.4697 l
0.1821 0.4697 l
0.1833 0.4698 l
0.1846 0.4699 l
0.1859 0.4700 l
0.1872 0.4701 l
0.1886 0.4702 l
0.1900 0.4703 l
0.1915 0.4704 l
0.1930 0.4705 l
0.1945 0.4706 l
0.1960 0.4707 l
0.1976 0.4709 l
0.1992 0.4710 l
0.2009 0.4711 l
0.2026 0.4712 l
0.2043 0.4714 l
0.2061 0.4715 l
0.2079 0.4717 l
0.2098 0.4718 l
0.2116 0.4720 l
0.2136 0.4721 l
0.2155 0.4723 l
0.2175 0.4724 l
0.2196 0.4726 l
0.2217 0.4728 l
0.2238 0.4730 l
0.2260 0.4732 l
0.2282 0.4733 l
0.2304 0.4735 l
0.2327 0.4737 l
0.2351 0.4739 l
0.2375 0.4741 l
0.2399 0.4744 l
0.2424 0.4746 l
0.2449 0.4748 l
0.2475 0.4750 l
0.2501 0.4753 l
0.2527 0.4755 l
0.2554 0.4758 l
0.2582 0.4760 l
0.2610 0.4763 l
0.2638 0.4765 l
0.2667 0.4768 l
0.2697 0.4771 l
0.2727 0.4773 l
0.2757 0.4776 l
0.2788 0.4779 l
0.2819 0.4782 l
0.2851 0.4785 l
0.2884 0.4788 l
0.2917 0.4791 l
0.2950 0.4795 l
0.2984 0.4798 l
0.3019 0.4801 l
0.3054 0.4805 l
0.3089 0.4808 l
0.3125 0.4812 l
0.3162 0.4815 l
0.3199 0.4819 l
0.3237 0.4823 l
0.3275 0.4827 l
0.3314 0.4830 l
0.3353 0.4834 l
0.3393 0.4838 l
0.3434 0.4842 l
0.3475 0.4847 l
0.3517 0.4851 l
0.3559 0.4855 l
0.3602 0.4859 l
0.3646 0.4864 l
0.3690 0.4868 l
0.3734 0.4873 l
0.3780 0.4877 l
0.3826 0.4882 l
0.3872 0.4887 l
0.3919 0.4892 l
0.3967 0.4897 l
0.4015 0.4902 l
0.4064 0.4907 l
0.4114 0.4912 l
0.4164 0.4917 l
0.4215 0.4923 l
0.4267 0.4928 l
0.4319 0.4933 l
0.4372 0.4939 l
0.4425 0.4945 l
0.4479 0.4950 l
0.4534 0.4956 l
0.4590 0.4962 l
0.4646 0.4968 l
0.4703 0.4974 l
0.4760 0.4980 l
0.4819 0.4986 l
0.4878 0.4993 l
0.4937 0.4999 l
0.4997 0.5005 l
0.5058 0.5012 l
0.5120 0.5018 l
0.5183 0.5025 l
0.5246 0.5032 l
0.5310 0.5039 l
0.5374 0.5046 l
0.5439 0.5053 l
0.5505 0.5060 l
0.5572 0.5067 l
0.5640 0.5074 l
0.5708 0.5082 l
0.5777 0.5089 l
0.5847 0.5097 l
0.5917 0.5105 l
0.5988 0.5112 l
0.6060 0.5120 l
0.6133 0.5128 l
0.6207 0.5136 l
0.6281 0.5144 l
0.6356 0.5152 l
0.6432 0.5161 l
0.6509 0.5169 l
0.6586 0.5178 l
0.6664 0.5186 l
0.6743 0.5195 l
0.6823 0.5204 l
0.6904 0.5212 l
0.6985 0.5221 l
0.7068 0.5230 l
0.7151 0.5240 l
0.7235 0.5249 l
0.7319 0.5258 l
0.7405 0.5268 l
0.7491 0.5277 l
0.7579 0.5287 l
0.7667 0.5296 l
0.7756 0.5306 l
0.7845 0.5316 l
0.7936 0.5326 l
0.8028 0.5336 l
0.8120 0.5347 l
0.8213 0.5357 l
0.8307 0.5367 l
0.8402 0.5378 l
0.8498 0.5388 l
0.8595 0.5399 l
0.8692 0.5410 l
0.8791 0.5421 l
0.8890 0.5432 l
0.8991 0.5443 l
0.9092 0.5454 l
0.9194 0.5466 l
0.9297 0.5477 l
0.9401 0.5489 l
0.9506 0.5500 l
0.9612 0.5512 l
0.9718 0.5524 l
0.9826 0.5536 l
0.9935 0.5548 l
1.0044 0.5560 l
1.0155 0.5573 l
1.0266 0.5585 l
1.0379 0.5597 l
1.0492 0.5610 l
1.0606 0.5623 l
1.0722 0.5636 l
1.0838 0.5649 l
1.0955 0.5662 l
1.1073 0.5675 l
1.1192 0.5688 l
1.1312 0.5701 l
1.1434 0.5715 l
1.1501 0.5722 l
s
[/DeviceRGB] SCS
Color2 SC
n
0.1500 0.4682 m
0.1500 0.4682 l
0.1500 0.4682 l
0.1500 0.4682 l
0.1500 0.4682 l
0.1500 0.4682 l
0.1500 0.4682 l
0.1500 0.4682 l
0.1500 0.4682 l
0.1501 0.4682 l
0.1501 0.4682 l
0.1501 0.4682 l
0.1501 0.4682 l
0.1502 0.4682 l
0.1502 0.4682 l
0.1503 0.4682 l
0.1503 0.4682 l
0.1504 0.4682 l
0.1505 0.4682 l
0.1505 0.4682 l
0.1506 0.4682 l
0.1507 0.4682 l
0.1508 0.4682 l
0.1509 0.4682 l
0.1511 0.4682 l
0.1512 0.4682 l
0.1513 0.4682 l
0.1515 0.4682 l
0.1516 0.4682 l
0.1518 0.4682 l
0.1520 0.4682 l
0.1522 0.4682 l
0.1524 0.4682 l
0.1527 0.4682 l
0.1529 0.4682 l
0.1532 0.4682 l
0.1534 0.4682 l
0.1537 0.4682 l
0.1540 0.4682 l
0.1543 0.4682 l
0.1547 0.4682 l
0.1550 0.4682 l
0.1554 0.4682 l
0.1558 0.4682 l
0.1562 0.4682 l
0.1566 0.4682 l
0.1570 0.4682 l
0.1575 0.4682 l
0.1579 0.4682 l
0.1584 0.4682 l
0.1590 0.4682 l
0.1595 0.4682 l
0.1601 0.4682 l
0.1606 0.4682 l
0.1612 0.4682 l
0.1619 0.4682 l
0.1625 0.4682 l
0.1632 0.4682 l
0.1639 0.4682 l
0.1646 0.4682 l
0.1653 0.4682 l
0.1661 0.4682 l
0.1669 0.4682 l
0.1677 0.4682 l
0.1685 0.4682 l
0.1694 0.4682 l
0.1703 0.4682 l
0.1712 0.4682 l
0.1722 0.4682 l
0.1732 0.4682 l
0.1742 0.4681 l
0.1752 0.4681 l
0.1763 0.4681 l
0.1774 0.4681 l
0.1785 0.4681 l
0.1797 0.4681 l
0.1808 0.4681 l
0.1821 0.4681 l
0.1833 0.4681 l
0.1846 0.4681 l
0.1859 0.4681 l
0.1872 0.4681 l
0.1886 0.4681 l
0.1900 0.4681 l
0.1915 0.4681 l
0.1930 0.4681 l
0.1945 0.4681 l
0.1960 0.4681 l
0.1976 0.4681 l
0.1992 0.4681 l
0.2009 0.4680 l
0.2026 0.4680 l
0.2043 0.4680 l
0.2061 0.4680 l
0.2079 0.4680 l
0.2098 0.4680 l
0.2116 0.4680 l
0.2136 0.4680 l
0.2155 0.4680 l
0.2175 0.4680 l
0.2196 0.4679 l
0.2217 0.4679 l
0.2238 0.4679 l
0.2260 0.4679 l
0.2282 0.4679 l
0.2304 0.4679 l
0.2327 0.4679 l
0.2351 0.4679 l
0.2375 0.4678 l
0.2399 0.4678 l
0.2424 0.4678 l
0.2449 0.4678 l
0.2475 0.4678 l
0.2501 0.4677 l
0.2527 0.4677 l
0.2554 0.4677 l
0.2582 0.4677 l
0.2610 0.4677 l
0.2638 0.4676 l
0.2667 0.4676 l
0.2697 0.4676 l
0.2727 0.4676 l
0.2757 0.4675 l
0.2788 0.4675 l
0.2819 0.4675 l
0.2851 0.4675 l
0.2884 0.4674 l
0.2917 0.4674 l
0.2950 0.4674 l
0.2984 0.4673 l
0.3019 0.4673 l
0.3054 0.4673 l
0.3089 0.4672 l
0.3125 0.4672 l
0.3162 0.4672 l
0.3199 0.4671 l
0.3237 0.4671 l
0.3275 0.4670 l
0.3314 0.4670 l
0.3353 0.4670 l
0.3393 0.4669 l
0.3434 0.4669 l
0.3475 0.4668 l
0.3517 0.4668 l
0.3559 0.4667 l
0.3602 0.4667 l
0.3646 0.4666 l
0.3690 0.4666 l
0.3734 0.4665 l
0.3780 0.4665 l
0.3826 0.4664 l
0.3872 0.4664 l
0.3919 0.4663 l
0.3967 0.4663 l
0.4015 0.4662 l
0.4064 0.4661 l
0.4114 0.4661 l
0.4164 0.4660 l
0.4215 0.4659 l
0.4267 0.4659 l
0.4319 0.4658 l
0.4372 0.4657 l
0.4425 0.4657 l
0.4479 0.4656 l
0.4534 0.4655 l
0.4590 0.4654 l
0.4646 0.4654 l
0.4703 0.4653 l
0.4760 0.4652 l
0.4819 0.4651 l
0.4878 0.4650 l
0.4937 0.4649 l
0.4997 0.4649 l
0.5058 0.4648 l
0.5120 0.4647 l
0.5183 0.4646 l
0.5246 0.4645 l
0.5310 0.4644 l
0.5374 0.4643 l
0.5439 0.4642 l
0.5505 0.4641 l
0.5572 0.4640 l
0.5640 0.4639 l
0.5708 0.4638 l
0.5777 0.4637 l
0.5847 0.4636 l
0.5917 0.4634 l
0.5988 0.4633 l
0.6060 0.4632 l
0.6133 0.4631 l
0.6207 0.4630 l
0.6281 0.4628 l
0.6356 0.4627 l
0.6432 0.4626 l
0.6509 0.4624 l
0.6586 0.4623 l
0.6664 0.4622 l
0.6743 0.4620 l
0.6823 0.4619 l
0.6904 0.4617 l
0.6985 0.4616 l
0.7068 0.4615 l
0.7151 0.4613 l
0.7235 0.4612 l
0.7319 0.4610 l
0.7405 0.4609 l
0.7491 0.4607 l
0.7579 0.4605 l
0.7667 0.4604 l
0.7756 0.4602 l
0.7845 0.4600 l
0.7936 0.4599 l
0.8028 0.4597 l
0.8120 0.4595 l
0.8213 0.4593 l
0.8307 0.4591 l
0.8402 0.4590 l
0.8498 0.4588 l
0.8595 0.4586 l
0.8692 0.4584 l
0.8791 0.4582 l
0.8890 0.4580 l
0.8991 0.4578 l
0.9092 0.4576 l
0.9194 0.4574 l
0.9297 0.4572 l
0.9401 0.4569 l
0.9506 0.4567 l
0.9612 0.4565 l
0.9718 0.4563 l
0.9826 0.4561 l
0.9935 0.4558 l
1.0044 0.4556 l
1.0155 0.4554 l
1.0266 0.4551 l
1.0379 0.4549 l
1.0492 0.4546 l
1.0606 0.4544 l
1.0722 0.4541 l
1.0838 0.4539 l
1.0955 0.4536 l
1.1073 0.4534 l
1.1192 0.4531 l
1.1312 0.4528 l
1.1434 0.4525 l
1.1501 0.4524 l
s
[/DeviceRGB] SCS
Color3 SC
n
0.1500 0.4677 m
0.1500 0.4682 l
0.1500 0.4682 l
0.1500 0.4682 l
0.1500 0.4682 l
0.1500 0.4682 l
0.1500 0.4682 l
0.1500 0.4682 l
0.1500 0.4682 l
0.1501 0.4682 l
0.1501 0.4682 l
0.1501 0.4682 l
0.1501 0.4682 l
0.1502 0.4682 l
0.1502 0.4682 l
0.1503 0.4682 l
0.1503 0.4682 l
0.1504 0.4682 l
0.1505 0.4682 l
0.1505 0.4682 l
0.1506 0.4682 l
0.1507 0.4682 l
0.1508 0.4682 l
0.1509 0.4682 l
0.1511 0.4682 l
0.1512 0.4682 l
0.1513 0.4682 l
0.1515 0.4682 l
0.1516 0.4682 l
0.1518 0.4682 l
0.1520 0.4682 l
0.1522 0.4682 l
0.1524 0.4682 l
0.1527 0.4682 l
0.1529 0.4682 l
0.1532 0.4682 l
0.1534 0.4682 l
0.1537 0.4682 l
0.1540 0.4682 l
0.1543 0.4682 l
0.1547 0.4682 l
0.1550 0.4682 l
0.1554 0.4682 l
0.1558 0.4682 l
0.1562 0.4682 l
0.1566 0.4682 l
0.1570 0.4682 l
0.1575 0.4682 l
0.1579 0.4682 l
0.1584 0.4682 l
0.1590 0.4682 l
0.1595 0.4682 l
0.1601 0.4682 l
0.1606 0.4682 l
0.1612 0.4682 l
0.1619 0.4682 l
0.1625 0.4682 l
0.1632 0.4682 l
0.1639 0.4682 l
0.1646 0.4682 l
0.1653 0.4682 l
0.1661 0.4682 l
0.1669 0.4682 l
0.1677 0.4682 l
0.1685 0.4682 l
0.1694 0.4682 l
0.1703 0.4682 l
0.1712 0.4682 l
0.1722 0.4682 l
0.1732 0.4682 l
0.1742 0.4682 l
0.1752 0.4682 l
0.1763 0.4682 l
0.1774 0.4682 l
0.1785 0.4682 l
0.1797 0.4682 l
0.1808 0.4682 l
0.1821 0.4682 l
0.1833 0.4682 l
0.1846 0.4682 l
0.1859 0.4682 l
0.1872 0.4682 l
0.1886 0.4682 l
0.1900 0.4682 l
0.1915 0.4682 l
0.1930 0.4682 l
0.1945 0.4682 l
0.1960 0.4682 l
0.1976 0.4682 l
0.1992 0.4682 l
0.2009 0.4682 l
0.2026 0.4682 l
0.2043 0.4682 l
0.2061 0.4682 l
0.2079 0.4682 l
0.2098 0.4682 l
0.2116 0.4682 l
0.2136 0.4682 l
0.2155 0.4682 l
0.2175 0.4682 l
0.2196 0.4682 l
0.2217 0.4682 l
0.2238 0.4682 l
0.2260 0.4682 l
0.2282 0.4682 l
0.2304 0.4682 l
0.2327 0.4682 l
0.2351 0.4682 l
0.2375 0.4682 l
0.2399 0.4682 l
0.2424 0.4682 l
0.2449 0.4682 l
0.2475 0.4682 l
0.2501 0.4682 l
0.2527 0.4682 l
0.2554 0.4682 l
0.2582 0.4682 l
0.2610 0.4682 l
0.2638 0.4682 l
0.2667 0.4682 l
0.2697 0.4682 l
0.2727 0.4682 l
0.2757 0.4682 l
0.2788 0.4682 l
0.2819 0.4682 l
0.2851 0.4682 l
0.2884 0.4682 l
0.2917 0.4682 l
0.2950 0.4682 l
0.2984 0.4682 l
0.3019 0.4682 l
0.3054 0.4682 l
0.3089 0.4682 l
0.3125 0.4682 l
0.3162 0.4682 l
0.3199 0.4682 l
0.3237 0.4682 l
0.3275 0.4682 l
0.3314 0.4682 l
0.3353 0.4682 l
0.3393 0.4682 l
0.3434 0.4682 l
0.3475 0.4682 l
0.3517 0.4682 l
0.3559 0.4682 l
0.3602 0.4682 l
0.3646 0.4682 l
0.3690 0.4682 l
0.3734 0.4682 l
0.3780 0.4682 l
0.3826 0.4682 l
0.3872 0.4682 l
0.3919 0.4682 l
0.3967 0.4682 l
0.4015 0.4682 l
0.4064 0.4681 l
0.4114 0.4681 l
0.4164 0.4681 l
0.4215 0.4681 l
0.4267 0.4681 l
0.4319 0.4681 l
0.4372 0.4681 l
0.4425 0.4681 l
0.4479 0.4681 l
0.4534 0.4681 l
0.4590 0.4681 l
0.4646 0.4681 l
0.4703 0.4681 l
0.4760 0.4681 l
0.4819 0.4680 l
0.4878 0.4680 l
0.4937 0.4680 l
0.4997 0.4680 l
0.5058 0.4680 l
0.5120 0.4680 l
0.5183 0.4680 l
0.5246 0.4680 l
0.5310 0.4680 l
0.5374 0.4679 l
0.5439 0.4679 l
0.5505 0.4679 l
0.5572 0.4679 l
0.5640 0.4679 l
0.5708 0.4679 l
0.5777 0.4678 l
0.5847 0.4678 l
0.5917 0.4678 l
0.5988 0.4678 l
0.6060 0.4678 l
0.6133 0.4678 l
0.6207 0.4677 l
0.6281 0.4677 l
0.6356 0.4677 l
0.6432 0.4677 l
0.6509 0.4676 l
0.6586 0.4676 l
0.6664 0.4676 l
0.6743 0.4676 l
0.6823 0.4675 l
0.6904 0.4675 l
0.6985 0.4675 l
0.7068 0.4674 l
0.7151 0.4674 l
0.7235 0.4674 l
0.7319 0.4673 l
0.7405 0.4673 l
0.7491 0.4673 l
0.7579 0.4672 l
0.7667 0.4672 l
0.7756 0.4672 l
0.7845 0.4671 l
0.7936 0.4671 l
0.8028 0.4670 l
0.8120 0.4670 l
0.8213 0.4669 l
0.8307 0.4669 l
0.8402 0.4668 l
0.8498 0.4668 l
0.8595 0.4667 l
0.8692 0.4667 l
0.8791 0.4666 l
0.8890 0.4666 l
0.8991 0.4665 l
0.9092 0.4665 l
0.9194 0.4664 l
0.9297 0.4664 l
0.9401 0.4663 l
0.9506 0.4662 l
0.9612 0.4662 l
0.9718 0.4661 l
0.9826 0.4660 l
0.9935 0.4660 l
1.0044 0.4659 l
1.0155 0.4658 l
1.0266 0.4657 l
1.0379 0.4657 l
1.0492 0.4656 l
1.0606 0.4655 l
1.0722 0.4654 l
1.0838 0.4653 l
1.0955 0.4652 l
1.1073 0.4652 l
1.1192 0.4651 l
1.1312 0.4650 l
1.1434 0.4649 l
1.1501 0.4648 l
s
n
0.1846 0.4745 0.0100 0.0100 0 360 EARC c
[/DeviceRGB] SCS
Color1 SC
fill
[] 0 SD
0.0015 SLW
n 0.1846 0.4745 0.0100 0.0100 0 360 EARC s
n
0.1992 0.4779 0.0100 0.0100 0 360 EARC c
fill
n 0.1992 0.4779 0.0100 0.0100 0 360 EARC s
n
0.2175 0.4824 0.0100 0.0100 0 360 EARC c
fill
n 0.2175 0.4824 0.0100 0.0100 0 360 EARC s
n
0.2399 0.4881 0.0100 0.0100 0 360 EARC c
fill
n 0.2399 0.4881 0.0100 0.0100 0 360 EARC s
n
0.2667 0.4952 0.0100 0.0100 0 360 EARC c
fill
n 0.2667 0.4952 0.0100 0.0100 0 360 EARC s
n
0.2984 0.5040 0.0100 0.0100 0 360 EARC c
fill
n 0.2984 0.5040 0.0100 0.0100 0 360 EARC s
n
0.3354 0.5147 0.0100 0.0100 0 360 EARC c
fill
n 0.3354 0.5147 0.0100 0.0100 0 360 EARC s
n
0.3780 0.5278 0.0100 0.0100 0 360 EARC c
fill
n 0.3780 0.5278 0.0100 0.0100 0 360 EARC s
n
0.4267 0.5438 0.0100 0.0100 0 360 EARC c
fill
n 0.4267 0.5438 0.0100 0.0100 0 360 EARC s
n
0.4819 0.5633 0.0100 0.0100 0 360 EARC c
fill
n 0.4819 0.5633 0.0100 0.0100 0 360 EARC s
n
0.5439 0.5870 0.0100 0.0100 0 360 EARC c
fill
n 0.5439 0.5870 0.0100 0.0100 0 360 EARC s
n
0.6133 0.6158 0.0100 0.0100 0 360 EARC c
fill
n 0.6133 0.6158 0.0100 0.0100 0 360 EARC s
n
0.6904 0.6507 0.0100 0.0100 0 360 EARC c
fill
n 0.6904 0.6507 0.0100 0.0100 0 360 EARC s
n
0.7756 0.6926 0.0100 0.0100 0 360 EARC c
fill
n 0.7756 0.6926 0.0100 0.0100 0 360 EARC s
n
0.8692 0.7428 0.0100 0.0100 0 360 EARC c
fill
n 0.8692 0.7428 0.0100 0.0100 0 360 EARC s
n
0.9718 0.8029 0.0100 0.0100 0 360 EARC c
fill
n 0.9718 0.8029 0.0100 0.0100 0 360 EARC s
n
0.1846 0.4678 0.0100 0.0100 0 360 EARC c
[/DeviceRGB] SCS
Color2 SC
fill
n 0.1846 0.4678 0.0100 0.0100 0 360 EARC s
n
0.1992 0.4675 0.0100 0.0100 0 360 EARC c
fill
n 0.1992 0.4675 0.0100 0.0100 0 360 EARC s
n
0.2175 0.4670 0.0100 0.0100 0 360 EARC c
fill
n 0.2175 0.4670 0.0100 0.0100 0 360 EARC s
n
0.2399 0.4665 0.0100 0.0100 0 360 EARC c
fill
n 0.2399 0.4665 0.0100 0.0100 0 360 EARC s
n
0.2667 0.4657 0.0100 0.0100 0 360 EARC c
fill
n 0.2667 0.4657 0.0100 0.0100 0 360 EARC s
n
0.2984 0.4648 0.0100 0.0100 0 360 EARC c
fill
n 0.2984 0.4648 0.0100 0.0100 0 360 EARC s
n
0.3354 0.4637 0.0100 0.0100 0 360 EARC c
fill
n 0.3354 0.4637 0.0100 0.0100 0 360 EARC s
n
0.3780 0.4624 0.0100 0.0100 0 360 EARC c
fill
n 0.3780 0.4624 0.0100 0.0100 0 360 EARC s
n
0.4267 0.4608 0.0100 0.0100 0 360 EARC c
fill
n 0.4267 0.4608 0.0100 0.0100 0 360 EARC s
n
0.4819 0.4589 0.0100 0.0100 0 360 EARC c
fill
n 0.4819 0.4589 0.0100 0.0100 0 360 EARC s
n
0.5439 0.4566 0.0100 0.0100 0 360 EARC c
fill
n 0.5439 0.4566 0.0100 0.0100 0 360 EARC s
n
0.6133 0.4537 0.0100 0.0100 0 360 EARC c
fill
n 0.6133 0.4537 0.0100 0.0100 0 360 EARC s
n
0.6904 0.4503 0.0100 0.0100 0 360 EARC c
fill
n 0.6904 0.4503 0.0100 0.0100 0 360 EARC s
n
0.7756 0.4461 0.0100 0.0100 0 360 EARC c
fill
n 0.7756 0.4461 0.0100 0.0100 0 360 EARC s
n
0.8692 0.4409 0.0100 0.0100 0 360 EARC c
fill
n 0.8692 0.4409 0.0100 0.0100 0 360 EARC s
n
0.9718 0.4345 0.0100 0.0100 0 360 EARC c
fill
n 0.9718 0.4345 0.0100 0.0100 0 360 EARC s
n
0.1846 0.4682 0.0100 0.0100 0 360 EARC c
[/DeviceRGB] SCS
Color3 SC
fill
n 0.1846 0.4682 0.0100 0.0100 0 360 EARC s
n
0.1992 0.4683 0.0100 0.0100 0 360 EARC c
fill
n 0.1992 0.4683 0.0100 0.0100 0 360 EARC s
n
0.2175 0.4684 0.0100 0.0100 0 360 EARC c
fill
n 0.2175 0.4684 0.0100 0.0100 0 360 EARC s
n
0.2399 0.4685 0.0100 0.0100 0 360 EARC c
fill
n 0.2399 0.4685 0.0100 0.0100 0 360 EARC s
n
0.2667 0.4686 0.0100 0.0100 0 360 EARC c
fill
n 0.2667 0.4686 0.0100 0.0100 0 360 EARC s
n
0.2984 0.4687 0.0100 0.0100 0 360 EARC c
fill
n 0.2984 0.4687 0.0100 0.0100 0 360 EARC s
n
0.3354 0.4689 0.0100 0.0100 0 360 EARC c
fill
n 0.3354 0.4689 0.0100 0.0100 0 360 EARC s
n
0.3780 0.4690 0.0100 0.0100 0 360 EARC c
fill
n 0.3780 0.4690 0.0100 0.0100 0 360 EARC s
n
0.4267 0.4692 0.0100 0.0100 0 360 EARC c
fill
n 0.4267 0.4692 0.0100 0.0100 0 360 EARC s
n
0.4819 0.4693 0.0100 0.0100 0 360 EARC c
fill
n 0.4819 0.4693 0.0100 0.0100 0 360 EARC s
n
0.5439 0.4694 0.0100 0.0100 0 360 EARC c
fill
n 0.5439 0.4694 0.0100 0.0100 0 360 EARC s
n
0.6133 0.4696 0.0100 0.0100 0 360 EARC c
fill
n 0.6133 0.4696 0.0100 0.0100 0 360 EARC s
n
0.6904 0.4697 0.0100 0.0100 0 360 EARC c
fill
n 0.6904 0.4697 0.0100 0.0100 0 360 EARC s
n
0.7756 0.4700 0.0100 0.0100 0 360 EARC c
fill
n 0.7756 0.4700 0.0100 0.0100 0 360 EARC s
n
0.8692 0.4704 0.0100 0.0100 0 360 EARC c
fill
n 0.8692 0.4704 0.0100 0.0100 0 360 EARC s
n
0.9718 0.4711 0.0100 0.0100 0 360 EARC c
fill
n 0.9718 0.4711 0.0100 0.0100 0 360 EARC s
[/DeviceRGB] SCS
Color1 SC
[] 0 SD
0.0045 SLW
n
0.1500 0.1500 m
1.1500 0.1500 l
s
n
0.1500 0.8500 m
1.1500 0.8500 l
s
n
0.2500 0.1500 m
0.2500 0.1600 l
s
n
0.2500 0.8500 m
0.2500 0.8400 l
s
n
0.4500 0.1500 m
0.4500 0.1600 l
s
n
0.4500 0.8500 m
0.4500 0.8400 l
s
n
0.6500 0.1500 m
0.6500 0.1600 l
s
n
0.6500 0.8500 m
0.6500 0.8400 l
s
n
0.8500 0.1500 m
0.8500 0.1600 l
s
n
0.8500 0.8500 m
0.8500 0.8400 l
s
n
1.0500 0.1500 m
1.0500 0.1600 l
s
n
1.0500 0.8500 m
1.0500 0.8400 l
s
n
0.1500 0.1500 m
0.1500 0.1700 l
s
n
0.1500 0.8500 m
0.1500 0.8300 l
s
n
0.3500 0.1500 m
0.3500 0.1700 l
s
n
0.3500 0.8500 m
0.3500 0.8300 l
s
n
0.5500 0.1500 m
0.5500 0.1700 l
s
n
0.5500 0.8500 m
0.5500 0.8300 l
s
n
0.7500 0.1500 m
0.7500 0.1700 l
s
n
0.7500 0.8500 m
0.7500 0.8300 l
s
n
0.9500 0.1500 m
0.9500 0.1700 l
s
n
0.9500 0.8500 m
0.9500 0.8300 l
s
n
1.1500 0.1500 m
1.1500 0.1700 l
s
n
1.1500 0.8500 m
1.1500 0.8300 l
s
/Times-Roman findfont
dup length dict begin
 {1 index /FID ne {def} {pop pop} ifelse} forall
 /Encoding DefEncoding def
 currentdict
end
/Font0 exch definefont pop
/Font0 FFSF
0.1394 0.1094 m
GS
[0.0448 0.0000 0.0000 0.0448 0 0] CC
(0) show
GR
/Font0 FFSF
0.3225 0.1094 m
GS
[0.0448 0.0000 0.0000 0.0448 0 0] CC
(0.2) show
GR
/Font0 FFSF
0.5225 0.1094 m
GS
[0.0448 0.0000 0.0000 0.0448 0 0] CC
(0.4) show
GR
/Font0 FFSF
0.7227 0.1094 m
GS
[0.0448 0.0000 0.0000 0.0448 0 0] CC
(0.6) show
GR
/Font0 FFSF
0.9231 0.1094 m
GS
[0.0448 0.0000 0.0000 0.0448 0 0] CC
(0.8) show
GR
/Font0 FFSF
1.1412 0.1094 m
GS
[0.0448 0.0000 0.0000 0.0448 0 0] CC
(1) show
GR
/Symbol findfont
/Font12 exch definefont pop
/Font12 FFSF
0.5722 0.0445 m
GS
[0.0504 0.0000 0.0000 0.0504 0 0] CC
(r) show
GR
/Font0 FFSF
0.6000 0.0445 m
GS
[0.0504 0.0000 0.0000 0.0504 0 0] CC
( [fm) show
GR
/Font0 FFSF
0.6855 0.0747 m
GS
[0.0356 0.0000 0.0000 0.0356 0 0] CC
(-3) show
GR
/Font0 FFSF
0.7153 0.0445 m
GS
[0.0504 0.0000 0.0000 0.0504 0 0] CC
(]) show
GR
n
0.1500 0.1500 m
0.1500 0.8500 l
s
n
1.1500 0.1500 m
1.1500 0.8500 l
s
n
0.1500 0.1500 m
0.1600 0.1500 l
s
n
1.1500 0.1500 m
1.1400 0.1500 l
s
n
0.1500 0.2773 m
0.1600 0.2773 l
s
n
1.1500 0.2773 m
1.1400 0.2773 l
s
n
0.1500 0.4045 m
0.1600 0.4045 l
s
n
1.1500 0.4045 m
1.1400 0.4045 l
s
n
0.1500 0.5318 m
0.1600 0.5318 l
s
n
1.1500 0.5318 m
1.1400 0.5318 l
s
n
0.1500 0.6591 m
0.1600 0.6591 l
s
n
1.1500 0.6591 m
1.1400 0.6591 l
s
n
0.1500 0.7864 m
0.1600 0.7864 l
s
n
1.1500 0.7864 m
1.1400 0.7864 l
s
n
0.1500 0.2136 m
0.1700 0.2136 l
s
n
1.1500 0.2136 m
1.1300 0.2136 l
s
n
0.1500 0.3409 m
0.1700 0.3409 l
s
n
1.1500 0.3409 m
1.1300 0.3409 l
s
n
0.1500 0.4682 m
0.1700 0.4682 l
s
n
1.1500 0.4682 m
1.1300 0.4682 l
s
n
0.1500 0.5955 m
0.1700 0.5955 l
s
n
1.1500 0.5955 m
1.1300 0.5955 l
s
n
0.1500 0.7227 m
0.1700 0.7227 l
s
n
1.1500 0.7227 m
1.1300 0.7227 l
s
n
0.1500 0.8500 m
0.1700 0.8500 l
s
n
1.1500 0.8500 m
1.1300 0.8500 l
s
[] 0 SD
0.0015 SLW
n
0.1500 0.1500 m
0.1500 0.8500 l
1.1500 0.8500 l
1.1500 0.1500 l
0.1500 0.1500 l
c
s
n
0.2000 0.8000 m
0.2000 0.6541 l
0.4392 0.6541 l
0.4392 0.8000 l
c
[/DeviceRGB] SCS
Color0 SC
fill
/Font0 FFSF
[/DeviceRGB] SCS
Color1 SC
0.2700 0.7555 m
GS
[0.0521 0.0000 0.0000 0.0521 0 0] CC
(P-wave) show
GR
n
0.2300 0.7724 0.0100 0.0100 0 360 EARC c
fill
n 0.2300 0.7724 0.0100 0.0100 0 360 EARC s
/Font0 FFSF
0.2700 0.7102 m
GS
[0.0521 0.0000 0.0000 0.0521 0 0] CC
(D wave) show
GR
n
0.2300 0.7271 0.0100 0.0100 0 360 EARC c
[/DeviceRGB] SCS
Color2 SC
fill
n 0.2300 0.7271 0.0100 0.0100 0 360 EARC s
/Font0 FFSF
[/DeviceRGB] SCS
Color1 SC
0.2700 0.6649 m
GS
[0.0521 0.0000 0.0000 0.0521 0 0] CC
(F-wave) show
GR
n
0.2300 0.6818 0.0100 0.0100 0 360 EARC c
[/DeviceRGB] SCS
Color3 SC
fill
n 0.2300 0.6818 0.0100 0.0100 0 360 EARC s
/Font0 FFSF
[/DeviceRGB] SCS
Color1 SC
0.2206 0.2966 m
GS
[0.0736 0.0000 0.0000 0.0736 0 0] CC
(M3Y-P7) show
GR
showpage
%%PageTrailer
%%Trailer
%%DocumentNeededResources: font Times-Roman
%%+ font Symbol
%%EOF
