%!PS-Adobe-3.0 EPSF-3.0
%%BoundingBox: (atend)
%%LanguageLevel: 2
%%Creator: Grace-5.1.21
%%CreationDate: Mon Aug  3 15:06:15 2015
%%DocumentData: Clean8Bit
%%Orientation: Portrait
%%Title: /cea/dsku/u-pelote/hal1/home/pn/pastorea/Fisica/N3LO/Vers9/plots/effmasspolaBSK.agr
%%For: pastorea
%%DocumentNeededResources: (atend)
%%EndComments
%%BeginProlog
/m {moveto} def
/l {lineto} def
/s {stroke} def
/n {newpath} def
/c {closepath} def
/RL {rlineto} def
/SLW {setlinewidth} def
/GS {gsave} def
/GR {grestore} def
/SC {setcolor} def
/SGRY {setgray} def
/SRGB {setrgbcolor} def
/SD {setdash} def
/SLC {setlinecap} def
/SLJ {setlinejoin} def
/SCS {setcolorspace} def
/FFSF {findfont setfont} def
/CC {concat} def
/PXL {n m 0 0 RL s} def
/Color0 {1.0000 1.0000 1.0000} def
/Color1 {0.0000 0.0000 0.0000} def
/Color2 {1.0000 0.0000 0.0000} def
/Color3 {0.0000 1.0000 0.0000} def
/Color4 {0.0000 0.0000 1.0000} def
/Color5 {1.0000 1.0000 0.0000} def
/Color6 {0.7373 0.5608 0.5608} def
/Color7 {0.8627 0.8627 0.8627} def
/Color8 {0.5804 0.0000 0.8275} def
/Color9 {0.0000 1.0000 1.0000} def
/Color10 {1.0000 0.0000 1.0000} def
/Color11 {1.0000 0.6471 0.0000} def
/Color12 {0.4471 0.1294 0.7373} def
/Color13 {0.4039 0.0275 0.2824} def
/Color14 {0.2510 0.8784 0.8157} def
/Color15 {0.0000 0.5451 0.0000} def
/Color16 {0.7529 0.7529 0.7529} def
/Color17 {0.5059 0.5059 0.5059} def
/Color18 {0.2588 0.2588 0.2588} def
/PTRN {
 /pat_bits exch def 
 <<
  /PaintType 2
  /PatternType 1 /TilingType 1
  /BBox[0 0 16 16]
  /XStep 16 /YStep 16
  /PaintProc {
   pop
   16 16 true [-1 0 0 -1 16 16] pat_bits imagemask
  }
 >>
 [0.0016 0 0 0.0016 0 0]
 makepattern
} def
/Pattern0 {<0000000000000000000000000000000000000000000000000000000000000000> PTRN} bind def
/Pattern1 {<ffffffffffffffffffffffffffffffffffffffffffffffffffffffffffffffff> PTRN} bind def
/Pattern2 {<eeeeffffbbbbffffeeeeffffbbbbffffeeeeffffbbbbffffeeeeffffbbbbffff> PTRN} bind def
/Pattern3 {<eeeebbbbeeeebbbbeeeebbbbeeeebbbbeeeebbbbeeeebbbbeeeebbbbeeeebbbb> PTRN} bind def
/Pattern4 {<5555aaaa5555aaaa5555aaaa5555aaaa5555aaaa5555aaaa5555aaaa5555aaaa> PTRN} bind def
/Pattern5 {<1111444411114444111144441111444411114444111144441111444411114444> PTRN} bind def
/Pattern6 {<1111000044440000111100004444000011110000444400001111000044440000> PTRN} bind def
/Pattern7 {<1010000000000000010100000000000010100000000000000101000000000000> PTRN} bind def
/Pattern8 {<0000000000000000000000000000000000000000000000000000000000000000> PTRN} bind def
/Pattern9 {<1e1e0f0f8787c3c3e1e1f0f078783c3c1e1e0f0f8787c3c3e1e1f0f078783c3c> PTRN} bind def
/Pattern10 {<7878f0f0e1e1c3c387870f0f1e1e3c3c7878f0f0e1e1c3c387870f0f1e1e3c3c> PTRN} bind def
/Pattern11 {<3333333333333333333333333333333333333333333333333333333333333333> PTRN} bind def
/Pattern12 {<ffffffff00000000ffffffff00000000ffffffff00000000ffffffff00000000> PTRN} bind def
/Pattern13 {<8181424224241818181824244242818181814242242418181818242442428181> PTRN} bind def
/Pattern14 {<8080404020201010080804040202010180804040202010100808040402020101> PTRN} bind def
/Pattern15 {<0101020204040808101020204040808001010202040408081010202040408080> PTRN} bind def
/Pattern16 {<2222222222222222222222222222222222222222222222222222222222222222> PTRN} bind def
/Pattern17 {<0000ffff000000000000ffff000000000000ffff000000000000ffff00000000> PTRN} bind def
/Pattern18 {<2222ffff222222222222ffff222222222222ffff222222222222ffff22222222> PTRN} bind def
/Pattern19 {<ffffffff33333333ffffffff33333333ffffffff33333333ffffffff33333333> PTRN} bind def
/Pattern20 {<0f0f0f0f0f0f0f0ff0f0f0f0f0f0f0f00f0f0f0f0f0f0f0ff0f0f0f0f0f0f0f0> PTRN} bind def
/Pattern21 {<ff00ff00ff00ff00ff00ff00ff00ff0000ff00ff00ff00ff00ff00ff00ff00ff> PTRN} bind def
/Pattern22 {<8001800180018001800180018001ffffffff8001800180018001800180018001> PTRN} bind def
/Pattern23 {<c003c003c003c003c003c003ffffffffffffffffc003c003c003c003c003c003> PTRN} bind def
/Pattern24 {<040404040404ffff404040404040ffff040404040404ffff404040404040ffff> PTRN} bind def
/Pattern25 {<180018001800180018001800ffffffff001800180018001800180018ffffffff> PTRN} bind def
/Pattern26 {<1111b8b87c7c3a3a1111a3a3c7c78b8b1111b8b87c7c3a3a1111a3a3c7c78b8b> PTRN} bind def
/Pattern27 {<101010102828c7c70101010182827c7c101010102828c7c70101010182827c7c> PTRN} bind def
/Pattern28 {<1c1c121211112121c1c12121111112121c1c121211112121c1c1212111111212> PTRN} bind def
/Pattern29 {<3e3e414180808080e3e31414080808083e3e414180808080e3e3141408080808> PTRN} bind def
/Pattern30 {<4848888884848383848488884848383848488888848483838484888848483838> PTRN} bind def
/Pattern31 {<03030404080808080c0c12122121c0c003030404080808080c0c12122121c0c0> PTRN} bind def
/ellipsedict 8 dict def
ellipsedict /mtrx matrix put
/EARC {
 ellipsedict begin
  /endangle exch def
  /startangle exch def
  /yrad exch def
  /xrad exch def
  /y exch def
  /x exch def
  /savematrix mtrx currentmatrix def
  x y translate
  xrad yrad scale
  0 0 1 startangle endangle arc
  savematrix setmatrix
 end
} def
/TL {
  /kcomp exch def
  /linewidth exch def
  /offset exch def
  GS
  0 offset rmoveto
  linewidth SLW
  dup stringwidth exch kcomp add exch RL s
  GR
} def
/KINIT
{
 /kvector exch def
 /kid 0 def
} def
/KPROC
{
 pop pop
 kvector kid get
 0 rmoveto
 /kid 1 kid add def
} def
/DefEncoding [
 /.notdef
 /.notdef
 /.notdef
 /.notdef
 /.notdef
 /.notdef
 /.notdef
 /.notdef
 /.notdef
 /.notdef
 /.notdef
 /.notdef
 /.notdef
 /.notdef
 /.notdef
 /.notdef
 /.notdef
 /.notdef
 /.notdef
 /.notdef
 /.notdef
 /.notdef
 /.notdef
 /.notdef
 /.notdef
 /.notdef
 /.notdef
 /.notdef
 /.notdef
 /.notdef
 /.notdef
 /.notdef
 /space
 /exclam
 /quotedbl
 /numbersign
 /dollar
 /percent
 /ampersand
 /quoteright
 /parenleft
 /parenright
 /asterisk
 /plus
 /comma
 /hyphen
 /period
 /slash
 /zero
 /one
 /two
 /three
 /four
 /five
 /six
 /seven
 /eight
 /nine
 /colon
 /semicolon
 /less
 /equal
 /greater
 /question
 /at
 /A
 /B
 /C
 /D
 /E
 /F
 /G
 /H
 /I
 /J
 /K
 /L
 /M
 /N
 /O
 /P
 /Q
 /R
 /S
 /T
 /U
 /V
 /W
 /X
 /Y
 /Z
 /bracketleft
 /backslash
 /bracketright
 /asciicircum
 /underscore
 /grave
 /a
 /b
 /c
 /d
 /e
 /f
 /g
 /h
 /i
 /j
 /k
 /l
 /m
 /n
 /o
 /p
 /q
 /r
 /s
 /t
 /u
 /v
 /w
 /x
 /y
 /z
 /braceleft
 /bar
 /braceright
 /asciitilde
 /.notdef
 /.notdef
 /.notdef
 /.notdef
 /.notdef
 /.notdef
 /.notdef
 /.notdef
 /.notdef
 /.notdef
 /.notdef
 /.notdef
 /.notdef
 /.notdef
 /.notdef
 /.notdef
 /.notdef
 /.notdef
 /.notdef
 /.notdef
 /.notdef
 /.notdef
 /.notdef
 /.notdef
 /.notdef
 /.notdef
 /.notdef
 /.notdef
 /.notdef
 /.notdef
 /.notdef
 /.notdef
 /.notdef
 /space
 /exclamdown
 /cent
 /sterling
 /currency
 /yen
 /brokenbar
 /section
 /dieresis
 /copyright
 /ordfeminine
 /guillemotleft
 /logicalnot
 /hyphen
 /registered
 /macron
 /degree
 /plusminus
 /twosuperior
 /threesuperior
 /acute
 /mu
 /paragraph
 /periodcentered
 /cedilla
 /onesuperior
 /ordmasculine
 /guillemotright
 /onequarter
 /onehalf
 /threequarters
 /questiondown
 /Agrave
 /Aacute
 /Acircumflex
 /Atilde
 /Adieresis
 /Aring
 /AE
 /Ccedilla
 /Egrave
 /Eacute
 /Ecircumflex
 /Edieresis
 /Igrave
 /Iacute
 /Icircumflex
 /Idieresis
 /Eth
 /Ntilde
 /Ograve
 /Oacute
 /Ocircumflex
 /Otilde
 /Odieresis
 /multiply
 /Oslash
 /Ugrave
 /Uacute
 /Ucircumflex
 /Udieresis
 /Yacute
 /Thorn
 /germandbls
 /agrave
 /aacute
 /acircumflex
 /atilde
 /adieresis
 /aring
 /ae
 /ccedilla
 /egrave
 /eacute
 /ecircumflex
 /edieresis
 /igrave
 /iacute
 /icircumflex
 /idieresis
 /eth
 /ntilde
 /ograve
 /oacute
 /ocircumflex
 /otilde
 /odieresis
 /divide
 /oslash
 /ugrave
 /uacute
 /ucircumflex
 /udieresis
 /yacute
 /thorn
 /ydieresis
] def
%%EndProlog
%%BeginSetup
%%EndSetup
612.00 612.00 scale
[/DeviceRGB] SCS
Color1 SC
[] 0 SD
0.0037 SLW
0 SLC
0 SLJ
n
0.1500 0.4877 m
0.1550 0.4886 l
0.1600 0.4894 l
0.1650 0.4902 l
0.1700 0.4909 l
0.1750 0.4917 l
0.1800 0.4925 l
0.1850 0.4932 l
0.1900 0.4940 l
0.1950 0.4947 l
0.2000 0.4955 l
0.2050 0.4962 l
0.2100 0.4969 l
0.2150 0.4977 l
0.2200 0.4984 l
0.2250 0.4991 l
0.2300 0.4998 l
0.2350 0.5005 l
0.2400 0.5012 l
0.2450 0.5019 l
0.2500 0.5026 l
0.2550 0.5033 l
0.2600 0.5040 l
0.2650 0.5047 l
0.2700 0.5054 l
0.2750 0.5061 l
0.2800 0.5067 l
0.2850 0.5074 l
0.2900 0.5081 l
0.2950 0.5088 l
0.3000 0.5094 l
0.3050 0.5101 l
0.3100 0.5107 l
0.3150 0.5114 l
0.3200 0.5121 l
0.3250 0.5127 l
0.3300 0.5134 l
0.3350 0.5140 l
0.3400 0.5146 l
0.3450 0.5153 l
0.3500 0.5159 l
0.3550 0.5166 l
0.3600 0.5172 l
0.3650 0.5178 l
0.3700 0.5184 l
0.3750 0.5191 l
0.3800 0.5197 l
0.3850 0.5203 l
0.3900 0.5209 l
0.3950 0.5215 l
0.4000 0.5221 l
0.4050 0.5228 l
0.4100 0.5234 l
0.4150 0.5240 l
0.4200 0.5246 l
0.4250 0.5252 l
0.4300 0.5258 l
0.4350 0.5264 l
0.4400 0.5270 l
0.4450 0.5275 l
0.4500 0.5281 l
0.4550 0.5287 l
0.4600 0.5293 l
0.4650 0.5299 l
0.4700 0.5305 l
0.4750 0.5311 l
0.4800 0.5316 l
0.4850 0.5322 l
0.4900 0.5328 l
0.4950 0.5333 l
0.5000 0.5339 l
0.5050 0.5345 l
0.5100 0.5350 l
0.5150 0.5356 l
0.5200 0.5362 l
0.5250 0.5367 l
0.5300 0.5373 l
0.5350 0.5378 l
0.5400 0.5384 l
0.5450 0.5389 l
0.5500 0.5395 l
0.5550 0.5400 l
0.5600 0.5406 l
0.5650 0.5411 l
0.5700 0.5417 l
0.5750 0.5422 l
0.5800 0.5427 l
0.5850 0.5433 l
0.5900 0.5438 l
0.5950 0.5443 l
0.6000 0.5449 l
0.6050 0.5454 l
0.6100 0.5459 l
0.6150 0.5464 l
0.6200 0.5470 l
0.6250 0.5475 l
0.6300 0.5480 l
0.6350 0.5485 l
0.6400 0.5490 l
0.6450 0.5496 l
0.6500 0.5501 l
0.6550 0.5506 l
0.6600 0.5511 l
0.6650 0.5516 l
0.6700 0.5521 l
0.6750 0.5526 l
0.6800 0.5531 l
0.6850 0.5536 l
0.6900 0.5541 l
0.6950 0.5546 l
0.7000 0.5551 l
0.7050 0.5556 l
0.7100 0.5561 l
0.7150 0.5566 l
0.7200 0.5571 l
0.7250 0.5576 l
0.7300 0.5581 l
0.7350 0.5585 l
0.7400 0.5590 l
0.7450 0.5595 l
0.7500 0.5600 l
0.7550 0.5605 l
0.7600 0.5609 l
0.7650 0.5614 l
0.7700 0.5619 l
0.7750 0.5624 l
0.7800 0.5628 l
0.7850 0.5633 l
0.7900 0.5638 l
0.7950 0.5643 l
0.8000 0.5647 l
0.8050 0.5652 l
0.8100 0.5657 l
0.8150 0.5661 l
0.8200 0.5666 l
0.8250 0.5670 l
0.8300 0.5675 l
0.8350 0.5680 l
0.8400 0.5684 l
0.8450 0.5689 l
0.8500 0.5693 l
0.8550 0.5698 l
0.8600 0.5702 l
0.8650 0.5707 l
0.8700 0.5711 l
0.8750 0.5716 l
0.8800 0.5720 l
0.8850 0.5725 l
0.8900 0.5729 l
0.8950 0.5733 l
0.9000 0.5738 l
0.9050 0.5742 l
0.9100 0.5747 l
0.9150 0.5751 l
0.9200 0.5755 l
0.9250 0.5760 l
0.9300 0.5764 l
0.9350 0.5768 l
0.9400 0.5773 l
0.9450 0.5777 l
0.9500 0.5781 l
0.9550 0.5786 l
0.9600 0.5790 l
0.9650 0.5794 l
0.9700 0.5798 l
0.9750 0.5803 l
0.9800 0.5807 l
0.9850 0.5811 l
0.9900 0.5815 l
0.9950 0.5819 l
1.0000 0.5824 l
1.0050 0.5828 l
1.0100 0.5832 l
1.0150 0.5836 l
1.0200 0.5840 l
1.0250 0.5844 l
1.0300 0.5848 l
1.0350 0.5853 l
1.0400 0.5857 l
1.0450 0.5861 l
1.0500 0.5865 l
1.0550 0.5869 l
1.0600 0.5873 l
1.0650 0.5877 l
1.0700 0.5881 l
1.0750 0.5885 l
1.0800 0.5889 l
1.0850 0.5893 l
1.0900 0.5897 l
1.0950 0.5901 l
1.1000 0.5905 l
1.1050 0.5909 l
1.1100 0.5913 l
1.1150 0.5917 l
1.1200 0.5921 l
1.1250 0.5925 l
1.1300 0.5929 l
1.1350 0.5933 l
1.1400 0.5937 l
1.1450 0.5941 l
1.1500 0.5945 l
s
n
0.1500 0.4993 m
0.1400 0.4820 l
0.1600 0.4820 l
c
GS
Color0 SRGB
fill
GR
[/Pattern /DeviceRGB] SCS
Color1 Pattern8 SC
fill
[/DeviceRGB] SCS
Color1 SC
[] 0 SD
0.0030 SLW
n
0.1500 0.4993 m
0.1400 0.4820 l
0.1600 0.4820 l
0.1500 0.4993 l
c
s
n
0.2050 0.5078 m
0.1950 0.4904 l
0.2150 0.4904 l
c
GS
Color0 SRGB
fill
GR
[/Pattern /DeviceRGB] SCS
Color1 Pattern8 SC
fill
[/DeviceRGB] SCS
Color1 SC
n
0.2050 0.5078 m
0.1950 0.4904 l
0.2150 0.4904 l
0.2050 0.5078 l
c
s
n
0.2600 0.5156 m
0.2500 0.4982 l
0.2700 0.4982 l
c
GS
Color0 SRGB
fill
GR
[/Pattern /DeviceRGB] SCS
Color1 Pattern8 SC
fill
[/DeviceRGB] SCS
Color1 SC
n
0.2600 0.5156 m
0.2500 0.4982 l
0.2700 0.4982 l
0.2600 0.5156 l
c
s
n
0.3150 0.5230 m
0.3050 0.5056 l
0.3250 0.5056 l
c
GS
Color0 SRGB
fill
GR
[/Pattern /DeviceRGB] SCS
Color1 Pattern8 SC
fill
[/DeviceRGB] SCS
Color1 SC
n
0.3150 0.5230 m
0.3050 0.5056 l
0.3250 0.5056 l
0.3150 0.5230 l
c
s
n
0.3700 0.5300 m
0.3600 0.5127 l
0.3800 0.5127 l
c
GS
Color0 SRGB
fill
GR
[/Pattern /DeviceRGB] SCS
Color1 Pattern8 SC
fill
[/DeviceRGB] SCS
Color1 SC
n
0.3700 0.5300 m
0.3600 0.5127 l
0.3800 0.5127 l
0.3700 0.5300 l
c
s
n
0.4250 0.5367 m
0.4150 0.5194 l
0.4350 0.5194 l
c
GS
Color0 SRGB
fill
GR
[/Pattern /DeviceRGB] SCS
Color1 Pattern8 SC
fill
[/DeviceRGB] SCS
Color1 SC
n
0.4250 0.5367 m
0.4150 0.5194 l
0.4350 0.5194 l
0.4250 0.5367 l
c
s
n
0.4800 0.5432 m
0.4700 0.5259 l
0.4900 0.5259 l
c
GS
Color0 SRGB
fill
GR
[/Pattern /DeviceRGB] SCS
Color1 Pattern8 SC
fill
[/DeviceRGB] SCS
Color1 SC
n
0.4800 0.5432 m
0.4700 0.5259 l
0.4900 0.5259 l
0.4800 0.5432 l
c
s
n
0.5350 0.5494 m
0.5250 0.5321 l
0.5450 0.5321 l
c
GS
Color0 SRGB
fill
GR
[/Pattern /DeviceRGB] SCS
Color1 Pattern8 SC
fill
[/DeviceRGB] SCS
Color1 SC
n
0.5350 0.5494 m
0.5250 0.5321 l
0.5450 0.5321 l
0.5350 0.5494 l
c
s
n
0.5900 0.5554 m
0.5800 0.5380 l
0.6000 0.5380 l
c
GS
Color0 SRGB
fill
GR
[/Pattern /DeviceRGB] SCS
Color1 Pattern8 SC
fill
[/DeviceRGB] SCS
Color1 SC
n
0.5900 0.5554 m
0.5800 0.5380 l
0.6000 0.5380 l
0.5900 0.5554 l
c
s
n
0.6450 0.5611 m
0.6350 0.5438 l
0.6550 0.5438 l
c
GS
Color0 SRGB
fill
GR
[/Pattern /DeviceRGB] SCS
Color1 Pattern8 SC
fill
[/DeviceRGB] SCS
Color1 SC
n
0.6450 0.5611 m
0.6350 0.5438 l
0.6550 0.5438 l
0.6450 0.5611 l
c
s
n
0.7000 0.5667 m
0.6900 0.5493 l
0.7100 0.5493 l
c
GS
Color0 SRGB
fill
GR
[/Pattern /DeviceRGB] SCS
Color1 Pattern8 SC
fill
[/DeviceRGB] SCS
Color1 SC
n
0.7000 0.5667 m
0.6900 0.5493 l
0.7100 0.5493 l
0.7000 0.5667 l
c
s
n
0.7550 0.5720 m
0.7450 0.5547 l
0.7650 0.5547 l
c
GS
Color0 SRGB
fill
GR
[/Pattern /DeviceRGB] SCS
Color1 Pattern8 SC
fill
[/DeviceRGB] SCS
Color1 SC
n
0.7550 0.5720 m
0.7450 0.5547 l
0.7650 0.5547 l
0.7550 0.5720 l
c
s
n
0.8100 0.5772 m
0.8000 0.5599 l
0.8200 0.5599 l
c
GS
Color0 SRGB
fill
GR
[/Pattern /DeviceRGB] SCS
Color1 Pattern8 SC
fill
[/DeviceRGB] SCS
Color1 SC
n
0.8100 0.5772 m
0.8000 0.5599 l
0.8200 0.5599 l
0.8100 0.5772 l
c
s
n
0.8650 0.5822 m
0.8550 0.5649 l
0.8750 0.5649 l
c
GS
Color0 SRGB
fill
GR
[/Pattern /DeviceRGB] SCS
Color1 Pattern8 SC
fill
[/DeviceRGB] SCS
Color1 SC
n
0.8650 0.5822 m
0.8550 0.5649 l
0.8750 0.5649 l
0.8650 0.5822 l
c
s
n
0.9200 0.5871 m
0.9100 0.5698 l
0.9300 0.5698 l
c
GS
Color0 SRGB
fill
GR
[/Pattern /DeviceRGB] SCS
Color1 Pattern8 SC
fill
[/DeviceRGB] SCS
Color1 SC
n
0.9200 0.5871 m
0.9100 0.5698 l
0.9300 0.5698 l
0.9200 0.5871 l
c
s
n
0.9750 0.5918 m
0.9650 0.5745 l
0.9850 0.5745 l
c
GS
Color0 SRGB
fill
GR
[/Pattern /DeviceRGB] SCS
Color1 Pattern8 SC
fill
[/DeviceRGB] SCS
Color1 SC
n
0.9750 0.5918 m
0.9650 0.5745 l
0.9850 0.5745 l
0.9750 0.5918 l
c
s
n
1.0300 0.5964 m
1.0200 0.5791 l
1.0400 0.5791 l
c
GS
Color0 SRGB
fill
GR
[/Pattern /DeviceRGB] SCS
Color1 Pattern8 SC
fill
[/DeviceRGB] SCS
Color1 SC
n
1.0300 0.5964 m
1.0200 0.5791 l
1.0400 0.5791 l
1.0300 0.5964 l
c
s
n
1.0850 0.6009 m
1.0750 0.5836 l
1.0950 0.5836 l
c
GS
Color0 SRGB
fill
GR
[/Pattern /DeviceRGB] SCS
Color1 Pattern8 SC
fill
[/DeviceRGB] SCS
Color1 SC
n
1.0850 0.6009 m
1.0750 0.5836 l
1.0950 0.5836 l
1.0850 0.6009 l
c
s
n
1.1400 0.6052 m
1.1300 0.5879 l
1.1500 0.5879 l
c
GS
Color0 SRGB
fill
GR
[/Pattern /DeviceRGB] SCS
Color1 Pattern8 SC
fill
[/DeviceRGB] SCS
Color1 SC
n
1.1400 0.6052 m
1.1300 0.5879 l
1.1500 0.5879 l
1.1400 0.6052 l
c
s
[] 0 SD
0.0037 SLW
n
0.1500 0.5945 m
0.1550 0.5941 l
0.1600 0.5937 l
0.1650 0.5933 l
0.1700 0.5929 l
0.1750 0.5925 l
0.1800 0.5921 l
0.1850 0.5917 l
0.1900 0.5913 l
0.1950 0.5909 l
0.2000 0.5905 l
0.2050 0.5901 l
0.2100 0.5897 l
0.2150 0.5893 l
0.2200 0.5889 l
0.2250 0.5885 l
0.2300 0.5881 l
0.2350 0.5877 l
0.2400 0.5873 l
0.2450 0.5869 l
0.2500 0.5865 l
0.2550 0.5861 l
0.2600 0.5857 l
0.2650 0.5853 l
0.2700 0.5848 l
0.2750 0.5844 l
0.2800 0.5840 l
0.2850 0.5836 l
0.2900 0.5832 l
0.2950 0.5828 l
0.3000 0.5824 l
0.3050 0.5819 l
0.3100 0.5815 l
0.3150 0.5811 l
0.3200 0.5807 l
0.3250 0.5803 l
0.3300 0.5798 l
0.3350 0.5794 l
0.3400 0.5790 l
0.3450 0.5786 l
0.3500 0.5781 l
0.3550 0.5777 l
0.3600 0.5773 l
0.3650 0.5768 l
0.3700 0.5764 l
0.3750 0.5760 l
0.3800 0.5755 l
0.3850 0.5751 l
0.3900 0.5747 l
0.3950 0.5742 l
0.4000 0.5738 l
0.4050 0.5733 l
0.4100 0.5729 l
0.4150 0.5725 l
0.4200 0.5720 l
0.4250 0.5716 l
0.4300 0.5711 l
0.4350 0.5707 l
0.4400 0.5702 l
0.4450 0.5698 l
0.4500 0.5693 l
0.4550 0.5689 l
0.4600 0.5684 l
0.4650 0.5680 l
0.4700 0.5675 l
0.4750 0.5670 l
0.4800 0.5666 l
0.4850 0.5661 l
0.4900 0.5657 l
0.4950 0.5652 l
0.5000 0.5647 l
0.5050 0.5643 l
0.5100 0.5638 l
0.5150 0.5633 l
0.5200 0.5628 l
0.5250 0.5624 l
0.5300 0.5619 l
0.5350 0.5614 l
0.5400 0.5609 l
0.5450 0.5605 l
0.5500 0.5600 l
0.5550 0.5595 l
0.5600 0.5590 l
0.5650 0.5585 l
0.5700 0.5581 l
0.5750 0.5576 l
0.5800 0.5571 l
0.5850 0.5566 l
0.5900 0.5561 l
0.5950 0.5556 l
0.6000 0.5551 l
0.6050 0.5546 l
0.6100 0.5541 l
0.6150 0.5536 l
0.6200 0.5531 l
0.6250 0.5526 l
0.6300 0.5521 l
0.6350 0.5516 l
0.6400 0.5511 l
0.6450 0.5506 l
0.6500 0.5501 l
0.6550 0.5496 l
0.6600 0.5490 l
0.6650 0.5485 l
0.6700 0.5480 l
0.6750 0.5475 l
0.6800 0.5470 l
0.6850 0.5464 l
0.6900 0.5459 l
0.6950 0.5454 l
0.7000 0.5449 l
0.7050 0.5443 l
0.7100 0.5438 l
0.7150 0.5433 l
0.7200 0.5427 l
0.7250 0.5422 l
0.7300 0.5417 l
0.7350 0.5411 l
0.7400 0.5406 l
0.7450 0.5400 l
0.7500 0.5395 l
0.7550 0.5389 l
0.7600 0.5384 l
0.7650 0.5378 l
0.7700 0.5373 l
0.7750 0.5367 l
0.7800 0.5362 l
0.7850 0.5356 l
0.7900 0.5350 l
0.7950 0.5345 l
0.8000 0.5339 l
0.8050 0.5333 l
0.8100 0.5328 l
0.8150 0.5322 l
0.8200 0.5316 l
0.8250 0.5311 l
0.8300 0.5305 l
0.8350 0.5299 l
0.8400 0.5293 l
0.8450 0.5287 l
0.8500 0.5281 l
0.8550 0.5275 l
0.8600 0.5270 l
0.8650 0.5264 l
0.8700 0.5258 l
0.8750 0.5252 l
0.8800 0.5246 l
0.8850 0.5240 l
0.8900 0.5234 l
0.8950 0.5228 l
0.9000 0.5221 l
0.9050 0.5215 l
0.9100 0.5209 l
0.9150 0.5203 l
0.9200 0.5197 l
0.9250 0.5191 l
0.9300 0.5184 l
0.9350 0.5178 l
0.9400 0.5172 l
0.9450 0.5166 l
0.9500 0.5159 l
0.9550 0.5153 l
0.9600 0.5146 l
0.9650 0.5140 l
0.9700 0.5134 l
0.9750 0.5127 l
0.9800 0.5121 l
0.9850 0.5114 l
0.9900 0.5107 l
0.9950 0.5101 l
1.0000 0.5094 l
1.0050 0.5088 l
1.0100 0.5081 l
1.0150 0.5074 l
1.0200 0.5067 l
1.0250 0.5061 l
1.0300 0.5054 l
1.0350 0.5047 l
1.0400 0.5040 l
1.0450 0.5033 l
1.0500 0.5026 l
1.0550 0.5019 l
1.0600 0.5012 l
1.0650 0.5005 l
1.0700 0.4998 l
1.0750 0.4991 l
1.0800 0.4984 l
1.0850 0.4977 l
1.0900 0.4969 l
1.0950 0.4962 l
1.1000 0.4955 l
1.1050 0.4947 l
1.1100 0.4940 l
1.1150 0.4932 l
1.1200 0.4925 l
1.1250 0.4917 l
1.1300 0.4909 l
1.1350 0.4902 l
1.1400 0.4894 l
1.1450 0.4886 l
1.1500 0.4877 l
s
n
0.1400 0.6003 m
0.1500 0.5829 l
0.1600 0.6003 l
c
GS
Color0 SRGB
fill
GR
[/Pattern /DeviceRGB] SCS
Color1 Pattern8 SC
fill
[/DeviceRGB] SCS
Color1 SC
[] 0 SD
0.0030 SLW
n
0.1400 0.6003 m
0.1500 0.5829 l
0.1600 0.6003 l
0.1400 0.6003 l
c
s
n
0.1950 0.5959 m
0.2050 0.5786 l
0.2150 0.5959 l
c
GS
Color0 SRGB
fill
GR
[/Pattern /DeviceRGB] SCS
Color1 Pattern8 SC
fill
[/DeviceRGB] SCS
Color1 SC
n
0.1950 0.5959 m
0.2050 0.5786 l
0.2150 0.5959 l
0.1950 0.5959 l
c
s
n
0.2500 0.5914 m
0.2600 0.5741 l
0.2700 0.5914 l
c
GS
Color0 SRGB
fill
GR
[/Pattern /DeviceRGB] SCS
Color1 Pattern8 SC
fill
[/DeviceRGB] SCS
Color1 SC
n
0.2500 0.5914 m
0.2600 0.5741 l
0.2700 0.5914 l
0.2500 0.5914 l
c
s
n
0.3050 0.5869 m
0.3150 0.5696 l
0.3250 0.5869 l
c
GS
Color0 SRGB
fill
GR
[/Pattern /DeviceRGB] SCS
Color1 Pattern8 SC
fill
[/DeviceRGB] SCS
Color1 SC
n
0.3050 0.5869 m
0.3150 0.5696 l
0.3250 0.5869 l
0.3050 0.5869 l
c
s
n
0.3600 0.5822 m
0.3700 0.5649 l
0.3800 0.5822 l
c
GS
Color0 SRGB
fill
GR
[/Pattern /DeviceRGB] SCS
Color1 Pattern8 SC
fill
[/DeviceRGB] SCS
Color1 SC
n
0.3600 0.5822 m
0.3700 0.5649 l
0.3800 0.5822 l
0.3600 0.5822 l
c
s
n
0.4150 0.5773 m
0.4250 0.5600 l
0.4350 0.5773 l
c
GS
Color0 SRGB
fill
GR
[/Pattern /DeviceRGB] SCS
Color1 Pattern8 SC
fill
[/DeviceRGB] SCS
Color1 SC
n
0.4150 0.5773 m
0.4250 0.5600 l
0.4350 0.5773 l
0.4150 0.5773 l
c
s
n
0.4700 0.5723 m
0.4800 0.5550 l
0.4900 0.5723 l
c
GS
Color0 SRGB
fill
GR
[/Pattern /DeviceRGB] SCS
Color1 Pattern8 SC
fill
[/DeviceRGB] SCS
Color1 SC
n
0.4700 0.5723 m
0.4800 0.5550 l
0.4900 0.5723 l
0.4700 0.5723 l
c
s
n
0.5250 0.5672 m
0.5350 0.5499 l
0.5450 0.5672 l
c
GS
Color0 SRGB
fill
GR
[/Pattern /DeviceRGB] SCS
Color1 Pattern8 SC
fill
[/DeviceRGB] SCS
Color1 SC
n
0.5250 0.5672 m
0.5350 0.5499 l
0.5450 0.5672 l
0.5250 0.5672 l
c
s
n
0.5800 0.5619 m
0.5900 0.5446 l
0.6000 0.5619 l
c
GS
Color0 SRGB
fill
GR
[/Pattern /DeviceRGB] SCS
Color1 Pattern8 SC
fill
[/DeviceRGB] SCS
Color1 SC
n
0.5800 0.5619 m
0.5900 0.5446 l
0.6000 0.5619 l
0.5800 0.5619 l
c
s
n
0.6350 0.5564 m
0.6450 0.5390 l
0.6550 0.5564 l
c
GS
Color0 SRGB
fill
GR
[/Pattern /DeviceRGB] SCS
Color1 Pattern8 SC
fill
[/DeviceRGB] SCS
Color1 SC
n
0.6350 0.5564 m
0.6450 0.5390 l
0.6550 0.5564 l
0.6350 0.5564 l
c
s
n
0.6900 0.5506 m
0.7000 0.5333 l
0.7100 0.5506 l
c
GS
Color0 SRGB
fill
GR
[/Pattern /DeviceRGB] SCS
Color1 Pattern8 SC
fill
[/DeviceRGB] SCS
Color1 SC
n
0.6900 0.5506 m
0.7000 0.5333 l
0.7100 0.5506 l
0.6900 0.5506 l
c
s
n
0.7450 0.5447 m
0.7550 0.5274 l
0.7650 0.5447 l
c
GS
Color0 SRGB
fill
GR
[/Pattern /DeviceRGB] SCS
Color1 Pattern8 SC
fill
[/DeviceRGB] SCS
Color1 SC
n
0.7450 0.5447 m
0.7550 0.5274 l
0.7650 0.5447 l
0.7450 0.5447 l
c
s
n
0.8000 0.5385 m
0.8100 0.5212 l
0.8200 0.5385 l
c
GS
Color0 SRGB
fill
GR
[/Pattern /DeviceRGB] SCS
Color1 Pattern8 SC
fill
[/DeviceRGB] SCS
Color1 SC
n
0.8000 0.5385 m
0.8100 0.5212 l
0.8200 0.5385 l
0.8000 0.5385 l
c
s
n
0.8550 0.5321 m
0.8650 0.5148 l
0.8750 0.5321 l
c
GS
Color0 SRGB
fill
GR
[/Pattern /DeviceRGB] SCS
Color1 Pattern8 SC
fill
[/DeviceRGB] SCS
Color1 SC
n
0.8550 0.5321 m
0.8650 0.5148 l
0.8750 0.5321 l
0.8550 0.5321 l
c
s
n
0.9100 0.5255 m
0.9200 0.5081 l
0.9300 0.5255 l
c
GS
Color0 SRGB
fill
GR
[/Pattern /DeviceRGB] SCS
Color1 Pattern8 SC
fill
[/DeviceRGB] SCS
Color1 SC
n
0.9100 0.5255 m
0.9200 0.5081 l
0.9300 0.5255 l
0.9100 0.5255 l
c
s
n
0.9650 0.5185 m
0.9750 0.5012 l
0.9850 0.5185 l
c
GS
Color0 SRGB
fill
GR
[/Pattern /DeviceRGB] SCS
Color1 Pattern8 SC
fill
[/DeviceRGB] SCS
Color1 SC
n
0.9650 0.5185 m
0.9750 0.5012 l
0.9850 0.5185 l
0.9650 0.5185 l
c
s
n
1.0200 0.5112 m
1.0300 0.4938 l
1.0400 0.5112 l
c
GS
Color0 SRGB
fill
GR
[/Pattern /DeviceRGB] SCS
Color1 Pattern8 SC
fill
[/DeviceRGB] SCS
Color1 SC
n
1.0200 0.5112 m
1.0300 0.4938 l
1.0400 0.5112 l
1.0200 0.5112 l
c
s
n
1.0750 0.5034 m
1.0850 0.4861 l
1.0950 0.5034 l
c
GS
Color0 SRGB
fill
GR
[/Pattern /DeviceRGB] SCS
Color1 Pattern8 SC
fill
[/DeviceRGB] SCS
Color1 SC
n
1.0750 0.5034 m
1.0850 0.4861 l
1.0950 0.5034 l
1.0750 0.5034 l
c
s
n
1.1300 0.4952 m
1.1400 0.4778 l
1.1500 0.4952 l
c
GS
Color0 SRGB
fill
GR
[/Pattern /DeviceRGB] SCS
Color1 Pattern8 SC
fill
[/DeviceRGB] SCS
Color1 SC
n
1.1300 0.4952 m
1.1400 0.4778 l
1.1500 0.4952 l
1.1300 0.4952 l
c
s
[/DeviceRGB] SCS
Color3 SC
[0.0187 0.0112 ] 0 SD
0.0037 SLW
n
0.1500 0.8329 m
0.1550 0.8329 l
0.1600 0.8329 l
0.1650 0.8329 l
0.1700 0.8329 l
0.1750 0.8329 l
0.1800 0.8329 l
0.1850 0.8329 l
0.1900 0.8329 l
0.1950 0.8329 l
0.2000 0.8329 l
0.2050 0.8329 l
0.2100 0.8329 l
0.2150 0.8329 l
0.2200 0.8329 l
0.2250 0.8329 l
0.2300 0.8329 l
0.2350 0.8329 l
0.2400 0.8329 l
0.2450 0.8329 l
0.2500 0.8329 l
0.2550 0.8329 l
0.2600 0.8329 l
0.2650 0.8329 l
0.2700 0.8329 l
0.2750 0.8329 l
0.2800 0.8329 l
0.2850 0.8329 l
0.2900 0.8329 l
0.2950 0.8329 l
0.3000 0.8329 l
0.3050 0.8329 l
0.3100 0.8329 l
0.3150 0.8329 l
0.3200 0.8329 l
0.3250 0.8329 l
0.3300 0.8329 l
0.3350 0.8329 l
0.3400 0.8329 l
0.3450 0.8329 l
0.3500 0.8329 l
0.3550 0.8329 l
0.3600 0.8329 l
0.3650 0.8329 l
0.3700 0.8329 l
0.3750 0.8329 l
0.3800 0.8329 l
0.3850 0.8329 l
0.3900 0.8329 l
0.3950 0.8329 l
0.4000 0.8329 l
0.4050 0.8329 l
0.4100 0.8329 l
0.4150 0.8329 l
0.4200 0.8329 l
0.4250 0.8329 l
0.4300 0.8329 l
0.4350 0.8329 l
0.4400 0.8329 l
0.4450 0.8329 l
0.4500 0.8329 l
0.4550 0.8329 l
0.4600 0.8329 l
0.4650 0.8329 l
0.4700 0.8329 l
0.4750 0.8329 l
0.4800 0.8329 l
0.4850 0.8329 l
0.4900 0.8329 l
0.4950 0.8329 l
0.5000 0.8329 l
0.5050 0.8329 l
0.5100 0.8329 l
0.5150 0.8329 l
0.5200 0.8329 l
0.5250 0.8329 l
0.5300 0.8329 l
0.5350 0.8329 l
0.5400 0.8329 l
0.5450 0.8329 l
0.5500 0.8329 l
0.5550 0.8329 l
0.5600 0.8329 l
0.5650 0.8329 l
0.5700 0.8329 l
0.5750 0.8329 l
0.5800 0.8329 l
0.5850 0.8329 l
0.5900 0.8329 l
0.5950 0.8329 l
0.6000 0.8329 l
0.6050 0.8329 l
0.6100 0.8329 l
0.6150 0.8329 l
0.6200 0.8329 l
0.6250 0.8329 l
0.6300 0.8329 l
0.6350 0.8329 l
0.6400 0.8329 l
0.6450 0.8329 l
0.6500 0.8329 l
0.6550 0.8329 l
0.6600 0.8329 l
0.6650 0.8329 l
0.6700 0.8329 l
0.6750 0.8329 l
0.6800 0.8329 l
0.6850 0.8329 l
0.6900 0.8329 l
0.6950 0.8329 l
0.7000 0.8329 l
0.7050 0.8329 l
0.7100 0.8329 l
0.7150 0.8329 l
0.7200 0.8329 l
0.7250 0.8329 l
0.7300 0.8329 l
0.7350 0.8329 l
0.7400 0.8329 l
0.7450 0.8329 l
0.7500 0.8329 l
0.7550 0.8329 l
0.7600 0.8329 l
0.7650 0.8329 l
0.7700 0.8329 l
0.7750 0.8329 l
0.7800 0.8329 l
0.7850 0.8329 l
0.7900 0.8329 l
0.7950 0.8329 l
0.8000 0.8329 l
0.8050 0.8329 l
0.8100 0.8329 l
0.8150 0.8329 l
0.8200 0.8329 l
0.8250 0.8329 l
0.8300 0.8329 l
0.8350 0.8329 l
0.8400 0.8329 l
0.8450 0.8329 l
0.8500 0.8329 l
0.8550 0.8329 l
0.8600 0.8329 l
0.8650 0.8329 l
0.8700 0.8329 l
0.8750 0.8329 l
0.8800 0.8329 l
0.8850 0.8329 l
0.8900 0.8329 l
0.8950 0.8329 l
0.9000 0.8329 l
0.9050 0.8329 l
0.9100 0.8329 l
0.9150 0.8329 l
0.9200 0.8329 l
0.9250 0.8329 l
0.9300 0.8329 l
0.9350 0.8329 l
0.9400 0.8329 l
0.9450 0.8329 l
0.9500 0.8329 l
0.9550 0.8329 l
0.9600 0.8329 l
0.9650 0.8329 l
0.9700 0.8329 l
0.9750 0.8329 l
0.9800 0.8329 l
0.9850 0.8329 l
0.9900 0.8329 l
0.9950 0.8329 l
1.0000 0.8329 l
1.0050 0.8329 l
1.0100 0.8329 l
1.0150 0.8329 l
1.0200 0.8329 l
1.0250 0.8329 l
1.0300 0.8329 l
1.0350 0.8329 l
1.0400 0.8329 l
1.0450 0.8329 l
1.0500 0.8329 l
1.0550 0.8329 l
1.0600 0.8329 l
1.0650 0.8329 l
1.0700 0.8329 l
1.0750 0.8329 l
1.0800 0.8329 l
1.0850 0.8329 l
1.0900 0.8329 l
1.0950 0.8329 l
1.1000 0.8329 l
1.1050 0.8329 l
1.1100 0.8329 l
1.1150 0.8329 l
1.1200 0.8329 l
1.1250 0.8329 l
1.1300 0.8329 l
1.1350 0.8329 l
1.1400 0.8329 l
1.1450 0.8329 l
1.1500 0.8329 l
s
n
0.1500 0.8445 m
0.1400 0.8271 l
0.1600 0.8271 l
c
GS
Color0 SRGB
fill
GR
[/Pattern /DeviceRGB] SCS
Color3 Pattern8 SC
fill
[/DeviceRGB] SCS
Color3 SC
[] 0 SD
0.0030 SLW
n
0.1500 0.8445 m
0.1400 0.8271 l
0.1600 0.8271 l
0.1500 0.8445 l
c
s
n
0.2050 0.8445 m
0.1950 0.8271 l
0.2150 0.8271 l
c
GS
Color0 SRGB
fill
GR
[/Pattern /DeviceRGB] SCS
Color3 Pattern8 SC
fill
[/DeviceRGB] SCS
Color3 SC
n
0.2050 0.8445 m
0.1950 0.8271 l
0.2150 0.8271 l
0.2050 0.8445 l
c
s
n
0.2600 0.8445 m
0.2500 0.8271 l
0.2700 0.8271 l
c
GS
Color0 SRGB
fill
GR
[/Pattern /DeviceRGB] SCS
Color3 Pattern8 SC
fill
[/DeviceRGB] SCS
Color3 SC
n
0.2600 0.8445 m
0.2500 0.8271 l
0.2700 0.8271 l
0.2600 0.8445 l
c
s
n
0.3150 0.8445 m
0.3050 0.8271 l
0.3250 0.8271 l
c
GS
Color0 SRGB
fill
GR
[/Pattern /DeviceRGB] SCS
Color3 Pattern8 SC
fill
[/DeviceRGB] SCS
Color3 SC
n
0.3150 0.8445 m
0.3050 0.8271 l
0.3250 0.8271 l
0.3150 0.8445 l
c
s
n
0.3700 0.8445 m
0.3600 0.8271 l
0.3800 0.8271 l
c
GS
Color0 SRGB
fill
GR
[/Pattern /DeviceRGB] SCS
Color3 Pattern8 SC
fill
[/DeviceRGB] SCS
Color3 SC
n
0.3700 0.8445 m
0.3600 0.8271 l
0.3800 0.8271 l
0.3700 0.8445 l
c
s
n
0.4250 0.8445 m
0.4150 0.8271 l
0.4350 0.8271 l
c
GS
Color0 SRGB
fill
GR
[/Pattern /DeviceRGB] SCS
Color3 Pattern8 SC
fill
[/DeviceRGB] SCS
Color3 SC
n
0.4250 0.8445 m
0.4150 0.8271 l
0.4350 0.8271 l
0.4250 0.8445 l
c
s
n
0.4800 0.8445 m
0.4700 0.8271 l
0.4900 0.8271 l
c
GS
Color0 SRGB
fill
GR
[/Pattern /DeviceRGB] SCS
Color3 Pattern8 SC
fill
[/DeviceRGB] SCS
Color3 SC
n
0.4800 0.8445 m
0.4700 0.8271 l
0.4900 0.8271 l
0.4800 0.8445 l
c
s
n
0.5350 0.8445 m
0.5250 0.8271 l
0.5450 0.8271 l
c
GS
Color0 SRGB
fill
GR
[/Pattern /DeviceRGB] SCS
Color3 Pattern8 SC
fill
[/DeviceRGB] SCS
Color3 SC
n
0.5350 0.8445 m
0.5250 0.8271 l
0.5450 0.8271 l
0.5350 0.8445 l
c
s
n
0.5900 0.8445 m
0.5800 0.8271 l
0.6000 0.8271 l
c
GS
Color0 SRGB
fill
GR
[/Pattern /DeviceRGB] SCS
Color3 Pattern8 SC
fill
[/DeviceRGB] SCS
Color3 SC
n
0.5900 0.8445 m
0.5800 0.8271 l
0.6000 0.8271 l
0.5900 0.8445 l
c
s
n
0.6450 0.8445 m
0.6350 0.8271 l
0.6550 0.8271 l
c
GS
Color0 SRGB
fill
GR
[/Pattern /DeviceRGB] SCS
Color3 Pattern8 SC
fill
[/DeviceRGB] SCS
Color3 SC
n
0.6450 0.8445 m
0.6350 0.8271 l
0.6550 0.8271 l
0.6450 0.8445 l
c
s
n
0.7000 0.8445 m
0.6900 0.8271 l
0.7100 0.8271 l
c
GS
Color0 SRGB
fill
GR
[/Pattern /DeviceRGB] SCS
Color3 Pattern8 SC
fill
[/DeviceRGB] SCS
Color3 SC
n
0.7000 0.8445 m
0.6900 0.8271 l
0.7100 0.8271 l
0.7000 0.8445 l
c
s
n
0.7550 0.8445 m
0.7450 0.8271 l
0.7650 0.8271 l
c
GS
Color0 SRGB
fill
GR
[/Pattern /DeviceRGB] SCS
Color3 Pattern8 SC
fill
[/DeviceRGB] SCS
Color3 SC
n
0.7550 0.8445 m
0.7450 0.8271 l
0.7650 0.8271 l
0.7550 0.8445 l
c
s
n
0.8100 0.8445 m
0.8000 0.8271 l
0.8200 0.8271 l
c
GS
Color0 SRGB
fill
GR
[/Pattern /DeviceRGB] SCS
Color3 Pattern8 SC
fill
[/DeviceRGB] SCS
Color3 SC
n
0.8100 0.8445 m
0.8000 0.8271 l
0.8200 0.8271 l
0.8100 0.8445 l
c
s
n
0.8650 0.8445 m
0.8550 0.8271 l
0.8750 0.8271 l
c
GS
Color0 SRGB
fill
GR
[/Pattern /DeviceRGB] SCS
Color3 Pattern8 SC
fill
[/DeviceRGB] SCS
Color3 SC
n
0.8650 0.8445 m
0.8550 0.8271 l
0.8750 0.8271 l
0.8650 0.8445 l
c
s
n
0.9200 0.8445 m
0.9100 0.8271 l
0.9300 0.8271 l
c
GS
Color0 SRGB
fill
GR
[/Pattern /DeviceRGB] SCS
Color3 Pattern8 SC
fill
[/DeviceRGB] SCS
Color3 SC
n
0.9200 0.8445 m
0.9100 0.8271 l
0.9300 0.8271 l
0.9200 0.8445 l
c
s
n
0.9750 0.8445 m
0.9650 0.8271 l
0.9850 0.8271 l
c
GS
Color0 SRGB
fill
GR
[/Pattern /DeviceRGB] SCS
Color3 Pattern8 SC
fill
[/DeviceRGB] SCS
Color3 SC
n
0.9750 0.8445 m
0.9650 0.8271 l
0.9850 0.8271 l
0.9750 0.8445 l
c
s
n
1.0300 0.8445 m
1.0200 0.8271 l
1.0400 0.8271 l
c
GS
Color0 SRGB
fill
GR
[/Pattern /DeviceRGB] SCS
Color3 Pattern8 SC
fill
[/DeviceRGB] SCS
Color3 SC
n
1.0300 0.8445 m
1.0200 0.8271 l
1.0400 0.8271 l
1.0300 0.8445 l
c
s
n
1.0850 0.8445 m
1.0750 0.8271 l
1.0950 0.8271 l
c
GS
Color0 SRGB
fill
GR
[/Pattern /DeviceRGB] SCS
Color3 Pattern8 SC
fill
[/DeviceRGB] SCS
Color3 SC
n
1.0850 0.8445 m
1.0750 0.8271 l
1.0950 0.8271 l
1.0850 0.8445 l
c
s
n
1.1400 0.8445 m
1.1300 0.8271 l
1.1500 0.8271 l
c
GS
Color0 SRGB
fill
GR
[/Pattern /DeviceRGB] SCS
Color3 Pattern8 SC
fill
[/DeviceRGB] SCS
Color3 SC
n
1.1400 0.8445 m
1.1300 0.8271 l
1.1500 0.8271 l
1.1400 0.8445 l
c
s
[0.0187 0.0112 ] 0 SD
0.0037 SLW
n
0.1500 0.8329 m
0.1550 0.8329 l
0.1600 0.8329 l
0.1650 0.8329 l
0.1700 0.8329 l
0.1750 0.8329 l
0.1800 0.8329 l
0.1850 0.8329 l
0.1900 0.8329 l
0.1950 0.8329 l
0.2000 0.8329 l
0.2050 0.8329 l
0.2100 0.8329 l
0.2150 0.8329 l
0.2200 0.8329 l
0.2250 0.8329 l
0.2300 0.8329 l
0.2350 0.8329 l
0.2400 0.8329 l
0.2450 0.8329 l
0.2500 0.8329 l
0.2550 0.8329 l
0.2600 0.8329 l
0.2650 0.8329 l
0.2700 0.8329 l
0.2750 0.8329 l
0.2800 0.8329 l
0.2850 0.8329 l
0.2900 0.8329 l
0.2950 0.8329 l
0.3000 0.8329 l
0.3050 0.8329 l
0.3100 0.8329 l
0.3150 0.8329 l
0.3200 0.8329 l
0.3250 0.8329 l
0.3300 0.8329 l
0.3350 0.8329 l
0.3400 0.8329 l
0.3450 0.8329 l
0.3500 0.8329 l
0.3550 0.8329 l
0.3600 0.8329 l
0.3650 0.8329 l
0.3700 0.8329 l
0.3750 0.8329 l
0.3800 0.8329 l
0.3850 0.8329 l
0.3900 0.8329 l
0.3950 0.8329 l
0.4000 0.8329 l
0.4050 0.8329 l
0.4100 0.8329 l
0.4150 0.8329 l
0.4200 0.8329 l
0.4250 0.8329 l
0.4300 0.8329 l
0.4350 0.8329 l
0.4400 0.8329 l
0.4450 0.8329 l
0.4500 0.8329 l
0.4550 0.8329 l
0.4600 0.8329 l
0.4650 0.8329 l
0.4700 0.8329 l
0.4750 0.8329 l
0.4800 0.8329 l
0.4850 0.8329 l
0.4900 0.8329 l
0.4950 0.8329 l
0.5000 0.8329 l
0.5050 0.8329 l
0.5100 0.8329 l
0.5150 0.8329 l
0.5200 0.8329 l
0.5250 0.8329 l
0.5300 0.8329 l
0.5350 0.8329 l
0.5400 0.8329 l
0.5450 0.8329 l
0.5500 0.8329 l
0.5550 0.8329 l
0.5600 0.8329 l
0.5650 0.8329 l
0.5700 0.8329 l
0.5750 0.8329 l
0.5800 0.8329 l
0.5850 0.8329 l
0.5900 0.8329 l
0.5950 0.8329 l
0.6000 0.8329 l
0.6050 0.8329 l
0.6100 0.8329 l
0.6150 0.8329 l
0.6200 0.8329 l
0.6250 0.8329 l
0.6300 0.8329 l
0.6350 0.8329 l
0.6400 0.8329 l
0.6450 0.8329 l
0.6500 0.8329 l
0.6550 0.8329 l
0.6600 0.8329 l
0.6650 0.8329 l
0.6700 0.8329 l
0.6750 0.8329 l
0.6800 0.8329 l
0.6850 0.8329 l
0.6900 0.8329 l
0.6950 0.8329 l
0.7000 0.8329 l
0.7050 0.8329 l
0.7100 0.8329 l
0.7150 0.8329 l
0.7200 0.8329 l
0.7250 0.8329 l
0.7300 0.8329 l
0.7350 0.8329 l
0.7400 0.8329 l
0.7450 0.8329 l
0.7500 0.8329 l
0.7550 0.8329 l
0.7600 0.8329 l
0.7650 0.8329 l
0.7700 0.8329 l
0.7750 0.8329 l
0.7800 0.8329 l
0.7850 0.8329 l
0.7900 0.8329 l
0.7950 0.8329 l
0.8000 0.8329 l
0.8050 0.8329 l
0.8100 0.8329 l
0.8150 0.8329 l
0.8200 0.8329 l
0.8250 0.8329 l
0.8300 0.8329 l
0.8350 0.8329 l
0.8400 0.8329 l
0.8450 0.8329 l
0.8500 0.8329 l
0.8550 0.8329 l
0.8600 0.8329 l
0.8650 0.8329 l
0.8700 0.8329 l
0.8750 0.8329 l
0.8800 0.8329 l
0.8850 0.8329 l
0.8900 0.8329 l
0.8950 0.8329 l
0.9000 0.8329 l
0.9050 0.8329 l
0.9100 0.8329 l
0.9150 0.8329 l
0.9200 0.8329 l
0.9250 0.8329 l
0.9300 0.8329 l
0.9350 0.8329 l
0.9400 0.8329 l
0.9450 0.8329 l
0.9500 0.8329 l
0.9550 0.8329 l
0.9600 0.8329 l
0.9650 0.8329 l
0.9700 0.8329 l
0.9750 0.8329 l
0.9800 0.8329 l
0.9850 0.8329 l
0.9900 0.8329 l
0.9950 0.8329 l
1.0000 0.8329 l
1.0050 0.8329 l
1.0100 0.8329 l
1.0150 0.8329 l
1.0200 0.8329 l
1.0250 0.8329 l
1.0300 0.8329 l
1.0350 0.8329 l
1.0400 0.8329 l
1.0450 0.8329 l
1.0500 0.8329 l
1.0550 0.8329 l
1.0600 0.8329 l
1.0650 0.8329 l
1.0700 0.8329 l
1.0750 0.8329 l
1.0800 0.8329 l
1.0850 0.8329 l
1.0900 0.8329 l
1.0950 0.8329 l
1.1000 0.8329 l
1.1050 0.8329 l
1.1100 0.8329 l
1.1150 0.8329 l
1.1200 0.8329 l
1.1250 0.8329 l
1.1300 0.8329 l
1.1350 0.8329 l
1.1400 0.8329 l
1.1450 0.8329 l
1.1500 0.8329 l
s
n
0.1400 0.8387 m
0.1500 0.8214 l
0.1600 0.8387 l
c
GS
Color0 SRGB
fill
GR
[/Pattern /DeviceRGB] SCS
Color3 Pattern8 SC
fill
[/DeviceRGB] SCS
Color3 SC
[] 0 SD
0.0030 SLW
n
0.1400 0.8387 m
0.1500 0.8214 l
0.1600 0.8387 l
0.1400 0.8387 l
c
s
n
0.1950 0.8387 m
0.2050 0.8214 l
0.2150 0.8387 l
c
GS
Color0 SRGB
fill
GR
[/Pattern /DeviceRGB] SCS
Color3 Pattern8 SC
fill
[/DeviceRGB] SCS
Color3 SC
n
0.1950 0.8387 m
0.2050 0.8214 l
0.2150 0.8387 l
0.1950 0.8387 l
c
s
n
0.2500 0.8387 m
0.2600 0.8214 l
0.2700 0.8387 l
c
GS
Color0 SRGB
fill
GR
[/Pattern /DeviceRGB] SCS
Color3 Pattern8 SC
fill
[/DeviceRGB] SCS
Color3 SC
n
0.2500 0.8387 m
0.2600 0.8214 l
0.2700 0.8387 l
0.2500 0.8387 l
c
s
n
0.3050 0.8387 m
0.3150 0.8214 l
0.3250 0.8387 l
c
GS
Color0 SRGB
fill
GR
[/Pattern /DeviceRGB] SCS
Color3 Pattern8 SC
fill
[/DeviceRGB] SCS
Color3 SC
n
0.3050 0.8387 m
0.3150 0.8214 l
0.3250 0.8387 l
0.3050 0.8387 l
c
s
n
0.3600 0.8387 m
0.3700 0.8214 l
0.3800 0.8387 l
c
GS
Color0 SRGB
fill
GR
[/Pattern /DeviceRGB] SCS
Color3 Pattern8 SC
fill
[/DeviceRGB] SCS
Color3 SC
n
0.3600 0.8387 m
0.3700 0.8214 l
0.3800 0.8387 l
0.3600 0.8387 l
c
s
n
0.4150 0.8387 m
0.4250 0.8214 l
0.4350 0.8387 l
c
GS
Color0 SRGB
fill
GR
[/Pattern /DeviceRGB] SCS
Color3 Pattern8 SC
fill
[/DeviceRGB] SCS
Color3 SC
n
0.4150 0.8387 m
0.4250 0.8214 l
0.4350 0.8387 l
0.4150 0.8387 l
c
s
n
0.4700 0.8387 m
0.4800 0.8214 l
0.4900 0.8387 l
c
GS
Color0 SRGB
fill
GR
[/Pattern /DeviceRGB] SCS
Color3 Pattern8 SC
fill
[/DeviceRGB] SCS
Color3 SC
n
0.4700 0.8387 m
0.4800 0.8214 l
0.4900 0.8387 l
0.4700 0.8387 l
c
s
n
0.5250 0.8387 m
0.5350 0.8214 l
0.5450 0.8387 l
c
GS
Color0 SRGB
fill
GR
[/Pattern /DeviceRGB] SCS
Color3 Pattern8 SC
fill
[/DeviceRGB] SCS
Color3 SC
n
0.5250 0.8387 m
0.5350 0.8214 l
0.5450 0.8387 l
0.5250 0.8387 l
c
s
n
0.5800 0.8387 m
0.5900 0.8214 l
0.6000 0.8387 l
c
GS
Color0 SRGB
fill
GR
[/Pattern /DeviceRGB] SCS
Color3 Pattern8 SC
fill
[/DeviceRGB] SCS
Color3 SC
n
0.5800 0.8387 m
0.5900 0.8214 l
0.6000 0.8387 l
0.5800 0.8387 l
c
s
n
0.6350 0.8387 m
0.6450 0.8214 l
0.6550 0.8387 l
c
GS
Color0 SRGB
fill
GR
[/Pattern /DeviceRGB] SCS
Color3 Pattern8 SC
fill
[/DeviceRGB] SCS
Color3 SC
n
0.6350 0.8387 m
0.6450 0.8214 l
0.6550 0.8387 l
0.6350 0.8387 l
c
s
n
0.6900 0.8387 m
0.7000 0.8214 l
0.7100 0.8387 l
c
GS
Color0 SRGB
fill
GR
[/Pattern /DeviceRGB] SCS
Color3 Pattern8 SC
fill
[/DeviceRGB] SCS
Color3 SC
n
0.6900 0.8387 m
0.7000 0.8214 l
0.7100 0.8387 l
0.6900 0.8387 l
c
s
n
0.7450 0.8387 m
0.7550 0.8214 l
0.7650 0.8387 l
c
GS
Color0 SRGB
fill
GR
[/Pattern /DeviceRGB] SCS
Color3 Pattern8 SC
fill
[/DeviceRGB] SCS
Color3 SC
n
0.7450 0.8387 m
0.7550 0.8214 l
0.7650 0.8387 l
0.7450 0.8387 l
c
s
n
0.8000 0.8387 m
0.8100 0.8214 l
0.8200 0.8387 l
c
GS
Color0 SRGB
fill
GR
[/Pattern /DeviceRGB] SCS
Color3 Pattern8 SC
fill
[/DeviceRGB] SCS
Color3 SC
n
0.8000 0.8387 m
0.8100 0.8214 l
0.8200 0.8387 l
0.8000 0.8387 l
c
s
n
0.8550 0.8387 m
0.8650 0.8214 l
0.8750 0.8387 l
c
GS
Color0 SRGB
fill
GR
[/Pattern /DeviceRGB] SCS
Color3 Pattern8 SC
fill
[/DeviceRGB] SCS
Color3 SC
n
0.8550 0.8387 m
0.8650 0.8214 l
0.8750 0.8387 l
0.8550 0.8387 l
c
s
n
0.9100 0.8387 m
0.9200 0.8214 l
0.9300 0.8387 l
c
GS
Color0 SRGB
fill
GR
[/Pattern /DeviceRGB] SCS
Color3 Pattern8 SC
fill
[/DeviceRGB] SCS
Color3 SC
n
0.9100 0.8387 m
0.9200 0.8214 l
0.9300 0.8387 l
0.9100 0.8387 l
c
s
n
0.9650 0.8387 m
0.9750 0.8214 l
0.9850 0.8387 l
c
GS
Color0 SRGB
fill
GR
[/Pattern /DeviceRGB] SCS
Color3 Pattern8 SC
fill
[/DeviceRGB] SCS
Color3 SC
n
0.9650 0.8387 m
0.9750 0.8214 l
0.9850 0.8387 l
0.9650 0.8387 l
c
s
n
1.0200 0.8387 m
1.0300 0.8214 l
1.0400 0.8387 l
c
GS
Color0 SRGB
fill
GR
[/Pattern /DeviceRGB] SCS
Color3 Pattern8 SC
fill
[/DeviceRGB] SCS
Color3 SC
n
1.0200 0.8387 m
1.0300 0.8214 l
1.0400 0.8387 l
1.0200 0.8387 l
c
s
n
1.0750 0.8387 m
1.0850 0.8214 l
1.0950 0.8387 l
c
GS
Color0 SRGB
fill
GR
[/Pattern /DeviceRGB] SCS
Color3 Pattern8 SC
fill
[/DeviceRGB] SCS
Color3 SC
n
1.0750 0.8387 m
1.0850 0.8214 l
1.0950 0.8387 l
1.0750 0.8387 l
c
s
n
1.1300 0.8387 m
1.1400 0.8214 l
1.1500 0.8387 l
c
GS
Color0 SRGB
fill
GR
[/Pattern /DeviceRGB] SCS
Color3 Pattern8 SC
fill
[/DeviceRGB] SCS
Color3 SC
n
1.1300 0.8387 m
1.1400 0.8214 l
1.1500 0.8387 l
1.1300 0.8387 l
c
s
[/DeviceRGB] SCS
Color4 SC
[0.0187 0.0112 ] 0 SD
0.0037 SLW
n
0.1500 0.7363 m
0.1550 0.7363 l
0.1600 0.7363 l
0.1650 0.7363 l
0.1700 0.7363 l
0.1750 0.7363 l
0.1800 0.7363 l
0.1850 0.7363 l
0.1900 0.7363 l
0.1950 0.7363 l
0.2000 0.7363 l
0.2050 0.7363 l
0.2100 0.7363 l
0.2150 0.7363 l
0.2200 0.7363 l
0.2250 0.7363 l
0.2300 0.7363 l
0.2350 0.7363 l
0.2400 0.7363 l
0.2450 0.7363 l
0.2500 0.7363 l
0.2550 0.7363 l
0.2600 0.7363 l
0.2650 0.7363 l
0.2700 0.7363 l
0.2750 0.7363 l
0.2800 0.7363 l
0.2850 0.7363 l
0.2900 0.7363 l
0.2950 0.7363 l
0.3000 0.7363 l
0.3050 0.7363 l
0.3100 0.7363 l
0.3150 0.7363 l
0.3200 0.7363 l
0.3250 0.7363 l
0.3300 0.7363 l
0.3350 0.7363 l
0.3400 0.7363 l
0.3450 0.7363 l
0.3500 0.7363 l
0.3550 0.7363 l
0.3600 0.7363 l
0.3650 0.7363 l
0.3700 0.7363 l
0.3750 0.7363 l
0.3800 0.7363 l
0.3850 0.7363 l
0.3900 0.7363 l
0.3950 0.7363 l
0.4000 0.7363 l
0.4050 0.7363 l
0.4100 0.7363 l
0.4150 0.7363 l
0.4200 0.7363 l
0.4250 0.7363 l
0.4300 0.7363 l
0.4350 0.7363 l
0.4400 0.7363 l
0.4450 0.7363 l
0.4500 0.7363 l
0.4550 0.7363 l
0.4600 0.7363 l
0.4650 0.7363 l
0.4700 0.7363 l
0.4750 0.7363 l
0.4800 0.7363 l
0.4850 0.7363 l
0.4900 0.7363 l
0.4950 0.7363 l
0.5000 0.7363 l
0.5050 0.7363 l
0.5100 0.7363 l
0.5150 0.7363 l
0.5200 0.7363 l
0.5250 0.7363 l
0.5300 0.7363 l
0.5350 0.7363 l
0.5400 0.7363 l
0.5450 0.7363 l
0.5500 0.7363 l
0.5550 0.7363 l
0.5600 0.7363 l
0.5650 0.7363 l
0.5700 0.7363 l
0.5750 0.7363 l
0.5800 0.7363 l
0.5850 0.7363 l
0.5900 0.7363 l
0.5950 0.7363 l
0.6000 0.7363 l
0.6050 0.7363 l
0.6100 0.7363 l
0.6150 0.7363 l
0.6200 0.7363 l
0.6250 0.7363 l
0.6300 0.7363 l
0.6350 0.7363 l
0.6400 0.7363 l
0.6450 0.7363 l
0.6500 0.7363 l
0.6550 0.7363 l
0.6600 0.7363 l
0.6650 0.7363 l
0.6700 0.7363 l
0.6750 0.7363 l
0.6800 0.7363 l
0.6850 0.7363 l
0.6900 0.7363 l
0.6950 0.7363 l
0.7000 0.7363 l
0.7050 0.7363 l
0.7100 0.7363 l
0.7150 0.7363 l
0.7200 0.7363 l
0.7250 0.7363 l
0.7300 0.7363 l
0.7350 0.7363 l
0.7400 0.7363 l
0.7450 0.7363 l
0.7500 0.7363 l
0.7550 0.7363 l
0.7600 0.7363 l
0.7650 0.7363 l
0.7700 0.7363 l
0.7750 0.7363 l
0.7800 0.7363 l
0.7850 0.7363 l
0.7900 0.7363 l
0.7950 0.7363 l
0.8000 0.7363 l
0.8050 0.7363 l
0.8100 0.7363 l
0.8150 0.7363 l
0.8200 0.7363 l
0.8250 0.7363 l
0.8300 0.7363 l
0.8350 0.7363 l
0.8400 0.7363 l
0.8450 0.7363 l
0.8500 0.7363 l
0.8550 0.7363 l
0.8600 0.7363 l
0.8650 0.7363 l
0.8700 0.7363 l
0.8750 0.7363 l
0.8800 0.7363 l
0.8850 0.7363 l
0.8900 0.7363 l
0.8950 0.7363 l
0.9000 0.7363 l
0.9050 0.7363 l
0.9100 0.7363 l
0.9150 0.7363 l
0.9200 0.7363 l
0.9250 0.7363 l
0.9300 0.7363 l
0.9350 0.7363 l
0.9400 0.7363 l
0.9450 0.7363 l
0.9500 0.7363 l
0.9550 0.7363 l
0.9600 0.7363 l
0.9650 0.7363 l
0.9700 0.7363 l
0.9750 0.7363 l
0.9800 0.7363 l
0.9850 0.7363 l
0.9900 0.7363 l
0.9950 0.7363 l
1.0000 0.7363 l
1.0050 0.7363 l
1.0100 0.7363 l
1.0150 0.7363 l
1.0200 0.7363 l
1.0250 0.7363 l
1.0300 0.7363 l
1.0350 0.7363 l
1.0400 0.7363 l
1.0450 0.7363 l
1.0500 0.7363 l
1.0550 0.7363 l
1.0600 0.7363 l
1.0650 0.7363 l
1.0700 0.7363 l
1.0750 0.7363 l
1.0800 0.7363 l
1.0850 0.7363 l
1.0900 0.7363 l
1.0950 0.7363 l
1.1000 0.7363 l
1.1050 0.7363 l
1.1100 0.7363 l
1.1150 0.7363 l
1.1200 0.7363 l
1.1250 0.7363 l
1.1300 0.7363 l
1.1350 0.7363 l
1.1400 0.7363 l
1.1450 0.7363 l
1.1500 0.7363 l
s
n
0.1500 0.7478 m
0.1400 0.7305 l
0.1600 0.7305 l
c
GS
Color0 SRGB
fill
GR
[/Pattern /DeviceRGB] SCS
Color4 Pattern8 SC
fill
[/DeviceRGB] SCS
Color4 SC
[] 0 SD
0.0030 SLW
n
0.1500 0.7478 m
0.1400 0.7305 l
0.1600 0.7305 l
0.1500 0.7478 l
c
s
n
0.2050 0.7478 m
0.1950 0.7305 l
0.2150 0.7305 l
c
GS
Color0 SRGB
fill
GR
[/Pattern /DeviceRGB] SCS
Color4 Pattern8 SC
fill
[/DeviceRGB] SCS
Color4 SC
n
0.2050 0.7478 m
0.1950 0.7305 l
0.2150 0.7305 l
0.2050 0.7478 l
c
s
n
0.2600 0.7478 m
0.2500 0.7305 l
0.2700 0.7305 l
c
GS
Color0 SRGB
fill
GR
[/Pattern /DeviceRGB] SCS
Color4 Pattern8 SC
fill
[/DeviceRGB] SCS
Color4 SC
n
0.2600 0.7478 m
0.2500 0.7305 l
0.2700 0.7305 l
0.2600 0.7478 l
c
s
n
0.3150 0.7478 m
0.3050 0.7305 l
0.3250 0.7305 l
c
GS
Color0 SRGB
fill
GR
[/Pattern /DeviceRGB] SCS
Color4 Pattern8 SC
fill
[/DeviceRGB] SCS
Color4 SC
n
0.3150 0.7478 m
0.3050 0.7305 l
0.3250 0.7305 l
0.3150 0.7478 l
c
s
n
0.3700 0.7478 m
0.3600 0.7305 l
0.3800 0.7305 l
c
GS
Color0 SRGB
fill
GR
[/Pattern /DeviceRGB] SCS
Color4 Pattern8 SC
fill
[/DeviceRGB] SCS
Color4 SC
n
0.3700 0.7478 m
0.3600 0.7305 l
0.3800 0.7305 l
0.3700 0.7478 l
c
s
n
0.4250 0.7478 m
0.4150 0.7305 l
0.4350 0.7305 l
c
GS
Color0 SRGB
fill
GR
[/Pattern /DeviceRGB] SCS
Color4 Pattern8 SC
fill
[/DeviceRGB] SCS
Color4 SC
n
0.4250 0.7478 m
0.4150 0.7305 l
0.4350 0.7305 l
0.4250 0.7478 l
c
s
n
0.4800 0.7478 m
0.4700 0.7305 l
0.4900 0.7305 l
c
GS
Color0 SRGB
fill
GR
[/Pattern /DeviceRGB] SCS
Color4 Pattern8 SC
fill
[/DeviceRGB] SCS
Color4 SC
n
0.4800 0.7478 m
0.4700 0.7305 l
0.4900 0.7305 l
0.4800 0.7478 l
c
s
n
0.5350 0.7478 m
0.5250 0.7305 l
0.5450 0.7305 l
c
GS
Color0 SRGB
fill
GR
[/Pattern /DeviceRGB] SCS
Color4 Pattern8 SC
fill
[/DeviceRGB] SCS
Color4 SC
n
0.5350 0.7478 m
0.5250 0.7305 l
0.5450 0.7305 l
0.5350 0.7478 l
c
s
n
0.5900 0.7478 m
0.5800 0.7305 l
0.6000 0.7305 l
c
GS
Color0 SRGB
fill
GR
[/Pattern /DeviceRGB] SCS
Color4 Pattern8 SC
fill
[/DeviceRGB] SCS
Color4 SC
n
0.5900 0.7478 m
0.5800 0.7305 l
0.6000 0.7305 l
0.5900 0.7478 l
c
s
n
0.6450 0.7478 m
0.6350 0.7305 l
0.6550 0.7305 l
c
GS
Color0 SRGB
fill
GR
[/Pattern /DeviceRGB] SCS
Color4 Pattern8 SC
fill
[/DeviceRGB] SCS
Color4 SC
n
0.6450 0.7478 m
0.6350 0.7305 l
0.6550 0.7305 l
0.6450 0.7478 l
c
s
n
0.7000 0.7478 m
0.6900 0.7305 l
0.7100 0.7305 l
c
GS
Color0 SRGB
fill
GR
[/Pattern /DeviceRGB] SCS
Color4 Pattern8 SC
fill
[/DeviceRGB] SCS
Color4 SC
n
0.7000 0.7478 m
0.6900 0.7305 l
0.7100 0.7305 l
0.7000 0.7478 l
c
s
n
0.7550 0.7478 m
0.7450 0.7305 l
0.7650 0.7305 l
c
GS
Color0 SRGB
fill
GR
[/Pattern /DeviceRGB] SCS
Color4 Pattern8 SC
fill
[/DeviceRGB] SCS
Color4 SC
n
0.7550 0.7478 m
0.7450 0.7305 l
0.7650 0.7305 l
0.7550 0.7478 l
c
s
n
0.8100 0.7478 m
0.8000 0.7305 l
0.8200 0.7305 l
c
GS
Color0 SRGB
fill
GR
[/Pattern /DeviceRGB] SCS
Color4 Pattern8 SC
fill
[/DeviceRGB] SCS
Color4 SC
n
0.8100 0.7478 m
0.8000 0.7305 l
0.8200 0.7305 l
0.8100 0.7478 l
c
s
n
0.8650 0.7478 m
0.8550 0.7305 l
0.8750 0.7305 l
c
GS
Color0 SRGB
fill
GR
[/Pattern /DeviceRGB] SCS
Color4 Pattern8 SC
fill
[/DeviceRGB] SCS
Color4 SC
n
0.8650 0.7478 m
0.8550 0.7305 l
0.8750 0.7305 l
0.8650 0.7478 l
c
s
n
0.9200 0.7478 m
0.9100 0.7305 l
0.9300 0.7305 l
c
GS
Color0 SRGB
fill
GR
[/Pattern /DeviceRGB] SCS
Color4 Pattern8 SC
fill
[/DeviceRGB] SCS
Color4 SC
n
0.9200 0.7478 m
0.9100 0.7305 l
0.9300 0.7305 l
0.9200 0.7478 l
c
s
n
0.9750 0.7478 m
0.9650 0.7305 l
0.9850 0.7305 l
c
GS
Color0 SRGB
fill
GR
[/Pattern /DeviceRGB] SCS
Color4 Pattern8 SC
fill
[/DeviceRGB] SCS
Color4 SC
n
0.9750 0.7478 m
0.9650 0.7305 l
0.9850 0.7305 l
0.9750 0.7478 l
c
s
n
1.0300 0.7478 m
1.0200 0.7305 l
1.0400 0.7305 l
c
GS
Color0 SRGB
fill
GR
[/Pattern /DeviceRGB] SCS
Color4 Pattern8 SC
fill
[/DeviceRGB] SCS
Color4 SC
n
1.0300 0.7478 m
1.0200 0.7305 l
1.0400 0.7305 l
1.0300 0.7478 l
c
s
n
1.0850 0.7478 m
1.0750 0.7305 l
1.0950 0.7305 l
c
GS
Color0 SRGB
fill
GR
[/Pattern /DeviceRGB] SCS
Color4 Pattern8 SC
fill
[/DeviceRGB] SCS
Color4 SC
n
1.0850 0.7478 m
1.0750 0.7305 l
1.0950 0.7305 l
1.0850 0.7478 l
c
s
n
1.1400 0.7478 m
1.1300 0.7305 l
1.1500 0.7305 l
c
GS
Color0 SRGB
fill
GR
[/Pattern /DeviceRGB] SCS
Color4 Pattern8 SC
fill
[/DeviceRGB] SCS
Color4 SC
n
1.1400 0.7478 m
1.1300 0.7305 l
1.1500 0.7305 l
1.1400 0.7478 l
c
s
[0.0187 0.0112 ] 0 SD
0.0037 SLW
n
0.1500 0.7363 m
0.1550 0.7363 l
0.1600 0.7363 l
0.1650 0.7363 l
0.1700 0.7363 l
0.1750 0.7363 l
0.1800 0.7363 l
0.1850 0.7363 l
0.1900 0.7363 l
0.1950 0.7363 l
0.2000 0.7363 l
0.2050 0.7363 l
0.2100 0.7363 l
0.2150 0.7363 l
0.2200 0.7363 l
0.2250 0.7363 l
0.2300 0.7363 l
0.2350 0.7363 l
0.2400 0.7363 l
0.2450 0.7363 l
0.2500 0.7363 l
0.2550 0.7363 l
0.2600 0.7363 l
0.2650 0.7363 l
0.2700 0.7363 l
0.2750 0.7363 l
0.2800 0.7363 l
0.2850 0.7363 l
0.2900 0.7363 l
0.2950 0.7363 l
0.3000 0.7363 l
0.3050 0.7363 l
0.3100 0.7363 l
0.3150 0.7363 l
0.3200 0.7363 l
0.3250 0.7363 l
0.3300 0.7363 l
0.3350 0.7363 l
0.3400 0.7363 l
0.3450 0.7363 l
0.3500 0.7363 l
0.3550 0.7363 l
0.3600 0.7363 l
0.3650 0.7363 l
0.3700 0.7363 l
0.3750 0.7363 l
0.3800 0.7363 l
0.3850 0.7363 l
0.3900 0.7363 l
0.3950 0.7363 l
0.4000 0.7363 l
0.4050 0.7363 l
0.4100 0.7363 l
0.4150 0.7363 l
0.4200 0.7363 l
0.4250 0.7363 l
0.4300 0.7363 l
0.4350 0.7363 l
0.4400 0.7363 l
0.4450 0.7363 l
0.4500 0.7363 l
0.4550 0.7363 l
0.4600 0.7363 l
0.4650 0.7363 l
0.4700 0.7363 l
0.4750 0.7363 l
0.4800 0.7363 l
0.4850 0.7363 l
0.4900 0.7363 l
0.4950 0.7363 l
0.5000 0.7363 l
0.5050 0.7363 l
0.5100 0.7363 l
0.5150 0.7363 l
0.5200 0.7363 l
0.5250 0.7363 l
0.5300 0.7363 l
0.5350 0.7363 l
0.5400 0.7363 l
0.5450 0.7363 l
0.5500 0.7363 l
0.5550 0.7363 l
0.5600 0.7363 l
0.5650 0.7363 l
0.5700 0.7363 l
0.5750 0.7363 l
0.5800 0.7363 l
0.5850 0.7363 l
0.5900 0.7363 l
0.5950 0.7363 l
0.6000 0.7363 l
0.6050 0.7363 l
0.6100 0.7363 l
0.6150 0.7363 l
0.6200 0.7363 l
0.6250 0.7363 l
0.6300 0.7363 l
0.6350 0.7363 l
0.6400 0.7363 l
0.6450 0.7363 l
0.6500 0.7363 l
0.6550 0.7363 l
0.6600 0.7363 l
0.6650 0.7363 l
0.6700 0.7363 l
0.6750 0.7363 l
0.6800 0.7363 l
0.6850 0.7363 l
0.6900 0.7363 l
0.6950 0.7363 l
0.7000 0.7363 l
0.7050 0.7363 l
0.7100 0.7363 l
0.7150 0.7363 l
0.7200 0.7363 l
0.7250 0.7363 l
0.7300 0.7363 l
0.7350 0.7363 l
0.7400 0.7363 l
0.7450 0.7363 l
0.7500 0.7363 l
0.7550 0.7363 l
0.7600 0.7363 l
0.7650 0.7363 l
0.7700 0.7363 l
0.7750 0.7363 l
0.7800 0.7363 l
0.7850 0.7363 l
0.7900 0.7363 l
0.7950 0.7363 l
0.8000 0.7363 l
0.8050 0.7363 l
0.8100 0.7363 l
0.8150 0.7363 l
0.8200 0.7363 l
0.8250 0.7363 l
0.8300 0.7363 l
0.8350 0.7363 l
0.8400 0.7363 l
0.8450 0.7363 l
0.8500 0.7363 l
0.8550 0.7363 l
0.8600 0.7363 l
0.8650 0.7363 l
0.8700 0.7363 l
0.8750 0.7363 l
0.8800 0.7363 l
0.8850 0.7363 l
0.8900 0.7363 l
0.8950 0.7363 l
0.9000 0.7363 l
0.9050 0.7363 l
0.9100 0.7363 l
0.9150 0.7363 l
0.9200 0.7363 l
0.9250 0.7363 l
0.9300 0.7363 l
0.9350 0.7363 l
0.9400 0.7363 l
0.9450 0.7363 l
0.9500 0.7363 l
0.9550 0.7363 l
0.9600 0.7363 l
0.9650 0.7363 l
0.9700 0.7363 l
0.9750 0.7363 l
0.9800 0.7363 l
0.9850 0.7363 l
0.9900 0.7363 l
0.9950 0.7363 l
1.0000 0.7363 l
1.0050 0.7363 l
1.0100 0.7363 l
1.0150 0.7363 l
1.0200 0.7363 l
1.0250 0.7363 l
1.0300 0.7363 l
1.0350 0.7363 l
1.0400 0.7363 l
1.0450 0.7363 l
1.0500 0.7363 l
1.0550 0.7363 l
1.0600 0.7363 l
1.0650 0.7363 l
1.0700 0.7363 l
1.0750 0.7363 l
1.0800 0.7363 l
1.0850 0.7363 l
1.0900 0.7363 l
1.0950 0.7363 l
1.1000 0.7363 l
1.1050 0.7363 l
1.1100 0.7363 l
1.1150 0.7363 l
1.1200 0.7363 l
1.1250 0.7363 l
1.1300 0.7363 l
1.1350 0.7363 l
1.1400 0.7363 l
1.1450 0.7363 l
1.1500 0.7363 l
s
n
0.1400 0.7420 m
0.1500 0.7247 l
0.1600 0.7420 l
c
GS
Color0 SRGB
fill
GR
[/Pattern /DeviceRGB] SCS
Color4 Pattern8 SC
fill
[/DeviceRGB] SCS
Color4 SC
[] 0 SD
0.0030 SLW
n
0.1400 0.7420 m
0.1500 0.7247 l
0.1600 0.7420 l
0.1400 0.7420 l
c
s
n
0.1950 0.7420 m
0.2050 0.7247 l
0.2150 0.7420 l
c
GS
Color0 SRGB
fill
GR
[/Pattern /DeviceRGB] SCS
Color4 Pattern8 SC
fill
[/DeviceRGB] SCS
Color4 SC
n
0.1950 0.7420 m
0.2050 0.7247 l
0.2150 0.7420 l
0.1950 0.7420 l
c
s
n
0.2500 0.7420 m
0.2600 0.7247 l
0.2700 0.7420 l
c
GS
Color0 SRGB
fill
GR
[/Pattern /DeviceRGB] SCS
Color4 Pattern8 SC
fill
[/DeviceRGB] SCS
Color4 SC
n
0.2500 0.7420 m
0.2600 0.7247 l
0.2700 0.7420 l
0.2500 0.7420 l
c
s
n
0.3050 0.7420 m
0.3150 0.7247 l
0.3250 0.7420 l
c
GS
Color0 SRGB
fill
GR
[/Pattern /DeviceRGB] SCS
Color4 Pattern8 SC
fill
[/DeviceRGB] SCS
Color4 SC
n
0.3050 0.7420 m
0.3150 0.7247 l
0.3250 0.7420 l
0.3050 0.7420 l
c
s
n
0.3600 0.7420 m
0.3700 0.7247 l
0.3800 0.7420 l
c
GS
Color0 SRGB
fill
GR
[/Pattern /DeviceRGB] SCS
Color4 Pattern8 SC
fill
[/DeviceRGB] SCS
Color4 SC
n
0.3600 0.7420 m
0.3700 0.7247 l
0.3800 0.7420 l
0.3600 0.7420 l
c
s
n
0.4150 0.7420 m
0.4250 0.7247 l
0.4350 0.7420 l
c
GS
Color0 SRGB
fill
GR
[/Pattern /DeviceRGB] SCS
Color4 Pattern8 SC
fill
[/DeviceRGB] SCS
Color4 SC
n
0.4150 0.7420 m
0.4250 0.7247 l
0.4350 0.7420 l
0.4150 0.7420 l
c
s
n
0.4700 0.7420 m
0.4800 0.7247 l
0.4900 0.7420 l
c
GS
Color0 SRGB
fill
GR
[/Pattern /DeviceRGB] SCS
Color4 Pattern8 SC
fill
[/DeviceRGB] SCS
Color4 SC
n
0.4700 0.7420 m
0.4800 0.7247 l
0.4900 0.7420 l
0.4700 0.7420 l
c
s
n
0.5250 0.7420 m
0.5350 0.7247 l
0.5450 0.7420 l
c
GS
Color0 SRGB
fill
GR
[/Pattern /DeviceRGB] SCS
Color4 Pattern8 SC
fill
[/DeviceRGB] SCS
Color4 SC
n
0.5250 0.7420 m
0.5350 0.7247 l
0.5450 0.7420 l
0.5250 0.7420 l
c
s
n
0.5800 0.7420 m
0.5900 0.7247 l
0.6000 0.7420 l
c
GS
Color0 SRGB
fill
GR
[/Pattern /DeviceRGB] SCS
Color4 Pattern8 SC
fill
[/DeviceRGB] SCS
Color4 SC
n
0.5800 0.7420 m
0.5900 0.7247 l
0.6000 0.7420 l
0.5800 0.7420 l
c
s
n
0.6350 0.7420 m
0.6450 0.7247 l
0.6550 0.7420 l
c
GS
Color0 SRGB
fill
GR
[/Pattern /DeviceRGB] SCS
Color4 Pattern8 SC
fill
[/DeviceRGB] SCS
Color4 SC
n
0.6350 0.7420 m
0.6450 0.7247 l
0.6550 0.7420 l
0.6350 0.7420 l
c
s
n
0.6900 0.7420 m
0.7000 0.7247 l
0.7100 0.7420 l
c
GS
Color0 SRGB
fill
GR
[/Pattern /DeviceRGB] SCS
Color4 Pattern8 SC
fill
[/DeviceRGB] SCS
Color4 SC
n
0.6900 0.7420 m
0.7000 0.7247 l
0.7100 0.7420 l
0.6900 0.7420 l
c
s
n
0.7450 0.7420 m
0.7550 0.7247 l
0.7650 0.7420 l
c
GS
Color0 SRGB
fill
GR
[/Pattern /DeviceRGB] SCS
Color4 Pattern8 SC
fill
[/DeviceRGB] SCS
Color4 SC
n
0.7450 0.7420 m
0.7550 0.7247 l
0.7650 0.7420 l
0.7450 0.7420 l
c
s
n
0.8000 0.7420 m
0.8100 0.7247 l
0.8200 0.7420 l
c
GS
Color0 SRGB
fill
GR
[/Pattern /DeviceRGB] SCS
Color4 Pattern8 SC
fill
[/DeviceRGB] SCS
Color4 SC
n
0.8000 0.7420 m
0.8100 0.7247 l
0.8200 0.7420 l
0.8000 0.7420 l
c
s
n
0.8550 0.7420 m
0.8650 0.7247 l
0.8750 0.7420 l
c
GS
Color0 SRGB
fill
GR
[/Pattern /DeviceRGB] SCS
Color4 Pattern8 SC
fill
[/DeviceRGB] SCS
Color4 SC
n
0.8550 0.7420 m
0.8650 0.7247 l
0.8750 0.7420 l
0.8550 0.7420 l
c
s
n
0.9100 0.7420 m
0.9200 0.7247 l
0.9300 0.7420 l
c
GS
Color0 SRGB
fill
GR
[/Pattern /DeviceRGB] SCS
Color4 Pattern8 SC
fill
[/DeviceRGB] SCS
Color4 SC
n
0.9100 0.7420 m
0.9200 0.7247 l
0.9300 0.7420 l
0.9100 0.7420 l
c
s
n
0.9650 0.7420 m
0.9750 0.7247 l
0.9850 0.7420 l
c
GS
Color0 SRGB
fill
GR
[/Pattern /DeviceRGB] SCS
Color4 Pattern8 SC
fill
[/DeviceRGB] SCS
Color4 SC
n
0.9650 0.7420 m
0.9750 0.7247 l
0.9850 0.7420 l
0.9650 0.7420 l
c
s
n
1.0200 0.7420 m
1.0300 0.7247 l
1.0400 0.7420 l
c
GS
Color0 SRGB
fill
GR
[/Pattern /DeviceRGB] SCS
Color4 Pattern8 SC
fill
[/DeviceRGB] SCS
Color4 SC
n
1.0200 0.7420 m
1.0300 0.7247 l
1.0400 0.7420 l
1.0200 0.7420 l
c
s
n
1.0750 0.7420 m
1.0850 0.7247 l
1.0950 0.7420 l
c
GS
Color0 SRGB
fill
GR
[/Pattern /DeviceRGB] SCS
Color4 Pattern8 SC
fill
[/DeviceRGB] SCS
Color4 SC
n
1.0750 0.7420 m
1.0850 0.7247 l
1.0950 0.7420 l
1.0750 0.7420 l
c
s
n
1.1300 0.7420 m
1.1400 0.7247 l
1.1500 0.7420 l
c
GS
Color0 SRGB
fill
GR
[/Pattern /DeviceRGB] SCS
Color4 Pattern8 SC
fill
[/DeviceRGB] SCS
Color4 SC
n
1.1300 0.7420 m
1.1400 0.7247 l
1.1500 0.7420 l
1.1300 0.7420 l
c
s
[/DeviceRGB] SCS
Color15 SC
[0.0187 0.0112 ] 0 SD
0.0037 SLW
n
0.1500 0.6473 m
0.1550 0.6473 l
0.1600 0.6473 l
0.1650 0.6473 l
0.1700 0.6473 l
0.1750 0.6473 l
0.1800 0.6473 l
0.1850 0.6473 l
0.1900 0.6473 l
0.1950 0.6473 l
0.2000 0.6473 l
0.2050 0.6473 l
0.2100 0.6473 l
0.2150 0.6473 l
0.2200 0.6473 l
0.2250 0.6473 l
0.2300 0.6473 l
0.2350 0.6473 l
0.2400 0.6473 l
0.2450 0.6473 l
0.2500 0.6473 l
0.2550 0.6473 l
0.2600 0.6473 l
0.2650 0.6473 l
0.2700 0.6473 l
0.2750 0.6473 l
0.2800 0.6473 l
0.2850 0.6473 l
0.2900 0.6473 l
0.2950 0.6473 l
0.3000 0.6473 l
0.3050 0.6473 l
0.3100 0.6473 l
0.3150 0.6473 l
0.3200 0.6473 l
0.3250 0.6473 l
0.3300 0.6473 l
0.3350 0.6473 l
0.3400 0.6473 l
0.3450 0.6473 l
0.3500 0.6473 l
0.3550 0.6473 l
0.3600 0.6473 l
0.3650 0.6473 l
0.3700 0.6473 l
0.3750 0.6473 l
0.3800 0.6473 l
0.3850 0.6473 l
0.3900 0.6473 l
0.3950 0.6473 l
0.4000 0.6473 l
0.4050 0.6473 l
0.4100 0.6473 l
0.4150 0.6473 l
0.4200 0.6473 l
0.4250 0.6473 l
0.4300 0.6473 l
0.4350 0.6473 l
0.4400 0.6473 l
0.4450 0.6473 l
0.4500 0.6473 l
0.4550 0.6473 l
0.4600 0.6473 l
0.4650 0.6473 l
0.4700 0.6473 l
0.4750 0.6473 l
0.4800 0.6473 l
0.4850 0.6473 l
0.4900 0.6473 l
0.4950 0.6473 l
0.5000 0.6473 l
0.5050 0.6473 l
0.5100 0.6473 l
0.5150 0.6473 l
0.5200 0.6473 l
0.5250 0.6473 l
0.5300 0.6473 l
0.5350 0.6473 l
0.5400 0.6473 l
0.5450 0.6473 l
0.5500 0.6473 l
0.5550 0.6473 l
0.5600 0.6473 l
0.5650 0.6473 l
0.5700 0.6473 l
0.5750 0.6473 l
0.5800 0.6473 l
0.5850 0.6473 l
0.5900 0.6473 l
0.5950 0.6473 l
0.6000 0.6473 l
0.6050 0.6473 l
0.6100 0.6473 l
0.6150 0.6473 l
0.6200 0.6473 l
0.6250 0.6473 l
0.6300 0.6473 l
0.6350 0.6473 l
0.6400 0.6473 l
0.6450 0.6473 l
0.6500 0.6473 l
0.6550 0.6473 l
0.6600 0.6473 l
0.6650 0.6473 l
0.6700 0.6473 l
0.6750 0.6473 l
0.6800 0.6473 l
0.6850 0.6473 l
0.6900 0.6473 l
0.6950 0.6473 l
0.7000 0.6473 l
0.7050 0.6473 l
0.7100 0.6473 l
0.7150 0.6473 l
0.7200 0.6473 l
0.7250 0.6473 l
0.7300 0.6473 l
0.7350 0.6473 l
0.7400 0.6473 l
0.7450 0.6473 l
0.7500 0.6473 l
0.7550 0.6473 l
0.7600 0.6473 l
0.7650 0.6473 l
0.7700 0.6473 l
0.7750 0.6473 l
0.7800 0.6473 l
0.7850 0.6473 l
0.7900 0.6473 l
0.7950 0.6473 l
0.8000 0.6473 l
0.8050 0.6473 l
0.8100 0.6473 l
0.8150 0.6473 l
0.8200 0.6473 l
0.8250 0.6473 l
0.8300 0.6473 l
0.8350 0.6473 l
0.8400 0.6473 l
0.8450 0.6473 l
0.8500 0.6473 l
0.8550 0.6473 l
0.8600 0.6473 l
0.8650 0.6473 l
0.8700 0.6473 l
0.8750 0.6473 l
0.8800 0.6473 l
0.8850 0.6473 l
0.8900 0.6473 l
0.8950 0.6473 l
0.9000 0.6473 l
0.9050 0.6473 l
0.9100 0.6473 l
0.9150 0.6473 l
0.9200 0.6473 l
0.9250 0.6473 l
0.9300 0.6473 l
0.9350 0.6473 l
0.9400 0.6473 l
0.9450 0.6473 l
0.9500 0.6473 l
0.9550 0.6473 l
0.9600 0.6473 l
0.9650 0.6473 l
0.9700 0.6473 l
0.9750 0.6473 l
0.9800 0.6473 l
0.9850 0.6473 l
0.9900 0.6473 l
0.9950 0.6473 l
1.0000 0.6473 l
1.0050 0.6473 l
1.0100 0.6473 l
1.0150 0.6473 l
1.0200 0.6473 l
1.0250 0.6473 l
1.0300 0.6473 l
1.0350 0.6473 l
1.0400 0.6473 l
1.0450 0.6473 l
1.0500 0.6473 l
1.0550 0.6473 l
1.0600 0.6473 l
1.0650 0.6473 l
1.0700 0.6473 l
1.0750 0.6473 l
1.0800 0.6473 l
1.0850 0.6473 l
1.0900 0.6473 l
1.0950 0.6473 l
1.1000 0.6473 l
1.1050 0.6473 l
1.1100 0.6473 l
1.1150 0.6473 l
1.1200 0.6473 l
1.1250 0.6473 l
1.1300 0.6473 l
1.1350 0.6473 l
1.1400 0.6473 l
1.1450 0.6473 l
1.1500 0.6473 l
s
n
0.1500 0.6589 m
0.1400 0.6415 l
0.1600 0.6415 l
c
GS
Color0 SRGB
fill
GR
[/Pattern /DeviceRGB] SCS
Color15 Pattern8 SC
fill
[/DeviceRGB] SCS
Color15 SC
[] 0 SD
0.0030 SLW
n
0.1500 0.6589 m
0.1400 0.6415 l
0.1600 0.6415 l
0.1500 0.6589 l
c
s
n
0.2050 0.6589 m
0.1950 0.6415 l
0.2150 0.6415 l
c
GS
Color0 SRGB
fill
GR
[/Pattern /DeviceRGB] SCS
Color15 Pattern8 SC
fill
[/DeviceRGB] SCS
Color15 SC
n
0.2050 0.6589 m
0.1950 0.6415 l
0.2150 0.6415 l
0.2050 0.6589 l
c
s
n
0.2600 0.6589 m
0.2500 0.6415 l
0.2700 0.6415 l
c
GS
Color0 SRGB
fill
GR
[/Pattern /DeviceRGB] SCS
Color15 Pattern8 SC
fill
[/DeviceRGB] SCS
Color15 SC
n
0.2600 0.6589 m
0.2500 0.6415 l
0.2700 0.6415 l
0.2600 0.6589 l
c
s
n
0.3150 0.6589 m
0.3050 0.6415 l
0.3250 0.6415 l
c
GS
Color0 SRGB
fill
GR
[/Pattern /DeviceRGB] SCS
Color15 Pattern8 SC
fill
[/DeviceRGB] SCS
Color15 SC
n
0.3150 0.6589 m
0.3050 0.6415 l
0.3250 0.6415 l
0.3150 0.6589 l
c
s
n
0.3700 0.6589 m
0.3600 0.6415 l
0.3800 0.6415 l
c
GS
Color0 SRGB
fill
GR
[/Pattern /DeviceRGB] SCS
Color15 Pattern8 SC
fill
[/DeviceRGB] SCS
Color15 SC
n
0.3700 0.6589 m
0.3600 0.6415 l
0.3800 0.6415 l
0.3700 0.6589 l
c
s
n
0.4250 0.6589 m
0.4150 0.6415 l
0.4350 0.6415 l
c
GS
Color0 SRGB
fill
GR
[/Pattern /DeviceRGB] SCS
Color15 Pattern8 SC
fill
[/DeviceRGB] SCS
Color15 SC
n
0.4250 0.6589 m
0.4150 0.6415 l
0.4350 0.6415 l
0.4250 0.6589 l
c
s
n
0.4800 0.6589 m
0.4700 0.6415 l
0.4900 0.6415 l
c
GS
Color0 SRGB
fill
GR
[/Pattern /DeviceRGB] SCS
Color15 Pattern8 SC
fill
[/DeviceRGB] SCS
Color15 SC
n
0.4800 0.6589 m
0.4700 0.6415 l
0.4900 0.6415 l
0.4800 0.6589 l
c
s
n
0.5350 0.6589 m
0.5250 0.6415 l
0.5450 0.6415 l
c
GS
Color0 SRGB
fill
GR
[/Pattern /DeviceRGB] SCS
Color15 Pattern8 SC
fill
[/DeviceRGB] SCS
Color15 SC
n
0.5350 0.6589 m
0.5250 0.6415 l
0.5450 0.6415 l
0.5350 0.6589 l
c
s
n
0.5900 0.6589 m
0.5800 0.6415 l
0.6000 0.6415 l
c
GS
Color0 SRGB
fill
GR
[/Pattern /DeviceRGB] SCS
Color15 Pattern8 SC
fill
[/DeviceRGB] SCS
Color15 SC
n
0.5900 0.6589 m
0.5800 0.6415 l
0.6000 0.6415 l
0.5900 0.6589 l
c
s
n
0.6450 0.6589 m
0.6350 0.6415 l
0.6550 0.6415 l
c
GS
Color0 SRGB
fill
GR
[/Pattern /DeviceRGB] SCS
Color15 Pattern8 SC
fill
[/DeviceRGB] SCS
Color15 SC
n
0.6450 0.6589 m
0.6350 0.6415 l
0.6550 0.6415 l
0.6450 0.6589 l
c
s
n
0.7000 0.6589 m
0.6900 0.6415 l
0.7100 0.6415 l
c
GS
Color0 SRGB
fill
GR
[/Pattern /DeviceRGB] SCS
Color15 Pattern8 SC
fill
[/DeviceRGB] SCS
Color15 SC
n
0.7000 0.6589 m
0.6900 0.6415 l
0.7100 0.6415 l
0.7000 0.6589 l
c
s
n
0.7550 0.6589 m
0.7450 0.6415 l
0.7650 0.6415 l
c
GS
Color0 SRGB
fill
GR
[/Pattern /DeviceRGB] SCS
Color15 Pattern8 SC
fill
[/DeviceRGB] SCS
Color15 SC
n
0.7550 0.6589 m
0.7450 0.6415 l
0.7650 0.6415 l
0.7550 0.6589 l
c
s
n
0.8100 0.6589 m
0.8000 0.6415 l
0.8200 0.6415 l
c
GS
Color0 SRGB
fill
GR
[/Pattern /DeviceRGB] SCS
Color15 Pattern8 SC
fill
[/DeviceRGB] SCS
Color15 SC
n
0.8100 0.6589 m
0.8000 0.6415 l
0.8200 0.6415 l
0.8100 0.6589 l
c
s
n
0.8650 0.6589 m
0.8550 0.6415 l
0.8750 0.6415 l
c
GS
Color0 SRGB
fill
GR
[/Pattern /DeviceRGB] SCS
Color15 Pattern8 SC
fill
[/DeviceRGB] SCS
Color15 SC
n
0.8650 0.6589 m
0.8550 0.6415 l
0.8750 0.6415 l
0.8650 0.6589 l
c
s
n
0.9200 0.6589 m
0.9100 0.6415 l
0.9300 0.6415 l
c
GS
Color0 SRGB
fill
GR
[/Pattern /DeviceRGB] SCS
Color15 Pattern8 SC
fill
[/DeviceRGB] SCS
Color15 SC
n
0.9200 0.6589 m
0.9100 0.6415 l
0.9300 0.6415 l
0.9200 0.6589 l
c
s
n
0.9750 0.6589 m
0.9650 0.6415 l
0.9850 0.6415 l
c
GS
Color0 SRGB
fill
GR
[/Pattern /DeviceRGB] SCS
Color15 Pattern8 SC
fill
[/DeviceRGB] SCS
Color15 SC
n
0.9750 0.6589 m
0.9650 0.6415 l
0.9850 0.6415 l
0.9750 0.6589 l
c
s
n
1.0300 0.6589 m
1.0200 0.6415 l
1.0400 0.6415 l
c
GS
Color0 SRGB
fill
GR
[/Pattern /DeviceRGB] SCS
Color15 Pattern8 SC
fill
[/DeviceRGB] SCS
Color15 SC
n
1.0300 0.6589 m
1.0200 0.6415 l
1.0400 0.6415 l
1.0300 0.6589 l
c
s
n
1.0850 0.6589 m
1.0750 0.6415 l
1.0950 0.6415 l
c
GS
Color0 SRGB
fill
GR
[/Pattern /DeviceRGB] SCS
Color15 Pattern8 SC
fill
[/DeviceRGB] SCS
Color15 SC
n
1.0850 0.6589 m
1.0750 0.6415 l
1.0950 0.6415 l
1.0850 0.6589 l
c
s
n
1.1400 0.6589 m
1.1300 0.6415 l
1.1500 0.6415 l
c
GS
Color0 SRGB
fill
GR
[/Pattern /DeviceRGB] SCS
Color15 Pattern8 SC
fill
[/DeviceRGB] SCS
Color15 SC
n
1.1400 0.6589 m
1.1300 0.6415 l
1.1500 0.6415 l
1.1400 0.6589 l
c
s
[0.0187 0.0112 ] 0 SD
0.0037 SLW
n
0.1500 0.6473 m
0.1550 0.6473 l
0.1600 0.6473 l
0.1650 0.6473 l
0.1700 0.6473 l
0.1750 0.6473 l
0.1800 0.6473 l
0.1850 0.6473 l
0.1900 0.6473 l
0.1950 0.6473 l
0.2000 0.6473 l
0.2050 0.6473 l
0.2100 0.6473 l
0.2150 0.6473 l
0.2200 0.6473 l
0.2250 0.6473 l
0.2300 0.6473 l
0.2350 0.6473 l
0.2400 0.6473 l
0.2450 0.6473 l
0.2500 0.6473 l
0.2550 0.6473 l
0.2600 0.6473 l
0.2650 0.6473 l
0.2700 0.6473 l
0.2750 0.6473 l
0.2800 0.6473 l
0.2850 0.6473 l
0.2900 0.6473 l
0.2950 0.6473 l
0.3000 0.6473 l
0.3050 0.6473 l
0.3100 0.6473 l
0.3150 0.6473 l
0.3200 0.6473 l
0.3250 0.6473 l
0.3300 0.6473 l
0.3350 0.6473 l
0.3400 0.6473 l
0.3450 0.6473 l
0.3500 0.6473 l
0.3550 0.6473 l
0.3600 0.6473 l
0.3650 0.6473 l
0.3700 0.6473 l
0.3750 0.6473 l
0.3800 0.6473 l
0.3850 0.6473 l
0.3900 0.6473 l
0.3950 0.6473 l
0.4000 0.6473 l
0.4050 0.6473 l
0.4100 0.6473 l
0.4150 0.6473 l
0.4200 0.6473 l
0.4250 0.6473 l
0.4300 0.6473 l
0.4350 0.6473 l
0.4400 0.6473 l
0.4450 0.6473 l
0.4500 0.6473 l
0.4550 0.6473 l
0.4600 0.6473 l
0.4650 0.6473 l
0.4700 0.6473 l
0.4750 0.6473 l
0.4800 0.6473 l
0.4850 0.6473 l
0.4900 0.6473 l
0.4950 0.6473 l
0.5000 0.6473 l
0.5050 0.6473 l
0.5100 0.6473 l
0.5150 0.6473 l
0.5200 0.6473 l
0.5250 0.6473 l
0.5300 0.6473 l
0.5350 0.6473 l
0.5400 0.6473 l
0.5450 0.6473 l
0.5500 0.6473 l
0.5550 0.6473 l
0.5600 0.6473 l
0.5650 0.6473 l
0.5700 0.6473 l
0.5750 0.6473 l
0.5800 0.6473 l
0.5850 0.6473 l
0.5900 0.6473 l
0.5950 0.6473 l
0.6000 0.6473 l
0.6050 0.6473 l
0.6100 0.6473 l
0.6150 0.6473 l
0.6200 0.6473 l
0.6250 0.6473 l
0.6300 0.6473 l
0.6350 0.6473 l
0.6400 0.6473 l
0.6450 0.6473 l
0.6500 0.6473 l
0.6550 0.6473 l
0.6600 0.6473 l
0.6650 0.6473 l
0.6700 0.6473 l
0.6750 0.6473 l
0.6800 0.6473 l
0.6850 0.6473 l
0.6900 0.6473 l
0.6950 0.6473 l
0.7000 0.6473 l
0.7050 0.6473 l
0.7100 0.6473 l
0.7150 0.6473 l
0.7200 0.6473 l
0.7250 0.6473 l
0.7300 0.6473 l
0.7350 0.6473 l
0.7400 0.6473 l
0.7450 0.6473 l
0.7500 0.6473 l
0.7550 0.6473 l
0.7600 0.6473 l
0.7650 0.6473 l
0.7700 0.6473 l
0.7750 0.6473 l
0.7800 0.6473 l
0.7850 0.6473 l
0.7900 0.6473 l
0.7950 0.6473 l
0.8000 0.6473 l
0.8050 0.6473 l
0.8100 0.6473 l
0.8150 0.6473 l
0.8200 0.6473 l
0.8250 0.6473 l
0.8300 0.6473 l
0.8350 0.6473 l
0.8400 0.6473 l
0.8450 0.6473 l
0.8500 0.6473 l
0.8550 0.6473 l
0.8600 0.6473 l
0.8650 0.6473 l
0.8700 0.6473 l
0.8750 0.6473 l
0.8800 0.6473 l
0.8850 0.6473 l
0.8900 0.6473 l
0.8950 0.6473 l
0.9000 0.6473 l
0.9050 0.6473 l
0.9100 0.6473 l
0.9150 0.6473 l
0.9200 0.6473 l
0.9250 0.6473 l
0.9300 0.6473 l
0.9350 0.6473 l
0.9400 0.6473 l
0.9450 0.6473 l
0.9500 0.6473 l
0.9550 0.6473 l
0.9600 0.6473 l
0.9650 0.6473 l
0.9700 0.6473 l
0.9750 0.6473 l
0.9800 0.6473 l
0.9850 0.6473 l
0.9900 0.6473 l
0.9950 0.6473 l
1.0000 0.6473 l
1.0050 0.6473 l
1.0100 0.6473 l
1.0150 0.6473 l
1.0200 0.6473 l
1.0250 0.6473 l
1.0300 0.6473 l
1.0350 0.6473 l
1.0400 0.6473 l
1.0450 0.6473 l
1.0500 0.6473 l
1.0550 0.6473 l
1.0600 0.6473 l
1.0650 0.6473 l
1.0700 0.6473 l
1.0750 0.6473 l
1.0800 0.6473 l
1.0850 0.6473 l
1.0900 0.6473 l
1.0950 0.6473 l
1.1000 0.6473 l
1.1050 0.6473 l
1.1100 0.6473 l
1.1150 0.6473 l
1.1200 0.6473 l
1.1250 0.6473 l
1.1300 0.6473 l
1.1350 0.6473 l
1.1400 0.6473 l
1.1450 0.6473 l
1.1500 0.6473 l
s
n
0.1400 0.6531 m
0.1500 0.6358 l
0.1600 0.6531 l
c
GS
Color0 SRGB
fill
GR
[/Pattern /DeviceRGB] SCS
Color15 Pattern8 SC
fill
[/DeviceRGB] SCS
Color15 SC
[] 0 SD
0.0030 SLW
n
0.1400 0.6531 m
0.1500 0.6358 l
0.1600 0.6531 l
0.1400 0.6531 l
c
s
n
0.1950 0.6531 m
0.2050 0.6358 l
0.2150 0.6531 l
c
GS
Color0 SRGB
fill
GR
[/Pattern /DeviceRGB] SCS
Color15 Pattern8 SC
fill
[/DeviceRGB] SCS
Color15 SC
n
0.1950 0.6531 m
0.2050 0.6358 l
0.2150 0.6531 l
0.1950 0.6531 l
c
s
n
0.2500 0.6531 m
0.2600 0.6358 l
0.2700 0.6531 l
c
GS
Color0 SRGB
fill
GR
[/Pattern /DeviceRGB] SCS
Color15 Pattern8 SC
fill
[/DeviceRGB] SCS
Color15 SC
n
0.2500 0.6531 m
0.2600 0.6358 l
0.2700 0.6531 l
0.2500 0.6531 l
c
s
n
0.3050 0.6531 m
0.3150 0.6358 l
0.3250 0.6531 l
c
GS
Color0 SRGB
fill
GR
[/Pattern /DeviceRGB] SCS
Color15 Pattern8 SC
fill
[/DeviceRGB] SCS
Color15 SC
n
0.3050 0.6531 m
0.3150 0.6358 l
0.3250 0.6531 l
0.3050 0.6531 l
c
s
n
0.3600 0.6531 m
0.3700 0.6358 l
0.3800 0.6531 l
c
GS
Color0 SRGB
fill
GR
[/Pattern /DeviceRGB] SCS
Color15 Pattern8 SC
fill
[/DeviceRGB] SCS
Color15 SC
n
0.3600 0.6531 m
0.3700 0.6358 l
0.3800 0.6531 l
0.3600 0.6531 l
c
s
n
0.4150 0.6531 m
0.4250 0.6358 l
0.4350 0.6531 l
c
GS
Color0 SRGB
fill
GR
[/Pattern /DeviceRGB] SCS
Color15 Pattern8 SC
fill
[/DeviceRGB] SCS
Color15 SC
n
0.4150 0.6531 m
0.4250 0.6358 l
0.4350 0.6531 l
0.4150 0.6531 l
c
s
n
0.4700 0.6531 m
0.4800 0.6358 l
0.4900 0.6531 l
c
GS
Color0 SRGB
fill
GR
[/Pattern /DeviceRGB] SCS
Color15 Pattern8 SC
fill
[/DeviceRGB] SCS
Color15 SC
n
0.4700 0.6531 m
0.4800 0.6358 l
0.4900 0.6531 l
0.4700 0.6531 l
c
s
n
0.5250 0.6531 m
0.5350 0.6358 l
0.5450 0.6531 l
c
GS
Color0 SRGB
fill
GR
[/Pattern /DeviceRGB] SCS
Color15 Pattern8 SC
fill
[/DeviceRGB] SCS
Color15 SC
n
0.5250 0.6531 m
0.5350 0.6358 l
0.5450 0.6531 l
0.5250 0.6531 l
c
s
n
0.5800 0.6531 m
0.5900 0.6358 l
0.6000 0.6531 l
c
GS
Color0 SRGB
fill
GR
[/Pattern /DeviceRGB] SCS
Color15 Pattern8 SC
fill
[/DeviceRGB] SCS
Color15 SC
n
0.5800 0.6531 m
0.5900 0.6358 l
0.6000 0.6531 l
0.5800 0.6531 l
c
s
n
0.6350 0.6531 m
0.6450 0.6358 l
0.6550 0.6531 l
c
GS
Color0 SRGB
fill
GR
[/Pattern /DeviceRGB] SCS
Color15 Pattern8 SC
fill
[/DeviceRGB] SCS
Color15 SC
n
0.6350 0.6531 m
0.6450 0.6358 l
0.6550 0.6531 l
0.6350 0.6531 l
c
s
n
0.6900 0.6531 m
0.7000 0.6358 l
0.7100 0.6531 l
c
GS
Color0 SRGB
fill
GR
[/Pattern /DeviceRGB] SCS
Color15 Pattern8 SC
fill
[/DeviceRGB] SCS
Color15 SC
n
0.6900 0.6531 m
0.7000 0.6358 l
0.7100 0.6531 l
0.6900 0.6531 l
c
s
n
0.7450 0.6531 m
0.7550 0.6358 l
0.7650 0.6531 l
c
GS
Color0 SRGB
fill
GR
[/Pattern /DeviceRGB] SCS
Color15 Pattern8 SC
fill
[/DeviceRGB] SCS
Color15 SC
n
0.7450 0.6531 m
0.7550 0.6358 l
0.7650 0.6531 l
0.7450 0.6531 l
c
s
n
0.8000 0.6531 m
0.8100 0.6358 l
0.8200 0.6531 l
c
GS
Color0 SRGB
fill
GR
[/Pattern /DeviceRGB] SCS
Color15 Pattern8 SC
fill
[/DeviceRGB] SCS
Color15 SC
n
0.8000 0.6531 m
0.8100 0.6358 l
0.8200 0.6531 l
0.8000 0.6531 l
c
s
n
0.8550 0.6531 m
0.8650 0.6358 l
0.8750 0.6531 l
c
GS
Color0 SRGB
fill
GR
[/Pattern /DeviceRGB] SCS
Color15 Pattern8 SC
fill
[/DeviceRGB] SCS
Color15 SC
n
0.8550 0.6531 m
0.8650 0.6358 l
0.8750 0.6531 l
0.8550 0.6531 l
c
s
n
0.9100 0.6531 m
0.9200 0.6358 l
0.9300 0.6531 l
c
GS
Color0 SRGB
fill
GR
[/Pattern /DeviceRGB] SCS
Color15 Pattern8 SC
fill
[/DeviceRGB] SCS
Color15 SC
n
0.9100 0.6531 m
0.9200 0.6358 l
0.9300 0.6531 l
0.9100 0.6531 l
c
s
n
0.9650 0.6531 m
0.9750 0.6358 l
0.9850 0.6531 l
c
GS
Color0 SRGB
fill
GR
[/Pattern /DeviceRGB] SCS
Color15 Pattern8 SC
fill
[/DeviceRGB] SCS
Color15 SC
n
0.9650 0.6531 m
0.9750 0.6358 l
0.9850 0.6531 l
0.9650 0.6531 l
c
s
n
1.0200 0.6531 m
1.0300 0.6358 l
1.0400 0.6531 l
c
GS
Color0 SRGB
fill
GR
[/Pattern /DeviceRGB] SCS
Color15 Pattern8 SC
fill
[/DeviceRGB] SCS
Color15 SC
n
1.0200 0.6531 m
1.0300 0.6358 l
1.0400 0.6531 l
1.0200 0.6531 l
c
s
n
1.0750 0.6531 m
1.0850 0.6358 l
1.0950 0.6531 l
c
GS
Color0 SRGB
fill
GR
[/Pattern /DeviceRGB] SCS
Color15 Pattern8 SC
fill
[/DeviceRGB] SCS
Color15 SC
n
1.0750 0.6531 m
1.0850 0.6358 l
1.0950 0.6531 l
1.0750 0.6531 l
c
s
n
1.1300 0.6531 m
1.1400 0.6358 l
1.1500 0.6531 l
c
GS
Color0 SRGB
fill
GR
[/Pattern /DeviceRGB] SCS
Color15 Pattern8 SC
fill
[/DeviceRGB] SCS
Color15 SC
n
1.1300 0.6531 m
1.1400 0.6358 l
1.1500 0.6531 l
1.1300 0.6531 l
c
s
[/DeviceRGB] SCS
Color12 SC
[0.0030 0.0090 0.0150 0.0090 ] 0 SD
0.0030 SLW
n
0.1500 0.6210 m
0.1550 0.6215 l
0.1600 0.6221 l
0.1650 0.6226 l
0.1700 0.6232 l
0.1750 0.6237 l
0.1800 0.6243 l
0.1850 0.6248 l
0.1900 0.6254 l
0.1950 0.6260 l
0.2000 0.6265 l
0.2050 0.6271 l
0.2100 0.6276 l
0.2150 0.6282 l
0.2200 0.6288 l
0.2250 0.6293 l
0.2300 0.6299 l
0.2350 0.6304 l
0.2400 0.6310 l
0.2450 0.6316 l
0.2500 0.6321 l
0.2550 0.6327 l
0.2600 0.6333 l
0.2650 0.6339 l
0.2700 0.6344 l
0.2750 0.6350 l
0.2800 0.6356 l
0.2850 0.6362 l
0.2900 0.6367 l
0.2950 0.6373 l
0.3000 0.6379 l
0.3050 0.6385 l
0.3100 0.6391 l
0.3150 0.6396 l
0.3200 0.6402 l
0.3250 0.6408 l
0.3300 0.6414 l
0.3350 0.6420 l
0.3400 0.6426 l
0.3450 0.6431 l
0.3500 0.6437 l
0.3550 0.6443 l
0.3600 0.6449 l
0.3650 0.6455 l
0.3700 0.6461 l
0.3750 0.6467 l
0.3800 0.6473 l
0.3850 0.6479 l
0.3900 0.6485 l
0.3950 0.6491 l
0.4000 0.6497 l
0.4050 0.6503 l
0.4100 0.6509 l
0.4150 0.6515 l
0.4200 0.6521 l
0.4250 0.6527 l
0.4300 0.6533 l
0.4350 0.6539 l
0.4400 0.6545 l
0.4450 0.6552 l
0.4500 0.6558 l
0.4550 0.6564 l
0.4600 0.6570 l
0.4650 0.6576 l
0.4700 0.6582 l
0.4750 0.6588 l
0.4800 0.6595 l
0.4850 0.6601 l
0.4900 0.6607 l
0.4950 0.6613 l
0.5000 0.6620 l
0.5050 0.6626 l
0.5100 0.6632 l
0.5150 0.6638 l
0.5200 0.6645 l
0.5250 0.6651 l
0.5300 0.6657 l
0.5350 0.6664 l
0.5400 0.6670 l
0.5450 0.6676 l
0.5500 0.6683 l
0.5550 0.6689 l
0.5600 0.6695 l
0.5650 0.6702 l
0.5700 0.6708 l
0.5750 0.6715 l
0.5800 0.6721 l
0.5850 0.6728 l
0.5900 0.6734 l
0.5950 0.6740 l
0.6000 0.6747 l
0.6050 0.6753 l
0.6100 0.6760 l
0.6150 0.6767 l
0.6200 0.6773 l
0.6250 0.6780 l
0.6300 0.6786 l
0.6350 0.6793 l
0.6400 0.6799 l
0.6450 0.6806 l
0.6500 0.6813 l
0.6550 0.6819 l
0.6600 0.6826 l
0.6650 0.6832 l
0.6700 0.6839 l
0.6750 0.6846 l
0.6800 0.6853 l
0.6850 0.6859 l
0.6900 0.6866 l
0.6950 0.6873 l
0.7000 0.6879 l
0.7050 0.6886 l
0.7100 0.6893 l
0.7150 0.6900 l
0.7200 0.6907 l
0.7250 0.6913 l
0.7300 0.6920 l
0.7350 0.6927 l
0.7400 0.6934 l
0.7450 0.6941 l
0.7500 0.6948 l
0.7550 0.6955 l
0.7600 0.6961 l
0.7650 0.6968 l
0.7700 0.6975 l
0.7750 0.6982 l
0.7800 0.6989 l
0.7850 0.6996 l
0.7900 0.7003 l
0.7950 0.7010 l
0.8000 0.7017 l
0.8050 0.7024 l
0.8100 0.7031 l
0.8150 0.7038 l
0.8200 0.7046 l
0.8250 0.7053 l
0.8300 0.7060 l
0.8350 0.7067 l
0.8400 0.7074 l
0.8450 0.7081 l
0.8500 0.7088 l
0.8550 0.7096 l
0.8600 0.7103 l
0.8650 0.7110 l
0.8700 0.7117 l
0.8750 0.7124 l
0.8800 0.7132 l
0.8850 0.7139 l
0.8900 0.7146 l
0.8950 0.7154 l
0.9000 0.7161 l
0.9050 0.7168 l
0.9100 0.7176 l
0.9150 0.7183 l
0.9200 0.7190 l
0.9250 0.7198 l
0.9300 0.7205 l
0.9350 0.7213 l
0.9400 0.7220 l
0.9450 0.7227 l
0.9500 0.7235 l
0.9550 0.7242 l
0.9600 0.7250 l
0.9650 0.7257 l
0.9700 0.7265 l
0.9750 0.7273 l
0.9800 0.7280 l
0.9850 0.7288 l
0.9900 0.7295 l
0.9950 0.7303 l
1.0000 0.7311 l
1.0050 0.7318 l
1.0100 0.7326 l
1.0150 0.7334 l
1.0200 0.7341 l
1.0250 0.7349 l
1.0300 0.7357 l
1.0350 0.7364 l
1.0400 0.7372 l
1.0450 0.7380 l
1.0500 0.7388 l
1.0550 0.7396 l
1.0600 0.7403 l
1.0650 0.7411 l
1.0700 0.7419 l
1.0750 0.7427 l
1.0800 0.7435 l
1.0850 0.7443 l
1.0900 0.7451 l
1.0950 0.7459 l
1.1000 0.7467 l
1.1050 0.7475 l
1.1100 0.7483 l
1.1150 0.7491 l
1.1200 0.7499 l
1.1250 0.7507 l
1.1300 0.7515 l
1.1350 0.7523 l
1.1400 0.7531 l
1.1450 0.7539 l
1.1500 0.7547 l
s
n
0.1500 0.6325 m
0.1400 0.6152 l
0.1600 0.6152 l
c
GS
Color0 SRGB
fill
GR
[/Pattern /DeviceRGB] SCS
Color12 Pattern8 SC
fill
[/DeviceRGB] SCS
Color12 SC
[] 0 SD
0.0030 SLW
n
0.1500 0.6325 m
0.1400 0.6152 l
0.1600 0.6152 l
0.1500 0.6325 l
c
s
n
0.2050 0.6386 m
0.1950 0.6213 l
0.2150 0.6213 l
c
GS
Color0 SRGB
fill
GR
[/Pattern /DeviceRGB] SCS
Color12 Pattern8 SC
fill
[/DeviceRGB] SCS
Color12 SC
n
0.2050 0.6386 m
0.1950 0.6213 l
0.2150 0.6213 l
0.2050 0.6386 l
c
s
n
0.2600 0.6448 m
0.2500 0.6275 l
0.2700 0.6275 l
c
GS
Color0 SRGB
fill
GR
[/Pattern /DeviceRGB] SCS
Color12 Pattern8 SC
fill
[/DeviceRGB] SCS
Color12 SC
n
0.2600 0.6448 m
0.2500 0.6275 l
0.2700 0.6275 l
0.2600 0.6448 l
c
s
n
0.3150 0.6512 m
0.3050 0.6339 l
0.3250 0.6339 l
c
GS
Color0 SRGB
fill
GR
[/Pattern /DeviceRGB] SCS
Color12 Pattern8 SC
fill
[/DeviceRGB] SCS
Color12 SC
n
0.3150 0.6512 m
0.3050 0.6339 l
0.3250 0.6339 l
0.3150 0.6512 l
c
s
n
0.3700 0.6577 m
0.3600 0.6403 l
0.3800 0.6403 l
c
GS
Color0 SRGB
fill
GR
[/Pattern /DeviceRGB] SCS
Color12 Pattern8 SC
fill
[/DeviceRGB] SCS
Color12 SC
n
0.3700 0.6577 m
0.3600 0.6403 l
0.3800 0.6403 l
0.3700 0.6577 l
c
s
n
0.4250 0.6643 m
0.4150 0.6469 l
0.4350 0.6469 l
c
GS
Color0 SRGB
fill
GR
[/Pattern /DeviceRGB] SCS
Color12 Pattern8 SC
fill
[/DeviceRGB] SCS
Color12 SC
n
0.4250 0.6643 m
0.4150 0.6469 l
0.4350 0.6469 l
0.4250 0.6643 l
c
s
n
0.4800 0.6710 m
0.4700 0.6537 l
0.4900 0.6537 l
c
GS
Color0 SRGB
fill
GR
[/Pattern /DeviceRGB] SCS
Color12 Pattern8 SC
fill
[/DeviceRGB] SCS
Color12 SC
n
0.4800 0.6710 m
0.4700 0.6537 l
0.4900 0.6537 l
0.4800 0.6710 l
c
s
n
0.5350 0.6779 m
0.5250 0.6606 l
0.5450 0.6606 l
c
GS
Color0 SRGB
fill
GR
[/Pattern /DeviceRGB] SCS
Color12 Pattern8 SC
fill
[/DeviceRGB] SCS
Color12 SC
n
0.5350 0.6779 m
0.5250 0.6606 l
0.5450 0.6606 l
0.5350 0.6779 l
c
s
n
0.5900 0.6849 m
0.5800 0.6676 l
0.6000 0.6676 l
c
GS
Color0 SRGB
fill
GR
[/Pattern /DeviceRGB] SCS
Color12 Pattern8 SC
fill
[/DeviceRGB] SCS
Color12 SC
n
0.5900 0.6849 m
0.5800 0.6676 l
0.6000 0.6676 l
0.5900 0.6849 l
c
s
n
0.6450 0.6921 m
0.6350 0.6748 l
0.6550 0.6748 l
c
GS
Color0 SRGB
fill
GR
[/Pattern /DeviceRGB] SCS
Color12 Pattern8 SC
fill
[/DeviceRGB] SCS
Color12 SC
n
0.6450 0.6921 m
0.6350 0.6748 l
0.6550 0.6748 l
0.6450 0.6921 l
c
s
n
0.7000 0.6995 m
0.6900 0.6822 l
0.7100 0.6822 l
c
GS
Color0 SRGB
fill
GR
[/Pattern /DeviceRGB] SCS
Color12 Pattern8 SC
fill
[/DeviceRGB] SCS
Color12 SC
n
0.7000 0.6995 m
0.6900 0.6822 l
0.7100 0.6822 l
0.7000 0.6995 l
c
s
n
0.7550 0.7070 m
0.7450 0.6897 l
0.7650 0.6897 l
c
GS
Color0 SRGB
fill
GR
[/Pattern /DeviceRGB] SCS
Color12 Pattern8 SC
fill
[/DeviceRGB] SCS
Color12 SC
n
0.7550 0.7070 m
0.7450 0.6897 l
0.7650 0.6897 l
0.7550 0.7070 l
c
s
n
0.8100 0.7147 m
0.8000 0.6974 l
0.8200 0.6974 l
c
GS
Color0 SRGB
fill
GR
[/Pattern /DeviceRGB] SCS
Color12 Pattern8 SC
fill
[/DeviceRGB] SCS
Color12 SC
n
0.8100 0.7147 m
0.8000 0.6974 l
0.8200 0.6974 l
0.8100 0.7147 l
c
s
n
0.8650 0.7225 m
0.8550 0.7052 l
0.8750 0.7052 l
c
GS
Color0 SRGB
fill
GR
[/Pattern /DeviceRGB] SCS
Color12 Pattern8 SC
fill
[/DeviceRGB] SCS
Color12 SC
n
0.8650 0.7225 m
0.8550 0.7052 l
0.8750 0.7052 l
0.8650 0.7225 l
c
s
n
0.9200 0.7306 m
0.9100 0.7133 l
0.9300 0.7133 l
c
GS
Color0 SRGB
fill
GR
[/Pattern /DeviceRGB] SCS
Color12 Pattern8 SC
fill
[/DeviceRGB] SCS
Color12 SC
n
0.9200 0.7306 m
0.9100 0.7133 l
0.9300 0.7133 l
0.9200 0.7306 l
c
s
n
0.9750 0.7388 m
0.9650 0.7215 l
0.9850 0.7215 l
c
GS
Color0 SRGB
fill
GR
[/Pattern /DeviceRGB] SCS
Color12 Pattern8 SC
fill
[/DeviceRGB] SCS
Color12 SC
n
0.9750 0.7388 m
0.9650 0.7215 l
0.9850 0.7215 l
0.9750 0.7388 l
c
s
n
1.0300 0.7472 m
1.0200 0.7299 l
1.0400 0.7299 l
c
GS
Color0 SRGB
fill
GR
[/Pattern /DeviceRGB] SCS
Color12 Pattern8 SC
fill
[/DeviceRGB] SCS
Color12 SC
n
1.0300 0.7472 m
1.0200 0.7299 l
1.0400 0.7299 l
1.0300 0.7472 l
c
s
n
1.0850 0.7558 m
1.0750 0.7385 l
1.0950 0.7385 l
c
GS
Color0 SRGB
fill
GR
[/Pattern /DeviceRGB] SCS
Color12 Pattern8 SC
fill
[/DeviceRGB] SCS
Color12 SC
n
1.0850 0.7558 m
1.0750 0.7385 l
1.0950 0.7385 l
1.0850 0.7558 l
c
s
n
1.1400 0.7647 m
1.1300 0.7473 l
1.1500 0.7473 l
c
GS
Color0 SRGB
fill
GR
[/Pattern /DeviceRGB] SCS
Color12 Pattern8 SC
fill
[/DeviceRGB] SCS
Color12 SC
n
1.1400 0.7647 m
1.1300 0.7473 l
1.1500 0.7473 l
1.1400 0.7647 l
c
s
[0.0030 0.0090 0.0210 0.0090 ] 0 SD
0.0030 SLW
n
0.1500 0.7547 m
0.1550 0.7539 l
0.1600 0.7531 l
0.1650 0.7523 l
0.1700 0.7515 l
0.1750 0.7507 l
0.1800 0.7499 l
0.1850 0.7491 l
0.1900 0.7483 l
0.1950 0.7475 l
0.2000 0.7467 l
0.2050 0.7459 l
0.2100 0.7451 l
0.2150 0.7443 l
0.2200 0.7435 l
0.2250 0.7427 l
0.2300 0.7419 l
0.2350 0.7411 l
0.2400 0.7403 l
0.2450 0.7396 l
0.2500 0.7388 l
0.2550 0.7380 l
0.2600 0.7372 l
0.2650 0.7364 l
0.2700 0.7357 l
0.2750 0.7349 l
0.2800 0.7341 l
0.2850 0.7334 l
0.2900 0.7326 l
0.2950 0.7318 l
0.3000 0.7311 l
0.3050 0.7303 l
0.3100 0.7295 l
0.3150 0.7288 l
0.3200 0.7280 l
0.3250 0.7273 l
0.3300 0.7265 l
0.3350 0.7257 l
0.3400 0.7250 l
0.3450 0.7242 l
0.3500 0.7235 l
0.3550 0.7227 l
0.3600 0.7220 l
0.3650 0.7213 l
0.3700 0.7205 l
0.3750 0.7198 l
0.3800 0.7190 l
0.3850 0.7183 l
0.3900 0.7176 l
0.3950 0.7168 l
0.4000 0.7161 l
0.4050 0.7154 l
0.4100 0.7146 l
0.4150 0.7139 l
0.4200 0.7132 l
0.4250 0.7124 l
0.4300 0.7117 l
0.4350 0.7110 l
0.4400 0.7103 l
0.4450 0.7096 l
0.4500 0.7088 l
0.4550 0.7081 l
0.4600 0.7074 l
0.4650 0.7067 l
0.4700 0.7060 l
0.4750 0.7053 l
0.4800 0.7046 l
0.4850 0.7038 l
0.4900 0.7031 l
0.4950 0.7024 l
0.5000 0.7017 l
0.5050 0.7010 l
0.5100 0.7003 l
0.5150 0.6996 l
0.5200 0.6989 l
0.5250 0.6982 l
0.5300 0.6975 l
0.5350 0.6968 l
0.5400 0.6961 l
0.5450 0.6955 l
0.5500 0.6948 l
0.5550 0.6941 l
0.5600 0.6934 l
0.5650 0.6927 l
0.5700 0.6920 l
0.5750 0.6913 l
0.5800 0.6907 l
0.5850 0.6900 l
0.5900 0.6893 l
0.5950 0.6886 l
0.6000 0.6879 l
0.6050 0.6873 l
0.6100 0.6866 l
0.6150 0.6859 l
0.6200 0.6853 l
0.6250 0.6846 l
0.6300 0.6839 l
0.6350 0.6832 l
0.6400 0.6826 l
0.6450 0.6819 l
0.6500 0.6813 l
0.6550 0.6806 l
0.6600 0.6799 l
0.6650 0.6793 l
0.6700 0.6786 l
0.6750 0.6780 l
0.6800 0.6773 l
0.6850 0.6767 l
0.6900 0.6760 l
0.6950 0.6753 l
0.7000 0.6747 l
0.7050 0.6740 l
0.7100 0.6734 l
0.7150 0.6728 l
0.7200 0.6721 l
0.7250 0.6715 l
0.7300 0.6708 l
0.7350 0.6702 l
0.7400 0.6695 l
0.7450 0.6689 l
0.7500 0.6683 l
0.7550 0.6676 l
0.7600 0.6670 l
0.7650 0.6664 l
0.7700 0.6657 l
0.7750 0.6651 l
0.7800 0.6645 l
0.7850 0.6638 l
0.7900 0.6632 l
0.7950 0.6626 l
0.8000 0.6620 l
0.8050 0.6613 l
0.8100 0.6607 l
0.8150 0.6601 l
0.8200 0.6595 l
0.8250 0.6588 l
0.8300 0.6582 l
0.8350 0.6576 l
0.8400 0.6570 l
0.8450 0.6564 l
0.8500 0.6558 l
0.8550 0.6552 l
0.8600 0.6545 l
0.8650 0.6539 l
0.8700 0.6533 l
0.8750 0.6527 l
0.8800 0.6521 l
0.8850 0.6515 l
0.8900 0.6509 l
0.8950 0.6503 l
0.9000 0.6497 l
0.9050 0.6491 l
0.9100 0.6485 l
0.9150 0.6479 l
0.9200 0.6473 l
0.9250 0.6467 l
0.9300 0.6461 l
0.9350 0.6455 l
0.9400 0.6449 l
0.9450 0.6443 l
0.9500 0.6437 l
0.9550 0.6431 l
0.9600 0.6426 l
0.9650 0.6420 l
0.9700 0.6414 l
0.9750 0.6408 l
0.9800 0.6402 l
0.9850 0.6396 l
0.9900 0.6391 l
0.9950 0.6385 l
1.0000 0.6379 l
1.0050 0.6373 l
1.0100 0.6367 l
1.0150 0.6362 l
1.0200 0.6356 l
1.0250 0.6350 l
1.0300 0.6344 l
1.0350 0.6339 l
1.0400 0.6333 l
1.0450 0.6327 l
1.0500 0.6321 l
1.0550 0.6316 l
1.0600 0.6310 l
1.0650 0.6304 l
1.0700 0.6299 l
1.0750 0.6293 l
1.0800 0.6288 l
1.0850 0.6282 l
1.0900 0.6276 l
1.0950 0.6271 l
1.1000 0.6265 l
1.1050 0.6260 l
1.1100 0.6254 l
1.1150 0.6248 l
1.1200 0.6243 l
1.1250 0.6237 l
1.1300 0.6232 l
1.1350 0.6226 l
1.1400 0.6221 l
1.1450 0.6215 l
1.1500 0.6210 l
s
n
0.1400 0.7605 m
0.1500 0.7432 l
0.1600 0.7605 l
c
GS
Color0 SRGB
fill
GR
[/Pattern /DeviceRGB] SCS
Color12 Pattern8 SC
fill
[/DeviceRGB] SCS
Color12 SC
[] 0 SD
0.0030 SLW
n
0.1400 0.7605 m
0.1500 0.7432 l
0.1600 0.7605 l
0.1400 0.7605 l
c
s
n
0.1950 0.7516 m
0.2050 0.7343 l
0.2150 0.7516 l
c
GS
Color0 SRGB
fill
GR
[/Pattern /DeviceRGB] SCS
Color12 Pattern8 SC
fill
[/DeviceRGB] SCS
Color12 SC
n
0.1950 0.7516 m
0.2050 0.7343 l
0.2150 0.7516 l
0.1950 0.7516 l
c
s
n
0.2500 0.7430 m
0.2600 0.7257 l
0.2700 0.7430 l
c
GS
Color0 SRGB
fill
GR
[/Pattern /DeviceRGB] SCS
Color12 Pattern8 SC
fill
[/DeviceRGB] SCS
Color12 SC
n
0.2500 0.7430 m
0.2600 0.7257 l
0.2700 0.7430 l
0.2500 0.7430 l
c
s
n
0.3050 0.7345 m
0.3150 0.7172 l
0.3250 0.7345 l
c
GS
Color0 SRGB
fill
GR
[/Pattern /DeviceRGB] SCS
Color12 Pattern8 SC
fill
[/DeviceRGB] SCS
Color12 SC
n
0.3050 0.7345 m
0.3150 0.7172 l
0.3250 0.7345 l
0.3050 0.7345 l
c
s
n
0.3600 0.7263 m
0.3700 0.7090 l
0.3800 0.7263 l
c
GS
Color0 SRGB
fill
GR
[/Pattern /DeviceRGB] SCS
Color12 Pattern8 SC
fill
[/DeviceRGB] SCS
Color12 SC
n
0.3600 0.7263 m
0.3700 0.7090 l
0.3800 0.7263 l
0.3600 0.7263 l
c
s
n
0.4150 0.7182 m
0.4250 0.7009 l
0.4350 0.7182 l
c
GS
Color0 SRGB
fill
GR
[/Pattern /DeviceRGB] SCS
Color12 Pattern8 SC
fill
[/DeviceRGB] SCS
Color12 SC
n
0.4150 0.7182 m
0.4250 0.7009 l
0.4350 0.7182 l
0.4150 0.7182 l
c
s
n
0.4700 0.7103 m
0.4800 0.6930 l
0.4900 0.7103 l
c
GS
Color0 SRGB
fill
GR
[/Pattern /DeviceRGB] SCS
Color12 Pattern8 SC
fill
[/DeviceRGB] SCS
Color12 SC
n
0.4700 0.7103 m
0.4800 0.6930 l
0.4900 0.7103 l
0.4700 0.7103 l
c
s
n
0.5250 0.7026 m
0.5350 0.6853 l
0.5450 0.7026 l
c
GS
Color0 SRGB
fill
GR
[/Pattern /DeviceRGB] SCS
Color12 Pattern8 SC
fill
[/DeviceRGB] SCS
Color12 SC
n
0.5250 0.7026 m
0.5350 0.6853 l
0.5450 0.7026 l
0.5250 0.7026 l
c
s
n
0.5800 0.6951 m
0.5900 0.6778 l
0.6000 0.6951 l
c
GS
Color0 SRGB
fill
GR
[/Pattern /DeviceRGB] SCS
Color12 Pattern8 SC
fill
[/DeviceRGB] SCS
Color12 SC
n
0.5800 0.6951 m
0.5900 0.6778 l
0.6000 0.6951 l
0.5800 0.6951 l
c
s
n
0.6350 0.6877 m
0.6450 0.6704 l
0.6550 0.6877 l
c
GS
Color0 SRGB
fill
GR
[/Pattern /DeviceRGB] SCS
Color12 Pattern8 SC
fill
[/DeviceRGB] SCS
Color12 SC
n
0.6350 0.6877 m
0.6450 0.6704 l
0.6550 0.6877 l
0.6350 0.6877 l
c
s
n
0.6900 0.6805 m
0.7000 0.6632 l
0.7100 0.6805 l
c
GS
Color0 SRGB
fill
GR
[/Pattern /DeviceRGB] SCS
Color12 Pattern8 SC
fill
[/DeviceRGB] SCS
Color12 SC
n
0.6900 0.6805 m
0.7000 0.6632 l
0.7100 0.6805 l
0.6900 0.6805 l
c
s
n
0.7450 0.6734 m
0.7550 0.6561 l
0.7650 0.6734 l
c
GS
Color0 SRGB
fill
GR
[/Pattern /DeviceRGB] SCS
Color12 Pattern8 SC
fill
[/DeviceRGB] SCS
Color12 SC
n
0.7450 0.6734 m
0.7550 0.6561 l
0.7650 0.6734 l
0.7450 0.6734 l
c
s
n
0.8000 0.6665 m
0.8100 0.6492 l
0.8200 0.6665 l
c
GS
Color0 SRGB
fill
GR
[/Pattern /DeviceRGB] SCS
Color12 Pattern8 SC
fill
[/DeviceRGB] SCS
Color12 SC
n
0.8000 0.6665 m
0.8100 0.6492 l
0.8200 0.6665 l
0.8000 0.6665 l
c
s
n
0.8550 0.6597 m
0.8650 0.6424 l
0.8750 0.6597 l
c
GS
Color0 SRGB
fill
GR
[/Pattern /DeviceRGB] SCS
Color12 Pattern8 SC
fill
[/DeviceRGB] SCS
Color12 SC
n
0.8550 0.6597 m
0.8650 0.6424 l
0.8750 0.6597 l
0.8550 0.6597 l
c
s
n
0.9100 0.6531 m
0.9200 0.6358 l
0.9300 0.6531 l
c
GS
Color0 SRGB
fill
GR
[/Pattern /DeviceRGB] SCS
Color12 Pattern8 SC
fill
[/DeviceRGB] SCS
Color12 SC
n
0.9100 0.6531 m
0.9200 0.6358 l
0.9300 0.6531 l
0.9100 0.6531 l
c
s
n
0.9650 0.6466 m
0.9750 0.6293 l
0.9850 0.6466 l
c
GS
Color0 SRGB
fill
GR
[/Pattern /DeviceRGB] SCS
Color12 Pattern8 SC
fill
[/DeviceRGB] SCS
Color12 SC
n
0.9650 0.6466 m
0.9750 0.6293 l
0.9850 0.6466 l
0.9650 0.6466 l
c
s
n
1.0200 0.6402 m
1.0300 0.6229 l
1.0400 0.6402 l
c
GS
Color0 SRGB
fill
GR
[/Pattern /DeviceRGB] SCS
Color12 Pattern8 SC
fill
[/DeviceRGB] SCS
Color12 SC
n
1.0200 0.6402 m
1.0300 0.6229 l
1.0400 0.6402 l
1.0200 0.6402 l
c
s
n
1.0750 0.6340 m
1.0850 0.6166 l
1.0950 0.6340 l
c
GS
Color0 SRGB
fill
GR
[/Pattern /DeviceRGB] SCS
Color12 Pattern8 SC
fill
[/DeviceRGB] SCS
Color12 SC
n
1.0750 0.6340 m
1.0850 0.6166 l
1.0950 0.6340 l
1.0750 0.6340 l
c
s
n
1.1300 0.6278 m
1.1400 0.6105 l
1.1500 0.6278 l
c
GS
Color0 SRGB
fill
GR
[/Pattern /DeviceRGB] SCS
Color12 Pattern8 SC
fill
[/DeviceRGB] SCS
Color12 SC
n
1.1300 0.6278 m
1.1400 0.6105 l
1.1500 0.6278 l
1.1300 0.6278 l
c
s
[/DeviceRGB] SCS
Color1 SC
[] 0 SD
0.0045 SLW
n
0.1500 0.1500 m
1.1500 0.1500 l
s
n
0.1500 0.8500 m
1.1500 0.8500 l
s
n
0.2000 0.1500 m
0.2000 0.1600 l
s
n
0.2000 0.8500 m
0.2000 0.8400 l
s
n
0.3000 0.1500 m
0.3000 0.1600 l
s
n
0.3000 0.8500 m
0.3000 0.8400 l
s
n
0.4000 0.1500 m
0.4000 0.1600 l
s
n
0.4000 0.8500 m
0.4000 0.8400 l
s
n
0.5000 0.1500 m
0.5000 0.1600 l
s
n
0.5000 0.8500 m
0.5000 0.8400 l
s
n
0.6000 0.1500 m
0.6000 0.1600 l
s
n
0.6000 0.8500 m
0.6000 0.8400 l
s
n
0.7000 0.1500 m
0.7000 0.1600 l
s
n
0.7000 0.8500 m
0.7000 0.8400 l
s
n
0.8000 0.1500 m
0.8000 0.1600 l
s
n
0.8000 0.8500 m
0.8000 0.8400 l
s
n
0.9000 0.1500 m
0.9000 0.1600 l
s
n
0.9000 0.8500 m
0.9000 0.8400 l
s
n
1.0000 0.1500 m
1.0000 0.1600 l
s
n
1.0000 0.8500 m
1.0000 0.8400 l
s
n
1.1000 0.1500 m
1.1000 0.1600 l
s
n
1.1000 0.8500 m
1.1000 0.8400 l
s
n
0.1500 0.1500 m
0.1500 0.1700 l
s
n
0.1500 0.8500 m
0.1500 0.8300 l
s
n
0.2500 0.1500 m
0.2500 0.1700 l
s
n
0.2500 0.8500 m
0.2500 0.8300 l
s
n
0.3500 0.1500 m
0.3500 0.1700 l
s
n
0.3500 0.8500 m
0.3500 0.8300 l
s
n
0.4500 0.1500 m
0.4500 0.1700 l
s
n
0.4500 0.8500 m
0.4500 0.8300 l
s
n
0.5500 0.1500 m
0.5500 0.1700 l
s
n
0.5500 0.8500 m
0.5500 0.8300 l
s
n
0.6500 0.1500 m
0.6500 0.1700 l
s
n
0.6500 0.8500 m
0.6500 0.8300 l
s
n
0.7500 0.1500 m
0.7500 0.1700 l
s
n
0.7500 0.8500 m
0.7500 0.8300 l
s
n
0.8500 0.1500 m
0.8500 0.1700 l
s
n
0.8500 0.8500 m
0.8500 0.8300 l
s
n
0.9500 0.1500 m
0.9500 0.1700 l
s
n
0.9500 0.8500 m
0.9500 0.8300 l
s
n
1.0500 0.1500 m
1.0500 0.1700 l
s
n
1.0500 0.8500 m
1.0500 0.8300 l
s
n
1.1500 0.1500 m
1.1500 0.1700 l
s
n
1.1500 0.8500 m
1.1500 0.8300 l
s
/Times-Roman findfont
dup length dict begin
 {1 index /FID ne {def} {pop pop} ifelse} forall
 /Encoding DefEncoding def
 currentdict
end
/Font0 exch definefont pop
/Font0 FFSF
0.1337 0.1094 m
GS
[0.0448 0.0000 0.0000 0.0448 0 0] CC
(-1) show
GR
/Font0 FFSF
0.2157 0.1094 m
GS
[0.0448 0.0000 0.0000 0.0448 0 0] CC
(-0.8) show
GR
/Font0 FFSF
0.3153 0.1094 m
GS
[0.0448 0.0000 0.0000 0.0448 0 0] CC
(-0.6) show
GR
/Font0 FFSF
0.4151 0.1094 m
GS
[0.0448 0.0000 0.0000 0.0448 0 0] CC
(-0.4) show
GR
/Font0 FFSF
0.5151 0.1094 m
GS
[0.0448 0.0000 0.0000 0.0448 0 0] CC
(-0.2) show
GR
/Font0 FFSF
0.6394 0.1094 m
GS
[0.0448 0.0000 0.0000 0.0448 0 0] CC
(0) show
GR
/Font0 FFSF
0.7225 0.1094 m
GS
[0.0448 0.0000 0.0000 0.0448 0 0] CC
(0.2) show
GR
/Font0 FFSF
0.8225 0.1094 m
GS
[0.0448 0.0000 0.0000 0.0448 0 0] CC
(0.4) show
GR
/Font0 FFSF
0.9227 0.1094 m
GS
[0.0448 0.0000 0.0000 0.0448 0 0] CC
(0.6) show
GR
/Font0 FFSF
1.0231 0.1094 m
GS
[0.0448 0.0000 0.0000 0.0448 0 0] CC
(0.8) show
GR
/Font0 FFSF
1.1412 0.1094 m
GS
[0.0448 0.0000 0.0000 0.0448 0 0] CC
(1) show
GR
/Symbol findfont
/Font12 exch definefont pop
/Font12 FFSF
0.6347 0.0637 m
GS
[0.0504 0.0000 0.0000 0.0504 0 0] CC
(D) show
GR
n
0.1500 0.1500 m
0.1500 0.8500 l
s
n
1.1500 0.1500 m
1.1500 0.8500 l
s
n
0.1500 0.2200 m
0.1600 0.2200 l
s
n
1.1500 0.2200 m
1.1400 0.2200 l
s
n
0.1500 0.3600 m
0.1600 0.3600 l
s
n
1.1500 0.3600 m
1.1400 0.3600 l
s
n
0.1500 0.5000 m
0.1600 0.5000 l
s
n
1.1500 0.5000 m
1.1400 0.5000 l
s
n
0.1500 0.6400 m
0.1600 0.6400 l
s
n
1.1500 0.6400 m
1.1400 0.6400 l
s
n
0.1500 0.7800 m
0.1600 0.7800 l
s
n
1.1500 0.7800 m
1.1400 0.7800 l
s
n
0.1500 0.1500 m
0.1700 0.1500 l
s
n
1.1500 0.1500 m
1.1300 0.1500 l
s
n
0.1500 0.2900 m
0.1700 0.2900 l
s
n
1.1500 0.2900 m
1.1300 0.2900 l
s
n
0.1500 0.4300 m
0.1700 0.4300 l
s
n
1.1500 0.4300 m
1.1300 0.4300 l
s
n
0.1500 0.5700 m
0.1700 0.5700 l
s
n
1.1500 0.5700 m
1.1300 0.5700 l
s
n
0.1500 0.7100 m
0.1700 0.7100 l
s
n
1.1500 0.7100 m
1.1300 0.7100 l
s
n
0.1500 0.8500 m
0.1700 0.8500 l
s
n
1.1500 0.8500 m
1.1300 0.8500 l
s
/Font0 FFSF
0.0851 0.1351 m
GS
[0.0448 0.0000 0.0000 0.0448 0 0] CC
(0.2) show
GR
/Font0 FFSF
0.0851 0.2751 m
GS
[0.0448 0.0000 0.0000 0.0448 0 0] CC
(0.4) show
GR
/Font0 FFSF
0.0855 0.4151 m
GS
[0.0448 0.0000 0.0000 0.0448 0 0] CC
(0.6) show
GR
/Font0 FFSF
0.0863 0.5551 m
GS
[0.0448 0.0000 0.0000 0.0448 0 0] CC
(0.8) show
GR
/Font0 FFSF
0.1224 0.6947 m
GS
[0.0448 0.0000 0.0000 0.0448 0 0] CC
(1) show
GR
/Font0 FFSF
0.0851 0.8349 m
GS
[0.0448 0.0000 0.0000 0.0448 0 0] CC
(1.2) show
GR
/Font0 FFSF
0.0743 0.4451 m
GS
[0.0000 0.0504 -0.0504 0.0000 0 0] CC
(m) show
GR
/Font0 FFSF
0.0441 0.4843 m
GS
[0.0000 0.0356 -0.0356 0.0000 0 0] CC
(*) show
GR
/Font0 FFSF
0.0743 0.5020 m
GS
[0.0000 0.0504 -0.0504 0.0000 0 0] CC
(/m) show
GR
[] 0 SD
0.0015 SLW
n
0.1500 0.1500 m
0.1500 0.8500 l
1.1500 0.8500 l
1.1500 0.1500 l
0.1500 0.1500 l
c
s
n
0.8500 0.4000 m
0.8500 0.1624 l
1.1231 0.1624 l
1.1231 0.4000 l
c
[/DeviceRGB] SCS
Color0 SC
fill
/Font0 FFSF
[/DeviceRGB] SCS
Color1 SC
0.9515 0.3555 m
GS
[0.0510 0.0000 0.0000 0.0510 0 0] CC
(LYVA1 ) show
GR
[] 0 SD
0.0037 SLW
n
0.8715 0.3725 m
0.9315 0.3725 l
s
n
0.8715 0.3841 m
0.8615 0.3668 l
0.8815 0.3668 l
c
GS
Color0 SRGB
fill
GR
[/Pattern /DeviceRGB] SCS
Color1 Pattern8 SC
fill
[/DeviceRGB] SCS
Color1 SC
[] 0 SD
0.0030 SLW
n
0.8715 0.3841 m
0.8615 0.3668 l
0.8815 0.3668 l
0.8715 0.3841 l
c
s
n
0.9315 0.3841 m
0.9215 0.3668 l
0.9415 0.3668 l
c
GS
Color0 SRGB
fill
GR
[/Pattern /DeviceRGB] SCS
Color1 Pattern8 SC
fill
[/DeviceRGB] SCS
Color1 SC
n
0.9315 0.3841 m
0.9215 0.3668 l
0.9415 0.3668 l
0.9315 0.3841 l
c
s
/Font0 FFSF
0.9515 0.3102 m
GS
[0.0510 0.0000 0.0000 0.0510 0 0] CC
(BSk19) show
GR
[/DeviceRGB] SCS
Color3 SC
[0.0187 0.0112 ] 0 SD
0.0037 SLW
n
0.8715 0.3271 m
0.9315 0.3271 l
s
n
0.8715 0.3386 m
0.8615 0.3213 l
0.8815 0.3213 l
c
GS
Color0 SRGB
fill
GR
[/Pattern /DeviceRGB] SCS
Color3 Pattern8 SC
fill
[/DeviceRGB] SCS
Color3 SC
[] 0 SD
0.0030 SLW
n
0.8715 0.3386 m
0.8615 0.3213 l
0.8815 0.3213 l
0.8715 0.3386 l
c
s
n
0.9315 0.3386 m
0.9215 0.3213 l
0.9415 0.3213 l
c
GS
Color0 SRGB
fill
GR
[/Pattern /DeviceRGB] SCS
Color3 Pattern8 SC
fill
[/DeviceRGB] SCS
Color3 SC
n
0.9315 0.3386 m
0.9215 0.3213 l
0.9415 0.3213 l
0.9315 0.3386 l
c
s
/Font0 FFSF
[/DeviceRGB] SCS
Color1 SC
0.9515 0.2641 m
GS
[0.0510 0.0000 0.0000 0.0510 0 0] CC
(BSk20) show
GR
[/DeviceRGB] SCS
Color4 SC
[0.0187 0.0112 ] 0 SD
0.0037 SLW
n
0.8715 0.2812 m
0.9315 0.2812 l
s
n
0.8715 0.2927 m
0.8615 0.2754 l
0.8815 0.2754 l
c
GS
Color0 SRGB
fill
GR
[/Pattern /DeviceRGB] SCS
Color4 Pattern8 SC
fill
[/DeviceRGB] SCS
Color4 SC
[] 0 SD
0.0030 SLW
n
0.8715 0.2927 m
0.8615 0.2754 l
0.8815 0.2754 l
0.8715 0.2927 l
c
s
n
0.9315 0.2927 m
0.9215 0.2754 l
0.9415 0.2754 l
c
GS
Color0 SRGB
fill
GR
[/Pattern /DeviceRGB] SCS
Color4 Pattern8 SC
fill
[/DeviceRGB] SCS
Color4 SC
n
0.9315 0.2927 m
0.9215 0.2754 l
0.9415 0.2754 l
0.9315 0.2927 l
c
s
/Font0 FFSF
[/DeviceRGB] SCS
Color1 SC
0.9515 0.2184 m
GS
[0.0510 0.0000 0.0000 0.0510 0 0] CC
(BSk21) show
GR
[/DeviceRGB] SCS
Color15 SC
[0.0187 0.0112 ] 0 SD
0.0037 SLW
n
0.8715 0.2355 m
0.9315 0.2355 l
s
n
0.8715 0.2470 m
0.8615 0.2297 l
0.8815 0.2297 l
c
GS
Color0 SRGB
fill
GR
[/Pattern /DeviceRGB] SCS
Color15 Pattern8 SC
fill
[/DeviceRGB] SCS
Color15 SC
[] 0 SD
0.0030 SLW
n
0.8715 0.2470 m
0.8615 0.2297 l
0.8815 0.2297 l
0.8715 0.2470 l
c
s
n
0.9315 0.2470 m
0.9215 0.2297 l
0.9415 0.2297 l
c
GS
Color0 SRGB
fill
GR
[/Pattern /DeviceRGB] SCS
Color15 Pattern8 SC
fill
[/DeviceRGB] SCS
Color15 SC
n
0.9315 0.2470 m
0.9215 0.2297 l
0.9415 0.2297 l
0.9315 0.2470 l
c
s
/Font0 FFSF
[/DeviceRGB] SCS
Color1 SC
0.9515 0.1731 m
GS
[0.0510 0.0000 0.0000 0.0510 0 0] CC
(LNS) show
GR
[/DeviceRGB] SCS
Color12 SC
[0.0030 0.0090 0.0150 0.0090 ] 0 SD
0.0030 SLW
n
0.8715 0.1900 m
0.9315 0.1900 l
s
n
0.8715 0.2015 m
0.8615 0.1842 l
0.8815 0.1842 l
c
GS
Color0 SRGB
fill
GR
[/Pattern /DeviceRGB] SCS
Color12 Pattern8 SC
fill
[/DeviceRGB] SCS
Color12 SC
[] 0 SD
0.0030 SLW
n
0.8715 0.2015 m
0.8615 0.1842 l
0.8815 0.1842 l
0.8715 0.2015 l
c
s
n
0.9315 0.2015 m
0.9215 0.1842 l
0.9415 0.1842 l
c
GS
Color0 SRGB
fill
GR
[/Pattern /DeviceRGB] SCS
Color12 Pattern8 SC
fill
[/DeviceRGB] SCS
Color12 SC
n
0.9315 0.2015 m
0.9215 0.1842 l
0.9415 0.1842 l
0.9315 0.2015 l
c
s
/Times-Italic findfont
dup length dict begin
 {1 index /FID ne {def} {pop pop} ifelse} forall
 /Encoding DefEncoding def
 currentdict
end
/Font1 exch definefont pop
/Font1 FFSF
[/DeviceRGB] SCS
Color1 SC
0.2405 0.3542 m
GS
[0.0538 0.0000 0.0000 0.0538 0 0] CC
(n) show
GR
/Font0 FFSF
0.2676 0.3542 m
GS
[0.0538 0.0000 0.0000 0.0538 0 0] CC
(=0.16 fm) show
GR
/Font0 FFSF
0.4652 0.3865 m
GS
[0.0380 0.0000 0.0000 0.0380 0 0] CC
(-3) show
GR
%%Trailer
%%BoundingBox: 11 38 711 531
%%DocumentNeededResources: font Times-Roman
%%+ font Times-Italic
%%+ font Symbol
%%EOF
