%!PS-Adobe-3.0 EPSF-3.0
%%BoundingBox: (atend)
%%LanguageLevel: 2
%%Creator: Grace-5.1.25
%%CreationDate: Thu Dec 17 12:02:18 2015
%%DocumentData: Clean8Bit
%%Orientation: Portrait
%%Title: NS_massRho.agr
%%For: ap1450
%%DocumentNeededResources: (atend)
%%EndComments
%%BeginProlog
/m {moveto} def
/l {lineto} def
/s {stroke} def
/n {newpath} def
/c {closepath} def
/RL {rlineto} def
/SLW {setlinewidth} def
/GS {gsave} def
/GR {grestore} def
/SC {setcolor} def
/SGRY {setgray} def
/SRGB {setrgbcolor} def
/SD {setdash} def
/SLC {setlinecap} def
/SLJ {setlinejoin} def
/SCS {setcolorspace} def
/FFSF {findfont setfont} def
/CC {concat} def
/PXL {n m 0 0 RL s} def
/Color0 {1.0000 1.0000 1.0000} def
/Color1 {0.0000 0.0000 0.0000} def
/Color2 {1.0000 0.0000 0.0000} def
/Color3 {0.0000 1.0000 0.0000} def
/Color4 {0.0000 0.0000 1.0000} def
/Color5 {1.0000 1.0000 0.0000} def
/Color6 {0.7373 0.5608 0.5608} def
/Color7 {0.8627 0.8627 0.8627} def
/Color8 {0.5804 0.0000 0.8275} def
/Color9 {0.0000 1.0000 1.0000} def
/Color10 {1.0000 0.0000 1.0000} def
/Color11 {1.0000 0.6471 0.0000} def
/Color12 {0.4471 0.1294 0.7373} def
/Color13 {0.4039 0.0275 0.2824} def
/Color14 {0.2510 0.8784 0.8157} def
/Color15 {0.0000 0.5451 0.0000} def
/Color16 {0.7529 0.7529 0.7529} def
/Color17 {0.5059 0.5059 0.5059} def
/Color18 {0.2588 0.2588 0.2588} def
/PTRN {
 /pat_bits exch def 
 <<
  /PaintType 2
  /PatternType 1 /TilingType 1
  /BBox[0 0 16 16]
  /XStep 16 /YStep 16
  /PaintProc {
   pop
   16 16 true [-1 0 0 -1 16 16] pat_bits imagemask
  }
 >>
 [0.0016 0 0 0.0016 0 0]
 makepattern
} def
/Pattern0 {<0000000000000000000000000000000000000000000000000000000000000000> PTRN} bind def
/Pattern1 {<ffffffffffffffffffffffffffffffffffffffffffffffffffffffffffffffff> PTRN} bind def
/Pattern2 {<eeeeffffbbbbffffeeeeffffbbbbffffeeeeffffbbbbffffeeeeffffbbbbffff> PTRN} bind def
/Pattern3 {<eeeebbbbeeeebbbbeeeebbbbeeeebbbbeeeebbbbeeeebbbbeeeebbbbeeeebbbb> PTRN} bind def
/Pattern4 {<5555aaaa5555aaaa5555aaaa5555aaaa5555aaaa5555aaaa5555aaaa5555aaaa> PTRN} bind def
/Pattern5 {<1111444411114444111144441111444411114444111144441111444411114444> PTRN} bind def
/Pattern6 {<1111000044440000111100004444000011110000444400001111000044440000> PTRN} bind def
/Pattern7 {<1010000000000000010100000000000010100000000000000101000000000000> PTRN} bind def
/Pattern8 {<0000000000000000000000000000000000000000000000000000000000000000> PTRN} bind def
/Pattern9 {<1e1e0f0f8787c3c3e1e1f0f078783c3c1e1e0f0f8787c3c3e1e1f0f078783c3c> PTRN} bind def
/Pattern10 {<7878f0f0e1e1c3c387870f0f1e1e3c3c7878f0f0e1e1c3c387870f0f1e1e3c3c> PTRN} bind def
/Pattern11 {<3333333333333333333333333333333333333333333333333333333333333333> PTRN} bind def
/Pattern12 {<ffffffff00000000ffffffff00000000ffffffff00000000ffffffff00000000> PTRN} bind def
/Pattern13 {<8181424224241818181824244242818181814242242418181818242442428181> PTRN} bind def
/Pattern14 {<8080404020201010080804040202010180804040202010100808040402020101> PTRN} bind def
/Pattern15 {<0101020204040808101020204040808001010202040408081010202040408080> PTRN} bind def
/Pattern16 {<2222222222222222222222222222222222222222222222222222222222222222> PTRN} bind def
/Pattern17 {<0000ffff000000000000ffff000000000000ffff000000000000ffff00000000> PTRN} bind def
/Pattern18 {<2222ffff222222222222ffff222222222222ffff222222222222ffff22222222> PTRN} bind def
/Pattern19 {<ffffffff33333333ffffffff33333333ffffffff33333333ffffffff33333333> PTRN} bind def
/Pattern20 {<0f0f0f0f0f0f0f0ff0f0f0f0f0f0f0f00f0f0f0f0f0f0f0ff0f0f0f0f0f0f0f0> PTRN} bind def
/Pattern21 {<ff00ff00ff00ff00ff00ff00ff00ff0000ff00ff00ff00ff00ff00ff00ff00ff> PTRN} bind def
/Pattern22 {<8001800180018001800180018001ffffffff8001800180018001800180018001> PTRN} bind def
/Pattern23 {<c003c003c003c003c003c003ffffffffffffffffc003c003c003c003c003c003> PTRN} bind def
/Pattern24 {<040404040404ffff404040404040ffff040404040404ffff404040404040ffff> PTRN} bind def
/Pattern25 {<180018001800180018001800ffffffff001800180018001800180018ffffffff> PTRN} bind def
/Pattern26 {<1111b8b87c7c3a3a1111a3a3c7c78b8b1111b8b87c7c3a3a1111a3a3c7c78b8b> PTRN} bind def
/Pattern27 {<101010102828c7c70101010182827c7c101010102828c7c70101010182827c7c> PTRN} bind def
/Pattern28 {<1c1c121211112121c1c12121111112121c1c121211112121c1c1212111111212> PTRN} bind def
/Pattern29 {<3e3e414180808080e3e31414080808083e3e414180808080e3e3141408080808> PTRN} bind def
/Pattern30 {<4848888884848383848488884848383848488888848483838484888848483838> PTRN} bind def
/Pattern31 {<03030404080808080c0c12122121c0c003030404080808080c0c12122121c0c0> PTRN} bind def
/ellipsedict 8 dict def
ellipsedict /mtrx matrix put
/EARC {
 ellipsedict begin
  /endangle exch def
  /startangle exch def
  /yrad exch def
  /xrad exch def
  /y exch def
  /x exch def
  /savematrix mtrx currentmatrix def
  x y translate
  xrad yrad scale
  0 0 1 startangle endangle arc
  savematrix setmatrix
 end
} def
/TL {
  /kcomp exch def
  /linewidth exch def
  /offset exch def
  GS
  0 offset rmoveto
  linewidth SLW
  dup stringwidth exch kcomp add exch RL s
  GR
} def
/KINIT
{
 /kvector exch def
 /kid 0 def
} def
/KPROC
{
 pop pop
 kvector kid get
 0 rmoveto
 /kid 1 kid add def
} def
/DefEncoding [
 /.notdef
 /.notdef
 /.notdef
 /.notdef
 /.notdef
 /.notdef
 /.notdef
 /.notdef
 /.notdef
 /.notdef
 /.notdef
 /.notdef
 /.notdef
 /.notdef
 /.notdef
 /.notdef
 /.notdef
 /.notdef
 /.notdef
 /.notdef
 /.notdef
 /.notdef
 /.notdef
 /.notdef
 /.notdef
 /.notdef
 /.notdef
 /.notdef
 /.notdef
 /.notdef
 /.notdef
 /.notdef
 /space
 /exclam
 /quotedbl
 /numbersign
 /dollar
 /percent
 /ampersand
 /quoteright
 /parenleft
 /parenright
 /asterisk
 /plus
 /comma
 /hyphen
 /period
 /slash
 /zero
 /one
 /two
 /three
 /four
 /five
 /six
 /seven
 /eight
 /nine
 /colon
 /semicolon
 /less
 /equal
 /greater
 /question
 /at
 /A
 /B
 /C
 /D
 /E
 /F
 /G
 /H
 /I
 /J
 /K
 /L
 /M
 /N
 /O
 /P
 /Q
 /R
 /S
 /T
 /U
 /V
 /W
 /X
 /Y
 /Z
 /bracketleft
 /backslash
 /bracketright
 /asciicircum
 /underscore
 /grave
 /a
 /b
 /c
 /d
 /e
 /f
 /g
 /h
 /i
 /j
 /k
 /l
 /m
 /n
 /o
 /p
 /q
 /r
 /s
 /t
 /u
 /v
 /w
 /x
 /y
 /z
 /braceleft
 /bar
 /braceright
 /asciitilde
 /.notdef
 /.notdef
 /.notdef
 /.notdef
 /.notdef
 /.notdef
 /.notdef
 /.notdef
 /.notdef
 /.notdef
 /.notdef
 /.notdef
 /.notdef
 /.notdef
 /.notdef
 /.notdef
 /.notdef
 /.notdef
 /.notdef
 /.notdef
 /.notdef
 /.notdef
 /.notdef
 /.notdef
 /.notdef
 /.notdef
 /.notdef
 /.notdef
 /.notdef
 /.notdef
 /.notdef
 /.notdef
 /.notdef
 /space
 /exclamdown
 /cent
 /sterling
 /currency
 /yen
 /brokenbar
 /section
 /dieresis
 /copyright
 /ordfeminine
 /guillemotleft
 /logicalnot
 /hyphen
 /registered
 /macron
 /degree
 /plusminus
 /twosuperior
 /threesuperior
 /acute
 /mu
 /paragraph
 /periodcentered
 /cedilla
 /onesuperior
 /ordmasculine
 /guillemotright
 /onequarter
 /onehalf
 /threequarters
 /questiondown
 /Agrave
 /Aacute
 /Acircumflex
 /Atilde
 /Adieresis
 /Aring
 /AE
 /Ccedilla
 /Egrave
 /Eacute
 /Ecircumflex
 /Edieresis
 /Igrave
 /Iacute
 /Icircumflex
 /Idieresis
 /Eth
 /Ntilde
 /Ograve
 /Oacute
 /Ocircumflex
 /Otilde
 /Odieresis
 /multiply
 /Oslash
 /Ugrave
 /Uacute
 /Ucircumflex
 /Udieresis
 /Yacute
 /Thorn
 /germandbls
 /agrave
 /aacute
 /acircumflex
 /atilde
 /adieresis
 /aring
 /ae
 /ccedilla
 /egrave
 /eacute
 /ecircumflex
 /edieresis
 /igrave
 /iacute
 /icircumflex
 /idieresis
 /eth
 /ntilde
 /ograve
 /oacute
 /ocircumflex
 /otilde
 /odieresis
 /divide
 /oslash
 /ugrave
 /uacute
 /ucircumflex
 /udieresis
 /yacute
 /thorn
 /ydieresis
] def
%%EndProlog
%%BeginSetup
%%EndSetup
612.00 612.00 scale
[/DeviceRGB] SCS
Color1 SC
[] 0 SD
0.0037 SLW
0 SLC
0 SLJ
n
0.1499 0.2488 m
0.1503 0.2493 l
0.1521 0.2513 l
0.1538 0.2532 l
0.1556 0.2552 l
0.1573 0.2572 l
0.1591 0.2593 l
0.1608 0.2613 l
0.1626 0.2633 l
0.1643 0.2654 l
0.1661 0.2674 l
0.1678 0.2695 l
0.1696 0.2716 l
0.1713 0.2737 l
0.1731 0.2758 l
0.1748 0.2779 l
0.1766 0.2801 l
0.1783 0.2822 l
0.1801 0.2844 l
0.1818 0.2865 l
0.1836 0.2887 l
0.1853 0.2909 l
0.1871 0.2930 l
0.1888 0.2952 l
0.1906 0.2974 l
0.1923 0.2996 l
0.1941 0.3018 l
0.1958 0.3040 l
0.1976 0.3062 l
0.1993 0.3085 l
0.2011 0.3107 l
0.2028 0.3129 l
0.2046 0.3152 l
0.2063 0.3174 l
0.2081 0.3196 l
0.2098 0.3219 l
0.2116 0.3241 l
0.2133 0.3264 l
0.2151 0.3286 l
0.2168 0.3309 l
0.2186 0.3332 l
0.2203 0.3354 l
0.2221 0.3377 l
0.2238 0.3400 l
0.2256 0.3422 l
0.2273 0.3445 l
0.2291 0.3468 l
0.2308 0.3490 l
0.2325 0.3513 l
0.2343 0.3536 l
0.2360 0.3558 l
0.2378 0.3581 l
0.2395 0.3603 l
0.2413 0.3626 l
0.2430 0.3649 l
0.2448 0.3671 l
0.2465 0.3694 l
0.2483 0.3716 l
0.2500 0.3739 l
0.2518 0.3761 l
0.2535 0.3784 l
0.2553 0.3806 l
0.2570 0.3829 l
0.2588 0.3851 l
0.2605 0.3873 l
0.2623 0.3896 l
0.2640 0.3918 l
0.2658 0.3940 l
0.2675 0.3962 l
0.2693 0.3984 l
0.2710 0.4007 l
0.2728 0.4029 l
0.2745 0.4051 l
0.2763 0.4072 l
0.2780 0.4094 l
0.2798 0.4116 l
0.2815 0.4138 l
0.2833 0.4160 l
0.2850 0.4181 l
0.2868 0.4203 l
0.2885 0.4224 l
0.2903 0.4246 l
0.2920 0.4267 l
0.2938 0.4289 l
0.2955 0.4310 l
0.2973 0.4331 l
0.2990 0.4352 l
0.3008 0.4373 l
0.3025 0.4394 l
0.3043 0.4415 l
0.3060 0.4436 l
0.3078 0.4457 l
0.3095 0.4477 l
0.3113 0.4498 l
0.3130 0.4518 l
0.3148 0.4539 l
0.3165 0.4559 l
0.3183 0.4580 l
0.3200 0.4600 l
0.3218 0.4620 l
0.3235 0.4640 l
0.3253 0.4660 l
0.3270 0.4680 l
0.3288 0.4700 l
0.3305 0.4719 l
0.3323 0.4739 l
0.3340 0.4758 l
0.3357 0.4778 l
0.3375 0.4797 l
0.3392 0.4816 l
0.3410 0.4835 l
0.3427 0.4855 l
0.3445 0.4874 l
0.3462 0.4892 l
0.3480 0.4911 l
0.3497 0.4930 l
0.3515 0.4949 l
0.3532 0.4967 l
0.3550 0.4985 l
0.3567 0.5004 l
0.3585 0.5022 l
0.3602 0.5040 l
0.3620 0.5058 l
0.3637 0.5076 l
0.3655 0.5094 l
0.3672 0.5112 l
0.3690 0.5129 l
0.3707 0.5147 l
0.3725 0.5164 l
0.3742 0.5182 l
0.3760 0.5199 l
0.3777 0.5216 l
0.3795 0.5233 l
0.3812 0.5250 l
0.3830 0.5267 l
0.3847 0.5284 l
0.3865 0.5301 l
0.3882 0.5317 l
0.3900 0.5334 l
0.3917 0.5350 l
0.3935 0.5367 l
0.3952 0.5383 l
0.3970 0.5399 l
0.3987 0.5415 l
0.4005 0.5431 l
0.4022 0.5447 l
0.4040 0.5462 l
0.4057 0.5478 l
0.4075 0.5493 l
0.4092 0.5509 l
0.4110 0.5524 l
0.4127 0.5539 l
0.4145 0.5554 l
0.4162 0.5570 l
0.4180 0.5584 l
0.4197 0.5599 l
0.4215 0.5614 l
0.4232 0.5629 l
0.4250 0.5643 l
0.4267 0.5658 l
0.4285 0.5672 l
0.4302 0.5686 l
0.4320 0.5701 l
0.4337 0.5715 l
0.4355 0.5729 l
0.4372 0.5742 l
0.4389 0.5756 l
0.4407 0.5770 l
0.4424 0.5784 l
0.4442 0.5797 l
0.4459 0.5810 l
0.4477 0.5824 l
0.4494 0.5837 l
0.4512 0.5850 l
0.4529 0.5863 l
0.4547 0.5876 l
0.4564 0.5889 l
0.4582 0.5902 l
0.4599 0.5914 l
0.4617 0.5927 l
0.4634 0.5940 l
0.4652 0.5952 l
0.4669 0.5964 l
0.4687 0.5977 l
0.4704 0.5989 l
0.4722 0.6001 l
0.4739 0.6013 l
0.4757 0.6025 l
0.4774 0.6036 l
0.4792 0.6048 l
0.4809 0.6060 l
0.4827 0.6071 l
0.4844 0.6083 l
0.4862 0.6094 l
0.4879 0.6105 l
0.4897 0.6116 l
0.4914 0.6128 l
0.4932 0.6139 l
0.4949 0.6150 l
0.4967 0.6160 l
0.4984 0.6171 l
0.5002 0.6182 l
0.5019 0.6192 l
0.5037 0.6203 l
0.5054 0.6213 l
0.5072 0.6224 l
0.5089 0.6234 l
0.5107 0.6244 l
0.5124 0.6254 l
0.5142 0.6264 l
0.5159 0.6274 l
0.5177 0.6284 l
0.5194 0.6294 l
0.5212 0.6304 l
0.5229 0.6313 l
0.5247 0.6323 l
0.5264 0.6332 l
0.5282 0.6342 l
0.5299 0.6351 l
0.5317 0.6361 l
0.5334 0.6370 l
0.5352 0.6379 l
0.5369 0.6388 l
0.5387 0.6397 l
0.5404 0.6406 l
0.5422 0.6415 l
0.5439 0.6423 l
0.5456 0.6432 l
0.5474 0.6441 l
0.5491 0.6449 l
0.5509 0.6458 l
0.5526 0.6466 l
0.5544 0.6474 l
0.5561 0.6483 l
0.5579 0.6491 l
0.5596 0.6499 l
0.5614 0.6507 l
0.5631 0.6515 l
0.5649 0.6523 l
0.5666 0.6531 l
0.5684 0.6538 l
0.5701 0.6546 l
0.5719 0.6554 l
0.5736 0.6561 l
0.5754 0.6569 l
0.5771 0.6576 l
0.5789 0.6584 l
0.5806 0.6591 l
0.5824 0.6598 l
0.5841 0.6606 l
0.5859 0.6613 l
0.5876 0.6620 l
0.5894 0.6627 l
0.5911 0.6634 l
0.5929 0.6641 l
0.5946 0.6647 l
0.5964 0.6654 l
0.5981 0.6661 l
0.5999 0.6668 l
0.6016 0.6674 l
0.6034 0.6681 l
0.6051 0.6687 l
0.6069 0.6694 l
0.6086 0.6700 l
0.6104 0.6706 l
0.6121 0.6712 l
0.6139 0.6719 l
0.6156 0.6725 l
0.6174 0.6731 l
0.6191 0.6737 l
0.6209 0.6743 l
0.6226 0.6749 l
0.6244 0.6755 l
0.6261 0.6760 l
0.6279 0.6766 l
0.6296 0.6772 l
0.6314 0.6777 l
0.6331 0.6783 l
0.6349 0.6789 l
0.6366 0.6794 l
0.6384 0.6800 l
0.6401 0.6805 l
0.6419 0.6810 l
0.6436 0.6816 l
0.6454 0.6821 l
0.6471 0.6826 l
0.6489 0.6831 l
0.6506 0.6836 l
0.6523 0.6841 l
0.6541 0.6846 l
0.6558 0.6851 l
0.6576 0.6856 l
0.6593 0.6861 l
0.6611 0.6866 l
0.6628 0.6870 l
0.6646 0.6875 l
0.6663 0.6880 l
0.6681 0.6884 l
0.6698 0.6889 l
0.6716 0.6893 l
0.6733 0.6898 l
0.6751 0.6902 l
0.6768 0.6907 l
0.6786 0.6911 l
0.6803 0.6915 l
0.6821 0.6920 l
0.6838 0.6924 l
0.6856 0.6928 l
0.6873 0.6932 l
0.6891 0.6936 l
0.6908 0.6940 l
0.6926 0.6944 l
0.6943 0.6948 l
0.6961 0.6952 l
0.6978 0.6956 l
0.6996 0.6960 l
0.7013 0.6964 l
0.7031 0.6968 l
0.7048 0.6971 l
0.7066 0.6975 l
0.7083 0.6979 l
0.7101 0.6982 l
0.7118 0.6986 l
0.7136 0.6989 l
0.7153 0.6993 l
0.7171 0.6996 l
0.7188 0.7000 l
0.7206 0.7003 l
0.7223 0.7007 l
0.7241 0.7010 l
0.7258 0.7013 l
0.7276 0.7016 l
0.7293 0.7020 l
0.7311 0.7023 l
0.7328 0.7026 l
0.7346 0.7029 l
0.7363 0.7032 l
0.7381 0.7035 l
0.7398 0.7038 l
0.7416 0.7041 l
0.7433 0.7044 l
0.7451 0.7047 l
0.7468 0.7050 l
0.7486 0.7053 l
0.7503 0.7056 l
0.7521 0.7058 l
0.7538 0.7061 l
0.7555 0.7064 l
0.7573 0.7067 l
0.7590 0.7069 l
0.7608 0.7072 l
0.7625 0.7074 l
0.7643 0.7077 l
0.7660 0.7080 l
0.7678 0.7082 l
0.7695 0.7084 l
0.7713 0.7087 l
0.7730 0.7089 l
0.7748 0.7092 l
0.7765 0.7094 l
0.7783 0.7096 l
0.7800 0.7099 l
0.7818 0.7101 l
0.7835 0.7103 l
0.7853 0.7105 l
0.7870 0.7108 l
0.7888 0.7110 l
0.7905 0.7112 l
0.7923 0.7114 l
0.7940 0.7116 l
0.7958 0.7118 l
0.7975 0.7120 l
0.7993 0.7122 l
0.8010 0.7124 l
0.8028 0.7126 l
0.8045 0.7128 l
0.8063 0.7130 l
0.8080 0.7132 l
0.8098 0.7134 l
0.8115 0.7136 l
0.8133 0.7137 l
0.8150 0.7139 l
0.8168 0.7141 l
0.8185 0.7143 l
0.8203 0.7144 l
0.8220 0.7146 l
0.8238 0.7148 l
0.8255 0.7149 l
0.8273 0.7151 l
0.8290 0.7153 l
0.8308 0.7154 l
0.8325 0.7156 l
0.8343 0.7157 l
0.8360 0.7159 l
0.8378 0.7160 l
0.8395 0.7162 l
0.8413 0.7163 l
0.8430 0.7165 l
0.8448 0.7166 l
0.8465 0.7167 l
0.8483 0.7169 l
0.8500 0.7170 l
0.8518 0.7171 l
0.8535 0.7173 l
0.8553 0.7174 l
0.8570 0.7175 l
0.8587 0.7177 l
0.8605 0.7178 l
0.8622 0.7179 l
0.8640 0.7180 l
0.8657 0.7181 l
0.8675 0.7182 l
0.8692 0.7184 l
0.8710 0.7185 l
0.8727 0.7186 l
0.8745 0.7187 l
0.8762 0.7188 l
0.8780 0.7189 l
0.8797 0.7190 l
0.8815 0.7191 l
0.8832 0.7192 l
0.8850 0.7193 l
0.8867 0.7194 l
0.8885 0.7195 l
0.8902 0.7196 l
0.8920 0.7197 l
0.8937 0.7197 l
0.8955 0.7198 l
0.8972 0.7199 l
0.8990 0.7200 l
0.9007 0.7201 l
0.9025 0.7202 l
0.9042 0.7202 l
0.9060 0.7203 l
0.9077 0.7204 l
0.9095 0.7205 l
0.9112 0.7205 l
0.9130 0.7206 l
0.9147 0.7207 l
0.9165 0.7207 l
0.9182 0.7208 l
0.9200 0.7209 l
0.9217 0.7209 l
0.9235 0.7210 l
0.9252 0.7211 l
0.9270 0.7211 l
0.9287 0.7212 l
0.9305 0.7212 l
0.9322 0.7213 l
0.9340 0.7213 l
0.9357 0.7214 l
0.9375 0.7214 l
0.9392 0.7215 l
0.9410 0.7215 l
0.9427 0.7216 l
0.9445 0.7216 l
0.9462 0.7217 l
0.9480 0.7217 l
0.9497 0.7218 l
0.9515 0.7218 l
0.9532 0.7218 l
0.9550 0.7219 l
0.9567 0.7219 l
0.9585 0.7219 l
0.9602 0.7220 l
0.9620 0.7220 l
0.9637 0.7220 l
0.9654 0.7221 l
0.9672 0.7221 l
0.9689 0.7221 l
0.9707 0.7222 l
0.9724 0.7222 l
0.9742 0.7222 l
0.9759 0.7222 l
0.9777 0.7222 l
0.9794 0.7223 l
0.9812 0.7223 l
0.9829 0.7223 l
0.9847 0.7223 l
0.9864 0.7223 l
0.9882 0.7224 l
0.9899 0.7224 l
0.9917 0.7224 l
0.9934 0.7224 l
0.9952 0.7224 l
0.9969 0.7224 l
0.9987 0.7224 l
1.0004 0.7224 l
1.0022 0.7224 l
1.0039 0.7225 l
1.0057 0.7225 l
1.0074 0.7225 l
1.0092 0.7225 l
1.0109 0.7225 l
1.0127 0.7225 l
1.0144 0.7225 l
1.0162 0.7225 l
s
[] 0 SD
0.0045 SLW
n
0.1500 0.1500 m
1.1500 0.1500 l
s
n
0.1500 0.8500 m
1.1500 0.8500 l
s
n
0.2333 0.1500 m
0.2333 0.1600 l
s
n
0.2333 0.8500 m
0.2333 0.8400 l
s
n
0.4000 0.1500 m
0.4000 0.1600 l
s
n
0.4000 0.8500 m
0.4000 0.8400 l
s
n
0.5667 0.1500 m
0.5667 0.1600 l
s
n
0.5667 0.8500 m
0.5667 0.8400 l
s
n
0.7333 0.1500 m
0.7333 0.1600 l
s
n
0.7333 0.8500 m
0.7333 0.8400 l
s
n
0.9000 0.1500 m
0.9000 0.1600 l
s
n
0.9000 0.8500 m
0.9000 0.8400 l
s
n
1.0667 0.1500 m
1.0667 0.1600 l
s
n
1.0667 0.8500 m
1.0667 0.8400 l
s
n
0.1500 0.1500 m
0.1500 0.1700 l
s
n
0.1500 0.8500 m
0.1500 0.8300 l
s
n
0.3167 0.1500 m
0.3167 0.1700 l
s
n
0.3167 0.8500 m
0.3167 0.8300 l
s
n
0.4833 0.1500 m
0.4833 0.1700 l
s
n
0.4833 0.8500 m
0.4833 0.8300 l
s
n
0.6500 0.1500 m
0.6500 0.1700 l
s
n
0.6500 0.8500 m
0.6500 0.8300 l
s
n
0.8167 0.1500 m
0.8167 0.1700 l
s
n
0.8167 0.8500 m
0.8167 0.8300 l
s
n
0.9833 0.1500 m
0.9833 0.1700 l
s
n
0.9833 0.8500 m
0.9833 0.8300 l
s
/Times-Roman findfont
dup length dict begin
 {1 index /FID ne {def} {pop pop} ifelse} forall
 /Encoding DefEncoding def
 currentdict
end
/Font0 exch definefont pop
/Font0 FFSF
0.1225 0.1094 m
GS
[0.0448 0.0000 0.0000 0.0448 0 0] CC
(0.2) show
GR
/Font0 FFSF
0.2892 0.1094 m
GS
[0.0448 0.0000 0.0000 0.0448 0 0] CC
(0.4) show
GR
/Font0 FFSF
0.4561 0.1094 m
GS
[0.0448 0.0000 0.0000 0.0448 0 0] CC
(0.6) show
GR
/Font0 FFSF
0.6231 0.1094 m
GS
[0.0448 0.0000 0.0000 0.0448 0 0] CC
(0.8) show
GR
/Font0 FFSF
0.8078 0.1094 m
GS
[0.0448 0.0000 0.0000 0.0448 0 0] CC
(1) show
GR
/Font0 FFSF
0.9559 0.1094 m
GS
[0.0448 0.0000 0.0000 0.0448 0 0] CC
(1.2) show
GR
/Times-Italic findfont
dup length dict begin
 {1 index /FID ne {def} {pop pop} ifelse} forall
 /Encoding DefEncoding def
 currentdict
end
/Font1 exch definefont pop
/Font1 FFSF
0.5735 0.0445 m
GS
[0.0504 0.0000 0.0000 0.0504 0 0] CC
(n) show
GR
/Font0 FFSF
0.5986 0.0445 m
GS
[0.0504 0.0000 0.0000 0.0504 0 0] CC
( [fm) show
GR
/Font0 FFSF
0.6841 0.0747 m
GS
[0.0356 0.0000 0.0000 0.0356 0 0] CC
(-3) show
GR
/Font0 FFSF
0.7139 0.0445 m
GS
[0.0504 0.0000 0.0000 0.0504 0 0] CC
(]) show
GR
n
0.1500 0.1500 m
0.1500 0.8500 l
s
n
1.1500 0.1500 m
1.1500 0.8500 l
s
n
0.1500 0.2227 m
0.1600 0.2227 l
s
n
1.1500 0.2227 m
1.1400 0.2227 l
s
n
0.1500 0.3685 m
0.1600 0.3685 l
s
n
1.1500 0.3685 m
1.1400 0.3685 l
s
n
0.1500 0.5144 m
0.1600 0.5144 l
s
n
1.1500 0.5144 m
1.1400 0.5144 l
s
n
0.1500 0.6603 m
0.1600 0.6603 l
s
n
1.1500 0.6603 m
1.1400 0.6603 l
s
n
0.1500 0.8062 m
0.1600 0.8062 l
s
n
1.1500 0.8062 m
1.1400 0.8062 l
s
n
0.1500 0.2956 m
0.1700 0.2956 l
s
n
1.1500 0.2956 m
1.1300 0.2956 l
s
n
0.1500 0.4415 m
0.1700 0.4415 l
s
n
1.1500 0.4415 m
1.1300 0.4415 l
s
n
0.1500 0.5874 m
0.1700 0.5874 l
s
n
1.1500 0.5874 m
1.1300 0.5874 l
s
n
0.1500 0.7333 m
0.1700 0.7333 l
s
n
1.1500 0.7333 m
1.1300 0.7333 l
s
/Font0 FFSF
0.0867 0.2805 m
GS
[0.0448 0.0000 0.0000 0.0448 0 0] CC
(0.5) show
GR
/Font0 FFSF
0.1224 0.4262 m
GS
[0.0448 0.0000 0.0000 0.0448 0 0] CC
(1) show
GR
/Font0 FFSF
0.0867 0.5723 m
GS
[0.0448 0.0000 0.0000 0.0448 0 0] CC
(1.5) show
GR
/Font0 FFSF
0.1188 0.7180 m
GS
[0.0448 0.0000 0.0000 0.0448 0 0] CC
(2) show
GR
/Font0 FFSF
0.0561 0.4208 m
GS
[0.0000 0.0504 -0.0504 0.0000 0 0] CC
(M/M) show
GR
/Font0 FFSF
0.0763 0.5243 m
GS
[0.0000 0.0356 -0.0356 0.0000 0 0] CC
(Sun) show
GR
[] 0 SD
0.0015 SLW
n
0.1500 0.1500 m
0.1500 0.8500 l
1.1500 0.8500 l
1.1500 0.1500 l
0.1500 0.1500 l
c
s
/Font0 FFSF
0.2000 0.2000 m
GS
[0.0848 0.0000 0.0000 0.0848 0 0] CC
(b\)) show
GR
%%Trailer
%%BoundingBox: 12 21 707 523
%%DocumentNeededResources: font Times-Roman
%%+ font Times-Italic
%%EOF
