\relax 
\providecommand\hyper@newdestlabel[2]{}
\providecommand\HyperFirstAtBeginDocument{\AtBeginDocument}
\HyperFirstAtBeginDocument{\ifx\hyper@anchor\@undefined
\global\let\oldcontentsline\contentsline
\gdef\contentsline#1#2#3#4{\oldcontentsline{#1}{#2}{#3}}
\global\let\oldnewlabel\newlabel
\gdef\newlabel#1#2{\newlabelxx{#1}#2}
\gdef\newlabelxx#1#2#3#4#5#6{\oldnewlabel{#1}{{#2}{#3}}}
\AtEndDocument{\ifx\hyper@anchor\@undefined
\let\contentsline\oldcontentsline
\let\newlabel\oldnewlabel
\fi}
\fi}
\global\let\hyper@last\relax 
\gdef\HyperFirstAtBeginDocument#1{#1}
\providecommand\HyField@AuxAddToFields[1]{}
\providecommand\HyField@AuxAddToCoFields[2]{}
\citation{bal97}
\citation{typ13}
\citation{sky59}
\citation{cao06}
\citation{hae04}
\citation{PRep}
\citation{cha13}
\citation{iwa82}
\citation{cha08}
\citation{Sin13}
\citation{gam11}
\citation{cao06}
\citation{car08}
\citation{rai11}
\citation{sky59}
\citation{vau72}
\citation{ben03}
\citation{bal14}
\citation{cha10}
\citation{car08}
\citation{dav15}
\citation{car10}
\select@language{english}
\@writefile{toc}{\select@language{english}}
\@writefile{lof}{\select@language{english}}
\@writefile{lot}{\select@language{english}}
\@writefile{toc}{\contentsline {section}{\numberline {1}Introduction}{1}{section.1}}
\citation{car08}
\citation{dav13}
\citation{rai11}
\citation{dav14c}
\citation{ben03}
\citation{dav14p}
\citation{cha10B}
\citation{dav15}
\citation{bal97}
\citation{bal14a}
\citation{zho04}
\citation{bal97}
\citation{heb11}
\citation{bog05}
\citation{rot08}
\citation{dav15}
\citation{bal97}
\citation{dav15}
\citation{bal97}
\citation{les06}
\citation{bal13}
\citation{bal14NS}
\citation{sha15}
\citation{gor09}
\citation{gor13}
\citation{cha11}
\citation{bur10}
\@writefile{toc}{\contentsline {section}{\numberline {2}Extended Skyrme interaction}{2}{section.2}}
\newlabel{Sec:Sky}{{2}{2}{Extended Skyrme interaction}{section.2}{}}
\newlabel{sk:ext}{{1}{2}{Extended Skyrme interaction}{equation.2.1}{}}
\citation{les07}
\citation{cha97}
\citation{cha10}
\citation{mar02}
\citation{les07}
\citation{heb11}
\@writefile{lot}{\contentsline {table}{\numberline {1}{\ignorespaces Parameters of the extended LYVA1 Skyrme interaction, with $\alpha =1/6$, $t^{(0)}_{3}=13763$ [MeVfm$^{3+\alpha }$], and $x^{(0)}_{3}=0.3$.}}{3}{table.1}}
\newlabel{tab:n3lo}{{1}{3}{Parameters of the extended LYVA1 Skyrme interaction, with $\alpha =1/6$, $t^{(0)}_{3}=13763$ [MeVfm$^{3+\alpha }$], and $x^{(0)}_{3}=0.3$}{table.1}{}}
\@writefile{lof}{\contentsline {figure}{\numberline {1}{\ignorespaces (Colors online) Equations of state of SNM and PNM (panel a) and projections $(S,T)$ in SNM (panel b), both expressed in MeV. The solid lines represent the result obtained with our extended Skyrme interaction, while the dots represent the EoS obtained by \citep  {bal97}. The LNS results are represented by dashed-lines.}}{3}{figure.1}}
\newlabel{RESFIT}{{1}{3}{(Colors online) Equations of state of SNM and PNM (panel a) and projections $(S,T)$ in SNM (panel b), both expressed in MeV. The solid lines represent the result obtained with our extended Skyrme interaction, while the dots represent the EoS obtained by \citep {bal97}. The LNS results are represented by dashed-lines}{figure.1}{}}
\@writefile{toc}{\contentsline {section}{\numberline {3}Energy per particle }{3}{section.3}}
\newlabel{Sec:BA}{{3}{3}{Energy per particle}{section.3}{}}
\citation{dut12}
\citation{bal97}
\citation{bohr1998nuclear}
\citation{cao06}
\citation{bal99}
\citation{bal12}
\@writefile{lof}{\contentsline {figure}{\numberline {2}{\ignorespaces (Colors online) Equations of state of SNM (panel a) and PNM (panel b) obtained using the LYVA1 interaction (solid) the BSk models (dashed) and the BCMP functional (dotted).}}{4}{figure.2}}
\newlabel{EoScompare}{{2}{4}{(Colors online) Equations of state of SNM (panel a) and PNM (panel b) obtained using the LYVA1 interaction (solid) the BSk models (dashed) and the BCMP functional (dotted)}{figure.2}{}}
\@writefile{lof}{\contentsline {figure}{\numberline {3}{\ignorespaces (Colors online) Same as Fig.\ref  {RESFIT}, but for the BSk model discussed in the text.}}{4}{figure.3}}
\newlabel{RESFIT2}{{3}{4}{(Colors online) Same as Fig.\ref {RESFIT}, but for the BSk model discussed in the text}{figure.3}{}}
\newlabel{eosanm}{{5}{4}{Energy per particle}{equation.3.5}{}}
\@writefile{lof}{\contentsline {figure}{\numberline {4}{\ignorespaces (Colors online) Equations of states in asymmetric nuclear matter as a function of the density $n$ and asymmetry parameter $Y$.}}{4}{figure.4}}
\newlabel{ANM}{{4}{4}{(Colors online) Equations of states in asymmetric nuclear matter as a function of the density $n$ and asymmetry parameter $Y$}{figure.4}{}}
\citation{dut12}
\citation{dan02}
\citation{Fuc06}
\citation{akm98}
\citation{li08}
\citation{bal97}
\citation{gan12}
\citation{gan12}
\citation{dan03}
\citation{dan03}
\citation{dan03}
\citation{haensel2007neutron}
\@writefile{lof}{\contentsline {figure}{\numberline {5}{\ignorespaces (Colors online) The pressure as a function of the density in SNM for the different models considered in the article. See text for details.}}{5}{figure.5}}
\newlabel{pressure}{{5}{5}{(Colors online) The pressure as a function of the density in SNM for the different models considered in the article. See text for details}{figure.5}{}}
\@writefile{lof}{\contentsline {figure}{\numberline {6}{\ignorespaces (Colors online) The EoS in PNM for the different models discussed in the text. The shaded area represents the constraints extracted from \citep  {gan12}.}}{5}{figure.6}}
\newlabel{eospnm}{{6}{5}{(Colors online) The EoS in PNM for the different models discussed in the text. The shaded area represents the constraints extracted from \citep {gan12}}{figure.6}{}}
\@writefile{lof}{\contentsline {figure}{\numberline {7}{\ignorespaces (Colors online) The pressure as a function of the density in PNM for the different models considered in the article. The grey areas are derived from the analysis of \citep  {dan03}).}}{5}{figure.7}}
\newlabel{pressurePNM}{{7}{5}{(Colors online) The pressure as a function of the density in PNM for the different models considered in the article. The grey areas are derived from the analysis of \citep {dan03})}{figure.7}{}}
\citation{Gor10B}
\citation{vid84}
\citation{pan72}
\citation{fan01}
\citation{vid02}
\citation{bom06}
\citation{bom06}
\citation{bal97}
\@writefile{lot}{\contentsline {table}{\numberline {2}{\ignorespaces Basic SNM properties calculated with the LYVA1 parametrization given in Tab.\ref  {tab:n3lo}, the BCPM and the BSk19-21 functionals at saturation density $n_0$.}}{6}{table.2}}
\newlabel{tab:n3lo:properties}{{2}{6}{Basic SNM properties calculated with the LYVA1 parametrization given in Tab.\ref {tab:n3lo}, the BCPM and the BSk19-21 functionals at saturation density $n_0$}{table.2}{}}
\@writefile{toc}{\contentsline {section}{\numberline {4}Polarized matter}{6}{section.4}}
\newlabel{Sec:BC}{{4}{6}{Polarized matter}{section.4}{}}
\@writefile{lof}{\contentsline {figure}{\numberline {8}{\ignorespaces (Colors online) The speed of sound in PNM as a function of the density of the system. The notation is as in Fig.\ref  {RESFIT}.}}{6}{figure.8}}
\newlabel{vsound}{{8}{6}{(Colors online) The speed of sound in PNM as a function of the density of the system. The notation is as in Fig.\ref {RESFIT}}{figure.8}{}}
\@writefile{toc}{\contentsline {section}{\numberline {5}Symmetry energies}{6}{section.5}}
\newlabel{Sec:esym}{{5}{6}{Symmetry energies}{section.5}{}}
\citation{tsa09}
\citation{Gor10B}
\citation{han95}
\citation{dan14}
\citation{dan14}
\citation{bal97}
\citation{bom91}
\citation{Gor10B}
\citation{bal97}
\citation{dut12}
\citation{che10}
\citation{yak01}
\citation{bec14}
\citation{bal14}
\citation{bal14}
\@writefile{lof}{\contentsline {figure}{\numberline {9}{\ignorespaces (Colors online) Energy difference between PolPNM and PNM for the different models considered in the text.}}{7}{figure.9}}
\newlabel{diffpol}{{9}{7}{(Colors online) Energy difference between PolPNM and PNM for the different models considered in the text}{figure.9}{}}
\newlabel{eq:sym}{{13}{7}{Symmetry energies}{equation.5.13}{}}
\newlabel{eq:sym:parab}{{14}{7}{Symmetry energies}{equation.5.14}{}}
\@writefile{toc}{\contentsline {section}{\numberline {6}Effective mass}{7}{section.6}}
\newlabel{Sec:effmass}{{6}{7}{Effective mass}{section.6}{}}
\@writefile{lof}{\contentsline {figure}{\numberline {10}{\ignorespaces (Colors online) Symmetry energy as a function of the density of the system for different models (left panel). The dots correspond to the BBG calculations. In the right panel we compare the constraints extracted using IAS ~\citep  {dan14}. See text for details.}}{8}{figure.10}}
\newlabel{asym}{{10}{8}{(Colors online) Symmetry energy as a function of the density of the system for different models (left panel). The dots correspond to the BBG calculations. In the right panel we compare the constraints extracted using IAS ~\citep {dan14}. See text for details}{figure.10}{}}
\@writefile{lof}{\contentsline {figure}{\numberline {11}{\ignorespaces (Colors online) Symmetry energy as a function of the density of the system using different definition of the symmetry energy. The dots represent the BBG results. See text for details.}}{8}{figure.11}}
\newlabel{asymparab}{{11}{8}{(Colors online) Symmetry energy as a function of the density of the system using different definition of the symmetry energy. The dots represent the BBG results. See text for details}{figure.11}{}}
\@writefile{lof}{\contentsline {figure}{\numberline {12}{\ignorespaces (Colors online) Neutron and proton effective mass at saturation density as a function of the asymmetry parameter $Y$. The dots correspond to the BBG calculations \citep  {bal14}, the solid line to LYVA1 interaction.}}{8}{figure.12}}
\newlabel{effmas}{{12}{8}{(Colors online) Neutron and proton effective mass at saturation density as a function of the asymmetry parameter $Y$. The dots correspond to the BBG calculations \citep {bal14}, the solid line to LYVA1 interaction}{figure.12}{}}
\newlabel{effmassup}{{16}{8}{Effective mass}{equation.6.16}{}}
\citation{bom06}
\citation{bom06}
\citation{pasgor14}
\citation{Gor10B}
\citation{han95}
\citation{lat91}
\@writefile{lof}{\contentsline {figure}{\numberline {13}{\ignorespaces (Colors online) In Panel (a), we show the neutron effective mass in SNM (Y=0) for the BBG calculations (dots), LYVA1 (solid) and BSk19-21 (dashed). Panel (b) shows the evolution of the effective mass splitting at $n_0=0.169$ fm$^{-3}$ .}}{9}{figure.13}}
\newlabel{effmasSNM_PNM}{{13}{9}{(Colors online) In Panel (a), we show the neutron effective mass in SNM (Y=0) for the BBG calculations (dots), LYVA1 (solid) and BSk19-21 (dashed). Panel (b) shows the evolution of the effective mass splitting at $n_0=0.169$ fm$^{-3}$ }{figure.13}{}}
\@writefile{lof}{\contentsline {figure}{\numberline {14}{\ignorespaces (Colors online) Spin-up and spin-down neutron effective mass at saturation density as a function of the polarization parameter $\Delta $. The dots correspond to the BBG calculations \citep  {bom06}, the solid line to LYVA1 interaction.}}{9}{figure.14}}
\newlabel{effmasSPIN}{{14}{9}{(Colors online) Spin-up and spin-down neutron effective mass at saturation density as a function of the polarization parameter $\Delta $. The dots correspond to the BBG calculations \citep {bom06}, the solid line to LYVA1 interaction}{figure.14}{}}
\@writefile{lof}{\contentsline {figure}{\numberline {15}{\ignorespaces (Colors online) Same as Fig\ref  {effmas}, but for other models considered in the text. Up (down) triangles stand for spin-up (-down) component. }}{9}{figure.15}}
\newlabel{effmasBSK}{{15}{9}{(Colors online) Same as Fig\ref {effmas}, but for other models considered in the text. Up (down) triangles stand for spin-up (-down) component}{figure.15}{}}
\@writefile{toc}{\contentsline {section}{\numberline {7}Neutron stars}{9}{section.7}}
\newlabel{sec:ns}{{7}{9}{Neutron stars}{section.7}{}}
\newlabel{eq:tov}{{19}{9}{Neutron stars}{equation.7.19}{}}
\citation{cha08}
\citation{dou11}
\citation{dou00}
\citation{dou11}
\citation{heb10}
\citation{dem10}
\citation{ant13}
\citation{Hei00}
\citation{sal94}
\citation{ste03}
\citation{sal94b}
\citation{dem10}
\citation{ant13}
\citation{sul11}
\citation{ste10}
\citation{for14}
\citation{kla06}
\citation{dav15}
\citation{dou11}
\citation{pea12}
\citation{bal13}
\citation{bal14NS}
\citation{sha15}
\citation{gor09}
\citation{cha10}
\citation{Gor10B}
\citation{gor13}
\citation{bon81}
\citation{ant93}
\citation{pan89}
\citation{lej86}
\bibstyle{aa}
\bibdata{biblio}
\@writefile{lof}{\contentsline {figure}{\numberline {16}{\ignorespaces (Colors online) Proton fraction $Y_p$ as a function of the density of the star. The dashed line represents the proton fraction threshold to activate the direct Urca process during the cooling stage of the NS. The open dots represent the BBG calculations.}}{10}{figure.16}}
\newlabel{beta}{{16}{10}{(Colors online) Proton fraction $Y_p$ as a function of the density of the star. The dashed line represents the proton fraction threshold to activate the direct Urca process during the cooling stage of the NS. The open dots represent the BBG calculations}{figure.16}{}}
\@writefile{toc}{\contentsline {section}{\numberline {8}Conclusions}{10}{section.8}}
\newlabel{sec:concl}{{8}{10}{Conclusions}{section.8}{}}
\bibcite{akm98}{{1}{1998}{{Akmal {et~al.}}}{{Akmal, Pandharipande, \& Ravenhall}}}
\bibcite{ant93}{{2}{1993}{{Antia}}{{}}}
\bibcite{ant13}{{3}{2013}{{Antoniadis {et~al.}}}{{Antoniadis, Freire, Wex, Tauris, Lynch, van Kerkwijk, Kramer, Bassa, Dhillon, Driebe, {et~al.}}}}
\bibcite{bal99}{{4}{1999}{{Baldo}}{{}}}
\bibcite{bal14a}{{5}{2014}{{Baldo}}{{}}}
\bibcite{bal97}{{6}{1997}{{Baldo {et~al.}}}{{Baldo, Bombaci, \& Burgio}}}
\bibcite{bal14NS}{{7}{2014{a}}{{Baldo {et~al.}}}{{Baldo, Burgio, Centelles, Sharma, \& Vi{\~n}as}}}
\bibcite{bal14}{{8}{2014{b}}{{Baldo {et~al.}}}{{Baldo, Burgio, Schulze, \& Taranto}}}
\bibcite{bal12}{{9}{2012}{{Baldo {et~al.}}}{{Baldo, Polls, Rios, Schulze, \& Vida\~na}}}
\bibcite{bal13}{{10}{2013}{{Baldo {et~al.}}}{{Baldo, Robledo, Schuck, \& Vi\~nas}}}
\bibcite{bec14}{{11}{2014}{{Becker {et~al.}}}{{Becker, Davesne, Meyer, Pastore, \& Navarro}}}
\bibcite{ben03}{{12}{2003}{{Bender {et~al.}}}{{Bender, Heenen, \& Reinhard}}}
\bibcite{bog05}{{13}{2005}{{Bogner {et~al.}}}{{Bogner, Schwenk, Furnstahl, \& Nogga}}}
\bibcite{bohr1998nuclear}{{14}{1998}{{Bohr \& Mottelson}}{{}}}
\bibcite{bom91}{{15}{1991}{{Bombaci \& Lombardo}}{{}}}
\bibcite{bom06}{{16}{2006}{{Bombaci {et~al.}}}{{Bombaci, Polls, Ramos, Rios, \& Vidana}}}
\bibcite{bon81}{{17}{1981}{{Bonche \& Vautherin}}{{}}}
\bibcite{bur10}{{18}{2010}{{Burgio \& Schulze}}{{}}}
\bibcite{cao06}{{19}{2006}{{Cao {et~al.}}}{{Cao, Lombardo, Shen, \& Giai}}}
\bibcite{car10}{{20}{2010}{{Carlsson \& Dobaczewski}}{{}}}
\bibcite{car08}{{21}{2008}{{Carlsson {et~al.}}}{{Carlsson, Dobaczewski, \& Kortelainen}}}
\bibcite{cha97}{{22}{1997}{{Chabanat {et~al.}}}{{Chabanat, Bonche, Haensel, Meyer, \& Schaeffer}}}
\bibcite{cha10B}{{23}{2010}{{Chamel}}{{}}}
\bibcite{cha11}{{24}{2011}{{Chamel {et~al.}}}{{Chamel, Fantina, Pearson, \& Goriely}}}
\bibcite{cha10}{{25}{2010}{{Chamel \& Goriely}}{{}}}
\bibcite{cha08}{{26}{2008}{{Chamel \& Haensel}}{{}}}
\bibcite{cha13}{{27}{2013}{{Chamel {et~al.}}}{{Chamel, Page, \& Reddy}}}
\bibcite{che10}{{28}{2010}{{Chen {et~al.}}}{{Chen, Ko, Li, \& Xu}}}
\bibcite{dan03}{{29}{2003}{{Danielewicz}}{{}}}
\bibcite{dan02}{{30}{2002}{{Danielewicz {et~al.}}}{{Danielewicz, Lacey, \& Lynch}}}
\bibcite{dan14}{{31}{2014}{{Danielewicz \& Lee}}{{}}}
\bibcite{dav14p}{{32}{2014{a}}{{Davesne {et~al.}}}{{Davesne, Meyer, Pastore, \& Navarro}}}
\bibcite{dav15}{{33}{2015}{{Davesne {et~al.}}}{{Davesne, Navarro, Becker, Jodon, Meyer, \& Pastore}}}
\bibcite{dav13}{{34}{2013}{{Davesne {et~al.}}}{{Davesne, Pastore, \& Navarro}}}
\bibcite{dav14c}{{35}{2014{b}}{{Davesne {et~al.}}}{{Davesne, Pastore, \& Navarro}}}
\bibcite{dem10}{{36}{2010}{{Demorest {et~al.}}}{{Demorest, Pennucci, Ransom, Roberts, \& Hessels}}}
\bibcite{dou11}{{37}{2001}{{Douchin \& Haensel}}{{}}}
\bibcite{dou00}{{38}{2000}{{Douchin {et~al.}}}{{Douchin, Haensel, \& Meyer}}}
\bibcite{dut12}{{39}{2012}{{Dutra {et~al.}}}{{Dutra, Louren\c {c}{}o, S\'a~Martins, Delfino, Stone, \& Stevenson}}}
\bibcite{fan01}{{40}{2001}{{Fantoni {et~al.}}}{{Fantoni, Sarsa, \& Schmidt}}}
\bibcite{for14}{{41}{2014}{{Fortin {et~al.}}}{{Fortin, Zdunik, Haensel, \& Bejger}}}
\bibcite{Fuc06}{{42}{2006}{{Fuchs}}{{}}}
\bibcite{gam11}{{43}{2011}{{Gambacurta {et~al.}}}{{Gambacurta, Li, Col\`o, Lombardo, Van~Giai, \& Zuo}}}
\bibcite{gan12}{{44}{2012}{{Gandolfi {et~al.}}}{{Gandolfi, Carlson, \& Reddy}}}
\bibcite{gor09}{{45}{2009}{{Goriely {et~al.}}}{{Goriely, Chamel, \& Pearson}}}
\bibcite{Gor10B}{{46}{2010}{{Goriely {et~al.}}}{{Goriely, Chamel, \& Pearson}}}
\bibcite{gor13}{{47}{2013}{{Goriely {et~al.}}}{{Goriely, Chamel, \& Pearson}}}
\bibcite{han95}{{48}{1995}{{Haensel}}{{}}}
\bibcite{hae04}{{49}{2004}{{Haensel \& Potekhin}}{{}}}
\bibcite{haensel2007neutron}{{50}{2007}{{Haensel {et~al.}}}{{Haensel, Potekhin, \& Yakovlev}}}
\bibcite{heb11}{{51}{2011}{{Hebeler {et~al.}}}{{Hebeler, Bogner, Furnstahl, Nogga, \& Schwenk}}}
\bibcite{heb10}{{52}{2010}{{Hebeler {et~al.}}}{{Hebeler, Lattimer, Pethick, \& Schwenk}}}
\bibcite{Hei00}{{53}{2000}{{Heiselberg \& Hjorth-Jensen}}{{}}}
\bibcite{iwa82}{{54}{1982}{{Iwamoto \& Pethick}}{{}}}
\bibcite{kla06}{{55}{2006}{{Kl\"ahn {et~al.}}}{{Kl\"ahn, Blaschke, Typel, van Dalen, Faessler, Fuchs, Gaitanos, Grigorian, Ho, Kolomeitsev, Miller, R\"opke, Tr\"umper, Voskresensky, Weber, \& Wolter}}}
\bibcite{lat91}{{56}{1991}{{Lattimer {et~al.}}}{{Lattimer, Pethick, Prakash, \& Haensel}}}
\bibcite{lej86}{{57}{1986}{{Lejeune {et~al.}}}{{Lejeune, Grang{\'e}, Martzolff, \& Cugnon}}}
\bibcite{les07}{{58}{2007}{{Lesinski {et~al.}}}{{Lesinski, Bender, Bennaceur, Duguet, \& Meyer}}}
\bibcite{les06}{{59}{2006}{{Lesinski {et~al.}}}{{Lesinski, Bennaceur, Duguet, \& Meyer}}}
\bibcite{li08}{{60}{2008}{{Li \& Schulze}}{{}}}
\bibcite{mar02}{{61}{2002}{{Margueron {et~al.}}}{{Margueron, Navarro, \& Nguyen}}}
\bibcite{pan72}{{62}{1972}{{Pandharipande {et~al.}}}{{Pandharipande, Garde, \& Srivastava}}}
\bibcite{pan89}{{63}{1989}{{Pandharipande \& Ravenhall}}{{}}}
\bibcite{PRep}{{64}{2015}{{Pastore {et~al.}}}{{Pastore, Davesne, \& Navarro}}}
\bibcite{pasgor14}{{65}{2014}{{Pastore {et~al.}}}{{Pastore, Martini, Davesne, Navarro, Goriely, \& Chamel}}}
\bibcite{pea12}{{66}{2012}{{Pearson {et~al.}}}{{Pearson, Chamel, Goriely, \& Ducoin}}}
\bibcite{rai11}{{67}{2011}{{Raimondi {et~al.}}}{{Raimondi, Carlsson, \& Dobaczewski}}}
\bibcite{rot08}{{68}{2008}{{Rotival}}{{}}}
\bibcite{sal94}{{69}{1994{a}}{{Salgado {et~al.}}}{{Salgado, Bonazzola, Gourgoulhon, \& Haensel}}}
\bibcite{sal94b}{{70}{1994{b}}{{Salgado {et~al.}}}{{Salgado, Bonazzola, Gourgoulhon, \& Haensel}}}
\bibcite{sha15}{{71}{2015}{{Sharma {et~al.}}}{{Sharma, Centelles, Vinas, Baldo, \& Burgio}}}
\bibcite{Sin13}{{72}{2013}{{Singh {et~al.}}}{{Singh, Biswal, Bhuyan, Jha, \& Patra}}}
\bibcite{sky59}{{73}{1959}{{Skyrme}}{{}}}
\bibcite{ste10}{{74}{2010}{{Steiner {et~al.}}}{{Steiner, Lattimer, \& Brown}}}
\bibcite{ste03}{{75}{2003}{{Stergioulas}}{{}}}
\bibcite{sul11}{{76}{2011}{{Suleimanov {et~al.}}}{{Suleimanov, Poutanen, \& Werner}}}
\bibcite{tsa09}{{77}{2009}{{Tsang {et~al.}}}{{Tsang, Zhang, Danielewicz, Famiano, Li, Lynch, \& Steiner}}}
\bibcite{typ13}{{78}{2013}{{Typel {et~al.}}}{{Typel, Oertel, \& Klaehn}}}
\bibcite{vau72}{{79}{1972}{{Vautherin \& Brink}}{{}}}
\bibcite{vid02}{{80}{2002}{{Vidana {et~al.}}}{{Vidana, Polls, \& Ramos}}}
\bibcite{vid84}{{81}{1984}{{Vidaurre {et~al.}}}{{Vidaurre, Navarro, \& Bernabeu}}}
\bibcite{yak01}{{82}{2001}{{Yakovlev {et~al.}}}{{Yakovlev, Kaminker, Gnedin, Oleg, \& Haensel}}}
\bibcite{zho04}{{83}{2004}{{Zhou {et~al.}}}{{Zhou, Burgio, Lombardo, Schulze, \& Zuo}}}
\@writefile{lof}{\contentsline {figure}{\numberline {17}{\ignorespaces (Colors online) In panel (a), we show the mass-radius relation for NS obtained with our EoS by solving TOV equations. The two horizontal bars refers to the two recent of NS masses measurements $M/M_{Sun}=1.97\pm 0.04$ given in ~\citep  {dem10} and $M/M_{Sun}=2.01\pm 0.04$ given in ~\citep  {ant13}. In panel (b), the mass-density relation. }}{11}{figure.17}}
\newlabel{ns:tov}{{17}{11}{(Colors online) In panel (a), we show the mass-radius relation for NS obtained with our EoS by solving TOV equations. The two horizontal bars refers to the two recent of NS masses measurements $M/M_{Sun}=1.97\pm 0.04$ given in ~\citep {dem10} and $M/M_{Sun}=2.01\pm 0.04$ given in ~\citep {ant13}. In panel (b), the mass-density relation}{figure.17}{}}
\newlabel{LastPage}{{11}{11}{}{}{}}
