%!PS-Adobe-3.0 EPSF-3.0
%%BoundingBox: (atend)
%%LanguageLevel: 2
%%Creator: Grace-5.1.21
%%CreationDate: Fri Jul 17 11:03:03 2015
%%DocumentData: Clean8Bit
%%Orientation: Portrait
%%Title: /cea/dsku/u-pelote/hal1/home/pn/pastorea/Fisica/N3LO/Vers7/plots/EsurApnmCOMPARE.agr
%%For: pastorea
%%DocumentNeededResources: (atend)
%%EndComments
%%BeginProlog
/m {moveto} def
/l {lineto} def
/s {stroke} def
/n {newpath} def
/c {closepath} def
/RL {rlineto} def
/SLW {setlinewidth} def
/GS {gsave} def
/GR {grestore} def
/SC {setcolor} def
/SGRY {setgray} def
/SRGB {setrgbcolor} def
/SD {setdash} def
/SLC {setlinecap} def
/SLJ {setlinejoin} def
/SCS {setcolorspace} def
/FFSF {findfont setfont} def
/CC {concat} def
/PXL {n m 0 0 RL s} def
/Color0 {1.0000 1.0000 1.0000} def
/Color1 {0.0000 0.0000 0.0000} def
/Color2 {1.0000 0.0000 0.0000} def
/Color3 {0.0000 1.0000 0.0000} def
/Color4 {0.0000 0.0000 1.0000} def
/Color5 {1.0000 1.0000 0.0000} def
/Color6 {0.7373 0.5608 0.5608} def
/Color7 {0.8627 0.8627 0.8627} def
/Color8 {0.5804 0.0000 0.8275} def
/Color9 {0.0000 1.0000 1.0000} def
/Color10 {1.0000 0.0000 1.0000} def
/Color11 {1.0000 0.6471 0.0000} def
/Color12 {0.4471 0.1294 0.7373} def
/Color13 {0.4039 0.0275 0.2824} def
/Color14 {0.2510 0.8784 0.8157} def
/Color15 {0.0000 0.5451 0.0000} def
/Color16 {0.7529 0.7529 0.7529} def
/Color17 {0.5059 0.5059 0.5059} def
/Color18 {0.2588 0.2588 0.2588} def
/PTRN {
 /pat_bits exch def 
 <<
  /PaintType 2
  /PatternType 1 /TilingType 1
  /BBox[0 0 16 16]
  /XStep 16 /YStep 16
  /PaintProc {
   pop
   16 16 true [-1 0 0 -1 16 16] pat_bits imagemask
  }
 >>
 [0.0016 0 0 0.0016 0 0]
 makepattern
} def
/Pattern0 {<0000000000000000000000000000000000000000000000000000000000000000> PTRN} bind def
/Pattern1 {<ffffffffffffffffffffffffffffffffffffffffffffffffffffffffffffffff> PTRN} bind def
/Pattern2 {<eeeeffffbbbbffffeeeeffffbbbbffffeeeeffffbbbbffffeeeeffffbbbbffff> PTRN} bind def
/Pattern3 {<eeeebbbbeeeebbbbeeeebbbbeeeebbbbeeeebbbbeeeebbbbeeeebbbbeeeebbbb> PTRN} bind def
/Pattern4 {<5555aaaa5555aaaa5555aaaa5555aaaa5555aaaa5555aaaa5555aaaa5555aaaa> PTRN} bind def
/Pattern5 {<1111444411114444111144441111444411114444111144441111444411114444> PTRN} bind def
/Pattern6 {<1111000044440000111100004444000011110000444400001111000044440000> PTRN} bind def
/Pattern7 {<1010000000000000010100000000000010100000000000000101000000000000> PTRN} bind def
/Pattern8 {<0000000000000000000000000000000000000000000000000000000000000000> PTRN} bind def
/Pattern9 {<1e1e0f0f8787c3c3e1e1f0f078783c3c1e1e0f0f8787c3c3e1e1f0f078783c3c> PTRN} bind def
/Pattern10 {<7878f0f0e1e1c3c387870f0f1e1e3c3c7878f0f0e1e1c3c387870f0f1e1e3c3c> PTRN} bind def
/Pattern11 {<3333333333333333333333333333333333333333333333333333333333333333> PTRN} bind def
/Pattern12 {<ffffffff00000000ffffffff00000000ffffffff00000000ffffffff00000000> PTRN} bind def
/Pattern13 {<8181424224241818181824244242818181814242242418181818242442428181> PTRN} bind def
/Pattern14 {<8080404020201010080804040202010180804040202010100808040402020101> PTRN} bind def
/Pattern15 {<0101020204040808101020204040808001010202040408081010202040408080> PTRN} bind def
/Pattern16 {<2222222222222222222222222222222222222222222222222222222222222222> PTRN} bind def
/Pattern17 {<0000ffff000000000000ffff000000000000ffff000000000000ffff00000000> PTRN} bind def
/Pattern18 {<2222ffff222222222222ffff222222222222ffff222222222222ffff22222222> PTRN} bind def
/Pattern19 {<ffffffff33333333ffffffff33333333ffffffff33333333ffffffff33333333> PTRN} bind def
/Pattern20 {<0f0f0f0f0f0f0f0ff0f0f0f0f0f0f0f00f0f0f0f0f0f0f0ff0f0f0f0f0f0f0f0> PTRN} bind def
/Pattern21 {<ff00ff00ff00ff00ff00ff00ff00ff0000ff00ff00ff00ff00ff00ff00ff00ff> PTRN} bind def
/Pattern22 {<8001800180018001800180018001ffffffff8001800180018001800180018001> PTRN} bind def
/Pattern23 {<c003c003c003c003c003c003ffffffffffffffffc003c003c003c003c003c003> PTRN} bind def
/Pattern24 {<040404040404ffff404040404040ffff040404040404ffff404040404040ffff> PTRN} bind def
/Pattern25 {<180018001800180018001800ffffffff001800180018001800180018ffffffff> PTRN} bind def
/Pattern26 {<1111b8b87c7c3a3a1111a3a3c7c78b8b1111b8b87c7c3a3a1111a3a3c7c78b8b> PTRN} bind def
/Pattern27 {<101010102828c7c70101010182827c7c101010102828c7c70101010182827c7c> PTRN} bind def
/Pattern28 {<1c1c121211112121c1c12121111112121c1c121211112121c1c1212111111212> PTRN} bind def
/Pattern29 {<3e3e414180808080e3e31414080808083e3e414180808080e3e3141408080808> PTRN} bind def
/Pattern30 {<4848888884848383848488884848383848488888848483838484888848483838> PTRN} bind def
/Pattern31 {<03030404080808080c0c12122121c0c003030404080808080c0c12122121c0c0> PTRN} bind def
/ellipsedict 8 dict def
ellipsedict /mtrx matrix put
/EARC {
 ellipsedict begin
  /endangle exch def
  /startangle exch def
  /yrad exch def
  /xrad exch def
  /y exch def
  /x exch def
  /savematrix mtrx currentmatrix def
  x y translate
  xrad yrad scale
  0 0 1 startangle endangle arc
  savematrix setmatrix
 end
} def
/TL {
  /kcomp exch def
  /linewidth exch def
  /offset exch def
  GS
  0 offset rmoveto
  linewidth SLW
  dup stringwidth exch kcomp add exch RL s
  GR
} def
/KINIT
{
 /kvector exch def
 /kid 0 def
} def
/KPROC
{
 pop pop
 kvector kid get
 0 rmoveto
 /kid 1 kid add def
} def
/DefEncoding [
 /.notdef
 /.notdef
 /.notdef
 /.notdef
 /.notdef
 /.notdef
 /.notdef
 /.notdef
 /.notdef
 /.notdef
 /.notdef
 /.notdef
 /.notdef
 /.notdef
 /.notdef
 /.notdef
 /.notdef
 /.notdef
 /.notdef
 /.notdef
 /.notdef
 /.notdef
 /.notdef
 /.notdef
 /.notdef
 /.notdef
 /.notdef
 /.notdef
 /.notdef
 /.notdef
 /.notdef
 /.notdef
 /space
 /exclam
 /quotedbl
 /numbersign
 /dollar
 /percent
 /ampersand
 /quoteright
 /parenleft
 /parenright
 /asterisk
 /plus
 /comma
 /hyphen
 /period
 /slash
 /zero
 /one
 /two
 /three
 /four
 /five
 /six
 /seven
 /eight
 /nine
 /colon
 /semicolon
 /less
 /equal
 /greater
 /question
 /at
 /A
 /B
 /C
 /D
 /E
 /F
 /G
 /H
 /I
 /J
 /K
 /L
 /M
 /N
 /O
 /P
 /Q
 /R
 /S
 /T
 /U
 /V
 /W
 /X
 /Y
 /Z
 /bracketleft
 /backslash
 /bracketright
 /asciicircum
 /underscore
 /grave
 /a
 /b
 /c
 /d
 /e
 /f
 /g
 /h
 /i
 /j
 /k
 /l
 /m
 /n
 /o
 /p
 /q
 /r
 /s
 /t
 /u
 /v
 /w
 /x
 /y
 /z
 /braceleft
 /bar
 /braceright
 /asciitilde
 /.notdef
 /.notdef
 /.notdef
 /.notdef
 /.notdef
 /.notdef
 /.notdef
 /.notdef
 /.notdef
 /.notdef
 /.notdef
 /.notdef
 /.notdef
 /.notdef
 /.notdef
 /.notdef
 /.notdef
 /.notdef
 /.notdef
 /.notdef
 /.notdef
 /.notdef
 /.notdef
 /.notdef
 /.notdef
 /.notdef
 /.notdef
 /.notdef
 /.notdef
 /.notdef
 /.notdef
 /.notdef
 /.notdef
 /space
 /exclamdown
 /cent
 /sterling
 /currency
 /yen
 /brokenbar
 /section
 /dieresis
 /copyright
 /ordfeminine
 /guillemotleft
 /logicalnot
 /hyphen
 /registered
 /macron
 /degree
 /plusminus
 /twosuperior
 /threesuperior
 /acute
 /mu
 /paragraph
 /periodcentered
 /cedilla
 /onesuperior
 /ordmasculine
 /guillemotright
 /onequarter
 /onehalf
 /threequarters
 /questiondown
 /Agrave
 /Aacute
 /Acircumflex
 /Atilde
 /Adieresis
 /Aring
 /AE
 /Ccedilla
 /Egrave
 /Eacute
 /Ecircumflex
 /Edieresis
 /Igrave
 /Iacute
 /Icircumflex
 /Idieresis
 /Eth
 /Ntilde
 /Ograve
 /Oacute
 /Ocircumflex
 /Otilde
 /Odieresis
 /multiply
 /Oslash
 /Ugrave
 /Uacute
 /Ucircumflex
 /Udieresis
 /Yacute
 /Thorn
 /germandbls
 /agrave
 /aacute
 /acircumflex
 /atilde
 /adieresis
 /aring
 /ae
 /ccedilla
 /egrave
 /eacute
 /ecircumflex
 /edieresis
 /igrave
 /iacute
 /icircumflex
 /idieresis
 /eth
 /ntilde
 /ograve
 /oacute
 /ocircumflex
 /otilde
 /odieresis
 /divide
 /oslash
 /ugrave
 /uacute
 /ucircumflex
 /udieresis
 /yacute
 /thorn
 /ydieresis
] def
%%EndProlog
%%BeginSetup
%%EndSetup
612.00 612.00 scale
[/DeviceRGB] SCS
Color1 SC
[] 0 SD
0.0037 SLW
0 SLC
0 SLJ
n
0.1510 0.1520 m
0.1520 0.1529 l
0.1530 0.1536 l
0.1540 0.1541 l
0.1550 0.1546 l
0.1560 0.1551 l
0.1570 0.1555 l
0.1580 0.1558 l
0.1590 0.1562 l
0.1600 0.1565 l
0.1610 0.1568 l
0.1620 0.1570 l
0.1630 0.1573 l
0.1640 0.1576 l
0.1650 0.1578 l
0.1660 0.1580 l
0.1670 0.1583 l
0.1680 0.1585 l
0.1690 0.1587 l
0.1700 0.1589 l
0.1710 0.1591 l
0.1720 0.1593 l
0.1730 0.1595 l
0.1740 0.1597 l
0.1750 0.1599 l
0.1760 0.1601 l
0.1770 0.1602 l
0.1780 0.1604 l
0.1790 0.1606 l
0.1800 0.1608 l
0.1810 0.1610 l
0.1820 0.1611 l
0.1830 0.1613 l
0.1840 0.1615 l
0.1850 0.1617 l
0.1860 0.1618 l
0.1870 0.1620 l
0.1880 0.1622 l
0.1890 0.1623 l
0.1900 0.1625 l
0.1910 0.1627 l
0.1920 0.1628 l
0.1930 0.1630 l
0.1940 0.1632 l
0.1950 0.1634 l
0.1960 0.1635 l
0.1970 0.1637 l
0.1980 0.1639 l
0.1990 0.1640 l
0.2000 0.1642 l
0.2010 0.1644 l
0.2020 0.1645 l
0.2030 0.1647 l
0.2040 0.1649 l
0.2050 0.1651 l
0.2060 0.1652 l
0.2070 0.1654 l
0.2080 0.1656 l
0.2090 0.1658 l
0.2100 0.1659 l
0.2110 0.1661 l
0.2120 0.1663 l
0.2130 0.1665 l
0.2140 0.1666 l
0.2150 0.1668 l
0.2160 0.1670 l
0.2170 0.1672 l
0.2180 0.1674 l
0.2190 0.1675 l
0.2200 0.1677 l
0.2210 0.1679 l
0.2220 0.1681 l
0.2230 0.1683 l
0.2240 0.1685 l
0.2250 0.1687 l
0.2260 0.1689 l
0.2270 0.1690 l
0.2280 0.1692 l
0.2290 0.1694 l
0.2300 0.1696 l
0.2310 0.1698 l
0.2320 0.1700 l
0.2330 0.1702 l
0.2340 0.1704 l
0.2350 0.1706 l
0.2360 0.1708 l
0.2370 0.1710 l
0.2380 0.1712 l
0.2390 0.1714 l
0.2400 0.1716 l
0.2410 0.1718 l
0.2420 0.1720 l
0.2430 0.1723 l
0.2440 0.1725 l
0.2450 0.1727 l
0.2460 0.1729 l
0.2470 0.1731 l
0.2480 0.1733 l
0.2490 0.1735 l
0.2500 0.1737 l
0.2510 0.1740 l
0.2520 0.1742 l
0.2530 0.1744 l
0.2540 0.1746 l
0.2550 0.1749 l
0.2560 0.1751 l
0.2570 0.1753 l
0.2580 0.1755 l
0.2590 0.1758 l
0.2600 0.1760 l
0.2610 0.1762 l
0.2620 0.1765 l
0.2630 0.1767 l
0.2640 0.1769 l
0.2650 0.1772 l
0.2660 0.1774 l
0.2670 0.1776 l
0.2680 0.1779 l
0.2690 0.1781 l
0.2700 0.1784 l
0.2710 0.1786 l
0.2720 0.1789 l
0.2730 0.1791 l
0.2740 0.1794 l
0.2750 0.1796 l
0.2760 0.1799 l
0.2770 0.1801 l
0.2780 0.1804 l
0.2790 0.1806 l
0.2800 0.1809 l
0.2810 0.1811 l
0.2820 0.1814 l
0.2830 0.1817 l
0.2840 0.1819 l
0.2850 0.1822 l
0.2860 0.1824 l
0.2870 0.1827 l
0.2880 0.1830 l
0.2890 0.1832 l
0.2900 0.1835 l
0.2910 0.1838 l
0.2920 0.1841 l
0.2930 0.1843 l
0.2940 0.1846 l
0.2950 0.1849 l
0.2960 0.1852 l
0.2970 0.1854 l
0.2980 0.1857 l
0.2990 0.1860 l
0.3000 0.1863 l
0.3010 0.1866 l
0.3020 0.1869 l
0.3030 0.1872 l
0.3040 0.1874 l
0.3050 0.1877 l
0.3060 0.1880 l
0.3070 0.1883 l
0.3080 0.1886 l
0.3090 0.1889 l
0.3100 0.1892 l
0.3110 0.1895 l
0.3120 0.1898 l
0.3130 0.1901 l
0.3140 0.1904 l
0.3150 0.1907 l
0.3160 0.1910 l
0.3170 0.1913 l
0.3180 0.1916 l
0.3190 0.1919 l
0.3200 0.1922 l
0.3210 0.1926 l
0.3220 0.1929 l
0.3230 0.1932 l
0.3240 0.1935 l
0.3250 0.1938 l
0.3260 0.1941 l
0.3270 0.1944 l
0.3280 0.1948 l
0.3290 0.1951 l
0.3300 0.1954 l
0.3310 0.1957 l
0.3320 0.1961 l
0.3330 0.1964 l
0.3340 0.1967 l
0.3350 0.1971 l
0.3360 0.1974 l
0.3370 0.1977 l
0.3380 0.1981 l
0.3390 0.1984 l
0.3400 0.1987 l
0.3410 0.1991 l
0.3420 0.1994 l
0.3430 0.1997 l
0.3440 0.2001 l
0.3450 0.2004 l
0.3460 0.2008 l
0.3470 0.2011 l
0.3480 0.2015 l
0.3490 0.2018 l
0.3500 0.2022 l
0.3510 0.2025 l
0.3520 0.2029 l
0.3530 0.2032 l
0.3540 0.2036 l
0.3550 0.2039 l
0.3560 0.2043 l
0.3570 0.2046 l
0.3580 0.2050 l
0.3590 0.2054 l
0.3600 0.2057 l
0.3610 0.2061 l
0.3620 0.2065 l
0.3630 0.2068 l
0.3640 0.2072 l
0.3650 0.2076 l
0.3660 0.2079 l
0.3670 0.2083 l
0.3680 0.2087 l
0.3690 0.2091 l
0.3700 0.2094 l
0.3710 0.2098 l
0.3720 0.2102 l
0.3730 0.2106 l
0.3740 0.2109 l
0.3750 0.2113 l
0.3760 0.2117 l
0.3770 0.2121 l
0.3780 0.2125 l
0.3790 0.2129 l
0.3800 0.2133 l
0.3810 0.2137 l
0.3820 0.2140 l
0.3830 0.2144 l
0.3840 0.2148 l
0.3850 0.2152 l
0.3860 0.2156 l
0.3870 0.2160 l
0.3880 0.2164 l
0.3890 0.2168 l
0.3900 0.2172 l
0.3910 0.2176 l
0.3920 0.2180 l
0.3930 0.2184 l
0.3940 0.2188 l
0.3950 0.2192 l
0.3960 0.2197 l
0.3970 0.2201 l
0.3980 0.2205 l
0.3990 0.2209 l
0.4000 0.2213 l
0.4010 0.2217 l
0.4020 0.2221 l
0.4030 0.2226 l
0.4040 0.2230 l
0.4050 0.2234 l
0.4060 0.2238 l
0.4070 0.2242 l
0.4080 0.2247 l
0.4090 0.2251 l
0.4100 0.2255 l
0.4110 0.2259 l
0.4120 0.2264 l
0.4130 0.2268 l
0.4140 0.2272 l
0.4150 0.2277 l
0.4160 0.2281 l
0.4170 0.2285 l
0.4180 0.2290 l
0.4190 0.2294 l
0.4200 0.2299 l
0.4210 0.2303 l
0.4220 0.2307 l
0.4230 0.2312 l
0.4240 0.2316 l
0.4250 0.2321 l
0.4260 0.2325 l
0.4270 0.2330 l
0.4280 0.2334 l
0.4290 0.2339 l
0.4300 0.2343 l
0.4310 0.2348 l
0.4320 0.2352 l
0.4330 0.2357 l
0.4340 0.2361 l
0.4350 0.2366 l
0.4360 0.2370 l
0.4370 0.2375 l
0.4380 0.2380 l
0.4390 0.2384 l
0.4400 0.2389 l
0.4410 0.2394 l
0.4420 0.2398 l
0.4430 0.2403 l
0.4440 0.2408 l
0.4450 0.2412 l
0.4460 0.2417 l
0.4470 0.2422 l
0.4480 0.2426 l
0.4490 0.2431 l
0.4500 0.2436 l
0.4510 0.2441 l
0.4520 0.2445 l
0.4530 0.2450 l
0.4540 0.2455 l
0.4550 0.2460 l
0.4560 0.2465 l
0.4570 0.2469 l
0.4580 0.2474 l
0.4590 0.2479 l
0.4600 0.2484 l
0.4610 0.2489 l
0.4620 0.2494 l
0.4630 0.2499 l
0.4640 0.2504 l
0.4650 0.2509 l
0.4660 0.2514 l
0.4670 0.2518 l
0.4680 0.2523 l
0.4690 0.2528 l
0.4700 0.2533 l
0.4710 0.2538 l
0.4720 0.2543 l
0.4730 0.2548 l
0.4740 0.2553 l
0.4750 0.2559 l
0.4760 0.2564 l
0.4770 0.2569 l
0.4780 0.2574 l
0.4790 0.2579 l
0.4800 0.2584 l
0.4810 0.2589 l
0.4820 0.2594 l
0.4830 0.2599 l
0.4840 0.2604 l
0.4850 0.2610 l
0.4860 0.2615 l
0.4870 0.2620 l
0.4880 0.2625 l
0.4890 0.2630 l
0.4900 0.2636 l
0.4910 0.2641 l
0.4920 0.2646 l
0.4930 0.2651 l
0.4940 0.2657 l
0.4950 0.2662 l
0.4960 0.2667 l
0.4970 0.2672 l
0.4980 0.2678 l
0.4990 0.2683 l
0.5000 0.2688 l
0.5010 0.2694 l
0.5020 0.2699 l
0.5030 0.2704 l
0.5040 0.2710 l
0.5050 0.2715 l
0.5060 0.2721 l
0.5070 0.2726 l
0.5080 0.2731 l
0.5090 0.2737 l
0.5100 0.2742 l
0.5110 0.2748 l
0.5120 0.2753 l
0.5130 0.2759 l
0.5140 0.2764 l
0.5150 0.2770 l
0.5160 0.2775 l
0.5170 0.2781 l
0.5180 0.2786 l
0.5190 0.2792 l
0.5200 0.2797 l
0.5210 0.2803 l
0.5220 0.2808 l
0.5230 0.2814 l
0.5240 0.2820 l
0.5250 0.2825 l
0.5260 0.2831 l
0.5270 0.2836 l
0.5280 0.2842 l
0.5290 0.2848 l
0.5300 0.2853 l
0.5310 0.2859 l
0.5320 0.2865 l
0.5330 0.2870 l
0.5340 0.2876 l
0.5350 0.2882 l
0.5360 0.2888 l
0.5370 0.2893 l
0.5380 0.2899 l
0.5390 0.2905 l
0.5400 0.2911 l
0.5410 0.2916 l
0.5420 0.2922 l
0.5430 0.2928 l
0.5440 0.2934 l
0.5450 0.2940 l
0.5460 0.2945 l
0.5470 0.2951 l
0.5480 0.2957 l
0.5490 0.2963 l
0.5500 0.2969 l
0.5510 0.2975 l
0.5520 0.2981 l
0.5530 0.2986 l
0.5540 0.2992 l
0.5550 0.2998 l
0.5560 0.3004 l
0.5570 0.3010 l
0.5580 0.3016 l
0.5590 0.3022 l
0.5600 0.3028 l
0.5610 0.3034 l
0.5620 0.3040 l
0.5630 0.3046 l
0.5640 0.3052 l
0.5650 0.3058 l
0.5660 0.3064 l
0.5670 0.3070 l
0.5680 0.3076 l
0.5690 0.3082 l
0.5700 0.3088 l
0.5710 0.3094 l
0.5720 0.3101 l
0.5730 0.3107 l
0.5740 0.3113 l
0.5750 0.3119 l
0.5760 0.3125 l
0.5770 0.3131 l
0.5780 0.3137 l
0.5790 0.3143 l
0.5800 0.3150 l
0.5810 0.3156 l
0.5820 0.3162 l
0.5830 0.3168 l
0.5840 0.3174 l
0.5850 0.3181 l
0.5860 0.3187 l
0.5870 0.3193 l
0.5880 0.3199 l
0.5890 0.3206 l
0.5900 0.3212 l
0.5910 0.3218 l
0.5920 0.3225 l
0.5930 0.3231 l
0.5940 0.3237 l
0.5950 0.3243 l
0.5960 0.3250 l
0.5970 0.3256 l
0.5980 0.3262 l
0.5990 0.3269 l
0.6000 0.3275 l
0.6010 0.3282 l
0.6020 0.3288 l
0.6030 0.3294 l
0.6040 0.3301 l
0.6050 0.3307 l
0.6060 0.3314 l
0.6070 0.3320 l
0.6080 0.3327 l
0.6090 0.3333 l
0.6100 0.3339 l
0.6110 0.3346 l
0.6120 0.3352 l
0.6130 0.3359 l
0.6140 0.3365 l
0.6150 0.3372 l
0.6160 0.3379 l
0.6170 0.3385 l
0.6180 0.3392 l
0.6190 0.3398 l
0.6200 0.3405 l
0.6210 0.3411 l
0.6220 0.3418 l
0.6230 0.3424 l
0.6240 0.3431 l
0.6250 0.3438 l
0.6260 0.3444 l
0.6270 0.3451 l
0.6280 0.3458 l
0.6290 0.3464 l
0.6300 0.3471 l
0.6310 0.3478 l
0.6320 0.3484 l
0.6330 0.3491 l
0.6340 0.3498 l
0.6350 0.3504 l
0.6360 0.3511 l
0.6370 0.3518 l
0.6380 0.3524 l
0.6390 0.3531 l
0.6400 0.3538 l
0.6410 0.3545 l
0.6420 0.3551 l
0.6430 0.3558 l
0.6440 0.3565 l
0.6450 0.3572 l
0.6460 0.3579 l
0.6470 0.3585 l
0.6480 0.3592 l
0.6490 0.3599 l
0.6500 0.3606 l
0.6510 0.3613 l
0.6520 0.3620 l
0.6530 0.3627 l
0.6540 0.3633 l
0.6550 0.3640 l
0.6560 0.3647 l
0.6570 0.3654 l
0.6580 0.3661 l
0.6590 0.3668 l
0.6600 0.3675 l
0.6610 0.3682 l
0.6620 0.3689 l
0.6630 0.3696 l
0.6640 0.3703 l
0.6650 0.3710 l
0.6660 0.3717 l
0.6670 0.3724 l
0.6680 0.3731 l
0.6690 0.3738 l
0.6700 0.3745 l
0.6710 0.3752 l
0.6720 0.3759 l
0.6730 0.3766 l
0.6740 0.3773 l
0.6750 0.3780 l
0.6760 0.3787 l
0.6770 0.3794 l
0.6780 0.3801 l
0.6790 0.3808 l
0.6800 0.3815 l
0.6810 0.3822 l
0.6820 0.3830 l
0.6830 0.3837 l
0.6840 0.3844 l
0.6850 0.3851 l
0.6860 0.3858 l
0.6870 0.3865 l
0.6880 0.3872 l
0.6890 0.3880 l
0.6900 0.3887 l
0.6910 0.3894 l
0.6920 0.3901 l
0.6930 0.3908 l
0.6940 0.3916 l
0.6950 0.3923 l
0.6960 0.3930 l
0.6970 0.3937 l
0.6980 0.3945 l
0.6990 0.3952 l
0.7000 0.3959 l
0.7010 0.3966 l
0.7020 0.3974 l
0.7030 0.3981 l
0.7040 0.3988 l
0.7050 0.3996 l
0.7060 0.4003 l
0.7070 0.4010 l
0.7080 0.4018 l
0.7090 0.4025 l
0.7100 0.4032 l
0.7110 0.4040 l
0.7120 0.4047 l
0.7130 0.4054 l
0.7140 0.4062 l
0.7150 0.4069 l
0.7160 0.4077 l
0.7170 0.4084 l
0.7180 0.4091 l
0.7190 0.4099 l
0.7200 0.4106 l
0.7210 0.4114 l
0.7220 0.4121 l
0.7230 0.4129 l
0.7240 0.4136 l
0.7250 0.4144 l
0.7260 0.4151 l
0.7270 0.4159 l
0.7280 0.4166 l
0.7290 0.4174 l
0.7300 0.4181 l
0.7310 0.4189 l
0.7320 0.4196 l
0.7330 0.4204 l
0.7340 0.4211 l
0.7350 0.4219 l
0.7360 0.4226 l
0.7370 0.4234 l
0.7380 0.4241 l
0.7390 0.4249 l
0.7400 0.4257 l
0.7410 0.4264 l
0.7420 0.4272 l
0.7430 0.4279 l
0.7440 0.4287 l
0.7450 0.4295 l
0.7460 0.4302 l
0.7470 0.4310 l
0.7480 0.4318 l
0.7490 0.4325 l
0.7500 0.4333 l
0.7510 0.4341 l
0.7520 0.4348 l
0.7530 0.4356 l
0.7540 0.4364 l
0.7550 0.4371 l
0.7560 0.4379 l
0.7570 0.4387 l
0.7580 0.4395 l
0.7590 0.4402 l
0.7600 0.4410 l
0.7610 0.4418 l
0.7620 0.4425 l
0.7630 0.4433 l
0.7640 0.4441 l
0.7650 0.4449 l
0.7660 0.4457 l
0.7670 0.4464 l
0.7680 0.4472 l
0.7690 0.4480 l
0.7700 0.4488 l
0.7710 0.4496 l
0.7720 0.4503 l
0.7730 0.4511 l
0.7740 0.4519 l
0.7750 0.4527 l
0.7760 0.4535 l
0.7770 0.4543 l
0.7780 0.4551 l
0.7790 0.4558 l
0.7800 0.4566 l
0.7810 0.4574 l
0.7820 0.4582 l
0.7830 0.4590 l
0.7840 0.4598 l
0.7850 0.4606 l
0.7860 0.4614 l
0.7870 0.4622 l
0.7880 0.4630 l
0.7890 0.4638 l
0.7900 0.4646 l
0.7910 0.4654 l
0.7920 0.4661 l
0.7930 0.4669 l
0.7940 0.4677 l
0.7950 0.4685 l
0.7960 0.4693 l
0.7970 0.4701 l
0.7980 0.4709 l
0.7990 0.4717 l
0.8000 0.4725 l
0.8010 0.4733 l
0.8020 0.4742 l
0.8030 0.4750 l
0.8040 0.4758 l
0.8050 0.4766 l
0.8060 0.4774 l
0.8070 0.4782 l
0.8080 0.4790 l
0.8090 0.4798 l
0.8100 0.4806 l
0.8110 0.4814 l
0.8120 0.4822 l
0.8130 0.4830 l
0.8140 0.4838 l
0.8150 0.4847 l
0.8160 0.4855 l
0.8170 0.4863 l
0.8180 0.4871 l
0.8190 0.4879 l
0.8200 0.4887 l
0.8210 0.4895 l
0.8220 0.4904 l
0.8230 0.4912 l
0.8240 0.4920 l
0.8250 0.4928 l
0.8260 0.4936 l
0.8270 0.4945 l
0.8280 0.4953 l
0.8290 0.4961 l
0.8300 0.4969 l
0.8310 0.4977 l
0.8320 0.4986 l
0.8330 0.4994 l
0.8340 0.5002 l
0.8350 0.5010 l
0.8360 0.5019 l
0.8370 0.5027 l
0.8380 0.5035 l
0.8390 0.5044 l
0.8400 0.5052 l
0.8410 0.5060 l
0.8420 0.5068 l
0.8430 0.5077 l
0.8440 0.5085 l
0.8450 0.5093 l
0.8460 0.5102 l
0.8470 0.5110 l
0.8480 0.5118 l
0.8490 0.5127 l
0.8500 0.5135 l
0.8510 0.5143 l
0.8520 0.5152 l
0.8530 0.5160 l
0.8540 0.5168 l
0.8550 0.5177 l
0.8560 0.5185 l
0.8570 0.5194 l
0.8580 0.5202 l
0.8590 0.5210 l
0.8600 0.5219 l
0.8610 0.5227 l
0.8620 0.5236 l
0.8630 0.5244 l
0.8640 0.5252 l
0.8650 0.5261 l
0.8660 0.5269 l
0.8670 0.5278 l
0.8680 0.5286 l
0.8690 0.5295 l
0.8700 0.5303 l
0.8710 0.5312 l
0.8720 0.5320 l
0.8730 0.5329 l
0.8740 0.5337 l
0.8750 0.5345 l
0.8760 0.5354 l
0.8770 0.5363 l
0.8780 0.5371 l
0.8790 0.5380 l
0.8800 0.5388 l
0.8810 0.5397 l
0.8820 0.5405 l
0.8830 0.5414 l
0.8840 0.5422 l
0.8850 0.5431 l
0.8860 0.5439 l
0.8870 0.5448 l
0.8880 0.5456 l
0.8890 0.5465 l
0.8900 0.5474 l
0.8910 0.5482 l
0.8920 0.5491 l
0.8930 0.5499 l
0.8940 0.5508 l
0.8950 0.5517 l
0.8960 0.5525 l
0.8970 0.5534 l
0.8980 0.5542 l
0.8990 0.5551 l
0.9000 0.5560 l
0.9010 0.5568 l
0.9020 0.5577 l
0.9030 0.5586 l
0.9040 0.5594 l
0.9050 0.5603 l
0.9060 0.5611 l
0.9070 0.5620 l
0.9080 0.5629 l
0.9090 0.5638 l
0.9100 0.5646 l
0.9110 0.5655 l
0.9120 0.5664 l
0.9130 0.5672 l
0.9140 0.5681 l
0.9150 0.5690 l
0.9160 0.5698 l
0.9170 0.5707 l
0.9180 0.5716 l
0.9190 0.5725 l
0.9200 0.5733 l
0.9210 0.5742 l
0.9220 0.5751 l
0.9230 0.5760 l
0.9240 0.5768 l
0.9250 0.5777 l
0.9260 0.5786 l
0.9270 0.5795 l
0.9280 0.5803 l
0.9290 0.5812 l
0.9300 0.5821 l
0.9310 0.5830 l
0.9320 0.5838 l
0.9330 0.5847 l
0.9340 0.5856 l
0.9350 0.5865 l
0.9360 0.5874 l
0.9370 0.5883 l
0.9380 0.5891 l
0.9390 0.5900 l
0.9400 0.5909 l
0.9410 0.5918 l
0.9420 0.5927 l
0.9430 0.5936 l
0.9440 0.5944 l
0.9450 0.5953 l
0.9460 0.5962 l
0.9470 0.5971 l
0.9480 0.5980 l
0.9490 0.5989 l
0.9500 0.5998 l
0.9510 0.6006 l
0.9520 0.6015 l
0.9530 0.6024 l
0.9540 0.6033 l
0.9550 0.6042 l
0.9560 0.6051 l
0.9570 0.6060 l
0.9580 0.6069 l
0.9590 0.6078 l
0.9600 0.6087 l
0.9610 0.6096 l
0.9620 0.6104 l
0.9630 0.6113 l
0.9640 0.6122 l
0.9650 0.6131 l
0.9660 0.6140 l
0.9670 0.6149 l
0.9680 0.6158 l
0.9690 0.6167 l
0.9700 0.6176 l
0.9710 0.6185 l
0.9720 0.6194 l
0.9730 0.6203 l
0.9740 0.6212 l
0.9750 0.6221 l
0.9760 0.6230 l
0.9770 0.6239 l
0.9780 0.6248 l
0.9790 0.6257 l
0.9800 0.6266 l
0.9810 0.6275 l
0.9820 0.6284 l
0.9830 0.6293 l
0.9840 0.6302 l
0.9850 0.6311 l
0.9860 0.6320 l
0.9870 0.6329 l
0.9880 0.6338 l
0.9890 0.6347 l
0.9900 0.6356 l
0.9910 0.6365 l
0.9920 0.6374 l
0.9930 0.6383 l
0.9940 0.6393 l
0.9950 0.6402 l
0.9960 0.6411 l
0.9970 0.6420 l
0.9980 0.6429 l
0.9990 0.6438 l
1.0000 0.6447 l
1.0010 0.6456 l
1.0020 0.6465 l
1.0030 0.6474 l
1.0040 0.6483 l
1.0050 0.6493 l
1.0060 0.6502 l
1.0070 0.6511 l
1.0080 0.6520 l
1.0090 0.6529 l
1.0100 0.6538 l
1.0110 0.6547 l
1.0120 0.6556 l
1.0130 0.6566 l
1.0140 0.6575 l
1.0150 0.6584 l
1.0160 0.6593 l
1.0170 0.6602 l
1.0180 0.6611 l
1.0190 0.6620 l
1.0200 0.6630 l
1.0210 0.6639 l
1.0220 0.6648 l
1.0230 0.6657 l
1.0240 0.6666 l
1.0250 0.6675 l
1.0260 0.6685 l
1.0270 0.6694 l
1.0280 0.6703 l
1.0290 0.6712 l
1.0300 0.6721 l
1.0310 0.6731 l
1.0320 0.6740 l
1.0330 0.6749 l
1.0340 0.6758 l
1.0350 0.6768 l
1.0360 0.6777 l
1.0370 0.6786 l
1.0380 0.6795 l
1.0390 0.6804 l
1.0400 0.6814 l
1.0410 0.6823 l
1.0420 0.6832 l
1.0430 0.6841 l
1.0440 0.6851 l
1.0450 0.6860 l
1.0460 0.6869 l
1.0470 0.6878 l
1.0480 0.6888 l
1.0490 0.6897 l
1.0500 0.6906 l
1.0510 0.6915 l
1.0520 0.6925 l
1.0530 0.6934 l
1.0540 0.6943 l
1.0550 0.6953 l
1.0560 0.6962 l
1.0570 0.6971 l
1.0580 0.6980 l
1.0590 0.6990 l
1.0600 0.6999 l
1.0610 0.7008 l
1.0620 0.7018 l
1.0630 0.7027 l
1.0640 0.7036 l
1.0650 0.7046 l
1.0660 0.7055 l
1.0670 0.7064 l
1.0680 0.7073 l
1.0690 0.7083 l
1.0700 0.7092 l
1.0710 0.7101 l
1.0720 0.7111 l
1.0730 0.7120 l
1.0740 0.7129 l
1.0750 0.7139 l
1.0760 0.7148 l
1.0770 0.7157 l
1.0780 0.7167 l
1.0790 0.7176 l
1.0800 0.7186 l
1.0810 0.7195 l
1.0820 0.7204 l
1.0830 0.7214 l
1.0840 0.7223 l
1.0850 0.7232 l
1.0860 0.7242 l
1.0870 0.7251 l
1.0880 0.7260 l
1.0890 0.7270 l
1.0900 0.7279 l
1.0910 0.7289 l
1.0920 0.7298 l
1.0930 0.7307 l
1.0940 0.7317 l
1.0950 0.7326 l
1.0960 0.7336 l
1.0970 0.7345 l
1.0980 0.7354 l
1.0990 0.7364 l
1.1000 0.7373 l
1.1010 0.7383 l
1.1020 0.7392 l
1.1030 0.7401 l
1.1040 0.7411 l
1.1050 0.7420 l
1.1060 0.7430 l
1.1070 0.7439 l
1.1080 0.7449 l
1.1090 0.7458 l
1.1100 0.7467 l
1.1110 0.7477 l
1.1120 0.7486 l
1.1130 0.7496 l
1.1140 0.7505 l
1.1150 0.7515 l
1.1160 0.7524 l
1.1170 0.7533 l
1.1180 0.7543 l
1.1190 0.7552 l
1.1200 0.7562 l
1.1210 0.7571 l
1.1220 0.7581 l
1.1230 0.7590 l
1.1240 0.7600 l
1.1250 0.7609 l
1.1260 0.7619 l
1.1270 0.7628 l
1.1280 0.7637 l
1.1290 0.7647 l
1.1300 0.7656 l
1.1310 0.7666 l
1.1320 0.7675 l
1.1330 0.7685 l
1.1340 0.7694 l
1.1350 0.7704 l
1.1360 0.7713 l
1.1370 0.7723 l
1.1380 0.7732 l
1.1390 0.7742 l
1.1400 0.7751 l
1.1410 0.7761 l
1.1420 0.7770 l
1.1430 0.7780 l
1.1440 0.7789 l
1.1450 0.7799 l
1.1460 0.7808 l
1.1470 0.7818 l
1.1480 0.7827 l
1.1490 0.7837 l
1.1500 0.7846 l
1.1501 0.7847 l
s
[/DeviceRGB] SCS
Color4 SC
[0.0045 0.0135 ] 0 SD
0.0045 SLW
n
0.1600 0.1579 m
0.1700 0.1608 l
0.1800 0.1629 l
0.1900 0.1646 l
0.2000 0.1663 l
0.2100 0.1679 l
0.2200 0.1696 l
0.2300 0.1713 l
0.2400 0.1731 l
0.2500 0.1750 l
0.2600 0.1770 l
0.2700 0.1791 l
0.2800 0.1814 l
0.2900 0.1837 l
0.3000 0.1862 l
0.3100 0.1888 l
0.3200 0.1915 l
0.3300 0.1943 l
0.3400 0.1972 l
0.3500 0.2003 l
0.3600 0.2035 l
0.3700 0.2067 l
0.3800 0.2101 l
0.3900 0.2137 l
0.4000 0.2173 l
0.4100 0.2211 l
0.4200 0.2250 l
0.4300 0.2290 l
0.4400 0.2332 l
0.4500 0.2374 l
0.4600 0.2419 l
0.4700 0.2464 l
0.4800 0.2512 l
0.4900 0.2560 l
0.5000 0.2610 l
0.5100 0.2662 l
0.5200 0.2715 l
0.5300 0.2769 l
0.5400 0.2825 l
0.5500 0.2883 l
0.5600 0.2942 l
0.5700 0.3003 l
0.5800 0.3066 l
0.5900 0.3130 l
0.6000 0.3195 l
0.6100 0.3262 l
0.6200 0.3331 l
0.6300 0.3401 l
0.6400 0.3473 l
0.6500 0.3546 l
0.6600 0.3621 l
0.6700 0.3696 l
0.6800 0.3773 l
0.6900 0.3852 l
0.7000 0.3931 l
0.7100 0.4011 l
0.7200 0.4092 l
0.7300 0.4174 l
0.7400 0.4256 l
0.7500 0.4339 l
s
[/DeviceRGB] SCS
Color3 SC
[0.0187 0.0112 ] 0 SD
0.0037 SLW
n
0.1633 0.1591 m
0.1766 0.1629 l
0.1899 0.1658 l
0.2032 0.1683 l
0.2165 0.1706 l
0.2298 0.1727 l
0.2431 0.1749 l
0.2564 0.1770 l
0.2697 0.1792 l
0.2830 0.1814 l
0.2963 0.1838 l
0.3096 0.1862 l
0.3229 0.1887 l
0.3362 0.1913 l
0.3495 0.1940 l
0.3628 0.1968 l
0.3761 0.1998 l
0.3894 0.2029 l
0.4028 0.2061 l
0.4161 0.2095 l
0.4294 0.2129 l
0.4427 0.2165 l
0.4560 0.2203 l
0.4693 0.2242 l
0.4826 0.2282 l
0.4959 0.2324 l
0.5092 0.2367 l
0.5225 0.2411 l
0.5358 0.2457 l
0.5491 0.2504 l
0.5624 0.2553 l
0.5757 0.2603 l
0.5890 0.2655 l
0.6023 0.2708 l
0.6156 0.2762 l
0.6289 0.2818 l
0.6422 0.2875 l
0.6555 0.2934 l
0.6688 0.2994 l
0.6821 0.3055 l
0.6954 0.3118 l
0.7087 0.3183 l
0.7220 0.3248 l
0.7353 0.3315 l
0.7486 0.3384 l
0.7619 0.3454 l
0.7752 0.3525 l
0.7885 0.3598 l
0.8018 0.3672 l
0.8151 0.3748 l
0.8284 0.3825 l
0.8417 0.3903 l
0.8550 0.3983 l
0.8683 0.4064 l
0.8816 0.4147 l
0.8950 0.4231 l
0.9083 0.4316 l
0.9216 0.4403 l
0.9349 0.4491 l
0.9482 0.4580 l
0.9615 0.4671 l
0.9748 0.4763 l
0.9881 0.4856 l
1.0014 0.4951 l
1.0147 0.5047 l
1.0280 0.5145 l
1.0413 0.5244 l
1.0546 0.5344 l
1.0679 0.5446 l
1.0812 0.5549 l
1.0945 0.5653 l
1.1078 0.5759 l
1.1211 0.5865 l
1.1344 0.5974 l
1.1477 0.6083 l
1.1501 0.6103 l
s
[/DeviceRGB] SCS
Color2 SC
n
0.1633 0.1595 m
0.1766 0.1633 l
0.1899 0.1660 l
0.2032 0.1682 l
0.2165 0.1702 l
0.2298 0.1722 l
0.2431 0.1741 l
0.2564 0.1762 l
0.2697 0.1783 l
0.2830 0.1806 l
0.2963 0.1831 l
0.3096 0.1857 l
0.3229 0.1885 l
0.3362 0.1916 l
0.3495 0.1948 l
0.3628 0.1983 l
0.3762 0.2021 l
0.3895 0.2061 l
0.4028 0.2103 l
0.4161 0.2148 l
0.4294 0.2195 l
0.4427 0.2245 l
0.4560 0.2297 l
0.4693 0.2353 l
0.4826 0.2410 l
0.4959 0.2471 l
0.5092 0.2534 l
0.5225 0.2600 l
0.5358 0.2669 l
0.5491 0.2741 l
0.5624 0.2815 l
0.5757 0.2892 l
0.5890 0.2973 l
0.6023 0.3055 l
0.6156 0.3141 l
0.6289 0.3230 l
0.6422 0.3321 l
0.6555 0.3415 l
0.6688 0.3512 l
0.6821 0.3612 l
0.6954 0.3715 l
0.7087 0.3820 l
0.7220 0.3929 l
0.7353 0.4040 l
0.7486 0.4155 l
0.7619 0.4272 l
0.7752 0.4392 l
0.7885 0.4515 l
0.8018 0.4641 l
0.8152 0.4770 l
0.8285 0.4901 l
0.8418 0.5036 l
0.8551 0.5173 l
0.8684 0.5313 l
0.8817 0.5457 l
0.8950 0.5603 l
0.9083 0.5752 l
0.9216 0.5904 l
0.9349 0.6059 l
0.9482 0.6216 l
0.9615 0.6377 l
0.9748 0.6541 l
0.9881 0.6707 l
1.0014 0.6876 l
1.0147 0.7049 l
1.0280 0.7224 l
1.0413 0.7402 l
1.0546 0.7583 l
1.0679 0.7767 l
1.0812 0.7953 l
1.0945 0.8143 l
1.1078 0.8336 l
1.1191 0.8501 l
s
[/DeviceRGB] SCS
Color15 SC
n
0.1632 0.1604 m
0.1764 0.1641 l
0.1895 0.1665 l
0.2027 0.1683 l
0.2159 0.1699 l
0.2291 0.1715 l
0.2423 0.1732 l
0.2555 0.1750 l
0.2686 0.1771 l
0.2818 0.1795 l
0.2950 0.1822 l
0.3082 0.1852 l
0.3214 0.1886 l
0.3346 0.1924 l
0.3477 0.1967 l
0.3609 0.2013 l
0.3741 0.2064 l
0.3873 0.2119 l
0.4005 0.2179 l
0.4137 0.2244 l
0.4268 0.2313 l
0.4400 0.2387 l
0.4532 0.2466 l
0.4664 0.2550 l
0.4796 0.2638 l
0.4928 0.2732 l
0.5059 0.2831 l
0.5191 0.2935 l
0.5323 0.3044 l
0.5455 0.3158 l
0.5587 0.3277 l
0.5719 0.3402 l
0.5850 0.3531 l
0.5982 0.3666 l
0.6114 0.3806 l
0.6246 0.3952 l
0.6378 0.4102 l
0.6510 0.4258 l
0.6641 0.4420 l
0.6773 0.4586 l
0.6905 0.4758 l
0.7037 0.4936 l
0.7169 0.5119 l
0.7301 0.5307 l
0.7432 0.5500 l
0.7564 0.5699 l
0.7696 0.5903 l
0.7828 0.6113 l
0.7960 0.6328 l
0.8091 0.6549 l
0.8223 0.6775 l
0.8355 0.7006 l
0.8487 0.7243 l
0.8619 0.7485 l
0.8751 0.7733 l
0.8882 0.7986 l
0.9014 0.8245 l
0.9142 0.8501 l
s
[/DeviceRGB] SCS
Color1 SC
[] 0 SD
0.0045 SLW
n
0.1500 0.1500 m
1.1500 0.1500 l
s
n
0.1500 0.8500 m
1.1500 0.8500 l
s
n
0.2500 0.1500 m
0.2500 0.1600 l
s
n
0.2500 0.8500 m
0.2500 0.8400 l
s
n
0.4500 0.1500 m
0.4500 0.1600 l
s
n
0.4500 0.8500 m
0.4500 0.8400 l
s
n
0.6500 0.1500 m
0.6500 0.1600 l
s
n
0.6500 0.8500 m
0.6500 0.8400 l
s
n
0.8500 0.1500 m
0.8500 0.1600 l
s
n
0.8500 0.8500 m
0.8500 0.8400 l
s
n
1.0500 0.1500 m
1.0500 0.1600 l
s
n
1.0500 0.8500 m
1.0500 0.8400 l
s
n
0.1500 0.1500 m
0.1500 0.1700 l
s
n
0.1500 0.8500 m
0.1500 0.8300 l
s
n
0.3500 0.1500 m
0.3500 0.1700 l
s
n
0.3500 0.8500 m
0.3500 0.8300 l
s
n
0.5500 0.1500 m
0.5500 0.1700 l
s
n
0.5500 0.8500 m
0.5500 0.8300 l
s
n
0.7500 0.1500 m
0.7500 0.1700 l
s
n
0.7500 0.8500 m
0.7500 0.8300 l
s
n
0.9500 0.1500 m
0.9500 0.1700 l
s
n
0.9500 0.8500 m
0.9500 0.8300 l
s
n
1.1500 0.1500 m
1.1500 0.1700 l
s
n
1.1500 0.8500 m
1.1500 0.8300 l
s
/Times-Roman findfont
dup length dict begin
 {1 index /FID ne {def} {pop pop} ifelse} forall
 /Encoding DefEncoding def
 currentdict
end
/Font0 exch definefont pop
/Font0 FFSF
0.1394 0.1094 m
GS
[0.0448 0.0000 0.0000 0.0448 0 0] CC
(0) show
GR
/Font0 FFSF
0.3225 0.1094 m
GS
[0.0448 0.0000 0.0000 0.0448 0 0] CC
(0.2) show
GR
/Font0 FFSF
0.5225 0.1094 m
GS
[0.0448 0.0000 0.0000 0.0448 0 0] CC
(0.4) show
GR
/Font0 FFSF
0.7227 0.1094 m
GS
[0.0448 0.0000 0.0000 0.0448 0 0] CC
(0.6) show
GR
/Font0 FFSF
0.9231 0.1094 m
GS
[0.0448 0.0000 0.0000 0.0448 0 0] CC
(0.8) show
GR
/Font0 FFSF
1.1412 0.1094 m
GS
[0.0448 0.0000 0.0000 0.0448 0 0] CC
(1) show
GR
/Times-Italic findfont
dup length dict begin
 {1 index /FID ne {def} {pop pop} ifelse} forall
 /Encoding DefEncoding def
 currentdict
end
/Font1 exch definefont pop
/Font1 FFSF
0.5735 0.0445 m
GS
[0.0504 0.0000 0.0000 0.0504 0 0] CC
(n) show
GR
/Font0 FFSF
0.5986 0.0445 m
GS
[0.0504 0.0000 0.0000 0.0504 0 0] CC
( [fm) show
GR
/Font0 FFSF
0.6841 0.0747 m
GS
[0.0356 0.0000 0.0000 0.0356 0 0] CC
(-3) show
GR
/Font0 FFSF
0.7139 0.0445 m
GS
[0.0504 0.0000 0.0000 0.0504 0 0] CC
(]) show
GR
n
0.1500 0.1500 m
0.1500 0.8500 l
s
n
1.1500 0.1500 m
1.1500 0.8500 l
s
n
0.1500 0.2083 m
0.1600 0.2083 l
s
n
1.1500 0.2083 m
1.1400 0.2083 l
s
n
0.1500 0.3250 m
0.1600 0.3250 l
s
n
1.1500 0.3250 m
1.1400 0.3250 l
s
n
0.1500 0.4417 m
0.1600 0.4417 l
s
n
1.1500 0.4417 m
1.1400 0.4417 l
s
n
0.1500 0.5583 m
0.1600 0.5583 l
s
n
1.1500 0.5583 m
1.1400 0.5583 l
s
n
0.1500 0.6750 m
0.1600 0.6750 l
s
n
1.1500 0.6750 m
1.1400 0.6750 l
s
n
0.1500 0.7917 m
0.1600 0.7917 l
s
n
1.1500 0.7917 m
1.1400 0.7917 l
s
n
0.1500 0.1500 m
0.1700 0.1500 l
s
n
1.1500 0.1500 m
1.1300 0.1500 l
s
n
0.1500 0.2667 m
0.1700 0.2667 l
s
n
1.1500 0.2667 m
1.1300 0.2667 l
s
n
0.1500 0.3833 m
0.1700 0.3833 l
s
n
1.1500 0.3833 m
1.1300 0.3833 l
s
n
0.1500 0.5000 m
0.1700 0.5000 l
s
n
1.1500 0.5000 m
1.1300 0.5000 l
s
n
0.1500 0.6167 m
0.1700 0.6167 l
s
n
1.1500 0.6167 m
1.1300 0.6167 l
s
n
0.1500 0.7333 m
0.1700 0.7333 l
s
n
1.1500 0.7333 m
1.1300 0.7333 l
s
n
0.1500 0.8500 m
0.1700 0.8500 l
s
n
1.1500 0.8500 m
1.1300 0.8500 l
s
/Font0 FFSF
0.1188 0.1351 m
GS
[0.0448 0.0000 0.0000 0.0448 0 0] CC
(0) show
GR
/Font0 FFSF
0.0965 0.2516 m
GS
[0.0448 0.0000 0.0000 0.0448 0 0] CC
(50) show
GR
/Font0 FFSF
0.0741 0.3684 m
GS
[0.0448 0.0000 0.0000 0.0448 0 0] CC
(100) show
GR
/Font0 FFSF
0.0741 0.4849 m
GS
[0.0448 0.0000 0.0000 0.0448 0 0] CC
(150) show
GR
/Font0 FFSF
0.0741 0.6018 m
GS
[0.0448 0.0000 0.0000 0.0448 0 0] CC
(200) show
GR
/Font0 FFSF
0.0741 0.7182 m
GS
[0.0448 0.0000 0.0000 0.0448 0 0] CC
(250) show
GR
/Font0 FFSF
0.0741 0.8351 m
GS
[0.0448 0.0000 0.0000 0.0448 0 0] CC
(300) show
GR
/Font0 FFSF
0.0563 0.3867 m
GS
[0.0000 0.0504 -0.0504 0.0000 0 0] CC
(E/A [MeV]) show
GR
[] 0 SD
0.0015 SLW
n
0.1500 0.1500 m
0.1500 0.8500 l
1.1500 0.8500 l
1.1500 0.1500 l
0.1500 0.1500 l
c
s
[] 0 SD
0.0037 SLW
n
0.1499 0.5292 m
0.1500 0.5292 l
0.1531 0.5317 l
0.1562 0.5341 l
0.1593 0.5363 l
0.1624 0.5385 l
0.1655 0.5405 l
0.1686 0.5425 l
0.1717 0.5444 l
0.1748 0.5463 l
0.1779 0.5481 l
0.1810 0.5499 l
0.1841 0.5516 l
0.1872 0.5533 l
0.1902 0.5549 l
0.1933 0.5566 l
0.1964 0.5582 l
0.1995 0.5598 l
0.2026 0.5613 l
0.2057 0.5629 l
0.2088 0.5644 l
0.2119 0.5659 l
0.2150 0.5674 l
0.2181 0.5689 l
0.2212 0.5703 l
0.2243 0.5718 l
0.2274 0.5733 l
0.2305 0.5747 l
0.2336 0.5762 l
0.2367 0.5776 l
0.2398 0.5790 l
0.2429 0.5805 l
0.2460 0.5819 l
0.2491 0.5833 l
0.2522 0.5848 l
0.2553 0.5862 l
0.2584 0.5876 l
0.2615 0.5890 l
0.2645 0.5905 l
0.2676 0.5919 l
0.2707 0.5933 l
0.2738 0.5948 l
0.2769 0.5962 l
0.2800 0.5977 l
0.2831 0.5991 l
0.2862 0.6006 l
0.2893 0.6020 l
0.2924 0.6035 l
0.2955 0.6050 l
0.2986 0.6064 l
0.3017 0.6079 l
0.3048 0.6094 l
0.3079 0.6109 l
0.3110 0.6124 l
0.3141 0.6139 l
0.3172 0.6154 l
0.3203 0.6169 l
0.3234 0.6185 l
0.3265 0.6200 l
0.3296 0.6215 l
0.3327 0.6231 l
0.3358 0.6246 l
0.3388 0.6262 l
0.3419 0.6278 l
0.3450 0.6294 l
0.3481 0.6310 l
0.3512 0.6326 l
0.3543 0.6342 l
0.3574 0.6358 l
0.3605 0.6374 l
0.3636 0.6391 l
0.3667 0.6407 l
0.3698 0.6424 l
0.3729 0.6440 l
0.3760 0.6457 l
0.3791 0.6474 l
0.3822 0.6491 l
0.3853 0.6508 l
0.3884 0.6525 l
0.3915 0.6542 l
0.3946 0.6559 l
0.3977 0.6577 l
0.4008 0.6594 l
0.4039 0.6612 l
0.4070 0.6630 l
0.4101 0.6647 l
0.4131 0.6665 l
0.4162 0.6683 l
0.4193 0.6702 l
0.4224 0.6720 l
0.4255 0.6738 l
0.4286 0.6757 l
0.4317 0.6775 l
0.4348 0.6794 l
0.4379 0.6813 l
0.4410 0.6831 l
0.4441 0.6850 l
0.4472 0.6869 l
0.4503 0.6889 l
0.4534 0.6908 l
0.4565 0.6927 l
0.4596 0.6947 l
0.4627 0.6967 l
0.4658 0.6986 l
0.4689 0.7006 l
0.4720 0.7026 l
0.4751 0.7046 l
0.4782 0.7066 l
0.4813 0.7087 l
0.4844 0.7107 l
0.4874 0.7128 l
0.4905 0.7148 l
0.4936 0.7169 l
0.4967 0.7190 l
0.4998 0.7211 l
0.5029 0.7232 l
0.5060 0.7253 l
0.5091 0.7274 l
0.5122 0.7296 l
0.5153 0.7317 l
0.5184 0.7339 l
0.5215 0.7360 l
0.5246 0.7382 l
0.5277 0.7404 l
0.5308 0.7426 l
0.5339 0.7449 l
0.5370 0.7471 l
0.5401 0.7493 l
0.5432 0.7516 l
0.5463 0.7538 l
0.5494 0.7561 l
0.5525 0.7584 l
0.5556 0.7607 l
0.5587 0.7630 l
0.5617 0.7653 l
0.5648 0.7677 l
0.5679 0.7700 l
0.5710 0.7724 l
0.5741 0.7747 l
0.5772 0.7771 l
0.5803 0.7795 l
0.5834 0.7819 l
0.5865 0.7843 l
0.5896 0.7867 l
0.5927 0.7892 l
0.5958 0.7916 l
0.5989 0.7941 l
0.6020 0.7965 l
0.6051 0.7990 l
0.6082 0.8015 l
0.6113 0.8040 l
0.6144 0.8065 l
0.6145 0.8066 l
s
[/DeviceRGB] SCS
Color4 SC
[0.0045 0.0135 ] 0 SD
0.0045 SLW
n
0.1500 0.5410 m
0.1810 0.5658 l
0.2119 0.5835 l
0.2429 0.5985 l
0.2738 0.6124 l
0.3048 0.6261 l
0.3358 0.6401 l
0.3667 0.6547 l
0.3977 0.6701 l
0.4286 0.6862 l
0.4596 0.7033 l
0.4905 0.7213 l
0.5215 0.7402 l
0.5525 0.7602 l
0.5834 0.7811 l
0.6144 0.8030 l
0.6145 0.8031 l
s
[/DeviceRGB] SCS
Color3 SC
[0.0187 0.0112 ] 0 SD
0.0037 SLW
n
0.1602 0.5513 m
0.2014 0.5838 l
0.2426 0.6084 l
0.2838 0.6294 l
0.3250 0.6487 l
0.3661 0.6671 l
0.4073 0.6852 l
0.4485 0.7033 l
0.4897 0.7218 l
0.5309 0.7408 l
0.5721 0.7604 l
0.6132 0.7808 l
0.6145 0.7815 l
s
[/DeviceRGB] SCS
Color2 SC
n
0.1602 0.5550 m
0.2014 0.5869 l
0.2426 0.6097 l
0.2838 0.6287 l
0.3250 0.6458 l
0.3661 0.6623 l
0.4073 0.6790 l
0.4485 0.6962 l
0.4897 0.7144 l
0.5309 0.7338 l
0.5721 0.7546 l
0.6133 0.7769 l
0.6145 0.7776 l
s
[/DeviceRGB] SCS
Color15 SC
n
0.1599 0.5627 m
0.2007 0.5943 l
0.2415 0.6144 l
0.2823 0.6299 l
0.3231 0.6434 l
0.3639 0.6568 l
0.4047 0.6709 l
0.4455 0.6865 l
0.4864 0.7042 l
0.5272 0.7242 l
0.5680 0.7470 l
0.6088 0.7728 l
0.6145 0.7768 l
s
[/DeviceRGB] SCS
Color1 SC
[] 0 SD
0.0045 SLW
n
0.1500 0.4745 m
0.6144 0.4745 l
s
n
0.1500 0.8500 m
0.6144 0.8500 l
s
n
0.1810 0.4745 m
0.1810 0.4845 l
s
n
0.1810 0.8500 m
0.1810 0.8400 l
s
n
0.3048 0.4745 m
0.3048 0.4845 l
s
n
0.3048 0.8500 m
0.3048 0.8400 l
s
n
0.4286 0.4745 m
0.4286 0.4845 l
s
n
0.4286 0.8500 m
0.4286 0.8400 l
s
n
0.5525 0.4745 m
0.5525 0.4845 l
s
n
0.5525 0.8500 m
0.5525 0.8400 l
s
n
0.2429 0.4745 m
0.2429 0.4945 l
s
n
0.2429 0.8500 m
0.2429 0.8300 l
s
n
0.3667 0.4745 m
0.3667 0.4945 l
s
n
0.3667 0.8500 m
0.3667 0.8300 l
s
n
0.4905 0.4745 m
0.4905 0.4945 l
s
n
0.4905 0.8500 m
0.4905 0.8300 l
s
n
0.6144 0.4745 m
0.6144 0.4945 l
s
n
0.6144 0.8500 m
0.6144 0.8300 l
s
/Font0 FFSF
0.2042 0.4339 m
GS
[0.0448 0.0000 0.0000 0.0448 0 0] CC
(0.04) show
GR
/Font0 FFSF
0.3287 0.4339 m
GS
[0.0448 0.0000 0.0000 0.0448 0 0] CC
(0.08) show
GR
/Font0 FFSF
0.4519 0.4339 m
GS
[0.0448 0.0000 0.0000 0.0448 0 0] CC
(0.12) show
GR
/Font0 FFSF
0.5759 0.4339 m
GS
[0.0448 0.0000 0.0000 0.0448 0 0] CC
(0.16) show
GR
/Font1 FFSF
0.3057 0.3690 m
GS
[0.0504 0.0000 0.0000 0.0504 0 0] CC
(n) show
GR
/Font0 FFSF
0.3308 0.3690 m
GS
[0.0504 0.0000 0.0000 0.0504 0 0] CC
( [fm) show
GR
/Font0 FFSF
0.4163 0.3992 m
GS
[0.0356 0.0000 0.0000 0.0356 0 0] CC
(-3) show
GR
/Font0 FFSF
0.4461 0.3690 m
GS
[0.0504 0.0000 0.0000 0.0504 0 0] CC
(]) show
GR
n
0.6144 0.4745 m
0.6144 0.8500 l
s
n
0.6144 0.5140 m
0.6044 0.5140 l
s
n
0.6144 0.5931 m
0.6044 0.5931 l
s
n
0.6144 0.6721 m
0.6044 0.6721 l
s
n
0.6144 0.7512 m
0.6044 0.7512 l
s
n
0.6144 0.8302 m
0.6044 0.8302 l
s
n
0.6144 0.5536 m
0.5944 0.5536 l
s
n
0.6144 0.6326 m
0.5944 0.6326 l
s
n
0.6144 0.7117 m
0.5944 0.7117 l
s
n
0.6144 0.7907 m
0.5944 0.7907 l
s
/Font0 FFSF
0.6244 0.5383 m
GS
[0.0448 0.0000 0.0000 0.0448 0 0] CC
(4) show
GR
/Font0 FFSF
0.6244 0.6177 m
GS
[0.0448 0.0000 0.0000 0.0448 0 0] CC
(8) show
GR
/Font0 FFSF
0.6244 0.6964 m
GS
[0.0448 0.0000 0.0000 0.0448 0 0] CC
(12) show
GR
/Font0 FFSF
0.6244 0.7758 m
GS
[0.0448 0.0000 0.0000 0.0448 0 0] CC
(16) show
GR
[] 0 SD
0.0015 SLW
n
0.1500 0.4745 m
0.1500 0.8500 l
0.6144 0.8500 l
0.6144 0.4745 l
0.1500 0.4745 l
c
s
n
0.3752 0.8497 m
0.3725 0.8458 l
s
/Font0 FFSF
0.2000 0.7700 m
GS
[0.0848 0.0000 0.0000 0.0848 0 0] CC
(b\)) show
GR
%%Trailer
%%BoundingBox: 12 21 711 531
%%DocumentNeededResources: font Times-Roman
%%+ font Times-Italic
%%EOF
