%!PS-Adobe-3.0 EPSF-3.0
%%BoundingBox: (atend)
%%LanguageLevel: 2
%%Creator: Grace-5.1.21
%%CreationDate: Mon Aug  3 14:35:39 2015
%%DocumentData: Clean8Bit
%%Orientation: Portrait
%%Title: PressureSNM.agr
%%For: pastorea
%%DocumentNeededResources: (atend)
%%EndComments
%%BeginProlog
/m {moveto} def
/l {lineto} def
/s {stroke} def
/n {newpath} def
/c {closepath} def
/RL {rlineto} def
/SLW {setlinewidth} def
/GS {gsave} def
/GR {grestore} def
/SC {setcolor} def
/SGRY {setgray} def
/SRGB {setrgbcolor} def
/SD {setdash} def
/SLC {setlinecap} def
/SLJ {setlinejoin} def
/SCS {setcolorspace} def
/FFSF {findfont setfont} def
/CC {concat} def
/PXL {n m 0 0 RL s} def
/Color0 {1.0000 1.0000 1.0000} def
/Color1 {0.0000 0.0000 0.0000} def
/Color2 {1.0000 0.0000 0.0000} def
/Color3 {0.0000 1.0000 0.0000} def
/Color4 {0.0000 0.0000 1.0000} def
/Color5 {1.0000 1.0000 0.0000} def
/Color6 {0.7373 0.5608 0.5608} def
/Color7 {0.8627 0.8627 0.8627} def
/Color8 {0.5804 0.0000 0.8275} def
/Color9 {0.0000 1.0000 1.0000} def
/Color10 {1.0000 0.0000 1.0000} def
/Color11 {1.0000 0.6471 0.0000} def
/Color12 {0.4471 0.1294 0.7373} def
/Color13 {0.4039 0.0275 0.2824} def
/Color14 {0.2510 0.8784 0.8157} def
/Color15 {0.0000 0.5451 0.0000} def
/Color16 {0.7529 0.7529 0.7529} def
/Color17 {0.5059 0.5059 0.5059} def
/Color18 {0.2588 0.2588 0.2588} def
/Color19 {0.7529 0.7529 1.0000} def
/Color20 {0.5059 0.5059 1.0000} def
/Color21 {0.2588 0.2588 1.0000} def
/PTRN {
 /pat_bits exch def 
 <<
  /PaintType 2
  /PatternType 1 /TilingType 1
  /BBox[0 0 16 16]
  /XStep 16 /YStep 16
  /PaintProc {
   pop
   16 16 true [-1 0 0 -1 16 16] pat_bits imagemask
  }
 >>
 [0.0016 0 0 0.0016 0 0]
 makepattern
} def
/Pattern0 {<0000000000000000000000000000000000000000000000000000000000000000> PTRN} bind def
/Pattern1 {<ffffffffffffffffffffffffffffffffffffffffffffffffffffffffffffffff> PTRN} bind def
/Pattern2 {<eeeeffffbbbbffffeeeeffffbbbbffffeeeeffffbbbbffffeeeeffffbbbbffff> PTRN} bind def
/Pattern3 {<eeeebbbbeeeebbbbeeeebbbbeeeebbbbeeeebbbbeeeebbbbeeeebbbbeeeebbbb> PTRN} bind def
/Pattern4 {<5555aaaa5555aaaa5555aaaa5555aaaa5555aaaa5555aaaa5555aaaa5555aaaa> PTRN} bind def
/Pattern5 {<1111444411114444111144441111444411114444111144441111444411114444> PTRN} bind def
/Pattern6 {<1111000044440000111100004444000011110000444400001111000044440000> PTRN} bind def
/Pattern7 {<1010000000000000010100000000000010100000000000000101000000000000> PTRN} bind def
/Pattern8 {<0000000000000000000000000000000000000000000000000000000000000000> PTRN} bind def
/Pattern9 {<1e1e0f0f8787c3c3e1e1f0f078783c3c1e1e0f0f8787c3c3e1e1f0f078783c3c> PTRN} bind def
/Pattern10 {<7878f0f0e1e1c3c387870f0f1e1e3c3c7878f0f0e1e1c3c387870f0f1e1e3c3c> PTRN} bind def
/Pattern11 {<3333333333333333333333333333333333333333333333333333333333333333> PTRN} bind def
/Pattern12 {<ffffffff00000000ffffffff00000000ffffffff00000000ffffffff00000000> PTRN} bind def
/Pattern13 {<8181424224241818181824244242818181814242242418181818242442428181> PTRN} bind def
/Pattern14 {<8080404020201010080804040202010180804040202010100808040402020101> PTRN} bind def
/Pattern15 {<0101020204040808101020204040808001010202040408081010202040408080> PTRN} bind def
/Pattern16 {<2222222222222222222222222222222222222222222222222222222222222222> PTRN} bind def
/Pattern17 {<0000ffff000000000000ffff000000000000ffff000000000000ffff00000000> PTRN} bind def
/Pattern18 {<2222ffff222222222222ffff222222222222ffff222222222222ffff22222222> PTRN} bind def
/Pattern19 {<ffffffff33333333ffffffff33333333ffffffff33333333ffffffff33333333> PTRN} bind def
/Pattern20 {<0f0f0f0f0f0f0f0ff0f0f0f0f0f0f0f00f0f0f0f0f0f0f0ff0f0f0f0f0f0f0f0> PTRN} bind def
/Pattern21 {<ff00ff00ff00ff00ff00ff00ff00ff0000ff00ff00ff00ff00ff00ff00ff00ff> PTRN} bind def
/Pattern22 {<8001800180018001800180018001ffffffff8001800180018001800180018001> PTRN} bind def
/Pattern23 {<c003c003c003c003c003c003ffffffffffffffffc003c003c003c003c003c003> PTRN} bind def
/Pattern24 {<040404040404ffff404040404040ffff040404040404ffff404040404040ffff> PTRN} bind def
/Pattern25 {<180018001800180018001800ffffffff001800180018001800180018ffffffff> PTRN} bind def
/Pattern26 {<1111b8b87c7c3a3a1111a3a3c7c78b8b1111b8b87c7c3a3a1111a3a3c7c78b8b> PTRN} bind def
/Pattern27 {<101010102828c7c70101010182827c7c101010102828c7c70101010182827c7c> PTRN} bind def
/Pattern28 {<1c1c121211112121c1c12121111112121c1c121211112121c1c1212111111212> PTRN} bind def
/Pattern29 {<3e3e414180808080e3e31414080808083e3e414180808080e3e3141408080808> PTRN} bind def
/Pattern30 {<4848888884848383848488884848383848488888848483838484888848483838> PTRN} bind def
/Pattern31 {<03030404080808080c0c12122121c0c003030404080808080c0c12122121c0c0> PTRN} bind def
/ellipsedict 8 dict def
ellipsedict /mtrx matrix put
/EARC {
 ellipsedict begin
  /endangle exch def
  /startangle exch def
  /yrad exch def
  /xrad exch def
  /y exch def
  /x exch def
  /savematrix mtrx currentmatrix def
  x y translate
  xrad yrad scale
  0 0 1 startangle endangle arc
  savematrix setmatrix
 end
} def
/TL {
  /kcomp exch def
  /linewidth exch def
  /offset exch def
  GS
  0 offset rmoveto
  linewidth SLW
  dup stringwidth exch kcomp add exch RL s
  GR
} def
/KINIT
{
 /kvector exch def
 /kid 0 def
} def
/KPROC
{
 pop pop
 kvector kid get
 0 rmoveto
 /kid 1 kid add def
} def
/DefEncoding [
 /.notdef
 /.notdef
 /.notdef
 /.notdef
 /.notdef
 /.notdef
 /.notdef
 /.notdef
 /.notdef
 /.notdef
 /.notdef
 /.notdef
 /.notdef
 /.notdef
 /.notdef
 /.notdef
 /.notdef
 /.notdef
 /.notdef
 /.notdef
 /.notdef
 /.notdef
 /.notdef
 /.notdef
 /.notdef
 /.notdef
 /.notdef
 /.notdef
 /.notdef
 /.notdef
 /.notdef
 /.notdef
 /space
 /exclam
 /quotedbl
 /numbersign
 /dollar
 /percent
 /ampersand
 /quoteright
 /parenleft
 /parenright
 /asterisk
 /plus
 /comma
 /hyphen
 /period
 /slash
 /zero
 /one
 /two
 /three
 /four
 /five
 /six
 /seven
 /eight
 /nine
 /colon
 /semicolon
 /less
 /equal
 /greater
 /question
 /at
 /A
 /B
 /C
 /D
 /E
 /F
 /G
 /H
 /I
 /J
 /K
 /L
 /M
 /N
 /O
 /P
 /Q
 /R
 /S
 /T
 /U
 /V
 /W
 /X
 /Y
 /Z
 /bracketleft
 /backslash
 /bracketright
 /asciicircum
 /underscore
 /grave
 /a
 /b
 /c
 /d
 /e
 /f
 /g
 /h
 /i
 /j
 /k
 /l
 /m
 /n
 /o
 /p
 /q
 /r
 /s
 /t
 /u
 /v
 /w
 /x
 /y
 /z
 /braceleft
 /bar
 /braceright
 /asciitilde
 /.notdef
 /.notdef
 /.notdef
 /.notdef
 /.notdef
 /.notdef
 /.notdef
 /.notdef
 /.notdef
 /.notdef
 /.notdef
 /.notdef
 /.notdef
 /.notdef
 /.notdef
 /.notdef
 /.notdef
 /.notdef
 /.notdef
 /.notdef
 /.notdef
 /.notdef
 /.notdef
 /.notdef
 /.notdef
 /.notdef
 /.notdef
 /.notdef
 /.notdef
 /.notdef
 /.notdef
 /.notdef
 /.notdef
 /space
 /exclamdown
 /cent
 /sterling
 /currency
 /yen
 /brokenbar
 /section
 /dieresis
 /copyright
 /ordfeminine
 /guillemotleft
 /logicalnot
 /hyphen
 /registered
 /macron
 /degree
 /plusminus
 /twosuperior
 /threesuperior
 /acute
 /mu
 /paragraph
 /periodcentered
 /cedilla
 /onesuperior
 /ordmasculine
 /guillemotright
 /onequarter
 /onehalf
 /threequarters
 /questiondown
 /Agrave
 /Aacute
 /Acircumflex
 /Atilde
 /Adieresis
 /Aring
 /AE
 /Ccedilla
 /Egrave
 /Eacute
 /Ecircumflex
 /Edieresis
 /Igrave
 /Iacute
 /Icircumflex
 /Idieresis
 /Eth
 /Ntilde
 /Ograve
 /Oacute
 /Ocircumflex
 /Otilde
 /Odieresis
 /multiply
 /Oslash
 /Ugrave
 /Uacute
 /Ucircumflex
 /Udieresis
 /Yacute
 /Thorn
 /germandbls
 /agrave
 /aacute
 /acircumflex
 /atilde
 /adieresis
 /aring
 /ae
 /ccedilla
 /egrave
 /eacute
 /ecircumflex
 /edieresis
 /igrave
 /iacute
 /icircumflex
 /idieresis
 /eth
 /ntilde
 /ograve
 /oacute
 /ocircumflex
 /otilde
 /odieresis
 /divide
 /oslash
 /ugrave
 /uacute
 /ucircumflex
 /udieresis
 /yacute
 /thorn
 /ydieresis
] def
%%EndProlog
%%BeginSetup
%%EndSetup
612.00 612.00 scale
n
0.4010 0.1500 m
0.4010 0.4687 l
0.4192 0.4825 l
0.4323 0.4995 l
0.4464 0.5165 l
0.4706 0.5388 l
0.4968 0.5654 l
0.5240 0.5909 l
0.5522 0.6153 l
0.5804 0.6387 l
0.5966 0.6504 l
0.6288 0.6652 l
0.6611 0.6833 l
0.7105 0.7056 l
0.7619 0.7279 l
0.7780 0.7354 l
0.8294 0.7502 l
0.8829 0.7640 l
0.9353 0.7789 l
0.9887 0.7917 l
1.0512 0.8055 l
1.0512 0.1500 l
c
[/DeviceRGB] SCS
Color7 SC
eofill
[/DeviceRGB] SCS
Color1 SC
[0.0187 0.0112 ] 0 SD
0.0037 SLW
0 SLC
0 SLJ
n
0.4010 0.4687 m
0.4192 0.4825 l
0.4323 0.4995 l
0.4464 0.5165 l
0.4706 0.5388 l
0.4968 0.5654 l
0.5240 0.5909 l
0.5522 0.6153 l
0.5804 0.6387 l
0.5966 0.6504 l
0.6288 0.6652 l
0.6611 0.6833 l
0.7105 0.7056 l
0.7619 0.7279 l
0.7780 0.7354 l
0.8294 0.7502 l
0.8829 0.7640 l
0.9353 0.7789 l
0.9887 0.7917 l
1.0512 0.8055 l
s
n
0.4000 0.1500 m
0.4000 0.3969 l
0.4247 0.4106 l
0.4378 0.4233 l
0.4620 0.4381 l
0.4822 0.4549 l
0.5034 0.4708 l
0.5296 0.4929 l
0.5609 0.5056 l
0.5912 0.5246 l
0.6295 0.5456 l
0.6658 0.5562 l
0.6971 0.5688 l
0.7254 0.5836 l
0.7617 0.5973 l
0.7879 0.6067 l
0.8172 0.6173 l
0.8575 0.6278 l
0.8948 0.6373 l
0.9059 0.6425 l
0.9765 0.6414 l
1.0148 0.6424 l
1.0500 0.6445 l
1.0500 0.6868 l
1.0500 0.7258 l
1.0500 0.8019 l
1.0500 0.1500 l
c
[/DeviceRGB] SCS
Color0 SC
fill
[/DeviceRGB] SCS
Color1 SC
n
0.4000 0.3969 m
0.4247 0.4106 l
0.4378 0.4233 l
0.4620 0.4381 l
0.4822 0.4549 l
0.5034 0.4708 l
0.5296 0.4929 l
0.5609 0.5056 l
0.5912 0.5246 l
0.6295 0.5456 l
0.6658 0.5562 l
0.6971 0.5688 l
0.7254 0.5836 l
0.7617 0.5973 l
0.7879 0.6067 l
0.8172 0.6173 l
0.8575 0.6278 l
0.8948 0.6373 l
0.9059 0.6425 l
0.9765 0.6414 l
1.0148 0.6424 l
1.0500 0.6445 l
1.0500 0.6868 l
1.0500 0.7258 l
1.0500 0.8019 l
s
n
0.1956 0.1500 m
0.1990 0.1702 l
0.2046 0.1904 l
0.2107 0.2149 l
0.2178 0.2317 l
0.2218 0.2485 l
0.2320 0.2679 l
0.2412 0.2873 l
0.2494 0.3016 l
0.2595 0.3210 l
0.2702 0.3395 l
0.2804 0.3564 l
0.2927 0.3766 l
0.3054 0.3951 l
0.3191 0.4145 l
0.3339 0.4330 l
0.3472 0.4499 l
0.3609 0.4667 l
0.3747 0.4835 l
0.3905 0.5012 l
0.4053 0.5156 l
0.4211 0.5307 l
0.4450 0.5509 l
0.4450 0.1500 l
c
[/DeviceRGB] SCS
Color14 SC
fill
[/DeviceRGB] SCS
Color4 SC
n
0.1955 0.1499 m
0.1990 0.1702 l
0.2046 0.1904 l
0.2107 0.2149 l
0.2178 0.2317 l
0.2218 0.2485 l
0.2320 0.2679 l
0.2412 0.2873 l
0.2494 0.3016 l
0.2595 0.3210 l
0.2702 0.3395 l
0.2804 0.3564 l
0.2927 0.3766 l
0.3054 0.3951 l
0.3191 0.4145 l
0.3339 0.4330 l
0.3472 0.4499 l
0.3609 0.4667 l
0.3747 0.4835 l
0.3905 0.5012 l
0.4053 0.5156 l
0.4211 0.5307 l
0.4450 0.5509 l
s
n
0.2276 0.1500 m
0.2276 0.1508 l
0.2342 0.1673 l
0.2413 0.1846 l
0.2500 0.1985 l
0.2607 0.2158 l
0.2735 0.2388 l
0.2862 0.2545 l
0.2980 0.2718 l
0.3087 0.2841 l
0.3214 0.2997 l
0.3311 0.3104 l
0.3449 0.3261 l
0.3515 0.3326 l
0.3592 0.3409 l
0.3699 0.3524 l
0.3811 0.3639 l
0.3923 0.3738 l
0.4056 0.3836 l
0.4173 0.3960 l
0.4321 0.4067 l
0.4462 0.4190 l
0.4450 0.4552 l
0.4450 0.4799 l
0.4450 0.5416 l
0.4459 0.1500 l
c
[/DeviceRGB] SCS
Color0 SC
fill
[/DeviceRGB] SCS
Color4 SC
n
0.2276 0.1508 m
0.2342 0.1673 l
0.2413 0.1846 l
0.2500 0.1985 l
0.2607 0.2158 l
0.2735 0.2388 l
0.2862 0.2545 l
0.2980 0.2718 l
0.3087 0.2841 l
0.3214 0.2997 l
0.3311 0.3104 l
0.3449 0.3261 l
0.3515 0.3326 l
0.3592 0.3409 l
0.3699 0.3524 l
0.3811 0.3639 l
0.3923 0.3738 l
0.4056 0.3836 l
0.4173 0.3960 l
0.4321 0.4067 l
0.4462 0.4190 l
0.4450 0.4552 l
0.4450 0.4799 l
0.4450 0.5416 l
s
[/DeviceRGB] SCS
Color1 SC
[] 0 SD
0.0037 SLW
n
0.1936 0.1499 m
0.1959 0.1586 l
0.2107 0.2021 l
0.2254 0.2378 l
0.2402 0.2684 l
0.2550 0.2953 l
0.2698 0.3194 l
0.2846 0.3413 l
0.2994 0.3614 l
0.3142 0.3800 l
0.3290 0.3974 l
0.3438 0.4136 l
0.3586 0.4290 l
0.3734 0.4434 l
0.3882 0.4572 l
0.4030 0.4702 l
0.4178 0.4827 l
0.4325 0.4946 l
0.4473 0.5060 l
0.4621 0.5170 l
0.4769 0.5275 l
0.4917 0.5377 l
0.5065 0.5475 l
0.5213 0.5569 l
0.5361 0.5661 l
0.5509 0.5749 l
0.5657 0.5835 l
0.5805 0.5918 l
0.5953 0.5999 l
0.6101 0.6077 l
0.6249 0.6153 l
0.6396 0.6227 l
0.6544 0.6299 l
0.6692 0.6370 l
0.6840 0.6438 l
0.6988 0.6505 l
0.7136 0.6570 l
0.7284 0.6634 l
0.7432 0.6696 l
0.7580 0.6757 l
0.7728 0.6816 l
0.7876 0.6874 l
0.8024 0.6931 l
0.8172 0.6987 l
0.8320 0.7041 l
0.8467 0.7095 l
0.8615 0.7147 l
0.8763 0.7198 l
0.8911 0.7249 l
0.9059 0.7298 l
0.9207 0.7346 l
0.9355 0.7394 l
0.9503 0.7441 l
0.9651 0.7486 l
0.9799 0.7531 l
0.9947 0.7576 l
1.0095 0.7619 l
1.0243 0.7662 l
1.0391 0.7704 l
1.0538 0.7745 l
1.0686 0.7786 l
1.0834 0.7826 l
1.0982 0.7865 l
1.1130 0.7904 l
1.1278 0.7942 l
1.1426 0.7980 l
1.1501 0.7999 l
s
[/DeviceRGB] SCS
Color4 SC
[0.0037 0.0112 ] 0 SD
0.0037 SLW
n
0.2018 0.1499 m
0.2031 0.1535 l
0.2047 0.1578 l
0.2062 0.1620 l
0.2078 0.1662 l
0.2094 0.1702 l
0.2109 0.1741 l
0.2125 0.1779 l
0.2141 0.1817 l
0.2156 0.1854 l
0.2172 0.1890 l
0.2188 0.1925 l
0.2203 0.1960 l
0.2219 0.1994 l
0.2234 0.2027 l
0.2250 0.2060 l
0.2266 0.2093 l
0.2281 0.2124 l
0.2297 0.2155 l
0.2312 0.2186 l
0.2328 0.2216 l
0.2344 0.2246 l
0.2359 0.2275 l
0.2375 0.2304 l
0.2391 0.2332 l
0.2406 0.2360 l
0.2422 0.2388 l
0.2437 0.2415 l
0.2453 0.2441 l
0.2469 0.2468 l
0.2484 0.2494 l
0.2500 0.2520 l
0.2516 0.2545 l
0.2531 0.2570 l
0.2547 0.2595 l
0.2562 0.2619 l
0.2578 0.2643 l
0.2594 0.2667 l
0.2609 0.2691 l
0.2625 0.2714 l
0.2641 0.2737 l
0.2656 0.2760 l
0.2672 0.2782 l
0.2687 0.2805 l
0.2703 0.2827 l
0.2719 0.2848 l
0.2734 0.2870 l
0.2750 0.2891 l
0.2766 0.2913 l
0.2781 0.2934 l
0.2797 0.2954 l
0.2812 0.2975 l
0.2828 0.2995 l
0.2844 0.3015 l
0.2859 0.3035 l
0.2875 0.3055 l
0.2891 0.3075 l
0.2906 0.3094 l
0.2922 0.3113 l
0.2937 0.3132 l
0.2953 0.3151 l
0.2969 0.3170 l
0.2984 0.3189 l
0.3000 0.3207 l
0.3016 0.3226 l
0.3031 0.3244 l
0.3047 0.3262 l
0.3062 0.3280 l
0.3078 0.3298 l
0.3094 0.3315 l
0.3109 0.3333 l
0.3125 0.3350 l
0.3141 0.3367 l
0.3156 0.3385 l
0.3172 0.3402 l
0.3187 0.3418 l
0.3203 0.3435 l
0.3219 0.3452 l
0.3234 0.3469 l
0.3250 0.3485 l
0.3266 0.3501 l
0.3281 0.3518 l
0.3297 0.3534 l
0.3312 0.3550 l
0.3328 0.3566 l
0.3344 0.3582 l
0.3359 0.3597 l
0.3375 0.3613 l
0.3391 0.3629 l
0.3406 0.3644 l
0.3422 0.3660 l
0.3438 0.3675 l
0.3453 0.3690 l
0.3469 0.3705 l
0.3484 0.3720 l
0.3500 0.3735 l
0.3516 0.3750 l
0.3531 0.3765 l
0.3547 0.3780 l
0.3562 0.3795 l
0.3578 0.3809 l
0.3594 0.3824 l
0.3609 0.3838 l
0.3625 0.3853 l
0.3641 0.3867 l
0.3656 0.3881 l
0.3672 0.3896 l
0.3687 0.3910 l
0.3703 0.3924 l
0.3719 0.3938 l
0.3734 0.3952 l
0.3750 0.3966 l
0.3766 0.3980 l
0.3781 0.3994 l
0.3797 0.4007 l
0.3812 0.4021 l
0.3828 0.4035 l
0.3844 0.4048 l
0.3859 0.4062 l
0.3875 0.4075 l
0.3891 0.4089 l
0.3906 0.4102 l
0.3922 0.4116 l
0.3937 0.4129 l
0.3953 0.4142 l
0.3969 0.4156 l
0.3984 0.4169 l
0.4000 0.4182 l
0.4016 0.4195 l
0.4031 0.4208 l
0.4047 0.4221 l
0.4062 0.4234 l
0.4078 0.4247 l
0.4094 0.4260 l
0.4109 0.4273 l
0.4125 0.4286 l
0.4141 0.4299 l
0.4156 0.4311 l
0.4172 0.4324 l
0.4187 0.4337 l
0.4203 0.4349 l
0.4219 0.4362 l
0.4234 0.4375 l
0.4250 0.4387 l
0.4266 0.4400 l
0.4281 0.4412 l
0.4297 0.4425 l
0.4312 0.4437 l
0.4328 0.4450 l
0.4344 0.4462 l
0.4359 0.4474 l
0.4375 0.4487 l
0.4391 0.4499 l
0.4406 0.4511 l
0.4422 0.4524 l
0.4437 0.4536 l
0.4453 0.4548 l
0.4469 0.4560 l
0.4484 0.4572 l
0.4500 0.4585 l
0.4516 0.4597 l
0.4531 0.4609 l
0.4547 0.4621 l
0.4562 0.4633 l
0.4578 0.4645 l
0.4594 0.4657 l
0.4609 0.4669 l
0.4625 0.4681 l
0.4641 0.4693 l
0.4656 0.4705 l
0.4672 0.4717 l
0.4687 0.4729 l
0.4703 0.4741 l
0.4719 0.4752 l
0.4734 0.4764 l
0.4750 0.4776 l
0.4766 0.4788 l
0.4781 0.4800 l
0.4797 0.4811 l
0.4812 0.4823 l
0.4828 0.4835 l
0.4844 0.4847 l
0.4859 0.4858 l
0.4875 0.4870 l
0.4891 0.4882 l
0.4906 0.4893 l
0.4922 0.4905 l
0.4937 0.4917 l
0.4953 0.4928 l
0.4969 0.4940 l
0.4984 0.4951 l
0.5000 0.4963 l
0.5016 0.4974 l
0.5031 0.4986 l
0.5047 0.4998 l
0.5062 0.5009 l
0.5078 0.5021 l
0.5094 0.5032 l
0.5109 0.5044 l
0.5125 0.5055 l
0.5141 0.5066 l
0.5156 0.5078 l
0.5172 0.5089 l
0.5187 0.5101 l
0.5203 0.5112 l
0.5219 0.5123 l
0.5234 0.5135 l
0.5250 0.5146 l
0.5266 0.5158 l
0.5281 0.5169 l
0.5297 0.5180 l
0.5312 0.5192 l
0.5328 0.5203 l
0.5344 0.5214 l
0.5359 0.5225 l
0.5375 0.5237 l
0.5391 0.5248 l
0.5406 0.5259 l
0.5422 0.5270 l
0.5437 0.5282 l
0.5453 0.5293 l
0.5469 0.5304 l
0.5484 0.5315 l
0.5500 0.5326 l
0.5516 0.5338 l
0.5531 0.5349 l
0.5547 0.5360 l
0.5562 0.5371 l
0.5578 0.5382 l
0.5594 0.5393 l
0.5609 0.5404 l
0.5625 0.5415 l
0.5641 0.5426 l
0.5656 0.5438 l
0.5672 0.5449 l
0.5687 0.5460 l
0.5703 0.5471 l
0.5719 0.5482 l
0.5734 0.5493 l
0.5750 0.5504 l
0.5766 0.5515 l
0.5781 0.5526 l
0.5797 0.5537 l
0.5812 0.5548 l
0.5828 0.5559 l
0.5844 0.5569 l
0.5859 0.5580 l
0.5875 0.5591 l
0.5891 0.5602 l
0.5906 0.5613 l
0.5922 0.5624 l
0.5937 0.5635 l
0.5953 0.5646 l
0.5969 0.5657 l
0.5984 0.5667 l
0.6000 0.5678 l
0.6016 0.5689 l
0.6031 0.5700 l
0.6047 0.5711 l
0.6062 0.5721 l
0.6078 0.5732 l
0.6094 0.5743 l
0.6109 0.5754 l
0.6125 0.5764 l
0.6141 0.5775 l
0.6156 0.5786 l
0.6172 0.5797 l
0.6187 0.5807 l
0.6203 0.5818 l
0.6219 0.5829 l
0.6234 0.5839 l
0.6250 0.5850 l
0.6266 0.5860 l
0.6281 0.5871 l
0.6297 0.5882 l
0.6312 0.5892 l
0.6328 0.5903 l
0.6344 0.5913 l
0.6359 0.5924 l
0.6375 0.5934 l
0.6391 0.5945 l
0.6406 0.5955 l
0.6422 0.5966 l
0.6437 0.5976 l
0.6453 0.5987 l
0.6469 0.5997 l
0.6484 0.6008 l
0.6500 0.6018 l
0.6516 0.6029 l
0.6531 0.6039 l
0.6547 0.6050 l
0.6562 0.6060 l
0.6578 0.6070 l
0.6594 0.6081 l
0.6609 0.6091 l
0.6625 0.6101 l
0.6641 0.6112 l
0.6656 0.6122 l
0.6672 0.6132 l
0.6687 0.6142 l
0.6703 0.6153 l
0.6719 0.6163 l
0.6734 0.6173 l
0.6750 0.6183 l
0.6766 0.6194 l
0.6781 0.6204 l
0.6797 0.6214 l
0.6812 0.6224 l
0.6828 0.6234 l
0.6844 0.6244 l
0.6859 0.6254 l
0.6875 0.6265 l
0.6891 0.6275 l
0.6906 0.6285 l
0.6922 0.6295 l
0.6937 0.6305 l
0.6953 0.6315 l
0.6969 0.6325 l
0.6984 0.6335 l
0.7000 0.6345 l
0.7016 0.6355 l
0.7031 0.6365 l
0.7047 0.6375 l
0.7062 0.6385 l
0.7078 0.6394 l
0.7094 0.6404 l
0.7109 0.6414 l
0.7125 0.6424 l
0.7141 0.6434 l
0.7156 0.6444 l
0.7172 0.6454 l
0.7187 0.6463 l
0.7203 0.6473 l
0.7219 0.6483 l
0.7234 0.6493 l
0.7250 0.6502 l
0.7266 0.6512 l
0.7281 0.6522 l
0.7297 0.6531 l
0.7312 0.6541 l
0.7328 0.6551 l
0.7344 0.6560 l
0.7359 0.6570 l
0.7375 0.6579 l
0.7391 0.6589 l
0.7406 0.6599 l
0.7422 0.6608 l
0.7437 0.6618 l
0.7453 0.6627 l
0.7469 0.6637 l
0.7484 0.6646 l
0.7500 0.6655 l
0.7516 0.6665 l
0.7531 0.6674 l
0.7547 0.6684 l
0.7562 0.6693 l
0.7578 0.6702 l
0.7594 0.6712 l
0.7609 0.6721 l
0.7625 0.6730 l
0.7641 0.6740 l
0.7656 0.6749 l
0.7672 0.6758 l
0.7687 0.6767 l
0.7703 0.6777 l
0.7719 0.6786 l
0.7734 0.6795 l
0.7750 0.6804 l
0.7766 0.6813 l
0.7781 0.6822 l
0.7797 0.6831 l
0.7812 0.6840 l
0.7828 0.6850 l
0.7844 0.6859 l
0.7859 0.6868 l
0.7875 0.6877 l
0.7891 0.6886 l
0.7906 0.6895 l
0.7922 0.6903 l
0.7937 0.6912 l
0.7953 0.6921 l
0.7969 0.6930 l
0.7984 0.6939 l
0.8000 0.6948 l
0.8016 0.6957 l
0.8031 0.6965 l
0.8047 0.6974 l
0.8062 0.6983 l
0.8078 0.6992 l
0.8094 0.7000 l
0.8109 0.7009 l
0.8125 0.7018 l
0.8141 0.7027 l
0.8156 0.7035 l
0.8172 0.7044 l
0.8187 0.7052 l
0.8203 0.7061 l
0.8219 0.7070 l
0.8234 0.7078 l
0.8250 0.7087 l
0.8266 0.7095 l
0.8281 0.7104 l
0.8297 0.7112 l
0.8312 0.7120 l
0.8328 0.7129 l
0.8344 0.7137 l
0.8359 0.7146 l
0.8375 0.7154 l
s
[/DeviceRGB] SCS
Color3 SC
[0.0187 0.0112 ] 0 SD
0.0037 SLW
n
0.1947 0.1499 m
0.2125 0.2053 l
0.2333 0.2547 l
0.2542 0.2953 l
0.2750 0.3301 l
0.2958 0.3608 l
0.3167 0.3884 l
0.3375 0.4134 l
0.3583 0.4365 l
0.3792 0.4578 l
0.4000 0.4777 l
0.4208 0.4964 l
0.4417 0.5140 l
0.4625 0.5307 l
0.4833 0.5465 l
0.5042 0.5615 l
0.5250 0.5759 l
0.5458 0.5896 l
0.5667 0.6028 l
0.5875 0.6154 l
0.6083 0.6276 l
0.6292 0.6393 l
0.6500 0.6506 l
0.6708 0.6615 l
0.6917 0.6721 l
0.7125 0.6823 l
0.7333 0.6923 l
0.7542 0.7019 l
0.7750 0.7112 l
0.7958 0.7203 l
0.8167 0.7292 l
0.8375 0.7378 l
0.8583 0.7462 l
0.8792 0.7544 l
0.9000 0.7624 l
0.9208 0.7702 l
0.9417 0.7778 l
0.9625 0.7853 l
0.9833 0.7926 l
1.0042 0.7997 l
1.0250 0.8067 l
1.0458 0.8135 l
1.0667 0.8203 l
1.0875 0.8268 l
1.1083 0.8333 l
1.1292 0.8396 l
1.1500 0.8458 l
1.1501 0.8458 l
s
[/DeviceRGB] SCS
Color2 SC
n
0.1939 0.1499 m
0.2125 0.2078 l
0.2333 0.2573 l
0.2542 0.2980 l
0.2750 0.3330 l
0.2958 0.3638 l
0.3167 0.3914 l
0.3375 0.4166 l
0.3583 0.4397 l
0.3792 0.4612 l
0.4000 0.4812 l
0.4208 0.5000 l
0.4417 0.5176 l
0.4625 0.5344 l
0.4833 0.5503 l
0.5042 0.5654 l
0.5250 0.5798 l
0.5458 0.5936 l
0.5667 0.6069 l
0.5875 0.6196 l
0.6083 0.6318 l
0.6292 0.6436 l
0.6500 0.6550 l
0.6708 0.6660 l
0.6917 0.6766 l
0.7125 0.6869 l
0.7333 0.6969 l
0.7542 0.7066 l
0.7750 0.7160 l
0.7958 0.7252 l
0.8167 0.7341 l
0.8375 0.7428 l
0.8583 0.7512 l
0.8792 0.7595 l
0.9000 0.7675 l
0.9208 0.7754 l
0.9417 0.7831 l
0.9625 0.7906 l
0.9833 0.7979 l
1.0042 0.8051 l
1.0250 0.8121 l
1.0458 0.8190 l
1.0667 0.8258 l
1.0875 0.8324 l
1.1083 0.8389 l
1.1292 0.8453 l
1.1453 0.8501 l
s
[/DeviceRGB] SCS
Color15 SC
n
0.1935 0.1499 m
0.2125 0.2092 l
0.2333 0.2587 l
0.2542 0.2995 l
0.2750 0.3345 l
0.2958 0.3653 l
0.3167 0.3930 l
0.3375 0.4182 l
0.3583 0.4413 l
0.3792 0.4628 l
0.4000 0.4828 l
0.4208 0.5016 l
0.4417 0.5193 l
0.4625 0.5360 l
0.4833 0.5519 l
0.5042 0.5670 l
0.5250 0.5814 l
0.5458 0.5952 l
0.5667 0.6084 l
0.5875 0.6211 l
0.6083 0.6333 l
0.6292 0.6451 l
0.6500 0.6565 l
0.6708 0.6674 l
0.6917 0.6781 l
0.7125 0.6883 l
0.7333 0.6983 l
0.7542 0.7080 l
0.7750 0.7174 l
0.7958 0.7265 l
0.8167 0.7354 l
0.8375 0.7441 l
0.8583 0.7525 l
0.8792 0.7607 l
0.9000 0.7687 l
0.9208 0.7766 l
0.9417 0.7842 l
0.9625 0.7917 l
0.9833 0.7990 l
1.0042 0.8061 l
1.0250 0.8131 l
1.0458 0.8200 l
1.0667 0.8267 l
1.0875 0.8333 l
1.1083 0.8398 l
1.1292 0.8461 l
1.1426 0.8501 l
s
[/DeviceRGB] SCS
Color12 SC
[0.0037 0.0112 0.0262 0.0112 ] 0 SD
0.0037 SLW
n
0.1959 0.1499 m
0.1964 0.1517 l
0.1978 0.1564 l
0.1993 0.1610 l
0.2007 0.1655 l
0.2021 0.1699 l
0.2036 0.1742 l
0.2050 0.1784 l
0.2064 0.1825 l
0.2078 0.1865 l
0.2093 0.1905 l
0.2107 0.1944 l
0.2121 0.1982 l
0.2136 0.2019 l
0.2150 0.2056 l
0.2164 0.2092 l
0.2179 0.2127 l
0.2193 0.2162 l
0.2207 0.2196 l
0.2222 0.2230 l
0.2236 0.2263 l
0.2250 0.2296 l
0.2265 0.2328 l
0.2279 0.2360 l
0.2293 0.2391 l
0.2308 0.2422 l
0.2322 0.2452 l
0.2336 0.2482 l
0.2351 0.2512 l
0.2365 0.2541 l
0.2379 0.2570 l
0.2393 0.2599 l
0.2408 0.2627 l
0.2422 0.2655 l
0.2436 0.2682 l
0.2451 0.2709 l
0.2465 0.2736 l
0.2479 0.2763 l
0.2494 0.2789 l
0.2508 0.2815 l
0.2522 0.2840 l
0.2537 0.2866 l
0.2551 0.2891 l
0.2565 0.2916 l
0.2580 0.2940 l
0.2594 0.2964 l
0.2608 0.2989 l
0.2623 0.3012 l
0.2637 0.3036 l
0.2651 0.3059 l
0.2666 0.3083 l
0.2680 0.3106 l
0.2694 0.3128 l
0.2708 0.3151 l
0.2723 0.3173 l
0.2737 0.3195 l
0.2751 0.3217 l
0.2766 0.3239 l
0.2780 0.3260 l
0.2794 0.3282 l
0.2809 0.3303 l
0.2823 0.3324 l
0.2837 0.3345 l
0.2852 0.3365 l
0.2866 0.3386 l
0.2880 0.3406 l
0.2895 0.3426 l
0.2909 0.3446 l
0.2923 0.3466 l
0.2938 0.3486 l
0.2952 0.3506 l
0.2966 0.3525 l
0.2981 0.3544 l
0.2995 0.3563 l
0.3009 0.3582 l
0.3023 0.3601 l
0.3038 0.3620 l
0.3052 0.3638 l
0.3066 0.3657 l
0.3081 0.3675 l
0.3095 0.3693 l
0.3109 0.3711 l
0.3124 0.3729 l
0.3138 0.3747 l
0.3152 0.3765 l
0.3167 0.3782 l
0.3181 0.3800 l
0.3195 0.3817 l
0.3210 0.3834 l
0.3224 0.3852 l
0.3238 0.3869 l
0.3253 0.3886 l
0.3267 0.3902 l
0.3281 0.3919 l
0.3296 0.3936 l
0.3310 0.3952 l
0.3324 0.3969 l
0.3338 0.3985 l
0.3353 0.4001 l
0.3367 0.4017 l
0.3381 0.4033 l
0.3396 0.4049 l
0.3410 0.4065 l
0.3424 0.4081 l
0.3439 0.4096 l
0.3453 0.4112 l
0.3467 0.4127 l
0.3482 0.4143 l
0.3496 0.4158 l
0.3510 0.4173 l
0.3525 0.4188 l
0.3539 0.4203 l
0.3553 0.4218 l
0.3568 0.4233 l
0.3582 0.4248 l
0.3596 0.4263 l
0.3611 0.4277 l
0.3625 0.4292 l
0.3639 0.4306 l
0.3654 0.4321 l
0.3668 0.4335 l
0.3682 0.4349 l
0.3696 0.4364 l
0.3711 0.4378 l
0.3725 0.4392 l
0.3739 0.4406 l
0.3754 0.4420 l
0.3768 0.4433 l
0.3782 0.4447 l
0.3797 0.4461 l
0.3811 0.4475 l
0.3825 0.4488 l
0.3840 0.4502 l
0.3854 0.4515 l
0.3868 0.4528 l
0.3883 0.4542 l
0.3897 0.4555 l
0.3911 0.4568 l
0.3926 0.4581 l
0.3940 0.4594 l
0.3954 0.4607 l
0.3968 0.4620 l
0.3983 0.4633 l
0.3997 0.4646 l
0.4011 0.4659 l
0.4026 0.4672 l
0.4040 0.4684 l
0.4054 0.4697 l
0.4069 0.4709 l
0.4083 0.4722 l
0.4097 0.4734 l
0.4112 0.4747 l
0.4126 0.4759 l
0.4140 0.4771 l
0.4155 0.4784 l
0.4169 0.4796 l
0.4183 0.4808 l
0.4198 0.4820 l
0.4212 0.4832 l
0.4226 0.4844 l
0.4241 0.4856 l
0.4255 0.4868 l
0.4269 0.4880 l
0.4284 0.4891 l
0.4298 0.4903 l
0.4312 0.4915 l
0.4326 0.4926 l
0.4341 0.4938 l
0.4355 0.4950 l
0.4369 0.4961 l
0.4384 0.4973 l
0.4398 0.4984 l
0.4412 0.4995 l
0.4427 0.5007 l
0.4441 0.5018 l
0.4455 0.5029 l
0.4470 0.5040 l
0.4484 0.5051 l
0.4498 0.5063 l
0.4513 0.5074 l
0.4527 0.5085 l
0.4541 0.5096 l
0.4556 0.5107 l
0.4570 0.5117 l
0.4584 0.5128 l
0.4598 0.5139 l
0.4613 0.5150 l
0.4627 0.5161 l
0.4641 0.5171 l
0.4656 0.5182 l
0.4670 0.5193 l
0.4684 0.5203 l
0.4699 0.5214 l
0.4713 0.5224 l
0.4727 0.5235 l
0.4742 0.5245 l
0.4756 0.5256 l
0.4770 0.5266 l
0.4785 0.5276 l
0.4799 0.5287 l
0.4813 0.5297 l
0.4828 0.5307 l
0.4842 0.5317 l
0.4856 0.5327 l
0.4871 0.5337 l
0.4885 0.5347 l
0.4899 0.5358 l
0.4914 0.5368 l
0.4928 0.5377 l
0.4942 0.5387 l
0.4956 0.5397 l
0.4971 0.5407 l
0.4985 0.5417 l
0.4999 0.5427 l
0.5014 0.5437 l
0.5028 0.5446 l
0.5042 0.5456 l
0.5057 0.5466 l
0.5071 0.5475 l
0.5085 0.5485 l
0.5100 0.5495 l
0.5114 0.5504 l
0.5128 0.5514 l
0.5143 0.5523 l
0.5157 0.5533 l
0.5171 0.5542 l
0.5186 0.5551 l
0.5200 0.5561 l
0.5214 0.5570 l
0.5229 0.5579 l
0.5243 0.5589 l
0.5257 0.5598 l
0.5271 0.5607 l
0.5286 0.5616 l
0.5300 0.5626 l
0.5314 0.5635 l
0.5329 0.5644 l
0.5343 0.5653 l
0.5357 0.5662 l
0.5372 0.5671 l
0.5386 0.5680 l
0.5400 0.5689 l
0.5415 0.5698 l
0.5429 0.5707 l
0.5443 0.5716 l
0.5458 0.5725 l
0.5472 0.5733 l
0.5486 0.5742 l
0.5501 0.5751 l
0.5515 0.5760 l
0.5529 0.5769 l
0.5544 0.5777 l
0.5558 0.5786 l
0.5572 0.5795 l
0.5586 0.5803 l
0.5601 0.5812 l
0.5615 0.5820 l
0.5629 0.5829 l
0.5644 0.5838 l
0.5658 0.5846 l
0.5672 0.5855 l
0.5687 0.5863 l
0.5701 0.5871 l
0.5715 0.5880 l
0.5730 0.5888 l
0.5744 0.5897 l
0.5758 0.5905 l
0.5773 0.5913 l
0.5787 0.5922 l
0.5801 0.5930 l
0.5816 0.5938 l
0.5830 0.5946 l
0.5844 0.5955 l
0.5859 0.5963 l
0.5873 0.5971 l
0.5887 0.5979 l
0.5901 0.5987 l
0.5916 0.5995 l
0.5930 0.6003 l
0.5944 0.6011 l
0.5959 0.6020 l
0.5973 0.6028 l
0.5987 0.6036 l
0.6002 0.6043 l
0.6016 0.6051 l
0.6030 0.6059 l
0.6045 0.6067 l
0.6059 0.6075 l
0.6073 0.6083 l
0.6088 0.6091 l
0.6102 0.6099 l
0.6116 0.6107 l
0.6131 0.6114 l
0.6145 0.6122 l
0.6159 0.6130 l
0.6174 0.6138 l
0.6188 0.6145 l
0.6202 0.6153 l
0.6216 0.6161 l
0.6231 0.6168 l
0.6245 0.6176 l
0.6259 0.6183 l
0.6274 0.6191 l
0.6288 0.6199 l
0.6302 0.6206 l
0.6317 0.6214 l
0.6331 0.6221 l
0.6345 0.6229 l
0.6360 0.6236 l
0.6374 0.6244 l
0.6388 0.6251 l
0.6403 0.6259 l
0.6417 0.6266 l
0.6431 0.6273 l
0.6446 0.6281 l
0.6460 0.6288 l
0.6474 0.6295 l
0.6489 0.6303 l
0.6503 0.6310 l
0.6517 0.6317 l
0.6532 0.6325 l
0.6546 0.6332 l
0.6560 0.6339 l
0.6574 0.6346 l
0.6589 0.6353 l
0.6603 0.6361 l
0.6617 0.6368 l
0.6632 0.6375 l
0.6646 0.6382 l
0.6660 0.6389 l
0.6675 0.6396 l
0.6689 0.6403 l
0.6703 0.6410 l
0.6718 0.6417 l
0.6732 0.6424 l
0.6746 0.6431 l
0.6761 0.6438 l
0.6775 0.6445 l
0.6789 0.6452 l
0.6804 0.6459 l
0.6818 0.6466 l
0.6832 0.6473 l
0.6846 0.6480 l
0.6861 0.6487 l
0.6875 0.6494 l
0.6889 0.6501 l
0.6904 0.6507 l
0.6918 0.6514 l
0.6932 0.6521 l
0.6947 0.6528 l
0.6961 0.6535 l
0.6975 0.6541 l
0.6990 0.6548 l
0.7004 0.6555 l
0.7018 0.6562 l
0.7033 0.6568 l
0.7047 0.6575 l
0.7061 0.6582 l
0.7076 0.6588 l
0.7090 0.6595 l
0.7104 0.6602 l
0.7119 0.6608 l
0.7133 0.6615 l
0.7147 0.6621 l
0.7161 0.6628 l
0.7176 0.6635 l
0.7190 0.6641 l
0.7204 0.6648 l
0.7219 0.6654 l
0.7233 0.6661 l
0.7247 0.6667 l
0.7262 0.6674 l
0.7276 0.6680 l
0.7290 0.6686 l
0.7305 0.6693 l
0.7319 0.6699 l
0.7333 0.6706 l
0.7348 0.6712 l
0.7362 0.6719 l
0.7376 0.6725 l
0.7391 0.6731 l
0.7405 0.6738 l
0.7419 0.6744 l
0.7434 0.6750 l
0.7448 0.6756 l
0.7462 0.6763 l
0.7477 0.6769 l
0.7491 0.6775 l
0.7505 0.6782 l
0.7519 0.6788 l
0.7534 0.6794 l
0.7548 0.6800 l
0.7562 0.6806 l
0.7577 0.6813 l
0.7591 0.6819 l
0.7605 0.6825 l
0.7620 0.6831 l
0.7634 0.6837 l
0.7648 0.6843 l
0.7663 0.6849 l
0.7677 0.6856 l
0.7691 0.6862 l
0.7706 0.6868 l
0.7720 0.6874 l
0.7734 0.6880 l
0.7749 0.6886 l
0.7763 0.6892 l
0.7777 0.6898 l
0.7792 0.6904 l
0.7806 0.6910 l
0.7820 0.6916 l
0.7834 0.6922 l
0.7849 0.6928 l
0.7863 0.6934 l
0.7877 0.6940 l
0.7892 0.6946 l
0.7906 0.6951 l
0.7920 0.6957 l
0.7935 0.6963 l
0.7949 0.6969 l
0.7963 0.6975 l
0.7978 0.6981 l
0.7992 0.6987 l
0.8006 0.6992 l
0.8021 0.6998 l
0.8035 0.7004 l
0.8049 0.7010 l
0.8064 0.7016 l
0.8078 0.7021 l
0.8092 0.7027 l
0.8107 0.7033 l
0.8121 0.7039 l
0.8135 0.7044 l
0.8149 0.7050 l
0.8164 0.7056 l
0.8178 0.7062 l
0.8192 0.7067 l
0.8207 0.7073 l
0.8221 0.7079 l
0.8235 0.7084 l
0.8250 0.7090 l
0.8264 0.7096 l
0.8278 0.7101 l
0.8293 0.7107 l
0.8307 0.7112 l
0.8321 0.7118 l
0.8336 0.7124 l
0.8350 0.7129 l
0.8364 0.7135 l
0.8379 0.7140 l
0.8393 0.7146 l
0.8407 0.7151 l
0.8422 0.7157 l
0.8436 0.7162 l
0.8450 0.7168 l
0.8465 0.7173 l
0.8479 0.7179 l
0.8493 0.7184 l
0.8507 0.7190 l
0.8522 0.7195 l
0.8536 0.7201 l
0.8550 0.7206 l
0.8565 0.7212 l
0.8579 0.7217 l
0.8593 0.7222 l
0.8608 0.7228 l
0.8622 0.7233 l
0.8636 0.7239 l
0.8651 0.7244 l
0.8665 0.7249 l
0.8679 0.7255 l
0.8694 0.7260 l
0.8708 0.7265 l
0.8722 0.7271 l
0.8737 0.7276 l
0.8751 0.7281 l
0.8765 0.7287 l
0.8780 0.7292 l
0.8794 0.7297 l
0.8808 0.7302 l
0.8822 0.7308 l
0.8837 0.7313 l
0.8851 0.7318 l
0.8865 0.7323 l
0.8880 0.7329 l
0.8894 0.7334 l
0.8908 0.7339 l
0.8923 0.7344 l
0.8937 0.7349 l
0.8951 0.7355 l
0.8966 0.7360 l
0.8980 0.7365 l
0.8994 0.7370 l
0.9009 0.7375 l
0.9023 0.7380 l
0.9037 0.7385 l
0.9052 0.7391 l
0.9066 0.7396 l
0.9080 0.7401 l
0.9095 0.7406 l
0.9109 0.7411 l
0.9123 0.7416 l
0.9137 0.7421 l
0.9152 0.7426 l
0.9166 0.7431 l
0.9180 0.7436 l
0.9195 0.7441 l
0.9209 0.7446 l
0.9223 0.7451 l
0.9238 0.7456 l
0.9252 0.7461 l
0.9266 0.7466 l
0.9281 0.7471 l
0.9295 0.7476 l
0.9309 0.7481 l
0.9324 0.7486 l
0.9338 0.7491 l
0.9352 0.7496 l
0.9367 0.7501 l
0.9381 0.7506 l
0.9395 0.7511 l
0.9409 0.7516 l
0.9424 0.7521 l
0.9438 0.7526 l
0.9452 0.7530 l
0.9467 0.7535 l
0.9481 0.7540 l
0.9495 0.7545 l
0.9510 0.7550 l
0.9524 0.7555 l
0.9538 0.7560 l
0.9553 0.7564 l
0.9567 0.7569 l
0.9581 0.7574 l
0.9596 0.7579 l
0.9610 0.7584 l
0.9624 0.7588 l
0.9639 0.7593 l
0.9653 0.7598 l
0.9667 0.7603 l
0.9682 0.7608 l
0.9696 0.7612 l
0.9710 0.7617 l
0.9725 0.7622 l
0.9739 0.7627 l
0.9753 0.7631 l
0.9767 0.7636 l
0.9782 0.7641 l
0.9796 0.7645 l
0.9810 0.7650 l
0.9825 0.7655 l
0.9839 0.7660 l
0.9853 0.7664 l
0.9868 0.7669 l
0.9882 0.7674 l
0.9896 0.7678 l
0.9911 0.7683 l
0.9925 0.7688 l
0.9939 0.7692 l
0.9954 0.7697 l
0.9968 0.7701 l
0.9982 0.7706 l
0.9997 0.7711 l
1.0011 0.7715 l
1.0025 0.7720 l
1.0040 0.7724 l
1.0054 0.7729 l
1.0068 0.7734 l
1.0082 0.7738 l
1.0097 0.7743 l
1.0111 0.7747 l
1.0125 0.7752 l
1.0140 0.7756 l
1.0154 0.7761 l
1.0168 0.7765 l
1.0183 0.7770 l
1.0197 0.7774 l
1.0211 0.7779 l
1.0226 0.7783 l
1.0240 0.7788 l
1.0254 0.7792 l
1.0269 0.7797 l
1.0283 0.7801 l
1.0297 0.7806 l
1.0312 0.7810 l
1.0326 0.7815 l
1.0340 0.7819 l
1.0355 0.7824 l
1.0369 0.7828 l
1.0383 0.7833 l
1.0397 0.7837 l
1.0412 0.7841 l
1.0426 0.7846 l
1.0440 0.7850 l
1.0455 0.7855 l
1.0469 0.7859 l
1.0483 0.7863 l
1.0498 0.7868 l
1.0512 0.7872 l
1.0526 0.7877 l
1.0541 0.7881 l
1.0555 0.7885 l
1.0569 0.7890 l
1.0584 0.7894 l
1.0598 0.7898 l
1.0612 0.7903 l
1.0627 0.7907 l
1.0641 0.7911 l
1.0655 0.7916 l
1.0670 0.7920 l
1.0684 0.7924 l
1.0698 0.7928 l
1.0712 0.7933 l
1.0727 0.7937 l
1.0741 0.7941 l
1.0755 0.7946 l
1.0770 0.7950 l
1.0784 0.7954 l
1.0798 0.7958 l
1.0813 0.7963 l
1.0827 0.7967 l
1.0841 0.7971 l
1.0856 0.7975 l
1.0870 0.7979 l
1.0884 0.7984 l
1.0899 0.7988 l
1.0913 0.7992 l
1.0927 0.7996 l
1.0942 0.8001 l
1.0956 0.8005 l
1.0970 0.8009 l
1.0985 0.8013 l
1.0999 0.8017 l
1.1013 0.8021 l
1.1028 0.8026 l
1.1042 0.8030 l
1.1056 0.8034 l
1.1070 0.8038 l
1.1085 0.8042 l
1.1099 0.8046 l
1.1113 0.8050 l
1.1128 0.8055 l
1.1142 0.8059 l
1.1156 0.8063 l
1.1171 0.8067 l
1.1185 0.8071 l
1.1199 0.8075 l
1.1214 0.8079 l
1.1228 0.8083 l
1.1242 0.8087 l
1.1257 0.8091 l
1.1271 0.8095 l
1.1285 0.8099 l
1.1300 0.8104 l
1.1314 0.8108 l
1.1328 0.8112 l
1.1342 0.8116 l
1.1357 0.8120 l
1.1371 0.8124 l
1.1385 0.8128 l
1.1400 0.8132 l
1.1414 0.8136 l
1.1428 0.8140 l
1.1443 0.8144 l
1.1457 0.8148 l
1.1471 0.8152 l
1.1486 0.8156 l
1.1500 0.8160 l
1.1501 0.8160 l
s
[/DeviceRGB] SCS
Color1 SC
[] 0 SD
0.0045 SLW
n
0.1500 0.1500 m
1.1500 0.1500 l
s
n
0.1500 0.8500 m
1.1500 0.8500 l
s
n
0.2750 0.1500 m
0.2750 0.1600 l
s
n
0.2750 0.8500 m
0.2750 0.8400 l
s
n
0.5250 0.1500 m
0.5250 0.1600 l
s
n
0.5250 0.8500 m
0.5250 0.8400 l
s
n
0.7750 0.1500 m
0.7750 0.1600 l
s
n
0.7750 0.8500 m
0.7750 0.8400 l
s
n
1.0250 0.1500 m
1.0250 0.1600 l
s
n
1.0250 0.8500 m
1.0250 0.8400 l
s
n
0.1500 0.1500 m
0.1500 0.1700 l
s
n
0.1500 0.8500 m
0.1500 0.8300 l
s
n
0.4000 0.1500 m
0.4000 0.1700 l
s
n
0.4000 0.8500 m
0.4000 0.8300 l
s
n
0.6500 0.1500 m
0.6500 0.1700 l
s
n
0.6500 0.8500 m
0.6500 0.8300 l
s
n
0.9000 0.1500 m
0.9000 0.1700 l
s
n
0.9000 0.8500 m
0.9000 0.8300 l
s
n
1.1500 0.1500 m
1.1500 0.1700 l
s
n
1.1500 0.8500 m
1.1500 0.8300 l
s
/Times-Roman findfont
dup length dict begin
 {1 index /FID ne {def} {pop pop} ifelse} forall
 /Encoding DefEncoding def
 currentdict
end
/Font0 exch definefont pop
/Font0 FFSF
0.1412 0.1094 m
GS
[0.0448 0.0000 0.0000 0.0448 0 0] CC
(1) show
GR
/Font0 FFSF
0.3894 0.1094 m
GS
[0.0448 0.0000 0.0000 0.0448 0 0] CC
(2) show
GR
/Font0 FFSF
0.6402 0.1094 m
GS
[0.0448 0.0000 0.0000 0.0448 0 0] CC
(3) show
GR
/Font0 FFSF
0.8894 0.1094 m
GS
[0.0448 0.0000 0.0000 0.0448 0 0] CC
(4) show
GR
/Font0 FFSF
1.1402 0.1090 m
GS
[0.0448 0.0000 0.0000 0.0448 0 0] CC
(5) show
GR
/Times-Italic findfont
dup length dict begin
 {1 index /FID ne {def} {pop pop} ifelse} forall
 /Encoding DefEncoding def
 currentdict
end
/Font1 exch definefont pop
/Font1 FFSF
0.6090 0.0645 m
GS
[0.0504 0.0000 0.0000 0.0504 0 0] CC
(n/n) show
GR
/Font1 FFSF
0.6733 0.0443 m
GS
[0.0356 0.0000 0.0000 0.0356 0 0] CC
(0) show
GR
n
0.1500 0.1500 m
0.1500 0.8500 l
s
n
1.1500 0.1500 m
1.1500 0.8500 l
s
n
0.1500 0.2351 m
0.1600 0.2351 l
s
n
1.1500 0.2351 m
1.1400 0.2351 l
s
n
0.1500 0.2848 m
0.1600 0.2848 l
s
n
1.1500 0.2848 m
1.1400 0.2848 l
s
n
0.1500 0.3201 m
0.1600 0.3201 l
s
n
1.1500 0.3201 m
1.1400 0.3201 l
s
n
0.1500 0.3475 m
0.1600 0.3475 l
s
n
1.1500 0.3475 m
1.1400 0.3475 l
s
n
0.1500 0.3699 m
0.1600 0.3699 l
s
n
1.1500 0.3699 m
1.1400 0.3699 l
s
n
0.1500 0.3888 m
0.1600 0.3888 l
s
n
1.1500 0.3888 m
1.1400 0.3888 l
s
n
0.1500 0.4052 m
0.1600 0.4052 l
s
n
1.1500 0.4052 m
1.1400 0.4052 l
s
n
0.1500 0.4197 m
0.1600 0.4197 l
s
n
1.1500 0.4197 m
1.1400 0.4197 l
s
n
0.1500 0.4326 m
0.1600 0.4326 l
s
n
1.1500 0.4326 m
1.1400 0.4326 l
s
n
0.1500 0.5177 m
0.1600 0.5177 l
s
n
1.1500 0.5177 m
1.1400 0.5177 l
s
n
0.1500 0.5674 m
0.1600 0.5674 l
s
n
1.1500 0.5674 m
1.1400 0.5674 l
s
n
0.1500 0.6027 m
0.1600 0.6027 l
s
n
1.1500 0.6027 m
1.1400 0.6027 l
s
n
0.1500 0.6301 m
0.1600 0.6301 l
s
n
1.1500 0.6301 m
1.1400 0.6301 l
s
n
0.1500 0.6525 m
0.1600 0.6525 l
s
n
1.1500 0.6525 m
1.1400 0.6525 l
s
n
0.1500 0.6714 m
0.1600 0.6714 l
s
n
1.1500 0.6714 m
1.1400 0.6714 l
s
n
0.1500 0.6878 m
0.1600 0.6878 l
s
n
1.1500 0.6878 m
1.1400 0.6878 l
s
n
0.1500 0.7022 m
0.1600 0.7022 l
s
n
1.1500 0.7022 m
1.1400 0.7022 l
s
n
0.1500 0.7152 m
0.1600 0.7152 l
s
n
1.1500 0.7152 m
1.1400 0.7152 l
s
n
0.1500 0.8002 m
0.1600 0.8002 l
s
n
1.1500 0.8002 m
1.1400 0.8002 l
s
n
0.1500 0.8500 m
0.1600 0.8500 l
s
n
1.1500 0.8500 m
1.1400 0.8500 l
s
n
0.1500 0.1500 m
0.1700 0.1500 l
s
n
1.1500 0.1500 m
1.1300 0.1500 l
s
n
0.1500 0.4326 m
0.1700 0.4326 l
s
n
1.1500 0.4326 m
1.1300 0.4326 l
s
n
0.1500 0.7152 m
0.1700 0.7152 l
s
n
1.1500 0.7152 m
1.1300 0.7152 l
s
/Font0 FFSF
0.1224 0.1347 m
GS
[0.0448 0.0000 0.0000 0.0448 0 0] CC
(1) show
GR
/Font0 FFSF
0.0965 0.4177 m
GS
[0.0448 0.0000 0.0000 0.0448 0 0] CC
(10) show
GR
/Font0 FFSF
0.0741 0.7003 m
GS
[0.0448 0.0000 0.0000 0.0448 0 0] CC
(100) show
GR
/Font0 FFSF
0.0563 0.3704 m
GS
[0.0000 0.0504 -0.0504 0.0000 0 0] CC
(P [MeVfm) show
GR
/Font0 FFSF
0.0260 0.5873 m
GS
[0.0000 0.0356 -0.0356 0.0000 0 0] CC
(-3) show
GR
/Font0 FFSF
0.0563 0.6171 m
GS
[0.0000 0.0504 -0.0504 0.0000 0 0] CC
(]) show
GR
[] 0 SD
0.0015 SLW
n
0.1500 0.1500 m
0.1500 0.8500 l
1.1500 0.8500 l
1.1500 0.1500 l
0.1500 0.1500 l
c
s
/Font0 FFSF
0.6750 0.5177 m
GS
[0.0538 0.0000 0.0000 0.0538 0 0] CC
(Danielewicz 2012) show
GR
/Font0 FFSF
[/DeviceRGB] SCS
Color4 SC
0.3704 0.2418 m
GS
[0.0538 0.0000 0.0000 0.0538 0 0] CC
(Fuchs 2006) show
GR
n
0.1500 0.8500 m
0.1500 0.5671 l
0.4134 0.5671 l
0.4134 0.8500 l
c
[/DeviceRGB] SCS
Color0 SC
fill
[/DeviceRGB] SCS
Color1 SC
[] 0 SD
0.0045 SLW
n
0.1500 0.8500 m
0.1500 0.5671 l
0.4134 0.5671 l
0.4134 0.8500 l
0.1500 0.8500 l
c
s
/Font0 FFSF
0.2419 0.8055 m
GS
[0.0510 0.0000 0.0000 0.0510 0 0] CC
(LYVA1) show
GR
[] 0 SD
0.0037 SLW
n
0.1619 0.8225 m
0.2219 0.8225 l
s
/Font0 FFSF
0.2419 0.7606 m
GS
[0.0510 0.0000 0.0000 0.0510 0 0] CC
(BCPM) show
GR
[/DeviceRGB] SCS
Color4 SC
[0.0037 0.0112 ] 0 SD
0.0037 SLW
n
0.1619 0.7775 m
0.2219 0.7775 l
s
/Font0 FFSF
[/DeviceRGB] SCS
Color1 SC
0.2419 0.7149 m
GS
[0.0510 0.0000 0.0000 0.0510 0 0] CC
(BSk19) show
GR
[/DeviceRGB] SCS
Color3 SC
[0.0187 0.0112 ] 0 SD
0.0037 SLW
n
0.1619 0.7318 m
0.2219 0.7318 l
s
/Font0 FFSF
[/DeviceRGB] SCS
Color1 SC
0.2419 0.6688 m
GS
[0.0510 0.0000 0.0000 0.0510 0 0] CC
(BSk20) show
GR
[/DeviceRGB] SCS
Color2 SC
n
0.1619 0.6859 m
0.2219 0.6859 l
s
/Font0 FFSF
[/DeviceRGB] SCS
Color1 SC
0.2419 0.6231 m
GS
[0.0510 0.0000 0.0000 0.0510 0 0] CC
(BSk21) show
GR
[/DeviceRGB] SCS
Color15 SC
n
0.1619 0.6402 m
0.2219 0.6402 l
s
/Font0 FFSF
[/DeviceRGB] SCS
Color1 SC
0.2419 0.5778 m
GS
[0.0510 0.0000 0.0000 0.0510 0 0] CC
(LNS) show
GR
[/DeviceRGB] SCS
Color12 SC
[0.0037 0.0112 0.0262 0.0112 ] 0 SD
0.0037 SLW
n
0.1619 0.5947 m
0.2219 0.5947 l
s
%%Trailer
%%BoundingBox: 0 25 711 523
%%DocumentNeededResources: font Times-Roman
%%+ font Times-Italic
%%EOF
