%!PS-Adobe-3.0
%%BoundingBox: 0 0 612 792
%%LanguageLevel: 2
%%Creator: Grace-5.1.25
%%CreationDate: Tue Dec  1 14:18:26 2015
%%DocumentData: Clean8Bit
%%Orientation: Landscape
%%Pages: 1
%%PageOrder: Ascend
%%Title: /Users/ap1450/Dropbox/Physics_Reports_LR/ST_channel_finite_range/Vers2/plots/deltas_gogny.agr
%%For: ap1450
%%DocumentNeededResources: (atend)
%%EndComments
%%BeginProlog
/PAGE_OFFSET_X 0 def
/PAGE_OFFSET_Y 0 def
/m {moveto} def
/l {lineto} def
/s {stroke} def
/n {newpath} def
/c {closepath} def
/RL {rlineto} def
/SLW {setlinewidth} def
/GS {gsave} def
/GR {grestore} def
/SC {setcolor} def
/SGRY {setgray} def
/SRGB {setrgbcolor} def
/SD {setdash} def
/SLC {setlinecap} def
/SLJ {setlinejoin} def
/SCS {setcolorspace} def
/FFSF {findfont setfont} def
/CC {concat} def
/PXL {n m 0 0 RL s} def
/Color0 {1.0000 1.0000 1.0000} def
/Color1 {0.0000 0.0000 0.0000} def
/Color2 {1.0000 0.0000 0.0000} def
/Color3 {0.0000 1.0000 0.0000} def
/Color4 {0.0000 0.0000 1.0000} def
/Color5 {1.0000 1.0000 0.0000} def
/Color6 {0.7373 0.5608 0.5608} def
/Color7 {0.8627 0.8627 0.8627} def
/Color8 {0.5804 0.0000 0.8275} def
/Color9 {0.0000 1.0000 1.0000} def
/Color10 {1.0000 0.0000 1.0000} def
/Color11 {1.0000 0.6471 0.0000} def
/Color12 {0.4471 0.1294 0.7373} def
/Color13 {0.4039 0.0275 0.2824} def
/Color14 {0.2510 0.8784 0.8157} def
/Color15 {0.0000 0.5451 0.0000} def
/Color16 {0.7529 0.7529 0.7529} def
/Color17 {0.5059 0.5059 0.5059} def
/Color18 {0.2588 0.2588 0.2588} def
/PTRN {
 /pat_bits exch def 
 <<
  /PaintType 2
  /PatternType 1 /TilingType 1
  /BBox[0 0 16 16]
  /XStep 16 /YStep 16
  /PaintProc {
   pop
   16 16 true [-1 0 0 -1 16 16] pat_bits imagemask
  }
 >>
 [0.0016 0 0 0.0016 0 0]
 makepattern
} def
/Pattern0 {<0000000000000000000000000000000000000000000000000000000000000000> PTRN} bind def
/Pattern1 {<ffffffffffffffffffffffffffffffffffffffffffffffffffffffffffffffff> PTRN} bind def
/Pattern2 {<eeeeffffbbbbffffeeeeffffbbbbffffeeeeffffbbbbffffeeeeffffbbbbffff> PTRN} bind def
/Pattern3 {<eeeebbbbeeeebbbbeeeebbbbeeeebbbbeeeebbbbeeeebbbbeeeebbbbeeeebbbb> PTRN} bind def
/Pattern4 {<5555aaaa5555aaaa5555aaaa5555aaaa5555aaaa5555aaaa5555aaaa5555aaaa> PTRN} bind def
/Pattern5 {<1111444411114444111144441111444411114444111144441111444411114444> PTRN} bind def
/Pattern6 {<1111000044440000111100004444000011110000444400001111000044440000> PTRN} bind def
/Pattern7 {<1010000000000000010100000000000010100000000000000101000000000000> PTRN} bind def
/Pattern8 {<0000000000000000000000000000000000000000000000000000000000000000> PTRN} bind def
/Pattern9 {<1e1e0f0f8787c3c3e1e1f0f078783c3c1e1e0f0f8787c3c3e1e1f0f078783c3c> PTRN} bind def
/Pattern10 {<7878f0f0e1e1c3c387870f0f1e1e3c3c7878f0f0e1e1c3c387870f0f1e1e3c3c> PTRN} bind def
/Pattern11 {<3333333333333333333333333333333333333333333333333333333333333333> PTRN} bind def
/Pattern12 {<ffffffff00000000ffffffff00000000ffffffff00000000ffffffff00000000> PTRN} bind def
/Pattern13 {<8181424224241818181824244242818181814242242418181818242442428181> PTRN} bind def
/Pattern14 {<8080404020201010080804040202010180804040202010100808040402020101> PTRN} bind def
/Pattern15 {<0101020204040808101020204040808001010202040408081010202040408080> PTRN} bind def
/Pattern16 {<2222222222222222222222222222222222222222222222222222222222222222> PTRN} bind def
/Pattern17 {<0000ffff000000000000ffff000000000000ffff000000000000ffff00000000> PTRN} bind def
/Pattern18 {<2222ffff222222222222ffff222222222222ffff222222222222ffff22222222> PTRN} bind def
/Pattern19 {<ffffffff33333333ffffffff33333333ffffffff33333333ffffffff33333333> PTRN} bind def
/Pattern20 {<0f0f0f0f0f0f0f0ff0f0f0f0f0f0f0f00f0f0f0f0f0f0f0ff0f0f0f0f0f0f0f0> PTRN} bind def
/Pattern21 {<ff00ff00ff00ff00ff00ff00ff00ff0000ff00ff00ff00ff00ff00ff00ff00ff> PTRN} bind def
/Pattern22 {<8001800180018001800180018001ffffffff8001800180018001800180018001> PTRN} bind def
/Pattern23 {<c003c003c003c003c003c003ffffffffffffffffc003c003c003c003c003c003> PTRN} bind def
/Pattern24 {<040404040404ffff404040404040ffff040404040404ffff404040404040ffff> PTRN} bind def
/Pattern25 {<180018001800180018001800ffffffff001800180018001800180018ffffffff> PTRN} bind def
/Pattern26 {<1111b8b87c7c3a3a1111a3a3c7c78b8b1111b8b87c7c3a3a1111a3a3c7c78b8b> PTRN} bind def
/Pattern27 {<101010102828c7c70101010182827c7c101010102828c7c70101010182827c7c> PTRN} bind def
/Pattern28 {<1c1c121211112121c1c12121111112121c1c121211112121c1c1212111111212> PTRN} bind def
/Pattern29 {<3e3e414180808080e3e31414080808083e3e414180808080e3e3141408080808> PTRN} bind def
/Pattern30 {<4848888884848383848488884848383848488888848483838484888848483838> PTRN} bind def
/Pattern31 {<03030404080808080c0c12122121c0c003030404080808080c0c12122121c0c0> PTRN} bind def
/ellipsedict 8 dict def
ellipsedict /mtrx matrix put
/EARC {
 ellipsedict begin
  /endangle exch def
  /startangle exch def
  /yrad exch def
  /xrad exch def
  /y exch def
  /x exch def
  /savematrix mtrx currentmatrix def
  x y translate
  xrad yrad scale
  0 0 1 startangle endangle arc
  savematrix setmatrix
 end
} def
/TL {
  /kcomp exch def
  /linewidth exch def
  /offset exch def
  GS
  0 offset rmoveto
  linewidth SLW
  dup stringwidth exch kcomp add exch RL s
  GR
} def
/KINIT
{
 /kvector exch def
 /kid 0 def
} def
/KPROC
{
 pop pop
 kvector kid get
 0 rmoveto
 /kid 1 kid add def
} def
/DefEncoding [
 /.notdef
 /.notdef
 /.notdef
 /.notdef
 /.notdef
 /.notdef
 /.notdef
 /.notdef
 /.notdef
 /.notdef
 /.notdef
 /.notdef
 /.notdef
 /.notdef
 /.notdef
 /.notdef
 /.notdef
 /.notdef
 /.notdef
 /.notdef
 /.notdef
 /.notdef
 /.notdef
 /.notdef
 /.notdef
 /.notdef
 /.notdef
 /.notdef
 /.notdef
 /.notdef
 /.notdef
 /.notdef
 /space
 /exclam
 /quotedbl
 /numbersign
 /dollar
 /percent
 /ampersand
 /quoteright
 /parenleft
 /parenright
 /asterisk
 /plus
 /comma
 /hyphen
 /period
 /slash
 /zero
 /one
 /two
 /three
 /four
 /five
 /six
 /seven
 /eight
 /nine
 /colon
 /semicolon
 /less
 /equal
 /greater
 /question
 /at
 /A
 /B
 /C
 /D
 /E
 /F
 /G
 /H
 /I
 /J
 /K
 /L
 /M
 /N
 /O
 /P
 /Q
 /R
 /S
 /T
 /U
 /V
 /W
 /X
 /Y
 /Z
 /bracketleft
 /backslash
 /bracketright
 /asciicircum
 /underscore
 /grave
 /a
 /b
 /c
 /d
 /e
 /f
 /g
 /h
 /i
 /j
 /k
 /l
 /m
 /n
 /o
 /p
 /q
 /r
 /s
 /t
 /u
 /v
 /w
 /x
 /y
 /z
 /braceleft
 /bar
 /braceright
 /asciitilde
 /.notdef
 /.notdef
 /.notdef
 /.notdef
 /.notdef
 /.notdef
 /.notdef
 /.notdef
 /.notdef
 /.notdef
 /.notdef
 /.notdef
 /.notdef
 /.notdef
 /.notdef
 /.notdef
 /.notdef
 /.notdef
 /.notdef
 /.notdef
 /.notdef
 /.notdef
 /.notdef
 /.notdef
 /.notdef
 /.notdef
 /.notdef
 /.notdef
 /.notdef
 /.notdef
 /.notdef
 /.notdef
 /.notdef
 /space
 /exclamdown
 /cent
 /sterling
 /currency
 /yen
 /brokenbar
 /section
 /dieresis
 /copyright
 /ordfeminine
 /guillemotleft
 /logicalnot
 /hyphen
 /registered
 /macron
 /degree
 /plusminus
 /twosuperior
 /threesuperior
 /acute
 /mu
 /paragraph
 /periodcentered
 /cedilla
 /onesuperior
 /ordmasculine
 /guillemotright
 /onequarter
 /onehalf
 /threequarters
 /questiondown
 /Agrave
 /Aacute
 /Acircumflex
 /Atilde
 /Adieresis
 /Aring
 /AE
 /Ccedilla
 /Egrave
 /Eacute
 /Ecircumflex
 /Edieresis
 /Igrave
 /Iacute
 /Icircumflex
 /Idieresis
 /Eth
 /Ntilde
 /Ograve
 /Oacute
 /Ocircumflex
 /Otilde
 /Odieresis
 /multiply
 /Oslash
 /Ugrave
 /Uacute
 /Ucircumflex
 /Udieresis
 /Yacute
 /Thorn
 /germandbls
 /agrave
 /aacute
 /acircumflex
 /atilde
 /adieresis
 /aring
 /ae
 /ccedilla
 /egrave
 /eacute
 /ecircumflex
 /edieresis
 /igrave
 /iacute
 /icircumflex
 /idieresis
 /eth
 /ntilde
 /ograve
 /oacute
 /ocircumflex
 /otilde
 /odieresis
 /divide
 /oslash
 /ugrave
 /uacute
 /ucircumflex
 /udieresis
 /yacute
 /thorn
 /ydieresis
] def
%%EndProlog
%%BeginSetup
%%EndSetup
%%Page: 1 1
PAGE_OFFSET_X PAGE_OFFSET_Y translate
612.00 612.00 scale
90 rotate
0.0 -1.0 translate
n
0.0000 0.0000 m
0.0000 1.0000 l
1.2941 1.0000 l
1.2941 0.0000 l
c
[/DeviceRGB] SCS
Color0 SC
fill
n
0.1572 0.5141 m
0.1572 0.5268 l
0.1700 0.5268 l
0.1700 0.5141 l
c
GS
Color0 SRGB
fill
GR
[/Pattern /DeviceRGB] SCS
Color1 Pattern8 SC
fill
[/DeviceRGB] SCS
Color1 SC
[] 0 SD
0.0030 SLW
0 SLC
0 SLJ
n
0.1572 0.5141 m
0.1572 0.5268 l
0.1700 0.5268 l
0.1700 0.5141 l
0.1572 0.5141 l
c
s
n
0.1845 0.5251 m
0.1845 0.5379 l
0.1972 0.5379 l
0.1972 0.5251 l
c
GS
Color0 SRGB
fill
GR
[/Pattern /DeviceRGB] SCS
Color1 Pattern8 SC
fill
[/DeviceRGB] SCS
Color1 SC
n
0.1845 0.5251 m
0.1845 0.5379 l
0.1972 0.5379 l
0.1972 0.5251 l
0.1845 0.5251 l
c
s
n
0.2117 0.5397 m
0.2117 0.5524 l
0.2245 0.5524 l
0.2245 0.5397 l
c
GS
Color0 SRGB
fill
GR
[/Pattern /DeviceRGB] SCS
Color1 Pattern8 SC
fill
[/DeviceRGB] SCS
Color1 SC
n
0.2117 0.5397 m
0.2117 0.5524 l
0.2245 0.5524 l
0.2245 0.5397 l
0.2117 0.5397 l
c
s
n
0.2390 0.5581 m
0.2390 0.5708 l
0.2517 0.5708 l
0.2517 0.5581 l
c
GS
Color0 SRGB
fill
GR
[/Pattern /DeviceRGB] SCS
Color1 Pattern8 SC
fill
[/DeviceRGB] SCS
Color1 SC
n
0.2390 0.5581 m
0.2390 0.5708 l
0.2517 0.5708 l
0.2517 0.5581 l
0.2390 0.5581 l
c
s
n
0.2662 0.5810 m
0.2662 0.5938 l
0.2789 0.5938 l
0.2789 0.5810 l
c
GS
Color0 SRGB
fill
GR
[/Pattern /DeviceRGB] SCS
Color1 Pattern8 SC
fill
[/DeviceRGB] SCS
Color1 SC
n
0.2662 0.5810 m
0.2662 0.5938 l
0.2789 0.5938 l
0.2789 0.5810 l
0.2662 0.5810 l
c
s
n
0.2934 0.6094 m
0.2934 0.6221 l
0.3062 0.6221 l
0.3062 0.6094 l
c
GS
Color0 SRGB
fill
GR
[/Pattern /DeviceRGB] SCS
Color1 Pattern8 SC
fill
[/DeviceRGB] SCS
Color1 SC
n
0.2934 0.6094 m
0.2934 0.6221 l
0.3062 0.6221 l
0.3062 0.6094 l
0.2934 0.6094 l
c
s
n
0.3207 0.6441 m
0.3207 0.6569 l
0.3334 0.6569 l
0.3334 0.6441 l
c
GS
Color0 SRGB
fill
GR
[/Pattern /DeviceRGB] SCS
Color1 Pattern8 SC
fill
[/DeviceRGB] SCS
Color1 SC
n
0.3207 0.6441 m
0.3207 0.6569 l
0.3334 0.6569 l
0.3334 0.6441 l
0.3207 0.6441 l
c
s
n
0.3479 0.6866 m
0.3479 0.6993 l
0.3607 0.6993 l
0.3607 0.6866 l
c
GS
Color0 SRGB
fill
GR
[/Pattern /DeviceRGB] SCS
Color1 Pattern8 SC
fill
[/DeviceRGB] SCS
Color1 SC
n
0.3479 0.6866 m
0.3479 0.6993 l
0.3607 0.6993 l
0.3607 0.6866 l
0.3479 0.6866 l
c
s
n
0.3752 0.7384 m
0.3752 0.7512 l
0.3879 0.7512 l
0.3879 0.7384 l
c
GS
Color0 SRGB
fill
GR
[/Pattern /DeviceRGB] SCS
Color1 Pattern8 SC
fill
[/DeviceRGB] SCS
Color1 SC
n
0.3752 0.7384 m
0.3752 0.7512 l
0.3879 0.7512 l
0.3879 0.7384 l
0.3752 0.7384 l
c
s
n
0.4024 0.8015 m
0.4024 0.8142 l
0.4151 0.8142 l
0.4151 0.8015 l
c
GS
Color0 SRGB
fill
GR
[/Pattern /DeviceRGB] SCS
Color1 Pattern8 SC
fill
[/DeviceRGB] SCS
Color1 SC
n
0.4024 0.8015 m
0.4024 0.8142 l
0.4151 0.8142 l
0.4151 0.8015 l
0.4024 0.8015 l
c
s
[] 0 SD
0.0037 SLW
n
0.1499 0.4995 m
0.1500 0.4995 l
0.1527 0.4994 l
0.1554 0.4994 l
0.1582 0.4993 l
0.1609 0.4993 l
0.1636 0.4993 l
0.1663 0.4992 l
0.1691 0.4992 l
0.1718 0.4991 l
0.1745 0.4991 l
0.1772 0.4990 l
0.1800 0.4989 l
0.1827 0.4989 l
0.1854 0.4988 l
0.1881 0.4987 l
0.1909 0.4987 l
0.1936 0.4986 l
0.1963 0.4985 l
0.1990 0.4984 l
0.2018 0.4983 l
0.2045 0.4983 l
0.2072 0.4982 l
0.2099 0.4981 l
0.2126 0.4980 l
0.2154 0.4979 l
0.2181 0.4977 l
0.2208 0.4976 l
0.2235 0.4975 l
0.2263 0.4974 l
0.2290 0.4973 l
0.2317 0.4971 l
0.2344 0.4970 l
0.2372 0.4968 l
0.2399 0.4967 l
0.2426 0.4965 l
0.2453 0.4964 l
0.2481 0.4962 l
0.2508 0.4960 l
0.2535 0.4958 l
0.2562 0.4956 l
0.2590 0.4955 l
0.2617 0.4953 l
0.2644 0.4950 l
0.2671 0.4948 l
0.2699 0.4946 l
0.2726 0.4944 l
0.2753 0.4941 l
0.2780 0.4939 l
0.2807 0.4936 l
0.2835 0.4934 l
0.2862 0.4931 l
0.2889 0.4928 l
0.2916 0.4925 l
0.2944 0.4922 l
0.2971 0.4919 l
0.2998 0.4916 l
0.3025 0.4913 l
0.3053 0.4909 l
0.3080 0.4906 l
0.3107 0.4902 l
0.3134 0.4899 l
0.3162 0.4895 l
0.3189 0.4891 l
0.3216 0.4887 l
0.3243 0.4883 l
0.3271 0.4878 l
0.3298 0.4874 l
0.3325 0.4870 l
0.3352 0.4865 l
0.3379 0.4860 l
0.3407 0.4855 l
0.3434 0.4850 l
0.3461 0.4845 l
0.3488 0.4840 l
0.3516 0.4834 l
0.3543 0.4828 l
0.3570 0.4823 l
0.3597 0.4817 l
0.3625 0.4811 l
0.3652 0.4804 l
0.3679 0.4798 l
0.3706 0.4791 l
0.3734 0.4784 l
0.3761 0.4777 l
0.3788 0.4770 l
0.3815 0.4763 l
0.3843 0.4756 l
0.3870 0.4748 l
0.3897 0.4740 l
0.3924 0.4732 l
0.3951 0.4724 l
0.3979 0.4715 l
0.4006 0.4706 l
0.4033 0.4698 l
0.4060 0.4688 l
0.4088 0.4679 l
0.4115 0.4670 l
0.4142 0.4660 l
0.4169 0.4650 l
0.4197 0.4640 l
0.4224 0.4629 l
0.4225 0.4629 l
s
[/DeviceRGB] SCS
Color2 SC
[0.0187 0.0112 ] 0 SD
0.0037 SLW
n
0.1499 0.5079 m
0.1500 0.5079 l
0.1527 0.5083 l
0.1554 0.5087 l
0.1582 0.5091 l
0.1609 0.5095 l
0.1636 0.5100 l
0.1663 0.5104 l
0.1691 0.5109 l
0.1718 0.5114 l
0.1745 0.5118 l
0.1772 0.5123 l
0.1800 0.5128 l
0.1827 0.5133 l
0.1854 0.5138 l
0.1881 0.5143 l
0.1909 0.5148 l
0.1936 0.5152 l
0.1963 0.5157 l
0.1990 0.5162 l
0.2018 0.5167 l
0.2045 0.5172 l
0.2072 0.5177 l
0.2099 0.5181 l
0.2126 0.5186 l
0.2154 0.5190 l
0.2181 0.5194 l
0.2208 0.5198 l
0.2235 0.5202 l
0.2263 0.5206 l
0.2290 0.5210 l
0.2317 0.5213 l
0.2344 0.5216 l
0.2372 0.5218 l
0.2399 0.5221 l
0.2426 0.5223 l
0.2453 0.5225 l
0.2481 0.5226 l
0.2508 0.5227 l
0.2535 0.5227 l
0.2562 0.5227 l
0.2590 0.5226 l
0.2617 0.5225 l
0.2644 0.5223 l
0.2671 0.5221 l
0.2699 0.5218 l
0.2726 0.5214 l
0.2753 0.5210 l
0.2780 0.5205 l
0.2807 0.5199 l
0.2835 0.5192 l
0.2862 0.5184 l
0.2889 0.5176 l
0.2916 0.5166 l
0.2944 0.5156 l
0.2971 0.5144 l
0.2998 0.5132 l
0.3025 0.5118 l
0.3053 0.5103 l
0.3080 0.5087 l
0.3107 0.5069 l
0.3134 0.5051 l
0.3162 0.5031 l
0.3189 0.5009 l
0.3216 0.4986 l
0.3243 0.4962 l
0.3271 0.4936 l
0.3298 0.4908 l
0.3325 0.4879 l
0.3352 0.4848 l
0.3379 0.4815 l
0.3407 0.4780 l
0.3434 0.4744 l
0.3461 0.4705 l
0.3488 0.4665 l
0.3516 0.4622 l
0.3543 0.4578 l
0.3570 0.4531 l
0.3597 0.4482 l
0.3625 0.4430 l
0.3652 0.4377 l
0.3679 0.4321 l
0.3706 0.4262 l
0.3734 0.4201 l
0.3761 0.4137 l
0.3788 0.4071 l
0.3815 0.4002 l
0.3843 0.3930 l
0.3870 0.3855 l
0.3897 0.3778 l
0.3924 0.3697 l
0.3951 0.3614 l
0.3979 0.3527 l
0.4006 0.3437 l
0.4033 0.3344 l
0.4060 0.3248 l
0.4088 0.3148 l
0.4115 0.3045 l
0.4142 0.2938 l
0.4169 0.2828 l
0.4197 0.2714 l
0.4224 0.2597 l
0.4225 0.2592 l
s
[/DeviceRGB] SCS
Color4 SC
[0.0037 0.0112 0.0187 0.0112 ] 0 SD
0.0037 SLW
n
0.1499 0.5118 m
0.1500 0.5118 l
0.1527 0.5125 l
0.1554 0.5133 l
0.1582 0.5140 l
0.1609 0.5148 l
0.1636 0.5156 l
0.1663 0.5165 l
0.1691 0.5174 l
0.1718 0.5183 l
0.1745 0.5192 l
0.1772 0.5202 l
0.1800 0.5212 l
0.1827 0.5222 l
0.1854 0.5233 l
0.1881 0.5244 l
0.1909 0.5255 l
0.1936 0.5267 l
0.1963 0.5279 l
0.1990 0.5291 l
0.2018 0.5303 l
0.2045 0.5316 l
0.2072 0.5329 l
0.2099 0.5343 l
0.2126 0.5356 l
0.2154 0.5371 l
0.2181 0.5385 l
0.2208 0.5399 l
0.2235 0.5414 l
0.2263 0.5429 l
0.2290 0.5445 l
0.2317 0.5460 l
0.2344 0.5476 l
0.2372 0.5492 l
0.2399 0.5508 l
0.2426 0.5525 l
0.2453 0.5541 l
0.2481 0.5558 l
0.2508 0.5575 l
0.2535 0.5592 l
0.2562 0.5609 l
0.2590 0.5626 l
0.2617 0.5643 l
0.2644 0.5661 l
0.2671 0.5678 l
0.2699 0.5696 l
0.2726 0.5713 l
0.2753 0.5730 l
0.2780 0.5747 l
0.2807 0.5764 l
0.2835 0.5781 l
0.2862 0.5798 l
0.2889 0.5815 l
0.2916 0.5831 l
0.2944 0.5848 l
0.2971 0.5864 l
0.2998 0.5879 l
0.3025 0.5894 l
0.3053 0.5909 l
0.3080 0.5924 l
0.3107 0.5937 l
0.3134 0.5951 l
0.3162 0.5964 l
0.3189 0.5976 l
0.3216 0.5988 l
0.3243 0.5998 l
0.3271 0.6009 l
0.3298 0.6018 l
0.3325 0.6026 l
0.3352 0.6034 l
0.3379 0.6041 l
0.3407 0.6046 l
0.3434 0.6051 l
0.3461 0.6054 l
0.3488 0.6057 l
0.3516 0.6058 l
0.3543 0.6058 l
0.3570 0.6056 l
0.3597 0.6053 l
0.3625 0.6049 l
0.3652 0.6043 l
0.3679 0.6035 l
0.3706 0.6026 l
0.3734 0.6015 l
0.3761 0.6002 l
0.3788 0.5987 l
0.3815 0.5970 l
0.3843 0.5952 l
0.3870 0.5931 l
0.3897 0.5907 l
0.3924 0.5882 l
0.3951 0.5854 l
0.3979 0.5824 l
0.4006 0.5791 l
0.4033 0.5756 l
0.4060 0.5718 l
0.4088 0.5677 l
0.4115 0.5633 l
0.4142 0.5586 l
0.4169 0.5536 l
0.4197 0.5484 l
0.4224 0.5427 l
0.4225 0.5425 l
s
[/DeviceRGB] SCS
Color11 SC
[0.0037 0.0112 0.0187 0.0112 0.0037 0.0112 ] 0 SD
0.0037 SLW
n
0.1499 0.4886 m
0.1500 0.4886 l
0.1527 0.4879 l
0.1554 0.4871 l
0.1582 0.4863 l
0.1609 0.4855 l
0.1636 0.4847 l
0.1663 0.4838 l
0.1691 0.4829 l
0.1718 0.4819 l
0.1745 0.4809 l
0.1772 0.4799 l
0.1800 0.4788 l
0.1827 0.4777 l
0.1854 0.4765 l
0.1881 0.4753 l
0.1909 0.4741 l
0.1936 0.4728 l
0.1963 0.4715 l
0.1990 0.4701 l
0.2018 0.4687 l
0.2045 0.4672 l
0.2072 0.4657 l
0.2099 0.4641 l
0.2126 0.4625 l
0.2154 0.4608 l
0.2181 0.4591 l
0.2208 0.4573 l
0.2235 0.4555 l
0.2263 0.4536 l
0.2290 0.4516 l
0.2317 0.4496 l
0.2344 0.4476 l
0.2372 0.4455 l
0.2399 0.4433 l
0.2426 0.4411 l
0.2453 0.4388 l
0.2481 0.4364 l
0.2508 0.4340 l
0.2535 0.4316 l
0.2562 0.4290 l
0.2590 0.4264 l
0.2617 0.4238 l
0.2644 0.4211 l
0.2671 0.4183 l
0.2699 0.4155 l
0.2726 0.4125 l
0.2753 0.4096 l
0.2780 0.4065 l
0.2807 0.4034 l
0.2835 0.4002 l
0.2862 0.3970 l
0.2889 0.3937 l
0.2916 0.3903 l
0.2944 0.3869 l
0.2971 0.3834 l
0.2998 0.3798 l
0.3025 0.3761 l
0.3053 0.3724 l
0.3080 0.3686 l
0.3107 0.3647 l
0.3134 0.3608 l
0.3162 0.3568 l
0.3189 0.3527 l
0.3216 0.3486 l
0.3243 0.3443 l
0.3271 0.3400 l
0.3298 0.3357 l
0.3325 0.3312 l
0.3352 0.3267 l
0.3379 0.3221 l
0.3407 0.3175 l
0.3434 0.3127 l
0.3461 0.3079 l
0.3488 0.3031 l
0.3516 0.2981 l
0.3543 0.2931 l
0.3570 0.2880 l
0.3597 0.2828 l
0.3625 0.2775 l
0.3652 0.2722 l
0.3679 0.2668 l
0.3706 0.2613 l
0.3734 0.2558 l
0.3761 0.2502 l
0.3788 0.2444 l
0.3815 0.2387 l
0.3843 0.2328 l
0.3870 0.2269 l
0.3897 0.2209 l
0.3924 0.2148 l
0.3951 0.2087 l
0.3979 0.2024 l
0.4006 0.1961 l
0.4033 0.1898 l
0.4060 0.1833 l
0.4088 0.1768 l
0.4115 0.1702 l
0.4142 0.1635 l
0.4169 0.1568 l
0.4197 0.1499 l
0.4197 0.1499 l
s
[/DeviceRGB] SCS
Color1 SC
[] 0 SD
0.0045 SLW
n
0.1500 0.1500 m
0.4224 0.1500 l
s
n
0.1500 0.8500 m
0.4224 0.8500 l
s
n
0.1500 0.1500 m
0.1500 0.1600 l
s
n
0.1500 0.8500 m
0.1500 0.8400 l
s
n
0.2317 0.1500 m
0.2317 0.1600 l
s
n
0.2317 0.8500 m
0.2317 0.8400 l
s
n
0.3134 0.1500 m
0.3134 0.1600 l
s
n
0.3134 0.8500 m
0.3134 0.8400 l
s
n
0.3951 0.1500 m
0.3951 0.1600 l
s
n
0.3951 0.8500 m
0.3951 0.8400 l
s
n
0.1909 0.1500 m
0.1909 0.1700 l
s
n
0.1909 0.8500 m
0.1909 0.8300 l
s
n
0.2726 0.1500 m
0.2726 0.1700 l
s
n
0.2726 0.8500 m
0.2726 0.8300 l
s
n
0.3543 0.1500 m
0.3543 0.1700 l
s
n
0.3543 0.8500 m
0.3543 0.8300 l
s
/Times-Roman findfont
dup length dict begin
 {1 index /FID ne {def} {pop pop} ifelse} forall
 /Encoding DefEncoding def
 currentdict
end
/Font0 exch definefont pop
/Font0 FFSF
0.1638 0.1094 m
GS
[0.0448 0.0000 0.0000 0.0448 0 0] CC
(0.9) show
GR
/Font0 FFSF
0.2451 0.1094 m
GS
[0.0448 0.0000 0.0000 0.0448 0 0] CC
(1.2) show
GR
/Font0 FFSF
0.3276 0.1090 m
GS
[0.0448 0.0000 0.0000 0.0448 0 0] CC
(1.5) show
GR
n
0.1500 0.1500 m
0.1500 0.8500 l
s
n
0.4224 0.1500 m
0.4224 0.8500 l
s
n
0.1500 0.2426 m
0.1600 0.2426 l
s
n
0.4224 0.2426 m
0.4124 0.2426 l
s
n
0.1500 0.3456 m
0.1600 0.3456 l
s
n
0.4224 0.3456 m
0.4124 0.3456 l
s
n
0.1500 0.4485 m
0.1600 0.4485 l
s
n
0.4224 0.4485 m
0.4124 0.4485 l
s
n
0.1500 0.5515 m
0.1600 0.5515 l
s
n
0.4224 0.5515 m
0.4124 0.5515 l
s
n
0.1500 0.6544 m
0.1600 0.6544 l
s
n
0.4224 0.6544 m
0.4124 0.6544 l
s
n
0.1500 0.7574 m
0.1600 0.7574 l
s
n
0.4224 0.7574 m
0.4124 0.7574 l
s
n
0.1500 0.1912 m
0.1700 0.1912 l
s
n
0.4224 0.1912 m
0.4024 0.1912 l
s
n
0.1500 0.2941 m
0.1700 0.2941 l
s
n
0.4224 0.2941 m
0.4024 0.2941 l
s
n
0.1500 0.3971 m
0.1700 0.3971 l
s
n
0.4224 0.3971 m
0.4024 0.3971 l
s
n
0.1500 0.5000 m
0.1700 0.5000 l
s
n
0.4224 0.5000 m
0.4024 0.5000 l
s
n
0.1500 0.6029 m
0.1700 0.6029 l
s
n
0.4224 0.6029 m
0.4024 0.6029 l
s
n
0.1500 0.7059 m
0.1700 0.7059 l
s
n
0.4224 0.7059 m
0.4024 0.7059 l
s
n
0.1500 0.8088 m
0.1700 0.8088 l
s
n
0.4224 0.8088 m
0.4024 0.8088 l
s
/Font0 FFSF
0.0831 0.1761 m
GS
[0.0448 0.0000 0.0000 0.0448 0 0] CC
(-15) show
GR
/Font0 FFSF
0.0816 0.2792 m
GS
[0.0448 0.0000 0.0000 0.0448 0 0] CC
(-10) show
GR
/Font0 FFSF
0.1055 0.3820 m
GS
[0.0448 0.0000 0.0000 0.0448 0 0] CC
(-5) show
GR
/Font0 FFSF
0.1188 0.4851 m
GS
[0.0448 0.0000 0.0000 0.0448 0 0] CC
(0) show
GR
/Font0 FFSF
0.1204 0.5878 m
GS
[0.0448 0.0000 0.0000 0.0448 0 0] CC
(5) show
GR
/Font0 FFSF
0.0965 0.6910 m
GS
[0.0448 0.0000 0.0000 0.0448 0 0] CC
(10) show
GR
/Font0 FFSF
0.0980 0.7937 m
GS
[0.0448 0.0000 0.0000 0.0448 0 0] CC
(15) show
GR
[] 0 SD
0.0015 SLW
n
0.1500 0.1500 m
0.1500 0.8500 l
0.4224 0.8500 l
0.4224 0.1500 l
0.1500 0.1500 l
c
s
/Symbol findfont
/Font12 exch definefont pop
/Font12 FFSF
0.2070 0.8868 m
GS
[0.0420 0.0000 0.0000 0.0420 0 0] CC
(d) show
GR
/Font0 FFSF
0.2278 0.8700 m
GS
[0.0297 0.0000 0.0000 0.0297 0 0] CC
(P) show
GR
/Font0 FFSF
0.2442 0.8868 m
GS
[0.0420 0.0000 0.0000 0.0420 0 0] CC
( [MeV]) show
GR
[] 0 SD
0.0037 SLW
n
0.5108 0.7882 m
0.5109 0.7882 l
0.5136 0.7882 l
0.5163 0.7882 l
0.5190 0.7882 l
0.5218 0.7882 l
0.5245 0.7882 l
0.5272 0.7882 l
0.5299 0.7882 l
0.5327 0.7882 l
0.5354 0.7882 l
0.5381 0.7882 l
0.5408 0.7882 l
0.5436 0.7882 l
0.5463 0.7882 l
0.5490 0.7882 l
0.5517 0.7882 l
0.5544 0.7882 l
0.5572 0.7882 l
0.5599 0.7882 l
0.5626 0.7882 l
0.5653 0.7882 l
0.5681 0.7882 l
0.5708 0.7882 l
0.5735 0.7882 l
0.5762 0.7882 l
0.5790 0.7882 l
0.5817 0.7882 l
0.5844 0.7882 l
0.5871 0.7882 l
0.5899 0.7882 l
0.5926 0.7882 l
0.5953 0.7882 l
0.5980 0.7882 l
0.6008 0.7882 l
0.6035 0.7882 l
0.6062 0.7882 l
0.6089 0.7882 l
0.6116 0.7882 l
0.6144 0.7882 l
0.6171 0.7882 l
0.6198 0.7882 l
0.6225 0.7882 l
0.6253 0.7882 l
0.6280 0.7882 l
0.6307 0.7882 l
0.6334 0.7882 l
0.6362 0.7882 l
0.6389 0.7882 l
0.6416 0.7882 l
0.6443 0.7882 l
0.6471 0.7882 l
0.6498 0.7882 l
0.6525 0.7882 l
0.6552 0.7882 l
0.6580 0.7882 l
0.6607 0.7882 l
0.6634 0.7882 l
0.6661 0.7882 l
0.6689 0.7882 l
0.6716 0.7882 l
0.6743 0.7882 l
0.6770 0.7882 l
0.6797 0.7882 l
0.6825 0.7882 l
0.6852 0.7882 l
0.6879 0.7882 l
0.6906 0.7882 l
0.6934 0.7882 l
0.6961 0.7882 l
0.6988 0.7882 l
0.7015 0.7882 l
0.7043 0.7882 l
0.7070 0.7882 l
0.7097 0.7882 l
0.7124 0.7882 l
0.7152 0.7882 l
0.7179 0.7882 l
0.7206 0.7882 l
0.7233 0.7882 l
0.7261 0.7882 l
0.7288 0.7882 l
0.7315 0.7882 l
0.7342 0.7882 l
0.7369 0.7882 l
0.7397 0.7882 l
0.7424 0.7882 l
0.7451 0.7882 l
0.7478 0.7882 l
0.7506 0.7882 l
0.7533 0.7882 l
0.7560 0.7882 l
0.7587 0.7882 l
0.7615 0.7882 l
0.7642 0.7882 l
0.7669 0.7882 l
0.7696 0.7882 l
0.7724 0.7882 l
0.7751 0.7882 l
0.7778 0.7882 l
0.7805 0.7882 l
0.7833 0.7882 l
0.7834 0.7882 l
s
n
0.5181 0.7541 m
0.5181 0.7669 l
0.5309 0.7669 l
0.5309 0.7541 l
c
GS
Color0 SRGB
fill
GR
[/Pattern /DeviceRGB] SCS
Color1 Pattern8 SC
fill
[/DeviceRGB] SCS
Color1 SC
n
0.5181 0.7541 m
0.5181 0.7669 l
0.5309 0.7669 l
0.5309 0.7541 l
0.5181 0.7541 l
c
s
n
0.5453 0.7345 m
0.5453 0.7473 l
0.5581 0.7473 l
0.5581 0.7345 l
c
GS
Color0 SRGB
fill
GR
[/Pattern /DeviceRGB] SCS
Color1 Pattern8 SC
fill
[/DeviceRGB] SCS
Color1 SC
n
0.5453 0.7345 m
0.5453 0.7473 l
0.5581 0.7473 l
0.5581 0.7345 l
0.5453 0.7345 l
c
s
n
0.5726 0.7072 m
0.5726 0.7200 l
0.5853 0.7200 l
0.5853 0.7072 l
c
GS
Color0 SRGB
fill
GR
[/Pattern /DeviceRGB] SCS
Color1 Pattern8 SC
fill
[/DeviceRGB] SCS
Color1 SC
n
0.5726 0.7072 m
0.5726 0.7200 l
0.5853 0.7200 l
0.5853 0.7072 l
0.5726 0.7072 l
c
s
n
0.5998 0.6706 m
0.5998 0.6834 l
0.6126 0.6834 l
0.6126 0.6706 l
c
GS
Color0 SRGB
fill
GR
[/Pattern /DeviceRGB] SCS
Color1 Pattern8 SC
fill
[/DeviceRGB] SCS
Color1 SC
n
0.5998 0.6706 m
0.5998 0.6834 l
0.6126 0.6834 l
0.6126 0.6706 l
0.5998 0.6706 l
c
s
n
0.6271 0.6241 m
0.6271 0.6368 l
0.6398 0.6368 l
0.6398 0.6241 l
c
GS
Color0 SRGB
fill
GR
[/Pattern /DeviceRGB] SCS
Color1 Pattern8 SC
fill
[/DeviceRGB] SCS
Color1 SC
n
0.6271 0.6241 m
0.6271 0.6368 l
0.6398 0.6368 l
0.6398 0.6241 l
0.6271 0.6241 l
c
s
n
0.6543 0.5661 m
0.6543 0.5788 l
0.6671 0.5788 l
0.6671 0.5661 l
c
GS
Color0 SRGB
fill
GR
[/Pattern /DeviceRGB] SCS
Color1 Pattern8 SC
fill
[/DeviceRGB] SCS
Color1 SC
n
0.6543 0.5661 m
0.6543 0.5788 l
0.6671 0.5788 l
0.6671 0.5661 l
0.6543 0.5661 l
c
s
n
0.6815 0.4950 m
0.6815 0.5078 l
0.6943 0.5078 l
0.6943 0.4950 l
c
GS
Color0 SRGB
fill
GR
[/Pattern /DeviceRGB] SCS
Color1 Pattern8 SC
fill
[/DeviceRGB] SCS
Color1 SC
n
0.6815 0.4950 m
0.6815 0.5078 l
0.6943 0.5078 l
0.6943 0.4950 l
0.6815 0.4950 l
c
s
n
0.7088 0.4096 m
0.7088 0.4223 l
0.7215 0.4223 l
0.7215 0.4096 l
c
GS
Color0 SRGB
fill
GR
[/Pattern /DeviceRGB] SCS
Color1 Pattern8 SC
fill
[/DeviceRGB] SCS
Color1 SC
n
0.7088 0.4096 m
0.7088 0.4223 l
0.7215 0.4223 l
0.7215 0.4096 l
0.7088 0.4096 l
c
s
n
0.7360 0.3063 m
0.7360 0.3191 l
0.7488 0.3191 l
0.7488 0.3063 l
c
GS
Color0 SRGB
fill
GR
[/Pattern /DeviceRGB] SCS
Color1 Pattern8 SC
fill
[/DeviceRGB] SCS
Color1 SC
n
0.7360 0.3063 m
0.7360 0.3191 l
0.7488 0.3191 l
0.7488 0.3063 l
0.7360 0.3063 l
c
s
n
0.7633 0.1814 m
0.7633 0.1941 l
0.7760 0.1941 l
0.7760 0.1814 l
c
GS
Color0 SRGB
fill
GR
[/Pattern /DeviceRGB] SCS
Color1 Pattern8 SC
fill
[/DeviceRGB] SCS
Color1 SC
n
0.7633 0.1814 m
0.7633 0.1941 l
0.7760 0.1941 l
0.7760 0.1814 l
0.7633 0.1814 l
c
s
[/DeviceRGB] SCS
Color2 SC
[0.0187 0.0112 ] 0 SD
0.0037 SLW
n
0.5108 0.7882 m
0.5109 0.7882 l
0.5136 0.7882 l
0.5163 0.7882 l
0.5190 0.7882 l
0.5218 0.7882 l
0.5245 0.7882 l
0.5272 0.7882 l
0.5299 0.7882 l
0.5327 0.7882 l
0.5354 0.7882 l
0.5381 0.7882 l
0.5408 0.7882 l
0.5436 0.7882 l
0.5463 0.7882 l
0.5490 0.7882 l
0.5517 0.7882 l
0.5544 0.7882 l
0.5572 0.7882 l
0.5599 0.7882 l
0.5626 0.7882 l
0.5653 0.7882 l
0.5681 0.7882 l
0.5708 0.7882 l
0.5735 0.7882 l
0.5762 0.7882 l
0.5790 0.7882 l
0.5817 0.7882 l
0.5844 0.7882 l
0.5871 0.7882 l
0.5899 0.7882 l
0.5926 0.7882 l
0.5953 0.7882 l
0.5980 0.7882 l
0.6008 0.7882 l
0.6035 0.7882 l
0.6062 0.7882 l
0.6089 0.7882 l
0.6116 0.7882 l
0.6144 0.7882 l
0.6171 0.7882 l
0.6198 0.7882 l
0.6225 0.7882 l
0.6253 0.7882 l
0.6280 0.7882 l
0.6307 0.7882 l
0.6334 0.7882 l
0.6362 0.7882 l
0.6389 0.7882 l
0.6416 0.7882 l
0.6443 0.7882 l
0.6471 0.7882 l
0.6498 0.7882 l
0.6525 0.7882 l
0.6552 0.7882 l
0.6580 0.7882 l
0.6607 0.7882 l
0.6634 0.7882 l
0.6661 0.7882 l
0.6689 0.7882 l
0.6716 0.7882 l
0.6743 0.7882 l
0.6770 0.7882 l
0.6797 0.7882 l
0.6825 0.7882 l
0.6852 0.7882 l
0.6879 0.7882 l
0.6906 0.7882 l
0.6934 0.7882 l
0.6961 0.7882 l
0.6988 0.7882 l
0.7015 0.7882 l
0.7043 0.7882 l
0.7070 0.7882 l
0.7097 0.7882 l
0.7124 0.7882 l
0.7152 0.7882 l
0.7179 0.7882 l
0.7206 0.7882 l
0.7233 0.7882 l
0.7261 0.7882 l
0.7288 0.7882 l
0.7315 0.7882 l
0.7342 0.7882 l
0.7369 0.7882 l
0.7397 0.7882 l
0.7424 0.7882 l
0.7451 0.7882 l
0.7478 0.7882 l
0.7506 0.7882 l
0.7533 0.7882 l
0.7560 0.7882 l
0.7587 0.7882 l
0.7615 0.7882 l
0.7642 0.7882 l
0.7669 0.7882 l
0.7696 0.7882 l
0.7724 0.7882 l
0.7751 0.7882 l
0.7778 0.7882 l
0.7805 0.7882 l
0.7833 0.7882 l
0.7834 0.7882 l
s
[/DeviceRGB] SCS
Color4 SC
[0.0037 0.0112 0.0187 0.0112 ] 0 SD
0.0037 SLW
n
0.5108 0.7882 m
0.5109 0.7882 l
0.5136 0.7882 l
0.5163 0.7882 l
0.5190 0.7882 l
0.5218 0.7882 l
0.5245 0.7882 l
0.5272 0.7882 l
0.5299 0.7882 l
0.5327 0.7882 l
0.5354 0.7882 l
0.5381 0.7882 l
0.5408 0.7882 l
0.5436 0.7882 l
0.5463 0.7882 l
0.5490 0.7882 l
0.5517 0.7882 l
0.5544 0.7882 l
0.5572 0.7882 l
0.5599 0.7882 l
0.5626 0.7882 l
0.5653 0.7882 l
0.5681 0.7882 l
0.5708 0.7882 l
0.5735 0.7882 l
0.5762 0.7882 l
0.5790 0.7882 l
0.5817 0.7882 l
0.5844 0.7882 l
0.5871 0.7882 l
0.5899 0.7882 l
0.5926 0.7882 l
0.5953 0.7882 l
0.5980 0.7882 l
0.6008 0.7882 l
0.6035 0.7882 l
0.6062 0.7882 l
0.6089 0.7882 l
0.6116 0.7882 l
0.6144 0.7882 l
0.6171 0.7882 l
0.6198 0.7882 l
0.6225 0.7882 l
0.6253 0.7882 l
0.6280 0.7882 l
0.6307 0.7882 l
0.6334 0.7882 l
0.6362 0.7882 l
0.6389 0.7882 l
0.6416 0.7882 l
0.6443 0.7882 l
0.6471 0.7882 l
0.6498 0.7882 l
0.6525 0.7882 l
0.6552 0.7882 l
0.6580 0.7882 l
0.6607 0.7882 l
0.6634 0.7882 l
0.6661 0.7882 l
0.6689 0.7882 l
0.6716 0.7882 l
0.6743 0.7882 l
0.6770 0.7882 l
0.6797 0.7882 l
0.6825 0.7882 l
0.6852 0.7882 l
0.6879 0.7882 l
0.6906 0.7882 l
0.6934 0.7882 l
0.6961 0.7882 l
0.6988 0.7882 l
0.7015 0.7882 l
0.7043 0.7882 l
0.7070 0.7882 l
0.7097 0.7882 l
0.7124 0.7882 l
0.7152 0.7882 l
0.7179 0.7882 l
0.7206 0.7882 l
0.7233 0.7882 l
0.7261 0.7882 l
0.7288 0.7882 l
0.7315 0.7882 l
0.7342 0.7882 l
0.7369 0.7882 l
0.7397 0.7882 l
0.7424 0.7882 l
0.7451 0.7882 l
0.7478 0.7882 l
0.7506 0.7882 l
0.7533 0.7882 l
0.7560 0.7882 l
0.7587 0.7882 l
0.7615 0.7882 l
0.7642 0.7882 l
0.7669 0.7882 l
0.7696 0.7882 l
0.7724 0.7882 l
0.7751 0.7882 l
0.7778 0.7882 l
0.7805 0.7882 l
0.7833 0.7882 l
0.7834 0.7882 l
s
[/DeviceRGB] SCS
Color11 SC
[0.0037 0.0112 0.0187 0.0112 0.0037 0.0112 ] 0 SD
0.0037 SLW
n
0.5108 0.7844 m
0.5109 0.7844 l
0.5136 0.7840 l
0.5163 0.7837 l
0.5190 0.7833 l
0.5218 0.7828 l
0.5245 0.7824 l
0.5272 0.7819 l
0.5299 0.7814 l
0.5327 0.7808 l
0.5354 0.7802 l
0.5381 0.7796 l
0.5408 0.7789 l
0.5436 0.7782 l
0.5463 0.7775 l
0.5490 0.7767 l
0.5517 0.7759 l
0.5544 0.7750 l
0.5572 0.7740 l
0.5599 0.7730 l
0.5626 0.7720 l
0.5653 0.7709 l
0.5681 0.7697 l
0.5708 0.7685 l
0.5735 0.7672 l
0.5762 0.7658 l
0.5790 0.7644 l
0.5817 0.7629 l
0.5844 0.7613 l
0.5871 0.7597 l
0.5899 0.7580 l
0.5926 0.7561 l
0.5953 0.7542 l
0.5980 0.7523 l
0.6008 0.7502 l
0.6035 0.7480 l
0.6062 0.7458 l
0.6089 0.7434 l
0.6116 0.7410 l
0.6144 0.7384 l
0.6171 0.7357 l
0.6198 0.7329 l
0.6225 0.7300 l
0.6253 0.7270 l
0.6280 0.7239 l
0.6307 0.7207 l
0.6334 0.7173 l
0.6362 0.7138 l
0.6389 0.7101 l
0.6416 0.7064 l
0.6443 0.7025 l
0.6471 0.6984 l
0.6498 0.6942 l
0.6525 0.6899 l
0.6552 0.6854 l
0.6580 0.6808 l
0.6607 0.6760 l
0.6634 0.6710 l
0.6661 0.6659 l
0.6689 0.6606 l
0.6716 0.6552 l
0.6743 0.6495 l
0.6770 0.6437 l
0.6797 0.6378 l
0.6825 0.6316 l
0.6852 0.6253 l
0.6879 0.6187 l
0.6906 0.6120 l
0.6934 0.6051 l
0.6961 0.5980 l
0.6988 0.5907 l
0.7015 0.5831 l
0.7043 0.5754 l
0.7070 0.5675 l
0.7097 0.5593 l
0.7124 0.5510 l
0.7152 0.5424 l
0.7179 0.5336 l
0.7206 0.5246 l
0.7233 0.5153 l
0.7261 0.5059 l
0.7288 0.4962 l
0.7315 0.4862 l
0.7342 0.4760 l
0.7369 0.4656 l
0.7397 0.4550 l
0.7424 0.4441 l
0.7451 0.4329 l
0.7478 0.4215 l
0.7506 0.4099 l
0.7533 0.3980 l
0.7560 0.3858 l
0.7587 0.3734 l
0.7615 0.3607 l
0.7642 0.3478 l
0.7669 0.3345 l
0.7696 0.3211 l
0.7724 0.3073 l
0.7751 0.2933 l
0.7778 0.2790 l
0.7805 0.2644 l
0.7833 0.2496 l
0.7834 0.2490 l
s
[/DeviceRGB] SCS
Color1 SC
[] 0 SD
0.0045 SLW
n
0.5109 0.1500 m
0.7833 0.1500 l
s
n
0.5109 0.8500 m
0.7833 0.8500 l
s
n
0.5109 0.1500 m
0.5109 0.1600 l
s
n
0.5109 0.8500 m
0.5109 0.8400 l
s
n
0.5926 0.1500 m
0.5926 0.1600 l
s
n
0.5926 0.8500 m
0.5926 0.8400 l
s
n
0.6743 0.1500 m
0.6743 0.1600 l
s
n
0.6743 0.8500 m
0.6743 0.8400 l
s
n
0.7560 0.1500 m
0.7560 0.1600 l
s
n
0.7560 0.8500 m
0.7560 0.8400 l
s
n
0.5517 0.1500 m
0.5517 0.1700 l
s
n
0.5517 0.8500 m
0.5517 0.8300 l
s
n
0.6334 0.1500 m
0.6334 0.1700 l
s
n
0.6334 0.8500 m
0.6334 0.8300 l
s
n
0.7152 0.1500 m
0.7152 0.1700 l
s
n
0.7152 0.8500 m
0.7152 0.8300 l
s
/Font0 FFSF
0.5247 0.1094 m
GS
[0.0448 0.0000 0.0000 0.0448 0 0] CC
(0.9) show
GR
/Font0 FFSF
0.6060 0.1094 m
GS
[0.0448 0.0000 0.0000 0.0448 0 0] CC
(1.2) show
GR
/Font0 FFSF
0.6885 0.1090 m
GS
[0.0448 0.0000 0.0000 0.0448 0 0] CC
(1.5) show
GR
/Font0 FFSF
0.5606 0.0441 m
GS
[0.0504 0.0000 0.0000 0.0504 0 0] CC
(k) show
GR
/Font0 FFSF
0.5857 0.0239 m
GS
[0.0356 0.0000 0.0000 0.0356 0 0] CC
(F) show
GR
/Font0 FFSF
0.6057 0.0441 m
GS
[0.0504 0.0000 0.0000 0.0504 0 0] CC
( [fm) show
GR
/Font0 FFSF
0.6912 0.0743 m
GS
[0.0356 0.0000 0.0000 0.0356 0 0] CC
(-1) show
GR
/Font0 FFSF
0.7210 0.0441 m
GS
[0.0504 0.0000 0.0000 0.0504 0 0] CC
(]) show
GR
n
0.5109 0.1500 m
0.5109 0.8500 l
s
n
0.7833 0.1500 m
0.7833 0.8500 l
s
n
0.5109 0.2324 m
0.5209 0.2324 l
s
n
0.7833 0.2324 m
0.7733 0.2324 l
s
n
0.5109 0.3559 m
0.5209 0.3559 l
s
n
0.7833 0.3559 m
0.7733 0.3559 l
s
n
0.5109 0.4794 m
0.5209 0.4794 l
s
n
0.7833 0.4794 m
0.7733 0.4794 l
s
n
0.5109 0.6029 m
0.5209 0.6029 l
s
n
0.7833 0.6029 m
0.7733 0.6029 l
s
n
0.5109 0.7265 m
0.5209 0.7265 l
s
n
0.7833 0.7265 m
0.7733 0.7265 l
s
n
0.5109 0.8500 m
0.5209 0.8500 l
s
n
0.7833 0.8500 m
0.7733 0.8500 l
s
n
0.5109 0.1706 m
0.5309 0.1706 l
s
n
0.7833 0.1706 m
0.7633 0.1706 l
s
n
0.5109 0.2941 m
0.5309 0.2941 l
s
n
0.7833 0.2941 m
0.7633 0.2941 l
s
n
0.5109 0.4176 m
0.5309 0.4176 l
s
n
0.7833 0.4176 m
0.7633 0.4176 l
s
n
0.5109 0.5412 m
0.5309 0.5412 l
s
n
0.7833 0.5412 m
0.7633 0.5412 l
s
n
0.5109 0.6647 m
0.5309 0.6647 l
s
n
0.7833 0.6647 m
0.7633 0.6647 l
s
n
0.5109 0.7882 m
0.5309 0.7882 l
s
n
0.7833 0.7882 m
0.7633 0.7882 l
s
/Font0 FFSF
0.4326 0.1555 m
GS
[0.0448 0.0000 0.0000 0.0448 0 0] CC
(-1.5) show
GR
/Font0 FFSF
0.4311 0.2790 m
GS
[0.0448 0.0000 0.0000 0.0448 0 0] CC
(-1.2) show
GR
/Font0 FFSF
0.4318 0.4029 m
GS
[0.0448 0.0000 0.0000 0.0448 0 0] CC
(-0.9) show
GR
/Font0 FFSF
0.4315 0.5263 m
GS
[0.0448 0.0000 0.0000 0.0448 0 0] CC
(-0.6) show
GR
/Font0 FFSF
0.4326 0.6498 m
GS
[0.0448 0.0000 0.0000 0.0448 0 0] CC
(-0.3) show
GR
/Font0 FFSF
0.4797 0.7733 m
GS
[0.0448 0.0000 0.0000 0.0448 0 0] CC
(0) show
GR
[] 0 SD
0.0015 SLW
n
0.5109 0.1500 m
0.5109 0.8500 l
0.7833 0.8500 l
0.7833 0.1500 l
0.5109 0.1500 l
c
s
/Font12 FFSF
0.5653 0.8868 m
GS
[0.0420 0.0000 0.0000 0.0420 0 0] CC
(d) show
GR
/Font0 FFSF
0.5861 0.8700 m
GS
[0.0297 0.0000 0.0000 0.0297 0 0] CC
(D) show
GR
/Font0 FFSF
0.6076 0.8868 m
GS
[0.0420 0.0000 0.0000 0.0420 0 0] CC
( [MeV]) show
GR
[] 0 SD
0.0037 SLW
n
0.8716 0.5000 m
0.8717 0.5000 l
0.8745 0.5000 l
0.8772 0.5000 l
0.8799 0.5000 l
0.8826 0.5000 l
0.8853 0.5000 l
0.8881 0.5000 l
0.8908 0.5000 l
0.8935 0.5000 l
0.8962 0.5000 l
0.8990 0.5000 l
0.9017 0.5000 l
0.9044 0.5000 l
0.9071 0.5000 l
0.9099 0.5000 l
0.9126 0.5000 l
0.9153 0.5000 l
0.9180 0.5000 l
0.9208 0.5000 l
0.9235 0.5000 l
0.9262 0.5000 l
0.9289 0.5000 l
0.9317 0.5000 l
0.9344 0.5000 l
0.9371 0.5000 l
0.9398 0.5000 l
0.9426 0.5000 l
0.9453 0.5000 l
0.9480 0.5000 l
0.9507 0.5000 l
0.9534 0.5000 l
0.9562 0.5000 l
0.9589 0.5000 l
0.9616 0.5000 l
0.9643 0.5000 l
0.9671 0.5000 l
0.9698 0.5000 l
0.9725 0.5000 l
0.9752 0.5000 l
0.9780 0.5000 l
0.9807 0.5000 l
0.9834 0.5000 l
0.9861 0.5000 l
0.9889 0.5000 l
0.9916 0.5000 l
0.9943 0.5000 l
0.9970 0.5000 l
0.9998 0.5000 l
1.0025 0.5000 l
1.0052 0.5000 l
1.0079 0.5000 l
1.0106 0.5000 l
1.0134 0.5000 l
1.0161 0.5000 l
1.0188 0.5000 l
1.0215 0.5000 l
1.0243 0.5000 l
1.0270 0.5000 l
1.0297 0.5000 l
1.0324 0.5000 l
1.0352 0.5000 l
1.0379 0.5000 l
1.0406 0.5000 l
1.0433 0.5000 l
1.0461 0.5000 l
1.0488 0.5000 l
1.0515 0.5000 l
1.0542 0.5000 l
1.0570 0.5000 l
1.0597 0.5000 l
1.0624 0.5000 l
1.0651 0.5000 l
1.0678 0.5000 l
1.0706 0.5000 l
1.0733 0.5000 l
1.0760 0.5000 l
1.0787 0.5000 l
1.0815 0.5000 l
1.0842 0.5000 l
1.0869 0.5000 l
1.0896 0.5000 l
1.0924 0.5000 l
1.0951 0.5000 l
1.0978 0.5000 l
1.1005 0.5000 l
1.1033 0.5000 l
1.1060 0.5000 l
1.1087 0.5000 l
1.1114 0.5000 l
1.1142 0.5000 l
1.1169 0.5000 l
1.1196 0.5000 l
1.1223 0.5000 l
1.1251 0.5000 l
1.1278 0.5000 l
1.1305 0.5000 l
1.1332 0.5000 l
1.1359 0.5000 l
1.1387 0.5000 l
1.1414 0.5000 l
1.1441 0.5000 l
1.1442 0.5000 l
s
[/DeviceRGB] SCS
Color2 SC
[0.0187 0.0112 ] 0 SD
0.0037 SLW
n
0.8716 0.5000 m
0.8717 0.5000 l
0.8745 0.5000 l
0.8772 0.5000 l
0.8799 0.5000 l
0.8826 0.5000 l
0.8853 0.5000 l
0.8881 0.5000 l
0.8908 0.5000 l
0.8935 0.5000 l
0.8962 0.5000 l
0.8990 0.5000 l
0.9017 0.5000 l
0.9044 0.5000 l
0.9071 0.5000 l
0.9099 0.5000 l
0.9126 0.5000 l
0.9153 0.5000 l
0.9180 0.5000 l
0.9208 0.5000 l
0.9235 0.5000 l
0.9262 0.5000 l
0.9289 0.5000 l
0.9317 0.5000 l
0.9344 0.5000 l
0.9371 0.5000 l
0.9398 0.5000 l
0.9426 0.5000 l
0.9453 0.5000 l
0.9480 0.5000 l
0.9507 0.5000 l
0.9534 0.5000 l
0.9562 0.5000 l
0.9589 0.5000 l
0.9616 0.5000 l
0.9643 0.5000 l
0.9671 0.5000 l
0.9698 0.5000 l
0.9725 0.5000 l
0.9752 0.5000 l
0.9780 0.5000 l
0.9807 0.5000 l
0.9834 0.5000 l
0.9861 0.5000 l
0.9889 0.5000 l
0.9916 0.5000 l
0.9943 0.5000 l
0.9970 0.5000 l
0.9998 0.5000 l
1.0025 0.5000 l
1.0052 0.5000 l
1.0079 0.5000 l
1.0106 0.5000 l
1.0134 0.5000 l
1.0161 0.5000 l
1.0188 0.5000 l
1.0215 0.5000 l
1.0243 0.5000 l
1.0270 0.5000 l
1.0297 0.5000 l
1.0324 0.5000 l
1.0352 0.5000 l
1.0379 0.5000 l
1.0406 0.5000 l
1.0433 0.5000 l
1.0461 0.5000 l
1.0488 0.5000 l
1.0515 0.5000 l
1.0542 0.5000 l
1.0570 0.5000 l
1.0597 0.5000 l
1.0624 0.5000 l
1.0651 0.5000 l
1.0678 0.5000 l
1.0706 0.5000 l
1.0733 0.5000 l
1.0760 0.5000 l
1.0787 0.5000 l
1.0815 0.5000 l
1.0842 0.5000 l
1.0869 0.5000 l
1.0896 0.5000 l
1.0924 0.5000 l
1.0951 0.5000 l
1.0978 0.5000 l
1.1005 0.5000 l
1.1033 0.5000 l
1.1060 0.5000 l
1.1087 0.5000 l
1.1114 0.5000 l
1.1142 0.5000 l
1.1169 0.5000 l
1.1196 0.5000 l
1.1223 0.5000 l
1.1251 0.5000 l
1.1278 0.5000 l
1.1305 0.5000 l
1.1332 0.5000 l
1.1359 0.5000 l
1.1387 0.5000 l
1.1414 0.5000 l
1.1441 0.5000 l
1.1442 0.5000 l
s
n
0.8790 0.5076 m
0.8790 0.5204 l
0.8917 0.5204 l
0.8917 0.5076 l
c
GS
Color0 SRGB
fill
GR
[/Pattern /DeviceRGB] SCS
Color1 Pattern8 SC
fill
[/DeviceRGB] SCS
Color1 SC
[] 0 SD
0.0037 SLW
n
0.8790 0.5076 m
0.8790 0.5204 l
0.8917 0.5204 l
0.8917 0.5076 l
0.8790 0.5076 l
c
s
n
0.9062 0.5194 m
0.9062 0.5321 l
0.9190 0.5321 l
0.9190 0.5194 l
c
GS
Color0 SRGB
fill
GR
[/Pattern /DeviceRGB] SCS
Color1 Pattern8 SC
fill
[/DeviceRGB] SCS
Color1 SC
n
0.9062 0.5194 m
0.9062 0.5321 l
0.9190 0.5321 l
0.9190 0.5194 l
0.9062 0.5194 l
c
s
n
0.9335 0.5361 m
0.9335 0.5489 l
0.9462 0.5489 l
0.9462 0.5361 l
c
GS
Color0 SRGB
fill
GR
[/Pattern /DeviceRGB] SCS
Color1 Pattern8 SC
fill
[/DeviceRGB] SCS
Color1 SC
n
0.9335 0.5361 m
0.9335 0.5489 l
0.9462 0.5489 l
0.9462 0.5361 l
0.9335 0.5361 l
c
s
n
0.9607 0.5581 m
0.9607 0.5708 l
0.9734 0.5708 l
0.9734 0.5581 l
c
GS
Color0 SRGB
fill
GR
[/Pattern /DeviceRGB] SCS
Color1 Pattern8 SC
fill
[/DeviceRGB] SCS
Color1 SC
n
0.9607 0.5581 m
0.9607 0.5708 l
0.9734 0.5708 l
0.9734 0.5581 l
0.9607 0.5581 l
c
s
n
0.9879 0.5847 m
0.9879 0.5974 l
1.0007 0.5974 l
1.0007 0.5847 l
c
GS
Color0 SRGB
fill
GR
[/Pattern /DeviceRGB] SCS
Color1 Pattern8 SC
fill
[/DeviceRGB] SCS
Color1 SC
n
0.9879 0.5847 m
0.9879 0.5974 l
1.0007 0.5974 l
1.0007 0.5847 l
0.9879 0.5847 l
c
s
n
1.0152 0.6148 m
1.0152 0.6275 l
1.0279 0.6275 l
1.0279 0.6148 l
c
GS
Color0 SRGB
fill
GR
[/Pattern /DeviceRGB] SCS
Color1 Pattern8 SC
fill
[/DeviceRGB] SCS
Color1 SC
n
1.0152 0.6148 m
1.0152 0.6275 l
1.0279 0.6275 l
1.0279 0.6148 l
1.0152 0.6148 l
c
s
n
1.0424 0.6468 m
1.0424 0.6595 l
1.0552 0.6595 l
1.0552 0.6468 l
c
GS
Color0 SRGB
fill
GR
[/Pattern /DeviceRGB] SCS
Color1 Pattern8 SC
fill
[/DeviceRGB] SCS
Color1 SC
n
1.0424 0.6468 m
1.0424 0.6595 l
1.0552 0.6595 l
1.0552 0.6468 l
1.0424 0.6468 l
c
s
n
1.0696 0.6791 m
1.0696 0.6918 l
1.0824 0.6918 l
1.0824 0.6791 l
c
GS
Color0 SRGB
fill
GR
[/Pattern /DeviceRGB] SCS
Color1 Pattern8 SC
fill
[/DeviceRGB] SCS
Color1 SC
n
1.0696 0.6791 m
1.0696 0.6918 l
1.0824 0.6918 l
1.0824 0.6791 l
1.0696 0.6791 l
c
s
n
1.0969 0.7101 m
1.0969 0.7229 l
1.1096 0.7229 l
1.1096 0.7101 l
c
GS
Color0 SRGB
fill
GR
[/Pattern /DeviceRGB] SCS
Color1 Pattern8 SC
fill
[/DeviceRGB] SCS
Color1 SC
n
1.0969 0.7101 m
1.0969 0.7229 l
1.1096 0.7229 l
1.1096 0.7101 l
1.0969 0.7101 l
c
s
n
1.1241 0.7393 m
1.1241 0.7520 l
1.1369 0.7520 l
1.1369 0.7393 l
c
GS
Color0 SRGB
fill
GR
[/Pattern /DeviceRGB] SCS
Color1 Pattern8 SC
fill
[/DeviceRGB] SCS
Color1 SC
n
1.1241 0.7393 m
1.1241 0.7520 l
1.1369 0.7520 l
1.1369 0.7393 l
1.1241 0.7393 l
c
s
[/DeviceRGB] SCS
Color4 SC
[0.0037 0.0112 0.0262 0.0112 ] 0 SD
0.0037 SLW
n
0.8716 0.5000 m
0.8717 0.5000 l
0.8745 0.5000 l
0.8772 0.5000 l
0.8799 0.5000 l
0.8826 0.5000 l
0.8853 0.5000 l
0.8881 0.5000 l
0.8908 0.5000 l
0.8935 0.5000 l
0.8962 0.5000 l
0.8990 0.5000 l
0.9017 0.5000 l
0.9044 0.5000 l
0.9071 0.5000 l
0.9099 0.5000 l
0.9126 0.5000 l
0.9153 0.5000 l
0.9180 0.5000 l
0.9208 0.5000 l
0.9235 0.5000 l
0.9262 0.5000 l
0.9289 0.5000 l
0.9317 0.5000 l
0.9344 0.5000 l
0.9371 0.5000 l
0.9398 0.5000 l
0.9426 0.5000 l
0.9453 0.5000 l
0.9480 0.5000 l
0.9507 0.5000 l
0.9534 0.5000 l
0.9562 0.5000 l
0.9589 0.5000 l
0.9616 0.5000 l
0.9643 0.5000 l
0.9671 0.5000 l
0.9698 0.5000 l
0.9725 0.5000 l
0.9752 0.5000 l
0.9780 0.5000 l
0.9807 0.5000 l
0.9834 0.5000 l
0.9861 0.5000 l
0.9889 0.5000 l
0.9916 0.5000 l
0.9943 0.5000 l
0.9970 0.5000 l
0.9998 0.5000 l
1.0025 0.5000 l
1.0052 0.5000 l
1.0079 0.5000 l
1.0106 0.5000 l
1.0134 0.5000 l
1.0161 0.5000 l
1.0188 0.5000 l
1.0215 0.5000 l
1.0243 0.5000 l
1.0270 0.5000 l
1.0297 0.5000 l
1.0324 0.5000 l
1.0352 0.5000 l
1.0379 0.5000 l
1.0406 0.5000 l
1.0433 0.5000 l
1.0461 0.5000 l
1.0488 0.5000 l
1.0515 0.5000 l
1.0542 0.5000 l
1.0570 0.5000 l
1.0597 0.5000 l
1.0624 0.5000 l
1.0651 0.5000 l
1.0678 0.5000 l
1.0706 0.5000 l
1.0733 0.5000 l
1.0760 0.5000 l
1.0787 0.5000 l
1.0815 0.5000 l
1.0842 0.5000 l
1.0869 0.5000 l
1.0896 0.5000 l
1.0924 0.5000 l
1.0951 0.5000 l
1.0978 0.5000 l
1.1005 0.5000 l
1.1033 0.5000 l
1.1060 0.5000 l
1.1087 0.5000 l
1.1114 0.5000 l
1.1142 0.5000 l
1.1169 0.5000 l
1.1196 0.5000 l
1.1223 0.5000 l
1.1251 0.5000 l
1.1278 0.5000 l
1.1305 0.5000 l
1.1332 0.5000 l
1.1359 0.5000 l
1.1387 0.5000 l
1.1414 0.5000 l
1.1441 0.5000 l
1.1442 0.5000 l
s
[/DeviceRGB] SCS
Color11 SC
[0.0037 0.0112 0.0187 0.0112 0.0037 0.0112 ] 0 SD
0.0037 SLW
n
0.8716 0.4994 m
0.8717 0.4994 l
0.8745 0.4993 l
0.8772 0.4993 l
0.8799 0.4992 l
0.8826 0.4991 l
0.8853 0.4990 l
0.8881 0.4989 l
0.8908 0.4987 l
0.8935 0.4986 l
0.8962 0.4985 l
0.8990 0.4983 l
0.9017 0.4981 l
0.9044 0.4979 l
0.9071 0.4977 l
0.9099 0.4975 l
0.9126 0.4973 l
0.9153 0.4970 l
0.9180 0.4967 l
0.9208 0.4964 l
0.9235 0.4961 l
0.9262 0.4958 l
0.9289 0.4954 l
0.9317 0.4950 l
0.9344 0.4946 l
0.9371 0.4941 l
0.9398 0.4936 l
0.9426 0.4931 l
0.9453 0.4925 l
0.9480 0.4919 l
0.9507 0.4912 l
0.9534 0.4905 l
0.9562 0.4898 l
0.9589 0.4890 l
0.9616 0.4882 l
0.9643 0.4873 l
0.9671 0.4863 l
0.9698 0.4853 l
0.9725 0.4842 l
0.9752 0.4831 l
0.9780 0.4819 l
0.9807 0.4806 l
0.9834 0.4793 l
0.9861 0.4778 l
0.9889 0.4763 l
0.9916 0.4747 l
0.9943 0.4731 l
0.9970 0.4713 l
0.9998 0.4694 l
1.0025 0.4674 l
1.0052 0.4654 l
1.0079 0.4632 l
1.0106 0.4609 l
1.0134 0.4585 l
1.0161 0.4560 l
1.0188 0.4533 l
1.0215 0.4505 l
1.0243 0.4476 l
1.0270 0.4445 l
1.0297 0.4413 l
1.0324 0.4380 l
1.0352 0.4345 l
1.0379 0.4308 l
1.0406 0.4269 l
1.0433 0.4229 l
1.0461 0.4187 l
1.0488 0.4144 l
1.0515 0.4098 l
1.0542 0.4051 l
1.0570 0.4001 l
1.0597 0.3950 l
1.0624 0.3896 l
1.0651 0.3840 l
1.0678 0.3782 l
1.0706 0.3721 l
1.0733 0.3659 l
1.0760 0.3593 l
1.0787 0.3526 l
1.0815 0.3455 l
1.0842 0.3382 l
1.0869 0.3307 l
1.0896 0.3228 l
1.0924 0.3147 l
1.0951 0.3063 l
1.0978 0.2975 l
1.1005 0.2885 l
1.1033 0.2792 l
1.1060 0.2695 l
1.1087 0.2595 l
1.1114 0.2492 l
1.1142 0.2385 l
1.1169 0.2275 l
1.1196 0.2161 l
1.1223 0.2044 l
1.1251 0.1923 l
1.1278 0.1798 l
1.1305 0.1669 l
1.1332 0.1536 l
1.1340 0.1499 l
s
[/DeviceRGB] SCS
Color1 SC
[] 0 SD
0.0045 SLW
n
0.8717 0.1500 m
1.1441 0.1500 l
s
n
0.8717 0.8500 m
1.1441 0.8500 l
s
n
0.8717 0.1500 m
0.8717 0.1600 l
s
n
0.8717 0.8500 m
0.8717 0.8400 l
s
n
0.9534 0.1500 m
0.9534 0.1600 l
s
n
0.9534 0.8500 m
0.9534 0.8400 l
s
n
1.0352 0.1500 m
1.0352 0.1600 l
s
n
1.0352 0.8500 m
1.0352 0.8400 l
s
n
1.1169 0.1500 m
1.1169 0.1600 l
s
n
1.1169 0.8500 m
1.1169 0.8400 l
s
n
0.9126 0.1500 m
0.9126 0.1700 l
s
n
0.9126 0.8500 m
0.9126 0.8300 l
s
n
0.9943 0.1500 m
0.9943 0.1700 l
s
n
0.9943 0.8500 m
0.9943 0.8300 l
s
n
1.0760 0.1500 m
1.0760 0.1700 l
s
n
1.0760 0.8500 m
1.0760 0.8300 l
s
/Font0 FFSF
0.8855 0.1094 m
GS
[0.0448 0.0000 0.0000 0.0448 0 0] CC
(0.9) show
GR
/Font0 FFSF
0.9669 0.1094 m
GS
[0.0448 0.0000 0.0000 0.0448 0 0] CC
(1.2) show
GR
/Font0 FFSF
1.0494 0.1090 m
GS
[0.0448 0.0000 0.0000 0.0448 0 0] CC
(1.5) show
GR
n
0.8717 0.1500 m
0.8717 0.8500 l
s
n
1.1441 0.1500 m
1.1441 0.8500 l
s
n
0.8717 0.2900 m
0.8817 0.2900 l
s
n
1.1441 0.2900 m
1.1341 0.2900 l
s
n
0.8717 0.4300 m
0.8817 0.4300 l
s
n
1.1441 0.4300 m
1.1341 0.4300 l
s
n
0.8717 0.5700 m
0.8817 0.5700 l
s
n
1.1441 0.5700 m
1.1341 0.5700 l
s
n
0.8717 0.7100 m
0.8817 0.7100 l
s
n
1.1441 0.7100 m
1.1341 0.7100 l
s
n
0.8717 0.8500 m
0.8817 0.8500 l
s
n
1.1441 0.8500 m
1.1341 0.8500 l
s
n
0.8717 0.2200 m
0.8917 0.2200 l
s
n
1.1441 0.2200 m
1.1241 0.2200 l
s
n
0.8717 0.3600 m
0.8917 0.3600 l
s
n
1.1441 0.3600 m
1.1241 0.3600 l
s
n
0.8717 0.5000 m
0.8917 0.5000 l
s
n
1.1441 0.5000 m
1.1241 0.5000 l
s
n
0.8717 0.6400 m
0.8917 0.6400 l
s
n
1.1441 0.6400 m
1.1241 0.6400 l
s
n
0.8717 0.7800 m
0.8917 0.7800 l
s
n
1.1441 0.7800 m
1.1241 0.7800 l
s
/Font0 FFSF
0.7919 0.2051 m
GS
[0.0448 0.0000 0.0000 0.0448 0 0] CC
(-0.2) show
GR
/Font0 FFSF
0.7955 0.3451 m
GS
[0.0448 0.0000 0.0000 0.0448 0 0] CC
(-0.1) show
GR
/Font0 FFSF
0.8406 0.4851 m
GS
[0.0448 0.0000 0.0000 0.0448 0 0] CC
(0) show
GR
/Font0 FFSF
0.8104 0.6251 m
GS
[0.0448 0.0000 0.0000 0.0448 0 0] CC
(0.1) show
GR
/Font0 FFSF
0.8068 0.7651 m
GS
[0.0448 0.0000 0.0000 0.0448 0 0] CC
(0.2) show
GR
[] 0 SD
0.0015 SLW
n
0.8717 0.1500 m
0.8717 0.8500 l
1.1441 0.8500 l
1.1441 0.1500 l
0.8717 0.1500 l
c
s
/Font12 FFSF
0.9287 0.8868 m
GS
[0.0420 0.0000 0.0000 0.0420 0 0] CC
(d) show
GR
/Font0 FFSF
0.9495 0.8700 m
GS
[0.0297 0.0000 0.0000 0.0297 0 0] CC
(F) show
GR
/Font0 FFSF
0.9660 0.8868 m
GS
[0.0420 0.0000 0.0000 0.0420 0 0] CC
( [MeV]) show
GR
/Font0 FFSF
0.1800 0.2000 m
GS
[0.0566 0.0000 0.0000 0.0566 0 0] CC
(\(a\)) show
GR
/Font0 FFSF
0.5350 0.2000 m
GS
[0.0580 0.0000 0.0000 0.0580 0 0] CC
(\(b\)) show
GR
/Font0 FFSF
0.9000 0.2000 m
GS
[0.0566 0.0000 0.0000 0.0566 0 0] CC
(\(c\)) show
GR
showpage
%%PageTrailer
%%Trailer
%%DocumentNeededResources: font Times-Roman
%%+ font Symbol
%%EOF
