%!PS-Adobe-3.0
%%BoundingBox: 0 0 612 792
%%LanguageLevel: 2
%%Creator: Grace-5.1.25
%%CreationDate: Thu Jun  2 12:37:02 2016
%%DocumentData: Clean8Bit
%%Orientation: Landscape
%%Pages: 1
%%PageOrder: Ascend
%%Title: EsurA.agr
%%For: ap1450
%%DocumentNeededResources: (atend)
%%EndComments
%%BeginProlog
/PAGE_OFFSET_X 0 def
/PAGE_OFFSET_Y 0 def
/m {moveto} def
/l {lineto} def
/s {stroke} def
/n {newpath} def
/c {closepath} def
/RL {rlineto} def
/SLW {setlinewidth} def
/GS {gsave} def
/GR {grestore} def
/SC {setcolor} def
/SGRY {setgray} def
/SRGB {setrgbcolor} def
/SD {setdash} def
/SLC {setlinecap} def
/SLJ {setlinejoin} def
/SCS {setcolorspace} def
/FFSF {findfont setfont} def
/CC {concat} def
/PXL {n m 0 0 RL s} def
/Color0 {1.0000 1.0000 1.0000} def
/Color1 {0.0000 0.0000 0.0000} def
/Color2 {1.0000 0.0000 0.0000} def
/Color3 {0.0000 1.0000 0.0000} def
/Color4 {0.0000 0.0000 1.0000} def
/Color5 {1.0000 1.0000 0.0000} def
/Color6 {0.7373 0.5608 0.5608} def
/Color7 {0.8627 0.8627 0.8627} def
/Color8 {0.5804 0.0000 0.8275} def
/Color9 {0.0000 1.0000 1.0000} def
/Color10 {1.0000 0.0000 1.0000} def
/Color11 {1.0000 0.6471 0.0000} def
/Color12 {0.4471 0.1294 0.7373} def
/Color13 {0.4039 0.0275 0.2824} def
/Color14 {0.2510 0.8784 0.8157} def
/Color15 {0.0000 0.5451 0.0000} def
/Color16 {0.7529 0.7529 0.7529} def
/Color17 {0.5059 0.5059 0.5059} def
/Color18 {0.2588 0.2588 0.2588} def
/PTRN {
 /pat_bits exch def 
 <<
  /PaintType 2
  /PatternType 1 /TilingType 1
  /BBox[0 0 16 16]
  /XStep 16 /YStep 16
  /PaintProc {
   pop
   16 16 true [-1 0 0 -1 16 16] pat_bits imagemask
  }
 >>
 [0.0016 0 0 0.0016 0 0]
 makepattern
} def
/Pattern0 {<0000000000000000000000000000000000000000000000000000000000000000> PTRN} bind def
/Pattern1 {<ffffffffffffffffffffffffffffffffffffffffffffffffffffffffffffffff> PTRN} bind def
/Pattern2 {<eeeeffffbbbbffffeeeeffffbbbbffffeeeeffffbbbbffffeeeeffffbbbbffff> PTRN} bind def
/Pattern3 {<eeeebbbbeeeebbbbeeeebbbbeeeebbbbeeeebbbbeeeebbbbeeeebbbbeeeebbbb> PTRN} bind def
/Pattern4 {<5555aaaa5555aaaa5555aaaa5555aaaa5555aaaa5555aaaa5555aaaa5555aaaa> PTRN} bind def
/Pattern5 {<1111444411114444111144441111444411114444111144441111444411114444> PTRN} bind def
/Pattern6 {<1111000044440000111100004444000011110000444400001111000044440000> PTRN} bind def
/Pattern7 {<1010000000000000010100000000000010100000000000000101000000000000> PTRN} bind def
/Pattern8 {<0000000000000000000000000000000000000000000000000000000000000000> PTRN} bind def
/Pattern9 {<1e1e0f0f8787c3c3e1e1f0f078783c3c1e1e0f0f8787c3c3e1e1f0f078783c3c> PTRN} bind def
/Pattern10 {<7878f0f0e1e1c3c387870f0f1e1e3c3c7878f0f0e1e1c3c387870f0f1e1e3c3c> PTRN} bind def
/Pattern11 {<3333333333333333333333333333333333333333333333333333333333333333> PTRN} bind def
/Pattern12 {<ffffffff00000000ffffffff00000000ffffffff00000000ffffffff00000000> PTRN} bind def
/Pattern13 {<8181424224241818181824244242818181814242242418181818242442428181> PTRN} bind def
/Pattern14 {<8080404020201010080804040202010180804040202010100808040402020101> PTRN} bind def
/Pattern15 {<0101020204040808101020204040808001010202040408081010202040408080> PTRN} bind def
/Pattern16 {<2222222222222222222222222222222222222222222222222222222222222222> PTRN} bind def
/Pattern17 {<0000ffff000000000000ffff000000000000ffff000000000000ffff00000000> PTRN} bind def
/Pattern18 {<2222ffff222222222222ffff222222222222ffff222222222222ffff22222222> PTRN} bind def
/Pattern19 {<ffffffff33333333ffffffff33333333ffffffff33333333ffffffff33333333> PTRN} bind def
/Pattern20 {<0f0f0f0f0f0f0f0ff0f0f0f0f0f0f0f00f0f0f0f0f0f0f0ff0f0f0f0f0f0f0f0> PTRN} bind def
/Pattern21 {<ff00ff00ff00ff00ff00ff00ff00ff0000ff00ff00ff00ff00ff00ff00ff00ff> PTRN} bind def
/Pattern22 {<8001800180018001800180018001ffffffff8001800180018001800180018001> PTRN} bind def
/Pattern23 {<c003c003c003c003c003c003ffffffffffffffffc003c003c003c003c003c003> PTRN} bind def
/Pattern24 {<040404040404ffff404040404040ffff040404040404ffff404040404040ffff> PTRN} bind def
/Pattern25 {<180018001800180018001800ffffffff001800180018001800180018ffffffff> PTRN} bind def
/Pattern26 {<1111b8b87c7c3a3a1111a3a3c7c78b8b1111b8b87c7c3a3a1111a3a3c7c78b8b> PTRN} bind def
/Pattern27 {<101010102828c7c70101010182827c7c101010102828c7c70101010182827c7c> PTRN} bind def
/Pattern28 {<1c1c121211112121c1c12121111112121c1c121211112121c1c1212111111212> PTRN} bind def
/Pattern29 {<3e3e414180808080e3e31414080808083e3e414180808080e3e3141408080808> PTRN} bind def
/Pattern30 {<4848888884848383848488884848383848488888848483838484888848483838> PTRN} bind def
/Pattern31 {<03030404080808080c0c12122121c0c003030404080808080c0c12122121c0c0> PTRN} bind def
/ellipsedict 8 dict def
ellipsedict /mtrx matrix put
/EARC {
 ellipsedict begin
  /endangle exch def
  /startangle exch def
  /yrad exch def
  /xrad exch def
  /y exch def
  /x exch def
  /savematrix mtrx currentmatrix def
  x y translate
  xrad yrad scale
  0 0 1 startangle endangle arc
  savematrix setmatrix
 end
} def
/TL {
  /kcomp exch def
  /linewidth exch def
  /offset exch def
  GS
  0 offset rmoveto
  linewidth SLW
  dup stringwidth exch kcomp add exch RL s
  GR
} def
/KINIT
{
 /kvector exch def
 /kid 0 def
} def
/KPROC
{
 pop pop
 kvector kid get
 0 rmoveto
 /kid 1 kid add def
} def
/DefEncoding [
 /.notdef
 /.notdef
 /.notdef
 /.notdef
 /.notdef
 /.notdef
 /.notdef
 /.notdef
 /.notdef
 /.notdef
 /.notdef
 /.notdef
 /.notdef
 /.notdef
 /.notdef
 /.notdef
 /.notdef
 /.notdef
 /.notdef
 /.notdef
 /.notdef
 /.notdef
 /.notdef
 /.notdef
 /.notdef
 /.notdef
 /.notdef
 /.notdef
 /.notdef
 /.notdef
 /.notdef
 /.notdef
 /space
 /exclam
 /quotedbl
 /numbersign
 /dollar
 /percent
 /ampersand
 /quoteright
 /parenleft
 /parenright
 /asterisk
 /plus
 /comma
 /hyphen
 /period
 /slash
 /zero
 /one
 /two
 /three
 /four
 /five
 /six
 /seven
 /eight
 /nine
 /colon
 /semicolon
 /less
 /equal
 /greater
 /question
 /at
 /A
 /B
 /C
 /D
 /E
 /F
 /G
 /H
 /I
 /J
 /K
 /L
 /M
 /N
 /O
 /P
 /Q
 /R
 /S
 /T
 /U
 /V
 /W
 /X
 /Y
 /Z
 /bracketleft
 /backslash
 /bracketright
 /asciicircum
 /underscore
 /grave
 /a
 /b
 /c
 /d
 /e
 /f
 /g
 /h
 /i
 /j
 /k
 /l
 /m
 /n
 /o
 /p
 /q
 /r
 /s
 /t
 /u
 /v
 /w
 /x
 /y
 /z
 /braceleft
 /bar
 /braceright
 /asciitilde
 /.notdef
 /.notdef
 /.notdef
 /.notdef
 /.notdef
 /.notdef
 /.notdef
 /.notdef
 /.notdef
 /.notdef
 /.notdef
 /.notdef
 /.notdef
 /.notdef
 /.notdef
 /.notdef
 /.notdef
 /.notdef
 /.notdef
 /.notdef
 /.notdef
 /.notdef
 /.notdef
 /.notdef
 /.notdef
 /.notdef
 /.notdef
 /.notdef
 /.notdef
 /.notdef
 /.notdef
 /.notdef
 /.notdef
 /space
 /exclamdown
 /cent
 /sterling
 /currency
 /yen
 /brokenbar
 /section
 /dieresis
 /copyright
 /ordfeminine
 /guillemotleft
 /logicalnot
 /hyphen
 /registered
 /macron
 /degree
 /plusminus
 /twosuperior
 /threesuperior
 /acute
 /mu
 /paragraph
 /periodcentered
 /cedilla
 /onesuperior
 /ordmasculine
 /guillemotright
 /onequarter
 /onehalf
 /threequarters
 /questiondown
 /Agrave
 /Aacute
 /Acircumflex
 /Atilde
 /Adieresis
 /Aring
 /AE
 /Ccedilla
 /Egrave
 /Eacute
 /Ecircumflex
 /Edieresis
 /Igrave
 /Iacute
 /Icircumflex
 /Idieresis
 /Eth
 /Ntilde
 /Ograve
 /Oacute
 /Ocircumflex
 /Otilde
 /Odieresis
 /multiply
 /Oslash
 /Ugrave
 /Uacute
 /Ucircumflex
 /Udieresis
 /Yacute
 /Thorn
 /germandbls
 /agrave
 /aacute
 /acircumflex
 /atilde
 /adieresis
 /aring
 /ae
 /ccedilla
 /egrave
 /eacute
 /ecircumflex
 /edieresis
 /igrave
 /iacute
 /icircumflex
 /idieresis
 /eth
 /ntilde
 /ograve
 /oacute
 /ocircumflex
 /otilde
 /odieresis
 /divide
 /oslash
 /ugrave
 /uacute
 /ucircumflex
 /udieresis
 /yacute
 /thorn
 /ydieresis
] def
%%EndProlog
%%BeginSetup
%%EndSetup
%%Page: 1 1
PAGE_OFFSET_X PAGE_OFFSET_Y translate
612.00 612.00 scale
90 rotate
0.0 -1.0 translate
n
0.2748 0.2161 m
0.2748 0.2331 l
0.2918 0.2331 l
0.2918 0.2161 l
c
GS
[/DeviceRGB] SCS
Color0 SRGB
fill
GR
[/Pattern /DeviceRGB] SCS
Color1 Pattern8 SC
fill
[/DeviceRGB] SCS
Color1 SC
[] 0 SD
0.0030 SLW
0 SLC
0 SLJ
n
0.2748 0.2161 m
0.2748 0.2331 l
0.2918 0.2331 l
0.2918 0.2161 l
0.2748 0.2161 l
c
s
n
0.4082 0.1737 m
0.4082 0.1907 l
0.4252 0.1907 l
0.4252 0.1737 l
c
GS
Color0 SRGB
fill
GR
[/Pattern /DeviceRGB] SCS
Color1 Pattern8 SC
fill
[/DeviceRGB] SCS
Color1 SC
n
0.4082 0.1737 m
0.4082 0.1907 l
0.4252 0.1907 l
0.4252 0.1737 l
0.4082 0.1737 l
c
s
n
0.4748 0.1743 m
0.4748 0.1913 l
0.4918 0.1913 l
0.4918 0.1743 l
c
GS
Color0 SRGB
fill
GR
[/Pattern /DeviceRGB] SCS
Color1 Pattern8 SC
fill
[/DeviceRGB] SCS
Color1 SC
n
0.4748 0.1743 m
0.4748 0.1913 l
0.4918 0.1913 l
0.4918 0.1743 l
0.4748 0.1743 l
c
s
n
0.6415 0.2222 m
0.6415 0.2392 l
0.6585 0.2392 l
0.6585 0.2222 l
c
GS
Color0 SRGB
fill
GR
[/Pattern /DeviceRGB] SCS
Color1 Pattern8 SC
fill
[/DeviceRGB] SCS
Color1 SC
n
0.6415 0.2222 m
0.6415 0.2392 l
0.6585 0.2392 l
0.6585 0.2222 l
0.6415 0.2222 l
c
s
n
0.8082 0.3234 m
0.8082 0.3404 l
0.8252 0.3404 l
0.8252 0.3234 l
c
GS
Color0 SRGB
fill
GR
[/Pattern /DeviceRGB] SCS
Color1 Pattern8 SC
fill
[/DeviceRGB] SCS
Color1 SC
n
0.8082 0.3234 m
0.8082 0.3404 l
0.8252 0.3404 l
0.8252 0.3234 l
0.8082 0.3234 l
c
s
n
0.9748 0.4699 m
0.9748 0.4869 l
0.9918 0.4869 l
0.9918 0.4699 l
c
GS
Color0 SRGB
fill
GR
[/Pattern /DeviceRGB] SCS
Color1 Pattern8 SC
fill
[/DeviceRGB] SCS
Color1 SC
n
0.9748 0.4699 m
0.9748 0.4869 l
0.9918 0.4869 l
0.9918 0.4699 l
0.9748 0.4699 l
c
s
[] 0 SD
0.0037 SLW
n
0.1500 0.3250 m
0.1500 0.3250 l
0.1500 0.3251 l
0.1500 0.3251 l
0.1500 0.3252 l
0.1500 0.3253 l
0.1500 0.3254 l
0.1501 0.3255 l
0.1501 0.3256 l
0.1501 0.3257 l
0.1501 0.3258 l
0.1502 0.3259 l
0.1502 0.3260 l
0.1503 0.3261 l
0.1504 0.3261 l
0.1505 0.3262 l
0.1506 0.3263 l
0.1507 0.3263 l
0.1508 0.3263 l
0.1509 0.3263 l
0.1510 0.3263 l
0.1512 0.3263 l
0.1514 0.3262 l
0.1516 0.3261 l
0.1518 0.3260 l
0.1520 0.3259 l
0.1522 0.3257 l
0.1525 0.3256 l
0.1527 0.3254 l
0.1530 0.3251 l
0.1534 0.3248 l
0.1537 0.3245 l
0.1540 0.3242 l
0.1544 0.3238 l
0.1548 0.3234 l
0.1553 0.3230 l
0.1557 0.3225 l
0.1562 0.3220 l
0.1567 0.3214 l
0.1572 0.3209 l
0.1578 0.3202 l
0.1583 0.3196 l
0.1590 0.3189 l
0.1596 0.3181 l
0.1603 0.3174 l
0.1610 0.3165 l
0.1617 0.3157 l
0.1625 0.3148 l
0.1632 0.3139 l
0.1641 0.3129 l
0.1649 0.3119 l
0.1658 0.3108 l
0.1668 0.3097 l
0.1677 0.3086 l
0.1687 0.3074 l
0.1698 0.3062 l
0.1708 0.3050 l
0.1720 0.3037 l
0.1731 0.3024 l
0.1743 0.3010 l
0.1756 0.2996 l
0.1768 0.2982 l
0.1782 0.2967 l
0.1795 0.2952 l
0.1809 0.2937 l
0.1824 0.2921 l
0.1839 0.2905 l
0.1854 0.2889 l
0.1870 0.2872 l
0.1886 0.2855 l
0.1903 0.2838 l
0.1920 0.2821 l
0.1938 0.2803 l
0.1956 0.2785 l
0.1975 0.2766 l
0.1994 0.2748 l
0.2014 0.2729 l
0.2034 0.2710 l
0.2055 0.2691 l
0.2076 0.2671 l
0.2098 0.2652 l
0.2121 0.2632 l
0.2144 0.2612 l
0.2167 0.2592 l
0.2191 0.2572 l
0.2216 0.2552 l
0.2241 0.2531 l
0.2267 0.2511 l
0.2294 0.2490 l
0.2321 0.2470 l
0.2348 0.2449 l
0.2377 0.2428 l
0.2406 0.2408 l
0.2435 0.2387 l
0.2465 0.2367 l
0.2496 0.2346 l
0.2527 0.2326 l
0.2560 0.2306 l
0.2592 0.2285 l
0.2626 0.2265 l
0.2660 0.2246 l
0.2695 0.2226 l
0.2730 0.2206 l
0.2766 0.2187 l
0.2803 0.2168 l
0.2841 0.2149 l
0.2879 0.2131 l
0.2918 0.2113 l
0.2958 0.2095 l
0.2998 0.2078 l
0.3040 0.2061 l
0.3082 0.2044 l
0.3124 0.2028 l
0.3168 0.2012 l
0.3212 0.1997 l
0.3257 0.1983 l
0.3303 0.1968 l
0.3350 0.1955 l
0.3397 0.1942 l
0.3445 0.1930 l
0.3494 0.1918 l
0.3544 0.1907 l
0.3595 0.1897 l
0.3646 0.1887 l
0.3699 0.1878 l
0.3752 0.1870 l
0.3806 0.1863 l
0.3861 0.1857 l
0.3917 0.1851 l
0.3973 0.1847 l
0.4031 0.1843 l
0.4089 0.1841 l
0.4149 0.1839 l
0.4209 0.1839 l
0.4270 0.1839 l
0.4332 0.1841 l
0.4395 0.1844 l
0.4459 0.1848 l
0.4523 0.1853 l
0.4589 0.1859 l
0.4656 0.1867 l
0.4723 0.1876 l
0.4792 0.1886 l
0.4862 0.1898 l
0.4932 0.1911 l
0.5004 0.1926 l
0.5076 0.1942 l
0.5150 0.1959 l
0.5224 0.1978 l
0.5300 0.1999 l
0.5376 0.2021 l
0.5454 0.2045 l
0.5532 0.2071 l
0.5612 0.2099 l
0.5692 0.2128 l
0.5774 0.2159 l
0.5857 0.2192 l
0.5940 0.2227 l
0.6025 0.2263 l
0.6111 0.2302 l
0.6198 0.2343 l
0.6286 0.2386 l
0.6376 0.2431 l
0.6466 0.2478 l
0.6557 0.2527 l
0.6650 0.2578 l
0.6743 0.2632 l
0.6838 0.2688 l
0.6934 0.2746 l
0.7031 0.2807 l
0.7129 0.2870 l
0.7229 0.2935 l
0.7329 0.3004 l
0.7431 0.3074 l
0.7534 0.3147 l
0.7638 0.3223 l
0.7743 0.3302 l
0.7849 0.3383 l
0.7957 0.3467 l
0.8066 0.3554 l
0.8176 0.3644 l
0.8287 0.3737 l
0.8399 0.3833 l
0.8513 0.3931 l
0.8628 0.4033 l
0.8744 0.4138 l
0.8862 0.4246 l
0.8981 0.4357 l
0.9101 0.4472 l
0.9222 0.4589 l
0.9344 0.4710 l
0.9468 0.4835 l
0.9593 0.4963 l
0.9720 0.5094 l
0.9848 0.5229 l
0.9977 0.5367 l
1.0107 0.5510 l
1.0239 0.5655 l
1.0372 0.5805 l
1.0506 0.5958 l
1.0642 0.6115 l
1.0779 0.6276 l
1.0918 0.6441 l
1.1058 0.6610 l
1.1199 0.6783 l
1.1341 0.6961 l
1.1485 0.7142 l
1.1501 0.7162 l
s
[/DeviceRGB] SCS
Color2 SC
[0.0187 0.0112 ] 0 SD
0.0037 SLW
n
0.1500 0.3250 m
0.1500 0.3250 l
0.1500 0.3251 l
0.1500 0.3251 l
0.1500 0.3252 l
0.1500 0.3253 l
0.1500 0.3254 l
0.1501 0.3255 l
0.1501 0.3256 l
0.1501 0.3257 l
0.1501 0.3258 l
0.1502 0.3259 l
0.1502 0.3260 l
0.1503 0.3261 l
0.1504 0.3262 l
0.1505 0.3263 l
0.1506 0.3263 l
0.1507 0.3264 l
0.1508 0.3264 l
0.1509 0.3264 l
0.1510 0.3264 l
0.1512 0.3264 l
0.1514 0.3264 l
0.1516 0.3263 l
0.1518 0.3262 l
0.1520 0.3261 l
0.1522 0.3260 l
0.1525 0.3258 l
0.1527 0.3256 l
0.1530 0.3254 l
0.1534 0.3252 l
0.1537 0.3249 l
0.1540 0.3246 l
0.1544 0.3242 l
0.1548 0.3239 l
0.1553 0.3234 l
0.1557 0.3230 l
0.1562 0.3225 l
0.1567 0.3220 l
0.1572 0.3214 l
0.1578 0.3209 l
0.1583 0.3202 l
0.1590 0.3196 l
0.1596 0.3189 l
0.1603 0.3181 l
0.1610 0.3173 l
0.1617 0.3165 l
0.1625 0.3157 l
0.1632 0.3148 l
0.1641 0.3138 l
0.1649 0.3128 l
0.1658 0.3118 l
0.1668 0.3108 l
0.1677 0.3097 l
0.1687 0.3085 l
0.1698 0.3073 l
0.1708 0.3061 l
0.1720 0.3049 l
0.1731 0.3036 l
0.1743 0.3022 l
0.1756 0.3009 l
0.1768 0.2995 l
0.1782 0.2980 l
0.1795 0.2965 l
0.1809 0.2950 l
0.1824 0.2934 l
0.1839 0.2918 l
0.1854 0.2902 l
0.1870 0.2886 l
0.1886 0.2869 l
0.1903 0.2851 l
0.1920 0.2834 l
0.1938 0.2816 l
0.1956 0.2798 l
0.1975 0.2779 l
0.1994 0.2761 l
0.2014 0.2742 l
0.2034 0.2722 l
0.2055 0.2703 l
0.2076 0.2683 l
0.2098 0.2663 l
0.2121 0.2643 l
0.2144 0.2623 l
0.2167 0.2602 l
0.2191 0.2582 l
0.2216 0.2561 l
0.2241 0.2540 l
0.2267 0.2519 l
0.2294 0.2498 l
0.2321 0.2477 l
0.2348 0.2455 l
0.2377 0.2434 l
0.2406 0.2413 l
0.2435 0.2391 l
0.2465 0.2370 l
0.2496 0.2348 l
0.2527 0.2327 l
0.2560 0.2306 l
0.2592 0.2285 l
0.2626 0.2264 l
0.2660 0.2243 l
0.2695 0.2222 l
0.2730 0.2202 l
0.2766 0.2181 l
0.2803 0.2161 l
0.2841 0.2142 l
0.2879 0.2122 l
0.2918 0.2103 l
0.2958 0.2084 l
0.2998 0.2065 l
0.3040 0.2047 l
0.3082 0.2029 l
0.3124 0.2012 l
0.3168 0.1995 l
0.3212 0.1979 l
0.3257 0.1963 l
0.3303 0.1948 l
0.3350 0.1933 l
0.3397 0.1919 l
0.3445 0.1906 l
0.3494 0.1893 l
0.3544 0.1881 l
0.3595 0.1870 l
0.3646 0.1860 l
0.3699 0.1850 l
0.3752 0.1841 l
0.3806 0.1834 l
0.3861 0.1827 l
0.3917 0.1821 l
0.3973 0.1816 l
0.4031 0.1812 l
0.4089 0.1809 l
0.4149 0.1807 l
0.4209 0.1807 l
0.4270 0.1808 l
0.4332 0.1810 l
0.4395 0.1813 l
0.4459 0.1817 l
0.4523 0.1823 l
0.4589 0.1830 l
0.4656 0.1839 l
0.4723 0.1849 l
0.4792 0.1861 l
0.4862 0.1875 l
0.4932 0.1890 l
0.5004 0.1906 l
0.5076 0.1925 l
0.5150 0.1945 l
0.5224 0.1967 l
0.5300 0.1991 l
0.5376 0.2017 l
0.5454 0.2045 l
0.5532 0.2074 l
0.5612 0.2106 l
0.5692 0.2140 l
0.5774 0.2176 l
0.5857 0.2215 l
0.5940 0.2255 l
0.6025 0.2298 l
0.6111 0.2344 l
0.6198 0.2392 l
0.6286 0.2442 l
0.6376 0.2495 l
0.6466 0.2551 l
0.6557 0.2609 l
0.6650 0.2670 l
0.6743 0.2734 l
0.6838 0.2800 l
0.6934 0.2870 l
0.7031 0.2942 l
0.7129 0.3018 l
0.7229 0.3096 l
0.7329 0.3178 l
0.7431 0.3263 l
0.7534 0.3351 l
0.7638 0.3443 l
0.7743 0.3538 l
0.7849 0.3637 l
0.7957 0.3739 l
0.8066 0.3845 l
0.8176 0.3954 l
0.8287 0.4067 l
0.8399 0.4184 l
0.8513 0.4305 l
0.8628 0.4430 l
0.8744 0.4559 l
0.8862 0.4692 l
0.8981 0.4829 l
0.9101 0.4971 l
0.9222 0.5117 l
0.9344 0.5267 l
0.9468 0.5422 l
0.9593 0.5581 l
0.9720 0.5745 l
0.9848 0.5914 l
0.9977 0.6087 l
1.0107 0.6266 l
1.0239 0.6449 l
1.0372 0.6638 l
1.0506 0.6831 l
1.0642 0.7030 l
1.0779 0.7234 l
1.0918 0.7443 l
1.1058 0.7658 l
1.1199 0.7879 l
1.1341 0.8105 l
1.1485 0.8337 l
1.1501 0.8362 l
s
[/DeviceRGB] SCS
Color4 SC
[0.0037 0.0112 ] 0 SD
0.0037 SLW
n
0.1500 0.3250 m
0.1500 0.3250 l
0.1500 0.3251 l
0.1500 0.3251 l
0.1500 0.3252 l
0.1500 0.3253 l
0.1500 0.3254 l
0.1501 0.3255 l
0.1501 0.3256 l
0.1501 0.3257 l
0.1501 0.3258 l
0.1502 0.3259 l
0.1502 0.3260 l
0.1503 0.3261 l
0.1504 0.3262 l
0.1505 0.3263 l
0.1506 0.3263 l
0.1507 0.3264 l
0.1508 0.3264 l
0.1509 0.3264 l
0.1510 0.3264 l
0.1512 0.3264 l
0.1514 0.3264 l
0.1516 0.3263 l
0.1518 0.3262 l
0.1520 0.3261 l
0.1522 0.3260 l
0.1525 0.3258 l
0.1527 0.3256 l
0.1530 0.3254 l
0.1534 0.3252 l
0.1537 0.3249 l
0.1540 0.3246 l
0.1544 0.3243 l
0.1548 0.3239 l
0.1553 0.3235 l
0.1557 0.3230 l
0.1562 0.3225 l
0.1567 0.3220 l
0.1572 0.3215 l
0.1578 0.3209 l
0.1583 0.3203 l
0.1590 0.3196 l
0.1596 0.3189 l
0.1603 0.3182 l
0.1610 0.3174 l
0.1617 0.3166 l
0.1625 0.3157 l
0.1632 0.3148 l
0.1641 0.3139 l
0.1649 0.3129 l
0.1658 0.3119 l
0.1668 0.3109 l
0.1677 0.3098 l
0.1687 0.3087 l
0.1698 0.3075 l
0.1708 0.3063 l
0.1720 0.3051 l
0.1731 0.3038 l
0.1743 0.3025 l
0.1756 0.3011 l
0.1768 0.2997 l
0.1782 0.2983 l
0.1795 0.2968 l
0.1809 0.2953 l
0.1824 0.2938 l
0.1839 0.2922 l
0.1854 0.2906 l
0.1870 0.2890 l
0.1886 0.2873 l
0.1903 0.2856 l
0.1920 0.2839 l
0.1938 0.2821 l
0.1956 0.2803 l
0.1975 0.2785 l
0.1994 0.2767 l
0.2014 0.2748 l
0.2034 0.2729 l
0.2055 0.2710 l
0.2076 0.2691 l
0.2098 0.2671 l
0.2121 0.2652 l
0.2144 0.2632 l
0.2167 0.2612 l
0.2191 0.2592 l
0.2216 0.2571 l
0.2241 0.2551 l
0.2267 0.2530 l
0.2294 0.2510 l
0.2321 0.2489 l
0.2348 0.2468 l
0.2377 0.2447 l
0.2406 0.2426 l
0.2435 0.2406 l
0.2465 0.2385 l
0.2496 0.2364 l
0.2527 0.2343 l
0.2560 0.2323 l
0.2592 0.2302 l
0.2626 0.2282 l
0.2660 0.2262 l
0.2695 0.2241 l
0.2730 0.2222 l
0.2766 0.2202 l
0.2803 0.2182 l
0.2841 0.2163 l
0.2879 0.2144 l
0.2918 0.2126 l
0.2958 0.2107 l
0.2998 0.2089 l
0.3040 0.2072 l
0.3082 0.2055 l
0.3124 0.2038 l
0.3168 0.2022 l
0.3212 0.2006 l
0.3257 0.1991 l
0.3303 0.1976 l
0.3350 0.1962 l
0.3397 0.1948 l
0.3445 0.1935 l
0.3494 0.1923 l
0.3544 0.1912 l
0.3595 0.1901 l
0.3646 0.1891 l
0.3699 0.1881 l
0.3752 0.1873 l
0.3806 0.1865 l
0.3861 0.1859 l
0.3917 0.1853 l
0.3973 0.1848 l
0.4031 0.1845 l
0.4089 0.1842 l
0.4149 0.1840 l
0.4209 0.1840 l
0.4270 0.1840 l
0.4332 0.1842 l
0.4395 0.1845 l
0.4459 0.1849 l
0.4523 0.1855 l
0.4589 0.1862 l
0.4656 0.1870 l
0.4723 0.1880 l
0.4792 0.1891 l
0.4862 0.1904 l
0.4932 0.1918 l
0.5004 0.1934 l
0.5076 0.1951 l
0.5150 0.1970 l
0.5224 0.1991 l
0.5300 0.2014 l
0.5376 0.2038 l
0.5454 0.2064 l
0.5532 0.2093 l
0.5612 0.2123 l
0.5692 0.2155 l
0.5774 0.2189 l
0.5857 0.2226 l
0.5940 0.2264 l
0.6025 0.2305 l
0.6111 0.2348 l
0.6198 0.2393 l
0.6286 0.2441 l
0.6376 0.2491 l
0.6466 0.2543 l
0.6557 0.2598 l
0.6650 0.2656 l
0.6743 0.2716 l
0.6838 0.2779 l
0.6934 0.2845 l
0.7031 0.2913 l
0.7129 0.2985 l
0.7229 0.3059 l
0.7329 0.3136 l
0.7431 0.3217 l
0.7534 0.3300 l
0.7638 0.3386 l
0.7743 0.3476 l
0.7849 0.3569 l
0.7957 0.3666 l
0.8066 0.3765 l
0.8176 0.3869 l
0.8287 0.3975 l
0.8399 0.4086 l
0.8513 0.4200 l
0.8628 0.4318 l
0.8744 0.4439 l
0.8862 0.4565 l
0.8981 0.4694 l
0.9101 0.4827 l
0.9222 0.4965 l
0.9344 0.5106 l
0.9468 0.5252 l
0.9593 0.5402 l
0.9720 0.5557 l
0.9848 0.5716 l
0.9977 0.5879 l
1.0107 0.6047 l
1.0239 0.6220 l
1.0372 0.6397 l
1.0506 0.6580 l
1.0642 0.6767 l
1.0779 0.6959 l
1.0918 0.7156 l
1.1058 0.7359 l
1.1199 0.7566 l
1.1341 0.7779 l
1.1485 0.7997 l
1.1501 0.8021 l
s
[/DeviceRGB] SCS
Color11 SC
[0.0037 0.0112 0.0187 0.0112 ] 0 SD
0.0037 SLW
n
0.1500 0.3250 m
0.1500 0.3250 l
0.1500 0.3251 l
0.1500 0.3251 l
0.1500 0.3252 l
0.1500 0.3253 l
0.1500 0.3254 l
0.1501 0.3255 l
0.1501 0.3256 l
0.1501 0.3257 l
0.1501 0.3258 l
0.1502 0.3259 l
0.1502 0.3260 l
0.1503 0.3261 l
0.1504 0.3262 l
0.1505 0.3263 l
0.1506 0.3263 l
0.1507 0.3264 l
0.1508 0.3264 l
0.1509 0.3264 l
0.1510 0.3264 l
0.1512 0.3264 l
0.1514 0.3264 l
0.1516 0.3263 l
0.1518 0.3262 l
0.1520 0.3261 l
0.1522 0.3260 l
0.1525 0.3259 l
0.1527 0.3257 l
0.1530 0.3255 l
0.1534 0.3252 l
0.1537 0.3249 l
0.1540 0.3246 l
0.1544 0.3243 l
0.1548 0.3239 l
0.1553 0.3235 l
0.1557 0.3231 l
0.1562 0.3226 l
0.1567 0.3221 l
0.1572 0.3215 l
0.1578 0.3209 l
0.1583 0.3203 l
0.1590 0.3197 l
0.1596 0.3190 l
0.1603 0.3182 l
0.1610 0.3174 l
0.1617 0.3166 l
0.1625 0.3158 l
0.1632 0.3149 l
0.1641 0.3139 l
0.1649 0.3130 l
0.1658 0.3119 l
0.1668 0.3109 l
0.1677 0.3098 l
0.1687 0.3087 l
0.1698 0.3075 l
0.1708 0.3063 l
0.1720 0.3050 l
0.1731 0.3037 l
0.1743 0.3024 l
0.1756 0.3010 l
0.1768 0.2996 l
0.1782 0.2981 l
0.1795 0.2967 l
0.1809 0.2951 l
0.1824 0.2936 l
0.1839 0.2920 l
0.1854 0.2903 l
0.1870 0.2887 l
0.1886 0.2870 l
0.1903 0.2852 l
0.1920 0.2835 l
0.1938 0.2817 l
0.1956 0.2798 l
0.1975 0.2780 l
0.1994 0.2761 l
0.2014 0.2742 l
0.2034 0.2722 l
0.2055 0.2702 l
0.2076 0.2683 l
0.2098 0.2662 l
0.2121 0.2642 l
0.2144 0.2621 l
0.2167 0.2600 l
0.2191 0.2579 l
0.2216 0.2558 l
0.2241 0.2537 l
0.2267 0.2515 l
0.2294 0.2494 l
0.2321 0.2472 l
0.2348 0.2450 l
0.2377 0.2428 l
0.2406 0.2406 l
0.2435 0.2384 l
0.2465 0.2362 l
0.2496 0.2340 l
0.2527 0.2318 l
0.2560 0.2296 l
0.2592 0.2274 l
0.2626 0.2252 l
0.2660 0.2230 l
0.2695 0.2209 l
0.2730 0.2187 l
0.2766 0.2165 l
0.2803 0.2144 l
0.2841 0.2123 l
0.2879 0.2102 l
0.2918 0.2082 l
0.2958 0.2061 l
0.2998 0.2041 l
0.3040 0.2021 l
0.3082 0.2002 l
0.3124 0.1983 l
0.3168 0.1964 l
0.3212 0.1946 l
0.3257 0.1928 l
0.3303 0.1910 l
0.3350 0.1894 l
0.3397 0.1877 l
0.3445 0.1861 l
0.3494 0.1846 l
0.3544 0.1831 l
0.3595 0.1817 l
0.3646 0.1804 l
0.3699 0.1792 l
0.3752 0.1780 l
0.3806 0.1768 l
0.3861 0.1758 l
0.3917 0.1749 l
0.3973 0.1740 l
0.4031 0.1732 l
0.4089 0.1725 l
0.4149 0.1720 l
0.4209 0.1715 l
0.4270 0.1711 l
0.4332 0.1708 l
0.4395 0.1706 l
0.4459 0.1706 l
0.4523 0.1706 l
0.4589 0.1708 l
0.4656 0.1711 l
0.4723 0.1716 l
0.4792 0.1722 l
0.4862 0.1729 l
0.4932 0.1737 l
0.5004 0.1747 l
0.5076 0.1759 l
0.5150 0.1772 l
0.5224 0.1786 l
0.5300 0.1802 l
0.5376 0.1820 l
0.5454 0.1840 l
0.5532 0.1861 l
0.5612 0.1884 l
0.5692 0.1909 l
0.5774 0.1936 l
0.5857 0.1964 l
0.5940 0.1995 l
0.6025 0.2028 l
0.6111 0.2062 l
0.6198 0.2099 l
0.6286 0.2138 l
0.6376 0.2179 l
0.6466 0.2223 l
0.6557 0.2268 l
0.6650 0.2317 l
0.6743 0.2367 l
0.6838 0.2420 l
0.6934 0.2475 l
0.7031 0.2533 l
0.7129 0.2594 l
0.7229 0.2657 l
0.7329 0.2723 l
0.7431 0.2792 l
0.7534 0.2864 l
0.7638 0.2938 l
0.7743 0.3015 l
0.7849 0.3096 l
0.7957 0.3179 l
0.8066 0.3266 l
0.8176 0.3355 l
0.8287 0.3448 l
0.8399 0.3544 l
0.8513 0.3644 l
0.8628 0.3747 l
0.8744 0.3853 l
0.8862 0.3963 l
0.8981 0.4076 l
0.9101 0.4193 l
0.9222 0.4314 l
0.9344 0.4438 l
0.9468 0.4567 l
0.9593 0.4699 l
0.9720 0.4835 l
0.9848 0.4975 l
0.9977 0.5119 l
1.0107 0.5268 l
1.0239 0.5420 l
1.0372 0.5577 l
1.0506 0.5738 l
1.0642 0.5904 l
1.0779 0.6074 l
1.0918 0.6248 l
1.1058 0.6427 l
1.1199 0.6611 l
1.1341 0.6800 l
1.1485 0.6993 l
1.1501 0.7014 l
s
[/DeviceRGB] SCS
Color3 SC
[0.0037 0.0112 0.0187 0.0112 0.0037 0.0112 ] 0 SD
0.0037 SLW
n
0.1500 0.3250 m
0.1500 0.3250 l
0.1500 0.3251 l
0.1500 0.3251 l
0.1500 0.3252 l
0.1500 0.3253 l
0.1500 0.3254 l
0.1501 0.3255 l
0.1501 0.3256 l
0.1501 0.3257 l
0.1501 0.3258 l
0.1502 0.3259 l
0.1502 0.3260 l
0.1503 0.3261 l
0.1504 0.3262 l
0.1505 0.3263 l
0.1506 0.3264 l
0.1507 0.3264 l
0.1508 0.3264 l
0.1509 0.3265 l
0.1510 0.3265 l
0.1512 0.3265 l
0.1514 0.3264 l
0.1516 0.3264 l
0.1518 0.3263 l
0.1520 0.3262 l
0.1522 0.3261 l
0.1525 0.3259 l
0.1527 0.3258 l
0.1530 0.3255 l
0.1534 0.3253 l
0.1537 0.3250 l
0.1540 0.3247 l
0.1544 0.3244 l
0.1548 0.3241 l
0.1553 0.3237 l
0.1557 0.3232 l
0.1562 0.3228 l
0.1567 0.3223 l
0.1572 0.3217 l
0.1578 0.3211 l
0.1583 0.3205 l
0.1590 0.3199 l
0.1596 0.3192 l
0.1603 0.3185 l
0.1610 0.3177 l
0.1617 0.3169 l
0.1625 0.3160 l
0.1632 0.3152 l
0.1641 0.3142 l
0.1649 0.3133 l
0.1658 0.3123 l
0.1668 0.3112 l
0.1677 0.3102 l
0.1687 0.3090 l
0.1698 0.3079 l
0.1708 0.3067 l
0.1720 0.3054 l
0.1731 0.3042 l
0.1743 0.3028 l
0.1756 0.3015 l
0.1768 0.3001 l
0.1782 0.2987 l
0.1795 0.2972 l
0.1809 0.2957 l
0.1824 0.2942 l
0.1839 0.2926 l
0.1854 0.2910 l
0.1870 0.2893 l
0.1886 0.2877 l
0.1903 0.2860 l
0.1920 0.2842 l
0.1938 0.2825 l
0.1956 0.2807 l
0.1975 0.2789 l
0.1994 0.2770 l
0.2014 0.2751 l
0.2034 0.2732 l
0.2055 0.2713 l
0.2076 0.2694 l
0.2098 0.2674 l
0.2121 0.2654 l
0.2144 0.2634 l
0.2167 0.2614 l
0.2191 0.2593 l
0.2216 0.2573 l
0.2241 0.2552 l
0.2267 0.2531 l
0.2294 0.2511 l
0.2321 0.2490 l
0.2348 0.2469 l
0.2377 0.2448 l
0.2406 0.2427 l
0.2435 0.2406 l
0.2465 0.2384 l
0.2496 0.2363 l
0.2527 0.2342 l
0.2560 0.2322 l
0.2592 0.2301 l
0.2626 0.2280 l
0.2660 0.2260 l
0.2695 0.2239 l
0.2730 0.2219 l
0.2766 0.2199 l
0.2803 0.2179 l
0.2841 0.2160 l
0.2879 0.2140 l
0.2918 0.2122 l
0.2958 0.2103 l
0.2998 0.2085 l
0.3040 0.2067 l
0.3082 0.2049 l
0.3124 0.2032 l
0.3168 0.2016 l
0.3212 0.2000 l
0.3257 0.1984 l
0.3303 0.1969 l
0.3350 0.1955 l
0.3397 0.1941 l
0.3445 0.1928 l
0.3494 0.1916 l
0.3544 0.1904 l
0.3595 0.1893 l
0.3646 0.1883 l
0.3699 0.1873 l
0.3752 0.1865 l
0.3806 0.1857 l
0.3861 0.1850 l
0.3917 0.1844 l
0.3973 0.1840 l
0.4031 0.1836 l
0.4089 0.1833 l
0.4149 0.1831 l
0.4209 0.1831 l
0.4270 0.1831 l
0.4332 0.1833 l
0.4395 0.1836 l
0.4459 0.1841 l
0.4523 0.1846 l
0.4589 0.1853 l
0.4656 0.1862 l
0.4723 0.1872 l
0.4792 0.1883 l
0.4862 0.1896 l
0.4932 0.1911 l
0.5004 0.1927 l
0.5076 0.1945 l
0.5150 0.1964 l
0.5224 0.1985 l
0.5300 0.2008 l
0.5376 0.2033 l
0.5454 0.2060 l
0.5532 0.2089 l
0.5612 0.2120 l
0.5692 0.2152 l
0.5774 0.2187 l
0.5857 0.2224 l
0.5940 0.2264 l
0.6025 0.2305 l
0.6111 0.2349 l
0.6198 0.2395 l
0.6286 0.2443 l
0.6376 0.2494 l
0.6466 0.2548 l
0.6557 0.2604 l
0.6650 0.2663 l
0.6743 0.2724 l
0.6838 0.2788 l
0.6934 0.2855 l
0.7031 0.2924 l
0.7129 0.2997 l
0.7229 0.3072 l
0.7329 0.3151 l
0.7431 0.3232 l
0.7534 0.3317 l
0.7638 0.3405 l
0.7743 0.3496 l
0.7849 0.3590 l
0.7957 0.3688 l
0.8066 0.3789 l
0.8176 0.3894 l
0.8287 0.4002 l
0.8399 0.4114 l
0.8513 0.4230 l
0.8628 0.4349 l
0.8744 0.4472 l
0.8862 0.4599 l
0.8981 0.4730 l
0.9101 0.4865 l
0.9222 0.5004 l
0.9344 0.5148 l
0.9468 0.5295 l
0.9593 0.5447 l
0.9720 0.5603 l
0.9848 0.5764 l
0.9977 0.5929 l
1.0107 0.6099 l
1.0239 0.6273 l
1.0372 0.6452 l
1.0506 0.6636 l
1.0642 0.6825 l
1.0779 0.7019 l
1.0918 0.7217 l
1.1058 0.7421 l
1.1199 0.7630 l
1.1341 0.7845 l
1.1485 0.8065 l
1.1501 0.8089 l
s
[/DeviceRGB] SCS
Color8 SC
[0.0187 0.0112 0.0037 0.0112 0.0187 0.0112 ] 0 SD
0.0037 SLW
n
0.1500 0.3250 m
0.1500 0.3250 l
0.1500 0.3251 l
0.1500 0.3252 l
0.1500 0.3252 l
0.1500 0.3253 l
0.1500 0.3254 l
0.1501 0.3255 l
0.1501 0.3256 l
0.1501 0.3257 l
0.1501 0.3258 l
0.1502 0.3260 l
0.1502 0.3261 l
0.1503 0.3262 l
0.1504 0.3263 l
0.1505 0.3263 l
0.1506 0.3264 l
0.1507 0.3265 l
0.1508 0.3265 l
0.1509 0.3266 l
0.1510 0.3266 l
0.1512 0.3266 l
0.1514 0.3266 l
0.1516 0.3266 l
0.1518 0.3265 l
0.1520 0.3264 l
0.1522 0.3263 l
0.1525 0.3262 l
0.1527 0.3261 l
0.1530 0.3259 l
0.1534 0.3257 l
0.1537 0.3254 l
0.1540 0.3252 l
0.1544 0.3249 l
0.1548 0.3246 l
0.1553 0.3242 l
0.1557 0.3238 l
0.1562 0.3234 l
0.1567 0.3229 l
0.1572 0.3224 l
0.1578 0.3219 l
0.1583 0.3213 l
0.1590 0.3207 l
0.1596 0.3200 l
0.1603 0.3194 l
0.1610 0.3186 l
0.1617 0.3179 l
0.1625 0.3171 l
0.1632 0.3162 l
0.1641 0.3153 l
0.1649 0.3144 l
0.1658 0.3135 l
0.1668 0.3125 l
0.1677 0.3114 l
0.1687 0.3104 l
0.1698 0.3092 l
0.1708 0.3081 l
0.1720 0.3069 l
0.1731 0.3056 l
0.1743 0.3044 l
0.1756 0.3031 l
0.1768 0.3017 l
0.1782 0.3003 l
0.1795 0.2989 l
0.1809 0.2974 l
0.1824 0.2959 l
0.1839 0.2944 l
0.1854 0.2928 l
0.1870 0.2912 l
0.1886 0.2895 l
0.1903 0.2879 l
0.1920 0.2862 l
0.1938 0.2844 l
0.1956 0.2826 l
0.1975 0.2808 l
0.1994 0.2790 l
0.2014 0.2772 l
0.2034 0.2753 l
0.2055 0.2734 l
0.2076 0.2714 l
0.2098 0.2695 l
0.2121 0.2675 l
0.2144 0.2655 l
0.2167 0.2634 l
0.2191 0.2614 l
0.2216 0.2593 l
0.2241 0.2573 l
0.2267 0.2552 l
0.2294 0.2531 l
0.2321 0.2510 l
0.2348 0.2489 l
0.2377 0.2467 l
0.2406 0.2446 l
0.2435 0.2425 l
0.2465 0.2403 l
0.2496 0.2382 l
0.2527 0.2361 l
0.2560 0.2339 l
0.2592 0.2318 l
0.2626 0.2297 l
0.2660 0.2276 l
0.2695 0.2255 l
0.2730 0.2235 l
0.2766 0.2214 l
0.2803 0.2194 l
0.2841 0.2174 l
0.2879 0.2154 l
0.2918 0.2135 l
0.2958 0.2115 l
0.2998 0.2097 l
0.3040 0.2078 l
0.3082 0.2060 l
0.3124 0.2043 l
0.3168 0.2025 l
0.3212 0.2009 l
0.3257 0.1993 l
0.3303 0.1977 l
0.3350 0.1962 l
0.3397 0.1948 l
0.3445 0.1934 l
0.3494 0.1921 l
0.3544 0.1909 l
0.3595 0.1897 l
0.3646 0.1887 l
0.3699 0.1877 l
0.3752 0.1868 l
0.3806 0.1860 l
0.3861 0.1852 l
0.3917 0.1846 l
0.3973 0.1841 l
0.4031 0.1837 l
0.4089 0.1834 l
0.4149 0.1832 l
0.4209 0.1832 l
0.4270 0.1832 l
0.4332 0.1834 l
0.4395 0.1838 l
0.4459 0.1842 l
0.4523 0.1848 l
0.4589 0.1856 l
0.4656 0.1865 l
0.4723 0.1876 l
0.4792 0.1888 l
0.4862 0.1902 l
0.4932 0.1917 l
0.5004 0.1935 l
0.5076 0.1954 l
0.5150 0.1975 l
0.5224 0.1998 l
0.5300 0.2023 l
0.5376 0.2050 l
0.5454 0.2079 l
0.5532 0.2110 l
0.5612 0.2144 l
0.5692 0.2180 l
0.5774 0.2218 l
0.5857 0.2258 l
0.5940 0.2301 l
0.6025 0.2346 l
0.6111 0.2394 l
0.6198 0.2445 l
0.6286 0.2498 l
0.6376 0.2554 l
0.6466 0.2613 l
0.6557 0.2675 l
0.6650 0.2740 l
0.6743 0.2807 l
0.6838 0.2878 l
0.6934 0.2952 l
0.7031 0.3029 l
0.7129 0.3110 l
0.7229 0.3194 l
0.7329 0.3281 l
0.7431 0.3372 l
0.7534 0.3466 l
0.7638 0.3564 l
0.7743 0.3666 l
0.7849 0.3772 l
0.7957 0.3882 l
0.8066 0.3995 l
0.8176 0.4113 l
0.8287 0.4235 l
0.8399 0.4361 l
0.8513 0.4491 l
0.8628 0.4626 l
0.8744 0.4765 l
0.8862 0.4909 l
0.8981 0.5058 l
0.9101 0.5211 l
0.9222 0.5369 l
0.9344 0.5532 l
0.9468 0.5700 l
0.9593 0.5873 l
0.9720 0.6052 l
0.9848 0.6235 l
0.9977 0.6424 l
1.0107 0.6619 l
1.0239 0.6819 l
1.0372 0.7025 l
1.0506 0.7236 l
1.0642 0.7454 l
1.0779 0.7677 l
1.0918 0.7907 l
1.1058 0.8143 l
1.1199 0.8385 l
1.1266 0.8501 l
s
[/DeviceRGB] SCS
Color1 SC
[] 0 SD
0.0045 SLW
n
0.1500 0.1500 m
1.1500 0.1500 l
s
n
0.1500 0.8500 m
1.1500 0.8500 l
s
n
0.2333 0.1500 m
0.2333 0.1600 l
s
n
0.2333 0.8500 m
0.2333 0.8400 l
s
n
0.4000 0.1500 m
0.4000 0.1600 l
s
n
0.4000 0.8500 m
0.4000 0.8400 l
s
n
0.5667 0.1500 m
0.5667 0.1600 l
s
n
0.5667 0.8500 m
0.5667 0.8400 l
s
n
0.7333 0.1500 m
0.7333 0.1600 l
s
n
0.7333 0.8500 m
0.7333 0.8400 l
s
n
0.9000 0.1500 m
0.9000 0.1600 l
s
n
0.9000 0.8500 m
0.9000 0.8400 l
s
n
1.0667 0.1500 m
1.0667 0.1600 l
s
n
1.0667 0.8500 m
1.0667 0.8400 l
s
n
0.1500 0.1500 m
0.1500 0.1700 l
s
n
0.1500 0.8500 m
0.1500 0.8300 l
s
n
0.3167 0.1500 m
0.3167 0.1700 l
s
n
0.3167 0.8500 m
0.3167 0.8300 l
s
n
0.4833 0.1500 m
0.4833 0.1700 l
s
n
0.4833 0.8500 m
0.4833 0.8300 l
s
n
0.6500 0.1500 m
0.6500 0.1700 l
s
n
0.6500 0.8500 m
0.6500 0.8300 l
s
n
0.8167 0.1500 m
0.8167 0.1700 l
s
n
0.8167 0.8500 m
0.8167 0.8300 l
s
n
0.9833 0.1500 m
0.9833 0.1700 l
s
n
0.9833 0.8500 m
0.9833 0.8300 l
s
/Times-Roman findfont
dup length dict begin
 {1 index /FID ne {def} {pop pop} ifelse} forall
 /Encoding DefEncoding def
 currentdict
end
/Font0 exch definefont pop
/Font0 FFSF
0.1394 0.1094 m
GS
[0.0448 0.0000 0.0000 0.0448 0 0] CC
(0) show
GR
/Font0 FFSF
0.2910 0.1094 m
GS
[0.0448 0.0000 0.0000 0.0448 0 0] CC
(0.1) show
GR
/Font0 FFSF
0.4559 0.1094 m
GS
[0.0448 0.0000 0.0000 0.0448 0 0] CC
(0.2) show
GR
/Font0 FFSF
0.6233 0.1094 m
GS
[0.0448 0.0000 0.0000 0.0448 0 0] CC
(0.3) show
GR
/Font0 FFSF
0.7892 0.1094 m
GS
[0.0448 0.0000 0.0000 0.0448 0 0] CC
(0.4) show
GR
/Font0 FFSF
0.9567 0.1090 m
GS
[0.0448 0.0000 0.0000 0.0448 0 0] CC
(0.5) show
GR
/Symbol findfont
/Font12 exch definefont pop
/Font12 FFSF
0.5722 0.0441 m
GS
[0.0504 0.0000 0.0000 0.0504 0 0] CC
(r) show
GR
/Font0 FFSF
0.6000 0.0441 m
GS
[0.0504 0.0000 0.0000 0.0504 0 0] CC
( [fm) show
GR
/Font0 FFSF
0.6855 0.0743 m
GS
[0.0356 0.0000 0.0000 0.0356 0 0] CC
(-3) show
GR
/Font0 FFSF
0.7153 0.0441 m
GS
[0.0504 0.0000 0.0000 0.0504 0 0] CC
(]) show
GR
n
0.1500 0.1500 m
0.1500 0.8500 l
s
n
1.1500 0.1500 m
1.1500 0.8500 l
s
n
0.1500 0.2375 m
0.1600 0.2375 l
s
n
1.1500 0.2375 m
1.1400 0.2375 l
s
n
0.1500 0.4125 m
0.1600 0.4125 l
s
n
1.1500 0.4125 m
1.1400 0.4125 l
s
n
0.1500 0.5875 m
0.1600 0.5875 l
s
n
1.1500 0.5875 m
1.1400 0.5875 l
s
n
0.1500 0.7625 m
0.1600 0.7625 l
s
n
1.1500 0.7625 m
1.1400 0.7625 l
s
n
0.1500 0.1500 m
0.1700 0.1500 l
s
n
1.1500 0.1500 m
1.1300 0.1500 l
s
n
0.1500 0.3250 m
0.1700 0.3250 l
s
n
1.1500 0.3250 m
1.1300 0.3250 l
s
n
0.1500 0.5000 m
0.1700 0.5000 l
s
n
1.1500 0.5000 m
1.1300 0.5000 l
s
n
0.1500 0.6750 m
0.1700 0.6750 l
s
n
1.1500 0.6750 m
1.1300 0.6750 l
s
n
0.1500 0.8500 m
0.1700 0.8500 l
s
n
1.1500 0.8500 m
1.1300 0.8500 l
s
/Font0 FFSF
0.0816 0.1351 m
GS
[0.0448 0.0000 0.0000 0.0448 0 0] CC
(-20) show
GR
/Font0 FFSF
0.1188 0.3101 m
GS
[0.0448 0.0000 0.0000 0.0448 0 0] CC
(0) show
GR
/Font0 FFSF
0.0965 0.4851 m
GS
[0.0448 0.0000 0.0000 0.0448 0 0] CC
(20) show
GR
/Font0 FFSF
0.0965 0.6601 m
GS
[0.0448 0.0000 0.0000 0.0448 0 0] CC
(40) show
GR
/Font0 FFSF
0.0965 0.8351 m
GS
[0.0448 0.0000 0.0000 0.0448 0 0] CC
(60) show
GR
/Font0 FFSF
0.0637 0.3867 m
GS
[0.0000 0.0504 -0.0504 0.0000 0 0] CC
(E/A [MeV]) show
GR
[] 0 SD
0.0015 SLW
n
0.1500 0.1500 m
0.1500 0.8500 l
1.1500 0.8500 l
1.1500 0.1500 l
0.1500 0.1500 l
c
s
n
0.1500 0.8500 m
0.1500 0.5292 l
0.4448 0.5292 l
0.4448 0.8500 l
c
[/DeviceRGB] SCS
Color0 SC
fill
[/DeviceRGB] SCS
Color1 SC
[] 0 SD
0.0045 SLW
n
0.1500 0.8500 m
0.1500 0.5292 l
0.4448 0.5292 l
0.4448 0.8500 l
0.1500 0.8500 l
c
s
/Font0 FFSF
0.2619 0.8071 m
GS
[0.0498 0.0000 0.0000 0.0498 0 0] CC
(BHF) show
GR
n
0.1934 0.8150 m
0.1934 0.8320 l
0.2104 0.8320 l
0.2104 0.8150 l
c
GS
Color0 SRGB
fill
GR
[/Pattern /DeviceRGB] SCS
Color1 Pattern8 SC
fill
[/DeviceRGB] SCS
Color1 SC
[] 0 SD
0.0030 SLW
n
0.1934 0.8150 m
0.1934 0.8320 l
0.2104 0.8320 l
0.2104 0.8150 l
0.1934 0.8150 l
c
s
/Font0 FFSF
0.2619 0.7633 m
GS
[0.0498 0.0000 0.0000 0.0498 0 0] CC
(M3Y-P2) show
GR
[] 0 SD
0.0037 SLW
n
0.1619 0.7798 m
0.2419 0.7798 l
s
/Font0 FFSF
0.2619 0.7188 m
GS
[0.0498 0.0000 0.0000 0.0498 0 0] CC
(M3Y-P3) show
GR
[/DeviceRGB] SCS
Color2 SC
[0.0187 0.0112 ] 0 SD
0.0037 SLW
n
0.1619 0.7353 m
0.2419 0.7353 l
s
/Font0 FFSF
[/DeviceRGB] SCS
Color1 SC
0.2619 0.6743 m
GS
[0.0498 0.0000 0.0000 0.0498 0 0] CC
(M3Y-P4) show
GR
[/DeviceRGB] SCS
Color4 SC
[0.0037 0.0112 ] 0 SD
0.0037 SLW
n
0.1619 0.6908 m
0.2419 0.6908 l
s
/Font0 FFSF
[/DeviceRGB] SCS
Color1 SC
0.2619 0.6294 m
GS
[0.0498 0.0000 0.0000 0.0498 0 0] CC
(M3Y-P5) show
GR
[/DeviceRGB] SCS
Color11 SC
[0.0037 0.0112 0.0187 0.0112 ] 0 SD
0.0037 SLW
n
0.1619 0.6461 m
0.2419 0.6461 l
s
/Font0 FFSF
[/DeviceRGB] SCS
Color1 SC
0.2619 0.5845 m
GS
[0.0498 0.0000 0.0000 0.0498 0 0] CC
(M3Y-P6) show
GR
[/DeviceRGB] SCS
Color3 SC
[0.0037 0.0112 0.0187 0.0112 0.0037 0.0112 ] 0 SD
0.0037 SLW
n
0.1619 0.6012 m
0.2419 0.6012 l
s
/Font0 FFSF
[/DeviceRGB] SCS
Color1 SC
0.2619 0.5400 m
GS
[0.0498 0.0000 0.0000 0.0498 0 0] CC
(M3Y-P7) show
GR
[/DeviceRGB] SCS
Color8 SC
[0.0187 0.0112 0.0037 0.0112 0.0187 0.0112 ] 0 SD
0.0037 SLW
n
0.1619 0.5565 m
0.2419 0.5565 l
s
[/DeviceRGB] SCS
Color1 SC
[] 0 SD
0.0015 SLW
n
0.3752 0.8497 m
0.3725 0.8458 l
s
/Font0 FFSF
0.6000 0.7500 m
GS
[0.0862 0.0000 0.0000 0.0862 0 0] CC
(a\)) show
GR
showpage
%%PageTrailer
%%Trailer
%%DocumentNeededResources: font Times-Roman
%%+ font Symbol
%%EOF
