%!PS-Adobe-3.0
%%BoundingBox: 0 0 612 792
%%LanguageLevel: 2
%%Creator: Grace-5.1.22
%%CreationDate: Fri May 30 12:49:00 2014
%%DocumentData: Clean8Bit
%%Orientation: Landscape
%%Pages: 1
%%PageOrder: Ascend
%%Title: M1D1M.agr
%%For: alessandropastore
%%DocumentNeededResources: (atend)
%%EndComments
%%BeginProlog
/PAGE_OFFSET_X 0 def
/PAGE_OFFSET_Y 0 def
/m {moveto} def
/l {lineto} def
/s {stroke} def
/n {newpath} def
/c {closepath} def
/RL {rlineto} def
/SLW {setlinewidth} def
/GS {gsave} def
/GR {grestore} def
/SC {setcolor} def
/SGRY {setgray} def
/SRGB {setrgbcolor} def
/SD {setdash} def
/SLC {setlinecap} def
/SLJ {setlinejoin} def
/SCS {setcolorspace} def
/FFSF {findfont setfont} def
/CC {concat} def
/PXL {n m 0 0 RL s} def
/Color0 {1.0000 1.0000 1.0000} def
/Color1 {0.0000 0.0000 0.0000} def
/Color2 {1.0000 0.0000 0.0000} def
/Color3 {0.0000 1.0000 0.0000} def
/Color4 {0.0000 0.0000 1.0000} def
/Color5 {1.0000 1.0000 0.0000} def
/Color6 {0.7373 0.5608 0.5608} def
/Color7 {0.8627 0.8627 0.8627} def
/Color8 {0.5804 0.0000 0.8275} def
/Color9 {0.0000 1.0000 1.0000} def
/Color10 {1.0000 0.0000 1.0000} def
/Color11 {1.0000 0.6471 0.0000} def
/Color12 {0.4471 0.1294 0.7373} def
/Color13 {0.4039 0.0275 0.2824} def
/Color14 {0.2510 0.8784 0.8157} def
/Color15 {0.0000 0.5451 0.0000} def
/Color16 {0.7529 0.7529 0.7529} def
/Color17 {0.5059 0.5059 0.5059} def
/Color18 {0.2588 0.2588 0.2588} def
/Color19 {1.0000 0.9137 0.7529} def
/Color20 {1.0000 0.8275 0.5059} def
/Color21 {1.0000 0.7412 0.2588} def
/Color22 {0.7529 0.7529 1.0000} def
/Color23 {0.5059 0.5059 1.0000} def
/Color24 {0.2588 0.2588 1.0000} def
/Color25 {0.7529 0.8863 0.7529} def
/Color26 {0.5059 0.7725 0.5059} def
/Color27 {0.2588 0.6588 0.2588} def
/PTRN {
 /pat_bits exch def 
 <<
  /PaintType 2
  /PatternType 1 /TilingType 1
  /BBox[0 0 16 16]
  /XStep 16 /YStep 16
  /PaintProc {
   pop
   16 16 true [-1 0 0 -1 16 16] pat_bits imagemask
  }
 >>
 [0.0016 0 0 0.0016 0 0]
 makepattern
} def
/Pattern0 {<0000000000000000000000000000000000000000000000000000000000000000> PTRN} bind def
/Pattern1 {<ffffffffffffffffffffffffffffffffffffffffffffffffffffffffffffffff> PTRN} bind def
/Pattern2 {<eeeeffffbbbbffffeeeeffffbbbbffffeeeeffffbbbbffffeeeeffffbbbbffff> PTRN} bind def
/Pattern3 {<eeeebbbbeeeebbbbeeeebbbbeeeebbbbeeeebbbbeeeebbbbeeeebbbbeeeebbbb> PTRN} bind def
/Pattern4 {<5555aaaa5555aaaa5555aaaa5555aaaa5555aaaa5555aaaa5555aaaa5555aaaa> PTRN} bind def
/Pattern5 {<1111444411114444111144441111444411114444111144441111444411114444> PTRN} bind def
/Pattern6 {<1111000044440000111100004444000011110000444400001111000044440000> PTRN} bind def
/Pattern7 {<1010000000000000010100000000000010100000000000000101000000000000> PTRN} bind def
/Pattern8 {<0000000000000000000000000000000000000000000000000000000000000000> PTRN} bind def
/Pattern9 {<1e1e0f0f8787c3c3e1e1f0f078783c3c1e1e0f0f8787c3c3e1e1f0f078783c3c> PTRN} bind def
/Pattern10 {<7878f0f0e1e1c3c387870f0f1e1e3c3c7878f0f0e1e1c3c387870f0f1e1e3c3c> PTRN} bind def
/Pattern11 {<3333333333333333333333333333333333333333333333333333333333333333> PTRN} bind def
/Pattern12 {<ffffffff00000000ffffffff00000000ffffffff00000000ffffffff00000000> PTRN} bind def
/Pattern13 {<8181424224241818181824244242818181814242242418181818242442428181> PTRN} bind def
/Pattern14 {<8080404020201010080804040202010180804040202010100808040402020101> PTRN} bind def
/Pattern15 {<0101020204040808101020204040808001010202040408081010202040408080> PTRN} bind def
/Pattern16 {<2222222222222222222222222222222222222222222222222222222222222222> PTRN} bind def
/Pattern17 {<0000ffff000000000000ffff000000000000ffff000000000000ffff00000000> PTRN} bind def
/Pattern18 {<2222ffff222222222222ffff222222222222ffff222222222222ffff22222222> PTRN} bind def
/Pattern19 {<ffffffff33333333ffffffff33333333ffffffff33333333ffffffff33333333> PTRN} bind def
/Pattern20 {<0f0f0f0f0f0f0f0ff0f0f0f0f0f0f0f00f0f0f0f0f0f0f0ff0f0f0f0f0f0f0f0> PTRN} bind def
/Pattern21 {<ff00ff00ff00ff00ff00ff00ff00ff0000ff00ff00ff00ff00ff00ff00ff00ff> PTRN} bind def
/Pattern22 {<8001800180018001800180018001ffffffff8001800180018001800180018001> PTRN} bind def
/Pattern23 {<c003c003c003c003c003c003ffffffffffffffffc003c003c003c003c003c003> PTRN} bind def
/Pattern24 {<040404040404ffff404040404040ffff040404040404ffff404040404040ffff> PTRN} bind def
/Pattern25 {<180018001800180018001800ffffffff001800180018001800180018ffffffff> PTRN} bind def
/Pattern26 {<1111b8b87c7c3a3a1111a3a3c7c78b8b1111b8b87c7c3a3a1111a3a3c7c78b8b> PTRN} bind def
/Pattern27 {<101010102828c7c70101010182827c7c101010102828c7c70101010182827c7c> PTRN} bind def
/Pattern28 {<1c1c121211112121c1c12121111112121c1c121211112121c1c1212111111212> PTRN} bind def
/Pattern29 {<3e3e414180808080e3e31414080808083e3e414180808080e3e3141408080808> PTRN} bind def
/Pattern30 {<4848888884848383848488884848383848488888848483838484888848483838> PTRN} bind def
/Pattern31 {<03030404080808080c0c12122121c0c003030404080808080c0c12122121c0c0> PTRN} bind def
/ellipsedict 8 dict def
ellipsedict /mtrx matrix put
/EARC {
 ellipsedict begin
  /endangle exch def
  /startangle exch def
  /yrad exch def
  /xrad exch def
  /y exch def
  /x exch def
  /savematrix mtrx currentmatrix def
  x y translate
  xrad yrad scale
  0 0 1 startangle endangle arc
  savematrix setmatrix
 end
} def
/TL {
  /kcomp exch def
  /linewidth exch def
  /offset exch def
  GS
  0 offset rmoveto
  linewidth SLW
  dup stringwidth exch kcomp add exch RL s
  GR
} def
/KINIT
{
 /kvector exch def
 /kid 0 def
} def
/KPROC
{
 pop pop
 kvector kid get
 0 rmoveto
 /kid 1 kid add def
} def
/DefEncoding [
 /.notdef
 /.notdef
 /.notdef
 /.notdef
 /.notdef
 /.notdef
 /.notdef
 /.notdef
 /.notdef
 /.notdef
 /.notdef
 /.notdef
 /.notdef
 /.notdef
 /.notdef
 /.notdef
 /.notdef
 /.notdef
 /.notdef
 /.notdef
 /.notdef
 /.notdef
 /.notdef
 /.notdef
 /.notdef
 /.notdef
 /.notdef
 /.notdef
 /.notdef
 /.notdef
 /.notdef
 /.notdef
 /space
 /exclam
 /quotedbl
 /numbersign
 /dollar
 /percent
 /ampersand
 /quoteright
 /parenleft
 /parenright
 /asterisk
 /plus
 /comma
 /hyphen
 /period
 /slash
 /zero
 /one
 /two
 /three
 /four
 /five
 /six
 /seven
 /eight
 /nine
 /colon
 /semicolon
 /less
 /equal
 /greater
 /question
 /at
 /A
 /B
 /C
 /D
 /E
 /F
 /G
 /H
 /I
 /J
 /K
 /L
 /M
 /N
 /O
 /P
 /Q
 /R
 /S
 /T
 /U
 /V
 /W
 /X
 /Y
 /Z
 /bracketleft
 /backslash
 /bracketright
 /asciicircum
 /underscore
 /grave
 /a
 /b
 /c
 /d
 /e
 /f
 /g
 /h
 /i
 /j
 /k
 /l
 /m
 /n
 /o
 /p
 /q
 /r
 /s
 /t
 /u
 /v
 /w
 /x
 /y
 /z
 /braceleft
 /bar
 /braceright
 /asciitilde
 /.notdef
 /.notdef
 /.notdef
 /.notdef
 /.notdef
 /.notdef
 /.notdef
 /.notdef
 /.notdef
 /.notdef
 /.notdef
 /.notdef
 /.notdef
 /.notdef
 /.notdef
 /.notdef
 /.notdef
 /.notdef
 /.notdef
 /.notdef
 /.notdef
 /.notdef
 /.notdef
 /.notdef
 /.notdef
 /.notdef
 /.notdef
 /.notdef
 /.notdef
 /.notdef
 /.notdef
 /.notdef
 /.notdef
 /space
 /exclamdown
 /cent
 /sterling
 /currency
 /yen
 /brokenbar
 /section
 /dieresis
 /copyright
 /ordfeminine
 /guillemotleft
 /logicalnot
 /hyphen
 /registered
 /macron
 /degree
 /plusminus
 /twosuperior
 /threesuperior
 /acute
 /mu
 /paragraph
 /periodcentered
 /cedilla
 /onesuperior
 /ordmasculine
 /guillemotright
 /onequarter
 /onehalf
 /threequarters
 /questiondown
 /Agrave
 /Aacute
 /Acircumflex
 /Atilde
 /Adieresis
 /Aring
 /AE
 /Ccedilla
 /Egrave
 /Eacute
 /Ecircumflex
 /Edieresis
 /Igrave
 /Iacute
 /Icircumflex
 /Idieresis
 /Eth
 /Ntilde
 /Ograve
 /Oacute
 /Ocircumflex
 /Otilde
 /Odieresis
 /multiply
 /Oslash
 /Ugrave
 /Uacute
 /Ucircumflex
 /Udieresis
 /Yacute
 /Thorn
 /germandbls
 /agrave
 /aacute
 /acircumflex
 /atilde
 /adieresis
 /aring
 /ae
 /ccedilla
 /egrave
 /eacute
 /ecircumflex
 /edieresis
 /igrave
 /iacute
 /icircumflex
 /idieresis
 /eth
 /ntilde
 /ograve
 /oacute
 /ocircumflex
 /otilde
 /odieresis
 /divide
 /oslash
 /ugrave
 /uacute
 /ucircumflex
 /udieresis
 /yacute
 /thorn
 /ydieresis
] def
%%EndProlog
%%BeginSetup
%%EndSetup
%%Page: 1 1
PAGE_OFFSET_X PAGE_OFFSET_Y translate
612.00 612.00 scale
90 rotate
0.0 -1.0 translate
n
0.0000 0.0000 m
0.0000 1.0000 l
1.2941 1.0000 l
1.2941 0.0000 l
c
[/DeviceRGB] SCS
Color0 SC
fill
[/DeviceRGB] SCS
Color1 SC
[] 0 SD
0.0045 SLW
0 SLC
0 SLJ
n
0.2012 0.1500 m
0.2024 0.1500 l
0.2036 0.1500 l
0.2047 0.1500 l
0.2059 0.1500 l
0.2071 0.1500 l
0.2083 0.1501 l
0.2095 0.1501 l
0.2107 0.1501 l
0.2119 0.1501 l
0.2131 0.1501 l
0.2142 0.1501 l
0.2154 0.1502 l
0.2166 0.1502 l
0.2178 0.1502 l
0.2190 0.1503 l
0.2202 0.1503 l
0.2214 0.1503 l
0.2226 0.1504 l
0.2237 0.1504 l
0.2249 0.1505 l
0.2261 0.1505 l
0.2273 0.1505 l
0.2285 0.1506 l
0.2297 0.1506 l
0.2309 0.1507 l
0.2321 0.1508 l
0.2332 0.1508 l
0.2344 0.1509 l
0.2356 0.1509 l
0.2368 0.1510 l
0.2380 0.1511 l
0.2392 0.1511 l
0.2404 0.1512 l
0.2416 0.1513 l
0.2427 0.1513 l
0.2439 0.1514 l
0.2451 0.1515 l
0.2463 0.1516 l
0.2475 0.1517 l
0.2487 0.1517 l
0.2499 0.1518 l
0.2511 0.1519 l
0.2522 0.1520 l
0.2534 0.1521 l
0.2546 0.1522 l
0.2558 0.1523 l
0.2570 0.1524 l
0.2582 0.1525 l
0.2594 0.1526 l
0.2606 0.1527 l
0.2617 0.1528 l
0.2629 0.1529 l
0.2641 0.1530 l
0.2653 0.1531 l
0.2665 0.1532 l
0.2677 0.1534 l
0.2689 0.1535 l
0.2701 0.1536 l
0.2712 0.1537 l
0.2724 0.1539 l
0.2736 0.1540 l
0.2748 0.1541 l
0.2760 0.1542 l
0.2772 0.1544 l
0.2784 0.1545 l
0.2796 0.1546 l
0.2807 0.1548 l
0.2819 0.1549 l
0.2831 0.1551 l
0.2843 0.1552 l
0.2855 0.1554 l
0.2867 0.1555 l
0.2879 0.1557 l
0.2891 0.1558 l
0.2902 0.1560 l
0.2914 0.1561 l
0.2926 0.1563 l
0.2938 0.1564 l
0.2950 0.1566 l
0.2962 0.1568 l
0.2974 0.1569 l
0.2986 0.1571 l
0.2997 0.1573 l
0.3009 0.1575 l
0.3021 0.1576 l
0.3033 0.1578 l
0.3045 0.1580 l
0.3057 0.1582 l
0.3069 0.1584 l
0.3081 0.1585 l
0.3092 0.1587 l
0.3104 0.1589 l
0.3116 0.1591 l
0.3128 0.1593 l
0.3140 0.1595 l
0.3152 0.1597 l
0.3164 0.1599 l
0.3176 0.1601 l
0.3187 0.1603 l
0.3199 0.1605 l
0.3211 0.1607 l
0.3223 0.1609 l
0.3235 0.1611 l
0.3247 0.1614 l
0.3259 0.1616 l
0.3271 0.1618 l
0.3282 0.1620 l
0.3294 0.1622 l
0.3306 0.1625 l
0.3318 0.1627 l
0.3330 0.1629 l
0.3342 0.1631 l
0.3354 0.1634 l
0.3366 0.1636 l
0.3377 0.1638 l
0.3389 0.1641 l
0.3401 0.1643 l
0.3413 0.1646 l
0.3425 0.1648 l
0.3437 0.1651 l
0.3449 0.1653 l
0.3461 0.1656 l
0.3472 0.1658 l
0.3484 0.1661 l
0.3496 0.1663 l
0.3508 0.1666 l
0.3520 0.1668 l
0.3532 0.1671 l
0.3544 0.1674 l
0.3556 0.1676 l
0.3567 0.1679 l
0.3579 0.1682 l
0.3591 0.1684 l
0.3603 0.1687 l
0.3615 0.1690 l
0.3627 0.1693 l
0.3639 0.1695 l
0.3651 0.1698 l
0.3662 0.1701 l
0.3674 0.1704 l
0.3686 0.1707 l
0.3698 0.1710 l
0.3710 0.1713 l
0.3722 0.1715 l
0.3734 0.1718 l
0.3746 0.1721 l
0.3757 0.1724 l
0.3769 0.1727 l
0.3781 0.1730 l
0.3793 0.1733 l
0.3805 0.1737 l
0.3817 0.1740 l
0.3829 0.1743 l
0.3841 0.1746 l
0.3852 0.1749 l
0.3864 0.1752 l
0.3876 0.1755 l
0.3888 0.1759 l
0.3900 0.1762 l
0.3912 0.1765 l
0.3924 0.1768 l
0.3936 0.1771 l
0.3947 0.1775 l
0.3959 0.1778 l
0.3971 0.1781 l
0.3983 0.1785 l
0.3995 0.1788 l
0.4007 0.1792 l
0.4019 0.1795 l
0.4031 0.1798 l
0.4042 0.1802 l
0.4054 0.1805 l
0.4066 0.1809 l
0.4078 0.1812 l
0.4090 0.1816 l
0.4102 0.1819 l
0.4114 0.1823 l
0.4126 0.1826 l
0.4137 0.1830 l
0.4149 0.1834 l
0.4161 0.1837 l
0.4173 0.1841 l
0.4185 0.1845 l
0.4197 0.1848 l
0.4209 0.1852 l
0.4221 0.1856 l
0.4232 0.1859 l
0.4244 0.1863 l
0.4256 0.1867 l
0.4268 0.1871 l
0.4280 0.1875 l
0.4292 0.1878 l
0.4304 0.1882 l
0.4316 0.1886 l
0.4327 0.1890 l
0.4339 0.1894 l
0.4351 0.1898 l
0.4363 0.1902 l
0.4375 0.1906 l
0.4387 0.1910 l
0.4399 0.1914 l
0.4411 0.1918 l
0.4422 0.1922 l
0.4434 0.1926 l
0.4446 0.1930 l
0.4458 0.1934 l
0.4470 0.1938 l
0.4482 0.1942 l
0.4494 0.1946 l
0.4506 0.1950 l
0.4517 0.1955 l
0.4529 0.1959 l
0.4541 0.1963 l
0.4553 0.1967 l
0.4565 0.1971 l
0.4577 0.1976 l
0.4589 0.1980 l
0.4601 0.1984 l
0.4612 0.1989 l
0.4624 0.1993 l
0.4636 0.1997 l
0.4648 0.2002 l
0.4660 0.2006 l
0.4672 0.2010 l
0.4684 0.2015 l
0.4696 0.2019 l
0.4708 0.2024 l
0.4719 0.2028 l
0.4731 0.2033 l
0.4743 0.2037 l
0.4755 0.2042 l
0.4767 0.2046 l
0.4779 0.2051 l
0.4791 0.2055 l
0.4802 0.2060 l
0.4814 0.2065 l
0.4826 0.2069 l
0.4838 0.2074 l
0.4850 0.2079 l
0.4862 0.2083 l
0.4874 0.2088 l
0.4886 0.2093 l
0.4898 0.2097 l
0.4909 0.2102 l
0.4921 0.2107 l
0.4933 0.2112 l
0.4945 0.2116 l
0.4957 0.2121 l
0.4969 0.2126 l
0.4981 0.2131 l
0.4992 0.2136 l
0.5004 0.2141 l
0.5016 0.2145 l
0.5028 0.2150 l
0.5040 0.2155 l
0.5052 0.2160 l
0.5064 0.2165 l
0.5076 0.2170 l
0.5087 0.2175 l
0.5099 0.2180 l
0.5111 0.2185 l
0.5123 0.2190 l
0.5135 0.2195 l
0.5147 0.2200 l
0.5159 0.2205 l
0.5171 0.2211 l
0.5182 0.2216 l
0.5194 0.2221 l
0.5206 0.2226 l
0.5218 0.2231 l
0.5230 0.2236 l
0.5242 0.2241 l
0.5254 0.2247 l
0.5266 0.2252 l
0.5277 0.2257 l
0.5289 0.2262 l
0.5301 0.2268 l
0.5313 0.2273 l
0.5325 0.2278 l
0.5337 0.2284 l
0.5349 0.2289 l
0.5361 0.2294 l
0.5373 0.2300 l
0.5384 0.2305 l
0.5396 0.2310 l
0.5408 0.2316 l
0.5420 0.2321 l
0.5432 0.2327 l
0.5444 0.2332 l
0.5456 0.2338 l
0.5467 0.2343 l
0.5479 0.2349 l
0.5491 0.2354 l
0.5503 0.2360 l
0.5515 0.2365 l
0.5527 0.2371 l
0.5539 0.2376 l
0.5551 0.2382 l
0.5563 0.2388 l
0.5574 0.2393 l
0.5586 0.2399 l
0.5598 0.2404 l
0.5610 0.2410 l
0.5622 0.2416 l
0.5634 0.2421 l
0.5646 0.2427 l
0.5657 0.2433 l
0.5669 0.2439 l
0.5681 0.2444 l
0.5693 0.2450 l
0.5705 0.2456 l
0.5717 0.2462 l
0.5729 0.2468 l
0.5741 0.2473 l
0.5752 0.2479 l
0.5764 0.2485 l
0.5776 0.2491 l
0.5788 0.2497 l
0.5800 0.2503 l
0.5812 0.2509 l
0.5824 0.2514 l
0.5836 0.2520 l
0.5847 0.2526 l
0.5859 0.2532 l
0.5871 0.2538 l
0.5883 0.2544 l
0.5895 0.2550 l
0.5907 0.2556 l
0.5919 0.2562 l
0.5931 0.2568 l
0.5942 0.2574 l
0.5954 0.2581 l
0.5966 0.2587 l
0.5978 0.2593 l
0.5990 0.2599 l
0.6002 0.2605 l
0.6014 0.2611 l
0.6026 0.2617 l
0.6038 0.2623 l
0.6049 0.2630 l
0.6061 0.2636 l
0.6073 0.2642 l
0.6085 0.2648 l
0.6097 0.2654 l
0.6109 0.2661 l
0.6121 0.2667 l
0.6132 0.2673 l
0.6144 0.2679 l
0.6156 0.2686 l
0.6168 0.2692 l
0.6180 0.2698 l
0.6192 0.2705 l
0.6204 0.2711 l
0.6216 0.2717 l
0.6228 0.2724 l
0.6239 0.2730 l
0.6251 0.2736 l
0.6263 0.2743 l
0.6275 0.2749 l
0.6287 0.2756 l
0.6299 0.2762 l
0.6311 0.2768 l
0.6322 0.2775 l
0.6334 0.2781 l
0.6346 0.2788 l
0.6358 0.2794 l
0.6370 0.2801 l
0.6382 0.2807 l
0.6394 0.2814 l
0.6406 0.2820 l
0.6417 0.2827 l
0.6429 0.2834 l
0.6441 0.2840 l
0.6453 0.2847 l
0.6465 0.2853 l
0.6477 0.2860 l
0.6489 0.2867 l
0.6501 0.2873 l
0.6512 0.2880 l
0.6524 0.2886 l
0.6536 0.2893 l
0.6548 0.2900 l
0.6560 0.2906 l
0.6572 0.2913 l
0.6584 0.2920 l
0.6596 0.2927 l
0.6607 0.2933 l
0.6619 0.2940 l
0.6631 0.2947 l
0.6643 0.2954 l
0.6655 0.2960 l
0.6667 0.2967 l
0.6679 0.2974 l
0.6691 0.2981 l
0.6703 0.2988 l
0.6714 0.2994 l
0.6726 0.3001 l
0.6738 0.3008 l
0.6750 0.3015 l
0.6762 0.3022 l
0.6774 0.3029 l
0.6786 0.3035 l
0.6797 0.3042 l
0.6809 0.3049 l
0.6821 0.3056 l
0.6833 0.3063 l
0.6845 0.3070 l
0.6857 0.3077 l
0.6869 0.3084 l
0.6881 0.3091 l
0.6892 0.3098 l
0.6904 0.3105 l
0.6916 0.3112 l
0.6928 0.3119 l
0.6940 0.3126 l
0.6952 0.3133 l
0.6964 0.3140 l
0.6976 0.3147 l
0.6987 0.3154 l
0.6999 0.3161 l
0.7011 0.3168 l
0.7023 0.3175 l
0.7035 0.3182 l
0.7047 0.3189 l
0.7059 0.3196 l
0.7071 0.3203 l
0.7082 0.3210 l
0.7094 0.3218 l
0.7106 0.3225 l
0.7118 0.3232 l
0.7130 0.3239 l
0.7142 0.3246 l
0.7154 0.3253 l
0.7166 0.3260 l
0.7177 0.3268 l
0.7189 0.3275 l
0.7201 0.3282 l
0.7213 0.3289 l
0.7225 0.3296 l
0.7237 0.3304 l
0.7249 0.3311 l
0.7261 0.3318 l
0.7272 0.3325 l
0.7284 0.3332 l
0.7296 0.3340 l
0.7308 0.3347 l
0.7320 0.3354 l
0.7332 0.3362 l
0.7344 0.3369 l
0.7356 0.3376 l
0.7368 0.3383 l
0.7379 0.3391 l
0.7391 0.3398 l
0.7403 0.3405 l
0.7415 0.3413 l
0.7427 0.3420 l
0.7439 0.3427 l
0.7451 0.3435 l
0.7462 0.3442 l
0.7474 0.3449 l
0.7486 0.3457 l
0.7498 0.3464 l
0.7510 0.3471 l
0.7522 0.3479 l
0.7534 0.3486 l
0.7546 0.3494 l
0.7558 0.3501 l
0.7569 0.3508 l
0.7581 0.3516 l
0.7593 0.3523 l
0.7605 0.3531 l
0.7617 0.3538 l
0.7629 0.3545 l
0.7641 0.3553 l
0.7652 0.3560 l
0.7664 0.3568 l
0.7676 0.3575 l
0.7688 0.3583 l
0.7700 0.3590 l
0.7712 0.3598 l
0.7724 0.3605 l
0.7736 0.3613 l
0.7748 0.3620 l
0.7759 0.3628 l
0.7771 0.3635 l
0.7783 0.3643 l
0.7795 0.3650 l
0.7807 0.3658 l
0.7819 0.3665 l
0.7831 0.3673 l
0.7843 0.3680 l
0.7854 0.3688 l
0.7866 0.3695 l
0.7878 0.3703 l
0.7890 0.3710 l
0.7902 0.3718 l
0.7914 0.3725 l
0.7926 0.3733 l
0.7937 0.3740 l
0.7949 0.3748 l
0.7961 0.3755 l
0.7973 0.3763 l
0.7985 0.3771 l
0.7997 0.3778 l
0.8009 0.3786 l
0.8021 0.3793 l
0.8032 0.3801 l
0.8044 0.3809 l
0.8056 0.3816 l
0.8068 0.3824 l
0.8080 0.3831 l
0.8092 0.3839 l
0.8104 0.3846 l
0.8116 0.3854 l
0.8127 0.3862 l
0.8139 0.3869 l
0.8151 0.3877 l
0.8163 0.3885 l
0.8175 0.3892 l
0.8187 0.3900 l
0.8199 0.3907 l
0.8211 0.3915 l
0.8222 0.3923 l
0.8234 0.3930 l
0.8246 0.3938 l
0.8258 0.3946 l
0.8270 0.3953 l
0.8282 0.3961 l
0.8294 0.3968 l
0.8306 0.3976 l
0.8317 0.3984 l
0.8329 0.3991 l
0.8341 0.3999 l
0.8353 0.4007 l
0.8365 0.4014 l
0.8377 0.4022 l
0.8389 0.4030 l
0.8401 0.4037 l
0.8412 0.4045 l
0.8424 0.4053 l
0.8436 0.4060 l
0.8448 0.4068 l
0.8460 0.4076 l
0.8472 0.4083 l
0.8484 0.4091 l
0.8496 0.4099 l
0.8508 0.4106 l
0.8519 0.4114 l
0.8531 0.4122 l
0.8543 0.4129 l
0.8555 0.4137 l
0.8567 0.4145 l
0.8579 0.4152 l
0.8591 0.4160 l
0.8602 0.4168 l
0.8614 0.4175 l
0.8626 0.4183 l
0.8638 0.4190 l
0.8650 0.4198 l
0.8662 0.4206 l
0.8674 0.4213 l
0.8686 0.4221 l
0.8698 0.4229 l
0.8709 0.4236 l
0.8721 0.4244 l
0.8733 0.4252 l
0.8745 0.4259 l
0.8757 0.4267 l
0.8769 0.4275 l
0.8781 0.4282 l
0.8792 0.4290 l
0.8804 0.4298 l
0.8816 0.4305 l
0.8828 0.4313 l
0.8840 0.4321 l
0.8852 0.4328 l
0.8864 0.4336 l
0.8876 0.4344 l
0.8888 0.4351 l
0.8899 0.4359 l
0.8911 0.4366 l
0.8923 0.4374 l
0.8935 0.4382 l
0.8947 0.4389 l
0.8959 0.4397 l
0.8971 0.4405 l
0.8982 0.4412 l
0.8994 0.4420 l
0.9006 0.4427 l
0.9018 0.4435 l
0.9030 0.4443 l
0.9042 0.4450 l
0.9054 0.4458 l
0.9066 0.4465 l
0.9078 0.4473 l
0.9089 0.4481 l
0.9101 0.4488 l
0.9113 0.4496 l
0.9125 0.4503 l
0.9137 0.4511 l
0.9149 0.4519 l
0.9161 0.4526 l
0.9173 0.4534 l
0.9184 0.4541 l
0.9196 0.4549 l
0.9208 0.4556 l
0.9220 0.4564 l
0.9232 0.4571 l
0.9244 0.4579 l
0.9256 0.4587 l
0.9267 0.4594 l
0.9279 0.4602 l
0.9291 0.4609 l
0.9303 0.4617 l
0.9315 0.4624 l
0.9327 0.4632 l
0.9339 0.4639 l
0.9351 0.4647 l
0.9362 0.4654 l
0.9374 0.4662 l
0.9386 0.4669 l
0.9398 0.4677 l
0.9410 0.4684 l
0.9422 0.4692 l
0.9434 0.4699 l
0.9446 0.4707 l
0.9457 0.4714 l
0.9469 0.4721 l
0.9481 0.4729 l
0.9493 0.4736 l
0.9505 0.4744 l
0.9517 0.4751 l
0.9529 0.4759 l
0.9541 0.4766 l
0.9552 0.4773 l
0.9564 0.4781 l
0.9576 0.4788 l
0.9588 0.4796 l
0.9600 0.4803 l
0.9612 0.4810 l
0.9624 0.4818 l
0.9636 0.4825 l
0.9647 0.4832 l
0.9659 0.4840 l
0.9671 0.4847 l
0.9683 0.4854 l
0.9695 0.4862 l
0.9707 0.4869 l
0.9719 0.4876 l
0.9731 0.4884 l
0.9742 0.4891 l
0.9754 0.4898 l
0.9766 0.4905 l
0.9778 0.4913 l
0.9790 0.4920 l
0.9802 0.4927 l
0.9814 0.4934 l
0.9826 0.4942 l
0.9837 0.4949 l
0.9849 0.4956 l
0.9861 0.4963 l
0.9873 0.4970 l
0.9885 0.4978 l
0.9897 0.4985 l
0.9909 0.4992 l
0.9921 0.4999 l
0.9932 0.5006 l
0.9944 0.5013 l
0.9956 0.5021 l
0.9968 0.5028 l
0.9980 0.5035 l
0.9992 0.5042 l
1.0004 0.5049 l
1.0016 0.5056 l
1.0028 0.5063 l
1.0039 0.5070 l
1.0051 0.5077 l
1.0063 0.5084 l
1.0075 0.5091 l
1.0087 0.5098 l
1.0099 0.5105 l
1.0111 0.5112 l
1.0122 0.5119 l
1.0134 0.5126 l
1.0146 0.5133 l
1.0158 0.5140 l
1.0170 0.5147 l
1.0182 0.5154 l
1.0194 0.5161 l
1.0206 0.5168 l
1.0217 0.5175 l
1.0229 0.5182 l
1.0241 0.5189 l
1.0253 0.5195 l
1.0265 0.5202 l
1.0277 0.5209 l
1.0289 0.5216 l
1.0301 0.5223 l
1.0312 0.5230 l
1.0324 0.5236 l
1.0336 0.5243 l
1.0348 0.5250 l
1.0360 0.5257 l
1.0372 0.5263 l
1.0384 0.5270 l
1.0396 0.5277 l
1.0408 0.5284 l
1.0419 0.5290 l
1.0431 0.5297 l
1.0443 0.5304 l
1.0455 0.5310 l
1.0467 0.5317 l
1.0479 0.5324 l
1.0491 0.5330 l
1.0502 0.5337 l
1.0514 0.5343 l
1.0526 0.5350 l
1.0538 0.5356 l
1.0550 0.5363 l
1.0562 0.5370 l
1.0574 0.5376 l
1.0586 0.5383 l
1.0597 0.5389 l
1.0609 0.5395 l
1.0621 0.5402 l
1.0633 0.5408 l
1.0645 0.5415 l
1.0657 0.5421 l
1.0669 0.5428 l
1.0681 0.5434 l
1.0692 0.5440 l
1.0704 0.5447 l
1.0716 0.5453 l
1.0728 0.5459 l
1.0740 0.5466 l
1.0752 0.5472 l
1.0764 0.5478 l
1.0776 0.5484 l
1.0787 0.5491 l
1.0799 0.5497 l
1.0811 0.5503 l
1.0823 0.5509 l
1.0835 0.5515 l
1.0847 0.5522 l
1.0859 0.5528 l
1.0871 0.5534 l
1.0882 0.5540 l
1.0894 0.5546 l
1.0906 0.5552 l
1.0918 0.5558 l
1.0930 0.5564 l
1.0942 0.5570 l
1.0954 0.5576 l
1.0966 0.5582 l
1.0978 0.5588 l
1.0989 0.5594 l
1.1001 0.5600 l
1.1013 0.5606 l
1.1025 0.5612 l
1.1037 0.5618 l
1.1049 0.5624 l
1.1061 0.5629 l
1.1073 0.5635 l
1.1084 0.5641 l
1.1096 0.5647 l
1.1108 0.5653 l
1.1120 0.5658 l
1.1132 0.5664 l
1.1144 0.5670 l
1.1156 0.5675 l
1.1167 0.5681 l
1.1179 0.5687 l
1.1191 0.5692 l
1.1203 0.5698 l
1.1215 0.5704 l
1.1227 0.5709 l
1.1239 0.5715 l
1.1251 0.5720 l
1.1262 0.5726 l
1.1274 0.5731 l
1.1286 0.5737 l
1.1298 0.5742 l
1.1310 0.5747 l
1.1322 0.5753 l
1.1334 0.5758 l
1.1346 0.5764 l
1.1358 0.5769 l
1.1369 0.5774 l
1.1381 0.5780 l
1.1393 0.5785 l
1.1405 0.5790 l
1.1417 0.5795 l
1.1429 0.5801 l
1.1441 0.5806 l
1.1452 0.5811 l
1.1464 0.5816 l
1.1476 0.5821 l
1.1488 0.5826 l
1.1500 0.5831 l
s
[/DeviceRGB] SCS
Color2 SC
[0.0225 0.0135 ] 0 SD
0.0045 SLW
n
0.2012 0.1500 m
0.2024 0.1500 l
0.2036 0.1500 l
0.2047 0.1500 l
0.2059 0.1500 l
0.2071 0.1500 l
0.2083 0.1501 l
0.2095 0.1501 l
0.2107 0.1501 l
0.2119 0.1501 l
0.2131 0.1501 l
0.2142 0.1501 l
0.2154 0.1502 l
0.2166 0.1502 l
0.2178 0.1502 l
0.2190 0.1503 l
0.2202 0.1503 l
0.2214 0.1503 l
0.2226 0.1504 l
0.2237 0.1504 l
0.2249 0.1505 l
0.2261 0.1505 l
0.2273 0.1505 l
0.2285 0.1506 l
0.2297 0.1506 l
0.2309 0.1507 l
0.2321 0.1508 l
0.2332 0.1508 l
0.2344 0.1509 l
0.2356 0.1509 l
0.2368 0.1510 l
0.2380 0.1511 l
0.2392 0.1511 l
0.2404 0.1512 l
0.2416 0.1513 l
0.2427 0.1513 l
0.2439 0.1514 l
0.2451 0.1515 l
0.2463 0.1516 l
0.2475 0.1517 l
0.2487 0.1517 l
0.2499 0.1518 l
0.2511 0.1519 l
0.2522 0.1520 l
0.2534 0.1521 l
0.2546 0.1522 l
0.2558 0.1523 l
0.2570 0.1524 l
0.2582 0.1525 l
0.2594 0.1526 l
0.2606 0.1527 l
0.2617 0.1528 l
0.2629 0.1529 l
0.2641 0.1530 l
0.2653 0.1531 l
0.2665 0.1532 l
0.2677 0.1534 l
0.2689 0.1535 l
0.2701 0.1536 l
0.2712 0.1537 l
0.2724 0.1539 l
0.2736 0.1540 l
0.2748 0.1541 l
0.2760 0.1542 l
0.2772 0.1544 l
0.2784 0.1545 l
0.2796 0.1546 l
0.2807 0.1548 l
0.2819 0.1549 l
0.2831 0.1551 l
0.2843 0.1552 l
0.2855 0.1554 l
0.2867 0.1555 l
0.2879 0.1557 l
0.2891 0.1558 l
0.2902 0.1560 l
0.2914 0.1561 l
0.2926 0.1563 l
0.2938 0.1564 l
0.2950 0.1566 l
0.2962 0.1568 l
0.2974 0.1569 l
0.2986 0.1571 l
0.2997 0.1573 l
0.3009 0.1575 l
0.3021 0.1576 l
0.3033 0.1578 l
0.3045 0.1580 l
0.3057 0.1582 l
0.3069 0.1584 l
0.3081 0.1585 l
0.3092 0.1587 l
0.3104 0.1589 l
0.3116 0.1591 l
0.3128 0.1593 l
0.3140 0.1595 l
0.3152 0.1597 l
0.3164 0.1599 l
0.3176 0.1601 l
0.3187 0.1603 l
0.3199 0.1605 l
0.3211 0.1607 l
0.3223 0.1609 l
0.3235 0.1611 l
0.3247 0.1614 l
0.3259 0.1616 l
0.3271 0.1618 l
0.3282 0.1620 l
0.3294 0.1622 l
0.3306 0.1625 l
0.3318 0.1627 l
0.3330 0.1629 l
0.3342 0.1631 l
0.3354 0.1634 l
0.3366 0.1636 l
0.3377 0.1638 l
0.3389 0.1641 l
0.3401 0.1643 l
0.3413 0.1646 l
0.3425 0.1648 l
0.3437 0.1651 l
0.3449 0.1653 l
0.3461 0.1656 l
0.3472 0.1658 l
0.3484 0.1661 l
0.3496 0.1663 l
0.3508 0.1666 l
0.3520 0.1668 l
0.3532 0.1671 l
0.3544 0.1674 l
0.3556 0.1676 l
0.3567 0.1679 l
0.3579 0.1682 l
0.3591 0.1684 l
0.3603 0.1687 l
0.3615 0.1690 l
0.3627 0.1693 l
0.3639 0.1695 l
0.3651 0.1698 l
0.3662 0.1701 l
0.3674 0.1704 l
0.3686 0.1707 l
0.3698 0.1710 l
0.3710 0.1713 l
0.3722 0.1715 l
0.3734 0.1718 l
0.3746 0.1721 l
0.3757 0.1724 l
0.3769 0.1727 l
0.3781 0.1730 l
0.3793 0.1733 l
0.3805 0.1737 l
0.3817 0.1740 l
0.3829 0.1743 l
0.3841 0.1746 l
0.3852 0.1749 l
0.3864 0.1752 l
0.3876 0.1755 l
0.3888 0.1759 l
0.3900 0.1762 l
0.3912 0.1765 l
0.3924 0.1768 l
0.3936 0.1771 l
0.3947 0.1775 l
0.3959 0.1778 l
0.3971 0.1781 l
0.3983 0.1785 l
0.3995 0.1788 l
0.4007 0.1792 l
0.4019 0.1795 l
0.4031 0.1798 l
0.4042 0.1802 l
0.4054 0.1805 l
0.4066 0.1809 l
0.4078 0.1812 l
0.4090 0.1816 l
0.4102 0.1819 l
0.4114 0.1823 l
0.4126 0.1826 l
0.4137 0.1830 l
0.4149 0.1834 l
0.4161 0.1837 l
0.4173 0.1841 l
0.4185 0.1845 l
0.4197 0.1848 l
0.4209 0.1852 l
0.4221 0.1856 l
0.4232 0.1859 l
0.4244 0.1863 l
0.4256 0.1867 l
0.4268 0.1871 l
0.4280 0.1875 l
0.4292 0.1878 l
0.4304 0.1882 l
0.4316 0.1886 l
0.4327 0.1890 l
0.4339 0.1894 l
0.4351 0.1898 l
0.4363 0.1902 l
0.4375 0.1906 l
0.4387 0.1910 l
0.4399 0.1914 l
0.4411 0.1918 l
0.4422 0.1922 l
0.4434 0.1926 l
0.4446 0.1930 l
0.4458 0.1934 l
0.4470 0.1938 l
0.4482 0.1942 l
0.4494 0.1946 l
0.4506 0.1950 l
0.4517 0.1955 l
0.4529 0.1959 l
0.4541 0.1963 l
0.4553 0.1967 l
0.4565 0.1971 l
0.4577 0.1976 l
0.4589 0.1980 l
0.4601 0.1984 l
0.4612 0.1989 l
0.4624 0.1993 l
0.4636 0.1997 l
0.4648 0.2002 l
0.4660 0.2006 l
0.4672 0.2010 l
0.4684 0.2015 l
0.4696 0.2019 l
0.4708 0.2024 l
0.4719 0.2028 l
0.4731 0.2033 l
0.4743 0.2037 l
0.4755 0.2042 l
0.4767 0.2046 l
0.4779 0.2051 l
0.4791 0.2055 l
0.4802 0.2060 l
0.4814 0.2065 l
0.4826 0.2069 l
0.4838 0.2074 l
0.4850 0.2079 l
0.4862 0.2083 l
0.4874 0.2088 l
0.4886 0.2093 l
0.4898 0.2097 l
0.4909 0.2102 l
0.4921 0.2107 l
0.4933 0.2112 l
0.4945 0.2116 l
0.4957 0.2121 l
0.4969 0.2126 l
0.4981 0.2131 l
0.4992 0.2136 l
0.5004 0.2141 l
0.5016 0.2145 l
0.5028 0.2150 l
0.5040 0.2155 l
0.5052 0.2160 l
0.5064 0.2165 l
0.5076 0.2170 l
0.5087 0.2175 l
0.5099 0.2180 l
0.5111 0.2185 l
0.5123 0.2190 l
0.5135 0.2195 l
0.5147 0.2200 l
0.5159 0.2205 l
0.5171 0.2211 l
0.5182 0.2216 l
0.5194 0.2221 l
0.5206 0.2226 l
0.5218 0.2231 l
0.5230 0.2236 l
0.5242 0.2241 l
0.5254 0.2247 l
0.5266 0.2252 l
0.5277 0.2257 l
0.5289 0.2262 l
0.5301 0.2268 l
0.5313 0.2273 l
0.5325 0.2278 l
0.5337 0.2284 l
0.5349 0.2289 l
0.5361 0.2294 l
0.5373 0.2300 l
0.5384 0.2305 l
0.5396 0.2310 l
0.5408 0.2316 l
0.5420 0.2321 l
0.5432 0.2327 l
0.5444 0.2332 l
0.5456 0.2338 l
0.5467 0.2343 l
0.5479 0.2349 l
0.5491 0.2354 l
0.5503 0.2360 l
0.5515 0.2365 l
0.5527 0.2371 l
0.5539 0.2376 l
0.5551 0.2382 l
0.5563 0.2388 l
0.5574 0.2393 l
0.5586 0.2399 l
0.5598 0.2404 l
0.5610 0.2410 l
0.5622 0.2416 l
0.5634 0.2421 l
0.5646 0.2427 l
0.5657 0.2433 l
0.5669 0.2439 l
0.5681 0.2444 l
0.5693 0.2450 l
0.5705 0.2456 l
0.5717 0.2462 l
0.5729 0.2468 l
0.5741 0.2473 l
0.5752 0.2479 l
0.5764 0.2485 l
0.5776 0.2491 l
0.5788 0.2497 l
0.5800 0.2503 l
0.5812 0.2509 l
0.5824 0.2514 l
0.5836 0.2520 l
0.5847 0.2526 l
0.5859 0.2532 l
0.5871 0.2538 l
0.5883 0.2544 l
0.5895 0.2550 l
0.5907 0.2556 l
0.5919 0.2562 l
0.5931 0.2568 l
0.5942 0.2574 l
0.5954 0.2581 l
0.5966 0.2587 l
0.5978 0.2593 l
0.5990 0.2599 l
0.6002 0.2605 l
0.6014 0.2611 l
0.6026 0.2617 l
0.6038 0.2623 l
0.6049 0.2630 l
0.6061 0.2636 l
0.6073 0.2642 l
0.6085 0.2648 l
0.6097 0.2654 l
0.6109 0.2661 l
0.6121 0.2667 l
0.6132 0.2673 l
0.6144 0.2679 l
0.6156 0.2686 l
0.6168 0.2692 l
0.6180 0.2698 l
0.6192 0.2705 l
0.6204 0.2711 l
0.6216 0.2717 l
0.6228 0.2724 l
0.6239 0.2730 l
0.6251 0.2736 l
0.6263 0.2743 l
0.6275 0.2749 l
0.6287 0.2756 l
0.6299 0.2762 l
0.6311 0.2768 l
0.6322 0.2775 l
0.6334 0.2781 l
0.6346 0.2788 l
0.6358 0.2794 l
0.6370 0.2801 l
0.6382 0.2807 l
0.6394 0.2814 l
0.6406 0.2820 l
0.6417 0.2827 l
0.6429 0.2834 l
0.6441 0.2840 l
0.6453 0.2847 l
0.6465 0.2853 l
0.6477 0.2860 l
0.6489 0.2867 l
0.6501 0.2873 l
0.6512 0.2880 l
0.6524 0.2886 l
0.6536 0.2893 l
0.6548 0.2900 l
0.6560 0.2906 l
0.6572 0.2913 l
0.6584 0.2920 l
0.6596 0.2927 l
0.6607 0.2933 l
0.6619 0.2940 l
0.6631 0.2947 l
0.6643 0.2954 l
0.6655 0.2960 l
0.6667 0.2967 l
0.6679 0.2974 l
0.6691 0.2981 l
0.6703 0.2988 l
0.6714 0.2994 l
0.6726 0.3001 l
0.6738 0.3008 l
0.6750 0.3015 l
0.6762 0.3022 l
0.6774 0.3029 l
0.6786 0.3035 l
0.6797 0.3042 l
0.6809 0.3049 l
0.6821 0.3056 l
0.6833 0.3063 l
0.6845 0.3070 l
0.6857 0.3077 l
0.6869 0.3084 l
0.6881 0.3091 l
0.6892 0.3098 l
0.6904 0.3105 l
0.6916 0.3112 l
0.6928 0.3119 l
0.6940 0.3126 l
0.6952 0.3133 l
0.6964 0.3140 l
0.6976 0.3147 l
0.6987 0.3154 l
0.6999 0.3161 l
0.7011 0.3168 l
0.7023 0.3175 l
0.7035 0.3182 l
0.7047 0.3189 l
0.7059 0.3196 l
0.7071 0.3203 l
0.7082 0.3210 l
0.7094 0.3218 l
0.7106 0.3225 l
0.7118 0.3232 l
0.7130 0.3239 l
0.7142 0.3246 l
0.7154 0.3253 l
0.7166 0.3260 l
0.7177 0.3268 l
0.7189 0.3275 l
0.7201 0.3282 l
0.7213 0.3289 l
0.7225 0.3296 l
0.7237 0.3304 l
0.7249 0.3311 l
0.7261 0.3318 l
0.7272 0.3325 l
0.7284 0.3332 l
0.7296 0.3340 l
0.7308 0.3347 l
0.7320 0.3354 l
0.7332 0.3362 l
0.7344 0.3369 l
0.7356 0.3376 l
0.7368 0.3383 l
0.7379 0.3391 l
0.7391 0.3398 l
0.7403 0.3405 l
0.7415 0.3413 l
0.7427 0.3420 l
0.7439 0.3427 l
0.7451 0.3435 l
0.7462 0.3442 l
0.7474 0.3449 l
0.7486 0.3457 l
0.7498 0.3464 l
0.7510 0.3471 l
0.7522 0.3479 l
0.7534 0.3486 l
0.7546 0.3494 l
0.7558 0.3501 l
0.7569 0.3508 l
0.7581 0.3516 l
0.7593 0.3523 l
0.7605 0.3531 l
0.7617 0.3538 l
0.7629 0.3545 l
0.7641 0.3553 l
0.7652 0.3560 l
0.7664 0.3568 l
0.7676 0.3575 l
0.7688 0.3583 l
0.7700 0.3590 l
0.7712 0.3598 l
0.7724 0.3605 l
0.7736 0.3613 l
0.7748 0.3620 l
0.7759 0.3628 l
0.7771 0.3635 l
0.7783 0.3643 l
0.7795 0.3650 l
0.7807 0.3658 l
0.7819 0.3665 l
0.7831 0.3673 l
0.7843 0.3680 l
0.7854 0.3688 l
0.7866 0.3695 l
0.7878 0.3703 l
0.7890 0.3710 l
0.7902 0.3718 l
0.7914 0.3725 l
0.7926 0.3733 l
0.7937 0.3740 l
0.7949 0.3748 l
0.7961 0.3755 l
0.7973 0.3763 l
0.7985 0.3771 l
0.7997 0.3778 l
0.8009 0.3786 l
0.8021 0.3793 l
0.8032 0.3801 l
0.8044 0.3809 l
0.8056 0.3816 l
0.8068 0.3824 l
0.8080 0.3831 l
0.8092 0.3839 l
0.8104 0.3846 l
0.8116 0.3854 l
0.8127 0.3862 l
0.8139 0.3869 l
0.8151 0.3877 l
0.8163 0.3885 l
0.8175 0.3892 l
0.8187 0.3900 l
0.8199 0.3907 l
0.8211 0.3915 l
0.8222 0.3923 l
0.8234 0.3930 l
0.8246 0.3938 l
0.8258 0.3946 l
0.8270 0.3953 l
0.8282 0.3961 l
0.8294 0.3968 l
0.8306 0.3976 l
0.8317 0.3984 l
0.8329 0.3991 l
0.8341 0.3999 l
0.8353 0.4007 l
0.8365 0.4014 l
0.8377 0.4022 l
0.8389 0.4030 l
0.8401 0.4037 l
0.8412 0.4045 l
0.8424 0.4053 l
0.8436 0.4060 l
0.8448 0.4068 l
0.8460 0.4076 l
0.8472 0.4083 l
0.8484 0.4091 l
0.8496 0.4099 l
0.8508 0.4106 l
0.8519 0.4114 l
0.8531 0.4122 l
0.8543 0.4129 l
0.8555 0.4137 l
0.8567 0.4145 l
0.8579 0.4152 l
0.8591 0.4160 l
0.8602 0.4168 l
0.8614 0.4175 l
0.8626 0.4183 l
0.8638 0.4190 l
0.8650 0.4198 l
0.8662 0.4206 l
0.8674 0.4213 l
0.8686 0.4221 l
0.8698 0.4229 l
0.8709 0.4236 l
0.8721 0.4244 l
0.8733 0.4252 l
0.8745 0.4259 l
0.8757 0.4267 l
0.8769 0.4275 l
0.8781 0.4282 l
0.8792 0.4290 l
0.8804 0.4298 l
0.8816 0.4305 l
0.8828 0.4313 l
0.8840 0.4321 l
0.8852 0.4328 l
0.8864 0.4336 l
0.8876 0.4344 l
0.8888 0.4351 l
0.8899 0.4359 l
0.8911 0.4366 l
0.8923 0.4374 l
0.8935 0.4382 l
0.8947 0.4389 l
0.8959 0.4397 l
0.8971 0.4405 l
0.8982 0.4412 l
0.8994 0.4420 l
0.9006 0.4427 l
0.9018 0.4435 l
0.9030 0.4443 l
0.9042 0.4450 l
0.9054 0.4458 l
0.9066 0.4465 l
0.9078 0.4473 l
0.9089 0.4481 l
0.9101 0.4488 l
0.9113 0.4496 l
0.9125 0.4503 l
0.9137 0.4511 l
0.9149 0.4519 l
0.9161 0.4526 l
0.9173 0.4534 l
0.9184 0.4541 l
0.9196 0.4549 l
0.9208 0.4556 l
0.9220 0.4564 l
0.9232 0.4571 l
0.9244 0.4579 l
0.9256 0.4587 l
0.9267 0.4594 l
0.9279 0.4602 l
0.9291 0.4609 l
0.9303 0.4617 l
0.9315 0.4624 l
0.9327 0.4632 l
0.9339 0.4639 l
0.9351 0.4647 l
0.9362 0.4654 l
0.9374 0.4662 l
0.9386 0.4669 l
0.9398 0.4677 l
0.9410 0.4684 l
0.9422 0.4692 l
0.9434 0.4699 l
0.9446 0.4707 l
0.9457 0.4714 l
0.9469 0.4721 l
0.9481 0.4729 l
0.9493 0.4736 l
0.9505 0.4744 l
0.9517 0.4751 l
0.9529 0.4759 l
0.9541 0.4766 l
0.9552 0.4773 l
0.9564 0.4781 l
0.9576 0.4788 l
0.9588 0.4796 l
0.9600 0.4803 l
0.9612 0.4810 l
0.9624 0.4818 l
0.9636 0.4825 l
0.9647 0.4832 l
0.9659 0.4840 l
0.9671 0.4847 l
0.9683 0.4854 l
0.9695 0.4862 l
0.9707 0.4869 l
0.9719 0.4876 l
0.9731 0.4884 l
0.9742 0.4891 l
0.9754 0.4898 l
0.9766 0.4905 l
0.9778 0.4913 l
0.9790 0.4920 l
0.9802 0.4927 l
0.9814 0.4934 l
0.9826 0.4942 l
0.9837 0.4949 l
0.9849 0.4956 l
0.9861 0.4963 l
0.9873 0.4970 l
0.9885 0.4978 l
0.9897 0.4985 l
0.9909 0.4992 l
0.9921 0.4999 l
0.9932 0.5006 l
0.9944 0.5013 l
0.9956 0.5021 l
0.9968 0.5028 l
0.9980 0.5035 l
0.9992 0.5042 l
1.0004 0.5049 l
1.0016 0.5056 l
1.0028 0.5063 l
1.0039 0.5070 l
1.0051 0.5077 l
1.0063 0.5084 l
1.0075 0.5091 l
1.0087 0.5098 l
1.0099 0.5105 l
1.0111 0.5112 l
1.0122 0.5119 l
1.0134 0.5126 l
1.0146 0.5133 l
1.0158 0.5140 l
1.0170 0.5147 l
1.0182 0.5154 l
1.0194 0.5161 l
1.0206 0.5168 l
1.0217 0.5175 l
1.0229 0.5182 l
1.0241 0.5189 l
1.0253 0.5195 l
1.0265 0.5202 l
1.0277 0.5209 l
1.0289 0.5216 l
1.0301 0.5223 l
1.0312 0.5230 l
1.0324 0.5236 l
1.0336 0.5243 l
1.0348 0.5250 l
1.0360 0.5257 l
1.0372 0.5263 l
1.0384 0.5270 l
1.0396 0.5277 l
1.0408 0.5284 l
1.0419 0.5290 l
1.0431 0.5297 l
1.0443 0.5304 l
1.0455 0.5310 l
1.0467 0.5317 l
1.0479 0.5324 l
1.0491 0.5330 l
1.0502 0.5337 l
1.0514 0.5343 l
1.0526 0.5350 l
1.0538 0.5356 l
1.0550 0.5363 l
1.0562 0.5370 l
1.0574 0.5376 l
1.0586 0.5383 l
1.0597 0.5389 l
1.0609 0.5395 l
1.0621 0.5402 l
1.0633 0.5408 l
1.0645 0.5415 l
1.0657 0.5421 l
1.0669 0.5428 l
1.0681 0.5434 l
1.0692 0.5440 l
1.0704 0.5447 l
1.0716 0.5453 l
1.0728 0.5459 l
1.0740 0.5466 l
1.0752 0.5472 l
1.0764 0.5478 l
1.0776 0.5484 l
1.0787 0.5491 l
1.0799 0.5497 l
1.0811 0.5503 l
1.0823 0.5509 l
1.0835 0.5515 l
1.0847 0.5522 l
1.0859 0.5528 l
1.0871 0.5534 l
1.0882 0.5540 l
1.0894 0.5546 l
1.0906 0.5552 l
1.0918 0.5558 l
1.0930 0.5564 l
1.0942 0.5570 l
1.0954 0.5576 l
1.0966 0.5582 l
1.0978 0.5588 l
1.0989 0.5594 l
1.1001 0.5600 l
1.1013 0.5606 l
1.1025 0.5612 l
1.1037 0.5618 l
1.1049 0.5624 l
1.1061 0.5629 l
1.1073 0.5635 l
1.1084 0.5641 l
1.1096 0.5647 l
1.1108 0.5653 l
1.1120 0.5658 l
1.1132 0.5664 l
1.1144 0.5670 l
1.1156 0.5675 l
1.1167 0.5681 l
1.1179 0.5687 l
1.1191 0.5692 l
1.1203 0.5698 l
1.1215 0.5704 l
1.1227 0.5709 l
1.1239 0.5715 l
1.1251 0.5720 l
1.1262 0.5726 l
1.1274 0.5731 l
1.1286 0.5737 l
1.1298 0.5742 l
1.1310 0.5747 l
1.1322 0.5753 l
1.1334 0.5758 l
1.1346 0.5764 l
1.1358 0.5769 l
1.1369 0.5774 l
1.1381 0.5780 l
1.1393 0.5785 l
1.1405 0.5790 l
1.1417 0.5795 l
1.1429 0.5801 l
1.1441 0.5806 l
1.1452 0.5811 l
1.1464 0.5816 l
1.1476 0.5821 l
1.1488 0.5826 l
1.1500 0.5831 l
s
[/DeviceRGB] SCS
Color3 SC
[] 0 SD
0.0023 SLW
n
0.2237 0.1504 m
0.2475 0.1517 l
0.2712 0.1537 l
0.2950 0.1566 l
0.3187 0.1604 l
0.3425 0.1649 l
0.3662 0.1703 l
0.3900 0.1765 l
0.4137 0.1836 l
0.4375 0.1915 l
0.4612 0.2002 l
0.4850 0.2097 l
0.5087 0.2201 l
0.5325 0.2313 l
0.5562 0.2433 l
0.5800 0.2562 l
0.6038 0.2699 l
0.6275 0.2844 l
0.6512 0.2997 l
0.6750 0.3159 l
0.6987 0.3329 l
0.7225 0.3507 l
0.7462 0.3694 l
0.7700 0.3889 l
0.7937 0.4092 l
0.8175 0.4303 l
0.8412 0.4523 l
0.8650 0.4751 l
0.8888 0.4988 l
0.9125 0.5232 l
0.9362 0.5485 l
0.9600 0.5747 l
0.9837 0.6016 l
1.0075 0.6294 l
1.0312 0.6580 l
1.0550 0.6875 l
1.0787 0.7177 l
1.1025 0.7488 l
1.1262 0.7808 l
1.1500 0.8135 l
s
n
0.2237 0.1504 0.0065 0.0065 0 360 EARC c
GS
Color0 SRGB
fill
GR
[/Pattern /DeviceRGB] SCS
Color3 Pattern8 SC
fill
[/DeviceRGB] SCS
Color3 SC
[] 0 SD
0.0030 SLW
n 0.2237 0.1504 0.0065 0.0065 0 360 EARC s
n
0.2475 0.1517 0.0065 0.0065 0 360 EARC c
GS
Color0 SRGB
fill
GR
[/Pattern /DeviceRGB] SCS
Color3 Pattern8 SC
fill
[/DeviceRGB] SCS
Color3 SC
n 0.2475 0.1517 0.0065 0.0065 0 360 EARC s
n
0.2712 0.1537 0.0065 0.0065 0 360 EARC c
GS
Color0 SRGB
fill
GR
[/Pattern /DeviceRGB] SCS
Color3 Pattern8 SC
fill
[/DeviceRGB] SCS
Color3 SC
n 0.2712 0.1537 0.0065 0.0065 0 360 EARC s
n
0.2950 0.1566 0.0065 0.0065 0 360 EARC c
GS
Color0 SRGB
fill
GR
[/Pattern /DeviceRGB] SCS
Color3 Pattern8 SC
fill
[/DeviceRGB] SCS
Color3 SC
n 0.2950 0.1566 0.0065 0.0065 0 360 EARC s
n
0.3187 0.1604 0.0065 0.0065 0 360 EARC c
GS
Color0 SRGB
fill
GR
[/Pattern /DeviceRGB] SCS
Color3 Pattern8 SC
fill
[/DeviceRGB] SCS
Color3 SC
n 0.3187 0.1604 0.0065 0.0065 0 360 EARC s
n
0.3425 0.1649 0.0065 0.0065 0 360 EARC c
GS
Color0 SRGB
fill
GR
[/Pattern /DeviceRGB] SCS
Color3 Pattern8 SC
fill
[/DeviceRGB] SCS
Color3 SC
n 0.3425 0.1649 0.0065 0.0065 0 360 EARC s
n
0.3662 0.1703 0.0065 0.0065 0 360 EARC c
GS
Color0 SRGB
fill
GR
[/Pattern /DeviceRGB] SCS
Color3 Pattern8 SC
fill
[/DeviceRGB] SCS
Color3 SC
n 0.3662 0.1703 0.0065 0.0065 0 360 EARC s
n
0.3900 0.1765 0.0065 0.0065 0 360 EARC c
GS
Color0 SRGB
fill
GR
[/Pattern /DeviceRGB] SCS
Color3 Pattern8 SC
fill
[/DeviceRGB] SCS
Color3 SC
n 0.3900 0.1765 0.0065 0.0065 0 360 EARC s
n
0.4137 0.1836 0.0065 0.0065 0 360 EARC c
GS
Color0 SRGB
fill
GR
[/Pattern /DeviceRGB] SCS
Color3 Pattern8 SC
fill
[/DeviceRGB] SCS
Color3 SC
n 0.4137 0.1836 0.0065 0.0065 0 360 EARC s
n
0.4375 0.1915 0.0065 0.0065 0 360 EARC c
GS
Color0 SRGB
fill
GR
[/Pattern /DeviceRGB] SCS
Color3 Pattern8 SC
fill
[/DeviceRGB] SCS
Color3 SC
n 0.4375 0.1915 0.0065 0.0065 0 360 EARC s
n
0.4612 0.2002 0.0065 0.0065 0 360 EARC c
GS
Color0 SRGB
fill
GR
[/Pattern /DeviceRGB] SCS
Color3 Pattern8 SC
fill
[/DeviceRGB] SCS
Color3 SC
n 0.4612 0.2002 0.0065 0.0065 0 360 EARC s
n
0.4850 0.2097 0.0065 0.0065 0 360 EARC c
GS
Color0 SRGB
fill
GR
[/Pattern /DeviceRGB] SCS
Color3 Pattern8 SC
fill
[/DeviceRGB] SCS
Color3 SC
n 0.4850 0.2097 0.0065 0.0065 0 360 EARC s
n
0.5087 0.2201 0.0065 0.0065 0 360 EARC c
GS
Color0 SRGB
fill
GR
[/Pattern /DeviceRGB] SCS
Color3 Pattern8 SC
fill
[/DeviceRGB] SCS
Color3 SC
n 0.5087 0.2201 0.0065 0.0065 0 360 EARC s
n
0.5325 0.2313 0.0065 0.0065 0 360 EARC c
GS
Color0 SRGB
fill
GR
[/Pattern /DeviceRGB] SCS
Color3 Pattern8 SC
fill
[/DeviceRGB] SCS
Color3 SC
n 0.5325 0.2313 0.0065 0.0065 0 360 EARC s
n
0.5562 0.2433 0.0065 0.0065 0 360 EARC c
GS
Color0 SRGB
fill
GR
[/Pattern /DeviceRGB] SCS
Color3 Pattern8 SC
fill
[/DeviceRGB] SCS
Color3 SC
n 0.5562 0.2433 0.0065 0.0065 0 360 EARC s
n
0.5800 0.2562 0.0065 0.0065 0 360 EARC c
GS
Color0 SRGB
fill
GR
[/Pattern /DeviceRGB] SCS
Color3 Pattern8 SC
fill
[/DeviceRGB] SCS
Color3 SC
n 0.5800 0.2562 0.0065 0.0065 0 360 EARC s
n
0.6038 0.2699 0.0065 0.0065 0 360 EARC c
GS
Color0 SRGB
fill
GR
[/Pattern /DeviceRGB] SCS
Color3 Pattern8 SC
fill
[/DeviceRGB] SCS
Color3 SC
n 0.6038 0.2699 0.0065 0.0065 0 360 EARC s
n
0.6275 0.2844 0.0065 0.0065 0 360 EARC c
GS
Color0 SRGB
fill
GR
[/Pattern /DeviceRGB] SCS
Color3 Pattern8 SC
fill
[/DeviceRGB] SCS
Color3 SC
n 0.6275 0.2844 0.0065 0.0065 0 360 EARC s
n
0.6512 0.2997 0.0065 0.0065 0 360 EARC c
GS
Color0 SRGB
fill
GR
[/Pattern /DeviceRGB] SCS
Color3 Pattern8 SC
fill
[/DeviceRGB] SCS
Color3 SC
n 0.6512 0.2997 0.0065 0.0065 0 360 EARC s
n
0.6750 0.3159 0.0065 0.0065 0 360 EARC c
GS
Color0 SRGB
fill
GR
[/Pattern /DeviceRGB] SCS
Color3 Pattern8 SC
fill
[/DeviceRGB] SCS
Color3 SC
n 0.6750 0.3159 0.0065 0.0065 0 360 EARC s
n
0.6987 0.3329 0.0065 0.0065 0 360 EARC c
GS
Color0 SRGB
fill
GR
[/Pattern /DeviceRGB] SCS
Color3 Pattern8 SC
fill
[/DeviceRGB] SCS
Color3 SC
n 0.6987 0.3329 0.0065 0.0065 0 360 EARC s
n
0.7225 0.3507 0.0065 0.0065 0 360 EARC c
GS
Color0 SRGB
fill
GR
[/Pattern /DeviceRGB] SCS
Color3 Pattern8 SC
fill
[/DeviceRGB] SCS
Color3 SC
n 0.7225 0.3507 0.0065 0.0065 0 360 EARC s
n
0.7462 0.3694 0.0065 0.0065 0 360 EARC c
GS
Color0 SRGB
fill
GR
[/Pattern /DeviceRGB] SCS
Color3 Pattern8 SC
fill
[/DeviceRGB] SCS
Color3 SC
n 0.7462 0.3694 0.0065 0.0065 0 360 EARC s
n
0.7700 0.3889 0.0065 0.0065 0 360 EARC c
GS
Color0 SRGB
fill
GR
[/Pattern /DeviceRGB] SCS
Color3 Pattern8 SC
fill
[/DeviceRGB] SCS
Color3 SC
n 0.7700 0.3889 0.0065 0.0065 0 360 EARC s
n
0.7937 0.4092 0.0065 0.0065 0 360 EARC c
GS
Color0 SRGB
fill
GR
[/Pattern /DeviceRGB] SCS
Color3 Pattern8 SC
fill
[/DeviceRGB] SCS
Color3 SC
n 0.7937 0.4092 0.0065 0.0065 0 360 EARC s
n
0.8175 0.4303 0.0065 0.0065 0 360 EARC c
GS
Color0 SRGB
fill
GR
[/Pattern /DeviceRGB] SCS
Color3 Pattern8 SC
fill
[/DeviceRGB] SCS
Color3 SC
n 0.8175 0.4303 0.0065 0.0065 0 360 EARC s
n
0.8412 0.4523 0.0065 0.0065 0 360 EARC c
GS
Color0 SRGB
fill
GR
[/Pattern /DeviceRGB] SCS
Color3 Pattern8 SC
fill
[/DeviceRGB] SCS
Color3 SC
n 0.8412 0.4523 0.0065 0.0065 0 360 EARC s
n
0.8650 0.4751 0.0065 0.0065 0 360 EARC c
GS
Color0 SRGB
fill
GR
[/Pattern /DeviceRGB] SCS
Color3 Pattern8 SC
fill
[/DeviceRGB] SCS
Color3 SC
n 0.8650 0.4751 0.0065 0.0065 0 360 EARC s
n
0.8888 0.4988 0.0065 0.0065 0 360 EARC c
GS
Color0 SRGB
fill
GR
[/Pattern /DeviceRGB] SCS
Color3 Pattern8 SC
fill
[/DeviceRGB] SCS
Color3 SC
n 0.8888 0.4988 0.0065 0.0065 0 360 EARC s
n
0.9125 0.5232 0.0065 0.0065 0 360 EARC c
GS
Color0 SRGB
fill
GR
[/Pattern /DeviceRGB] SCS
Color3 Pattern8 SC
fill
[/DeviceRGB] SCS
Color3 SC
n 0.9125 0.5232 0.0065 0.0065 0 360 EARC s
n
0.9362 0.5485 0.0065 0.0065 0 360 EARC c
GS
Color0 SRGB
fill
GR
[/Pattern /DeviceRGB] SCS
Color3 Pattern8 SC
fill
[/DeviceRGB] SCS
Color3 SC
n 0.9362 0.5485 0.0065 0.0065 0 360 EARC s
n
0.9600 0.5747 0.0065 0.0065 0 360 EARC c
GS
Color0 SRGB
fill
GR
[/Pattern /DeviceRGB] SCS
Color3 Pattern8 SC
fill
[/DeviceRGB] SCS
Color3 SC
n 0.9600 0.5747 0.0065 0.0065 0 360 EARC s
n
0.9837 0.6016 0.0065 0.0065 0 360 EARC c
GS
Color0 SRGB
fill
GR
[/Pattern /DeviceRGB] SCS
Color3 Pattern8 SC
fill
[/DeviceRGB] SCS
Color3 SC
n 0.9837 0.6016 0.0065 0.0065 0 360 EARC s
n
1.0075 0.6294 0.0065 0.0065 0 360 EARC c
GS
Color0 SRGB
fill
GR
[/Pattern /DeviceRGB] SCS
Color3 Pattern8 SC
fill
[/DeviceRGB] SCS
Color3 SC
n 1.0075 0.6294 0.0065 0.0065 0 360 EARC s
n
1.0312 0.6580 0.0065 0.0065 0 360 EARC c
GS
Color0 SRGB
fill
GR
[/Pattern /DeviceRGB] SCS
Color3 Pattern8 SC
fill
[/DeviceRGB] SCS
Color3 SC
n 1.0312 0.6580 0.0065 0.0065 0 360 EARC s
n
1.0550 0.6875 0.0065 0.0065 0 360 EARC c
GS
Color0 SRGB
fill
GR
[/Pattern /DeviceRGB] SCS
Color3 Pattern8 SC
fill
[/DeviceRGB] SCS
Color3 SC
n 1.0550 0.6875 0.0065 0.0065 0 360 EARC s
n
1.0787 0.7177 0.0065 0.0065 0 360 EARC c
GS
Color0 SRGB
fill
GR
[/Pattern /DeviceRGB] SCS
Color3 Pattern8 SC
fill
[/DeviceRGB] SCS
Color3 SC
n 1.0787 0.7177 0.0065 0.0065 0 360 EARC s
n
1.1025 0.7488 0.0065 0.0065 0 360 EARC c
GS
Color0 SRGB
fill
GR
[/Pattern /DeviceRGB] SCS
Color3 Pattern8 SC
fill
[/DeviceRGB] SCS
Color3 SC
n 1.1025 0.7488 0.0065 0.0065 0 360 EARC s
n
1.1262 0.7808 0.0065 0.0065 0 360 EARC c
GS
Color0 SRGB
fill
GR
[/Pattern /DeviceRGB] SCS
Color3 Pattern8 SC
fill
[/DeviceRGB] SCS
Color3 SC
n 1.1262 0.7808 0.0065 0.0065 0 360 EARC s
n
1.1500 0.8135 0.0065 0.0065 0 360 EARC c
GS
Color0 SRGB
fill
GR
[/Pattern /DeviceRGB] SCS
Color3 Pattern8 SC
fill
[/DeviceRGB] SCS
Color3 SC
n 1.1500 0.8135 0.0065 0.0065 0 360 EARC s
[/DeviceRGB] SCS
Color1 SC
[] 0 SD
0.0045 SLW
n
0.2000 0.1500 m
1.1500 0.1500 l
s
n
0.2000 0.8500 m
1.1500 0.8500 l
s
n
0.3187 0.1500 m
0.3187 0.1600 l
s
n
0.3187 0.8500 m
0.3187 0.8400 l
s
n
0.5562 0.1500 m
0.5562 0.1600 l
s
n
0.5562 0.8500 m
0.5562 0.8400 l
s
n
0.7937 0.1500 m
0.7937 0.1600 l
s
n
0.7937 0.8500 m
0.7937 0.8400 l
s
n
1.0312 0.1500 m
1.0312 0.1600 l
s
n
1.0312 0.8500 m
1.0312 0.8400 l
s
n
0.2000 0.1500 m
0.2000 0.1700 l
s
n
0.2000 0.8500 m
0.2000 0.8300 l
s
n
0.4375 0.1500 m
0.4375 0.1700 l
s
n
0.4375 0.8500 m
0.4375 0.8300 l
s
n
0.6750 0.1500 m
0.6750 0.1700 l
s
n
0.6750 0.8500 m
0.6750 0.8300 l
s
n
0.9125 0.1500 m
0.9125 0.1700 l
s
n
0.9125 0.8500 m
0.9125 0.8300 l
s
n
1.1500 0.1500 m
1.1500 0.1700 l
s
n
1.1500 0.8500 m
1.1500 0.8300 l
s
/Times-Roman findfont
dup length dict begin
 {1 index /FID ne {def} {pop pop} ifelse} forall
 /Encoding DefEncoding def
 currentdict
end
/Font0 exch definefont pop
/Font0 FFSF
0.1894 0.1094 m
GS
[0.0448 0.0000 0.0000 0.0448 0 0] CC
(0) show
GR
/Font0 FFSF
0.4287 0.1094 m
GS
[0.0448 0.0000 0.0000 0.0448 0 0] CC
(1) show
GR
/Font0 FFSF
0.6644 0.1094 m
GS
[0.0448 0.0000 0.0000 0.0448 0 0] CC
(2) show
GR
/Font0 FFSF
0.9027 0.1094 m
GS
[0.0448 0.0000 0.0000 0.0448 0 0] CC
(3) show
GR
/Font0 FFSF
1.1394 0.1094 m
GS
[0.0448 0.0000 0.0000 0.0448 0 0] CC
(4) show
GR
/Font0 FFSF
0.5985 0.0445 m
GS
[0.0504 0.0000 0.0000 0.0504 0 0] CC
(q [fm) show
GR
/Font0 FFSF
0.7091 0.0747 m
GS
[0.0356 0.0000 0.0000 0.0356 0 0] CC
(-1) show
GR
/Font0 FFSF
0.7389 0.0445 m
GS
[0.0504 0.0000 0.0000 0.0504 0 0] CC
(]) show
GR
n
0.2000 0.1500 m
0.2000 0.8500 l
s
n
1.1500 0.1500 m
1.1500 0.8500 l
s
n
0.2000 0.2500 m
0.2100 0.2500 l
s
n
1.1500 0.2500 m
1.1400 0.2500 l
s
n
0.2000 0.4500 m
0.2100 0.4500 l
s
n
1.1500 0.4500 m
1.1400 0.4500 l
s
n
0.2000 0.6500 m
0.2100 0.6500 l
s
n
1.1500 0.6500 m
1.1400 0.6500 l
s
n
0.2000 0.8500 m
0.2100 0.8500 l
s
n
1.1500 0.8500 m
1.1400 0.8500 l
s
n
0.2000 0.1500 m
0.2200 0.1500 l
s
n
1.1500 0.1500 m
1.1300 0.1500 l
s
n
0.2000 0.3500 m
0.2200 0.3500 l
s
n
1.1500 0.3500 m
1.1300 0.3500 l
s
n
0.2000 0.5500 m
0.2200 0.5500 l
s
n
1.1500 0.5500 m
1.1300 0.5500 l
s
n
0.2000 0.7500 m
0.2200 0.7500 l
s
n
1.1500 0.7500 m
1.1300 0.7500 l
s
/Font0 FFSF
0.1688 0.1351 m
GS
[0.0448 0.0000 0.0000 0.0448 0 0] CC
(0) show
GR
/Font0 FFSF
0.1241 0.3351 m
GS
[0.0448 0.0000 0.0000 0.0448 0 0] CC
(100) show
GR
/Font0 FFSF
0.1241 0.5351 m
GS
[0.0448 0.0000 0.0000 0.0448 0 0] CC
(200) show
GR
/Font0 FFSF
0.1241 0.7351 m
GS
[0.0448 0.0000 0.0000 0.0448 0 0] CC
(300) show
GR
/Font0 FFSF
0.0940 0.3075 m
GS
[0.0000 0.0504 -0.0504 0.0000 0 0] CC
(M) show
GR
/Font0 FFSF
0.1141 0.3522 m
GS
[0.0000 0.0356 -0.0356 0.0000 0 0] CC
(1) show
GR
/Font0 FFSF
0.0637 0.3698 m
GS
[0.0000 0.0356 -0.0356 0.0000 0 0] CC
(\(0,0\)) show
GR
/Font0 FFSF
0.0940 0.4380 m
GS
[0.0000 0.0504 -0.0504 0.0000 0 0] CC
(\(q\)/N [MeV]) show
GR
[] 0 SD
0.0015 SLW
n
0.2000 0.1500 m
0.2000 0.8500 l
1.1500 0.8500 l
1.1500 0.1500 l
0.2000 0.1500 l
c
s
[/DeviceRGB] SCS
Color11 SC
[0.0315 0.0135 ] 0 SD
0.0045 SLW
n
0.7106 0.8500 m
0.7106 0.1500 l
s
[/DeviceRGB] SCS
Color4 SC
n
0.9362 0.1500 m
0.9362 0.8500 l
s
n
0.2100 0.6000 m
0.2100 0.4079 l
0.4815 0.4079 l
0.4815 0.6000 l
c
[/DeviceRGB] SCS
Color0 SC
fill
/Font0 FFSF
[/DeviceRGB] SCS
Color1 SC
0.2880 0.5539 m
GS
[0.0529 0.0000 0.0000 0.0529 0 0] CC
(Numeric) show
GR
[] 0 SD
0.0045 SLW
n
0.2280 0.5718 m
0.2680 0.5718 l
s
/Font0 FFSF
0.2880 0.5075 m
GS
[0.0529 0.0000 0.0000 0.0529 0 0] CC
(Analytic) show
GR
[/DeviceRGB] SCS
Color2 SC
[0.0225 0.0135 ] 0 SD
0.0045 SLW
n
0.2280 0.5198 m
0.2680 0.5198 l
s
/Font0 FFSF
[/DeviceRGB] SCS
Color1 SC
0.2880 0.4292 m
GS
[0.0529 0.0000 0.0000 0.0529 0 0] CC
(q) show
GR
/Font0 FFSF
0.3143 0.4610 m
GS
[0.0374 0.0000 0.0000 0.0374 0 0] CC
(2) show
GR
/Font0 FFSF
0.3331 0.4292 m
GS
[0.0529 0.0000 0.0000 0.0529 0 0] CC
(/2m) show
GR
[/DeviceRGB] SCS
Color3 SC
[] 0 SD
0.0023 SLW
n
0.2280 0.4520 m
0.2680 0.4520 l
s
n
0.2280 0.4520 0.0065 0.0065 0 360 EARC c
GS
Color0 SRGB
fill
GR
[/Pattern /DeviceRGB] SCS
Color3 Pattern8 SC
fill
[/DeviceRGB] SCS
Color3 SC
[] 0 SD
0.0030 SLW
n 0.2280 0.4520 0.0065 0.0065 0 360 EARC s
n
0.2680 0.4520 0.0065 0.0065 0 360 EARC c
GS
Color0 SRGB
fill
GR
[/Pattern /DeviceRGB] SCS
Color3 Pattern8 SC
fill
[/DeviceRGB] SCS
Color3 SC
n 0.2680 0.4520 0.0065 0.0065 0 360 EARC s
/Font0 FFSF
[/DeviceRGB] SCS
Color11 SC
0.5800 0.7800 m
GS
[0.0566 0.0000 0.0000 0.0566 0 0] CC
(10%) show
GR
/Font0 FFSF
[/DeviceRGB] SCS
Color4 SC
0.8200 0.7800 m
GS
[0.0566 0.0000 0.0000 0.0566 0 0] CC
(20%) show
GR
showpage
%%PageTrailer
%%Trailer
%%DocumentNeededResources: font Times-Roman
%%EOF
