%!PS-Adobe-3.0 EPSF-3.0
%%BoundingBox: (atend)
%%LanguageLevel: 2
%%Creator: Grace-5.1.25
%%CreationDate: Wed Feb 17 15:59:11 2016
%%DocumentData: Clean8Bit
%%Orientation: Portrait
%%Title: delta-3.agr
%%For: ap1450
%%DocumentNeededResources: (atend)
%%EndComments
%%BeginProlog
/m {moveto} def
/l {lineto} def
/s {stroke} def
/n {newpath} def
/c {closepath} def
/RL {rlineto} def
/SLW {setlinewidth} def
/GS {gsave} def
/GR {grestore} def
/SC {setcolor} def
/SGRY {setgray} def
/SRGB {setrgbcolor} def
/SD {setdash} def
/SLC {setlinecap} def
/SLJ {setlinejoin} def
/SCS {setcolorspace} def
/FFSF {findfont setfont} def
/CC {concat} def
/PXL {n m 0 0 RL s} def
/Color0 {1.0000 1.0000 1.0000} def
/Color1 {0.0000 0.0000 0.0000} def
/Color2 {1.0000 0.0000 0.0000} def
/Color3 {0.0000 1.0000 0.0000} def
/Color4 {0.0000 0.0000 1.0000} def
/Color5 {1.0000 1.0000 0.0000} def
/Color6 {0.7373 0.5608 0.5608} def
/Color7 {0.8627 0.8627 0.8627} def
/Color8 {0.5804 0.0000 0.8275} def
/Color9 {0.0000 1.0000 1.0000} def
/Color10 {1.0000 0.0000 1.0000} def
/Color11 {1.0000 0.6471 0.0000} def
/Color12 {0.4471 0.1294 0.7373} def
/Color13 {0.4039 0.0275 0.2824} def
/Color14 {0.2510 0.8784 0.8157} def
/Color15 {0.0000 0.5451 0.0000} def
/Color16 {0.7529 0.7529 0.7529} def
/Color17 {0.5059 0.5059 0.5059} def
/Color18 {0.2588 0.2588 0.2588} def
/PTRN {
 /pat_bits exch def 
 <<
  /PaintType 2
  /PatternType 1 /TilingType 1
  /BBox[0 0 16 16]
  /XStep 16 /YStep 16
  /PaintProc {
   pop
   16 16 true [-1 0 0 -1 16 16] pat_bits imagemask
  }
 >>
 [0.0016 0 0 0.0016 0 0]
 makepattern
} def
/Pattern0 {<0000000000000000000000000000000000000000000000000000000000000000> PTRN} bind def
/Pattern1 {<ffffffffffffffffffffffffffffffffffffffffffffffffffffffffffffffff> PTRN} bind def
/Pattern2 {<eeeeffffbbbbffffeeeeffffbbbbffffeeeeffffbbbbffffeeeeffffbbbbffff> PTRN} bind def
/Pattern3 {<eeeebbbbeeeebbbbeeeebbbbeeeebbbbeeeebbbbeeeebbbbeeeebbbbeeeebbbb> PTRN} bind def
/Pattern4 {<5555aaaa5555aaaa5555aaaa5555aaaa5555aaaa5555aaaa5555aaaa5555aaaa> PTRN} bind def
/Pattern5 {<1111444411114444111144441111444411114444111144441111444411114444> PTRN} bind def
/Pattern6 {<1111000044440000111100004444000011110000444400001111000044440000> PTRN} bind def
/Pattern7 {<1010000000000000010100000000000010100000000000000101000000000000> PTRN} bind def
/Pattern8 {<0000000000000000000000000000000000000000000000000000000000000000> PTRN} bind def
/Pattern9 {<1e1e0f0f8787c3c3e1e1f0f078783c3c1e1e0f0f8787c3c3e1e1f0f078783c3c> PTRN} bind def
/Pattern10 {<7878f0f0e1e1c3c387870f0f1e1e3c3c7878f0f0e1e1c3c387870f0f1e1e3c3c> PTRN} bind def
/Pattern11 {<3333333333333333333333333333333333333333333333333333333333333333> PTRN} bind def
/Pattern12 {<ffffffff00000000ffffffff00000000ffffffff00000000ffffffff00000000> PTRN} bind def
/Pattern13 {<8181424224241818181824244242818181814242242418181818242442428181> PTRN} bind def
/Pattern14 {<8080404020201010080804040202010180804040202010100808040402020101> PTRN} bind def
/Pattern15 {<0101020204040808101020204040808001010202040408081010202040408080> PTRN} bind def
/Pattern16 {<2222222222222222222222222222222222222222222222222222222222222222> PTRN} bind def
/Pattern17 {<0000ffff000000000000ffff000000000000ffff000000000000ffff00000000> PTRN} bind def
/Pattern18 {<2222ffff222222222222ffff222222222222ffff222222222222ffff22222222> PTRN} bind def
/Pattern19 {<ffffffff33333333ffffffff33333333ffffffff33333333ffffffff33333333> PTRN} bind def
/Pattern20 {<0f0f0f0f0f0f0f0ff0f0f0f0f0f0f0f00f0f0f0f0f0f0f0ff0f0f0f0f0f0f0f0> PTRN} bind def
/Pattern21 {<ff00ff00ff00ff00ff00ff00ff00ff0000ff00ff00ff00ff00ff00ff00ff00ff> PTRN} bind def
/Pattern22 {<8001800180018001800180018001ffffffff8001800180018001800180018001> PTRN} bind def
/Pattern23 {<c003c003c003c003c003c003ffffffffffffffffc003c003c003c003c003c003> PTRN} bind def
/Pattern24 {<040404040404ffff404040404040ffff040404040404ffff404040404040ffff> PTRN} bind def
/Pattern25 {<180018001800180018001800ffffffff001800180018001800180018ffffffff> PTRN} bind def
/Pattern26 {<1111b8b87c7c3a3a1111a3a3c7c78b8b1111b8b87c7c3a3a1111a3a3c7c78b8b> PTRN} bind def
/Pattern27 {<101010102828c7c70101010182827c7c101010102828c7c70101010182827c7c> PTRN} bind def
/Pattern28 {<1c1c121211112121c1c12121111112121c1c121211112121c1c1212111111212> PTRN} bind def
/Pattern29 {<3e3e414180808080e3e31414080808083e3e414180808080e3e3141408080808> PTRN} bind def
/Pattern30 {<4848888884848383848488884848383848488888848483838484888848483838> PTRN} bind def
/Pattern31 {<03030404080808080c0c12122121c0c003030404080808080c0c12122121c0c0> PTRN} bind def
/ellipsedict 8 dict def
ellipsedict /mtrx matrix put
/EARC {
 ellipsedict begin
  /endangle exch def
  /startangle exch def
  /yrad exch def
  /xrad exch def
  /y exch def
  /x exch def
  /savematrix mtrx currentmatrix def
  x y translate
  xrad yrad scale
  0 0 1 startangle endangle arc
  savematrix setmatrix
 end
} def
/TL {
  /kcomp exch def
  /linewidth exch def
  /offset exch def
  GS
  0 offset rmoveto
  linewidth SLW
  dup stringwidth exch kcomp add exch RL s
  GR
} def
/KINIT
{
 /kvector exch def
 /kid 0 def
} def
/KPROC
{
 pop pop
 kvector kid get
 0 rmoveto
 /kid 1 kid add def
} def
/DefEncoding [
 /.notdef
 /.notdef
 /.notdef
 /.notdef
 /.notdef
 /.notdef
 /.notdef
 /.notdef
 /.notdef
 /.notdef
 /.notdef
 /.notdef
 /.notdef
 /.notdef
 /.notdef
 /.notdef
 /.notdef
 /.notdef
 /.notdef
 /.notdef
 /.notdef
 /.notdef
 /.notdef
 /.notdef
 /.notdef
 /.notdef
 /.notdef
 /.notdef
 /.notdef
 /.notdef
 /.notdef
 /.notdef
 /space
 /exclam
 /quotedbl
 /numbersign
 /dollar
 /percent
 /ampersand
 /quoteright
 /parenleft
 /parenright
 /asterisk
 /plus
 /comma
 /hyphen
 /period
 /slash
 /zero
 /one
 /two
 /three
 /four
 /five
 /six
 /seven
 /eight
 /nine
 /colon
 /semicolon
 /less
 /equal
 /greater
 /question
 /at
 /A
 /B
 /C
 /D
 /E
 /F
 /G
 /H
 /I
 /J
 /K
 /L
 /M
 /N
 /O
 /P
 /Q
 /R
 /S
 /T
 /U
 /V
 /W
 /X
 /Y
 /Z
 /bracketleft
 /backslash
 /bracketright
 /asciicircum
 /underscore
 /grave
 /a
 /b
 /c
 /d
 /e
 /f
 /g
 /h
 /i
 /j
 /k
 /l
 /m
 /n
 /o
 /p
 /q
 /r
 /s
 /t
 /u
 /v
 /w
 /x
 /y
 /z
 /braceleft
 /bar
 /braceright
 /asciitilde
 /.notdef
 /.notdef
 /.notdef
 /.notdef
 /.notdef
 /.notdef
 /.notdef
 /.notdef
 /.notdef
 /.notdef
 /.notdef
 /.notdef
 /.notdef
 /.notdef
 /.notdef
 /.notdef
 /.notdef
 /.notdef
 /.notdef
 /.notdef
 /.notdef
 /.notdef
 /.notdef
 /.notdef
 /.notdef
 /.notdef
 /.notdef
 /.notdef
 /.notdef
 /.notdef
 /.notdef
 /.notdef
 /.notdef
 /space
 /exclamdown
 /cent
 /sterling
 /currency
 /yen
 /brokenbar
 /section
 /dieresis
 /copyright
 /ordfeminine
 /guillemotleft
 /logicalnot
 /hyphen
 /registered
 /macron
 /degree
 /plusminus
 /twosuperior
 /threesuperior
 /acute
 /mu
 /paragraph
 /periodcentered
 /cedilla
 /onesuperior
 /ordmasculine
 /guillemotright
 /onequarter
 /onehalf
 /threequarters
 /questiondown
 /Agrave
 /Aacute
 /Acircumflex
 /Atilde
 /Adieresis
 /Aring
 /AE
 /Ccedilla
 /Egrave
 /Eacute
 /Ecircumflex
 /Edieresis
 /Igrave
 /Iacute
 /Icircumflex
 /Idieresis
 /Eth
 /Ntilde
 /Ograve
 /Oacute
 /Ocircumflex
 /Otilde
 /Odieresis
 /multiply
 /Oslash
 /Ugrave
 /Uacute
 /Ucircumflex
 /Udieresis
 /Yacute
 /Thorn
 /germandbls
 /agrave
 /aacute
 /acircumflex
 /atilde
 /adieresis
 /aring
 /ae
 /ccedilla
 /egrave
 /eacute
 /ecircumflex
 /edieresis
 /igrave
 /iacute
 /icircumflex
 /idieresis
 /eth
 /ntilde
 /ograve
 /oacute
 /ocircumflex
 /otilde
 /odieresis
 /divide
 /oslash
 /ugrave
 /uacute
 /ucircumflex
 /udieresis
 /yacute
 /thorn
 /ydieresis
] def
%%EndProlog
%%BeginSetup
%%EndSetup
612.00 612.00 scale
n
0.0000 0.0000 m
0.0000 1.0000 l
1.2941 1.0000 l
1.2941 0.0000 l
c
[/DeviceRGB] SCS
Color0 SC
fill
n
0.1997 0.7417 0.0075 0.0075 0 360 EARC c
[/DeviceRGB] SCS
Color1 SC
fill
[] 0 SD
0.0015 SLW
n 0.1997 0.7417 0.0075 0.0075 0 360 EARC s
n
0.2991 0.7454 0.0075 0.0075 0 360 EARC c
fill
n 0.2991 0.7454 0.0075 0.0075 0 360 EARC s
n
0.3985 0.7501 0.0075 0.0075 0 360 EARC c
fill
n 0.3985 0.7501 0.0075 0.0075 0 360 EARC s
n
0.4979 0.7562 0.0075 0.0075 0 360 EARC c
fill
n 0.4979 0.7562 0.0075 0.0075 0 360 EARC s
n
0.5974 0.7637 0.0075 0.0075 0 360 EARC c
fill
n 0.5974 0.7637 0.0075 0.0075 0 360 EARC s
n
0.6968 0.7730 0.0075 0.0075 0 360 EARC c
fill
n 0.6968 0.7730 0.0075 0.0075 0 360 EARC s
n
0.7962 0.7844 0.0075 0.0075 0 360 EARC c
fill
n 0.7962 0.7844 0.0075 0.0075 0 360 EARC s
n
0.8956 0.7984 0.0075 0.0075 0 360 EARC c
fill
n 0.8956 0.7984 0.0075 0.0075 0 360 EARC s
n
0.9950 0.8154 0.0075 0.0075 0 360 EARC c
fill
n 0.9950 0.8154 0.0075 0.0075 0 360 EARC s
n
1.0944 0.8362 0.0075 0.0075 0 360 EARC c
fill
n 1.0944 0.8362 0.0075 0.0075 0 360 EARC s
[/DeviceRGB] SCS
Color2 SC
[0.0075 0.0045 ] 0 SD
0.0015 SLW
0 SLC
0 SLJ
n
0.1997 0.7300 m
0.2991 0.7265 l
0.3985 0.7215 l
0.4979 0.7149 l
0.5974 0.7063 l
0.6968 0.6955 l
0.7962 0.6824 l
0.8956 0.6670 l
0.9950 0.6491 l
1.0944 0.6288 l
s
n
0.1933 0.7236 m
0.1933 0.7363 l
0.2061 0.7363 l
0.2061 0.7236 l
c
fill
[] 0 SD
0.0015 SLW
n
0.1933 0.7236 m
0.1933 0.7363 l
0.2061 0.7363 l
0.2061 0.7236 l
0.1933 0.7236 l
c
s
n
0.2927 0.7201 m
0.2927 0.7329 l
0.3055 0.7329 l
0.3055 0.7201 l
c
fill
n
0.2927 0.7201 m
0.2927 0.7329 l
0.3055 0.7329 l
0.3055 0.7201 l
0.2927 0.7201 l
c
s
n
0.3922 0.7152 m
0.3922 0.7279 l
0.4049 0.7279 l
0.4049 0.7152 l
c
fill
n
0.3922 0.7152 m
0.3922 0.7279 l
0.4049 0.7279 l
0.4049 0.7152 l
0.3922 0.7152 l
c
s
n
0.4916 0.7085 m
0.4916 0.7213 l
0.5043 0.7213 l
0.5043 0.7085 l
c
fill
n
0.4916 0.7085 m
0.4916 0.7213 l
0.5043 0.7213 l
0.5043 0.7085 l
0.4916 0.7085 l
c
s
n
0.5910 0.6999 m
0.5910 0.7126 l
0.6037 0.7126 l
0.6037 0.6999 l
c
fill
n
0.5910 0.6999 m
0.5910 0.7126 l
0.6037 0.7126 l
0.6037 0.6999 l
0.5910 0.6999 l
c
s
n
0.6904 0.6891 m
0.6904 0.7019 l
0.7031 0.7019 l
0.7031 0.6891 l
c
fill
n
0.6904 0.6891 m
0.6904 0.7019 l
0.7031 0.7019 l
0.7031 0.6891 l
0.6904 0.6891 l
c
s
n
0.7898 0.6761 m
0.7898 0.6888 l
0.8026 0.6888 l
0.8026 0.6761 l
c
fill
n
0.7898 0.6761 m
0.7898 0.6888 l
0.8026 0.6888 l
0.8026 0.6761 l
0.7898 0.6761 l
c
s
n
0.8892 0.6606 m
0.8892 0.6734 l
0.9020 0.6734 l
0.9020 0.6606 l
c
fill
n
0.8892 0.6606 m
0.8892 0.6734 l
0.9020 0.6734 l
0.9020 0.6606 l
0.8892 0.6606 l
c
s
n
0.9886 0.6428 m
0.9886 0.6555 l
1.0014 0.6555 l
1.0014 0.6428 l
c
fill
n
0.9886 0.6428 m
0.9886 0.6555 l
1.0014 0.6555 l
1.0014 0.6428 l
0.9886 0.6428 l
c
s
n
1.0880 0.6224 m
1.0880 0.6352 l
1.1008 0.6352 l
1.1008 0.6224 l
c
fill
n
1.0880 0.6224 m
1.0880 0.6352 l
1.1008 0.6352 l
1.1008 0.6224 l
1.0880 0.6224 l
c
s
[] 0 SD
0.0030 SLW
n
0.1912 0.7316 m
0.1912 0.7486 l
0.2082 0.7486 l
0.2082 0.7316 l
0.1912 0.7316 l
c
s
n
0.2906 0.7351 m
0.2906 0.7521 l
0.3076 0.7521 l
0.3076 0.7351 l
0.2906 0.7351 l
c
s
n
0.3900 0.7400 m
0.3900 0.7570 l
0.4070 0.7570 l
0.4070 0.7400 l
0.3900 0.7400 l
c
s
n
0.4894 0.7466 m
0.4894 0.7636 l
0.5064 0.7636 l
0.5064 0.7466 l
0.4894 0.7466 l
c
s
n
0.5889 0.7550 m
0.5889 0.7720 l
0.6059 0.7720 l
0.6059 0.7550 l
0.5889 0.7550 l
c
s
n
0.6883 0.7653 m
0.6883 0.7823 l
0.7053 0.7823 l
0.7053 0.7653 l
0.6883 0.7653 l
c
s
n
0.7877 0.7775 m
0.7877 0.7945 l
0.8047 0.7945 l
0.8047 0.7775 l
0.7877 0.7775 l
c
s
n
0.8871 0.7917 m
0.8871 0.8087 l
0.9041 0.8087 l
0.9041 0.7917 l
0.8871 0.7917 l
c
s
n
0.9865 0.8077 m
0.9865 0.8247 l
1.0035 0.8247 l
1.0035 0.8077 l
0.9865 0.8077 l
c
s
n
1.0859 0.8255 m
1.0859 0.8425 l
1.1029 0.8425 l
1.1029 0.8255 l
1.0859 0.8255 l
c
s
[/DeviceRGB] SCS
Color4 SC
[0.0075 0.0045 ] 0 SD
0.0015 SLW
n
0.1997 0.7355 m
0.2991 0.7358 l
0.3985 0.7363 l
0.4979 0.7369 l
0.5974 0.7378 l
0.6968 0.7389 l
0.7962 0.7403 l
0.8956 0.7421 l
0.9950 0.7442 l
1.0944 0.7468 l
s
n
0.1997 0.7441 m
0.1922 0.7312 l
0.2072 0.7312 l
c
fill
[] 0 SD
0.0015 SLW
n
0.1997 0.7441 m
0.1922 0.7312 l
0.2072 0.7312 l
0.1997 0.7441 l
c
s
n
0.2991 0.7445 m
0.2916 0.7315 l
0.3066 0.7315 l
c
fill
n
0.2991 0.7445 m
0.2916 0.7315 l
0.3066 0.7315 l
0.2991 0.7445 l
c
s
n
0.3985 0.7449 m
0.3910 0.7320 l
0.4060 0.7320 l
c
fill
n
0.3985 0.7449 m
0.3910 0.7320 l
0.4060 0.7320 l
0.3985 0.7449 l
c
s
n
0.4979 0.7456 m
0.4904 0.7326 l
0.5054 0.7326 l
c
fill
n
0.4979 0.7456 m
0.4904 0.7326 l
0.5054 0.7326 l
0.4979 0.7456 l
c
s
n
0.5974 0.7465 m
0.5899 0.7335 l
0.6049 0.7335 l
c
fill
n
0.5974 0.7465 m
0.5899 0.7335 l
0.6049 0.7335 l
0.5974 0.7465 l
c
s
n
0.6968 0.7476 m
0.6893 0.7346 l
0.7043 0.7346 l
c
fill
n
0.6968 0.7476 m
0.6893 0.7346 l
0.7043 0.7346 l
0.6968 0.7476 l
c
s
n
0.7962 0.7490 m
0.7887 0.7360 l
0.8037 0.7360 l
c
fill
n
0.7962 0.7490 m
0.7887 0.7360 l
0.8037 0.7360 l
0.7962 0.7490 l
c
s
n
0.8956 0.7508 m
0.8881 0.7378 l
0.9031 0.7378 l
c
fill
n
0.8956 0.7508 m
0.8881 0.7378 l
0.9031 0.7378 l
0.8956 0.7508 l
c
s
n
0.9950 0.7529 m
0.9875 0.7399 l
1.0025 0.7399 l
c
fill
n
0.9950 0.7529 m
0.9875 0.7399 l
1.0025 0.7399 l
0.9950 0.7529 l
c
s
n
1.0944 0.7554 m
1.0869 0.7424 l
1.1019 0.7424 l
c
fill
n
1.0944 0.7554 m
1.0869 0.7424 l
1.1019 0.7424 l
1.0944 0.7554 l
c
s
n
0.1997 0.7406 m
0.2991 0.7442 l
0.3985 0.7490 l
0.4979 0.7555 l
0.5974 0.7636 l
0.6968 0.7736 l
0.7962 0.7856 l
0.8956 0.7997 l
0.9950 0.8160 l
1.0944 0.8346 l
s
[] 0 SD
0.0030 SLW
n
0.1997 0.7522 m
0.1897 0.7348 l
0.2097 0.7348 l
0.1997 0.7522 l
c
s
n
0.2991 0.7557 m
0.2891 0.7384 l
0.3091 0.7384 l
0.2991 0.7557 l
c
s
n
0.3985 0.7606 m
0.3885 0.7433 l
0.4085 0.7433 l
0.3985 0.7606 l
c
s
n
0.4979 0.7670 m
0.4879 0.7497 l
0.5079 0.7497 l
0.4979 0.7670 l
c
s
n
0.5974 0.7751 m
0.5874 0.7578 l
0.6074 0.7578 l
0.5974 0.7751 l
c
s
n
0.6968 0.7851 m
0.6868 0.7678 l
0.7068 0.7678 l
0.6968 0.7851 l
c
s
n
0.7962 0.7971 m
0.7862 0.7798 l
0.8062 0.7798 l
0.7962 0.7971 l
c
s
n
0.8956 0.8112 m
0.8856 0.7939 l
0.9056 0.7939 l
0.8956 0.8112 l
c
s
n
0.9950 0.8275 m
0.9850 0.8102 l
1.0050 0.8102 l
0.9950 0.8275 l
c
s
n
1.0944 0.8461 m
1.0844 0.8288 l
1.1044 0.8288 l
1.0944 0.8461 l
c
s
[/DeviceRGB] SCS
Color1 SC
[] 0 SD
0.0015 SLW
n
0.1997 0.7406 m
0.2991 0.7444 l
0.3985 0.7495 l
0.4979 0.7561 l
0.5974 0.7642 l
0.6968 0.7738 l
0.7962 0.7850 l
0.8956 0.7982 l
0.9950 0.8146 l
1.0944 0.8366 l
s
[] 0 SD
0.0045 SLW
n
0.1500 0.6200 m
1.1441 0.6200 l
s
n
0.1500 0.8500 m
1.1441 0.8500 l
s
n
0.2991 0.6200 m
0.2991 0.6300 l
s
n
0.2991 0.8500 m
0.2991 0.8400 l
s
n
0.4979 0.6200 m
0.4979 0.6300 l
s
n
0.4979 0.8500 m
0.4979 0.8400 l
s
n
0.6968 0.6200 m
0.6968 0.6300 l
s
n
0.6968 0.8500 m
0.6968 0.8400 l
s
n
0.8956 0.6200 m
0.8956 0.6300 l
s
n
0.8956 0.8500 m
0.8956 0.8400 l
s
n
1.0944 0.6200 m
1.0944 0.6300 l
s
n
1.0944 0.8500 m
1.0944 0.8400 l
s
n
0.1997 0.6200 m
0.1997 0.6400 l
s
n
0.1997 0.8500 m
0.1997 0.8300 l
s
n
0.3985 0.6200 m
0.3985 0.6400 l
s
n
0.3985 0.8500 m
0.3985 0.8300 l
s
n
0.5974 0.6200 m
0.5974 0.6400 l
s
n
0.5974 0.8500 m
0.5974 0.8300 l
s
n
0.7962 0.6200 m
0.7962 0.6400 l
s
n
0.7962 0.8500 m
0.7962 0.8300 l
s
n
0.9950 0.6200 m
0.9950 0.6400 l
s
n
0.9950 0.8500 m
0.9950 0.8300 l
s
n
0.1500 0.6200 m
0.1500 0.8500 l
s
n
1.1441 0.6200 m
1.1441 0.8500 l
s
n
0.1500 0.6335 m
0.1600 0.6335 l
s
n
1.1441 0.6335 m
1.1341 0.6335 l
s
n
0.1500 0.7012 m
0.1600 0.7012 l
s
n
1.1441 0.7012 m
1.1341 0.7012 l
s
n
0.1500 0.7688 m
0.1600 0.7688 l
s
n
1.1441 0.7688 m
1.1341 0.7688 l
s
n
0.1500 0.8365 m
0.1600 0.8365 l
s
n
1.1441 0.8365 m
1.1341 0.8365 l
s
n
0.1500 0.6674 m
0.1700 0.6674 l
s
n
1.1441 0.6674 m
1.1241 0.6674 l
s
n
0.1500 0.7350 m
0.1700 0.7350 l
s
n
1.1441 0.7350 m
1.1241 0.7350 l
s
n
0.1500 0.8026 m
0.1700 0.8026 l
s
n
1.1441 0.8026 m
1.1241 0.8026 l
s
/Times-Roman findfont
dup length dict begin
 {1 index /FID ne {def} {pop pop} ifelse} forall
 /Encoding DefEncoding def
 currentdict
end
/Font0 exch definefont pop
/Font0 FFSF
0.0945 0.6558 m
GS
[0.0350 0.0000 0.0000 0.0350 0 0] CC
(-10) show
GR
/Font0 FFSF
0.1235 0.7234 m
GS
[0.0350 0.0000 0.0000 0.0350 0 0] CC
(0) show
GR
/Font0 FFSF
0.1059 0.7911 m
GS
[0.0350 0.0000 0.0000 0.0350 0 0] CC
(10) show
GR
/Symbol findfont
/Font12 exch definefont pop
/Font12 FFSF
0.0677 0.6550 m
GS
[0.0000 0.0420 -0.0420 0.0000 0 0] CC
(d) show
GR
/Font0 FFSF
0.0845 0.6758 m
GS
[0.0000 0.0297 -0.0297 0.0000 0 0] CC
(P) show
GR
/Font0 FFSF
0.0677 0.6923 m
GS
[0.0000 0.0420 -0.0420 0.0000 0 0] CC
( \(MeV\)) show
GR
[] 0 SD
0.0030 SLW
n
0.1500 0.6200 m
0.1500 0.8500 l
1.1441 0.8500 l
1.1441 0.6200 l
0.1500 0.6200 l
c
s
n
0.1997 0.5776 0.0075 0.0075 0 360 EARC c
fill
[] 0 SD
0.0015 SLW
n 0.1997 0.5776 0.0075 0.0075 0 360 EARC s
n
0.2991 0.5719 0.0075 0.0075 0 360 EARC c
fill
n 0.2991 0.5719 0.0075 0.0075 0 360 EARC s
n
0.3985 0.5638 0.0075 0.0075 0 360 EARC c
fill
n 0.3985 0.5638 0.0075 0.0075 0 360 EARC s
n
0.4979 0.5531 0.0075 0.0075 0 360 EARC c
fill
n 0.4979 0.5531 0.0075 0.0075 0 360 EARC s
n
0.5974 0.5394 0.0075 0.0075 0 360 EARC c
fill
n 0.5974 0.5394 0.0075 0.0075 0 360 EARC s
n
0.6968 0.5224 0.0075 0.0075 0 360 EARC c
fill
n 0.6968 0.5224 0.0075 0.0075 0 360 EARC s
n
0.7962 0.5015 0.0075 0.0075 0 360 EARC c
fill
n 0.7962 0.5015 0.0075 0.0075 0 360 EARC s
n
0.8956 0.4763 0.0075 0.0075 0 360 EARC c
fill
n 0.8956 0.4763 0.0075 0.0075 0 360 EARC s
n
0.9950 0.4460 0.0075 0.0075 0 360 EARC c
fill
n 0.9950 0.4460 0.0075 0.0075 0 360 EARC s
n
1.0944 0.4093 0.0075 0.0075 0 360 EARC c
fill
n 1.0944 0.4093 0.0075 0.0075 0 360 EARC s
[/DeviceRGB] SCS
Color2 SC
[0.0075 0.0045 ] 0 SD
0.0015 SLW
n
0.1997 0.5837 m
0.2991 0.5819 l
0.3985 0.5786 l
0.4979 0.5732 l
0.5974 0.5648 l
0.6968 0.5527 l
0.7962 0.5359 l
0.8956 0.5134 l
0.9950 0.4845 l
1.0944 0.4484 l
s
n
0.1933 0.5774 m
0.1933 0.5901 l
0.2061 0.5901 l
0.2061 0.5774 l
c
fill
[] 0 SD
0.0015 SLW
n
0.1933 0.5774 m
0.1933 0.5901 l
0.2061 0.5901 l
0.2061 0.5774 l
0.1933 0.5774 l
c
s
n
0.2927 0.5755 m
0.2927 0.5883 l
0.3055 0.5883 l
0.3055 0.5755 l
c
fill
n
0.2927 0.5755 m
0.2927 0.5883 l
0.3055 0.5883 l
0.3055 0.5755 l
0.2927 0.5755 l
c
s
n
0.3922 0.5722 m
0.3922 0.5850 l
0.4049 0.5850 l
0.4049 0.5722 l
c
fill
n
0.3922 0.5722 m
0.3922 0.5850 l
0.4049 0.5850 l
0.4049 0.5722 l
0.3922 0.5722 l
c
s
n
0.4916 0.5668 m
0.4916 0.5795 l
0.5043 0.5795 l
0.5043 0.5668 l
c
fill
n
0.4916 0.5668 m
0.4916 0.5795 l
0.5043 0.5795 l
0.5043 0.5668 l
0.4916 0.5668 l
c
s
n
0.5910 0.5584 m
0.5910 0.5712 l
0.6037 0.5712 l
0.6037 0.5584 l
c
fill
n
0.5910 0.5584 m
0.5910 0.5712 l
0.6037 0.5712 l
0.6037 0.5584 l
0.5910 0.5584 l
c
s
n
0.6904 0.5463 m
0.6904 0.5591 l
0.7031 0.5591 l
0.7031 0.5463 l
c
fill
n
0.6904 0.5463 m
0.6904 0.5591 l
0.7031 0.5591 l
0.7031 0.5463 l
0.6904 0.5463 l
c
s
n
0.7898 0.5295 m
0.7898 0.5422 l
0.8026 0.5422 l
0.8026 0.5295 l
c
fill
n
0.7898 0.5295 m
0.7898 0.5422 l
0.8026 0.5422 l
0.8026 0.5295 l
0.7898 0.5295 l
c
s
n
0.8892 0.5071 m
0.8892 0.5198 l
0.9020 0.5198 l
0.9020 0.5071 l
c
fill
n
0.8892 0.5071 m
0.8892 0.5198 l
0.9020 0.5198 l
0.9020 0.5071 l
0.8892 0.5071 l
c
s
n
0.9886 0.4782 m
0.9886 0.4909 l
1.0014 0.4909 l
1.0014 0.4782 l
c
fill
n
0.9886 0.4782 m
0.9886 0.4909 l
1.0014 0.4909 l
1.0014 0.4782 l
0.9886 0.4782 l
c
s
n
1.0880 0.4420 m
1.0880 0.4548 l
1.1008 0.4548 l
1.1008 0.4420 l
c
fill
n
1.0880 0.4420 m
1.0880 0.4548 l
1.1008 0.4548 l
1.1008 0.4420 l
1.0880 0.4420 l
c
s
[] 0 SD
0.0030 SLW
n
0.1912 0.5744 m
0.1912 0.5914 l
0.2082 0.5914 l
0.2082 0.5744 l
0.1912 0.5744 l
c
s
n
0.2906 0.5718 m
0.2906 0.5888 l
0.3076 0.5888 l
0.3076 0.5718 l
0.2906 0.5718 l
c
s
n
0.3900 0.5672 m
0.3900 0.5842 l
0.4070 0.5842 l
0.4070 0.5672 l
0.3900 0.5672 l
c
s
n
0.4894 0.5595 m
0.4894 0.5765 l
0.5064 0.5765 l
0.5064 0.5595 l
0.4894 0.5595 l
c
s
n
0.5889 0.5478 m
0.5889 0.5648 l
0.6059 0.5648 l
0.6059 0.5478 l
0.5889 0.5478 l
c
s
n
0.6883 0.5308 m
0.6883 0.5478 l
0.7053 0.5478 l
0.7053 0.5308 l
0.6883 0.5308 l
c
s
n
0.7877 0.5072 m
0.7877 0.5242 l
0.8047 0.5242 l
0.8047 0.5072 l
0.7877 0.5072 l
c
s
n
0.8871 0.4757 m
0.8871 0.4927 l
0.9041 0.4927 l
0.9041 0.4757 l
0.8871 0.4757 l
c
s
n
0.9865 0.4351 m
0.9865 0.4521 l
1.0035 0.4521 l
1.0035 0.4351 l
0.9865 0.4351 l
c
s
n
1.0859 0.3843 m
1.0859 0.4013 l
1.1029 0.4013 l
1.1029 0.3843 l
1.0859 0.3843 l
c
s
[/DeviceRGB] SCS
Color4 SC
[0.0075 0.0045 ] 0 SD
0.0015 SLW
n
0.1997 0.5856 m
0.2991 0.5853 l
0.3985 0.5849 l
0.4979 0.5842 l
0.5974 0.5832 l
0.6968 0.5817 l
0.7962 0.5796 l
0.8956 0.5767 l
0.9950 0.5729 l
1.0944 0.5679 l
s
n
0.1997 0.5943 m
0.1922 0.5813 l
0.2072 0.5813 l
c
fill
[] 0 SD
0.0015 SLW
n
0.1997 0.5943 m
0.1922 0.5813 l
0.2072 0.5813 l
0.1997 0.5943 l
c
s
n
0.2991 0.5940 m
0.2916 0.5810 l
0.3066 0.5810 l
c
fill
n
0.2991 0.5940 m
0.2916 0.5810 l
0.3066 0.5810 l
0.2991 0.5940 l
c
s
n
0.3985 0.5936 m
0.3910 0.5806 l
0.4060 0.5806 l
c
fill
n
0.3985 0.5936 m
0.3910 0.5806 l
0.4060 0.5806 l
0.3985 0.5936 l
c
s
n
0.4979 0.5929 m
0.4904 0.5799 l
0.5054 0.5799 l
c
fill
n
0.4979 0.5929 m
0.4904 0.5799 l
0.5054 0.5799 l
0.4979 0.5929 l
c
s
n
0.5974 0.5918 m
0.5899 0.5788 l
0.6049 0.5788 l
c
fill
n
0.5974 0.5918 m
0.5899 0.5788 l
0.6049 0.5788 l
0.5974 0.5918 l
c
s
n
0.6968 0.5903 m
0.6893 0.5773 l
0.7043 0.5773 l
c
fill
n
0.6968 0.5903 m
0.6893 0.5773 l
0.7043 0.5773 l
0.6968 0.5903 l
c
s
n
0.7962 0.5882 m
0.7887 0.5752 l
0.8037 0.5752 l
c
fill
n
0.7962 0.5882 m
0.7887 0.5752 l
0.8037 0.5752 l
0.7962 0.5882 l
c
s
n
0.8956 0.5853 m
0.8881 0.5724 l
0.9031 0.5724 l
c
fill
n
0.8956 0.5853 m
0.8881 0.5724 l
0.9031 0.5724 l
0.8956 0.5853 l
c
s
n
0.9950 0.5815 m
0.9875 0.5685 l
1.0025 0.5685 l
c
fill
n
0.9950 0.5815 m
0.9875 0.5685 l
1.0025 0.5685 l
0.9950 0.5815 l
c
s
n
1.0944 0.5765 m
1.0869 0.5635 l
1.1019 0.5635 l
c
fill
n
1.0944 0.5765 m
1.0869 0.5635 l
1.1019 0.5635 l
1.0944 0.5765 l
c
s
[] 0 SD
0.0030 SLW
n
0.1997 0.5905 m
0.1897 0.5732 l
0.2097 0.5732 l
0.1997 0.5905 l
c
s
n
0.2991 0.5850 m
0.2891 0.5677 l
0.3091 0.5677 l
0.2991 0.5850 l
c
s
n
0.3985 0.5770 m
0.3885 0.5596 l
0.4085 0.5596 l
0.3985 0.5770 l
c
s
n
0.4979 0.5660 m
0.4879 0.5486 l
0.5079 0.5486 l
0.4979 0.5660 l
c
s
n
0.5974 0.5516 m
0.5874 0.5343 l
0.6074 0.5343 l
0.5974 0.5516 l
c
s
n
0.6968 0.5337 m
0.6868 0.5164 l
0.7068 0.5164 l
0.6968 0.5337 l
c
s
n
0.7962 0.5120 m
0.7862 0.4947 l
0.8062 0.4947 l
0.7962 0.5120 l
c
s
n
0.8956 0.4863 m
0.8856 0.4690 l
0.9056 0.4690 l
0.8956 0.4863 l
c
s
n
0.9950 0.4565 m
0.9850 0.4392 l
1.0050 0.4392 l
0.9950 0.4565 l
c
s
n
1.0944 0.4225 m
1.0844 0.4052 l
1.1044 0.4052 l
1.0944 0.4225 l
c
s
[/DeviceRGB] SCS
Color1 SC
n
0.1997 0.5829 m
0.2991 0.5796 l
0.3985 0.5737 l
0.4979 0.5640 l
0.5974 0.5492 l
0.6968 0.5283 l
0.7962 0.5010 l
0.8956 0.4691 l
0.9950 0.4373 l
1.0944 0.4154 l
s
[] 0 SD
0.0045 SLW
n
0.1500 0.3800 m
1.1441 0.3800 l
s
n
0.1500 0.6100 m
1.1441 0.6100 l
s
n
0.2991 0.3800 m
0.2991 0.3900 l
s
n
0.2991 0.6100 m
0.2991 0.6000 l
s
n
0.4979 0.3800 m
0.4979 0.3900 l
s
n
0.4979 0.6100 m
0.4979 0.6000 l
s
n
0.6968 0.3800 m
0.6968 0.3900 l
s
n
0.6968 0.6100 m
0.6968 0.6000 l
s
n
0.8956 0.3800 m
0.8956 0.3900 l
s
n
0.8956 0.6100 m
0.8956 0.6000 l
s
n
1.0944 0.3800 m
1.0944 0.3900 l
s
n
1.0944 0.6100 m
1.0944 0.6000 l
s
n
0.1997 0.3800 m
0.1997 0.4000 l
s
n
0.1997 0.6100 m
0.1997 0.5900 l
s
n
0.3985 0.3800 m
0.3985 0.4000 l
s
n
0.3985 0.6100 m
0.3985 0.5900 l
s
n
0.5974 0.3800 m
0.5974 0.4000 l
s
n
0.5974 0.6100 m
0.5974 0.5900 l
s
n
0.7962 0.3800 m
0.7962 0.4000 l
s
n
0.7962 0.6100 m
0.7962 0.5900 l
s
n
0.9950 0.3800 m
0.9950 0.4000 l
s
n
0.9950 0.6100 m
0.9950 0.5900 l
s
n
0.1500 0.3800 m
0.1500 0.6100 l
s
n
1.1441 0.3800 m
1.1441 0.6100 l
s
n
0.1500 0.4345 m
0.1600 0.4345 l
s
n
1.1441 0.4345 m
1.1341 0.4345 l
s
n
0.1500 0.4950 m
0.1600 0.4950 l
s
n
1.1441 0.4950 m
1.1341 0.4950 l
s
n
0.1500 0.5555 m
0.1600 0.5555 l
s
n
1.1441 0.5555 m
1.1341 0.5555 l
s
n
0.1500 0.4042 m
0.1700 0.4042 l
s
n
1.1441 0.4042 m
1.1241 0.4042 l
s
n
0.1500 0.4647 m
0.1700 0.4647 l
s
n
1.1441 0.4647 m
1.1241 0.4647 l
s
n
0.1500 0.5253 m
0.1700 0.5253 l
s
n
1.1441 0.5253 m
1.1241 0.5253 l
s
n
0.1500 0.5858 m
0.1700 0.5858 l
s
n
1.1441 0.5858 m
1.1241 0.5858 l
s
/Font0 FFSF
0.0867 0.3924 m
GS
[0.0350 0.0000 0.0000 0.0350 0 0] CC
(-1.5) show
GR
/Font0 FFSF
0.1145 0.4530 m
GS
[0.0350 0.0000 0.0000 0.0350 0 0] CC
(-1) show
GR
/Font0 FFSF
0.0867 0.5135 m
GS
[0.0350 0.0000 0.0000 0.0350 0 0] CC
(-0.5) show
GR
/Font0 FFSF
0.1235 0.5742 m
GS
[0.0350 0.0000 0.0000 0.0350 0 0] CC
(0) show
GR
/Font12 FFSF
0.0599 0.4125 m
GS
[0.0000 0.0420 -0.0420 0.0000 0 0] CC
(d) show
GR
/Font0 FFSF
0.0767 0.4332 m
GS
[0.0000 0.0297 -0.0297 0.0000 0 0] CC
(D) show
GR
/Font0 FFSF
0.0599 0.4548 m
GS
[0.0000 0.0420 -0.0420 0.0000 0 0] CC
( \(MeV\)) show
GR
[] 0 SD
0.0030 SLW
n
0.1500 0.3800 m
0.1500 0.6100 l
1.1441 0.6100 l
1.1441 0.3800 l
0.1500 0.3800 l
c
s
n
0.1600 0.5500 m
0.1600 0.3927 l
0.3781 0.3927 l
0.3781 0.5500 l
c
[/DeviceRGB] SCS
Color0 SC
fill
/Font0 FFSF
[/DeviceRGB] SCS
Color1 SC
0.2383 0.5212 m
GS
[0.0280 0.0000 0.0000 0.0280 0 0] CC
(D1ST2a) show
GR
[/DeviceRGB] SCS
Color2 SC
[0.0075 0.0045 ] 0 SD
0.0015 SLW
n
0.1783 0.5304 m
0.2183 0.5304 l
s
n
0.1719 0.5240 m
0.1719 0.5368 l
0.1846 0.5368 l
0.1846 0.5240 l
c
fill
[] 0 SD
0.0015 SLW
n
0.1719 0.5240 m
0.1719 0.5368 l
0.1846 0.5368 l
0.1846 0.5240 l
0.1719 0.5240 l
c
s
n
0.2119 0.5240 m
0.2119 0.5368 l
0.2246 0.5368 l
0.2246 0.5240 l
c
fill
n
0.2119 0.5240 m
0.2119 0.5368 l
0.2246 0.5368 l
0.2246 0.5240 l
0.2119 0.5240 l
c
s
/Font0 FFSF
[/DeviceRGB] SCS
Color1 SC
0.2383 0.4916 m
GS
[0.0280 0.0000 0.0000 0.0280 0 0] CC
(D1ST2a fit) show
GR
[/DeviceRGB] SCS
Color2 SC
[] 0 SD
0.0030 SLW
n
0.1898 0.4925 m
0.1898 0.5095 l
0.2068 0.5095 l
0.2068 0.4925 l
0.1898 0.4925 l
c
s
/Font0 FFSF
[/DeviceRGB] SCS
Color1 SC
0.2383 0.4624 m
GS
[0.0280 0.0000 0.0000 0.0280 0 0] CC
(M3Y-P2) show
GR
[/DeviceRGB] SCS
Color4 SC
[0.0075 0.0045 ] 0 SD
0.0015 SLW
n
0.1783 0.4716 m
0.2183 0.4716 l
s
n
0.1783 0.4802 m
0.1708 0.4672 l
0.1858 0.4672 l
c
fill
[] 0 SD
0.0015 SLW
n
0.1783 0.4802 m
0.1708 0.4672 l
0.1858 0.4672 l
0.1783 0.4802 l
c
s
n
0.2183 0.4802 m
0.2108 0.4672 l
0.2258 0.4672 l
c
fill
n
0.2183 0.4802 m
0.2108 0.4672 l
0.2258 0.4672 l
0.2183 0.4802 l
c
s
/Font0 FFSF
[/DeviceRGB] SCS
Color1 SC
0.2383 0.4327 m
GS
[0.0280 0.0000 0.0000 0.0280 0 0] CC
(M3Y-P2 fit) show
GR
[/DeviceRGB] SCS
Color4 SC
[] 0 SD
0.0030 SLW
n
0.1983 0.4537 m
0.1883 0.4364 l
0.2083 0.4364 l
0.1983 0.4537 l
c
s
/Font0 FFSF
[/DeviceRGB] SCS
Color1 SC
0.2383 0.4031 m
GS
[0.0280 0.0000 0.0000 0.0280 0 0] CC
(N3LO fit) show
GR
n
0.1783 0.4125 m
0.2183 0.4125 l
s
n
0.1997 0.2113 0.0075 0.0075 0 360 EARC c
fill
[] 0 SD
0.0015 SLW
n 0.1997 0.2113 0.0075 0.0075 0 360 EARC s
n
0.2991 0.2132 0.0075 0.0075 0 360 EARC c
fill
n 0.2991 0.2132 0.0075 0.0075 0 360 EARC s
n
0.3985 0.2160 0.0075 0.0075 0 360 EARC c
fill
n 0.3985 0.2160 0.0075 0.0075 0 360 EARC s
n
0.4979 0.2196 0.0075 0.0075 0 360 EARC c
fill
n 0.4979 0.2196 0.0075 0.0075 0 360 EARC s
n
0.5974 0.2240 0.0075 0.0075 0 360 EARC c
fill
n 0.5974 0.2240 0.0075 0.0075 0 360 EARC s
n
0.6968 0.2289 0.0075 0.0075 0 360 EARC c
fill
n 0.6968 0.2289 0.0075 0.0075 0 360 EARC s
n
0.7962 0.2342 0.0075 0.0075 0 360 EARC c
fill
n 0.7962 0.2342 0.0075 0.0075 0 360 EARC s
n
0.8956 0.2395 0.0075 0.0075 0 360 EARC c
fill
n 0.8956 0.2395 0.0075 0.0075 0 360 EARC s
n
0.9950 0.2446 0.0075 0.0075 0 360 EARC c
fill
n 0.9950 0.2446 0.0075 0.0075 0 360 EARC s
n
1.0944 0.2494 0.0075 0.0075 0 360 EARC c
fill
n 1.0944 0.2494 0.0075 0.0075 0 360 EARC s
[/DeviceRGB] SCS
Color2 SC
[0.0075 0.0045 ] 0 SD
0.0015 SLW
n
0.1997 0.2057 m
0.2991 0.2064 l
0.3985 0.2063 l
0.4979 0.2055 l
0.5974 0.2036 l
0.6968 0.2000 l
0.7962 0.1942 l
0.8956 0.1853 l
0.9950 0.1722 l
1.0944 0.1538 l
s
n
0.1933 0.1994 m
0.1933 0.2121 l
0.2061 0.2121 l
0.2061 0.1994 l
c
fill
[] 0 SD
0.0015 SLW
n
0.1933 0.1994 m
0.1933 0.2121 l
0.2061 0.2121 l
0.2061 0.1994 l
0.1933 0.1994 l
c
s
n
0.2927 0.2000 m
0.2927 0.2127 l
0.3055 0.2127 l
0.3055 0.2000 l
c
fill
n
0.2927 0.2000 m
0.2927 0.2127 l
0.3055 0.2127 l
0.3055 0.2000 l
0.2927 0.2000 l
c
s
n
0.3922 0.1999 m
0.3922 0.2127 l
0.4049 0.2127 l
0.4049 0.1999 l
c
fill
n
0.3922 0.1999 m
0.3922 0.2127 l
0.4049 0.2127 l
0.4049 0.1999 l
0.3922 0.1999 l
c
s
n
0.4916 0.1991 m
0.4916 0.2119 l
0.5043 0.2119 l
0.5043 0.1991 l
c
fill
n
0.4916 0.1991 m
0.4916 0.2119 l
0.5043 0.2119 l
0.5043 0.1991 l
0.4916 0.1991 l
c
s
n
0.5910 0.1972 m
0.5910 0.2099 l
0.6037 0.2099 l
0.6037 0.1972 l
c
fill
n
0.5910 0.1972 m
0.5910 0.2099 l
0.6037 0.2099 l
0.6037 0.1972 l
0.5910 0.1972 l
c
s
n
0.6904 0.1937 m
0.6904 0.2064 l
0.7031 0.2064 l
0.7031 0.1937 l
c
fill
n
0.6904 0.1937 m
0.6904 0.2064 l
0.7031 0.2064 l
0.7031 0.1937 l
0.6904 0.1937 l
c
s
n
0.7898 0.1879 m
0.7898 0.2006 l
0.8026 0.2006 l
0.8026 0.1879 l
c
fill
n
0.7898 0.1879 m
0.7898 0.2006 l
0.8026 0.2006 l
0.8026 0.1879 l
0.7898 0.1879 l
c
s
n
0.8892 0.1789 m
0.8892 0.1917 l
0.9020 0.1917 l
0.9020 0.1789 l
c
fill
n
0.8892 0.1789 m
0.8892 0.1917 l
0.9020 0.1917 l
0.9020 0.1789 l
0.8892 0.1789 l
c
s
n
0.9886 0.1658 m
0.9886 0.1786 l
1.0014 0.1786 l
1.0014 0.1658 l
c
fill
n
0.9886 0.1658 m
0.9886 0.1786 l
1.0014 0.1786 l
1.0014 0.1658 l
0.9886 0.1658 l
c
s
n
1.0880 0.1474 m
1.0880 0.1602 l
1.1008 0.1602 l
1.1008 0.1474 l
c
fill
n
1.0880 0.1474 m
1.0880 0.1602 l
1.1008 0.1602 l
1.1008 0.1474 l
1.0880 0.1474 l
c
s
[] 0 SD
0.0030 SLW
n
0.1912 0.2041 m
0.1912 0.2211 l
0.2082 0.2211 l
0.2082 0.2041 l
0.1912 0.2041 l
c
s
n
0.2906 0.2034 m
0.2906 0.2204 l
0.3076 0.2204 l
0.3076 0.2034 l
0.2906 0.2034 l
c
s
n
0.3900 0.2034 m
0.3900 0.2204 l
0.4070 0.2204 l
0.4070 0.2034 l
0.3900 0.2034 l
c
s
n
0.4894 0.2043 m
0.4894 0.2213 l
0.5064 0.2213 l
0.5064 0.2043 l
0.4894 0.2043 l
c
s
n
0.5889 0.2065 m
0.5889 0.2235 l
0.6059 0.2235 l
0.6059 0.2065 l
0.5889 0.2065 l
c
s
n
0.6883 0.2103 m
0.6883 0.2273 l
0.7053 0.2273 l
0.7053 0.2103 l
0.6883 0.2103 l
c
s
n
0.7877 0.2167 m
0.7877 0.2337 l
0.8047 0.2337 l
0.8047 0.2167 l
0.7877 0.2167 l
c
s
n
0.8871 0.2265 m
0.8871 0.2435 l
0.9041 0.2435 l
0.9041 0.2265 l
0.8871 0.2265 l
c
s
n
0.9865 0.2409 m
0.9865 0.2579 l
1.0035 0.2579 l
1.0035 0.2409 l
0.9865 0.2409 l
c
s
n
1.0859 0.2610 m
1.0859 0.2780 l
1.1029 0.2780 l
1.1029 0.2610 l
1.0859 0.2610 l
c
s
[/DeviceRGB] SCS
Color4 SC
[0.0075 0.0045 ] 0 SD
0.0015 SLW
n
0.1997 0.2110 m
0.2991 0.2105 l
0.3985 0.2101 l
0.4979 0.2097 l
0.5974 0.2092 l
0.6968 0.2085 l
0.7962 0.2073 l
0.8956 0.2056 l
0.9950 0.2030 l
1.0944 0.1993 l
s
n
0.1997 0.2196 m
0.1922 0.2066 l
0.2072 0.2066 l
c
fill
[] 0 SD
0.0015 SLW
n
0.1997 0.2196 m
0.1922 0.2066 l
0.2072 0.2066 l
0.1997 0.2196 l
c
s
n
0.2991 0.2192 m
0.2916 0.2062 l
0.3066 0.2062 l
c
fill
n
0.2991 0.2192 m
0.2916 0.2062 l
0.3066 0.2062 l
0.2991 0.2192 l
c
s
n
0.3985 0.2188 m
0.3910 0.2058 l
0.4060 0.2058 l
c
fill
n
0.3985 0.2188 m
0.3910 0.2058 l
0.4060 0.2058 l
0.3985 0.2188 l
c
s
n
0.4979 0.2184 m
0.4904 0.2054 l
0.5054 0.2054 l
c
fill
n
0.4979 0.2184 m
0.4904 0.2054 l
0.5054 0.2054 l
0.4979 0.2184 l
c
s
n
0.5974 0.2179 m
0.5899 0.2049 l
0.6049 0.2049 l
c
fill
n
0.5974 0.2179 m
0.5899 0.2049 l
0.6049 0.2049 l
0.5974 0.2179 l
c
s
n
0.6968 0.2171 m
0.6893 0.2041 l
0.7043 0.2041 l
c
fill
n
0.6968 0.2171 m
0.6893 0.2041 l
0.7043 0.2041 l
0.6968 0.2171 l
c
s
n
0.7962 0.2160 m
0.7887 0.2030 l
0.8037 0.2030 l
c
fill
n
0.7962 0.2160 m
0.7887 0.2030 l
0.8037 0.2030 l
0.7962 0.2160 l
c
s
n
0.8956 0.2143 m
0.8881 0.2013 l
0.9031 0.2013 l
c
fill
n
0.8956 0.2143 m
0.8881 0.2013 l
0.9031 0.2013 l
0.8956 0.2143 l
c
s
n
0.9950 0.2117 m
0.9875 0.1987 l
1.0025 0.1987 l
c
fill
n
0.9950 0.2117 m
0.9875 0.1987 l
1.0025 0.1987 l
0.9950 0.2117 l
c
s
n
1.0944 0.2080 m
1.0869 0.1950 l
1.1019 0.1950 l
c
fill
n
1.0944 0.2080 m
1.0869 0.1950 l
1.1019 0.1950 l
1.0944 0.2080 l
c
s
[] 0 SD
0.0030 SLW
n
0.1997 0.2229 m
0.1897 0.2056 l
0.2097 0.2056 l
0.1997 0.2229 l
c
s
n
0.2991 0.2236 m
0.2891 0.2063 l
0.3091 0.2063 l
0.2991 0.2236 l
c
s
n
0.3985 0.2251 m
0.3885 0.2078 l
0.4085 0.2078 l
0.3985 0.2251 l
c
s
n
0.4979 0.2278 m
0.4879 0.2105 l
0.5079 0.2105 l
0.4979 0.2278 l
c
s
n
0.5974 0.2320 m
0.5874 0.2147 l
0.6074 0.2147 l
0.5974 0.2320 l
c
s
n
0.6968 0.2382 m
0.6868 0.2209 l
0.7068 0.2209 l
0.6968 0.2382 l
c
s
n
0.7962 0.2468 m
0.7862 0.2295 l
0.8062 0.2295 l
0.7962 0.2468 l
c
s
n
0.8956 0.2583 m
0.8856 0.2410 l
0.9056 0.2410 l
0.8956 0.2583 l
c
s
n
0.9950 0.2730 m
0.9850 0.2557 l
1.0050 0.2557 l
0.9950 0.2730 l
c
s
n
1.0944 0.2915 m
1.0844 0.2742 l
1.1044 0.2742 l
1.0944 0.2915 l
c
s
[/DeviceRGB] SCS
Color1 SC
n
0.1997 0.2092 m
0.2991 0.2095 l
0.3985 0.2102 l
0.4979 0.2118 l
0.5974 0.2151 l
0.6968 0.2215 l
0.7962 0.2333 l
0.8956 0.2543 l
0.9950 0.2899 l
1.0944 0.3487 l
s
[] 0 SD
0.0045 SLW
n
0.1500 0.1400 m
1.1441 0.1400 l
s
n
0.1500 0.3700 m
1.1441 0.3700 l
s
n
0.2991 0.1400 m
0.2991 0.1500 l
s
n
0.2991 0.3700 m
0.2991 0.3600 l
s
n
0.4979 0.1400 m
0.4979 0.1500 l
s
n
0.4979 0.3700 m
0.4979 0.3600 l
s
n
0.6968 0.1400 m
0.6968 0.1500 l
s
n
0.6968 0.3700 m
0.6968 0.3600 l
s
n
0.8956 0.1400 m
0.8956 0.1500 l
s
n
0.8956 0.3700 m
0.8956 0.3600 l
s
n
1.0944 0.1400 m
1.0944 0.1500 l
s
n
1.0944 0.3700 m
1.0944 0.3600 l
s
n
0.1997 0.1400 m
0.1997 0.1600 l
s
n
0.1997 0.3700 m
0.1997 0.3500 l
s
n
0.3985 0.1400 m
0.3985 0.1600 l
s
n
0.3985 0.3700 m
0.3985 0.3500 l
s
n
0.5974 0.1400 m
0.5974 0.1600 l
s
n
0.5974 0.3700 m
0.5974 0.3500 l
s
n
0.7962 0.1400 m
0.7962 0.1600 l
s
n
0.7962 0.3700 m
0.7962 0.3500 l
s
n
0.9950 0.1400 m
0.9950 0.1600 l
s
n
0.9950 0.3700 m
0.9950 0.3500 l
s
/Font0 FFSF
0.1787 0.1065 m
GS
[0.0350 0.0000 0.0000 0.0350 0 0] CC
(0.8) show
GR
/Font0 FFSF
0.3917 0.1065 m
GS
[0.0350 0.0000 0.0000 0.0350 0 0] CC
(1) show
GR
/Font0 FFSF
0.5760 0.1065 m
GS
[0.0350 0.0000 0.0000 0.0350 0 0] CC
(1.2) show
GR
/Font0 FFSF
0.7748 0.1065 m
GS
[0.0350 0.0000 0.0000 0.0350 0 0] CC
(1.4) show
GR
/Font0 FFSF
0.9736 0.1061 m
GS
[0.0350 0.0000 0.0000 0.0350 0 0] CC
(1.6) show
GR
/Font0 FFSF
0.5745 0.0505 m
GS
[0.0420 0.0000 0.0000 0.0420 0 0] CC
(k) show
GR
/Font0 FFSF
0.5957 0.0337 m
GS
[0.0297 0.0000 0.0000 0.0297 0 0] CC
(F) show
GR
/Font0 FFSF
0.6122 0.0505 m
GS
[0.0420 0.0000 0.0000 0.0420 0 0] CC
( \(fm) show
GR
/Font0 FFSF
0.6831 0.0757 m
GS
[0.0297 0.0000 0.0000 0.0297 0 0] CC
(-1) show
GR
/Font0 FFSF
0.7078 0.0505 m
GS
[0.0420 0.0000 0.0000 0.0420 0 0] CC
(\)) show
GR
n
0.1500 0.1400 m
0.1500 0.3700 l
s
n
1.1441 0.1400 m
1.1441 0.3700 l
s
n
0.1500 0.1860 m
0.1600 0.1860 l
s
n
1.1441 0.1860 m
1.1341 0.1860 l
s
n
0.1500 0.2320 m
0.1600 0.2320 l
s
n
1.1441 0.2320 m
1.1341 0.2320 l
s
n
0.1500 0.2780 m
0.1600 0.2780 l
s
n
1.1441 0.2780 m
1.1341 0.2780 l
s
n
0.1500 0.3240 m
0.1600 0.3240 l
s
n
1.1441 0.3240 m
1.1341 0.3240 l
s
n
0.1500 0.3700 m
0.1600 0.3700 l
s
n
1.1441 0.3700 m
1.1341 0.3700 l
s
n
0.1500 0.1630 m
0.1700 0.1630 l
s
n
1.1441 0.1630 m
1.1241 0.1630 l
s
n
0.1500 0.2090 m
0.1700 0.2090 l
s
n
1.1441 0.2090 m
1.1241 0.2090 l
s
n
0.1500 0.2550 m
0.1700 0.2550 l
s
n
1.1441 0.2550 m
1.1241 0.2550 l
s
n
0.1500 0.3010 m
0.1700 0.3010 l
s
n
1.1441 0.3010 m
1.1241 0.3010 l
s
n
0.1500 0.3470 m
0.1700 0.3470 l
s
n
1.1441 0.3470 m
1.1241 0.3470 l
s
/Font0 FFSF
0.0855 0.1514 m
GS
[0.0350 0.0000 0.0000 0.0350 0 0] CC
(-0.2) show
GR
/Font0 FFSF
0.1235 0.1974 m
GS
[0.0350 0.0000 0.0000 0.0350 0 0] CC
(0) show
GR
/Font0 FFSF
0.0973 0.2434 m
GS
[0.0350 0.0000 0.0000 0.0350 0 0] CC
(0.2) show
GR
/Font0 FFSF
0.0973 0.2894 m
GS
[0.0350 0.0000 0.0000 0.0350 0 0] CC
(0.4) show
GR
/Font0 FFSF
0.0973 0.3352 m
GS
[0.0350 0.0000 0.0000 0.0350 0 0] CC
(0.6) show
GR
/Font12 FFSF
0.0587 0.1750 m
GS
[0.0000 0.0420 -0.0420 0.0000 0 0] CC
(d) show
GR
/Font0 FFSF
0.0755 0.1958 m
GS
[0.0000 0.0297 -0.0297 0.0000 0 0] CC
(F) show
GR
/Font0 FFSF
0.0587 0.2123 m
GS
[0.0000 0.0420 -0.0420 0.0000 0 0] CC
( \(MeV\)) show
GR
[] 0 SD
0.0030 SLW
n
0.1500 0.1400 m
0.1500 0.3700 l
1.1441 0.3700 l
1.1441 0.1400 l
0.1500 0.1400 l
c
s
%%Trailer
%%BoundingBox: 15 19 703 523
%%DocumentNeededResources: font Times-Roman
%%+ font Symbol
%%EOF
