\relax 
\citation{bro06,les07,bai09,min13}
\citation{ari60}
\citation{Ots05}
\citation{les07,zal08,zou08,ben09}
\citation{les07}
\citation{sag14}
\citation{sta77,oni78}
\citation{vau72}
\citation{dec80}
\citation{ber97}
\citation{cao10,nav13,pas15}
\citation{dav14P,dav15prep}
\citation{pas14L,Dav15,dav14P}
\citation{car08,rai11}
\citation{dav14a,dav14b}
\citation{gra13}
\citation{nak03}
\newlabel{FirstPage}{{}{1}{}{}{}}
\@writefile{toc}{\contentsline {section}{\numberline {I}Introduction}{1}{}}
\@writefile{toc}{\contentsline {section}{\numberline {II}Results}{1}{}}
\citation{bal97}
\citation{heb11}
\citation{bog05,rot08}
\citation{ben03}
\citation{gra13}
\citation{dec80}
\citation{nak03}
\citation{ber97}
\newlabel{eq:combination}{{4}{2}{}{}{}}
\newlabel{eq:so}{{5}{2}{}{}{}}
\newlabel{tensor-gog}{{6}{2}{}{}{}}
\newlabel{eq:combi-gogny}{{7}{2}{}{}{}}
\newlabel{tensor-naka}{{9}{2}{}{}{}}
\citation{gra13}
\citation{gra13}
\citation{gra13}
\citation{gra13}
\citation{gra13}
\citation{gra13}
\citation{nak03}
\citation{nak03}
\citation{nak03}
\citation{bal97}
\citation{bal97}
\citation{gra13}
\citation{nak03}
\citation{bal97}
\citation{gra13}
\citation{nak03}
\citation{pas14L}
\citation{ben13}
\citation{hol13}
\citation{sta77,gra13}
\newlabel{eq:combi-nakada}{{10}{3}{}{}{}}
\@writefile{lot}{\contentsline {table}{\numberline {I}{\ignorespaces Tensor parameters (in MeV fm$^5$) of interaction D1ST2a\nobreakspace  {}\cite  {gra13}. The last column displays the fitted values to the combinations $\delta _P$ and $\delta _D$, as explained in the text.}}{3}{}}
\newlabel{tab:D1ST2a}{{I}{3}{}{}{}}
\@writefile{lot}{\contentsline {table}{\numberline {II}{\ignorespaces Tensor parameters (in MeV fm$^{-2}$) of interaction M3Y-P2\nobreakspace  {}\cite  {nak03}. The last column displays the fitted values to the combinations $\delta _P$ and $\delta _D$, as explained in the text.}}{3}{}}
\newlabel{tab:M3Y-P2}{{II}{3}{}{}{}}
\@writefile{lof}{\contentsline {figure}{\numberline {1}{\ignorespaces (Colors online) Results for the combinations $\delta _P, \delta _D,\delta _F$ defined in Eq.\nobreakspace  {}(4{}{}{}\hbox {}). Black circles are the BHF results\nobreakspace  {}\cite  {bal97}, while filled red squares and blue triangles have been calculated with interactions D1ST2a\nobreakspace  {}\cite  {gra13} and M3Y-P2\nobreakspace  {}\cite  {nak03}, respectively. Open symbols and solid line are the result of a fit of the tensor parameters, except for $\delta _F$, as explained in the text.}}{3}{}}
\newlabel{JLS-waves}{{II}{3}{}{}{}}
\citation{car08,rai11}
\citation{Dav15}
\citation{dav14a}
\citation{gra13}
\citation{vau72,dob10}
\citation{dav16}
\citation{ber97}
\citation{dec80}
\citation{nak03}
\citation{gra13}
\citation{les07}
\citation{pas15}
\citation{nav13}
\newlabel{eq:tenseurN3LO}{{11}{4}{}{}{}}
\newlabel{eq:combi-N3LO}{{12}{4}{}{}{}}
\@writefile{toc}{\contentsline {section}{\numberline {III}Conclusion}{4}{}}
\citation{abr64}
\citation{abr64}
\bibdata{biblio}
\bibcite{bro06}{{1}{2006}{{Brown et~al.}}{{Brown, Duguet, Otsuka, Abe, and Suzuki}}}
\bibcite{les07}{{2}{2007}{{Lesinski et~al.}}{{Lesinski, Bender, Bennaceur, Duguet, and Meyer}}}
\@writefile{toc}{\contentsline {section}{\numberline {}Acknowledgments}{5}{}}
\@writefile{toc}{\appendix }
\@writefile{toc}{\contentsline {section}{\numberline {A}}{5}{}}
\newlabel{sec:app}{{A}{5}{}{}{}}
\@writefile{toc}{\contentsline {section}{\numberline {}References}{5}{}}
\bibcite{bai09}{{3}{2009}{{Bai et~al.}}{{Bai, Sagawa, Zhang, Zhang, Col\`o, and Xu}}}
\bibcite{min13}{{4}{2013}{{Minato and Bai}}{{}}}
\bibcite{ari60}{{5}{1960}{{Arima and Terasawa}}{{}}}
\bibcite{Ots05}{{6}{2005}{{Otsuka et~al.}}{{Otsuka, Suzuki, Fujimoto, Grawe, and Akaishi}}}
\bibcite{zal08}{{7}{2008}{{Zalewski et~al.}}{{Zalewski, Dobaczewski, Satu\l {}a, and Werner}}}
\bibcite{zou08}{{8}{2008}{{Zou et~al.}}{{Zou, Col\`o, Ma, Sagawa, and Bortignon}}}
\bibcite{ben09}{{9}{2009}{{Bender et~al.}}{{Bender, Bennaceur, Duguet, Heenen, Lesinski, and Meyer}}}
\bibcite{sag14}{{10}{2014}{{Sagawa and Col{\`o}}}{{}}}
\bibcite{sta77}{{11}{1977}{{Stancu et~al.}}{{Stancu, Brink, and Flocard}}}
\bibcite{oni78}{{12}{1978}{{Onishi and Negele}}{{}}}
\bibcite{vau72}{{13}{1972}{{Vautherin and Brink}}{{}}}
\bibcite{dec80}{{14}{1980}{{Decharg{\'e} and Gogny}}{{}}}
\bibcite{ber97}{{15}{1997}{{Bertsch et~al.}}{{Bertsch, Borysowicz, McManus, and Love}}}
\bibcite{cao10}{{16}{2010}{{Cao et~al.}}{{Cao, Col\`o, and Sagawa}}}
\bibcite{nav13}{{17}{2013}{{Navarro and Polls}}{{}}}
\bibcite{pas15}{{18}{2015}{{Pastore et~al.}}{{Pastore, Davesne, and Navarro}}}
\bibcite{dav14P}{{19}{2015{}}{{Davesne et~al.}}{{Davesne, Meyer, Pastore, and Navarro}}}
\bibcite{dav15prep}{{20}{2016{}}{{Davesne et~al.}}{{Davesne, Navarro, Becker, and Pastore}}}
\bibcite{pas14L}{{21}{2014}{{Pastore et~al.}}{{Pastore, Davesne, and Navarro}}}
\bibcite{Dav15}{{22}{2015{}}{{Davesne et~al.}}{{Davesne, Navarro, Becker, Jodon, Meyer, and Pastore}}}
\bibcite{car08}{{23}{2008}{{Carlsson et~al.}}{{Carlsson, Dobaczewski, and Kortelainen}}}
\bibcite{rai11}{{24}{2011}{{Raimondi et~al.}}{{Raimondi, Carlsson, and Dobaczewski}}}
\bibcite{dav14a}{{25}{2014{}}{{Davesne et~al.}}{{Davesne, Pastore, and Navarro}}}
\bibcite{dav14b}{{26}{2014{}}{{Davesne et~al.}}{{Davesne, Pastore, and Navarro}}}
\bibcite{gra13}{{27}{2013}{{Grasso and Anguiano}}{{}}}
\bibcite{nak03}{{28}{2003}{{Nakada}}{{}}}
\bibcite{bal97}{{29}{1997}{{Baldo et~al.}}{{Baldo, Bombaci, and Burgio}}}
\bibcite{heb11}{{30}{2011}{{Hebeler et~al.}}{{Hebeler, Bogner, Furnstahl, Nogga, and Schwenk}}}
\bibcite{bog05}{{31}{2005}{{Bogner et~al.}}{{Bogner, Schwenk, Furnstahl, and Nogga}}}
\bibcite{rot08}{{32}{2008}{{Rotival}}{{}}}
\bibcite{ben03}{{33}{2003}{{Bender et~al.}}{{Bender, Heenen, and Reinhard}}}
\bibcite{ben13}{{34}{2013}{{Benhar et~al.}}{{Benhar, Cipollone, and Loreti}}}
\bibcite{hol13}{{35}{2013}{{Holt et~al.}}{{Holt, Kaiser, and Weise}}}
\bibcite{dob10}{{36}{2010}{{Dobaczewski et~al.}}{{Dobaczewski, Carlsson, and Kortelainen}}}
\bibcite{dav16}{{37}{2016{}}{{Davesne et~al.}}{{Davesne, Pastore, and Navarro}}}
\bibcite{abr64}{{38}{1964}{{Abramowitz and Stegun}}{{}}}
\global \chardef \firstnote@num38\relax 
\bibstyle{apsrev}
\newlabel{LastPage}{{}{5}}
\newlabel{LastBibItem}{{38}{6}{}{}{}}
