%!PS-Adobe-3.0
%%BoundingBox: 0 0 612 792
%%LanguageLevel: 2
%%Creator: Grace-5.1.22
%%CreationDate: Wed Oct 10 10:35:55 2012
%%DocumentData: Clean8Bit
%%Orientation: Landscape
%%Pages: 1
%%PageOrder: Ascend
%%Title: /Users/alessandropastore/Fisica/Testi/Articoli/PScripta_kazimierz12/plots/skp_resp_pole.agr
%%For: alessandropastore
%%DocumentNeededResources: (atend)
%%EndComments
%%BeginProlog
/PAGE_OFFSET_X 0 def
/PAGE_OFFSET_Y 0 def
/m {moveto} def
/l {lineto} def
/s {stroke} def
/n {newpath} def
/c {closepath} def
/RL {rlineto} def
/SLW {setlinewidth} def
/GS {gsave} def
/GR {grestore} def
/SC {setcolor} def
/SGRY {setgray} def
/SRGB {setrgbcolor} def
/SD {setdash} def
/SLC {setlinecap} def
/SLJ {setlinejoin} def
/SCS {setcolorspace} def
/FFSF {findfont setfont} def
/CC {concat} def
/PXL {n m 0 0 RL s} def
/Color0 {1.0000 1.0000 1.0000} def
/Color1 {0.0000 0.0000 0.0000} def
/Color2 {1.0000 0.0000 0.0000} def
/Color3 {0.0000 1.0000 0.0000} def
/Color4 {0.0000 0.0000 1.0000} def
/Color5 {1.0000 1.0000 0.0000} def
/Color6 {0.7373 0.5608 0.5608} def
/Color7 {0.8627 0.8627 0.8627} def
/Color8 {0.5804 0.0000 0.8275} def
/Color9 {0.0000 1.0000 1.0000} def
/Color10 {1.0000 0.0000 1.0000} def
/Color11 {1.0000 0.6471 0.0000} def
/Color12 {0.4471 0.1294 0.7373} def
/Color13 {0.4039 0.0275 0.2824} def
/Color14 {0.2510 0.8784 0.8157} def
/Color15 {0.0000 0.5451 0.0000} def
/Color16 {0.7529 0.7529 0.7529} def
/Color17 {0.5059 0.5059 0.5059} def
/Color18 {0.2588 0.2588 0.2588} def
/PTRN {
 /pat_bits exch def 
 <<
  /PaintType 2
  /PatternType 1 /TilingType 1
  /BBox[0 0 16 16]
  /XStep 16 /YStep 16
  /PaintProc {
   pop
   16 16 true [-1 0 0 -1 16 16] pat_bits imagemask
  }
 >>
 [0.0016 0 0 0.0016 0 0]
 makepattern
} def
/Pattern0 {<0000000000000000000000000000000000000000000000000000000000000000> PTRN} bind def
/Pattern1 {<ffffffffffffffffffffffffffffffffffffffffffffffffffffffffffffffff> PTRN} bind def
/Pattern2 {<eeeeffffbbbbffffeeeeffffbbbbffffeeeeffffbbbbffffeeeeffffbbbbffff> PTRN} bind def
/Pattern3 {<eeeebbbbeeeebbbbeeeebbbbeeeebbbbeeeebbbbeeeebbbbeeeebbbbeeeebbbb> PTRN} bind def
/Pattern4 {<5555aaaa5555aaaa5555aaaa5555aaaa5555aaaa5555aaaa5555aaaa5555aaaa> PTRN} bind def
/Pattern5 {<1111444411114444111144441111444411114444111144441111444411114444> PTRN} bind def
/Pattern6 {<1111000044440000111100004444000011110000444400001111000044440000> PTRN} bind def
/Pattern7 {<1010000000000000010100000000000010100000000000000101000000000000> PTRN} bind def
/Pattern8 {<0000000000000000000000000000000000000000000000000000000000000000> PTRN} bind def
/Pattern9 {<1e1e0f0f8787c3c3e1e1f0f078783c3c1e1e0f0f8787c3c3e1e1f0f078783c3c> PTRN} bind def
/Pattern10 {<7878f0f0e1e1c3c387870f0f1e1e3c3c7878f0f0e1e1c3c387870f0f1e1e3c3c> PTRN} bind def
/Pattern11 {<3333333333333333333333333333333333333333333333333333333333333333> PTRN} bind def
/Pattern12 {<ffffffff00000000ffffffff00000000ffffffff00000000ffffffff00000000> PTRN} bind def
/Pattern13 {<8181424224241818181824244242818181814242242418181818242442428181> PTRN} bind def
/Pattern14 {<8080404020201010080804040202010180804040202010100808040402020101> PTRN} bind def
/Pattern15 {<0101020204040808101020204040808001010202040408081010202040408080> PTRN} bind def
/Pattern16 {<2222222222222222222222222222222222222222222222222222222222222222> PTRN} bind def
/Pattern17 {<0000ffff000000000000ffff000000000000ffff000000000000ffff00000000> PTRN} bind def
/Pattern18 {<2222ffff222222222222ffff222222222222ffff222222222222ffff22222222> PTRN} bind def
/Pattern19 {<ffffffff33333333ffffffff33333333ffffffff33333333ffffffff33333333> PTRN} bind def
/Pattern20 {<0f0f0f0f0f0f0f0ff0f0f0f0f0f0f0f00f0f0f0f0f0f0f0ff0f0f0f0f0f0f0f0> PTRN} bind def
/Pattern21 {<ff00ff00ff00ff00ff00ff00ff00ff0000ff00ff00ff00ff00ff00ff00ff00ff> PTRN} bind def
/Pattern22 {<8001800180018001800180018001ffffffff8001800180018001800180018001> PTRN} bind def
/Pattern23 {<c003c003c003c003c003c003ffffffffffffffffc003c003c003c003c003c003> PTRN} bind def
/Pattern24 {<040404040404ffff404040404040ffff040404040404ffff404040404040ffff> PTRN} bind def
/Pattern25 {<180018001800180018001800ffffffff001800180018001800180018ffffffff> PTRN} bind def
/Pattern26 {<1111b8b87c7c3a3a1111a3a3c7c78b8b1111b8b87c7c3a3a1111a3a3c7c78b8b> PTRN} bind def
/Pattern27 {<101010102828c7c70101010182827c7c101010102828c7c70101010182827c7c> PTRN} bind def
/Pattern28 {<1c1c121211112121c1c12121111112121c1c121211112121c1c1212111111212> PTRN} bind def
/Pattern29 {<3e3e414180808080e3e31414080808083e3e414180808080e3e3141408080808> PTRN} bind def
/Pattern30 {<4848888884848383848488884848383848488888848483838484888848483838> PTRN} bind def
/Pattern31 {<03030404080808080c0c12122121c0c003030404080808080c0c12122121c0c0> PTRN} bind def
/ellipsedict 8 dict def
ellipsedict /mtrx matrix put
/EARC {
 ellipsedict begin
  /endangle exch def
  /startangle exch def
  /yrad exch def
  /xrad exch def
  /y exch def
  /x exch def
  /savematrix mtrx currentmatrix def
  x y translate
  xrad yrad scale
  0 0 1 startangle endangle arc
  savematrix setmatrix
 end
} def
/TL {
  /kcomp exch def
  /linewidth exch def
  /offset exch def
  GS
  0 offset rmoveto
  linewidth SLW
  dup stringwidth exch kcomp add exch RL s
  GR
} def
/KINIT
{
 /kvector exch def
 /kid 0 def
} def
/KPROC
{
 pop pop
 kvector kid get
 0 rmoveto
 /kid 1 kid add def
} def
/DefEncoding [
 /.notdef
 /.notdef
 /.notdef
 /.notdef
 /.notdef
 /.notdef
 /.notdef
 /.notdef
 /.notdef
 /.notdef
 /.notdef
 /.notdef
 /.notdef
 /.notdef
 /.notdef
 /.notdef
 /.notdef
 /.notdef
 /.notdef
 /.notdef
 /.notdef
 /.notdef
 /.notdef
 /.notdef
 /.notdef
 /.notdef
 /.notdef
 /.notdef
 /.notdef
 /.notdef
 /.notdef
 /.notdef
 /space
 /exclam
 /quotedbl
 /numbersign
 /dollar
 /percent
 /ampersand
 /quoteright
 /parenleft
 /parenright
 /asterisk
 /plus
 /comma
 /hyphen
 /period
 /slash
 /zero
 /one
 /two
 /three
 /four
 /five
 /six
 /seven
 /eight
 /nine
 /colon
 /semicolon
 /less
 /equal
 /greater
 /question
 /at
 /A
 /B
 /C
 /D
 /E
 /F
 /G
 /H
 /I
 /J
 /K
 /L
 /M
 /N
 /O
 /P
 /Q
 /R
 /S
 /T
 /U
 /V
 /W
 /X
 /Y
 /Z
 /bracketleft
 /backslash
 /bracketright
 /asciicircum
 /underscore
 /grave
 /a
 /b
 /c
 /d
 /e
 /f
 /g
 /h
 /i
 /j
 /k
 /l
 /m
 /n
 /o
 /p
 /q
 /r
 /s
 /t
 /u
 /v
 /w
 /x
 /y
 /z
 /braceleft
 /bar
 /braceright
 /asciitilde
 /.notdef
 /.notdef
 /.notdef
 /.notdef
 /.notdef
 /.notdef
 /.notdef
 /.notdef
 /.notdef
 /.notdef
 /.notdef
 /.notdef
 /.notdef
 /.notdef
 /.notdef
 /.notdef
 /.notdef
 /.notdef
 /.notdef
 /.notdef
 /.notdef
 /.notdef
 /.notdef
 /.notdef
 /.notdef
 /.notdef
 /.notdef
 /.notdef
 /.notdef
 /.notdef
 /.notdef
 /.notdef
 /.notdef
 /space
 /exclamdown
 /cent
 /sterling
 /currency
 /yen
 /brokenbar
 /section
 /dieresis
 /copyright
 /ordfeminine
 /guillemotleft
 /logicalnot
 /hyphen
 /registered
 /macron
 /degree
 /plusminus
 /twosuperior
 /threesuperior
 /acute
 /mu
 /paragraph
 /periodcentered
 /cedilla
 /onesuperior
 /ordmasculine
 /guillemotright
 /onequarter
 /onehalf
 /threequarters
 /questiondown
 /Agrave
 /Aacute
 /Acircumflex
 /Atilde
 /Adieresis
 /Aring
 /AE
 /Ccedilla
 /Egrave
 /Eacute
 /Ecircumflex
 /Edieresis
 /Igrave
 /Iacute
 /Icircumflex
 /Idieresis
 /Eth
 /Ntilde
 /Ograve
 /Oacute
 /Ocircumflex
 /Otilde
 /Odieresis
 /multiply
 /Oslash
 /Ugrave
 /Uacute
 /Ucircumflex
 /Udieresis
 /Yacute
 /Thorn
 /germandbls
 /agrave
 /aacute
 /acircumflex
 /atilde
 /adieresis
 /aring
 /ae
 /ccedilla
 /egrave
 /eacute
 /ecircumflex
 /edieresis
 /igrave
 /iacute
 /icircumflex
 /idieresis
 /eth
 /ntilde
 /ograve
 /oacute
 /ocircumflex
 /otilde
 /odieresis
 /divide
 /oslash
 /ugrave
 /uacute
 /ucircumflex
 /udieresis
 /yacute
 /thorn
 /ydieresis
] def
%%EndProlog
%%BeginSetup
%%EndSetup
%%Page: 1 1
PAGE_OFFSET_X PAGE_OFFSET_Y translate
612.00 612.00 scale
90 rotate
0.0 -1.0 translate
n
0.0000 0.0000 m
0.0000 1.0000 l
1.2941 1.0000 l
1.2941 0.0000 l
c
[/DeviceRGB] SCS
Color0 SC
fill
[/DeviceRGB] SCS
Color1 SC
[] 0 SD
0.0045 SLW
0 SLC
0 SLJ
n
0.2093 0.2893 m
0.2102 0.4108 l
0.2111 0.5079 l
0.2121 0.5776 l
0.2130 0.6217 l
0.2140 0.6452 l
0.2149 0.6534 l
0.2159 0.6510 l
0.2168 0.6417 l
0.2177 0.6282 l
0.2187 0.6123 l
0.2196 0.5953 l
0.2206 0.5779 l
0.2215 0.5608 l
0.2224 0.5442 l
0.2234 0.5283 l
0.2243 0.5132 l
0.2253 0.4989 l
0.2262 0.4854 l
0.2272 0.4727 l
0.2281 0.4608 l
0.2290 0.4495 l
0.2300 0.4390 l
0.2309 0.4291 l
0.2319 0.4198 l
0.2328 0.4110 l
0.2337 0.4028 l
0.2347 0.3950 l
0.2356 0.3876 l
0.2366 0.3806 l
0.2375 0.3741 l
0.2385 0.3678 l
0.2394 0.3619 l
0.2403 0.3563 l
0.2413 0.3510 l
0.2422 0.3459 l
0.2432 0.3410 l
0.2441 0.3364 l
0.2450 0.3320 l
0.2460 0.3278 l
0.2469 0.3238 l
0.2479 0.3200 l
0.2488 0.3163 l
0.2498 0.3128 l
0.2507 0.3094 l
0.2516 0.3061 l
0.2526 0.3030 l
0.2535 0.3000 l
0.2545 0.2971 l
0.2554 0.2944 l
0.2563 0.2917 l
0.2573 0.2891 l
0.2582 0.2866 l
0.2592 0.2842 l
0.2601 0.2819 l
0.2611 0.2797 l
0.2620 0.2775 l
0.2629 0.2754 l
0.2639 0.2734 l
0.2648 0.2714 l
0.2658 0.2695 l
0.2667 0.2677 l
0.2676 0.2659 l
0.2686 0.2642 l
0.2695 0.2625 l
0.2705 0.2609 l
0.2714 0.2593 l
0.2724 0.2577 l
0.2733 0.2562 l
0.2742 0.2548 l
0.2752 0.2534 l
0.2761 0.2520 l
0.2771 0.2506 l
0.2780 0.2493 l
0.2789 0.2481 l
0.2799 0.2468 l
0.2808 0.2456 l
0.2818 0.2444 l
0.2827 0.2433 l
0.2837 0.2422 l
0.2846 0.2411 l
0.2855 0.2400 l
0.2865 0.2389 l
0.2874 0.2379 l
0.2884 0.2369 l
0.2893 0.2359 l
0.2902 0.2350 l
0.2912 0.2341 l
0.2921 0.2331 l
0.2931 0.2322 l
0.2940 0.2314 l
0.2950 0.2305 l
0.2959 0.2297 l
0.2968 0.2289 l
0.2978 0.2281 l
0.2987 0.2273 l
0.2997 0.2265 l
0.3006 0.2257 l
0.3015 0.2250 l
0.3025 0.2243 l
0.3034 0.2235 l
0.3044 0.2228 l
0.3053 0.2222 l
0.3063 0.2215 l
0.3072 0.2208 l
0.3081 0.2202 l
0.3091 0.2195 l
0.3100 0.2189 l
0.3110 0.2183 l
0.3119 0.2177 l
0.3128 0.2171 l
0.3138 0.2165 l
0.3147 0.2159 l
0.3157 0.2154 l
0.3166 0.2148 l
0.3176 0.2143 l
0.3185 0.2137 l
0.3194 0.2132 l
0.3204 0.2127 l
0.3213 0.2122 l
0.3223 0.2117 l
0.3232 0.2112 l
0.3241 0.2107 l
0.3251 0.2102 l
0.3260 0.2097 l
0.3270 0.2093 l
0.3279 0.2088 l
0.3289 0.2083 l
0.3298 0.2079 l
0.3307 0.2075 l
0.3317 0.2070 l
0.3326 0.2066 l
0.3336 0.2062 l
0.3345 0.2058 l
0.3354 0.2054 l
0.3364 0.2050 l
0.3373 0.2046 l
0.3383 0.2042 l
0.3392 0.2038 l
0.3402 0.2034 l
0.3411 0.2030 l
0.3420 0.2026 l
0.3430 0.2023 l
0.3439 0.2019 l
0.3449 0.2016 l
0.3458 0.2012 l
0.3468 0.2008 l
0.3477 0.2005 l
0.3486 0.2002 l
0.3496 0.1998 l
0.3505 0.1995 l
0.3515 0.1992 l
0.3524 0.1988 l
0.3533 0.1985 l
0.3543 0.1982 l
0.3552 0.1979 l
0.3562 0.1976 l
0.3571 0.1973 l
0.3581 0.1970 l
0.3590 0.1967 l
0.3599 0.1964 l
0.3609 0.1961 l
0.3618 0.1958 l
0.3628 0.1955 l
0.3637 0.1952 l
0.3646 0.1949 l
0.3656 0.1946 l
0.3665 0.1943 l
0.3675 0.1941 l
0.3684 0.1938 l
0.3694 0.1935 l
0.3703 0.1932 l
0.3712 0.1930 l
0.3722 0.1927 l
0.3731 0.1924 l
0.3741 0.1921 l
0.3750 0.1919 l
0.3759 0.1916 l
0.3769 0.1913 l
0.3778 0.1910 l
0.3788 0.1908 l
0.3797 0.1906 l
0.3807 0.1904 l
0.3816 0.1902 l
0.3825 0.1901 l
0.3835 0.1899 l
0.3844 0.1897 l
0.3854 0.1895 l
0.3863 0.1894 l
0.3872 0.1892 l
0.3882 0.1890 l
0.3891 0.1889 l
0.3901 0.1887 l
0.3910 0.1886 l
0.3920 0.1884 l
0.3929 0.1883 l
0.3938 0.1881 l
0.3948 0.1880 l
0.3957 0.1878 l
0.3967 0.1877 l
0.3976 0.1875 l
0.3985 0.1874 l
0.3995 0.1872 l
0.4004 0.1871 l
0.4014 0.1870 l
0.4023 0.1868 l
0.4033 0.1867 l
0.4042 0.1866 l
0.4051 0.1864 l
0.4061 0.1863 l
0.4070 0.1862 l
0.4080 0.1860 l
0.4089 0.1859 l
0.4098 0.1858 l
0.4108 0.1856 l
0.4117 0.1855 l
0.4127 0.1854 l
0.4136 0.1853 l
0.4146 0.1852 l
0.4155 0.1850 l
0.4164 0.1849 l
0.4174 0.1848 l
0.4183 0.1847 l
0.4193 0.1846 l
0.4202 0.1844 l
0.4211 0.1843 l
0.4221 0.1842 l
0.4230 0.1841 l
0.4240 0.1840 l
0.4249 0.1839 l
0.4259 0.1838 l
0.4268 0.1837 l
0.4277 0.1835 l
0.4287 0.1834 l
0.4296 0.1833 l
0.4306 0.1832 l
0.4315 0.1831 l
0.4324 0.1830 l
0.4334 0.1829 l
0.4343 0.1828 l
0.4353 0.1827 l
0.4362 0.1826 l
0.4372 0.1825 l
0.4381 0.1824 l
0.4390 0.1823 l
0.4400 0.1822 l
0.4409 0.1821 l
0.4419 0.1820 l
0.4428 0.1819 l
0.4437 0.1818 l
0.4447 0.1817 l
0.4456 0.1816 l
0.4466 0.1815 l
0.4475 0.1814 l
0.4485 0.1813 l
0.4494 0.1812 l
0.4503 0.1812 l
0.4513 0.1811 l
0.4522 0.1810 l
0.4532 0.1809 l
0.4541 0.1808 l
0.4550 0.1807 l
0.4560 0.1806 l
0.4569 0.1805 l
0.4579 0.1804 l
0.4588 0.1803 l
0.4598 0.1803 l
0.4607 0.1802 l
0.4616 0.1801 l
0.4626 0.1800 l
0.4635 0.1799 l
0.4645 0.1798 l
0.4654 0.1798 l
0.4663 0.1797 l
0.4673 0.1796 l
0.4682 0.1795 l
0.4692 0.1794 l
0.4701 0.1793 l
0.4711 0.1793 l
0.4720 0.1792 l
0.4729 0.1791 l
0.4739 0.1790 l
0.4748 0.1789 l
0.4758 0.1789 l
0.4767 0.1788 l
0.4776 0.1787 l
0.4786 0.1786 l
0.4795 0.1786 l
0.4805 0.1785 l
0.4814 0.1784 l
0.4824 0.1783 l
0.4833 0.1783 l
0.4842 0.1782 l
0.4852 0.1781 l
0.4861 0.1780 l
0.4871 0.1780 l
0.4880 0.1779 l
0.4889 0.1778 l
0.4899 0.1777 l
0.4908 0.1777 l
0.4918 0.1776 l
0.4927 0.1775 l
0.4937 0.1775 l
0.4946 0.1774 l
0.4955 0.1773 l
0.4965 0.1772 l
0.4974 0.1772 l
0.4984 0.1771 l
0.4993 0.1770 l
0.5002 0.1770 l
0.5012 0.1769 l
0.5021 0.1768 l
0.5031 0.1768 l
0.5040 0.1767 l
0.5050 0.1766 l
0.5059 0.1766 l
0.5068 0.1765 l
0.5078 0.1764 l
0.5087 0.1764 l
0.5097 0.1763 l
0.5106 0.1762 l
0.5115 0.1762 l
0.5125 0.1761 l
0.5134 0.1761 l
0.5144 0.1760 l
0.5153 0.1759 l
0.5163 0.1759 l
0.5172 0.1758 l
0.5181 0.1757 l
0.5191 0.1757 l
0.5200 0.1756 l
0.5210 0.1756 l
0.5219 0.1755 l
0.5228 0.1754 l
0.5238 0.1754 l
0.5247 0.1753 l
0.5257 0.1753 l
0.5266 0.1752 l
0.5276 0.1751 l
0.5285 0.1751 l
0.5294 0.1750 l
0.5304 0.1750 l
0.5313 0.1749 l
0.5323 0.1748 l
0.5332 0.1748 l
0.5341 0.1747 l
0.5351 0.1747 l
0.5360 0.1746 l
0.5370 0.1746 l
0.5379 0.1745 l
0.5389 0.1745 l
0.5398 0.1744 l
0.5407 0.1743 l
0.5417 0.1743 l
0.5426 0.1742 l
0.5436 0.1742 l
0.5445 0.1741 l
0.5454 0.1741 l
0.5464 0.1740 l
0.5473 0.1740 l
0.5483 0.1739 l
0.5492 0.1739 l
0.5502 0.1738 l
0.5511 0.1737 l
0.5520 0.1737 l
0.5530 0.1736 l
0.5539 0.1736 l
0.5549 0.1735 l
0.5558 0.1735 l
0.5567 0.1734 l
0.5577 0.1734 l
0.5586 0.1733 l
0.5596 0.1733 l
0.5605 0.1732 l
0.5615 0.1732 l
0.5624 0.1731 l
0.5633 0.1731 l
0.5643 0.1730 l
0.5652 0.1730 l
0.5662 0.1729 l
0.5671 0.1729 l
0.5680 0.1728 l
0.5690 0.1728 l
0.5699 0.1727 l
0.5709 0.1727 l
0.5718 0.1726 l
0.5728 0.1726 l
0.5737 0.1725 l
0.5746 0.1725 l
0.5756 0.1725 l
0.5765 0.1724 l
0.5775 0.1724 l
0.5784 0.1723 l
0.5793 0.1723 l
0.5803 0.1722 l
0.5812 0.1722 l
0.5822 0.1721 l
0.5831 0.1721 l
0.5841 0.1720 l
0.5850 0.1720 l
0.5859 0.1719 l
0.5869 0.1719 l
0.5878 0.1719 l
0.5888 0.1718 l
0.5897 0.1718 l
0.5906 0.1717 l
0.5916 0.1717 l
0.5925 0.1716 l
0.5935 0.1716 l
0.5944 0.1715 l
0.5954 0.1715 l
0.5963 0.1715 l
0.5972 0.1714 l
0.5982 0.1714 l
0.5991 0.1713 l
0.6001 0.1713 l
0.6010 0.1713 l
0.6019 0.1712 l
0.6029 0.1712 l
0.6038 0.1711 l
0.6048 0.1711 l
0.6057 0.1710 l
0.6067 0.1710 l
0.6076 0.1710 l
0.6085 0.1709 l
0.6095 0.1709 l
0.6104 0.1708 l
0.6114 0.1708 l
0.6123 0.1708 l
0.6132 0.1707 l
0.6142 0.1707 l
0.6151 0.1706 l
0.6161 0.1706 l
0.6170 0.1706 l
0.6180 0.1705 l
0.6189 0.1705 l
0.6198 0.1704 l
0.6208 0.1704 l
0.6217 0.1704 l
0.6227 0.1703 l
0.6236 0.1703 l
0.6245 0.1702 l
0.6255 0.1702 l
0.6264 0.1702 l
0.6274 0.1701 l
0.6283 0.1701 l
0.6293 0.1701 l
0.6302 0.1700 l
0.6311 0.1700 l
0.6321 0.1699 l
0.6330 0.1699 l
0.6340 0.1699 l
0.6349 0.1698 l
0.6358 0.1698 l
0.6368 0.1698 l
0.6377 0.1697 l
0.6387 0.1697 l
0.6396 0.1696 l
0.6406 0.1696 l
0.6415 0.1696 l
0.6424 0.1695 l
0.6434 0.1695 l
0.6443 0.1695 l
0.6453 0.1694 l
0.6462 0.1694 l
0.6471 0.1694 l
0.6481 0.1693 l
0.6490 0.1693 l
0.6500 0.1693 l
0.6509 0.1692 l
0.6519 0.1692 l
0.6528 0.1692 l
0.6537 0.1691 l
0.6547 0.1691 l
0.6556 0.1691 l
0.6566 0.1690 l
0.6575 0.1690 l
0.6584 0.1690 l
0.6594 0.1689 l
0.6603 0.1689 l
0.6613 0.1689 l
0.6622 0.1688 l
0.6632 0.1688 l
0.6641 0.1688 l
0.6650 0.1687 l
0.6660 0.1687 l
0.6669 0.1687 l
0.6679 0.1686 l
0.6688 0.1686 l
0.6697 0.1686 l
0.6707 0.1685 l
0.6716 0.1685 l
0.6726 0.1685 l
0.6735 0.1684 l
0.6745 0.1684 l
0.6754 0.1684 l
0.6763 0.1683 l
0.6773 0.1683 l
0.6782 0.1683 l
0.6792 0.1682 l
0.6801 0.1682 l
0.6810 0.1682 l
0.6820 0.1681 l
0.6829 0.1681 l
0.6839 0.1681 l
0.6848 0.1681 l
0.6858 0.1680 l
0.6867 0.1680 l
0.6876 0.1680 l
0.6886 0.1679 l
0.6895 0.1679 l
0.6905 0.1679 l
0.6914 0.1678 l
0.6923 0.1678 l
0.6933 0.1678 l
0.6942 0.1678 l
0.6952 0.1677 l
0.6961 0.1677 l
0.6971 0.1677 l
0.6980 0.1676 l
0.6989 0.1676 l
0.6999 0.1676 l
0.7008 0.1676 l
0.7018 0.1675 l
0.7027 0.1675 l
0.7036 0.1675 l
0.7046 0.1674 l
0.7055 0.1674 l
0.7065 0.1674 l
0.7074 0.1674 l
0.7084 0.1673 l
0.7093 0.1673 l
0.7102 0.1673 l
0.7112 0.1672 l
0.7121 0.1672 l
0.7131 0.1672 l
0.7140 0.1672 l
0.7149 0.1671 l
0.7159 0.1671 l
0.7168 0.1671 l
0.7178 0.1670 l
0.7187 0.1670 l
0.7197 0.1670 l
0.7206 0.1670 l
0.7215 0.1669 l
0.7225 0.1669 l
0.7234 0.1669 l
0.7244 0.1669 l
0.7253 0.1668 l
0.7262 0.1668 l
0.7272 0.1668 l
0.7281 0.1668 l
0.7291 0.1667 l
0.7300 0.1667 l
0.7310 0.1667 l
0.7319 0.1666 l
0.7328 0.1666 l
0.7338 0.1666 l
0.7347 0.1666 l
0.7357 0.1665 l
0.7366 0.1665 l
0.7375 0.1665 l
0.7385 0.1665 l
0.7394 0.1664 l
0.7404 0.1664 l
0.7413 0.1664 l
0.7423 0.1664 l
0.7432 0.1663 l
0.7441 0.1663 l
0.7451 0.1663 l
0.7460 0.1663 l
0.7470 0.1662 l
0.7479 0.1662 l
0.7488 0.1662 l
0.7498 0.1662 l
0.7507 0.1661 l
0.7517 0.1661 l
0.7526 0.1661 l
0.7536 0.1661 l
0.7545 0.1661 l
0.7554 0.1660 l
0.7564 0.1660 l
0.7573 0.1660 l
0.7583 0.1660 l
0.7592 0.1659 l
0.7601 0.1659 l
0.7611 0.1659 l
0.7620 0.1659 l
0.7630 0.1658 l
0.7639 0.1658 l
0.7649 0.1658 l
0.7658 0.1658 l
0.7667 0.1657 l
0.7677 0.1657 l
0.7686 0.1657 l
0.7696 0.1657 l
0.7705 0.1657 l
0.7714 0.1656 l
0.7724 0.1656 l
0.7733 0.1656 l
0.7743 0.1656 l
0.7752 0.1655 l
0.7762 0.1655 l
0.7771 0.1655 l
0.7780 0.1655 l
0.7790 0.1655 l
0.7799 0.1654 l
0.7809 0.1654 l
0.7818 0.1654 l
0.7827 0.1654 l
0.7837 0.1653 l
0.7846 0.1653 l
0.7856 0.1653 l
0.7865 0.1653 l
0.7875 0.1653 l
0.7884 0.1652 l
0.7893 0.1652 l
0.7903 0.1652 l
0.7912 0.1652 l
0.7922 0.1651 l
0.7931 0.1651 l
0.7940 0.1651 l
0.7950 0.1651 l
0.7959 0.1651 l
0.7969 0.1650 l
0.7978 0.1650 l
0.7988 0.1650 l
0.7997 0.1650 l
0.8006 0.1650 l
0.8016 0.1649 l
0.8025 0.1649 l
0.8035 0.1649 l
0.8044 0.1649 l
0.8053 0.1649 l
0.8063 0.1648 l
0.8072 0.1648 l
0.8082 0.1648 l
0.8091 0.1648 l
0.8101 0.1648 l
0.8110 0.1647 l
0.8119 0.1647 l
0.8129 0.1647 l
0.8138 0.1647 l
0.8148 0.1647 l
0.8157 0.1646 l
0.8166 0.1646 l
0.8176 0.1646 l
0.8185 0.1646 l
0.8195 0.1646 l
0.8204 0.1645 l
0.8214 0.1645 l
0.8223 0.1645 l
0.8232 0.1645 l
0.8242 0.1645 l
0.8251 0.1644 l
0.8261 0.1644 l
0.8270 0.1644 l
0.8279 0.1644 l
0.8289 0.1644 l
0.8298 0.1643 l
0.8308 0.1643 l
0.8317 0.1643 l
0.8327 0.1643 l
0.8336 0.1643 l
0.8345 0.1642 l
0.8355 0.1642 l
0.8364 0.1642 l
0.8374 0.1642 l
0.8383 0.1642 l
0.8392 0.1642 l
0.8402 0.1641 l
0.8411 0.1641 l
0.8421 0.1641 l
0.8430 0.1641 l
0.8440 0.1641 l
0.8449 0.1640 l
0.8458 0.1640 l
0.8468 0.1640 l
0.8477 0.1640 l
0.8487 0.1640 l
0.8496 0.1640 l
0.8505 0.1639 l
0.8515 0.1639 l
0.8524 0.1639 l
0.8534 0.1639 l
0.8543 0.1639 l
0.8553 0.1638 l
0.8562 0.1638 l
0.8571 0.1638 l
0.8581 0.1638 l
0.8590 0.1638 l
0.8600 0.1638 l
0.8609 0.1637 l
0.8618 0.1637 l
0.8628 0.1637 l
0.8637 0.1637 l
0.8647 0.1637 l
0.8656 0.1637 l
0.8666 0.1636 l
0.8675 0.1636 l
0.8684 0.1636 l
0.8694 0.1636 l
0.8703 0.1636 l
0.8713 0.1636 l
0.8722 0.1635 l
0.8731 0.1635 l
0.8741 0.1635 l
0.8750 0.1635 l
0.8760 0.1635 l
0.8769 0.1635 l
0.8779 0.1634 l
0.8788 0.1634 l
0.8797 0.1634 l
0.8807 0.1634 l
0.8816 0.1634 l
0.8826 0.1634 l
0.8835 0.1633 l
0.8844 0.1633 l
0.8854 0.1633 l
0.8863 0.1633 l
0.8873 0.1633 l
0.8882 0.1633 l
0.8892 0.1632 l
0.8901 0.1632 l
0.8910 0.1632 l
0.8920 0.1632 l
0.8929 0.1632 l
0.8939 0.1632 l
0.8948 0.1631 l
0.8957 0.1631 l
0.8967 0.1631 l
0.8976 0.1631 l
0.8986 0.1631 l
0.8995 0.1631 l
0.9005 0.1631 l
0.9014 0.1630 l
0.9023 0.1630 l
0.9033 0.1630 l
0.9042 0.1630 l
0.9052 0.1630 l
0.9061 0.1630 l
0.9070 0.1629 l
0.9080 0.1629 l
0.9089 0.1629 l
0.9099 0.1629 l
0.9108 0.1629 l
0.9118 0.1629 l
0.9127 0.1629 l
0.9136 0.1628 l
0.9146 0.1628 l
0.9155 0.1628 l
0.9165 0.1628 l
0.9174 0.1628 l
0.9183 0.1628 l
0.9193 0.1628 l
0.9202 0.1627 l
0.9212 0.1627 l
0.9221 0.1627 l
0.9231 0.1627 l
0.9240 0.1627 l
0.9249 0.1627 l
0.9259 0.1627 l
0.9268 0.1626 l
0.9278 0.1626 l
0.9287 0.1626 l
0.9296 0.1626 l
0.9306 0.1626 l
0.9315 0.1626 l
0.9325 0.1626 l
0.9334 0.1625 l
0.9344 0.1625 l
0.9353 0.1625 l
0.9362 0.1625 l
0.9372 0.1625 l
0.9381 0.1625 l
0.9391 0.1625 l
0.9400 0.1624 l
0.9409 0.1624 l
0.9419 0.1624 l
0.9428 0.1624 l
0.9438 0.1624 l
0.9447 0.1624 l
0.9457 0.1624 l
0.9466 0.1623 l
0.9475 0.1623 l
0.9485 0.1623 l
0.9494 0.1623 l
0.9504 0.1623 l
0.9513 0.1623 l
0.9522 0.1623 l
0.9532 0.1622 l
0.9541 0.1622 l
0.9551 0.1622 l
0.9560 0.1622 l
0.9570 0.1622 l
0.9579 0.1622 l
0.9588 0.1622 l
0.9598 0.1622 l
0.9607 0.1621 l
0.9617 0.1621 l
0.9626 0.1621 l
0.9635 0.1621 l
0.9645 0.1621 l
0.9654 0.1621 l
0.9664 0.1621 l
0.9673 0.1620 l
0.9683 0.1620 l
0.9692 0.1620 l
0.9701 0.1620 l
0.9711 0.1620 l
0.9720 0.1620 l
0.9730 0.1620 l
0.9739 0.1620 l
0.9748 0.1619 l
0.9758 0.1619 l
0.9767 0.1619 l
0.9777 0.1619 l
0.9786 0.1619 l
0.9796 0.1619 l
0.9805 0.1619 l
0.9814 0.1619 l
0.9824 0.1618 l
0.9833 0.1618 l
0.9843 0.1618 l
0.9852 0.1618 l
0.9861 0.1618 l
0.9871 0.1618 l
0.9880 0.1618 l
0.9890 0.1618 l
0.9899 0.1617 l
0.9909 0.1617 l
0.9918 0.1617 l
0.9927 0.1617 l
0.9937 0.1617 l
0.9946 0.1617 l
0.9956 0.1617 l
0.9965 0.1617 l
0.9974 0.1616 l
0.9984 0.1616 l
0.9993 0.1616 l
1.0003 0.1616 l
1.0012 0.1616 l
1.0022 0.1616 l
1.0031 0.1616 l
1.0040 0.1616 l
1.0050 0.1616 l
1.0059 0.1615 l
1.0069 0.1615 l
1.0078 0.1615 l
1.0087 0.1615 l
1.0097 0.1615 l
1.0106 0.1615 l
1.0116 0.1615 l
1.0125 0.1615 l
1.0135 0.1614 l
1.0144 0.1614 l
1.0153 0.1614 l
1.0163 0.1614 l
1.0172 0.1614 l
1.0182 0.1614 l
1.0191 0.1614 l
1.0200 0.1614 l
1.0210 0.1614 l
1.0219 0.1613 l
1.0229 0.1613 l
1.0238 0.1613 l
1.0248 0.1613 l
1.0257 0.1613 l
1.0266 0.1613 l
1.0276 0.1613 l
1.0285 0.1613 l
1.0295 0.1613 l
1.0304 0.1612 l
1.0313 0.1612 l
1.0323 0.1612 l
1.0332 0.1612 l
1.0342 0.1612 l
1.0351 0.1612 l
1.0361 0.1612 l
1.0370 0.1612 l
1.0379 0.1612 l
1.0389 0.1611 l
1.0398 0.1611 l
1.0408 0.1611 l
1.0417 0.1611 l
1.0426 0.1611 l
1.0436 0.1611 l
1.0445 0.1611 l
1.0455 0.1611 l
1.0464 0.1611 l
1.0474 0.1610 l
1.0483 0.1610 l
1.0492 0.1610 l
1.0502 0.1610 l
1.0511 0.1610 l
1.0521 0.1610 l
1.0530 0.1610 l
1.0539 0.1610 l
1.0549 0.1610 l
1.0558 0.1610 l
1.0568 0.1609 l
1.0577 0.1609 l
1.0587 0.1609 l
1.0596 0.1609 l
1.0605 0.1609 l
1.0615 0.1609 l
1.0624 0.1609 l
1.0634 0.1609 l
1.0643 0.1609 l
1.0652 0.1609 l
1.0662 0.1608 l
1.0671 0.1608 l
1.0681 0.1608 l
1.0690 0.1608 l
1.0700 0.1608 l
1.0709 0.1608 l
1.0718 0.1608 l
1.0728 0.1608 l
1.0737 0.1608 l
1.0747 0.1608 l
1.0756 0.1607 l
1.0765 0.1607 l
1.0775 0.1607 l
1.0784 0.1607 l
1.0794 0.1607 l
1.0803 0.1607 l
1.0813 0.1607 l
1.0822 0.1607 l
1.0831 0.1607 l
1.0841 0.1607 l
1.0850 0.1606 l
1.0860 0.1606 l
1.0869 0.1606 l
1.0878 0.1606 l
1.0888 0.1606 l
1.0897 0.1606 l
1.0907 0.1606 l
1.0916 0.1606 l
1.0926 0.1606 l
1.0935 0.1606 l
1.0944 0.1605 l
1.0954 0.1605 l
1.0963 0.1605 l
1.0973 0.1605 l
1.0982 0.1605 l
1.0991 0.1605 l
1.1001 0.1605 l
1.1010 0.1605 l
1.1020 0.1605 l
1.1029 0.1605 l
1.1039 0.1605 l
1.1048 0.1604 l
1.1057 0.1604 l
1.1067 0.1604 l
1.1076 0.1604 l
1.1086 0.1604 l
1.1095 0.1604 l
1.1104 0.1604 l
1.1114 0.1604 l
1.1123 0.1604 l
1.1133 0.1604 l
1.1142 0.1603 l
1.1152 0.1603 l
1.1161 0.1603 l
1.1170 0.1603 l
1.1180 0.1603 l
1.1189 0.1603 l
1.1199 0.1603 l
1.1208 0.1603 l
1.1217 0.1603 l
1.1227 0.1603 l
1.1236 0.1603 l
1.1246 0.1602 l
1.1255 0.1602 l
1.1265 0.1602 l
1.1274 0.1602 l
1.1283 0.1602 l
1.1293 0.1602 l
1.1302 0.1602 l
1.1312 0.1602 l
1.1321 0.1602 l
1.1330 0.1602 l
1.1340 0.1602 l
1.1349 0.1602 l
1.1359 0.1601 l
1.1368 0.1601 l
1.1378 0.1601 l
1.1387 0.1601 l
1.1396 0.1601 l
1.1406 0.1601 l
1.1415 0.1601 l
1.1425 0.1601 l
1.1434 0.1601 l
1.1443 0.1601 l
1.1453 0.1601 l
1.1462 0.1600 l
1.1472 0.1600 l
1.1481 0.1600 l
1.1491 0.1600 l
1.1500 0.1600 l
1.1501 0.1600 l
s
n
0.2083 0.1532 m
1.1500 0.1532 l
s
n
0.2083 0.8500 m
1.1500 0.8500 l
s
n
0.3025 0.1532 m
0.3025 0.1632 l
s
n
0.3025 0.8500 m
0.3025 0.8400 l
s
n
0.4908 0.1532 m
0.4908 0.1632 l
s
n
0.4908 0.8500 m
0.4908 0.8400 l
s
n
0.6792 0.1532 m
0.6792 0.1632 l
s
n
0.6792 0.8500 m
0.6792 0.8400 l
s
n
0.8675 0.1532 m
0.8675 0.1632 l
s
n
0.8675 0.8500 m
0.8675 0.8400 l
s
n
1.0558 0.1532 m
1.0558 0.1632 l
s
n
1.0558 0.8500 m
1.0558 0.8400 l
s
n
0.3967 0.1532 m
0.3967 0.1732 l
s
n
0.3967 0.8500 m
0.3967 0.8300 l
s
n
0.5850 0.1532 m
0.5850 0.1732 l
s
n
0.5850 0.8500 m
0.5850 0.8300 l
s
n
0.7733 0.1532 m
0.7733 0.1732 l
s
n
0.7733 0.8500 m
0.7733 0.8300 l
s
n
0.9617 0.1532 m
0.9617 0.1732 l
s
n
0.9617 0.8500 m
0.9617 0.8300 l
s
n
1.1500 0.1532 m
1.1500 0.1732 l
s
n
1.1500 0.8500 m
1.1500 0.8300 l
s
/Times-Roman findfont
dup length dict begin
 {1 index /FID ne {def} {pop pop} ifelse} forall
 /Encoding DefEncoding def
 currentdict
end
/Font0 exch definefont pop
/Font0 FFSF
0.3688 0.1048 m
GS
[0.0571 0.0000 0.0000 0.0571 0 0] CC
(20) show
GR
/Font0 FFSF
0.5572 0.1048 m
GS
[0.0571 0.0000 0.0000 0.0571 0 0] CC
(40) show
GR
/Font0 FFSF
0.7455 0.1040 m
GS
[0.0571 0.0000 0.0000 0.0571 0 0] CC
(60) show
GR
/Font0 FFSF
0.9338 0.1048 m
GS
[0.0571 0.0000 0.0000 0.0571 0 0] CC
(80) show
GR
/Font0 FFSF
1.1078 0.1048 m
GS
[0.0571 0.0000 0.0000 0.0571 0 0] CC
(100) show
GR
/Symbol findfont
/Font12 exch definefont pop
/Font12 FFSF
0.5768 0.0551 m
GS
[0.0574 0.0000 0.0000 0.0574 0 0] CC
(w) show
GR
/Font0 FFSF
0.6160 0.0551 m
GS
[0.0574 0.0000 0.0000 0.0574 0 0] CC
( [MeV]) show
GR
n
0.2083 0.1532 m
0.2083 0.8500 l
s
n
1.1500 0.1532 m
1.1500 0.8500 l
s
n
0.2083 0.2403 m
0.2183 0.2403 l
s
n
1.1500 0.2403 m
1.1400 0.2403 l
s
n
0.2083 0.4145 m
0.2183 0.4145 l
s
n
1.1500 0.4145 m
1.1400 0.4145 l
s
n
0.2083 0.5887 m
0.2183 0.5887 l
s
n
1.1500 0.5887 m
1.1400 0.5887 l
s
n
0.2083 0.7629 m
0.2183 0.7629 l
s
n
1.1500 0.7629 m
1.1400 0.7629 l
s
n
0.2083 0.1532 m
0.2283 0.1532 l
s
n
1.1500 0.1532 m
1.1300 0.1532 l
s
n
0.2083 0.3274 m
0.2283 0.3274 l
s
n
1.1500 0.3274 m
1.1300 0.3274 l
s
n
0.2083 0.5016 m
0.2283 0.5016 l
s
n
1.1500 0.5016 m
1.1300 0.5016 l
s
n
0.2083 0.6758 m
0.2283 0.6758 l
s
n
1.1500 0.6758 m
1.1300 0.6758 l
s
n
0.2083 0.8500 m
0.2283 0.8500 l
s
n
1.1500 0.8500 m
1.1300 0.8500 l
s
/Font0 FFSF
0.1713 0.1344 m
GS
[0.0571 0.0000 0.0000 0.0571 0 0] CC
(0) show
GR
/Font0 FFSF
0.1019 0.3082 m
GS
[0.0571 0.0000 0.0000 0.0571 0 0] CC
(0.05) show
GR
/Font0 FFSF
0.1332 0.4828 m
GS
[0.0571 0.0000 0.0000 0.0571 0 0] CC
(0.1) show
GR
/Font0 FFSF
0.1019 0.6566 m
GS
[0.0571 0.0000 0.0000 0.0571 0 0] CC
(0.15) show
GR
/Font0 FFSF
0.1285 0.8312 m
GS
[0.0571 0.0000 0.0000 0.0571 0 0] CC
(0.2) show
GR
/Font0 FFSF
0.0797 0.2579 m
GS
[0.0000 0.0574 -0.0574 0.0000 0 0] CC
(-Im ) show
GR
/Font12 FFSF
0.0797 0.3551 m
GS
[0.0000 0.0574 -0.0574 0.0000 0 0] CC
(c/p ) show
GR
/Font0 FFSF
0.0797 0.4485 m
GS
[0.0000 0.0574 -0.0574 0.0000 0 0] CC
( [MeV) show
GR
/Font0 FFSF
0.0453 0.5998 m
GS
[0.0000 0.0406 -0.0406 0.0000 0 0] CC
(-1) show
GR
/Font0 FFSF
0.0797 0.6336 m
GS
[0.0000 0.0574 -0.0574 0.0000 0 0] CC
(fm) show
GR
/Font0 FFSF
0.0453 0.6975 m
GS
[0.0000 0.0406 -0.0406 0.0000 0 0] CC
(-3) show
GR
/Font0 FFSF
0.0797 0.7312 m
GS
[0.0000 0.0574 -0.0574 0.0000 0 0] CC
(]) show
GR
[] 0 SD
0.0015 SLW
n
0.2083 0.1532 m
0.2083 0.8500 l
1.1500 0.8500 l
1.1500 0.1532 l
0.2083 0.1532 l
c
s
/Font0 FFSF
0.5850 0.6932 m
GS
[0.0764 0.0000 0.0000 0.0764 0 0] CC
(q=2.88 fm) show
GR
/Font0 FFSF
0.9042 0.7391 m
GS
[0.0541 0.0000 0.0000 0.0541 0 0] CC
(-1) show
GR
/Font12 FFSF
0.5850 0.5713 m
GS
[0.0764 0.0000 0.0000 0.0764 0 0] CC
(r) show
GR
/Font0 FFSF
0.6270 0.5407 m
GS
[0.0541 0.0000 0.0000 0.0541 0 0] CC
(pole) show
GR
/Font12 FFSF
0.7199 0.5713 m
GS
[0.0764 0.0000 0.0000 0.0764 0 0] CC
(=0.205) show
GR
/Font0 FFSF
0.9340 0.5713 m
GS
[0.0764 0.0000 0.0000 0.0764 0 0] CC
( fm) show
GR
/Font0 FFSF
1.0379 0.6171 m
GS
[0.0541 0.0000 0.0000 0.0541 0 0] CC
(-3) show
GR
/Font0 FFSF
0.5850 0.4668 m
GS
[0.0764 0.0000 0.0000 0.0764 0 0] CC
(S=1 M=1 I=0) show
GR
showpage
%%PageTrailer
%%Trailer
%%DocumentNeededResources: font Times-Roman
%%+ font Symbol
%%EOF
