%!PS-Adobe-3.0
%%BoundingBox: 0 0 612 792
%%LanguageLevel: 2
%%Creator: Grace-5.1.22
%%CreationDate: Mon Oct 29 09:58:37 2012
%%DocumentData: Clean8Bit
%%Orientation: Landscape
%%Pages: 1
%%PageOrder: Ascend
%%Title: /Users/alessandropastore/Fisica/Testi/Articoli/kazimierz/plots/Critical_SLy5.agr
%%For: alessandropastore
%%DocumentNeededResources: (atend)
%%EndComments
%%BeginProlog
/PAGE_OFFSET_X 0 def
/PAGE_OFFSET_Y 0 def
/m {moveto} def
/l {lineto} def
/s {stroke} def
/n {newpath} def
/c {closepath} def
/RL {rlineto} def
/SLW {setlinewidth} def
/GS {gsave} def
/GR {grestore} def
/SC {setcolor} def
/SGRY {setgray} def
/SRGB {setrgbcolor} def
/SD {setdash} def
/SLC {setlinecap} def
/SLJ {setlinejoin} def
/SCS {setcolorspace} def
/FFSF {findfont setfont} def
/CC {concat} def
/PXL {n m 0 0 RL s} def
/Color0 {1.0000 1.0000 1.0000} def
/Color1 {0.0000 0.0000 0.0000} def
/Color2 {1.0000 0.0000 0.0000} def
/Color3 {0.0000 1.0000 0.0000} def
/Color4 {0.0000 0.0000 1.0000} def
/Color5 {1.0000 1.0000 0.0000} def
/Color6 {0.7373 0.5608 0.5608} def
/Color7 {0.8627 0.8627 0.8627} def
/Color8 {0.5804 0.0000 0.8275} def
/Color9 {0.0000 1.0000 1.0000} def
/Color10 {1.0000 0.0000 1.0000} def
/Color11 {1.0000 0.6471 0.0000} def
/Color12 {0.4471 0.1294 0.7373} def
/Color13 {0.4039 0.0275 0.2824} def
/Color14 {0.2510 0.8784 0.8157} def
/Color15 {0.0000 0.5451 0.0000} def
/Color16 {0.7529 0.7529 0.7529} def
/Color17 {0.5059 0.5059 0.5059} def
/Color18 {0.2588 0.2588 0.2588} def
/PTRN {
 /pat_bits exch def 
 <<
  /PaintType 2
  /PatternType 1 /TilingType 1
  /BBox[0 0 16 16]
  /XStep 16 /YStep 16
  /PaintProc {
   pop
   16 16 true [-1 0 0 -1 16 16] pat_bits imagemask
  }
 >>
 [0.0016 0 0 0.0016 0 0]
 makepattern
} def
/Pattern0 {<0000000000000000000000000000000000000000000000000000000000000000> PTRN} bind def
/Pattern1 {<ffffffffffffffffffffffffffffffffffffffffffffffffffffffffffffffff> PTRN} bind def
/Pattern2 {<eeeeffffbbbbffffeeeeffffbbbbffffeeeeffffbbbbffffeeeeffffbbbbffff> PTRN} bind def
/Pattern3 {<eeeebbbbeeeebbbbeeeebbbbeeeebbbbeeeebbbbeeeebbbbeeeebbbbeeeebbbb> PTRN} bind def
/Pattern4 {<5555aaaa5555aaaa5555aaaa5555aaaa5555aaaa5555aaaa5555aaaa5555aaaa> PTRN} bind def
/Pattern5 {<1111444411114444111144441111444411114444111144441111444411114444> PTRN} bind def
/Pattern6 {<1111000044440000111100004444000011110000444400001111000044440000> PTRN} bind def
/Pattern7 {<1010000000000000010100000000000010100000000000000101000000000000> PTRN} bind def
/Pattern8 {<0000000000000000000000000000000000000000000000000000000000000000> PTRN} bind def
/Pattern9 {<1e1e0f0f8787c3c3e1e1f0f078783c3c1e1e0f0f8787c3c3e1e1f0f078783c3c> PTRN} bind def
/Pattern10 {<7878f0f0e1e1c3c387870f0f1e1e3c3c7878f0f0e1e1c3c387870f0f1e1e3c3c> PTRN} bind def
/Pattern11 {<3333333333333333333333333333333333333333333333333333333333333333> PTRN} bind def
/Pattern12 {<ffffffff00000000ffffffff00000000ffffffff00000000ffffffff00000000> PTRN} bind def
/Pattern13 {<8181424224241818181824244242818181814242242418181818242442428181> PTRN} bind def
/Pattern14 {<8080404020201010080804040202010180804040202010100808040402020101> PTRN} bind def
/Pattern15 {<0101020204040808101020204040808001010202040408081010202040408080> PTRN} bind def
/Pattern16 {<2222222222222222222222222222222222222222222222222222222222222222> PTRN} bind def
/Pattern17 {<0000ffff000000000000ffff000000000000ffff000000000000ffff00000000> PTRN} bind def
/Pattern18 {<2222ffff222222222222ffff222222222222ffff222222222222ffff22222222> PTRN} bind def
/Pattern19 {<ffffffff33333333ffffffff33333333ffffffff33333333ffffffff33333333> PTRN} bind def
/Pattern20 {<0f0f0f0f0f0f0f0ff0f0f0f0f0f0f0f00f0f0f0f0f0f0f0ff0f0f0f0f0f0f0f0> PTRN} bind def
/Pattern21 {<ff00ff00ff00ff00ff00ff00ff00ff0000ff00ff00ff00ff00ff00ff00ff00ff> PTRN} bind def
/Pattern22 {<8001800180018001800180018001ffffffff8001800180018001800180018001> PTRN} bind def
/Pattern23 {<c003c003c003c003c003c003ffffffffffffffffc003c003c003c003c003c003> PTRN} bind def
/Pattern24 {<040404040404ffff404040404040ffff040404040404ffff404040404040ffff> PTRN} bind def
/Pattern25 {<180018001800180018001800ffffffff001800180018001800180018ffffffff> PTRN} bind def
/Pattern26 {<1111b8b87c7c3a3a1111a3a3c7c78b8b1111b8b87c7c3a3a1111a3a3c7c78b8b> PTRN} bind def
/Pattern27 {<101010102828c7c70101010182827c7c101010102828c7c70101010182827c7c> PTRN} bind def
/Pattern28 {<1c1c121211112121c1c12121111112121c1c121211112121c1c1212111111212> PTRN} bind def
/Pattern29 {<3e3e414180808080e3e31414080808083e3e414180808080e3e3141408080808> PTRN} bind def
/Pattern30 {<4848888884848383848488884848383848488888848483838484888848483838> PTRN} bind def
/Pattern31 {<03030404080808080c0c12122121c0c003030404080808080c0c12122121c0c0> PTRN} bind def
/ellipsedict 8 dict def
ellipsedict /mtrx matrix put
/EARC {
 ellipsedict begin
  /endangle exch def
  /startangle exch def
  /yrad exch def
  /xrad exch def
  /y exch def
  /x exch def
  /savematrix mtrx currentmatrix def
  x y translate
  xrad yrad scale
  0 0 1 startangle endangle arc
  savematrix setmatrix
 end
} def
/TL {
  /kcomp exch def
  /linewidth exch def
  /offset exch def
  GS
  0 offset rmoveto
  linewidth SLW
  dup stringwidth exch kcomp add exch RL s
  GR
} def
/KINIT
{
 /kvector exch def
 /kid 0 def
} def
/KPROC
{
 pop pop
 kvector kid get
 0 rmoveto
 /kid 1 kid add def
} def
/DefEncoding [
 /.notdef
 /.notdef
 /.notdef
 /.notdef
 /.notdef
 /.notdef
 /.notdef
 /.notdef
 /.notdef
 /.notdef
 /.notdef
 /.notdef
 /.notdef
 /.notdef
 /.notdef
 /.notdef
 /.notdef
 /.notdef
 /.notdef
 /.notdef
 /.notdef
 /.notdef
 /.notdef
 /.notdef
 /.notdef
 /.notdef
 /.notdef
 /.notdef
 /.notdef
 /.notdef
 /.notdef
 /.notdef
 /space
 /exclam
 /quotedbl
 /numbersign
 /dollar
 /percent
 /ampersand
 /quoteright
 /parenleft
 /parenright
 /asterisk
 /plus
 /comma
 /hyphen
 /period
 /slash
 /zero
 /one
 /two
 /three
 /four
 /five
 /six
 /seven
 /eight
 /nine
 /colon
 /semicolon
 /less
 /equal
 /greater
 /question
 /at
 /A
 /B
 /C
 /D
 /E
 /F
 /G
 /H
 /I
 /J
 /K
 /L
 /M
 /N
 /O
 /P
 /Q
 /R
 /S
 /T
 /U
 /V
 /W
 /X
 /Y
 /Z
 /bracketleft
 /backslash
 /bracketright
 /asciicircum
 /underscore
 /grave
 /a
 /b
 /c
 /d
 /e
 /f
 /g
 /h
 /i
 /j
 /k
 /l
 /m
 /n
 /o
 /p
 /q
 /r
 /s
 /t
 /u
 /v
 /w
 /x
 /y
 /z
 /braceleft
 /bar
 /braceright
 /asciitilde
 /.notdef
 /.notdef
 /.notdef
 /.notdef
 /.notdef
 /.notdef
 /.notdef
 /.notdef
 /.notdef
 /.notdef
 /.notdef
 /.notdef
 /.notdef
 /.notdef
 /.notdef
 /.notdef
 /.notdef
 /.notdef
 /.notdef
 /.notdef
 /.notdef
 /.notdef
 /.notdef
 /.notdef
 /.notdef
 /.notdef
 /.notdef
 /.notdef
 /.notdef
 /.notdef
 /.notdef
 /.notdef
 /.notdef
 /space
 /exclamdown
 /cent
 /sterling
 /currency
 /yen
 /brokenbar
 /section
 /dieresis
 /copyright
 /ordfeminine
 /guillemotleft
 /logicalnot
 /hyphen
 /registered
 /macron
 /degree
 /plusminus
 /twosuperior
 /threesuperior
 /acute
 /mu
 /paragraph
 /periodcentered
 /cedilla
 /onesuperior
 /ordmasculine
 /guillemotright
 /onequarter
 /onehalf
 /threequarters
 /questiondown
 /Agrave
 /Aacute
 /Acircumflex
 /Atilde
 /Adieresis
 /Aring
 /AE
 /Ccedilla
 /Egrave
 /Eacute
 /Ecircumflex
 /Edieresis
 /Igrave
 /Iacute
 /Icircumflex
 /Idieresis
 /Eth
 /Ntilde
 /Ograve
 /Oacute
 /Ocircumflex
 /Otilde
 /Odieresis
 /multiply
 /Oslash
 /Ugrave
 /Uacute
 /Ucircumflex
 /Udieresis
 /Yacute
 /Thorn
 /germandbls
 /agrave
 /aacute
 /acircumflex
 /atilde
 /adieresis
 /aring
 /ae
 /ccedilla
 /egrave
 /eacute
 /ecircumflex
 /edieresis
 /igrave
 /iacute
 /icircumflex
 /idieresis
 /eth
 /ntilde
 /ograve
 /oacute
 /ocircumflex
 /otilde
 /odieresis
 /divide
 /oslash
 /ugrave
 /uacute
 /ucircumflex
 /udieresis
 /yacute
 /thorn
 /ydieresis
] def
%%EndProlog
%%BeginSetup
%%EndSetup
%%Page: 1 1
PAGE_OFFSET_X PAGE_OFFSET_Y translate
612.00 612.00 scale
90 rotate
0.0 -1.0 translate
n
0.0000 0.0000 m
0.0000 1.0000 l
1.2941 1.0000 l
1.2941 0.0000 l
c
[/DeviceRGB] SCS
Color0 SC
fill
[/DeviceRGB] SCS
Color2 SC
[] 0 SD
0.0060 SLW
0 SLC
0 SLJ
n
0.1926 0.2940 m
0.1950 0.2939 l
0.1974 0.2939 l
0.1998 0.2939 l
0.2022 0.2939 l
0.2046 0.2938 l
0.2070 0.2938 l
0.2094 0.2937 l
0.2118 0.2937 l
0.2142 0.2936 l
0.2166 0.2932 l
0.2190 0.2932 l
0.2214 0.2932 l
0.2238 0.2932 l
0.2262 0.2931 l
0.2286 0.2930 l
0.2309 0.2928 l
0.2333 0.2927 l
0.2357 0.2926 l
0.2381 0.2924 l
0.2405 0.2922 l
0.2429 0.2918 l
0.2453 0.2918 l
0.2477 0.2917 l
0.2501 0.2915 l
0.2525 0.2912 l
0.2549 0.2910 l
0.2573 0.2908 l
0.2597 0.2904 l
0.2621 0.2903 l
0.2645 0.2900 l
0.2669 0.2898 l
0.2692 0.2895 l
0.2716 0.2890 l
0.2740 0.2889 l
0.2764 0.2886 l
0.2788 0.2883 l
0.2812 0.2880 l
0.2836 0.2876 l
0.2860 0.2873 l
0.2884 0.2870 l
0.2908 0.2866 l
0.2932 0.2862 l
0.2956 0.2859 l
0.2980 0.2855 l
0.3004 0.2848 l
0.3028 0.2847 l
0.3052 0.2843 l
0.3076 0.2838 l
0.3099 0.2834 l
0.3123 0.2829 l
0.3147 0.2825 l
0.3171 0.2820 l
0.3195 0.2815 l
0.3219 0.2810 l
0.3243 0.2805 l
0.3267 0.2800 l
0.3291 0.2795 l
0.3315 0.2790 l
0.3339 0.2784 l
0.3363 0.2778 l
0.3387 0.2773 l
0.3411 0.2768 l
0.3435 0.2762 l
0.3459 0.2756 l
0.3483 0.2750 l
0.3506 0.2744 l
0.3530 0.2737 l
0.3554 0.2731 l
0.3578 0.2723 l
0.3602 0.2718 l
0.3626 0.2711 l
0.3650 0.2704 l
0.3674 0.2697 l
0.3698 0.2690 l
0.3722 0.2683 l
0.3746 0.2675 l
0.3770 0.2667 l
0.3794 0.2660 l
0.3818 0.2652 l
0.3842 0.2644 l
0.3866 0.2636 l
0.3889 0.2628 l
0.3913 0.2620 l
0.3937 0.2611 l
0.3961 0.2603 l
0.3985 0.2594 l
0.4009 0.2585 l
0.4033 0.2576 l
0.4057 0.2567 l
0.4081 0.2558 l
0.4105 0.2548 l
0.4129 0.2539 l
0.4153 0.2529 l
0.4177 0.2519 l
0.4201 0.2509 l
0.4225 0.2498 l
0.4249 0.2488 l
0.4273 0.2477 l
0.4296 0.2467 l
0.4320 0.2455 l
0.4344 0.2444 l
0.4368 0.2433 l
0.4392 0.2421 l
0.4416 0.2409 l
0.4440 0.2397 l
0.4464 0.2385 l
0.4488 0.2373 l
0.4512 0.2359 l
0.4536 0.2346 l
0.4560 0.2333 l
0.4584 0.2319 l
0.4608 0.2305 l
0.4632 0.2291 l
0.4656 0.2276 l
0.4680 0.2261 l
0.4703 0.2247 l
0.4727 0.2233 l
0.4751 0.2212 l
0.4775 0.2194 l
0.4799 0.2177 l
0.4823 0.2163 l
0.4847 0.2135 l
0.4871 0.2121 l
0.4895 0.2093 l
0.4919 0.2065 l
0.4943 0.2037 l
0.4967 0.2009 l
0.4991 0.1953 l
s
n
0.3339 0.1533 m
0.3363 0.1533 l
0.3387 0.1533 l
0.3578 0.1547 l
0.3602 0.1547 l
0.3746 0.1561 l
0.3770 0.1561 l
0.3889 0.1575 l
0.3913 0.1575 l
0.4033 0.1589 l
0.4057 0.1589 l
0.4129 0.1603 l
0.4153 0.1603 l
0.4225 0.1617 l
0.4249 0.1617 l
0.4273 0.1617 l
0.4320 0.1631 l
0.4344 0.1631 l
0.4368 0.1631 l
0.4392 0.1645 l
0.4416 0.1645 l
0.4440 0.1645 l
0.4464 0.1659 l
0.4488 0.1659 l
0.4512 0.1659 l
0.4536 0.1673 l
0.4560 0.1673 l
0.4584 0.1673 l
0.4608 0.1687 l
0.4632 0.1687 l
0.4656 0.1701 l
0.4680 0.1701 l
0.4703 0.1715 l
0.4727 0.1715 l
0.4751 0.1729 l
0.4775 0.1743 l
0.4799 0.1743 l
0.4823 0.1757 l
0.4847 0.1771 l
0.4871 0.1785 l
0.4895 0.1799 l
0.4919 0.1813 l
0.4943 0.1827 l
0.4967 0.1855 l
0.4991 0.1897 l
s
[/DeviceRGB] SCS
Color3 SC
n
0.6978 0.8430 m
0.7002 0.8346 l
0.7026 0.8262 l
0.7050 0.8178 l
0.7074 0.8094 l
0.7097 0.8024 l
0.7121 0.7941 l
0.7145 0.7871 l
0.7169 0.7801 l
0.7193 0.7731 l
0.7217 0.7661 l
0.7241 0.7591 l
0.7265 0.7521 l
0.7289 0.7455 l
0.7313 0.7395 l
0.7337 0.7330 l
0.7361 0.7270 l
0.7385 0.7213 l
0.7409 0.7157 l
0.7433 0.7101 l
0.7457 0.7045 l
0.7480 0.6989 l
0.7504 0.6934 l
0.7528 0.6883 l
0.7552 0.6835 l
0.7576 0.6783 l
0.7600 0.6738 l
0.7624 0.6687 l
0.7648 0.6641 l
0.7672 0.6598 l
0.7696 0.6556 l
0.7720 0.6508 l
0.7744 0.6466 l
0.7768 0.6425 l
0.7792 0.6388 l
0.7816 0.6346 l
0.7840 0.6307 l
0.7864 0.6270 l
0.7887 0.6234 l
0.7911 0.6197 l
0.7935 0.6164 l
0.7959 0.6128 l
0.7983 0.6095 l
0.8007 0.6063 l
0.8031 0.6031 l
0.8055 0.6000 l
0.8079 0.5970 l
0.8103 0.5941 l
0.8127 0.5913 l
0.8151 0.5885 l
0.8175 0.5858 l
0.8199 0.5832 l
0.8223 0.5807 l
0.8247 0.5783 l
0.8271 0.5759 l
0.8294 0.5736 l
0.8318 0.5713 l
0.8342 0.5692 l
0.8366 0.5671 l
0.8390 0.5651 l
0.8414 0.5631 l
0.8438 0.5612 l
0.8462 0.5594 l
0.8486 0.5576 l
0.8510 0.5560 l
0.8534 0.5544 l
0.8558 0.5529 l
0.8582 0.5515 l
0.8606 0.5501 l
0.8630 0.5488 l
0.8654 0.5475 l
0.8677 0.5463 l
0.8701 0.5450 l
0.8725 0.5442 l
0.8749 0.5432 l
0.8773 0.5422 l
0.8797 0.5415 l
0.8821 0.5407 l
0.8845 0.5400 l
0.8869 0.5394 l
0.8893 0.5388 l
0.8917 0.5380 l
0.8941 0.5379 l
0.8965 0.5375 l
0.8989 0.5372 l
0.9013 0.5366 l
0.9037 0.5366 l
0.9061 0.5366 l
0.9084 0.5366 l
0.9108 0.5366 l
0.9132 0.5366 l
0.9156 0.5366 l
0.9180 0.5374 l
0.9204 0.5377 l
0.9228 0.5380 l
0.9252 0.5380 l
0.9276 0.5392 l
0.9300 0.5394 l
0.9324 0.5404 l
0.9348 0.5408 l
0.9372 0.5420 l
0.9396 0.5422 l
0.9420 0.5436 l
0.9444 0.5450 l
0.9467 0.5461 l
0.9491 0.5473 l
0.9515 0.5478 l
0.9539 0.5492 l
0.9563 0.5506 l
0.9587 0.5530 l
0.9611 0.5546 l
0.9635 0.5562 l
0.9659 0.5576 l
0.9683 0.5590 l
0.9707 0.5618 l
0.9731 0.5632 l
0.9755 0.5660 l
0.9779 0.5688 l
0.9803 0.5715 l
s
[/DeviceRGB] SCS
Color4 SC
[0.0060 0.0180 0.0300 0.0180 ] 0 SD
0.0060 SLW
n
0.8366 0.6234 m
0.8390 0.6724 l
0.8414 0.7143 l
0.8438 0.7535 l
0.8462 0.7927 l
0.8486 0.8304 l
s
n
0.8510 0.4387 m
0.8534 0.4359 l
0.8558 0.4331 l
0.8582 0.4317 l
0.8606 0.4303 l
0.8630 0.4289 l
0.8654 0.4289 l
0.8677 0.4289 l
0.8701 0.4289 l
0.8725 0.4289 l
0.8749 0.4289 l
0.8773 0.4303 l
0.8797 0.4303 l
0.8821 0.4331 l
s
n
0.8366 0.4919 m
0.8390 0.4723 l
0.8414 0.4611 l
0.8438 0.4527 l
0.8462 0.4471 l
0.8486 0.4429 l
s
[/DeviceRGB] SCS
Color11 SC
[0.0300 0.0180 ] 0 SD
0.0060 SLW
n
0.1926 0.6136 m
0.1950 0.6136 l
0.1974 0.6136 l
0.1998 0.6136 l
0.2022 0.6136 l
0.2046 0.6136 l
0.2070 0.6136 l
0.2094 0.6146 l
0.2118 0.6147 l
0.2142 0.6147 l
0.2166 0.6148 l
0.2190 0.6148 l
0.2214 0.6149 l
0.2238 0.6149 l
0.2262 0.6150 l
0.2286 0.6150 l
0.2309 0.6150 l
0.2333 0.6150 l
0.2357 0.6150 l
0.2381 0.6150 l
0.2405 0.6150 l
0.2429 0.6150 l
0.2453 0.6150 l
0.2477 0.6150 l
0.2501 0.6150 l
0.2525 0.6160 l
0.2549 0.6162 l
0.2573 0.6163 l
0.2597 0.6164 l
0.2621 0.6164 l
0.2645 0.6164 l
0.2669 0.6164 l
0.2692 0.6164 l
0.2716 0.6164 l
0.2740 0.6164 l
0.2764 0.6175 l
0.2788 0.6177 l
0.2812 0.6178 l
0.2836 0.6178 l
0.2860 0.6178 l
0.2884 0.6178 l
0.2908 0.6178 l
0.2932 0.6188 l
0.2956 0.6191 l
0.2980 0.6192 l
0.3004 0.6192 l
0.3028 0.6192 l
0.3052 0.6192 l
0.3076 0.6192 l
0.3099 0.6204 l
0.3123 0.6206 l
0.3147 0.6206 l
0.3171 0.6206 l
0.3195 0.6206 l
0.3219 0.6217 l
0.3243 0.6219 l
0.3267 0.6220 l
0.3291 0.6220 l
0.3315 0.6220 l
0.3339 0.6230 l
0.3363 0.6233 l
0.3387 0.6234 l
0.3411 0.6234 l
0.3435 0.6234 l
0.3459 0.6246 l
0.3483 0.6248 l
0.3506 0.6248 l
0.3530 0.6248 l
0.3554 0.6258 l
0.3578 0.6262 l
0.3602 0.6262 l
0.3626 0.6262 l
0.3650 0.6262 l
0.3674 0.6275 l
0.3698 0.6276 l
0.3722 0.6276 l
0.3746 0.6286 l
0.3770 0.6290 l
0.3794 0.6290 l
0.3818 0.6290 l
0.3842 0.6302 l
0.3866 0.6304 l
0.3889 0.6304 l
0.3913 0.6304 l
0.3937 0.6317 l
0.3961 0.6318 l
0.3985 0.6318 l
0.4009 0.6330 l
0.4033 0.6332 l
0.4057 0.6332 l
0.4081 0.6343 l
0.4105 0.6346 l
0.4129 0.6346 l
0.4153 0.6356 l
0.4177 0.6360 l
0.4201 0.6360 l
0.4225 0.6360 l
0.4249 0.6374 l
0.4273 0.6374 l
0.4296 0.6374 l
0.4320 0.6388 l
0.4344 0.6388 l
0.4368 0.6399 l
0.4392 0.6402 l
0.4416 0.6402 l
0.4440 0.6413 l
0.4464 0.6416 l
0.4488 0.6416 l
0.4512 0.6429 l
0.4536 0.6430 l
0.4560 0.6430 l
0.4584 0.6444 l
0.4608 0.6444 l
0.4632 0.6455 l
0.4656 0.6458 l
0.4680 0.6458 l
0.4703 0.6472 l
0.4727 0.6472 l
0.4751 0.6483 l
0.4775 0.6486 l
0.4799 0.6486 l
0.4823 0.6499 l
0.4847 0.6499 l
0.4871 0.6512 l
0.4895 0.6513 l
0.4919 0.6513 l
0.4943 0.6527 l
0.4967 0.6527 l
0.4991 0.6541 l
0.5015 0.6541 l
0.5039 0.6554 l
0.5063 0.6555 l
0.5086 0.6567 l
0.5110 0.6569 l
0.5134 0.6569 l
0.5158 0.6583 l
0.5182 0.6583 l
0.5206 0.6597 l
0.5230 0.6597 l
0.5254 0.6611 l
0.5278 0.6611 l
0.5302 0.6625 l
0.5326 0.6625 l
0.5350 0.6639 l
0.5374 0.6639 l
0.5398 0.6652 l
0.5422 0.6653 l
0.5446 0.6666 l
0.5470 0.6667 l
0.5493 0.6680 l
0.5517 0.6681 l
0.5541 0.6694 l
0.5565 0.6695 l
0.5589 0.6708 l
0.5613 0.6709 l
0.5637 0.6723 l
0.5661 0.6723 l
0.5685 0.6737 l
0.5709 0.6737 l
0.5733 0.6751 l
0.5757 0.6751 l
0.5781 0.6765 l
0.5805 0.6765 l
0.5829 0.6779 l
0.5853 0.6790 l
0.5877 0.6793 l
0.5900 0.6806 l
0.5924 0.6807 l
0.5948 0.6821 l
0.5972 0.6821 l
0.5996 0.6835 l
0.6020 0.6835 l
0.6044 0.6849 l
0.6068 0.6861 l
0.6092 0.6863 l
0.6116 0.6877 l
0.6140 0.6877 l
0.6164 0.6891 l
0.6188 0.6902 l
0.6212 0.6905 l
0.6236 0.6919 l
0.6260 0.6919 l
0.6283 0.6933 l
0.6307 0.6944 l
0.6331 0.6947 l
0.6355 0.6961 l
0.6379 0.6961 l
0.6403 0.6975 l
0.6427 0.6987 l
0.6451 0.6989 l
0.6475 0.7003 l
0.6499 0.7003 l
0.6523 0.7017 l
0.6547 0.7031 l
0.6571 0.7031 l
0.6595 0.7045 l
0.6619 0.7058 l
0.6643 0.7059 l
0.6667 0.7073 l
0.6690 0.7085 l
0.6714 0.7087 l
0.6738 0.7101 l
0.6762 0.7113 l
0.6786 0.7115 l
0.6810 0.7129 l
0.6834 0.7141 l
0.6858 0.7143 l
0.6882 0.7157 l
0.6906 0.7169 l
0.6930 0.7171 l
0.6954 0.7185 l
0.6978 0.7198 l
0.7002 0.7199 l
0.7026 0.7213 l
0.7050 0.7227 l
0.7074 0.7227 l
0.7097 0.7241 l
0.7121 0.7255 l
0.7145 0.7267 l
0.7169 0.7269 l
0.7193 0.7283 l
0.7217 0.7297 l
0.7241 0.7297 l
0.7265 0.7311 l
0.7289 0.7325 l
0.7313 0.7337 l
0.7337 0.7339 l
0.7361 0.7353 l
0.7385 0.7367 l
0.7409 0.7378 l
0.7433 0.7381 l
0.7457 0.7395 l
0.7480 0.7409 l
0.7504 0.7420 l
0.7528 0.7423 l
0.7552 0.7437 l
0.7576 0.7451 l
0.7600 0.7462 l
0.7624 0.7465 l
0.7648 0.7479 l
0.7672 0.7493 l
0.7696 0.7505 l
0.7720 0.7507 l
0.7744 0.7521 l
0.7768 0.7535 l
0.7792 0.7549 l
0.7816 0.7560 l
0.7840 0.7563 l
0.7864 0.7577 l
0.7887 0.7591 l
0.7911 0.7604 l
0.7935 0.7605 l
0.7959 0.7619 l
0.7983 0.7633 l
0.8007 0.7647 l
0.8031 0.7661 l
0.8055 0.7672 l
0.8079 0.7675 l
0.8103 0.7689 l
0.8127 0.7703 l
0.8151 0.7717 l
0.8175 0.7729 l
0.8199 0.7731 l
0.8223 0.7744 l
0.8247 0.7758 l
0.8271 0.7772 l
0.8294 0.7786 l
0.8318 0.7800 l
0.8342 0.7812 l
0.8366 0.7814 l
0.8390 0.7828 l
0.8414 0.7842 l
0.8438 0.7856 l
0.8462 0.7870 l
0.8486 0.7884 l
0.8510 0.7896 l
0.8534 0.7898 l
0.8558 0.7912 l
0.8582 0.7926 l
0.8606 0.7940 l
0.8630 0.7954 l
0.8654 0.7968 l
0.8677 0.7982 l
0.8701 0.7994 l
0.8725 0.7996 l
0.8749 0.8010 l
0.8773 0.8024 l
0.8797 0.8038 l
0.8821 0.8052 l
0.8845 0.8066 l
0.8869 0.8080 l
0.8893 0.8094 l
0.8917 0.8108 l
0.8941 0.8121 l
0.8965 0.8134 l
0.8989 0.8136 l
0.9013 0.8150 l
0.9037 0.8164 l
0.9061 0.8178 l
0.9084 0.8192 l
0.9108 0.8206 l
0.9132 0.8220 l
0.9156 0.8234 l
0.9180 0.8248 l
0.9204 0.8262 l
0.9228 0.8276 l
0.9252 0.8290 l
0.9276 0.8304 l
0.9300 0.8318 l
0.9324 0.8332 l
0.9348 0.8346 l
0.9372 0.8359 l
0.9396 0.8373 l
0.9420 0.8387 l
0.9444 0.8400 l
0.9467 0.8414 l
0.9491 0.8428 l
0.9515 0.8442 l
0.9539 0.8456 l
0.9563 0.8470 l
0.9587 0.8484 l
0.9611 0.8498 l
s
[/DeviceRGB] SCS
Color8 SC
[0.0060 0.0180 0.0300 0.0180 ] 0 SD
0.0060 SLW
n
0.6834 0.8472 m
0.6858 0.8318 l
0.6882 0.8164 l
0.6906 0.8010 l
0.6930 0.7856 l
0.6954 0.7717 l
0.6978 0.7563 l
0.7002 0.7423 l
0.7026 0.7283 l
0.7050 0.7143 l
0.7074 0.7017 l
0.7097 0.6877 l
0.7121 0.6751 l
0.7145 0.6625 l
0.7169 0.6499 l
0.7193 0.6374 l
0.7217 0.6262 l
0.7241 0.6150 l
0.7265 0.6038 l
0.7289 0.5926 l
0.7313 0.5814 l
0.7337 0.5702 l
0.7361 0.5604 l
0.7385 0.5506 l
0.7409 0.5408 l
0.7433 0.5310 l
0.7457 0.5227 l
0.7480 0.5143 l
0.7504 0.5059 l
0.7528 0.4975 l
0.7552 0.4891 l
0.7576 0.4821 l
0.7600 0.4751 l
0.7624 0.4681 l
0.7648 0.4625 l
0.7672 0.4555 l
0.7696 0.4499 l
0.7720 0.4443 l
0.7744 0.4401 l
0.7768 0.4345 l
0.7792 0.4303 l
0.7816 0.4261 l
0.7840 0.4219 l
0.7864 0.4191 l
0.7887 0.4149 l
0.7911 0.4121 l
0.7935 0.4093 l
0.7959 0.4065 l
0.7983 0.4037 l
0.8007 0.4023 l
0.8031 0.3996 l
0.8055 0.3982 l
0.8079 0.3968 l
0.8103 0.3954 l
0.8127 0.3940 l
0.8151 0.3926 l
0.8175 0.3926 l
0.8199 0.3912 l
0.8223 0.3912 l
0.8247 0.3898 l
0.8271 0.3898 l
0.8294 0.3898 l
0.8318 0.3898 l
0.8342 0.3898 l
0.8366 0.3898 l
0.8390 0.3912 l
0.8414 0.3912 l
0.8438 0.3926 l
0.8462 0.3926 l
0.8486 0.3940 l
s
[/DeviceRGB] SCS
Color10 SC
[0.0300 0.0180 ] 0 SD
0.0060 SLW
n
0.1926 0.6136 m
0.1950 0.6136 l
0.1974 0.6136 l
0.1998 0.6136 l
0.2022 0.6136 l
0.2046 0.6136 l
0.2070 0.6136 l
0.2094 0.6136 l
0.2118 0.6146 l
0.2142 0.6147 l
0.2166 0.6147 l
0.2190 0.6147 l
0.2214 0.6148 l
0.2238 0.6148 l
0.2262 0.6148 l
0.2286 0.6149 l
0.2309 0.6149 l
0.2333 0.6150 l
0.2357 0.6150 l
0.2381 0.6150 l
0.2405 0.6150 l
0.2429 0.6150 l
0.2453 0.6150 l
0.2477 0.6150 l
0.2501 0.6150 l
0.2525 0.6150 l
0.2549 0.6150 l
0.2573 0.6150 l
0.2597 0.6150 l
0.2621 0.6150 l
0.2645 0.6150 l
0.2669 0.6161 l
0.2692 0.6162 l
0.2716 0.6163 l
0.2740 0.6164 l
0.2764 0.6164 l
0.2788 0.6164 l
0.2812 0.6164 l
0.2836 0.6164 l
0.2860 0.6164 l
0.2884 0.6164 l
0.2908 0.6164 l
0.2932 0.6174 l
0.2956 0.6176 l
0.2980 0.6177 l
0.3004 0.6178 l
0.3028 0.6178 l
0.3052 0.6178 l
0.3076 0.6178 l
0.3099 0.6178 l
0.3123 0.6178 l
0.3147 0.6178 l
0.3171 0.6190 l
0.3195 0.6192 l
0.3219 0.6192 l
0.3243 0.6192 l
0.3267 0.6192 l
0.3291 0.6192 l
0.3315 0.6192 l
0.3339 0.6203 l
0.3363 0.6205 l
0.3387 0.6206 l
0.3411 0.6206 l
0.3435 0.6206 l
0.3459 0.6206 l
0.3483 0.6206 l
0.3506 0.6217 l
0.3530 0.6220 l
0.3554 0.6220 l
0.3578 0.6220 l
0.3602 0.6220 l
0.3626 0.6220 l
0.3650 0.6231 l
0.3674 0.6233 l
0.3698 0.6234 l
0.3722 0.6234 l
0.3746 0.6234 l
0.3770 0.6234 l
0.3794 0.6246 l
0.3818 0.6248 l
0.3842 0.6248 l
0.3866 0.6248 l
0.3889 0.6248 l
0.3913 0.6260 l
0.3937 0.6262 l
0.3961 0.6262 l
0.3985 0.6262 l
0.4009 0.6262 l
0.4033 0.6274 l
0.4057 0.6276 l
0.4081 0.6276 l
0.4105 0.6276 l
0.4129 0.6287 l
0.4153 0.6290 l
0.4177 0.6290 l
0.4201 0.6290 l
0.4225 0.6290 l
0.4249 0.6303 l
0.4273 0.6304 l
0.4296 0.6304 l
0.4320 0.6304 l
0.4344 0.6316 l
0.4368 0.6318 l
0.4392 0.6318 l
0.4416 0.6318 l
0.4440 0.6331 l
0.4464 0.6332 l
0.4488 0.6332 l
0.4512 0.6332 l
0.4536 0.6345 l
0.4560 0.6346 l
0.4584 0.6346 l
0.4608 0.6357 l
0.4632 0.6360 l
0.4656 0.6360 l
0.4680 0.6360 l
0.4703 0.6373 l
0.4727 0.6374 l
0.4751 0.6374 l
0.4775 0.6385 l
0.4799 0.6388 l
0.4823 0.6388 l
0.4847 0.6388 l
0.4871 0.6402 l
0.4895 0.6402 l
0.4919 0.6402 l
0.4943 0.6415 l
0.4967 0.6416 l
0.4991 0.6416 l
0.5015 0.6428 l
0.5039 0.6430 l
0.5063 0.6430 l
0.5086 0.6442 l
0.5110 0.6444 l
0.5134 0.6444 l
0.5158 0.6456 l
0.5182 0.6458 l
0.5206 0.6458 l
0.5230 0.6471 l
0.5254 0.6472 l
0.5278 0.6472 l
0.5302 0.6486 l
0.5326 0.6486 l
0.5350 0.6486 l
0.5374 0.6499 l
0.5398 0.6499 l
0.5422 0.6512 l
0.5446 0.6513 l
0.5470 0.6513 l
0.5493 0.6527 l
0.5517 0.6527 l
0.5541 0.6538 l
0.5565 0.6541 l
0.5589 0.6541 l
0.5613 0.6555 l
0.5637 0.6555 l
0.5661 0.6555 l
0.5685 0.6569 l
0.5709 0.6569 l
0.5733 0.6583 l
0.5757 0.6583 l
0.5781 0.6595 l
0.5805 0.6597 l
0.5829 0.6597 l
0.5853 0.6611 l
0.5877 0.6611 l
0.5900 0.6625 l
0.5924 0.6625 l
0.5948 0.6637 l
0.5972 0.6639 l
0.5996 0.6639 l
0.6020 0.6653 l
0.6044 0.6653 l
0.6068 0.6667 l
0.6092 0.6667 l
0.6116 0.6681 l
0.6140 0.6681 l
0.6164 0.6694 l
0.6188 0.6695 l
0.6212 0.6707 l
0.6236 0.6709 l
0.6260 0.6720 l
0.6283 0.6723 l
0.6307 0.6723 l
0.6331 0.6737 l
0.6355 0.6737 l
0.6379 0.6751 l
0.6403 0.6751 l
0.6427 0.6765 l
0.6451 0.6765 l
0.6475 0.6779 l
0.6499 0.6779 l
0.6523 0.6793 l
0.6547 0.6804 l
0.6571 0.6807 l
0.6595 0.6819 l
0.6619 0.6821 l
0.6643 0.6833 l
0.6667 0.6835 l
0.6690 0.6849 l
0.6714 0.6849 l
0.6738 0.6863 l
0.6762 0.6863 l
0.6786 0.6877 l
0.6810 0.6877 l
0.6834 0.6891 l
0.6858 0.6902 l
0.6882 0.6905 l
0.6906 0.6918 l
0.6930 0.6919 l
0.6954 0.6933 l
0.6978 0.6933 l
0.7002 0.6947 l
0.7026 0.6958 l
0.7050 0.6961 l
0.7074 0.6975 l
0.7097 0.6975 l
0.7121 0.6989 l
0.7145 0.6989 l
0.7169 0.7003 l
0.7193 0.7017 l
0.7217 0.7017 l
0.7241 0.7031 l
0.7265 0.7042 l
0.7289 0.7045 l
0.7313 0.7059 l
0.7337 0.7059 l
0.7361 0.7073 l
0.7385 0.7086 l
0.7409 0.7087 l
0.7433 0.7101 l
0.7457 0.7113 l
0.7480 0.7115 l
0.7504 0.7129 l
0.7528 0.7140 l
0.7552 0.7143 l
0.7576 0.7157 l
0.7600 0.7157 l
0.7624 0.7171 l
0.7648 0.7185 l
0.7672 0.7185 l
0.7696 0.7199 l
0.7720 0.7213 l
0.7744 0.7225 l
0.7768 0.7227 l
0.7792 0.7241 l
0.7816 0.7253 l
0.7840 0.7255 l
0.7864 0.7269 l
0.7887 0.7283 l
0.7911 0.7283 l
0.7935 0.7297 l
0.7959 0.7311 l
0.7983 0.7323 l
0.8007 0.7325 l
0.8031 0.7339 l
0.8055 0.7353 l
0.8079 0.7353 l
0.8103 0.7367 l
0.8127 0.7381 l
0.8151 0.7395 l
0.8175 0.7395 l
0.8199 0.7409 l
0.8223 0.7423 l
0.8247 0.7437 l
0.8271 0.7437 l
0.8294 0.7451 l
0.8318 0.7465 l
0.8342 0.7479 l
0.8366 0.7491 l
0.8390 0.7493 l
0.8414 0.7507 l
0.8438 0.7521 l
0.8462 0.7534 l
0.8486 0.7535 l
0.8510 0.7549 l
0.8534 0.7563 l
0.8558 0.7577 l
0.8582 0.7591 l
0.8606 0.7602 l
0.8630 0.7605 l
0.8654 0.7619 l
0.8677 0.7633 l
0.8701 0.7647 l
0.8725 0.7659 l
0.8749 0.7661 l
0.8773 0.7675 l
0.8797 0.7689 l
0.8821 0.7703 l
0.8845 0.7717 l
0.8869 0.7731 l
0.8893 0.7743 l
0.8917 0.7744 l
0.8941 0.7758 l
0.8965 0.7772 l
0.8989 0.7786 l
0.9013 0.7800 l
0.9037 0.7814 l
0.9061 0.7828 l
0.9084 0.7840 l
0.9108 0.7842 l
0.9132 0.7856 l
0.9156 0.7870 l
0.9180 0.7884 l
0.9204 0.7898 l
0.9228 0.7912 l
0.9252 0.7926 l
0.9276 0.7940 l
0.9300 0.7954 l
0.9324 0.7968 l
0.9348 0.7981 l
0.9372 0.7994 l
0.9396 0.7996 l
0.9420 0.8010 l
0.9444 0.8024 l
0.9467 0.8038 l
0.9491 0.8052 l
0.9515 0.8066 l
0.9539 0.8080 l
0.9563 0.8094 l
0.9587 0.8108 l
0.9611 0.8122 l
0.9635 0.8136 l
0.9659 0.8150 l
0.9683 0.8164 l
0.9707 0.8178 l
0.9731 0.8192 l
0.9755 0.8206 l
0.9779 0.8220 l
0.9803 0.8234 l
0.9827 0.8248 l
0.9851 0.8262 l
0.9874 0.8276 l
0.9898 0.8290 l
0.9922 0.8304 l
0.9946 0.8318 l
0.9970 0.8332 l
0.9994 0.8346 l
1.0018 0.8360 l
1.0042 0.8374 l
1.0066 0.8400 l
1.0090 0.8415 l
1.0114 0.8430 l
1.0138 0.8444 l
1.0162 0.8458 l
1.0186 0.8472 l
1.0210 0.8486 l
s
[/DeviceRGB] SCS
Color1 SC
[] 0 SD
0.0045 SLW
n
0.1924 0.1520 m
1.1500 0.1520 l
s
n
0.1924 0.8500 m
1.1500 0.8500 l
s
n
0.3121 0.1520 m
0.3121 0.1620 l
s
n
0.3121 0.8500 m
0.3121 0.8400 l
s
n
0.5515 0.1520 m
0.5515 0.1620 l
s
n
0.5515 0.8500 m
0.5515 0.8400 l
s
n
0.7909 0.1520 m
0.7909 0.1620 l
s
n
0.7909 0.8500 m
0.7909 0.8400 l
s
n
1.0303 0.1520 m
1.0303 0.1620 l
s
n
1.0303 0.8500 m
1.0303 0.8400 l
s
n
0.1924 0.1520 m
0.1924 0.1720 l
s
n
0.1924 0.8500 m
0.1924 0.8300 l
s
n
0.4318 0.1520 m
0.4318 0.1720 l
s
n
0.4318 0.8500 m
0.4318 0.8300 l
s
n
0.6712 0.1520 m
0.6712 0.1720 l
s
n
0.6712 0.8500 m
0.6712 0.8300 l
s
n
0.9106 0.1520 m
0.9106 0.1720 l
s
n
0.9106 0.8500 m
0.9106 0.8300 l
s
n
1.1500 0.1520 m
1.1500 0.1720 l
s
n
1.1500 0.8500 m
1.1500 0.8300 l
s
/Times-Roman findfont
dup length dict begin
 {1 index /FID ne {def} {pop pop} ifelse} forall
 /Encoding DefEncoding def
 currentdict
end
/Font0 exch definefont pop
/Font0 FFSF
0.1793 0.1043 m
GS
[0.0554 0.0000 0.0000 0.0554 0 0] CC
(0) show
GR
/Font0 FFSF
0.4208 0.1043 m
GS
[0.0554 0.0000 0.0000 0.0554 0 0] CC
(1) show
GR
/Font0 FFSF
0.6581 0.1043 m
GS
[0.0554 0.0000 0.0000 0.0554 0 0] CC
(2) show
GR
/Font0 FFSF
0.8986 0.1043 m
GS
[0.0554 0.0000 0.0000 0.0554 0 0] CC
(3) show
GR
/Font0 FFSF
1.1369 0.1043 m
GS
[0.0554 0.0000 0.0000 0.0554 0 0] CC
(4) show
GR
/Font0 FFSF
0.5843 0.0316 m
GS
[0.0574 0.0000 0.0000 0.0574 0 0] CC
(q [fm) show
GR
/Font0 FFSF
0.7102 0.0661 m
GS
[0.0406 0.0000 0.0000 0.0406 0 0] CC
(-1) show
GR
/Font0 FFSF
0.7439 0.0316 m
GS
[0.0574 0.0000 0.0000 0.0574 0 0] CC
(]) show
GR
n
0.1924 0.1520 m
0.1924 0.8500 l
s
n
1.1500 0.1520 m
1.1500 0.8500 l
s
n
0.1924 0.2205 m
0.2024 0.2205 l
s
n
1.1500 0.2205 m
1.1400 0.2205 l
s
n
0.1924 0.3604 m
0.2024 0.3604 l
s
n
1.1500 0.3604 m
1.1400 0.3604 l
s
n
0.1924 0.5003 m
0.2024 0.5003 l
s
n
1.1500 0.5003 m
1.1400 0.5003 l
s
n
0.1924 0.6402 m
0.2024 0.6402 l
s
n
1.1500 0.6402 m
1.1400 0.6402 l
s
n
0.1924 0.7801 m
0.2024 0.7801 l
s
n
1.1500 0.7801 m
1.1400 0.7801 l
s
n
0.1924 0.2904 m
0.2124 0.2904 l
s
n
1.1500 0.2904 m
1.1300 0.2904 l
s
n
0.1924 0.4303 m
0.2124 0.4303 l
s
n
1.1500 0.4303 m
1.1300 0.4303 l
s
n
0.1924 0.5702 m
0.2124 0.5702 l
s
n
1.1500 0.5702 m
1.1300 0.5702 l
s
n
0.1924 0.7101 m
0.2124 0.7101 l
s
n
1.1500 0.7101 m
1.1300 0.7101 l
s
n
0.1924 0.8500 m
0.2124 0.8500 l
s
n
1.1500 0.8500 m
1.1300 0.8500 l
s
/Font0 FFSF
0.1173 0.2716 m
GS
[0.0571 0.0000 0.0000 0.0571 0 0] CC
(0.1) show
GR
/Font0 FFSF
0.1126 0.4115 m
GS
[0.0571 0.0000 0.0000 0.0571 0 0] CC
(0.2) show
GR
/Font0 FFSF
0.1150 0.5514 m
GS
[0.0571 0.0000 0.0000 0.0571 0 0] CC
(0.3) show
GR
/Font0 FFSF
0.1126 0.6913 m
GS
[0.0571 0.0000 0.0000 0.0571 0 0] CC
(0.4) show
GR
/Font0 FFSF
0.1146 0.8308 m
GS
[0.0571 0.0000 0.0000 0.0571 0 0] CC
(0.5) show
GR
/Symbol findfont
/Font12 exch definefont pop
/Font12 FFSF
0.0719 0.3825 m
GS
[0.0000 0.0552 -0.0552 0.0000 0 0] CC
(r) show
GR
/Font0 FFSF
0.0940 0.4127 m
GS
[0.0000 0.0390 -0.0390 0.0000 0 0] CC
(pole) show
GR
/Font0 FFSF
0.0719 0.4798 m
GS
[0.0000 0.0552 -0.0552 0.0000 0 0] CC
( [fm) show
GR
/Font0 FFSF
0.0388 0.5731 m
GS
[0.0000 0.0390 -0.0390 0.0000 0 0] CC
(-3) show
GR
/Font0 FFSF
0.0719 0.6057 m
GS
[0.0000 0.0552 -0.0552 0.0000 0 0] CC
(]) show
GR
[] 0 SD
0.0015 SLW
n
0.1924 0.1520 m
0.1924 0.8500 l
1.1500 0.8500 l
1.1500 0.1520 l
0.1924 0.1520 l
c
s
[0.0075 0.0225 0.0375 0.0225 0.0075 0.0225 ] 0 SD
0.0075 SLW
n
0.1924 0.3744 m
1.1500 0.3744 l
s
[/DeviceRGB] SCS
Color2 SC
[0.0075 0.0225 ] 0 SD
0.0075 SLW
n
0.1924 0.4639 m
1.1500 0.4639 l
s
n
0.2000 0.6000 m
0.2000 0.3182 l
0.6006 0.3182 l
0.6006 0.6000 l
c
[/DeviceRGB] SCS
Color0 SC
fill
/Font0 FFSF
[/DeviceRGB] SCS
Color1 SC
0.3130 0.5555 m
GS
[0.0510 0.0000 0.0000 0.0510 0 0] CC
(S=0 M=0 I=0) show
GR
[/DeviceRGB] SCS
Color2 SC
[] 0 SD
0.0060 SLW
n
0.2130 0.5724 m
0.2930 0.5724 l
s
/Font0 FFSF
[/DeviceRGB] SCS
Color1 SC
0.3130 0.5102 m
GS
[0.0510 0.0000 0.0000 0.0510 0 0] CC
(S=0 M=0 I=1) show
GR
[/DeviceRGB] SCS
Color3 SC
n
0.2130 0.5271 m
0.2930 0.5271 l
s
/Font0 FFSF
[/DeviceRGB] SCS
Color1 SC
0.3130 0.4649 m
GS
[0.0510 0.0000 0.0000 0.0510 0 0] CC
(S=1 M=0 I=0) show
GR
[/DeviceRGB] SCS
Color4 SC
[0.0060 0.0180 0.0300 0.0180 ] 0 SD
0.0060 SLW
n
0.2130 0.4818 m
0.2930 0.4818 l
s
/Font0 FFSF
[/DeviceRGB] SCS
Color1 SC
0.3130 0.4196 m
GS
[0.0510 0.0000 0.0000 0.0510 0 0] CC
(S=1 M=0 I=1) show
GR
[/DeviceRGB] SCS
Color11 SC
[0.0300 0.0180 ] 0 SD
0.0060 SLW
n
0.2130 0.4365 m
0.2930 0.4365 l
s
/Font0 FFSF
[/DeviceRGB] SCS
Color1 SC
0.3130 0.3743 m
GS
[0.0510 0.0000 0.0000 0.0510 0 0] CC
(S=1 M=1 I=0) show
GR
[/DeviceRGB] SCS
Color8 SC
[0.0060 0.0180 0.0300 0.0180 ] 0 SD
0.0060 SLW
n
0.2130 0.3912 m
0.2930 0.3912 l
s
/Font0 FFSF
[/DeviceRGB] SCS
Color1 SC
0.3130 0.3290 m
GS
[0.0510 0.0000 0.0000 0.0510 0 0] CC
(S=1 M=1 I=1) show
GR
[/DeviceRGB] SCS
Color10 SC
[0.0300 0.0180 ] 0 SD
0.0060 SLW
n
0.2130 0.3459 m
0.2930 0.3459 l
s
/Font0 FFSF
[/DeviceRGB] SCS
Color1 SC
0.8500 0.2500 m
GS
[0.0848 0.0000 0.0000 0.0848 0 0] CC
(SLy5) show
GR
showpage
%%PageTrailer
%%Trailer
%%DocumentNeededResources: font Times-Roman
%%+ font Symbol
%%EOF
