%!PS-Adobe-3.0
%%BoundingBox: 0 0 612 792
%%LanguageLevel: 2
%%Creator: Grace-5.1.22
%%CreationDate: Mon Oct 29 09:59:52 2012
%%DocumentData: Clean8Bit
%%Orientation: Landscape
%%Pages: 1
%%PageOrder: Ascend
%%Title: /Users/alessandropastore/Fisica/Testi/Articoli/kazimierz/plots/Critical_SLy5new.agr
%%For: alessandropastore
%%DocumentNeededResources: (atend)
%%EndComments
%%BeginProlog
/PAGE_OFFSET_X 0 def
/PAGE_OFFSET_Y 0 def
/m {moveto} def
/l {lineto} def
/s {stroke} def
/n {newpath} def
/c {closepath} def
/RL {rlineto} def
/SLW {setlinewidth} def
/GS {gsave} def
/GR {grestore} def
/SC {setcolor} def
/SGRY {setgray} def
/SRGB {setrgbcolor} def
/SD {setdash} def
/SLC {setlinecap} def
/SLJ {setlinejoin} def
/SCS {setcolorspace} def
/FFSF {findfont setfont} def
/CC {concat} def
/PXL {n m 0 0 RL s} def
/Color0 {1.0000 1.0000 1.0000} def
/Color1 {0.0000 0.0000 0.0000} def
/Color2 {1.0000 0.0000 0.0000} def
/Color3 {0.0000 1.0000 0.0000} def
/Color4 {0.0000 0.0000 1.0000} def
/Color5 {1.0000 1.0000 0.0000} def
/Color6 {0.7373 0.5608 0.5608} def
/Color7 {0.8627 0.8627 0.8627} def
/Color8 {0.5804 0.0000 0.8275} def
/Color9 {0.0000 1.0000 1.0000} def
/Color10 {1.0000 0.0000 1.0000} def
/Color11 {1.0000 0.6471 0.0000} def
/Color12 {0.4471 0.1294 0.7373} def
/Color13 {0.4039 0.0275 0.2824} def
/Color14 {0.2510 0.8784 0.8157} def
/Color15 {0.0000 0.5451 0.0000} def
/Color16 {0.7529 0.7529 0.7529} def
/Color17 {0.5059 0.5059 0.5059} def
/Color18 {0.2588 0.2588 0.2588} def
/PTRN {
 /pat_bits exch def 
 <<
  /PaintType 2
  /PatternType 1 /TilingType 1
  /BBox[0 0 16 16]
  /XStep 16 /YStep 16
  /PaintProc {
   pop
   16 16 true [-1 0 0 -1 16 16] pat_bits imagemask
  }
 >>
 [0.0016 0 0 0.0016 0 0]
 makepattern
} def
/Pattern0 {<0000000000000000000000000000000000000000000000000000000000000000> PTRN} bind def
/Pattern1 {<ffffffffffffffffffffffffffffffffffffffffffffffffffffffffffffffff> PTRN} bind def
/Pattern2 {<eeeeffffbbbbffffeeeeffffbbbbffffeeeeffffbbbbffffeeeeffffbbbbffff> PTRN} bind def
/Pattern3 {<eeeebbbbeeeebbbbeeeebbbbeeeebbbbeeeebbbbeeeebbbbeeeebbbbeeeebbbb> PTRN} bind def
/Pattern4 {<5555aaaa5555aaaa5555aaaa5555aaaa5555aaaa5555aaaa5555aaaa5555aaaa> PTRN} bind def
/Pattern5 {<1111444411114444111144441111444411114444111144441111444411114444> PTRN} bind def
/Pattern6 {<1111000044440000111100004444000011110000444400001111000044440000> PTRN} bind def
/Pattern7 {<1010000000000000010100000000000010100000000000000101000000000000> PTRN} bind def
/Pattern8 {<0000000000000000000000000000000000000000000000000000000000000000> PTRN} bind def
/Pattern9 {<1e1e0f0f8787c3c3e1e1f0f078783c3c1e1e0f0f8787c3c3e1e1f0f078783c3c> PTRN} bind def
/Pattern10 {<7878f0f0e1e1c3c387870f0f1e1e3c3c7878f0f0e1e1c3c387870f0f1e1e3c3c> PTRN} bind def
/Pattern11 {<3333333333333333333333333333333333333333333333333333333333333333> PTRN} bind def
/Pattern12 {<ffffffff00000000ffffffff00000000ffffffff00000000ffffffff00000000> PTRN} bind def
/Pattern13 {<8181424224241818181824244242818181814242242418181818242442428181> PTRN} bind def
/Pattern14 {<8080404020201010080804040202010180804040202010100808040402020101> PTRN} bind def
/Pattern15 {<0101020204040808101020204040808001010202040408081010202040408080> PTRN} bind def
/Pattern16 {<2222222222222222222222222222222222222222222222222222222222222222> PTRN} bind def
/Pattern17 {<0000ffff000000000000ffff000000000000ffff000000000000ffff00000000> PTRN} bind def
/Pattern18 {<2222ffff222222222222ffff222222222222ffff222222222222ffff22222222> PTRN} bind def
/Pattern19 {<ffffffff33333333ffffffff33333333ffffffff33333333ffffffff33333333> PTRN} bind def
/Pattern20 {<0f0f0f0f0f0f0f0ff0f0f0f0f0f0f0f00f0f0f0f0f0f0f0ff0f0f0f0f0f0f0f0> PTRN} bind def
/Pattern21 {<ff00ff00ff00ff00ff00ff00ff00ff0000ff00ff00ff00ff00ff00ff00ff00ff> PTRN} bind def
/Pattern22 {<8001800180018001800180018001ffffffff8001800180018001800180018001> PTRN} bind def
/Pattern23 {<c003c003c003c003c003c003ffffffffffffffffc003c003c003c003c003c003> PTRN} bind def
/Pattern24 {<040404040404ffff404040404040ffff040404040404ffff404040404040ffff> PTRN} bind def
/Pattern25 {<180018001800180018001800ffffffff001800180018001800180018ffffffff> PTRN} bind def
/Pattern26 {<1111b8b87c7c3a3a1111a3a3c7c78b8b1111b8b87c7c3a3a1111a3a3c7c78b8b> PTRN} bind def
/Pattern27 {<101010102828c7c70101010182827c7c101010102828c7c70101010182827c7c> PTRN} bind def
/Pattern28 {<1c1c121211112121c1c12121111112121c1c121211112121c1c1212111111212> PTRN} bind def
/Pattern29 {<3e3e414180808080e3e31414080808083e3e414180808080e3e3141408080808> PTRN} bind def
/Pattern30 {<4848888884848383848488884848383848488888848483838484888848483838> PTRN} bind def
/Pattern31 {<03030404080808080c0c12122121c0c003030404080808080c0c12122121c0c0> PTRN} bind def
/ellipsedict 8 dict def
ellipsedict /mtrx matrix put
/EARC {
 ellipsedict begin
  /endangle exch def
  /startangle exch def
  /yrad exch def
  /xrad exch def
  /y exch def
  /x exch def
  /savematrix mtrx currentmatrix def
  x y translate
  xrad yrad scale
  0 0 1 startangle endangle arc
  savematrix setmatrix
 end
} def
/TL {
  /kcomp exch def
  /linewidth exch def
  /offset exch def
  GS
  0 offset rmoveto
  linewidth SLW
  dup stringwidth exch kcomp add exch RL s
  GR
} def
/KINIT
{
 /kvector exch def
 /kid 0 def
} def
/KPROC
{
 pop pop
 kvector kid get
 0 rmoveto
 /kid 1 kid add def
} def
/DefEncoding [
 /.notdef
 /.notdef
 /.notdef
 /.notdef
 /.notdef
 /.notdef
 /.notdef
 /.notdef
 /.notdef
 /.notdef
 /.notdef
 /.notdef
 /.notdef
 /.notdef
 /.notdef
 /.notdef
 /.notdef
 /.notdef
 /.notdef
 /.notdef
 /.notdef
 /.notdef
 /.notdef
 /.notdef
 /.notdef
 /.notdef
 /.notdef
 /.notdef
 /.notdef
 /.notdef
 /.notdef
 /.notdef
 /space
 /exclam
 /quotedbl
 /numbersign
 /dollar
 /percent
 /ampersand
 /quoteright
 /parenleft
 /parenright
 /asterisk
 /plus
 /comma
 /hyphen
 /period
 /slash
 /zero
 /one
 /two
 /three
 /four
 /five
 /six
 /seven
 /eight
 /nine
 /colon
 /semicolon
 /less
 /equal
 /greater
 /question
 /at
 /A
 /B
 /C
 /D
 /E
 /F
 /G
 /H
 /I
 /J
 /K
 /L
 /M
 /N
 /O
 /P
 /Q
 /R
 /S
 /T
 /U
 /V
 /W
 /X
 /Y
 /Z
 /bracketleft
 /backslash
 /bracketright
 /asciicircum
 /underscore
 /grave
 /a
 /b
 /c
 /d
 /e
 /f
 /g
 /h
 /i
 /j
 /k
 /l
 /m
 /n
 /o
 /p
 /q
 /r
 /s
 /t
 /u
 /v
 /w
 /x
 /y
 /z
 /braceleft
 /bar
 /braceright
 /asciitilde
 /.notdef
 /.notdef
 /.notdef
 /.notdef
 /.notdef
 /.notdef
 /.notdef
 /.notdef
 /.notdef
 /.notdef
 /.notdef
 /.notdef
 /.notdef
 /.notdef
 /.notdef
 /.notdef
 /.notdef
 /.notdef
 /.notdef
 /.notdef
 /.notdef
 /.notdef
 /.notdef
 /.notdef
 /.notdef
 /.notdef
 /.notdef
 /.notdef
 /.notdef
 /.notdef
 /.notdef
 /.notdef
 /.notdef
 /space
 /exclamdown
 /cent
 /sterling
 /currency
 /yen
 /brokenbar
 /section
 /dieresis
 /copyright
 /ordfeminine
 /guillemotleft
 /logicalnot
 /hyphen
 /registered
 /macron
 /degree
 /plusminus
 /twosuperior
 /threesuperior
 /acute
 /mu
 /paragraph
 /periodcentered
 /cedilla
 /onesuperior
 /ordmasculine
 /guillemotright
 /onequarter
 /onehalf
 /threequarters
 /questiondown
 /Agrave
 /Aacute
 /Acircumflex
 /Atilde
 /Adieresis
 /Aring
 /AE
 /Ccedilla
 /Egrave
 /Eacute
 /Ecircumflex
 /Edieresis
 /Igrave
 /Iacute
 /Icircumflex
 /Idieresis
 /Eth
 /Ntilde
 /Ograve
 /Oacute
 /Ocircumflex
 /Otilde
 /Odieresis
 /multiply
 /Oslash
 /Ugrave
 /Uacute
 /Ucircumflex
 /Udieresis
 /Yacute
 /Thorn
 /germandbls
 /agrave
 /aacute
 /acircumflex
 /atilde
 /adieresis
 /aring
 /ae
 /ccedilla
 /egrave
 /eacute
 /ecircumflex
 /edieresis
 /igrave
 /iacute
 /icircumflex
 /idieresis
 /eth
 /ntilde
 /ograve
 /oacute
 /ocircumflex
 /otilde
 /odieresis
 /divide
 /oslash
 /ugrave
 /uacute
 /ucircumflex
 /udieresis
 /yacute
 /thorn
 /ydieresis
] def
%%EndProlog
%%BeginSetup
%%EndSetup
%%Page: 1 1
PAGE_OFFSET_X PAGE_OFFSET_Y translate
612.00 612.00 scale
90 rotate
0.0 -1.0 translate
n
0.0000 0.0000 m
0.0000 1.0000 l
1.2941 1.0000 l
1.2941 0.0000 l
c
[/DeviceRGB] SCS
Color0 SC
fill
[/DeviceRGB] SCS
Color2 SC
[] 0 SD
0.0060 SLW
0 SLC
0 SLJ
n
0.1498 0.2960 m
0.1523 0.2960 l
0.1548 0.2960 l
0.1573 0.2960 l
0.1598 0.2960 l
0.1623 0.2959 l
0.1648 0.2959 l
0.1673 0.2958 l
0.1698 0.2957 l
0.1723 0.2957 l
0.1748 0.2956 l
0.1773 0.2955 l
0.1798 0.2954 l
0.1823 0.2953 l
0.1848 0.2951 l
0.1873 0.2950 l
0.1898 0.2949 l
0.1923 0.2947 l
0.1948 0.2946 l
0.1973 0.2944 l
0.1998 0.2942 l
0.2023 0.2940 l
0.2048 0.2939 l
0.2073 0.2937 l
0.2098 0.2935 l
0.2123 0.2932 l
0.2148 0.2930 l
0.2173 0.2928 l
0.2198 0.2925 l
0.2223 0.2922 l
0.2248 0.2920 l
0.2273 0.2917 l
0.2298 0.2914 l
0.2323 0.2911 l
0.2348 0.2908 l
0.2373 0.2905 l
0.2398 0.2902 l
0.2423 0.2899 l
0.2448 0.2895 l
0.2473 0.2892 l
0.2498 0.2888 l
0.2523 0.2884 l
0.2548 0.2880 l
0.2573 0.2876 l
0.2598 0.2872 l
0.2623 0.2868 l
0.2648 0.2864 l
0.2673 0.2860 l
0.2698 0.2856 l
0.2723 0.2851 l
0.2748 0.2846 l
0.2773 0.2842 l
0.2798 0.2837 l
0.2823 0.2832 l
0.2848 0.2827 l
0.2873 0.2822 l
0.2898 0.2817 l
0.2923 0.2811 l
0.2948 0.2806 l
0.2973 0.2800 l
0.2998 0.2794 l
0.3023 0.2789 l
0.3048 0.2783 l
0.3073 0.2777 l
0.3098 0.2771 l
0.3123 0.2764 l
0.3148 0.2758 l
0.3173 0.2752 l
0.3198 0.2745 l
0.3223 0.2738 l
0.3248 0.2732 l
0.3273 0.2725 l
0.3298 0.2718 l
0.3323 0.2710 l
0.3349 0.2703 l
0.3374 0.2696 l
0.3399 0.2688 l
0.3424 0.2680 l
0.3449 0.2673 l
0.3474 0.2665 l
0.3499 0.2657 l
0.3524 0.2649 l
0.3549 0.2640 l
0.3574 0.2632 l
0.3599 0.2623 l
0.3624 0.2614 l
0.3649 0.2606 l
0.3674 0.2596 l
0.3699 0.2587 l
0.3724 0.2578 l
0.3749 0.2569 l
0.3774 0.2559 l
0.3799 0.2549 l
0.3824 0.2539 l
0.3849 0.2529 l
0.3874 0.2519 l
0.3899 0.2508 l
0.3924 0.2498 l
0.3949 0.2487 l
0.3974 0.2476 l
0.3999 0.2465 l
0.4024 0.2454 l
0.4049 0.2442 l
0.4074 0.2430 l
0.4099 0.2418 l
0.4124 0.2406 l
0.4149 0.2393 l
0.4174 0.2381 l
0.4199 0.2368 l
0.4224 0.2355 l
0.4249 0.2341 l
0.4274 0.2328 l
0.4299 0.2313 l
0.4324 0.2299 l
0.4349 0.2284 l
0.4374 0.2268 l
0.4399 0.2252 l
0.4424 0.2236 l
0.4449 0.2219 l
0.4474 0.2201 l
0.4499 0.2183 l
0.4524 0.2163 l
0.4549 0.2142 l
0.4574 0.2119 l
0.4599 0.2093 l
0.4624 0.2064 l
0.4649 0.2027 l
s
n
0.2507 0.1543 m
0.2523 0.1544 l
0.2548 0.1544 l
0.2573 0.1544 l
0.2598 0.1545 l
0.2623 0.1547 l
0.2648 0.1547 l
0.2673 0.1548 l
0.2698 0.1548 l
0.2723 0.1550 l
0.2748 0.1550 l
0.2773 0.1551 l
0.2798 0.1552 l
0.2823 0.1554 l
0.2848 0.1554 l
0.2873 0.1555 l
0.2898 0.1557 l
0.2923 0.1558 l
0.2948 0.1559 l
0.2973 0.1559 l
0.2998 0.1561 l
0.3023 0.1562 l
0.3048 0.1564 l
0.3073 0.1565 l
0.3098 0.1566 l
0.3123 0.1568 l
0.3148 0.1569 l
0.3173 0.1571 l
0.3198 0.1573 l
0.3223 0.1575 l
0.3248 0.1576 l
0.3273 0.1577 l
0.3298 0.1580 l
0.3323 0.1582 l
0.3349 0.1583 l
0.3374 0.1586 l
0.3399 0.1587 l
0.3424 0.1590 l
0.3449 0.1591 l
0.3474 0.1594 l
0.3499 0.1597 l
0.3524 0.1598 l
0.3549 0.1601 l
0.3574 0.1604 l
0.3599 0.1607 l
0.3624 0.1610 l
0.3649 0.1612 l
0.3674 0.1615 l
0.3699 0.1618 l
0.3724 0.1621 l
0.3749 0.1623 l
0.3774 0.1626 l
0.3799 0.1630 l
0.3824 0.1633 l
0.3849 0.1636 l
0.3874 0.1640 l
0.3899 0.1644 l
0.3924 0.1647 l
0.3949 0.1651 l
0.3974 0.1656 l
0.3999 0.1660 l
0.4024 0.1664 l
0.4049 0.1668 l
0.4074 0.1672 l
0.4099 0.1678 l
0.4124 0.1682 l
0.4149 0.1688 l
0.4174 0.1692 l
0.4199 0.1697 l
0.4224 0.1703 l
0.4249 0.1709 l
0.4274 0.1715 l
0.4299 0.1721 l
0.4324 0.1728 l
0.4349 0.1735 l
0.4374 0.1743 l
0.4399 0.1750 l
0.4424 0.1759 l
0.4449 0.1767 l
0.4474 0.1777 l
0.4499 0.1788 l
0.4524 0.1799 l
0.4549 0.1812 l
0.4574 0.1826 l
0.4599 0.1844 l
0.4624 0.1865 l
0.4649 0.1894 l
s
[/DeviceRGB] SCS
Color3 SC
n
0.6171 0.8501 m
0.6175 0.8492 l
0.6200 0.8429 l
0.6225 0.8367 l
0.6250 0.8306 l
0.6275 0.8245 l
0.6300 0.8185 l
0.6325 0.8125 l
0.6350 0.8066 l
0.6375 0.8007 l
0.6400 0.7949 l
0.6425 0.7892 l
0.6450 0.7836 l
0.6475 0.7779 l
0.6500 0.7724 l
0.6525 0.7669 l
0.6550 0.7615 l
0.6575 0.7561 l
0.6600 0.7508 l
0.6625 0.7455 l
0.6650 0.7403 l
0.6675 0.7352 l
0.6700 0.7301 l
0.6725 0.7251 l
0.6750 0.7201 l
0.6775 0.7152 l
0.6800 0.7103 l
0.6825 0.7055 l
0.6850 0.7008 l
0.6875 0.6961 l
0.6900 0.6915 l
0.6925 0.6869 l
0.6950 0.6824 l
0.6975 0.6780 l
0.7000 0.6736 l
0.7025 0.6692 l
0.7050 0.6649 l
0.7075 0.6607 l
0.7100 0.6565 l
0.7125 0.6524 l
0.7150 0.6484 l
0.7175 0.6443 l
0.7200 0.6404 l
0.7225 0.6365 l
0.7250 0.6327 l
0.7275 0.6289 l
0.7300 0.6251 l
0.7325 0.6215 l
0.7350 0.6178 l
0.7375 0.6143 l
0.7400 0.6108 l
0.7426 0.6073 l
0.7451 0.6039 l
0.7476 0.6005 l
0.7501 0.5972 l
0.7526 0.5940 l
0.7551 0.5908 l
0.7576 0.5877 l
0.7601 0.5846 l
0.7626 0.5816 l
0.7651 0.5786 l
0.7676 0.5757 l
0.7701 0.5728 l
0.7726 0.5700 l
0.7751 0.5673 l
0.7776 0.5646 l
0.7801 0.5619 l
0.7826 0.5593 l
0.7851 0.5568 l
0.7876 0.5543 l
0.7901 0.5519 l
0.7926 0.5495 l
0.7951 0.5472 l
0.7976 0.5449 l
0.8001 0.5427 l
0.8026 0.5405 l
0.8051 0.5384 l
0.8076 0.5364 l
0.8101 0.5345 l
0.8126 0.5325 l
0.8151 0.5306 l
0.8176 0.5288 l
0.8201 0.5271 l
0.8226 0.5253 l
0.8251 0.5237 l
0.8276 0.5221 l
0.8301 0.5206 l
0.8326 0.5191 l
0.8351 0.5177 l
0.8376 0.5164 l
0.8401 0.5150 l
0.8426 0.5139 l
0.8451 0.5127 l
0.8476 0.5115 l
0.8501 0.5105 l
0.8526 0.5095 l
0.8551 0.5086 l
0.8576 0.5077 l
0.8601 0.5069 l
0.8626 0.5062 l
0.8651 0.5055 l
0.8676 0.5048 l
0.8701 0.5044 l
0.8726 0.5039 l
0.8751 0.5035 l
0.8776 0.5032 l
0.8801 0.5029 l
0.8826 0.5026 l
0.8851 0.5025 l
0.8876 0.5025 l
0.8901 0.5025 l
0.8926 0.5026 l
0.8951 0.5028 l
0.8976 0.5030 l
0.9001 0.5033 l
0.9026 0.5037 l
0.9051 0.5041 l
0.9076 0.5047 l
0.9101 0.5054 l
0.9126 0.5061 l
0.9151 0.5069 l
0.9176 0.5078 l
0.9201 0.5089 l
0.9226 0.5100 l
0.9251 0.5113 l
0.9276 0.5125 l
0.9301 0.5140 l
0.9326 0.5157 l
0.9351 0.5178 l
s
[/DeviceRGB] SCS
Color4 SC
[0.0060 0.0180 0.0300 0.0180 ] 0 SD
0.0060 SLW
n
0.8951 0.7579 m
0.8976 0.8490 l
0.8977 0.8501 l
s
n
0.9376 0.5488 m
0.9401 0.5486 l
0.9426 0.5488 l
0.9451 0.5490 l
0.9477 0.5497 l
0.9502 0.5504 l
0.9527 0.5515 l
0.9552 0.5528 l
0.9577 0.5542 l
0.9602 0.5559 l
0.9627 0.5580 l
s
n
0.8951 0.7028 m
0.8976 0.6462 l
0.9001 0.6221 l
0.9026 0.6062 l
0.9051 0.5943 l
0.9076 0.5851 l
0.9101 0.5778 l
0.9126 0.5718 l
0.9151 0.5667 l
0.9176 0.5627 l
0.9201 0.5593 l
0.9226 0.5566 l
0.9251 0.5542 l
0.9276 0.5524 l
0.9301 0.5510 l
0.9326 0.5500 l
0.9351 0.5493 l
s
[/DeviceRGB] SCS
Color11 SC
[0.0300 0.0180 ] 0 SD
0.0060 SLW
n
0.1498 0.6587 m
0.1523 0.6587 l
0.1548 0.6587 l
0.1573 0.6587 l
0.1598 0.6587 l
0.1623 0.6587 l
0.1648 0.6587 l
0.1673 0.6588 l
0.1698 0.6589 l
0.1723 0.6589 l
0.1748 0.6589 l
0.1773 0.6589 l
0.1798 0.6590 l
0.1823 0.6590 l
0.1848 0.6590 l
0.1873 0.6592 l
0.1898 0.6592 l
0.1923 0.6593 l
0.1948 0.6593 l
0.1973 0.6593 l
0.1998 0.6594 l
0.2023 0.6594 l
0.2048 0.6596 l
0.2073 0.6597 l
0.2098 0.6597 l
0.2123 0.6599 l
0.2148 0.6599 l
0.2173 0.6600 l
0.2198 0.6601 l
0.2223 0.6602 l
0.2248 0.6603 l
0.2273 0.6604 l
0.2298 0.6606 l
0.2323 0.6607 l
0.2348 0.6607 l
0.2373 0.6608 l
0.2398 0.6610 l
0.2423 0.6611 l
0.2448 0.6612 l
0.2473 0.6614 l
0.2498 0.6615 l
0.2523 0.6617 l
0.2548 0.6618 l
0.2573 0.6619 l
0.2598 0.6621 l
0.2623 0.6622 l
0.2648 0.6625 l
0.2673 0.6626 l
0.2698 0.6628 l
0.2723 0.6629 l
0.2748 0.6631 l
0.2773 0.6633 l
0.2798 0.6635 l
0.2823 0.6636 l
0.2848 0.6639 l
0.2873 0.6640 l
0.2898 0.6642 l
0.2923 0.6645 l
0.2948 0.6646 l
0.2973 0.6649 l
0.2998 0.6650 l
0.3023 0.6653 l
0.3048 0.6654 l
0.3073 0.6657 l
0.3098 0.6658 l
0.3123 0.6661 l
0.3148 0.6663 l
0.3173 0.6665 l
0.3198 0.6668 l
0.3223 0.6670 l
0.3248 0.6672 l
0.3273 0.6675 l
0.3298 0.6678 l
0.3323 0.6681 l
0.3349 0.6682 l
0.3374 0.6685 l
0.3399 0.6688 l
0.3424 0.6691 l
0.3449 0.6693 l
0.3474 0.6696 l
0.3499 0.6699 l
0.3524 0.6702 l
0.3549 0.6704 l
0.3574 0.6707 l
0.3599 0.6710 l
0.3624 0.6713 l
0.3649 0.6716 l
0.3674 0.6718 l
0.3699 0.6721 l
0.3724 0.6725 l
0.3749 0.6728 l
0.3774 0.6731 l
0.3799 0.6734 l
0.3824 0.6738 l
0.3849 0.6741 l
0.3874 0.6744 l
0.3899 0.6748 l
0.3924 0.6750 l
0.3949 0.6753 l
0.3974 0.6757 l
0.3999 0.6760 l
0.4024 0.6764 l
0.4049 0.6767 l
0.4074 0.6771 l
0.4099 0.6774 l
0.4124 0.6778 l
0.4149 0.6781 l
0.4174 0.6785 l
0.4199 0.6789 l
0.4224 0.6792 l
0.4249 0.6796 l
0.4274 0.6800 l
0.4299 0.6803 l
0.4324 0.6808 l
0.4349 0.6812 l
0.4374 0.6816 l
0.4399 0.6819 l
0.4424 0.6823 l
0.4449 0.6827 l
0.4474 0.6831 l
0.4499 0.6836 l
0.4524 0.6840 l
0.4549 0.6844 l
0.4574 0.6848 l
0.4599 0.6852 l
0.4624 0.6856 l
0.4649 0.6861 l
0.4674 0.6865 l
0.4699 0.6869 l
0.4724 0.6873 l
0.4749 0.6877 l
0.4774 0.6882 l
0.4799 0.6886 l
0.4824 0.6891 l
0.4849 0.6895 l
0.4874 0.6900 l
0.4899 0.6904 l
0.4924 0.6909 l
0.4949 0.6914 l
0.4974 0.6918 l
0.4999 0.6923 l
0.5024 0.6928 l
0.5049 0.6932 l
0.5074 0.6937 l
0.5099 0.6941 l
0.5124 0.6947 l
0.5149 0.6951 l
0.5174 0.6957 l
0.5199 0.6961 l
0.5224 0.6967 l
0.5249 0.6971 l
0.5274 0.6976 l
0.5299 0.6980 l
0.5324 0.6986 l
0.5349 0.6992 l
0.5374 0.6996 l
0.5400 0.7001 l
0.5425 0.7007 l
0.5450 0.7012 l
0.5475 0.7017 l
0.5500 0.7022 l
0.5525 0.7028 l
0.5550 0.7033 l
0.5575 0.7039 l
0.5600 0.7043 l
0.5625 0.7049 l
0.5650 0.7054 l
0.5675 0.7060 l
0.5700 0.7066 l
0.5725 0.7071 l
0.5750 0.7077 l
0.5775 0.7082 l
0.5800 0.7088 l
0.5825 0.7093 l
0.5850 0.7099 l
0.5875 0.7105 l
0.5900 0.7110 l
0.5925 0.7117 l
0.5950 0.7123 l
0.5975 0.7128 l
0.6000 0.7134 l
0.6025 0.7139 l
0.6050 0.7146 l
0.6075 0.7152 l
0.6100 0.7158 l
0.6125 0.7163 l
0.6150 0.7170 l
0.6175 0.7176 l
0.6200 0.7181 l
0.6225 0.7188 l
0.6250 0.7194 l
0.6275 0.7201 l
0.6300 0.7206 l
0.6325 0.7213 l
0.6350 0.7219 l
0.6375 0.7226 l
0.6400 0.7231 l
0.6425 0.7238 l
0.6450 0.7244 l
0.6475 0.7251 l
0.6500 0.7256 l
0.6525 0.7263 l
0.6550 0.7270 l
0.6575 0.7276 l
0.6600 0.7283 l
0.6625 0.7290 l
0.6650 0.7296 l
0.6675 0.7302 l
0.6700 0.7309 l
0.6725 0.7316 l
0.6750 0.7323 l
0.6775 0.7329 l
0.6800 0.7336 l
0.6825 0.7343 l
0.6850 0.7350 l
0.6875 0.7357 l
0.6900 0.7364 l
0.6925 0.7371 l
0.6950 0.7378 l
0.6975 0.7385 l
0.7000 0.7392 l
0.7025 0.7399 l
0.7050 0.7406 l
0.7075 0.7413 l
0.7100 0.7420 l
0.7125 0.7427 l
0.7150 0.7434 l
0.7175 0.7441 l
0.7200 0.7449 l
0.7225 0.7456 l
0.7250 0.7463 l
0.7275 0.7470 l
0.7300 0.7477 l
0.7325 0.7485 l
0.7350 0.7492 l
0.7375 0.7499 l
0.7400 0.7507 l
0.7426 0.7514 l
0.7451 0.7521 l
0.7476 0.7530 l
0.7501 0.7537 l
0.7526 0.7544 l
0.7551 0.7552 l
0.7576 0.7559 l
0.7601 0.7567 l
0.7626 0.7574 l
0.7651 0.7583 l
0.7676 0.7590 l
0.7701 0.7598 l
0.7726 0.7606 l
0.7751 0.7613 l
0.7776 0.7622 l
0.7801 0.7630 l
0.7826 0.7637 l
0.7851 0.7645 l
0.7876 0.7654 l
0.7901 0.7661 l
0.7926 0.7669 l
0.7951 0.7677 l
0.7976 0.7686 l
0.8001 0.7694 l
0.8026 0.7701 l
0.8051 0.7710 l
0.8076 0.7718 l
0.8101 0.7726 l
0.8126 0.7735 l
0.8151 0.7743 l
0.8176 0.7751 l
0.8201 0.7760 l
0.8226 0.7768 l
0.8251 0.7776 l
0.8276 0.7785 l
0.8301 0.7793 l
0.8326 0.7802 l
0.8351 0.7810 l
0.8376 0.7818 l
0.8401 0.7828 l
0.8426 0.7836 l
0.8451 0.7845 l
0.8476 0.7853 l
0.8501 0.7861 l
0.8526 0.7871 l
0.8551 0.7880 l
0.8576 0.7888 l
0.8601 0.7898 l
0.8626 0.7906 l
0.8651 0.7914 l
0.8676 0.7924 l
0.8701 0.7933 l
0.8726 0.7942 l
0.8751 0.7951 l
0.8776 0.7960 l
0.8801 0.7969 l
0.8826 0.7979 l
0.8851 0.7988 l
0.8876 0.7997 l
0.8901 0.8006 l
0.8926 0.8015 l
0.8951 0.8025 l
0.8976 0.8034 l
0.9001 0.8044 l
0.9026 0.8052 l
0.9051 0.8062 l
0.9076 0.8072 l
0.9101 0.8082 l
0.9126 0.8091 l
0.9151 0.8101 l
0.9176 0.8111 l
0.9201 0.8121 l
0.9226 0.8131 l
0.9251 0.8140 l
0.9276 0.8150 l
0.9301 0.8160 l
0.9326 0.8170 l
0.9351 0.8179 l
0.9376 0.8189 l
0.9401 0.8199 l
0.9426 0.8210 l
0.9451 0.8220 l
0.9477 0.8229 l
0.9502 0.8241 l
0.9527 0.8250 l
0.9552 0.8260 l
0.9577 0.8271 l
0.9602 0.8281 l
0.9627 0.8292 l
0.9652 0.8302 l
0.9677 0.8313 l
0.9702 0.8324 l
0.9727 0.8334 l
0.9752 0.8345 l
0.9777 0.8356 l
0.9802 0.8366 l
0.9827 0.8377 l
0.9852 0.8388 l
0.9877 0.8400 l
0.9902 0.8411 l
0.9927 0.8422 l
0.9952 0.8433 l
0.9977 0.8444 l
1.0002 0.8455 l
1.0027 0.8466 l
1.0052 0.8478 l
1.0077 0.8489 l
1.0101 0.8501 l
s
[/DeviceRGB] SCS
Color8 SC
[0.0060 0.0180 0.0300 0.0180 ] 0 SD
0.0060 SLW
n
0.6760 0.8501 m
0.6775 0.8433 l
0.6800 0.8321 l
0.6825 0.8213 l
0.6850 0.8107 l
0.6875 0.8002 l
0.6900 0.7901 l
0.6925 0.7800 l
0.6950 0.7703 l
0.6975 0.7606 l
0.7000 0.7512 l
0.7025 0.7418 l
0.7050 0.7328 l
0.7075 0.7240 l
0.7100 0.7152 l
0.7125 0.7067 l
0.7150 0.6983 l
0.7175 0.6902 l
0.7200 0.6822 l
0.7225 0.6744 l
0.7250 0.6667 l
0.7275 0.6592 l
0.7300 0.6519 l
0.7325 0.6447 l
0.7350 0.6377 l
0.7375 0.6309 l
0.7400 0.6242 l
0.7426 0.6176 l
0.7451 0.6112 l
0.7476 0.6051 l
0.7501 0.5989 l
0.7526 0.5931 l
0.7551 0.5872 l
0.7576 0.5817 l
0.7601 0.5762 l
0.7626 0.5709 l
0.7651 0.5658 l
0.7676 0.5607 l
0.7701 0.5559 l
0.7726 0.5511 l
0.7751 0.5465 l
0.7776 0.5421 l
0.7801 0.5379 l
0.7826 0.5337 l
0.7851 0.5297 l
0.7876 0.5258 l
0.7901 0.5220 l
0.7926 0.5184 l
0.7951 0.5149 l
0.7976 0.5117 l
0.8001 0.5085 l
0.8026 0.5054 l
0.8051 0.5023 l
0.8076 0.4995 l
0.8101 0.4969 l
0.8126 0.4944 l
0.8151 0.4919 l
0.8176 0.4897 l
0.8201 0.4874 l
0.8226 0.4853 l
0.8251 0.4834 l
0.8276 0.4816 l
0.8301 0.4799 l
0.8326 0.4784 l
0.8351 0.4768 l
0.8376 0.4754 l
0.8401 0.4742 l
0.8426 0.4731 l
0.8451 0.4721 l
0.8476 0.4711 l
0.8501 0.4704 l
0.8526 0.4696 l
0.8551 0.4690 l
0.8576 0.4686 l
0.8601 0.4682 l
0.8626 0.4679 l
0.8651 0.4676 l
0.8676 0.4676 l
0.8701 0.4676 l
0.8726 0.4676 l
0.8751 0.4679 l
0.8776 0.4682 l
0.8801 0.4686 l
0.8826 0.4692 l
0.8851 0.4697 l
0.8876 0.4704 l
0.8901 0.4713 l
0.8926 0.4722 l
0.8951 0.4732 l
0.8976 0.4745 l
0.9001 0.4757 l
0.9026 0.4772 l
0.9051 0.4788 l
s
[/DeviceRGB] SCS
Color10 SC
[0.0300 0.0180 ] 0 SD
0.0060 SLW
n
0.1498 0.6587 m
0.1523 0.6587 l
0.1548 0.6587 l
0.1573 0.6587 l
0.1598 0.6587 l
0.1623 0.6587 l
0.1648 0.6587 l
0.1673 0.6587 l
0.1698 0.6587 l
0.1723 0.6588 l
0.1748 0.6589 l
0.1773 0.6589 l
0.1798 0.6589 l
0.1823 0.6589 l
0.1848 0.6589 l
0.1873 0.6590 l
0.1898 0.6590 l
0.1923 0.6590 l
0.1948 0.6590 l
0.1973 0.6591 l
0.1998 0.6592 l
0.2023 0.6592 l
0.2048 0.6593 l
0.2073 0.6593 l
0.2098 0.6593 l
0.2123 0.6594 l
0.2148 0.6594 l
0.2173 0.6594 l
0.2198 0.6596 l
0.2223 0.6596 l
0.2248 0.6597 l
0.2273 0.6597 l
0.2298 0.6598 l
0.2323 0.6599 l
0.2348 0.6600 l
0.2373 0.6600 l
0.2398 0.6601 l
0.2423 0.6601 l
0.2448 0.6603 l
0.2473 0.6603 l
0.2498 0.6604 l
0.2523 0.6605 l
0.2548 0.6606 l
0.2573 0.6607 l
0.2598 0.6607 l
0.2623 0.6608 l
0.2648 0.6610 l
0.2673 0.6611 l
0.2698 0.6611 l
0.2723 0.6612 l
0.2748 0.6614 l
0.2773 0.6614 l
0.2798 0.6615 l
0.2823 0.6617 l
0.2848 0.6618 l
0.2873 0.6619 l
0.2898 0.6621 l
0.2923 0.6621 l
0.2948 0.6622 l
0.2973 0.6624 l
0.2998 0.6625 l
0.3023 0.6626 l
0.3048 0.6628 l
0.3073 0.6629 l
0.3098 0.6631 l
0.3123 0.6632 l
0.3148 0.6633 l
0.3173 0.6635 l
0.3198 0.6636 l
0.3223 0.6638 l
0.3248 0.6639 l
0.3273 0.6640 l
0.3298 0.6642 l
0.3323 0.6643 l
0.3349 0.6645 l
0.3374 0.6647 l
0.3399 0.6649 l
0.3424 0.6650 l
0.3449 0.6652 l
0.3474 0.6653 l
0.3499 0.6656 l
0.3524 0.6657 l
0.3549 0.6658 l
0.3574 0.6660 l
0.3599 0.6663 l
0.3624 0.6664 l
0.3649 0.6665 l
0.3674 0.6668 l
0.3699 0.6670 l
0.3724 0.6671 l
0.3749 0.6674 l
0.3774 0.6675 l
0.3799 0.6678 l
0.3824 0.6679 l
0.3849 0.6682 l
0.3874 0.6684 l
0.3899 0.6686 l
0.3924 0.6688 l
0.3949 0.6690 l
0.3974 0.6692 l
0.3999 0.6695 l
0.4024 0.6696 l
0.4049 0.6699 l
0.4074 0.6702 l
0.4099 0.6703 l
0.4124 0.6706 l
0.4149 0.6708 l
0.4174 0.6710 l
0.4199 0.6713 l
0.4224 0.6715 l
0.4249 0.6717 l
0.4274 0.6720 l
0.4299 0.6723 l
0.4324 0.6725 l
0.4349 0.6728 l
0.4374 0.6730 l
0.4399 0.6732 l
0.4424 0.6735 l
0.4449 0.6738 l
0.4474 0.6741 l
0.4499 0.6744 l
0.4524 0.6746 l
0.4549 0.6749 l
0.4574 0.6752 l
0.4599 0.6755 l
0.4624 0.6757 l
0.4649 0.6760 l
0.4674 0.6763 l
0.4699 0.6766 l
0.4724 0.6769 l
0.4749 0.6771 l
0.4774 0.6774 l
0.4799 0.6777 l
0.4824 0.6781 l
0.4849 0.6784 l
0.4874 0.6787 l
0.4899 0.6790 l
0.4924 0.6792 l
0.4949 0.6796 l
0.4974 0.6799 l
0.4999 0.6802 l
0.5024 0.6806 l
0.5049 0.6809 l
0.5074 0.6812 l
0.5099 0.6816 l
0.5124 0.6819 l
0.5149 0.6823 l
0.5174 0.6826 l
0.5199 0.6830 l
0.5224 0.6833 l
0.5249 0.6837 l
0.5274 0.6840 l
0.5299 0.6844 l
0.5324 0.6847 l
0.5349 0.6851 l
0.5374 0.6854 l
0.5400 0.6858 l
0.5425 0.6862 l
0.5450 0.6865 l
0.5475 0.6869 l
0.5500 0.6873 l
0.5525 0.6876 l
0.5550 0.6880 l
0.5575 0.6884 l
0.5600 0.6888 l
0.5625 0.6892 l
0.5650 0.6895 l
0.5675 0.6900 l
0.5700 0.6904 l
0.5725 0.6908 l
0.5750 0.6912 l
0.5775 0.6916 l
0.5800 0.6921 l
0.5825 0.6925 l
0.5850 0.6929 l
0.5875 0.6933 l
0.5900 0.6937 l
0.5925 0.6941 l
0.5950 0.6946 l
0.5975 0.6950 l
0.6000 0.6954 l
0.6025 0.6959 l
0.6050 0.6964 l
0.6075 0.6968 l
0.6100 0.6972 l
0.6125 0.6976 l
0.6150 0.6982 l
0.6175 0.6986 l
0.6200 0.6990 l
0.6225 0.6996 l
0.6250 0.7000 l
0.6275 0.7005 l
0.6300 0.7010 l
0.6325 0.7014 l
0.6350 0.7020 l
0.6375 0.7024 l
0.6400 0.7029 l
0.6425 0.7033 l
0.6450 0.7039 l
0.6475 0.7043 l
0.6500 0.7049 l
0.6525 0.7054 l
0.6550 0.7059 l
0.6575 0.7064 l
0.6600 0.7070 l
0.6625 0.7074 l
0.6650 0.7079 l
0.6675 0.7085 l
0.6700 0.7091 l
0.6725 0.7096 l
0.6750 0.7100 l
0.6775 0.7106 l
0.6800 0.7112 l
0.6825 0.7117 l
0.6850 0.7123 l
0.6875 0.7128 l
0.6900 0.7134 l
0.6925 0.7139 l
0.6950 0.7145 l
0.6975 0.7151 l
0.7000 0.7156 l
0.7025 0.7162 l
0.7050 0.7169 l
0.7075 0.7174 l
0.7100 0.7180 l
0.7125 0.7185 l
0.7150 0.7191 l
0.7175 0.7198 l
0.7200 0.7204 l
0.7225 0.7209 l
0.7250 0.7216 l
0.7275 0.7222 l
0.7300 0.7227 l
0.7325 0.7234 l
0.7350 0.7240 l
0.7375 0.7247 l
0.7400 0.7252 l
0.7426 0.7259 l
0.7451 0.7266 l
0.7476 0.7272 l
0.7501 0.7279 l
0.7526 0.7284 l
0.7551 0.7291 l
0.7576 0.7298 l
0.7601 0.7305 l
0.7626 0.7311 l
0.7651 0.7318 l
0.7676 0.7325 l
0.7701 0.7332 l
0.7726 0.7339 l
0.7751 0.7346 l
0.7776 0.7351 l
0.7801 0.7358 l
0.7826 0.7365 l
0.7851 0.7372 l
0.7876 0.7379 l
0.7901 0.7387 l
0.7926 0.7394 l
0.7951 0.7401 l
0.7976 0.7408 l
0.8001 0.7415 l
0.8026 0.7422 l
0.8051 0.7431 l
0.8076 0.7438 l
0.8101 0.7445 l
0.8126 0.7453 l
0.8151 0.7460 l
0.8176 0.7467 l
0.8201 0.7475 l
0.8226 0.7482 l
0.8251 0.7491 l
0.8276 0.7498 l
0.8301 0.7506 l
0.8326 0.7514 l
0.8351 0.7521 l
0.8376 0.7530 l
0.8401 0.7537 l
0.8426 0.7545 l
0.8451 0.7553 l
0.8476 0.7562 l
0.8501 0.7570 l
0.8526 0.7577 l
0.8551 0.7585 l
0.8576 0.7594 l
0.8601 0.7602 l
0.8626 0.7611 l
0.8651 0.7619 l
0.8676 0.7627 l
0.8701 0.7636 l
0.8726 0.7644 l
0.8751 0.7654 l
0.8776 0.7662 l
0.8801 0.7671 l
0.8826 0.7679 l
0.8851 0.7689 l
0.8876 0.7697 l
0.8901 0.7705 l
0.8926 0.7715 l
0.8951 0.7723 l
0.8976 0.7733 l
0.9001 0.7742 l
0.9026 0.7751 l
0.9051 0.7760 l
0.9076 0.7769 l
0.9101 0.7779 l
0.9126 0.7788 l
0.9151 0.7797 l
0.9176 0.7807 l
0.9201 0.7817 l
0.9226 0.7826 l
0.9251 0.7835 l
0.9276 0.7845 l
0.9301 0.7855 l
0.9326 0.7864 l
0.9351 0.7874 l
0.9376 0.7885 l
0.9401 0.7895 l
0.9426 0.7905 l
0.9451 0.7914 l
0.9477 0.7924 l
0.9502 0.7935 l
0.9527 0.7945 l
0.9552 0.7955 l
0.9577 0.7966 l
0.9602 0.7976 l
0.9627 0.7987 l
0.9652 0.7998 l
0.9677 0.8008 l
0.9702 0.8019 l
0.9727 0.8030 l
0.9752 0.8040 l
0.9777 0.8051 l
0.9802 0.8062 l
0.9827 0.8073 l
0.9852 0.8085 l
0.9877 0.8096 l
0.9902 0.8107 l
0.9927 0.8118 l
0.9952 0.8129 l
0.9977 0.8142 l
1.0002 0.8153 l
1.0027 0.8164 l
1.0052 0.8177 l
1.0077 0.8188 l
1.0102 0.8200 l
1.0127 0.8211 l
1.0152 0.8224 l
1.0177 0.8236 l
1.0202 0.8248 l
1.0227 0.8260 l
1.0252 0.8273 l
1.0277 0.8285 l
1.0302 0.8298 l
1.0327 0.8310 l
1.0352 0.8323 l
1.0377 0.8335 l
1.0402 0.8349 l
1.0427 0.8362 l
1.0452 0.8376 l
1.0477 0.8388 l
1.0502 0.8402 l
1.0527 0.8415 l
1.0552 0.8429 l
1.0577 0.8443 l
1.0602 0.8457 l
1.0627 0.8471 l
1.0652 0.8485 l
1.0677 0.8499 l
1.0682 0.8501 l
s
[/DeviceRGB] SCS
Color1 SC
[] 0 SD
0.0045 SLW
n
0.1495 0.1544 m
1.1500 0.1544 l
s
n
0.1495 0.8500 m
1.1500 0.8500 l
s
n
0.2746 0.1544 m
0.2746 0.1644 l
s
n
0.2746 0.8500 m
0.2746 0.8400 l
s
n
0.5247 0.1544 m
0.5247 0.1644 l
s
n
0.5247 0.8500 m
0.5247 0.8400 l
s
n
0.7748 0.1544 m
0.7748 0.1644 l
s
n
0.7748 0.8500 m
0.7748 0.8400 l
s
n
1.0249 0.1544 m
1.0249 0.1644 l
s
n
1.0249 0.8500 m
1.0249 0.8400 l
s
n
0.1495 0.1544 m
0.1495 0.1744 l
s
n
0.1495 0.8500 m
0.1495 0.8300 l
s
n
0.3996 0.1544 m
0.3996 0.1744 l
s
n
0.3996 0.8500 m
0.3996 0.8300 l
s
n
0.6498 0.1544 m
0.6498 0.1744 l
s
n
0.6498 0.8500 m
0.6498 0.8300 l
s
n
0.8999 0.1544 m
0.8999 0.1744 l
s
n
0.8999 0.8500 m
0.8999 0.8300 l
s
n
1.1500 0.1544 m
1.1500 0.1744 l
s
n
1.1500 0.8500 m
1.1500 0.8300 l
s
/Times-Roman findfont
dup length dict begin
 {1 index /FID ne {def} {pop pop} ifelse} forall
 /Encoding DefEncoding def
 currentdict
end
/Font0 exch definefont pop
/Font0 FFSF
0.1360 0.1060 m
GS
[0.0571 0.0000 0.0000 0.0571 0 0] CC
(0) show
GR
/Font0 FFSF
0.3885 0.1060 m
GS
[0.0571 0.0000 0.0000 0.0571 0 0] CC
(1) show
GR
/Font0 FFSF
0.6362 0.1060 m
GS
[0.0571 0.0000 0.0000 0.0571 0 0] CC
(2) show
GR
/Font0 FFSF
0.8875 0.1060 m
GS
[0.0571 0.0000 0.0000 0.0571 0 0] CC
(3) show
GR
/Font0 FFSF
1.1365 0.1060 m
GS
[0.0571 0.0000 0.0000 0.0571 0 0] CC
(4) show
GR
/Font0 FFSF
0.5629 0.0333 m
GS
[0.0574 0.0000 0.0000 0.0574 0 0] CC
(q [fm) show
GR
/Font0 FFSF
0.6888 0.0677 m
GS
[0.0406 0.0000 0.0000 0.0406 0 0] CC
(-1) show
GR
/Font0 FFSF
0.7225 0.0333 m
GS
[0.0574 0.0000 0.0000 0.0574 0 0] CC
(]) show
GR
n
0.1495 0.1544 m
0.1495 0.8500 l
s
n
1.1500 0.1544 m
1.1500 0.8500 l
s
n
0.1495 0.2227 m
0.1595 0.2227 l
s
n
1.1500 0.2227 m
1.1400 0.2227 l
s
n
0.1495 0.3621 m
0.1595 0.3621 l
s
n
1.1500 0.3621 m
1.1400 0.3621 l
s
n
0.1495 0.5015 m
0.1595 0.5015 l
s
n
1.1500 0.5015 m
1.1400 0.5015 l
s
n
0.1495 0.6409 m
0.1595 0.6409 l
s
n
1.1500 0.6409 m
1.1400 0.6409 l
s
n
0.1495 0.7803 m
0.1595 0.7803 l
s
n
1.1500 0.7803 m
1.1400 0.7803 l
s
n
0.1495 0.2924 m
0.1695 0.2924 l
s
n
1.1500 0.2924 m
1.1300 0.2924 l
s
n
0.1495 0.4318 m
0.1695 0.4318 l
s
n
1.1500 0.4318 m
1.1300 0.4318 l
s
n
0.1495 0.5712 m
0.1695 0.5712 l
s
n
1.1500 0.5712 m
1.1300 0.5712 l
s
n
0.1495 0.7106 m
0.1695 0.7106 l
s
n
1.1500 0.7106 m
1.1300 0.7106 l
s
n
0.1495 0.8500 m
0.1695 0.8500 l
s
n
1.1500 0.8500 m
1.1300 0.8500 l
s
[] 0 SD
0.0015 SLW
n
0.1495 0.1544 m
0.1495 0.8500 l
1.1500 0.8500 l
1.1500 0.1544 l
0.1495 0.1544 l
c
s
[0.0075 0.0225 0.0375 0.0225 0.0075 0.0225 ] 0 SD
0.0075 SLW
n
0.1495 0.3761 m
1.1500 0.3761 l
s
[/DeviceRGB] SCS
Color2 SC
[0.0075 0.0225 ] 0 SD
0.0075 SLW
n
0.1495 0.4653 m
1.1500 0.4653 l
s
n
0.1600 0.6000 m
0.1600 0.3182 l
0.5606 0.3182 l
0.5606 0.6000 l
c
[/DeviceRGB] SCS
Color0 SC
fill
/Font0 FFSF
[/DeviceRGB] SCS
Color1 SC
0.2730 0.5555 m
GS
[0.0510 0.0000 0.0000 0.0510 0 0] CC
(S=0 M=0 I=0) show
GR
[/DeviceRGB] SCS
Color2 SC
[] 0 SD
0.0060 SLW
n
0.1730 0.5724 m
0.2530 0.5724 l
s
/Font0 FFSF
[/DeviceRGB] SCS
Color1 SC
0.2730 0.5102 m
GS
[0.0510 0.0000 0.0000 0.0510 0 0] CC
(S=0 M=0 I=1) show
GR
[/DeviceRGB] SCS
Color3 SC
n
0.1730 0.5271 m
0.2530 0.5271 l
s
/Font0 FFSF
[/DeviceRGB] SCS
Color1 SC
0.2730 0.4649 m
GS
[0.0510 0.0000 0.0000 0.0510 0 0] CC
(S=1 M=0 I=0) show
GR
[/DeviceRGB] SCS
Color4 SC
[0.0060 0.0180 0.0300 0.0180 ] 0 SD
0.0060 SLW
n
0.1730 0.4818 m
0.2530 0.4818 l
s
/Font0 FFSF
[/DeviceRGB] SCS
Color1 SC
0.2730 0.4196 m
GS
[0.0510 0.0000 0.0000 0.0510 0 0] CC
(S=1 M=0 I=1) show
GR
[/DeviceRGB] SCS
Color11 SC
[0.0300 0.0180 ] 0 SD
0.0060 SLW
n
0.1730 0.4365 m
0.2530 0.4365 l
s
/Font0 FFSF
[/DeviceRGB] SCS
Color1 SC
0.2730 0.3743 m
GS
[0.0510 0.0000 0.0000 0.0510 0 0] CC
(S=1 M=1 I=0) show
GR
[/DeviceRGB] SCS
Color8 SC
[0.0060 0.0180 0.0300 0.0180 ] 0 SD
0.0060 SLW
n
0.1730 0.3912 m
0.2530 0.3912 l
s
/Font0 FFSF
[/DeviceRGB] SCS
Color1 SC
0.2730 0.3290 m
GS
[0.0510 0.0000 0.0000 0.0510 0 0] CC
(S=1 M=1 I=1) show
GR
[/DeviceRGB] SCS
Color10 SC
[0.0300 0.0180 ] 0 SD
0.0060 SLW
n
0.1730 0.3459 m
0.2530 0.3459 l
s
/Font0 FFSF
[/DeviceRGB] SCS
Color1 SC
0.8500 0.2500 m
GS
[0.0848 0.0000 0.0000 0.0848 0 0] CC
(SLy5*) show
GR
showpage
%%PageTrailer
%%Trailer
%%DocumentNeededResources: font Times-Roman
%%EOF
