%!PS-Adobe-3.0
%%BoundingBox: 0 0 612 792
%%LanguageLevel: 2
%%Creator: Grace-5.1.22
%%CreationDate: Tue Oct 30 10:08:57 2012
%%DocumentData: Clean8Bit
%%Orientation: Landscape
%%Pages: 1
%%PageOrder: Ascend
%%Title: eos.agr
%%For: alessandropastore
%%DocumentNeededResources: (atend)
%%EndComments
%%BeginProlog
/PAGE_OFFSET_X 0 def
/PAGE_OFFSET_Y 0 def
/m {moveto} def
/l {lineto} def
/s {stroke} def
/n {newpath} def
/c {closepath} def
/RL {rlineto} def
/SLW {setlinewidth} def
/GS {gsave} def
/GR {grestore} def
/SC {setcolor} def
/SGRY {setgray} def
/SRGB {setrgbcolor} def
/SD {setdash} def
/SLC {setlinecap} def
/SLJ {setlinejoin} def
/SCS {setcolorspace} def
/FFSF {findfont setfont} def
/CC {concat} def
/PXL {n m 0 0 RL s} def
/Color0 {1.0000 1.0000 1.0000} def
/Color1 {0.0000 0.0000 0.0000} def
/Color2 {1.0000 0.0000 0.0000} def
/Color3 {0.0000 1.0000 0.0000} def
/Color4 {0.0000 0.0000 1.0000} def
/Color5 {1.0000 1.0000 0.0000} def
/Color6 {0.7373 0.5608 0.5608} def
/Color7 {0.8627 0.8627 0.8627} def
/Color8 {0.5804 0.0000 0.8275} def
/Color9 {0.0000 1.0000 1.0000} def
/Color10 {1.0000 0.0000 1.0000} def
/Color11 {1.0000 0.6471 0.0000} def
/Color12 {0.4471 0.1294 0.7373} def
/Color13 {0.4039 0.0275 0.2824} def
/Color14 {0.2510 0.8784 0.8157} def
/Color15 {0.0000 0.5451 0.0000} def
/Color16 {0.7529 0.7529 0.7529} def
/Color17 {0.5059 0.5059 0.5059} def
/Color18 {0.2588 0.2588 0.2588} def
/PTRN {
 /pat_bits exch def 
 <<
  /PaintType 2
  /PatternType 1 /TilingType 1
  /BBox[0 0 16 16]
  /XStep 16 /YStep 16
  /PaintProc {
   pop
   16 16 true [-1 0 0 -1 16 16] pat_bits imagemask
  }
 >>
 [0.0016 0 0 0.0016 0 0]
 makepattern
} def
/Pattern0 {<0000000000000000000000000000000000000000000000000000000000000000> PTRN} bind def
/Pattern1 {<ffffffffffffffffffffffffffffffffffffffffffffffffffffffffffffffff> PTRN} bind def
/Pattern2 {<eeeeffffbbbbffffeeeeffffbbbbffffeeeeffffbbbbffffeeeeffffbbbbffff> PTRN} bind def
/Pattern3 {<eeeebbbbeeeebbbbeeeebbbbeeeebbbbeeeebbbbeeeebbbbeeeebbbbeeeebbbb> PTRN} bind def
/Pattern4 {<5555aaaa5555aaaa5555aaaa5555aaaa5555aaaa5555aaaa5555aaaa5555aaaa> PTRN} bind def
/Pattern5 {<1111444411114444111144441111444411114444111144441111444411114444> PTRN} bind def
/Pattern6 {<1111000044440000111100004444000011110000444400001111000044440000> PTRN} bind def
/Pattern7 {<1010000000000000010100000000000010100000000000000101000000000000> PTRN} bind def
/Pattern8 {<0000000000000000000000000000000000000000000000000000000000000000> PTRN} bind def
/Pattern9 {<1e1e0f0f8787c3c3e1e1f0f078783c3c1e1e0f0f8787c3c3e1e1f0f078783c3c> PTRN} bind def
/Pattern10 {<7878f0f0e1e1c3c387870f0f1e1e3c3c7878f0f0e1e1c3c387870f0f1e1e3c3c> PTRN} bind def
/Pattern11 {<3333333333333333333333333333333333333333333333333333333333333333> PTRN} bind def
/Pattern12 {<ffffffff00000000ffffffff00000000ffffffff00000000ffffffff00000000> PTRN} bind def
/Pattern13 {<8181424224241818181824244242818181814242242418181818242442428181> PTRN} bind def
/Pattern14 {<8080404020201010080804040202010180804040202010100808040402020101> PTRN} bind def
/Pattern15 {<0101020204040808101020204040808001010202040408081010202040408080> PTRN} bind def
/Pattern16 {<2222222222222222222222222222222222222222222222222222222222222222> PTRN} bind def
/Pattern17 {<0000ffff000000000000ffff000000000000ffff000000000000ffff00000000> PTRN} bind def
/Pattern18 {<2222ffff222222222222ffff222222222222ffff222222222222ffff22222222> PTRN} bind def
/Pattern19 {<ffffffff33333333ffffffff33333333ffffffff33333333ffffffff33333333> PTRN} bind def
/Pattern20 {<0f0f0f0f0f0f0f0ff0f0f0f0f0f0f0f00f0f0f0f0f0f0f0ff0f0f0f0f0f0f0f0> PTRN} bind def
/Pattern21 {<ff00ff00ff00ff00ff00ff00ff00ff0000ff00ff00ff00ff00ff00ff00ff00ff> PTRN} bind def
/Pattern22 {<8001800180018001800180018001ffffffff8001800180018001800180018001> PTRN} bind def
/Pattern23 {<c003c003c003c003c003c003ffffffffffffffffc003c003c003c003c003c003> PTRN} bind def
/Pattern24 {<040404040404ffff404040404040ffff040404040404ffff404040404040ffff> PTRN} bind def
/Pattern25 {<180018001800180018001800ffffffff001800180018001800180018ffffffff> PTRN} bind def
/Pattern26 {<1111b8b87c7c3a3a1111a3a3c7c78b8b1111b8b87c7c3a3a1111a3a3c7c78b8b> PTRN} bind def
/Pattern27 {<101010102828c7c70101010182827c7c101010102828c7c70101010182827c7c> PTRN} bind def
/Pattern28 {<1c1c121211112121c1c12121111112121c1c121211112121c1c1212111111212> PTRN} bind def
/Pattern29 {<3e3e414180808080e3e31414080808083e3e414180808080e3e3141408080808> PTRN} bind def
/Pattern30 {<4848888884848383848488884848383848488888848483838484888848483838> PTRN} bind def
/Pattern31 {<03030404080808080c0c12122121c0c003030404080808080c0c12122121c0c0> PTRN} bind def
/ellipsedict 8 dict def
ellipsedict /mtrx matrix put
/EARC {
 ellipsedict begin
  /endangle exch def
  /startangle exch def
  /yrad exch def
  /xrad exch def
  /y exch def
  /x exch def
  /savematrix mtrx currentmatrix def
  x y translate
  xrad yrad scale
  0 0 1 startangle endangle arc
  savematrix setmatrix
 end
} def
/TL {
  /kcomp exch def
  /linewidth exch def
  /offset exch def
  GS
  0 offset rmoveto
  linewidth SLW
  dup stringwidth exch kcomp add exch RL s
  GR
} def
/KINIT
{
 /kvector exch def
 /kid 0 def
} def
/KPROC
{
 pop pop
 kvector kid get
 0 rmoveto
 /kid 1 kid add def
} def
/DefEncoding [
 /.notdef
 /.notdef
 /.notdef
 /.notdef
 /.notdef
 /.notdef
 /.notdef
 /.notdef
 /.notdef
 /.notdef
 /.notdef
 /.notdef
 /.notdef
 /.notdef
 /.notdef
 /.notdef
 /.notdef
 /.notdef
 /.notdef
 /.notdef
 /.notdef
 /.notdef
 /.notdef
 /.notdef
 /.notdef
 /.notdef
 /.notdef
 /.notdef
 /.notdef
 /.notdef
 /.notdef
 /.notdef
 /space
 /exclam
 /quotedbl
 /numbersign
 /dollar
 /percent
 /ampersand
 /quoteright
 /parenleft
 /parenright
 /asterisk
 /plus
 /comma
 /hyphen
 /period
 /slash
 /zero
 /one
 /two
 /three
 /four
 /five
 /six
 /seven
 /eight
 /nine
 /colon
 /semicolon
 /less
 /equal
 /greater
 /question
 /at
 /A
 /B
 /C
 /D
 /E
 /F
 /G
 /H
 /I
 /J
 /K
 /L
 /M
 /N
 /O
 /P
 /Q
 /R
 /S
 /T
 /U
 /V
 /W
 /X
 /Y
 /Z
 /bracketleft
 /backslash
 /bracketright
 /asciicircum
 /underscore
 /grave
 /a
 /b
 /c
 /d
 /e
 /f
 /g
 /h
 /i
 /j
 /k
 /l
 /m
 /n
 /o
 /p
 /q
 /r
 /s
 /t
 /u
 /v
 /w
 /x
 /y
 /z
 /braceleft
 /bar
 /braceright
 /asciitilde
 /.notdef
 /.notdef
 /.notdef
 /.notdef
 /.notdef
 /.notdef
 /.notdef
 /.notdef
 /.notdef
 /.notdef
 /.notdef
 /.notdef
 /.notdef
 /.notdef
 /.notdef
 /.notdef
 /.notdef
 /.notdef
 /.notdef
 /.notdef
 /.notdef
 /.notdef
 /.notdef
 /.notdef
 /.notdef
 /.notdef
 /.notdef
 /.notdef
 /.notdef
 /.notdef
 /.notdef
 /.notdef
 /.notdef
 /space
 /exclamdown
 /cent
 /sterling
 /currency
 /yen
 /brokenbar
 /section
 /dieresis
 /copyright
 /ordfeminine
 /guillemotleft
 /logicalnot
 /hyphen
 /registered
 /macron
 /degree
 /plusminus
 /twosuperior
 /threesuperior
 /acute
 /mu
 /paragraph
 /periodcentered
 /cedilla
 /onesuperior
 /ordmasculine
 /guillemotright
 /onequarter
 /onehalf
 /threequarters
 /questiondown
 /Agrave
 /Aacute
 /Acircumflex
 /Atilde
 /Adieresis
 /Aring
 /AE
 /Ccedilla
 /Egrave
 /Eacute
 /Ecircumflex
 /Edieresis
 /Igrave
 /Iacute
 /Icircumflex
 /Idieresis
 /Eth
 /Ntilde
 /Ograve
 /Oacute
 /Ocircumflex
 /Otilde
 /Odieresis
 /multiply
 /Oslash
 /Ugrave
 /Uacute
 /Ucircumflex
 /Udieresis
 /Yacute
 /Thorn
 /germandbls
 /agrave
 /aacute
 /acircumflex
 /atilde
 /adieresis
 /aring
 /ae
 /ccedilla
 /egrave
 /eacute
 /ecircumflex
 /edieresis
 /igrave
 /iacute
 /icircumflex
 /idieresis
 /eth
 /ntilde
 /ograve
 /oacute
 /ocircumflex
 /otilde
 /odieresis
 /divide
 /oslash
 /ugrave
 /uacute
 /ucircumflex
 /udieresis
 /yacute
 /thorn
 /ydieresis
] def
%%EndProlog
%%BeginSetup
%%EndSetup
%%Page: 1 1
PAGE_OFFSET_X PAGE_OFFSET_Y translate
612.00 612.00 scale
90 rotate
0.0 -1.0 translate
n
0.0000 0.0000 m
0.0000 1.0000 l
1.2941 1.0000 l
1.2941 0.0000 l
c
[/DeviceRGB] SCS
Color0 SC
fill
[/DeviceRGB] SCS
Color1 SC
[0.0420 0.0180 ] 0 SD
0.0060 SLW
0 SLC
0 SLJ
n
0.6544 0.5821 m
0.6554 0.5821 l
0.6564 0.5814 l
0.6573 0.5805 l
0.6583 0.5796 l
0.6593 0.5787 l
0.6602 0.5778 l
0.6612 0.5769 l
0.6622 0.5760 l
0.6631 0.5751 l
0.6641 0.5743 l
0.6651 0.5734 l
0.6661 0.5726 l
0.6670 0.5718 l
0.6680 0.5709 l
0.6690 0.5702 l
0.6699 0.5694 l
0.6709 0.5686 l
0.6719 0.5678 l
0.6729 0.5671 l
0.6738 0.5664 l
0.6748 0.5657 l
0.6758 0.5650 l
0.6767 0.5643 l
0.6777 0.5636 l
0.6787 0.5629 l
0.6796 0.5623 l
0.6806 0.5617 l
0.6816 0.5610 l
0.6826 0.5604 l
0.6835 0.5598 l
0.6845 0.5592 l
0.6855 0.5586 l
0.6864 0.5581 l
0.6874 0.5575 l
0.6884 0.5570 l
0.6894 0.5564 l
0.6903 0.5559 l
0.6913 0.5554 l
0.6923 0.5549 l
0.6932 0.5544 l
0.6942 0.5539 l
0.6952 0.5535 l
0.6961 0.5530 l
0.6971 0.5526 l
0.6981 0.5521 l
0.6991 0.5517 l
0.7000 0.5513 l
0.7010 0.5509 l
0.7020 0.5505 l
0.7029 0.5501 l
0.7039 0.5497 l
0.7049 0.5493 l
0.7059 0.5489 l
0.7068 0.5486 l
0.7078 0.5482 l
0.7088 0.5479 l
0.7097 0.5476 l
0.7107 0.5472 l
0.7117 0.5469 l
0.7126 0.5466 l
0.7136 0.5463 l
0.7146 0.5461 l
0.7156 0.5458 l
0.7165 0.5455 l
0.7175 0.5452 l
0.7185 0.5450 l
0.7194 0.5447 l
0.7204 0.5445 l
0.7214 0.5443 l
0.7224 0.5441 l
0.7233 0.5438 l
0.7243 0.5436 l
0.7253 0.5434 l
0.7262 0.5433 l
0.7272 0.5431 l
0.7282 0.5429 l
0.7291 0.5427 l
0.7301 0.5426 l
0.7311 0.5424 l
0.7321 0.5423 l
0.7330 0.5421 l
0.7340 0.5420 l
0.7350 0.5419 l
0.7359 0.5418 l
0.7369 0.5417 l
0.7379 0.5416 l
0.7389 0.5415 l
0.7398 0.5414 l
0.7408 0.5413 l
0.7418 0.5412 l
0.7427 0.5412 l
0.7437 0.5411 l
0.7447 0.5411 l
0.7456 0.5410 l
0.7466 0.5410 l
0.7476 0.5409 l
0.7486 0.5409 l
0.7495 0.5409 l
0.7505 0.5409 l
0.7515 0.5409 l
0.7524 0.5409 l
0.7534 0.5409 l
0.7544 0.5409 l
0.7554 0.5409 l
0.7563 0.5409 l
0.7573 0.5410 l
0.7583 0.5410 l
0.7592 0.5411 l
0.7602 0.5411 l
0.7612 0.5412 l
0.7621 0.5412 l
0.7631 0.5413 l
0.7641 0.5414 l
0.7651 0.5415 l
0.7660 0.5416 l
0.7670 0.5417 l
0.7680 0.5418 l
0.7689 0.5419 l
0.7699 0.5420 l
0.7709 0.5421 l
0.7719 0.5422 l
0.7728 0.5424 l
0.7738 0.5425 l
0.7748 0.5426 l
0.7757 0.5428 l
0.7767 0.5429 l
0.7777 0.5431 l
0.7786 0.5433 l
0.7796 0.5434 l
0.7806 0.5436 l
0.7816 0.5438 l
0.7825 0.5440 l
0.7835 0.5442 l
0.7845 0.5444 l
0.7854 0.5446 l
0.7864 0.5448 l
0.7874 0.5450 l
0.7884 0.5452 l
0.7893 0.5455 l
0.7903 0.5457 l
0.7913 0.5459 l
0.7922 0.5462 l
0.7932 0.5464 l
0.7942 0.5467 l
0.7951 0.5469 l
0.7961 0.5472 l
0.7971 0.5475 l
0.7981 0.5478 l
0.7990 0.5480 l
0.8000 0.5483 l
0.8010 0.5486 l
0.8019 0.5489 l
0.8029 0.5492 l
0.8039 0.5495 l
0.8049 0.5498 l
0.8058 0.5502 l
0.8068 0.5505 l
0.8078 0.5508 l
0.8087 0.5511 l
0.8097 0.5515 l
0.8107 0.5518 l
0.8116 0.5522 l
0.8126 0.5525 l
0.8136 0.5529 l
0.8146 0.5533 l
0.8155 0.5536 l
0.8165 0.5540 l
0.8175 0.5544 l
0.8184 0.5548 l
0.8194 0.5552 l
0.8204 0.5555 l
0.8214 0.5559 l
0.8223 0.5563 l
0.8233 0.5568 l
0.8243 0.5572 l
0.8252 0.5576 l
0.8262 0.5580 l
0.8272 0.5584 l
0.8281 0.5589 l
0.8291 0.5593 l
0.8301 0.5598 l
0.8311 0.5602 l
0.8320 0.5606 l
0.8330 0.5611 l
0.8340 0.5616 l
0.8349 0.5620 l
0.8359 0.5625 l
0.8369 0.5630 l
0.8379 0.5635 l
0.8388 0.5639 l
0.8398 0.5644 l
0.8408 0.5649 l
0.8417 0.5654 l
0.8427 0.5659 l
0.8437 0.5664 l
0.8446 0.5669 l
0.8456 0.5675 l
0.8466 0.5680 l
0.8476 0.5685 l
0.8485 0.5690 l
0.8495 0.5696 l
0.8505 0.5701 l
0.8514 0.5707 l
0.8524 0.5712 l
0.8534 0.5718 l
0.8544 0.5723 l
0.8553 0.5729 l
0.8563 0.5734 l
0.8573 0.5740 l
0.8582 0.5746 l
0.8592 0.5752 l
0.8602 0.5758 l
0.8611 0.5763 l
0.8621 0.5769 l
0.8631 0.5775 l
0.8641 0.5781 l
0.8650 0.5787 l
0.8660 0.5793 l
0.8670 0.5800 l
0.8679 0.5806 l
0.8689 0.5812 l
0.8699 0.5818 l
0.8709 0.5825 l
0.8718 0.5831 l
0.8728 0.5837 l
0.8738 0.5844 l
0.8747 0.5850 l
0.8757 0.5857 l
0.8767 0.5863 l
0.8776 0.5870 l
0.8786 0.5877 l
0.8796 0.5883 l
0.8806 0.5890 l
0.8815 0.5897 l
0.8825 0.5904 l
0.8835 0.5910 l
0.8844 0.5917 l
0.8854 0.5924 l
0.8864 0.5931 l
0.8874 0.5938 l
0.8883 0.5945 l
0.8893 0.5952 l
0.8903 0.5960 l
0.8912 0.5967 l
0.8922 0.5974 l
0.8932 0.5981 l
0.8941 0.5988 l
0.8951 0.5996 l
0.8961 0.6003 l
0.8971 0.6011 l
0.8980 0.6018 l
0.8990 0.6026 l
0.9000 0.6033 l
0.9009 0.6041 l
0.9019 0.6048 l
0.9029 0.6056 l
0.9039 0.6064 l
0.9048 0.6071 l
0.9058 0.6079 l
0.9068 0.6087 l
0.9077 0.6095 l
0.9087 0.6103 l
0.9097 0.6111 l
0.9106 0.6119 l
0.9116 0.6127 l
0.9126 0.6135 l
0.9136 0.6143 l
0.9145 0.6151 l
0.9155 0.6159 l
0.9165 0.6167 l
0.9174 0.6176 l
0.9184 0.6184 l
0.9194 0.6192 l
0.9204 0.6201 l
0.9213 0.6209 l
0.9223 0.6217 l
0.9233 0.6226 l
0.9242 0.6234 l
0.9252 0.6243 l
0.9262 0.6251 l
0.9271 0.6260 l
0.9281 0.6269 l
0.9291 0.6277 l
0.9301 0.6286 l
0.9310 0.6295 l
0.9320 0.6304 l
0.9330 0.6313 l
0.9339 0.6321 l
0.9349 0.6330 l
0.9359 0.6339 l
0.9369 0.6348 l
0.9378 0.6357 l
0.9388 0.6366 l
0.9398 0.6376 l
0.9407 0.6385 l
0.9417 0.6394 l
0.9427 0.6403 l
0.9436 0.6412 l
0.9446 0.6422 l
0.9456 0.6431 l
0.9466 0.6440 l
0.9475 0.6450 l
0.9485 0.6459 l
0.9495 0.6469 l
0.9504 0.6478 l
0.9514 0.6488 l
0.9524 0.6497 l
0.9534 0.6507 l
0.9543 0.6516 l
0.9553 0.6526 l
0.9563 0.6536 l
0.9572 0.6546 l
0.9582 0.6555 l
0.9592 0.6565 l
0.9601 0.6575 l
0.9611 0.6585 l
0.9621 0.6595 l
0.9631 0.6605 l
0.9640 0.6615 l
0.9650 0.6625 l
0.9660 0.6635 l
0.9669 0.6645 l
0.9679 0.6655 l
0.9689 0.6665 l
0.9699 0.6676 l
0.9708 0.6686 l
0.9718 0.6696 l
0.9728 0.6706 l
0.9737 0.6717 l
0.9747 0.6727 l
0.9757 0.6738 l
0.9766 0.6748 l
0.9776 0.6759 l
0.9786 0.6769 l
0.9796 0.6780 l
0.9805 0.6790 l
0.9815 0.6801 l
0.9825 0.6812 l
0.9834 0.6822 l
0.9844 0.6833 l
0.9854 0.6844 l
0.9864 0.6854 l
0.9873 0.6865 l
0.9883 0.6876 l
0.9893 0.6887 l
0.9902 0.6898 l
0.9912 0.6909 l
0.9922 0.6920 l
0.9931 0.6931 l
0.9941 0.6942 l
0.9951 0.6953 l
0.9961 0.6964 l
0.9970 0.6975 l
0.9980 0.6987 l
0.9990 0.6998 l
0.9999 0.7009 l
1.0009 0.7020 l
1.0019 0.7032 l
1.0029 0.7043 l
1.0038 0.7054 l
1.0048 0.7066 l
1.0058 0.7077 l
1.0067 0.7089 l
1.0077 0.7100 l
1.0087 0.7112 l
1.0096 0.7123 l
1.0106 0.7135 l
1.0116 0.7147 l
1.0126 0.7158 l
1.0135 0.7170 l
1.0145 0.7182 l
1.0155 0.7194 l
1.0164 0.7206 l
1.0174 0.7217 l
1.0184 0.7229 l
1.0194 0.7241 l
1.0203 0.7253 l
1.0213 0.7265 l
1.0223 0.7277 l
1.0232 0.7289 l
1.0242 0.7301 l
1.0252 0.7313 l
1.0261 0.7325 l
1.0271 0.7338 l
1.0281 0.7350 l
1.0291 0.7362 l
1.0300 0.7374 l
1.0310 0.7387 l
1.0320 0.7399 l
1.0329 0.7411 l
1.0339 0.7424 l
1.0349 0.7436 l
1.0359 0.7449 l
1.0368 0.7461 l
1.0378 0.7474 l
1.0388 0.7486 l
1.0397 0.7499 l
1.0407 0.7511 l
1.0417 0.7524 l
1.0426 0.7537 l
1.0436 0.7549 l
1.0446 0.7562 l
1.0456 0.7575 l
1.0465 0.7588 l
1.0475 0.7600 l
1.0485 0.7613 l
1.0494 0.7626 l
1.0504 0.7639 l
1.0514 0.7652 l
1.0524 0.7665 l
1.0533 0.7678 l
1.0543 0.7691 l
1.0553 0.7704 l
1.0562 0.7717 l
1.0572 0.7730 l
1.0582 0.7743 l
1.0591 0.7757 l
1.0601 0.7770 l
1.0611 0.7783 l
1.0621 0.7796 l
1.0630 0.7810 l
1.0640 0.7823 l
1.0650 0.7836 l
1.0659 0.7850 l
1.0669 0.7863 l
1.0679 0.7877 l
1.0689 0.7890 l
1.0698 0.7904 l
1.0708 0.7917 l
1.0718 0.7931 l
1.0727 0.7945 l
1.0737 0.7958 l
1.0747 0.7972 l
1.0756 0.7986 l
1.0766 0.7999 l
1.0776 0.8013 l
1.0786 0.8027 l
1.0795 0.8041 l
1.0805 0.8055 l
1.0815 0.8068 l
1.0824 0.8082 l
1.0834 0.8096 l
1.0844 0.8110 l
1.0854 0.8124 l
1.0863 0.8138 l
1.0873 0.8152 l
1.0883 0.8166 l
1.0892 0.8181 l
1.0902 0.8195 l
1.0912 0.8209 l
1.0921 0.8223 l
1.0931 0.8237 l
1.0941 0.8252 l
1.0951 0.8266 l
1.0960 0.8280 l
1.0970 0.8295 l
1.0980 0.8309 l
1.0989 0.8323 l
1.0999 0.8338 l
1.1009 0.8352 l
1.1019 0.8367 l
1.1028 0.8381 l
1.1038 0.8396 l
s
[/DeviceRGB] SCS
Color3 SC
n
0.6544 0.5821 m
0.6554 0.5854 l
0.6564 0.5870 l
0.6573 0.5882 l
0.6583 0.5892 l
0.6593 0.5901 l
0.6602 0.5909 l
0.6612 0.5916 l
0.6622 0.5923 l
0.6631 0.5929 l
0.6641 0.5935 l
0.6651 0.5940 l
0.6661 0.5945 l
0.6670 0.5950 l
0.6680 0.5955 l
0.6690 0.5959 l
0.6699 0.5963 l
0.6709 0.5968 l
0.6719 0.5972 l
0.6729 0.5976 l
0.6738 0.5980 l
0.6748 0.5983 l
0.6758 0.5987 l
0.6767 0.5991 l
0.6777 0.5994 l
0.6787 0.5998 l
0.6796 0.6001 l
0.6806 0.6005 l
0.6816 0.6008 l
0.6826 0.6011 l
0.6835 0.6015 l
0.6845 0.6018 l
0.6855 0.6021 l
0.6864 0.6024 l
0.6874 0.6027 l
0.6884 0.6031 l
0.6894 0.6034 l
0.6903 0.6037 l
0.6913 0.6040 l
0.6923 0.6043 l
0.6932 0.6046 l
0.6942 0.6050 l
0.6952 0.6053 l
0.6961 0.6056 l
0.6971 0.6059 l
0.6981 0.6062 l
0.6991 0.6065 l
0.7000 0.6068 l
0.7010 0.6072 l
0.7020 0.6075 l
0.7029 0.6078 l
0.7039 0.6081 l
0.7049 0.6084 l
0.7059 0.6087 l
0.7068 0.6091 l
0.7078 0.6094 l
0.7088 0.6097 l
0.7097 0.6100 l
0.7107 0.6104 l
0.7117 0.6107 l
0.7126 0.6110 l
0.7136 0.6113 l
0.7146 0.6117 l
0.7156 0.6120 l
0.7165 0.6123 l
0.7175 0.6127 l
0.7185 0.6130 l
0.7194 0.6133 l
0.7204 0.6137 l
0.7214 0.6140 l
0.7224 0.6144 l
0.7233 0.6147 l
0.7243 0.6151 l
0.7253 0.6154 l
0.7262 0.6158 l
0.7272 0.6161 l
0.7282 0.6165 l
0.7291 0.6169 l
0.7301 0.6172 l
0.7311 0.6176 l
0.7321 0.6180 l
0.7330 0.6183 l
0.7340 0.6187 l
0.7350 0.6191 l
0.7359 0.6194 l
0.7369 0.6198 l
0.7379 0.6202 l
0.7389 0.6206 l
0.7398 0.6210 l
0.7408 0.6214 l
0.7418 0.6217 l
0.7427 0.6221 l
0.7437 0.6225 l
0.7447 0.6229 l
0.7456 0.6233 l
0.7466 0.6237 l
0.7476 0.6241 l
0.7486 0.6246 l
0.7495 0.6250 l
0.7505 0.6254 l
0.7515 0.6258 l
0.7524 0.6262 l
0.7534 0.6266 l
0.7544 0.6271 l
0.7554 0.6275 l
0.7563 0.6279 l
0.7573 0.6283 l
0.7583 0.6288 l
0.7592 0.6292 l
0.7602 0.6297 l
0.7612 0.6301 l
0.7621 0.6305 l
0.7631 0.6310 l
0.7641 0.6314 l
0.7651 0.6319 l
0.7660 0.6323 l
0.7670 0.6328 l
0.7680 0.6333 l
0.7689 0.6337 l
0.7699 0.6342 l
0.7709 0.6347 l
0.7719 0.6351 l
0.7728 0.6356 l
0.7738 0.6361 l
0.7748 0.6366 l
0.7757 0.6370 l
0.7767 0.6375 l
0.7777 0.6380 l
0.7786 0.6385 l
0.7796 0.6390 l
0.7806 0.6395 l
0.7816 0.6400 l
0.7825 0.6405 l
0.7835 0.6410 l
0.7845 0.6415 l
0.7854 0.6420 l
0.7864 0.6425 l
0.7874 0.6431 l
0.7884 0.6436 l
0.7893 0.6441 l
0.7903 0.6446 l
0.7913 0.6452 l
0.7922 0.6457 l
0.7932 0.6462 l
0.7942 0.6467 l
0.7951 0.6473 l
0.7961 0.6478 l
0.7971 0.6484 l
0.7981 0.6489 l
0.7990 0.6495 l
0.8000 0.6500 l
0.8010 0.6506 l
0.8019 0.6511 l
0.8029 0.6517 l
0.8039 0.6523 l
0.8049 0.6528 l
0.8058 0.6534 l
0.8068 0.6540 l
0.8078 0.6545 l
0.8087 0.6551 l
0.8097 0.6557 l
0.8107 0.6563 l
0.8116 0.6569 l
0.8126 0.6575 l
0.8136 0.6580 l
0.8146 0.6586 l
0.8155 0.6592 l
0.8165 0.6598 l
0.8175 0.6604 l
0.8184 0.6610 l
0.8194 0.6617 l
0.8204 0.6623 l
0.8214 0.6629 l
0.8223 0.6635 l
0.8233 0.6641 l
0.8243 0.6647 l
0.8252 0.6654 l
0.8262 0.6660 l
0.8272 0.6666 l
0.8281 0.6673 l
0.8291 0.6679 l
0.8301 0.6685 l
0.8311 0.6692 l
0.8320 0.6698 l
0.8330 0.6705 l
0.8340 0.6711 l
0.8349 0.6718 l
0.8359 0.6724 l
0.8369 0.6731 l
0.8379 0.6738 l
0.8388 0.6744 l
0.8398 0.6751 l
0.8408 0.6758 l
0.8417 0.6764 l
0.8427 0.6771 l
0.8437 0.6778 l
0.8446 0.6785 l
0.8456 0.6792 l
0.8466 0.6798 l
0.8476 0.6805 l
0.8485 0.6812 l
0.8495 0.6819 l
0.8505 0.6826 l
0.8514 0.6833 l
0.8524 0.6840 l
0.8534 0.6847 l
0.8544 0.6854 l
0.8553 0.6862 l
0.8563 0.6869 l
0.8573 0.6876 l
0.8582 0.6883 l
0.8592 0.6890 l
0.8602 0.6898 l
0.8611 0.6905 l
0.8621 0.6912 l
0.8631 0.6920 l
0.8641 0.6927 l
0.8650 0.6934 l
0.8660 0.6942 l
0.8670 0.6949 l
0.8679 0.6957 l
0.8689 0.6964 l
0.8699 0.6972 l
0.8709 0.6979 l
0.8718 0.6987 l
0.8728 0.6995 l
0.8738 0.7002 l
0.8747 0.7010 l
0.8757 0.7018 l
0.8767 0.7025 l
0.8776 0.7033 l
0.8786 0.7041 l
0.8796 0.7049 l
0.8806 0.7057 l
0.8815 0.7064 l
0.8825 0.7072 l
0.8835 0.7080 l
0.8844 0.7088 l
0.8854 0.7096 l
0.8864 0.7104 l
0.8874 0.7112 l
0.8883 0.7120 l
0.8893 0.7128 l
0.8903 0.7136 l
0.8912 0.7145 l
0.8922 0.7153 l
0.8932 0.7161 l
0.8941 0.7169 l
0.8951 0.7177 l
0.8961 0.7186 l
0.8971 0.7194 l
0.8980 0.7202 l
0.8990 0.7211 l
0.9000 0.7219 l
0.9009 0.7228 l
0.9019 0.7236 l
0.9029 0.7245 l
0.9039 0.7253 l
0.9048 0.7262 l
0.9058 0.7270 l
0.9068 0.7279 l
0.9077 0.7287 l
0.9087 0.7296 l
0.9097 0.7305 l
0.9106 0.7313 l
0.9116 0.7322 l
0.9126 0.7331 l
0.9136 0.7340 l
0.9145 0.7348 l
0.9155 0.7357 l
0.9165 0.7366 l
0.9174 0.7375 l
0.9184 0.7384 l
0.9194 0.7393 l
0.9204 0.7402 l
0.9213 0.7411 l
0.9223 0.7420 l
0.9233 0.7429 l
0.9242 0.7438 l
0.9252 0.7447 l
0.9262 0.7456 l
0.9271 0.7465 l
0.9281 0.7474 l
0.9291 0.7484 l
0.9301 0.7493 l
0.9310 0.7502 l
0.9320 0.7511 l
0.9330 0.7521 l
0.9339 0.7530 l
0.9349 0.7539 l
0.9359 0.7549 l
0.9369 0.7558 l
0.9378 0.7568 l
0.9388 0.7577 l
0.9398 0.7587 l
0.9407 0.7596 l
0.9417 0.7606 l
0.9427 0.7615 l
0.9436 0.7625 l
0.9446 0.7635 l
0.9456 0.7644 l
0.9466 0.7654 l
0.9475 0.7664 l
0.9485 0.7673 l
0.9495 0.7683 l
0.9504 0.7693 l
0.9514 0.7703 l
0.9524 0.7713 l
0.9534 0.7722 l
0.9543 0.7732 l
0.9553 0.7742 l
0.9563 0.7752 l
0.9572 0.7762 l
0.9582 0.7772 l
0.9592 0.7782 l
0.9601 0.7792 l
0.9611 0.7802 l
0.9621 0.7812 l
0.9631 0.7823 l
0.9640 0.7833 l
0.9650 0.7843 l
0.9660 0.7853 l
0.9669 0.7863 l
0.9679 0.7874 l
0.9689 0.7884 l
0.9699 0.7894 l
0.9708 0.7905 l
0.9718 0.7915 l
0.9728 0.7925 l
0.9737 0.7936 l
0.9747 0.7946 l
0.9757 0.7957 l
0.9766 0.7967 l
0.9776 0.7978 l
0.9786 0.7988 l
0.9796 0.7999 l
0.9805 0.8009 l
0.9815 0.8020 l
0.9825 0.8031 l
0.9834 0.8041 l
0.9844 0.8052 l
0.9854 0.8063 l
0.9864 0.8074 l
0.9873 0.8084 l
0.9883 0.8095 l
0.9893 0.8106 l
0.9902 0.8117 l
0.9912 0.8128 l
0.9922 0.8139 l
0.9931 0.8150 l
0.9941 0.8161 l
0.9951 0.8172 l
0.9961 0.8183 l
0.9970 0.8194 l
0.9980 0.8205 l
0.9990 0.8216 l
0.9999 0.8227 l
1.0009 0.8238 l
1.0019 0.8249 l
1.0029 0.8261 l
1.0038 0.8272 l
1.0048 0.8283 l
1.0058 0.8294 l
1.0067 0.8306 l
1.0077 0.8317 l
1.0087 0.8328 l
1.0096 0.8340 l
1.0106 0.8351 l
1.0116 0.8363 l
1.0126 0.8374 l
1.0135 0.8385 l
1.0144 0.8396 l
s
[/DeviceRGB] SCS
Color1 SC
[] 0 SD
0.0045 SLW
n
0.6544 0.5306 m
1.1397 0.5306 l
s
n
0.6544 0.8395 m
1.1397 0.8395 l
s
n
0.7151 0.5306 m
0.7151 0.5406 l
s
n
0.7151 0.8395 m
0.7151 0.8295 l
s
n
0.8364 0.5306 m
0.8364 0.5406 l
s
n
0.8364 0.8395 m
0.8364 0.8295 l
s
n
0.9577 0.5306 m
0.9577 0.5406 l
s
n
0.9577 0.8395 m
0.9577 0.8295 l
s
n
1.0790 0.5306 m
1.0790 0.5406 l
s
n
1.0790 0.8395 m
1.0790 0.8295 l
s
n
0.6544 0.5306 m
0.6544 0.5506 l
s
n
0.6544 0.8395 m
0.6544 0.8195 l
s
n
0.7757 0.5306 m
0.7757 0.5506 l
s
n
0.7757 0.8395 m
0.7757 0.8195 l
s
n
0.8971 0.5306 m
0.8971 0.5506 l
s
n
0.8971 0.8395 m
0.8971 0.8195 l
s
n
1.0184 0.5306 m
1.0184 0.5506 l
s
n
1.0184 0.8395 m
1.0184 0.8195 l
s
n
1.1397 0.5306 m
1.1397 0.5506 l
s
n
1.1397 0.8395 m
1.1397 0.8195 l
s
n
0.6544 0.5306 m
0.6544 0.8395 l
s
n
1.1397 0.5306 m
1.1397 0.8395 l
s
n
0.6544 0.6464 m
0.6644 0.6464 l
s
n
1.1397 0.6464 m
1.1297 0.6464 l
s
n
0.6544 0.7751 m
0.6644 0.7751 l
s
n
1.1397 0.7751 m
1.1297 0.7751 l
s
n
0.6544 0.5821 m
0.6744 0.5821 l
s
n
1.1397 0.5821 m
1.1197 0.5821 l
s
n
0.6544 0.7108 m
0.6744 0.7108 l
s
n
1.1397 0.7108 m
1.1197 0.7108 l
s
n
0.6544 0.8395 m
0.6744 0.8395 l
s
n
1.1397 0.8395 m
1.1197 0.8395 l
s
[] 0 SD
0.0015 SLW
n
0.6544 0.5306 m
0.6544 0.8395 l
1.1397 0.8395 l
1.1397 0.5306 l
0.6544 0.5306 l
c
s
[0.0300 0.0180 ] 0 SD
0.0060 SLW
n
0.6544 0.4951 m
0.6554 0.4933 l
0.6564 0.4915 l
0.6573 0.4897 l
0.6583 0.4879 l
0.6593 0.4862 l
0.6603 0.4844 l
0.6613 0.4827 l
0.6622 0.4810 l
0.6632 0.4793 l
0.6642 0.4776 l
0.6652 0.4759 l
0.6662 0.4742 l
0.6671 0.4726 l
0.6681 0.4710 l
0.6691 0.4693 l
0.6701 0.4677 l
0.6711 0.4661 l
0.6720 0.4646 l
0.6730 0.4630 l
0.6740 0.4614 l
0.6750 0.4599 l
0.6760 0.4584 l
0.6769 0.4568 l
0.6779 0.4553 l
0.6789 0.4538 l
0.6799 0.4523 l
0.6809 0.4509 l
0.6818 0.4494 l
0.6828 0.4480 l
0.6838 0.4465 l
0.6848 0.4451 l
0.6858 0.4437 l
0.6867 0.4423 l
0.6877 0.4408 l
0.6887 0.4395 l
0.6897 0.4381 l
0.6906 0.4367 l
0.6916 0.4354 l
0.6926 0.4340 l
0.6936 0.4327 l
0.6946 0.4313 l
0.6955 0.4300 l
0.6965 0.4287 l
0.6975 0.4274 l
0.6985 0.4261 l
0.6995 0.4248 l
0.7004 0.4236 l
0.7014 0.4223 l
0.7024 0.4210 l
0.7034 0.4198 l
0.7044 0.4186 l
0.7053 0.4173 l
0.7063 0.4161 l
0.7073 0.4149 l
0.7083 0.4137 l
0.7093 0.4125 l
0.7102 0.4113 l
0.7112 0.4101 l
0.7122 0.4090 l
0.7132 0.4078 l
0.7142 0.4067 l
0.7151 0.4055 l
0.7161 0.4044 l
0.7171 0.4032 l
0.7181 0.4021 l
0.7191 0.4010 l
0.7200 0.3999 l
0.7210 0.3988 l
0.7220 0.3977 l
0.7230 0.3966 l
0.7239 0.3955 l
0.7249 0.3944 l
0.7259 0.3934 l
0.7269 0.3923 l
0.7279 0.3913 l
0.7288 0.3902 l
0.7298 0.3892 l
0.7308 0.3882 l
0.7318 0.3871 l
0.7328 0.3861 l
0.7337 0.3851 l
0.7347 0.3841 l
0.7357 0.3831 l
0.7367 0.3821 l
0.7377 0.3811 l
0.7386 0.3801 l
0.7396 0.3791 l
0.7406 0.3782 l
0.7416 0.3772 l
0.7426 0.3763 l
0.7435 0.3753 l
0.7445 0.3744 l
0.7455 0.3734 l
0.7465 0.3725 l
0.7475 0.3716 l
0.7484 0.3706 l
0.7494 0.3697 l
0.7504 0.3688 l
0.7514 0.3679 l
0.7524 0.3670 l
0.7533 0.3661 l
0.7543 0.3652 l
0.7553 0.3643 l
0.7563 0.3634 l
0.7572 0.3626 l
0.7582 0.3617 l
0.7592 0.3608 l
0.7602 0.3600 l
0.7612 0.3591 l
0.7621 0.3583 l
0.7631 0.3574 l
0.7641 0.3566 l
0.7651 0.3558 l
0.7661 0.3549 l
0.7670 0.3541 l
0.7680 0.3533 l
0.7690 0.3525 l
0.7700 0.3516 l
0.7710 0.3508 l
0.7719 0.3500 l
0.7729 0.3492 l
0.7739 0.3484 l
0.7749 0.3477 l
0.7759 0.3469 l
0.7768 0.3461 l
0.7778 0.3453 l
0.7788 0.3445 l
0.7798 0.3438 l
0.7808 0.3430 l
0.7817 0.3423 l
0.7827 0.3415 l
0.7837 0.3408 l
0.7847 0.3400 l
0.7857 0.3393 l
0.7866 0.3385 l
0.7876 0.3378 l
0.7886 0.3371 l
0.7896 0.3363 l
0.7905 0.3356 l
0.7915 0.3349 l
0.7925 0.3342 l
0.7935 0.3335 l
0.7945 0.3328 l
0.7954 0.3321 l
0.7964 0.3314 l
0.7974 0.3307 l
0.7984 0.3300 l
0.7994 0.3293 l
0.8003 0.3286 l
0.8013 0.3279 l
0.8023 0.3272 l
0.8033 0.3266 l
0.8043 0.3259 l
0.8052 0.3252 l
0.8062 0.3246 l
0.8072 0.3239 l
0.8082 0.3232 l
0.8092 0.3226 l
0.8101 0.3219 l
0.8111 0.3213 l
0.8121 0.3206 l
0.8131 0.3200 l
0.8141 0.3194 l
0.8150 0.3187 l
0.8160 0.3181 l
0.8170 0.3175 l
0.8180 0.3168 l
0.8190 0.3162 l
0.8199 0.3156 l
0.8209 0.3150 l
0.8219 0.3144 l
0.8229 0.3138 l
0.8238 0.3131 l
0.8248 0.3125 l
0.8258 0.3119 l
0.8268 0.3113 l
0.8278 0.3108 l
0.8287 0.3102 l
0.8297 0.3096 l
0.8307 0.3090 l
0.8317 0.3084 l
0.8327 0.3078 l
0.8336 0.3072 l
0.8346 0.3067 l
0.8356 0.3061 l
0.8366 0.3055 l
0.8376 0.3050 l
0.8385 0.3044 l
0.8395 0.3038 l
0.8405 0.3033 l
0.8415 0.3027 l
0.8425 0.3022 l
0.8434 0.3016 l
0.8444 0.3011 l
0.8454 0.3005 l
0.8464 0.3000 l
0.8474 0.2994 l
0.8483 0.2989 l
0.8493 0.2983 l
0.8503 0.2978 l
0.8513 0.2973 l
0.8523 0.2968 l
0.8532 0.2962 l
0.8542 0.2957 l
0.8552 0.2952 l
0.8562 0.2947 l
0.8571 0.2941 l
0.8581 0.2936 l
0.8591 0.2931 l
0.8601 0.2926 l
0.8611 0.2921 l
0.8620 0.2916 l
0.8630 0.2911 l
0.8640 0.2906 l
0.8650 0.2901 l
0.8660 0.2896 l
0.8669 0.2891 l
0.8679 0.2886 l
0.8689 0.2881 l
0.8699 0.2876 l
0.8709 0.2871 l
0.8718 0.2867 l
0.8728 0.2862 l
0.8738 0.2857 l
0.8748 0.2852 l
0.8758 0.2847 l
0.8767 0.2843 l
0.8777 0.2838 l
0.8787 0.2833 l
0.8797 0.2829 l
0.8807 0.2824 l
0.8816 0.2819 l
0.8826 0.2815 l
0.8836 0.2810 l
0.8846 0.2806 l
0.8856 0.2801 l
0.8865 0.2797 l
0.8875 0.2792 l
0.8885 0.2788 l
0.8895 0.2783 l
0.8904 0.2779 l
0.8914 0.2774 l
0.8924 0.2770 l
0.8934 0.2765 l
0.8944 0.2761 l
0.8953 0.2757 l
0.8963 0.2752 l
0.8973 0.2748 l
0.8983 0.2744 l
0.8993 0.2739 l
0.9002 0.2735 l
0.9012 0.2731 l
0.9022 0.2726 l
0.9032 0.2722 l
0.9042 0.2718 l
0.9051 0.2714 l
0.9061 0.2710 l
0.9071 0.2706 l
0.9081 0.2701 l
0.9091 0.2697 l
0.9100 0.2693 l
0.9110 0.2689 l
0.9120 0.2685 l
0.9130 0.2681 l
0.9140 0.2677 l
0.9149 0.2673 l
0.9159 0.2669 l
0.9169 0.2665 l
0.9179 0.2661 l
0.9189 0.2657 l
0.9198 0.2653 l
0.9208 0.2649 l
0.9218 0.2645 l
0.9228 0.2641 l
0.9237 0.2637 l
0.9247 0.2634 l
0.9257 0.2630 l
0.9267 0.2626 l
0.9277 0.2622 l
0.9286 0.2618 l
0.9296 0.2614 l
0.9306 0.2611 l
0.9316 0.2607 l
0.9326 0.2603 l
0.9335 0.2599 l
0.9345 0.2596 l
0.9355 0.2592 l
0.9365 0.2588 l
0.9375 0.2585 l
0.9384 0.2581 l
0.9394 0.2577 l
0.9404 0.2574 l
0.9414 0.2570 l
0.9424 0.2566 l
0.9433 0.2563 l
0.9443 0.2559 l
0.9453 0.2556 l
0.9463 0.2552 l
0.9473 0.2549 l
0.9482 0.2545 l
0.9492 0.2542 l
0.9502 0.2538 l
0.9512 0.2535 l
0.9522 0.2531 l
0.9531 0.2528 l
0.9541 0.2524 l
0.9551 0.2521 l
0.9561 0.2517 l
0.9570 0.2514 l
0.9580 0.2510 l
0.9590 0.2507 l
0.9600 0.2504 l
0.9610 0.2500 l
0.9619 0.2497 l
0.9629 0.2494 l
0.9639 0.2490 l
0.9649 0.2487 l
0.9659 0.2484 l
0.9668 0.2480 l
0.9678 0.2477 l
0.9688 0.2474 l
0.9698 0.2471 l
0.9708 0.2467 l
0.9717 0.2464 l
0.9727 0.2461 l
0.9737 0.2458 l
0.9747 0.2455 l
0.9757 0.2451 l
0.9766 0.2448 l
0.9776 0.2445 l
0.9786 0.2442 l
0.9796 0.2439 l
0.9806 0.2436 l
0.9815 0.2432 l
0.9825 0.2429 l
0.9835 0.2426 l
0.9845 0.2423 l
0.9855 0.2420 l
0.9864 0.2417 l
0.9874 0.2414 l
0.9884 0.2411 l
0.9894 0.2408 l
0.9904 0.2405 l
0.9913 0.2402 l
0.9923 0.2399 l
0.9933 0.2396 l
0.9943 0.2393 l
0.9952 0.2390 l
0.9962 0.2387 l
0.9972 0.2384 l
0.9982 0.2381 l
0.9992 0.2378 l
1.0001 0.2375 l
1.0011 0.2372 l
1.0021 0.2369 l
1.0031 0.2367 l
1.0041 0.2364 l
1.0050 0.2361 l
1.0060 0.2358 l
1.0070 0.2355 l
1.0080 0.2352 l
1.0090 0.2349 l
1.0099 0.2347 l
1.0109 0.2344 l
1.0119 0.2341 l
1.0129 0.2338 l
1.0139 0.2335 l
1.0148 0.2333 l
1.0158 0.2330 l
1.0168 0.2327 l
1.0178 0.2324 l
1.0188 0.2322 l
1.0197 0.2319 l
1.0207 0.2316 l
1.0217 0.2313 l
1.0227 0.2311 l
1.0237 0.2308 l
1.0246 0.2305 l
1.0256 0.2303 l
1.0266 0.2300 l
1.0276 0.2297 l
1.0285 0.2295 l
1.0295 0.2292 l
1.0305 0.2289 l
1.0315 0.2287 l
1.0325 0.2284 l
1.0334 0.2282 l
1.0344 0.2279 l
1.0354 0.2276 l
1.0364 0.2274 l
1.0374 0.2271 l
1.0383 0.2269 l
1.0393 0.2266 l
1.0403 0.2264 l
1.0413 0.2261 l
1.0423 0.2258 l
1.0432 0.2256 l
1.0442 0.2253 l
1.0452 0.2251 l
1.0462 0.2248 l
1.0472 0.2246 l
1.0481 0.2243 l
1.0491 0.2241 l
1.0501 0.2238 l
1.0511 0.2236 l
1.0521 0.2234 l
1.0530 0.2231 l
1.0540 0.2229 l
1.0550 0.2226 l
1.0560 0.2224 l
1.0570 0.2221 l
1.0579 0.2219 l
1.0589 0.2217 l
1.0599 0.2214 l
1.0609 0.2212 l
1.0618 0.2209 l
1.0628 0.2207 l
1.0638 0.2205 l
1.0648 0.2202 l
1.0658 0.2200 l
1.0667 0.2198 l
1.0677 0.2195 l
1.0687 0.2193 l
1.0697 0.2191 l
1.0707 0.2188 l
1.0716 0.2186 l
1.0726 0.2184 l
1.0736 0.2181 l
1.0746 0.2179 l
1.0756 0.2177 l
1.0765 0.2174 l
1.0775 0.2172 l
1.0785 0.2170 l
1.0795 0.2168 l
1.0805 0.2165 l
1.0814 0.2163 l
1.0824 0.2161 l
1.0834 0.2159 l
1.0844 0.2157 l
1.0854 0.2154 l
1.0863 0.2152 l
1.0873 0.2150 l
1.0883 0.2148 l
1.0893 0.2146 l
1.0903 0.2143 l
1.0912 0.2141 l
1.0922 0.2139 l
1.0932 0.2137 l
1.0942 0.2135 l
1.0951 0.2133 l
1.0961 0.2130 l
1.0971 0.2128 l
1.0981 0.2126 l
1.0991 0.2124 l
1.1000 0.2122 l
1.1010 0.2120 l
1.1020 0.2118 l
1.1030 0.2116 l
1.1040 0.2113 l
1.1049 0.2111 l
1.1059 0.2109 l
1.1069 0.2107 l
1.1079 0.2105 l
1.1089 0.2103 l
1.1098 0.2101 l
1.1108 0.2099 l
1.1118 0.2097 l
1.1128 0.2095 l
1.1138 0.2093 l
1.1147 0.2091 l
1.1157 0.2089 l
1.1167 0.2087 l
1.1177 0.2085 l
1.1187 0.2083 l
1.1196 0.2081 l
1.1206 0.2079 l
1.1216 0.2077 l
1.1226 0.2075 l
1.1236 0.2073 l
1.1245 0.2071 l
1.1255 0.2069 l
1.1265 0.2067 l
1.1275 0.2065 l
1.1284 0.2063 l
1.1294 0.2061 l
1.1304 0.2059 l
1.1314 0.2057 l
1.1324 0.2055 l
1.1333 0.2053 l
1.1343 0.2051 l
1.1353 0.2049 l
1.1363 0.2048 l
1.1373 0.2046 l
1.1382 0.2044 l
1.1392 0.2042 l
1.1402 0.2040 l
1.1412 0.2038 l
1.1422 0.2036 l
1.1431 0.2034 l
1.1441 0.2032 l
s
[/DeviceRGB] SCS
Color3 SC
n
0.6544 0.4951 m
0.6554 0.4932 l
0.6564 0.4914 l
0.6573 0.4896 l
0.6583 0.4878 l
0.6593 0.4860 l
0.6603 0.4842 l
0.6613 0.4824 l
0.6622 0.4807 l
0.6632 0.4789 l
0.6642 0.4772 l
0.6652 0.4755 l
0.6662 0.4738 l
0.6671 0.4721 l
0.6681 0.4705 l
0.6691 0.4688 l
0.6701 0.4672 l
0.6711 0.4655 l
0.6720 0.4639 l
0.6730 0.4623 l
0.6740 0.4607 l
0.6750 0.4592 l
0.6760 0.4576 l
0.6769 0.4561 l
0.6779 0.4545 l
0.6789 0.4530 l
0.6799 0.4515 l
0.6809 0.4500 l
0.6818 0.4485 l
0.6828 0.4470 l
0.6838 0.4455 l
0.6848 0.4441 l
0.6858 0.4426 l
0.6867 0.4412 l
0.6877 0.4398 l
0.6887 0.4384 l
0.6897 0.4370 l
0.6906 0.4356 l
0.6916 0.4342 l
0.6926 0.4328 l
0.6936 0.4315 l
0.6946 0.4301 l
0.6955 0.4288 l
0.6965 0.4275 l
0.6975 0.4261 l
0.6985 0.4248 l
0.6995 0.4235 l
0.7004 0.4222 l
0.7014 0.4210 l
0.7024 0.4197 l
0.7034 0.4184 l
0.7044 0.4172 l
0.7053 0.4159 l
0.7063 0.4147 l
0.7073 0.4135 l
0.7083 0.4122 l
0.7093 0.4110 l
0.7102 0.4098 l
0.7112 0.4086 l
0.7122 0.4074 l
0.7132 0.4063 l
0.7142 0.4051 l
0.7151 0.4039 l
0.7161 0.4028 l
0.7171 0.4016 l
0.7181 0.4005 l
0.7191 0.3994 l
0.7200 0.3982 l
0.7210 0.3971 l
0.7220 0.3960 l
0.7230 0.3949 l
0.7239 0.3938 l
0.7249 0.3927 l
0.7259 0.3917 l
0.7269 0.3906 l
0.7279 0.3895 l
0.7288 0.3885 l
0.7298 0.3874 l
0.7308 0.3864 l
0.7318 0.3853 l
0.7328 0.3843 l
0.7337 0.3833 l
0.7347 0.3823 l
0.7357 0.3812 l
0.7367 0.3802 l
0.7377 0.3792 l
0.7386 0.3783 l
0.7396 0.3773 l
0.7406 0.3763 l
0.7416 0.3753 l
0.7426 0.3743 l
0.7435 0.3734 l
0.7445 0.3724 l
0.7455 0.3715 l
0.7465 0.3705 l
0.7475 0.3696 l
0.7484 0.3687 l
0.7494 0.3677 l
0.7504 0.3668 l
0.7514 0.3659 l
0.7524 0.3650 l
0.7533 0.3641 l
0.7543 0.3632 l
0.7553 0.3623 l
0.7563 0.3614 l
0.7572 0.3605 l
0.7582 0.3597 l
0.7592 0.3588 l
0.7602 0.3579 l
0.7612 0.3571 l
0.7621 0.3562 l
0.7631 0.3554 l
0.7641 0.3545 l
0.7651 0.3537 l
0.7661 0.3528 l
0.7670 0.3520 l
0.7680 0.3512 l
0.7690 0.3503 l
0.7700 0.3495 l
0.7710 0.3487 l
0.7719 0.3479 l
0.7729 0.3471 l
0.7739 0.3463 l
0.7749 0.3455 l
0.7759 0.3447 l
0.7768 0.3439 l
0.7778 0.3432 l
0.7788 0.3424 l
0.7798 0.3416 l
0.7808 0.3408 l
0.7817 0.3401 l
0.7827 0.3393 l
0.7837 0.3386 l
0.7847 0.3378 l
0.7857 0.3371 l
0.7866 0.3363 l
0.7876 0.3356 l
0.7886 0.3348 l
0.7896 0.3341 l
0.7905 0.3334 l
0.7915 0.3327 l
0.7925 0.3319 l
0.7935 0.3312 l
0.7945 0.3305 l
0.7954 0.3298 l
0.7964 0.3291 l
0.7974 0.3284 l
0.7984 0.3277 l
0.7994 0.3270 l
0.8003 0.3263 l
0.8013 0.3256 l
0.8023 0.3250 l
0.8033 0.3243 l
0.8043 0.3236 l
0.8052 0.3229 l
0.8062 0.3223 l
0.8072 0.3216 l
0.8082 0.3210 l
0.8092 0.3203 l
0.8101 0.3196 l
0.8111 0.3190 l
0.8121 0.3183 l
0.8131 0.3177 l
0.8141 0.3171 l
0.8150 0.3164 l
0.8160 0.3158 l
0.8170 0.3152 l
0.8180 0.3145 l
0.8190 0.3139 l
0.8199 0.3133 l
0.8209 0.3127 l
0.8219 0.3121 l
0.8229 0.3114 l
0.8238 0.3108 l
0.8248 0.3102 l
0.8258 0.3096 l
0.8268 0.3090 l
0.8278 0.3084 l
0.8287 0.3078 l
0.8297 0.3072 l
0.8307 0.3066 l
0.8317 0.3061 l
0.8327 0.3055 l
0.8336 0.3049 l
0.8346 0.3043 l
0.8356 0.3037 l
0.8366 0.3032 l
0.8376 0.3026 l
0.8385 0.3020 l
0.8395 0.3015 l
0.8405 0.3009 l
0.8415 0.3004 l
0.8425 0.2998 l
0.8434 0.2993 l
0.8444 0.2987 l
0.8454 0.2982 l
0.8464 0.2976 l
0.8474 0.2971 l
0.8483 0.2965 l
0.8493 0.2960 l
0.8503 0.2955 l
0.8513 0.2949 l
0.8523 0.2944 l
0.8532 0.2939 l
0.8542 0.2933 l
0.8552 0.2928 l
0.8562 0.2923 l
0.8571 0.2918 l
0.8581 0.2913 l
0.8591 0.2908 l
0.8601 0.2902 l
0.8611 0.2897 l
0.8620 0.2892 l
0.8630 0.2887 l
0.8640 0.2882 l
0.8650 0.2877 l
0.8660 0.2872 l
0.8669 0.2867 l
0.8679 0.2862 l
0.8689 0.2857 l
0.8699 0.2853 l
0.8709 0.2848 l
0.8718 0.2843 l
0.8728 0.2838 l
0.8738 0.2833 l
0.8748 0.2829 l
0.8758 0.2824 l
0.8767 0.2819 l
0.8777 0.2814 l
0.8787 0.2810 l
0.8797 0.2805 l
0.8807 0.2800 l
0.8816 0.2796 l
0.8826 0.2791 l
0.8836 0.2786 l
0.8846 0.2782 l
0.8856 0.2777 l
0.8865 0.2773 l
0.8875 0.2768 l
0.8885 0.2764 l
0.8895 0.2759 l
0.8904 0.2755 l
0.8914 0.2750 l
0.8924 0.2746 l
0.8934 0.2742 l
0.8944 0.2737 l
0.8953 0.2733 l
0.8963 0.2728 l
0.8973 0.2724 l
0.8983 0.2720 l
0.8993 0.2716 l
0.9002 0.2711 l
0.9012 0.2707 l
0.9022 0.2703 l
0.9032 0.2699 l
0.9042 0.2694 l
0.9051 0.2690 l
0.9061 0.2686 l
0.9071 0.2682 l
0.9081 0.2678 l
0.9091 0.2674 l
0.9100 0.2670 l
0.9110 0.2665 l
0.9120 0.2661 l
0.9130 0.2657 l
0.9140 0.2653 l
0.9149 0.2649 l
0.9159 0.2645 l
0.9169 0.2641 l
0.9179 0.2637 l
0.9189 0.2633 l
0.9198 0.2629 l
0.9208 0.2625 l
0.9218 0.2622 l
0.9228 0.2618 l
0.9237 0.2614 l
0.9247 0.2610 l
0.9257 0.2606 l
0.9267 0.2602 l
0.9277 0.2598 l
0.9286 0.2595 l
0.9296 0.2591 l
0.9306 0.2587 l
0.9316 0.2583 l
0.9326 0.2580 l
0.9335 0.2576 l
0.9345 0.2572 l
0.9355 0.2568 l
0.9365 0.2565 l
0.9375 0.2561 l
0.9384 0.2558 l
0.9394 0.2554 l
0.9404 0.2550 l
0.9414 0.2547 l
0.9424 0.2543 l
0.9433 0.2539 l
0.9443 0.2536 l
0.9453 0.2532 l
0.9463 0.2529 l
0.9473 0.2525 l
0.9482 0.2522 l
0.9492 0.2518 l
0.9502 0.2515 l
0.9512 0.2511 l
0.9522 0.2508 l
0.9531 0.2504 l
0.9541 0.2501 l
0.9551 0.2497 l
0.9561 0.2494 l
0.9570 0.2491 l
0.9580 0.2487 l
0.9590 0.2484 l
0.9600 0.2481 l
0.9610 0.2477 l
0.9619 0.2474 l
0.9629 0.2470 l
0.9639 0.2467 l
0.9649 0.2464 l
0.9659 0.2461 l
0.9668 0.2457 l
0.9678 0.2454 l
0.9688 0.2451 l
0.9698 0.2448 l
0.9708 0.2444 l
0.9717 0.2441 l
0.9727 0.2438 l
0.9737 0.2435 l
0.9747 0.2431 l
0.9757 0.2428 l
0.9766 0.2425 l
0.9776 0.2422 l
0.9786 0.2419 l
0.9796 0.2416 l
0.9806 0.2413 l
0.9815 0.2410 l
0.9825 0.2406 l
0.9835 0.2403 l
0.9845 0.2400 l
0.9855 0.2397 l
0.9864 0.2394 l
0.9874 0.2391 l
0.9884 0.2388 l
0.9894 0.2385 l
0.9904 0.2382 l
0.9913 0.2379 l
0.9923 0.2376 l
0.9933 0.2373 l
0.9943 0.2370 l
0.9952 0.2367 l
0.9962 0.2364 l
0.9972 0.2361 l
0.9982 0.2358 l
0.9992 0.2355 l
1.0001 0.2353 l
1.0011 0.2350 l
1.0021 0.2347 l
1.0031 0.2344 l
1.0041 0.2341 l
1.0050 0.2338 l
1.0060 0.2335 l
1.0070 0.2332 l
1.0080 0.2330 l
1.0090 0.2327 l
1.0099 0.2324 l
1.0109 0.2321 l
1.0119 0.2318 l
1.0129 0.2316 l
1.0139 0.2313 l
1.0148 0.2310 l
1.0158 0.2307 l
1.0168 0.2305 l
1.0178 0.2302 l
1.0188 0.2299 l
1.0197 0.2296 l
1.0207 0.2294 l
1.0217 0.2291 l
1.0227 0.2288 l
1.0237 0.2286 l
1.0246 0.2283 l
1.0256 0.2280 l
1.0266 0.2278 l
1.0276 0.2275 l
1.0285 0.2272 l
1.0295 0.2270 l
1.0305 0.2267 l
1.0315 0.2265 l
1.0325 0.2262 l
1.0334 0.2259 l
1.0344 0.2257 l
1.0354 0.2254 l
1.0364 0.2252 l
1.0374 0.2249 l
1.0383 0.2246 l
1.0393 0.2244 l
1.0403 0.2241 l
1.0413 0.2239 l
1.0423 0.2236 l
1.0432 0.2234 l
1.0442 0.2231 l
1.0452 0.2229 l
1.0462 0.2226 l
1.0472 0.2224 l
1.0481 0.2221 l
1.0491 0.2219 l
1.0501 0.2216 l
1.0511 0.2214 l
1.0521 0.2212 l
1.0530 0.2209 l
1.0540 0.2207 l
1.0550 0.2204 l
1.0560 0.2202 l
1.0570 0.2199 l
1.0579 0.2197 l
1.0589 0.2195 l
1.0599 0.2192 l
1.0609 0.2190 l
1.0618 0.2188 l
1.0628 0.2185 l
1.0638 0.2183 l
1.0648 0.2180 l
1.0658 0.2178 l
1.0667 0.2176 l
1.0677 0.2174 l
1.0687 0.2171 l
1.0697 0.2169 l
1.0707 0.2167 l
1.0716 0.2164 l
1.0726 0.2162 l
1.0736 0.2160 l
1.0746 0.2157 l
1.0756 0.2155 l
1.0765 0.2153 l
1.0775 0.2151 l
1.0785 0.2148 l
1.0795 0.2146 l
1.0805 0.2144 l
1.0814 0.2142 l
1.0824 0.2139 l
1.0834 0.2137 l
1.0844 0.2135 l
1.0854 0.2133 l
1.0863 0.2131 l
1.0873 0.2129 l
1.0883 0.2126 l
1.0893 0.2124 l
1.0903 0.2122 l
1.0912 0.2120 l
1.0922 0.2118 l
1.0932 0.2116 l
1.0942 0.2113 l
1.0951 0.2111 l
1.0961 0.2109 l
1.0971 0.2107 l
1.0981 0.2105 l
1.0991 0.2103 l
1.1000 0.2101 l
1.1010 0.2099 l
1.1020 0.2096 l
1.1030 0.2094 l
1.1040 0.2092 l
1.1049 0.2090 l
1.1059 0.2088 l
1.1069 0.2086 l
1.1079 0.2084 l
1.1089 0.2082 l
1.1098 0.2080 l
1.1108 0.2078 l
1.1118 0.2076 l
1.1128 0.2074 l
1.1138 0.2072 l
1.1147 0.2070 l
1.1157 0.2068 l
1.1167 0.2066 l
1.1177 0.2064 l
1.1187 0.2062 l
1.1196 0.2060 l
1.1206 0.2058 l
1.1216 0.2056 l
1.1226 0.2054 l
1.1236 0.2052 l
1.1245 0.2050 l
1.1255 0.2048 l
1.1265 0.2046 l
1.1275 0.2044 l
1.1284 0.2042 l
1.1294 0.2040 l
1.1304 0.2038 l
1.1314 0.2036 l
1.1324 0.2034 l
1.1333 0.2033 l
1.1343 0.2031 l
1.1353 0.2029 l
1.1363 0.2027 l
1.1373 0.2025 l
1.1382 0.2023 l
1.1392 0.2021 l
1.1402 0.2019 l
1.1412 0.2018 l
1.1422 0.2016 l
1.1431 0.2014 l
1.1441 0.2012 l
s
[/DeviceRGB] SCS
Color1 SC
[] 0 SD
0.0045 SLW
n
0.6544 0.1520 m
1.1441 0.1520 l
s
n
0.6544 0.4951 m
1.1441 0.4951 l
s
n
0.7156 0.1520 m
0.7156 0.1620 l
s
n
0.7156 0.4951 m
0.7156 0.4851 l
s
n
0.8381 0.1520 m
0.8381 0.1620 l
s
n
0.8381 0.4951 m
0.8381 0.4851 l
s
n
0.9605 0.1520 m
0.9605 0.1620 l
s
n
0.9605 0.4951 m
0.9605 0.4851 l
s
n
1.0829 0.1520 m
1.0829 0.1620 l
s
n
1.0829 0.4951 m
1.0829 0.4851 l
s
n
0.7768 0.1520 m
0.7768 0.1720 l
s
n
0.7768 0.4951 m
0.7768 0.4751 l
s
n
0.8993 0.1520 m
0.8993 0.1720 l
s
n
0.8993 0.4951 m
0.8993 0.4751 l
s
n
1.0217 0.1520 m
1.0217 0.1720 l
s
n
1.0217 0.4951 m
1.0217 0.4751 l
s
n
1.1441 0.1520 m
1.1441 0.1720 l
s
n
1.1441 0.4951 m
1.1441 0.4751 l
s
/Times-Roman findfont
dup length dict begin
 {1 index /FID ne {def} {pop pop} ifelse} forall
 /Encoding DefEncoding def
 currentdict
end
/Font0 exch definefont pop
/Font0 FFSF
0.7419 0.1035 m
GS
[0.0571 0.0000 0.0000 0.0571 0 0] CC
(0.2) show
GR
/Font0 FFSF
0.8644 0.1035 m
GS
[0.0571 0.0000 0.0000 0.0571 0 0] CC
(0.4) show
GR
/Font0 FFSF
0.9870 0.1027 m
GS
[0.0571 0.0000 0.0000 0.0571 0 0] CC
(0.6) show
GR
/Font0 FFSF
1.1100 0.1035 m
GS
[0.0571 0.0000 0.0000 0.0571 0 0] CC
(0.8) show
GR
/Symbol findfont
/Font12 exch definefont pop
/Font12 FFSF
0.8110 0.0301 m
GS
[0.0574 0.0000 0.0000 0.0574 0 0] CC
(r) show
GR
/Font0 FFSF
0.8424 0.0301 m
GS
[0.0574 0.0000 0.0000 0.0574 0 0] CC
( [fm) show
GR
/Font0 FFSF
0.9397 0.0645 m
GS
[0.0406 0.0000 0.0000 0.0406 0 0] CC
(-3) show
GR
/Font0 FFSF
0.9734 0.0301 m
GS
[0.0574 0.0000 0.0000 0.0574 0 0] CC
(]) show
GR
n
0.6544 0.1520 m
0.6544 0.4951 l
s
n
1.1441 0.1520 m
1.1441 0.4951 l
s
n
0.6544 0.1949 m
0.6644 0.1949 l
s
n
1.1441 0.1949 m
1.1341 0.1949 l
s
n
0.6544 0.2806 m
0.6644 0.2806 l
s
n
1.1441 0.2806 m
1.1341 0.2806 l
s
n
0.6544 0.3664 m
0.6644 0.3664 l
s
n
1.1441 0.3664 m
1.1341 0.3664 l
s
n
0.6544 0.4522 m
0.6644 0.4522 l
s
n
1.1441 0.4522 m
1.1341 0.4522 l
s
n
0.6544 0.1520 m
0.6744 0.1520 l
s
n
1.1441 0.1520 m
1.1241 0.1520 l
s
n
0.6544 0.2377 m
0.6744 0.2377 l
s
n
1.1441 0.2377 m
1.1241 0.2377 l
s
n
0.6544 0.3235 m
0.6744 0.3235 l
s
n
1.1441 0.3235 m
1.1241 0.3235 l
s
n
0.6544 0.4093 m
0.6744 0.4093 l
s
n
1.1441 0.4093 m
1.1241 0.4093 l
s
n
0.6544 0.4951 m
0.6744 0.4951 l
s
n
1.1441 0.4951 m
1.1241 0.4951 l
s
[] 0 SD
0.0015 SLW
n
0.6544 0.1520 m
0.6544 0.4951 l
1.1441 0.4951 l
1.1441 0.1520 l
0.6544 0.1520 l
c
s
n
0.7600 0.4800 m
0.7600 0.3637 l
1.1077 0.3637 l
1.1077 0.4800 l
c
[/DeviceRGB] SCS
Color0 SC
fill
/Font0 FFSF
[/DeviceRGB] SCS
Color1 SC
0.8530 0.4371 m
GS
[0.0476 0.0000 0.0000 0.0476 0 0] CC
(SLy5*-SNM) show
GR
[0.0300 0.0180 ] 0 SD
0.0060 SLW
n
0.7730 0.4484 m
0.8330 0.4484 l
s
/Font0 FFSF
0.8530 0.3839 m
GS
[0.0476 0.0000 0.0000 0.0476 0 0] CC
(SLy5*-PNM) show
GR
[/DeviceRGB] SCS
Color3 SC
n
0.7730 0.3953 m
0.8330 0.3953 l
s
[/DeviceRGB] SCS
Color1 SC
[] 0 SD
0.0060 SLW
n
0.1581 0.5780 m
0.1590 0.5781 l
0.1599 0.5773 l
0.1608 0.5764 l
0.1617 0.5755 l
0.1627 0.5745 l
0.1636 0.5736 l
0.1645 0.5726 l
0.1654 0.5717 l
0.1663 0.5708 l
0.1672 0.5699 l
0.1681 0.5690 l
0.1691 0.5682 l
0.1700 0.5673 l
0.1709 0.5665 l
0.1718 0.5656 l
0.1727 0.5648 l
0.1736 0.5640 l
0.1745 0.5632 l
0.1755 0.5625 l
0.1764 0.5617 l
0.1773 0.5610 l
0.1782 0.5603 l
0.1791 0.5595 l
0.1800 0.5588 l
0.1809 0.5582 l
0.1819 0.5575 l
0.1828 0.5568 l
0.1837 0.5562 l
0.1846 0.5555 l
0.1855 0.5549 l
0.1864 0.5543 l
0.1873 0.5537 l
0.1883 0.5531 l
0.1892 0.5525 l
0.1901 0.5520 l
0.1910 0.5514 l
0.1919 0.5509 l
0.1928 0.5503 l
0.1937 0.5498 l
0.1947 0.5493 l
0.1956 0.5488 l
0.1965 0.5483 l
0.1974 0.5478 l
0.1983 0.5474 l
0.1992 0.5469 l
0.2001 0.5465 l
0.2011 0.5460 l
0.2020 0.5456 l
0.2029 0.5452 l
0.2038 0.5448 l
0.2047 0.5444 l
0.2056 0.5440 l
0.2065 0.5436 l
0.2075 0.5432 l
0.2084 0.5429 l
0.2093 0.5425 l
0.2102 0.5422 l
0.2111 0.5419 l
0.2120 0.5415 l
0.2129 0.5412 l
0.2139 0.5409 l
0.2148 0.5406 l
0.2157 0.5403 l
0.2166 0.5400 l
0.2175 0.5398 l
0.2184 0.5395 l
0.2193 0.5393 l
0.2203 0.5390 l
0.2212 0.5388 l
0.2221 0.5385 l
0.2230 0.5383 l
0.2239 0.5381 l
0.2248 0.5379 l
0.2257 0.5377 l
0.2267 0.5375 l
0.2276 0.5373 l
0.2285 0.5372 l
0.2294 0.5370 l
0.2303 0.5369 l
0.2312 0.5367 l
0.2321 0.5366 l
0.2331 0.5364 l
0.2340 0.5363 l
0.2349 0.5362 l
0.2358 0.5361 l
0.2367 0.5360 l
0.2376 0.5359 l
0.2385 0.5358 l
0.2395 0.5357 l
0.2404 0.5356 l
0.2413 0.5356 l
0.2422 0.5355 l
0.2431 0.5354 l
0.2440 0.5354 l
0.2449 0.5354 l
0.2459 0.5353 l
0.2468 0.5353 l
0.2477 0.5353 l
0.2486 0.5353 l
0.2495 0.5353 l
0.2504 0.5353 l
0.2513 0.5353 l
0.2523 0.5353 l
0.2532 0.5353 l
0.2541 0.5353 l
0.2550 0.5354 l
0.2559 0.5354 l
0.2568 0.5355 l
0.2577 0.5355 l
0.2587 0.5356 l
0.2596 0.5356 l
0.2605 0.5357 l
0.2614 0.5358 l
0.2623 0.5359 l
0.2632 0.5360 l
0.2641 0.5361 l
0.2651 0.5362 l
0.2660 0.5363 l
0.2669 0.5364 l
0.2678 0.5365 l
0.2687 0.5367 l
0.2696 0.5368 l
0.2705 0.5370 l
0.2715 0.5371 l
0.2724 0.5373 l
0.2733 0.5374 l
0.2742 0.5376 l
0.2751 0.5378 l
0.2760 0.5379 l
0.2769 0.5381 l
0.2779 0.5383 l
0.2788 0.5385 l
0.2797 0.5387 l
0.2806 0.5389 l
0.2815 0.5392 l
0.2824 0.5394 l
0.2833 0.5396 l
0.2842 0.5398 l
0.2852 0.5401 l
0.2861 0.5403 l
0.2870 0.5406 l
0.2879 0.5408 l
0.2888 0.5411 l
0.2897 0.5413 l
0.2906 0.5416 l
0.2916 0.5419 l
0.2925 0.5422 l
0.2934 0.5425 l
0.2943 0.5428 l
0.2952 0.5431 l
0.2961 0.5434 l
0.2970 0.5437 l
0.2980 0.5440 l
0.2989 0.5443 l
0.2998 0.5446 l
0.3007 0.5450 l
0.3016 0.5453 l
0.3025 0.5457 l
0.3034 0.5460 l
0.3044 0.5464 l
0.3053 0.5467 l
0.3062 0.5471 l
0.3071 0.5475 l
0.3080 0.5478 l
0.3089 0.5482 l
0.3098 0.5486 l
0.3108 0.5490 l
0.3117 0.5494 l
0.3126 0.5498 l
0.3135 0.5502 l
0.3144 0.5506 l
0.3153 0.5510 l
0.3162 0.5514 l
0.3172 0.5519 l
0.3181 0.5523 l
0.3190 0.5527 l
0.3199 0.5532 l
0.3208 0.5536 l
0.3217 0.5541 l
0.3226 0.5545 l
0.3236 0.5550 l
0.3245 0.5555 l
0.3254 0.5559 l
0.3263 0.5564 l
0.3272 0.5569 l
0.3281 0.5574 l
0.3290 0.5579 l
0.3300 0.5584 l
0.3309 0.5589 l
0.3318 0.5594 l
0.3327 0.5599 l
0.3336 0.5604 l
0.3345 0.5609 l
0.3354 0.5615 l
0.3364 0.5620 l
0.3373 0.5625 l
0.3382 0.5631 l
0.3391 0.5636 l
0.3400 0.5641 l
0.3409 0.5647 l
0.3418 0.5653 l
0.3428 0.5658 l
0.3437 0.5664 l
0.3446 0.5670 l
0.3455 0.5675 l
0.3464 0.5681 l
0.3473 0.5687 l
0.3482 0.5693 l
0.3492 0.5699 l
0.3501 0.5705 l
0.3510 0.5711 l
0.3519 0.5717 l
0.3528 0.5723 l
0.3537 0.5729 l
0.3546 0.5736 l
0.3556 0.5742 l
0.3565 0.5748 l
0.3574 0.5755 l
0.3583 0.5761 l
0.3592 0.5768 l
0.3601 0.5774 l
0.3610 0.5781 l
0.3620 0.5787 l
0.3629 0.5794 l
0.3638 0.5800 l
0.3647 0.5807 l
0.3656 0.5814 l
0.3665 0.5821 l
0.3674 0.5828 l
0.3684 0.5835 l
0.3693 0.5841 l
0.3702 0.5848 l
0.3711 0.5855 l
0.3720 0.5863 l
0.3729 0.5870 l
0.3738 0.5877 l
0.3748 0.5884 l
0.3757 0.5891 l
0.3766 0.5899 l
0.3775 0.5906 l
0.3784 0.5913 l
0.3793 0.5921 l
0.3802 0.5928 l
0.3812 0.5936 l
0.3821 0.5943 l
0.3830 0.5951 l
0.3839 0.5958 l
0.3848 0.5966 l
0.3857 0.5974 l
0.3866 0.5982 l
0.3876 0.5989 l
0.3885 0.5997 l
0.3894 0.6005 l
0.3903 0.6013 l
0.3912 0.6021 l
0.3921 0.6029 l
0.3930 0.6037 l
0.3940 0.6045 l
0.3949 0.6053 l
0.3958 0.6061 l
0.3967 0.6070 l
0.3976 0.6078 l
0.3985 0.6086 l
0.3994 0.6094 l
0.4004 0.6103 l
0.4013 0.6111 l
0.4022 0.6120 l
0.4031 0.6128 l
0.4040 0.6137 l
0.4049 0.6145 l
0.4058 0.6154 l
0.4068 0.6162 l
0.4077 0.6171 l
0.4086 0.6180 l
0.4095 0.6189 l
0.4104 0.6197 l
0.4113 0.6206 l
0.4122 0.6215 l
0.4132 0.6224 l
0.4141 0.6233 l
0.4150 0.6242 l
0.4159 0.6251 l
0.4168 0.6260 l
0.4177 0.6269 l
0.4186 0.6279 l
0.4196 0.6288 l
0.4205 0.6297 l
0.4214 0.6306 l
0.4223 0.6316 l
0.4232 0.6325 l
0.4241 0.6334 l
0.4250 0.6344 l
0.4260 0.6353 l
0.4269 0.6363 l
0.4278 0.6372 l
0.4287 0.6382 l
0.4296 0.6392 l
0.4305 0.6401 l
0.4314 0.6411 l
0.4324 0.6421 l
0.4333 0.6430 l
0.4342 0.6440 l
0.4351 0.6450 l
0.4360 0.6460 l
0.4369 0.6470 l
0.4378 0.6480 l
0.4388 0.6490 l
0.4397 0.6500 l
0.4406 0.6510 l
0.4415 0.6520 l
0.4424 0.6530 l
0.4433 0.6540 l
0.4442 0.6551 l
0.4452 0.6561 l
0.4461 0.6571 l
0.4470 0.6582 l
0.4479 0.6592 l
0.4488 0.6602 l
0.4497 0.6613 l
0.4506 0.6623 l
0.4516 0.6634 l
0.4525 0.6644 l
0.4534 0.6655 l
0.4543 0.6666 l
0.4552 0.6676 l
0.4561 0.6687 l
0.4570 0.6698 l
0.4580 0.6708 l
0.4589 0.6719 l
0.4598 0.6730 l
0.4607 0.6741 l
0.4616 0.6752 l
0.4625 0.6763 l
0.4634 0.6774 l
0.4644 0.6785 l
0.4653 0.6796 l
0.4662 0.6807 l
0.4671 0.6818 l
0.4680 0.6829 l
0.4689 0.6841 l
0.4698 0.6852 l
0.4707 0.6863 l
0.4717 0.6874 l
0.4726 0.6886 l
0.4735 0.6897 l
0.4744 0.6909 l
0.4753 0.6920 l
0.4762 0.6931 l
0.4771 0.6943 l
0.4781 0.6955 l
0.4790 0.6966 l
0.4799 0.6978 l
0.4808 0.6989 l
0.4817 0.7001 l
0.4826 0.7013 l
0.4835 0.7025 l
0.4845 0.7036 l
0.4854 0.7048 l
0.4863 0.7060 l
0.4872 0.7072 l
0.4881 0.7084 l
0.4890 0.7096 l
0.4899 0.7108 l
0.4909 0.7120 l
0.4918 0.7132 l
0.4927 0.7144 l
0.4936 0.7156 l
0.4945 0.7168 l
0.4954 0.7181 l
0.4963 0.7193 l
0.4973 0.7205 l
0.4982 0.7218 l
0.4991 0.7230 l
0.5000 0.7242 l
0.5009 0.7255 l
0.5018 0.7267 l
0.5027 0.7280 l
0.5037 0.7292 l
0.5046 0.7305 l
0.5055 0.7317 l
0.5064 0.7330 l
0.5073 0.7343 l
0.5082 0.7355 l
0.5091 0.7368 l
0.5101 0.7381 l
0.5110 0.7393 l
0.5119 0.7406 l
0.5128 0.7419 l
0.5137 0.7432 l
0.5146 0.7445 l
0.5155 0.7458 l
0.5165 0.7471 l
0.5174 0.7484 l
0.5183 0.7497 l
0.5192 0.7510 l
0.5201 0.7523 l
0.5210 0.7536 l
0.5219 0.7549 l
0.5229 0.7563 l
0.5238 0.7576 l
0.5247 0.7589 l
0.5256 0.7602 l
0.5265 0.7616 l
0.5274 0.7629 l
0.5283 0.7643 l
0.5293 0.7656 l
0.5302 0.7669 l
0.5311 0.7683 l
0.5320 0.7696 l
0.5329 0.7710 l
0.5338 0.7724 l
0.5347 0.7737 l
0.5357 0.7751 l
0.5366 0.7765 l
0.5375 0.7778 l
0.5384 0.7792 l
0.5393 0.7806 l
0.5402 0.7820 l
0.5411 0.7834 l
0.5421 0.7847 l
0.5430 0.7861 l
0.5439 0.7875 l
0.5448 0.7889 l
0.5457 0.7903 l
0.5466 0.7917 l
0.5475 0.7931 l
0.5485 0.7946 l
0.5494 0.7960 l
0.5503 0.7974 l
0.5512 0.7988 l
0.5521 0.8002 l
0.5530 0.8017 l
0.5539 0.8031 l
0.5549 0.8045 l
0.5558 0.8059 l
0.5567 0.8074 l
0.5576 0.8088 l
0.5585 0.8103 l
0.5594 0.8117 l
0.5603 0.8132 l
0.5613 0.8146 l
0.5622 0.8161 l
0.5631 0.8175 l
0.5640 0.8190 l
0.5649 0.8205 l
0.5658 0.8219 l
0.5667 0.8234 l
0.5677 0.8249 l
0.5686 0.8264 l
0.5695 0.8279 l
0.5704 0.8293 l
0.5713 0.8308 l
0.5722 0.8323 l
0.5731 0.8338 l
0.5741 0.8353 l
0.5750 0.8368 l
0.5759 0.8383 l
0.5768 0.8398 l
0.5777 0.8413 l
0.5786 0.8428 l
0.5795 0.8444 l
0.5803 0.8457 l
s
[/DeviceRGB] SCS
Color3 SC
n
0.1581 0.5780 m
0.1590 0.5816 l
0.1599 0.5833 l
0.1608 0.5847 l
0.1617 0.5858 l
0.1627 0.5867 l
0.1636 0.5876 l
0.1645 0.5884 l
0.1654 0.5891 l
0.1663 0.5897 l
0.1672 0.5903 l
0.1681 0.5909 l
0.1691 0.5914 l
0.1700 0.5919 l
0.1709 0.5924 l
0.1718 0.5929 l
0.1727 0.5933 l
0.1736 0.5937 l
0.1745 0.5941 l
0.1755 0.5945 l
0.1764 0.5949 l
0.1773 0.5953 l
0.1782 0.5957 l
0.1791 0.5960 l
0.1800 0.5964 l
0.1809 0.5967 l
0.1819 0.5970 l
0.1828 0.5974 l
0.1837 0.5977 l
0.1846 0.5980 l
0.1855 0.5983 l
0.1864 0.5987 l
0.1873 0.5990 l
0.1883 0.5993 l
0.1892 0.5996 l
0.1901 0.5999 l
0.1910 0.6002 l
0.1919 0.6005 l
0.1928 0.6008 l
0.1937 0.6011 l
0.1947 0.6014 l
0.1956 0.6017 l
0.1965 0.6020 l
0.1974 0.6023 l
0.1983 0.6026 l
0.1992 0.6029 l
0.2001 0.6032 l
0.2011 0.6035 l
0.2020 0.6038 l
0.2029 0.6041 l
0.2038 0.6044 l
0.2047 0.6048 l
0.2056 0.6051 l
0.2065 0.6054 l
0.2075 0.6057 l
0.2084 0.6060 l
0.2093 0.6063 l
0.2102 0.6066 l
0.2111 0.6069 l
0.2120 0.6073 l
0.2129 0.6076 l
0.2139 0.6079 l
0.2148 0.6082 l
0.2157 0.6086 l
0.2166 0.6089 l
0.2175 0.6092 l
0.2184 0.6096 l
0.2193 0.6099 l
0.2203 0.6102 l
0.2212 0.6106 l
0.2221 0.6109 l
0.2230 0.6113 l
0.2239 0.6116 l
0.2248 0.6120 l
0.2257 0.6123 l
0.2267 0.6127 l
0.2276 0.6131 l
0.2285 0.6134 l
0.2294 0.6138 l
0.2303 0.6142 l
0.2312 0.6145 l
0.2321 0.6149 l
0.2331 0.6153 l
0.2340 0.6157 l
0.2349 0.6161 l
0.2358 0.6165 l
0.2367 0.6169 l
0.2376 0.6172 l
0.2385 0.6176 l
0.2395 0.6180 l
0.2404 0.6185 l
0.2413 0.6189 l
0.2422 0.6193 l
0.2431 0.6197 l
0.2440 0.6201 l
0.2449 0.6205 l
0.2459 0.6210 l
0.2468 0.6214 l
0.2477 0.6218 l
0.2486 0.6223 l
0.2495 0.6227 l
0.2504 0.6231 l
0.2513 0.6236 l
0.2523 0.6240 l
0.2532 0.6245 l
0.2541 0.6249 l
0.2550 0.6254 l
0.2559 0.6259 l
0.2568 0.6263 l
0.2577 0.6268 l
0.2587 0.6273 l
0.2596 0.6277 l
0.2605 0.6282 l
0.2614 0.6287 l
0.2623 0.6292 l
0.2632 0.6297 l
0.2641 0.6302 l
0.2651 0.6307 l
0.2660 0.6312 l
0.2669 0.6317 l
0.2678 0.6322 l
0.2687 0.6327 l
0.2696 0.6332 l
0.2705 0.6338 l
0.2715 0.6343 l
0.2724 0.6348 l
0.2733 0.6353 l
0.2742 0.6359 l
0.2751 0.6364 l
0.2760 0.6370 l
0.2769 0.6375 l
0.2779 0.6381 l
0.2788 0.6386 l
0.2797 0.6392 l
0.2806 0.6397 l
0.2815 0.6403 l
0.2824 0.6409 l
0.2833 0.6414 l
0.2842 0.6420 l
0.2852 0.6426 l
0.2861 0.6432 l
0.2870 0.6438 l
0.2879 0.6443 l
0.2888 0.6449 l
0.2897 0.6455 l
0.2906 0.6461 l
0.2916 0.6467 l
0.2925 0.6474 l
0.2934 0.6480 l
0.2943 0.6486 l
0.2952 0.6492 l
0.2961 0.6498 l
0.2970 0.6505 l
0.2980 0.6511 l
0.2989 0.6517 l
0.2998 0.6524 l
0.3007 0.6530 l
0.3016 0.6537 l
0.3025 0.6543 l
0.3034 0.6550 l
0.3044 0.6556 l
0.3053 0.6563 l
0.3062 0.6570 l
0.3071 0.6576 l
0.3080 0.6583 l
0.3089 0.6590 l
0.3098 0.6597 l
0.3108 0.6603 l
0.3117 0.6610 l
0.3126 0.6617 l
0.3135 0.6624 l
0.3144 0.6631 l
0.3153 0.6638 l
0.3162 0.6645 l
0.3172 0.6652 l
0.3181 0.6660 l
0.3190 0.6667 l
0.3199 0.6674 l
0.3208 0.6681 l
0.3217 0.6688 l
0.3226 0.6696 l
0.3236 0.6703 l
0.3245 0.6711 l
0.3254 0.6718 l
0.3263 0.6726 l
0.3272 0.6733 l
0.3281 0.6741 l
0.3290 0.6748 l
0.3300 0.6756 l
0.3309 0.6764 l
0.3318 0.6771 l
0.3327 0.6779 l
0.3336 0.6787 l
0.3345 0.6795 l
0.3354 0.6803 l
0.3364 0.6810 l
0.3373 0.6818 l
0.3382 0.6826 l
0.3391 0.6834 l
0.3400 0.6842 l
0.3409 0.6851 l
0.3418 0.6859 l
0.3428 0.6867 l
0.3437 0.6875 l
0.3446 0.6883 l
0.3455 0.6892 l
0.3464 0.6900 l
0.3473 0.6908 l
0.3482 0.6917 l
0.3492 0.6925 l
0.3501 0.6934 l
0.3510 0.6942 l
0.3519 0.6951 l
0.3528 0.6959 l
0.3537 0.6968 l
0.3546 0.6976 l
0.3556 0.6985 l
0.3565 0.6994 l
0.3574 0.7003 l
0.3583 0.7011 l
0.3592 0.7020 l
0.3601 0.7029 l
0.3610 0.7038 l
0.3620 0.7047 l
0.3629 0.7056 l
0.3638 0.7065 l
0.3647 0.7074 l
0.3656 0.7083 l
0.3665 0.7092 l
0.3674 0.7102 l
0.3684 0.7111 l
0.3693 0.7120 l
0.3702 0.7129 l
0.3711 0.7139 l
0.3720 0.7148 l
0.3729 0.7158 l
0.3738 0.7167 l
0.3748 0.7176 l
0.3757 0.7186 l
0.3766 0.7196 l
0.3775 0.7205 l
0.3784 0.7215 l
0.3793 0.7224 l
0.3802 0.7234 l
0.3812 0.7244 l
0.3821 0.7254 l
0.3830 0.7263 l
0.3839 0.7273 l
0.3848 0.7283 l
0.3857 0.7293 l
0.3866 0.7303 l
0.3876 0.7313 l
0.3885 0.7323 l
0.3894 0.7333 l
0.3903 0.7343 l
0.3912 0.7353 l
0.3921 0.7364 l
0.3930 0.7374 l
0.3940 0.7384 l
0.3949 0.7394 l
0.3958 0.7405 l
0.3967 0.7415 l
0.3976 0.7426 l
0.3985 0.7436 l
0.3994 0.7446 l
0.4004 0.7457 l
0.4013 0.7468 l
0.4022 0.7478 l
0.4031 0.7489 l
0.4040 0.7499 l
0.4049 0.7510 l
0.4058 0.7521 l
0.4068 0.7532 l
0.4077 0.7542 l
0.4086 0.7553 l
0.4095 0.7564 l
0.4104 0.7575 l
0.4113 0.7586 l
0.4122 0.7597 l
0.4132 0.7608 l
0.4141 0.7619 l
0.4150 0.7630 l
0.4159 0.7641 l
0.4168 0.7653 l
0.4177 0.7664 l
0.4186 0.7675 l
0.4196 0.7686 l
0.4205 0.7698 l
0.4214 0.7709 l
0.4223 0.7720 l
0.4232 0.7732 l
0.4241 0.7743 l
0.4250 0.7755 l
0.4260 0.7766 l
0.4269 0.7778 l
0.4278 0.7790 l
0.4287 0.7801 l
0.4296 0.7813 l
0.4305 0.7825 l
0.4314 0.7836 l
0.4324 0.7848 l
0.4333 0.7860 l
0.4342 0.7872 l
0.4351 0.7884 l
0.4360 0.7896 l
0.4369 0.7908 l
0.4378 0.7920 l
0.4388 0.7932 l
0.4397 0.7944 l
0.4406 0.7956 l
0.4415 0.7968 l
0.4424 0.7980 l
0.4433 0.7993 l
0.4442 0.8005 l
0.4452 0.8017 l
0.4461 0.8029 l
0.4470 0.8042 l
0.4479 0.8054 l
0.4488 0.8067 l
0.4497 0.8079 l
0.4506 0.8092 l
0.4516 0.8104 l
0.4525 0.8117 l
0.4534 0.8129 l
0.4543 0.8142 l
0.4552 0.8155 l
0.4561 0.8168 l
0.4570 0.8180 l
0.4580 0.8193 l
0.4589 0.8206 l
0.4598 0.8219 l
0.4607 0.8232 l
0.4616 0.8245 l
0.4625 0.8258 l
0.4634 0.8271 l
0.4644 0.8284 l
0.4653 0.8297 l
0.4662 0.8310 l
0.4671 0.8323 l
0.4680 0.8336 l
0.4689 0.8350 l
0.4698 0.8363 l
0.4707 0.8376 l
0.4717 0.8389 l
0.4726 0.8403 l
0.4735 0.8416 l
0.4744 0.8430 l
0.4753 0.8443 l
0.4762 0.8457 l
0.4763 0.8457 l
s
[/DeviceRGB] SCS
Color1 SC
[] 0 SD
0.0045 SLW
n
0.1581 0.5245 m
0.6152 0.5245 l
s
n
0.1581 0.8456 m
0.6152 0.8456 l
s
n
0.2152 0.5245 m
0.2152 0.5345 l
s
n
0.2152 0.8456 m
0.2152 0.8356 l
s
n
0.3295 0.5245 m
0.3295 0.5345 l
s
n
0.3295 0.8456 m
0.3295 0.8356 l
s
n
0.4438 0.5245 m
0.4438 0.5345 l
s
n
0.4438 0.8456 m
0.4438 0.8356 l
s
n
0.5581 0.5245 m
0.5581 0.5345 l
s
n
0.5581 0.8456 m
0.5581 0.8356 l
s
n
0.1581 0.5245 m
0.1581 0.5445 l
s
n
0.1581 0.8456 m
0.1581 0.8256 l
s
n
0.2724 0.5245 m
0.2724 0.5445 l
s
n
0.2724 0.8456 m
0.2724 0.8256 l
s
n
0.3866 0.5245 m
0.3866 0.5445 l
s
n
0.3866 0.8456 m
0.3866 0.8256 l
s
n
0.5009 0.5245 m
0.5009 0.5445 l
s
n
0.5009 0.8456 m
0.5009 0.8256 l
s
n
0.6152 0.5245 m
0.6152 0.5445 l
s
n
0.6152 0.8456 m
0.6152 0.8256 l
s
n
0.1581 0.5245 m
0.1581 0.8456 l
s
n
0.6152 0.5245 m
0.6152 0.8456 l
s
n
0.1581 0.6449 m
0.1681 0.6449 l
s
n
0.6152 0.6449 m
0.6052 0.6449 l
s
n
0.1581 0.7787 m
0.1681 0.7787 l
s
n
0.6152 0.7787 m
0.6052 0.7787 l
s
n
0.1581 0.5780 m
0.1781 0.5780 l
s
n
0.6152 0.5780 m
0.5952 0.5780 l
s
n
0.1581 0.7118 m
0.1781 0.7118 l
s
n
0.6152 0.7118 m
0.5952 0.7118 l
s
n
0.1581 0.8456 m
0.1781 0.8456 l
s
n
0.6152 0.8456 m
0.5952 0.8456 l
s
/Font0 FFSF
0.1218 0.5596 m
GS
[0.0554 0.0000 0.0000 0.0554 0 0] CC
(0) show
GR
/Font0 FFSF
0.0940 0.6932 m
GS
[0.0554 0.0000 0.0000 0.0554 0 0] CC
(50) show
GR
/Font0 FFSF
0.0665 0.8272 m
GS
[0.0554 0.0000 0.0000 0.0554 0 0] CC
(100) show
GR
/Font0 FFSF
0.0471 0.5229 m
GS
[0.0000 0.0529 -0.0529 0.0000 0 0] CC
(E/A \(N\) [MeV]) show
GR
[] 0 SD
0.0015 SLW
n
0.1581 0.5245 m
0.1581 0.8456 l
0.6152 0.8456 l
0.6152 0.5245 l
0.1581 0.5245 l
c
s
n
0.1600 0.8400 m
0.1600 0.7237 l
0.4642 0.7237 l
0.4642 0.8400 l
c
[/DeviceRGB] SCS
Color0 SC
fill
/Font0 FFSF
[/DeviceRGB] SCS
Color1 SC
0.2330 0.7971 m
GS
[0.0476 0.0000 0.0000 0.0476 0 0] CC
(SLy5-SNM) show
GR
[] 0 SD
0.0060 SLW
n
0.1730 0.8084 m
0.2130 0.8084 l
s
/Font0 FFSF
0.2330 0.7439 m
GS
[0.0476 0.0000 0.0000 0.0476 0 0] CC
(SLy5-PNM) show
GR
[/DeviceRGB] SCS
Color3 SC
n
0.1730 0.7553 m
0.2130 0.7553 l
s
[/DeviceRGB] SCS
Color1 SC
n
0.1593 0.4939 m
0.1602 0.4920 l
0.1611 0.4902 l
0.1620 0.4883 l
0.1629 0.4865 l
0.1638 0.4847 l
0.1647 0.4829 l
0.1656 0.4812 l
0.1665 0.4794 l
0.1675 0.4777 l
0.1684 0.4760 l
0.1693 0.4743 l
0.1702 0.4726 l
0.1711 0.4709 l
0.1720 0.4692 l
0.1729 0.4676 l
0.1738 0.4659 l
0.1747 0.4643 l
0.1756 0.4627 l
0.1765 0.4611 l
0.1774 0.4595 l
0.1783 0.4579 l
0.1792 0.4564 l
0.1801 0.4548 l
0.1810 0.4533 l
0.1819 0.4517 l
0.1828 0.4502 l
0.1837 0.4487 l
0.1846 0.4472 l
0.1855 0.4457 l
0.1864 0.4443 l
0.1873 0.4428 l
0.1883 0.4414 l
0.1892 0.4399 l
0.1901 0.4385 l
0.1910 0.4371 l
0.1919 0.4357 l
0.1928 0.4343 l
0.1937 0.4329 l
0.1946 0.4316 l
0.1955 0.4302 l
0.1964 0.4288 l
0.1973 0.4275 l
0.1982 0.4262 l
0.1991 0.4248 l
0.2000 0.4235 l
0.2009 0.4222 l
0.2018 0.4209 l
0.2027 0.4197 l
0.2036 0.4184 l
0.2045 0.4171 l
0.2054 0.4159 l
0.2063 0.4146 l
0.2072 0.4134 l
0.2082 0.4121 l
0.2091 0.4109 l
0.2100 0.4097 l
0.2109 0.4085 l
0.2118 0.4073 l
0.2127 0.4061 l
0.2136 0.4049 l
0.2145 0.4038 l
0.2154 0.4026 l
0.2163 0.4014 l
0.2172 0.4003 l
0.2181 0.3992 l
0.2190 0.3980 l
0.2199 0.3969 l
0.2208 0.3958 l
0.2217 0.3947 l
0.2226 0.3936 l
0.2235 0.3925 l
0.2244 0.3914 l
0.2253 0.3903 l
0.2262 0.3892 l
0.2271 0.3882 l
0.2280 0.3871 l
0.2290 0.3860 l
0.2299 0.3850 l
0.2308 0.3840 l
0.2317 0.3829 l
0.2326 0.3819 l
0.2335 0.3809 l
0.2344 0.3799 l
0.2353 0.3789 l
0.2362 0.3779 l
0.2371 0.3769 l
0.2380 0.3759 l
0.2389 0.3749 l
0.2398 0.3739 l
0.2407 0.3730 l
0.2416 0.3720 l
0.2425 0.3710 l
0.2434 0.3701 l
0.2443 0.3691 l
0.2452 0.3682 l
0.2461 0.3673 l
0.2470 0.3663 l
0.2479 0.3654 l
0.2489 0.3645 l
0.2498 0.3636 l
0.2507 0.3627 l
0.2516 0.3618 l
0.2525 0.3609 l
0.2534 0.3600 l
0.2543 0.3591 l
0.2552 0.3582 l
0.2561 0.3574 l
0.2570 0.3565 l
0.2579 0.3556 l
0.2588 0.3548 l
0.2597 0.3539 l
0.2606 0.3531 l
0.2615 0.3522 l
0.2624 0.3514 l
0.2633 0.3506 l
0.2642 0.3497 l
0.2651 0.3489 l
0.2660 0.3481 l
0.2669 0.3473 l
0.2678 0.3465 l
0.2687 0.3457 l
0.2697 0.3448 l
0.2706 0.3441 l
0.2715 0.3433 l
0.2724 0.3425 l
0.2733 0.3417 l
0.2742 0.3409 l
0.2751 0.3401 l
0.2760 0.3394 l
0.2769 0.3386 l
0.2778 0.3378 l
0.2787 0.3371 l
0.2796 0.3363 l
0.2805 0.3356 l
0.2814 0.3348 l
0.2823 0.3341 l
0.2832 0.3334 l
0.2841 0.3326 l
0.2850 0.3319 l
0.2859 0.3312 l
0.2868 0.3305 l
0.2877 0.3297 l
0.2886 0.3290 l
0.2895 0.3283 l
0.2905 0.3276 l
0.2914 0.3269 l
0.2923 0.3262 l
0.2932 0.3255 l
0.2941 0.3248 l
0.2950 0.3241 l
0.2959 0.3235 l
0.2968 0.3228 l
0.2977 0.3221 l
0.2986 0.3214 l
0.2995 0.3208 l
0.3004 0.3201 l
0.3013 0.3194 l
0.3022 0.3188 l
0.3031 0.3181 l
0.3040 0.3175 l
0.3049 0.3168 l
0.3058 0.3162 l
0.3067 0.3155 l
0.3076 0.3149 l
0.3085 0.3142 l
0.3094 0.3136 l
0.3104 0.3130 l
0.3113 0.3124 l
0.3122 0.3117 l
0.3131 0.3111 l
0.3140 0.3105 l
0.3149 0.3099 l
0.3158 0.3093 l
0.3167 0.3087 l
0.3176 0.3081 l
0.3185 0.3075 l
0.3194 0.3069 l
0.3203 0.3063 l
0.3212 0.3057 l
0.3221 0.3051 l
0.3230 0.3045 l
0.3239 0.3039 l
0.3248 0.3033 l
0.3257 0.3027 l
0.3266 0.3022 l
0.3275 0.3016 l
0.3284 0.3010 l
0.3293 0.3005 l
0.3302 0.2999 l
0.3312 0.2993 l
0.3321 0.2988 l
0.3330 0.2982 l
0.3339 0.2977 l
0.3348 0.2971 l
0.3357 0.2966 l
0.3366 0.2960 l
0.3375 0.2955 l
0.3384 0.2949 l
0.3393 0.2944 l
0.3402 0.2938 l
0.3411 0.2933 l
0.3420 0.2928 l
0.3429 0.2923 l
0.3438 0.2917 l
0.3447 0.2912 l
0.3456 0.2907 l
0.3465 0.2902 l
0.3474 0.2896 l
0.3483 0.2891 l
0.3492 0.2886 l
0.3501 0.2881 l
0.3510 0.2876 l
0.3520 0.2871 l
0.3529 0.2866 l
0.3538 0.2861 l
0.3547 0.2856 l
0.3556 0.2851 l
0.3565 0.2846 l
0.3574 0.2841 l
0.3583 0.2836 l
0.3592 0.2831 l
0.3601 0.2826 l
0.3610 0.2822 l
0.3619 0.2817 l
0.3628 0.2812 l
0.3637 0.2807 l
0.3646 0.2802 l
0.3655 0.2798 l
0.3664 0.2793 l
0.3673 0.2788 l
0.3682 0.2784 l
0.3691 0.2779 l
0.3700 0.2774 l
0.3709 0.2770 l
0.3719 0.2765 l
0.3728 0.2761 l
0.3737 0.2756 l
0.3746 0.2752 l
0.3755 0.2747 l
0.3764 0.2743 l
0.3773 0.2738 l
0.3782 0.2734 l
0.3791 0.2729 l
0.3800 0.2725 l
0.3809 0.2720 l
0.3818 0.2716 l
0.3827 0.2712 l
0.3836 0.2707 l
0.3845 0.2703 l
0.3854 0.2699 l
0.3863 0.2694 l
0.3872 0.2690 l
0.3881 0.2686 l
0.3890 0.2682 l
0.3899 0.2677 l
0.3908 0.2673 l
0.3917 0.2669 l
0.3927 0.2665 l
0.3936 0.2661 l
0.3945 0.2657 l
0.3954 0.2652 l
0.3963 0.2648 l
0.3972 0.2644 l
0.3981 0.2640 l
0.3990 0.2636 l
0.3999 0.2632 l
0.4008 0.2628 l
0.4017 0.2624 l
0.4026 0.2620 l
0.4035 0.2616 l
0.4044 0.2612 l
0.4053 0.2608 l
0.4062 0.2604 l
0.4071 0.2600 l
0.4080 0.2597 l
0.4089 0.2593 l
0.4098 0.2589 l
0.4107 0.2585 l
0.4116 0.2581 l
0.4125 0.2577 l
0.4135 0.2574 l
0.4144 0.2570 l
0.4153 0.2566 l
0.4162 0.2562 l
0.4171 0.2558 l
0.4180 0.2555 l
0.4189 0.2551 l
0.4198 0.2547 l
0.4207 0.2544 l
0.4216 0.2540 l
0.4225 0.2536 l
0.4234 0.2533 l
0.4243 0.2529 l
0.4252 0.2525 l
0.4261 0.2522 l
0.4270 0.2518 l
0.4279 0.2515 l
0.4288 0.2511 l
0.4297 0.2508 l
0.4306 0.2504 l
0.4315 0.2501 l
0.4324 0.2497 l
0.4334 0.2493 l
0.4343 0.2490 l
0.4352 0.2487 l
0.4361 0.2483 l
0.4370 0.2480 l
0.4379 0.2476 l
0.4388 0.2473 l
0.4397 0.2469 l
0.4406 0.2466 l
0.4415 0.2463 l
0.4424 0.2459 l
0.4433 0.2456 l
0.4442 0.2453 l
0.4451 0.2449 l
0.4460 0.2446 l
0.4469 0.2443 l
0.4478 0.2439 l
0.4487 0.2436 l
0.4496 0.2433 l
0.4505 0.2430 l
0.4514 0.2426 l
0.4523 0.2423 l
0.4532 0.2420 l
0.4542 0.2417 l
0.4551 0.2413 l
0.4560 0.2410 l
0.4569 0.2407 l
0.4578 0.2404 l
0.4587 0.2401 l
0.4596 0.2398 l
0.4605 0.2394 l
0.4614 0.2391 l
0.4623 0.2388 l
0.4632 0.2385 l
0.4641 0.2382 l
0.4650 0.2379 l
0.4659 0.2376 l
0.4668 0.2373 l
0.4677 0.2370 l
0.4686 0.2367 l
0.4695 0.2364 l
0.4704 0.2361 l
0.4713 0.2358 l
0.4722 0.2355 l
0.4731 0.2352 l
0.4740 0.2349 l
0.4750 0.2346 l
0.4759 0.2343 l
0.4768 0.2340 l
0.4777 0.2337 l
0.4786 0.2334 l
0.4795 0.2331 l
0.4804 0.2328 l
0.4813 0.2325 l
0.4822 0.2323 l
0.4831 0.2320 l
0.4840 0.2317 l
0.4849 0.2314 l
0.4858 0.2311 l
0.4867 0.2308 l
0.4876 0.2306 l
0.4885 0.2303 l
0.4894 0.2300 l
0.4903 0.2297 l
0.4912 0.2294 l
0.4921 0.2292 l
0.4930 0.2289 l
0.4939 0.2286 l
0.4949 0.2283 l
0.4958 0.2281 l
0.4967 0.2278 l
0.4976 0.2275 l
0.4985 0.2272 l
0.4994 0.2270 l
0.5003 0.2267 l
0.5012 0.2264 l
0.5021 0.2262 l
0.5030 0.2259 l
0.5039 0.2256 l
0.5048 0.2254 l
0.5057 0.2251 l
0.5066 0.2248 l
0.5075 0.2246 l
0.5084 0.2243 l
0.5093 0.2241 l
0.5102 0.2238 l
0.5111 0.2235 l
0.5120 0.2233 l
0.5129 0.2230 l
0.5138 0.2228 l
0.5147 0.2225 l
0.5157 0.2223 l
0.5166 0.2220 l
0.5175 0.2217 l
0.5184 0.2215 l
0.5193 0.2212 l
0.5202 0.2210 l
0.5211 0.2207 l
0.5220 0.2205 l
0.5229 0.2202 l
0.5238 0.2200 l
0.5247 0.2198 l
0.5256 0.2195 l
0.5265 0.2193 l
0.5274 0.2190 l
0.5283 0.2188 l
0.5292 0.2185 l
0.5301 0.2183 l
0.5310 0.2180 l
0.5319 0.2178 l
0.5328 0.2176 l
0.5337 0.2173 l
0.5346 0.2171 l
0.5355 0.2168 l
0.5365 0.2166 l
0.5374 0.2164 l
0.5383 0.2161 l
0.5392 0.2159 l
0.5401 0.2157 l
0.5410 0.2154 l
0.5419 0.2152 l
0.5428 0.2150 l
0.5437 0.2147 l
0.5446 0.2145 l
0.5455 0.2143 l
0.5464 0.2141 l
0.5473 0.2138 l
0.5482 0.2136 l
0.5491 0.2134 l
0.5500 0.2131 l
0.5509 0.2129 l
0.5518 0.2127 l
0.5527 0.2125 l
0.5536 0.2122 l
0.5545 0.2120 l
0.5554 0.2118 l
0.5564 0.2116 l
0.5573 0.2114 l
0.5582 0.2111 l
0.5591 0.2109 l
0.5600 0.2107 l
0.5609 0.2105 l
0.5618 0.2103 l
0.5627 0.2100 l
0.5636 0.2098 l
0.5645 0.2096 l
0.5654 0.2094 l
0.5663 0.2092 l
0.5672 0.2090 l
0.5681 0.2088 l
0.5690 0.2085 l
0.5699 0.2083 l
0.5708 0.2081 l
0.5717 0.2079 l
0.5726 0.2077 l
0.5735 0.2075 l
0.5744 0.2073 l
0.5753 0.2071 l
0.5762 0.2069 l
0.5772 0.2067 l
0.5781 0.2064 l
0.5790 0.2062 l
0.5799 0.2060 l
0.5808 0.2058 l
0.5817 0.2056 l
0.5826 0.2054 l
0.5835 0.2052 l
0.5844 0.2050 l
0.5853 0.2048 l
0.5862 0.2046 l
0.5871 0.2044 l
0.5880 0.2042 l
0.5889 0.2040 l
0.5898 0.2038 l
0.5907 0.2036 l
0.5916 0.2034 l
0.5925 0.2032 l
0.5934 0.2030 l
0.5943 0.2028 l
0.5952 0.2026 l
0.5961 0.2024 l
0.5970 0.2022 l
0.5980 0.2021 l
0.5989 0.2019 l
0.5998 0.2017 l
0.6007 0.2015 l
0.6016 0.2013 l
0.6025 0.2011 l
0.6034 0.2009 l
0.6043 0.2007 l
0.6052 0.2005 l
0.6061 0.2003 l
0.6070 0.2001 l
0.6079 0.2000 l
0.6088 0.1998 l
0.6097 0.1996 l
0.6106 0.1994 l
0.6115 0.1992 l
s
[/DeviceRGB] SCS
Color3 SC
n
0.1593 0.4939 m
0.1602 0.4912 l
0.1611 0.4886 l
0.1620 0.4860 l
0.1629 0.4835 l
0.1638 0.4810 l
0.1647 0.4785 l
0.1656 0.4760 l
0.1665 0.4736 l
0.1675 0.4712 l
0.1684 0.4688 l
0.1693 0.4664 l
0.1702 0.4641 l
0.1711 0.4618 l
0.1720 0.4596 l
0.1729 0.4573 l
0.1738 0.4551 l
0.1747 0.4529 l
0.1756 0.4507 l
0.1765 0.4486 l
0.1774 0.4465 l
0.1783 0.4444 l
0.1792 0.4423 l
0.1801 0.4402 l
0.1810 0.4382 l
0.1819 0.4362 l
0.1828 0.4342 l
0.1837 0.4322 l
0.1846 0.4303 l
0.1855 0.4284 l
0.1864 0.4265 l
0.1873 0.4246 l
0.1883 0.4227 l
0.1892 0.4209 l
0.1901 0.4190 l
0.1910 0.4172 l
0.1919 0.4154 l
0.1928 0.4137 l
0.1937 0.4119 l
0.1946 0.4102 l
0.1955 0.4085 l
0.1964 0.4068 l
0.1973 0.4051 l
0.1982 0.4034 l
0.1991 0.4018 l
0.2000 0.4001 l
0.2009 0.3985 l
0.2018 0.3969 l
0.2027 0.3953 l
0.2036 0.3937 l
0.2045 0.3922 l
0.2054 0.3906 l
0.2063 0.3891 l
0.2072 0.3876 l
0.2082 0.3861 l
0.2091 0.3846 l
0.2100 0.3831 l
0.2109 0.3816 l
0.2118 0.3802 l
0.2127 0.3787 l
0.2136 0.3773 l
0.2145 0.3759 l
0.2154 0.3745 l
0.2163 0.3731 l
0.2172 0.3718 l
0.2181 0.3704 l
0.2190 0.3690 l
0.2199 0.3677 l
0.2208 0.3664 l
0.2217 0.3651 l
0.2226 0.3638 l
0.2235 0.3625 l
0.2244 0.3612 l
0.2253 0.3599 l
0.2262 0.3587 l
0.2271 0.3574 l
0.2280 0.3562 l
0.2290 0.3550 l
0.2299 0.3537 l
0.2308 0.3525 l
0.2317 0.3513 l
0.2326 0.3501 l
0.2335 0.3490 l
0.2344 0.3478 l
0.2353 0.3466 l
0.2362 0.3455 l
0.2371 0.3444 l
0.2380 0.3432 l
0.2389 0.3421 l
0.2398 0.3410 l
0.2407 0.3399 l
0.2416 0.3388 l
0.2425 0.3377 l
0.2434 0.3366 l
0.2443 0.3356 l
0.2452 0.3345 l
0.2461 0.3335 l
0.2470 0.3324 l
0.2479 0.3314 l
0.2489 0.3303 l
0.2498 0.3293 l
0.2507 0.3283 l
0.2516 0.3273 l
0.2525 0.3263 l
0.2534 0.3253 l
0.2543 0.3243 l
0.2552 0.3234 l
0.2561 0.3224 l
0.2570 0.3214 l
0.2579 0.3205 l
0.2588 0.3195 l
0.2597 0.3186 l
0.2606 0.3177 l
0.2615 0.3167 l
0.2624 0.3158 l
0.2633 0.3149 l
0.2642 0.3140 l
0.2651 0.3131 l
0.2660 0.3122 l
0.2669 0.3113 l
0.2678 0.3104 l
0.2687 0.3096 l
0.2697 0.3087 l
0.2706 0.3078 l
0.2715 0.3070 l
0.2724 0.3061 l
0.2733 0.3053 l
0.2742 0.3044 l
0.2751 0.3036 l
0.2760 0.3028 l
0.2769 0.3020 l
0.2778 0.3012 l
0.2787 0.3003 l
0.2796 0.2995 l
0.2805 0.2987 l
0.2814 0.2979 l
0.2823 0.2972 l
0.2832 0.2964 l
0.2841 0.2956 l
0.2850 0.2948 l
0.2859 0.2941 l
0.2868 0.2933 l
0.2877 0.2925 l
0.2886 0.2918 l
0.2895 0.2910 l
0.2905 0.2903 l
0.2914 0.2896 l
0.2923 0.2888 l
0.2932 0.2881 l
0.2941 0.2874 l
0.2950 0.2867 l
0.2959 0.2859 l
0.2968 0.2852 l
0.2977 0.2845 l
0.2986 0.2838 l
0.2995 0.2831 l
0.3004 0.2824 l
0.3013 0.2817 l
0.3022 0.2811 l
0.3031 0.2804 l
0.3040 0.2797 l
0.3049 0.2790 l
0.3058 0.2784 l
0.3067 0.2777 l
0.3076 0.2771 l
0.3085 0.2764 l
0.3094 0.2757 l
0.3104 0.2751 l
0.3113 0.2745 l
0.3122 0.2738 l
0.3131 0.2732 l
0.3140 0.2726 l
0.3149 0.2719 l
0.3158 0.2713 l
0.3167 0.2707 l
0.3176 0.2701 l
0.3185 0.2695 l
0.3194 0.2689 l
0.3203 0.2682 l
0.3212 0.2676 l
0.3221 0.2670 l
0.3230 0.2665 l
0.3239 0.2659 l
0.3248 0.2653 l
0.3257 0.2647 l
0.3266 0.2641 l
0.3275 0.2635 l
0.3284 0.2630 l
0.3293 0.2624 l
0.3302 0.2618 l
0.3312 0.2613 l
0.3321 0.2607 l
0.3330 0.2601 l
0.3339 0.2596 l
0.3348 0.2590 l
0.3357 0.2585 l
0.3366 0.2579 l
0.3375 0.2574 l
0.3384 0.2569 l
0.3393 0.2563 l
0.3402 0.2558 l
0.3411 0.2553 l
0.3420 0.2547 l
0.3429 0.2542 l
0.3438 0.2537 l
0.3447 0.2532 l
0.3456 0.2526 l
0.3465 0.2521 l
0.3474 0.2516 l
0.3483 0.2511 l
0.3492 0.2506 l
0.3501 0.2501 l
0.3510 0.2496 l
0.3520 0.2491 l
0.3529 0.2486 l
0.3538 0.2481 l
0.3547 0.2476 l
0.3556 0.2471 l
0.3565 0.2467 l
0.3574 0.2462 l
0.3583 0.2457 l
0.3592 0.2452 l
0.3601 0.2448 l
0.3610 0.2443 l
0.3619 0.2438 l
0.3628 0.2433 l
0.3637 0.2429 l
0.3646 0.2424 l
0.3655 0.2420 l
0.3664 0.2415 l
0.3673 0.2411 l
0.3682 0.2406 l
0.3691 0.2401 l
0.3700 0.2397 l
0.3709 0.2393 l
0.3719 0.2388 l
0.3728 0.2384 l
0.3737 0.2379 l
0.3746 0.2375 l
0.3755 0.2371 l
0.3764 0.2366 l
0.3773 0.2362 l
0.3782 0.2358 l
0.3791 0.2353 l
0.3800 0.2349 l
0.3809 0.2345 l
0.3818 0.2341 l
0.3827 0.2337 l
0.3836 0.2332 l
0.3845 0.2328 l
0.3854 0.2324 l
0.3863 0.2320 l
0.3872 0.2316 l
0.3881 0.2312 l
0.3890 0.2308 l
0.3899 0.2304 l
0.3908 0.2300 l
0.3917 0.2296 l
0.3927 0.2292 l
0.3936 0.2288 l
0.3945 0.2284 l
0.3954 0.2280 l
0.3963 0.2276 l
0.3972 0.2272 l
0.3981 0.2269 l
0.3990 0.2265 l
0.3999 0.2261 l
0.4008 0.2257 l
0.4017 0.2253 l
0.4026 0.2250 l
0.4035 0.2246 l
0.4044 0.2242 l
0.4053 0.2238 l
0.4062 0.2235 l
0.4071 0.2231 l
0.4080 0.2227 l
0.4089 0.2224 l
0.4098 0.2220 l
0.4107 0.2217 l
0.4116 0.2213 l
0.4125 0.2209 l
0.4135 0.2206 l
0.4144 0.2202 l
0.4153 0.2199 l
0.4162 0.2195 l
0.4171 0.2192 l
0.4180 0.2188 l
0.4189 0.2185 l
0.4198 0.2181 l
0.4207 0.2178 l
0.4216 0.2174 l
0.4225 0.2171 l
0.4234 0.2168 l
0.4243 0.2164 l
0.4252 0.2161 l
0.4261 0.2158 l
0.4270 0.2154 l
0.4279 0.2151 l
0.4288 0.2148 l
0.4297 0.2144 l
0.4306 0.2141 l
0.4315 0.2138 l
0.4324 0.2135 l
0.4334 0.2131 l
0.4343 0.2128 l
0.4352 0.2125 l
0.4361 0.2122 l
0.4370 0.2119 l
0.4379 0.2115 l
0.4388 0.2112 l
0.4397 0.2109 l
0.4406 0.2106 l
0.4415 0.2103 l
0.4424 0.2100 l
0.4433 0.2097 l
0.4442 0.2094 l
0.4451 0.2091 l
0.4460 0.2088 l
0.4469 0.2085 l
0.4478 0.2082 l
0.4487 0.2079 l
0.4496 0.2076 l
0.4505 0.2073 l
0.4514 0.2070 l
0.4523 0.2067 l
0.4532 0.2064 l
0.4542 0.2061 l
0.4551 0.2058 l
0.4560 0.2055 l
0.4569 0.2052 l
0.4578 0.2049 l
0.4587 0.2046 l
0.4596 0.2043 l
0.4605 0.2041 l
0.4614 0.2038 l
0.4623 0.2035 l
0.4632 0.2032 l
0.4641 0.2029 l
0.4650 0.2026 l
0.4659 0.2024 l
0.4668 0.2021 l
0.4677 0.2018 l
0.4686 0.2015 l
0.4695 0.2013 l
0.4704 0.2010 l
0.4713 0.2007 l
0.4722 0.2005 l
0.4731 0.2002 l
0.4740 0.1999 l
0.4750 0.1996 l
0.4759 0.1994 l
0.4768 0.1991 l
0.4777 0.1989 l
0.4786 0.1986 l
0.4795 0.1983 l
0.4804 0.1981 l
0.4813 0.1978 l
0.4822 0.1975 l
0.4831 0.1973 l
0.4840 0.1970 l
0.4849 0.1968 l
0.4858 0.1965 l
0.4867 0.1963 l
0.4876 0.1960 l
0.4885 0.1958 l
0.4894 0.1955 l
0.4903 0.1953 l
0.4912 0.1950 l
0.4921 0.1948 l
0.4930 0.1945 l
0.4939 0.1943 l
0.4949 0.1940 l
0.4958 0.1938 l
0.4967 0.1935 l
0.4976 0.1933 l
0.4985 0.1931 l
0.4994 0.1928 l
0.5003 0.1926 l
0.5012 0.1923 l
0.5021 0.1921 l
0.5030 0.1919 l
0.5039 0.1916 l
0.5048 0.1914 l
0.5057 0.1911 l
0.5066 0.1909 l
0.5075 0.1907 l
0.5084 0.1904 l
0.5093 0.1902 l
0.5102 0.1900 l
0.5111 0.1898 l
0.5120 0.1895 l
0.5129 0.1893 l
0.5138 0.1891 l
0.5147 0.1888 l
0.5157 0.1886 l
0.5166 0.1884 l
0.5175 0.1882 l
0.5184 0.1879 l
0.5193 0.1877 l
0.5202 0.1875 l
0.5211 0.1873 l
0.5220 0.1871 l
0.5229 0.1868 l
0.5238 0.1866 l
0.5247 0.1864 l
0.5256 0.1862 l
0.5265 0.1860 l
0.5274 0.1858 l
0.5283 0.1855 l
0.5292 0.1853 l
0.5301 0.1851 l
0.5310 0.1849 l
0.5319 0.1847 l
0.5328 0.1845 l
0.5337 0.1843 l
0.5346 0.1841 l
0.5355 0.1838 l
0.5365 0.1836 l
0.5374 0.1834 l
0.5383 0.1832 l
0.5392 0.1830 l
0.5401 0.1828 l
0.5410 0.1826 l
0.5419 0.1824 l
0.5428 0.1822 l
0.5437 0.1820 l
0.5446 0.1818 l
0.5455 0.1816 l
0.5464 0.1814 l
0.5473 0.1812 l
0.5482 0.1810 l
0.5491 0.1808 l
0.5500 0.1806 l
0.5509 0.1804 l
0.5518 0.1802 l
0.5527 0.1800 l
0.5536 0.1798 l
0.5545 0.1796 l
0.5554 0.1794 l
0.5564 0.1792 l
0.5573 0.1790 l
0.5582 0.1788 l
0.5591 0.1787 l
0.5600 0.1785 l
0.5609 0.1783 l
0.5618 0.1781 l
0.5627 0.1779 l
0.5636 0.1777 l
0.5645 0.1775 l
0.5654 0.1773 l
0.5663 0.1772 l
0.5672 0.1770 l
0.5681 0.1768 l
0.5690 0.1766 l
0.5699 0.1764 l
0.5708 0.1762 l
0.5717 0.1760 l
0.5726 0.1759 l
0.5735 0.1757 l
0.5744 0.1755 l
0.5753 0.1753 l
0.5762 0.1751 l
0.5772 0.1750 l
0.5781 0.1748 l
0.5790 0.1746 l
0.5799 0.1744 l
0.5808 0.1743 l
0.5817 0.1741 l
0.5826 0.1739 l
0.5835 0.1737 l
0.5844 0.1736 l
0.5853 0.1734 l
0.5862 0.1732 l
0.5871 0.1730 l
0.5880 0.1729 l
0.5889 0.1727 l
0.5898 0.1725 l
0.5907 0.1723 l
0.5916 0.1722 l
0.5925 0.1720 l
0.5934 0.1718 l
0.5943 0.1717 l
0.5952 0.1715 l
0.5961 0.1713 l
0.5970 0.1712 l
0.5980 0.1710 l
0.5989 0.1708 l
0.5998 0.1707 l
0.6007 0.1705 l
0.6016 0.1703 l
0.6025 0.1702 l
0.6034 0.1700 l
0.6043 0.1698 l
0.6052 0.1697 l
0.6061 0.1695 l
0.6070 0.1694 l
0.6079 0.1692 l
0.6088 0.1690 l
0.6097 0.1689 l
0.6106 0.1687 l
0.6115 0.1686 l
s
[/DeviceRGB] SCS
Color1 SC
[] 0 SD
0.0045 SLW
n
0.1593 0.1495 m
0.6115 0.1495 l
s
n
0.1593 0.4939 m
0.6115 0.4939 l
s
n
0.2158 0.1495 m
0.2158 0.1595 l
s
n
0.2158 0.4939 m
0.2158 0.4839 l
s
n
0.3289 0.1495 m
0.3289 0.1595 l
s
n
0.3289 0.4939 m
0.3289 0.4839 l
s
n
0.4419 0.1495 m
0.4419 0.1595 l
s
n
0.4419 0.4939 m
0.4419 0.4839 l
s
n
0.5550 0.1495 m
0.5550 0.1595 l
s
n
0.5550 0.4939 m
0.5550 0.4839 l
s
n
0.2724 0.1495 m
0.2724 0.1695 l
s
n
0.2724 0.4939 m
0.2724 0.4739 l
s
n
0.3854 0.1495 m
0.3854 0.1695 l
s
n
0.3854 0.4939 m
0.3854 0.4739 l
s
n
0.4985 0.1495 m
0.4985 0.1695 l
s
n
0.4985 0.4939 m
0.4985 0.4739 l
s
n
0.6115 0.1495 m
0.6115 0.1695 l
s
n
0.6115 0.4939 m
0.6115 0.4739 l
s
/Font0 FFSF
0.2375 0.1011 m
GS
[0.0571 0.0000 0.0000 0.0571 0 0] CC
(0.2) show
GR
/Font0 FFSF
0.3505 0.1011 m
GS
[0.0571 0.0000 0.0000 0.0571 0 0] CC
(0.4) show
GR
/Font0 FFSF
0.4638 0.1003 m
GS
[0.0571 0.0000 0.0000 0.0571 0 0] CC
(0.6) show
GR
/Font0 FFSF
0.5774 0.1011 m
GS
[0.0571 0.0000 0.0000 0.0571 0 0] CC
(0.8) show
GR
/Font12 FFSF
0.2972 0.0276 m
GS
[0.0574 0.0000 0.0000 0.0574 0 0] CC
(r) show
GR
/Font0 FFSF
0.3286 0.0276 m
GS
[0.0574 0.0000 0.0000 0.0574 0 0] CC
( [fm) show
GR
/Font0 FFSF
0.4258 0.0621 m
GS
[0.0406 0.0000 0.0000 0.0406 0 0] CC
(-3) show
GR
/Font0 FFSF
0.4595 0.0276 m
GS
[0.0574 0.0000 0.0000 0.0574 0 0] CC
(]) show
GR
n
0.1593 0.1495 m
0.1593 0.4939 l
s
n
0.6115 0.1495 m
0.6115 0.4939 l
s
n
0.1593 0.1926 m
0.1693 0.1926 l
s
n
0.6115 0.1926 m
0.6015 0.1926 l
s
n
0.1593 0.2786 m
0.1693 0.2786 l
s
n
0.6115 0.2786 m
0.6015 0.2786 l
s
n
0.1593 0.3647 m
0.1693 0.3647 l
s
n
0.6115 0.3647 m
0.6015 0.3647 l
s
n
0.1593 0.4508 m
0.1693 0.4508 l
s
n
0.6115 0.4508 m
0.6015 0.4508 l
s
n
0.1593 0.1495 m
0.1793 0.1495 l
s
n
0.6115 0.1495 m
0.5915 0.1495 l
s
n
0.1593 0.2356 m
0.1793 0.2356 l
s
n
0.6115 0.2356 m
0.5915 0.2356 l
s
n
0.1593 0.3217 m
0.1793 0.3217 l
s
n
0.6115 0.3217 m
0.5915 0.3217 l
s
n
0.1593 0.4078 m
0.1793 0.4078 l
s
n
0.6115 0.4078 m
0.5915 0.4078 l
s
n
0.1593 0.4939 m
0.1793 0.4939 l
s
n
0.6115 0.4939 m
0.5915 0.4939 l
s
/Font0 FFSF
0.0795 0.1307 m
GS
[0.0571 0.0000 0.0000 0.0571 0 0] CC
(0.2) show
GR
/Font0 FFSF
0.0795 0.2168 m
GS
[0.0571 0.0000 0.0000 0.0571 0 0] CC
(0.4) show
GR
/Font0 FFSF
0.0799 0.3025 m
GS
[0.0571 0.0000 0.0000 0.0571 0 0] CC
(0.6) show
GR
/Font0 FFSF
0.0811 0.3890 m
GS
[0.0571 0.0000 0.0000 0.0571 0 0] CC
(0.8) show
GR
/Font0 FFSF
0.1270 0.4747 m
GS
[0.0571 0.0000 0.0000 0.0571 0 0] CC
(1) show
GR
/Font0 FFSF
0.0465 0.2488 m
GS
[0.0000 0.0574 -0.0574 0.0000 0 0] CC
(m) show
GR
/Font0 FFSF
0.0695 0.2935 m
GS
[0.0000 0.0406 -0.0406 0.0000 0 0] CC
(n) show
GR
/Font0 FFSF
0.0121 0.3138 m
GS
[0.0000 0.0406 -0.0406 0.0000 0 0] CC
(*) show
GR
/Font0 FFSF
0.0465 0.3342 m
GS
[0.0000 0.0574 -0.0574 0.0000 0 0] CC
(/m) show
GR
[] 0 SD
0.0015 SLW
n
0.1593 0.1495 m
0.1593 0.4939 l
0.6115 0.4939 l
0.6115 0.1495 l
0.1593 0.1495 l
c
s
showpage
%%PageTrailer
%%Trailer
%%DocumentNeededResources: font Times-Roman
%%+ font Symbol
%%EOF
