%!PS-Adobe-3.0
%%BoundingBox: 0 0 612 792
%%LanguageLevel: 2
%%Creator: Grace-5.1.22
%%CreationDate: Tue Oct 23 13:50:54 2012
%%DocumentData: Clean8Bit
%%Orientation: Landscape
%%Pages: 1
%%PageOrder: Ascend
%%Title: be_isotopic.agr
%%For: alessandropastore
%%DocumentNeededResources: (atend)
%%EndComments
%%BeginProlog
/PAGE_OFFSET_X 0 def
/PAGE_OFFSET_Y 0 def
/m {moveto} def
/l {lineto} def
/s {stroke} def
/n {newpath} def
/c {closepath} def
/RL {rlineto} def
/SLW {setlinewidth} def
/GS {gsave} def
/GR {grestore} def
/SC {setcolor} def
/SGRY {setgray} def
/SRGB {setrgbcolor} def
/SD {setdash} def
/SLC {setlinecap} def
/SLJ {setlinejoin} def
/SCS {setcolorspace} def
/FFSF {findfont setfont} def
/CC {concat} def
/PXL {n m 0 0 RL s} def
/Color0 {1.0000 1.0000 1.0000} def
/Color1 {0.0000 0.0000 0.0000} def
/Color2 {1.0000 0.0000 0.0000} def
/Color3 {0.0000 1.0000 0.0000} def
/Color4 {0.0000 0.0000 1.0000} def
/Color5 {1.0000 1.0000 0.0000} def
/Color6 {0.7373 0.5608 0.5608} def
/Color7 {0.8627 0.8627 0.8627} def
/Color8 {0.5804 0.0000 0.8275} def
/Color9 {0.0000 1.0000 1.0000} def
/Color10 {1.0000 0.0000 1.0000} def
/Color11 {1.0000 0.6471 0.0000} def
/Color12 {0.4471 0.1294 0.7373} def
/Color13 {0.4039 0.0275 0.2824} def
/Color14 {0.2510 0.8784 0.8157} def
/Color15 {0.0000 0.5451 0.0000} def
/Color16 {0.7529 0.7529 0.7529} def
/Color17 {0.5059 0.5059 0.5059} def
/Color18 {0.2588 0.2588 0.2588} def
/PTRN {
 /pat_bits exch def 
 <<
  /PaintType 2
  /PatternType 1 /TilingType 1
  /BBox[0 0 16 16]
  /XStep 16 /YStep 16
  /PaintProc {
   pop
   16 16 true [-1 0 0 -1 16 16] pat_bits imagemask
  }
 >>
 [0.0016 0 0 0.0016 0 0]
 makepattern
} def
/Pattern0 {<0000000000000000000000000000000000000000000000000000000000000000> PTRN} bind def
/Pattern1 {<ffffffffffffffffffffffffffffffffffffffffffffffffffffffffffffffff> PTRN} bind def
/Pattern2 {<eeeeffffbbbbffffeeeeffffbbbbffffeeeeffffbbbbffffeeeeffffbbbbffff> PTRN} bind def
/Pattern3 {<eeeebbbbeeeebbbbeeeebbbbeeeebbbbeeeebbbbeeeebbbbeeeebbbbeeeebbbb> PTRN} bind def
/Pattern4 {<5555aaaa5555aaaa5555aaaa5555aaaa5555aaaa5555aaaa5555aaaa5555aaaa> PTRN} bind def
/Pattern5 {<1111444411114444111144441111444411114444111144441111444411114444> PTRN} bind def
/Pattern6 {<1111000044440000111100004444000011110000444400001111000044440000> PTRN} bind def
/Pattern7 {<1010000000000000010100000000000010100000000000000101000000000000> PTRN} bind def
/Pattern8 {<0000000000000000000000000000000000000000000000000000000000000000> PTRN} bind def
/Pattern9 {<1e1e0f0f8787c3c3e1e1f0f078783c3c1e1e0f0f8787c3c3e1e1f0f078783c3c> PTRN} bind def
/Pattern10 {<7878f0f0e1e1c3c387870f0f1e1e3c3c7878f0f0e1e1c3c387870f0f1e1e3c3c> PTRN} bind def
/Pattern11 {<3333333333333333333333333333333333333333333333333333333333333333> PTRN} bind def
/Pattern12 {<ffffffff00000000ffffffff00000000ffffffff00000000ffffffff00000000> PTRN} bind def
/Pattern13 {<8181424224241818181824244242818181814242242418181818242442428181> PTRN} bind def
/Pattern14 {<8080404020201010080804040202010180804040202010100808040402020101> PTRN} bind def
/Pattern15 {<0101020204040808101020204040808001010202040408081010202040408080> PTRN} bind def
/Pattern16 {<2222222222222222222222222222222222222222222222222222222222222222> PTRN} bind def
/Pattern17 {<0000ffff000000000000ffff000000000000ffff000000000000ffff00000000> PTRN} bind def
/Pattern18 {<2222ffff222222222222ffff222222222222ffff222222222222ffff22222222> PTRN} bind def
/Pattern19 {<ffffffff33333333ffffffff33333333ffffffff33333333ffffffff33333333> PTRN} bind def
/Pattern20 {<0f0f0f0f0f0f0f0ff0f0f0f0f0f0f0f00f0f0f0f0f0f0f0ff0f0f0f0f0f0f0f0> PTRN} bind def
/Pattern21 {<ff00ff00ff00ff00ff00ff00ff00ff0000ff00ff00ff00ff00ff00ff00ff00ff> PTRN} bind def
/Pattern22 {<8001800180018001800180018001ffffffff8001800180018001800180018001> PTRN} bind def
/Pattern23 {<c003c003c003c003c003c003ffffffffffffffffc003c003c003c003c003c003> PTRN} bind def
/Pattern24 {<040404040404ffff404040404040ffff040404040404ffff404040404040ffff> PTRN} bind def
/Pattern25 {<180018001800180018001800ffffffff001800180018001800180018ffffffff> PTRN} bind def
/Pattern26 {<1111b8b87c7c3a3a1111a3a3c7c78b8b1111b8b87c7c3a3a1111a3a3c7c78b8b> PTRN} bind def
/Pattern27 {<101010102828c7c70101010182827c7c101010102828c7c70101010182827c7c> PTRN} bind def
/Pattern28 {<1c1c121211112121c1c12121111112121c1c121211112121c1c1212111111212> PTRN} bind def
/Pattern29 {<3e3e414180808080e3e31414080808083e3e414180808080e3e3141408080808> PTRN} bind def
/Pattern30 {<4848888884848383848488884848383848488888848483838484888848483838> PTRN} bind def
/Pattern31 {<03030404080808080c0c12122121c0c003030404080808080c0c12122121c0c0> PTRN} bind def
/ellipsedict 8 dict def
ellipsedict /mtrx matrix put
/EARC {
 ellipsedict begin
  /endangle exch def
  /startangle exch def
  /yrad exch def
  /xrad exch def
  /y exch def
  /x exch def
  /savematrix mtrx currentmatrix def
  x y translate
  xrad yrad scale
  0 0 1 startangle endangle arc
  savematrix setmatrix
 end
} def
/TL {
  /kcomp exch def
  /linewidth exch def
  /offset exch def
  GS
  0 offset rmoveto
  linewidth SLW
  dup stringwidth exch kcomp add exch RL s
  GR
} def
/KINIT
{
 /kvector exch def
 /kid 0 def
} def
/KPROC
{
 pop pop
 kvector kid get
 0 rmoveto
 /kid 1 kid add def
} def
/DefEncoding [
 /.notdef
 /.notdef
 /.notdef
 /.notdef
 /.notdef
 /.notdef
 /.notdef
 /.notdef
 /.notdef
 /.notdef
 /.notdef
 /.notdef
 /.notdef
 /.notdef
 /.notdef
 /.notdef
 /.notdef
 /.notdef
 /.notdef
 /.notdef
 /.notdef
 /.notdef
 /.notdef
 /.notdef
 /.notdef
 /.notdef
 /.notdef
 /.notdef
 /.notdef
 /.notdef
 /.notdef
 /.notdef
 /space
 /exclam
 /quotedbl
 /numbersign
 /dollar
 /percent
 /ampersand
 /quoteright
 /parenleft
 /parenright
 /asterisk
 /plus
 /comma
 /hyphen
 /period
 /slash
 /zero
 /one
 /two
 /three
 /four
 /five
 /six
 /seven
 /eight
 /nine
 /colon
 /semicolon
 /less
 /equal
 /greater
 /question
 /at
 /A
 /B
 /C
 /D
 /E
 /F
 /G
 /H
 /I
 /J
 /K
 /L
 /M
 /N
 /O
 /P
 /Q
 /R
 /S
 /T
 /U
 /V
 /W
 /X
 /Y
 /Z
 /bracketleft
 /backslash
 /bracketright
 /asciicircum
 /underscore
 /grave
 /a
 /b
 /c
 /d
 /e
 /f
 /g
 /h
 /i
 /j
 /k
 /l
 /m
 /n
 /o
 /p
 /q
 /r
 /s
 /t
 /u
 /v
 /w
 /x
 /y
 /z
 /braceleft
 /bar
 /braceright
 /asciitilde
 /.notdef
 /.notdef
 /.notdef
 /.notdef
 /.notdef
 /.notdef
 /.notdef
 /.notdef
 /.notdef
 /.notdef
 /.notdef
 /.notdef
 /.notdef
 /.notdef
 /.notdef
 /.notdef
 /.notdef
 /.notdef
 /.notdef
 /.notdef
 /.notdef
 /.notdef
 /.notdef
 /.notdef
 /.notdef
 /.notdef
 /.notdef
 /.notdef
 /.notdef
 /.notdef
 /.notdef
 /.notdef
 /.notdef
 /space
 /exclamdown
 /cent
 /sterling
 /currency
 /yen
 /brokenbar
 /section
 /dieresis
 /copyright
 /ordfeminine
 /guillemotleft
 /logicalnot
 /hyphen
 /registered
 /macron
 /degree
 /plusminus
 /twosuperior
 /threesuperior
 /acute
 /mu
 /paragraph
 /periodcentered
 /cedilla
 /onesuperior
 /ordmasculine
 /guillemotright
 /onequarter
 /onehalf
 /threequarters
 /questiondown
 /Agrave
 /Aacute
 /Acircumflex
 /Atilde
 /Adieresis
 /Aring
 /AE
 /Ccedilla
 /Egrave
 /Eacute
 /Ecircumflex
 /Edieresis
 /Igrave
 /Iacute
 /Icircumflex
 /Idieresis
 /Eth
 /Ntilde
 /Ograve
 /Oacute
 /Ocircumflex
 /Otilde
 /Odieresis
 /multiply
 /Oslash
 /Ugrave
 /Uacute
 /Ucircumflex
 /Udieresis
 /Yacute
 /Thorn
 /germandbls
 /agrave
 /aacute
 /acircumflex
 /atilde
 /adieresis
 /aring
 /ae
 /ccedilla
 /egrave
 /eacute
 /ecircumflex
 /edieresis
 /igrave
 /iacute
 /icircumflex
 /idieresis
 /eth
 /ntilde
 /ograve
 /oacute
 /ocircumflex
 /otilde
 /odieresis
 /divide
 /oslash
 /ugrave
 /uacute
 /ucircumflex
 /udieresis
 /yacute
 /thorn
 /ydieresis
] def
%%EndProlog
%%BeginSetup
%%EndSetup
%%Page: 1 1
PAGE_OFFSET_X PAGE_OFFSET_Y translate
612.00 612.00 scale
90 rotate
0.0 -1.0 translate
n
0.0000 0.0000 m
0.0000 1.0000 l
1.2941 1.0000 l
1.2941 0.0000 l
c
[/DeviceRGB] SCS
Color0 SC
fill
n
0.2071 0.3963 0.0100 0.0100 0 360 EARC c
[/DeviceRGB] SCS
Color2 SC
fill
[] 0 SD
0.0015 SLW
n 0.2071 0.3963 0.0100 0.0100 0 360 EARC s
n
0.2214 0.1845 0.0100 0.0100 0 360 EARC c
fill
n 0.2214 0.1845 0.0100 0.0100 0 360 EARC s
n
0.2357 0.1836 0.0100 0.0100 0 360 EARC c
fill
n 0.2357 0.1836 0.0100 0.0100 0 360 EARC s
n
0.2500 0.2434 0.0100 0.0100 0 360 EARC c
fill
n 0.2500 0.2434 0.0100 0.0100 0 360 EARC s
n
0.2643 0.2514 0.0100 0.0100 0 360 EARC c
fill
n 0.2643 0.2514 0.0100 0.0100 0 360 EARC s
n
0.2929 0.3204 0.0100 0.0100 0 360 EARC c
fill
n 0.2929 0.3204 0.0100 0.0100 0 360 EARC s
n
0.3071 0.2144 0.0100 0.0100 0 360 EARC c
fill
n 0.3071 0.2144 0.0100 0.0100 0 360 EARC s
n
0.3214 0.2282 0.0100 0.0100 0 360 EARC c
fill
n 0.3214 0.2282 0.0100 0.0100 0 360 EARC s
n
0.3357 0.2869 0.0100 0.0100 0 360 EARC c
fill
n 0.3357 0.2869 0.0100 0.0100 0 360 EARC s
n
0.3500 0.4237 0.0100 0.0100 0 360 EARC c
fill
n 0.3500 0.4237 0.0100 0.0100 0 360 EARC s
n
0.3643 0.4053 0.0100 0.0100 0 360 EARC c
fill
n 0.3643 0.4053 0.0100 0.0100 0 360 EARC s
n
0.3786 0.3676 0.0100 0.0100 0 360 EARC c
fill
n 0.3786 0.3676 0.0100 0.0100 0 360 EARC s
n
0.3643 0.5217 0.0100 0.0100 0 360 EARC c
fill
n 0.3643 0.5217 0.0100 0.0100 0 360 EARC s
n
0.3786 0.5134 0.0100 0.0100 0 360 EARC c
fill
n 0.3786 0.5134 0.0100 0.0100 0 360 EARC s
n
0.3929 0.4784 0.0100 0.0100 0 360 EARC c
fill
n 0.3929 0.4784 0.0100 0.0100 0 360 EARC s
n
0.4071 0.4010 0.0100 0.0100 0 360 EARC c
fill
n 0.4071 0.4010 0.0100 0.0100 0 360 EARC s
n
0.4214 0.3360 0.0100 0.0100 0 360 EARC c
fill
n 0.4214 0.3360 0.0100 0.0100 0 360 EARC s
n
0.4357 0.2799 0.0100 0.0100 0 360 EARC c
fill
n 0.4357 0.2799 0.0100 0.0100 0 360 EARC s
n
0.4500 0.2325 0.0100 0.0100 0 360 EARC c
fill
n 0.4500 0.2325 0.0100 0.0100 0 360 EARC s
n
0.4643 0.2049 0.0100 0.0100 0 360 EARC c
fill
n 0.4643 0.2049 0.0100 0.0100 0 360 EARC s
n
0.5929 0.5000 0.0100 0.0100 0 360 EARC c
fill
n 0.5929 0.5000 0.0100 0.0100 0 360 EARC s
n
0.6071 0.4940 0.0100 0.0100 0 360 EARC c
fill
n 0.6071 0.4940 0.0100 0.0100 0 360 EARC s
n
0.6214 0.4736 0.0100 0.0100 0 360 EARC c
fill
n 0.6214 0.4736 0.0100 0.0100 0 360 EARC s
n
0.6357 0.4430 0.0100 0.0100 0 360 EARC c
fill
n 0.6357 0.4430 0.0100 0.0100 0 360 EARC s
n
0.6500 0.4116 0.0100 0.0100 0 360 EARC c
fill
n 0.6500 0.4116 0.0100 0.0100 0 360 EARC s
n
0.6643 0.3842 0.0100 0.0100 0 360 EARC c
fill
n 0.6643 0.3842 0.0100 0.0100 0 360 EARC s
n
0.6786 0.3656 0.0100 0.0100 0 360 EARC c
fill
n 0.6786 0.3656 0.0100 0.0100 0 360 EARC s
n
0.6929 0.3547 0.0100 0.0100 0 360 EARC c
fill
n 0.6929 0.3547 0.0100 0.0100 0 360 EARC s
n
0.7071 0.3535 0.0100 0.0100 0 360 EARC c
fill
n 0.7071 0.3535 0.0100 0.0100 0 360 EARC s
n
0.7214 0.3658 0.0100 0.0100 0 360 EARC c
fill
n 0.7214 0.3658 0.0100 0.0100 0 360 EARC s
n
0.7357 0.3789 0.0100 0.0100 0 360 EARC c
fill
n 0.7357 0.3789 0.0100 0.0100 0 360 EARC s
n
0.7500 0.4382 0.0100 0.0100 0 360 EARC c
fill
n 0.7500 0.4382 0.0100 0.0100 0 360 EARC s
n
0.8929 0.6506 0.0100 0.0100 0 360 EARC c
fill
n 0.8929 0.6506 0.0100 0.0100 0 360 EARC s
n
0.9071 0.6689 0.0100 0.0100 0 360 EARC c
fill
n 0.9071 0.6689 0.0100 0.0100 0 360 EARC s
n
0.9214 0.6837 0.0100 0.0100 0 360 EARC c
fill
n 0.9214 0.6837 0.0100 0.0100 0 360 EARC s
n
0.9357 0.6973 0.0100 0.0100 0 360 EARC c
fill
n 0.9357 0.6973 0.0100 0.0100 0 360 EARC s
n
0.9500 0.7059 0.0100 0.0100 0 360 EARC c
fill
n 0.9500 0.7059 0.0100 0.0100 0 360 EARC s
n
0.9643 0.7071 0.0100 0.0100 0 360 EARC c
fill
n 0.9643 0.7071 0.0100 0.0100 0 360 EARC s
n
0.9786 0.7008 0.0100 0.0100 0 360 EARC c
fill
n 0.9786 0.7008 0.0100 0.0100 0 360 EARC s
n
0.9929 0.6835 0.0100 0.0100 0 360 EARC c
fill
n 0.9929 0.6835 0.0100 0.0100 0 360 EARC s
n
1.0071 0.6507 0.0100 0.0100 0 360 EARC c
fill
n 1.0071 0.6507 0.0100 0.0100 0 360 EARC s
n
1.0214 0.6010 0.0100 0.0100 0 360 EARC c
fill
n 1.0214 0.6010 0.0100 0.0100 0 360 EARC s
n
1.0357 0.5429 0.0100 0.0100 0 360 EARC c
fill
n 1.0357 0.5429 0.0100 0.0100 0 360 EARC s
n
1.0500 0.4618 0.0100 0.0100 0 360 EARC c
fill
n 1.0500 0.4618 0.0100 0.0100 0 360 EARC s
n
1.0643 0.5307 0.0100 0.0100 0 360 EARC c
fill
n 1.0643 0.5307 0.0100 0.0100 0 360 EARC s
n
1.0786 0.6075 0.0100 0.0100 0 360 EARC c
fill
n 1.0786 0.6075 0.0100 0.0100 0 360 EARC s
n
1.0929 0.6871 0.0100 0.0100 0 360 EARC c
fill
n 1.0929 0.6871 0.0100 0.0100 0 360 EARC s
n
0.2071 0.4219 m
0.1971 0.4119 l
0.2071 0.4019 l
0.2171 0.4119 l
c
[/DeviceRGB] SCS
Color3 SC
fill
0 SLC
0 SLJ
n
0.2071 0.4219 m
0.1971 0.4119 l
0.2071 0.4019 l
0.2171 0.4119 l
0.2071 0.4219 l
c
s
n
0.2214 0.2594 m
0.2114 0.2494 l
0.2214 0.2394 l
0.2314 0.2494 l
c
fill
n
0.2214 0.2594 m
0.2114 0.2494 l
0.2214 0.2394 l
0.2314 0.2494 l
0.2214 0.2594 l
c
s
n
0.2357 0.2630 m
0.2257 0.2530 l
0.2357 0.2430 l
0.2457 0.2530 l
c
fill
n
0.2357 0.2630 m
0.2257 0.2530 l
0.2357 0.2430 l
0.2457 0.2530 l
0.2357 0.2630 l
c
s
n
0.2500 0.3180 m
0.2400 0.3080 l
0.2500 0.2980 l
0.2600 0.3080 l
c
fill
n
0.2500 0.3180 m
0.2400 0.3080 l
0.2500 0.2980 l
0.2600 0.3080 l
0.2500 0.3180 l
c
s
n
0.2643 0.2868 m
0.2543 0.2768 l
0.2643 0.2668 l
0.2743 0.2768 l
c
fill
n
0.2643 0.2868 m
0.2543 0.2768 l
0.2643 0.2668 l
0.2743 0.2768 l
0.2643 0.2868 l
c
s
n
0.2929 0.3381 m
0.2829 0.3281 l
0.2929 0.3181 l
0.3029 0.3281 l
c
fill
n
0.2929 0.3381 m
0.2829 0.3281 l
0.2929 0.3181 l
0.3029 0.3281 l
0.2929 0.3381 l
c
s
n
0.3071 0.2858 m
0.2971 0.2758 l
0.3071 0.2658 l
0.3171 0.2758 l
c
fill
n
0.3071 0.2858 m
0.2971 0.2758 l
0.3071 0.2658 l
0.3171 0.2758 l
0.3071 0.2858 l
c
s
n
0.3214 0.3097 m
0.3114 0.2997 l
0.3214 0.2897 l
0.3314 0.2997 l
c
fill
n
0.3214 0.3097 m
0.3114 0.2997 l
0.3214 0.2897 l
0.3314 0.2997 l
0.3214 0.3097 l
c
s
n
0.3357 0.3661 m
0.3257 0.3561 l
0.3357 0.3461 l
0.3457 0.3561 l
c
fill
n
0.3357 0.3661 m
0.3257 0.3561 l
0.3357 0.3461 l
0.3457 0.3561 l
0.3357 0.3661 l
c
s
n
0.3500 0.4896 m
0.3400 0.4796 l
0.3500 0.4696 l
0.3600 0.4796 l
c
fill
n
0.3500 0.4896 m
0.3400 0.4796 l
0.3500 0.4696 l
0.3600 0.4796 l
0.3500 0.4896 l
c
s
n
0.3643 0.4701 m
0.3543 0.4601 l
0.3643 0.4501 l
0.3743 0.4601 l
c
fill
n
0.3643 0.4701 m
0.3543 0.4601 l
0.3643 0.4501 l
0.3743 0.4601 l
0.3643 0.4701 l
c
s
n
0.3786 0.4080 m
0.3686 0.3980 l
0.3786 0.3880 l
0.3886 0.3980 l
c
fill
n
0.3786 0.4080 m
0.3686 0.3980 l
0.3786 0.3880 l
0.3886 0.3980 l
0.3786 0.4080 l
c
s
n
0.3643 0.6394 m
0.3543 0.6294 l
0.3643 0.6194 l
0.3743 0.6294 l
c
fill
n
0.3643 0.6394 m
0.3543 0.6294 l
0.3643 0.6194 l
0.3743 0.6294 l
0.3643 0.6394 l
c
s
n
0.3786 0.6105 m
0.3686 0.6005 l
0.3786 0.5905 l
0.3886 0.6005 l
c
fill
n
0.3786 0.6105 m
0.3686 0.6005 l
0.3786 0.5905 l
0.3886 0.6005 l
0.3786 0.6105 l
c
s
n
0.3929 0.5978 m
0.3829 0.5878 l
0.3929 0.5778 l
0.4029 0.5878 l
c
fill
n
0.3929 0.5978 m
0.3829 0.5878 l
0.3929 0.5778 l
0.4029 0.5878 l
0.3929 0.5978 l
c
s
n
0.4071 0.5344 m
0.3971 0.5244 l
0.4071 0.5144 l
0.4171 0.5244 l
c
fill
n
0.4071 0.5344 m
0.3971 0.5244 l
0.4071 0.5144 l
0.4171 0.5244 l
0.4071 0.5344 l
c
s
n
0.4214 0.4658 m
0.4114 0.4558 l
0.4214 0.4458 l
0.4314 0.4558 l
c
fill
n
0.4214 0.4658 m
0.4114 0.4558 l
0.4214 0.4458 l
0.4314 0.4558 l
0.4214 0.4658 l
c
s
n
0.4357 0.3985 m
0.4257 0.3885 l
0.4357 0.3785 l
0.4457 0.3885 l
c
fill
n
0.4357 0.3985 m
0.4257 0.3885 l
0.4357 0.3785 l
0.4457 0.3885 l
0.4357 0.3985 l
c
s
n
0.4500 0.3487 m
0.4400 0.3387 l
0.4500 0.3287 l
0.4600 0.3387 l
c
fill
n
0.4500 0.3487 m
0.4400 0.3387 l
0.4500 0.3287 l
0.4600 0.3387 l
0.4500 0.3487 l
c
s
n
0.4643 0.3317 m
0.4543 0.3217 l
0.4643 0.3117 l
0.4743 0.3217 l
c
fill
n
0.4643 0.3317 m
0.4543 0.3217 l
0.4643 0.3117 l
0.4743 0.3217 l
0.4643 0.3317 l
c
s
n
0.5929 0.6600 m
0.5829 0.6500 l
0.5929 0.6400 l
0.6029 0.6500 l
c
fill
n
0.5929 0.6600 m
0.5829 0.6500 l
0.5929 0.6400 l
0.6029 0.6500 l
0.5929 0.6600 l
c
s
n
0.6071 0.6515 m
0.5971 0.6415 l
0.6071 0.6315 l
0.6171 0.6415 l
c
fill
n
0.6071 0.6515 m
0.5971 0.6415 l
0.6071 0.6315 l
0.6171 0.6415 l
0.6071 0.6515 l
c
s
n
0.6214 0.6249 m
0.6114 0.6149 l
0.6214 0.6049 l
0.6314 0.6149 l
c
fill
n
0.6214 0.6249 m
0.6114 0.6149 l
0.6214 0.6049 l
0.6314 0.6149 l
0.6214 0.6249 l
c
s
n
0.6357 0.5855 m
0.6257 0.5755 l
0.6357 0.5655 l
0.6457 0.5755 l
c
fill
n
0.6357 0.5855 m
0.6257 0.5755 l
0.6357 0.5655 l
0.6457 0.5755 l
0.6357 0.5855 l
c
s
n
0.6500 0.5440 m
0.6400 0.5340 l
0.6500 0.5240 l
0.6600 0.5340 l
c
fill
n
0.6500 0.5440 m
0.6400 0.5340 l
0.6500 0.5240 l
0.6600 0.5340 l
0.6500 0.5440 l
c
s
n
0.6643 0.5068 m
0.6543 0.4968 l
0.6643 0.4868 l
0.6743 0.4968 l
c
fill
n
0.6643 0.5068 m
0.6543 0.4968 l
0.6643 0.4868 l
0.6743 0.4968 l
0.6643 0.5068 l
c
s
n
0.6786 0.4789 m
0.6686 0.4689 l
0.6786 0.4589 l
0.6886 0.4689 l
c
fill
n
0.6786 0.4789 m
0.6686 0.4689 l
0.6786 0.4589 l
0.6886 0.4689 l
0.6786 0.4789 l
c
s
n
0.6929 0.4574 m
0.6829 0.4474 l
0.6929 0.4374 l
0.7029 0.4474 l
c
fill
n
0.6929 0.4574 m
0.6829 0.4474 l
0.6929 0.4374 l
0.7029 0.4474 l
0.6929 0.4574 l
c
s
n
0.7071 0.4470 m
0.6971 0.4370 l
0.7071 0.4270 l
0.7171 0.4370 l
c
fill
n
0.7071 0.4470 m
0.6971 0.4370 l
0.7071 0.4270 l
0.7171 0.4370 l
0.7071 0.4470 l
c
s
n
0.7214 0.4432 m
0.7114 0.4332 l
0.7214 0.4232 l
0.7314 0.4332 l
c
fill
n
0.7214 0.4432 m
0.7114 0.4332 l
0.7214 0.4232 l
0.7314 0.4332 l
0.7214 0.4432 l
c
s
n
0.7357 0.4425 m
0.7257 0.4325 l
0.7357 0.4225 l
0.7457 0.4325 l
c
fill
n
0.7357 0.4425 m
0.7257 0.4325 l
0.7357 0.4225 l
0.7457 0.4325 l
0.7357 0.4425 l
c
s
n
0.7500 0.5041 m
0.7400 0.4941 l
0.7500 0.4841 l
0.7600 0.4941 l
c
fill
n
0.7500 0.5041 m
0.7400 0.4941 l
0.7500 0.4841 l
0.7600 0.4941 l
0.7500 0.5041 l
c
s
n
0.8929 0.7737 m
0.8829 0.7637 l
0.8929 0.7537 l
0.9029 0.7637 l
c
fill
n
0.8929 0.7737 m
0.8829 0.7637 l
0.8929 0.7537 l
0.9029 0.7637 l
0.8929 0.7737 l
c
s
n
0.9071 0.7924 m
0.8971 0.7824 l
0.9071 0.7724 l
0.9171 0.7824 l
c
fill
n
0.9071 0.7924 m
0.8971 0.7824 l
0.9071 0.7724 l
0.9171 0.7824 l
0.9071 0.7924 l
c
s
n
0.9214 0.8055 m
0.9114 0.7955 l
0.9214 0.7855 l
0.9314 0.7955 l
c
fill
n
0.9214 0.8055 m
0.9114 0.7955 l
0.9214 0.7855 l
0.9314 0.7955 l
0.9214 0.8055 l
c
s
n
0.9357 0.8143 m
0.9257 0.8043 l
0.9357 0.7943 l
0.9457 0.8043 l
c
fill
n
0.9357 0.8143 m
0.9257 0.8043 l
0.9357 0.7943 l
0.9457 0.8043 l
0.9357 0.8143 l
c
s
n
0.9500 0.8151 m
0.9400 0.8051 l
0.9500 0.7951 l
0.9600 0.8051 l
c
fill
n
0.9500 0.8151 m
0.9400 0.8051 l
0.9500 0.7951 l
0.9600 0.8051 l
0.9500 0.8151 l
c
s
n
0.9643 0.8053 m
0.9543 0.7953 l
0.9643 0.7853 l
0.9743 0.7953 l
c
fill
n
0.9643 0.8053 m
0.9543 0.7953 l
0.9643 0.7853 l
0.9743 0.7953 l
0.9643 0.8053 l
c
s
n
0.9786 0.7852 m
0.9686 0.7752 l
0.9786 0.7652 l
0.9886 0.7752 l
c
fill
n
0.9786 0.7852 m
0.9686 0.7752 l
0.9786 0.7652 l
0.9886 0.7752 l
0.9786 0.7852 l
c
s
n
0.9929 0.7517 m
0.9829 0.7417 l
0.9929 0.7317 l
1.0029 0.7417 l
c
fill
n
0.9929 0.7517 m
0.9829 0.7417 l
0.9929 0.7317 l
1.0029 0.7417 l
0.9929 0.7517 l
c
s
n
1.0071 0.7018 m
0.9971 0.6918 l
1.0071 0.6818 l
1.0171 0.6918 l
c
fill
n
1.0071 0.7018 m
0.9971 0.6918 l
1.0071 0.6818 l
1.0171 0.6918 l
1.0071 0.7018 l
c
s
n
1.0214 0.6344 m
1.0114 0.6244 l
1.0214 0.6144 l
1.0314 0.6244 l
c
fill
n
1.0214 0.6344 m
1.0114 0.6244 l
1.0214 0.6144 l
1.0314 0.6244 l
1.0214 0.6344 l
c
s
n
1.0357 0.5556 m
1.0257 0.5456 l
1.0357 0.5356 l
1.0457 0.5456 l
c
fill
n
1.0357 0.5556 m
1.0257 0.5456 l
1.0357 0.5356 l
1.0457 0.5456 l
1.0357 0.5556 l
c
s
n
1.0500 0.4535 m
1.0400 0.4435 l
1.0500 0.4335 l
1.0600 0.4435 l
c
fill
n
1.0500 0.4535 m
1.0400 0.4435 l
1.0500 0.4335 l
1.0600 0.4435 l
1.0500 0.4535 l
c
s
n
1.0643 0.5366 m
1.0543 0.5266 l
1.0643 0.5166 l
1.0743 0.5266 l
c
fill
n
1.0643 0.5366 m
1.0543 0.5266 l
1.0643 0.5166 l
1.0743 0.5266 l
1.0643 0.5366 l
c
s
n
1.0786 0.6247 m
1.0686 0.6147 l
1.0786 0.6047 l
1.0886 0.6147 l
c
fill
n
1.0786 0.6247 m
1.0686 0.6147 l
1.0786 0.6047 l
1.0886 0.6147 l
1.0786 0.6247 l
c
s
n
1.0929 0.7159 m
1.0829 0.7059 l
1.0929 0.6959 l
1.1029 0.7059 l
c
fill
n
1.0929 0.7159 m
1.0829 0.7059 l
1.0929 0.6959 l
1.1029 0.7059 l
1.0929 0.7159 l
c
s
[/DeviceRGB] SCS
Color1 SC
[] 0 SD
0.0045 SLW
n
0.1500 0.1500 m
1.1500 0.1500 l
s
n
0.1500 0.8500 m
1.1500 0.8500 l
s
n
0.2214 0.1500 m
0.2214 0.1600 l
s
n
0.2214 0.8500 m
0.2214 0.8400 l
s
n
0.3643 0.1500 m
0.3643 0.1600 l
s
n
0.3643 0.8500 m
0.3643 0.8400 l
s
n
0.5071 0.1500 m
0.5071 0.1600 l
s
n
0.5071 0.8500 m
0.5071 0.8400 l
s
n
0.6500 0.1500 m
0.6500 0.1600 l
s
n
0.6500 0.8500 m
0.6500 0.8400 l
s
n
0.7929 0.1500 m
0.7929 0.1600 l
s
n
0.7929 0.8500 m
0.7929 0.8400 l
s
n
0.9357 0.1500 m
0.9357 0.1600 l
s
n
0.9357 0.8500 m
0.9357 0.8400 l
s
n
1.0786 0.1500 m
1.0786 0.1600 l
s
n
1.0786 0.8500 m
1.0786 0.8400 l
s
n
0.1500 0.1500 m
0.1500 0.1700 l
s
n
0.1500 0.8500 m
0.1500 0.8300 l
s
n
0.2929 0.1500 m
0.2929 0.1700 l
s
n
0.2929 0.8500 m
0.2929 0.8300 l
s
n
0.4357 0.1500 m
0.4357 0.1700 l
s
n
0.4357 0.8500 m
0.4357 0.8300 l
s
n
0.5786 0.1500 m
0.5786 0.1700 l
s
n
0.5786 0.8500 m
0.5786 0.8300 l
s
n
0.7214 0.1500 m
0.7214 0.1700 l
s
n
0.7214 0.8500 m
0.7214 0.8300 l
s
n
0.8643 0.1500 m
0.8643 0.1700 l
s
n
0.8643 0.8500 m
0.8643 0.8300 l
s
n
1.0071 0.1500 m
1.0071 0.1700 l
s
n
1.0071 0.8500 m
1.0071 0.8300 l
s
n
1.1500 0.1500 m
1.1500 0.1700 l
s
n
1.1500 0.8500 m
1.1500 0.8300 l
s
/Times-Roman findfont
dup length dict begin
 {1 index /FID ne {def} {pop pop} ifelse} forall
 /Encoding DefEncoding def
 currentdict
end
/Font0 exch definefont pop
/Font0 FFSF
0.1365 0.1016 m
GS
[0.0571 0.0000 0.0000 0.0571 0 0] CC
(0) show
GR
/Font0 FFSF
0.2650 0.1016 m
GS
[0.0571 0.0000 0.0000 0.0571 0 0] CC
(20) show
GR
/Font0 FFSF
0.4079 0.1016 m
GS
[0.0571 0.0000 0.0000 0.0571 0 0] CC
(40) show
GR
/Font0 FFSF
0.5507 0.1008 m
GS
[0.0571 0.0000 0.0000 0.0571 0 0] CC
(60) show
GR
/Font0 FFSF
0.6936 0.1016 m
GS
[0.0571 0.0000 0.0000 0.0571 0 0] CC
(80) show
GR
/Font0 FFSF
0.8221 0.1016 m
GS
[0.0571 0.0000 0.0000 0.0571 0 0] CC
(100) show
GR
/Font0 FFSF
0.9650 0.1016 m
GS
[0.0571 0.0000 0.0000 0.0571 0 0] CC
(120) show
GR
/Font0 FFSF
1.1078 0.1016 m
GS
[0.0571 0.0000 0.0000 0.0571 0 0] CC
(140) show
GR
/Font0 FFSF
0.6306 0.0535 m
GS
[0.0552 0.0000 0.0000 0.0552 0 0] CC
(N) show
GR
n
0.1500 0.1500 m
0.1500 0.8500 l
s
n
1.1500 0.1500 m
1.1500 0.8500 l
s
n
0.1500 0.1500 m
0.1600 0.1500 l
s
n
1.1500 0.1500 m
1.1400 0.1500 l
s
n
0.1500 0.2667 m
0.1600 0.2667 l
s
n
1.1500 0.2667 m
1.1400 0.2667 l
s
n
0.1500 0.3833 m
0.1600 0.3833 l
s
n
1.1500 0.3833 m
1.1400 0.3833 l
s
n
0.1500 0.5000 m
0.1600 0.5000 l
s
n
1.1500 0.5000 m
1.1400 0.5000 l
s
n
0.1500 0.6167 m
0.1600 0.6167 l
s
n
1.1500 0.6167 m
1.1400 0.6167 l
s
n
0.1500 0.7333 m
0.1600 0.7333 l
s
n
1.1500 0.7333 m
1.1400 0.7333 l
s
n
0.1500 0.8500 m
0.1600 0.8500 l
s
n
1.1500 0.8500 m
1.1400 0.8500 l
s
n
0.1500 0.2083 m
0.1700 0.2083 l
s
n
1.1500 0.2083 m
1.1300 0.2083 l
s
n
0.1500 0.3250 m
0.1700 0.3250 l
s
n
1.1500 0.3250 m
1.1300 0.3250 l
s
n
0.1500 0.4417 m
0.1700 0.4417 l
s
n
1.1500 0.4417 m
1.1300 0.4417 l
s
n
0.1500 0.5583 m
0.1700 0.5583 l
s
n
1.1500 0.5583 m
1.1300 0.5583 l
s
n
0.1500 0.6750 m
0.1700 0.6750 l
s
n
1.1500 0.6750 m
1.1300 0.6750 l
s
n
0.1500 0.7917 m
0.1700 0.7917 l
s
n
1.1500 0.7917 m
1.1300 0.7917 l
s
/Font0 FFSF
0.0937 0.1891 m
GS
[0.0571 0.0000 0.0000 0.0571 0 0] CC
(-4) show
GR
/Font0 FFSF
0.0937 0.3058 m
GS
[0.0571 0.0000 0.0000 0.0571 0 0] CC
(-2) show
GR
/Font0 FFSF
0.1129 0.4228 m
GS
[0.0571 0.0000 0.0000 0.0571 0 0] CC
(0) show
GR
/Font0 FFSF
0.1129 0.5391 m
GS
[0.0571 0.0000 0.0000 0.0571 0 0] CC
(2) show
GR
/Font0 FFSF
0.1129 0.6558 m
GS
[0.0571 0.0000 0.0000 0.0571 0 0] CC
(4) show
GR
/Font0 FFSF
0.1133 0.7725 m
GS
[0.0571 0.0000 0.0000 0.0571 0 0] CC
(6) show
GR
/Font0 FFSF
0.0521 0.2702 m
GS
[0.0000 0.0574 -0.0574 0.0000 0 0] CC
(BE) show
GR
/Font0 FFSF
0.0751 0.3435 m
GS
[0.0000 0.0406 -0.0406 0.0000 0 0] CC
(theo) show
GR
/Font0 FFSF
0.0521 0.4133 m
GS
[0.0000 0.0574 -0.0574 0.0000 0 0] CC
(-BE) show
GR
/Font0 FFSF
0.0751 0.5059 m
GS
[0.0000 0.0406 -0.0406 0.0000 0 0] CC
(exp) show
GR
/Font0 FFSF
0.0521 0.5643 m
GS
[0.0000 0.0574 -0.0574 0.0000 0 0] CC
( [MeV]) show
GR
[] 0 SD
0.0015 SLW
n
0.1500 0.1500 m
0.1500 0.8500 l
1.1500 0.8500 l
1.1500 0.1500 l
0.1500 0.1500 l
c
s
[0.0150 0.0090 ] 0 SD
0.0030 SLW
n
0.1500 0.4417 m
1.1500 0.4417 l
s
n
0.1700 0.8000 m
0.1700 0.6680 l
0.3963 0.6680 l
0.3963 0.8000 l
c
[/DeviceRGB] SCS
Color0 SC
fill
/Font0 FFSF
[/DeviceRGB] SCS
Color1 SC
0.2400 0.7512 m
GS
[0.0563 0.0000 0.0000 0.0563 0 0] CC
(SLy5) show
GR
n
0.2000 0.7645 0.0100 0.0100 0 360 EARC c
[/DeviceRGB] SCS
Color2 SC
fill
[] 0 SD
0.0015 SLW
n 0.2000 0.7645 0.0100 0.0100 0 360 EARC s
/Font0 FFSF
[/DeviceRGB] SCS
Color1 SC
0.2400 0.6902 m
GS
[0.0563 0.0000 0.0000 0.0563 0 0] CC
(SLy5*) show
GR
n
0.2000 0.7135 m
0.1900 0.7035 l
0.2000 0.6935 l
0.2100 0.7035 l
c
[/DeviceRGB] SCS
Color3 SC
fill
n
0.2000 0.7135 m
0.1900 0.7035 l
0.2000 0.6935 l
0.2100 0.7035 l
0.2000 0.7135 l
c
s
showpage
%%PageTrailer
%%Trailer
%%DocumentNeededResources: font Times-Roman
%%EOF
