%!PS-Adobe-3.0
%%BoundingBox: 0 0 612 792
%%LanguageLevel: 2
%%Creator: Grace-5.1.22
%%CreationDate: Tue Oct 23 13:52:02 2012
%%DocumentData: Clean8Bit
%%Orientation: Landscape
%%Pages: 1
%%PageOrder: Ascend
%%Title: /Users/alessandropastore/Fisica/Testi/Articoli/kazimierz/plots/be_isotonic.agr
%%For: alessandropastore
%%DocumentNeededResources: (atend)
%%EndComments
%%BeginProlog
/PAGE_OFFSET_X 0 def
/PAGE_OFFSET_Y 0 def
/m {moveto} def
/l {lineto} def
/s {stroke} def
/n {newpath} def
/c {closepath} def
/RL {rlineto} def
/SLW {setlinewidth} def
/GS {gsave} def
/GR {grestore} def
/SC {setcolor} def
/SGRY {setgray} def
/SRGB {setrgbcolor} def
/SD {setdash} def
/SLC {setlinecap} def
/SLJ {setlinejoin} def
/SCS {setcolorspace} def
/FFSF {findfont setfont} def
/CC {concat} def
/PXL {n m 0 0 RL s} def
/Color0 {1.0000 1.0000 1.0000} def
/Color1 {0.0000 0.0000 0.0000} def
/Color2 {1.0000 0.0000 0.0000} def
/Color3 {0.0000 1.0000 0.0000} def
/Color4 {0.0000 0.0000 1.0000} def
/Color5 {1.0000 1.0000 0.0000} def
/Color6 {0.7373 0.5608 0.5608} def
/Color7 {0.8627 0.8627 0.8627} def
/Color8 {0.5804 0.0000 0.8275} def
/Color9 {0.0000 1.0000 1.0000} def
/Color10 {1.0000 0.0000 1.0000} def
/Color11 {1.0000 0.6471 0.0000} def
/Color12 {0.4471 0.1294 0.7373} def
/Color13 {0.4039 0.0275 0.2824} def
/Color14 {0.2510 0.8784 0.8157} def
/Color15 {0.0000 0.5451 0.0000} def
/Color16 {0.7529 0.7529 0.7529} def
/Color17 {0.5059 0.5059 0.5059} def
/Color18 {0.2588 0.2588 0.2588} def
/PTRN {
 /pat_bits exch def 
 <<
  /PaintType 2
  /PatternType 1 /TilingType 1
  /BBox[0 0 16 16]
  /XStep 16 /YStep 16
  /PaintProc {
   pop
   16 16 true [-1 0 0 -1 16 16] pat_bits imagemask
  }
 >>
 [0.0016 0 0 0.0016 0 0]
 makepattern
} def
/Pattern0 {<0000000000000000000000000000000000000000000000000000000000000000> PTRN} bind def
/Pattern1 {<ffffffffffffffffffffffffffffffffffffffffffffffffffffffffffffffff> PTRN} bind def
/Pattern2 {<eeeeffffbbbbffffeeeeffffbbbbffffeeeeffffbbbbffffeeeeffffbbbbffff> PTRN} bind def
/Pattern3 {<eeeebbbbeeeebbbbeeeebbbbeeeebbbbeeeebbbbeeeebbbbeeeebbbbeeeebbbb> PTRN} bind def
/Pattern4 {<5555aaaa5555aaaa5555aaaa5555aaaa5555aaaa5555aaaa5555aaaa5555aaaa> PTRN} bind def
/Pattern5 {<1111444411114444111144441111444411114444111144441111444411114444> PTRN} bind def
/Pattern6 {<1111000044440000111100004444000011110000444400001111000044440000> PTRN} bind def
/Pattern7 {<1010000000000000010100000000000010100000000000000101000000000000> PTRN} bind def
/Pattern8 {<0000000000000000000000000000000000000000000000000000000000000000> PTRN} bind def
/Pattern9 {<1e1e0f0f8787c3c3e1e1f0f078783c3c1e1e0f0f8787c3c3e1e1f0f078783c3c> PTRN} bind def
/Pattern10 {<7878f0f0e1e1c3c387870f0f1e1e3c3c7878f0f0e1e1c3c387870f0f1e1e3c3c> PTRN} bind def
/Pattern11 {<3333333333333333333333333333333333333333333333333333333333333333> PTRN} bind def
/Pattern12 {<ffffffff00000000ffffffff00000000ffffffff00000000ffffffff00000000> PTRN} bind def
/Pattern13 {<8181424224241818181824244242818181814242242418181818242442428181> PTRN} bind def
/Pattern14 {<8080404020201010080804040202010180804040202010100808040402020101> PTRN} bind def
/Pattern15 {<0101020204040808101020204040808001010202040408081010202040408080> PTRN} bind def
/Pattern16 {<2222222222222222222222222222222222222222222222222222222222222222> PTRN} bind def
/Pattern17 {<0000ffff000000000000ffff000000000000ffff000000000000ffff00000000> PTRN} bind def
/Pattern18 {<2222ffff222222222222ffff222222222222ffff222222222222ffff22222222> PTRN} bind def
/Pattern19 {<ffffffff33333333ffffffff33333333ffffffff33333333ffffffff33333333> PTRN} bind def
/Pattern20 {<0f0f0f0f0f0f0f0ff0f0f0f0f0f0f0f00f0f0f0f0f0f0f0ff0f0f0f0f0f0f0f0> PTRN} bind def
/Pattern21 {<ff00ff00ff00ff00ff00ff00ff00ff0000ff00ff00ff00ff00ff00ff00ff00ff> PTRN} bind def
/Pattern22 {<8001800180018001800180018001ffffffff8001800180018001800180018001> PTRN} bind def
/Pattern23 {<c003c003c003c003c003c003ffffffffffffffffc003c003c003c003c003c003> PTRN} bind def
/Pattern24 {<040404040404ffff404040404040ffff040404040404ffff404040404040ffff> PTRN} bind def
/Pattern25 {<180018001800180018001800ffffffff001800180018001800180018ffffffff> PTRN} bind def
/Pattern26 {<1111b8b87c7c3a3a1111a3a3c7c78b8b1111b8b87c7c3a3a1111a3a3c7c78b8b> PTRN} bind def
/Pattern27 {<101010102828c7c70101010182827c7c101010102828c7c70101010182827c7c> PTRN} bind def
/Pattern28 {<1c1c121211112121c1c12121111112121c1c121211112121c1c1212111111212> PTRN} bind def
/Pattern29 {<3e3e414180808080e3e31414080808083e3e414180808080e3e3141408080808> PTRN} bind def
/Pattern30 {<4848888884848383848488884848383848488888848483838484888848483838> PTRN} bind def
/Pattern31 {<03030404080808080c0c12122121c0c003030404080808080c0c12122121c0c0> PTRN} bind def
/ellipsedict 8 dict def
ellipsedict /mtrx matrix put
/EARC {
 ellipsedict begin
  /endangle exch def
  /startangle exch def
  /yrad exch def
  /xrad exch def
  /y exch def
  /x exch def
  /savematrix mtrx currentmatrix def
  x y translate
  xrad yrad scale
  0 0 1 startangle endangle arc
  savematrix setmatrix
 end
} def
/TL {
  /kcomp exch def
  /linewidth exch def
  /offset exch def
  GS
  0 offset rmoveto
  linewidth SLW
  dup stringwidth exch kcomp add exch RL s
  GR
} def
/KINIT
{
 /kvector exch def
 /kid 0 def
} def
/KPROC
{
 pop pop
 kvector kid get
 0 rmoveto
 /kid 1 kid add def
} def
/DefEncoding [
 /.notdef
 /.notdef
 /.notdef
 /.notdef
 /.notdef
 /.notdef
 /.notdef
 /.notdef
 /.notdef
 /.notdef
 /.notdef
 /.notdef
 /.notdef
 /.notdef
 /.notdef
 /.notdef
 /.notdef
 /.notdef
 /.notdef
 /.notdef
 /.notdef
 /.notdef
 /.notdef
 /.notdef
 /.notdef
 /.notdef
 /.notdef
 /.notdef
 /.notdef
 /.notdef
 /.notdef
 /.notdef
 /space
 /exclam
 /quotedbl
 /numbersign
 /dollar
 /percent
 /ampersand
 /quoteright
 /parenleft
 /parenright
 /asterisk
 /plus
 /comma
 /hyphen
 /period
 /slash
 /zero
 /one
 /two
 /three
 /four
 /five
 /six
 /seven
 /eight
 /nine
 /colon
 /semicolon
 /less
 /equal
 /greater
 /question
 /at
 /A
 /B
 /C
 /D
 /E
 /F
 /G
 /H
 /I
 /J
 /K
 /L
 /M
 /N
 /O
 /P
 /Q
 /R
 /S
 /T
 /U
 /V
 /W
 /X
 /Y
 /Z
 /bracketleft
 /backslash
 /bracketright
 /asciicircum
 /underscore
 /grave
 /a
 /b
 /c
 /d
 /e
 /f
 /g
 /h
 /i
 /j
 /k
 /l
 /m
 /n
 /o
 /p
 /q
 /r
 /s
 /t
 /u
 /v
 /w
 /x
 /y
 /z
 /braceleft
 /bar
 /braceright
 /asciitilde
 /.notdef
 /.notdef
 /.notdef
 /.notdef
 /.notdef
 /.notdef
 /.notdef
 /.notdef
 /.notdef
 /.notdef
 /.notdef
 /.notdef
 /.notdef
 /.notdef
 /.notdef
 /.notdef
 /.notdef
 /.notdef
 /.notdef
 /.notdef
 /.notdef
 /.notdef
 /.notdef
 /.notdef
 /.notdef
 /.notdef
 /.notdef
 /.notdef
 /.notdef
 /.notdef
 /.notdef
 /.notdef
 /.notdef
 /space
 /exclamdown
 /cent
 /sterling
 /currency
 /yen
 /brokenbar
 /section
 /dieresis
 /copyright
 /ordfeminine
 /guillemotleft
 /logicalnot
 /hyphen
 /registered
 /macron
 /degree
 /plusminus
 /twosuperior
 /threesuperior
 /acute
 /mu
 /paragraph
 /periodcentered
 /cedilla
 /onesuperior
 /ordmasculine
 /guillemotright
 /onequarter
 /onehalf
 /threequarters
 /questiondown
 /Agrave
 /Aacute
 /Acircumflex
 /Atilde
 /Adieresis
 /Aring
 /AE
 /Ccedilla
 /Egrave
 /Eacute
 /Ecircumflex
 /Edieresis
 /Igrave
 /Iacute
 /Icircumflex
 /Idieresis
 /Eth
 /Ntilde
 /Ograve
 /Oacute
 /Ocircumflex
 /Otilde
 /Odieresis
 /multiply
 /Oslash
 /Ugrave
 /Uacute
 /Ucircumflex
 /Udieresis
 /Yacute
 /Thorn
 /germandbls
 /agrave
 /aacute
 /acircumflex
 /atilde
 /adieresis
 /aring
 /ae
 /ccedilla
 /egrave
 /eacute
 /ecircumflex
 /edieresis
 /igrave
 /iacute
 /icircumflex
 /idieresis
 /eth
 /ntilde
 /ograve
 /oacute
 /ocircumflex
 /otilde
 /odieresis
 /divide
 /oslash
 /ugrave
 /uacute
 /ucircumflex
 /udieresis
 /yacute
 /thorn
 /ydieresis
] def
%%EndProlog
%%BeginSetup
%%EndSetup
%%Page: 1 1
PAGE_OFFSET_X PAGE_OFFSET_Y translate
612.00 612.00 scale
90 rotate
0.0 -1.0 translate
n
0.0000 0.0000 m
0.0000 1.0000 l
1.2941 1.0000 l
1.2941 0.0000 l
c
[/DeviceRGB] SCS
Color0 SC
fill
n
0.1900 0.2360 0.0100 0.0100 0 360 EARC c
[/DeviceRGB] SCS
Color2 SC
fill
[] 0 SD
0.0015 SLW
n 0.1900 0.2360 0.0100 0.0100 0 360 EARC s
n
0.2100 0.4865 0.0100 0.0100 0 360 EARC c
fill
n 0.2100 0.4865 0.0100 0.0100 0 360 EARC s
n
0.2300 0.5460 0.0100 0.0100 0 360 EARC c
fill
n 0.2300 0.5460 0.0100 0.0100 0 360 EARC s
n
0.2500 0.2881 0.0100 0.0100 0 360 EARC c
fill
n 0.2500 0.2881 0.0100 0.0100 0 360 EARC s
n
0.2500 0.1855 0.0100 0.0100 0 360 EARC c
fill
n 0.2500 0.1855 0.0100 0.0100 0 360 EARC s
n
0.2700 0.3010 0.0100 0.0100 0 360 EARC c
fill
n 0.2700 0.3010 0.0100 0.0100 0 360 EARC s
n
0.2900 0.4235 0.0100 0.0100 0 360 EARC c
fill
n 0.2900 0.4235 0.0100 0.0100 0 360 EARC s
n
0.3100 0.5121 0.0100 0.0100 0 360 EARC c
fill
n 0.3100 0.5121 0.0100 0.0100 0 360 EARC s
n
0.3300 0.4987 0.0100 0.0100 0 360 EARC c
fill
n 0.3300 0.4987 0.0100 0.0100 0 360 EARC s
n
0.3500 0.4632 0.0100 0.0100 0 360 EARC c
fill
n 0.3500 0.4632 0.0100 0.0100 0 360 EARC s
n
0.3100 0.5679 0.0100 0.0100 0 360 EARC c
fill
n 0.3100 0.5679 0.0100 0.0100 0 360 EARC s
n
0.3300 0.6343 0.0100 0.0100 0 360 EARC c
fill
n 0.3300 0.6343 0.0100 0.0100 0 360 EARC s
n
0.3500 0.5759 0.0100 0.0100 0 360 EARC c
fill
n 0.3500 0.5759 0.0100 0.0100 0 360 EARC s
n
0.3700 0.5526 0.0100 0.0100 0 360 EARC c
fill
n 0.3700 0.5526 0.0100 0.0100 0 360 EARC s
n
0.3900 0.5953 0.0100 0.0100 0 360 EARC c
fill
n 0.3900 0.5953 0.0100 0.0100 0 360 EARC s
n
0.4100 0.6335 0.0100 0.0100 0 360 EARC c
fill
n 0.4100 0.6335 0.0100 0.0100 0 360 EARC s
n
0.4500 0.6191 0.0100 0.0100 0 360 EARC c
fill
n 0.4500 0.6191 0.0100 0.0100 0 360 EARC s
n
0.4700 0.6799 0.0100 0.0100 0 360 EARC c
fill
n 0.4700 0.6799 0.0100 0.0100 0 360 EARC s
n
0.4900 0.6867 0.0100 0.0100 0 360 EARC c
fill
n 0.4900 0.6867 0.0100 0.0100 0 360 EARC s
n
0.5100 0.6667 0.0100 0.0100 0 360 EARC c
fill
n 0.5100 0.6667 0.0100 0.0100 0 360 EARC s
n
0.5300 0.6451 0.0100 0.0100 0 360 EARC c
fill
n 0.5300 0.6451 0.0100 0.0100 0 360 EARC s
n
0.5500 0.5603 0.0100 0.0100 0 360 EARC c
fill
n 0.5500 0.5603 0.0100 0.0100 0 360 EARC s
n
0.5700 0.4868 0.0100 0.0100 0 360 EARC c
fill
n 0.5700 0.4868 0.0100 0.0100 0 360 EARC s
n
0.6300 0.5572 0.0100 0.0100 0 360 EARC c
fill
n 0.6300 0.5572 0.0100 0.0100 0 360 EARC s
n
0.6500 0.5269 0.0100 0.0100 0 360 EARC c
fill
n 0.6500 0.5269 0.0100 0.0100 0 360 EARC s
n
0.6700 0.5994 0.0100 0.0100 0 360 EARC c
fill
n 0.6700 0.5994 0.0100 0.0100 0 360 EARC s
n
0.6900 0.6488 0.0100 0.0100 0 360 EARC c
fill
n 0.6900 0.6488 0.0100 0.0100 0 360 EARC s
n
0.7100 0.6818 0.0100 0.0100 0 360 EARC c
fill
n 0.7100 0.6818 0.0100 0.0100 0 360 EARC s
n
0.7300 0.6981 0.0100 0.0100 0 360 EARC c
fill
n 0.7300 0.6981 0.0100 0.0100 0 360 EARC s
n
0.7500 0.7011 0.0100 0.0100 0 360 EARC c
fill
n 0.7500 0.7011 0.0100 0.0100 0 360 EARC s
n
0.7700 0.6973 0.0100 0.0100 0 360 EARC c
fill
n 0.7700 0.6973 0.0100 0.0100 0 360 EARC s
n
0.7900 0.6862 0.0100 0.0100 0 360 EARC c
fill
n 0.7900 0.6862 0.0100 0.0100 0 360 EARC s
n
0.8100 0.6419 0.0100 0.0100 0 360 EARC c
fill
n 0.8100 0.6419 0.0100 0.0100 0 360 EARC s
n
0.9500 0.7546 0.0100 0.0100 0 360 EARC c
fill
n 0.9500 0.7546 0.0100 0.0100 0 360 EARC s
n
0.9700 0.6174 0.0100 0.0100 0 360 EARC c
fill
n 0.9700 0.6174 0.0100 0.0100 0 360 EARC s
n
0.9900 0.6547 0.0100 0.0100 0 360 EARC c
fill
n 0.9900 0.6547 0.0100 0.0100 0 360 EARC s
n
1.0100 0.6905 0.0100 0.0100 0 360 EARC c
fill
n 1.0100 0.6905 0.0100 0.0100 0 360 EARC s
n
1.0300 0.7176 0.0100 0.0100 0 360 EARC c
fill
n 1.0300 0.7176 0.0100 0.0100 0 360 EARC s
n
1.0500 0.7386 0.0100 0.0100 0 360 EARC c
fill
n 1.0500 0.7386 0.0100 0.0100 0 360 EARC s
n
0.1900 0.3087 m
0.1800 0.2987 l
0.1900 0.2887 l
0.2000 0.2987 l
c
[/DeviceRGB] SCS
Color3 SC
fill
0 SLC
0 SLJ
n
0.1900 0.3087 m
0.1800 0.2987 l
0.1900 0.2887 l
0.2000 0.2987 l
0.1900 0.3087 l
c
s
n
0.2100 0.5420 m
0.2000 0.5320 l
0.2100 0.5220 l
0.2200 0.5320 l
c
fill
n
0.2100 0.5420 m
0.2000 0.5320 l
0.2100 0.5220 l
0.2200 0.5320 l
0.2100 0.5420 l
c
s
n
0.2300 0.5730 m
0.2200 0.5630 l
0.2300 0.5530 l
0.2400 0.5630 l
c
fill
n
0.2300 0.5730 m
0.2200 0.5630 l
0.2300 0.5530 l
0.2400 0.5630 l
0.2300 0.5730 l
c
s
n
0.2500 0.3657 m
0.2400 0.3557 l
0.2500 0.3457 l
0.2600 0.3557 l
c
fill
n
0.2500 0.3657 m
0.2400 0.3557 l
0.2500 0.3457 l
0.2600 0.3557 l
0.2500 0.3657 l
c
s
n
0.2500 0.2689 m
0.2400 0.2589 l
0.2500 0.2489 l
0.2600 0.2589 l
c
fill
n
0.2500 0.2689 m
0.2400 0.2589 l
0.2500 0.2489 l
0.2600 0.2589 l
0.2500 0.2689 l
c
s
n
0.2700 0.4122 m
0.2600 0.4022 l
0.2700 0.3922 l
0.2800 0.4022 l
c
fill
n
0.2700 0.4122 m
0.2600 0.4022 l
0.2700 0.3922 l
0.2800 0.4022 l
0.2700 0.4122 l
c
s
n
0.2900 0.5223 m
0.2800 0.5123 l
0.2900 0.5023 l
0.3000 0.5123 l
c
fill
n
0.2900 0.5223 m
0.2800 0.5123 l
0.2900 0.5023 l
0.3000 0.5123 l
0.2900 0.5223 l
c
s
n
0.3100 0.6021 m
0.3000 0.5921 l
0.3100 0.5821 l
0.3200 0.5921 l
c
fill
n
0.3100 0.6021 m
0.3000 0.5921 l
0.3100 0.5821 l
0.3200 0.5921 l
0.3100 0.6021 l
c
s
n
0.3300 0.5585 m
0.3200 0.5485 l
0.3300 0.5385 l
0.3400 0.5485 l
c
fill
n
0.3300 0.5585 m
0.3200 0.5485 l
0.3300 0.5385 l
0.3400 0.5485 l
0.3300 0.5585 l
c
s
n
0.3500 0.4816 m
0.3400 0.4716 l
0.3500 0.4616 l
0.3600 0.4716 l
c
fill
n
0.3500 0.4816 m
0.3400 0.4716 l
0.3500 0.4616 l
0.3600 0.4716 l
0.3500 0.4816 l
c
s
n
0.3100 0.6790 m
0.3000 0.6690 l
0.3100 0.6590 l
0.3200 0.6690 l
c
fill
n
0.3100 0.6790 m
0.3000 0.6690 l
0.3100 0.6590 l
0.3200 0.6690 l
0.3100 0.6790 l
c
s
n
0.3300 0.7424 m
0.3200 0.7324 l
0.3300 0.7224 l
0.3400 0.7324 l
c
fill
n
0.3300 0.7424 m
0.3200 0.7324 l
0.3300 0.7224 l
0.3400 0.7324 l
0.3300 0.7424 l
c
s
n
0.3500 0.6468 m
0.3400 0.6368 l
0.3500 0.6268 l
0.3600 0.6368 l
c
fill
n
0.3500 0.6468 m
0.3400 0.6368 l
0.3500 0.6268 l
0.3600 0.6368 l
0.3500 0.6468 l
c
s
n
0.3700 0.6751 m
0.3600 0.6651 l
0.3700 0.6551 l
0.3800 0.6651 l
c
fill
n
0.3700 0.6751 m
0.3600 0.6651 l
0.3700 0.6551 l
0.3800 0.6651 l
0.3700 0.6751 l
c
s
n
0.3900 0.7297 m
0.3800 0.7197 l
0.3900 0.7097 l
0.4000 0.7197 l
c
fill
n
0.3900 0.7297 m
0.3800 0.7197 l
0.3900 0.7097 l
0.4000 0.7197 l
0.3900 0.7297 l
c
s
n
0.4100 0.7746 m
0.4000 0.7646 l
0.4100 0.7546 l
0.4200 0.7646 l
c
fill
n
0.4100 0.7746 m
0.4000 0.7646 l
0.4100 0.7546 l
0.4200 0.7646 l
0.4100 0.7746 l
c
s
n
0.4500 0.7388 m
0.4400 0.7288 l
0.4500 0.7188 l
0.4600 0.7288 l
c
fill
n
0.4500 0.7388 m
0.4400 0.7288 l
0.4500 0.7188 l
0.4600 0.7288 l
0.4500 0.7388 l
c
s
n
0.4700 0.8143 m
0.4600 0.8043 l
0.4700 0.7943 l
0.4800 0.8043 l
c
fill
n
0.4700 0.8143 m
0.4600 0.8043 l
0.4700 0.7943 l
0.4800 0.8043 l
0.4700 0.8143 l
c
s
n
0.4900 0.8222 m
0.4800 0.8122 l
0.4900 0.8022 l
0.5000 0.8122 l
c
fill
n
0.4900 0.8222 m
0.4800 0.8122 l
0.4900 0.8022 l
0.5000 0.8122 l
0.4900 0.8222 l
c
s
n
0.5100 0.7901 m
0.5000 0.7801 l
0.5100 0.7701 l
0.5200 0.7801 l
c
fill
n
0.5100 0.7901 m
0.5000 0.7801 l
0.5100 0.7701 l
0.5200 0.7801 l
0.5100 0.7901 l
c
s
n
0.5300 0.7475 m
0.5200 0.7375 l
0.5300 0.7275 l
0.5400 0.7375 l
c
fill
n
0.5300 0.7475 m
0.5200 0.7375 l
0.5300 0.7275 l
0.5400 0.7375 l
0.5300 0.7475 l
c
s
n
0.5500 0.6548 m
0.5400 0.6448 l
0.5500 0.6348 l
0.5600 0.6448 l
c
fill
n
0.5500 0.6548 m
0.5400 0.6448 l
0.5500 0.6348 l
0.5600 0.6448 l
0.5500 0.6548 l
c
s
n
0.5700 0.6015 m
0.5600 0.5915 l
0.5700 0.5815 l
0.5800 0.5915 l
c
fill
n
0.5700 0.6015 m
0.5600 0.5915 l
0.5700 0.5815 l
0.5800 0.5915 l
0.5700 0.6015 l
c
s
n
0.6300 0.6298 m
0.6200 0.6198 l
0.6300 0.6098 l
0.6400 0.6198 l
c
fill
n
0.6300 0.6298 m
0.6200 0.6198 l
0.6300 0.6098 l
0.6400 0.6198 l
0.6300 0.6298 l
c
s
n
0.6500 0.5954 m
0.6400 0.5854 l
0.6500 0.5754 l
0.6600 0.5854 l
c
fill
n
0.6500 0.5954 m
0.6400 0.5854 l
0.6500 0.5754 l
0.6600 0.5854 l
0.6500 0.5954 l
c
s
n
0.6700 0.6920 m
0.6600 0.6820 l
0.6700 0.6720 l
0.6800 0.6820 l
c
fill
n
0.6700 0.6920 m
0.6600 0.6820 l
0.6700 0.6720 l
0.6800 0.6820 l
0.6700 0.6920 l
c
s
n
0.6900 0.7592 m
0.6800 0.7492 l
0.6900 0.7392 l
0.7000 0.7492 l
c
fill
n
0.6900 0.7592 m
0.6800 0.7492 l
0.6900 0.7392 l
0.7000 0.7492 l
0.6900 0.7592 l
c
s
n
0.7100 0.8029 m
0.7000 0.7929 l
0.7100 0.7829 l
0.7200 0.7929 l
c
fill
n
0.7100 0.8029 m
0.7000 0.7929 l
0.7100 0.7829 l
0.7200 0.7929 l
0.7100 0.8029 l
c
s
n
0.7300 0.8229 m
0.7200 0.8129 l
0.7300 0.8029 l
0.7400 0.8129 l
c
fill
n
0.7300 0.8229 m
0.7200 0.8129 l
0.7300 0.8029 l
0.7400 0.8129 l
0.7300 0.8229 l
c
s
n
0.7500 0.8233 m
0.7400 0.8133 l
0.7500 0.8033 l
0.7600 0.8133 l
c
fill
n
0.7500 0.8233 m
0.7400 0.8133 l
0.7500 0.8033 l
0.7600 0.8133 l
0.7500 0.8233 l
c
s
n
0.7700 0.8119 m
0.7600 0.8019 l
0.7700 0.7919 l
0.7800 0.8019 l
c
fill
n
0.7700 0.8119 m
0.7600 0.8019 l
0.7700 0.7919 l
0.7800 0.8019 l
0.7700 0.8119 l
c
s
n
0.7900 0.7941 m
0.7800 0.7841 l
0.7900 0.7741 l
0.8000 0.7841 l
c
fill
n
0.7900 0.7941 m
0.7800 0.7841 l
0.7900 0.7741 l
0.8000 0.7841 l
0.7900 0.7941 l
c
s
n
0.8100 0.7554 m
0.8000 0.7454 l
0.8100 0.7354 l
0.8200 0.7454 l
c
fill
n
0.8100 0.7554 m
0.8000 0.7454 l
0.8100 0.7354 l
0.8200 0.7454 l
0.8100 0.7554 l
c
s
n
0.9500 0.7645 m
0.9400 0.7545 l
0.9500 0.7445 l
0.9600 0.7545 l
c
fill
n
0.9500 0.7645 m
0.9400 0.7545 l
0.9500 0.7445 l
0.9600 0.7545 l
0.9500 0.7645 l
c
s
n
0.9700 0.6075 m
0.9600 0.5975 l
0.9700 0.5875 l
0.9800 0.5975 l
c
fill
n
0.9700 0.6075 m
0.9600 0.5975 l
0.9700 0.5875 l
0.9800 0.5975 l
0.9700 0.6075 l
c
s
n
0.9900 0.6624 m
0.9800 0.6524 l
0.9900 0.6424 l
1.0000 0.6524 l
c
fill
n
0.9900 0.6624 m
0.9800 0.6524 l
0.9900 0.6424 l
1.0000 0.6524 l
0.9900 0.6624 l
c
s
n
1.0100 0.7081 m
1.0000 0.6981 l
1.0100 0.6881 l
1.0200 0.6981 l
c
fill
n
1.0100 0.7081 m
1.0000 0.6981 l
1.0100 0.6881 l
1.0200 0.6981 l
1.0100 0.7081 l
c
s
n
1.0300 0.7446 m
1.0200 0.7346 l
1.0300 0.7246 l
1.0400 0.7346 l
c
fill
n
1.0300 0.7446 m
1.0200 0.7346 l
1.0300 0.7246 l
1.0400 0.7346 l
1.0300 0.7446 l
c
s
n
1.0500 0.7731 m
1.0400 0.7631 l
1.0500 0.7531 l
1.0600 0.7631 l
c
fill
n
1.0500 0.7731 m
1.0400 0.7631 l
1.0500 0.7531 l
1.0600 0.7631 l
1.0500 0.7731 l
c
s
[/DeviceRGB] SCS
Color1 SC
[] 0 SD
0.0045 SLW
n
0.1500 0.1500 m
1.1500 0.1500 l
s
n
0.1500 0.8500 m
1.1500 0.8500 l
s
n
0.2500 0.1500 m
0.2500 0.1600 l
s
n
0.2500 0.8500 m
0.2500 0.8400 l
s
n
0.4500 0.1500 m
0.4500 0.1600 l
s
n
0.4500 0.8500 m
0.4500 0.8400 l
s
n
0.6500 0.1500 m
0.6500 0.1600 l
s
n
0.6500 0.8500 m
0.6500 0.8400 l
s
n
0.8500 0.1500 m
0.8500 0.1600 l
s
n
0.8500 0.8500 m
0.8500 0.8400 l
s
n
1.0500 0.1500 m
1.0500 0.1600 l
s
n
1.0500 0.8500 m
1.0500 0.8400 l
s
n
0.1500 0.1500 m
0.1500 0.1700 l
s
n
0.1500 0.8500 m
0.1500 0.8300 l
s
n
0.3500 0.1500 m
0.3500 0.1700 l
s
n
0.3500 0.8500 m
0.3500 0.8300 l
s
n
0.5500 0.1500 m
0.5500 0.1700 l
s
n
0.5500 0.8500 m
0.5500 0.8300 l
s
n
0.7500 0.1500 m
0.7500 0.1700 l
s
n
0.7500 0.8500 m
0.7500 0.8300 l
s
n
0.9500 0.1500 m
0.9500 0.1700 l
s
n
0.9500 0.8500 m
0.9500 0.8300 l
s
n
1.1500 0.1500 m
1.1500 0.1700 l
s
n
1.1500 0.8500 m
1.1500 0.8300 l
s
/Times-Roman findfont
dup length dict begin
 {1 index /FID ne {def} {pop pop} ifelse} forall
 /Encoding DefEncoding def
 currentdict
end
/Font0 exch definefont pop
/Font0 FFSF
0.1365 0.1016 m
GS
[0.0571 0.0000 0.0000 0.0571 0 0] CC
(0) show
GR
/Font0 FFSF
0.3222 0.1016 m
GS
[0.0571 0.0000 0.0000 0.0571 0 0] CC
(20) show
GR
/Font0 FFSF
0.5222 0.1016 m
GS
[0.0571 0.0000 0.0000 0.0571 0 0] CC
(40) show
GR
/Font0 FFSF
0.7222 0.1008 m
GS
[0.0571 0.0000 0.0000 0.0571 0 0] CC
(60) show
GR
/Font0 FFSF
0.9222 0.1016 m
GS
[0.0571 0.0000 0.0000 0.0571 0 0] CC
(80) show
GR
/Font0 FFSF
1.1078 0.1016 m
GS
[0.0571 0.0000 0.0000 0.0571 0 0] CC
(100) show
GR
/Font0 FFSF
0.6335 0.0535 m
GS
[0.0552 0.0000 0.0000 0.0552 0 0] CC
(Z) show
GR
n
0.1500 0.1500 m
0.1500 0.8500 l
s
n
1.1500 0.1500 m
1.1500 0.8500 l
s
n
0.1500 0.1500 m
0.1600 0.1500 l
s
n
1.1500 0.1500 m
1.1400 0.1500 l
s
n
0.1500 0.2773 m
0.1600 0.2773 l
s
n
1.1500 0.2773 m
1.1400 0.2773 l
s
n
0.1500 0.4045 m
0.1600 0.4045 l
s
n
1.1500 0.4045 m
1.1400 0.4045 l
s
n
0.1500 0.5318 m
0.1600 0.5318 l
s
n
1.1500 0.5318 m
1.1400 0.5318 l
s
n
0.1500 0.6591 m
0.1600 0.6591 l
s
n
1.1500 0.6591 m
1.1400 0.6591 l
s
n
0.1500 0.7864 m
0.1600 0.7864 l
s
n
1.1500 0.7864 m
1.1400 0.7864 l
s
n
0.1500 0.2136 m
0.1700 0.2136 l
s
n
1.1500 0.2136 m
1.1300 0.2136 l
s
n
0.1500 0.3409 m
0.1700 0.3409 l
s
n
1.1500 0.3409 m
1.1300 0.3409 l
s
n
0.1500 0.4682 m
0.1700 0.4682 l
s
n
1.1500 0.4682 m
1.1300 0.4682 l
s
n
0.1500 0.5955 m
0.1700 0.5955 l
s
n
1.1500 0.5955 m
1.1300 0.5955 l
s
n
0.1500 0.7227 m
0.1700 0.7227 l
s
n
1.1500 0.7227 m
1.1300 0.7227 l
s
n
0.1500 0.8500 m
0.1700 0.8500 l
s
n
1.1500 0.8500 m
1.1300 0.8500 l
s
/Font0 FFSF
0.0941 0.1944 m
GS
[0.0571 0.0000 0.0000 0.0571 0 0] CC
(-6) show
GR
/Font0 FFSF
0.0937 0.3217 m
GS
[0.0571 0.0000 0.0000 0.0571 0 0] CC
(-4) show
GR
/Font0 FFSF
0.0937 0.4490 m
GS
[0.0571 0.0000 0.0000 0.0571 0 0] CC
(-2) show
GR
/Font0 FFSF
0.1129 0.5766 m
GS
[0.0571 0.0000 0.0000 0.0571 0 0] CC
(0) show
GR
/Font0 FFSF
0.1129 0.7035 m
GS
[0.0571 0.0000 0.0000 0.0571 0 0] CC
(2) show
GR
/Font0 FFSF
0.1129 0.8308 m
GS
[0.0571 0.0000 0.0000 0.0571 0 0] CC
(4) show
GR
/Font0 FFSF
0.0521 0.2702 m
GS
[0.0000 0.0574 -0.0574 0.0000 0 0] CC
(BE) show
GR
/Font0 FFSF
0.0751 0.3435 m
GS
[0.0000 0.0406 -0.0406 0.0000 0 0] CC
(theo) show
GR
/Font0 FFSF
0.0521 0.4133 m
GS
[0.0000 0.0574 -0.0574 0.0000 0 0] CC
(-BE) show
GR
/Font0 FFSF
0.0751 0.5059 m
GS
[0.0000 0.0406 -0.0406 0.0000 0 0] CC
(exp) show
GR
/Font0 FFSF
0.0521 0.5643 m
GS
[0.0000 0.0574 -0.0574 0.0000 0 0] CC
( [MeV]) show
GR
[] 0 SD
0.0015 SLW
n
0.1500 0.1500 m
0.1500 0.8500 l
1.1500 0.8500 l
1.1500 0.1500 l
0.1500 0.1500 l
c
s
[0.0150 0.0090 ] 0 SD
0.0030 SLW
n
0.1500 0.5955 m
1.1500 0.5955 l
s
n
0.8000 0.4000 m
0.8000 0.2680 l
1.0263 0.2680 l
1.0263 0.4000 l
c
[/DeviceRGB] SCS
Color0 SC
fill
/Font0 FFSF
[/DeviceRGB] SCS
Color1 SC
0.8700 0.3512 m
GS
[0.0563 0.0000 0.0000 0.0563 0 0] CC
(SLy5) show
GR
n
0.8300 0.3645 0.0100 0.0100 0 360 EARC c
[/DeviceRGB] SCS
Color2 SC
fill
[] 0 SD
0.0015 SLW
n 0.8300 0.3645 0.0100 0.0100 0 360 EARC s
/Font0 FFSF
[/DeviceRGB] SCS
Color1 SC
0.8700 0.2902 m
GS
[0.0563 0.0000 0.0000 0.0563 0 0] CC
(SLy5*) show
GR
n
0.8300 0.3135 m
0.8200 0.3035 l
0.8300 0.2935 l
0.8400 0.3035 l
c
[/DeviceRGB] SCS
Color3 SC
fill
n
0.8300 0.3135 m
0.8200 0.3035 l
0.8300 0.2935 l
0.8400 0.3035 l
0.8300 0.3135 l
c
s
showpage
%%PageTrailer
%%Trailer
%%DocumentNeededResources: font Times-Roman
%%EOF
