%!PS-Adobe-3.0
%%BoundingBox: 0 0 612 792
%%LanguageLevel: 2
%%Creator: Grace-5.1.22
%%CreationDate: Wed Oct 10 12:24:00 2012
%%DocumentData: Clean8Bit
%%Orientation: Landscape
%%Pages: 1
%%PageOrder: Ascend
%%Title: /Users/alessandropastore/Fisica/Testi/Articoli/PScripta_kazimierz12/plots/charge.agr
%%For: alessandropastore
%%DocumentNeededResources: (atend)
%%EndComments
%%BeginProlog
/PAGE_OFFSET_X 0 def
/PAGE_OFFSET_Y 0 def
/m {moveto} def
/l {lineto} def
/s {stroke} def
/n {newpath} def
/c {closepath} def
/RL {rlineto} def
/SLW {setlinewidth} def
/GS {gsave} def
/GR {grestore} def
/SC {setcolor} def
/SGRY {setgray} def
/SRGB {setrgbcolor} def
/SD {setdash} def
/SLC {setlinecap} def
/SLJ {setlinejoin} def
/SCS {setcolorspace} def
/FFSF {findfont setfont} def
/CC {concat} def
/PXL {n m 0 0 RL s} def
/Color0 {1.0000 1.0000 1.0000} def
/Color1 {0.0000 0.0000 0.0000} def
/Color2 {1.0000 0.0000 0.0000} def
/Color3 {0.0000 1.0000 0.0000} def
/Color4 {0.0000 0.0000 1.0000} def
/Color5 {1.0000 1.0000 0.0000} def
/Color6 {0.7373 0.5608 0.5608} def
/Color7 {0.8627 0.8627 0.8627} def
/Color8 {0.5804 0.0000 0.8275} def
/Color9 {0.0000 1.0000 1.0000} def
/Color10 {1.0000 0.0000 1.0000} def
/Color11 {1.0000 0.6471 0.0000} def
/Color12 {0.4471 0.1294 0.7373} def
/Color13 {0.4039 0.0275 0.2824} def
/Color14 {0.2510 0.8784 0.8157} def
/Color15 {0.0000 0.5451 0.0000} def
/Color16 {0.7529 0.7529 0.7529} def
/Color17 {0.5059 0.5059 0.5059} def
/Color18 {0.2588 0.2588 0.2588} def
/PTRN {
 /pat_bits exch def 
 <<
  /PaintType 2
  /PatternType 1 /TilingType 1
  /BBox[0 0 16 16]
  /XStep 16 /YStep 16
  /PaintProc {
   pop
   16 16 true [-1 0 0 -1 16 16] pat_bits imagemask
  }
 >>
 [0.0016 0 0 0.0016 0 0]
 makepattern
} def
/Pattern0 {<0000000000000000000000000000000000000000000000000000000000000000> PTRN} bind def
/Pattern1 {<ffffffffffffffffffffffffffffffffffffffffffffffffffffffffffffffff> PTRN} bind def
/Pattern2 {<eeeeffffbbbbffffeeeeffffbbbbffffeeeeffffbbbbffffeeeeffffbbbbffff> PTRN} bind def
/Pattern3 {<eeeebbbbeeeebbbbeeeebbbbeeeebbbbeeeebbbbeeeebbbbeeeebbbbeeeebbbb> PTRN} bind def
/Pattern4 {<5555aaaa5555aaaa5555aaaa5555aaaa5555aaaa5555aaaa5555aaaa5555aaaa> PTRN} bind def
/Pattern5 {<1111444411114444111144441111444411114444111144441111444411114444> PTRN} bind def
/Pattern6 {<1111000044440000111100004444000011110000444400001111000044440000> PTRN} bind def
/Pattern7 {<1010000000000000010100000000000010100000000000000101000000000000> PTRN} bind def
/Pattern8 {<0000000000000000000000000000000000000000000000000000000000000000> PTRN} bind def
/Pattern9 {<1e1e0f0f8787c3c3e1e1f0f078783c3c1e1e0f0f8787c3c3e1e1f0f078783c3c> PTRN} bind def
/Pattern10 {<7878f0f0e1e1c3c387870f0f1e1e3c3c7878f0f0e1e1c3c387870f0f1e1e3c3c> PTRN} bind def
/Pattern11 {<3333333333333333333333333333333333333333333333333333333333333333> PTRN} bind def
/Pattern12 {<ffffffff00000000ffffffff00000000ffffffff00000000ffffffff00000000> PTRN} bind def
/Pattern13 {<8181424224241818181824244242818181814242242418181818242442428181> PTRN} bind def
/Pattern14 {<8080404020201010080804040202010180804040202010100808040402020101> PTRN} bind def
/Pattern15 {<0101020204040808101020204040808001010202040408081010202040408080> PTRN} bind def
/Pattern16 {<2222222222222222222222222222222222222222222222222222222222222222> PTRN} bind def
/Pattern17 {<0000ffff000000000000ffff000000000000ffff000000000000ffff00000000> PTRN} bind def
/Pattern18 {<2222ffff222222222222ffff222222222222ffff222222222222ffff22222222> PTRN} bind def
/Pattern19 {<ffffffff33333333ffffffff33333333ffffffff33333333ffffffff33333333> PTRN} bind def
/Pattern20 {<0f0f0f0f0f0f0f0ff0f0f0f0f0f0f0f00f0f0f0f0f0f0f0ff0f0f0f0f0f0f0f0> PTRN} bind def
/Pattern21 {<ff00ff00ff00ff00ff00ff00ff00ff0000ff00ff00ff00ff00ff00ff00ff00ff> PTRN} bind def
/Pattern22 {<8001800180018001800180018001ffffffff8001800180018001800180018001> PTRN} bind def
/Pattern23 {<c003c003c003c003c003c003ffffffffffffffffc003c003c003c003c003c003> PTRN} bind def
/Pattern24 {<040404040404ffff404040404040ffff040404040404ffff404040404040ffff> PTRN} bind def
/Pattern25 {<180018001800180018001800ffffffff001800180018001800180018ffffffff> PTRN} bind def
/Pattern26 {<1111b8b87c7c3a3a1111a3a3c7c78b8b1111b8b87c7c3a3a1111a3a3c7c78b8b> PTRN} bind def
/Pattern27 {<101010102828c7c70101010182827c7c101010102828c7c70101010182827c7c> PTRN} bind def
/Pattern28 {<1c1c121211112121c1c12121111112121c1c121211112121c1c1212111111212> PTRN} bind def
/Pattern29 {<3e3e414180808080e3e31414080808083e3e414180808080e3e3141408080808> PTRN} bind def
/Pattern30 {<4848888884848383848488884848383848488888848483838484888848483838> PTRN} bind def
/Pattern31 {<03030404080808080c0c12122121c0c003030404080808080c0c12122121c0c0> PTRN} bind def
/ellipsedict 8 dict def
ellipsedict /mtrx matrix put
/EARC {
 ellipsedict begin
  /endangle exch def
  /startangle exch def
  /yrad exch def
  /xrad exch def
  /y exch def
  /x exch def
  /savematrix mtrx currentmatrix def
  x y translate
  xrad yrad scale
  0 0 1 startangle endangle arc
  savematrix setmatrix
 end
} def
/TL {
  /kcomp exch def
  /linewidth exch def
  /offset exch def
  GS
  0 offset rmoveto
  linewidth SLW
  dup stringwidth exch kcomp add exch RL s
  GR
} def
/KINIT
{
 /kvector exch def
 /kid 0 def
} def
/KPROC
{
 pop pop
 kvector kid get
 0 rmoveto
 /kid 1 kid add def
} def
/DefEncoding [
 /.notdef
 /.notdef
 /.notdef
 /.notdef
 /.notdef
 /.notdef
 /.notdef
 /.notdef
 /.notdef
 /.notdef
 /.notdef
 /.notdef
 /.notdef
 /.notdef
 /.notdef
 /.notdef
 /.notdef
 /.notdef
 /.notdef
 /.notdef
 /.notdef
 /.notdef
 /.notdef
 /.notdef
 /.notdef
 /.notdef
 /.notdef
 /.notdef
 /.notdef
 /.notdef
 /.notdef
 /.notdef
 /space
 /exclam
 /quotedbl
 /numbersign
 /dollar
 /percent
 /ampersand
 /quoteright
 /parenleft
 /parenright
 /asterisk
 /plus
 /comma
 /hyphen
 /period
 /slash
 /zero
 /one
 /two
 /three
 /four
 /five
 /six
 /seven
 /eight
 /nine
 /colon
 /semicolon
 /less
 /equal
 /greater
 /question
 /at
 /A
 /B
 /C
 /D
 /E
 /F
 /G
 /H
 /I
 /J
 /K
 /L
 /M
 /N
 /O
 /P
 /Q
 /R
 /S
 /T
 /U
 /V
 /W
 /X
 /Y
 /Z
 /bracketleft
 /backslash
 /bracketright
 /asciicircum
 /underscore
 /grave
 /a
 /b
 /c
 /d
 /e
 /f
 /g
 /h
 /i
 /j
 /k
 /l
 /m
 /n
 /o
 /p
 /q
 /r
 /s
 /t
 /u
 /v
 /w
 /x
 /y
 /z
 /braceleft
 /bar
 /braceright
 /asciitilde
 /.notdef
 /.notdef
 /.notdef
 /.notdef
 /.notdef
 /.notdef
 /.notdef
 /.notdef
 /.notdef
 /.notdef
 /.notdef
 /.notdef
 /.notdef
 /.notdef
 /.notdef
 /.notdef
 /.notdef
 /.notdef
 /.notdef
 /.notdef
 /.notdef
 /.notdef
 /.notdef
 /.notdef
 /.notdef
 /.notdef
 /.notdef
 /.notdef
 /.notdef
 /.notdef
 /.notdef
 /.notdef
 /.notdef
 /space
 /exclamdown
 /cent
 /sterling
 /currency
 /yen
 /brokenbar
 /section
 /dieresis
 /copyright
 /ordfeminine
 /guillemotleft
 /logicalnot
 /hyphen
 /registered
 /macron
 /degree
 /plusminus
 /twosuperior
 /threesuperior
 /acute
 /mu
 /paragraph
 /periodcentered
 /cedilla
 /onesuperior
 /ordmasculine
 /guillemotright
 /onequarter
 /onehalf
 /threequarters
 /questiondown
 /Agrave
 /Aacute
 /Acircumflex
 /Atilde
 /Adieresis
 /Aring
 /AE
 /Ccedilla
 /Egrave
 /Eacute
 /Ecircumflex
 /Edieresis
 /Igrave
 /Iacute
 /Icircumflex
 /Idieresis
 /Eth
 /Ntilde
 /Ograve
 /Oacute
 /Ocircumflex
 /Otilde
 /Odieresis
 /multiply
 /Oslash
 /Ugrave
 /Uacute
 /Ucircumflex
 /Udieresis
 /Yacute
 /Thorn
 /germandbls
 /agrave
 /aacute
 /acircumflex
 /atilde
 /adieresis
 /aring
 /ae
 /ccedilla
 /egrave
 /eacute
 /ecircumflex
 /edieresis
 /igrave
 /iacute
 /icircumflex
 /idieresis
 /eth
 /ntilde
 /ograve
 /oacute
 /ocircumflex
 /otilde
 /odieresis
 /divide
 /oslash
 /ugrave
 /uacute
 /ucircumflex
 /udieresis
 /yacute
 /thorn
 /ydieresis
] def
%%EndProlog
%%BeginSetup
%%EndSetup
%%Page: 1 1
PAGE_OFFSET_X PAGE_OFFSET_Y translate
612.00 612.00 scale
90 rotate
0.0 -1.0 translate
n
0.0000 0.0000 m
0.0000 1.0000 l
1.2941 1.0000 l
1.2941 0.0000 l
c
[/DeviceRGB] SCS
Color0 SC
fill
[/DeviceRGB] SCS
Color1 SC
[] 0 SD
0.0015 SLW
0 SLC
0 SLJ
n
0.2491 0.5425 m
0.3149 0.6480 l
0.3807 0.6782 l
0.4465 0.6149 l
0.5123 0.5455 l
0.5781 0.6782 l
s
n
0.2491 0.5540 m
0.2391 0.5367 l
0.2591 0.5367 l
c
fill
n
0.2491 0.5540 m
0.2391 0.5367 l
0.2591 0.5367 l
0.2491 0.5540 l
c
s
n
0.3149 0.6596 m
0.3049 0.6422 l
0.3249 0.6422 l
c
fill
n
0.3149 0.6596 m
0.3049 0.6422 l
0.3249 0.6422 l
0.3149 0.6596 l
c
s
n
0.3807 0.6897 m
0.3707 0.6724 l
0.3907 0.6724 l
c
fill
n
0.3807 0.6897 m
0.3707 0.6724 l
0.3907 0.6724 l
0.3807 0.6897 l
c
s
n
0.4465 0.6264 m
0.4365 0.6091 l
0.4565 0.6091 l
c
fill
n
0.4465 0.6264 m
0.4365 0.6091 l
0.4565 0.6091 l
0.4465 0.6264 l
c
s
n
0.5123 0.5571 m
0.5023 0.5397 l
0.5223 0.5397 l
c
fill
n
0.5123 0.5571 m
0.5023 0.5397 l
0.5223 0.5397 l
0.5123 0.5571 l
c
s
n
0.5781 0.6897 m
0.5681 0.6724 l
0.5881 0.6724 l
c
fill
n
0.5781 0.6897 m
0.5681 0.6724 l
0.5881 0.6724 l
0.5781 0.6897 l
c
s
[/DeviceRGB] SCS
Color2 SC
n
0.2491 0.6378 m
0.3149 0.6589 l
0.3807 0.6848 l
0.4465 0.7146 l
0.5123 0.7568 l
0.5781 0.8226 l
s
n
0.2491 0.6378 0.0100 0.0100 0 360 EARC c
fill
n 0.2491 0.6378 0.0100 0.0100 0 360 EARC s
n
0.3149 0.6589 0.0100 0.0100 0 360 EARC c
fill
n 0.3149 0.6589 0.0100 0.0100 0 360 EARC s
n
0.3807 0.6848 0.0100 0.0100 0 360 EARC c
fill
n 0.3807 0.6848 0.0100 0.0100 0 360 EARC s
n
0.4465 0.7146 0.0100 0.0100 0 360 EARC c
fill
n 0.4465 0.7146 0.0100 0.0100 0 360 EARC s
n
0.5123 0.7568 0.0100 0.0100 0 360 EARC c
fill
n 0.5123 0.7568 0.0100 0.0100 0 360 EARC s
n
0.5781 0.8226 0.0100 0.0100 0 360 EARC c
fill
n 0.5781 0.8226 0.0100 0.0100 0 360 EARC s
[/DeviceRGB] SCS
Color3 SC
n
0.2491 0.6408 m
0.3149 0.6625 l
0.3807 0.6890 l
0.4465 0.7186 l
0.5123 0.7523 l
0.5781 0.8205 l
s
n
0.2491 0.6508 m
0.2391 0.6408 l
0.2491 0.6308 l
0.2591 0.6408 l
c
fill
n
0.2491 0.6508 m
0.2391 0.6408 l
0.2491 0.6308 l
0.2591 0.6408 l
0.2491 0.6508 l
c
s
n
0.3149 0.6725 m
0.3049 0.6625 l
0.3149 0.6525 l
0.3249 0.6625 l
c
fill
n
0.3149 0.6725 m
0.3049 0.6625 l
0.3149 0.6525 l
0.3249 0.6625 l
0.3149 0.6725 l
c
s
n
0.3807 0.6990 m
0.3707 0.6890 l
0.3807 0.6790 l
0.3907 0.6890 l
c
fill
n
0.3807 0.6990 m
0.3707 0.6890 l
0.3807 0.6790 l
0.3907 0.6890 l
0.3807 0.6990 l
c
s
n
0.4465 0.7286 m
0.4365 0.7186 l
0.4465 0.7086 l
0.4565 0.7186 l
c
fill
n
0.4465 0.7286 m
0.4365 0.7186 l
0.4465 0.7086 l
0.4565 0.7186 l
0.4465 0.7286 l
c
s
n
0.5123 0.7623 m
0.5023 0.7523 l
0.5123 0.7423 l
0.5223 0.7523 l
c
fill
n
0.5123 0.7623 m
0.5023 0.7523 l
0.5123 0.7423 l
0.5223 0.7523 l
0.5123 0.7623 l
c
s
n
0.5781 0.8305 m
0.5681 0.8205 l
0.5781 0.8105 l
0.5881 0.8205 l
c
fill
n
0.5781 0.8305 m
0.5681 0.8205 l
0.5781 0.8105 l
0.5881 0.8205 l
0.5781 0.8305 l
c
s
[/DeviceRGB] SCS
Color1 SC
[] 0 SD
0.0045 SLW
n
0.1998 0.5184 m
0.6275 0.5184 l
s
n
0.1998 0.8500 m
0.6275 0.8500 l
s
n
0.3149 0.5184 m
0.3149 0.5284 l
s
n
0.3149 0.8500 m
0.3149 0.8400 l
s
n
0.4465 0.5184 m
0.4465 0.5284 l
s
n
0.4465 0.8500 m
0.4465 0.8400 l
s
n
0.5781 0.5184 m
0.5781 0.5284 l
s
n
0.5781 0.8500 m
0.5781 0.8400 l
s
n
0.2491 0.5184 m
0.2491 0.5384 l
s
n
0.2491 0.8500 m
0.2491 0.8300 l
s
n
0.3807 0.5184 m
0.3807 0.5384 l
s
n
0.3807 0.8500 m
0.3807 0.8300 l
s
n
0.5123 0.5184 m
0.5123 0.5384 l
s
n
0.5123 0.8500 m
0.5123 0.8300 l
s
/Times-Roman findfont
dup length dict begin
 {1 index /FID ne {def} {pop pop} ifelse} forall
 /Encoding DefEncoding def
 currentdict
end
/Font0 exch definefont pop
/Font0 FFSF
0.2213 0.8608 m
GS
[0.0571 0.0000 0.0000 0.0571 0 0] CC
(20) show
GR
/Font0 FFSF
0.3529 0.8600 m
GS
[0.0571 0.0000 0.0000 0.0571 0 0] CC
(24) show
GR
/Font0 FFSF
0.4852 0.8608 m
GS
[0.0571 0.0000 0.0000 0.0571 0 0] CC
(28) show
GR
/Font0 FFSF
0.6434 0.9114 m
GS
[0.0574 0.0000 0.0000 0.0574 0 0] CC
(N) show
GR
n
0.1998 0.5184 m
0.1998 0.8500 l
s
n
0.6275 0.5184 m
0.6275 0.8500 l
s
n
0.1998 0.6088 m
0.2098 0.6088 l
s
n
0.6275 0.6088 m
0.6175 0.6088 l
s
n
0.1998 0.7294 m
0.2098 0.7294 l
s
n
0.6275 0.7294 m
0.6175 0.7294 l
s
n
0.1998 0.8500 m
0.2098 0.8500 l
s
n
0.6275 0.8500 m
0.6175 0.8500 l
s
n
0.1998 0.5485 m
0.2198 0.5485 l
s
n
0.6275 0.5485 m
0.6075 0.5485 l
s
n
0.1998 0.6691 m
0.2198 0.6691 l
s
n
0.6275 0.6691 m
0.6075 0.6691 l
s
n
0.1998 0.7897 m
0.2198 0.7897 l
s
n
0.6275 0.7897 m
0.6075 0.7897 l
s
/Font0 FFSF
0.0929 0.5297 m
GS
[0.0571 0.0000 0.0000 0.0571 0 0] CC
(3.48) show
GR
/Font0 FFSF
0.0913 0.6499 m
GS
[0.0571 0.0000 0.0000 0.0571 0 0] CC
(3.52) show
GR
/Font0 FFSF
0.0917 0.7705 m
GS
[0.0571 0.0000 0.0000 0.0571 0 0] CC
(3.56) show
GR
/Font0 FFSF
0.0477 0.3901 m
GS
[0.0000 0.0574 -0.0574 0.0000 0 0] CC
(R) show
GR
/Font0 FFSF
0.0706 0.4285 m
GS
[0.0000 0.0406 -0.0406 0.0000 0 0] CC
(ch) show
GR
/Font0 FFSF
0.0477 0.4669 m
GS
[0.0000 0.0574 -0.0574 0.0000 0 0] CC
( [fm]) show
GR
[] 0 SD
0.0015 SLW
n
0.1998 0.5184 m
0.1998 0.8500 l
0.6275 0.8500 l
0.6275 0.5184 l
0.1998 0.5184 l
c
s
/Font0 FFSF
0.2491 0.7596 m
GS
[0.0834 0.0000 0.0000 0.0834 0 0] CC
(Ca) show
GR
/Font0 FFSF
0.9464 0.5745 m
GS
[0.0834 0.0000 0.0000 0.0834 0 0] CC
(Ni) show
GR
/Font0 FFSF
0.9636 0.1922 m
GS
[0.0834 0.0000 0.0000 0.0834 0 0] CC
(Pb) show
GR
/Font0 FFSF
0.4746 0.1824 m
GS
[0.0834 0.0000 0.0000 0.0834 0 0] CC
(Sn) show
GR
n
0.6800 0.8400 m
0.6800 0.6659 l
0.8437 0.6659 l
0.8437 0.8400 l
c
[/DeviceRGB] SCS
Color0 SC
fill
/Font0 FFSF
[/DeviceRGB] SCS
Color1 SC
0.7208 0.7971 m
GS
[0.0498 0.0000 0.0000 0.0498 0 0] CC
(Exp) show
GR
n
0.7008 0.8196 m
0.6908 0.8023 l
0.7108 0.8023 l
c
fill
n
0.7008 0.8196 m
0.6908 0.8023 l
0.7108 0.8023 l
0.7008 0.8196 l
c
s
/Font0 FFSF
0.7208 0.7420 m
GS
[0.0498 0.0000 0.0000 0.0498 0 0] CC
(SLy5) show
GR
n
0.7008 0.7535 0.0100 0.0100 0 360 EARC c
[/DeviceRGB] SCS
Color2 SC
fill
n 0.7008 0.7535 0.0100 0.0100 0 360 EARC s
/Font0 FFSF
[/DeviceRGB] SCS
Color1 SC
0.7208 0.6869 m
GS
[0.0498 0.0000 0.0000 0.0498 0 0] CC
(Sly5*) show
GR
n
0.7008 0.7084 m
0.6908 0.6984 l
0.7008 0.6884 l
0.7108 0.6984 l
c
[/DeviceRGB] SCS
Color3 SC
fill
n
0.7008 0.7084 m
0.6908 0.6984 l
0.7008 0.6884 l
0.7108 0.6984 l
0.7008 0.7084 l
c
s
[/DeviceRGB] SCS
Color1 SC
n
0.7616 0.5658 m
0.8848 0.7298 l
1.0081 0.8391 l
s
n
0.7616 0.5773 m
0.7516 0.5600 l
0.7716 0.5600 l
c
fill
n
0.7616 0.5773 m
0.7516 0.5600 l
0.7716 0.5600 l
0.7616 0.5773 l
c
s
n
0.8848 0.7413 m
0.8748 0.7240 l
0.8948 0.7240 l
c
fill
n
0.8848 0.7413 m
0.8748 0.7240 l
0.8948 0.7240 l
0.8848 0.7413 l
c
s
n
1.0081 0.8506 m
0.9981 0.8333 l
1.0181 0.8333 l
c
fill
n
1.0081 0.8506 m
0.9981 0.8333 l
1.0181 0.8333 l
1.0081 0.8506 l
c
s
[/DeviceRGB] SCS
Color2 SC
n
0.7616 0.5374 m
0.8848 0.6915 l
1.0081 0.8309 l
s
n
0.7616 0.5374 0.0100 0.0100 0 360 EARC c
fill
n 0.7616 0.5374 0.0100 0.0100 0 360 EARC s
n
0.8848 0.6915 0.0100 0.0100 0 360 EARC c
fill
n 0.8848 0.6915 0.0100 0.0100 0 360 EARC s
n
1.0081 0.8309 0.0100 0.0100 0 360 EARC c
fill
n 1.0081 0.8309 0.0100 0.0100 0 360 EARC s
[/DeviceRGB] SCS
Color3 SC
n
0.7616 0.5499 m
0.8848 0.7052 l
1.0081 0.8456 l
s
n
0.7616 0.5599 m
0.7516 0.5499 l
0.7616 0.5399 l
0.7716 0.5499 l
c
fill
n
0.7616 0.5599 m
0.7516 0.5499 l
0.7616 0.5399 l
0.7716 0.5499 l
0.7616 0.5599 l
c
s
n
0.8848 0.7152 m
0.8748 0.7052 l
0.8848 0.6952 l
0.8948 0.7052 l
c
fill
n
0.8848 0.7152 m
0.8748 0.7052 l
0.8848 0.6952 l
0.8948 0.7052 l
0.8848 0.7152 l
c
s
n
1.0081 0.8556 m
0.9981 0.8456 l
1.0081 0.8356 l
1.0181 0.8456 l
c
fill
n
1.0081 0.8556 m
0.9981 0.8456 l
1.0081 0.8356 l
1.0181 0.8456 l
1.0081 0.8556 l
c
s
[/DeviceRGB] SCS
Color1 SC
[] 0 SD
0.0045 SLW
n
0.6691 0.5221 m
1.1005 0.5221 l
s
n
0.6691 0.8500 m
1.1005 0.8500 l
s
n
0.8848 0.5221 m
0.8848 0.5321 l
s
n
0.8848 0.8500 m
0.8848 0.8400 l
s
n
0.7616 0.5221 m
0.7616 0.5421 l
s
n
0.7616 0.8500 m
0.7616 0.8300 l
s
n
1.0081 0.5221 m
1.0081 0.5421 l
s
n
1.0081 0.8500 m
1.0081 0.8300 l
s
/Font0 FFSF
0.7337 0.8608 m
GS
[0.0571 0.0000 0.0000 0.0571 0 0] CC
(32) show
GR
/Font0 FFSF
0.9804 0.8608 m
GS
[0.0571 0.0000 0.0000 0.0571 0 0] CC
(36) show
GR
n
0.6691 0.5221 m
0.6691 0.8500 l
s
n
1.1005 0.5221 m
1.1005 0.8500 l
s
n
0.6691 0.5221 m
0.6791 0.5221 l
s
n
1.1005 0.5221 m
1.0905 0.5221 l
s
n
0.6691 0.6314 m
0.6791 0.6314 l
s
n
1.1005 0.6314 m
1.0905 0.6314 l
s
n
0.6691 0.7407 m
0.6791 0.7407 l
s
n
1.1005 0.7407 m
1.0905 0.7407 l
s
n
0.6691 0.8500 m
0.6791 0.8500 l
s
n
1.1005 0.8500 m
1.0905 0.8500 l
s
n
0.6691 0.5767 m
0.6891 0.5767 l
s
n
1.1005 0.5767 m
1.0805 0.5767 l
s
n
0.6691 0.6860 m
0.6891 0.6860 l
s
n
1.1005 0.6860 m
1.0805 0.6860 l
s
n
0.6691 0.7953 m
0.6891 0.7953 l
s
n
1.1005 0.7953 m
1.0805 0.7953 l
s
/Font0 FFSF
1.1105 0.5579 m
GS
[0.0571 0.0000 0.0000 0.0571 0 0] CC
(3.82) show
GR
/Font0 FFSF
1.1105 0.6672 m
GS
[0.0571 0.0000 0.0000 0.0571 0 0] CC
(3.84) show
GR
/Font0 FFSF
1.1105 0.7761 m
GS
[0.0571 0.0000 0.0000 0.0571 0 0] CC
(3.86) show
GR
[] 0 SD
0.0015 SLW
n
0.6691 0.5221 m
0.6691 0.8500 l
1.1005 0.8500 l
1.1005 0.5221 l
0.6691 0.5221 l
c
s
n
0.2247 0.1702 m
0.2869 0.2173 l
0.3490 0.2711 l
0.4112 0.3183 l
0.4733 0.3586 l
0.5355 0.3957 l
0.5976 0.4327 l
s
n
0.2247 0.1817 m
0.2147 0.1644 l
0.2347 0.1644 l
c
fill
n
0.2247 0.1817 m
0.2147 0.1644 l
0.2347 0.1644 l
0.2247 0.1817 l
c
s
n
0.2869 0.2289 m
0.2769 0.2115 l
0.2969 0.2115 l
c
fill
n
0.2869 0.2289 m
0.2769 0.2115 l
0.2969 0.2115 l
0.2869 0.2289 l
c
s
n
0.3490 0.2827 m
0.3390 0.2654 l
0.3590 0.2654 l
c
fill
n
0.3490 0.2827 m
0.3390 0.2654 l
0.3590 0.2654 l
0.3490 0.2827 l
c
s
n
0.4112 0.3298 m
0.4012 0.3125 l
0.4212 0.3125 l
c
fill
n
0.4112 0.3298 m
0.4012 0.3125 l
0.4212 0.3125 l
0.4112 0.3298 l
c
s
n
0.4733 0.3702 m
0.4633 0.3529 l
0.4833 0.3529 l
c
fill
n
0.4733 0.3702 m
0.4633 0.3529 l
0.4833 0.3529 l
0.4733 0.3702 l
c
s
n
0.5355 0.4072 m
0.5255 0.3899 l
0.5455 0.3899 l
c
fill
n
0.5355 0.4072 m
0.5255 0.3899 l
0.5455 0.3899 l
0.5355 0.4072 l
c
s
n
0.5976 0.4442 m
0.5876 0.4269 l
0.6076 0.4269 l
c
fill
n
0.5976 0.4442 m
0.5876 0.4269 l
0.6076 0.4269 l
0.5976 0.4442 l
c
s
[/DeviceRGB] SCS
Color2 SC
n
0.2247 0.1705 m
0.2869 0.2261 l
0.3490 0.2789 l
0.4112 0.3287 l
0.4733 0.3755 l
0.5355 0.4196 l
0.5976 0.4616 l
s
n
0.2247 0.1705 0.0100 0.0100 0 360 EARC c
fill
n 0.2247 0.1705 0.0100 0.0100 0 360 EARC s
n
0.2869 0.2261 0.0100 0.0100 0 360 EARC c
fill
n 0.2869 0.2261 0.0100 0.0100 0 360 EARC s
n
0.3490 0.2789 0.0100 0.0100 0 360 EARC c
fill
n 0.3490 0.2789 0.0100 0.0100 0 360 EARC s
n
0.4112 0.3287 0.0100 0.0100 0 360 EARC c
fill
n 0.4112 0.3287 0.0100 0.0100 0 360 EARC s
n
0.4733 0.3755 0.0100 0.0100 0 360 EARC c
fill
n 0.4733 0.3755 0.0100 0.0100 0 360 EARC s
n
0.5355 0.4196 0.0100 0.0100 0 360 EARC c
fill
n 0.5355 0.4196 0.0100 0.0100 0 360 EARC s
n
0.5976 0.4616 0.0100 0.0100 0 360 EARC c
fill
n 0.5976 0.4616 0.0100 0.0100 0 360 EARC s
[/DeviceRGB] SCS
Color3 SC
n
0.2247 0.1776 m
0.2869 0.2338 l
0.3490 0.2870 l
0.4112 0.3364 l
0.4733 0.3825 l
0.5355 0.4259 l
0.5976 0.4673 l
s
n
0.2247 0.1876 m
0.2147 0.1776 l
0.2247 0.1676 l
0.2347 0.1776 l
c
fill
n
0.2247 0.1876 m
0.2147 0.1776 l
0.2247 0.1676 l
0.2347 0.1776 l
0.2247 0.1876 l
c
s
n
0.2869 0.2438 m
0.2769 0.2338 l
0.2869 0.2238 l
0.2969 0.2338 l
c
fill
n
0.2869 0.2438 m
0.2769 0.2338 l
0.2869 0.2238 l
0.2969 0.2338 l
0.2869 0.2438 l
c
s
n
0.3490 0.2970 m
0.3390 0.2870 l
0.3490 0.2770 l
0.3590 0.2870 l
c
fill
n
0.3490 0.2970 m
0.3390 0.2870 l
0.3490 0.2770 l
0.3590 0.2870 l
0.3490 0.2970 l
c
s
n
0.4112 0.3464 m
0.4012 0.3364 l
0.4112 0.3264 l
0.4212 0.3364 l
c
fill
n
0.4112 0.3464 m
0.4012 0.3364 l
0.4112 0.3264 l
0.4212 0.3364 l
0.4112 0.3464 l
c
s
n
0.4733 0.3925 m
0.4633 0.3825 l
0.4733 0.3725 l
0.4833 0.3825 l
c
fill
n
0.4733 0.3925 m
0.4633 0.3825 l
0.4733 0.3725 l
0.4833 0.3825 l
0.4733 0.3925 l
c
s
n
0.5355 0.4359 m
0.5255 0.4259 l
0.5355 0.4159 l
0.5455 0.4259 l
c
fill
n
0.5355 0.4359 m
0.5255 0.4259 l
0.5355 0.4159 l
0.5455 0.4259 l
0.5355 0.4359 l
c
s
n
0.5976 0.4773 m
0.5876 0.4673 l
0.5976 0.4573 l
0.6076 0.4673 l
c
fill
n
0.5976 0.4773 m
0.5876 0.4673 l
0.5976 0.4573 l
0.6076 0.4673 l
0.5976 0.4773 l
c
s
[/DeviceRGB] SCS
Color1 SC
[] 0 SD
0.0045 SLW
n
0.1936 0.1500 m
0.6287 0.1500 l
s
n
0.1936 0.4865 m
0.6287 0.4865 l
s
n
0.2247 0.1500 m
0.2247 0.1600 l
s
n
0.2247 0.4865 m
0.2247 0.4765 l
s
n
0.3490 0.1500 m
0.3490 0.1600 l
s
n
0.3490 0.4865 m
0.3490 0.4765 l
s
n
0.4733 0.1500 m
0.4733 0.1600 l
s
n
0.4733 0.4865 m
0.4733 0.4765 l
s
n
0.5976 0.1500 m
0.5976 0.1600 l
s
n
0.5976 0.4865 m
0.5976 0.4765 l
s
n
0.2869 0.1500 m
0.2869 0.1700 l
s
n
0.2869 0.4865 m
0.2869 0.4665 l
s
n
0.4112 0.1500 m
0.4112 0.1700 l
s
n
0.4112 0.4865 m
0.4112 0.4665 l
s
n
0.5355 0.1500 m
0.5355 0.1700 l
s
n
0.5355 0.4865 m
0.5355 0.4665 l
s
/Font0 FFSF
0.2590 0.1008 m
GS
[0.0571 0.0000 0.0000 0.0571 0 0] CC
(64) show
GR
/Font0 FFSF
0.3841 0.1008 m
GS
[0.0571 0.0000 0.0000 0.0571 0 0] CC
(68) show
GR
/Font0 FFSF
0.5076 0.1016 m
GS
[0.0571 0.0000 0.0000 0.0571 0 0] CC
(72) show
GR
/Font0 FFSF
0.6410 0.0514 m
GS
[0.0574 0.0000 0.0000 0.0574 0 0] CC
(N) show
GR
n
0.1936 0.1500 m
0.1936 0.4865 l
s
n
0.6287 0.1500 m
0.6287 0.4865 l
s
n
0.1936 0.2510 m
0.2036 0.2510 l
s
n
0.6287 0.2510 m
0.6187 0.2510 l
s
n
0.1936 0.3856 m
0.2036 0.3856 l
s
n
0.6287 0.3856 m
0.6187 0.3856 l
s
n
0.1936 0.1837 m
0.2136 0.1837 l
s
n
0.6287 0.1837 m
0.6087 0.1837 l
s
n
0.1936 0.3183 m
0.2136 0.3183 l
s
n
0.6287 0.3183 m
0.6087 0.3183 l
s
n
0.1936 0.4529 m
0.2136 0.4529 l
s
n
0.6287 0.4529 m
0.6087 0.4529 l
s
/Font0 FFSF
0.1142 0.1644 m
GS
[0.0571 0.0000 0.0000 0.0571 0 0] CC
(4.6) show
GR
/Font0 FFSF
0.0852 0.2990 m
GS
[0.0571 0.0000 0.0000 0.0571 0 0] CC
(4.64) show
GR
/Font0 FFSF
0.0868 0.4337 m
GS
[0.0571 0.0000 0.0000 0.0571 0 0] CC
(4.68) show
GR
[] 0 SD
0.0015 SLW
n
0.1936 0.1500 m
0.1936 0.4865 l
0.6287 0.4865 l
0.6287 0.1500 l
0.1936 0.1500 l
c
s
n
0.6945 0.1756 m
0.7429 0.1990 l
0.7912 0.2378 l
0.8395 0.2611 l
0.8879 0.2896 l
0.9362 0.3155 l
0.9845 0.3648 l
1.0329 0.4140 l
1.0812 0.4580 l
s
n
0.6945 0.1872 m
0.6845 0.1699 l
0.7045 0.1699 l
c
fill
n
0.6945 0.1872 m
0.6845 0.1699 l
0.7045 0.1699 l
0.6945 0.1872 l
c
s
n
0.7429 0.2105 m
0.7329 0.1932 l
0.7529 0.1932 l
c
fill
n
0.7429 0.2105 m
0.7329 0.1932 l
0.7529 0.1932 l
0.7429 0.2105 l
c
s
n
0.7912 0.2494 m
0.7812 0.2320 l
0.8012 0.2320 l
c
fill
n
0.7912 0.2494 m
0.7812 0.2320 l
0.8012 0.2320 l
0.7912 0.2494 l
c
s
n
0.8395 0.2727 m
0.8295 0.2554 l
0.8495 0.2554 l
c
fill
n
0.8395 0.2727 m
0.8295 0.2554 l
0.8495 0.2554 l
0.8395 0.2727 l
c
s
n
0.8879 0.3012 m
0.8779 0.2839 l
0.8979 0.2839 l
c
fill
n
0.8879 0.3012 m
0.8779 0.2839 l
0.8979 0.2839 l
0.8879 0.3012 l
c
s
n
0.9362 0.3271 m
0.9262 0.3098 l
0.9462 0.3098 l
c
fill
n
0.9362 0.3271 m
0.9262 0.3098 l
0.9462 0.3098 l
0.9362 0.3271 l
c
s
n
0.9845 0.3763 m
0.9745 0.3590 l
0.9945 0.3590 l
c
fill
n
0.9845 0.3763 m
0.9745 0.3590 l
0.9945 0.3590 l
0.9845 0.3763 l
c
s
n
1.0329 0.4255 m
1.0229 0.4082 l
1.0429 0.4082 l
c
fill
n
1.0329 0.4255 m
1.0229 0.4082 l
1.0429 0.4082 l
1.0329 0.4255 l
c
s
n
1.0812 0.4696 m
1.0712 0.4522 l
1.0912 0.4522 l
c
fill
n
1.0812 0.4696 m
1.0712 0.4522 l
1.0912 0.4522 l
1.0812 0.4696 l
c
s
[/DeviceRGB] SCS
Color2 SC
n
0.6945 0.2122 m
0.7429 0.2360 l
0.7912 0.2593 l
0.8395 0.2824 l
0.8879 0.3044 l
0.9362 0.3256 l
0.9845 0.3601 l
1.0329 0.3953 l
1.0812 0.4319 l
s
n
0.6945 0.2122 0.0100 0.0100 0 360 EARC c
fill
n 0.6945 0.2122 0.0100 0.0100 0 360 EARC s
n
0.7429 0.2360 0.0100 0.0100 0 360 EARC c
fill
n 0.7429 0.2360 0.0100 0.0100 0 360 EARC s
n
0.7912 0.2593 0.0100 0.0100 0 360 EARC c
fill
n 0.7912 0.2593 0.0100 0.0100 0 360 EARC s
n
0.8395 0.2824 0.0100 0.0100 0 360 EARC c
fill
n 0.8395 0.2824 0.0100 0.0100 0 360 EARC s
n
0.8879 0.3044 0.0100 0.0100 0 360 EARC c
fill
n 0.8879 0.3044 0.0100 0.0100 0 360 EARC s
n
0.9362 0.3256 0.0100 0.0100 0 360 EARC c
fill
n 0.9362 0.3256 0.0100 0.0100 0 360 EARC s
n
0.9845 0.3601 0.0100 0.0100 0 360 EARC c
fill
n 0.9845 0.3601 0.0100 0.0100 0 360 EARC s
n
1.0329 0.3953 0.0100 0.0100 0 360 EARC c
fill
n 1.0329 0.3953 0.0100 0.0100 0 360 EARC s
n
1.0812 0.4319 0.0100 0.0100 0 360 EARC c
fill
n 1.0812 0.4319 0.0100 0.0100 0 360 EARC s
[/DeviceRGB] SCS
Color3 SC
n
0.6945 0.2132 m
0.7429 0.2370 l
0.7912 0.2606 l
0.8395 0.2837 l
0.8879 0.3060 l
0.9362 0.3272 l
0.9845 0.3596 l
1.0329 0.3927 l
1.0812 0.4272 l
s
n
0.6945 0.2232 m
0.6845 0.2132 l
0.6945 0.2032 l
0.7045 0.2132 l
c
fill
n
0.6945 0.2232 m
0.6845 0.2132 l
0.6945 0.2032 l
0.7045 0.2132 l
0.6945 0.2232 l
c
s
n
0.7429 0.2470 m
0.7329 0.2370 l
0.7429 0.2270 l
0.7529 0.2370 l
c
fill
n
0.7429 0.2470 m
0.7329 0.2370 l
0.7429 0.2270 l
0.7529 0.2370 l
0.7429 0.2470 l
c
s
n
0.7912 0.2706 m
0.7812 0.2606 l
0.7912 0.2506 l
0.8012 0.2606 l
c
fill
n
0.7912 0.2706 m
0.7812 0.2606 l
0.7912 0.2506 l
0.8012 0.2606 l
0.7912 0.2706 l
c
s
n
0.8395 0.2937 m
0.8295 0.2837 l
0.8395 0.2737 l
0.8495 0.2837 l
c
fill
n
0.8395 0.2937 m
0.8295 0.2837 l
0.8395 0.2737 l
0.8495 0.2837 l
0.8395 0.2937 l
c
s
n
0.8879 0.3160 m
0.8779 0.3060 l
0.8879 0.2960 l
0.8979 0.3060 l
c
fill
n
0.8879 0.3160 m
0.8779 0.3060 l
0.8879 0.2960 l
0.8979 0.3060 l
0.8879 0.3160 l
c
s
n
0.9362 0.3372 m
0.9262 0.3272 l
0.9362 0.3172 l
0.9462 0.3272 l
c
fill
n
0.9362 0.3372 m
0.9262 0.3272 l
0.9362 0.3172 l
0.9462 0.3272 l
0.9362 0.3372 l
c
s
n
0.9845 0.3696 m
0.9745 0.3596 l
0.9845 0.3496 l
0.9945 0.3596 l
c
fill
n
0.9845 0.3696 m
0.9745 0.3596 l
0.9845 0.3496 l
0.9945 0.3596 l
0.9845 0.3696 l
c
s
n
1.0329 0.4027 m
1.0229 0.3927 l
1.0329 0.3827 l
1.0429 0.3927 l
c
fill
n
1.0329 0.4027 m
1.0229 0.3927 l
1.0329 0.3827 l
1.0429 0.3927 l
1.0329 0.4027 l
c
s
n
1.0812 0.4372 m
1.0712 0.4272 l
1.0812 0.4172 l
1.0912 0.4272 l
c
fill
n
1.0812 0.4372 m
1.0712 0.4272 l
1.0812 0.4172 l
1.0912 0.4272 l
1.0812 0.4372 l
c
s
[/DeviceRGB] SCS
Color1 SC
[] 0 SD
0.0045 SLW
n
0.6703 0.1500 m
1.1054 0.1500 l
s
n
0.6703 0.4865 m
1.1054 0.4865 l
s
n
0.7429 0.1500 m
0.7429 0.1600 l
s
n
0.7429 0.4865 m
0.7429 0.4765 l
s
n
0.8395 0.1500 m
0.8395 0.1600 l
s
n
0.8395 0.4865 m
0.8395 0.4765 l
s
n
0.9362 0.1500 m
0.9362 0.1600 l
s
n
0.9362 0.4865 m
0.9362 0.4765 l
s
n
1.0329 0.1500 m
1.0329 0.1600 l
s
n
1.0329 0.4865 m
1.0329 0.4765 l
s
n
0.6945 0.1500 m
0.6945 0.1700 l
s
n
0.6945 0.4865 m
0.6945 0.4665 l
s
n
0.7912 0.1500 m
0.7912 0.1700 l
s
n
0.7912 0.4865 m
0.7912 0.4665 l
s
n
0.8879 0.1500 m
0.8879 0.1700 l
s
n
0.8879 0.4865 m
0.8879 0.4665 l
s
n
0.9845 0.1500 m
0.9845 0.1700 l
s
n
0.9845 0.4865 m
0.9845 0.4665 l
s
n
1.0812 0.1500 m
1.0812 0.1700 l
s
n
1.0812 0.4865 m
1.0812 0.4665 l
s
/Font0 FFSF
0.6526 0.1008 m
GS
[0.0571 0.0000 0.0000 0.0571 0 0] CC
(116) show
GR
/Font0 FFSF
0.7490 0.1016 m
GS
[0.0571 0.0000 0.0000 0.0571 0 0] CC
(120) show
GR
/Font0 FFSF
0.8457 0.1016 m
GS
[0.0571 0.0000 0.0000 0.0571 0 0] CC
(124) show
GR
/Font0 FFSF
0.9432 0.1016 m
GS
[0.0571 0.0000 0.0000 0.0571 0 0] CC
(128) show
GR
/Font0 FFSF
1.0391 0.1016 m
GS
[0.0571 0.0000 0.0000 0.0571 0 0] CC
(132) show
GR
n
0.6703 0.1500 m
0.6703 0.4865 l
s
n
1.1054 0.1500 m
1.1054 0.4865 l
s
n
0.6703 0.2016 m
0.6803 0.2016 l
s
n
1.1054 0.2016 m
1.0954 0.2016 l
s
n
0.6703 0.3052 m
0.6803 0.3052 l
s
n
1.1054 0.3052 m
1.0954 0.3052 l
s
n
0.6703 0.4088 m
0.6803 0.4088 l
s
n
1.1054 0.4088 m
1.0954 0.4088 l
s
n
0.6703 0.2534 m
0.6903 0.2534 l
s
n
1.1054 0.2534 m
1.0854 0.2534 l
s
n
0.6703 0.3570 m
0.6903 0.3570 l
s
n
1.1054 0.3570 m
1.0854 0.3570 l
s
n
0.6703 0.4606 m
0.6903 0.4606 l
s
n
1.1054 0.4606 m
1.0854 0.4606 l
s
/Font0 FFSF
1.1154 0.2341 m
GS
[0.0571 0.0000 0.0000 0.0571 0 0] CC
(5.48) show
GR
/Font0 FFSF
1.1154 0.3378 m
GS
[0.0571 0.0000 0.0000 0.0571 0 0] CC
(5.52) show
GR
/Font0 FFSF
1.1154 0.4414 m
GS
[0.0571 0.0000 0.0000 0.0571 0 0] CC
(5.56) show
GR
[] 0 SD
0.0015 SLW
n
0.6703 0.1500 m
0.6703 0.4865 l
1.1054 0.4865 l
1.1054 0.1500 l
0.6703 0.1500 l
c
s
showpage
%%PageTrailer
%%Trailer
%%DocumentNeededResources: font Times-Roman
%%EOF
