\relax 
\citation{ben03}
\citation{sky59,vau72}
\citation{gog75,dec80}
\citation{ber77,nak03}
\citation{gor09,gor09b}
\citation{ber07,ter08}
\citation{dut12}
\citation{bal97}
\citation{heb11,gez13}
\citation{bog05,rot08}
\Newlabel{1}{a}
\Newlabel{2}{b}
\Newlabel{3}{c}
\Newlabel{4}{d}
\@writefile{toc}{\contentsline {section}{\numberline {1}Introduction}{1}}
\citation{Dav15}
\citation{les07,Ang11,fia02}
\citation{bal12}
\citation{bal97}
\citation{sta77,oni78}
\citation{ots06}
\citation{nak03,nak08,nak13}
\citation{Ang11,Ang12}
\citation{les07}
\citation{sag14}
\citation{car08,rai11}
\citation{sky59,kor13}
\citation{car10}
\citation{Dav16PRC}
\citation{dec80}
\citation{Ang11,Ang12,Gra13}
\citation{ber16}
\citation{vau72}
\citation{vau72}
\citation{dec80}
\citation{Gra13}
\citation{Gra13}
\@writefile{toc}{\contentsline {section}{\numberline {2}Effective NN interactions}{3}}
\newlabel{sect:interactions}{{2}{3}}
\@writefile{toc}{\contentsline {subsection}{\numberline {2.1}Gogny interaction}{3}}
\newlabel{eq:gog}{{1}{3}}
\newlabel{gog:cen}{{2}{3}}
\newlabel{gog:so}{{3}{3}}
\newlabel{gog:dd}{{4}{3}}
\newlabel{gog:ten}{{5}{3}}
\citation{dec80,gor09b,cha08}
\citation{cha15}
\citation{ber77}
\citation{nak03,nak08,nak13}
\citation{ana83}
\citation{nak03}
\@writefile{toc}{\contentsline {subsection}{\numberline {2.2}M3Y interaction}{4}}
\newlabel{eq:m3y}{{7}{4}}
\newlabel{nak:cen}{{8}{4}}
\newlabel{nak:ten}{{9}{4}}
\citation{nak08}
\citation{nak13}
\citation{Nak15}
\citation{car08,rai11,dav14c}
\citation{dob95}
\citation{ben03}
\citation{cha97}
\citation{Dav15,dav14c,Dav15AA,Dav16}
\citation{hol13}
\@writefile{toc}{\contentsline {subsection}{\numberline {2.3}N3LO}{5}}
\newlabel{eq:N3LO:c}{{13}{5}}
\newlabel{eq:N3LO:t}{{14}{5}}
\citation{sel14}
\citation{bal97}
\citation{bal97}
\citation{vid11}
\citation{bal97}
\citation{dan02,lyn09}
\citation{bur07}
\citation{bal97,zho04}
\citation{Dav15AA}
\citation{dem10}
\@writefile{toc}{\contentsline {section}{\numberline {3}Equation of state and its decompositions}{6}}
\newlabel{sect:decomposition}{{3}{6}}
\newlabel{eq:hf}{{17}{6}}
\newlabel{eq:potener}{{18}{6}}
\@writefile{lof}{\contentsline {figure}{\numberline {1}{\ignorespaces (Colors online) Equations of state of SNM for the M3Y (panel a) and Gogny (panel b) parametrizations. The lines represent the result obtained with the effective interactions discussed in this article while the empty squares represent the EoS obtained with BHF methods \cite  {bal97}.}}{6}}
\newlabel{fig:EoS}{{1}{6}}
\citation{cha97}
\citation{dut12}
\citation{car03}
\citation{gor10}
\citation{cha08}
\@writefile{lof}{\contentsline {figure}{\numberline {2}{\ignorespaces (Colors online) Same as Fig.\nobreakspace  {}1\hbox {} but for PNM.}}{7}}
\newlabel{fig:PNM}{{2}{7}}
\@writefile{toc}{\contentsline {subsection}{\numberline {3.1}Decomposition in spin-isospin $(S,T)$ channels}{7}}
\newlabel{sect:STchannels}{{3.1}{7}}
\citation{les06}
\citation{cha07}
\citation{Dav15}
\citation{Dav15AA}
\citation{Dav15}
\@writefile{lof}{\contentsline {figure}{\numberline {3}{\ignorespaces (Colors online) Decomposition of the EoS in SNM for the different $(S,T)$ channels. On the left panel we present the result for the M3Y interactions and on the right for Gogny ones. The notation is the same as in Fig.1\hbox {}.}}{8}}
\newlabel{fig:STchannel}{{3}{8}}
\citation{bal97}
\citation{bal97}
\citation{Dav15AA}
\citation{bal97}
\citation{bal97}
\citation{dav14k}
\citation{car08,rai11,dav14c}
\@writefile{lof}{\contentsline {figure}{\numberline {4}{\ignorespaces (Colors online) $(S,T)$ channels of the EoS obtained with the Gogny interaction when a third Gaussian is added. The symbols are from \cite  {bal97}. See text for details.}}{9}}
\newlabel{fig:fitG}{{4}{9}}
\@writefile{lof}{\contentsline {figure}{\numberline {5}{\ignorespaces (Colors online) EoS in SNM and PNM obtained with the Gogny interaction when a third Gaussian is added. The symbols are from \cite  {bal97}. See text for details.}}{9}}
\newlabel{fig:fitGeos}{{5}{9}}
\citation{bal97}
\@writefile{toc}{\contentsline {subsection}{\numberline {3.2}Decomposition in partial waves}{10}}
\newlabel{sect:partialwaves}{{3.2}{10}}
\newlabel{eq:jls:truncated}{{20}{10}}
\@writefile{lof}{\contentsline {figure}{\numberline {6}{\ignorespaces (Colors online) Comparison between the EoS obtained using full HF calculations Eq.\nobreakspace  {}17\hbox {} (solid lines) and the Eq.\nobreakspace  {}20\hbox {} truncated (dashed-lines) at $L=3$ (right). See text for details.}}{10}}
\newlabel{Eos:convergence}{{6}{10}}
\citation{hol72,hol10}
\citation{bal97}
\citation{bal97}
\citation{Dav16PRC}
\citation{Gra13}
\citation{Pas14L,prep}
\@writefile{lof}{\contentsline {figure}{\numberline {7}{\ignorespaces (Colors online) EoS in SNM for the D1S interaction (dots) and sum of different partial waves. See text for details.}}{11}}
\newlabel{Eos:convergence2}{{7}{11}}
\newlabel{deltas:gog}{{21}{11}}
\citation{bal97}
\citation{bal97}
\citation{bal97}
\citation{Pas14L}
\citation{sky59}
\citation{Dav15}
\@writefile{lof}{\contentsline {figure}{\numberline {8}{\ignorespaces (Colors online) Partial wave decomposition of EoS in SNM for the different Gogny interactions (lines) and the BHF calculations (symbols)\nobreakspace  {}\cite  {bal97}. See text for details.}}{12}}
\newlabel{JLST:gog}{{8}{12}}
\citation{rai11b}
\@writefile{lof}{\contentsline {figure}{\numberline {9}{\ignorespaces (Colors online) Difference of partial waves for BHF results (dots) and Gogny interactions (lines). The legend is the same as in Fig.8\hbox {}. See text for details.}}{13}}
\newlabel{deltas:gog}{{9}{13}}
\@writefile{toc}{\contentsline {section}{\numberline {4}From finite-range to zero-range}{13}}
\newlabel{sect:finitezero}{{4}{13}}
\@writefile{toc}{\contentsline {subsection}{\numberline {4.1}Local gauge invariance}{13}}
\newlabel{eq:cont}{{24}{13}}
\citation{bla86}
\@writefile{lof}{\contentsline {figure}{\numberline {10}{\ignorespaces (Colors online) Partial wave decomposition of EoS in SNM for the different M3Y interactions (solid lines) and the BHF calculations (symbols)\nobreakspace  {}\cite  {bal97}.}}{14}}
\newlabel{JLST}{{10}{14}}
\citation{car08}
\citation{rai11b}
\@writefile{lof}{\contentsline {figure}{\numberline {11}{\ignorespaces (Colors online) Difference of partial waves for BHF results (dots) and M3Y interactions (lines). The legend is the same as in Fig.10\hbox {}. See text for details.}}{15}}
\newlabel{deltas:M3Y}{{11}{15}}
\newlabel{eq:Etilde}{{28}{15}}
\newlabel{eq:Ttilde}{{29}{15}}
\@writefile{toc}{\contentsline {subsection}{\numberline {4.2}M3Y}{16}}
\newlabel{central:kk}{{30}{16}}
\newlabel{eq:vcen|:exp}{{31}{16}}
\newlabel{eq.taylor}{{33}{16}}
\citation{bel59}
\citation{rai11}
\citation{car08,rai11}
\citation{rai11b}
\newlabel{eq:vtenkk}{{34}{17}}
\newlabel{eq:soN}{{36}{17}}
\newlabel{central:kk:so}{{37}{17}}
\newlabel{so:exp}{{37}{17}}
\citation{rai11b}
\@writefile{toc}{\contentsline {subsection}{\numberline {4.3}Gogny interaction}{18}}
\newlabel{eq:cenG}{{37}{18}}
\newlabel{eq:reconstructionA}{{39}{18}}
\newlabel{eq:reconstructionB}{{40}{18}}
\newlabel{eq:reconstructionC}{{41}{18}}
\newlabel{eq:reconstructionD}{{42}{18}}
\citation{kor13}
\citation{rai11}
\citation{sky59}
\citation{cha97}
\citation{rai11}
\@writefile{lof}{\contentsline {figure}{\numberline {12}{\ignorespaces (Colors online). (Colors online) $(S ,T )$ channels of the EoS obtained with the Gogny D1S interaction (left panel) and the M3Y-P2 interaction (right panel). See text for details.}}{19}}
\newlabel{ST:recomposed}{{12}{19}}
\@writefile{toc}{\contentsline {section}{\numberline {5}Conclusion}{19}}
\newlabel{sect:conclusions}{{5}{19}}
\citation{car10}
\@writefile{toc}{\let\numberline\tmptocnumberline}
\@writefile{toc}{\contentsline {section}{\numberline {Appendix \nobreakspace  {}A}Symmetric nuclear matter and pure neutron matter potential energies}{20}}
\newlabel{app:EOS}{{Appendix \nobreakspace  {}A}{20}}
\citation{abr64}
\@writefile{toc}{\contentsline {section}{\numberline {Appendix \nobreakspace  {}B}Contributions to the $(S,T)$ channels in symmetric nuclear matter}{21}}
\newlabel{app:ST}{{Appendix \nobreakspace  {}B}{21}}
\citation{car08,rai11}
\citation{Ang11}
\@writefile{toc}{\contentsline {section}{\numberline {Appendix \nobreakspace  {}C}Partial wave decomposition in symmetric nuclear matter}{24}}
\newlabel{app:aux}{{Appendix \nobreakspace  {}C}{24}}
\newlabel{spin1:gog}{{C.1}{24}}
\citation{abr64}
\citation{abr64}
\citation{rai11}
\citation{Dav15}
\bibstyle{elsarticle-num}
\bibdata{biblio}
\bibcite{ben03}{{1}{}{{}}{{}}}
\bibcite{sky59}{{2}{}{{}}{{}}}
\bibcite{vau72}{{3}{}{{}}{{}}}
\bibcite{gog75}{{4}{}{{}}{{}}}
\bibcite{dec80}{{5}{}{{}}{{}}}
\bibcite{ber77}{{6}{}{{}}{{}}}
\bibcite{nak03}{{7}{}{{}}{{}}}
\bibcite{gor09}{{8}{}{{}}{{}}}
\bibcite{gor09b}{{9}{}{{}}{{}}}
\bibcite{ber07}{{10}{}{{}}{{}}}
\bibcite{ter08}{{11}{}{{}}{{}}}
\bibcite{dut12}{{12}{}{{}}{{}}}
\bibcite{bal97}{{13}{}{{}}{{}}}
\bibcite{heb11}{{14}{}{{}}{{}}}
\bibcite{gez13}{{15}{}{{}}{{}}}
\bibcite{bog05}{{16}{}{{}}{{}}}
\bibcite{rot08}{{17}{}{{}}{{}}}
\bibcite{Dav15}{{18}{}{{}}{{}}}
\bibcite{les07}{{19}{}{{}}{{}}}
\bibcite{Ang11}{{20}{}{{}}{{}}}
\bibcite{fia02}{{21}{}{{}}{{}}}
\bibcite{bal12}{{22}{}{{}}{{}}}
\bibcite{sta77}{{23}{}{{}}{{}}}
\bibcite{oni78}{{24}{}{{}}{{}}}
\bibcite{ots06}{{25}{}{{}}{{}}}
\bibcite{nak08}{{26}{}{{}}{{}}}
\bibcite{nak13}{{27}{}{{}}{{}}}
\bibcite{Ang12}{{28}{}{{}}{{}}}
\bibcite{sag14}{{29}{}{{}}{{}}}
\bibcite{car08}{{30}{}{{}}{{}}}
\bibcite{rai11}{{31}{}{{}}{{}}}
\bibcite{kor13}{{32}{}{{}}{{}}}
\bibcite{car10}{{33}{}{{}}{{}}}
\bibcite{Dav16PRC}{{34}{}{{}}{{}}}
\bibcite{Gra13}{{35}{}{{}}{{}}}
\bibcite{ber16}{{36}{}{{}}{{}}}
\bibcite{cha08}{{37}{}{{}}{{}}}
\bibcite{cha15}{{38}{}{{}}{{}}}
\bibcite{ana83}{{39}{}{{}}{{}}}
\bibcite{Nak15}{{40}{}{{}}{{}}}
\bibcite{dav14c}{{41}{}{{}}{{}}}
\bibcite{dob95}{{42}{}{{}}{{}}}
\bibcite{cha97}{{43}{}{{}}{{}}}
\bibcite{Dav15AA}{{44}{}{{}}{{}}}
\bibcite{Dav16}{{45}{}{{}}{{}}}
\bibcite{hol13}{{46}{}{{}}{{}}}
\bibcite{sel14}{{47}{}{{}}{{}}}
\bibcite{vid11}{{48}{}{{}}{{}}}
\bibcite{dan02}{{49}{}{{}}{{}}}
\bibcite{lyn09}{{50}{}{{}}{{}}}
\bibcite{bur07}{{51}{}{{}}{{}}}
\bibcite{zho04}{{52}{}{{}}{{}}}
\bibcite{dem10}{{53}{}{{}}{{}}}
\bibcite{car03}{{54}{}{{}}{{}}}
\bibcite{gor10}{{55}{}{{}}{{}}}
\bibcite{les06}{{56}{}{{}}{{}}}
\bibcite{cha07}{{57}{}{{}}{{}}}
\bibcite{dav14k}{{58}{}{{}}{{}}}
\bibcite{hol72}{{59}{}{{}}{{}}}
\bibcite{hol10}{{60}{}{{}}{{}}}
\bibcite{Pas14L}{{61}{}{{}}{{}}}
\bibcite{prep}{{62}{}{{}}{{}}}
\bibcite{rai11b}{{63}{}{{}}{{}}}
\bibcite{bla86}{{64}{}{{}}{{}}}
\bibcite{bel59}{{65}{}{{}}{{}}}
\bibcite{abr64}{{66}{}{{}}{{}}}
\providecommand\NAT@force@numbers{}\NAT@force@numbers
