%!PS-Adobe-3.0
%%BoundingBox: 0 0 612 792
%%LanguageLevel: 2
%%Creator: Grace-5.1.25
%%CreationDate: Tue Jun  7 15:45:49 2016
%%DocumentData: Clean8Bit
%%Orientation: Landscape
%%Pages: 1
%%PageOrder: Ascend
%%Title: EoS_SNM_ST_m3y_recomposed.agr
%%For: ap1450
%%DocumentNeededResources: (atend)
%%EndComments
%%BeginProlog
/PAGE_OFFSET_X 0 def
/PAGE_OFFSET_Y 0 def
/m {moveto} def
/l {lineto} def
/s {stroke} def
/n {newpath} def
/c {closepath} def
/RL {rlineto} def
/SLW {setlinewidth} def
/GS {gsave} def
/GR {grestore} def
/SC {setcolor} def
/SGRY {setgray} def
/SRGB {setrgbcolor} def
/SD {setdash} def
/SLC {setlinecap} def
/SLJ {setlinejoin} def
/SCS {setcolorspace} def
/FFSF {findfont setfont} def
/CC {concat} def
/PXL {n m 0 0 RL s} def
/Color0 {1.0000 1.0000 1.0000} def
/Color1 {0.0000 0.0000 0.0000} def
/Color2 {1.0000 0.0000 0.0000} def
/Color3 {0.0000 1.0000 0.0000} def
/Color4 {0.0000 0.0000 1.0000} def
/Color5 {1.0000 1.0000 0.0000} def
/Color6 {0.7373 0.5608 0.5608} def
/Color7 {0.8627 0.8627 0.8627} def
/Color8 {0.5804 0.0000 0.8275} def
/Color9 {0.0000 1.0000 1.0000} def
/Color10 {1.0000 0.0000 1.0000} def
/Color11 {1.0000 0.6471 0.0000} def
/Color12 {0.4471 0.1294 0.7373} def
/Color13 {0.4039 0.0275 0.2824} def
/Color14 {0.2510 0.8784 0.8157} def
/Color15 {0.0000 0.5451 0.0000} def
/Color16 {0.7529 0.7529 0.7529} def
/Color17 {0.5059 0.5059 0.5059} def
/Color18 {0.2588 0.2588 0.2588} def
/PTRN {
 /pat_bits exch def 
 <<
  /PaintType 2
  /PatternType 1 /TilingType 1
  /BBox[0 0 16 16]
  /XStep 16 /YStep 16
  /PaintProc {
   pop
   16 16 true [-1 0 0 -1 16 16] pat_bits imagemask
  }
 >>
 [0.0016 0 0 0.0016 0 0]
 makepattern
} def
/Pattern0 {<0000000000000000000000000000000000000000000000000000000000000000> PTRN} bind def
/Pattern1 {<ffffffffffffffffffffffffffffffffffffffffffffffffffffffffffffffff> PTRN} bind def
/Pattern2 {<eeeeffffbbbbffffeeeeffffbbbbffffeeeeffffbbbbffffeeeeffffbbbbffff> PTRN} bind def
/Pattern3 {<eeeebbbbeeeebbbbeeeebbbbeeeebbbbeeeebbbbeeeebbbbeeeebbbbeeeebbbb> PTRN} bind def
/Pattern4 {<5555aaaa5555aaaa5555aaaa5555aaaa5555aaaa5555aaaa5555aaaa5555aaaa> PTRN} bind def
/Pattern5 {<1111444411114444111144441111444411114444111144441111444411114444> PTRN} bind def
/Pattern6 {<1111000044440000111100004444000011110000444400001111000044440000> PTRN} bind def
/Pattern7 {<1010000000000000010100000000000010100000000000000101000000000000> PTRN} bind def
/Pattern8 {<0000000000000000000000000000000000000000000000000000000000000000> PTRN} bind def
/Pattern9 {<1e1e0f0f8787c3c3e1e1f0f078783c3c1e1e0f0f8787c3c3e1e1f0f078783c3c> PTRN} bind def
/Pattern10 {<7878f0f0e1e1c3c387870f0f1e1e3c3c7878f0f0e1e1c3c387870f0f1e1e3c3c> PTRN} bind def
/Pattern11 {<3333333333333333333333333333333333333333333333333333333333333333> PTRN} bind def
/Pattern12 {<ffffffff00000000ffffffff00000000ffffffff00000000ffffffff00000000> PTRN} bind def
/Pattern13 {<8181424224241818181824244242818181814242242418181818242442428181> PTRN} bind def
/Pattern14 {<8080404020201010080804040202010180804040202010100808040402020101> PTRN} bind def
/Pattern15 {<0101020204040808101020204040808001010202040408081010202040408080> PTRN} bind def
/Pattern16 {<2222222222222222222222222222222222222222222222222222222222222222> PTRN} bind def
/Pattern17 {<0000ffff000000000000ffff000000000000ffff000000000000ffff00000000> PTRN} bind def
/Pattern18 {<2222ffff222222222222ffff222222222222ffff222222222222ffff22222222> PTRN} bind def
/Pattern19 {<ffffffff33333333ffffffff33333333ffffffff33333333ffffffff33333333> PTRN} bind def
/Pattern20 {<0f0f0f0f0f0f0f0ff0f0f0f0f0f0f0f00f0f0f0f0f0f0f0ff0f0f0f0f0f0f0f0> PTRN} bind def
/Pattern21 {<ff00ff00ff00ff00ff00ff00ff00ff0000ff00ff00ff00ff00ff00ff00ff00ff> PTRN} bind def
/Pattern22 {<8001800180018001800180018001ffffffff8001800180018001800180018001> PTRN} bind def
/Pattern23 {<c003c003c003c003c003c003ffffffffffffffffc003c003c003c003c003c003> PTRN} bind def
/Pattern24 {<040404040404ffff404040404040ffff040404040404ffff404040404040ffff> PTRN} bind def
/Pattern25 {<180018001800180018001800ffffffff001800180018001800180018ffffffff> PTRN} bind def
/Pattern26 {<1111b8b87c7c3a3a1111a3a3c7c78b8b1111b8b87c7c3a3a1111a3a3c7c78b8b> PTRN} bind def
/Pattern27 {<101010102828c7c70101010182827c7c101010102828c7c70101010182827c7c> PTRN} bind def
/Pattern28 {<1c1c121211112121c1c12121111112121c1c121211112121c1c1212111111212> PTRN} bind def
/Pattern29 {<3e3e414180808080e3e31414080808083e3e414180808080e3e3141408080808> PTRN} bind def
/Pattern30 {<4848888884848383848488884848383848488888848483838484888848483838> PTRN} bind def
/Pattern31 {<03030404080808080c0c12122121c0c003030404080808080c0c12122121c0c0> PTRN} bind def
/ellipsedict 8 dict def
ellipsedict /mtrx matrix put
/EARC {
 ellipsedict begin
  /endangle exch def
  /startangle exch def
  /yrad exch def
  /xrad exch def
  /y exch def
  /x exch def
  /savematrix mtrx currentmatrix def
  x y translate
  xrad yrad scale
  0 0 1 startangle endangle arc
  savematrix setmatrix
 end
} def
/TL {
  /kcomp exch def
  /linewidth exch def
  /offset exch def
  GS
  0 offset rmoveto
  linewidth SLW
  dup stringwidth exch kcomp add exch RL s
  GR
} def
/KINIT
{
 /kvector exch def
 /kid 0 def
} def
/KPROC
{
 pop pop
 kvector kid get
 0 rmoveto
 /kid 1 kid add def
} def
/DefEncoding [
 /.notdef
 /.notdef
 /.notdef
 /.notdef
 /.notdef
 /.notdef
 /.notdef
 /.notdef
 /.notdef
 /.notdef
 /.notdef
 /.notdef
 /.notdef
 /.notdef
 /.notdef
 /.notdef
 /.notdef
 /.notdef
 /.notdef
 /.notdef
 /.notdef
 /.notdef
 /.notdef
 /.notdef
 /.notdef
 /.notdef
 /.notdef
 /.notdef
 /.notdef
 /.notdef
 /.notdef
 /.notdef
 /space
 /exclam
 /quotedbl
 /numbersign
 /dollar
 /percent
 /ampersand
 /quoteright
 /parenleft
 /parenright
 /asterisk
 /plus
 /comma
 /hyphen
 /period
 /slash
 /zero
 /one
 /two
 /three
 /four
 /five
 /six
 /seven
 /eight
 /nine
 /colon
 /semicolon
 /less
 /equal
 /greater
 /question
 /at
 /A
 /B
 /C
 /D
 /E
 /F
 /G
 /H
 /I
 /J
 /K
 /L
 /M
 /N
 /O
 /P
 /Q
 /R
 /S
 /T
 /U
 /V
 /W
 /X
 /Y
 /Z
 /bracketleft
 /backslash
 /bracketright
 /asciicircum
 /underscore
 /grave
 /a
 /b
 /c
 /d
 /e
 /f
 /g
 /h
 /i
 /j
 /k
 /l
 /m
 /n
 /o
 /p
 /q
 /r
 /s
 /t
 /u
 /v
 /w
 /x
 /y
 /z
 /braceleft
 /bar
 /braceright
 /asciitilde
 /.notdef
 /.notdef
 /.notdef
 /.notdef
 /.notdef
 /.notdef
 /.notdef
 /.notdef
 /.notdef
 /.notdef
 /.notdef
 /.notdef
 /.notdef
 /.notdef
 /.notdef
 /.notdef
 /.notdef
 /.notdef
 /.notdef
 /.notdef
 /.notdef
 /.notdef
 /.notdef
 /.notdef
 /.notdef
 /.notdef
 /.notdef
 /.notdef
 /.notdef
 /.notdef
 /.notdef
 /.notdef
 /.notdef
 /space
 /exclamdown
 /cent
 /sterling
 /currency
 /yen
 /brokenbar
 /section
 /dieresis
 /copyright
 /ordfeminine
 /guillemotleft
 /logicalnot
 /hyphen
 /registered
 /macron
 /degree
 /plusminus
 /twosuperior
 /threesuperior
 /acute
 /mu
 /paragraph
 /periodcentered
 /cedilla
 /onesuperior
 /ordmasculine
 /guillemotright
 /onequarter
 /onehalf
 /threequarters
 /questiondown
 /Agrave
 /Aacute
 /Acircumflex
 /Atilde
 /Adieresis
 /Aring
 /AE
 /Ccedilla
 /Egrave
 /Eacute
 /Ecircumflex
 /Edieresis
 /Igrave
 /Iacute
 /Icircumflex
 /Idieresis
 /Eth
 /Ntilde
 /Ograve
 /Oacute
 /Ocircumflex
 /Otilde
 /Odieresis
 /multiply
 /Oslash
 /Ugrave
 /Uacute
 /Ucircumflex
 /Udieresis
 /Yacute
 /Thorn
 /germandbls
 /agrave
 /aacute
 /acircumflex
 /atilde
 /adieresis
 /aring
 /ae
 /ccedilla
 /egrave
 /eacute
 /ecircumflex
 /edieresis
 /igrave
 /iacute
 /icircumflex
 /idieresis
 /eth
 /ntilde
 /ograve
 /oacute
 /ocircumflex
 /otilde
 /odieresis
 /divide
 /oslash
 /ugrave
 /uacute
 /ucircumflex
 /udieresis
 /yacute
 /thorn
 /ydieresis
] def
%%EndProlog
%%BeginSetup
%%EndSetup
%%Page: 1 1
PAGE_OFFSET_X PAGE_OFFSET_Y translate
612.00 612.00 scale
90 rotate
0.0 -1.0 translate
[/DeviceRGB] SCS
Color1 SC
[] 0 SD
0.0037 SLW
0 SLC
0 SLJ
n
0.1500 0.5000 m
0.1500 0.5000 l
0.1500 0.5000 l
0.1500 0.5000 l
0.1500 0.5000 l
0.1500 0.5000 l
0.1500 0.5000 l
0.1500 0.5000 l
0.1500 0.5000 l
0.1500 0.5000 l
0.1501 0.5000 l
0.1501 0.5000 l
0.1501 0.5000 l
0.1501 0.5000 l
0.1501 0.5000 l
0.1502 0.5000 l
0.1502 0.5000 l
0.1502 0.5000 l
0.1503 0.5000 l
0.1503 0.5000 l
0.1504 0.5000 l
0.1504 0.5000 l
0.1505 0.5000 l
0.1506 0.5000 l
0.1507 0.5000 l
0.1507 0.5001 l
0.1508 0.5001 l
0.1509 0.5001 l
0.1510 0.5001 l
0.1511 0.5001 l
0.1512 0.5001 l
0.1514 0.5001 l
0.1515 0.5002 l
0.1516 0.5002 l
0.1518 0.5002 l
0.1520 0.5002 l
0.1521 0.5003 l
0.1523 0.5003 l
0.1525 0.5003 l
0.1527 0.5004 l
0.1529 0.5004 l
0.1531 0.5005 l
0.1533 0.5005 l
0.1536 0.5006 l
0.1538 0.5006 l
0.1541 0.5007 l
0.1544 0.5008 l
0.1546 0.5008 l
0.1549 0.5009 l
0.1552 0.5010 l
0.1556 0.5011 l
0.1559 0.5012 l
0.1563 0.5013 l
0.1566 0.5014 l
0.1570 0.5015 l
0.1574 0.5016 l
0.1578 0.5017 l
0.1582 0.5019 l
0.1586 0.5020 l
0.1591 0.5022 l
0.1595 0.5023 l
0.1600 0.5025 l
0.1605 0.5026 l
0.1610 0.5028 l
0.1615 0.5030 l
0.1621 0.5032 l
0.1626 0.5034 l
0.1632 0.5036 l
0.1638 0.5038 l
0.1644 0.5040 l
0.1650 0.5043 l
0.1657 0.5045 l
0.1663 0.5048 l
0.1670 0.5050 l
0.1677 0.5053 l
0.1684 0.5056 l
0.1692 0.5059 l
0.1699 0.5062 l
0.1707 0.5065 l
0.1715 0.5069 l
0.1723 0.5072 l
0.1731 0.5076 l
0.1740 0.5079 l
0.1749 0.5083 l
0.1758 0.5087 l
0.1767 0.5091 l
0.1776 0.5095 l
0.1786 0.5100 l
0.1796 0.5104 l
0.1806 0.5109 l
0.1816 0.5113 l
0.1827 0.5118 l
0.1838 0.5123 l
0.1849 0.5128 l
0.1860 0.5134 l
0.1871 0.5139 l
0.1883 0.5145 l
0.1895 0.5150 l
0.1907 0.5156 l
0.1920 0.5162 l
0.1932 0.5169 l
0.1945 0.5175 l
0.1959 0.5181 l
0.1972 0.5188 l
0.1986 0.5195 l
0.2000 0.5202 l
0.2014 0.5209 l
0.2029 0.5217 l
0.2044 0.5224 l
0.2059 0.5232 l
0.2074 0.5240 l
0.2090 0.5248 l
0.2106 0.5257 l
0.2122 0.5265 l
0.2138 0.5274 l
0.2155 0.5283 l
0.2172 0.5292 l
0.2190 0.5301 l
0.2207 0.5310 l
0.2225 0.5320 l
0.2243 0.5330 l
0.2262 0.5340 l
0.2281 0.5350 l
0.2300 0.5361 l
0.2320 0.5372 l
0.2340 0.5383 l
0.2360 0.5394 l
0.2380 0.5405 l
0.2401 0.5417 l
0.2422 0.5429 l
0.2443 0.5441 l
0.2465 0.5453 l
0.2487 0.5465 l
0.2510 0.5478 l
0.2533 0.5491 l
0.2556 0.5504 l
0.2579 0.5518 l
0.2603 0.5531 l
0.2627 0.5545 l
0.2652 0.5559 l
0.2676 0.5574 l
0.2702 0.5589 l
0.2727 0.5603 l
0.2753 0.5619 l
0.2779 0.5634 l
0.2806 0.5650 l
0.2833 0.5665 l
0.2861 0.5682 l
0.2888 0.5698 l
0.2916 0.5715 l
0.2945 0.5732 l
0.2974 0.5749 l
0.3003 0.5766 l
0.3033 0.5784 l
0.3063 0.5802 l
0.3093 0.5820 l
0.3124 0.5839 l
0.3155 0.5858 l
0.3187 0.5877 l
0.3219 0.5896 l
0.3251 0.5916 l
0.3284 0.5936 l
0.3318 0.5956 l
0.3351 0.5977 l
0.3385 0.5998 l
0.3420 0.6019 l
0.3455 0.6040 l
0.3490 0.6062 l
0.3526 0.6084 l
0.3562 0.6106 l
0.3599 0.6129 l
0.3636 0.6151 l
0.3673 0.6175 l
0.3711 0.6198 l
0.3749 0.6222 l
0.3788 0.6246 l
0.3827 0.6270 l
0.3867 0.6295 l
0.3907 0.6320 l
0.3948 0.6345 l
0.3989 0.6371 l
0.4030 0.6397 l
0.4072 0.6423 l
0.4114 0.6450 l
0.4157 0.6477 l
0.4201 0.6504 l
0.4244 0.6532 l
0.4289 0.6560 l
0.4333 0.6588 l
0.4379 0.6616 l
0.4424 0.6645 l
0.4470 0.6674 l
0.4517 0.6704 l
0.4564 0.6734 l
0.4612 0.6764 l
0.4660 0.6795 l
0.4709 0.6825 l
0.4758 0.6857 l
0.4807 0.6888 l
0.4858 0.6920 l
0.4908 0.6952 l
0.4959 0.6985 l
0.5011 0.7018 l
0.5063 0.7051 l
0.5116 0.7085 l
0.5169 0.7119 l
0.5223 0.7153 l
0.5277 0.7188 l
0.5331 0.7223 l
0.5387 0.7258 l
0.5443 0.7294 l
0.5499 0.7330 l
0.5556 0.7367 l
0.5613 0.7403 l
0.5671 0.7441 l
0.5729 0.7478 l
0.5789 0.7516 l
0.5848 0.7554 l
0.5908 0.7593 l
0.5969 0.7632 l
0.6030 0.7671 l
0.6092 0.7711 l
0.6154 0.7751 l
0.6217 0.7792 l
0.6281 0.7833 l
0.6345 0.7874 l
0.6409 0.7916 l
0.6472 0.7956 l
s
[/DeviceRGB] SCS
Color2 SC
[0.0187 0.0112 ] 0 SD
0.0037 SLW
n
0.1500 0.4999 m
0.1500 0.5000 l
0.1500 0.5000 l
0.1500 0.5000 l
0.1500 0.5000 l
0.1500 0.5000 l
0.1500 0.5000 l
0.1500 0.5000 l
0.1500 0.5000 l
0.1500 0.5000 l
0.1501 0.5000 l
0.1501 0.5000 l
0.1501 0.5000 l
0.1501 0.5000 l
0.1501 0.5000 l
0.1502 0.5000 l
0.1502 0.5000 l
0.1502 0.5000 l
0.1503 0.5000 l
0.1503 0.5000 l
0.1504 0.5000 l
0.1504 0.5000 l
0.1505 0.5000 l
0.1506 0.5000 l
0.1507 0.5000 l
0.1507 0.5001 l
0.1508 0.5001 l
0.1509 0.5001 l
0.1510 0.5001 l
0.1511 0.5001 l
0.1513 0.5001 l
0.1514 0.5001 l
0.1515 0.5002 l
0.1516 0.5002 l
0.1518 0.5002 l
0.1520 0.5002 l
0.1521 0.5003 l
0.1523 0.5003 l
0.1525 0.5003 l
0.1527 0.5004 l
0.1529 0.5004 l
0.1531 0.5005 l
0.1533 0.5005 l
0.1536 0.5006 l
0.1538 0.5006 l
0.1541 0.5007 l
0.1544 0.5008 l
0.1546 0.5008 l
0.1549 0.5009 l
0.1552 0.5010 l
0.1556 0.5011 l
0.1559 0.5012 l
0.1562 0.5013 l
0.1566 0.5014 l
0.1570 0.5015 l
0.1574 0.5016 l
0.1578 0.5017 l
0.1582 0.5019 l
0.1586 0.5020 l
0.1591 0.5021 l
0.1595 0.5023 l
0.1600 0.5025 l
0.1605 0.5026 l
0.1610 0.5028 l
0.1615 0.5030 l
0.1621 0.5032 l
0.1626 0.5034 l
0.1632 0.5036 l
0.1638 0.5038 l
0.1644 0.5040 l
0.1650 0.5042 l
0.1657 0.5045 l
0.1663 0.5047 l
0.1670 0.5050 l
0.1677 0.5053 l
0.1684 0.5056 l
0.1692 0.5059 l
0.1699 0.5062 l
0.1707 0.5065 l
0.1715 0.5068 l
0.1723 0.5071 l
0.1731 0.5075 l
0.1740 0.5078 l
0.1749 0.5082 l
0.1758 0.5086 l
0.1767 0.5090 l
0.1776 0.5094 l
0.1786 0.5098 l
0.1796 0.5103 l
0.1806 0.5107 l
0.1816 0.5112 l
0.1827 0.5116 l
0.1838 0.5121 l
0.1849 0.5126 l
0.1860 0.5131 l
0.1871 0.5137 l
0.1883 0.5142 l
0.1895 0.5148 l
0.1907 0.5153 l
0.1920 0.5159 l
0.1932 0.5165 l
0.1945 0.5171 l
0.1959 0.5178 l
0.1972 0.5184 l
0.1986 0.5191 l
0.2000 0.5197 l
0.2014 0.5204 l
0.2029 0.5211 l
0.2044 0.5219 l
0.2059 0.5226 l
0.2074 0.5234 l
0.2090 0.5241 l
0.2106 0.5249 l
0.2122 0.5257 l
0.2138 0.5265 l
0.2155 0.5274 l
0.2172 0.5282 l
0.2190 0.5291 l
0.2207 0.5300 l
0.2225 0.5309 l
0.2244 0.5319 l
0.2262 0.5328 l
0.2281 0.5338 l
0.2300 0.5348 l
0.2320 0.5358 l
0.2340 0.5368 l
0.2360 0.5378 l
0.2380 0.5389 l
0.2401 0.5400 l
0.2422 0.5411 l
0.2443 0.5422 l
0.2465 0.5433 l
0.2487 0.5445 l
0.2510 0.5457 l
0.2533 0.5468 l
0.2556 0.5481 l
0.2579 0.5493 l
0.2603 0.5506 l
0.2627 0.5518 l
0.2652 0.5531 l
0.2676 0.5544 l
0.2702 0.5558 l
0.2727 0.5571 l
0.2753 0.5585 l
0.2779 0.5599 l
0.2806 0.5613 l
0.2833 0.5628 l
0.2861 0.5642 l
0.2888 0.5657 l
0.2916 0.5672 l
0.2945 0.5688 l
0.2974 0.5703 l
0.3003 0.5719 l
0.3033 0.5735 l
0.3063 0.5751 l
0.3093 0.5767 l
0.3124 0.5784 l
0.3155 0.5801 l
0.3187 0.5818 l
0.3219 0.5835 l
0.3251 0.5852 l
0.3284 0.5870 l
0.3318 0.5888 l
0.3351 0.5906 l
0.3385 0.5924 l
0.3420 0.5943 l
0.3455 0.5962 l
0.3490 0.5981 l
0.3526 0.6000 l
0.3562 0.6020 l
0.3599 0.6039 l
0.3636 0.6059 l
0.3673 0.6080 l
0.3711 0.6100 l
0.3749 0.6121 l
0.3788 0.6142 l
0.3827 0.6163 l
0.3867 0.6184 l
0.3907 0.6206 l
0.3948 0.6227 l
0.3989 0.6249 l
0.4030 0.6272 l
0.4072 0.6294 l
0.4114 0.6317 l
0.4157 0.6340 l
0.4201 0.6363 l
0.4244 0.6387 l
0.4289 0.6410 l
0.4333 0.6434 l
0.4379 0.6458 l
0.4424 0.6483 l
0.4471 0.6507 l
0.4517 0.6532 l
0.4564 0.6557 l
0.4612 0.6583 l
0.4660 0.6608 l
0.4709 0.6634 l
0.4758 0.6660 l
0.4807 0.6687 l
0.4858 0.6713 l
0.4908 0.6740 l
0.4959 0.6767 l
0.5011 0.6794 l
0.5063 0.6822 l
0.5116 0.6849 l
0.5169 0.6877 l
0.5223 0.6906 l
0.5277 0.6934 l
0.5331 0.6963 l
0.5387 0.6992 l
0.5443 0.7021 l
0.5499 0.7050 l
0.5556 0.7080 l
0.5613 0.7110 l
0.5671 0.7140 l
0.5729 0.7170 l
0.5789 0.7201 l
0.5848 0.7232 l
0.5908 0.7263 l
0.5969 0.7294 l
0.6030 0.7326 l
0.6092 0.7358 l
0.6154 0.7390 l
0.6217 0.7422 l
0.6281 0.7454 l
0.6345 0.7487 l
0.6409 0.7520 l
0.6472 0.7552 l
s
[/DeviceRGB] SCS
Color1 SC
[] 0 SD
0.0045 SLW
n
0.1500 0.5000 m
0.6471 0.5000 l
s
n
0.1500 0.8500 m
0.6471 0.8500 l
s
n
0.2121 0.5000 m
0.2121 0.5100 l
s
n
0.2121 0.8500 m
0.2121 0.8400 l
s
n
0.3364 0.5000 m
0.3364 0.5100 l
s
n
0.3364 0.8500 m
0.3364 0.8400 l
s
n
0.4607 0.5000 m
0.4607 0.5100 l
s
n
0.4607 0.8500 m
0.4607 0.8400 l
s
n
0.5849 0.5000 m
0.5849 0.5100 l
s
n
0.5849 0.8500 m
0.5849 0.8400 l
s
n
0.1500 0.5000 m
0.1500 0.5200 l
s
n
0.1500 0.8500 m
0.1500 0.8300 l
s
n
0.2743 0.5000 m
0.2743 0.5200 l
s
n
0.2743 0.8500 m
0.2743 0.8300 l
s
n
0.3985 0.5000 m
0.3985 0.5200 l
s
n
0.3985 0.8500 m
0.3985 0.8300 l
s
n
0.5228 0.5000 m
0.5228 0.5200 l
s
n
0.5228 0.8500 m
0.5228 0.8300 l
s
n
0.6471 0.5000 m
0.6471 0.5200 l
s
n
0.6471 0.8500 m
0.6471 0.8300 l
s
n
0.1500 0.5000 m
0.1500 0.8500 l
s
n
0.1500 0.5438 m
0.1600 0.5438 l
s
n
0.1500 0.6313 m
0.1600 0.6313 l
s
n
0.1500 0.7188 m
0.1600 0.7188 l
s
n
0.1500 0.8063 m
0.1600 0.8063 l
s
n
0.1500 0.5000 m
0.1700 0.5000 l
s
n
0.1500 0.5875 m
0.1700 0.5875 l
s
n
0.1500 0.6750 m
0.1700 0.6750 l
s
n
0.1500 0.7625 m
0.1700 0.7625 l
s
n
0.1500 0.8500 m
0.1700 0.8500 l
s
/Times-Roman findfont
dup length dict begin
 {1 index /FID ne {def} {pop pop} ifelse} forall
 /Encoding DefEncoding def
 currentdict
end
/Font0 exch definefont pop
/Font0 FFSF
0.1188 0.4851 m
GS
[0.0448 0.0000 0.0000 0.0448 0 0] CC
(0) show
GR
/Font0 FFSF
0.0965 0.5726 m
GS
[0.0448 0.0000 0.0000 0.0448 0 0] CC
(10) show
GR
/Font0 FFSF
0.0965 0.6601 m
GS
[0.0448 0.0000 0.0000 0.0448 0 0] CC
(20) show
GR
/Font0 FFSF
0.0965 0.7476 m
GS
[0.0448 0.0000 0.0000 0.0448 0 0] CC
(30) show
GR
/Font0 FFSF
0.0965 0.8351 m
GS
[0.0448 0.0000 0.0000 0.0448 0 0] CC
(40) show
GR
/Font0 FFSF
0.0782 0.5795 m
GS
[0.0000 0.0459 -0.0459 0.0000 0 0] CC
(\(S=0,T=0\)) show
GR
[] 0 SD
0.0015 SLW
n
0.1500 0.5000 m
0.1500 0.8500 l
0.6471 0.8500 l
0.6471 0.5000 l
0.1500 0.5000 l
c
s
/Font0 FFSF
0.5352 0.8938 m
GS
[0.0580 0.0000 0.0000 0.0580 0 0] CC
(M3Y-P2) show
GR
[] 0 SD
0.0037 SLW
n
0.6471 0.6167 m
0.6471 0.6167 l
0.6471 0.6167 l
0.6471 0.6167 l
0.6471 0.6167 l
0.6471 0.6167 l
0.6471 0.6167 l
0.6471 0.6167 l
0.6471 0.6167 l
0.6471 0.6167 l
0.6471 0.6167 l
0.6471 0.6167 l
0.6472 0.6167 l
0.6472 0.6167 l
0.6472 0.6167 l
0.6472 0.6167 l
0.6473 0.6167 l
0.6473 0.6167 l
0.6473 0.6167 l
0.6474 0.6167 l
0.6475 0.6167 l
0.6475 0.6167 l
0.6476 0.6167 l
0.6476 0.6167 l
0.6477 0.6167 l
0.6478 0.6168 l
0.6479 0.6168 l
0.6480 0.6168 l
0.6481 0.6168 l
0.6482 0.6168 l
0.6483 0.6169 l
0.6484 0.6169 l
0.6486 0.6169 l
0.6487 0.6170 l
0.6489 0.6170 l
0.6490 0.6171 l
0.6492 0.6171 l
0.6494 0.6172 l
0.6496 0.6172 l
0.6497 0.6173 l
0.6500 0.6174 l
0.6502 0.6174 l
0.6504 0.6175 l
0.6506 0.6176 l
0.6509 0.6177 l
0.6511 0.6178 l
0.6514 0.6179 l
0.6517 0.6180 l
0.6520 0.6181 l
0.6523 0.6182 l
0.6526 0.6183 l
0.6530 0.6184 l
0.6533 0.6186 l
0.6537 0.6187 l
0.6540 0.6188 l
0.6544 0.6190 l
0.6548 0.6191 l
0.6552 0.6193 l
0.6557 0.6195 l
0.6561 0.6197 l
0.6566 0.6198 l
0.6571 0.6200 l
0.6576 0.6202 l
0.6581 0.6204 l
0.6586 0.6206 l
0.6591 0.6208 l
0.6597 0.6211 l
0.6603 0.6213 l
0.6608 0.6215 l
0.6615 0.6217 l
0.6621 0.6220 l
0.6627 0.6222 l
0.6634 0.6225 l
0.6641 0.6228 l
0.6648 0.6230 l
0.6655 0.6233 l
0.6662 0.6236 l
0.6670 0.6239 l
0.6677 0.6242 l
0.6685 0.6245 l
0.6694 0.6248 l
0.6702 0.6251 l
0.6711 0.6254 l
0.6719 0.6257 l
0.6728 0.6260 l
0.6738 0.6264 l
0.6747 0.6267 l
0.6757 0.6270 l
0.6766 0.6274 l
0.6777 0.6277 l
0.6787 0.6281 l
0.6797 0.6284 l
0.6808 0.6288 l
0.6819 0.6292 l
0.6830 0.6295 l
0.6842 0.6299 l
0.6854 0.6303 l
0.6866 0.6307 l
0.6878 0.6311 l
0.6890 0.6314 l
0.6903 0.6318 l
0.6916 0.6322 l
0.6929 0.6326 l
0.6943 0.6330 l
0.6956 0.6334 l
0.6970 0.6339 l
0.6985 0.6343 l
0.6999 0.6347 l
0.7014 0.6351 l
0.7029 0.6355 l
0.7045 0.6360 l
0.7060 0.6364 l
0.7076 0.6368 l
0.7092 0.6372 l
0.7109 0.6377 l
0.7126 0.6381 l
0.7143 0.6385 l
0.7160 0.6390 l
0.7178 0.6394 l
0.7196 0.6399 l
0.7214 0.6403 l
0.7233 0.6408 l
0.7252 0.6412 l
0.7271 0.6417 l
0.7290 0.6421 l
0.7310 0.6426 l
0.7330 0.6431 l
0.7351 0.6435 l
0.7372 0.6440 l
0.7393 0.6444 l
0.7414 0.6449 l
0.7436 0.6454 l
0.7458 0.6459 l
0.7480 0.6463 l
0.7503 0.6468 l
0.7526 0.6473 l
0.7550 0.6478 l
0.7574 0.6483 l
0.7598 0.6487 l
0.7622 0.6492 l
0.7647 0.6497 l
0.7672 0.6502 l
0.7698 0.6507 l
0.7724 0.6512 l
0.7750 0.6517 l
0.7777 0.6522 l
0.7804 0.6527 l
0.7831 0.6532 l
0.7859 0.6538 l
0.7887 0.6543 l
0.7916 0.6548 l
0.7944 0.6553 l
0.7974 0.6559 l
0.8003 0.6564 l
0.8033 0.6569 l
0.8064 0.6575 l
0.8095 0.6580 l
0.8126 0.6586 l
0.8158 0.6591 l
0.8190 0.6597 l
0.8222 0.6603 l
0.8255 0.6608 l
0.8288 0.6614 l
0.8322 0.6620 l
0.8356 0.6626 l
0.8390 0.6632 l
0.8425 0.6638 l
0.8461 0.6644 l
0.8496 0.6650 l
0.8533 0.6657 l
0.8569 0.6663 l
0.8606 0.6670 l
0.8644 0.6676 l
0.8682 0.6683 l
0.8720 0.6689 l
0.8759 0.6696 l
0.8798 0.6703 l
0.8838 0.6710 l
0.8878 0.6717 l
0.8918 0.6724 l
0.8959 0.6732 l
0.9001 0.6739 l
0.9043 0.6747 l
0.9085 0.6754 l
0.9128 0.6762 l
0.9171 0.6770 l
0.9215 0.6778 l
0.9259 0.6787 l
0.9304 0.6795 l
0.9349 0.6803 l
0.9395 0.6812 l
0.9441 0.6821 l
0.9488 0.6830 l
0.9535 0.6839 l
0.9583 0.6848 l
0.9631 0.6858 l
0.9679 0.6867 l
0.9728 0.6877 l
0.9778 0.6887 l
0.9828 0.6897 l
0.9879 0.6908 l
0.9930 0.6918 l
0.9981 0.6929 l
1.0034 0.6940 l
1.0086 0.6951 l
1.0139 0.6962 l
1.0193 0.6974 l
1.0247 0.6986 l
1.0302 0.6998 l
1.0357 0.7010 l
1.0413 0.7023 l
1.0469 0.7036 l
1.0526 0.7049 l
1.0584 0.7062 l
1.0642 0.7076 l
1.0700 0.7090 l
1.0759 0.7104 l
1.0819 0.7118 l
1.0879 0.7133 l
1.0939 0.7148 l
1.1001 0.7163 l
1.1062 0.7179 l
1.1125 0.7194 l
1.1188 0.7211 l
1.1251 0.7227 l
1.1315 0.7244 l
1.1380 0.7261 l
1.1442 0.7278 l
s
[/DeviceRGB] SCS
Color2 SC
[0.0187 0.0112 ] 0 SD
0.0037 SLW
n
0.6471 0.6421 m
0.6471 0.6168 l
0.6471 0.6168 l
0.6471 0.6167 l
0.6471 0.6167 l
0.6471 0.6167 l
0.6471 0.6167 l
0.6471 0.6167 l
0.6471 0.6167 l
0.6471 0.6167 l
0.6471 0.6167 l
0.6471 0.6167 l
0.6472 0.6167 l
0.6472 0.6167 l
0.6472 0.6167 l
0.6472 0.6167 l
0.6473 0.6167 l
0.6473 0.6167 l
0.6473 0.6167 l
0.6474 0.6167 l
0.6474 0.6167 l
0.6475 0.6167 l
0.6476 0.6167 l
0.6476 0.6167 l
0.6477 0.6167 l
0.6478 0.6168 l
0.6479 0.6168 l
0.6480 0.6168 l
0.6481 0.6168 l
0.6482 0.6168 l
0.6483 0.6169 l
0.6484 0.6169 l
0.6486 0.6169 l
0.6487 0.6170 l
0.6489 0.6170 l
0.6490 0.6171 l
0.6492 0.6171 l
0.6494 0.6172 l
0.6495 0.6172 l
0.6497 0.6173 l
0.6500 0.6174 l
0.6502 0.6174 l
0.6504 0.6175 l
0.6506 0.6176 l
0.6509 0.6177 l
0.6511 0.6178 l
0.6514 0.6179 l
0.6517 0.6180 l
0.6520 0.6181 l
0.6523 0.6182 l
0.6526 0.6183 l
0.6530 0.6184 l
0.6533 0.6186 l
0.6537 0.6187 l
0.6540 0.6188 l
0.6544 0.6190 l
0.6548 0.6191 l
0.6552 0.6193 l
0.6557 0.6195 l
0.6561 0.6196 l
0.6566 0.6198 l
0.6571 0.6200 l
0.6576 0.6202 l
0.6581 0.6204 l
0.6586 0.6206 l
0.6591 0.6208 l
0.6597 0.6210 l
0.6603 0.6212 l
0.6608 0.6215 l
0.6615 0.6217 l
0.6621 0.6219 l
0.6627 0.6222 l
0.6634 0.6224 l
0.6641 0.6227 l
0.6648 0.6229 l
0.6655 0.6232 l
0.6662 0.6235 l
0.6670 0.6237 l
0.6678 0.6240 l
0.6685 0.6243 l
0.6694 0.6246 l
0.6702 0.6249 l
0.6711 0.6252 l
0.6719 0.6255 l
0.6728 0.6258 l
0.6738 0.6261 l
0.6747 0.6264 l
0.6757 0.6267 l
0.6766 0.6270 l
0.6777 0.6273 l
0.6787 0.6276 l
0.6797 0.6280 l
0.6808 0.6283 l
0.6819 0.6286 l
0.6830 0.6289 l
0.6842 0.6293 l
0.6854 0.6296 l
0.6866 0.6299 l
0.6878 0.6303 l
0.6890 0.6306 l
0.6903 0.6309 l
0.6916 0.6313 l
0.6929 0.6316 l
0.6943 0.6319 l
0.6956 0.6323 l
0.6970 0.6326 l
0.6985 0.6329 l
0.6999 0.6332 l
0.7014 0.6336 l
0.7029 0.6339 l
0.7045 0.6342 l
0.7060 0.6345 l
0.7076 0.6349 l
0.7092 0.6352 l
0.7109 0.6355 l
0.7126 0.6358 l
0.7143 0.6361 l
0.7160 0.6364 l
0.7178 0.6367 l
0.7196 0.6370 l
0.7214 0.6373 l
0.7233 0.6376 l
0.7252 0.6379 l
0.7271 0.6381 l
0.7290 0.6384 l
0.7310 0.6387 l
0.7330 0.6390 l
0.7351 0.6392 l
0.7372 0.6395 l
0.7393 0.6397 l
0.7414 0.6399 l
0.7436 0.6402 l
0.7458 0.6404 l
0.7480 0.6406 l
0.7503 0.6408 l
0.7526 0.6411 l
0.7550 0.6413 l
0.7574 0.6414 l
0.7598 0.6416 l
0.7622 0.6418 l
0.7647 0.6420 l
0.7672 0.6421 l
0.7698 0.6423 l
0.7724 0.6425 l
0.7750 0.6426 l
0.7777 0.6427 l
0.7804 0.6429 l
0.7831 0.6430 l
0.7859 0.6431 l
0.7887 0.6432 l
0.7916 0.6433 l
0.7944 0.6433 l
0.7974 0.6434 l
0.8003 0.6435 l
0.8033 0.6435 l
0.8064 0.6436 l
0.8095 0.6436 l
0.8126 0.6437 l
0.8158 0.6437 l
0.8190 0.6437 l
0.8222 0.6437 l
0.8255 0.6437 l
0.8288 0.6437 l
0.8322 0.6436 l
0.8356 0.6436 l
0.8390 0.6436 l
0.8425 0.6435 l
0.8461 0.6435 l
0.8496 0.6434 l
0.8533 0.6433 l
0.8569 0.6432 l
0.8606 0.6431 l
0.8644 0.6430 l
0.8682 0.6429 l
0.8720 0.6428 l
0.8759 0.6427 l
0.8798 0.6425 l
0.8838 0.6424 l
0.8878 0.6422 l
0.8918 0.6421 l
0.8959 0.6419 l
0.9001 0.6417 l
0.9043 0.6415 l
0.9085 0.6413 l
0.9128 0.6411 l
0.9171 0.6409 l
0.9215 0.6407 l
0.9259 0.6405 l
0.9304 0.6403 l
0.9349 0.6400 l
0.9395 0.6398 l
0.9441 0.6396 l
0.9488 0.6393 l
0.9535 0.6390 l
0.9583 0.6388 l
0.9631 0.6385 l
0.9679 0.6382 l
0.9728 0.6380 l
0.9778 0.6377 l
0.9828 0.6376 l
0.9879 0.6371 l
0.9930 0.6368 l
0.9981 0.6365 l
1.0034 0.6362 l
1.0086 0.6359 l
1.0139 0.6356 l
1.0193 0.6353 l
1.0247 0.6350 l
1.0302 0.6346 l
1.0357 0.6343 l
1.0413 0.6340 l
1.0469 0.6337 l
1.0526 0.6334 l
1.0584 0.6331 l
1.0642 0.6327 l
1.0700 0.6324 l
1.0759 0.6321 l
1.0819 0.6318 l
1.0879 0.6315 l
1.0939 0.6312 l
1.1001 0.6308 l
1.1062 0.6305 l
1.1125 0.6302 l
1.1188 0.6299 l
1.1251 0.6296 l
1.1315 0.6293 l
1.1380 0.6290 l
1.1442 0.6288 l
s
[/DeviceRGB] SCS
Color1 SC
[] 0 SD
0.0045 SLW
n
0.6471 0.5000 m
1.1441 0.5000 l
s
n
0.6471 0.8500 m
1.1441 0.8500 l
s
n
0.7092 0.5000 m
0.7092 0.5100 l
s
n
0.7092 0.8500 m
0.7092 0.8400 l
s
n
0.8335 0.5000 m
0.8335 0.5100 l
s
n
0.8335 0.8500 m
0.8335 0.8400 l
s
n
0.9577 0.5000 m
0.9577 0.5100 l
s
n
0.9577 0.8500 m
0.9577 0.8400 l
s
n
1.0820 0.5000 m
1.0820 0.5100 l
s
n
1.0820 0.8500 m
1.0820 0.8400 l
s
n
0.6471 0.5000 m
0.6471 0.5200 l
s
n
0.6471 0.8500 m
0.6471 0.8300 l
s
n
0.7713 0.5000 m
0.7713 0.5200 l
s
n
0.7713 0.8500 m
0.7713 0.8300 l
s
n
0.8956 0.5000 m
0.8956 0.5200 l
s
n
0.8956 0.8500 m
0.8956 0.8300 l
s
n
1.0199 0.5000 m
1.0199 0.5200 l
s
n
1.0199 0.8500 m
1.0199 0.8300 l
s
n
1.1441 0.5000 m
1.1441 0.5200 l
s
n
1.1441 0.8500 m
1.1441 0.8300 l
s
n
0.6471 0.5000 m
0.6471 0.8500 l
s
n
1.1441 0.5000 m
1.1441 0.8500 l
s
n
0.6471 0.5000 m
0.6571 0.5000 l
s
n
1.1441 0.5000 m
1.1341 0.5000 l
s
n
0.6471 0.5467 m
0.6571 0.5467 l
s
n
1.1441 0.5467 m
1.1341 0.5467 l
s
n
0.6471 0.5933 m
0.6571 0.5933 l
s
n
1.1441 0.5933 m
1.1341 0.5933 l
s
n
0.6471 0.6400 m
0.6571 0.6400 l
s
n
1.1441 0.6400 m
1.1341 0.6400 l
s
n
0.6471 0.6867 m
0.6571 0.6867 l
s
n
1.1441 0.6867 m
1.1341 0.6867 l
s
n
0.6471 0.7333 m
0.6571 0.7333 l
s
n
1.1441 0.7333 m
1.1341 0.7333 l
s
n
0.6471 0.7800 m
0.6571 0.7800 l
s
n
1.1441 0.7800 m
1.1341 0.7800 l
s
n
0.6471 0.8267 m
0.6571 0.8267 l
s
n
1.1441 0.8267 m
1.1341 0.8267 l
s
n
0.6471 0.5233 m
0.6671 0.5233 l
s
n
1.1441 0.5233 m
1.1241 0.5233 l
s
n
0.6471 0.5700 m
0.6671 0.5700 l
s
n
1.1441 0.5700 m
1.1241 0.5700 l
s
n
0.6471 0.6167 m
0.6671 0.6167 l
s
n
1.1441 0.6167 m
1.1241 0.6167 l
s
n
0.6471 0.6633 m
0.6671 0.6633 l
s
n
1.1441 0.6633 m
1.1241 0.6633 l
s
n
0.6471 0.7100 m
0.6671 0.7100 l
s
n
1.1441 0.7100 m
1.1241 0.7100 l
s
n
0.6471 0.7567 m
0.6671 0.7567 l
s
n
1.1441 0.7567 m
1.1241 0.7567 l
s
n
0.6471 0.8033 m
0.6671 0.8033 l
s
n
1.1441 0.8033 m
1.1241 0.8033 l
s
n
0.6471 0.8500 m
0.6671 0.8500 l
s
n
1.1441 0.8500 m
1.1241 0.8500 l
s
/Font0 FFSF
1.1541 0.5080 m
GS
[0.0448 0.0000 0.0000 0.0448 0 0] CC
(-4) show
GR
/Font0 FFSF
1.1541 0.5547 m
GS
[0.0448 0.0000 0.0000 0.0448 0 0] CC
(-2) show
GR
/Font0 FFSF
1.1541 0.6018 m
GS
[0.0448 0.0000 0.0000 0.0448 0 0] CC
(0) show
GR
/Font0 FFSF
1.1541 0.6480 m
GS
[0.0448 0.0000 0.0000 0.0448 0 0] CC
(2) show
GR
/Font0 FFSF
1.1541 0.6947 m
GS
[0.0448 0.0000 0.0000 0.0448 0 0] CC
(4) show
GR
/Font0 FFSF
1.1541 0.7418 m
GS
[0.0448 0.0000 0.0000 0.0448 0 0] CC
(6) show
GR
/Font0 FFSF
1.1541 0.7884 m
GS
[0.0448 0.0000 0.0000 0.0448 0 0] CC
(8) show
GR
/Font0 FFSF
1.1541 0.8351 m
GS
[0.0448 0.0000 0.0000 0.0448 0 0] CC
(10) show
GR
/Font0 FFSF
1.2390 0.5795 m
GS
[0.0000 0.0459 -0.0459 0.0000 0 0] CC
(\(S=1,T=1\)) show
GR
[] 0 SD
0.0015 SLW
n
0.6471 0.5000 m
0.6471 0.8500 l
1.1441 0.8500 l
1.1441 0.5000 l
0.6471 0.5000 l
c
s
n
0.6470 0.8500 m
0.6470 0.7392 l
0.9485 0.7392 l
0.9485 0.8500 l
c
[/DeviceRGB] SCS
Color0 SC
fill
[/DeviceRGB] SCS
Color1 SC
[] 0 SD
0.0045 SLW
n
0.6470 0.8500 m
0.6470 0.7392 l
0.9485 0.7392 l
0.9485 0.8500 l
0.6470 0.8500 l
c
s
/Font0 FFSF
0.7189 0.8051 m
GS
[0.0510 0.0000 0.0000 0.0510 0 0] CC
(Full) show
GR
[] 0 SD
0.0037 SLW
n
0.6589 0.8224 m
0.6989 0.8224 l
s
/Font0 FFSF
0.7189 0.7602 m
GS
[0.0510 0.0000 0.0000 0.0510 0 0] CC
(Eqs. 39-42) show
GR
[/DeviceRGB] SCS
Color2 SC
[0.0187 0.0112 ] 0 SD
0.0037 SLW
n
0.6589 0.7720 m
0.6989 0.7720 l
s
[/DeviceRGB] SCS
Color1 SC
[] 0 SD
0.0037 SLW
n
0.1500 0.3000 m
0.1500 0.3000 l
0.1500 0.3000 l
0.1500 0.3000 l
0.1500 0.3000 l
0.1500 0.3000 l
0.1500 0.2999 l
0.1500 0.2999 l
0.1500 0.2999 l
0.1500 0.2998 l
0.1501 0.2998 l
0.1501 0.2997 l
0.1501 0.2997 l
0.1501 0.2996 l
0.1501 0.2995 l
0.1502 0.2994 l
0.1502 0.2992 l
0.1502 0.2991 l
0.1503 0.2990 l
0.1503 0.2988 l
0.1504 0.2986 l
0.1504 0.2984 l
0.1505 0.2982 l
0.1506 0.2979 l
0.1507 0.2977 l
0.1507 0.2974 l
0.1508 0.2971 l
0.1509 0.2968 l
0.1510 0.2965 l
0.1511 0.2961 l
0.1512 0.2957 l
0.1514 0.2953 l
0.1515 0.2949 l
0.1516 0.2945 l
0.1518 0.2940 l
0.1520 0.2935 l
0.1521 0.2930 l
0.1523 0.2924 l
0.1525 0.2919 l
0.1527 0.2913 l
0.1529 0.2907 l
0.1531 0.2900 l
0.1533 0.2894 l
0.1536 0.2887 l
0.1538 0.2880 l
0.1541 0.2872 l
0.1544 0.2865 l
0.1546 0.2857 l
0.1549 0.2849 l
0.1552 0.2840 l
0.1556 0.2832 l
0.1559 0.2823 l
0.1563 0.2814 l
0.1566 0.2804 l
0.1570 0.2795 l
0.1574 0.2785 l
0.1578 0.2775 l
0.1582 0.2764 l
0.1586 0.2753 l
0.1591 0.2742 l
0.1595 0.2731 l
0.1600 0.2720 l
0.1605 0.2708 l
0.1610 0.2696 l
0.1615 0.2684 l
0.1621 0.2672 l
0.1626 0.2659 l
0.1632 0.2647 l
0.1638 0.2634 l
0.1644 0.2620 l
0.1650 0.2607 l
0.1657 0.2593 l
0.1663 0.2579 l
0.1670 0.2565 l
0.1677 0.2551 l
0.1684 0.2537 l
0.1692 0.2522 l
0.1699 0.2507 l
0.1707 0.2492 l
0.1715 0.2477 l
0.1723 0.2462 l
0.1731 0.2446 l
0.1740 0.2431 l
0.1749 0.2415 l
0.1758 0.2399 l
0.1767 0.2383 l
0.1776 0.2367 l
0.1786 0.2350 l
0.1796 0.2334 l
0.1806 0.2318 l
0.1816 0.2301 l
0.1827 0.2284 l
0.1838 0.2268 l
0.1849 0.2251 l
0.1860 0.2234 l
0.1871 0.2217 l
0.1883 0.2200 l
0.1895 0.2183 l
0.1907 0.2166 l
0.1920 0.2149 l
0.1932 0.2132 l
0.1945 0.2115 l
0.1959 0.2098 l
0.1972 0.2081 l
0.1986 0.2064 l
0.2000 0.2048 l
0.2014 0.2031 l
0.2029 0.2014 l
0.2044 0.1997 l
0.2059 0.1981 l
0.2074 0.1964 l
0.2090 0.1948 l
0.2106 0.1932 l
0.2122 0.1916 l
0.2138 0.1900 l
0.2155 0.1884 l
0.2172 0.1868 l
0.2190 0.1853 l
0.2207 0.1838 l
0.2225 0.1823 l
0.2243 0.1808 l
0.2262 0.1793 l
0.2281 0.1779 l
0.2300 0.1765 l
0.2320 0.1751 l
0.2340 0.1738 l
0.2360 0.1725 l
0.2380 0.1712 l
0.2401 0.1699 l
0.2422 0.1687 l
0.2443 0.1676 l
0.2465 0.1664 l
0.2487 0.1653 l
0.2510 0.1643 l
0.2533 0.1632 l
0.2556 0.1623 l
0.2579 0.1613 l
0.2603 0.1604 l
0.2627 0.1596 l
0.2652 0.1588 l
0.2676 0.1581 l
0.2702 0.1574 l
0.2727 0.1568 l
0.2753 0.1562 l
0.2779 0.1557 l
0.2806 0.1553 l
0.2833 0.1549 l
0.2861 0.1546 l
0.2888 0.1543 l
0.2916 0.1541 l
0.2945 0.1540 l
0.2974 0.1539 l
0.3003 0.1539 l
0.3033 0.1540 l
0.3063 0.1542 l
0.3093 0.1544 l
0.3124 0.1548 l
0.3155 0.1552 l
0.3187 0.1556 l
0.3219 0.1562 l
0.3251 0.1569 l
0.3284 0.1576 l
0.3318 0.1585 l
0.3351 0.1594 l
0.3385 0.1604 l
0.3420 0.1615 l
0.3455 0.1627 l
0.3490 0.1641 l
0.3526 0.1655 l
0.3562 0.1670 l
0.3599 0.1686 l
0.3636 0.1704 l
0.3673 0.1722 l
0.3711 0.1742 l
0.3749 0.1762 l
0.3788 0.1784 l
0.3827 0.1807 l
0.3867 0.1832 l
0.3907 0.1857 l
0.3948 0.1884 l
0.3989 0.1912 l
0.4030 0.1941 l
0.4072 0.1972 l
0.4114 0.2004 l
0.4157 0.2037 l
0.4201 0.2072 l
0.4244 0.2108 l
0.4289 0.2146 l
0.4333 0.2185 l
0.4379 0.2225 l
0.4424 0.2267 l
0.4470 0.2311 l
0.4517 0.2356 l
0.4564 0.2402 l
0.4612 0.2451 l
0.4660 0.2500 l
0.4709 0.2552 l
0.4758 0.2605 l
0.4807 0.2660 l
0.4858 0.2716 l
0.4908 0.2774 l
0.4959 0.2834 l
0.5011 0.2896 l
0.5063 0.2960 l
0.5116 0.3025 l
0.5169 0.3092 l
0.5223 0.3161 l
0.5277 0.3232 l
0.5331 0.3305 l
0.5387 0.3380 l
0.5443 0.3457 l
0.5499 0.3536 l
0.5556 0.3617 l
0.5613 0.3700 l
0.5671 0.3785 l
0.5729 0.3872 l
0.5789 0.3961 l
0.5848 0.4053 l
0.5908 0.4147 l
0.5969 0.4242 l
0.6030 0.4341 l
0.6092 0.4441 l
0.6154 0.4544 l
0.6217 0.4649 l
0.6281 0.4756 l
0.6345 0.4866 l
0.6409 0.4978 l
0.6422 0.5001 l
s
[/DeviceRGB] SCS
Color2 SC
[0.0187 0.0112 ] 0 SD
0.0037 SLW
n
0.1500 0.3000 m
0.1500 0.3000 l
0.1500 0.3000 l
0.1500 0.3000 l
0.1500 0.3000 l
0.1500 0.3000 l
0.1500 0.2999 l
0.1500 0.2999 l
0.1500 0.2999 l
0.1500 0.2998 l
0.1501 0.2998 l
0.1501 0.2997 l
0.1501 0.2997 l
0.1501 0.2996 l
0.1501 0.2995 l
0.1502 0.2994 l
0.1502 0.2992 l
0.1502 0.2991 l
0.1503 0.2990 l
0.1503 0.2988 l
0.1504 0.2986 l
0.1504 0.2984 l
0.1505 0.2982 l
0.1506 0.2979 l
0.1507 0.2977 l
0.1507 0.2974 l
0.1508 0.2971 l
0.1509 0.2968 l
0.1510 0.2965 l
0.1511 0.2961 l
0.1513 0.2957 l
0.1514 0.2953 l
0.1515 0.2949 l
0.1516 0.2945 l
0.1518 0.2940 l
0.1520 0.2935 l
0.1521 0.2930 l
0.1523 0.2925 l
0.1525 0.2919 l
0.1527 0.2913 l
0.1529 0.2907 l
0.1531 0.2900 l
0.1533 0.2894 l
0.1536 0.2887 l
0.1538 0.2880 l
0.1541 0.2873 l
0.1544 0.2865 l
0.1546 0.2857 l
0.1549 0.2849 l
0.1552 0.2840 l
0.1556 0.2832 l
0.1559 0.2823 l
0.1562 0.2814 l
0.1566 0.2804 l
0.1570 0.2795 l
0.1574 0.2785 l
0.1578 0.2775 l
0.1582 0.2764 l
0.1586 0.2754 l
0.1591 0.2743 l
0.1595 0.2731 l
0.1600 0.2720 l
0.1605 0.2708 l
0.1610 0.2697 l
0.1615 0.2685 l
0.1621 0.2672 l
0.1626 0.2660 l
0.1632 0.2647 l
0.1638 0.2634 l
0.1644 0.2621 l
0.1650 0.2607 l
0.1657 0.2594 l
0.1663 0.2580 l
0.1670 0.2566 l
0.1677 0.2552 l
0.1684 0.2537 l
0.1692 0.2523 l
0.1699 0.2508 l
0.1707 0.2493 l
0.1715 0.2478 l
0.1723 0.2463 l
0.1731 0.2447 l
0.1740 0.2432 l
0.1749 0.2416 l
0.1758 0.2400 l
0.1767 0.2385 l
0.1776 0.2369 l
0.1786 0.2352 l
0.1796 0.2336 l
0.1806 0.2320 l
0.1816 0.2304 l
0.1827 0.2287 l
0.1838 0.2271 l
0.1849 0.2254 l
0.1860 0.2237 l
0.1871 0.2221 l
0.1883 0.2204 l
0.1895 0.2187 l
0.1907 0.2171 l
0.1920 0.2154 l
0.1932 0.2137 l
0.1945 0.2120 l
0.1959 0.2104 l
0.1972 0.2087 l
0.1986 0.2071 l
0.2000 0.2054 l
0.2014 0.2038 l
0.2029 0.2021 l
0.2044 0.2005 l
0.2059 0.1989 l
0.2074 0.1973 l
0.2090 0.1957 l
0.2106 0.1941 l
0.2122 0.1926 l
0.2138 0.1911 l
0.2155 0.1895 l
0.2172 0.1880 l
0.2190 0.1865 l
0.2207 0.1851 l
0.2225 0.1837 l
0.2244 0.1822 l
0.2262 0.1809 l
0.2281 0.1795 l
0.2300 0.1782 l
0.2320 0.1769 l
0.2340 0.1756 l
0.2360 0.1744 l
0.2380 0.1732 l
0.2401 0.1720 l
0.2422 0.1709 l
0.2443 0.1698 l
0.2465 0.1688 l
0.2487 0.1678 l
0.2510 0.1669 l
0.2533 0.1659 l
0.2556 0.1651 l
0.2579 0.1643 l
0.2603 0.1635 l
0.2627 0.1628 l
0.2652 0.1622 l
0.2676 0.1616 l
0.2702 0.1610 l
0.2727 0.1605 l
0.2753 0.1601 l
0.2779 0.1597 l
0.2806 0.1595 l
0.2833 0.1592 l
0.2861 0.1591 l
0.2888 0.1590 l
0.2916 0.1590 l
0.2945 0.1590 l
0.2974 0.1591 l
0.3003 0.1593 l
0.3033 0.1596 l
0.3063 0.1600 l
0.3093 0.1604 l
0.3124 0.1610 l
0.3155 0.1616 l
0.3187 0.1623 l
0.3219 0.1631 l
0.3251 0.1640 l
0.3284 0.1650 l
0.3318 0.1661 l
0.3351 0.1672 l
0.3385 0.1685 l
0.3420 0.1699 l
0.3455 0.1714 l
0.3490 0.1730 l
0.3526 0.1747 l
0.3562 0.1765 l
0.3599 0.1785 l
0.3636 0.1805 l
0.3673 0.1827 l
0.3711 0.1850 l
0.3749 0.1874 l
0.3788 0.1899 l
0.3827 0.1925 l
0.3867 0.1953 l
0.3907 0.1983 l
0.3948 0.2013 l
0.3989 0.2045 l
0.4030 0.2078 l
0.4072 0.2113 l
0.4114 0.2149 l
0.4157 0.2186 l
0.4201 0.2225 l
0.4244 0.2266 l
0.4289 0.2308 l
0.4333 0.2351 l
0.4379 0.2397 l
0.4424 0.2443 l
0.4471 0.2492 l
0.4517 0.2542 l
0.4564 0.2593 l
0.4612 0.2647 l
0.4660 0.2702 l
0.4709 0.2759 l
0.4758 0.2817 l
0.4807 0.2878 l
0.4858 0.2940 l
0.4908 0.3004 l
0.4959 0.3070 l
0.5011 0.3138 l
0.5063 0.3207 l
0.5116 0.3279 l
0.5169 0.3353 l
0.5223 0.3429 l
0.5277 0.3506 l
0.5331 0.3586 l
0.5387 0.3668 l
0.5443 0.3752 l
0.5499 0.3838 l
0.5556 0.3927 l
0.5613 0.4017 l
0.5671 0.4110 l
0.5729 0.4205 l
0.5789 0.4302 l
0.5848 0.4402 l
0.5908 0.4504 l
0.5969 0.4608 l
0.6030 0.4715 l
0.6092 0.4824 l
0.6154 0.4936 l
0.6190 0.5001 l
s
[/DeviceRGB] SCS
Color1 SC
[] 0 SD
0.0045 SLW
n
0.1500 0.1500 m
0.6471 0.1500 l
s
n
0.2121 0.1500 m
0.2121 0.1600 l
s
n
0.3364 0.1500 m
0.3364 0.1600 l
s
n
0.4607 0.1500 m
0.4607 0.1600 l
s
n
0.5849 0.1500 m
0.5849 0.1600 l
s
n
0.1500 0.1500 m
0.1500 0.1700 l
s
n
0.2743 0.1500 m
0.2743 0.1700 l
s
n
0.3985 0.1500 m
0.3985 0.1700 l
s
n
0.5228 0.1500 m
0.5228 0.1700 l
s
/Font0 FFSF
0.1394 0.1094 m
GS
[0.0448 0.0000 0.0000 0.0448 0 0] CC
(0) show
GR
/Font0 FFSF
0.2468 0.1094 m
GS
[0.0448 0.0000 0.0000 0.0448 0 0] CC
(0.2) show
GR
/Font0 FFSF
0.3711 0.1094 m
GS
[0.0448 0.0000 0.0000 0.0448 0 0] CC
(0.4) show
GR
/Font0 FFSF
0.4955 0.1094 m
GS
[0.0448 0.0000 0.0000 0.0448 0 0] CC
(0.6) show
GR
/Symbol findfont
/Font12 exch definefont pop
/Font12 FFSF
0.5779 0.0503 m
GS
[0.0459 0.0000 0.0000 0.0459 0 0] CC
(r) show
GR
/Font0 FFSF
0.6030 0.0503 m
GS
[0.0459 0.0000 0.0000 0.0459 0 0] CC
( [fm) show
GR
/Font0 FFSF
0.6807 0.0779 m
GS
[0.0325 0.0000 0.0000 0.0325 0 0] CC
(-3) show
GR
/Font0 FFSF
0.7077 0.0503 m
GS
[0.0459 0.0000 0.0000 0.0459 0 0] CC
(]) show
GR
n
0.1500 0.1500 m
0.1500 0.5000 l
s
n
0.1500 0.1500 m
0.1600 0.1500 l
s
n
0.1500 0.2500 m
0.1600 0.2500 l
s
n
0.1500 0.3500 m
0.1600 0.3500 l
s
n
0.1500 0.4500 m
0.1600 0.4500 l
s
n
0.1500 0.2000 m
0.1700 0.2000 l
s
n
0.1500 0.3000 m
0.1700 0.3000 l
s
n
0.1500 0.4000 m
0.1700 0.4000 l
s
n
0.1500 0.5000 m
0.1700 0.5000 l
s
/Font0 FFSF
0.0816 0.1851 m
GS
[0.0448 0.0000 0.0000 0.0448 0 0] CC
(-20) show
GR
/Font0 FFSF
0.1188 0.2851 m
GS
[0.0448 0.0000 0.0000 0.0448 0 0] CC
(0) show
GR
/Font0 FFSF
0.0965 0.3851 m
GS
[0.0448 0.0000 0.0000 0.0448 0 0] CC
(20) show
GR
/Font0 FFSF
0.0965 0.4851 m
GS
[0.0448 0.0000 0.0000 0.0448 0 0] CC
(40) show
GR
/Font0 FFSF
0.0633 0.2295 m
GS
[0.0000 0.0459 -0.0459 0.0000 0 0] CC
(\(S=1,T=0\)) show
GR
[] 0 SD
0.0015 SLW
n
0.1500 0.1500 m
0.1500 0.5000 l
0.6471 0.5000 l
0.6471 0.1500 l
0.1500 0.1500 l
c
s
[] 0 SD
0.0037 SLW
n
0.6471 0.4650 m
0.6471 0.4650 l
0.6471 0.4650 l
0.6471 0.4650 l
0.6471 0.4650 l
0.6471 0.4650 l
0.6471 0.4650 l
0.6471 0.4650 l
0.6471 0.4649 l
0.6471 0.4649 l
0.6471 0.4649 l
0.6471 0.4648 l
0.6472 0.4648 l
0.6472 0.4647 l
0.6472 0.4647 l
0.6472 0.4646 l
0.6473 0.4645 l
0.6473 0.4644 l
0.6473 0.4644 l
0.6474 0.4642 l
0.6475 0.4641 l
0.6475 0.4640 l
0.6476 0.4639 l
0.6476 0.4637 l
0.6477 0.4636 l
0.6478 0.4634 l
0.6479 0.4632 l
0.6480 0.4630 l
0.6481 0.4628 l
0.6482 0.4626 l
0.6483 0.4623 l
0.6484 0.4621 l
0.6486 0.4618 l
0.6487 0.4615 l
0.6489 0.4612 l
0.6490 0.4609 l
0.6492 0.4605 l
0.6494 0.4602 l
0.6496 0.4598 l
0.6497 0.4594 l
0.6500 0.4590 l
0.6502 0.4586 l
0.6504 0.4582 l
0.6506 0.4577 l
0.6509 0.4573 l
0.6511 0.4568 l
0.6514 0.4562 l
0.6517 0.4557 l
0.6520 0.4552 l
0.6523 0.4546 l
0.6526 0.4540 l
0.6530 0.4534 l
0.6533 0.4528 l
0.6537 0.4522 l
0.6540 0.4515 l
0.6544 0.4508 l
0.6548 0.4501 l
0.6552 0.4494 l
0.6557 0.4486 l
0.6561 0.4479 l
0.6566 0.4471 l
0.6571 0.4463 l
0.6576 0.4455 l
0.6581 0.4446 l
0.6586 0.4438 l
0.6591 0.4429 l
0.6597 0.4420 l
0.6603 0.4410 l
0.6608 0.4401 l
0.6615 0.4391 l
0.6621 0.4381 l
0.6627 0.4371 l
0.6634 0.4361 l
0.6641 0.4351 l
0.6648 0.4340 l
0.6655 0.4329 l
0.6662 0.4318 l
0.6670 0.4307 l
0.6677 0.4295 l
0.6685 0.4283 l
0.6694 0.4271 l
0.6702 0.4259 l
0.6711 0.4247 l
0.6719 0.4234 l
0.6728 0.4222 l
0.6738 0.4209 l
0.6747 0.4196 l
0.6757 0.4182 l
0.6766 0.4169 l
0.6777 0.4155 l
0.6787 0.4141 l
0.6797 0.4127 l
0.6808 0.4113 l
0.6819 0.4098 l
0.6830 0.4084 l
0.6842 0.4069 l
0.6854 0.4054 l
0.6866 0.4039 l
0.6878 0.4023 l
0.6890 0.4008 l
0.6903 0.3992 l
0.6916 0.3976 l
0.6929 0.3960 l
0.6943 0.3944 l
0.6956 0.3927 l
0.6970 0.3911 l
0.6985 0.3894 l
0.6999 0.3877 l
0.7014 0.3860 l
0.7029 0.3842 l
0.7045 0.3825 l
0.7060 0.3807 l
0.7076 0.3790 l
0.7092 0.3772 l
0.7109 0.3754 l
0.7126 0.3735 l
0.7143 0.3717 l
0.7160 0.3699 l
0.7178 0.3680 l
0.7196 0.3661 l
0.7214 0.3642 l
0.7233 0.3623 l
0.7252 0.3604 l
0.7271 0.3585 l
0.7290 0.3565 l
0.7310 0.3546 l
0.7330 0.3526 l
0.7351 0.3506 l
0.7372 0.3486 l
0.7393 0.3466 l
0.7414 0.3446 l
0.7436 0.3426 l
0.7458 0.3406 l
0.7480 0.3385 l
0.7503 0.3365 l
0.7526 0.3344 l
0.7550 0.3323 l
0.7574 0.3302 l
0.7598 0.3281 l
0.7622 0.3260 l
0.7647 0.3239 l
0.7672 0.3218 l
0.7698 0.3197 l
0.7724 0.3176 l
0.7750 0.3154 l
0.7777 0.3133 l
0.7804 0.3111 l
0.7831 0.3090 l
0.7859 0.3068 l
0.7887 0.3046 l
0.7916 0.3025 l
0.7944 0.3003 l
0.7974 0.2981 l
0.8003 0.2959 l
0.8033 0.2937 l
0.8064 0.2915 l
0.8095 0.2894 l
0.8126 0.2872 l
0.8158 0.2850 l
0.8190 0.2828 l
0.8222 0.2805 l
0.8255 0.2783 l
0.8288 0.2761 l
0.8322 0.2739 l
0.8356 0.2717 l
0.8390 0.2695 l
0.8425 0.2673 l
0.8461 0.2651 l
0.8496 0.2629 l
0.8533 0.2607 l
0.8569 0.2585 l
0.8606 0.2563 l
0.8644 0.2541 l
0.8682 0.2519 l
0.8720 0.2497 l
0.8759 0.2475 l
0.8798 0.2454 l
0.8838 0.2432 l
0.8878 0.2410 l
0.8918 0.2389 l
0.8959 0.2367 l
0.9001 0.2345 l
0.9043 0.2324 l
0.9085 0.2303 l
0.9128 0.2281 l
0.9171 0.2260 l
0.9215 0.2239 l
0.9259 0.2218 l
0.9304 0.2197 l
0.9349 0.2176 l
0.9395 0.2155 l
0.9441 0.2134 l
0.9488 0.2114 l
0.9535 0.2093 l
0.9583 0.2073 l
0.9631 0.2053 l
0.9679 0.2032 l
0.9728 0.2012 l
0.9778 0.1993 l
0.9828 0.1973 l
0.9879 0.1953 l
0.9930 0.1934 l
0.9981 0.1914 l
1.0034 0.1895 l
1.0086 0.1876 l
1.0139 0.1857 l
1.0193 0.1839 l
1.0247 0.1820 l
1.0302 0.1802 l
1.0357 0.1784 l
1.0413 0.1766 l
1.0469 0.1748 l
1.0526 0.1730 l
1.0584 0.1713 l
1.0642 0.1696 l
1.0700 0.1679 l
1.0759 0.1662 l
1.0819 0.1645 l
1.0879 0.1629 l
1.0939 0.1613 l
1.1001 0.1597 l
1.1062 0.1581 l
1.1125 0.1566 l
1.1188 0.1550 l
1.1251 0.1535 l
1.1315 0.1521 l
1.1380 0.1506 l
1.1413 0.1499 l
s
[/DeviceRGB] SCS
Color2 SC
[0.0187 0.0112 ] 0 SD
0.0037 SLW
n
0.6471 0.4650 m
0.6471 0.4650 l
0.6471 0.4650 l
0.6471 0.4650 l
0.6471 0.4650 l
0.6471 0.4650 l
0.6471 0.4650 l
0.6471 0.4650 l
0.6471 0.4649 l
0.6471 0.4649 l
0.6471 0.4649 l
0.6471 0.4648 l
0.6472 0.4648 l
0.6472 0.4647 l
0.6472 0.4647 l
0.6472 0.4646 l
0.6473 0.4645 l
0.6473 0.4644 l
0.6473 0.4644 l
0.6474 0.4642 l
0.6474 0.4641 l
0.6475 0.4640 l
0.6476 0.4639 l
0.6476 0.4637 l
0.6477 0.4636 l
0.6478 0.4634 l
0.6479 0.4632 l
0.6480 0.4630 l
0.6481 0.4628 l
0.6482 0.4626 l
0.6483 0.4623 l
0.6484 0.4621 l
0.6486 0.4618 l
0.6487 0.4615 l
0.6489 0.4612 l
0.6490 0.4609 l
0.6492 0.4605 l
0.6494 0.4602 l
0.6495 0.4598 l
0.6497 0.4594 l
0.6500 0.4590 l
0.6502 0.4586 l
0.6504 0.4582 l
0.6506 0.4577 l
0.6509 0.4573 l
0.6511 0.4568 l
0.6514 0.4563 l
0.6517 0.4557 l
0.6520 0.4552 l
0.6523 0.4546 l
0.6526 0.4540 l
0.6530 0.4534 l
0.6533 0.4528 l
0.6537 0.4522 l
0.6540 0.4515 l
0.6544 0.4508 l
0.6548 0.4501 l
0.6552 0.4494 l
0.6557 0.4487 l
0.6561 0.4479 l
0.6566 0.4471 l
0.6571 0.4463 l
0.6576 0.4455 l
0.6581 0.4447 l
0.6586 0.4438 l
0.6591 0.4429 l
0.6597 0.4420 l
0.6603 0.4411 l
0.6608 0.4402 l
0.6615 0.4392 l
0.6621 0.4382 l
0.6627 0.4372 l
0.6634 0.4362 l
0.6641 0.4352 l
0.6648 0.4341 l
0.6655 0.4330 l
0.6662 0.4319 l
0.6670 0.4308 l
0.6678 0.4296 l
0.6685 0.4285 l
0.6694 0.4273 l
0.6702 0.4261 l
0.6711 0.4249 l
0.6719 0.4237 l
0.6728 0.4224 l
0.6738 0.4211 l
0.6747 0.4198 l
0.6757 0.4185 l
0.6766 0.4172 l
0.6777 0.4158 l
0.6787 0.4145 l
0.6797 0.4131 l
0.6808 0.4117 l
0.6819 0.4103 l
0.6830 0.4088 l
0.6842 0.4074 l
0.6854 0.4059 l
0.6866 0.4044 l
0.6878 0.4029 l
0.6890 0.4014 l
0.6903 0.3999 l
0.6916 0.3983 l
0.6929 0.3968 l
0.6943 0.3952 l
0.6956 0.3936 l
0.6970 0.3920 l
0.6985 0.3903 l
0.6999 0.3887 l
0.7014 0.3870 l
0.7029 0.3854 l
0.7045 0.3837 l
0.7060 0.3820 l
0.7076 0.3803 l
0.7092 0.3786 l
0.7109 0.3768 l
0.7126 0.3751 l
0.7143 0.3734 l
0.7160 0.3716 l
0.7178 0.3698 l
0.7196 0.3680 l
0.7214 0.3662 l
0.7233 0.3644 l
0.7252 0.3626 l
0.7271 0.3608 l
0.7290 0.3589 l
0.7310 0.3571 l
0.7330 0.3552 l
0.7351 0.3534 l
0.7372 0.3515 l
0.7393 0.3496 l
0.7414 0.3478 l
0.7436 0.3459 l
0.7458 0.3440 l
0.7480 0.3421 l
0.7503 0.3402 l
0.7526 0.3383 l
0.7550 0.3364 l
0.7574 0.3344 l
0.7598 0.3325 l
0.7622 0.3306 l
0.7647 0.3287 l
0.7672 0.3267 l
0.7698 0.3248 l
0.7724 0.3229 l
0.7750 0.3209 l
0.7777 0.3190 l
0.7804 0.3171 l
0.7831 0.3151 l
0.7859 0.3132 l
0.7887 0.3113 l
0.7916 0.3093 l
0.7944 0.3074 l
0.7974 0.3055 l
0.8003 0.3036 l
0.8033 0.3017 l
0.8064 0.2997 l
0.8095 0.2978 l
0.8126 0.2959 l
0.8158 0.2940 l
0.8190 0.2921 l
0.8222 0.2902 l
0.8255 0.2884 l
0.8288 0.2865 l
0.8322 0.2846 l
0.8356 0.2827 l
0.8390 0.2809 l
0.8425 0.2791 l
0.8461 0.2772 l
0.8496 0.2754 l
0.8533 0.2736 l
0.8569 0.2718 l
0.8606 0.2700 l
0.8644 0.2682 l
0.8682 0.2665 l
0.8720 0.2647 l
0.8759 0.2630 l
0.8798 0.2613 l
0.8838 0.2596 l
0.8878 0.2579 l
0.8918 0.2562 l
0.8959 0.2545 l
0.9001 0.2529 l
0.9043 0.2513 l
0.9085 0.2497 l
0.9128 0.2481 l
0.9171 0.2465 l
0.9215 0.2450 l
0.9259 0.2434 l
0.9304 0.2419 l
0.9349 0.2404 l
0.9395 0.2390 l
0.9441 0.2375 l
0.9488 0.2361 l
0.9535 0.2347 l
0.9583 0.2334 l
0.9631 0.2320 l
0.9679 0.2307 l
0.9728 0.2294 l
0.9778 0.2282 l
0.9828 0.2270 l
0.9879 0.2257 l
0.9930 0.2245 l
0.9981 0.2234 l
1.0034 0.2223 l
1.0086 0.2212 l
1.0139 0.2201 l
1.0193 0.2191 l
1.0247 0.2181 l
1.0302 0.2172 l
1.0357 0.2162 l
1.0413 0.2153 l
1.0469 0.2145 l
1.0526 0.2137 l
1.0584 0.2129 l
1.0642 0.2121 l
1.0700 0.2114 l
1.0759 0.2108 l
1.0819 0.2101 l
1.0879 0.2095 l
1.0939 0.2090 l
1.1001 0.2085 l
1.1062 0.2080 l
1.1125 0.2076 l
1.1188 0.2072 l
1.1251 0.2069 l
1.1315 0.2066 l
1.1380 0.2064 l
1.1442 0.2062 l
s
[/DeviceRGB] SCS
Color1 SC
[] 0 SD
0.0045 SLW
n
0.6471 0.1500 m
1.1441 0.1500 l
s
n
0.7092 0.1500 m
0.7092 0.1600 l
s
n
0.8335 0.1500 m
0.8335 0.1600 l
s
n
0.9577 0.1500 m
0.9577 0.1600 l
s
n
1.0820 0.1500 m
1.0820 0.1600 l
s
n
0.6471 0.1500 m
0.6471 0.1700 l
s
n
0.7713 0.1500 m
0.7713 0.1700 l
s
n
0.8956 0.1500 m
0.8956 0.1700 l
s
n
1.0199 0.1500 m
1.0199 0.1700 l
s
n
1.1441 0.1500 m
1.1441 0.1700 l
s
/Font0 FFSF
0.6365 0.1094 m
GS
[0.0448 0.0000 0.0000 0.0448 0 0] CC
(0) show
GR
/Font0 FFSF
0.7439 0.1094 m
GS
[0.0448 0.0000 0.0000 0.0448 0 0] CC
(0.2) show
GR
/Font0 FFSF
0.8681 0.1094 m
GS
[0.0448 0.0000 0.0000 0.0448 0 0] CC
(0.4) show
GR
/Font0 FFSF
0.9926 0.1094 m
GS
[0.0448 0.0000 0.0000 0.0448 0 0] CC
(0.6) show
GR
/Font0 FFSF
1.1173 0.1094 m
GS
[0.0448 0.0000 0.0000 0.0448 0 0] CC
(0.8) show
GR
n
0.6471 0.1500 m
0.6471 0.5000 l
s
n
1.1441 0.1500 m
1.1441 0.5000 l
s
n
0.6471 0.1500 m
0.6571 0.1500 l
s
n
1.1441 0.1500 m
1.1341 0.1500 l
s
n
0.6471 0.2200 m
0.6571 0.2200 l
s
n
1.1441 0.2200 m
1.1341 0.2200 l
s
n
0.6471 0.2900 m
0.6571 0.2900 l
s
n
1.1441 0.2900 m
1.1341 0.2900 l
s
n
0.6471 0.3600 m
0.6571 0.3600 l
s
n
1.1441 0.3600 m
1.1341 0.3600 l
s
n
0.6471 0.4300 m
0.6571 0.4300 l
s
n
1.1441 0.4300 m
1.1341 0.4300 l
s
n
0.6471 0.5000 m
0.6571 0.5000 l
s
n
1.1441 0.5000 m
1.1341 0.5000 l
s
n
0.6471 0.1850 m
0.6671 0.1850 l
s
n
1.1441 0.1850 m
1.1241 0.1850 l
s
n
0.6471 0.2550 m
0.6671 0.2550 l
s
n
1.1441 0.2550 m
1.1241 0.2550 l
s
n
0.6471 0.3250 m
0.6671 0.3250 l
s
n
1.1441 0.3250 m
1.1241 0.3250 l
s
n
0.6471 0.3950 m
0.6671 0.3950 l
s
n
1.1441 0.3950 m
1.1241 0.3950 l
s
n
0.6471 0.4650 m
0.6671 0.4650 l
s
n
1.1441 0.4650 m
1.1241 0.4650 l
s
/Font0 FFSF
1.1541 0.1701 m
GS
[0.0448 0.0000 0.0000 0.0448 0 0] CC
(-40) show
GR
/Font0 FFSF
1.1541 0.2401 m
GS
[0.0448 0.0000 0.0000 0.0448 0 0] CC
(-30) show
GR
/Font0 FFSF
1.1541 0.3101 m
GS
[0.0448 0.0000 0.0000 0.0448 0 0] CC
(-20) show
GR
/Font0 FFSF
1.1541 0.3801 m
GS
[0.0448 0.0000 0.0000 0.0448 0 0] CC
(-10) show
GR
/Font0 FFSF
1.1541 0.4501 m
GS
[0.0448 0.0000 0.0000 0.0448 0 0] CC
(0) show
GR
/Font0 FFSF
1.2539 0.2295 m
GS
[0.0000 0.0459 -0.0459 0.0000 0 0] CC
(\(S=0,T=1\)) show
GR
[] 0 SD
0.0015 SLW
n
0.6471 0.1500 m
0.6471 0.5000 l
1.1441 0.5000 l
1.1441 0.1500 l
0.6471 0.1500 l
c
s
showpage
%%PageTrailer
%%Trailer
%%DocumentNeededResources: font Times-Roman
%%+ font Symbol
%%EOF
