%!PS-Adobe-3.0
%%BoundingBox: 0 0 612 792
%%LanguageLevel: 2
%%Creator: Grace-5.1.25
%%CreationDate: Tue Dec  1 11:19:43 2015
%%DocumentData: Clean8Bit
%%Orientation: Landscape
%%Pages: 1
%%PageOrder: Ascend
%%Title: /Users/ap1450/Dropbox/Physics_Reports_LR/ST_channel_finite_range/Vers2/plots/JLS_gogny3.agr
%%For: ap1450
%%DocumentNeededResources: (atend)
%%EndComments
%%BeginProlog
/PAGE_OFFSET_X 0 def
/PAGE_OFFSET_Y 0 def
/m {moveto} def
/l {lineto} def
/s {stroke} def
/n {newpath} def
/c {closepath} def
/RL {rlineto} def
/SLW {setlinewidth} def
/GS {gsave} def
/GR {grestore} def
/SC {setcolor} def
/SGRY {setgray} def
/SRGB {setrgbcolor} def
/SD {setdash} def
/SLC {setlinecap} def
/SLJ {setlinejoin} def
/SCS {setcolorspace} def
/FFSF {findfont setfont} def
/CC {concat} def
/PXL {n m 0 0 RL s} def
/Color0 {1.0000 1.0000 1.0000} def
/Color1 {0.0000 0.0000 0.0000} def
/Color2 {1.0000 0.0000 0.0000} def
/Color3 {0.0000 1.0000 0.0000} def
/Color4 {0.0000 0.0000 1.0000} def
/Color5 {1.0000 1.0000 0.0000} def
/Color6 {0.7373 0.5608 0.5608} def
/Color7 {0.8627 0.8627 0.8627} def
/Color8 {0.5804 0.0000 0.8275} def
/Color9 {0.0000 1.0000 1.0000} def
/Color10 {1.0000 0.0000 1.0000} def
/Color11 {1.0000 0.6471 0.0000} def
/Color12 {0.4471 0.1294 0.7373} def
/Color13 {0.4039 0.0275 0.2824} def
/Color14 {0.2510 0.8784 0.8157} def
/Color15 {0.0000 0.5451 0.0000} def
/Color16 {0.7529 0.7529 0.7529} def
/Color17 {0.5059 0.5059 0.5059} def
/Color18 {0.2588 0.2588 0.2588} def
/PTRN {
 /pat_bits exch def 
 <<
  /PaintType 2
  /PatternType 1 /TilingType 1
  /BBox[0 0 16 16]
  /XStep 16 /YStep 16
  /PaintProc {
   pop
   16 16 true [-1 0 0 -1 16 16] pat_bits imagemask
  }
 >>
 [0.0016 0 0 0.0016 0 0]
 makepattern
} def
/Pattern0 {<0000000000000000000000000000000000000000000000000000000000000000> PTRN} bind def
/Pattern1 {<ffffffffffffffffffffffffffffffffffffffffffffffffffffffffffffffff> PTRN} bind def
/Pattern2 {<eeeeffffbbbbffffeeeeffffbbbbffffeeeeffffbbbbffffeeeeffffbbbbffff> PTRN} bind def
/Pattern3 {<eeeebbbbeeeebbbbeeeebbbbeeeebbbbeeeebbbbeeeebbbbeeeebbbbeeeebbbb> PTRN} bind def
/Pattern4 {<5555aaaa5555aaaa5555aaaa5555aaaa5555aaaa5555aaaa5555aaaa5555aaaa> PTRN} bind def
/Pattern5 {<1111444411114444111144441111444411114444111144441111444411114444> PTRN} bind def
/Pattern6 {<1111000044440000111100004444000011110000444400001111000044440000> PTRN} bind def
/Pattern7 {<1010000000000000010100000000000010100000000000000101000000000000> PTRN} bind def
/Pattern8 {<0000000000000000000000000000000000000000000000000000000000000000> PTRN} bind def
/Pattern9 {<1e1e0f0f8787c3c3e1e1f0f078783c3c1e1e0f0f8787c3c3e1e1f0f078783c3c> PTRN} bind def
/Pattern10 {<7878f0f0e1e1c3c387870f0f1e1e3c3c7878f0f0e1e1c3c387870f0f1e1e3c3c> PTRN} bind def
/Pattern11 {<3333333333333333333333333333333333333333333333333333333333333333> PTRN} bind def
/Pattern12 {<ffffffff00000000ffffffff00000000ffffffff00000000ffffffff00000000> PTRN} bind def
/Pattern13 {<8181424224241818181824244242818181814242242418181818242442428181> PTRN} bind def
/Pattern14 {<8080404020201010080804040202010180804040202010100808040402020101> PTRN} bind def
/Pattern15 {<0101020204040808101020204040808001010202040408081010202040408080> PTRN} bind def
/Pattern16 {<2222222222222222222222222222222222222222222222222222222222222222> PTRN} bind def
/Pattern17 {<0000ffff000000000000ffff000000000000ffff000000000000ffff00000000> PTRN} bind def
/Pattern18 {<2222ffff222222222222ffff222222222222ffff222222222222ffff22222222> PTRN} bind def
/Pattern19 {<ffffffff33333333ffffffff33333333ffffffff33333333ffffffff33333333> PTRN} bind def
/Pattern20 {<0f0f0f0f0f0f0f0ff0f0f0f0f0f0f0f00f0f0f0f0f0f0f0ff0f0f0f0f0f0f0f0> PTRN} bind def
/Pattern21 {<ff00ff00ff00ff00ff00ff00ff00ff0000ff00ff00ff00ff00ff00ff00ff00ff> PTRN} bind def
/Pattern22 {<8001800180018001800180018001ffffffff8001800180018001800180018001> PTRN} bind def
/Pattern23 {<c003c003c003c003c003c003ffffffffffffffffc003c003c003c003c003c003> PTRN} bind def
/Pattern24 {<040404040404ffff404040404040ffff040404040404ffff404040404040ffff> PTRN} bind def
/Pattern25 {<180018001800180018001800ffffffff001800180018001800180018ffffffff> PTRN} bind def
/Pattern26 {<1111b8b87c7c3a3a1111a3a3c7c78b8b1111b8b87c7c3a3a1111a3a3c7c78b8b> PTRN} bind def
/Pattern27 {<101010102828c7c70101010182827c7c101010102828c7c70101010182827c7c> PTRN} bind def
/Pattern28 {<1c1c121211112121c1c12121111112121c1c121211112121c1c1212111111212> PTRN} bind def
/Pattern29 {<3e3e414180808080e3e31414080808083e3e414180808080e3e3141408080808> PTRN} bind def
/Pattern30 {<4848888884848383848488884848383848488888848483838484888848483838> PTRN} bind def
/Pattern31 {<03030404080808080c0c12122121c0c003030404080808080c0c12122121c0c0> PTRN} bind def
/ellipsedict 8 dict def
ellipsedict /mtrx matrix put
/EARC {
 ellipsedict begin
  /endangle exch def
  /startangle exch def
  /yrad exch def
  /xrad exch def
  /y exch def
  /x exch def
  /savematrix mtrx currentmatrix def
  x y translate
  xrad yrad scale
  0 0 1 startangle endangle arc
  savematrix setmatrix
 end
} def
/TL {
  /kcomp exch def
  /linewidth exch def
  /offset exch def
  GS
  0 offset rmoveto
  linewidth SLW
  dup stringwidth exch kcomp add exch RL s
  GR
} def
/KINIT
{
 /kvector exch def
 /kid 0 def
} def
/KPROC
{
 pop pop
 kvector kid get
 0 rmoveto
 /kid 1 kid add def
} def
/DefEncoding [
 /.notdef
 /.notdef
 /.notdef
 /.notdef
 /.notdef
 /.notdef
 /.notdef
 /.notdef
 /.notdef
 /.notdef
 /.notdef
 /.notdef
 /.notdef
 /.notdef
 /.notdef
 /.notdef
 /.notdef
 /.notdef
 /.notdef
 /.notdef
 /.notdef
 /.notdef
 /.notdef
 /.notdef
 /.notdef
 /.notdef
 /.notdef
 /.notdef
 /.notdef
 /.notdef
 /.notdef
 /.notdef
 /space
 /exclam
 /quotedbl
 /numbersign
 /dollar
 /percent
 /ampersand
 /quoteright
 /parenleft
 /parenright
 /asterisk
 /plus
 /comma
 /hyphen
 /period
 /slash
 /zero
 /one
 /two
 /three
 /four
 /five
 /six
 /seven
 /eight
 /nine
 /colon
 /semicolon
 /less
 /equal
 /greater
 /question
 /at
 /A
 /B
 /C
 /D
 /E
 /F
 /G
 /H
 /I
 /J
 /K
 /L
 /M
 /N
 /O
 /P
 /Q
 /R
 /S
 /T
 /U
 /V
 /W
 /X
 /Y
 /Z
 /bracketleft
 /backslash
 /bracketright
 /asciicircum
 /underscore
 /grave
 /a
 /b
 /c
 /d
 /e
 /f
 /g
 /h
 /i
 /j
 /k
 /l
 /m
 /n
 /o
 /p
 /q
 /r
 /s
 /t
 /u
 /v
 /w
 /x
 /y
 /z
 /braceleft
 /bar
 /braceright
 /asciitilde
 /.notdef
 /.notdef
 /.notdef
 /.notdef
 /.notdef
 /.notdef
 /.notdef
 /.notdef
 /.notdef
 /.notdef
 /.notdef
 /.notdef
 /.notdef
 /.notdef
 /.notdef
 /.notdef
 /.notdef
 /.notdef
 /.notdef
 /.notdef
 /.notdef
 /.notdef
 /.notdef
 /.notdef
 /.notdef
 /.notdef
 /.notdef
 /.notdef
 /.notdef
 /.notdef
 /.notdef
 /.notdef
 /.notdef
 /space
 /exclamdown
 /cent
 /sterling
 /currency
 /yen
 /brokenbar
 /section
 /dieresis
 /copyright
 /ordfeminine
 /guillemotleft
 /logicalnot
 /hyphen
 /registered
 /macron
 /degree
 /plusminus
 /twosuperior
 /threesuperior
 /acute
 /mu
 /paragraph
 /periodcentered
 /cedilla
 /onesuperior
 /ordmasculine
 /guillemotright
 /onequarter
 /onehalf
 /threequarters
 /questiondown
 /Agrave
 /Aacute
 /Acircumflex
 /Atilde
 /Adieresis
 /Aring
 /AE
 /Ccedilla
 /Egrave
 /Eacute
 /Ecircumflex
 /Edieresis
 /Igrave
 /Iacute
 /Icircumflex
 /Idieresis
 /Eth
 /Ntilde
 /Ograve
 /Oacute
 /Ocircumflex
 /Otilde
 /Odieresis
 /multiply
 /Oslash
 /Ugrave
 /Uacute
 /Ucircumflex
 /Udieresis
 /Yacute
 /Thorn
 /germandbls
 /agrave
 /aacute
 /acircumflex
 /atilde
 /adieresis
 /aring
 /ae
 /ccedilla
 /egrave
 /eacute
 /ecircumflex
 /edieresis
 /igrave
 /iacute
 /icircumflex
 /idieresis
 /eth
 /ntilde
 /ograve
 /oacute
 /ocircumflex
 /otilde
 /odieresis
 /divide
 /oslash
 /ugrave
 /uacute
 /ucircumflex
 /udieresis
 /yacute
 /thorn
 /ydieresis
] def
%%EndProlog
%%BeginSetup
%%EndSetup
%%Page: 1 1
PAGE_OFFSET_X PAGE_OFFSET_Y translate
612.00 612.00 scale
90 rotate
0.0 -1.0 translate
n
0.4267 0.1620 m
0.4267 0.1800 l
0.4447 0.1800 l
0.4447 0.1620 l
c
GS
[/DeviceRGB] SCS
Color0 SRGB
fill
GR
[/Pattern /DeviceRGB] SCS
Color1 Pattern8 SC
fill
[/DeviceRGB] SCS
Color1 SC
[] 0 SD
0.0045 SLW
0 SLC
0 SLJ
n
0.4267 0.1620 m
0.4267 0.1800 l
0.4447 0.1800 l
0.4447 0.1620 l
0.4267 0.1620 l
c
s
n
0.4981 0.1739 m
0.4981 0.1919 l
0.5162 0.1919 l
0.5162 0.1739 l
c
GS
Color0 SRGB
fill
GR
[/Pattern /DeviceRGB] SCS
Color1 Pattern8 SC
fill
[/DeviceRGB] SCS
Color1 SC
n
0.4981 0.1739 m
0.4981 0.1919 l
0.5162 0.1919 l
0.5162 0.1739 l
0.4981 0.1739 l
c
s
n
0.5696 0.1901 m
0.5696 0.2081 l
0.5876 0.2081 l
0.5876 0.1901 l
c
GS
Color0 SRGB
fill
GR
[/Pattern /DeviceRGB] SCS
Color1 Pattern8 SC
fill
[/DeviceRGB] SCS
Color1 SC
n
0.5696 0.1901 m
0.5696 0.2081 l
0.5876 0.2081 l
0.5876 0.1901 l
0.5696 0.1901 l
c
s
n
0.6410 0.2115 m
0.6410 0.2295 l
0.6590 0.2295 l
0.6590 0.2115 l
c
GS
Color0 SRGB
fill
GR
[/Pattern /DeviceRGB] SCS
Color1 Pattern8 SC
fill
[/DeviceRGB] SCS
Color1 SC
n
0.6410 0.2115 m
0.6410 0.2295 l
0.6590 0.2295 l
0.6590 0.2115 l
0.6410 0.2115 l
c
s
n
0.7124 0.2396 m
0.7124 0.2576 l
0.7304 0.2576 l
0.7304 0.2396 l
c
GS
Color0 SRGB
fill
GR
[/Pattern /DeviceRGB] SCS
Color1 Pattern8 SC
fill
[/DeviceRGB] SCS
Color1 SC
n
0.7124 0.2396 m
0.7124 0.2576 l
0.7304 0.2576 l
0.7304 0.2396 l
0.7124 0.2396 l
c
s
n
0.7838 0.2754 m
0.7838 0.2935 l
0.8019 0.2935 l
0.8019 0.2754 l
c
GS
Color0 SRGB
fill
GR
[/Pattern /DeviceRGB] SCS
Color1 Pattern8 SC
fill
[/DeviceRGB] SCS
Color1 SC
n
0.7838 0.2754 m
0.7838 0.2935 l
0.8019 0.2935 l
0.8019 0.2754 l
0.7838 0.2754 l
c
s
n
0.8553 0.3203 m
0.8553 0.3383 l
0.8733 0.3383 l
0.8733 0.3203 l
c
GS
Color0 SRGB
fill
GR
[/Pattern /DeviceRGB] SCS
Color1 Pattern8 SC
fill
[/DeviceRGB] SCS
Color1 SC
n
0.8553 0.3203 m
0.8553 0.3383 l
0.8733 0.3383 l
0.8733 0.3203 l
0.8553 0.3203 l
c
s
n
0.9267 0.3754 m
0.9267 0.3935 l
0.9447 0.3935 l
0.9447 0.3754 l
c
GS
Color0 SRGB
fill
GR
[/Pattern /DeviceRGB] SCS
Color1 Pattern8 SC
fill
[/DeviceRGB] SCS
Color1 SC
n
0.9267 0.3754 m
0.9267 0.3935 l
0.9447 0.3935 l
0.9447 0.3754 l
0.9267 0.3754 l
c
s
n
0.9981 0.4413 m
0.9981 0.4594 l
1.0162 0.4594 l
1.0162 0.4413 l
c
GS
Color0 SRGB
fill
GR
[/Pattern /DeviceRGB] SCS
Color1 Pattern8 SC
fill
[/DeviceRGB] SCS
Color1 SC
n
0.9981 0.4413 m
0.9981 0.4594 l
1.0162 0.4594 l
1.0162 0.4413 l
0.9981 0.4413 l
c
s
n
1.0696 0.5179 m
1.0696 0.5359 l
1.0876 0.5359 l
1.0876 0.5179 l
c
GS
Color0 SRGB
fill
GR
[/Pattern /DeviceRGB] SCS
Color1 Pattern8 SC
fill
[/DeviceRGB] SCS
Color1 SC
n
1.0696 0.5179 m
1.0696 0.5359 l
1.0876 0.5359 l
1.0876 0.5179 l
1.0696 0.5179 l
c
s
n
1.1410 0.6041 m
1.1410 0.6221 l
1.1590 0.6221 l
1.1590 0.6041 l
c
GS
Color0 SRGB
fill
GR
[/Pattern /DeviceRGB] SCS
Color1 Pattern8 SC
fill
[/DeviceRGB] SCS
Color1 SC
n
1.1410 0.6041 m
1.1410 0.6221 l
1.1590 0.6221 l
1.1590 0.6041 l
1.1410 0.6041 l
c
s
[] 0 SD
0.0037 SLW
n
0.1499 0.1507 m
0.1500 0.1507 l
0.1571 0.1507 l
0.1643 0.1508 l
0.1714 0.1509 l
0.1786 0.1510 l
0.1857 0.1511 l
0.1929 0.1513 l
0.2000 0.1514 l
0.2071 0.1516 l
0.2143 0.1517 l
0.2214 0.1519 l
0.2286 0.1521 l
0.2357 0.1523 l
0.2429 0.1525 l
0.2500 0.1527 l
0.2571 0.1529 l
0.2643 0.1532 l
0.2714 0.1534 l
0.2786 0.1537 l
0.2857 0.1540 l
0.2929 0.1543 l
0.3000 0.1547 l
0.3071 0.1550 l
0.3143 0.1554 l
0.3214 0.1558 l
0.3286 0.1562 l
0.3357 0.1566 l
0.3429 0.1570 l
0.3500 0.1575 l
0.3571 0.1580 l
0.3643 0.1585 l
0.3714 0.1590 l
0.3786 0.1596 l
0.3857 0.1602 l
0.3929 0.1608 l
0.4000 0.1614 l
0.4071 0.1620 l
0.4143 0.1627 l
0.4214 0.1634 l
0.4286 0.1641 l
0.4357 0.1648 l
0.4429 0.1656 l
0.4500 0.1664 l
0.4571 0.1672 l
0.4643 0.1680 l
0.4714 0.1688 l
0.4786 0.1697 l
0.4857 0.1706 l
0.4929 0.1715 l
0.5000 0.1724 l
0.5071 0.1734 l
0.5143 0.1743 l
0.5214 0.1753 l
0.5286 0.1763 l
0.5357 0.1774 l
0.5429 0.1784 l
0.5500 0.1795 l
0.5571 0.1805 l
0.5643 0.1816 l
0.5714 0.1827 l
0.5786 0.1838 l
0.5857 0.1850 l
0.5929 0.1861 l
0.6000 0.1872 l
0.6071 0.1884 l
0.6143 0.1895 l
0.6214 0.1906 l
0.6286 0.1918 l
0.6357 0.1929 l
0.6429 0.1941 l
0.6500 0.1952 l
0.6571 0.1964 l
0.6643 0.1975 l
0.6714 0.1986 l
0.6786 0.1997 l
0.6857 0.2008 l
0.6929 0.2018 l
0.7000 0.2029 l
0.7071 0.2039 l
0.7143 0.2049 l
0.7214 0.2058 l
0.7286 0.2067 l
0.7357 0.2076 l
0.7429 0.2085 l
0.7500 0.2093 l
0.7571 0.2100 l
0.7643 0.2108 l
0.7714 0.2114 l
0.7786 0.2120 l
0.7857 0.2126 l
0.7929 0.2130 l
0.8000 0.2134 l
0.8071 0.2138 l
0.8143 0.2140 l
0.8214 0.2142 l
0.8286 0.2143 l
0.8357 0.2143 l
0.8429 0.2142 l
0.8500 0.2141 l
0.8571 0.2138 l
0.8643 0.2134 l
0.8714 0.2129 l
0.8786 0.2123 l
0.8857 0.2115 l
0.8929 0.2107 l
0.9000 0.2097 l
0.9071 0.2085 l
0.9143 0.2073 l
0.9214 0.2059 l
0.9286 0.2043 l
0.9357 0.2026 l
0.9429 0.2007 l
0.9500 0.1986 l
0.9571 0.1964 l
0.9643 0.1939 l
0.9714 0.1913 l
0.9786 0.1886 l
0.9857 0.1856 l
0.9929 0.1824 l
1.0000 0.1790 l
1.0071 0.1753 l
1.0143 0.1715 l
1.0214 0.1674 l
1.0286 0.1631 l
1.0357 0.1586 l
1.0429 0.1538 l
1.0484 0.1499 l
s
[/DeviceRGB] SCS
Color2 SC
[0.0187 0.0112 ] 0 SD
0.0037 SLW
n
0.1499 0.1509 m
0.1500 0.1509 l
0.1571 0.1510 l
0.1643 0.1511 l
0.1714 0.1512 l
0.1786 0.1513 l
0.1857 0.1515 l
0.1929 0.1516 l
0.2000 0.1518 l
0.2071 0.1520 l
0.2143 0.1522 l
0.2214 0.1524 l
0.2286 0.1526 l
0.2357 0.1529 l
0.2429 0.1531 l
0.2500 0.1534 l
0.2571 0.1537 l
0.2643 0.1540 l
0.2714 0.1543 l
0.2786 0.1547 l
0.2857 0.1550 l
0.2929 0.1554 l
0.3000 0.1558 l
0.3071 0.1562 l
0.3143 0.1566 l
0.3214 0.1571 l
0.3286 0.1576 l
0.3357 0.1581 l
0.3429 0.1586 l
0.3500 0.1591 l
0.3571 0.1597 l
0.3643 0.1602 l
0.3714 0.1608 l
0.3786 0.1614 l
0.3857 0.1621 l
0.3929 0.1627 l
0.4000 0.1634 l
0.4071 0.1641 l
0.4143 0.1648 l
0.4214 0.1655 l
0.4286 0.1662 l
0.4357 0.1670 l
0.4429 0.1678 l
0.4500 0.1685 l
0.4571 0.1693 l
0.4643 0.1701 l
0.4714 0.1709 l
0.4786 0.1718 l
0.4857 0.1726 l
0.4929 0.1734 l
0.5000 0.1743 l
0.5071 0.1751 l
0.5143 0.1759 l
0.5214 0.1768 l
0.5286 0.1776 l
0.5357 0.1784 l
0.5429 0.1792 l
0.5500 0.1800 l
0.5571 0.1808 l
0.5643 0.1816 l
0.5714 0.1823 l
0.5786 0.1830 l
0.5857 0.1837 l
0.5929 0.1844 l
0.6000 0.1850 l
0.6071 0.1856 l
0.6143 0.1862 l
0.6214 0.1867 l
0.6286 0.1871 l
0.6357 0.1875 l
0.6429 0.1879 l
0.6500 0.1882 l
0.6571 0.1884 l
0.6643 0.1885 l
0.6714 0.1886 l
0.6786 0.1886 l
0.6857 0.1885 l
0.6929 0.1883 l
0.7000 0.1880 l
0.7071 0.1876 l
0.7143 0.1871 l
0.7214 0.1865 l
0.7286 0.1857 l
0.7357 0.1848 l
0.7429 0.1838 l
0.7500 0.1827 l
0.7571 0.1814 l
0.7643 0.1799 l
0.7714 0.1783 l
0.7786 0.1765 l
0.7857 0.1745 l
0.7929 0.1724 l
0.8000 0.1701 l
0.8071 0.1675 l
0.8143 0.1648 l
0.8214 0.1618 l
0.8286 0.1586 l
0.8357 0.1552 l
0.8429 0.1516 l
0.8459 0.1499 l
s
[/DeviceRGB] SCS
Color4 SC
[0.0037 0.0112 0.0187 0.0112 ] 0 SD
0.0037 SLW
n
0.1499 0.1511 m
0.1500 0.1511 l
0.1571 0.1512 l
0.1643 0.1514 l
0.1714 0.1515 l
0.1786 0.1517 l
0.1857 0.1519 l
0.1929 0.1521 l
0.2000 0.1523 l
0.2071 0.1526 l
0.2143 0.1529 l
0.2214 0.1531 l
0.2286 0.1534 l
0.2357 0.1538 l
0.2429 0.1541 l
0.2500 0.1545 l
0.2571 0.1549 l
0.2643 0.1553 l
0.2714 0.1558 l
0.2786 0.1563 l
0.2857 0.1568 l
0.2929 0.1574 l
0.3000 0.1579 l
0.3071 0.1586 l
0.3143 0.1592 l
0.3214 0.1599 l
0.3286 0.1606 l
0.3357 0.1614 l
0.3429 0.1622 l
0.3500 0.1630 l
0.3571 0.1639 l
0.3643 0.1648 l
0.3714 0.1658 l
0.3786 0.1668 l
0.3857 0.1679 l
0.3929 0.1690 l
0.4000 0.1701 l
0.4071 0.1713 l
0.4143 0.1725 l
0.4214 0.1738 l
0.4286 0.1752 l
0.4357 0.1766 l
0.4429 0.1780 l
0.4500 0.1795 l
0.4571 0.1811 l
0.4643 0.1827 l
0.4714 0.1843 l
0.4786 0.1860 l
0.4857 0.1878 l
0.4929 0.1896 l
0.5000 0.1914 l
0.5071 0.1934 l
0.5143 0.1953 l
0.5214 0.1974 l
0.5286 0.1994 l
0.5357 0.2016 l
0.5429 0.2038 l
0.5500 0.2060 l
0.5571 0.2083 l
0.5643 0.2106 l
0.5714 0.2130 l
0.5786 0.2154 l
0.5857 0.2179 l
0.5929 0.2204 l
0.6000 0.2230 l
0.6071 0.2256 l
0.6143 0.2282 l
0.6214 0.2309 l
0.6286 0.2336 l
0.6357 0.2364 l
0.6429 0.2392 l
0.6500 0.2420 l
0.6571 0.2449 l
0.6643 0.2477 l
0.6714 0.2506 l
0.6786 0.2535 l
0.6857 0.2564 l
0.6929 0.2594 l
0.7000 0.2623 l
0.7071 0.2653 l
0.7143 0.2682 l
0.7214 0.2712 l
0.7286 0.2741 l
0.7357 0.2771 l
0.7429 0.2800 l
0.7500 0.2829 l
0.7571 0.2857 l
0.7643 0.2885 l
0.7714 0.2913 l
0.7786 0.2941 l
0.7857 0.2968 l
0.7929 0.2994 l
0.8000 0.3020 l
0.8071 0.3046 l
0.8143 0.3070 l
0.8214 0.3094 l
0.8286 0.3116 l
0.8357 0.3138 l
0.8429 0.3159 l
0.8500 0.3179 l
0.8571 0.3197 l
0.8643 0.3215 l
0.8714 0.3230 l
0.8786 0.3245 l
0.8857 0.3258 l
0.8929 0.3269 l
0.9000 0.3279 l
0.9071 0.3287 l
0.9143 0.3293 l
0.9214 0.3297 l
0.9286 0.3298 l
0.9357 0.3298 l
0.9429 0.3296 l
0.9500 0.3290 l
0.9571 0.3283 l
0.9643 0.3273 l
0.9714 0.3260 l
0.9786 0.3244 l
0.9857 0.3225 l
0.9929 0.3203 l
1.0000 0.3178 l
1.0071 0.3150 l
1.0143 0.3118 l
1.0214 0.3082 l
1.0286 0.3043 l
1.0357 0.2999 l
1.0429 0.2952 l
1.0500 0.2901 l
1.0571 0.2845 l
1.0643 0.2785 l
1.0714 0.2720 l
1.0786 0.2651 l
1.0857 0.2576 l
1.0929 0.2497 l
1.1000 0.2412 l
1.1071 0.2322 l
1.1143 0.2226 l
1.1214 0.2125 l
1.1286 0.2018 l
1.1357 0.1905 l
1.1429 0.1786 l
1.1500 0.1660 l
1.1501 0.1659 l
s
[/DeviceRGB] SCS
Color11 SC
[0.0037 0.0112 0.0187 0.0112 0.0037 0.0112 ] 0 SD
0.0037 SLW
n
0.1499 0.1507 m
0.1500 0.1507 l
0.1571 0.1507 l
0.1643 0.1508 l
0.1714 0.1509 l
0.1786 0.1510 l
0.1857 0.1511 l
0.1929 0.1513 l
0.2000 0.1514 l
0.2071 0.1516 l
0.2143 0.1517 l
0.2214 0.1519 l
0.2286 0.1521 l
0.2357 0.1523 l
0.2429 0.1525 l
0.2500 0.1527 l
0.2571 0.1529 l
0.2643 0.1532 l
0.2714 0.1534 l
0.2786 0.1537 l
0.2857 0.1540 l
0.2929 0.1543 l
0.3000 0.1547 l
0.3071 0.1550 l
0.3143 0.1554 l
0.3214 0.1558 l
0.3286 0.1562 l
0.3357 0.1566 l
0.3429 0.1570 l
0.3500 0.1575 l
0.3571 0.1580 l
0.3643 0.1585 l
0.3714 0.1590 l
0.3786 0.1596 l
0.3857 0.1602 l
0.3929 0.1608 l
0.4000 0.1614 l
0.4071 0.1620 l
0.4143 0.1627 l
0.4214 0.1634 l
0.4286 0.1641 l
0.4357 0.1648 l
0.4429 0.1656 l
0.4500 0.1664 l
0.4571 0.1672 l
0.4643 0.1680 l
0.4714 0.1688 l
0.4786 0.1697 l
0.4857 0.1706 l
0.4929 0.1715 l
0.5000 0.1724 l
0.5071 0.1734 l
0.5143 0.1743 l
0.5214 0.1753 l
0.5286 0.1763 l
0.5357 0.1774 l
0.5429 0.1784 l
0.5500 0.1795 l
0.5571 0.1805 l
0.5643 0.1816 l
0.5714 0.1827 l
0.5786 0.1838 l
0.5857 0.1850 l
0.5929 0.1861 l
0.6000 0.1872 l
0.6071 0.1884 l
0.6143 0.1895 l
0.6214 0.1906 l
0.6286 0.1918 l
0.6357 0.1929 l
0.6429 0.1941 l
0.6500 0.1952 l
0.6571 0.1964 l
0.6643 0.1975 l
0.6714 0.1986 l
0.6786 0.1997 l
0.6857 0.2008 l
0.6929 0.2018 l
0.7000 0.2029 l
0.7071 0.2039 l
0.7143 0.2049 l
0.7214 0.2058 l
0.7286 0.2067 l
0.7357 0.2076 l
0.7429 0.2085 l
0.7500 0.2093 l
0.7571 0.2100 l
0.7643 0.2108 l
0.7714 0.2114 l
0.7786 0.2120 l
0.7857 0.2126 l
0.7929 0.2130 l
0.8000 0.2134 l
0.8071 0.2138 l
0.8143 0.2140 l
0.8214 0.2142 l
0.8286 0.2143 l
0.8357 0.2143 l
0.8429 0.2142 l
0.8500 0.2141 l
0.8571 0.2138 l
0.8643 0.2134 l
0.8714 0.2129 l
0.8786 0.2123 l
0.8857 0.2115 l
0.8929 0.2107 l
0.9000 0.2097 l
0.9071 0.2085 l
0.9143 0.2073 l
0.9214 0.2059 l
0.9286 0.2043 l
0.9357 0.2026 l
0.9429 0.2007 l
0.9500 0.1986 l
0.9571 0.1964 l
0.9643 0.1939 l
0.9714 0.1913 l
0.9786 0.1886 l
0.9857 0.1856 l
0.9929 0.1824 l
1.0000 0.1790 l
1.0071 0.1753 l
1.0143 0.1715 l
1.0214 0.1674 l
1.0286 0.1631 l
1.0357 0.1586 l
1.0429 0.1538 l
1.0484 0.1499 l
s
[/DeviceRGB] SCS
Color1 SC
[] 0 SD
0.0045 SLW
n
0.1500 0.1500 m
1.1500 0.1500 l
s
n
0.1500 0.8500 m
1.1500 0.8500 l
s
n
0.2214 0.1500 m
0.2214 0.1600 l
s
n
0.2214 0.8500 m
0.2214 0.8400 l
s
n
0.3643 0.1500 m
0.3643 0.1600 l
s
n
0.3643 0.8500 m
0.3643 0.8400 l
s
n
0.5071 0.1500 m
0.5071 0.1600 l
s
n
0.5071 0.8500 m
0.5071 0.8400 l
s
n
0.6500 0.1500 m
0.6500 0.1600 l
s
n
0.6500 0.8500 m
0.6500 0.8400 l
s
n
0.7929 0.1500 m
0.7929 0.1600 l
s
n
0.7929 0.8500 m
0.7929 0.8400 l
s
n
0.9357 0.1500 m
0.9357 0.1600 l
s
n
0.9357 0.8500 m
0.9357 0.8400 l
s
n
1.0786 0.1500 m
1.0786 0.1600 l
s
n
1.0786 0.8500 m
1.0786 0.8400 l
s
n
0.1500 0.1500 m
0.1500 0.1700 l
s
n
0.1500 0.8500 m
0.1500 0.8300 l
s
n
0.2929 0.1500 m
0.2929 0.1700 l
s
n
0.2929 0.8500 m
0.2929 0.8300 l
s
n
0.4357 0.1500 m
0.4357 0.1700 l
s
n
0.4357 0.8500 m
0.4357 0.8300 l
s
n
0.5786 0.1500 m
0.5786 0.1700 l
s
n
0.5786 0.8500 m
0.5786 0.8300 l
s
n
0.7214 0.1500 m
0.7214 0.1700 l
s
n
0.7214 0.8500 m
0.7214 0.8300 l
s
n
0.8643 0.1500 m
0.8643 0.1700 l
s
n
0.8643 0.8500 m
0.8643 0.8300 l
s
n
1.0071 0.1500 m
1.0071 0.1700 l
s
n
1.0071 0.8500 m
1.0071 0.8300 l
s
n
0.1500 0.1500 m
0.1500 0.8500 l
s
n
1.1500 0.1500 m
1.1500 0.8500 l
s
n
0.1500 0.2375 m
0.1600 0.2375 l
s
n
1.1500 0.2375 m
1.1400 0.2375 l
s
n
0.1500 0.4125 m
0.1600 0.4125 l
s
n
1.1500 0.4125 m
1.1400 0.4125 l
s
n
0.1500 0.5875 m
0.1600 0.5875 l
s
n
1.1500 0.5875 m
1.1400 0.5875 l
s
n
0.1500 0.7625 m
0.1600 0.7625 l
s
n
1.1500 0.7625 m
1.1400 0.7625 l
s
n
0.1500 0.1500 m
0.1700 0.1500 l
s
n
1.1500 0.1500 m
1.1300 0.1500 l
s
n
0.1500 0.3250 m
0.1700 0.3250 l
s
n
1.1500 0.3250 m
1.1300 0.3250 l
s
n
0.1500 0.5000 m
0.1700 0.5000 l
s
n
1.1500 0.5000 m
1.1300 0.5000 l
s
n
0.1500 0.6750 m
0.1700 0.6750 l
s
n
1.1500 0.6750 m
1.1300 0.6750 l
s
n
0.1500 0.8500 m
0.1700 0.8500 l
s
n
1.1500 0.8500 m
1.1300 0.8500 l
s
/Times-Roman findfont
dup length dict begin
 {1 index /FID ne {def} {pop pop} ifelse} forall
 /Encoding DefEncoding def
 currentdict
end
/Font0 exch definefont pop
/Font0 FFSF
0.1188 0.1351 m
GS
[0.0448 0.0000 0.0000 0.0448 0 0] CC
(0) show
GR
/Font0 FFSF
0.1204 0.3099 m
GS
[0.0448 0.0000 0.0000 0.0448 0 0] CC
(5) show
GR
/Font0 FFSF
0.0965 0.4851 m
GS
[0.0448 0.0000 0.0000 0.0448 0 0] CC
(10) show
GR
/Font0 FFSF
0.0980 0.6599 m
GS
[0.0448 0.0000 0.0000 0.0448 0 0] CC
(15) show
GR
/Font0 FFSF
0.0965 0.8351 m
GS
[0.0448 0.0000 0.0000 0.0448 0 0] CC
(20) show
GR
/Font0 FFSF
0.0677 0.4335 m
GS
[0.0000 0.0504 -0.0504 0.0000 0 0] CC
([MeV]) show
GR
[] 0 SD
0.0015 SLW
n
0.1500 0.1500 m
0.1500 0.8500 l
1.1500 0.8500 l
1.1500 0.1500 l
0.1500 0.1500 l
c
s
/Font0 FFSF
0.2000 0.3009 m
GS
[0.0600 0.0000 0.0000 0.0600 0 0] CC
(1) show
GR
/Font0 FFSF
0.2298 0.2500 m
GS
[0.0848 0.0000 0.0000 0.0848 0 0] CC
(P) show
GR
/Font0 FFSF
0.2769 0.2161 m
GS
[0.0600 0.0000 0.0000 0.0600 0 0] CC
(1) show
GR
showpage
%%PageTrailer
%%Trailer
%%DocumentNeededResources: font Times-Roman
%%EOF
