%!PS-Adobe-2.0
%%Title: eos_ST.eps
%%Creator: gnuplot 4.6 patchlevel 5
%%CreationDate: Wed Jun  4 16:07:58 2014
%%DocumentFonts: (atend)
%%BoundingBox: 50 50 554 770
%%Orientation: Landscape
%%Pages: (atend)
%%EndComments
%%BeginProlog
/gnudict 256 dict def
gnudict begin
%
% The following true/false flags may be edited by hand if desired.
% The unit line width and grayscale image gamma correction may also be changed.
%
/Color false def
/Blacktext false def
/Solid false def
/Dashlength 1 def
/Landscape true def
/Level1 false def
/Rounded false def
/ClipToBoundingBox false def
/SuppressPDFMark false def
/TransparentPatterns false def
/gnulinewidth 5.000 def
/userlinewidth gnulinewidth def
/Gamma 1.0 def
/BackgroundColor {-1.000 -1.000 -1.000} def
%
/vshift -53 def
/dl1 {
  10.0 Dashlength mul mul
  Rounded { currentlinewidth 0.75 mul sub dup 0 le { pop 0.01 } if } if
} def
/dl2 {
  10.0 Dashlength mul mul
  Rounded { currentlinewidth 0.75 mul add } if
} def
/hpt_ 31.5 def
/vpt_ 31.5 def
/hpt hpt_ def
/vpt vpt_ def
/doclip {
  ClipToBoundingBox {
    newpath 50 50 moveto 554 50 lineto 554 770 lineto 50 770 lineto closepath
    clip
  } if
} def
%
% Gnuplot Prolog Version 4.6 (September 2012)
%
%/SuppressPDFMark true def
%
/M {moveto} bind def
/L {lineto} bind def
/R {rmoveto} bind def
/V {rlineto} bind def
/N {newpath moveto} bind def
/Z {closepath} bind def
/C {setrgbcolor} bind def
/f {rlineto fill} bind def
/g {setgray} bind def
/Gshow {show} def   % May be redefined later in the file to support UTF-8
/vpt2 vpt 2 mul def
/hpt2 hpt 2 mul def
/Lshow {currentpoint stroke M 0 vshift R 
	Blacktext {gsave 0 setgray show grestore} {show} ifelse} def
/Rshow {currentpoint stroke M dup stringwidth pop neg vshift R
	Blacktext {gsave 0 setgray show grestore} {show} ifelse} def
/Cshow {currentpoint stroke M dup stringwidth pop -2 div vshift R 
	Blacktext {gsave 0 setgray show grestore} {show} ifelse} def
/UP {dup vpt_ mul /vpt exch def hpt_ mul /hpt exch def
  /hpt2 hpt 2 mul def /vpt2 vpt 2 mul def} def
/DL {Color {setrgbcolor Solid {pop []} if 0 setdash}
 {pop pop pop 0 setgray Solid {pop []} if 0 setdash} ifelse} def
/BL {stroke userlinewidth 2 mul setlinewidth
	Rounded {1 setlinejoin 1 setlinecap} if} def
/AL {stroke userlinewidth 2 div setlinewidth
	Rounded {1 setlinejoin 1 setlinecap} if} def
/UL {dup gnulinewidth mul /userlinewidth exch def
	dup 1 lt {pop 1} if 10 mul /udl exch def} def
/PL {stroke userlinewidth setlinewidth
	Rounded {1 setlinejoin 1 setlinecap} if} def
3.8 setmiterlimit
% Default Line colors
/LCw {1 1 1} def
/LCb {0 0 0} def
/LCa {0 0 0} def
/LC0 {1 0 0} def
/LC1 {0 1 0} def
/LC2 {0 0 1} def
/LC3 {1 0 1} def
/LC4 {0 1 1} def
/LC5 {1 1 0} def
/LC6 {0 0 0} def
/LC7 {1 0.3 0} def
/LC8 {0.5 0.5 0.5} def
% Default Line Types
/LTw {PL [] 1 setgray} def
/LTb {BL [] LCb DL} def
/LTa {AL [1 udl mul 2 udl mul] 0 setdash LCa setrgbcolor} def
/LT0 {PL [] LC0 DL} def
/LT1 {PL [4 dl1 2 dl2] LC1 DL} def
/LT2 {PL [2 dl1 3 dl2] LC2 DL} def
/LT3 {PL [1 dl1 1.5 dl2] LC3 DL} def
/LT4 {PL [6 dl1 2 dl2 1 dl1 2 dl2] LC4 DL} def
/LT5 {PL [3 dl1 3 dl2 1 dl1 3 dl2] LC5 DL} def
/LT6 {PL [2 dl1 2 dl2 2 dl1 6 dl2] LC6 DL} def
/LT7 {PL [1 dl1 2 dl2 6 dl1 2 dl2 1 dl1 2 dl2] LC7 DL} def
/LT8 {PL [2 dl1 2 dl2 2 dl1 2 dl2 2 dl1 2 dl2 2 dl1 4 dl2] LC8 DL} def
/Pnt {stroke [] 0 setdash gsave 1 setlinecap M 0 0 V stroke grestore} def
/Dia {stroke [] 0 setdash 2 copy vpt add M
  hpt neg vpt neg V hpt vpt neg V
  hpt vpt V hpt neg vpt V closepath stroke
  Pnt} def
/Pls {stroke [] 0 setdash vpt sub M 0 vpt2 V
  currentpoint stroke M
  hpt neg vpt neg R hpt2 0 V stroke
 } def
/Box {stroke [] 0 setdash 2 copy exch hpt sub exch vpt add M
  0 vpt2 neg V hpt2 0 V 0 vpt2 V
  hpt2 neg 0 V closepath stroke
  Pnt} def
/Crs {stroke [] 0 setdash exch hpt sub exch vpt add M
  hpt2 vpt2 neg V currentpoint stroke M
  hpt2 neg 0 R hpt2 vpt2 V stroke} def
/TriU {stroke [] 0 setdash 2 copy vpt 1.12 mul add M
  hpt neg vpt -1.62 mul V
  hpt 2 mul 0 V
  hpt neg vpt 1.62 mul V closepath stroke
  Pnt} def
/Star {2 copy Pls Crs} def
/BoxF {stroke [] 0 setdash exch hpt sub exch vpt add M
  0 vpt2 neg V hpt2 0 V 0 vpt2 V
  hpt2 neg 0 V closepath fill} def
/TriUF {stroke [] 0 setdash vpt 1.12 mul add M
  hpt neg vpt -1.62 mul V
  hpt 2 mul 0 V
  hpt neg vpt 1.62 mul V closepath fill} def
/TriD {stroke [] 0 setdash 2 copy vpt 1.12 mul sub M
  hpt neg vpt 1.62 mul V
  hpt 2 mul 0 V
  hpt neg vpt -1.62 mul V closepath stroke
  Pnt} def
/TriDF {stroke [] 0 setdash vpt 1.12 mul sub M
  hpt neg vpt 1.62 mul V
  hpt 2 mul 0 V
  hpt neg vpt -1.62 mul V closepath fill} def
/DiaF {stroke [] 0 setdash vpt add M
  hpt neg vpt neg V hpt vpt neg V
  hpt vpt V hpt neg vpt V closepath fill} def
/Pent {stroke [] 0 setdash 2 copy gsave
  translate 0 hpt M 4 {72 rotate 0 hpt L} repeat
  closepath stroke grestore Pnt} def
/PentF {stroke [] 0 setdash gsave
  translate 0 hpt M 4 {72 rotate 0 hpt L} repeat
  closepath fill grestore} def
/Circle {stroke [] 0 setdash 2 copy
  hpt 0 360 arc stroke Pnt} def
/CircleF {stroke [] 0 setdash hpt 0 360 arc fill} def
/C0 {BL [] 0 setdash 2 copy moveto vpt 90 450 arc} bind def
/C1 {BL [] 0 setdash 2 copy moveto
	2 copy vpt 0 90 arc closepath fill
	vpt 0 360 arc closepath} bind def
/C2 {BL [] 0 setdash 2 copy moveto
	2 copy vpt 90 180 arc closepath fill
	vpt 0 360 arc closepath} bind def
/C3 {BL [] 0 setdash 2 copy moveto
	2 copy vpt 0 180 arc closepath fill
	vpt 0 360 arc closepath} bind def
/C4 {BL [] 0 setdash 2 copy moveto
	2 copy vpt 180 270 arc closepath fill
	vpt 0 360 arc closepath} bind def
/C5 {BL [] 0 setdash 2 copy moveto
	2 copy vpt 0 90 arc
	2 copy moveto
	2 copy vpt 180 270 arc closepath fill
	vpt 0 360 arc} bind def
/C6 {BL [] 0 setdash 2 copy moveto
	2 copy vpt 90 270 arc closepath fill
	vpt 0 360 arc closepath} bind def
/C7 {BL [] 0 setdash 2 copy moveto
	2 copy vpt 0 270 arc closepath fill
	vpt 0 360 arc closepath} bind def
/C8 {BL [] 0 setdash 2 copy moveto
	2 copy vpt 270 360 arc closepath fill
	vpt 0 360 arc closepath} bind def
/C9 {BL [] 0 setdash 2 copy moveto
	2 copy vpt 270 450 arc closepath fill
	vpt 0 360 arc closepath} bind def
/C10 {BL [] 0 setdash 2 copy 2 copy moveto vpt 270 360 arc closepath fill
	2 copy moveto
	2 copy vpt 90 180 arc closepath fill
	vpt 0 360 arc closepath} bind def
/C11 {BL [] 0 setdash 2 copy moveto
	2 copy vpt 0 180 arc closepath fill
	2 copy moveto
	2 copy vpt 270 360 arc closepath fill
	vpt 0 360 arc closepath} bind def
/C12 {BL [] 0 setdash 2 copy moveto
	2 copy vpt 180 360 arc closepath fill
	vpt 0 360 arc closepath} bind def
/C13 {BL [] 0 setdash 2 copy moveto
	2 copy vpt 0 90 arc closepath fill
	2 copy moveto
	2 copy vpt 180 360 arc closepath fill
	vpt 0 360 arc closepath} bind def
/C14 {BL [] 0 setdash 2 copy moveto
	2 copy vpt 90 360 arc closepath fill
	vpt 0 360 arc} bind def
/C15 {BL [] 0 setdash 2 copy vpt 0 360 arc closepath fill
	vpt 0 360 arc closepath} bind def
/Rec {newpath 4 2 roll moveto 1 index 0 rlineto 0 exch rlineto
	neg 0 rlineto closepath} bind def
/Square {dup Rec} bind def
/Bsquare {vpt sub exch vpt sub exch vpt2 Square} bind def
/S0 {BL [] 0 setdash 2 copy moveto 0 vpt rlineto BL Bsquare} bind def
/S1 {BL [] 0 setdash 2 copy vpt Square fill Bsquare} bind def
/S2 {BL [] 0 setdash 2 copy exch vpt sub exch vpt Square fill Bsquare} bind def
/S3 {BL [] 0 setdash 2 copy exch vpt sub exch vpt2 vpt Rec fill Bsquare} bind def
/S4 {BL [] 0 setdash 2 copy exch vpt sub exch vpt sub vpt Square fill Bsquare} bind def
/S5 {BL [] 0 setdash 2 copy 2 copy vpt Square fill
	exch vpt sub exch vpt sub vpt Square fill Bsquare} bind def
/S6 {BL [] 0 setdash 2 copy exch vpt sub exch vpt sub vpt vpt2 Rec fill Bsquare} bind def
/S7 {BL [] 0 setdash 2 copy exch vpt sub exch vpt sub vpt vpt2 Rec fill
	2 copy vpt Square fill Bsquare} bind def
/S8 {BL [] 0 setdash 2 copy vpt sub vpt Square fill Bsquare} bind def
/S9 {BL [] 0 setdash 2 copy vpt sub vpt vpt2 Rec fill Bsquare} bind def
/S10 {BL [] 0 setdash 2 copy vpt sub vpt Square fill 2 copy exch vpt sub exch vpt Square fill
	Bsquare} bind def
/S11 {BL [] 0 setdash 2 copy vpt sub vpt Square fill 2 copy exch vpt sub exch vpt2 vpt Rec fill
	Bsquare} bind def
/S12 {BL [] 0 setdash 2 copy exch vpt sub exch vpt sub vpt2 vpt Rec fill Bsquare} bind def
/S13 {BL [] 0 setdash 2 copy exch vpt sub exch vpt sub vpt2 vpt Rec fill
	2 copy vpt Square fill Bsquare} bind def
/S14 {BL [] 0 setdash 2 copy exch vpt sub exch vpt sub vpt2 vpt Rec fill
	2 copy exch vpt sub exch vpt Square fill Bsquare} bind def
/S15 {BL [] 0 setdash 2 copy Bsquare fill Bsquare} bind def
/D0 {gsave translate 45 rotate 0 0 S0 stroke grestore} bind def
/D1 {gsave translate 45 rotate 0 0 S1 stroke grestore} bind def
/D2 {gsave translate 45 rotate 0 0 S2 stroke grestore} bind def
/D3 {gsave translate 45 rotate 0 0 S3 stroke grestore} bind def
/D4 {gsave translate 45 rotate 0 0 S4 stroke grestore} bind def
/D5 {gsave translate 45 rotate 0 0 S5 stroke grestore} bind def
/D6 {gsave translate 45 rotate 0 0 S6 stroke grestore} bind def
/D7 {gsave translate 45 rotate 0 0 S7 stroke grestore} bind def
/D8 {gsave translate 45 rotate 0 0 S8 stroke grestore} bind def
/D9 {gsave translate 45 rotate 0 0 S9 stroke grestore} bind def
/D10 {gsave translate 45 rotate 0 0 S10 stroke grestore} bind def
/D11 {gsave translate 45 rotate 0 0 S11 stroke grestore} bind def
/D12 {gsave translate 45 rotate 0 0 S12 stroke grestore} bind def
/D13 {gsave translate 45 rotate 0 0 S13 stroke grestore} bind def
/D14 {gsave translate 45 rotate 0 0 S14 stroke grestore} bind def
/D15 {gsave translate 45 rotate 0 0 S15 stroke grestore} bind def
/DiaE {stroke [] 0 setdash vpt add M
  hpt neg vpt neg V hpt vpt neg V
  hpt vpt V hpt neg vpt V closepath stroke} def
/BoxE {stroke [] 0 setdash exch hpt sub exch vpt add M
  0 vpt2 neg V hpt2 0 V 0 vpt2 V
  hpt2 neg 0 V closepath stroke} def
/TriUE {stroke [] 0 setdash vpt 1.12 mul add M
  hpt neg vpt -1.62 mul V
  hpt 2 mul 0 V
  hpt neg vpt 1.62 mul V closepath stroke} def
/TriDE {stroke [] 0 setdash vpt 1.12 mul sub M
  hpt neg vpt 1.62 mul V
  hpt 2 mul 0 V
  hpt neg vpt -1.62 mul V closepath stroke} def
/PentE {stroke [] 0 setdash gsave
  translate 0 hpt M 4 {72 rotate 0 hpt L} repeat
  closepath stroke grestore} def
/CircE {stroke [] 0 setdash 
  hpt 0 360 arc stroke} def
/Opaque {gsave closepath 1 setgray fill grestore 0 setgray closepath} def
/DiaW {stroke [] 0 setdash vpt add M
  hpt neg vpt neg V hpt vpt neg V
  hpt vpt V hpt neg vpt V Opaque stroke} def
/BoxW {stroke [] 0 setdash exch hpt sub exch vpt add M
  0 vpt2 neg V hpt2 0 V 0 vpt2 V
  hpt2 neg 0 V Opaque stroke} def
/TriUW {stroke [] 0 setdash vpt 1.12 mul add M
  hpt neg vpt -1.62 mul V
  hpt 2 mul 0 V
  hpt neg vpt 1.62 mul V Opaque stroke} def
/TriDW {stroke [] 0 setdash vpt 1.12 mul sub M
  hpt neg vpt 1.62 mul V
  hpt 2 mul 0 V
  hpt neg vpt -1.62 mul V Opaque stroke} def
/PentW {stroke [] 0 setdash gsave
  translate 0 hpt M 4 {72 rotate 0 hpt L} repeat
  Opaque stroke grestore} def
/CircW {stroke [] 0 setdash 
  hpt 0 360 arc Opaque stroke} def
/BoxFill {gsave Rec 1 setgray fill grestore} def
/Density {
  /Fillden exch def
  currentrgbcolor
  /ColB exch def /ColG exch def /ColR exch def
  /ColR ColR Fillden mul Fillden sub 1 add def
  /ColG ColG Fillden mul Fillden sub 1 add def
  /ColB ColB Fillden mul Fillden sub 1 add def
  ColR ColG ColB setrgbcolor} def
/BoxColFill {gsave Rec PolyFill} def
/PolyFill {gsave Density fill grestore grestore} def
/h {rlineto rlineto rlineto gsave closepath fill grestore} bind def
%
% PostScript Level 1 Pattern Fill routine for rectangles
% Usage: x y w h s a XX PatternFill
%	x,y = lower left corner of box to be filled
%	w,h = width and height of box
%	  a = angle in degrees between lines and x-axis
%	 XX = 0/1 for no/yes cross-hatch
%
/PatternFill {gsave /PFa [ 9 2 roll ] def
  PFa 0 get PFa 2 get 2 div add PFa 1 get PFa 3 get 2 div add translate
  PFa 2 get -2 div PFa 3 get -2 div PFa 2 get PFa 3 get Rec
  TransparentPatterns {} {gsave 1 setgray fill grestore} ifelse
  clip
  currentlinewidth 0.5 mul setlinewidth
  /PFs PFa 2 get dup mul PFa 3 get dup mul add sqrt def
  0 0 M PFa 5 get rotate PFs -2 div dup translate
  0 1 PFs PFa 4 get div 1 add floor cvi
	{PFa 4 get mul 0 M 0 PFs V} for
  0 PFa 6 get ne {
	0 1 PFs PFa 4 get div 1 add floor cvi
	{PFa 4 get mul 0 2 1 roll M PFs 0 V} for
 } if
  stroke grestore} def
%
/languagelevel where
 {pop languagelevel} {1} ifelse
 2 lt
	{/InterpretLevel1 true def}
	{/InterpretLevel1 Level1 def}
 ifelse
%
% PostScript level 2 pattern fill definitions
%
/Level2PatternFill {
/Tile8x8 {/PaintType 2 /PatternType 1 /TilingType 1 /BBox [0 0 8 8] /XStep 8 /YStep 8}
	bind def
/KeepColor {currentrgbcolor [/Pattern /DeviceRGB] setcolorspace} bind def
<< Tile8x8
 /PaintProc {0.5 setlinewidth pop 0 0 M 8 8 L 0 8 M 8 0 L stroke} 
>> matrix makepattern
/Pat1 exch def
<< Tile8x8
 /PaintProc {0.5 setlinewidth pop 0 0 M 8 8 L 0 8 M 8 0 L stroke
	0 4 M 4 8 L 8 4 L 4 0 L 0 4 L stroke}
>> matrix makepattern
/Pat2 exch def
<< Tile8x8
 /PaintProc {0.5 setlinewidth pop 0 0 M 0 8 L
	8 8 L 8 0 L 0 0 L fill}
>> matrix makepattern
/Pat3 exch def
<< Tile8x8
 /PaintProc {0.5 setlinewidth pop -4 8 M 8 -4 L
	0 12 M 12 0 L stroke}
>> matrix makepattern
/Pat4 exch def
<< Tile8x8
 /PaintProc {0.5 setlinewidth pop -4 0 M 8 12 L
	0 -4 M 12 8 L stroke}
>> matrix makepattern
/Pat5 exch def
<< Tile8x8
 /PaintProc {0.5 setlinewidth pop -2 8 M 4 -4 L
	0 12 M 8 -4 L 4 12 M 10 0 L stroke}
>> matrix makepattern
/Pat6 exch def
<< Tile8x8
 /PaintProc {0.5 setlinewidth pop -2 0 M 4 12 L
	0 -4 M 8 12 L 4 -4 M 10 8 L stroke}
>> matrix makepattern
/Pat7 exch def
<< Tile8x8
 /PaintProc {0.5 setlinewidth pop 8 -2 M -4 4 L
	12 0 M -4 8 L 12 4 M 0 10 L stroke}
>> matrix makepattern
/Pat8 exch def
<< Tile8x8
 /PaintProc {0.5 setlinewidth pop 0 -2 M 12 4 L
	-4 0 M 12 8 L -4 4 M 8 10 L stroke}
>> matrix makepattern
/Pat9 exch def
/Pattern1 {PatternBgnd KeepColor Pat1 setpattern} bind def
/Pattern2 {PatternBgnd KeepColor Pat2 setpattern} bind def
/Pattern3 {PatternBgnd KeepColor Pat3 setpattern} bind def
/Pattern4 {PatternBgnd KeepColor Landscape {Pat5} {Pat4} ifelse setpattern} bind def
/Pattern5 {PatternBgnd KeepColor Landscape {Pat4} {Pat5} ifelse setpattern} bind def
/Pattern6 {PatternBgnd KeepColor Landscape {Pat9} {Pat6} ifelse setpattern} bind def
/Pattern7 {PatternBgnd KeepColor Landscape {Pat8} {Pat7} ifelse setpattern} bind def
} def
%
%
%End of PostScript Level 2 code
%
/PatternBgnd {
  TransparentPatterns {} {gsave 1 setgray fill grestore} ifelse
} def
%
% Substitute for Level 2 pattern fill codes with
% grayscale if Level 2 support is not selected.
%
/Level1PatternFill {
/Pattern1 {0.250 Density} bind def
/Pattern2 {0.500 Density} bind def
/Pattern3 {0.750 Density} bind def
/Pattern4 {0.125 Density} bind def
/Pattern5 {0.375 Density} bind def
/Pattern6 {0.625 Density} bind def
/Pattern7 {0.875 Density} bind def
} def
%
% Now test for support of Level 2 code
%
Level1 {Level1PatternFill} {Level2PatternFill} ifelse
%
/Symbol-Oblique /Symbol findfont [1 0 .167 1 0 0] makefont
dup length dict begin {1 index /FID eq {pop pop} {def} ifelse} forall
currentdict end definefont pop
/MFshow {
   { dup 5 get 3 ge
     { 5 get 3 eq {gsave} {grestore} ifelse }
     {dup dup 0 get findfont exch 1 get scalefont setfont
     [ currentpoint ] exch dup 2 get 0 exch R dup 5 get 2 ne {dup dup 6
     get exch 4 get {Gshow} {stringwidth pop 0 R} ifelse }if dup 5 get 0 eq
     {dup 3 get {2 get neg 0 exch R pop} {pop aload pop M} ifelse} {dup 5
     get 1 eq {dup 2 get exch dup 3 get exch 6 get stringwidth pop -2 div
     dup 0 R} {dup 6 get stringwidth pop -2 div 0 R 6 get
     show 2 index {aload pop M neg 3 -1 roll neg R pop pop} {pop pop pop
     pop aload pop M} ifelse }ifelse }ifelse }
     ifelse }
   forall} def
/Gswidth {dup type /stringtype eq {stringwidth} {pop (n) stringwidth} ifelse} def
/MFwidth {0 exch { dup 5 get 3 ge { 5 get 3 eq { 0 } { pop } ifelse }
 {dup 3 get{dup dup 0 get findfont exch 1 get scalefont setfont
     6 get Gswidth pop add} {pop} ifelse} ifelse} forall} def
/MLshow { currentpoint stroke M
  0 exch R
  Blacktext {gsave 0 setgray MFshow grestore} {MFshow} ifelse } bind def
/MRshow { currentpoint stroke M
  exch dup MFwidth neg 3 -1 roll R
  Blacktext {gsave 0 setgray MFshow grestore} {MFshow} ifelse } bind def
/MCshow { currentpoint stroke M
  exch dup MFwidth -2 div 3 -1 roll R
  Blacktext {gsave 0 setgray MFshow grestore} {MFshow} ifelse } bind def
/XYsave    { [( ) 1 2 true false 3 ()] } bind def
/XYrestore { [( ) 1 2 true false 4 ()] } bind def
Level1 SuppressPDFMark or 
{} {
/SDict 10 dict def
systemdict /pdfmark known not {
  userdict /pdfmark systemdict /cleartomark get put
} if
SDict begin [
  /Title (eos_ST.eps)
  /Subject (gnuplot plot)
  /Creator (gnuplot 4.6 patchlevel 5)
  /Author (pbecker)
%  /Producer (gnuplot)
%  /Keywords ()
  /CreationDate (Wed Jun  4 16:07:58 2014)
  /DOCINFO pdfmark
end
} ifelse
end
%%EndProlog
%%Page: 1 1
gnudict begin
gsave
doclip
50 50 translate
0.100 0.100 scale
90 rotate
0 -5040 translate
0 setgray
newpath
(Times-Roman) findfont 160 scalefont setfont
BackgroundColor 0 lt 3 1 roll 0 lt exch 0 lt or or not {gsave BackgroundColor C clippath fill grestore} if
1.000 UL
LTb
0.00 0.00 0.00 C 1.000 955 4272 1092 481 BoxColFill
LCb setrgbcolor
955 4272 M
0 481 V
1092 0 V
0 -481 V
-1092 0 V
stroke
LTb
688 2840 M
63 0 V
2560 0 R
-63 0 V
stroke
592 2840 M
[ [(Times-Roman) 160.0 0.0 true true 0 (-15)]
] -53.3 MRshow
1.000 UL
LTb
688 3175 M
63 0 V
2560 0 R
-63 0 V
stroke
592 3175 M
[ [(Times-Roman) 160.0 0.0 true true 0 (-10)]
] -53.3 MRshow
1.000 UL
LTb
688 3509 M
63 0 V
2560 0 R
-63 0 V
stroke
592 3509 M
[ [(Times-Roman) 160.0 0.0 true true 0 (-5)]
] -53.3 MRshow
1.000 UL
LTb
688 3844 M
63 0 V
2560 0 R
-63 0 V
stroke
592 3844 M
[ [(Times-Roman) 160.0 0.0 true true 0 ( 0)]
] -53.3 MRshow
1.000 UL
LTb
688 4178 M
63 0 V
2560 0 R
-63 0 V
stroke
592 4178 M
[ [(Times-Roman) 160.0 0.0 true true 0 ( 5)]
] -53.3 MRshow
1.000 UL
LTb
688 4513 M
63 0 V
2560 0 R
-63 0 V
stroke
592 4513 M
[ [(Times-Roman) 160.0 0.0 true true 0 ( 10)]
] -53.3 MRshow
1.000 UL
LTb
688 4847 M
63 0 V
2560 0 R
-63 0 V
stroke
592 4847 M
[ [(Times-Roman) 160.0 0.0 true true 0 ( 15)]
] -53.3 MRshow
1.000 UL
LTb
688 2840 M
0 63 V
0 1944 R
0 -63 V
stroke
688 2680 M
[ [(Times-Roman) 160.0 0.0 true true 0 ( 0)]
] -53.3 MCshow
1.000 UL
LTb
1562 2840 M
0 63 V
0 1944 R
0 -63 V
stroke
1562 2680 M
[ [(Times-Roman) 160.0 0.0 true true 0 ( 0.1)]
] -53.3 MCshow
1.000 UL
LTb
2437 2840 M
0 63 V
0 1944 R
0 -63 V
stroke
2437 2680 M
[ [(Times-Roman) 160.0 0.0 true true 0 ( 0.2)]
] -53.3 MCshow
1.000 UL
LTb
3311 2840 M
0 63 V
0 1944 R
0 -63 V
stroke
3311 2680 M
[ [(Times-Roman) 160.0 0.0 true true 0 ( 0.3)]
] -53.3 MCshow
1.000 UL
LTb
1.000 UL
LTb
688 4847 N
0 -2007 V
2623 0 V
0 2007 V
-2623 0 V
Z stroke
LCb setrgbcolor
128 3843 M
currentpoint gsave translate -270 rotate 0 0 moveto
[ [(Times-Roman) 160.0 0.0 true true 0 (ST channel energy in SNM \(MeV\))]
] -53.3 MCshow
grestore
LTb
1.000 UL
LTw
1.000 999 4292 1092 481 BoxColFill
LCb setrgbcolor
999 4292 M
0 481 V
1092 0 V
0 -481 V
-1092 0 V
1.000 UP
stroke
LTb
793 3121 M
[ [(Times-Roman) 140.0 0.0 true true 0 (S=0,T=0)]
] -46.7 MLshow
1.000 UL
LTb
% Begin plot #1
2.500 UL
LTa
LCb setrgbcolor
1509 4639 M
[ [(Times-Roman) 90.0 0.0 true true 0 (VLyB NLO)]
] -30.0 MRshow
LTa
1605 4639 M
447 0 V
775 3845 M
88 4 V
87 5 V
88 6 V
87 7 V
88 8 V
87 10 V
87 10 V
88 11 V
87 12 V
88 13 V
87 13 V
88 15 V
87 15 V
87 16 V
88 17 V
87 17 V
88 18 V
87 19 V
88 19 V
87 20 V
88 21 V
87 21 V
87 22 V
88 22 V
87 24 V
88 23 V
87 25 V
88 25 V
87 25 V
% End plot #1
% Begin plot #2
stroke
LT0
LCb setrgbcolor
1509 4544 M
[ [(Times-Roman) 90.0 0.0 true true 0 (VLyB N2LO)]
] -30.0 MRshow
LT0
1605 4544 M
447 0 V
775 3847 M
88 7 V
87 11 V
88 12 V
87 14 V
88 16 V
87 18 V
87 19 V
88 20 V
87 22 V
88 22 V
87 24 V
88 24 V
87 25 V
87 26 V
88 27 V
87 27 V
88 28 V
87 28 V
88 29 V
87 30 V
88 30 V
87 30 V
87 30 V
88 31 V
87 31 V
88 32 V
87 31 V
88 32 V
87 32 V
% End plot #2
% Begin plot #3
stroke
LT7
LCb setrgbcolor
1509 4449 M
[ [(Times-Roman) 90.0 0.0 true true 0 (SLY5*)]
] -30.0 MRshow
LT7
1605 4449 M
447 0 V
775 3840 M
88 -7 V
87 -10 V
88 -12 V
87 -14 V
88 -17 V
87 -19 V
87 -20 V
88 -22 V
87 -24 V
88 -26 V
87 -27 V
88 -29 V
87 -30 V
87 -32 V
88 -33 V
87 -35 V
88 -36 V
87 -38 V
88 -38 V
87 -40 V
88 -42 V
87 -42 V
87 -44 V
88 -45 V
87 -47 V
88 -47 V
87 -49 V
88 -50 V
87 -51 V
% End plot #3
% Begin plot #4
1.000 UP
stroke
1.000 UL
LT3
LCb setrgbcolor
1509 4354 M
[ [(Times-Roman) 90.0 0.0 true true 0 (Baldo)]
] -30.0 MRshow
LT3
990 3887 Box
1119 3913 Box
1279 3948 Box
1474 3995 Box
1709 4056 Box
1986 4134 Box
2309 4231 Box
2681 4350 Box
3107 4492 Box
1828 4354 Box
% End plot #4
% Begin plot #5
1.000 UL
LTa
688 3844 M
26 0 V
27 0 V
26 0 V
27 0 V
26 0 V
27 0 V
26 0 V
27 0 V
26 0 V
27 0 V
26 0 V
27 0 V
26 0 V
27 0 V
26 0 V
27 0 V
26 0 V
27 0 V
26 0 V
27 0 V
26 0 V
27 0 V
26 0 V
27 0 V
26 0 V
27 0 V
26 0 V
27 0 V
26 0 V
27 0 V
26 0 V
27 0 V
26 0 V
27 0 V
26 0 V
27 0 V
26 0 V
27 0 V
26 0 V
27 0 V
26 0 V
27 0 V
26 0 V
27 0 V
26 0 V
27 0 V
26 0 V
27 0 V
26 0 V
27 0 V
26 0 V
27 0 V
26 0 V
27 0 V
26 0 V
27 0 V
26 0 V
27 0 V
26 0 V
27 0 V
26 0 V
27 0 V
26 0 V
27 0 V
26 0 V
27 0 V
26 0 V
27 0 V
26 0 V
27 0 V
26 0 V
27 0 V
26 0 V
27 0 V
26 0 V
27 0 V
26 0 V
27 0 V
26 0 V
27 0 V
26 0 V
27 0 V
26 0 V
27 0 V
26 0 V
27 0 V
26 0 V
27 0 V
26 0 V
27 0 V
26 0 V
27 0 V
26 0 V
27 0 V
26 0 V
27 0 V
26 0 V
27 0 V
26 0 V
% End plot #5
stroke
LTb
688 4847 N
0 -2007 V
2623 0 V
0 2007 V
-2623 0 V
Z stroke
1.000 UP
1.000 UL
LTb
1.000 UL
LTb
4288 2840 M
63 0 V
2560 0 R
-63 0 V
stroke
4192 2840 M
[ [(Times-Roman) 160.0 0.0 true true 0 (-5)]
] -53.3 MRshow
1.000 UL
LTb
4288 3509 M
63 0 V
2560 0 R
-63 0 V
stroke
4192 3509 M
[ [(Times-Roman) 160.0 0.0 true true 0 ( 0)]
] -53.3 MRshow
1.000 UL
LTb
4288 4178 M
63 0 V
2560 0 R
-63 0 V
stroke
4192 4178 M
[ [(Times-Roman) 160.0 0.0 true true 0 ( 5)]
] -53.3 MRshow
1.000 UL
LTb
4288 4847 M
63 0 V
2560 0 R
-63 0 V
stroke
4192 4847 M
[ [(Times-Roman) 160.0 0.0 true true 0 ( 10)]
] -53.3 MRshow
1.000 UL
LTb
4288 2840 M
0 63 V
0 1944 R
0 -63 V
stroke
4288 2680 M
[ [(Times-Roman) 160.0 0.0 true true 0 ( 0)]
] -53.3 MCshow
1.000 UL
LTb
5162 2840 M
0 63 V
0 1944 R
0 -63 V
stroke
5162 2680 M
[ [(Times-Roman) 160.0 0.0 true true 0 ( 0.1)]
] -53.3 MCshow
1.000 UL
LTb
6037 2840 M
0 63 V
0 1944 R
0 -63 V
stroke
6037 2680 M
[ [(Times-Roman) 160.0 0.0 true true 0 ( 0.2)]
] -53.3 MCshow
1.000 UL
LTb
6911 2840 M
0 63 V
0 1944 R
0 -63 V
stroke
6911 2680 M
[ [(Times-Roman) 160.0 0.0 true true 0 ( 0.3)]
] -53.3 MCshow
1.000 UL
LTb
1.000 UL
LTb
4288 4847 N
0 -2007 V
2623 0 V
0 2007 V
-2623 0 V
Z stroke
LCb setrgbcolor
3728 3843 M
currentpoint gsave translate -270 rotate 0 0 moveto
[ [(Times-Roman) 160.0 0.0 true true 0 (ST channel energy in SNM \(MeV\))]
] -53.3 MCshow
grestore
LTb
1.000 UP
4393 3121 M
[ [(Times-Roman) 140.0 0.0 true true 0 (S=1,T=1)]
] -46.7 MLshow
1.000 UL
LTb
% Begin plot #1
2.500 UL
LTa
4375 3512 M
88 7 V
87 9 V
88 11 V
87 14 V
88 16 V
87 17 V
87 19 V
88 21 V
87 23 V
88 24 V
87 25 V
88 27 V
87 29 V
87 29 V
88 31 V
87 33 V
88 34 V
87 35 V
88 36 V
87 38 V
88 38 V
87 40 V
87 41 V
88 43 V
87 43 V
88 45 V
87 45 V
88 47 V
87 48 V
% End plot #1
% Begin plot #2
stroke
LT0
4375 3509 M
88 -1 V
87 0 V
88 0 V
87 1 V
88 2 V
87 2 V
87 4 V
88 4 V
87 6 V
88 6 V
87 8 V
88 9 V
87 11 V
87 12 V
88 13 V
87 14 V
88 16 V
87 18 V
88 19 V
87 21 V
88 22 V
87 24 V
87 26 V
88 27 V
87 30 V
88 30 V
87 33 V
88 35 V
87 36 V
% End plot #2
% Begin plot #3
stroke
LT7
4375 3507 M
88 -3 V
87 -5 V
88 -6 V
87 -7 V
88 -8 V
87 -9 V
87 -10 V
88 -11 V
87 -12 V
88 -13 V
87 -13 V
88 -14 V
87 -15 V
87 -16 V
88 -16 V
87 -17 V
88 -17 V
87 -19 V
88 -19 V
87 -19 V
88 -21 V
87 -21 V
87 -21 V
88 -22 V
87 -23 V
88 -23 V
87 -24 V
88 -25 V
87 -25 V
% End plot #3
% Begin plot #4
1.000 UP
stroke
1.000 UL
LT3
/Times-Roman findfont 160 scalefont setfont
/vshift -53 def
4590 3493 Box
4719 3483 Box
4879 3474 Box
5074 3465 Box
5309 3467 Box
5586 3488 Box
5909 3539 Box
6281 3635 Box
6707 3792 Box
% End plot #4
% Begin plot #5
1.000 UL
LTa
4288 3509 M
26 0 V
27 0 V
26 0 V
27 0 V
26 0 V
27 0 V
26 0 V
27 0 V
26 0 V
27 0 V
26 0 V
27 0 V
26 0 V
27 0 V
26 0 V
27 0 V
26 0 V
27 0 V
26 0 V
27 0 V
26 0 V
27 0 V
26 0 V
27 0 V
26 0 V
27 0 V
26 0 V
27 0 V
26 0 V
27 0 V
26 0 V
27 0 V
26 0 V
27 0 V
26 0 V
27 0 V
26 0 V
27 0 V
26 0 V
27 0 V
26 0 V
27 0 V
26 0 V
27 0 V
26 0 V
27 0 V
26 0 V
27 0 V
26 0 V
27 0 V
26 0 V
27 0 V
26 0 V
27 0 V
26 0 V
27 0 V
26 0 V
27 0 V
26 0 V
27 0 V
26 0 V
27 0 V
26 0 V
27 0 V
26 0 V
27 0 V
26 0 V
27 0 V
26 0 V
27 0 V
26 0 V
27 0 V
26 0 V
27 0 V
26 0 V
27 0 V
26 0 V
27 0 V
26 0 V
27 0 V
26 0 V
27 0 V
26 0 V
27 0 V
26 0 V
27 0 V
26 0 V
27 0 V
26 0 V
27 0 V
26 0 V
27 0 V
26 0 V
27 0 V
26 0 V
27 0 V
26 0 V
27 0 V
26 0 V
% End plot #5
stroke
LTb
4288 4847 N
0 -2007 V
2623 0 V
0 2007 V
-2623 0 V
Z stroke
1.000 UP
1.000 UL
LTb
1.000 UL
LTb
688 672 M
63 0 V
2560 0 R
-63 0 V
stroke
592 672 M
[ [(Times-Roman) 160.0 0.0 true true 0 (-25)]
] -53.3 MRshow
1.000 UL
LTb
688 1003 M
63 0 V
2560 0 R
-63 0 V
stroke
592 1003 M
[ [(Times-Roman) 160.0 0.0 true true 0 (-20)]
] -53.3 MRshow
1.000 UL
LTb
688 1334 M
63 0 V
2560 0 R
-63 0 V
stroke
592 1334 M
[ [(Times-Roman) 160.0 0.0 true true 0 (-15)]
] -53.3 MRshow
1.000 UL
LTb
688 1666 M
63 0 V
2560 0 R
-63 0 V
stroke
592 1666 M
[ [(Times-Roman) 160.0 0.0 true true 0 (-10)]
] -53.3 MRshow
1.000 UL
LTb
688 1997 M
63 0 V
2560 0 R
-63 0 V
stroke
592 1997 M
[ [(Times-Roman) 160.0 0.0 true true 0 (-5)]
] -53.3 MRshow
1.000 UL
LTb
688 2328 M
63 0 V
2560 0 R
-63 0 V
stroke
592 2328 M
[ [(Times-Roman) 160.0 0.0 true true 0 ( 0)]
] -53.3 MRshow
1.000 UL
LTb
688 672 M
0 63 V
0 1593 R
0 -63 V
stroke
688 512 M
[ [(Times-Roman) 160.0 0.0 true true 0 ( 0)]
] -53.3 MCshow
1.000 UL
LTb
1562 672 M
0 63 V
0 1593 R
0 -63 V
stroke
1562 512 M
[ [(Times-Roman) 160.0 0.0 true true 0 ( 0.1)]
] -53.3 MCshow
1.000 UL
LTb
2437 672 M
0 63 V
0 1593 R
0 -63 V
stroke
2437 512 M
[ [(Times-Roman) 160.0 0.0 true true 0 ( 0.2)]
] -53.3 MCshow
1.000 UL
LTb
3311 672 M
0 63 V
0 1593 R
0 -63 V
stroke
3311 512 M
[ [(Times-Roman) 160.0 0.0 true true 0 ( 0.3)]
] -53.3 MCshow
1.000 UL
LTb
1.000 UL
LTb
688 2328 N
688 672 L
2623 0 V
0 1656 V
-2623 0 V
Z stroke
LCb setrgbcolor
128 1500 M
currentpoint gsave translate -270 rotate 0 0 moveto
[ [(Times-Roman) 160.0 0.0 true true 0 (ST channel energy in SNM \(MeV\))]
] -53.3 MCshow
grestore
LTb
LCb setrgbcolor
1999 272 M
[ [(Symbol) 160.0 0.0 true true 0 (r)]
[(Times-Roman) 128.0 -48.0 true true 0 (0)]
[(Times-Roman) 160.0 0.0 true true 0 ( [fm)]
[(Times-Roman) 128.0 80.0 true true 0 (-3)]
[(Times-Roman) 160.0 0.0 true true 0 (])]
] -53.3 MCshow
LTb
1.000 UP
793 904 M
[ [(Times-Roman) 140.0 0.0 true true 0 (S=0,T=1)]
] -46.7 MLshow
1.000 UL
LTb
% Begin plot #1
2.500 UL
LTa
775 2259 M
88 -73 V
87 -72 V
88 -71 V
87 -70 V
88 -68 V
87 -66 V
87 -64 V
88 -62 V
87 -61 V
88 -58 V
87 -56 V
88 -54 V
87 -53 V
87 -50 V
88 -48 V
87 -46 V
88 -44 V
87 -42 V
88 -40 V
87 -38 V
88 -36 V
87 -34 V
87 -32 V
88 -30 V
87 -28 V
88 -27 V
87 -24 V
88 -22 V
87 -20 V
% End plot #1
% Begin plot #2
stroke
LT0
775 2238 M
88 -91 V
87 -87 V
88 -84 V
87 -80 V
88 -77 V
87 -74 V
87 -69 V
88 -67 V
87 -63 V
88 -60 V
87 -57 V
88 -54 V
87 -51 V
87 -49 V
88 -45 V
87 -43 V
88 -39 V
87 -38 V
88 -35 V
87 -32 V
88 -30 V
87 -27 V
87 -26 V
88 -23 V
87 -20 V
88 -19 V
87 -16 V
88 -15 V
87 -12 V
% End plot #2
% Begin plot #3
stroke
LT7
775 2225 M
88 -95 V
87 -89 V
88 -84 V
87 -80 V
88 -75 V
87 -72 V
87 -68 V
88 -65 V
87 -62 V
88 -58 V
87 -56 V
88 -53 V
87 -50 V
87 -47 V
88 -45 V
87 -42 V
88 -39 V
87 -38 V
88 -34 V
87 -32 V
88 -30 V
87 -28 V
87 -25 V
88 -23 V
87 -21 V
88 -19 V
87 -16 V
88 -15 V
87 -12 V
% End plot #3
% Begin plot #4
1.000 UP
stroke
1.000 UL
LT3
/Times-Roman findfont 160 scalefont setfont
990 1947 Box
1119 1834 Box
1279 1711 Box
1474 1580 Box
1709 1444 Box
1986 1301 Box
2309 1161 Box
2681 1034 Box
3107 931 Box
% End plot #4
1.000 UL
LTb
688 2328 N
688 672 L
2623 0 V
0 1656 V
-2623 0 V
Z stroke
1.000 UP
1.000 UL
LTb
1.000 UL
LTb
4288 672 M
63 0 V
2560 0 R
-63 0 V
stroke
4192 672 M
[ [(Times-Roman) 160.0 0.0 true true 0 (-40)]
] -53.3 MRshow
1.000 UL
LTb
4288 879 M
63 0 V
2560 0 R
-63 0 V
stroke
4192 879 M
[ [(Times-Roman) 160.0 0.0 true true 0 (-35)]
] -53.3 MRshow
1.000 UL
LTb
4288 1086 M
63 0 V
2560 0 R
-63 0 V
stroke
4192 1086 M
[ [(Times-Roman) 160.0 0.0 true true 0 (-30)]
] -53.3 MRshow
1.000 UL
LTb
4288 1293 M
63 0 V
2560 0 R
-63 0 V
stroke
4192 1293 M
[ [(Times-Roman) 160.0 0.0 true true 0 (-25)]
] -53.3 MRshow
1.000 UL
LTb
4288 1500 M
63 0 V
2560 0 R
-63 0 V
stroke
4192 1500 M
[ [(Times-Roman) 160.0 0.0 true true 0 (-20)]
] -53.3 MRshow
1.000 UL
LTb
4288 1707 M
63 0 V
2560 0 R
-63 0 V
stroke
4192 1707 M
[ [(Times-Roman) 160.0 0.0 true true 0 (-15)]
] -53.3 MRshow
1.000 UL
LTb
4288 1914 M
63 0 V
2560 0 R
-63 0 V
stroke
4192 1914 M
[ [(Times-Roman) 160.0 0.0 true true 0 (-10)]
] -53.3 MRshow
1.000 UL
LTb
4288 2121 M
63 0 V
2560 0 R
-63 0 V
stroke
4192 2121 M
[ [(Times-Roman) 160.0 0.0 true true 0 (-5)]
] -53.3 MRshow
1.000 UL
LTb
4288 2328 M
63 0 V
2560 0 R
-63 0 V
stroke
4192 2328 M
[ [(Times-Roman) 160.0 0.0 true true 0 ( 0)]
] -53.3 MRshow
1.000 UL
LTb
4288 672 M
0 63 V
0 1593 R
0 -63 V
stroke
4288 512 M
[ [(Times-Roman) 160.0 0.0 true true 0 ( 0)]
] -53.3 MCshow
1.000 UL
LTb
5162 672 M
0 63 V
0 1593 R
0 -63 V
stroke
5162 512 M
[ [(Times-Roman) 160.0 0.0 true true 0 ( 0.1)]
] -53.3 MCshow
1.000 UL
LTb
6037 672 M
0 63 V
0 1593 R
0 -63 V
stroke
6037 512 M
[ [(Times-Roman) 160.0 0.0 true true 0 ( 0.2)]
] -53.3 MCshow
1.000 UL
LTb
6911 672 M
0 63 V
0 1593 R
0 -63 V
stroke
6911 512 M
[ [(Times-Roman) 160.0 0.0 true true 0 ( 0.3)]
] -53.3 MCshow
1.000 UL
LTb
1.000 UL
LTb
4288 2328 N
0 -1656 V
2623 0 V
0 1656 V
-2623 0 V
Z stroke
LCb setrgbcolor
3728 1500 M
currentpoint gsave translate -270 rotate 0 0 moveto
[ [(Times-Roman) 160.0 0.0 true true 0 (ST channel energy in SNM \(MeV\))]
] -53.3 MCshow
grestore
LTb
LCb setrgbcolor
5599 272 M
[ [(Symbol) 160.0 0.0 true true 0 (r)]
[(Times-Roman) 128.0 -48.0 true true 0 (0)]
[(Times-Roman) 160.0 0.0 true true 0 ( [fm)]
[(Times-Roman) 128.0 80.0 true true 0 (-3)]
[(Times-Roman) 160.0 0.0 true true 0 (])]
] -53.3 MCshow
LTb
1.000 UP
4393 904 M
[ [(Times-Roman) 140.0 0.0 true true 0 (S=1,T=0)]
] -46.7 MLshow
1.000 UL
LTb
% Begin plot #1
2.500 UL
LTa
4375 2194 M
88 -109 V
87 -96 V
88 -86 V
87 -80 V
88 -73 V
87 -68 V
87 -64 V
88 -59 V
87 -56 V
88 -53 V
87 -50 V
88 -47 V
87 -45 V
87 -42 V
88 -40 V
87 -38 V
88 -36 V
87 -35 V
88 -32 V
87 -31 V
88 -30 V
87 -28 V
87 -27 V
88 -25 V
87 -24 V
88 -23 V
87 -22 V
88 -21 V
87 -19 V
% End plot #1
% Begin plot #2
stroke
LT0
4375 2194 M
88 -107 V
87 -93 V
88 -84 V
87 -77 V
88 -71 V
87 -66 V
87 -62 V
88 -58 V
87 -55 V
88 -52 V
87 -49 V
88 -46 V
87 -45 V
87 -42 V
88 -41 V
87 -38 V
88 -37 V
87 -35 V
88 -34 V
87 -32 V
88 -31 V
87 -29 V
87 -29 V
88 -27 V
87 -26 V
88 -24 V
87 -24 V
88 -23 V
87 -22 V
% End plot #2
% Begin plot #3
stroke
LT7
4375 2178 M
88 -107 V
87 -86 V
88 -72 V
87 -59 V
88 -50 V
87 -40 V
87 -33 V
88 -25 V
87 -19 V
88 -13 V
87 -7 V
88 -2 V
87 4 V
87 8 V
88 12 V
87 17 V
88 22 V
87 25 V
88 29 V
87 33 V
88 37 V
87 40 V
87 43 V
88 47 V
87 50 V
88 54 V
87 56 V
88 59 V
87 62 V
% End plot #3
% Begin plot #4
1.000 UP
stroke
1.000 UL
LT3
/Times-Roman findfont 160 scalefont setfont
4590 1906 Box
4719 1799 Box
4879 1687 Box
5074 1568 Box
5309 1446 Box
5586 1313 Box
5909 1176 Box
6281 1037 Box
6707 904 Box
% End plot #4
1.000 UL
LTb
4288 2328 N
0 -1656 V
2623 0 V
0 1656 V
-2623 0 V
Z stroke
1.000 UP
1.000 UL
LTb
stroke
grestore
end
showpage
%%Trailer
%%DocumentFonts: Symbol Times-Roman
%%Pages: 1
