\relax 
\citation{ben03}
\citation{sky59}
\citation{dec80}
\citation{gor09,gor09b}
\citation{ber07,ter08}
\citation{ben09,lac09,dug09}
\citation{nur13}
\citation{per04}
\citation{nak03}
\citation{dec80}
\citation{car08,rai11}
\citation{kor13}
\citation{car10}
\citation{nak03}
\newlabel{FirstPage}{{}{1}{}{}{}}
\@writefile{toc}{\contentsline {section}{\numberline {I}Introduction}{1}{}}
\@writefile{toc}{\contentsline {section}{\numberline {II}Effective NN interactions}{1}{}}
\@writefile{toc}{\contentsline {subsection}{\numberline {A}M3Y}{1}{}}
\newlabel{eq:m3y}{{1}{1}{}{}{}}
\citation{ben03}
\citation{nak03}
\citation{nak03}
\citation{vau72}
\citation{nak08}
\citation{dec80}
\citation{sky59}
\citation{ben03}
\@writefile{toc}{\contentsline {subsection}{\numberline {B}Gogny}{2}{}}
\newlabel{eq:m3y}{{11}{2}{}{}{}}
\citation{ben03}
\citation{cha15}
\citation{Ang11,Ang12,Gra13}
\citation{Gra13}
\citation{dut12}
\citation{bal97}
\citation{heb11,gez13}
\citation{bog05,rot08}
\citation{bal12}
\@writefile{toc}{\contentsline {section}{\numberline {III}Equation of state}{3}{}}
\@writefile{toc}{\contentsline {subsection}{\numberline {A}Symmetric Nuclear Matter}{3}{}}
\newlabel{sec:SNM}{{III\tmspace  +\thinmuskip {.1667em}A}{3}{}{}{}}
\newlabel{eq:hf}{{16}{3}{}{}{}}
\citation{abr64}
\citation{nak03,nak08,Nak13}
\citation{dec80,cha08,gor09b}
\citation{bal97}
\citation{bal97}
\citation{nak03,nak08,Nak13}
\citation{bal97}
\citation{sel14}
\citation{bal97}
\citation{bal97}
\@writefile{lof}{\contentsline {figure}{\numberline {1}{\ignorespaces (Colors online) Equations of state of SNM for the M3Y (panel a) and Gogny (panel b). The solid lines represent the result obtained with the two effective interaction discussed in this article interactions while the dots represents the EoS obtained by \cite  {bal97}.}}{4}{}}
\newlabel{EoS}{{1}{4}{}{}{}}
\@writefile{toc}{\contentsline {subsection}{\numberline {B}Pure Neutron Matter}{4}{}}
\citation{les07}
\citation{bal97}
\citation{bal97}
\citation{bal97}
\@writefile{lof}{\contentsline {figure}{\numberline {2}{\ignorespaces (Colors online) Equations of state of PNM for M3Y (panel a) and Gogny (panel b). The solid lines represent the result obtained with the M3Y interactions while the dots represents the EoS obtained by \cite  {bal97}.}}{5}{}}
\newlabel{EoS}{{2}{5}{}{}{}}
\@writefile{toc}{\contentsline {subsection}{\numberline {C}Asymmetric Nuclear Matter}{5}{}}
\@writefile{toc}{\contentsline {section}{\numberline {IV}ST channels}{5}{}}
\citation{bal97}
\citation{bal97}
\citation{dav14k}
\citation{car08,rai11,dav14c}
\@writefile{lof}{\contentsline {figure}{\numberline {3}{\ignorespaces (Colors online) Projections on the $(S,T)$ channels of the EoS expressed in MeV. The solid lines represent the result obtained with the M3Y interactions while the dots represents the EoS obtained by \cite  {bal97}. The legend is the same as in Fig.2{}{}{}\hbox {}.}}{6}{}}
\newlabel{STchannel}{{3}{6}{}{}{}}
\@writefile{lof}{\contentsline {figure}{\numberline {4}{\ignorespaces (Colors online) Projections on the $(S,T)$ channels of the EoS expressed in MeV. The solid lines represent the result obtained with the Gogny interactions while the dots represents the EoS obtained by \cite  {bal97}. The legend is the same as in Fig.2{}{}{}\hbox {}.}}{6}{}}
\newlabel{STchannel:gogny}{{4}{6}{}{}{}}
\@writefile{toc}{\contentsline {section}{\numberline {V}Partial wave decomposition}{6}{}}
\citation{Dav15}
\citation{bal97}
\citation{bal97}
\citation{bal97}
\citation{bal97}
\@writefile{toc}{\contentsline {subsection}{\numberline {A}M3Y}{7}{}}
\citation{bal97}
\citation{bal97}
\@writefile{lof}{\contentsline {figure}{\numberline {5}{\ignorespaces (Colors online) Partial wave decomposition of EoS in SNM for the different M3Y interactions (solid lines) and the BHF calculations (dots)\nobreakspace  {}\cite  {bal97}}}{8}{}}
\newlabel{JLST}{{5}{8}{}{}{}}
\@writefile{toc}{\contentsline {subsection}{\numberline {B}Gogny}{8}{}}
\citation{bal97}
\citation{bal97}
\citation{nav13}
\citation{bay91}
\@writefile{lof}{\contentsline {figure}{\numberline {6}{\ignorespaces (Colors online) Partial wave decomposition of EoS in SNM for the M3Y-P2 and M3Y-P7 interactions (solid lines) and the BHF calculations (dots)\nobreakspace  {}\cite  {bal97}}}{9}{}}
\newlabel{JLST:ten:so}{{6}{9}{}{}{}}
\citation{prep}
\citation{bri05}
\citation{cham08}
\citation{sel14}
\@writefile{lof}{\contentsline {figure}{\numberline {7}{\ignorespaces (Colors online) Partial wave decomposition of EoS in SNM for the different Gogny interactions (solid lines) and the BHF calculations (dots)\nobreakspace  {}\cite  {bal97}}}{10}{}}
\newlabel{JLST:gog}{{7}{10}{}{}{}}
\@writefile{toc}{\contentsline {section}{\numberline {VI}Symmetry energy}{10}{}}
\@writefile{toc}{\contentsline {section}{\numberline {VII}Effective mass}{10}{}}
\@writefile{toc}{\contentsline {section}{\numberline {VIII}Landau parameters}{10}{}}
\@writefile{toc}{\contentsline {section}{\numberline {IX}Superfluidity}{10}{}}
\citation{Sed03}
\citation{rin80}
\citation{sky59}
\@writefile{lof}{\contentsline {figure}{\numberline {8}{\ignorespaces (Colors online) }}{11}{}}
\newlabel{pairing}{{8}{11}{}{}{}}
\citation{rai11,dav14c}
\citation{rai11b}
\citation{dav14c}
\@writefile{toc}{\contentsline {section}{\numberline {X}Neutron Stars}{12}{}}
\@writefile{toc}{\contentsline {section}{\numberline {XI}From finite-range to zero-range}{12}{}}
\@writefile{toc}{\contentsline {subsection}{\numberline {A}M3Y}{12}{}}
\newlabel{central:kk}{{57}{12}{}{}{}}
\newlabel{eq:vcen|:exp}{{58}{12}{}{}{}}
\newlabel{eq:vtenkk}{{60}{12}{}{}{}}
\newlabel{eq:teto}{{61}{12}{}{}{}}
\citation{rai11,Dav15}
\citation{dav13}
\citation{rai11}
\citation{nak08}
\newlabel{central:kk}{{64}{13}{}{}{}}
\newlabel{central:kk}{{65}{13}{}{}{}}
\@writefile{toc}{\contentsline {subsection}{\numberline {B}Gogny}{13}{}}
\@writefile{toc}{\contentsline {section}{\numberline {XII}Conclusions}{13}{}}
\@writefile{toc}{\contentsline {section}{\numberline {}Acknowledgments}{13}{}}
\@writefile{toc}{\appendix }
\@writefile{toc}{\contentsline {section}{\numberline {A}Density Dependent term for M3Y interaction}{13}{}}
\newlabel{app:dd}{{A}{13}{}{}{}}
\@writefile{toc}{\contentsline {section}{\numberline {B}Finite range tensor}{14}{}}
\newlabel{app:tens}{{B}{14}{}{}{}}
\@writefile{toc}{\contentsline {section}{\numberline {C}Special functions: M3Y}{14}{}}
\newlabel{app:aux}{{C}{14}{}{}{}}
\citation{abr64}
\@writefile{toc}{\contentsline {section}{\numberline {D}Special functions: Gogny}{15}{}}
\newlabel{app:aux2}{{D}{15}{}{}{}}
\citation{abr64}
\bibdata{biblio}
\bibcite{ben03}{{1}{2003}{{Bender et~al.}}{{Bender, Heenen, and Reinhard}}}
\bibcite{sky59}{{2}{1959}{{Skyrme}}{{}}}
\bibcite{dec80}{{3}{1980}{{Decharg{\'e} and Gogny}}{{}}}
\bibcite{gor09}{{4}{2009{}}{{Goriely et~al.}}{{Goriely, Chamel, and Pearson}}}
\bibcite{gor09b}{{5}{2009{}}{{Goriely et~al.}}{{Goriely, Hilaire, Girod, and P\'eru}}}
\bibcite{ber07}{{6}{2007}{{Bertsch et~al.}}{{Bertsch, Girod, Hilaire, Delaroche, Goutte, and P\'eru}}}
\bibcite{ter08}{{7}{2008}{{Terasaki et~al.}}{{Terasaki, Engel, and Bertsch}}}
\bibcite{ben09}{{8}{2009}{{Bender et~al.}}{{Bender, Duguet, and Lacroix}}}
\bibcite{lac09}{{9}{2009}{{Lacroix et~al.}}{{Lacroix, Duguet, and Bender}}}
\bibcite{dug09}{{10}{2009}{{Duguet et~al.}}{{Duguet, Bender, Bennaceur, Lacroix, and Lesinski}}}
\bibcite{nur13}{{11}{2013}{{Vaquero et~al.}}{{Vaquero, Egido, and Rodr\'{\i }guez}}}
\bibcite{per04}{{12}{2004}{{Perli\'{n}{}ska et~al.}}{{Perli\'{n}{}ska, Rohozi\'{n}{}ski, Dobaczewski, and Nazarewicz}}}
\bibcite{nak03}{{13}{2003}{{Nakada}}{{}}}
\bibcite{car08}{{14}{2008}{{Carlsson et~al.}}{{Carlsson, Dobaczewski, and Kortelainen}}}
\bibcite{rai11}{{15}{2011{}}{{Raimondi et~al.}}{{Raimondi, Carlsson, and Dobaczewski}}}
\bibcite{kor13}{{16}{2014}{{Kortelainen et~al.}}{{Kortelainen, McDonnell, Nazarewicz, Olsen, Reinhard, Sarich, Schunck, Wild, Davesne, Erler et~al.}}}
\bibcite{car10}{{17}{2010}{{Carlsson and Dobaczewski}}{{}}}
\bibcite{vau72}{{18}{1972}{{Vautherin and Brink}}{{}}}
\bibcite{nak08}{{19}{2008}{{Nakada}}{{}}}
\bibcite{cha15}{{20}{2015}{{Chappert et~al.}}{{Chappert, Pillet, Girod, and Berger}}}
\bibcite{Ang11}{{21}{2011}{{Anguiano et~al.}}{{Anguiano, Co', De~Donno, and Lallena}}}
\bibcite{Ang12}{{22}{2012}{{Anguiano et~al.}}{{Anguiano, Grasso, Co', De~Donno, and Lallena}}}
\bibcite{Gra13}{{23}{2013}{{Grasso and Anguiano}}{{}}}
\bibcite{dut12}{{24}{2012}{{Dutra et~al.}}{{Dutra, Louren\c {c}{}o, S\'a~Martins, Delfino, Stone, and Stevenson}}}
\bibcite{bal97}{{25}{1997}{{Baldo et~al.}}{{Baldo, Bombaci, and Burgio}}}
\bibcite{heb11}{{26}{2011}{{Hebeler et~al.}}{{Hebeler, Bogner, Furnstahl, Nogga, and Schwenk}}}
\bibcite{gez13}{{27}{2013}{{Gezerlis et~al.}}{{Gezerlis, Tews, Epelbaum, Gandolfi, Hebeler, Nogga, and Schwenk}}}
\bibcite{bog05}{{28}{2005}{{Bogner et~al.}}{{Bogner, Schwenk, Furnstahl, and Nogga}}}
\bibcite{rot08}{{29}{2008}{{Rotival}}{{}}}
\bibcite{bal12}{{30}{2012}{{Baldo et~al.}}{{Baldo, Polls, Rios, Schulze, and Vida\~na}}}
\bibcite{abr64}{{31}{1964}{{Abramowitz and Stegun}}{{}}}
\bibcite{Nak13}{{32}{2013}{{Nakada}}{{}}}
\bibcite{cha08}{{33}{2008}{{Chappert et~al.}}{{Chappert, Girod, and Hilaire}}}
\bibcite{sel14}{{34}{2014}{{Sellahewa and Rios}}{{}}}
\bibcite{les07}{{35}{2007}{{Lesinski et~al.}}{{Lesinski, Bender, Bennaceur, Duguet, and Meyer}}}
\bibcite{dav14k}{{36}{2015{}}{{Davesne et~al.}}{{Davesne, Meyer, Pastore, and Navarro}}}
\bibcite{dav14c}{{37}{2014}{{Davesne et~al.}}{{Davesne, Pastore, and Navarro}}}
\bibcite{Dav15}{{38}{2015{}}{{Davesne et~al.}}{{Davesne, Navarro, Becker, Jodon, Meyer, and Pastore}}}
\bibcite{nav13}{{39}{2013}{{Navarro and Polls}}{{}}}
\bibcite{bay91}{{40}{1991}{{Baym and Pethick}}{{}}}
\bibcite{prep}{{41}{2014}{{Pastore et~al.}}{{Pastore, Davesne, and Navarro}}}
\bibcite{bri05}{{42}{2005}{{Brink and Broglia}}{{}}}
\bibcite{cham08}{{43}{2008}{{Chamel and Haensel}}{{}}}
\@writefile{toc}{\contentsline {section}{\numberline {}References}{16}{}}
\bibcite{rin80}{{44}{1980}{{P.Ring and P.Schuck}}{{}}}
\bibcite{rai11b}{{45}{2011{}}{{Raimondi et~al.}}{{Raimondi, Carlsson, Dobaczewski, and Toivanen}}}
\bibcite{dav13}{{46}{2013}{{Davesne et~al.}}{{Davesne, Pastore, and Navarro}}}
\global \chardef \firstnote@num46\relax 
\bibstyle{apsrev}
\newlabel{LastBibItem}{{46}{17}{}{}{}}
\newlabel{LastPage}{{}{17}}
